<Sentence id='1'>
1	((	NP	<fs name='NP' drel='r6:NP2'>
1.1	aBinaya	NN	<fs af='aBinaya,n,m,sg,3,o,0,0' name='aBinaya' posn='10'>
1.2	ke	PSP	<fs af='kA,psp,m,sg,,o,,' name='ke' posn='20'>
	))
2	((	NP	<fs name='NP2' drel='k7p:VGNF'>
2.1	kRewra	NN	<fs af='kRewra,n,m,sg,3,o,0,0' name='kRewra' posn='30'>
2.2	meM	PSP	<fs af='meM,psp,,,,,,' name='meM' posn='40'>
	))
3	((	NP	<fs name='NP3' drel='k2:VGNF'>
3.1	kaI	QF	<fs af='kaI,avy,,,,,,' name='kaI' posn='50'>
3.2	SiKara	NN	<fs af='SiKara,n,m,sg,3,d,0,0' name='SiKara' posn='60'>
	))
4	((	NP	<fs name='NP4' drel='pof:VGNF'>
4.1	pAra	NN	<fs af='pAra,n,m,sg,3,d,0,0' name='pAra' posn='70'>
	))
5	((	VGNF	<fs name='VGNF' drel='nmod__k1inv:NP5'>
5.1	kara	VM	<fs af='kara,v,any,any,any,,0,0' name='kara' posn='80'>
5.2	cuke	VAUX	<fs af='cuka,v,m,sg,3h,,yA,yA' name='cuke' posn='90'>
	))
6	((	NP	<fs name='NP5' drel='ccof:CCP'>
6.1	biga	NNPC	<fs af='biga,n,m,sg,3,d,0,0' name='biga' posn='100'>
6.2	bI	NNP	<fs af='bI,n,m,sg,3,o,0,0' name='bI' posn='110'>
	))
7	((	CCP	<fs name='CCP' drel='rs:NP6'>
7.1	yAni	CC	<fs af='yAni,avy,,,,,,' name='yAni' posn='120'>
	))
8	((	NP	<fs name='NP6' drel='k4a:VGF'>
8.1	amiwABa	NNPC	<fs af='amiwABa,n,m,sg,3,d,0,0' name='amiwABa' posn='130'>
8.2	baccana	NNP	<fs af='baccana,n,m,sg,3,o,0,0' name='baccana' posn='140'>
8.3	ko	PSP	<fs af='ko,psp,,,,,,' name='ko' posn='150'>
	))
9	((	NP	<fs name='NP7' drel='k7t:VGF'>
9.1	Aja	NN	<fs af='Aja,n,m,sg,3,d,0,0' name='Aja' posn='160'>
9.2	BI	RP	<fs af='BI,avy,,,,,,' name='BI' posn='170'>
	))
10	((	NP	<fs name='NP8' drel='r6:NP9'>
10.1	isa	DEM	<fs af='yaha,pn,any,sg,3,o,,' name='isa' posn='180'>
10.2	bAwa	NN	<fs af='bAwa,n,f,sg,3,o,0,0' name='bAwa' posn='190'>
10.3	kA	PSP	<fs af='kA,psp,m,sg,,d,,' name='kA' posn='200'>
	))
11	((	NP	<fs name='NP9' drel='k1:VGF'>
11.1	malAla	NN	<fs af='malAla,n,m,sg,3,d,0,0' name='malAla' posn='210'>
	))
12	((	VGF	<fs name='VGF' stype='declarative' voicetype='active'>
12.1	hE	VM	<fs af='hE,v,any,sg,3,,hE,hE' name='hE' posn='220'>
	))
13	((	CCP	<fs name='CCP2' drel='rs:NP8'>
13.1	ki	CC	<fs af='ki,avy,,,,,,' name='ki' posn='230'>
	))
14	((	NP	<fs name='NP10' drel='k1:VGF2'>
14.1	ve	PRP	<fs af='vaha,pn,any,sg,3h,d,0,0' name='ve' posn='240'>
	))
15	((	NEGP	<fs name='NEGP' drel='fragof:VGF2'>
15.1	na	NEG	<fs af='na,avy,,,,,,' name='na' posn='250'>
	))
16	((	NP	<fs name='NP11' drel='k7p:VGF2'>
16.1	kisI	PRP	<fs af='koI,pn,any,sg,3,o,0,0' name='kisI' posn='260'>
16.2	EktiMga	NNC	<fs af='EktiMga,n,f,sg,3,d,0,0' name='EktiMga' posn='270'>
16.3	skUla	NN	<fs af='skUla,n,m,sg,3,o,0,0' name='skUla' posn='280'>
16.4	meM	PSP	<fs af='meM,psp,,,,,,' name='meM2' posn='290'>
	))
17	((	JJP	<fs name='JJP' drel='pof:VGF2'>
17.1	SAmila	JJ	<fs af='SAmila,adj,any,any,,,,' name='SAmila' posn='300'>
	))
18	((	VGF	<fs voicetype='active' name='VGF2' stype='declarative' drel='ccof:CCP3'>
18.1	ho	VM	<fs af='ho,v,any,any,any,,0,0' name='ho' posn='310'>
18.2	sake	VAUX	<fs af='saka,v,m,sg,3h,,yA,yA' name='sake' posn='320'>
	))
19	((	CCP	<fs name='CCP3' drel='ccof:CCP2'>
19.1	Ora	CC	<fs af='Ora,avy,,,,,,' name='Ora' posn='330'>
	))
20	((	NEGP	<fs name='NEGP2' drel='fragof:VGF3'>
20.1	na	NEG	<fs af='na,avy,,,,,,' name='na2' posn='340'>
20.2	hI	RP	<fs af='hI,avy,,,,,,' name='hI' posn='350'>
	))
21	((	NP	<fs name='NP12' drel='k1:VGF3'>
21.1	unhoMne	PRP	<fs af='vaha,pn,any,sg,3h,o,ne,ne' name='unhoMne' posn='360'>
	))
22	((	NP	<fs name='NP13' drel='ras-k1:VGF3'>
22.1	isa	DEM	<fs af='yaha,pn,any,sg,3,o,,' name='isa2' posn='370'>
22.2	kalA	NN	<fs af='kalA,n,f,sg,3,o,0,0' name='kalA' posn='380'>
22.3	se	PSP	<fs af='se,psp,,,,,,' name='se' posn='390'>
	))
23	((	VGNF	<fs name='VGNF2' drel='nmod__k1inv:NP14'>
23.1	judZe	VM	<fs af='juda,v,m,sg,any,,yA,yA' name='judZe' posn='400'>
	))
24	((	NP	<fs name='NP14' drel='r6-k2:NP15'>
24.1	kisI	PRP	<fs af='koI,pn,any,sg,3,o,0,0' name='kisI2' posn='410'>
24.2	pATyakrama	NN	<fs af='pATyakrama,n,m,sg,3,o,0,0' name='pATyakrama' posn='420'>
24.3	kI	PSP	<fs af='kA,psp,f,sg,,d,,' name='kI' posn='430'>
	))
25	((	NP	<fs name='NP15' drel='pof:VGF3'>
25.1	paDZAI	NN	<fs af='paDZAI,n,f,sg,any,d,0,0' name='paDZAI' posn='440'>
	))
26	((	VGF	<fs voicetype='active' name='VGF3' stype='declarative' drel='ccof:CCP3'>
26.1	kI	VM	<fs af='kara,v,f,sg,any,,yA,yA' name='kI2' posn='450'>
	))
27	((	BLK	<fs name='BLK' drel='rsym:VGF'>
27.1	.	SYM	<fs af='.,punc,,,,,,' name='.' posn='460'>
	))
</Sentence>

<Sentence id='2'>
1	((	NP	<fs name='NP' drel='k1:VGNN'>
1.1	unakA	PRP	<fs af='vaha,pn,m,sg,3h,o,kA,kA' name='unakA' posn='10'>
	))
2	((	VGNN	<fs name='VGNN' drel='k1:VGF'>
2.1	kahanA	VM	<fs af='kaha,v,any,any,any,d,nA,nA' name='kahanA' posn='20'>
	))
3	((	VGF	<fs name='VGF' stype='declarative' voicetype='active'>
3.1	hE	VM	<fs af='hE,v,any,sg,3,,hE,hE' name='hE' posn='30'>
	))
4	((	CCP	<fs name='CCP' drel='k2:VGNN'>
4.1	ki	CC	<fs af='ki,avy,,,,,,' name='ki' posn='40'>
	))
5	((	NP	<fs name='NP2' drel='k7p:VGNN2'>
5.1	EktiMga	NNC	<fs af='EktiMga,n,f,sg,3,d,0,0' name='EktiMga' posn='50'>
5.2	klAsa	NN	<fs af='klAsa,n,m,sg,3,o,0,0' name='klAsa' posn='60'>
5.3	meM	PSP	<fs af='meM,psp,,,,,,' name='meM' posn='70'>
	))
6	((	NP	<fs name='NP3' drel='r6:NP4'>
6.1	isakI	PRP	<fs af='yaha,pn,f,sg,3,o,kA,kA' name='isakI' posn='80'>
	))
7	((	NP	<fs name='NP4' drel='k2:VGNN2'>
7.1	bArIkiyoM	NN	<fs af='bArIkI,n,f,pl,3,o,0,0' name='bArIkiyoM' posn='90'>
7.2	ko	PSP	<fs af='ko,psp,,,,,,' name='ko' posn='100'>
	))
8	((	VGNN	<fs name='VGNN2' drel='r6:NP5'>
8.1	nahIM	NEG	<fs af='nahIM,avy,,,,,,' name='nahIM' posn='110'>
8.2	samaJa	VM	<fs af='samaJa,v,any,any,any,o,0,0' name='samaJa' posn='120'>
8.3	pAne	VAUX	<fs af='pA,v,any,any,any,o,nA,nA' name='pAne' posn='130'>
8.4	kA	PSP	<fs af='kA,psp,m,sg,,d,,' name='kA' posn='140'>
	))
9	((	NP	<fs name='NP5' drel='k4a:VGF2'>
9.1	unheM	PRP	<fs af='vaha,pn,any,sg,3h,o,ko,ko' name='unheM' posn='150'>
	))
10	((	NP	<fs name='NP6' drel='k1:VGF2'>
10.1	kAPI	QF	<fs af='kAPI,avy,,,,,,' name='kAPI' posn='160'>
10.2	xuKa	NN	<fs af='xuKa,n,m,sg,3,d,0,0' name='xuKa' posn='170'>
	))
11	((	VGF	<fs voicetype='active' name='VGF2' stype='declarative' drel='ccof:CCP'>
11.1	hE	VM	<fs af='hE,v,any,sg,3,,hE,hE' name='hE2' posn='180'>
	))
12	((	BLK	<fs name='BLK' drel='rsym:VGF'>
12.1	.	SYM	<fs af='.,punc,,,,,,' name='.' posn='190'>
	))
</Sentence>

<Sentence id='3'>
1	((	NP	<fs name='NP' drel='r6:NP2'>
1.1	seMsara	NNC	<fs af='seMsara,n,m,sg,3,d,0,0' name='seMsara' posn='10'>
1.2	borda	NN	<fs af='borda,n,m,sg,3,o,0,0' name='borda' posn='20'>
1.3	ke	PSP	<fs af='kA,psp,m,sg,,o,,' name='ke' posn='30'>
	))
2	((	NP	<fs name='NP2' drel='nmod:NP3'>
2.1	pUrva	JJ	<fs af='pUrva,adj,any,any,,o,,' name='pUrva' posn='40'>
2.2	aXyakRa	NN	<fs af='aXyakRa,n,m,sg,3,o,0,0' name='aXyakRa' posn='50'>
	))
3	((	NP	<fs name='NP3' drel='ras-k1:VGNF'>
3.1	anupama	NNPC	<fs af='anupama,n,m,sg,3,d,0,0' name='anupama' posn='60'>
3.2	Kera	NNP	<fs af='Kera,n,any,sg,3,o,0,0' name='Kera' posn='70'>
3.3	ke	PSP	<fs af='ke,psp,,,,,,' name='ke2' posn='80'>
3.4	sAWa	NST	<fs af='sAWa,nst,m,sg,3,d,,' name='sAWa' posn='90'>
	))
4	((	VGNF	<fs name='VGNF' drel='vmod:VGNF2'>
4.1	milakara	VM	<fs af='mila,v,any,any,any,,kara,kara' name='milakara' posn='100'>
	))
5	((	NP	<fs name='NP4' drel='adv:VGNF2'>
5.1	saMyukwa	JJ	<fs af='saMyukwa,adj,any,any,,o,,' name='saMyukwa' posn='110'>
5.2	rUpa	NN	<fs af='rUpa,n,m,sg,3,o,0,0' name='rUpa' posn='120'>
5.3	se	PSP	<fs af='se,psp,,,,,,' name='se' posn='130'>
	))
6	((	JJP	<fs name='JJP' drel='pof:VGNF2'>
6.1	sWApiwa	JJ	<fs af='sWApiwa,adj,any,any,,,,' name='sWApiwa' posn='140'>
	))
7	((	VGNF	<fs name='VGNF2' drel='nmod__k1inv:NP5'>
7.1	kie	VM	<fs af='kara,v,m,sg,any,,yA,yA' name='kie' posn='150'>
7.2	gae	VAUX	<fs af='jA,v,m,sg,any,,yA1,yA1' name='gae' posn='160'>
	))
8	((	NP	<fs name='NP5' drel='nmod:NP6'>
8.1	treniMga	NNC	<fs af='treniMga,n,f,sg,3,d,0,0' name='treniMga' posn='170'>
8.2	skUla	NN	<fs af='skUla,n,m,sg,3,d,0,0' name='skUla' posn='180'>
	))
9	((	NP	<fs name='NP6' drel='r6-k2:NP7'>
9.1	'	SYM	<fs af='SINGLE_QUOTE,punc,,,,d,,' name=''' posn='190'>
9.2	Ektara	NNPC	<fs af='Ektara,n,m,sg,3,d,0,0' name='Ektara' posn='200'>
9.3	pripeyara	NNP	<fs af='pripeyara,n,m,sg,3,o,0,0' name='pripeyara' posn='210'>
9.4	'	SYM	<fs af='SINGLE_QUOTE,punc,,,,,,' name=''2' posn='220'>
9.5	kA	PSP	<fs af='kA,psp,m,sg,,d,,' name='kA' posn='230'>
	))
10	((	NP	<fs name='NP7' drel='pof:VGNF3'>
10.1	uxGAtana	NN	<fs af='uxGAtana,n,m,sg,3,d,0,0' name='uxGAtana' posn='240'>
	))
11	((	VGNF	<fs name='VGNF3' drel='vmod:VGF'>
11.1	karawe	VM	<fs af='kara,v,m,sg,any,,wA,wA' name='karawe' posn='250'>
11.2	hue	VAUX	<fs af='ho,v,m,sg,any,,yA,yA' name='hue' posn='260'>
	))
12	((	NP	<fs name='NP8' drel='k1:VGF'>
12.1	biga	NNPC	<fs af='biga,n,m,sg,3,d,0,0' name='biga' posn='270'>
12.2	bI	NNP	<fs af='bI,n,m,sg,3,o,0,0' name='bI' posn='280'>
12.3	ne	PSP	<fs af='ne,psp,,,,,,' name='ne' posn='290'>
	))
13	((	VGF	<fs name='VGF' stype='declarative' voicetype='active'>
13.1	kahA	VM	<fs af='kaha,v,m,sg,any,,yA,yA' name='kahA' posn='300'>
13.2	,	SYM	<fs af='COMMA,punc,,,,,,' name=',' posn='310'>
	))
14	((	NP	<fs name='NP9' drel='k1:VGNF4'>
14.1	mEMne	PRP	<fs af='mEM,pn,any,sg,1,o,ne,ne' name='mEMne' posn='320'>
	))
15	((	NP	<fs name='NP10' drel='k7:VGNF4'>
15.1	kEriyara	NN	<fs af='kEriyara,n,m,sg,3,o,0,0' name='kEriyara' posn='330'>
15.2	ke	PSP	<fs af='ke,psp,,,,,,' name='ke3' posn='340'>
15.3	bAre	PSP	<fs af='bAre,psp,,,,,,' name='bAre' posn='350'>
15.4	meM	PSP	<fs af='meM,psp,,,,,,' name='meM' posn='360'>
	))
16	((	NP	<fs name='NP11' drel='ras-NEG:VGNF4'>
16.1	binA	RP	<fs af='binA,avy,,,,,,' name='binA' posn='370'>
16.2	kuCa	PRP	<fs af='kuCa,pn,any,sg,3,d,0,0' name='kuCa' posn='380'>
	))
17	((	VGNF	<fs name='VGNF4' drel='vmod:VGF2'>
17.1	soce	VMC	<fs af='soca,v,any,sg,3,,yA,yA' name='soce' posn='390'>
17.2	-	SYM	<fs af='-,punc,,,,,,' name='-' posn='400'>
17.3	samaJe	VM	<fs af='samaJa,v,m,sg,any,,yA,yA' name='samaJe' posn='410'>
17.4	hI	RP	<fs af='hI,avy,,,,,,' name='hI' posn='420'>
	))
18	((	NP	<fs name='NP12' drel='r6:NP13'>
18.1	1960	NNP	<fs af='1960,n,m,sg,3,o,0,0' name='1960' posn='430'>
18.2	ke	PSP	<fs af='kA,psp,m,sg,,o,,' name='ke4' posn='440'>
	))
19	((	NP	<fs name='NP13' drel='k7t:VGF2'>
19.1	xaSaka	NN	<fs af='xaSaka,n,m,sg,3,o,0,0' name='xaSaka' posn='450'>
19.2	meM	PSP	<fs af='meM,psp,,,,,,' name='meM2' posn='460'>
	))
20	((	NP	<fs name='NP14' drel='pof:VGF2'>
20.1	snAwaka	NN	<fs af='snAwaka,n,m,sg,3,d,0,0' name='snAwaka' posn='470'>
	))
21	((	VGF	<fs voicetype='active' name='VGF2' stype='declarative' drel='k2:VGF'>
21.1	kiyA	VM	<fs af='kara,v,m,sg,any,,yA,yA' name='kiyA' posn='480'>
	))
22	((	BLK	<fs name='BLK' drel='rsym:VGF'>
22.1	.	SYM	<fs af='.,punc,,,,,,' name='.' posn='490'>
	))
</Sentence>

<Sentence id='4'>
1	((	NP	<fs name='NP' drel='k1:VGF'>
1.1	mEMne	PRP	<fs af='mEM,pn,any,sg,1,o,ne,ne' name='mEMne' posn='10'>
	))
2	((	NP	<fs name='NP2' drel='r6:NP3'>
2.1	bIesasI	NNP	<fs af='bIesasI,n,f,sg,3,o,0,0' name='bIesasI' posn='20'>
2.2	kI	PSP	<fs af='kA,psp,f,sg,,d,,' name='kI' posn='30'>
	))
3	((	NP	<fs name='NP3' drel='k2:VGF'>
3.1	digrI	NN	<fs af='digrI,n,f,sg,3,d,0,0' name='digrI' posn='40'>
3.2	wo	RP	<fs af='wo,avy,,,,,,' name='wo' posn='50'>
	))
4	((	VGF	<fs voicetype='active' name='VGF' stype='declarative' drel='ccof:CCP'>
4.1	lI	VM	<fs af='le,v,f,sg,any,,yA,yA' name='lI' posn='60'>
	))
5	((	CCP	<fs name='CCP'>
5.1	lekina	CC	<fs af='lekina,avy,,,,,,' name='lekina' posn='70'>
	))
6	((	NP	<fs name='NP4' drel='k7t:VGF2'>
6.1	aba	PRP	<fs af='aba,pn,,,,o,,' name='aba' posn='80'>
6.2	waka	PSP	<fs af='waka,psp,,,,,,' name='waka' posn='90'>
	))
7	((	NP	<fs name='NP5' drel='r6-k2:NP6'>
7.1	isakA	PRP	<fs af='yaha,pn,m,sg,3,o,kA,kA' name='isakA' posn='100'>
	))
8	((	NP	<fs name='NP6' drel='pof:VGF2'>
8.1	saxupayoga	NN	<fs af='saxupayoga,n,m,sg,3,d,0,0' name='saxupayoga' posn='110'>
	))
9	((	VGF	<fs voicetype='active' name='VGF2' stype='declarative' drel='ccof:CCP'>
9.1	nahIM	NEG	<fs af='nahIM,avy,,,,,,' name='nahIM' posn='120'>
9.2	kara	VM	<fs af='kara,v,any,any,any,,0,0' name='kara' posn='130'>
9.3	pAyA	VAUX	<fs af='pA,v,m,sg,any,,yA,yA' name='pAyA' posn='140'>
	))
10	((	BLK	<fs name='BLK' drel='rsym:CCP'>
10.1	.	SYM	<fs af='.,punc,,,,,,' name='.' posn='150'>
	))
</Sentence>

<Sentence id='5'>
1	((	NP	<fs name='NP' drel='k7t:VGF'>
1.1	grejueSana	NN	<fs af='grejueSana,n,m,sg,3,o,0,0' name='grejueSana' posn='10'>
1.2	ke	PSP	<fs af='ke,psp,,,,,,' name='ke' posn='20'>
1.3	bAxa	NST	<fs af='bAxa,nst,m,sg,3,d,,' name='bAxa' posn='30'>
	))
2	((	CCP	<fs name='CCP' drel='vmod:VGF2'>
2.1	yaxi	CC	<fs af='yaxi,avy,,,,,,' name='yaxi' posn='40'>
	))
3	((	NP	<fs name='NP2' drel='r6:NP3'>
3.1	aBinaya	NN	<fs af='aBinaya,n,m,sg,3,o,0,0' name='aBinaya' posn='50'>
3.2	ke	PSP	<fs af='kA,psp,m,sg,,o,,' name='ke2' posn='60'>
	))
4	((	NP	<fs name='NP3' drel='k7:VGF'>
4.1	kisI	PRP	<fs af='koI,pn,any,sg,3,o,0,0' name='kisI' posn='70'>
4.2	korsa	NN	<fs af='korsa,n,m,sg,3,o,0,0' name='korsa' posn='80'>
4.3	meM	PSP	<fs af='meM,psp,,,,,,' name='meM' posn='90'>
	))
5	((	NP	<fs name='NP4' drel='pof:VGF'>
5.1	xAKilA	NN	<fs af='xAKilA,n,m,sg,3,d,0,0' name='xAKilA' posn='100'>
	))
6	((	VGF	<fs voicetype='active' name='VGF' stype='declarative' drel='ccof:CCP'>
6.1	le	VM	<fs af='le,v,any,any,any,,0,0' name='le' posn='110'>
6.2	liyA	VAUX	<fs af='le,v,m,sg,any,,yA,yA' name='liyA' posn='120'>
6.3	howA	VAUX	<fs af='ho,v,m,sg,any,,wA,wA' name='howA' posn='130'>
6.4	,	SYM	<fs af='COMMA,punc,,,,,,' name=',' posn='140'>
	))
7	((	CCP	<fs name='CCP2'>
7.1	wo	CC	<fs af='wo,avy,,,,,,' name='wo' posn='150'>
	))
8	((	NP	<fs name='NP5' drel='r6:NP6'>
8.1	kEriyara	NN	<fs af='kEriyara,n,m,sg,3,o,0,0' name='kEriyara' posn='160'>
8.2	ke	PSP	<fs af='kA,psp,m,sg,,o,,' name='ke3' posn='170'>
	))
9	((	NP	<fs name='NP6' drel='k7t:VGF2'>
9.1	SuruAwI	JJ	<fs af='SuruAwI,adj,any,any,,o,,' name='SuruAwI' posn='180'>
9.2	xOra	NN	<fs af='xOra,n,m,sg,3,o,0,0' name='xOra' posn='190'>
9.3	meM	PSP	<fs af='meM,psp,,,,,,' name='meM2' posn='200'>
	))
10	((	NP	<fs name='NP7' drel='k2:VGF2'>
10.1	muJe	PRP	<fs af='mEM,pn,any,sg,1,o,ko,ko' name='muJe' posn='210'>
	))
11	((	NP	<fs name='NP8' drel='r6-k2:NP9'>
11.1	uwanI	QF	<fs af='uwanA,adj,f,pl,,o,,' name='uwanI' posn='220'>
11.2	xuSvAriyoM	NN	<fs af='xuSvArI,n,f,pl,3,o,0,0' name='xuSvAriyoM' posn='230'>
11.3	kA	PSP	<fs af='kA,psp,m,sg,,d,,' name='kA' posn='240'>
	))
12	((	NP	<fs name='NP9' drel='pof:VGF2'>
12.1	sAmanA	NN	<fs af='sAmanA,n,m,sg,3,d,0,0' name='sAmanA' posn='250'>
	))
13	((	VGF	<fs voicetype='active' name='VGF2' stype='declarative' drel='ccof:CCP2'>
13.1	nahIM	NEG	<fs af='nahIM,avy,,,,,,' name='nahIM' posn='260'>
13.2	karanA	VM	<fs af='kara,v,m,sg,any,,nA,nA' name='karanA' posn='270'>
13.3	padZawA	VAUX	<fs af='pada,v,m,sg,any,,wA,wA' name='padZawA' posn='280'>
	))
14	((	BLK	<fs name='BLK' drel='rsym:CCP2'>
14.1	.	SYM	<fs af='.,punc,,,,,,' name='.' posn='290'>
	))
</Sentence>

<Sentence id='6'>
1	((	NP	<fs name='NP' drel='r6:NP2'>
1.1	Aja	NN	<fs af='Aja,n,m,sg,3,o,0,0' name='Aja' posn='10'>
1.2	kI	PSP	<fs af='kA,psp,f,sg,,o,,' name='kI' posn='20'>
	))
2	((	NP	<fs name='NP2' drel='k7t:VGF'>
2.1	wulanA	NN	<fs af='wulanA,n,f,sg,3,o,0,0' name='wulanA' posn='30'>
2.2	meM	PSP	<fs af='meM,psp,,,,,,' name='meM' posn='40'>
	))
3	((	NP	<fs name='NP3' drel='k7t:VGF'>
3.1	waba	PRP	<fs af='waba,pn,,,,d,,' name='waba' posn='50'>
	))
4	((	NP	<fs name='NP4' drel='k2:VGNN'>
4.1	EktiMga	NN	<fs af='EktiMga,n,f,sg,3,d,0,0' name='EktiMga' posn='60'>
	))
5	((	VGNN	<fs name='VGNN' drel='nmod:NP5'>
5.1	siKAne	VM	<fs af='siKA,v,any,any,any,o,nA,nA' name='siKAne' posn='70'>
5.2	vAlI	PSP	<fs af='vAlA,psp,f,pl,,o,,' name='vAlI' posn='80'>
	))
6	((	NP	<fs name='NP5' drel='r6:NP6'>
6.1	saMsWAnoM	NN	<fs af='saMsWAna,n,f,pl,3,o,0,0' name='saMsWAnoM' posn='90'>
6.2	kI	PSP	<fs af='kA,psp,f,sg,,d,,' name='kI2' posn='100'>
	))
7	((	NP	<fs name='NP6' drel='k1:VGF'>
7.1	kAPI	QF	<fs af='kAPI,avy,,,,,,' name='kAPI' posn='110'>
7.2	kamI	NN	<fs af='kamI,n,f,sg,3,d,0,0' name='kamI' posn='120'>
	))
8	((	VGF	<fs name='VGF' stype='declarative' voicetype='active'>
8.1	WI	VM	<fs af='WA,v,f,sg,any,,WA,WA' name='WI' posn='130'>
	))
9	((	BLK	<fs name='BLK' drel='rsym:VGF'>
9.1	.	SYM	<fs af='.,punc,,,,,,' name='.' posn='140'>
	))
</Sentence>

<Sentence id='7'>
1	((	NP	<fs name='NP' drel='pof:VGNN'>
1.1	korsa	NN	<fs af='korsa,n,m,sg,3,d,0,0' name='korsa' posn='10'>
	))
2	((	VGNN	<fs name='VGNN' drel='k7:VGF'>
2.1	karane	VM	<fs af='kara,v,any,any,any,o,nA,nA' name='karane' posn='20'>
2.2	para	PSP	<fs af='para,psp,,,,,,' name='para' posn='30'>
	))
3	((	NP	<fs name='NP2' drel='k4:VGF'>
3.1	muJe	PRP	<fs af='mEM,pn,any,sg,1,o,ko,ko' name='muJe' posn='40'>
	))
4	((	NP	<fs name='NP3' drel='r6:NP4'>
4.1	apanI	PRP	<fs af='apanA,pn,f,any,any,o,0,0' name='apanI' posn='50'>
	))
5	((	NP	<fs name='NP4' drel='k7:VGNN2'>
5.1	kamajoriyoM	NN	<fs af='kamajorI,n,f,pl,3,o,0,0' name='kamajoriyoM' posn='60'>
5.2	para	PSP	<fs af='para,psp,,,,,,' name='para2' posn='70'>
	))
6	((	NP	<fs name='NP5' drel='k2:VGNN2'>
6.1	vijaya	NN	<fs af='vijaya,n,f,sg,3,d,0,0' name='vijaya' posn='80'>
	))
7	((	VGNN	<fs name='VGNN2' drel='k7:VGF'>
7.1	pAne	VM	<fs af='pA,v,any,any,any,o,nA,nA' name='pAne' posn='90'>
7.2	meM	PSP	<fs af='meM,psp,,,,,,' name='meM' posn='100'>
	))
8	((	NP	<fs name='NP6' drel='pof:VGF'>
8.1	maxaxa	NN	<fs af='maxaxa,n,f,sg,3,d,0,0' name='maxaxa' posn='110'>
	))
9	((	VGF	<fs name='VGF' stype='declarative' voicetype='active'>
9.1	milawI	VM	<fs af='mila,v,f,sg,any,,wA,wA' name='milawI' posn='120'>
	))
10	((	BLK	<fs name='BLK' drel='rsym:VGF'>
10.1	.	SYM	<fs af='.,punc,,,,,,' name='.' posn='130'>
	))
</Sentence>

<Sentence id='8'>
1	((	NP	<fs name='NP' drel='k1:VGNN'>
1.1	amiwABa	NNPC	<fs af='amiwABa,n,m,sg,3,d,0,0' name='amiwABa' posn='10'>
1.2	baccana	NNP	<fs af='baccana,n,any,sg,3,o,0,0' name='baccana' posn='20'>
1.3	kA	PSP	<fs af='kA,psp,m,sg,,d,,' name='kA' posn='30'>
	))
2	((	VGNN	<fs name='VGNN' drel='k1:VGF'>
2.1	mAnanA	VM	<fs af='mAna,v,any,any,any,d,nA,nA' name='mAnanA' posn='40'>
	))
3	((	VGF	<fs name='VGF' stype='declarative' voicetype='active'>
3.1	hE	VM	<fs af='hE,v,any,sg,3,,hE,hE' name='hE' posn='50'>
	))
4	((	NP	<fs name='NP2' drel='r6-k2:NP3'>
4.1	aBinaya	NN	<fs af='aBinaya,n,m,sg,3,o,0,0' name='aBinaya' posn='60'>
4.2	kA	PSP	<fs af='kA,psp,m,sg,,d,,' name='kA2' posn='70'>
	))
5	((	NP	<fs name='NP3' drel='pof:VGNN2'>
5.1	korsa	NN	<fs af='korsa,n,m,sg,3,d,0,0' name='korsa' posn='80'>
	))
6	((	VGNN	<fs name='VGNN2' drel='rh:VGF2'>
6.1	karane	VM	<fs af='kara,v,any,any,any,o,nA,nA' name='karane' posn='90'>
6.2	se	PSP	<fs af='se,psp,,,,,,' name='se' posn='100'>
	))
7	((	NP	<fs name='NP4' drel='r6:NP5'>
7.1	kalAkAra	NN	<fs af='kalAkAra,n,m,sg,3,o,0,0' name='kalAkAra' posn='110'>
7.2	ke	PSP	<fs af='ke,psp,,,,,,' name='ke' posn='120'>
7.3	aMxara	NST	<fs af='aMxara,nst,m,sg,,o,,' name='aMxara' posn='130'>
7.4	kI	PSP	<fs af='kA,psp,f,sg,,o,,' name='kI' posn='140'>
	))
8	((	NP	<fs name='NP5' drel='k2:VGNN3'>
8.1	kalA	NN	<fs af='kalA,n,f,sg,3,o,0,0' name='kalA' posn='150'>
8.2	ko	PSP	<fs af='ko,psp,,,,,,' name='ko' posn='160'>
	))
9	((	VGNN	<fs name='VGNN3' drel='k7:VGF2'>
9.1	niKArane	VM	<fs af='niKAra,v,any,any,any,o,nA,nA' name='niKArane' posn='170'>
9.2	meM	PSP	<fs af='meM,psp,,,,,,' name='meM' posn='180'>
	))
10	((	NP	<fs name='NP6' drel='pof:VGF2'>
10.1	maxaxa	NN	<fs af='maxaxa,n,f,sg,3,d,0,0' name='maxaxa' posn='190'>
	))
11	((	VGF	<fs voicetype='active' name='VGF2' stype='declarative' drel='k2:VGNN'>
11.1	milawI	VM	<fs af='mila,v,f,sg,any,,wA,wA' name='milawI' posn='200'>
11.2	hE	VAUX	<fs af='hE,v,any,sg,3,,hE,hE' name='hE2' posn='210'>
	))
12	((	BLK	<fs name='BLK' drel='rsym:VGF'>
12.1	.	SYM	<fs af='.,punc,,,,,,' name='.' posn='220'>
	))
</Sentence>

<Sentence id='9'>
1	((	NP	<fs name='NP' drel='k1:VGNN'>
1.1	bOYlIvuda	NNPC	<fs af='bOYlIvuda,n,m,sg,3,d,0,0' name='bOYlIvuda' posn='10'>
1.2	stAra	NNP	<fs af='stAra,n,m,sg,3,d,0,0' name='stAra' posn='20'>
1.3	Amira	NNPC	<fs af='Amira,n,m,sg,3,d,0,0' name='Amira' posn='30'>
1.4	KAna	NNP	<fs af='KAna,n,m,sg,3,o,0,0' name='KAna' posn='40'>
1.5	kA	PSP	<fs af='kA,psp,m,sg,,d,,' name='kA' posn='50'>
	))
2	((	VGNN	<fs name='VGNN' drel='k1:VGF'>
2.1	kahanA	VM	<fs af='kaha,v,any,any,any,d,nA,nA' name='kahanA' posn='60'>
	))
3	((	VGF	<fs name='VGF' stype='declarative' voicetype='active'>
3.1	hE	VM	<fs af='hE,v,any,sg,3,,hE,hE' name='hE' posn='70'>
	))
4	((	CCP	<fs name='CCP' drel='k2:VGNN'>
4.1	ki	CC	<fs af='ki,avy,,,,,,' name='ki' posn='80'>
	))
5	((	NP	<fs name='NP2' drel='k4a:VGF2'>
5.1	unheM	PRP	<fs af='vaha,pn,m,sg,3h,o,ko,ko' name='unheM' posn='90'>
5.2	BI	RP	<fs af='BI,avy,,,,,,' name='BI' posn='100'>
	))
6	((	NP	<fs name='NP3' drel='r6-k2:NP4'>
6.1	aBinaya	NN	<fs af='aBinaya,n,m,sg,3,o,0,0' name='aBinaya' posn='110'>
6.2	kA	PSP	<fs af='kA,psp,m,sg,,d,,' name='kA2' posn='120'>
	))
7	((	NP	<fs name='NP4' drel='pof:VGNN2'>
7.1	korsa	NN	<fs af='korsa,n,m,sg,3,d,0,0' name='korsa' posn='130'>
	))
8	((	VGNN	<fs name='VGNN2' drel='r6:NP5'>
8.1	nahIM	NEG	<fs af='nahIM,avy,,,,,,' name='nahIM' posn='140'>
8.2	karane	VM	<fs af='kara,v,any,any,any,o,nA,nA' name='karane' posn='150'>
8.3	kA	PSP	<fs af='kA,psp,m,sg,,d,,' name='kA3' posn='160'>
	))
9	((	NP	<fs name='NP5' drel='k1:VGF2'>
9.1	behaxa	JJ	<fs af='behaxa,adj,any,any,,,,' name='behaxa' posn='170'>
9.2	xuKa	NN	<fs af='xuKa,n,m,sg,3,d,0,0' name='xuKa' posn='180'>
	))
10	((	VGF	<fs voicetype='active' name='VGF2' stype='declarative' drel='ccof:CCP'>
10.1	hE	VM	<fs af='hE,v,any,sg,3,,hE,hE' name='hE2' posn='190'>
	))
11	((	BLK	<fs name='BLK' drel='rsym:VGF'>
11.1	.	SYM	<fs af='.,punc,,,,,,' name='.' posn='200'>
	))
</Sentence>

<Sentence id='10'>
1	((	NP	<fs name='NP' drel='k1:VGNN'>
1.1	unakA	PRP	<fs af='vaha,pn,m,sg,3h,o,kA,kA' name='unakA' posn='10'>
1.2	BI	RP	<fs af='BI,avy,,,,,,' name='BI' posn='20'>
	))
2	((	VGNN	<fs name='VGNN' drel='k1:VGF'>
2.1	mAnanA	VM	<fs af='mAna,v,any,any,any,d,nA,nA' name='mAnanA' posn='30'>
	))
3	((	VGF	<fs name='VGF' stype='declarative' voicetype='active'>
3.1	hE	VM	<fs af='hE,v,any,sg,3,,hE,hE' name='hE' posn='40'>
	))
4	((	CCP	<fs name='CCP' drel='k2:VGNN'>
4.1	ki	CC	<fs af='ki,avy,,,,,,' name='ki' posn='50'>
	))
5	((	NP	<fs name='NP2' drel='k7p:VGF2'>
5.1	EktiMga	NNC	<fs af='EktiMga,n,f,sg,3,d,0,0' name='EktiMga' posn='60'>
5.2	skUla	NN	<fs af='skUla,n,m,sg,3,o,0,0' name='skUla' posn='70'>
5.3	meM	PSP	<fs af='meM,psp,,,,,,' name='meM' posn='80'>
	))
6	((	NP	<fs name='NP3' drel='k2:VGNN2'>
6.1	aBinaya	NNC	<fs af='aBinaya,n,m,sg,3,d,0,0' name='aBinaya' posn='90'>
6.2	kRamawA	NN	<fs af='kRamawA,n,f,sg,3,o,0,0' name='kRamawA' posn='100'>
6.3	ko	PSP	<fs af='ko,psp,,,,,,' name='ko' posn='110'>
	))
7	((	VGNN	<fs name='VGNN2' drel='k7:VGF2'>
7.1	niKArane	VM	<fs af='niKAra,v,any,any,any,o,nA,nA' name='niKArane' posn='120'>
7.2	meM	PSP	<fs af='meM,psp,,,,,,' name='meM2' posn='130'>
	))
8	((	NP	<fs name='NP4' drel='pof:VGF2'>
8.1	maxaxa	NN	<fs af='maxaxa,n,f,sg,3,d,0,0' name='maxaxa' posn='140'>
	))
9	((	VGF	<fs voicetype='active' name='VGF2' stype='declarative' drel='ccof:CCP'>
9.1	milawI	VM	<fs af='mila,v,f,sg,any,,wA,wA' name='milawI' posn='150'>
9.2	hE	VAUX	<fs af='hE,v,any,sg,3,,hE,hE' name='hE2' posn='160'>
	))
10	((	BLK	<fs name='BLK' drel='rsym:VGF'>
10.1	.	SYM	<fs af='.,punc,,,,,,' name='.' posn='170'>
	))
</Sentence>

<Sentence id='11'>
1	((	NP	<fs name='NP' drel='jjmod:JJP'>
1.1	isa	DEM	<fs af='yaha,pn,any,sg,3,o,,' name='isa' posn='10'>
1.2	mOke	NN	<fs af='mOkA,n,m,sg,3,o,0,0' name='mOke' posn='20'>
1.3	para	PSP	<fs af='para,psp,,,,,,' name='para' posn='30'>
	))
2	((	JJP	<fs name='JJP' drel='nmod:NP2'>
2.1	mOjUxa	JJ	<fs af='mOjUxa,adj,any,any,,o,,' name='mOjUxa' posn='40'>
	))
3	((	NP	<fs name='NP2' drel='r6:NP3'>
3.1	bOYlIvuda	NNP	<fs af='bOYlIvuda,n,m,sg,3,o,0,0' name='bOYlIvuda' posn='50'>
3.2	ke	PSP	<fs af='kA,psp,m,sg,,o,,' name='ke' posn='60'>
	))
4	((	NP	<fs name='NP3' drel='nmod:NP4'>
4.1	xiggaja	JJ	<fs af='xiggaja,adj,any,any,,o,,' name='xiggaja' posn='70'>
4.2	nirxeSaka	NN	<fs af='nirxeSaka,n,m,sg,3,o,0,0' name='nirxeSaka' posn='80'>
	))
5	((	NP	<fs name='NP4' drel='ccof:CCP'>
5.1	yaSa	NNPC	<fs af='yaSa,n,m,sg,3,d,0,0' name='yaSa' posn='90'>
5.2	copadZA	NNP	<fs af='copadZA,n,m,sg,3,o,0,0' name='copadZA' posn='100'>
	))
6	((	CCP	<fs name='CCP' drel='k1:VGF'>
6.1	va	CC	<fs af='va,avy,,,,,,' name='va' posn='110'>
	))
7	((	NP	<fs name='NP5' drel='ccof:CCP'>
7.1	suBARa	NNPC	<fs af='suBARa,n,m,sg,3,d,0,0' name='suBARa' posn='120'>
7.2	GaI	NNP	<fs af='GaI,n,m,sg,3,o,0,0' name='GaI' posn='130'>
7.3	ne	PSP	<fs af='ne,psp,,,,,,' name='ne' posn='140'>
	))
8	((	VGF	<fs name='VGF' stype='declarative' voicetype='active'>
8.1	bawAyA	VM	<fs af='bawA,v,m,sg,any,,yA,yA' name='bawAyA' posn='150'>
	))
9	((	CCP	<fs name='CCP2' drel='k2:VGF'>
9.1	ki	CC	<fs af='ki,avy,,,,,,' name='ki' posn='160'>
	))
10	((	NP	<fs name='NP6' drel='r6:NP7'>
10.1	EktiMga	NNC	<fs af='EktiMga,n,f,sg,3,d,0,0' name='EktiMga' posn='170'>
10.2	skUla	NN	<fs af='skUla,n,m,sg,3,o,0,0' name='skUla' posn='180'>
10.3	kI	PSP	<fs af='kA,psp,f,sg,,d,,' name='kI' posn='190'>
	))
11	((	NP	<fs name='NP7' drel='k1:VGF2'>
11.1	yaha	DEM	<fs af='yaha,pn,any,sg,3,d,,' name='yaha' posn='200'>
11.2	pariyojanA	NN	<fs af='pariyojanA,n,f,sg,3,d,0,0' name='pariyojanA' posn='210'>
	))
12	((	NP	<fs name='NP8' drel='r6:NP9'>
12.1	anupama	NNPC	<fs af='anupama,n,m,sg,3,d,0,0' name='anupama' posn='220'>
12.2	Kera	NNP	<fs af='Kera,n,any,sg,3,o,0,0' name='Kera' posn='230'>
12.3	kA	PSP	<fs af='kA,psp,m,sg,,d,,' name='kA' posn='240'>
	))
13	((	NP	<fs name='NP9' drel='k1s:VGF2'>
13.1	eka	QC	<fs af='eka,num,any,any,,any,,' name='eka' posn='250'>
13.2	sapanA	NN	<fs af='sapanA,n,m,sg,3,d,0,0' name='sapanA' posn='260'>
	))
14	((	VGF	<fs voicetype='active' name='VGF2' stype='declarative' drel='ccof:CCP2'>
14.1	hE	VM	<fs af='hE,v,any,sg,3,,hE,hE' name='hE' posn='270'>
	))
15	((	NP	<fs coref=':NP9' name='NP10' drel='k2:VGNN'>
15.1	jise	PRP	<fs af='jo,pn,any,sg,3,o,ko,ko' name='jise' posn='280'>
	))
16	((	JJP	<fs name='JJP2' drel='pof:VGNN'>
16.1	sAkAra	JJ	<fs af='sAkAra,adj,any,any,,,,' name='sAkAra' posn='290'>
	))
17	((	VGNN	<fs name='VGNN' drel='rt:VGF3'>
17.1	karane	VM	<fs af='kara,v,any,any,any,o,nA,nA' name='karane' posn='300'>
17.2	ke	PSP	<fs af='ke,psp,,,,,,' name='ke2' posn='310'>
17.3	lie	PSP	<fs af='lie,psp,,,,,,' name='lie' posn='320'>
	))
18	((	NP	<fs name='NP11' drel='k1:VGF3'>
18.1	ve	PRP	<fs af='vaha,pn,any,sg,3h,d,0,0' name='ve' posn='330'>
	))
19	((	NP	<fs name='NP12' drel='k7t:VGF3'>
19.1	piCale	JJ	<fs af='piCalA,adj,m,pl,,o,,' name='piCale' posn='340'>
19.2	kaI	QF	<fs af='kaI,avy,,,,,,' name='kaI' posn='350'>
19.3	varRo	NN	<fs af='varRa,n,m,pl,3,o,0,0' name='varRo' posn='360'>
19.4	se	PSP	<fs af='se,psp,,,,,,' name='se' posn='370'>
	))
20	((	JJP	<fs name='JJP3' drel='k1s:VGF3'>
20.1	prayAsarawa	JJ	<fs af='prayAsarawa,adj,any,any,,,,' name='prayAsarawa' posn='380'>
	))
21	((	VGF	<fs voicetype='active' name='VGF3' stype='declarative' drel='nmod__relc:NP9'>
21.1	We	VM	<fs af='WA,v,m,sg,3h,,WA,WA' name='We' posn='390'>
	))
22	((	BLK	<fs name='BLK' drel='rsym:VGF'>
22.1	.	SYM	<fs af='.,punc,,,,,,' name='.' posn='400'>
	))
</Sentence>

<Sentence id='12'>
1	((	NP	<fs name='NP' drel='k7:VGNN'>
1.1	aBinaya	NN	<fs af='aBinaya,n,m,sg,3,o,0,0' name='aBinaya' posn='10'>
1.2	meM	PSP	<fs af='meM,psp,,,,,,' name='meM' posn='20'>
	))
2	((	NP	<fs name='NP2' drel='pof:VGNN'>
2.1	kEriyara	NN	<fs af='kEriyara,n,m,sg,3,d,0,0' name='kEriyara' posn='30'>
	))
3	((	VGNN	<fs name='VGNN' drel='r6:NP3'>
3.1	banAne	VM	<fs af='banA,v,any,any,any,o,nA,nA' name='banAne' posn='40'>
3.2	ke	PSP	<fs af='kA,psp,m,pl,,o,,' name='ke' posn='50'>
	))
4	((	NP	<fs name='NP3' drel='rt:VGF'>
4.1	icCuka	JJ	<fs af='icCuka,adj,any,any,,o,,' name='icCuka' posn='60'>
4.2	logoM	NN	<fs af='loga,n,m,pl,3,o,0,0' name='logoM' posn='70'>
4.3	ke	PSP	<fs af='ke,psp,,,,,,' name='ke2' posn='80'>
4.4	lie	PSP	<fs af='lie,psp,,,,,,' name='lie' posn='90'>
	))
5	((	NP	<fs name='NP4' drel='k7:VGF'>
5.1	yahAM	PRP	<fs af='yahAz,pn,,,,d,,' name='yahAM' posn='100'>
	))
6	((	NP	<fs name='NP5' drel='r6:NP6'>
6.1	wIna	QC	<fs af='wIna,num,any,any,,any,,' name='wIna' posn='110'>
6.2	mahIne	NN	<fs af='mahInA,n,m,pl,3,o,0,0' name='mahIne' posn='120'>
6.3	kA	PSP	<fs af='kA,psp,m,sg,,d,,' name='kA' posn='130'>
	))
7	((	NP	<fs name='NP6' drel='k2:VGF'>
7.1	korsa	NN	<fs af='korsa,n,m,sg,3,d,0,0' name='korsa' posn='140'>
	))
8	((	NP	<fs name='NP7' drel='pof:VGF'>
8.1	SurU	NN	<fs af='SurU,n,m,sg,3,d,0,0' name='SurU' posn='150'>
	))
9	((	VGF	<fs name='VGF' stype='declarative' voicetype='passive'>
9.1	kiyA	VM	<fs af='kara,v,m,sg,any,,yA,yA' name='kiyA' posn='160'>
9.2	gayA	VAUX	<fs af='jA,v,m,sg,any,,yA1,yA1' name='gayA' posn='170'>
9.3	hE	VAUX	<fs af='hE,v,any,sg,3,,hE,hE' name='hE' posn='180'>
	))
10	((	BLK	<fs name='BLK' drel='rsym:VGF'>
10.1	.	SYM	<fs af='.,punc,,,,,,' name='.' posn='190'>
	))
</Sentence>

