<Sentence id='1'>
1	((	NP	<fs name='NP' drel='k7p:VGNN'>
1.1	laMxana	NNP	<fs af='laMxana,n,m,sg,3,o,0,0' name='laMxana' posn='10'>
1.2	meM	PSP	<fs af='meM,psp,,,,,,' name='meM' posn='20'>
	))
2	((	NP	<fs name='NP2' drel='r6:NP3'>
2.1	AwmaGAwI	JJ	<fs af='AwmaGAwI,adj,any,any,,o,,' name='AwmaGAwI' posn='30'>
2.2	hamale	NN	<fs af='hamalA,n,m,sg,3,o,0,0' name='hamale' posn='40'>
2.3	kI	PSP	<fs af='kA,psp,f,sg,,d,,' name='kI' posn='50'>
	))
3	((	NP	<fs name='NP3' drel='k2:VGNN'>
3.1	sAjiSa	NN	<fs af='sAjiSa,n,f,sg,3,d,0,0' name='sAjiSa' posn='60'>
	))
4	((	VGNN	<fs name='VGNN' drel='nmod:NP5'>
4.1	racane	VM	<fs af='raca,v,any,any,any,o,nA,nA' name='racane' posn='70'>
4.2	vAle	PSP	<fs af='vAlA,psp,m,sg,,o,,' name='vAle' posn='80'>
	))
5	((	NP	<fs name='NP4' drel='nmod:NP5'>
5.1	kuKyAwa	JJ	<fs af='kuKyAwa,adj,any,any,,o,,' name='kuKyAwa' posn='90'>
5.2	ala	NNPC	<fs af='ala,n,m,sg,3,d,0,0' name='ala' posn='100'>
5.3	-	SYM	<fs af='-,punc,,,,,,' name='-' posn='110'>
5.4	kAyaxA	NNP	<fs af='kAyaxA,n,m,sg,3,d,0,0' name='kAyaxA' posn='120'>
5.5	AwaMkI	NN	<fs af='AwaMkI,n,m,sg,3,o,0,0' name='AwaMkI' posn='130'>
	))
6	((	NP	<fs name='NP5' drel='r6:NP6'>
6.1	hArUna	NNPC	<fs af='hArUna,n,m,sg,3,d,0,0' name='hArUna' posn='140'>
6.2	rASixa	NNPC	<fs af='rASixa,n,m,sg,3,d,0,0' name='rASixa' posn='150'>
6.3	asavawa	NNP	<fs af='asavawa,n,m,sg,3,o,0,0' name='asavawa' posn='160'>
6.4	kI	PSP	<fs af='kA,psp,f,sg,,o,,' name='kI2' posn='170'>
	))
7	((	NP	<fs name='NP6' drel='nmod:NP7'>
7.1	amerikI	JJ	<fs af='amerikI,adj,any,any,,o,,' name='amerikI' posn='180'>
7.2	KuPiyA	NNC	<fs af='KuPiyA,adj,any,any,,o,,' name='KuPiyA' posn='190'>
7.3	ejeMsI	NN	<fs af='ejeMsI,n,f,sg,3,o,0,0' name='ejeMsI' posn='200'>
	))
8	((	NP	<fs name='NP7' drel='k4a:VGF'>
8.1	ePabIAI	NNP	<fs af='ePabIAI,n,f,sg,3,o,0,0' name='ePabIAI' posn='210'>
8.2	ko	PSP	<fs af='ko,psp,,,,,,' name='ko' posn='220'>
8.3	BI	RP	<fs af='BI,avy,,,,,,' name='BI' posn='230'>
	))
9	((	NP	<fs name='NP8' drel='vmod:VGF'>
9.1	saragarmI	NN	<fs af='saragarmI,n,f,sg,3,o,0,0' name='saragarmI' posn='240'>
9.2	se	PSP	<fs af='se,psp,,,,,,' name='se' posn='250'>
	))
10	((	NP	<fs name='NP9' drel='k1:VGF'>
10.1	walASa	NN	<fs af='walASa,n,f,sg,3,d,0,0' name='walASa' posn='260'>
	))
11	((	VGF	<fs name='VGF' stype='declarative' voicetype='active'>
11.1	hE	VM	<fs af='hE,v,any,sg,3,,hE,hE' name='hE' posn='270'>
	))
12	((	BLK	<fs name='BLK' drel='rsym:VGF'>
12.1	.	SYM	<fs af='.,punc,,,,,,' name='.' posn='280'>
	))
</Sentence>

<Sentence id='2'>
1	((	NP	<fs name='NP' drel='k1:VGF'>
1.1	amerikI	JJ	<fs af='amerikI,adj,any,any,,o,,' name='amerikI' posn='10'>
1.2	KuPiyA	NNC	<fs af='KuPiyA,adj,any,any,,o,,' name='KuPiyA' posn='20'>
1.3	ejeMsI	NN	<fs af='ejeMsI,n,f,sg,3,o,0,0' name='ejeMsI' posn='30'>
1.4	ne	PSP	<fs af='ne,psp,,,,,,' name='ne' posn='40'>
	))
2	((	VGF	<fs name='VGF' stype='declarative' voicetype='active'>
2.1	kahA	VM	<fs af='kaha,v,m,sg,any,,yA,yA' name='kahA' posn='50'>
2.2	hE	VAUX	<fs af='hE,v,any,sg,3,,hE,hE' name='hE' posn='60'>
	))
3	((	CCP	<fs name='CCP' drel='k2:VGF'>
3.1	ki	CC	<fs af='ki,avy,,,,,,' name='ki' posn='70'>
	))
4	((	NP	<fs name='NP2' drel='k1:VGF2'>
4.1	asavawa	NNP	<fs af='asavawa,n,m,sg,3,o,0,0' name='asavawa' posn='80'>
4.2	ne	PSP	<fs af='ne,psp,,,,,,' name='ne2' posn='90'>
	))
5	((	NP	<fs name='NP3' drel='k7p:VGNN'>
5.1	amerikA	NNP	<fs af='amerikA,n,m,sg,3,o,0,0' name='amerikA' posn='100'>
5.2	meM	PSP	<fs af='meM,psp,,,,,,' name='meM' posn='110'>
	))
6	((	NP	<fs name='NP4' drel='r6:NP5'>
6.1	ala	NNPC	<fs af='ala,n,m,sg,3,d,0,0' name='ala' posn='120'>
6.2	-	SYM	<fs af='-,punc,,,,,,' name='-' posn='130'>
6.3	kAyaxA	NNP	<fs af='kAyaxA,n,m,sg,3,o,0,0' name='kAyaxA' posn='140'>
6.4	kA	PSP	<fs af='kA,psp,m,sg,,d,,' name='kA' posn='150'>
	))
7	((	NP	<fs name='NP5' drel='k2:VGNN'>
7.1	praSikRaNa	NNC	<fs af='praSikRaNa,n,m,sg,3,d,0,0' name='praSikRaNa' posn='160'>
7.2	kEMpa	NN	<fs af='kEMpa,n,m,sg,3,d,0,0' name='kEMpa' posn='170'>
	))
8	((	VGNN	<fs name='VGNN' drel='r6-k2:NP6'>
8.1	Kolane	VM	<fs af='Kola,v,any,any,any,o,nA,nA' name='Kolane' posn='180'>
8.2	kI	PSP	<fs af='kA,psp,f,sg,,d,,' name='kI' posn='190'>
	))
9	((	NP	<fs name='NP6' drel='pof:VGF2'>
9.1	koSiSa	NN	<fs af='koSiSa,n,f,sg,3,d,0,0' name='koSiSa' posn='200'>
	))
10	((	VGF	<fs voicetype='active' name='VGF2' stype='declarative' drel='ccof:CCP'>
10.1	kI	VM	<fs af='kara,v,f,sg,any,,yA,yA' name='kI2' posn='210'>
10.2	WI	VAUX	<fs af='WA,v,f,sg,any,,WA,WA' name='WI' posn='220'>
	))
11	((	BLK	<fs name='BLK' drel='rsym:VGF'>
11.1	.	SYM	<fs af='.,punc,,,,,,' name='.' posn='230'>
	))
</Sentence>

<Sentence id='3'>
1	((	NP	<fs name='NP' drel='k7a:VGF'>
1.1	jAnakArI	NN	<fs af='jAnakArI,n,f,sg,3,o,0,0' name='jAnakArI' posn='10'>
1.2	ke	PSP	<fs af='ke,psp,,,,,,' name='ke' posn='20'>
1.3	anusAra	PSP	<fs af='anusAra,psp,,,,,,' name='anusAra' posn='30'>
	))
2	((	NP	<fs name='NP2' drel='r6:NP3'>
2.1	30	QC	<fs af='30,num,any,any,,any,,' name='30' posn='40'>
2.2	varRIya	JJ	<fs af='varRIya,adj,any,any,,o,,' name='varRIya' posn='50'>
2.3	asavawa	NNP	<fs af='asavawa,n,m,sg,3,o,0,0' name='asavawa' posn='60'>
2.4	ke	PSP	<fs af='kA,psp,m,pl,,d,,' name='ke2' posn='70'>
	))
3	((	NP	<fs name='NP3' drel='k1:VGF'>
3.1	mAwA	NNC	<fs af='mAwA,n,f,sg,3,d,0,0' name='mAwA' posn='80'>
3.2	-	SYM	<fs af='-,punc,,,,,,' name='-' posn='90'>
3.3	piwA	NN	<fs af='piwA,n,m,sg,3,d,0,0' name='piwA' posn='100'>
	))
4	((	NP	<fs name='NP4' drel='r6v:VGF'>
4.1	gujarAwa	NNP	<fs af='gujarAwa,n,m,sg,3,o,0,0' name='gujarAwa' posn='110'>
4.2	ke	PSP	<fs af='kA,psp,m,pl,,d,,' name='ke3' posn='120'>
	))
5	((	VGF	<fs name='VGF' stype='declarative' voicetype='active'>
5.1	rahane	VM	<fs af='raha,v,any,any,any,,nA,nA' name='rahane' posn='130'>
5.2	vAle	VAUX	<fs af='vAlA,v,m,pl,3,,0,0' name='vAle' posn='140'>
5.3	We	VAUX	<fs af='WA,v,m,pl,any,,WA,WA' name='We' posn='150'>
	))
6	((	BLK	<fs name='BLK' drel='rsym:VGF'>
6.1	.	SYM	<fs af='.,punc,,,,,,' name='.' posn='160'>
	))
</Sentence>

<Sentence id='4'>
1	((	NP	<fs name='NP' drel='k7t:VGF'>
1.1	piCale	JJ	<fs af='piCalA,adj,m,sg,,o,,' name='piCale' posn='10'>
1.2	sapwAha	NN	<fs af='sapwAha,n,m,sg,3,o,0,0' name='sapwAha' posn='20'>
1.3	se	PSP	<fs af='se,psp,,,,,,' name='se' posn='30'>
	))
2	((	NP	<fs name='NP2' drel='k4:VGF'>
2.1	use	PRP	<fs af='vaha,pn,any,sg,3,o,ko,ko' name='use' posn='40'>
	))
3	((	NP	<fs name='NP3' drel='r6:NP4'>
3.1	'	SYM	<fs af='SINGLE_QUOTE,punc,,,,,,' name=''' posn='50'>
3.2	mistara	NNPC	<fs af='mistara,n,m,sg,3,d,0,0' name='mistara' posn='60'>
3.3	biga	NNP	<fs af='biga,n,m,sg,3,o,0,0' name='biga' posn='70'>
3.4	'	SYM	<fs af='SINGLE_QUOTE,punc,,,,,,' name=''2' posn='80'>
3.5	kA	PSP	<fs af='kA,psp,m,sg,,d,,' name='kA' posn='90'>
	))
4	((	NP	<fs name='NP4' drel='k2:VGF'>
4.1	nAma	NN	<fs af='nAma,n,m,sg,3,d,0,0' name='nAma' posn='100'>
	))
5	((	VGF	<fs name='VGF' stype='declarative' voicetype='passive'>
5.1	xiyA	VM	<fs af='xe,v,m,sg,any,,yA,yA' name='xiyA' posn='110'>
5.2	jA	VAUX	<fs af='jA,v,any,any,any,,0,0' name='jA' posn='120'>
5.3	rahA	VAUX	<fs af='raha,v,m,sg,any,,yA,yA' name='rahA' posn='130'>
5.4	hE	VAUX	<fs af='hE,v,any,sg,3,,hE,hE' name='hE' posn='140'>
	))
6	((	BLK	<fs name='BLK' drel='rsym:VGF'>
6.1	.	SYM	<fs af='.,punc,,,,,,' name='.' posn='150'>
	))
</Sentence>

<Sentence id='5'>
1	((	VGF	<fs name='VGF' stype='declarative' voicetype='passive'>
1.1	mAnA	VM	<fs af='mAna,v,m,sg,any,,yA,yA' name='mAnA' posn='10'>
1.2	jA	VAUX	<fs af='jA,v,any,any,any,,0,0' name='jA' posn='20'>
1.3	rahA	VAUX	<fs af='raha,v,m,sg,any,,yA,yA' name='rahA' posn='30'>
1.4	hE	VAUX	<fs af='hE,v,any,sg,3,,hE,hE' name='hE' posn='40'>
	))
2	((	CCP	<fs name='CCP' drel='k2:VGF'>
2.1	ki	CC	<fs af='ki,avy,,,,,,' name='ki' posn='50'>
	))
3	((	NP	<fs name='NP' drel='k7p:VGNF'>
3.1	laMxana	NNP	<fs af='laMxana,n,m,sg,3,o,0,0' name='laMxana' posn='60'>
3.2	meM	PSP	<fs af='meM,psp,,,,,,' name='meM' posn='70'>
	))
4	((	VGNF	<fs name='VGNF' drel='nmod__k1inv:NP2'>
4.1	hue	VM	<fs af='ho,v,m,sg,any,,yA,yA' name='hue' posn='80'>
	))
5	((	NP	<fs name='NP2' drel='k7:VGF2'>
5.1	AwaMkI	JJ	<fs af='AwaMkI,adj,any,any,,o,,' name='AwaMkI' posn='90'>
5.2	hamale	NN	<fs af='hamalA,n,m,sg,3,o,0,0' name='hamale' posn='100'>
5.3	ke	PSP	<fs af='ke,psp,,,,,,' name='ke' posn='110'>
5.4	pICe	NST	<fs af='pICe,nst,m,sg,3,d,,' name='pICe' posn='120'>
	))
6	((	NP	<fs name='NP3' drel='r6:NP4'>
6.1	usI	PRP	<fs af='vaha,pn,any,sg,3,o,0,0' name='usI' posn='130'>
6.2	kA	PSP	<fs af='kA,psp,m,sg,,d,,' name='kA' posn='140'>
	))
7	((	NP	<fs name='NP4' drel='k1:VGF2'>
7.1	hAWa	NN	<fs af='hAWa,n,m,sg,3,d,0,0' name='hAWa' posn='150'>
	))
8	((	VGF	<fs voicetype='active' name='VGF2' stype='declarative' drel='ccof:CCP'>
8.1	hE	VM	<fs af='hE,v,any,sg,3,,hE,hE' name='hE2' posn='160'>
	))
9	((	BLK	<fs name='BLK' drel='rsym:VGF'>
9.1	.	SYM	<fs af='.,punc,,,,,,' name='.' posn='170'>
	))
</Sentence>

<Sentence id='6'>
1	((	NP	<fs name='NP' drel='k7p:VGF'>
1.1	kaI	QF	<fs af='kaI,avy,,,,,,' name='kaI' posn='10'>
1.2	aKabAroM	NN	<fs af='aKabAra,n,m,pl,3,o,0,0' name='aKabAroM' posn='20'>
1.3	meM	PSP	<fs af='meM,psp,,,,,,' name='meM' posn='30'>
1.4	wo	RP	<fs af='wo,avy,,,,,,' name='wo' posn='40'>
	))
2	((	NP	<fs name='NP2' drel='k7t:VGF'>
2.1	yahAM	PRP	<fs af='yahAz,pn,,,,o,,' name='yahAM' posn='50'>
2.2	waka	PSP	<fs af='waka,psp,,,,,,' name='waka' posn='60'>
	))
3	((	NP	<fs name='NP3' drel='k1:VGF'>
3.1	Kabara	NN	<fs af='Kabara,n,f,sg,3,d,0,0' name='Kabara' posn='70'>
	))
4	((	JJP	<fs name='JJP' drel='pof:VGF'>
4.1	prakASiwa	JJ	<fs af='prakASiwa,adj,any,any,,,,' name='prakASiwa' posn='80'>
	))
5	((	VGF	<fs name='VGF' stype='declarative' voicetype='active'>
5.1	huI	VM	<fs af='ho,v,f,sg,any,,yA,yA' name='huI' posn='90'>
5.2	hE	VAUX	<fs af='hE,v,any,sg,3,,hE,hE' name='hE' posn='100'>
	))
6	((	CCP	<fs name='CCP' drel='k2:VGF'>
6.1	ki	CC	<fs af='ki,avy,,,,,,' name='ki' posn='110'>
	))
7	((	NP	<fs name='NP4' drel='k2:VGF2'>
7.1	asavawa	NNP	<fs af='asavawa,n,m,sg,3,o,0,0' name='asavawa' posn='120'>
7.2	ko	PSP	<fs af='ko,psp,,,,,,' name='ko' posn='130'>
	))
8	((	NP	<fs name='NP5' drel='k7p:VGF2'>
8.1	pAkiswAna	NNP	<fs af='pAkiswAna,n,m,sg,3,o,0,0' name='pAkiswAna' posn='140'>
8.2	meM	PSP	<fs af='meM,psp,,,,,,' name='meM2' posn='150'>
	))
9	((	JJP	<fs name='JJP2' drel='pof:VGF2'>
9.1	giraPwAra	JJ	<fs af='giraPwAra,adj,any,any,,,,' name='giraPwAra' posn='160'>
	))
10	((	VGF	<fs voicetype='passive' name='VGF2' stype='declarative' drel='ccof:CCP'>
10.1	kiyA	VM	<fs af='kara,v,m,sg,any,,yA,yA' name='kiyA' posn='170'>
10.2	jA	VAUX	<fs af='jA,v,any,any,any,,0,0' name='jA' posn='180'>
10.3	cukA	VAUX	<fs af='cuka,v,m,sg,any,,yA,yA' name='cukA' posn='190'>
10.4	hE	VAUX	<fs af='hE,v,any,sg,3,,hE,hE' name='hE2' posn='200'>
	))
11	((	BLK	<fs name='BLK' drel='rsym:VGF'>
11.1	.	SYM	<fs af='.,punc,,,,,,' name='.' posn='210'>
	))
</Sentence>

<Sentence id='7'>
1	((	NP	<fs name='NP' drel='k7t:VGF'>
1.1	ravivAra	NNP	<fs af='ravivAra,n,m,sg,3,o,0,0' name='ravivAra' posn='10'>
1.2	ko	PSP	<fs af='ko,psp,,,,,,' name='ko' posn='20'>
	))
2	((	NP	<fs name='NP2' drel='k1:VGF'>
2.1	'	SYM	<fs af='SINGLE_QUOTE,punc,,,,,,' name=''' posn='30'>
2.2	xI	NNPC	<fs af='xI,n,m,sg,3,d,0,0' name='xI' posn='40'>
2.3	mela	NNP	<fs af='mela,n,f,sg,3,o,0,0' name='mela' posn='50'>
2.4	'	SYM	<fs af='SINGLE_QUOTE,punc,,,,,,' name=''2' posn='60'>
2.5	ne	PSP	<fs af='ne,psp,,,,,,' name='ne' posn='70'>
	))
3	((	NP	<fs name='NP3' drel='rd:VGF'>
3.1	ePabIAI	NNP	<fs af='ePabIAI,n,f,sg,3,o,0,0' name='ePabIAI' posn='80'>
3.2	ke	PSP	<fs af='ke,psp,m,,,o,,' name='ke' posn='90'>
3.3	havAle	PSP	<fs af='havAlA,n,m,,,o,,' name='havAle' posn='100'>
3.4	se	PSP	<fs af='se,psp,,,,,,' name='se' posn='110'>
	))
4	((	VGF	<fs name='VGF' stype='declarative' voicetype='active'>
4.1	liKA	VM	<fs af='liKa,v,m,sg,any,,yA,yA' name='liKA' posn='120'>
	))
5	((	CCP	<fs name='CCP' drel='k2:VGF'>
5.1	ki	CC	<fs af='ki,avy,,,,,,' name='ki' posn='130'>
	))
6	((	NP	<fs name='NP4' drel='k7t:VGNF'>
6.1	7	NNPC	<fs af='7,n,any,sg,3,d,0,0' name='7' posn='140'>
6.2	julAI	NNP	<fs af='julAI,n,f,sg,3,o,0,0' name='julAI' posn='150'>
6.3	ko	PSP	<fs af='ko,psp,,,,,,' name='ko2' posn='160'>
	))
7	((	NP	<fs name='NP5' drel='k7p:VGNF'>
7.1	laMxana	NNP	<fs af='laMxana,n,m,sg,3,o,0,0' name='laMxana' posn='170'>
7.2	meM	PSP	<fs af='meM,psp,,,,,,' name='meM' posn='180'>
	))
8	((	VGNF	<fs name='VGNF' drel='nmod__k1inv:NP6'>
8.1	hue	VM	<fs af='ho,v,m,pl,any,,yA,yA' name='hue' posn='190'>
	))
9	((	NP	<fs name='NP6' drel='k7:VGF2'>
9.1	XamAkoM	NN	<fs af='XamAkA,n,m,pl,3,o,0,0' name='XamAkoM' posn='200'>
9.2	ke	PSP	<fs af='ke,psp,,,,,,' name='ke2' posn='210'>
9.3	pICe	NST	<fs af='pICe,nst,m,sg,3,d,,' name='pICe' posn='220'>
	))
10	((	NP	<fs name='NP7' drel='r6:NP8'>
10.1	asavawa	NNP	<fs af='asavawa,n,m,sg,3,o,0,0' name='asavawa' posn='230'>
10.2	kA	PSP	<fs af='kA,psp,m,sg,,d,,' name='kA' posn='240'>
10.3	hI	RP	<fs af='hI,avy,,,,,,' name='hI' posn='250'>
	))
11	((	NP	<fs name='NP8' drel='k1:VGF2'>
11.1	hAWa	NN	<fs af='hAWa,n,m,sg,3,d,0,0' name='hAWa' posn='260'>
	))
12	((	VGF	<fs voicetype='active' name='VGF2' stype='declarative' drel='ccof:CCP2'>
12.1	hE	VM	<fs af='hE,v,any,sg,3,,hE,hE' name='hE' posn='270'>
12.2	,	SYM	<fs af='COMMA,punc,,,,,,' name=',' posn='280'>
	))
13	((	CCP	<fs name='CCP2' drel='ccof:CCP'>
13.1	lekina	CC	<fs af='lekina,avy,,,,,,' name='lekina' posn='290'>
	))
14	((	NP	<fs name='NP9' drel='k1:VGF3'>
14.1	ucca	JJC	<fs af='ucca,adj,any,any,,o,,' name='ucca' posn='300'>
14.2	paxasWa	JJ	<fs af='paxasWa,adj,any,any,,o,,' name='paxasWa' posn='310'>
14.3	britiSa	JJ	<fs af='britiSa,adj,any,any,,o,,' name='britiSa' posn='320'>
14.4	surakRA	NNC	<fs af='surakRA,n,f,sg,3,d,0,0' name='surakRA' posn='330'>
14.5	sUwroM	NN	<fs af='sUwra,n,m,pl,3,o,0,0' name='sUwroM' posn='340'>
14.6	ne	PSP	<fs af='ne,psp,,,,,,' name='ne2' posn='350'>
	))
15	((	NP	<fs name='NP10' drel='k7:VGNN'>
15.1	hamale	NN	<fs af='hamalA,n,m,sg,3,o,0,0' name='hamale' posn='360'>
15.2	meM	PSP	<fs af='meM,psp,,,,,,' name='meM2' posn='370'>
	))
16	((	NP	<fs name='NP11' drel='k1:VGNN'>
16.1	asavawa	NNP	<fs af='asavawa,n,m,sg,3,o,0,0' name='asavawa2' posn='380'>
16.2	ke	PSP	<fs af='ke,psp,,,,,,' name='ke3' posn='390'>
	))
17	((	JJP	<fs name='JJP' drel='pof:VGNN'>
17.1	SAmila	JJ	<fs af='SAmila,adj,any,any,,,,' name='SAmila' posn='400'>
	))
18	((	VGNN	<fs name='VGNN' drel='r6:NP12'>
18.1	hone	VM	<fs af='ho,v,any,any,any,o,nA,nA' name='hone' posn='410'>
18.2	kI	PSP	<fs af='kA,psp,f,sg,,o,,' name='kI' posn='420'>
	))
19	((	NP	<fs name='NP12' drel='k2:VGF3'>
19.1	bAwa	NN	<fs af='bAwa,n,f,sg,3,o,0,0' name='bAwa' posn='430'>
19.2	se	PSP	<fs af='se,psp,,,,,,' name='se2' posn='440'>
	))
20	((	NP	<fs name='NP13' drel='pof:VGF3'>
20.1	inakAra	NN	<fs af='inakAra,n,m,sg,3,d,0,0' name='inakAra' posn='450'>
	))
21	((	VGF	<fs voicetype='active' name='VGF3' stype='declarative' drel='ccof:CCP2'>
21.1	kiyA	VM	<fs af='kara,v,m,sg,any,,yA,yA' name='kiyA' posn='460'>
21.2	hE	VAUX	<fs af='hE,v,any,sg,3,,hE,hE' name='hE2' posn='470'>
	))
22	((	BLK	<fs name='BLK' drel='rsym:VGF'>
22.1	.	SYM	<fs af='.,punc,,,,,,' name='.' posn='480'>
	))
</Sentence>

<Sentence id='8'>
1	((	NP	<fs name='NP' drel='k7a:VGF'>
1.1	riporta	NN	<fs af='riporta,n,f,sg,3,o,0,0' name='riporta' posn='10'>
1.2	ke	PSP	<fs af='ke,psp,,,,,,' name='ke' posn='20'>
1.3	anusAra	PSP	<fs af='anusAra,psp,,,,,,' name='anusAra' posn='30'>
	))
2	((	NP	<fs name='NP2' drel='k1:VGF'>
2.1	asavawa	NNP	<fs af='asavawa,n,m,sg,3,d,0,0' name='asavawa' posn='40'>
	))
3	((	NP	<fs name='NP3' drel='r6:NP4'>
3.1	laMxana	NNP	<fs af='laMxana,n,m,sg,3,o,0,0' name='laMxana' posn='50'>
3.2	ke	PSP	<fs af='kA,psp,m,sg,,o,,' name='ke2' posn='60'>
	))
4	((	NP	<fs name='NP4' drel='r6:NP5'>
4.1	eka	QC	<fs af='eka,num,any,any,,any,,' name='eka' posn='70'>
4.2	kattarapaMWI	JJ	<fs af='kattarapaMWI,adj,any,any,,o,,' name='kattarapaMWI' posn='80'>
4.3	mOlavI	NN	<fs af='mOlavI,n,m,sg,3,o,0,0' name='mOlavI' posn='90'>
4.4	kA	PSP	<fs af='kA,psp,m,sg,,d,,' name='kA' posn='100'>
	))
5	((	NP	<fs name='NP5' drel='k1s:VGF'>
5.1	anuyAyI	NN	<fs af='anuyAyI,n,m,sg,3,d,0,0' name='anuyAyI' posn='110'>
	))
6	((	VGF	<fs name='VGF' stype='declarative' voicetype='active'>
6.1	hE	VM	<fs af='hE,v,any,sg,3,,hE,hE' name='hE' posn='120'>
	))
7	((	BLK	<fs name='BLK' drel='rsym:VGF'>
7.1	.	SYM	<fs af='.,punc,,,,,,' name='.' posn='130'>
	))
</Sentence>

<Sentence id='9'>
1	((	NP	<fs name='NP' drel='k7a:VGF'>
1.1	ePabIAI	NNP	<fs af='ePabIAI,n,f,sg,3,d,0,0' name='ePabIAI' posn='10'>
1.2	sUwroM	NN	<fs af='sUwra,n,m,pl,3,o,0,0' name='sUwroM' posn='20'>
1.3	ke	PSP	<fs af='ke,psp,,,,,,' name='ke' posn='30'>
1.4	anusAra	PSP	<fs af='anusAra,psp,,,,,,' name='anusAra' posn='40'>
	))
2	((	NP	<fs name='NP2' drel='k1:VGF'>
2.1	asavawa	NNP	<fs af='asavawa,n,m,sg,3,d,0,0' name='asavawa' posn='50'>
	))
3	((	NP	<fs name='NP3' drel='adv:VGF'>
3.1	pahalI	QO	<fs af='pahalA,num,f,sg,,d,,' name='pahalI' posn='60'>
3.2	bAra	NN	<fs af='bAra,n,f,sg,3,d,0,0' name='bAra' posn='70'>
	))
4	((	NP	<fs name='NP4' drel='k7t:VGF'>
4.1	1999	NNP	<fs af='1999,n,any,sg,3,o,0,0' name='1999' posn='80'>
4.2	meM	PSP	<fs af='meM,psp,,,,,,' name='meM' posn='90'>
	))
5	((	NP	<fs name='NP5' drel='r6:NP6'>
5.1	amerikiyoM	NN	<fs af='amerikI,n,m,pl,3,o,0,0' name='amerikiyoM' posn='100'>
5.2	kI	PSP	<fs af='kA,psp,f,sg,,o,,' name='kI' posn='110'>
	))
6	((	NP	<fs name='NP6' drel='k7:VGF'>
6.1	najara	NN	<fs af='najara,n,f,sg,3,o,0,0' name='najara' posn='120'>
6.2	meM	PSP	<fs af='meM,psp,,,,,,' name='meM2' posn='130'>
	))
7	((	VGF	<fs name='VGF' stype='declarative' voicetype='active'>
7.1	AyA	VM	<fs af='A,v,m,sg,any,,yA,yA' name='AyA' posn='140'>
7.2	WA	VAUX	<fs af='WA,v,m,sg,any,,WA,WA' name='WA' posn='150'>
	))
8	((	BLK	<fs name='BLK' drel='rsym:VGF'>
8.1	.	SYM	<fs af='.,punc,,,,,,' name='.' posn='160'>
	))
</Sentence>

<Sentence id='10'>
1	((	NP	<fs name='NP' drel='k7t:VGF'>
1.1	waba	PRP	<fs af='waba,pn,,,,d,,' name='waba' posn='10'>
	))
2	((	NP	<fs name='NP2' drel='k1:VGF'>
2.1	vaha	PRP	<fs af='vaha,pn,any,sg,3,d,0,0' name='vaha' posn='20'>
	))
3	((	NP	<fs name='NP3' drel='ras-k1:VGF'>
3.1	usmAna	NNPC	<fs af='usmAna,n,m,sg,3,d,0,0' name='usmAna' posn='30'>
3.2	kAsira	NNP	<fs af='kAsira,n,m,sg,3,o,0,0' name='kAsira' posn='40'>
3.3	ke	PSP	<fs af='ke,psp,,,,,,' name='ke' posn='50'>
3.4	sAWa	NST	<fs af='sAWa,nst,m,sg,3,d,,' name='sAWa' posn='60'>
	))
4	((	NP	<fs name='NP4' drel='k2p:VGF'>
4.1	sietala	NNP	<fs af='sietala,n,m,sg,3,d,0,0' name='sietala' posn='70'>
	))
5	((	VGF	<fs name='VGF' stype='declarative' voicetype='active'>
5.1	AyA	VM	<fs af='A,v,m,sg,any,,yA,yA' name='AyA' posn='80'>
5.2	WA	VAUX	<fs af='WA,v,m,sg,any,,WA,WA' name='WA' posn='90'>
	))
6	((	BLK	<fs name='BLK' drel='rsym:VGF'>
6.1	.	SYM	<fs af='.,punc,,,,,,' name='.' posn='100'>
	))
</Sentence>

<Sentence id='11'>
1	((	NP	<fs name='NP' drel='k1:VGF'>
1.1	kAsira	NNP	<fs af='kAsira,n,m,sg,3,d,0,0' name='kAsira' posn='10'>
	))
2	((	NP	<fs name='NP2' drel='r6:NP4'>
2.1	svIdana	NNP	<fs af='svIdana,n,m,sg,3,o,0,0' name='svIdana' posn='20'>
	))
3	((	NP	<fs name='NP3' drel='rs:NP2'>
3.1	(	SYM	<fs af='(,punc,,,,,,' name='(' posn='30'>
3.2	lebanAnI	JJ	<fs af='lebanAnI,adj,any,any,,o,,' name='lebanAnI' posn='40'>
3.3	mUla	NN	<fs af='mUla,n,m,sg,3,o,0,0' name='mUla' posn='50'>
3.4	)	SYM	<fs af='),punc,,,,,,' name=')' posn='60'>
	))
4	((	FRAGP	<fs name='FRAGP' drel='fragof:NP2'>
4.1	kA	PSP	<fs af='kA,psp,m,sg,,d,,' name='kA' posn='70'>
	))
5	((	NP	<fs name='NP4' drel='k1s:VGF'>
5.1	nAgarika	NN	<fs af='nAgarika,n,m,sg,3,d,0,0' name='nAgarika' posn='80'>
	))
6	((	VGF	<fs name='VGF' stype='declarative' voicetype='active'>
6.1	WA	VM	<fs af='WA,v,m,sg,any,,WA,WA' name='WA' posn='90'>
	))
7	((	BLK	<fs name='BLK' drel='rsym:VGF'>
7.1	.	SYM	<fs af='.,punc,,,,,,' name='.' posn='100'>
	))
</Sentence>

<Sentence id='12'>
1	((	NP	<fs name='NP' drel='k2:VGF'>
1.1	use	PRP	<fs af='vaha,pn,any,sg,3,o,ko,ko' name='use' posn='10'>
	))
2	((	NP	<fs name='NP2' drel='k7t:VGF'>
2.1	kaBI	PRP	<fs af='kaBI,pn,,,,d,,' name='kaBI' posn='20'>
	))
3	((	NP	<fs name='NP3' drel='r6:NP4'>
3.1	osAmA	NNPC	<fs af='osAmA,n,m,sg,3,d,0,0' name='osAmA' posn='30'>
3.2	bina	NNPC	<fs af='bina,n,m,sg,3,d,0,0' name='bina' posn='40'>
3.3	lAxena	NNP	<fs af='lAxena,n,m,sg,3,o,0,0' name='lAxena' posn='50'>
3.4	kA	PSP	<fs af='kA,psp,m,sg,,d,,' name='kA' posn='60'>
	))
4	((	NP	<fs name='NP4' drel='k2s:VGF'>
4.1	KAsa	JJ	<fs af='KAsa,adj,any,any,,d,,' name='KAsa' posn='70'>
4.2	AxamI	NN	<fs af='AxamI,n,m,sg,3,d,0,0' name='AxamI' posn='80'>
	))
5	((	VGF	<fs name='VGF' stype='declarative' voicetype='passive'>
5.1	mAnA	VM	<fs af='mAna,v,m,sg,any,,yA,yA' name='mAnA' posn='90'>
5.2	jAwA	VAUX	<fs af='jA,v,m,sg,any,,wA,wA' name='jAwA' posn='100'>
5.3	WA	VAUX	<fs af='WA,v,m,sg,any,,WA,WA' name='WA' posn='110'>
	))
6	((	BLK	<fs name='BLK' drel='rsym:VGF'>
6.1	.	SYM	<fs af='.,punc,,,,,,' name='.' posn='120'>
	))
</Sentence>

<Sentence id='13'>
1	((	NP	<fs name='NP' drel='k1:VGF'>
1.1	KuPiyA	NNC	<fs af='KuPiyA,adj,any,any,,o,,' name='KuPiyA' posn='10'>
1.2	jAMca	NNC	<fs af='jAMca,n,f,sg,3,d,0,0' name='jAMca' posn='20'>
1.3	ejeMsI	NN	<fs af='ejeMsI,n,f,sg,3,o,0,0' name='ejeMsI' posn='30'>
1.4	ne	PSP	<fs af='ne,psp,,,,,,' name='ne' posn='40'>
	))
2	((	NP	<fs name='NP2' drel='pof:VGF'>
2.1	xAvA	NN	<fs af='xAvA,n,m,sg,3,d,0,0' name='xAvA' posn='50'>
	))
3	((	VGF	<fs name='VGF' stype='declarative' voicetype='active'>
3.1	kiyA	VM	<fs af='kara,v,m,sg,any,,yA,yA' name='kiyA' posn='60'>
3.2	hE	VAUX	<fs af='hE,v,any,sg,3,,hE,hE' name='hE' posn='70'>
	))
4	((	CCP	<fs name='CCP' drel='k2:VGF'>
4.1	ki	CC	<fs af='ki,avy,,,,,,' name='ki' posn='80'>
	))
5	((	NP	<fs name='NP3' drel='k1:VGF2'>
5.1	ye	DEM	<fs af='yaha,pn,any,pl,3,d,,' name='ye' posn='90'>
5.2	xonoM	NN	<fs af='xo,n,any,pl,3,d,0,0' name='xonoM' posn='100'>
	))
6	((	NP	<fs name='NP4' drel='k2:VGF2'>
6.1	jemsa	NNPC	<fs af='jemsa,n,m,sg,3,d,0,0' name='jemsa' posn='110'>
6.2	ujAmA	NNP	<fs af='ujAmA,n,m,sg,3,o,0,0' name='ujAmA' posn='120'>
6.3	se	PSP	<fs af='se,psp,,,,,,' name='se' posn='130'>
	))
7	((	VGF	<fs voicetype='active' name='VGF2' stype='declarative' drel='ccof:CCP'>
7.1	mile	VM	<fs af='mila,v,m,pl,any,,yA,yA' name='mile' posn='140'>
7.2	We	VAUX	<fs af='WA,v,m,pl,any,,WA,WA' name='We' posn='150'>
7.3	,	SYM	<fs af='COMMA,punc,,,,,,' name=',' posn='160'>
	))
8	((	NP	<fs coref=':NP4' name='NP5' drel='k1:VGF3'>
8.1	jisane	PRP	<fs af='jo,pn,any,sg,3,o,ne,ne' name='jisane' posn='170'>
	))
9	((	NP	<fs name='NP6' drel='r6:NP7'>
9.1	oregAMva	NNP	<fs af='oregAMva,n,m,sg,3,o,0,0' name='oregAMva' posn='180'>
9.2	ke	PSP	<fs af='kA,psp,m,sg,,o,,' name='ke' posn='190'>
	))
10	((	NP	<fs name='NP7' drel='k7:VGNN'>
10.1	bilI	NNP	<fs af='bilI,n,m,sg,3,o,0,0' name='bilI' posn='200'>
10.2	meM	PSP	<fs af='meM,psp,,,,,,' name='meM' posn='210'>
	))
11	((	NP	<fs name='NP8' drel='k2u:VGF3'>
11.1	aPagAniswAna	NNP	<fs af='aPagAniswAna,n,m,sg,3,o,0,0' name='aPagAniswAna' posn='220'>
11.2	kI	PSP	<fs af='kA,psp,f,,,o,,' name='kI' posn='230'>
11.3	waraha	PSP	<fs af='waraha,n,f,,,o,,' name='waraha' posn='240'>
	))
12	((	NP	<fs name='NP9' drel='k2:VGNN'>
12.1	praSikRaNa	NNC	<fs af='praSikRaNa,n,m,sg,3,d,0,0' name='praSikRaNa' posn='250'>
12.2	kEMpa	NN	<fs af='kEMpa,n,m,sg,3,d,0,0' name='kEMpa' posn='260'>
	))
13	((	VGNN	<fs name='VGNN' drel='r6:NP10'>
13.1	Kolane	VM	<fs af='Kola,v,any,any,any,o,nA,nA' name='Kolane' posn='270'>
13.2	kA	PSP	<fs af='kA,psp,m,sg,,d,,' name='kA' posn='280'>
	))
14	((	NP	<fs name='NP10' drel='k2:VGF3'>
14.1	praswAva	NN	<fs af='praswAva,n,m,sg,3,d,0,0' name='praswAva' posn='290'>
	))
15	((	VGF	<fs voicetype='active' name='VGF3' stype='declarative' drel='nmod__relc:NP4'>
15.1	xiyA	VM	<fs af='xe,v,m,sg,any,,yA,yA' name='xiyA' posn='300'>
15.2	WA	VAUX	<fs af='WA,v,m,sg,any,,WA,WA' name='WA' posn='310'>
	))
16	((	BLK	<fs name='BLK' drel='rsym:VGF'>
16.1	.	SYM	<fs af='.,punc,,,,,,' name='.' posn='320'>
	))
</Sentence>

<Sentence id='14'>
1	((	NP	<fs name='NP' drel='rt:VGF'>
1.1	kEMpa	NN	<fs af='kEMpa,n,m,sg,3,o,0,0' name='kEMpa' posn='10'>
1.2	ke	PSP	<fs af='ke,psp,,,,,,' name='ke' posn='20'>
1.3	lie	PSP	<fs af='lie,psp,,,,,,' name='lie' posn='30'>
	))
2	((	NP	<fs name='NP2' drel='k2:VGF'>
2.1	160	QC	<fs af='160,num,any,any,,any,,' name='160' posn='40'>
2.2	ekadZa	NN	<fs af='ekada,n,m,sg,3,d,0,0' name='ekadZa' posn='50'>
2.3	BUmi	NN	<fs af='BUmi,n,f,sg,3,d,0,0' name='BUmi' posn='60'>
	))
3	((	NP	<fs name='NP3' drel='pof:VGF'>
3.1	walASa	NN	<fs af='walASa,n,f,sg,3,d,0,0' name='walASa' posn='60'>
	))
4	((	VGF	<fs name='VGF' stype='declarative' voicetype='active'>
4.1	lI	VM	<fs af='le,v,f,sg,any,,yA,yA' name='lI' posn='80'>
4.2	gaI	VAUX	<fs af='jA,v,f,sg,any,,yA1,yA1' name='gaI' posn='90'>
4.3	WI	VAUX	<fs af='WA,v,f,sg,any,,WA,WA' name='WI' posn='100'>
	))
5	((	BLK	<fs name='BLK' drel='rsym:VGF'>
5.1	.	SYM	<fs af='.,punc,,,,,,' name='.' posn='110'>
	))
</Sentence>

<Sentence id='15'>
1	((	NP	<fs name='NP' drel='k1:VGF'>
1.1	yaha	DEM	<fs af='yaha,pn,any,sg,3,d,,' name='yaha' posn='10'>
1.2	jamIna	NN	<fs af='jamIna,n,f,sg,3,d,0,0' name='jamIna' posn='20'>
	))
2	((	NP	<fs name='NP2' drel='r6:NP3'>
2.1	sietala	NNP	<fs af='sietala,n,m,sg,3,o,0,0' name='sietala' posn='30'>
2.2	ke	PSP	<fs af='kA,psp,m,sg,,o,,' name='ke' posn='40'>
	))
3	((	NP	<fs name='NP3' drel='r6:NP4'>
3.1	eka	QC	<fs af='eka,num,any,any,,any,,' name='eka' posn='50'>
3.2	masjixa	NN	<fs af='masjixa,n,f,sg,3,o,0,0' name='masjixa' posn='60'>
3.3	ke	PSP	<fs af='kA,psp,m,sg,,o,,' name='ke2' posn='70'>
	))
4	((	NP	<fs name='NP4' drel='nmod:NP5'>
4.1	mOlavI	NN	<fs af='mOlavI,n,m,sg,3,o,0,0' name='mOlavI' posn='80'>
	))
5	((	NP	<fs name='NP5' drel='r6:NP6'>
5.1	samI	NNPC	<fs af='samI,n,m,sg,3,d,0,0' name='samI' posn='90'>
5.2	usmAna	NNP	<fs af='usmAna,n,m,sg,3,o,0,0' name='usmAna' posn='100'>
5.3	ke	PSP	<fs af='kA,psp,m,sg,,o,,' name='ke3' posn='110'>
	))
6	((	NP	<fs name='NP6' drel='r6:NP'>
6.1	riSwexAra	NN	<fs af='riSwexAra,n,m,sg,3,o,0,0' name='riSwexAra' posn='120'>
6.2	kI	PSP	<fs af='kA,psp,f,sg,,d,,' name='kI' posn='130'>
	))
7	((	VGF	<fs name='VGF' stype='declarative' voicetype='active'>
7.1	WI	VM	<fs af='WA,v,f,sg,any,,WA,WA' name='WI' posn='140'>
	))
8	((	BLK	<fs name='BLK' drel='rsym:VGF'>
8.1	.	SYM	<fs af='.,punc,,,,,,' name='.' posn='150'>
	))
</Sentence>

<Sentence id='16'>
1	((	NP	<fs name='NP' drel='r6:NP2'>
1.1	asavawa	NNP	<fs af='asavawa,n,m,sg,3,o,0,0' name='asavawa' posn='10'>
1.2	kI	PSP	<fs af='kA,psp,f,sg,,d,,' name='kI' posn='20'>
	))
2	((	NP	<fs name='NP2' drel='k1:VGF'>
2.1	yaha	DEM	<fs af='yaha,pn,any,sg,3,d,,' name='yaha' posn='30'>
2.2	yojanA	NN	<fs af='yojanA,n,f,sg,3,d,0,0' name='yojanA' posn='40'>
	))
3	((	RBP	<fs name='RBP' drel='adv:VGF'>
3.1	SIGra	RB	<fs af='SIGra,adv,,,,,,' name='SIGra' posn='50'>
3.2	hI	RP	<fs af='hI,avy,,,,,,' name='hI' posn='60'>
	))
4	((	JJP	<fs name='JJP' drel='k2:VGF'>
4.1	nAkAma	JJ	<fs af='nAkAma,adj,any,any,,,,' name='nAkAma' posn='70'>
	))
5	((	JJP	<fs name='JJP2' drel='pof:VGF'>
5.1	sAbiwa	JJ	<fs af='sAbiwa,adj,any,any,,,,' name='sAbiwa' posn='80'>
	))
6	((	VGF	<fs name='VGF' stype='declarative' voicetype='active'>
6.1	ho	VM	<fs af='ho,v,any,any,any,,0,0' name='ho' posn='90'>
6.2	gaI	VAUX	<fs af='jA,v,f,sg,any,,yA1,yA1' name='gaI' posn='100'>
6.3	WI	VAUX	<fs af='WA,v,f,sg,any,,WA,WA' name='WI' posn='110'>
	))
7	((	BLK	<fs name='BLK' drel='rsym:VGF'>
7.1	.	SYM	<fs af='.,punc,,,,,,' name='.' posn='120'>
	))
</Sentence>

<Sentence id='17'>
1	((	NP	<fs name='NP' drel='jjmod:JJP'>
1.1	isa	DEM	<fs af='yaha,pn,any,sg,3,o,,' name='isa' posn='10'>
1.2	mAmale	NN	<fs af='mAmalA,n,m,sg,3,o,0,0' name='mAmale' posn='20'>
1.3	se	PSP	<fs af='se,psp,,,,,,' name='se' posn='30'>
	))
2	((	JJP	<fs name='JJP' drel='nmod:NP2'>
2.1	pariciwa	JJ	<fs af='pariciwa,adj,any,any,,o,,' name='pariciwa' posn='40'>
	))
3	((	NP	<fs name='NP2' drel='k1:VGNN'>
3.1	logoM	NN	<fs af='loga,n,m,pl,3,o,0,0' name='logoM' posn='50'>
3.2	kA	PSP	<fs af='kA,psp,m,sg,,d,,' name='kA' posn='60'>
	))
4	((	VGNN	<fs name='VGNN' drel='k1:VGF'>
4.1	kahanA	VM	<fs af='kaha,v,any,any,any,d,nA,nA' name='kahanA' posn='70'>
	))
5	((	VGF	<fs name='VGF' stype='declarative' voicetype='active'>
5.1	hE	VM	<fs af='hE,v,any,sg,3,,hE,hE' name='hE' posn='80'>
	))
6	((	CCP	<fs name='CCP' drel='k2:VGNN'>
6.1	ki	CC	<fs af='ki,avy,,,,,,' name='ki' posn='90'>
	))
7	((	NP	<fs name='NP3' drel='k2p:VGNN2'>
7.1	dOYga	NNPC	<fs af='dOYga,n,m,sg,3,d,0,0' name='dOYga' posn='100'>
7.2	krAI	NNPC	<fs af='krAI,n,m,sg,3,d,0,0' name='krAI' posn='110'>
7.3	reMca	NNP	<fs af='reMca,n,m,sg,3,d,0,0' name='reMca' posn='120'>
	))
8	((	VGNN	<fs name='VGNN2' drel='k7:VGF2'>
8.1	pahuMcane	VM	<fs af='pahuMca,v,any,any,any,o,nA,nA' name='pahuMcane' posn='130'>
8.2	para	PSP	<fs af='para,psp,,,,,,' name='para' posn='140'>
	))
9	((	NP	<fs name='NP4' drel='k4a:VGF2'>
9.1	asavawa	NNP	<fs af='asavawa,n,m,sg,3,o,0,0' name='asavawa' posn='150'>
9.2	ko	PSP	<fs af='ko,psp,,,,,,' name='ko' posn='160'>
	))
10	((	NP	<fs name='NP5' drel='k2:VGNF'>
10.1	yaha	PRP	<fs af='yaha,pn,any,sg,3,d,0,0' name='yaha' posn='170'>
	))
11	((	VGNF	<fs name='VGNF' drel='vmod:VGF2'>
11.1	jAnakara	VM	<fs af='jAna,v,any,any,any,,kara,kara' name='jAnakara' posn='180'>
	))
12	((	NP	<fs name='NP6' drel='pof:VGF2'>
12.1	kAPI	QF	<fs af='kAPI,avy,,,,,,' name='kAPI' posn='190'>
12.2	nirASA	NN	<fs af='nirASA,n,f,sg,3,d,0,0' name='nirASA' posn='200'>
	))
13	((	VGF	<fs voicetype='active' name='VGF2' stype='declarative' drel='ccof:CCP'>
13.1	huI	VM	<fs af='ho,v,f,sg,any,,yA,yA' name='huI' posn='210'>
	))
14	((	CCP	<fs name='CCP2' drel='rs:NP5'>
14.1	ki	CC	<fs af='ki,avy,,,,,,' name='ki2' posn='220'>
	))
15	((	NP	<fs name='NP7' drel='k7:VGF3'>
15.1	ujAmA	NNP	<fs af='ujAmA,n,m,sg,3,o,0,0' name='ujAmA' posn='230'>
15.2	ke	PSP	<fs af='ke,psp,,,,,,' name='ke' posn='240'>
15.3	pAsa	NST	<fs af='pAsa,nst,m,sg,3,d,,' name='pAsa' posn='250'>
	))
16	((	NP	<fs name='NP8' drel='r6:NP9'>
16.1	geta	NN	<fs af='geta,n,m,sg,3,o,0,0' name='geta' posn='260'>
16.2	kI	PSP	<fs af='kA,psp,f,sg,,d,,' name='kI' posn='270'>
	))
17	((	NP	<fs name='NP9' drel='k1:VGF3'>
17.1	cAbI	NN	<fs af='cAbI,n,f,sg,3,d,0,0' name='cAbI' posn='280'>
	))
18	((	VGF	<fs voicetype='active' name='VGF3' stype='declarative' drel='ccof:CCP2'>
18.1	nahIM	NEG	<fs af='nahIM,avy,,,,,,' name='nahIM' posn='290'>
18.2	hE	VM	<fs af='hE,v,any,sg,3,,hE,hE' name='hE2' posn='300'>
	))
19	((	BLK	<fs name='BLK' drel='rsym:VGF'>
19.1	.	SYM	<fs af='.,punc,,,,,,' name='.' posn='310'>
	))
</Sentence>

<Sentence id='18'>
1	((	NP	<fs name='NP' drel='k1:NULL__VGF'>
1.1	yahI	PRP	<fs af='yaha,pn,any,sg,3,d,0,0' name='yahI' posn='10'>
	))
2	((	NEGP	<fs name='NEGP' drel='vmod:NULL__VGF'>
2.1	nahIM	NEG	<fs af='nahIM,avy,,,,,,' name='nahIM' posn='20'>
	))
3	((	NULL__VGF	<fs name='NULL__VGF' dmrel='ccof:NULL__CCP' mtype='gap' troot='hE' voicetype='active' stype='declarative'>
3.1	NULL	VM	<fs name='NULL'>
	))
4	((	NULL__CCP	<fs mtype='gap' troot='balki' name='NULL__CCP'>
4.1	NULL	CC	<fs name='NULL2'>
	))
5	((	NP	<fs name='NP2' drel='k7p:VGF'>
5.1	yahAM	PRP	<fs af='yahAz,pn,,,,d,,' name='yahAM' posn='30'>
	))
6	((	NP	<fs name='NP3' drel='r6:NP4'>
6.1	kisI	PRP	<fs af='koI,pn,any,sg,3,o,0,0' name='kisI' posn='40'>
6.2	waraha	NN	<fs af='waraha,n,f,sg,3,o,0,0' name='waraha' posn='50'>
6.3	kI	PSP	<fs af='kA,psp,f,sg,,d,,' name='kI' posn='60'>
	))
7	((	NP	<fs name='NP4' drel='k1:VGF'>
7.1	vyavasWA	NN	<fs af='vyavasWA,n,f,sg,3,d,0,0' name='vyavasWA' posn='70'>
7.2	BI	RP	<fs af='BI,avy,,,,,,' name='BI' posn='80'>
	))
8	((	VGF	<fs voicetype='active' name='VGF' stype='declarative' drel='ccof:NULL__CCP'>
8.1	nahIM	NEG	<fs af='nahIM,avy,,,,,,' name='nahIM2' posn='90'>
8.2	WI	VM	<fs af='WA,v,f,sg,any,,WA,WA' name='WI' posn='100'>
	))
9	((	BLK	<fs name='BLK' drel='rsym:NULL__CCP'>
9.1	.	SYM	<fs af='.,punc,,,,,,' name='.' posn='110'>
	))
</Sentence>

<Sentence id='19'>
1	((	NP	<fs name='NP' drel='r6:NP2'>
1.1	KAne	NN	<fs af='KAnA,n,m,sg,3,o,0,0' name='KAne' posn='10'>
1.2	kI	PSP	<fs af='kA,psp,f,sg,,d,,' name='kI' posn='20'>
1.3	BI	RP	<fs af='BI,avy,,,,,,' name='BI' posn='30'>
	))
2	((	NP	<fs name='NP2' drel='k1:VGF'>
2.1	vyavasWA	NN	<fs af='vyavasWA,n,f,sg,3,d,0,0' name='vyavasWA' posn='40'>
	))
3	((	VGF	<fs name='VGF' stype='declarative' voicetype='active'>
3.1	nahIM	NEG	<fs af='nahIM,avy,,,,,,' name='nahIM' posn='50'>
3.2	WI	VM	<fs af='WA,v,f,sg,any,,WA,WA' name='WI' posn='60'>
	))
4	((	BLK	<fs name='BLK' drel='rsym:VGF'>
4.1	.	SYM	<fs af='.,punc,,,,,,' name='.' posn='70'>
	))
</Sentence>

<Sentence id='20'>
1	((	NP	<fs name='NP' drel='rt:VGF'>
1.1	isake	PRP	<fs af='yaha,pn,any,sg,3,o,ke,ke' name='isake' posn='10'>
1.2	lie	PSP	<fs af='lie,psp,,,,,,' name='lie' posn='20'>
	))
2	((	NP	<fs name='NP2' drel='r6-k2:NP3'>
2.1	batera	NN	<fs af='batera,n,m,sg,3,o,0,0' name='batera' posn='30'>
2.2	kA	PSP	<fs af='kA,psp,m,sg,,d,,' name='kA' posn='40'>
	))
3	((	NP	<fs name='NP3' drel='pof:VGF'>
3.1	SikAra	NN	<fs af='SikAra,n,m,sg,3,d,0,0' name='SikAra' posn='50'>
	))
4	((	VGF	<fs name='VGF' stype='declarative' voicetype='active'>
4.1	karanA	VM	<fs af='kara,v,m,sg,any,,nA,nA' name='karanA' posn='60'>
4.2	padZawA	VAUX	<fs af='padZa,v,m,sg,any,,wA,wA' name='padZawA' posn='70'>
4.3	WA	VAUX	<fs af='WA,v,m,sg,any,,WA,WA' name='WA' posn='80'>
	))
5	((	BLK	<fs name='BLK' drel='rsym:VGF'>
5.1	.	SYM	<fs af='.,punc,,,,,,' name='.' posn='90'>
	))
</Sentence>

<Sentence id='21'>
1	((	NP	<fs name='NP' drel='vmod:VGNF'>
1.1	parisWiwiyoM	NN	<fs af='parisWiwi,n,f,pl,3,o,0,0' name='parisWiwiyoM' posn='10'>
1.2	se	PSP	<fs af='se,psp,,,,,,' name='se' posn='20'>
	))
2	((	NP	<fs name='NP2' drel='pof:VGNF'>
2.1	waMga	NN	<fs af='waMga,n,m,sg,3,d,0,0' name='waMga' posn='30'>
	))
3	((	VGNF	<fs name='VGNF' drel='vmod:VGF'>
3.1	Akara	VM	<fs af='A,v,any,any,any,,kara,kara' name='Akara' posn='40'>
	))
4	((	NP	<fs name='NP3' drel='k7t:VGF'>
4.1	eka	QC	<fs af='eka,num,any,any,,any,,' name='eka' posn='50'>
4.2	xina	NN	<fs af='xina,n,m,sg,3,d,0,0' name='xina' posn='60'>
	))
5	((	NP	<fs name='NP4' drel='ccof:CCP'>
5.1	asavawa	NNP	<fs af='asavawa,n,m,sg,3,d,0,0' name='asavawa' posn='70'>
	))
6	((	CCP	<fs name='CCP' drel='k1:VGF'>
6.1	Ora	CC	<fs af='Ora,avy,,,,,,' name='Ora' posn='80'>
	))
7	((	NP	<fs name='NP5' drel='ccof:CCP'>
7.1	usmAna	NNP	<fs af='usmAna,n,m,sg,3,d,0,0' name='usmAna' posn='90'>
	))
8	((	NP	<fs name='NP6' drel='k5:VGF'>
8.1	yahAM	PRP	<fs af='yahAz,pn,,,,o,,' name='yahAM' posn='100'>
8.2	se	PSP	<fs af='se,psp,,,,,,' name='se2' posn='110'>
	))
9	((	VGF	<fs voicetype='active' name='VGF' stype='declarative' drel='ccof:CCP2'>
9.1	nikala	VM	<fs af='nikala,v,any,any,any,,0,0' name='nikala' posn='120'>
9.2	padZe	VAUX	<fs af='padZa,v,m,pl,any,,yA,yA' name='padZe' posn='130'>
9.3	,	SYM	<fs af='COMMA,punc,,,,,,' name=',' posn='140'>
	))
10	((	CCP	<fs name='CCP2'>
10.1	lekina	CC	<fs af='lekina,avy,,,,,,' name='lekina' posn='150'>
	))
11	((	NP	<fs name='NP7' drel='r6:NP8'>
11.1	lAlabawwI	NN	<fs af='lAlabawwI,n,f,sg,3,o,0,0' name='lAlabawwI' posn='160'>
11.2	ke	PSP	<fs af='kA,psp,m,sg,,o,,' name='ke' posn='170'>
	))
12	((	NP	<fs name='NP8' drel='r6:NP9'>
12.1	ullaMGana	NN	<fs af='ullaMGana,n,m,sg,3,o,0,0' name='ullaMGana' posn='180'>
12.2	ke	PSP	<fs af='kA,psp,m,sg,,o,,' name='ke2' posn='190'>
	))
13	((	NP	<fs name='NP9' drel='k7:VGF2'>
13.1	Aropa	NN	<fs af='Aropa,n,m,sg,3,o,0,0' name='Aropa' posn='200'>
13.2	meM	PSP	<fs af='meM,psp,,,,,,' name='meM' posn='210'>
	))
14	((	NP	<fs name='NP10' drel='k1:VGF2'>
14.1	eka	QC	<fs af='eka,num,any,any,,any,,' name='eka2' posn='220'>
14.2	pulisa	NN	<fs af='pulisa,n,f,sg,3,o,0,0' name='pulisa' posn='230'>
14.3	vAle	PSP	<fs af='vAlA,psp,m,sg,,o,,' name='vAle' posn='240'>
14.4	ne	PSP	<fs af='ne,psp,,,,,,' name='ne' posn='250'>
	))
15	((	NP	<fs name='NP11' drel='k2:VGF2'>
15.1	unheM	PRP	<fs af='vaha,pn,any,pl,3,o,ko,ko' name='unheM' posn='260'>
	))
16	((	VGF	<fs voicetype='active' name='VGF2' stype='declarative' drel='ccof:CCP2'>
16.1	roka	VM	<fs af='roka,v,any,any,any,,0,0' name='roka' posn='270'>
16.2	liyA	VAUX	<fs af='le,v,m,sg,any,,yA,yA' name='liyA' posn='280'>
	))
17	((	BLK	<fs name='BLK' drel='rsym:CCP2'>
17.1	.	SYM	<fs af='.,punc,,,,,,' name='.' posn='290'>
	))
</Sentence>

<Sentence id='22'>
1	((	CCP	<fs name='CCP'>
1.1	lekina	CC	<fs af='lekina,avy,,,,,,' name='lekina' posn='10'>
	))
2	((	NP	<fs name='NP' drel='k7t:VGF'>
2.1	WodZI	QF	<fs af='WodZA,adj,f,sg,,d,,' name='WodZI' posn='20'>
2.2	xera	NN	<fs af='xera,n,f,sg,3,d,0,0' name='xera' posn='30'>
2.3	bAxa	NST	<fs af='bAxa,nst,m,sg,3,d,,' name='bAxa' posn='40'>
	))
3	((	VGF	<fs voicetype='active' name='VGF' stype='declarative' drel='ccof:CCP'>
3.1	jAne	VM	<fs af='jA,v,any,any,any,o,nA,nA' name='jAne' posn='50'>
3.2	BI	RP	<fs af='BI,avy,,,,,,' name='BI' posn='60'>
3.3	xiyA	VAUX	<fs af='xe,v,m,sg,any,,yA,yA' name='xiyA' posn='70'>
	))
4	((	BLK	<fs name='BLK' drel='rsym:CCP'>
4.1	.	SYM	<fs af='.,punc,,,,,,' name='.' posn='80'>
	))
</Sentence>

