<Sentence id='1'>
1	((	NP	<fs name='NP' drel='r6:NP2'>
1.1	SanivAra	NNP	<fs af='SanivAra,n,m,sg,3,o,0,0' name='SanivAra' posn='10'>
1.2	kI	PSP	<fs af='kA,psp,f,sg,,d,,' name='kI' posn='20'>
	))
2	((	NP	<fs name='NP2' drel='k7t:VGNN'>
2.1	rAwa	NN	<fs af='rAwa,n,f,sg,3,d,0,0' name='rAwa' posn='30'>
2.2	bAraha	QC	<fs af='bAraha,num,any,any,,any,,' name='bAraha' posn='40'>
2.3	baje	NN	<fs af='baje,n,m,sg,3,d,0,0' name='baje' posn='30'>
	))
3	((	NP	<fs name='NP3' drel='r6:NP4'>
3.1	GadZI	NN	<fs af='GadI,n,f,sg,3,o,0,0' name='GadZI' posn='60'>
3.2	kI	PSP	<fs af='kA,psp,f,pl,,o,,' name='kI2' posn='70'>
	))
4	((	NP	<fs name='NP4' drel='k1:VGNN'>
4.1	suIyoM	NN	<fs af='suI,n,f,pl,3,o,0,0' name='suIyoM' posn='80'>
4.2	ke	PSP	<fs af='kA,psp,,,,o,,' name='ke' posn='90'>
	))
5	((	VGNN	<fs name='VGNN' drel='ras-k1:VGF'>
5.1	milane	VM	<fs af='mila,v,any,any,any,o,nA,nA' name='milane' posn='100'>
5.2	ke	PSP	<fs af='ke,psp,,,,,,' name='ke2' posn='110'>
5.3	sAWa	NST	<fs af='sAWa,nst,m,sg,3,d,,' name='sAWa' posn='120'>
5.4	hI	RP	<fs af='hI,avy,,,,,,' name='hI' posn='130'>
	))
6	((	NP	<fs name='NP5' drel='r6-k1:NP6'>
6.1	eka	QC	<fs af='eka,num,any,any,,any,,' name='eka' posn='140'>
6.2	Ora	QF	<fs af='Ora,avy,,,,,,' name='Ora' posn='150'>
6.3	nae	JJ	<fs af='nayA,adj,m,sg,,o,,' name='nae' posn='160'>
6.4	varRa	NN	<fs af='varRa,n,m,sg,3,o,0,0' name='varRa' posn='170'>
6.5	kA	PSP	<fs af='kA,psp,m,sg,,d,,' name='kA' posn='180'>
	))
7	((	NP	<fs name='NP6' drel='pof:VGF'>
7.1	SuBAraMBa	NN	<fs af='SuBAraMBa,n,m,sg,3,d,0,0' name='SuBAraMBa' posn='190'>
	))
8	((	VGF	<fs name='VGF' stype='declarative' voicetype='active'>
8.1	ho	VM	<fs af='ho,v,any,any,any,,0,0' name='ho' posn='200'>
8.2	gayA	VAUX	<fs af='jA,v,m,sg,any,,yA1,yA1' name='gayA' posn='210'>
	))
9	((	NP	<fs coref=':NP5' name='NP7' drel='r6-k2:NP11'>
9.1	jisakA	PRP	<fs af='jo,pn,m,sg,3,o,kA,kA' name='jisakA' posn='220'>
	))
10	((	NP	<fs name='NP8' drel='k7p:VGF2'>
10.1	samUcI	JJ	<fs af='samUcA,adj,f,sg,,o,,' name='samUcI' posn='230'>
10.2	xuniyA	NN	<fs af='xuniyA,n,f,sg,3,o,0,0' name='xuniyA' posn='240'>
10.3	meM	PSP	<fs af='meM,psp,,,,,,' name='meM' posn='250'>
	))
11	((	NP	<fs name='NP9' drel='k1:VGF2'>
11.1	logoM	NN	<fs af='loga,n,m,pl,3,o,0,0' name='logoM' posn='260'>
11.2	ne	PSP	<fs af='ne,psp,,,,,,' name='ne' posn='270'>
	))
12	((	NP	<fs name='NP10' drel='vmod:VGF2'>
12.1	AwiSabAjI	NN	<fs af='AwiSabAjI,n,f,sg,3,o,0,0' name='AwiSabAjI' posn='280'>
12.2	ke	PSP	<fs af='ke,psp,,,,,,' name='ke3' posn='290'>
12.3	sAWa	NST	<fs af='sAWa,nst,m,sg,3,d,,' name='sAWa2' posn='300'>
	))
13	((	NP	<fs name='NP11' drel='pof:VGF2'>
13.1	svAgawa	NN	<fs af='svAgawa,n,m,sg,3,d,0,0' name='svAgawa' posn='310'>
	))
14	((	VGF	<fs voicetype='active' name='VGF2' stype='declarative' drel='nmod__relc:NP5'>
14.1	kiyA	VM	<fs af='kara,v,m,sg,any,,yA,yA' name='kiyA' posn='320'>
	))
15	((	BLK	<fs name='BLK' drel='rsym:VGF'>
15.1	.	SYM	<fs af='.,punc,,,,,,' name='.' posn='330'>
	))
</Sentence>

<Sentence id='2'>
1	((	NP	<fs name='NP' drel='ccof:CCP'>
1.1	hiMsA	NN	<fs af='hiMsA,n,f,sg,3,o,0,0' name='hiMsA' posn='10'>
	))
2	((	CCP	<fs name='CCP' drel='ras-k1:VGNF'>
2.1	Ora	CC	<fs af='Ora,avy,,,,,,' name='Ora' posn='20'>
	))
3	((	NP	<fs name='NP2' drel='ccof:CCP'>
3.1	prAkqwika	JJ	<fs af='prAkqwika,adj,any,any,,o,,' name='prAkqwika' posn='30'>
3.2	ApaxA	NN	<fs af='ApaxA,n,f,sg,3,o,0,0' name='ApaxA' posn='40'>
3.3	se	PSP	<fs af='se,psp,,,,,,' name='se' posn='50'>
	))
4	((	VGNF	<fs name='VGNF' drel='nmod__k1inv:NP3'>
4.1	Bare	VM	<fs af='Bara,v,m,sg,any,,yA,yA' name='Bare' posn='60'>
	))
5	((	NP	<fs name='NP3' drel='k7t:VGNN'>
5.1	varRa	NN	<fs af='varRa,n,m,sg,3,d,0,0' name='varRa' posn='70'>
5.2	2005	NNP	<fs af='2005,n,m,sg,3,o,0,0' name='2005' posn='80'>
5.3	ko	PSP	<fs af='ko,psp,,,,,,' name='ko' posn='90'>
	))
6	((	NP	<fs name='NP4' drel='pof:VGNN'>
6.1	vixA	NN	<fs af='vixA,n,f,sg,3,d,0,0' name='vixA' posn='100'>
	))
7	((	VGNN	<fs name='VGNN' drel='k7t:VGF'>
7.1	karane	VM	<fs af='kara,v,any,any,any,o,nA,nA' name='karane' posn='110'>
7.2	ke	PSP	<fs af='ke,psp,,,,,,' name='ke' posn='120'>
7.3	bAxa	NST	<fs af='bAxa,nst,m,sg,3,d,,' name='bAxa' posn='130'>
	))
8	((	NP	<fs name='NP5' drel='k1:VGF'>
8.1	loga	NN	<fs af='loga,n,m,pl,3,d,0,0' name='loga' posn='140'>
	))
9	((	NP	<fs name='NP6' drel='pof:VGNN2'>
9.1	jaSna	NN	<fs af='jaSna,n,m,sg,3,d,0,0' name='jaSna' posn='150'>
	))
10	((	VGNN	<fs name='VGNN2' drel='k7:VGF'>
10.1	manAne	VM	<fs af='manA,v,any,any,any,o,nA,nA' name='manAne' posn='160'>
10.2	meM	PSP	<fs af='meM,psp,,,,,,' name='meM' posn='170'>
	))
11	((	JJP	<fs name='JJP' drel='pof:VGF'>
11.1	maSagUla	JJ	<fs af='maSagUla,adj,any,any,,,,' name='maSagUla' posn='180'>
	))
12	((	VGF	<fs name='VGF' stype='declarative' voicetype='active'>
12.1	ho	VM	<fs af='ho,v,any,any,any,,0,0' name='ho' posn='190'>
12.2	gae	VAUX	<fs af='jA,v,m,pl,any,,yA1,yA1' name='gae' posn='200'>
	))
13	((	BLK	<fs name='BLK' drel='rsym:VGF'>
13.1	.	SYM	<fs af='.,punc,,,,,,' name='.' posn='210'>
	))
</Sentence>

<Sentence id='3'>
1	((	NP	<fs name='NP' drel='k4:VGNN'>
1.1	eka	PRPC	<fs af='eka,pn,any,sg,3,d,0,0' name='eka' posn='10'>
1.2	-	SYM	<fs af='-,punc,,,,,,' name='-' posn='20'>
1.3	xUsare	PRP	<fs af='xUsare,pn,any,sg,3,o,0,0' name='xUsare' posn='10'>
1.4	ko	PSP	<fs af='ko,psp,,,,,,' name='ko' posn='40'>
	))
2	((	NP	<fs name='NP2' drel='pof:VGNN'>
2.1	baXAI	NN	<fs af='baXAI,n,f,sg,3,d,0,0' name='baXAI' posn='50'>
	))
3	((	VGNN	<fs name='VGNN' drel='rt:VGF'>
3.1	xene	VM	<fs af='xe,v,any,any,any,o,nA,nA' name='xene' posn='60'>
3.2	ke	PSP	<fs af='ke,psp,,,,,,' name='ke' posn='70'>
3.3	lie	PSP	<fs af='lie,psp,,,,,,' name='lie' posn='80'>
	))
4	((	NP	<fs name='NP3' drel='r6:NP4'>
4.1	telIPona	NN	<fs af='telIPona,n,m,sg,3,o,0,0' name='telIPona' posn='90'>
4.2	kI	PSP	<fs af='kA,psp,f,sg,,d,,' name='kI' posn='100'>
	))
5	((	NP	<fs name='NP4' drel='k1:VGF'>
5.1	GaMtI	NN	<fs af='GaMtI,n,f,sg,3,d,0,0' name='GaMtI' posn='110'>
	))
6	((	RBP	<fs name='RBP' drel='adv:VGF'>
6.1	lagAwAra	RB	<fs af='lagAwAra,adv,,,,,,' name='lagAwAra' posn='120'>
	))
7	((	VGF	<fs name='VGF' stype='declarative' voicetype='active'>
7.1	bajawI	VM	<fs af='baja,v,f,sg,any,,wA,wA' name='bajawI' posn='130'>
7.2	rahI	VAUX	<fs af='raha,v,f,pl,any,,yA,yA' name='rahI' posn='140'>
	))
8	((	BLK	<fs name='BLK' drel='rsym:VGF'>
8.1	.	SYM	<fs af='.,punc,,,,,,' name='.' posn='150'>
	))
</Sentence>

<Sentence id='4'>
1	((	NP	<fs name='NP' drel='k7p:VGF'>
1.1	rARtrIya	JJ	<fs af='rARtrIya,adj,any,any,,o,,' name='rARtrIya' posn='10'>
1.2	rAjaXAnI	NN	<fs af='rAjaXAnI,n,f,sg,3,d,0,0' name='rAjaXAnI' posn='20'>
1.3	xillI	NNP	<fs af='xillI,n,f,sg,3,o,0,0' name='xillI' posn='30'>
1.4	meM	PSP	<fs af='meM,psp,,,,,,' name='meM' posn='40'>
	))
2	((	NP	<fs name='NP2' drel='k1:VGF'>
2.1	yuvakoM	NN	<fs af='yuvaka,n,m,pl,3,o,0,0' name='yuvakoM' posn='50'>
2.2	ne	PSP	<fs af='ne,psp,,,,,,' name='ne' posn='60'>
	))
3	((	RBP	<fs name='RBP' drel='adv:VGF'>
3.1	jamakara	RB	<fs af='jamakara,adv,,,,,,' name='jamakara' posn='70'>
	))
4	((	NP	<fs name='NP3' drel='pof:VGF'>
4.1	pArtI	NN	<fs af='pArtI,n,f,sg,3,d,0,0' name='pArtI' posn='80'>
	))
5	((	VGF	<fs name='VGF' stype='declarative' voicetype='active'>
5.1	kI	VM	<fs af='kara,v,f,sg,any,,yA,yA' name='kI' posn='90'>
	))
6	((	BLK	<fs name='BLK' drel='rsym:VGF'>
6.1	.	SYM	<fs af='.,punc,,,,,,' name='.' posn='100'>
	))
</Sentence>

<Sentence id='5'>
1	((	NP	<fs name='NP' drel='k7:VGF'>
1.1	isa	DEM	<fs af='yaha,pn,any,sg,3,o,,' name='isa' posn='10'>
1.2	mOke	NN	<fs af='mOkA,n,m,sg,3,o,0,0' name='mOke' posn='20'>
1.3	para	PSP	<fs af='para,psp,,,,,,' name='para' posn='30'>
	))
2	((	NP	<fs name='NP2' drel='k1:VGF'>
2.1	unhoMne	PRP	<fs af='vaha,pn,any,pl,3,o,ne,ne' name='unhoMne' posn='40'>
	))
3	((	NP	<fs name='NP3' drel='r6:NP4'>
3.1	PilmI	JJ	<fs af='PilmI,adj,any,any,,o,,' name='PilmI' posn='50'>
3.2	gAnoM	NN	<fs af='gAnA,n,m,pl,3,o,0,0' name='gAnoM' posn='60'>
3.3	kI	PSP	<fs af='kA,psp,f,pl,,o,,' name='kI' posn='70'>
	))
4	((	NP	<fs name='NP4' drel='k7:VGF'>
4.1	XunoM	NN	<fs af='Xuna,n,f,pl,3,o,0,0' name='XunoM' posn='80'>
4.2	para	PSP	<fs af='para,psp,,,,,,' name='para2' posn='90'>
	))
5	((	NP	<fs name='NP5' drel='pof:VGF'>
5.1	Tumake	NN	<fs af='TumakA,n,m,pl,3,d,0,0' name='Tumake' posn='100'>
	))
6	((	VGF	<fs name='VGF' stype='declarative' voicetype='active'>
6.1	lagAe	VM	<fs af='lagA,v,m,pl,any,,yA,yA' name='lagAe' posn='110'>
	))
7	((	BLK	<fs name='BLK' drel='rsym:VGF'>
7.1	.	SYM	<fs af='.,punc,,,,,,' name='.' posn='120'>
	))
</Sentence>

<Sentence id='6'>
1	((	NP	<fs name='NP' drel='k5:VGNF'>
1.1	sidanI	NNP	<fs af='sidanI,n,m,sg,3,o,0,0' name='sidanI' posn='10'>
1.2	se	PSP	<fs af='se,psp,,,,,,' name='se' posn='20'>
	))
2	((	VGNF	<fs name='VGNF' drel='rsp:NP2'>
2.1	lekara	VM	<fs af='le,v,any,any,any,,kara,kara' name='lekara' posn='30'>
	))
3	((	NP	<fs name='NP2' drel='k7p:VGF'>
3.1	hAMgakAMga	NNP	<fs af='hAMgakAMga,n,m,sg,3,o,0,0' name='hAMgakAMga' posn='40'>
3.2	waka	PSP	<fs af='waka,psp,,,,,,' name='waka' posn='50'>
	))
4	((	NP	<fs name='NP3' drel='k1:VGF'>
4.1	logoM	NN	<fs af='loga,n,m,pl,3,o,0,0' name='logoM' posn='60'>
4.2	ne	PSP	<fs af='ne,psp,,,,,,' name='ne' posn='70'>
	))
5	((	NP	<fs name='NP4' drel='pof:VGNF2'>
5.1	jaSna	NN	<fs af='jaSna,n,m,sg,3,d,0,0' name='jaSna' posn='80'>
	))
6	((	VGNF	<fs name='VGNF2' drel='vmod:VGF'>
6.1	manAkara	VM	<fs af='manA,v,any,any,any,,kara,kara' name='manAkara' posn='90'>
	))
7	((	NP	<fs name='NP5' drel='r6-k2:NP6'>
7.1	nae	JJ	<fs af='nayA,adj,m,sg,,o,,' name='nae' posn='100'>
7.2	sAla	NN	<fs af='sAla,n,m,sg,3,o,0,0' name='sAla' posn='110'>
7.3	kA	PSP	<fs af='kA,psp,m,sg,,d,,' name='kA' posn='120'>
	))
8	((	NP	<fs name='NP6' drel='pof:VGF'>
8.1	svAgawa	NN	<fs af='svAgawa,n,m,sg,3,d,0,0' name='svAgawa' posn='130'>
	))
9	((	VGF	<fs name='VGF' stype='declarative' voicetype='active'>
9.1	kiyA	VM	<fs af='kara,v,m,sg,any,,yA,yA' name='kiyA' posn='140'>
	))
10	((	BLK	<fs name='BLK' drel='rsym:VGF'>
10.1	.	SYM	<fs af='.,punc,,,,,,' name='.' posn='150'>
	))
</Sentence>

<Sentence id='7'>
1	((	NP	<fs name='NP' drel='r6:NP2'>
1.1	cIna	NNP	<fs af='cIna,n,m,sg,3,o,0,0' name='cIna' posn='10'>
1.2	kI	PSP	<fs af='kA,psp,f,sg,,o,,' name='kI' posn='20'>
	))
2	((	NP	<fs name='NP2' drel='nmod:NP3'>
2.1	rAjaXAnI	NN	<fs af='rAjaXAnI,n,f,sg,3,d,0,0' name='rAjaXAnI' posn='30'>
	))
3	((	NP	<fs name='NP3' drel='k7p:VGF'>
3.1	bIjiMga	NNP	<fs af='bIjiMga,n,m,sg,3,o,0,0' name='bIjiMga' posn='40'>
3.2	meM	PSP	<fs af='meM,psp,,,,,,' name='meM' posn='50'>
	))
4	((	NP	<fs name='NP4' drel='k7t:VGF'>
4.1	TIka	RP	<fs af='TIka,avy,,,,,,' name='TIka' posn='60'>
4.2	bAraha	QC	<fs af='bAraha,num,any,any,,any,,' name='bAraha' posn='70'>
4.3	baje	NN	<fs af='baje,n,m,sg,3,d,0,0' name='baje' posn='170'>
	))
5	((	NP	<fs name='NP5' drel='nmod:NP6'>
5.1	108	QC	<fs af='108,num,any,any,,any,,' name='108' posn='90'>
5.2	bAra	NN	<fs af='bAra,n,f,sg,3,d,0,0' name='bAra' posn='100'>
	))
6	((	NP	<fs name='NP6' drel='ccof:CCP'>
6.1	GaMtiyAM	NN	<fs af='GaMtI,n,f,pl,3,d,0,0' name='GaMtiyAM' posn='110'>
	))
7	((	CCP	<fs name='CCP' drel='k1:VGF'>
7.1	Ora	CC	<fs af='Ora,avy,,,,,,' name='Ora' posn='120'>
	))
8	((	NP	<fs name='NP7' drel='ccof:CCP'>
8.1	Dola	NN	<fs af='Dola,n,m,pl,3,d,0,0' name='Dola' posn='130'>
	))
9	((	VGF	<fs name='VGF' stype='declarative' voicetype='active'>
9.1	bajAe	VM	<fs af='bajA,v,m,pl,any,,yA,yA' name='bajAe' posn='140'>
9.2	gae	VAUX	<fs af='jA,v,m,pl,any,,yA1,yA1' name='gae' posn='150'>
	))
10	((	NP	<fs coref=':CCP' name='NP8' drel='k1:VGF2'>
10.1	jo	PRP	<fs af='jo,pn,any,sg,3,d,0,0' name='jo' posn='160'>
	))
11	((	NP	<fs name='NP9' drel='r6:NP10'>
11.1	navavarRa	NN	<fs af='navavarRa,n,m,sg,3,o,0,0' name='navavarRa' posn='170'>
11.2	ke	PSP	<fs af='kA,psp,m,sg,,o,,' name='ke' posn='180'>
	))
12	((	NP	<fs name='NP10' drel='r6:NP11'>
12.1	SuBAraMBa	NN	<fs af='SuBAraMBa,n,m,sg,3,o,0,0' name='SuBAraMBa' posn='190'>
12.2	kA	PSP	<fs af='kA,psp,m,sg,,d,,' name='kA' posn='200'>
	))
13	((	NP	<fs name='NP11' drel='k1s:VGF2'>
13.1	saMkewa	NN	<fs af='saMkewa,n,m,sg,3,d,0,0' name='saMkewa' posn='210'>
	))
14	((	VGF	<fs voicetype='active' name='VGF2' stype='declarative' drel='nmod__relc:CCP'>
14.1	WA	VM	<fs af='WA,v,m,sg,any,,WA,WA' name='WA' posn='220'>
	))
15	((	BLK	<fs name='BLK' drel='rsym:VGF'>
15.1	.	SYM	<fs af='.,punc,,,,,,' name='.' posn='230'>
	))
</Sentence>

<Sentence id='8'>
1	((	NP	<fs name='NP' drel='r6:NP2'>
1.1	BArawa	NNP	<fs af='BArawa,n,m,sg,3,o,0,0' name='BArawa' posn='10'>
1.2	ke	PSP	<fs af='kA,psp,m,pl,,o,,' name='ke' posn='20'>
	))
2	((	NP	<fs name='NP2' drel='k7p:VGF'>
2.1	mahAnagaroM	NN	<fs af='mahAnagara,n,m,pl,3,o,0,0' name='mahAnagaroM' posn='30'>
2.2	meM	PSP	<fs af='meM,psp,,,,,,' name='meM' posn='40'>
2.3	BI	RP	<fs af='BI,avy,,,,,,' name='BI' posn='50'>
	))
3	((	NP	<fs name='NP3' drel='r6:NP4'>
3.1	jaSna	NN	<fs af='jaSna,n,m,sg,3,o,0,0' name='jaSna' posn='60'>
3.2	kA	PSP	<fs af='kA,psp,m,sg,,d,,' name='kA' posn='70'>
	))
4	((	NP	<fs name='NP4' drel='k1:VGF'>
4.1	mAhOla	NN	<fs af='mAhOla,n,m,sg,3,d,0,0' name='mAhOla' posn='80'>
	))
5	((	VGF	<fs name='VGF' stype='declarative' voicetype='active'>
5.1	WA	VM	<fs af='WA,v,m,sg,any,,WA,WA' name='WA' posn='90'>
	))
6	((	BLK	<fs name='BLK' drel='rsym:VGF'>
6.1	.	SYM	<fs af='.,punc,,,,,,' name='.' posn='100'>
	))
</Sentence>

<Sentence id='9'>
1	((	NP	<fs name='NP' drel='ccof:NULL__CCP'>
1.1	xillI	NNP	<fs af='xillI,n,f,sg,3,o,0,0' name='xillI' posn='10'>
1.2	,	SYM	<fs af='COMMA,punc,,,,,,' name=',' posn='20'>
	))
2	((	NP	<fs name='NP2' drel='ccof:NULL__CCP'>
2.1	kolakAwA	NNP	<fs af='kolakAwA,n,m,sg,3,o,0,0' name='kolakAwA' posn='30'>
2.2	,	SYM	<fs af='COMMA,punc,,,,,,' name=',2' posn='40'>
	))
3	((	NULL__CCP	<fs mtype='gap' troot='Ora' dmrel='vmod:VGF' name='NULL__CCP'>
3.1	NULL	CC	<fs name='NULL'>
	))
4	((	NP	<fs name='NP3' drel='ccof:NULL__CCP'>
4.1	muMbaI	NNP	<fs af='muMbaI,n,f,sg,3,o,0,0' name='muMbaI' posn='50'>
4.2	samewa	PSP	<fs af='samewa,psp,,,,,,' name='samewa' posn='60'>
	))
5	((	NP	<fs name='NP4' drel='k7p:VGF'>
5.1	kaI	QF	<fs af='kaI,avy,,,,,,' name='kaI' posn='70'>
5.2	mahAnagaroM	NN	<fs af='mahAnagara,n,m,pl,3,o,0,0' name='mahAnagaroM' posn='80'>
5.3	meM	PSP	<fs af='meM,psp,,,,,,' name='meM' posn='90'>
	))
6	((	NP	<fs name='NP5' drel='k1:VGF'>
6.1	logoM	NN	<fs af='loga,n,m,pl,3,o,0,0' name='logoM' posn='100'>
6.2	ne	PSP	<fs af='ne,psp,,,,,,' name='ne' posn='110'>
	))
7	((	NP	<fs name='NP6' drel='k2:VGNF'>
7.1	patAKe	NN	<fs af='patAKA,n,m,pl,3,d,0,0' name='patAKe' posn='120'>
	))
8	((	VGNF	<fs name='VGNF' drel='vmod:VGF'>
8.1	CudZAkara	VM	<fs af='CudA,v,any,any,any,,kara,kara' name='CudZAkara' posn='130'>
	))
9	((	NP	<fs name='NP7' drel='r6-k2:NP8'>
9.1	nae	JJ	<fs af='nayA,adj,m,sg,,o,,' name='nae' posn='140'>
9.2	sAla	NN	<fs af='sAla,n,m,sg,3,o,0,0' name='sAla' posn='150'>
9.3	kA	PSP	<fs af='kA,psp,m,sg,,d,,' name='kA' posn='160'>
	))
10	((	NP	<fs name='NP8' drel='pof:VGF'>
10.1	svAgawa	NN	<fs af='svAgawa,n,m,sg,3,d,0,0' name='svAgawa' posn='170'>
	))
11	((	VGF	<fs name='VGF' stype='declarative' voicetype='active'>
11.1	kiyA	VM	<fs af='kara,v,m,sg,any,,yA,yA' name='kiyA' posn='180'>
	))
12	((	BLK	<fs name='BLK' drel='rsym:VGF'>
12.1	.	SYM	<fs af='.,punc,,,,,,' name='.' posn='190'>
	))
</Sentence>

<Sentence id='10'>
1	((	NP	<fs name='NP' drel='r6-k2:NP2'>
1.1	nae	JJ	<fs af='nayA,adj,m,sg,,o,,' name='nae' posn='10'>
1.2	sAla	NN	<fs af='sAla,n,m,sg,3,o,0,0' name='sAla' posn='20'>
1.3	kA	PSP	<fs af='kA,psp,m,sg,,d,,' name='kA' posn='30'>
	))
2	((	NP	<fs name='NP2' drel='pof:VGNN'>
2.1	jaSna	NN	<fs af='jaSna,n,m,sg,3,d,0,0' name='jaSna' posn='40'>
	))
3	((	VGNN	<fs name='VGNN' drel='rt:VGF'>
3.1	manAne	VM	<fs af='manA,v,any,any,any,o,nA,nA' name='manAne' posn='50'>
3.2	ke	PSP	<fs af='ke,psp,,,,,,' name='ke' posn='60'>
3.3	lie	PSP	<fs af='lie,psp,,,,,,' name='lie' posn='70'>
	))
4	((	NP	<fs name='NP3' drel='k7p:VGF'>
4.1	govA	NNP	<fs af='govA,n,m,sg,3,o,0,0' name='govA' posn='80'>
4.2	meM	PSP	<fs af='meM,psp,,,,,,' name='meM' posn='90'>
	))
5	((	NP	<fs name='NP4' drel='r6:NP5'>
5.1	samaMxara	NN	<fs af='samaMxara,n,m,sg,3,o,0,0' name='samaMxara' posn='100'>
5.2	ke	PSP	<fs af='kA,psp,m,sg,,o,,' name='ke2' posn='110'>
	))
6	((	NP	<fs name='NP5' drel='k7p:VGF'>
6.1	kinAre	NN	<fs af='kinArA,n,m,sg,3,d,0,0' name='kinAre' posn='120'>
	))
7	((	NP	<fs name='NP6' drel='r6-k1:NP7'>
7.1	sElAniyoM	NN	<fs af='sElAnI,n,m,pl,3,o,0,0' name='sElAniyoM' posn='130'>
7.2	kA	PSP	<fs af='kA,psp,m,sg,,d,,' name='kA2' posn='140'>
	))
8	((	NP	<fs name='NP7' drel='pof:VGF'>
8.1	sElAba	NN	<fs af='sElAba,n,m,sg,3,d,0,0' name='sElAba' posn='150'>
	))
9	((	VGF	<fs name='VGF' stype='declarative' voicetype='active'>
9.1	umadZA	VM	<fs af='umada,v,m,sg,any,,yA,yA' name='umadZA' posn='160'>
9.2	hE	VAUX	<fs af='hE,v,any,sg,3,,hE,hE' name='hE' posn='170'>
	))
10	((	BLK	<fs name='BLK' drel='rsym:VGF'>
10.1	.	SYM	<fs af='.,punc,,,,,,' name='.' posn='180'>
	))
</Sentence>

<Sentence id='11'>
1	((	NP	<fs name='NP' drel='k7p:VGF'>
1.1	kaI	QF	<fs af='kaI,avy,,,,,,' name='kaI' posn='10'>
1.2	sWAnoM	NN	<fs af='sWAna,n,m,pl,3,o,0,0' name='sWAnoM' posn='20'>
1.3	para	PSP	<fs af='para,psp,,,,,,' name='para' posn='30'>
	))
2	((	NP	<fs name='NP2' drel='k1:VGF'>
2.1	logoM	NN	<fs af='loga,n,m,pl,3,o,0,0' name='logoM' posn='40'>
2.2	ne	PSP	<fs af='ne,psp,,,,,,' name='ne' posn='50'>
	))
3	((	NP	<fs name='NP3' drel='pof:VGF'>
3.1	sAmUhika	JJ	<fs af='sAmUhika,adj,any,any,,d,,' name='sAmUhika' posn='60'>
3.2	prArWanA	NN	<fs af='prArWanA,n,f,sg,3,d,0,0' name='prArWanA' posn='70'>
3.3	BI	RP	<fs af='BI,avy,,,,,,' name='BI' posn='80'>
	))
4	((	VGF	<fs name='VGF' stype='declarative' voicetype='active'>
4.1	kI	VM	<fs af='kara,v,f,sg,any,,yA,yA' name='kI' posn='90'>
	))
5	((	BLK	<fs name='BLK' drel='rsym:VGF'>
5.1	.	SYM	<fs af='.,punc,,,,,,' name='.' posn='100'>
	))
</Sentence>

<Sentence id='12'>
1	((	NP	<fs name='NP' drel='k7p:VGF'>
1.1	muMbaI	NNP	<fs af='muMbaI,n,f,sg,3,o,0,0' name='muMbaI' posn='10'>
1.2	meM	PSP	<fs af='meM,psp,,,,,,' name='meM' posn='20'>
	))
2	((	NP	<fs name='NP2' drel='k1:VGF'>
2.1	logoM	NN	<fs af='loga,n,m,pl,3,o,0,0' name='logoM' posn='30'>
2.2	ne	PSP	<fs af='ne,psp,,,,,,' name='ne' posn='40'>
	))
3	((	NP	<fs name='NP3' drel='r6:NP4'>
3.1	lAKoM	NN	<fs af='lAKa,n,m,pl,3,o,0,0' name='lAKoM' posn='50'>
3.2	ke	PSP	<fs af='kA,psp,m,pl,,d,,' name='ke' posn='60'>
	))
4	((	NP	<fs name='NP4' drel='k2:VGF'>
4.1	jAma	NN	<fs af='jAma,n,m,pl,3,d,0,0' name='jAma' posn='70'>
	))
5	((	VGF	<fs name='VGF' stype='declarative' voicetype='active'>
5.1	CalakAe	VM	<fs af='CalakA,v,m,pl,any,,yA,yA' name='CalakAe' posn='80'>
	))
6	((	BLK	<fs name='BLK' drel='rsym:VGF'>
6.1	.	SYM	<fs af='.,punc,,,,,,' name='.' posn='90'>
	))
</Sentence>

