<Sentence id='1'>
1	((	NP	<fs name='NP' drel='k1:VGF'>
1.1	praXAnamaMwrI	NNP	<fs af='praXAnamaMwrI,n,m,sg,3,d,0,0' name='praXAnamaMwrI' posn='10'>
1.2	manamohana	NNPC	<fs af='manamohana,n,m,sg,3,d,0,0' name='manamohana' posn='20'>
1.3	siMha	NNP	<fs af='siMha,n,m,sg,3,o,0,0' name='siMha' posn='30'>
1.4	ne	PSP	<fs af='ne,psp,,,,,,' name='ne' posn='40'>
	))
2	((	NP	<fs name='NP2' drel='r6:NP3'>
2.1	kqRi	NNC	<fs af='kqRi,n,f,sg,3,d,0,0' name='kqRi' posn='50'>
2.2	kRewra	NN	<fs af='kRewra,n,m,sg,3,o,0,0' name='kRewra' posn='60'>
2.3	ke	PSP	<fs af='kA,psp,m,sg,,o,,' name='ke' posn='70'>
	))
3	((	NP	<fs name='NP3' drel='k7:VGNF'>
3.1	KarAba	JJ	<fs af='KarAba,adj,any,any,,o,,' name='KarAba' posn='80'>
3.2	praxarSana	NN	<fs af='praxarSana,n,m,sg,3,o,0,0' name='praxarSana' posn='90'>
3.3	para	PSP	<fs af='para,psp,,,,,,' name='para' posn='100'>
	))
4	((	NP	<fs name='NP4' drel='k2:VGNF'>
4.1	ciMwA	NN	<fs af='ciMwA,n,f,sg,3,d,0,0' name='ciMwA' posn='110'>
	))
5	((	VGNF	<fs name='VGNF' drel='vmod:VGF'>
5.1	jawAwe	VM	<fs af='jawA,v,m,sg,any,,wA,wA' name='jawAwe' posn='120'>
5.2	hue	VAUX	<fs af='ho,v,m,sg,any,,yA,yA' name='hue' posn='130'>
	))
6	((	NP	<fs name='NP5' drel='k2:VGNN'>
6.1	ise	PRP	<fs af='yaha,pn,any,sg,3,o,ko,ko' name='ise' posn='140'>
	))
7	((	NP	<fs name='NP6' drel='adv:VGNN'>
7.1	gaMBIrawA	NN	<fs af='gaMBIrawA,n,f,sg,3,o,0,0' name='gaMBIrawA' posn='150'>
7.2	se	PSP	<fs af='se,psp,,,,,,' name='se' posn='160'>
	))
8	((	VGNN	<fs name='VGNN' drel='k2:VGF'>
8.1	lie	VM	<fs af='le,v,m,sg,any,,yA,yA' name='lie' posn='170'>
8.2	jAne	VAUX	<fs af='jA,v,any,any,any,o,nA,nA' name='jAne' posn='180'>
8.3	ko	PSP	<fs af='ko,psp,,,,,,' name='ko' posn='190'>
	))
9	((	VGF	<fs name='VGF' stype='declarative' voicetype='active'>
9.1	kahA	VM	<fs af='kaha,v,m,sg,any,,yA,yA' name='kahA' posn='200'>
9.2	hE	VAUX	<fs af='hE,v,any,sg,3,,hE,hE' name='hE' posn='210'>
	))
10	((	BLK	<fs name='BLK' drel='rsym:VGF'>
10.1	.	SYM	<fs af='.,punc,,,,,,' name='.' posn='220'>
	))
</Sentence>

<Sentence id='2'>
1	((	NP	<fs name='NP' drel='rt:VGF'>
1.1	isake	PRP	<fs af='yaha,pn,any,sg,3,o,ke,ke' name='isake' posn='10'>
1.2	lie	PSP	<fs af='lie,psp,,,,,,' name='lie' posn='20'>
	))
2	((	NULL__NP	<fs mtype='gap' troot='yaha' dmrel='k1:VGF' name='NULL__NP'>
2.1	NULL	PRP	<fs name='NULL'>
	))
3	((	JJP	<fs name='JJP' drel='k1s:VGF'>
3.1	jarUrI	JJ	<fs af='jarUrI,adj,any,any,,,,' name='jarUrI' posn='30'>
	))
4	((	VGF	<fs name='VGF' stype='declarative' voicetype='active'>
4.1	hE	VM	<fs af='hE,v,any,sg,3,,hE,hE' name='hE' posn='40'>
	))
5	((	CCP	<fs name='CCP' drel='rs:NULL__NP'>
5.1	ki	CC	<fs af='ki,avy,,,,,,' name='ki' posn='50'>
	))
6	((	NP	<fs name='NP2' drel='k7:VGF2'>
6.1	kqRi	NNC	<fs af='kqRi,n,f,sg,3,d,0,0' name='kqRi' posn='60'>
6.2	kRewra	NN	<fs af='kRewra,n,m,sg,3,o,0,0' name='kRewra' posn='70'>
6.3	meM	PSP	<fs af='meM,psp,,,,,,' name='meM' posn='80'>
	))
7	((	NP	<fs name='NP3' drel='k2:VGF2'>
7.1	niveSa	NN	<fs af='niveSa,n,m,sg,3,d,0,0' name='niveSa' posn='90'>
	))
8	((	VGF	<fs voicetype='active' name='VGF2' stype='declarative' drel='ccof:CCP'>
8.1	baDZAyA	VM	<fs af='baDA,v,m,sg,any,,yA,yA' name='baDZAyA' posn='100'>
8.2	jAe	VAUX	<fs af='jA,v,m,sg,any,,eM,eM' name='jAe' posn='110'>
	))
9	((	BLK	<fs name='BLK' drel='rsym:VGF'>
9.1	.	SYM	<fs af='.,punc,,,,,,' name='.' posn='120'>
	))
</Sentence>

<Sentence id='3'>
1	((	NP	<fs name='NP' drel='rh:VGF'>
1.1	isalie	PRP	<fs af='isaliye,pn,,,,,,' name='isalie' posn='10'>
	))
2	((	NP	<fs name='NP2' drel='k1:VGF'>
2.1	keMxra	NNPC	<fs af='keMxra,n,m,sg,3,d,0,0' name='keMxra' posn='20'>
2.2	sarakAra	NNP	<fs af='sarakAra,n,f,sg,3,d,0,0' name='sarakAra' posn='30'>
	))
3	((	NP	<fs name='NP3' drel='k7t:VGF'>
3.1	aba	PRP	<fs af='aba,pn,,,,d,,' name='aba' posn='40'>
	))
4	((	NP	<fs name='NP4' drel='ccof:CCP'>
4.1	BArawa	NNPC	<fs af='BArawa,n,m,sg,3,d,0,0' name='BArawa' posn='50'>
4.2	nirmANa	NNPC	<fs af='nirmANa,n,m,sg,3,d,0,0' name='nirmANa' posn='60'>
4.3	yojanA	NNP	<fs af='yojanA,n,f,sg,3,o,0,0' name='yojanA' posn='70'>
	))
5	((	CCP	<fs name='CCP' drel='k2:VGF'>
5.1	Ora	CC	<fs af='Ora,avy,,,,,,' name='Ora' posn='80'>
	))
6	((	NP	<fs name='NP5' drel='ccof:CCP'>
6.1	rARtrIya	NNPC	<fs af='rARtrIya,adj,any,any,,d,,' name='rARtrIya' posn='90'>
6.2	grAmINa	NNPC	<fs af='grAmINa,adj,any,any,,d,,' name='grAmINa' posn='90'>
6.3	rojagAra	NNPC	<fs af='rojagAra,n,m,sg,3,d,0,0' name='rojagAra' posn='110'>
6.4	yojanA	NNP	<fs af='yojanA,n,f,sg,3,o,0,0' name='yojanA2' posn='120'>
6.5	ko	PSP	<fs af='ko,psp,,,,,,' name='ko' posn='130'>
	))
7	((	NP	<fs name='NP6' drel='adv:VGF'>
7.1	eka	QC	<fs af='eka,num,any,any,,any,,' name='eka' posn='140'>
7.2	sAWa	NST	<fs af='sAWa,nst,m,sg,3,d,,' name='sAWa' posn='150'>
	))
8	((	NP	<fs name='NP7' drel='adv:VGF'>
8.1	saMyukwa	JJ	<fs af='saMyukwa,adj,any,any,,o,,' name='saMyukwa' posn='160'>
8.2	rUpa	NN	<fs af='rUpa,n,m,sg,3,o,0,0' name='rUpa' posn='170'>
8.3	se	PSP	<fs af='se,psp,,,,,,' name='se' posn='180'>
	))
9	((	JJP	<fs name='JJP' drel='pof:VGF'>
9.1	saMcAliwa	JJ	<fs af='saMcAliwa,adj,any,any,,,,' name='saMcAliwa' posn='190'>
	))
10	((	VGF	<fs name='VGF' stype='declarative' voicetype='active'>
10.1	karegI	VM	<fs af='kara,v,f,sg,3,,gA,gA' name='karegI' posn='200'>
	))
11	((	BLK	<fs name='BLK' drel='rsym:VGF'>
11.1	.	SYM	<fs af='.,punc,,,,,,' name='.' posn='210'>
	))
</Sentence>

<Sentence id='4'>
1	((	NP	<fs name='NP' drel='r6:NP2'>
1.1	manamohana	NNPC	<fs af='manamohana,n,m,sg,3,d,0,0' name='manamohana' posn='10'>
1.2	siMha	NNP	<fs af='siMha,n,m,sg,3,o,0,0' name='siMha' posn='20'>
1.3	kI	PSP	<fs af='kA,psp,f,sg,,o,,' name='kI' posn='30'>
	))
2	((	NP	<fs name='NP2' drel='k7:VGF'>
2.1	pahala	NN	<fs af='pahala,n,f,sg,3,o,0,0' name='pahala' posn='40'>
2.2	para	PSP	<fs af='para,psp,,,,,,' name='para' posn='50'>
	))
3	((	NP	<fs name='NP3' drel='k7t:VGF'>
3.1	maMgalavAra	NNP	<fs af='maMgalavAra,n,m,sg,3,o,0,0' name='maMgalavAra' posn='60'>
3.2	ko	PSP	<fs af='ko,psp,,,,,,' name='ko' posn='70'>
	))
4	((	NP	<fs name='NP4' drel='r6:NP5'>
4.1	pUrNa	NNPC	<fs af='pUrNa,adj,any,any,,d,,' name='pUrNa' posn='90'>
4.2	yojanA	NNPC	<fs af='yojanA,n,f,sg,3,d,0,0' name='yojanA' posn='90'>
4.3	Ayoga	NNP	<fs af='Ayoga,n,m,sg,3,o,0,0' name='Ayoga' posn='100'>
4.4	kI	PSP	<fs af='kA,psp,f,sg,,d,,' name='kI2' posn='110'>
	))
5	((	NP	<fs name='NP5' drel='k2:VGF'>
5.1	bETaka	NN	<fs af='bETaka,n,f,sg,3,d,0,0' name='bETaka' posn='120'>
	))
6	((	VGF	<fs name='VGF' stype='declarative' voicetype='active'>
6.1	bulAI	VM	<fs af='bulA,v,f,sg,any,,yA,yA' name='bulAI' posn='130'>
6.2	gaI	VAUX	<fs af='jA,v,f,sg,any,,yA1,yA1' name='gaI' posn='140'>
	))
7	((	BLK	<fs name='BLK' drel='rsym:VGF'>
7.1	.	SYM	<fs af='.,punc,,,,,,' name='.' posn='150'>
	))
</Sentence>

<Sentence id='5'>
1	((	NP	<fs name='NP' drel='k7:VGF'>
1.1	jisameM	PRP	<fs af='jo,pn,any,sg,3,o,meM,meM' name='jisameM' posn='10'>
	))
2	((	NP	<fs name='NP2' drel='r6:NP3'>
2.1	kqRi	NNC	<fs af='kqRi,n,f,sg,3,d,0,0' name='kqRi' posn='20'>
2.2	kRewra	NN	<fs af='kRewra,n,m,sg,3,o,0,0' name='kRewra' posn='30'>
2.3	kI	PSP	<fs af='kA,psp,f,pl,,o,,' name='kI' posn='40'>
	))
3	((	NP	<fs name='NP3' drel='ccof:CCP'>
3.1	samasyAoM	NN	<fs af='samasyA,n,f,pl,3,o,0,0' name='samasyAoM' posn='50'>
	))
4	((	CCP	<fs name='CCP' drel='k7:VGF'>
4.1	Ora	CC	<fs af='Ora,avy,,,,,,' name='Ora' posn='60'>
	))
5	((	NP	<fs name='NP4' drel='ccof:CCP'>
5.1	samAXAna	NN	<fs af='samAXAna,n,m,sg,3,o,0,0' name='samAXAna' posn='70'>
5.2	para	PSP	<fs af='para,psp,,,,,,' name='para' posn='80'>
	))
6	((	NP	<fs name='NP5' drel='adv:VGF'>
6.1	muKya	JJ	<fs af='muKya,adj,any,any,,o,,' name='muKya' posn='90'>
6.2	rUpa	NN	<fs af='rUpa,n,m,sg,3,o,0,0' name='rUpa' posn='100'>
6.3	se	PSP	<fs af='se,psp,,,,,,' name='se' posn='110'>
	))
7	((	NP	<fs name='NP6' drel='pof:VGF'>
7.1	bAwa	NN	<fs af='bAwa,n,f,sg,3,d,0,0' name='bAwa' posn='120'>
	))
8	((	VGF	<fs name='VGF' stype='declarative' voicetype='active'>
8.1	huI	VM	<fs af='ho,v,f,sg,any,,yA,yA' name='huI' posn='130'>
	))
9	((	BLK	<fs name='BLK' drel='rsym:VGF'>
9.1	.	SYM	<fs af='.,punc,,,,,,' name='.' posn='140'>
	))
</Sentence>

<Sentence id='6'>
1	((	NP	<fs name='NP' drel='k1:VGF'>
1.1	praXAnamaMwrI	NNP	<fs af='praXAnamaMwrI,n,m,sg,3,o,0,0' name='praXAnamaMwrI' posn='10'>
1.2	ne	PSP	<fs af='ne,psp,,,,,,' name='ne' posn='20'>
	))
2	((	NP	<fs name='NP2' drel='k7:VGF'>
2.1	bETaka	NN	<fs af='bETaka,n,f,sg,3,o,0,0' name='bETaka' posn='30'>
2.2	meM	PSP	<fs af='meM,psp,,,,,,' name='meM' posn='40'>
	))
3	((	VGF	<fs name='VGF' stype='declarative' voicetype='active'>
3.1	kahA	VM	<fs af='kaha,v,m,sg,any,,yA,yA' name='kahA' posn='50'>
	))
4	((	CCP	<fs name='CCP' drel='k2:VGF'>
4.1	ki	CC	<fs af='ki,avy,,,,,,' name='ki' posn='60'>
	))
5	((	NP	<fs name='NP3' drel='ccof:CCP2'>
5.1	BArawa	NNPC	<fs af='BArawa,n,m,sg,3,d,0,0' name='BArawa' posn='70'>
5.2	nirmANa	NNPC	<fs af='nirmANa,n,m,sg,3,d,0,0' name='nirmANa' posn='80'>
5.3	yojanA	NNP	<fs af='yojanA,n,f,sg,3,o,0,0' name='yojanA' posn='90'>
	))
6	((	CCP	<fs name='CCP2' drel='r6:NP5'>
6.1	Ora	CC	<fs af='Ora,avy,,,,,,' name='Ora' posn='100'>
	))
7	((	NP	<fs name='NP4' drel='ccof:CCP2'>
7.1	rARtrIya	NNPC	<fs af='rARtrIya,adj,any,any,,d,,' name='rARtrIya' posn='90'>
7.2	rojagAra	NNPC	<fs af='rojagAra,n,m,sg,3,d,0,0' name='rojagAra' posn='120'>
7.3	gAraMtI	NNPC	<fs af='gAraMtI,n,f,sg,3,d,0,0' name='gAraMtI' posn='130'>
7.4	yojanA	NNP	<fs af='yojanA,n,f,sg,3,o,0,0' name='yojanA2' posn='140'>
7.5	ke	PSP	<fs af='kA,psp,m,pl,,o,,' name='ke' posn='150'>
	))
8	((	NP	<fs name='NP5' drel='k2:VGNN'>
8.1	saMsAXanoM	NN	<fs af='saMsAXana,n,m,pl,3,o,0,0' name='saMsAXanoM' posn='160'>
8.2	ko	PSP	<fs af='ko,psp,,,,,,' name='ko' posn='170'>
	))
9	((	NP	<fs name='NP6' drel='adv:VGNN'>
9.1	eka	QC	<fs af='eka,num,any,any,,any,,' name='eka' posn='180'>
9.2	sAWa	NST	<fs af='sAWa,nst,m,sg,3,d,,' name='sAWa' posn='190'>
	))
10	((	VGNN	<fs name='VGNN' drel='r6:NP7'>
10.1	jodZane	VM	<fs af='joda,v,any,any,any,o,nA,nA' name='jodZane' posn='200'>
10.2	kI	PSP	<fs af='kA,psp,f,sg,,o,,' name='kI' posn='210'>
	))
11	((	NP	<fs name='NP7' drel='r6-k2:NP8'>
11.1	saMBAvanA	NN	<fs af='saMBAvanA,n,f,sg,3,o,0,0' name='saMBAvanA' posn='220'>
11.2	kA	PSP	<fs af='kA,psp,m,sg,,d,,' name='kA' posn='230'>
	))
12	((	NP	<fs name='NP8' drel='pof:VGF2'>
12.1	pawA	NN	<fs af='pawA,n,m,sg,3,d,0,0' name='pawA' posn='220'>
	))
13	((	VGF	<fs voicetype='active' name='VGF2' stype='declarative' drel='ccof:CCP'>
13.1	lagAnA	VM	<fs af='lagA,v,m,sg,any,,nA,nA' name='lagAnA' posn='250'>
13.2	cAhie	VAUX	<fs af='cAhie,v,any,any,,any,0,0' name='cAhie' posn='260'>
	))
14	((	BLK	<fs name='BLK' drel='rsym:VGF'>
14.1	.	SYM	<fs af='.,punc,,,,,,' name='.' posn='270'>
	))
</Sentence>

<Sentence id='7'>
1	((	NP	<fs name='NP' drel='k1:VGF'>
1.1	unhoMne	PRP	<fs af='vaha,pn,any,sg,3h,o,ne,ne' name='unhoMne' posn='10'>
	))
2	((	NP	<fs name='NP2' drel='jjmod:JJP'>
2.1	paraMparAgawa	JJ	<fs af='paraMparAgawa,adj,any,any,,o,,' name='paraMparAgawa' posn='20'>
2.2	anAja	NN	<fs af='anAja,n,m,sg,3,o,0,0' name='anAja' posn='30'>
2.3	para	PSP	<fs af='para,psp,,,,,,' name='para' posn='40'>
	))
3	((	JJP	<fs name='JJP' drel='nmod:NP3'>
3.1	AXAriwa	JJ	<fs af='AXAriwa,adj,any,any,,o,,' name='AXAriwa' posn='50'>
	))
4	((	NP	<fs name='NP3' drel='vmod:VGNN'>
4.1	KewI	NN	<fs af='KewI,n,f,sg,3,o,0,0' name='KewI' posn='60'>
4.2	ke	PSP	<fs af='ke,psp,,,,,,' name='ke' posn='70'>
4.3	bajAya	PSP	<fs af='bajAya,psp,,,,,,' name='bajAya' posn='80'>
	))
5	((	NP	<fs name='NP4' drel='k2:VGNN'>
5.1	viviXIkaraNa	NN	<fs af='viviXIkaraNa,n,m,sg,3,d,0,0' name='viviXIkaraNa' posn='90'>
	))
6	((	VGNN	<fs name='VGNN' drel='r6-k2:NP5'>
6.1	apanAe	VM	<fs af='apanA,v,m,sg,any,,yA,yA' name='apanAe' posn='100'>
6.2	jAne	VAUX	<fs af='jA,v,any,any,any,o,nA,nA' name='jAne' posn='110'>
6.3	kI	PSP	<fs af='kA,psp,f,sg,,d,,' name='kI' posn='120'>
	))
7	((	NP	<fs name='NP5' drel='pof:VGF'>
7.1	AvaSyakawA	NN	<fs af='AvaSyakawA,n,f,sg,3,d,0,0' name='AvaSyakawA' posn='130'>
	))
8	((	VGF	<fs name='VGF' stype='declarative' voicetype='active'>
8.1	jawAI	VM	<fs af='jawA,v,f,sg,any,,yA,yA' name='jawAI' posn='140'>
	))
9	((	BLK	<fs name='BLK' drel='rsym:VGF'>
9.1	.	SYM	<fs af='.,punc,,,,,,' name='.' posn='150'>
	))
</Sentence>

<Sentence id='8'>
1	((	NP	<fs name='NP' drel='k7t:VGNN'>
1.1	piCale	JJ	<fs af='piCalA,adj,m,sg,,o,,' name='piCale' posn='10'>
1.2	eka	QC	<fs af='eka,num,any,any,,any,,' name='eka' posn='20'>
1.3	xaSaka	NN	<fs af='xaSaka,n,m,sg,3,o,0,0' name='xaSaka' posn='30'>
1.4	meM	PSP	<fs af='meM,psp,,,,,,' name='meM' posn='40'>
	))
2	((	NP	<fs name='NP2' drel='r6:NP3'>
2.1	kqRi	NNC	<fs af='kqRi,n,f,sg,3,d,0,0' name='kqRi' posn='50'>
2.2	kRewra	NN	<fs af='kRewra,n,m,sg,3,o,0,0' name='kRewra' posn='60'>
2.3	kI	PSP	<fs af='kA,psp,f,sg,,d,,' name='kI' posn='70'>
	))
3	((	NP	<fs name='NP3' drel='k1:VGNF'>
3.1	vikAsa	NNC	<fs af='vikAsa,n,m,sg,3,d,0,0' name='vikAsa' posn='80'>
3.2	xara	NN	<fs af='xara,n,f,sg,3,d,0,0' name='xara' posn='90'>
	))
4	((	NP	<fs name='NP4' drel='k5:VGNF'>
4.1	4.7	QC	<fs af='4.7,num,any,any,,any,,' name='4.7' posn='100'>
4.2	PIsaxI	NN	<fs af='PIsaxI,n,m,sg,3,o,0,0' name='PIsaxI' posn='110'>
4.3	se	PSP	<fs af='se,psp,,,,,,' name='se' posn='120'>
	))
5	((	VGNF	<fs name='VGNF' drel='rsp:NP5'>
5.1	Gata	VM	<fs af='Gata,v,any,any,any,,0,0' name='Gata' posn='130'>
5.2	kara	VAUX	<fs af='kara,v,any,any,any,,0,0' name='kara' posn='140'>
	))
6	((	NP	<fs name='NP5' drel='k1:VGNN'>
6.1	1.2	QC	<fs af='1.2,num,any,any,,any,,' name='1.2' posn='150'>
6.2	PZIsaxI	NN	<fs af='PZIsaxI,n,m,sg,3,d,0,0' name='PZIsaxI' posn='160'>
	))
7	((	VGNN	<fs name='VGNN' drel='rh:VGF'>
7.1	A	VM	<fs af='A,v,any,any,any,,0,0' name='A' posn='170'>
7.2	jAne	VAUX	<fs af='jA,v,any,any,any,o,nA,nA' name='jAne' posn='180'>
7.3	se	PSP	<fs af='se,psp,,,,,,' name='se2' posn='190'>
	))
8	((	NP	<fs name='NP6' drel='k1:VGF'>
8.1	praXAnamaMwrI	NNP	<fs af='praXAnamaMwrI,n,m,sg,3,d,0,0' name='praXAnamaMwrI' posn='200'>
	))
9	((	JJP	<fs name='JJP' drel='pof:VGF'>
9.1	behaxa	INTF	<fs af='behaxa,avy,,,,,,' name='behaxa' posn='210'>
9.2	ciMwiwa	JJ	<fs af='ciMwiwa,adj,any,any,,,,' name='ciMwiwa' posn='220'>
	))
10	((	VGF	<fs name='VGF' stype='declarative' voicetype='active'>
10.1	xiKe	VM	<fs af='xiKa,v,m,sg,3h,,yA,yA' name='xiKe' posn='230'>
	))
11	((	BLK	<fs name='BLK' drel='rsym:VGF'>
11.1	.	SYM	<fs af='.,punc,,,,,,' name='.' posn='240'>
	))
</Sentence>

<Sentence id='11'>
1	((	NP	<fs name='NP' drel='k1:VGF'>
1.1	praXAnamaMwrI	NNP	<fs af='praXAnamaMwrI,n,m,sg,3,o,0,0' name='praXAnamaMwrI' posn='10'>
1.2	ne	PSP	<fs af='ne,psp,,,,,,' name='ne' posn='20'>
	))
2	((	VGF	<fs name='VGF' stype='declarative' voicetype='active'>
2.1	kahA	VM	<fs af='kaha,v,m,sg,any,,yA,yA' name='kahA' posn='30'>
	))
3	((	CCP	<fs name='CCP' drel='k2:VGF'>
3.1	ki	CC	<fs af='ki,avy,,,,,,' name='ki' posn='40'>
	))
4	((	NP	<fs name='NP2' drel='r6:NP3'>
4.1	maMgalavAra	NNP	<fs af='maMgalavAra,n,m,sg,3,o,0,0' name='maMgalavAra' posn='50'>
4.2	kI	PSP	<fs af='kA,psp,f,sg,,o,,' name='kI' posn='60'>
	))
5	((	NP	<fs name='NP3' drel='k5:VGNF'>
5.1	bETaka	NN	<fs af='bETaka,n,f,sg,3,o,0,0' name='bETaka' posn='70'>
5.2	se	PSP	<fs af='se,psp,,,,,,' name='se' posn='80'>
	))
6	((	NP	<fs coref=':NP5' name='NP4' drel='k1:VGNF'>
6.1	jo	DEM	<fs af='jo,pn,any,sg,3,d,,' name='jo' posn='90'>
6.2	bAwa	NN	<fs af='bAwa,n,f,sg,3,d,0,0' name='bAwa' posn='100'>
	))
7	((	VGNF	<fs name='VGNF' drel='vmod:VGF2'>
7.1	nikala	VM	<fs af='nikala,v,any,any,any,,0,0' name='nikala' posn='110'>
7.2	kara	VAUX	<fs af='kara,v,any,any,any,,0,0' name='kara' posn='120'>
	))
8	((	VGF	<fs voicetype='active' name='VGF2' stype='declarative' drel='nmod__relc:NP5'>
8.1	Ae	VM	<fs af='A,v,m,sg,any,,eM,eM' name='Ae' posn='130'>
	))
9	((	NP	<fs name='NP5' drel='k7:VGF3'>
9.1	usa	PRP	<fs af='vaha,pn,any,sg,3,o,0,0' name='usa' posn='140'>
9.2	para	PSP	<fs af='para,psp,,,,,,' name='para' posn='150'>
	))
10	((	NP	<fs name='NP6' drel='k7t:VGF3'>
10.1	4	NNPC	<fs af='4,n,any,any,3,d,0,0' name='4' posn='160'>
10.2	akwUbara	NNP	<fs af='akwUbara,n,m,sg,3,o,0,0' name='akwUbara' posn='170'>
10.3	ko	PSP	<fs af='ko,psp,,,,,,' name='ko' posn='180'>
	))
11	((	NP	<fs name='NP7' drel='r6:NP9'>
11.1	rARtrIya	NNPC	<fs af='rARtrIya,adj,any,any,,d,,' name='rARtrIya' posn='90'>
11.2	vikAsa	NNPC	<fs af='vikAsa,n,m,sg,3,d,0,0' name='vikAsa' posn='200'>
11.3	pariRaxa	NNP	<fs af='pariRaxa,n,m,sg,3,o,0,0' name='pariRaxa' posn='210'>
	))
12	((	NP	<fs name='NP8' drel='rs:NP7'>
12.1	(	SYM	<fs af='(,punc,,,,,,' name='(' posn='220'>
12.2	enadIsI	NNP	<fs af='enadIsI,n,f,sg,3,o,0,0' name='enadIsI' posn='230'>
12.3	)	SYM	<fs af='),punc,,,,,,' name=')' posn='240'>
	))
13	((	FRAGP	<fs name='FRAGP' drel='fragof:NP7'>
13.1	kI	PSP	<fs af='kA,psp,f,sg,,o,,' name='kI2' posn='250'>
	))
14	((	NP	<fs name='NP9' drel='r6:NP10'>
14.1	upa	NNC	<fs af='upa,adj,any,any,,o,,' name='upa' posn='260'>
14.2	samiwi	NN	<fs af='samiwi,n,f,sg,3,o,0,0' name='samiwi' posn='270'>
14.3	kI	PSP	<fs af='kA,psp,f,sg,,o,,' name='kI3' posn='280'>
	))
15	((	NP	<fs name='NP10' drel='k7:VGF3'>
15.1	bETaka	NN	<fs af='bETaka,n,f,sg,3,o,0,0' name='bETaka2' posn='290'>
15.2	meM	PSP	<fs af='meM,psp,,,,,,' name='meM' posn='300'>
	))
16	((	NP	<fs name='NP11' drel='pof:VGF3'>
16.1	vicAra	NN	<fs af='vicAra,n,m,sg,3,d,0,0' name='vicAra' posn='310'>
	))
17	((	VGF	<fs voicetype='active' name='VGF3' stype='declarative' drel='ccof:CCP2'>
17.1	kiyA	VM	<fs af='kara,v,m,sg,any,,yA,yA' name='kiyA' posn='320'>
17.2	jAnA	VAUX	<fs af='jA,v,m,sg,any,,nA,nA' name='jAnA' posn='330'>
17.3	cAhie	VAUX	<fs af='cAhie,v,any,any,,any,0,0' name='cAhie' posn='340'>
	))
18	((	CCP	<fs name='CCP2' drel='ccof:CCP'>
18.1	Ora	CC	<fs af='Ora,avy,,,,,,' name='Ora' posn='350'>
	))
19	((	NP	<fs name='NP12' drel='adv:VGF4'>
19.1	usI	DEM	<fs af='vaha,pn,any,sg,3,o,,' name='usI' posn='360'>
19.2	hisAba	NN	<fs af='hisAba,n,m,sg,3,o,0,0' name='hisAba' posn='370'>
19.3	se	PSP	<fs af='se,psp,,,,,,' name='se2' posn='380'>
	))
20	((	NP	<fs name='NP13' drel='pof:VGF4'>
20.1	PEsalA	NN	<fs af='PEsalA,n,m,sg,3,d,0,0' name='PEsalA' posn='390'>
	))
21	((	VGF	<fs voicetype='active' name='VGF4' stype='declarative' drel='ccof:CCP2'>
21.1	liyA	VM	<fs af='le,v,m,sg,any,,yA,yA' name='liyA' posn='400'>
21.2	jAnA	VAUX	<fs af='jA,v,m,sg,any,,nA,nA' name='jAnA2' posn='410'>
21.3	cAhie	VAUX	<fs af='cAhie,v,any,any,,any,0,0' name='cAhie2' posn='420'>
	))
22	((	BLK	<fs name='BLK' drel='rsym:VGF'>
22.1	.	SYM	<fs af='.,punc,,,,,,' name='.' posn='430'>
	))
</Sentence>

<Sentence id='12'>
1	((	NP	<fs name='NP' drel='r6:NP2'>
1.1	kqRi	NNPC	<fs af='kqRi,n,f,sg,3,d,0,0' name='kqRi' posn='10'>
1.2	maMwrI	NNP	<fs af='maMwrI,n,m,sg,3,d,0,0' name='maMwrI' posn='20'>
1.3	Saraxa	NNPC	<fs af='Saraxa,n,m,sg,3,d,0,0' name='Saraxa' posn='30'>
1.4	pavAra	NNP	<fs af='pavAra,n,m,sg,3,o,0,0' name='pavAra' posn='40'>
1.5	kI	PSP	<fs af='kA,psp,f,sg,,o,,' name='kI' posn='50'>
	))
2	((	NP	<fs name='NP2' drel='nmod:NP3'>
2.1	aXyakRawA	NN	<fs af='aXyakRawA,n,f,sg,3,o,0,0' name='aXyakRawA' posn='60'>
2.2	vAlI	PSP	<fs af='vAlA,psp,f,sg,,d,,' name='vAlI' posn='70'>
	))
3	((	NP	<fs name='NP3' drel='k1:VGNF'>
3.1	yaha	DEM	<fs af='yaha,pn,any,sg,3,d,,' name='yaha' posn='80'>
3.2	upa	NNC	<fs af='upa,adj,any,any,,d,,' name='upa' posn='260'>
3.3	samiwi	NN	<fs af='samiwi,n,f,sg,3,d,0,0' name='samiwi' posn='100'>
	))
4	((	NP	<fs name='NP4' drel='r6:NP5'>
4.1	kqRi	NNC	<fs af='kqRi,n,f,sg,3,d,0,0' name='kqRi2' posn='110'>
4.2	kRewra	NN	<fs af='kRewra,n,m,sg,3,o,0,0' name='kRewra' posn='120'>
4.3	kI	PSP	<fs af='kA,psp,f,sg,,o,,' name='kI2' posn='130'>
	))
5	((	NP	<fs name='NP5' drel='k2:VGNF'>
5.1	samasyAoM	NN	<fs af='samasyA,n,m,pl,3,o,0,0' name='samasyAoM' posn='140'>
5.2	ko	PSP	<fs af='ko,psp,,,,,,' name='ko' posn='150'>
	))
6	((	VGNF	<fs name='VGNF' drel='vmod:VGF'>
6.1	lekara	VM	<fs af='le,v,any,any,any,,kara,kara' name='lekara' posn='160'>
	))
7	((	NP	<fs name='NP6' drel='pof:VGF'>
7.1	aXyayana	NN	<fs af='aXyayana,n,m,sg,3,d,0,0' name='aXyayana' posn='170'>
	))
8	((	VGF	<fs voicetype='active' name='VGF' stype='declarative' drel='ccof:CCP'>
8.1	karegI	VM	<fs af='kara,v,f,sg,3,,gA,gA' name='karegI' posn='180'>
	))
9	((	CCP	<fs name='CCP'>
9.1	va	CC	<fs af='va,avy,,,,,,' name='va' posn='190'>
	))
10	((	NP	<fs name='NP7' drel='r6:NP8'>
10.1	unake	PRP	<fs af='vaha,pn,m,pl,3,o,kA,kA' name='unake' posn='200'>
	))
11	((	NP	<fs name='NP8' drel='k2:VGNN'>
11.1	samAXAna	NN	<fs af='samAXAna,n,m,pl,3,d,0,0' name='samAXAna' posn='210'>
	))
12	((	VGNN	<fs name='VGNN' drel='ras-k2:VGF2'>
12.1	walASane	VM	<fs af='walASa,v,any,any,any,o,nA,nA' name='walASane' posn='220'>
12.2	ke	PSP	<fs af='ke,psp,,,,,,' name='ke' posn='230'>
12.3	sAWa	NST	<fs af='sAWa,nst,m,sg,3,d,,' name='sAWa' posn='240'>
12.4	hI	RP	<fs af='hI,avy,,,,,,' name='hI' posn='250'>
	))
13	((	JJP	<fs name='JJP' drel='pof:VGNN2'>
13.1	lAgU	JJ	<fs af='lAgU,adj,any,any,,,,' name='lAgU' posn='260'>
	))
14	((	VGNN	<fs name='VGNN2' drel='jjmod:JJP2'>
14.1	karane	VM	<fs af='kara,v,any,any,any,o,nA,nA' name='karane' posn='270'>
	))
15	((	JJP	<fs name='JJP2' drel='nmod:NP9'>
15.1	yogya	JJ	<fs af='yogya,adj,any,any,,d,,' name='yogya' posn='280'>
	))
16	((	NP	<fs name='NP9' drel='k2:VGNN3'>
16.1	kAryayojanA	NN	<fs af='kAryayojanA,n,f,sg,3,d,0,0' name='kAryayojanA' posn='290'>
	))
17	((	JJP	<fs name='JJP3' drel='pof:VGNN3'>
17.1	wEyAra	JJ	<fs af='wEyAra,adj,any,any,,,,' name='wEyAra' posn='300'>
	))
18	((	VGNN	<fs name='VGNN3' drel='rt:VGF2'>
18.1	karane	VM	<fs af='kara,v,any,any,any,o,nA,nA' name='karane2' posn='310'>
18.2	ke	PSP	<fs af='ke,psp,,,,,,' name='ke2' posn='320'>
18.3	lie	PSP	<fs af='lie,psp,,,,,,' name='lie' posn='330'>
	))
19	((	NP	<fs name='NP10' drel='pof:VGF2'>
19.1	siPAriSa	NN	<fs af='siPAriSa,n,f,sg,3,d,0,0' name='siPAriSa' posn='340'>
	))
20	((	VGF	<fs voicetype='active' name='VGF2' stype='declarative' drel='ccof:CCP'>
20.1	karegI	VM	<fs af='kara,v,f,sg,3,,gA,gA' name='karegI2' posn='350'>
	))
21	((	BLK	<fs name='BLK' drel='rsym:CCP'>
21.1	.	SYM	<fs af='.,punc,,,,,,' name='.' posn='360'>
	))
</Sentence>

<Sentence id='13'>
1	((	NP	<fs name='NP' drel='r6:NP2'>
1.1	praXAnamaMwrI	NNP	<fs af='praXAnamaMwrI,n,m,sg,3,o,0,0' name='praXAnamaMwrI' posn='10'>
1.2	kI	PSP	<fs af='kA,psp,f,sg,,o,,' name='kI' posn='20'>
	))
2	((	NP	<fs name='NP2' drel='k7:VGNF'>
2.1	aXyakRawA	NN	<fs af='aXyakRawA,n,f,sg,3,o,0,0' name='aXyakRawA' posn='30'>
2.2	meM	PSP	<fs af='meM,psp,,,,,,' name='meM' posn='40'>
	))
3	((	VGNF	<fs voicetype='active' name='VGNF' stype='declarative' drel='nmod__k1inv:NP3'>
3.1	huI	VM	<fs af='ho,v,f,sg,any,,yA,yA' name='huI' posn='50'>
	))
4	((	NP	<fs name='NP3' drel='k7:VGF'>
4.1	isa	DEM	<fs af='yaha,pn,any,sg,3,o,,' name='isa' posn='60'>
4.2	bETaka	NN	<fs af='bETaka,n,f,sg,3,o,0,0' name='bETaka' posn='70'>
4.3	meM	PSP	<fs af='meM,psp,,,,,,' name='meM2' posn='80'>
	))
5	((	NP	<fs name='NP4' drel='ccof:NULL__CCP'>
5.1	rakRA	NNPC	<fs af='rakRA,n,f,sg,3,d,0,0' name='rakRA' posn='90'>
5.2	maMwrI	NNP	<fs af='maMwrI,n,m,sg,3,d,0,0' name='maMwrI' posn='100'>
5.3	praNaba	NNPC	<fs af='praNaba,n,m,sg,3,d,0,0' name='praNaba' posn='110'>
5.4	muKarjI	NNP	<fs af='muKarjI,n,m,sg,3,o,0,0' name='muKarjI' posn='120'>
5.5	,	SYM	<fs af='COMMA,punc,,,,,,' name=',' posn='130'>
	))
6	((	NP	<fs name='NP5' drel='ccof:NULL__CCP'>
6.1	kqRi	NNPC	<fs af='kqRi,n,f,sg,3,d,0,0' name='kqRi' posn='140'>
6.2	maMwrI	NNP	<fs af='maMwrI,n,m,sg,3,d,0,0' name='maMwrI2' posn='150'>
6.3	Saraxa	NNPC	<fs af='Saraxa,n,m,sg,3,d,0,0' name='Saraxa' posn='160'>
6.4	pavAra	NNP	<fs af='pavAra,n,m,sg,3,o,0,0' name='pavAra' posn='150'>
6.5	,	SYM	<fs af='COMMA,punc,,,,,,' name=',2' posn='180'>
	))
7	((	NP	<fs name='NP6' drel='ccof:NULL__CCP'>
7.1	viwwa	NNPC	<fs af='viwwa,n,m,sg,3,d,0,0' name='viwwa' posn='190'>
7.2	maMwrI	NNP	<fs af='maMwrI,n,m,sg,3,d,0,0' name='maMwrI3' posn='200'>
7.3	pI.	NNPC	<fs af='pI.,n,m,sg,3,d,0,0' name='pI.' posn='210'>
7.4	cixaMbarama	NNP	<fs af='cixaMbarama,n,m,sg,3,o,0,0' name='cixaMbarama' posn='220'>
7.5	,	SYM	<fs af='COMMA,punc,,,,,,' name=',3' posn='230'>
	))
8	((	NULL__CCP	<fs mtype='gap' troot='Ora' dmrel='vmod:VGF' name='NULL__CCP'>
8.1	NULL	CC	<fs name='NULL'>
	))
9	((	NP	<fs name='NP7' drel='r6:NP8'>
9.1	yojanA	NNPC	<fs af='yojanA,n,f,sg,3,d,0,0' name='yojanA' posn='240'>
9.2	Ayoga	NNP	<fs af='Ayoga,n,m,sg,3,o,0,0' name='Ayoga' posn='250'>
9.3	ke	PSP	<fs af='kA,psp,m,pl,,d,,' name='ke' posn='260'>
	))
10	((	NP	<fs name='NP8' drel='nmod:NP9'>
10.1	upAXyakRa	NN	<fs af='upAXyakRa,n,m,sg,3,o,0,0' name='upAXyakRa' posn='270'>
	))
11	((	NP	<fs name='NP9' drel='ccof:NULL__CCP'>
11.1	moMteka	NNPC	<fs af='moMteka,n,m,sg,3,d,0,0' name='moMteka' posn='280'>
11.2	siMha	NNPC	<fs af='siMha,n,m,sg,3,d,0,0' name='siMha' posn='290'>
11.3	ahalUvAliyA	NNP	<fs af='ahalUvAliyA,n,m,sg,3,o,0,0' name='ahalUvAliyA' posn='300'>
11.4	samewa	PSP	<fs af='samewa,psp,,,,,,' name='samewa' posn='310'>
	))
12	((	NP	<fs name='NP10' drel='r6:NP11'>
12.1	Ayoga	NN	<fs af='Ayoga,n,m,sg,3,o,0,0' name='Ayoga2' posn='320'>
12.2	ke	PSP	<fs af='kA,psp,m,pl,,d,,' name='ke2' posn='330'>
	))
13	((	NP	<fs name='NP11' drel='k1:VGF'>
13.1	saBI	QF	<fs af='saBI,avy,,,,,,' name='saBI' posn='340'>
13.2	saxasya	NN	<fs af='saxasya,n,m,pl,3,d,0,0' name='saxasya' posn='350'>
	))
14	((	JJP	<fs name='JJP' drel='pof:VGF'>
14.1	SAmila	JJ	<fs af='SAmila,adj,any,any,,,,' name='SAmila' posn='360'>
	))
15	((	VGF	<fs name='VGF' stype='declarative' voicetype='active'>
15.1	hue	VM	<fs af='ho,v,m,pl,any,,yA,yA' name='hue' posn='370'>
	))
16	((	BLK	<fs name='BLK' drel='rsym:VGF'>
16.1	.	SYM	<fs af='.,punc,,,,,,' name='.' posn='380'>
	))
</Sentence>

<Sentence id='15'>
1	((	NP	<fs name='NP' drel='k1:VGF'>
1.1	praXAnamaMwrI	NNP	<fs af='praXAnamaMwrI,n,m,sg,3,o,0,0' name='praXAnamaMwrI' posn='10'>
1.2	ne	PSP	<fs af='ne,psp,,,,,,' name='ne' posn='20'>
	))
2	((	NP	<fs name='NP2' drel='k7:VGF'>
2.1	isa	DEM	<fs af='yaha,pn,any,sg,3,o,,' name='isa' posn='30'>
2.2	mOke	NN	<fs af='mOkA,n,m,sg,3,o,0,0' name='mOke' posn='40'>
2.3	para	PSP	<fs af='para,psp,,,,,,' name='para' posn='50'>
	))
3	((	NP	<fs name='NP3' drel='rt:VGF'>
3.1	varRA	JJC	<fs af='varRA,n,f,sg,3,d,0,0' name='varRA' posn='60'>
3.2	siMciwa	JJ	<fs af='siMciwa,adj,any,any,,o,,' name='siMciwa' posn='70'>
3.3	kRewroM	NN	<fs af='kRewra,n,m,pl,3,o,0,0' name='kRewroM' posn='80'>
3.4	ke	PSP	<fs af='ke,psp,,,,,,' name='ke' posn='90'>
3.5	lie	PSP	<fs af='lie,psp,,,,,,' name='lie' posn='100'>
	))
4	((	NP	<fs name='NP4' drel='k2:VGNN'>
4.1	'	SYM	<fs af='SINGLE_QUOTE,punc,,,,,,' name=''' posn='110'>
4.2	renaPIda	NNPC	<fs af='renaPIda,n,m,sg,3,d,0,0' name='renaPIda' posn='10'>
4.3	eriyA	NNPC	<fs af='eriyA,n,m,sg,3,d,0,0' name='eriyA' posn='10'>
4.4	aWaritI	NNP	<fs af='aWaritI,n,f,sg,3,d,0,0' name='aWaritI' posn='10'>
4.5	'	SYM	<fs af='SINGLE_QUOTE,punc,,,,,,' name=''2' posn='150'>
	))
5	((	JJP	<fs name='JJP' drel='pof:VGNN'>
5.1	gaTiwa	JJ	<fs af='gaTiwa,adj,any,any,,,,' name='gaTiwa' posn='160'>
	))
6	((	VGNN	<fs name='VGNN' drel='r6-k1:NP5'>
6.1	karane	VM	<fs af='kara,v,any,any,any,o,nA,nA' name='karane' posn='170'>
6.2	kA	PSP	<fs af='kA,psp,m,sg,,d,,' name='kA' posn='180'>
	))
7	((	NP	<fs name='NP5' drel='pof:VGF'>
7.1	ElAna	NN	<fs af='ElAna,n,m,sg,3,d,0,0' name='ElAna' posn='190'>
	))
8	((	VGF	<fs name='VGF' stype='declarative' voicetype='active'>
8.1	kiyA	VM	<fs af='kara,v,m,sg,any,,yA,yA' name='kiyA' posn='200'>
	))
9	((	BLK	<fs name='BLK' drel='rsym:VGF'>
9.1	.	SYM	<fs af='.,punc,,,,,,' name='.' posn='210'>
	))
</Sentence>

<Sentence id='16'>
1	((	NP	<fs name='NP' drel='k1:VGF'>
1.1	unhoMne	PRP	<fs af='vaha,pn,any,sg,3h,o,ne,ne' name='unhoMne' posn='10'>
	))
2	((	NP	<fs name='NP2' drel='r6:NP3'>
2.1	siMcAI	NNC	<fs af='siMcAI,n,f,sg,3,d,0,0' name='siMcAI' posn='20'>
2.2	kRewra	NN	<fs af='kRewra,n,m,sg,3,o,0,0' name='kRewra' posn='30'>
2.3	kI	PSP	<fs af='kA,psp,f,pl,,o,,' name='kI' posn='40'>
	))
3	((	NP	<fs name='NP3' drel='k7:VGNF'>
3.1	pariyojanAoM	NN	<fs af='pariyojanA,n,m,pl,3,o,0,0' name='pariyojanAoM' posn='50'>
3.2	para	PSP	<fs af='para,psp,,,,,,' name='para' posn='60'>
	))
4	((	NP	<fs name='NP4' drel='k2:VGNF'>
4.1	nirASA	NN	<fs af='nirASA,n,f,sg,3,d,0,0' name='nirASA' posn='70'>
	))
5	((	VGNF	<fs name='VGNF' drel='vmod:VGF'>
5.1	jawAwe	VM	<fs af='jawA,v,m,sg,any,,wA,wA' name='jawAwe' posn='80'>
5.2	hue	VAUX	<fs af='ho,v,m,sg,any,,yA,yA' name='hue' posn='90'>
	))
6	((	NP	<fs name='NP5' drel='k2:VGNN'>
6.1	unheM	PRP	<fs af='vaha,pn,any,pl,3,o,ko,ko' name='unheM' posn='100'>
	))
7	((	JJP	<fs name='JJP' drel='pof:VGNN'>
7.1	pUrA	JJ	<fs af='pUrA,adj,m,sg,,d,,' name='pUrA' posn='110'>
	))
8	((	VGNN	<fs name='VGNN' drel='r6:NP6'>
8.1	karane	VM	<fs af='kara,v,any,any,any,o,nA,nA' name='karane' posn='120'>
8.2	kI	PSP	<fs af='kA,psp,f,sg,,d,,' name='kI2' posn='130'>
	))
9	((	NP	<fs name='NP6' drel='k2:VGF'>
9.1	AvaSyakawA	NN	<fs af='AvaSayakawA,n,f,sg,3,d,0,0' name='AvaSyakawA' posn='140'>
	))
10	((	VGF	<fs name='VGF' stype='declarative' voicetype='active'>
10.1	bawAI	VM	<fs af='bawA,v,f,sg,any,,yA,yA' name='bawAI' posn='150'>
	))
11	((	BLK	<fs name='BLK' drel='rsym:VGF'>
11.1	.	SYM	<fs af='.,punc,,,,,,' name='.' posn='160'>
	))
</Sentence>

<Sentence id='17'>
1	((	NP	<fs name='NP' drel='k1:VGF'>
1.1	manamohana	NNP	<fs af='manamohana,n,m,sg,3,o,0,0' name='manamohana' posn='10'>
1.2	ne	PSP	<fs af='ne,psp,,,,,,' name='ne' posn='20'>
	))
2	((	NP	<fs name='NP2' drel='r6:VGF'>
2.1	kqRi	NNC	<fs af='kqRi,n,f,sg,3,d,0,0' name='kqRi' posn='30'>
2.2	vina	NNC	<fs af='vina,n,f,sg,3,d,0,0' name='vina' posn='40'>
2.3	suXAroM	NN	<fs af='suXAra,n,m,pl,3,o,0,0' name='suXAroM' posn='50'>
2.4	kI	PSP	<fs af='kA,psp,f,sg,,o,,' name='kI' posn='60'>
	))
3	((	NP	<fs name='NP3' drel='k7:VGF'>
3.1	AvaSyakawA	NN	<fs af='AvaSyakawA,n,f,sg,3,o,0,0' name='AvaSyakawA' posn='70'>
3.2	para	PSP	<fs af='para,psp,,,,,,' name='para' posn='80'>
3.3	BI	RP	<fs af='BI,avy,,,,,,' name='BI' posn='90'>
	))
4	((	NP	<fs name='NP4' drel='pof:VGF'>
4.1	jora	NN	<fs af='jora,n,m,sg,3,d,0,0' name='jora' posn='100'>
	))
5	((	VGF	<fs name='VGF' stype='declarative' voicetype='active'>
5.1	xiyA	VM	<fs af='xe,v,m,sg,any,,yA,yA' name='xiyA' posn='110'>
	))
6	((	BLK	<fs name='BLK' drel='rsym:VGF'>
6.1	.	SYM	<fs af='.,punc,,,,,,' name='.' posn='120'>
	))
</Sentence>

<Sentence id='18'>
1	((	NP	<fs name='NP' drel='k1:VGF'>
1.1	unhoMne	PRP	<fs af='vaha,pn,any,sg,3h,o,ne,ne' name='unhoMne' posn='10'>
	))
2	((	NP	<fs name='NP2' drel='jjmod:JJP'>
2.1	paraMparAgawa	JJ	<fs af='paraMparAgawa,adj,any,any,,o,,' name='paraMparAgawa' posn='20'>
2.2	anAja	NN	<fs af='anAja,n,m,sg,3,o,0,0' name='anAja' posn='30'>
2.3	para	PSP	<fs af='para,psp,,,,,,' name='para' posn='40'>
	))
3	((	JJP	<fs name='JJP' drel='nmod:NP3'>
3.1	AXAriwa	JJ	<fs af='AXAriwa,adj,any,any,,o,,' name='AXAriwa' posn='50'>
	))
4	((	NP	<fs name='NP3' drel='vmod:VGF'>
4.1	KewI	NN	<fs af='KewI,n,f,sg,3,o,0,0' name='KewI' posn='60'>
4.2	ke	PSP	<fs af='ke,psp,,,,,,' name='ke' posn='70'>
4.3	bajAya	PSP	<fs af='bajAya,psp,,,,,,' name='bajAya' posn='80'>
	))
5	((	NP	<fs name='NP4' drel='ccof:CCP'>
5.1	alaga	JJ	<fs af='alaga,adj,any,any,,d,,' name='alaga' posn='90'>
5.2	-JOIN	SYM	<fs af='-,punc,,,,,,' name='-JOIN' posn='100'>
5.3	alaga	RDP	<fs af='alaga,adj,any,any,,o,,' name='alaga2' posn='110'>
5.4	PasaloM	NN	<fs af='Pasala,n,f,pl,3,o,0,0' name='PasaloM' posn='120'>
	))
6	((	CCP	<fs name='CCP' drel='ccof:NULL__CCP'>
6.1	Ora	CC	<fs af='Ora,avy,,,,,,' name='Ora' posn='130'>
	))
7	((	NP	<fs name='NP5' drel='ccof:CCP'>
7.1	bAgavAnI	NN	<fs af='bAgavAnI,n,f,sg,3,o,0,0' name='bAgavAnI' posn='140'>
7.2	,	SYM	<fs af='COMMA,punc,,,,,,' name=',' posn='150'>
	))
8	((	NULL__CCP	<fs mtype='gap' troot='Ora' dmrel='nmod:NP10' name='NULL__CCP'>
8.1	NULL	CC	<fs name='NULL'>
	))
9	((	NP	<fs name='NP6' drel='ccof:CCP2'>
9.1	murgI	NN	<fs af='murgI,n,f,sg,3,d,0,0' name='murgI' posn='160'>
9.2	,	SYM	<fs af='COMMA,punc,,,,,,' name=',2' posn='170'>
	))
10	((	NP	<fs name='NP7' drel='ccof:CCP2'>
10.1	maCalI	NN	<fs af='maCalI,n,f,sg,3,d,0,0' name='maCalI' posn='180'>
	))
11	((	CCP	<fs name='CCP2' drel='nmod:NP9'>
11.1	Ora	CC	<fs af='Ora,avy,,,,,,' name='Ora2' posn='190'>
	))
12	((	NP	<fs name='NP8' drel='ccof:CCP2'>
12.1	paSu	NN	<fs af='paSu,n,m,sg,3,d,0,0' name='paSu' posn='200'>
	))
13	((	NP	<fs name='NP9' drel='ccof:NULL__CCP'>
13.1	pAlana	NN	<fs af='pAlana,n,m,sg,3,o,0,0' name='pAlana' posn='210'>
13.2	jEse	PSP	<fs af='jEsA,psp,m,pl,,d,,' name='jEse' posn='220'>
	))
14	((	NP	<fs name='NP10' drel='k2:VGNN'>
14.1	XaMXe	NN	<fs af='XaMXA,n,m,pl,3,d,0,0' name='XaMXe' posn='230'>
	))
15	((	VGNN	<fs name='VGNN' drel='k7:VGF'>
15.1	apanAne	VM	<fs af='apanA,v,any,any,any,o,nA,nA' name='apanAne' posn='240'>
15.2	para	PSP	<fs af='para,psp,,,,,,' name='para2' posn='250'>
	))
16	((	NP	<fs name='NP11' drel='pof:VGF'>
16.1	jora	NN	<fs af='jora,n,m,sg,3,d,0,0' name='jora' posn='260'>
	))
17	((	VGF	<fs name='VGF' stype='declarative' voicetype='active'>
17.1	xiyA	VM	<fs af='xe,v,m,sg,any,,yA,yA' name='xiyA' posn='270'>
	))
18	((	BLK	<fs name='BLK' drel='rsym:VGF'>
18.1	.	SYM	<fs af='.,punc,,,,,,' name='.' posn='280'>
	))
</Sentence>

<Sentence id='19'>
1	((	NP	<fs name='NP' drel='k1:VGF'>
1.1	unhoMne	PRP	<fs af='vaha,pn,any,sg,3h,o,ne,ne' name='unhoMne' posn='10'>
	))
2	((	VGF	<fs name='VGF' stype='declarative' voicetype='active'>
2.1	kahA	VM	<fs af='kaha,v,m,sg,any,,yA,yA' name='kahA' posn='20'>
	))
3	((	CCP	<fs name='CCP' drel='k2:VGF'>
3.1	ki	CC	<fs af='ki,avy,,,,,,' name='ki' posn='30'>
	))
4	((	NP	<fs name='NP2' drel='ccof:CCP2'>
4.1	kqRi	NN	<fs af='kqRi,n,f,sg,3,o,0,0' name='kqRi' posn='40'>
4.2	,	SYM	<fs af='COMMA,punc,,,,,,' name=',' posn='50'>
	))
5	((	NP	<fs name='NP3' drel='ccof:CCP2'>
5.1	siMcAI	NN	<fs af='siMcAI,n,f,sg,3,o,0,0' name='siMcAI' posn='60'>
	))
6	((	CCP	<fs name='CCP2' drel='k7:VGNN'>
6.1	Ora	CC	<fs af='Ora,avy,,,,,,' name='Ora' posn='70'>
	))
7	((	NP	<fs name='NP4' drel='ccof:CCP2'>
7.1	anya	JJ	<fs af='anya,adj,any,any,,o,,' name='anya' posn='80'>
7.2	saMbaxXa	JJ	<fs af='saMbaxXa,adj,any,any,,o,,' name='saMbaxXa' posn='90'>
7.3	kRewroM	NN	<fs af='kRewra,n,m,pl,3,o,0,0' name='kRewroM' posn='100'>
7.4	meM	PSP	<fs af='meM,psp,,,,,,' name='meM' posn='110'>
	))
8	((	NP	<fs name='NP5' drel='k2:VGNN'>
8.1	niveSa	NN	<fs af='niveSa,n,m,sg,3,d,0,0' name='niveSa' posn='120'>
	))
9	((	VGNN	<fs name='VGNN' drel='r6:NP6'>
9.1	baDZAne	VM	<fs af='baDA,v,any,any,any,o,nA,nA' name='baDZAne' posn='130'>
9.2	kI	PSP	<fs af='kA,psp,f,sg,,d,,' name='kI' posn='140'>
	))
10	((	NP	<fs name='NP6' drel='k1:VGF2'>
10.1	AvaSyakawA	NN	<fs af='AvaSyakawA,n,f,sg,3,d,0,0' name='AvaSyakawA' posn='150'>
	))
11	((	VGF	<fs voicetype='active' name='VGF2' stype='declarative' drel='ccof:CCP'>
11.1	hE	VM	<fs af='hE,v,any,sg,3,,hE,hE' name='hE' posn='160'>
	))
12	((	BLK	<fs name='BLK' drel='rsym:VGF'>
12.1	.	SYM	<fs af='.,punc,,,,,,' name='.' posn='170'>
	))
</Sentence>

<Sentence id='20'>
1	((	NP	<fs name='NP' drel='k1:VGF'>
1.1	unhoMne	PRP	<fs af='vaha,pn,any,sg,3h,o,ne,ne' name='unhoMne' posn='10'>
	))
2	((	VGF	<fs name='VGF' stype='declarative' voicetype='active'>
2.1	kahA	VM	<fs af='kaha,v,m,sg,any,,yA,yA' name='kahA' posn='20'>
	))
3	((	NP	<fs name='NP2' drel='r6:NP3'>
3.1	kqRi	NN	<fs af='kqRi,n,f,sg,3,o,0,0' name='kqRi' posn='30'>
3.2	kA	PSP	<fs af='kA,psp,m,sg,,d,,' name='kA' posn='40'>
	))
4	((	NP	<fs name='NP3' drel='k2:VGNN'>
4.1	pUMjIgawa	JJ	<fs af='pUMjIgawa,adj,any,any,,d,,' name='pUMjIgawa' posn='50'>
4.2	AXAra	NN	<fs af='AXAra,n,m,sg,3,d,0,0' name='AXAra' posn='60'>
	))
5	((	JJP	<fs name='JJP' drel='pof:VGNN'>
5.1	vyApaka	JJ	<fs af='vyApaka,adj,any,any,,,,' name='vyApaka' posn='70'>
	))
6	((	VGNN	<fs name='VGNN' drel='rt:VGF2'>
6.1	banAne	VM	<fs af='banA,v,any,any,any,o,nA,nA' name='banAne' posn='80'>
6.2	ke	PSP	<fs af='ke,psp,,,,,,' name='ke' posn='90'>
6.3	lie	PSP	<fs af='lie,psp,,,,,,' name='lie' posn='100'>
	))
7	((	NP	<fs name='NP4' drel='r6:NP5'>
7.1	kqRi	NNPC	<fs af='kqRi,n,f,sg,3,d,0,0' name='kqRi2' posn='110'>
7.2	Ora	NNPC	<fs af='Ora,avy,,,,,,' name='Ora' posn='100'>
7.3	jala	NNPC	<fs af='jala,n,m,sg,3,d,0,0' name='jala' posn='130'>
7.4	saMsAXana	NNPC	<fs af='saMsAXana,n,m,sg,3,d,0,0' name='saMsAXana' posn='140'>
7.5	maMwrAlaya	NNP	<fs af='maMwrAlaya,n,m,sg,3,o,0,0' name='maMwrAlaya' posn='150'>
7.6	ke	PSP	<fs af='kA,psp,m,pl,,o,,' name='ke2' posn='160'>
	))
8	((	NP	<fs name='NP5' drel='ras-k2:VGF2'>
8.1	saMsAXanoM	NN	<fs af='saMsAXana,n,m,pl,3,o,0,0' name='saMsAXanoM' posn='170'>
8.2	ke	PSP	<fs af='ke,psp,,,,,,' name='ke3' posn='180'>
8.3	sAWa	NST	<fs af='sAWa,nst,m,sg,3,d,,' name='sAWa' posn='190'>
8.4	-JOIN	SYM	<fs af='-,punc,,,,,,' name='-JOIN' posn='200'>
8.5	sAWa	RDP	<fs af='sAWa,nst,m,sg,3,d,,' name='sAWa2' posn='210'>
	))
9	((	NP	<fs name='NP6' drel='ccof:CCP'>
9.1	BArawa	NNPC	<fs af='BArawa,n,m,sg,3,d,0,0' name='BArawa' posn='220'>
9.2	nirmANa	NNP	<fs af='nirmANa,n,m,sg,3,d,0,0' name='nirmANa' posn='230'>
	))
10	((	CCP	<fs name='CCP' drel='nmod:NP8'>
10.1	Ora	CC	<fs af='Ora,avy,,,,,,' name='Ora2' posn='240'>
	))
11	((	NP	<fs name='NP7' drel='ccof:CCP'>
11.1	rARtrIya	NNPC	<fs af='rARtrIya,adj,any,any,,d,,' name='rARtrIya' posn='90'>
11.2	grAmINa	NNPC	<fs af='grAmINa,adj,any,any,,d,,' name='grAmINa' posn='90'>
11.3	rojagAra	NNPC	<fs af='rojagAra,n,m,sg,3,d,0,0' name='rojagAra' posn='270'>
11.4	gAraMtI	NNPC	<fs af='gAraMtI,n,f,sg,3,d,0,0' name='gAraMtI' posn='280'>
	))
12	((	NP	<fs name='NP8' drel='rt:VGF2'>
12.1	yojanA	NNP	<fs af='yojanA,n,f,sg,3,o,0,0' name='yojanA' posn='290'>
12.2	ke	PSP	<fs af='ke,psp,,,,,,' name='ke4' posn='300'>
12.3	lie	PSP	<fs af='lie,psp,,,,,,' name='lie2' posn='310'>
	))
13	((	NP	<fs name='NP9' drel='r6:NP8'>
13.1	waya	JJ	<fs af='waya,adj,any,any,,o,,' name='waya' posn='320'>
13.2	XanarASi	NN	<fs af='XanarASi,n,f,sg,3,o,0,0' name='XanarASi' posn='330'>
13.3	ke	PSP	<fs af='kA,psp,m,sg,,o,,' name='ke5' posn='340'>
	))
14	((	NP	<fs name='NP10' drel='k7:VGF2'>
14.1	isameM	PRP	<fs af='yaha,pn,any,sg,3,o,meM,me' name='isameM' posn='350'>
	))
15	((	NP	<fs name='NP11' drel='r6:NP10'>
15.1	iswemAla	NN	<fs af='iswemAla,n,m,sg,3,o,0,0' name='iswemAla' posn='360'>
15.2	kI	PSP	<fs af='kA,psp,f,pl,,d,,' name='kI' posn='370'>
	))
16	((	NP	<fs name='NP12' drel='k2:VGF2'>
16.1	saMBAvanAeM	NN	<fs af='saMBAvanA,n,f,pl,3,d,0,0' name='saMBAvanAeM' posn='380'>
	))
17	((	VGF	<fs voicetype='active' name='VGF2' stype='declarative' drel='k2:VGF'>
17.1	walASI	VM	<fs af='walASa,v,f,sg,any,,yA,yA' name='walASI' posn='400'>
17.2	jAnI	VAUX	<fs af='jA,v,f,sg,any,,nA,nA' name='jAnI' posn='400'>
17.3	cAhie	VAUX	<fs af='cAhie,v,any,any,,any,0,0' name='cAhie' posn='410'>
	))
18	((	BLK	<fs name='BLK' drel='rsym:VGF'>
18.1	.	SYM	<fs af='.,punc,,,,,,' name='.' posn='420'>
	))
</Sentence>

<Sentence id='21'>
1	((	NP	<fs name='NP' drel='k1:VGF'>
1.1	unhoMne	PRP	<fs af='vaha,pn,any,sg,3h,o,ne,ne' name='unhoMne' posn='10'>
	))
2	((	NP	<fs name='NP2' drel='r6:NP3'>
2.1	siMcAI	NNC	<fs af='siMcAI,n,f,sg,3,d,0,0' name='siMcAI' posn='20'>
2.2	pariyojanAoM	NN	<fs af='pariyojanA,n,f,pl,3,o,0,0' name='pariyojanAoM' posn='30'>
2.3	kI	PSP	<fs af='kA,psp,f,sg,,o,,' name='kI' posn='40'>
	))
3	((	NP	<fs name='NP3' drel='k7:VGF'>
3.1	pragawi	NN	<fs af='pragawi,n,f,sg,3,o,0,0' name='pragawi' posn='50'>
3.2	para	PSP	<fs af='para,psp,,,,,,' name='para' posn='60'>
	))
4	((	NP	<fs name='NP4' drel='pof:VGF'>
4.1	nirASA	NN	<fs af='nirASA,n,f,sg,3,d,0,0' name='nirASA' posn='70'>
	))
5	((	VGF	<fs name='VGF' stype='declarative' voicetype='active'>
5.1	jawAI	VM	<fs af='jawA,v,f,sg,any,,yA,yA' name='jawAI' posn='80'>
	))
6	((	BLK	<fs name='BLK' drel='rsym:VGF'>
6.1	.	SYM	<fs af='.,punc,,,,,,' name='.' posn='90'>
	))
</Sentence>

<Sentence id='22'>
1	((	NP	<fs name='NP' drel='k7:VGF'>
1.1	bAxa	NST	<fs af='bAxa,nst,m,sg,3,o,,' name='bAxa' posn='10'>
1.2	meM	PSP	<fs af='meM,psp,,,,,,' name='meM' posn='20'>
	))
2	((	NP	<fs name='NP2' drel='ccof:CCP'>
2.1	pavAra	NNP	<fs af='pavAra,n,m,sg,3,o,0,0' name='pavAra' posn='30'>
	))
3	((	CCP	<fs name='CCP' drel='k1:VGF'>
3.1	Ora	CC	<fs af='Ora,avy,,,,,,' name='Ora' posn='40'>
	))
4	((	NP	<fs name='NP3' drel='ccof:CCP'>
4.1	AhalUvAliyA	NNP	<fs af='AhalUvAliyA,n,m,sg,3,o,0,0' name='AhalUvAliyA' posn='50'>
4.2	ne	PSP	<fs af='ne,psp,,,,,,' name='ne' posn='60'>
	))
5	((	NP	<fs name='NP4' drel='k2:VGNF'>
5.1	bETaka	NN	<fs af='bETaka,n,f,sg,3,o,0,0' name='bETaka' posn='70'>
5.2	ko	PSP	<fs af='ko,psp,,,,,,' name='ko' posn='80'>
	))
6	((	VGNF	<fs name='VGNF' drel='vmod:VGF'>
6.1	lekara	VM	<fs af='le,v,any,any,any,,kara,kara' name='lekara' posn='90'>
	))
7	((	NP	<fs name='NP5' drel='pof:VGF'>
7.1	jAnakArI	NN	<fs af='jAnakArI,n,f,sg,3,d,0,0' name='jAnakArI' posn='100'>
	))
8	((	VGF	<fs name='VGF' stype='declarative' voicetype='active'>
8.1	xI	VM	<fs af='xe,v,f,sg,any,,yA,yA' name='xI' posn='110'>
	))
9	((	BLK	<fs name='BLK' drel='rsym:VGF'>
9.1	.	SYM	<fs af='.,punc,,,,,,' name='.' posn='120'>
	))
</Sentence>

<Sentence id='23'>
1	((	NP	<fs name='NP' drel='k1:VGF'>
1.1	sarakAra	NN	<fs af='sarakAra,n,f,sg,3,o,0,0' name='sarakAra' posn='10'>
1.2	ne	PSP	<fs af='ne,psp,,,,,,' name='ne' posn='20'>
	))
2	((	VGF	<fs name='VGF' stype='declarative' voicetype='active'>
2.1	mAnA	VM	<fs af='mAna,v,m,sg,any,,yA,yA' name='mAnA' posn='30'>
	))
3	((	CCP	<fs name='CCP' drel='k2:VGF'>
3.1	ki	CC	<fs af='ki,avy,,,,,,' name='ki' posn='40'>
	))
4	((	NP	<fs name='NP2' drel='k7:VGF2'>
4.1	kqRi	NNC	<fs af='kqRi,n,f,sg,3,d,0,0' name='kqRi' posn='50'>
4.2	kRewra	NN	<fs af='kRewra,n,m,sg,3,o,0,0' name='kRewra' posn='60'>
4.3	meM	PSP	<fs af='meM,psp,,,,,,' name='meM' posn='70'>
	))
5	((	NP	<fs name='NP3' drel='r6:NP4'>
5.1	logoM	NN	<fs af='loga,n,m,pl,3,o,0,0' name='logoM' posn='80'>
5.2	kI	PSP	<fs af='kA,psp,f,sg,,d,,' name='kI' posn='90'>
	))
6	((	NP	<fs name='NP4' drel='k1:VGF2'>
6.1	xilacaspI	NN	<fs af='xilacaspI,n,f,sg,3,d,0,0' name='xilacaspI' posn='100'>
	))
7	((	JJP	<fs name='JJP' drel='pof:VGF2'>
7.1	kama	QF	<fs af='kama,avy,,,,,,' name='kama' posn='110'>
	))
8	((	VGF	<fs voicetype='active' name='VGF2' stype='declarative' drel='ccof:CCP'>
8.1	ho	VM	<fs af='ho,v,any,any,any,,0,0' name='ho' posn='120'>
8.2	rahI	VAUX	<fs af='raha,v,f,sg,any,,yA,yA' name='rahI' posn='130'>
8.3	hE	VAUX	<fs af='hE,v,any,sg,3,,hE,hE' name='hE' posn='140'>
	))
9	((	BLK	<fs name='BLK' drel='rsym:VGF'>
9.1	.	SYM	<fs af='.,punc,,,,,,' name='.' posn='150'>
	))
</Sentence>

<Sentence id='24'>
1	((	NP	<fs name='NP' drel='rt:VGF'>
1.1	isake	PRP	<fs af='yaha,pn,m,sg,3,o,ke,ke' name='isake' posn='10'>
1.2	lie	PSP	<fs af='lie,psp,,,,,,' name='lie' posn='20'>
	))
2	((	NP	<fs name='NP2' drel='k7:VGF'>
2.1	kqRi	NN	<fs af='kqRi,n,any,sg,3,o,0,0' name='kqRi' posn='30'>
2.2	meM	PSP	<fs af='meM,psp,,,,,,' name='meM' posn='40'>
	))
3	((	NP	<fs name='NP3' drel='ccof:CCP'>
3.1	kama	QF	<fs af='kama,avy,,,,,,' name='kama' posn='50'>
3.2	niveSa	NN	<fs af='niveSa,n,m,sg,3,d,0,0' name='niveSa' posn='60'>
3.3	,	SYM	<fs af='COMMA,punc,,,,,,' name=',' posn='70'>
	))
4	((	NP	<fs name='NP4' drel='ccof:CCP'>
4.1	kamajora	JJ	<fs af='kamajora,adj,any,any,,d,,' name='kamajora' posn='80'>
4.2	buniyAxI	JJ	<fs af='buniyAxI,adj,any,any,,d,,' name='buniyAxI' posn='90'>
4.3	DAMcA	NN	<fs af='DAMcA,n,m,sg,3,d,0,0' name='DAMcA' posn='100'>
4.4	,	SYM	<fs af='COMMA,punc,,,,,,' name=',2' posn='110'>
	))
5	((	NP	<fs name='NP5' drel='r6:NP6'>
5.1	siMcAI	NN	<fs af='siMcAI,n,f,sg,3,o,0,0' name='siMcAI' posn='120'>
5.2	kI	PSP	<fs af='kA,psp,f,pl,,d,,' name='kI' posn='130'>
	))
6	((	NP	<fs name='NP6' drel='ccof:CCP'>
6.1	muSkiloM	NN	<fs af='muSkila,n,f,pl,3,o,0,0' name='muSkiloM' posn='140'>
6.2	,	SYM	<fs af='COMMA,punc,,,,,,' name=',3' posn='150'>
	))
7	((	NP	<fs name='NP7' drel='nmod:NP8'>
7.1	qNa	NN	<fs af='qNa,n,m,sg,3,o,0,0' name='qNa' posn='160'>
7.2	para	PSP	<fs af='para,psp,,,,,,' name='para' posn='170'>
	))
8	((	NP	<fs name='NP8' drel='ccof:CCP'>
8.1	jyAxA	QF	<fs af='jyAxA,avy,,,,,,' name='jyAxA' posn='180'>
8.2	byAja	NNC	<fs af='byAja,n,m,sg,3,d,0,0' name='byAja' posn='190'>
8.3	xara	NN	<fs af='xara,n,f,sg,3,d,0,0' name='xara' posn='200'>
	))
9	((	CCP	<fs name='CCP' drel='ras-k2:VGF'>
9.1	Ora	CC	<fs af='Ora,avy,,,,,,' name='Ora' posn='210'>
	))
10	((	NP	<fs name='NP9' drel='ccof:CCP'>
10.1	viswArIkaraNa	NN	<fs af='viswArIkaraNa,n,m,sg,3,o,0,0' name='viswArIkaraNa' posn='220'>
10.2	samewa	PSP	<fs af='samewa,psp,,,,,,' name='samewa' posn='230'>
	))
11	((	NP	<fs name='NP10' drel='k2:VGF'>
11.1	DeroM	QF	<fs af='Dera,adj,any,pl,,d,,' name='DeroM' posn='240'>
11.2	samasyAeM	NN	<fs af='samasyA,n,f,pl,3,d,0,0' name='samasyAeM' posn='250'>
	))
12	((	VGF	<fs name='VGF' stype='declarative' voicetype='active'>
12.1	pahacAnI	VM	<fs af='pahacAna,v,f,sg,any,,yA,yA' name='pahacAnI' posn='260'>
12.2	gaIM	VAUX	<fs af='jA,v,f,pl,any,,yA1,yA1' name='gaIM' posn='270'>
	))
13	((	BLK	<fs name='BLK' drel='rsym:VGF'>
13.1	.	SYM	<fs af='.,punc,,,,,,' name='.' posn='280'>
	))
</Sentence>

