<Sentence id='1'>
1	((	NP	<fs name='NP' drel='nmod:NP2'>
1.1	prAWamika	JJ	<fs af='prAWamika,adj,any,any,,o,,' name='prAWamika' posn='10'>
1.2	saxasyawA	NN	<fs af='saxasyawA,n,f,sg,3,o,0,0' name='saxasyawA' posn='20'>
1.3	se	PSP	<fs af='se,psp,,,,,,' name='se' posn='30'>
	))
2	((	NP	<fs name='NP2' drel='r6:NP3'>
2.1	nilaMbana	NN	<fs af='nilaMbana,n,m,sg,3,o,0,0' name='nilaMbana' posn='40'>
2.2	ke	PSP	<fs af='kA,psp,m,sg,,o,,' name='ke' posn='50'>
	))
3	((	NP	<fs name='NP3' drel='r6:NP4'>
3.1	BAjapA	NNP	<fs af='BAjapA,n,f,sg,3,o,0,0' name='BAjapA' posn='60'>
3.2	ke	PSP	<fs af='kA,psp,m,sg,,o,,' name='ke2' posn='70'>
	))
4	((	NP	<fs name='NP4' drel='rh:VGF'>
4.1	PEsale	NN	<fs af='PEsalA,n,m,sg,3,o,0,0' name='PEsale' posn='80'>
4.2	se	PSP	<fs af='se,psp,,,,,,' name='se2' posn='90'>
	))
5	((	NP	<fs name='NP5' drel='k4:VGF'>
5.1	wejawarrAra	JJ	<fs af='wejawarrAra,adj,any,any,,o,,' name='wejawarrAra' posn='100'>
5.2	sAXvI	NNC	<fs af='sAXvI,n,f,sg,3,d,0,0' name='sAXvI' posn='110'>
5.3	umA	NNPC	<fs af='umA,n,f,sg,3,d,0,0' name='umA' posn='120'>
5.4	BArawI	NNP	<fs af='BArawI,n,f,sg,3,o,0,0' name='BArawI' posn='130'>
5.5	ko	PSP	<fs af='ko,psp,,,,,,' name='ko' posn='140'>
	))
6	((	NP	<fs name='NP6' drel='k2:VGF'>
6.1	wagadZA	JJ	<fs af='wagadA,adj,m,sg,,d,,' name='wagadZA' posn='150'>
6.2	JatakA	NN	<fs af='JatakA,n,m,sg,3,d,0,0' name='JatakA' posn='160'>
	))
7	((	VGF	<fs name='VGF' stype='declarative' voicetype='active'>
7.1	lagA	VM	<fs af='lagA,v,any,any,any,,0,0' name='lagA' posn='170'>
7.2	hE	VAUX	<fs af='hE,v,any,sg,3,,hE,hE' name='hE' posn='180'>
	))
8	((	BLK	<fs name='BLK' drel='rsym:VGF'>
8.1	.	SYM	<fs af='.,punc,,,,,,' name='.' posn='190'>
	))
</Sentence>

<Sentence id='2'>
1	((	NP	<fs name='NP' drel='k7t:VGF'>
1.1	aba	PRP	<fs af='aba,pn,,,,d,,' name='aba' posn='10'>
	))
2	((	NP	<fs name='NP2' drel='r6:NP3'>
2.1	unake	PRP	<fs af='vaha,pn,m,sg,3h,o,ke,ke' name='unake' posn='20'>
	))
3	((	NP	<fs name='NP3' drel='k7:VGF'>
3.1	lahaje	NN	<fs af='lahajA,n,m,sg,3,o,0,0' name='lahaje' posn='30'>
3.2	meM	PSP	<fs af='meM,psp,,,,,,' name='meM' posn='40'>
	))
4	((	NP	<fs name='NP4' drel='ccof:CCP'>
4.1	walKI	NN	<fs af='walKI,n,f,sg,3,o,0,0' name='walKI' posn='50'>
	))
5	((	CCP	<fs name='CCP' drel='k7:VGF'>
5.1	Ora	CC	<fs af='Ora,avy,,,,,,' name='Ora' posn='60'>
	))
6	((	NP	<fs name='NP5' drel='ccof:CCP'>
6.1	wevara	NN	<fs af='wevara,n,m,sg,3,o,0,0' name='wevara' posn='70'>
6.2	meM	PSP	<fs af='meM,psp,,,,,,' name='meM2' posn='80'>
	))
7	((	NP	<fs name='NP6' drel='k1:VGF'>
7.1	wejI	NN	<fs af='wejI,n,f,sg,3,d,0,0' name='wejI' posn='90'>
	))
8	((	VGF	<fs name='VGF' stype='declarative' voicetype='active'>
8.1	nahIM	NEG	<fs af='nahIM,avy,,,,,,' name='nahIM' posn='100'>
8.2	hE	VM	<fs af='hE,v,any,sg,3,,hE,hE' name='hE' posn='110'>
	))
9	((	BLK	<fs name='BLK' drel='rsym:VGF'>
9.1	.	SYM	<fs af='.,punc,,,,,,' name='.' posn='120'>
	))
</Sentence>

<Sentence id='3'>
1	((	NP	<fs name='NP' drel='k1:VGF'>
1.1	'	SYM	<fs af='SINGLE_QUOTE,punc,,,,,,' name=''' posn='10'>
1.2	naI	JJ	<fs af='nayA,adj,f,sg,,d,,' name='naI' posn='20'>
1.3	umA	NNP	<fs af='umA,n,f,sg,3,d,0,0' name='umA' posn='30'>
1.4	'	SYM	<fs af='SINGLE_QUOTE,punc,,,,,,' name=''2' posn='40'>
	))
2	((	NP	<fs name='NP2' drel='ccof:CCP'>
2.1	BAjapA	NNP	<fs af='BAjapA,n,f,sg,3,d,0,0' name='BAjapA' posn='50'>
2.2	aXyakRa	NN	<fs af='aXyakRa,n,m,sg,3,d,0,0' name='aXyakRa' posn='60'>
2.3	lAlakqRNa	NNPC	<fs af='lAlakqRNa,n,m,sg,3,d,0,0' name='lAlakqRNa' posn='70'>
2.4	AdavANI	NNP	<fs af='AdavANI,n,any,sg,3,o,0,0' name='AdavANI' posn='80'>
	))
3	((	CCP	<fs name='CCP' drel='k2:VGF'>
3.1	Ora	CC	<fs af='Ora,avy,,,,,,' name='Ora' posn='90'>
	))
4	((	NP	<fs name='NP3' drel='ccof:CCP'>
4.1	pUrva	JJ	<fs af='pUrva,adj,any,any,,o,,' name='pUrva' posn='100'>
4.2	praXAnamaMwrI	NNP	<fs af='praXAnamaMwrI,n,m,sg,3,d,0,0' name='praXAnamaMwrI' posn='110'>
4.3	atala	NNPC	<fs af='atala,n,m,sg,3,d,0,0' name='atala' posn='120'>
4.4	bihArI	NNPC	<fs af='bihArI,n,m,sg,3,d,0,0' name='bihArI' posn='130'>
4.5	vAjapeyI	NNP	<fs af='vAjapeyI,n,any,sg,3,o,0,0' name='vAjapeyI' posn='140'>
4.6	ko	PSP	<fs af='ko,psp,,,,,,' name='ko' posn='150'>
	))
5	((	NP	<fs name='NP4' drel='k2s:VGF'>
5.1	piwA	NN	<fs af='piwA,n,m,sg,3,o,0,0' name='piwA' posn='160'>
5.2	samAna	PSP	<fs af='samAna,psp,,,,,,' name='samAna' posn='170'>
	))
6	((	VGF	<fs name='VGF' stype='declarative' voicetype='active'>
6.1	bawA	VM	<fs af='bawA,v,any,any,any,,0,0' name='bawA' posn='180'>
6.2	rahI	VAUX	<fs af='raha,v,f,sg,3h,,yA,yA' name='rahI' posn='190'>
6.3	hEM	VAUX	<fs af='hE,v,any,sg,3h,,hE,hE' name='hEM' posn='200'>
	))
7	((	BLK	<fs name='BLK' drel='rsym:VGF'>
7.1	.	SYM	<fs af='.,punc,,,,,,' name='.' posn='210'>
	))
</Sentence>

<Sentence id='4'>
1	((	NP	<fs name='NP' drel='k1:VGF'>
1.1	sAXvI	NN	<fs af='sAXvI,n,f,sg,3,o,0,0' name='sAXvI' posn='10'>
1.2	ne	PSP	<fs af='ne,psp,,,,,,' name='ne' posn='20'>
	))
2	((	NP	<fs name='NP2' drel='k1:VGNF'>
2.1	apane	PRP	<fs af='apanA,pn,any,any,any,o,0,0' name='apane' posn='30'>
2.2	xvArA	PSP	<fs af='xvArA,psp,,,,,,' name='xvArA' posn='40'>
	))
3	((	VGNF	<fs name='VGNF' drel='nmod__k2inv:NP5'>
3.1	uTAe	VM	<fs af='uTA,v,any,sg,3,,yA,yA' name='uTAe' posn='50'>
3.2	gae	VAUX	<fs af='jA,v,m,sg,any,,yA1,yA1' name='gae' posn='60'>
	))
4	((	NP	<fs name='NP3' drel='k4:VGNN'>
4.1	pArtI	NN	<fs af='pArtI,n,f,sg,3,o,0,0' name='pArtI' posn='70'>
4.2	se	PSP	<fs af='se,psp,,,,,,' name='se' posn='80'>
	))
5	((	NP	<fs name='NP4' drel='r6:NP5'>
5.1	AMwarika	JJ	<fs af='AMwarika,adj,any,any,,o,,' name='AMwarika' posn='90'>
5.2	lokawaMwra	NN	<fs af='lokawaMwra,n,m,sg,3,o,0,0' name='lokawaMwra' posn='100'>
5.3	ke	PSP	<fs af='kA,psp,m,sg,,o,,' name='ke' posn='110'>
	))
6	((	NP	<fs name='NP5' drel='k7:VGNN'>
6.1	muxxe	NN	<fs af='muxxA,n,m,sg,3,o,0,0' name='muxxe' posn='120'>
6.2	para	PSP	<fs af='para,psp,,,,,,' name='para' posn='130'>
	))
7	((	NP	<fs name='NP6' drel='pof:VGNN'>
7.1	bAwacIwa	NN	<fs af='bAwacIwa,n,f,sg,3,d,0,0' name='bAwacIwa' posn='140'>
	))
8	((	VGNN	<fs name='VGNN' drel='r6-k2:NP7'>
8.1	karane	VM	<fs af='kara,v,any,any,any,o,nA,nA' name='karane' posn='150'>
8.2	kI	PSP	<fs af='kA,psp,f,sg,,d,,' name='kI' posn='160'>
	))
9	((	NP	<fs name='NP7' drel='pof:VGF'>
9.1	peSakaSa	NN	<fs af='peSakaSa,n,f,sg,3,d,0,0' name='peSakaSa' posn='170'>
9.2	BI	RP	<fs af='BI,avy,,,,,,' name='BI' posn='180'>
	))
10	((	VGF	<fs name='VGF' stype='declarative' voicetype='active'>
10.1	kI	VM	<fs af='kara,v,f,sg,any,,yA,yA' name='kI2' posn='190'>
	))
11	((	BLK	<fs name='BLK' drel='rsym:VGF'>
11.1	.	SYM	<fs af='.,punc,,,,,,' name='.' posn='200'>
	))
</Sentence>

<Sentence id='5'>
1	((	CCP	<fs name='CCP'>
1.1	hAlAMki	CC	<fs af='hAlAMki,avy,,,,,,' name='hAlAMki' posn='10'>
	))
2	((	NP	<fs name='NP' drel='k1:VGF'>
2.1	unhoMne	PRP	<fs af='vaha,pn,any,sg,3h,o,ne,ne' name='unhoMne' posn='20'>
	))
3	((	NP	<fs name='NP2' drel='k7t:VGF'>
3.1	buXavAra	NNP	<fs af='buXavAra,n,m,sg,3,o,0,0' name='buXavAra' posn='30'>
3.2	ko	PSP	<fs af='ko,psp,,,,,,' name='ko' posn='40'>
3.3	BI	RP	<fs af='BI,avy,,,,,,' name='BI' posn='50'>
	))
4	((	NP	<fs name='NP3' drel='ras-k2:VGF'>
4.1	BagavA	JJ	<fs af='BagavA,adj,any,any,,o,,' name='BagavA' posn='60'>
4.2	Xvaja	NN	<fs af='Xvaja,n,m,sg,3,o,0,0' name='Xvaja' posn='70'>
4.3	ke	PSP	<fs af='ke,psp,,,,,,' name='ke' posn='80'>
4.4	sAWa	NST	<fs af='sAWa,nst,m,sg,3,d,,' name='sAWa' posn='90'>
	))
5	((	NP	<fs name='NP4' drel='r6:NP5'>
5.1	ayoXyA	NNP	<fs af='ayoXyA,n,f,sg,3,o,0,0' name='ayoXyA' posn='100'>
5.2	kI	PSP	<fs af='kA,psp,f,sg,,d,,' name='kI' posn='110'>
	))
6	((	NP	<fs name='NP5' drel='k2:VGF'>
6.1	'	SYM	<fs af='SINGLE_QUOTE,punc,,,,,,' name=''' posn='120'>
6.2	rAma	NNPC	<fs af='rAma,n,m,sg,3,d,0,0' name='rAma' posn='130'>
6.3	-	SYM	<fs af='-,punc,,,,,,' name='-' posn='140'>
6.4	rotI	NNPC	<fs af='rotI,n,f,sg,3,d,0,0' name='rotI' posn='150'>
6.5	paxayAwrA	NNP	<fs af='paxayAwrA,n,f,sg,3,d,0,0' name='paxayAwrA' posn='160'>
6.6	'	SYM	<fs af='SINGLE_QUOTE,punc,,,,,,' name=''2' posn='170'>
	))
7	((	JJP	<fs name='JJP' drel='pof:VGF'>
7.1	jArI	JJ	<fs af='jArI,adj,any,any,,,,' name='jArI' posn='180'>
	))
8	((	VGF	<fs voicetype='active' name='VGF' stype='declarative' drel='ccof:CCP'>
8.1	raKI	VM	<fs af='raKa,v,f,sg,any,,yA,yA' name='raKI' posn='190'>
	))
9	((	BLK	<fs name='BLK' drel='rsym:CCP'>
9.1	.	SYM	<fs af='.,punc,,,,,,' name='.' posn='200'>
	))
</Sentence>

<Sentence id='6'>
1	((	NP	<fs name='NP' drel='k7:VGF'>
1.1	bakOla	PSP	<fs af='bakOla,psp,,,,,,' name='bakOla' posn='10'>
1.2	sAXvI	NN	<fs af='sAXvI,n,f,sg,3,o,0,0' name='sAXvI' posn='20'>
1.3	,	SYM	<fs af='COMMA,punc,,,,,,' name=',' posn='30'>
	))
2	((	NP	<fs name='NP2' drel='k2:VGNN'>
2.1	'	SYM	<fs af='SINGLE_QUOTE,punc,,,,,,' name=''' posn='40'>
2.2	isa	DEM	<fs af='yaha,pn,any,sg,3,o,,' name='isa' posn='50'>
2.3	Xvaja	NN	<fs af='Xvaja,n,m,sg,3,o,0,0' name='Xvaja' posn='60'>
2.4	ko	PSP	<fs af='ko,psp,,,,,,' name='ko' posn='70'>
	))
3	((	JJP	<fs name='JJP' drel='pof:VGNN'>
3.1	UMcA	JJ	<fs af='UMcA,adj,m,sg,,d,,' name='UMcA' posn='80'>
	))
4	((	VGNN	<fs name='VGNN' drel='rt:VGF'>
4.1	karane	VM	<fs af='kara,v,any,any,any,o,nA,nA' name='karane' posn='90'>
4.2	ke	PSP	<fs af='ke,psp,,,,,,' name='ke' posn='100'>
4.3	lie	PSP	<fs af='lie,psp,,,,,,' name='lie' posn='110'>
	))
5	((	NP	<fs name='NP3' drel='k1:VGF'>
5.1	mEMne	PRP	<fs af='mEM,pn,any,sg,1,o,ne,ne' name='mEMne' posn='120'>
	))
6	((	NP	<fs name='NP4' drel='pof:VGF'>
6.1	bahuwa	QF	<fs af='bahuwa,avy,,,,,,' name='bahuwa' posn='130'>
6.2	mehanawa	NN	<fs af='mehanawa,n,f,sg,3,d,0,0' name='mehanawa' posn='140'>
	))
7	((	VGF	<fs voicetype='active' name='VGF' stype='declarative' drel='ccof:CCP'>
7.1	kI	VM	<fs af='kara,v,f,sg,any,,yA,yA' name='kI' posn='150'>
7.2	hE	VAUX	<fs af='hE,v,any,sg,3,,hE,hE' name='hE' posn='160'>
	))
8	((	CCP	<fs name='CCP'>
8.1	Ora	CC	<fs af='Ora,avy,,,,,,' name='Ora' posn='170'>
	))
9	((	NP	<fs name='NP5' drel='k7t:VGF2'>
9.1	aba	PRP	<fs af='aba,pn,,,,d,,' name='aba' posn='180'>
	))
10	((	NP	<fs name='NP6' drel='k2:VGNN2'>
10.1	ise	PRP	<fs af='yaha,pn,any,sg,3,o,ko,ko' name='ise' posn='190'>
	))
11	((	NP	<fs name='NP7' drel='r6:NP8'>
11.1	BraRta	JJ	<fs af='BraRta,adj,any,any,,o,,' name='BraRta' posn='200'>
11.2	logoM	NN	<fs af='loga,n,m,pl,3,o,0,0' name='logoM' posn='210'>
11.3	ke	PSP	<fs af='kA,psp,m,sg,,o,,' name='ke2' posn='220'>
	))
12	((	NP	<fs name='NP8' drel='k5:VGNN2'>
12.1	hAWa	NN	<fs af='hAWa,n,m,sg,3,o,0,0' name='hAWa' posn='230'>
12.2	se	PSP	<fs af='se,psp,,,,,,' name='se' posn='240'>
	))
13	((	VGNN	<fs name='VGNN2' drel='rt:VGF2'>
13.1	CInane	VM	<fs af='CIna,v,any,any,any,o,nA,nA' name='CInane' posn='250'>
13.2	ke	PSP	<fs af='ke,psp,,,,,,' name='ke3' posn='260'>
13.3	lie	PSP	<fs af='lie,psp,,,,,,' name='lie2' posn='270'>
	))
14	((	JJP	<fs name='JJP2' drel='k1:VGF2'>
14.1	xqDZaprawijFa	JJ	<fs af='xqDZaprawijFa,adj,any,any,,,,' name='xqDZaprawijFa' posn='280'>
	))
15	((	VGF	<fs voicetype='active' name='VGF2' stype='declarative' drel='ccof:CCP'>
15.1	hUM	VM	<fs af='hE,v,any,sg,1,,hE,hE' name='hUM' posn='290'>
	))
16	((	BLK	<fs name='BLK' drel='rsym:CCP'>
16.1	.	SYM	<fs af='.,punc,,,,,,' name='.' posn='300'>
16.2	'	SYM	<fs af='SINGLE_QUOTE,punc,,,,,,' name=''2' posn='310'>
	))
</Sentence>

<Sentence id='7'>
1	((	NP	<fs name='NP' drel='k1:VGF'>
1.1	sAXvI	NN	<fs af='sAXvI,n,f,sg,3,o,0,0' name='sAXvI' posn='10'>
1.2	ne	PSP	<fs af='ne,psp,,,,,,' name='ne' posn='20'>
	))
2	((	NP	<fs name='NP2' drel='r6:NP3'>
2.1	apane	PRP	<fs af='apanA,pn,m,any,any,o,0,0' name='apane' posn='30'>
	))
3	((	NP	<fs name='NP3' drel='ccof:CCP'>
3.1	nilaMbana	NN	<fs af='nilaMbana,n,m,sg,3,o,0,0' name='nilaMbana' posn='40'>
	))
4	((	CCP	<fs name='CCP' drel='k7:VGNF'>
4.1	Ora	CC	<fs af='Ora,avy,,,,,,' name='Ora' posn='50'>
	))
5	((	NP	<fs name='NP4' drel='ccof:CCP'>
5.1	notisa	NN	<fs af='notisa,n,m,sg,3,o,0,0' name='notisa' posn='60'>
5.2	ke	PSP	<fs af='ke,psp,,,,,,' name='ke' posn='70'>
5.3	bAre	PSP	<fs af='bAre,psp,,,,,,' name='bAre' posn='80'>
5.4	meM	PSP	<fs af='meM,psp,,,,,,' name='meM' posn='90'>
	))
6	((	NP	<fs name='NP5' drel='k2:VGNF'>
6.1	prawikriyA	NN	<fs af='prawikriyA,n,f,sg,3,d,0,0' name='prawikriyA' posn='100'>
	))
7	((	JJP	<fs name='JJP' drel='pof:VGNF'>
7.1	vyakwa	JJ	<fs af='vyakwa,adj,any,any,,,,' name='vyakwa' posn='110'>
	))
8	((	VGNF	<fs name='VGNF' drel='vmod:VGF'>
8.1	karawe	VM	<fs af='kara,v,m,sg,any,,wA,wA' name='karawe' posn='120'>
8.2	hue	VAUX	<fs af='ho,v,m,sg,any,,yA,yA' name='hue' posn='130'>
	))
9	((	VGF	<fs name='VGF' stype='declarative' voicetype='active'>
9.1	kahA	VM	<fs af='kaha,v,m,sg,any,,yA,yA' name='kahA' posn='140'>
	))
10	((	CCP	<fs name='CCP2' drel='k2:VGF'>
10.1	ki	CC	<fs af='ki,avy,,,,,,' name='ki' posn='150'>
	))
11	((	NP	<fs name='NP6' drel='ccof:CCP3'>
11.1	'	SYM	<fs af='SINGLE_QUOTE,punc,,,,,,' name=''' posn='160'>
11.2	vyakwigawa	JJ	<fs af='vyakwigawa,adj,any,any,,o,,' name='vyakwigawa' posn='170'>
11.3	xuSmanI	NN	<fs af='xuSmanI,n,f,sg,3,o,0,0' name='xuSmanI' posn='180'>
11.4	'	SYM	<fs af='SINGLE_QUOTE,punc,,,,,,' name=''2' posn='190'>
	))
12	((	CCP	<fs name='CCP3' drel='k7:VGNF2'>
12.1	Ora	CC	<fs af='Ora,avy,,,,,,' name='Ora2' posn='200'>
	))
13	((	NP	<fs name='NP7' drel='ccof:CCP3'>
13.1	gEra	JJC	<fs af='gEra,adj,any,any,,,,' name='gEra' posn='210'>
13.2	-	SYM	<fs af='-,punc,,,,,,' name='-' posn='220'>
13.3	jimmexArAnA	JJ	<fs af='jimmexArAnA,adj,any,any,,o,,' name='jimmexArAnA' posn='230'>
13.4	bayAnabAjI	NN	<fs af='bayAnabAjI,n,f,sg,3,o,0,0' name='bayAnabAjI' posn='240'>
13.5	se	PSP	<fs af='se,psp,,,,,,' name='se' posn='250'>
13.6	Upara	NST	<fs af='Upara,nst,m,sg,3,d,,' name='Upara' posn='260'>
	))
14	((	VGNF	<fs name='VGNF2' drel='vmod:VGNN'>
14.1	uTakara	VM	<fs af='uTa,v,any,any,any,,kara,kara' name='uTakara' posn='270'>
	))
15	((	NP	<fs name='NP8' drel='k2:VGNN'>
15.1	isa	DEM	<fs af='yaha,pn,any,sg,3,o,,' name='isa' posn='280'>
15.2	muxxe	NN	<fs af='muxxA,n,m,sg,3,o,0,0' name='muxxe' posn='290'>
15.3	ko	PSP	<fs af='ko,psp,,,,,,' name='ko' posn='300'>
	))
16	((	VGNN	<fs name='VGNN' drel='r6:NP9'>
16.1	sulaJAne	VM	<fs af='sulaJA,v,any,any,any,o,nA,nA' name='sulaJAne' posn='310'>
16.2	kI	PSP	<fs af='kA,psp,f,sg,,d,,' name='kI' posn='320'>
	))
17	((	NP	<fs name='NP9' drel='k1:VGF2'>
17.1	jarUrawa	NN	<fs af='jarUrawa,n,f,sg,3,d,0,0' name='jarUrawa' posn='330'>
	))
18	((	VGF	<fs voicetype='active' name='VGF2' stype='declarative' drel='ccof:CCP2'>
18.1	hE	VM	<fs af='hE,v,any,sg,3,,hE,hE' name='hE' posn='340'>
	))
19	((	BLK	<fs name='BLK' drel='rsym:VGF'>
19.1	.	SYM	<fs af='.,punc,,,,,,' name='.' posn='350'>
	))
</Sentence>

<Sentence id='8'>
1	((	NP	<fs name='NP' drel='k1:VGF'>
1.1	unhoMne	PRP	<fs af='vaha,pn,any,sg,3h,o,ne,ne' name='unhoMne' posn='10'>
	))
2	((	NP	<fs name='NP2' drel='ccof:CCP'>
2.1	vAjapeyI	NNP	<fs af='vAjapeyI,n,any,sg,3,o,0,0' name='vAjapeyI' posn='20'>
	))
3	((	CCP	<fs name='CCP' drel='k2:VGNF'>
3.1	Ora	CC	<fs af='Ora,avy,,,,,,' name='Ora' posn='30'>
	))
4	((	NP	<fs name='NP3' drel='ccof:CCP'>
4.1	AdavANI	NNP	<fs af='AdavANI,n,any,sg,3,o,0,0' name='AdavANI' posn='40'>
4.2	ko	PSP	<fs af='ko,psp,,,,,,' name='ko' posn='50'>
	))
5	((	JJP	<fs name='JJP' drel='k2s:VGNF'>
5.1	piwAwulya	JJ	<fs af='piwAwulya,adj,any,any,,,,' name='piwAwulya' posn='60'>
	))
6	((	VGNF	<fs name='VGNF' drel='vmod:VGF'>
6.1	bawAwe	VM	<fs af='bawA,v,m,sg,any,,wA,wA' name='bawAwe' posn='70'>
6.2	hue	VAUX	<fs af='ho,v,m,sg,any,,yA,yA' name='hue' posn='80'>
	))
7	((	NP	<fs name='NP4' drel='k4:VGNN'>
7.1	unase	PRP	<fs af='vaha,pn,any,pl,3,o,se,se' name='unase' posn='90'>
	))
8	((	NP	<fs name='NP5' drel='k2:VGNN'>
8.1	isa	DEM	<fs af='yaha,pn,any,sg,3,o,,' name='isa' posn='100'>
8.2	muxxe	NN	<fs af='muxxA,n,m,sg,3,o,0,0' name='muxxe' posn='110'>
8.3	ko	PSP	<fs af='ko,psp,,,,,,' name='ko2' posn='120'>
	))
9	((	NP	<fs name='NP6' drel='k7:VGNN'>
9.1	sAMgaTanika	JJC	<fs af='sAMgaTanika,adj,any,any,,,,' name='sAMgaTanika' posn='130'>
9.2	-	SYM	<fs af='-,punc,,,,,,' name='-' posn='140'>
9.3	viXika	JJ	<fs af='viXika,adj,any,any,,o,,' name='viXika' posn='150'>
9.4	rUpa	NN	<fs af='rUpa,n,m,sg,3,o,0,0' name='rUpa' posn='160'>
9.5	meM	PSP	<fs af='meM,psp,,,,,,' name='meM' posn='170'>
	))
10	((	VGNN	<fs name='VGNN' drel='ccof:CCP2'>
10.1	lene	VM	<fs af='le,v,any,any,any,o,nA,nA' name='lene' posn='180'>
	))
11	((	CCP	<fs name='CCP2' drel='r6-k2:NP9'>
11.1	Ora	CC	<fs af='Ora,avy,,,,,,' name='Ora2' posn='190'>
	))
12	((	NP	<fs name='NP7' drel='adv:VGNN2'>
12.1	gaMBIrawA	NN	<fs af='gaMBIrawA,n,f,sg,3,o,0,0' name='gaMBIrawA' posn='200'>
12.2	se	PSP	<fs af='se,psp,,,,,,' name='se' posn='210'>
	))
13	((	NP	<fs name='NP8' drel='pof:VGNN2'>
13.1	vicAra	NN	<fs af='vicAra,n,m,sg,3,d,0,0' name='vicAra' posn='220'>
	))
14	((	VGNN	<fs name='VGNN2' drel='ccof:CCP2'>
14.1	karane	VM	<fs af='kara,v,any,any,any,o,nA,nA' name='karane' posn='230'>
14.2	kA	PSP	<fs af='kA,psp,m,sg,,d,,' name='kA' posn='240'>
	))
15	((	NP	<fs name='NP9' drel='pof:VGF'>
15.1	Agraha	NN	<fs af='Agraha,n,m,sg,3,d,0,0' name='Agraha' posn='250'>
	))
16	((	VGF	<fs name='VGF' stype='declarative' voicetype='active'>
16.1	kiyA	VM	<fs af='kara,v,m,sg,any,,yA,yA' name='kiyA' posn='260'>
	))
17	((	BLK	<fs name='BLK' drel='rsym:VGF'>
17.1	.	SYM	<fs af='.,punc,,,,,,' name='.' posn='270'>
	))
</Sentence>

<Sentence id='9'>
1	((	NP	<fs name='NP' drel='k7t:VGF'>
1.1	ayoXyA	NNPC	<fs af='ayoXyA,n,f,sg,3,d,0,0' name='ayoXyA' posn='10'>
1.2	mArca	NNP	<fs af='mArca,n,m,sg,3,o,0,0' name='mArca' posn='20'>
1.3	ke	PSP	<fs af='ke,psp,,,,,,' name='ke' posn='30'>
1.4	xOrAna	NST	<fs af='xOrAna,nst,m,sg,3,d,,' name='xOrAna' posn='40'>
	))
2	((	NP	<fs name='NP2' drel='k7:VGNF'>
2.1	pawrakAroM	NN	<fs af='pawrakAra,n,m,pl,3,o,0,0' name='pawrakAroM' posn='50'>
2.2	ke	PSP	<fs af='ke,psp,,,,,,' name='ke2' posn='60'>
2.3	sAmane	NST	<fs af='sAmane,nst,m,sg,3,d,,' name='sAmane' posn='70'>
	))
3	((	NP	<fs name='NP3' drel='adv:VGNF'>
3.1	badZI	JJ	<fs af='badZA,adj,f,sg,,o,,' name='badZI' posn='80'>
3.2	sAvaXAnI	NN	<fs af='sAvaXAnI,n,f,sg,3,o,0,0' name='sAvaXAnI' posn='90'>
3.3	se	PSP	<fs af='se,psp,,,,,,' name='se' posn='100'>
	))
4	((	VGNF	<fs name='VGNF' drel='nmod__k2inv:NP5'>
4.1	liKe	VM	<fs af='liKa,v,m,sg,any,,yA,yA' name='liKe' posn='110'>
	))
5	((	NP	<fs name='NP4' drel='r6:NP5'>
5.1	apane	PRP	<fs af='apanA,pn,m,any,any,o,0,0' name='apane' posn='120'>
	))
6	((	NP	<fs name='NP5' drel='k2:VGNF2'>
6.1	bayAna	NN	<fs af='bayAna,n,m,sg,3,o,0,0' name='bayAna' posn='130'>
6.2	ko	PSP	<fs af='ko,psp,,,,,,' name='ko' posn='140'>
	))
7	((	VGNF	<fs name='VGNF2' drel='vmod:VGF'>
7.1	paDZawe	VM	<fs af='paDZa,v,m,sg,any,,wA,wA' name='paDZawe' posn='150'>
7.2	hue	VAUX	<fs af='ho,v,m,sg,any,,yA,yA' name='hue' posn='160'>
	))
8	((	NP	<fs name='NP6' drel='k1:VGF'>
8.1	umA	NNP	<fs af='umA,n,f,sg,3,o,0,0' name='umA' posn='170'>
8.2	ne	PSP	<fs af='ne,psp,,,,,,' name='ne' posn='180'>
	))
9	((	VGF	<fs name='VGF' stype='declarative' voicetype='active'>
9.1	kahA	VM	<fs af='kaha,v,m,sg,any,,yA,yA' name='kahA' posn='190'>
	))
10	((	CCP	<fs name='CCP' drel='k2:VGF'>
10.1	ki	CC	<fs af='ki,avy,,,,,,' name='ki' posn='200'>
	))
11	((	NP	<fs name='NP7' drel='k7:VGF2'>
11.1	xonoM	QC	<fs af='xo,num,any,pl,,any,,' name='xonoM' posn='210'>
11.2	pakRoM	NN	<fs af='pakRa,n,m,pl,3,o,0,0' name='pakRoM' posn='220'>
11.3	ke	PSP	<fs af='ke,psp,,,,,,' name='ke3' posn='230'>
11.4	bIca	NST	<fs af='bIca,nst,m,sg,3,d,,' name='bIca' posn='240'>
	))
12	((	NP	<fs name='NP8' drel='r6:NP9'>
12.1	bAwacIwa	NN	<fs af='bAwacIwa,n,f,sg,3,o,0,0' name='bAwacIwa' posn='250'>
12.2	kI	PSP	<fs af='kA,psp,f,sg,,d,,' name='kI' posn='260'>
	))
13	((	NP	<fs name='NP9' drel='k1:VGF2'>
13.1	guMjAiSa	NN	<fs af='guMjAiSa,n,f,sg,3,d,0,0' name='guMjAiSa' posn='270'>
	))
14	((	VGF	<fs voicetype='active' name='VGF2' stype='declarative' drel='ccof:CCP'>
14.1	hE	VM	<fs af='hE,v,any,sg,3,,hE,hE' name='hE' posn='280'>
	))
15	((	BLK	<fs name='BLK' drel='rsym:VGF'>
15.1	.	SYM	<fs af='.,punc,,,,,,' name='.' posn='290'>
	))
</Sentence>

<Sentence id='10'>
1	((	NP	<fs name='NP' drel='ccof:CCP'>
1.1	vAjapeyI	NNP	<fs af='vAjapeyI,n,any,sg,3,o,0,0' name='vAjapeyI' posn='10'>
	))
2	((	CCP	<fs name='CCP' drel='k5:VGNF'>
2.1	Ora	CC	<fs af='Ora,avy,,,,,,' name='Ora' posn='20'>
	))
3	((	NP	<fs name='NP2' drel='ccof:CCP'>
3.1	AdavANI	NNP	<fs af='AdavANI,n,any,sg,3,o,0,0' name='AdavANI' posn='30'>
3.2	se	PSP	<fs af='se,psp,,,,,,' name='se' posn='40'>
	))
4	((	NP	<fs name='NP3' drel='k2:VGNF'>
4.1	ASIrvAxa	NN	<fs af='ASIrvAxa,n,m,sg,3,d,0,0' name='ASIrvAxa' posn='50'>
	))
5	((	VGNF	<fs name='VGNF' drel='vmod:VGF'>
5.1	mAMgawe	VM	<fs af='mAMga,v,m,sg,3,,wA,wA' name='mAMgawe' posn='60'>
5.2	hue	VAUX	<fs af='ho,v,m,sg,any,,yA,yA' name='hue' posn='70'>
	))
6	((	NP	<fs name='NP4' drel='k1:VGF'>
6.1	sAXvI	NN	<fs af='sAXvI,n,f,sg,3,o,0,0' name='sAXvI' posn='80'>
6.2	ne	PSP	<fs af='ne,psp,,,,,,' name='ne' posn='90'>
	))
7	((	NP	<fs name='NP5' drel='r6:NP6'>
7.1	xInaxayAla	NNPC	<fs af='xInaxayAla,n,m,sg,3,d,0,0' name='xInaxayAla' posn='100'>
7.2	upAXyAya	NNP	<fs af='upAXyAya,n,m,sg,3,o,0,0' name='upAXyAya' posn='110'>
7.3	ke	PSP	<fs af='kA,psp,m,sg,,o,,' name='ke' posn='120'>
	))
8	((	VGNF	<fs name='VGNF2' drel='nmod__k1inv:NP6'>
8.1	bawAe	VM	<fs af='bawA,v,m,sg,any,,yA,yA' name='bawAe' posn='130'>
	))
9	((	NP	<fs name='NP6' drel='k7:VGNN'>
9.1	mArga	NN	<fs af='mArga,n,m,sg,3,o,0,0' name='mArga' posn='140'>
9.2	para	PSP	<fs af='para,psp,,,,,,' name='para' posn='150'>
	))
10	((	VGNN	<fs name='VGNN' drel='r6-k2:NP7'>
10.1	calane	VM	<fs af='cala,v,any,any,any,o,nA,nA' name='calane' posn='160'>
10.2	kA	PSP	<fs af='kA,psp,m,sg,,d,,' name='kA' posn='170'>
	))
11	((	NP	<fs name='NP7' drel='pof:VGF'>
11.1	xAvA	NN	<fs af='xAvA,n,m,sg,3,d,0,0' name='xAvA' posn='180'>
	))
12	((	VGF	<fs name='VGF' stype='declarative' voicetype='active'>
12.1	kiyA	VM	<fs af='kara,v,m,sg,any,,yA,yA' name='kiyA' posn='190'>
	))
13	((	BLK	<fs name='BLK' drel='rsym:VGF'>
13.1	.	SYM	<fs af='.,punc,,,,,,' name='.' posn='200'>
	))
</Sentence>

<Sentence id='11'>
1	((	NP	<fs name='NP' drel='k1:NULL__VGF'>
1.1	yahI	PRP	<fs af='yaha,pn,any,sg,3,d,0,0' name='yahI' posn='10'>
	))
2	((	NULL__VGF	<fs mtype='gap' troot='hE' dmrel='ccof:NULL__CCP' name='NULL__VGF'>
2.1	nahIM	NEG	<fs af='nahIM,avy,,,,,,' name='nahIM' posn='20'>
2.2	NULL	VM	<fs name='NULL'>
2.3	,	SYM	<fs af='COMMA,punc,,,,,,' name=',' posn='30'>
	))
3	((	NULL__CCP	<fs mtype='gap' troot='Ora' name='NULL__CCP'>
3.1	NULL	CC	<fs name='NULL2'>
	))
4	((	NP	<fs name='NP2' drel='k2:VGF'>
4.1	'	SYM	<fs af='SINGLE_QUOTE,punc,,,,,,' name=''' posn='40'>
4.2	kAraNa	NN	<fs af='kAraNa,n,m,sg,3,d,0,0' name='kAraNa' posn='50'>
	))
5	((	VGF	<fs voicetype='active' name='VGF' stype='declarative' drel='nmod:NP3'>
5.1	bawAo	VM	<fs af='bawA,v,any,sg,2,,o,ao' name='bawAo' posn='60'>
5.2	'	SYM	<fs af='SINGLE_QUOTE,punc,,,,,,' name=''2' posn='70'>
	))
6	((	NP	<fs name='NP3' drel='r6:NP4'>
6.1	notisa	NN	<fs af='notisa,n,m,sg,3,o,0,0' name='notisa' posn='80'>
6.2	kA	PSP	<fs af='kA,psp,m,sg,,d,,' name='kA' posn='90'>
	))
7	((	NP	<fs name='NP4' drel='k2:VGNN'>
7.1	javAba	NN	<fs af='javAba,n,m,sg,3,d,0,0' name='javAba' posn='100'>
	))
8	((	VGNN	<fs name='VGNN' drel='rt:VGNN2'>
8.1	xene	VM	<fs af='xe,v,any,any,any,o,nA,nA' name='xene' posn='110'>
8.2	ke	PSP	<fs af='ke,psp,,,,,,' name='ke' posn='120'>
8.3	lie	PSP	<fs af='lie,psp,,,,,,' name='lie' posn='130'>
	))
9	((	NP	<fs name='NP5' drel='r6:NP6'>
9.1	wIna	QC	<fs af='wIna,num,any,any,,any,,' name='wIna' posn='140'>
9.2	xina	NN	<fs af='xina,n,m,sg,3,o,0,0' name='xina' posn='150'>
9.3	kA	PSP	<fs af='kA,psp,m,sg,,d,,' name='kA2' posn='160'>
	))
10	((	NP	<fs name='NP6' drel='k2:VGNN2'>
10.1	samaya	NN	<fs af='samaya,n,m,sg,3,d,0,0' name='samaya' posn='170'>
	))
11	((	VGNN	<fs name='VGNN2' drel='k7:VGNF'>
11.1	xene	VM	<fs af='xe,v,any,any,any,o,nA,nA' name='xene2' posn='180'>
11.2	para	PSP	<fs af='para,psp,,,,,,' name='para' posn='190'>
	))
12	((	NP	<fs name='NP7' drel='r6:NP9'>
12.1	pArtI	NN	<fs af='pArtI,n,f,sg,3,o,0,0' name='pArtI' posn='200'>
12.2	kA	PSP	<fs af='kA,psp,m,sg,,d,,' name='kA3' posn='210'>
	))
13	((	NP	<fs name='NP8' drel='k1:VGNF'>
13.1	yaha	PRP	<fs af='yaha,pn,any,sg,3,d,0,0' name='yaha' posn='220'>
	))
14	((	VGNF	<fs name='VGNF' drel='vmod:VGF2'>
14.1	kahawe	VM	<fs af='kaha,v,m,sg,any,,wA,wA' name='kahawe' posn='230'>
14.2	hue	VAUX	<fs af='ho,v,m,sg,any,,yA,yA' name='hue' posn='240'>
	))
15	((	NP	<fs name='NP9' drel='k2:VGF2'>
15.1	ABAra	NN	<fs af='ABAra,n,m,sg,3,d,0,0' name='ABAra' posn='250'>
	))
16	((	JJP	<fs name='JJP' drel='pof:VGF2'>
16.1	vyakwa	JJ	<fs af='vyakwa,adj,any,any,,,,' name='vyakwa' posn='260'>
	))
17	((	VGF	<fs voicetype='active' name='VGF2' stype='declarative' drel='ccof:NULL__CCP'>
17.1	kiyA	VM	<fs af='kara,v,m,sg,any,,yA,yA' name='kiyA' posn='270'>
	))
18	((	CCP	<fs name='CCP' drel='rs:NP9'>
18.1	ki	CC	<fs af='ki,avy,,,,,,' name='ki' posn='280'>
	))
19	((	NP	<fs name='NP10' drel='k1:VGF3'>
19.1	vaha	PRP	<fs af='vaha,pn,any,sg,3,d,0,0' name='vaha' posn='290'>
	))
20	((	NP	<fs name='NP11' drel='rt:VGF3'>
20.1	BAjapA	NNP	<fs af='BAjapA,n,f,sg,3,o,0,0' name='BAjapA' posn='300'>
20.2	ke	PSP	<fs af='ke,psp,,,,,,' name='ke2' posn='310'>
20.3	lie	PSP	<fs af='lie,psp,,,,,,' name='lie2' posn='320'>
20.4	hI	RP	<fs af='hI,avy,,,,,,' name='hI' posn='330'>
	))
21	((	VGF	<fs voicetype='active' name='VGF3' stype='declarative' drel='ccof:CCP2'>
21.1	jIwI	VM	<fs af='jI,v,f,sg,3h,,wA,wA' name='jIwI' posn='340'>
21.2	hEM	VAUX	<fs af='hE,v,any,sg,3h,,hE,hE' name='hEM' posn='350'>
	))
22	((	CCP	<fs name='CCP2' drel='ccof:CCP'>
22.1	Ora	CC	<fs af='Ora,avy,,,,,,' name='Ora' posn='360'>
	))
23	((	NP	<fs name='NP12' drel='rt:VGF4'>
23.1	usI	PRP	<fs af='vaha,pn,f,sg,3,o,0,0' name='usI' posn='370'>
23.2	ke	PSP	<fs af='ke,psp,,,,,,' name='ke3' posn='380'>
23.3	lie	PSP	<fs af='lie,psp,,,,,,' name='lie3' posn='390'>
	))
24	((	VGF	<fs voicetype='active' name='VGF4' stype='declarative' drel='ccof:CCP2'>
24.1	marawI	VM	<fs af='mara,v,f,sg,3h,,wA,wA' name='marawI' posn='400'>
24.2	hEM	VAUX	<fs af='hE,v,any,sg,3h,,hE,hE' name='hEM2' posn='410'>
	))
25	((	BLK	<fs name='BLK' drel='rsym:NULL__CCP'>
25.1	.	SYM	<fs af='.,punc,,,,,,' name='.' posn='420'>
	))
</Sentence>

<Sentence id='12'>
1	((	NP	<fs name='NP' drel='k1:VGF'>
1.1	umA	NNP	<fs af='umA,n,f,sg,3,o,0,0' name='umA' posn='10'>
1.2	ne	PSP	<fs af='ne,psp,,,,,,' name='ne' posn='20'>
	))
2	((	VGF	<fs name='VGF' stype='declarative' voicetype='active'>
2.1	kahA	VM	<fs af='kaha,v,m,sg,any,,yA,yA' name='kahA' posn='30'>
	))
3	((	CCP	<fs name='CCP' drel='k2:VGF'>
3.1	ki	CC	<fs af='ki,avy,,,,,,' name='ki' posn='40'>
	))
4	((	NP	<fs name='NP2' drel='k1:VGF2'>
4.1	unhoMne	PRP	<fs af='vaha,pn,any,sg,3h,o,ne,ne' name='unhoMne' posn='50'>
	))
5	((	NP	<fs name='NP3' drel='k7t:VGF2'>
5.1	kaBI	PRP	<fs af='kaBI,pn,,,,,,' name='kaBI' posn='60'>
	))
6	((	NP	<fs name='NP4' drel='rt:VGF2'>
6.1	paxa	NN	<fs af='paxa,n,m,sg,3,o,0,0' name='paxa' posn='70'>
6.2	ke	PSP	<fs af='ke,psp,,,,,,' name='ke' posn='80'>
6.3	lie	PSP	<fs af='lie,psp,,,,,,' name='lie' posn='90'>
	))
7	((	NP	<fs name='NP5' drel='k2:VGF2'>
7.1	kAma	NN	<fs af='kAma,n,m,sg,3,d,0,0' name='kAma' posn='100'>
	))
8	((	VGF	<fs voicetype='active' name='VGF2' stype='declarative' drel='ccof:CCP'>
8.1	nahIM	NEG	<fs af='nahIM,avy,,,,,,' name='nahIM' posn='110'>
8.2	kiyA	VM	<fs af='kara,v,m,sg,any,,yA,yA' name='kiyA' posn='120'>
	))
9	((	BLK	<fs name='BLK' drel='rsym:VGF'>
9.1	.	SYM	<fs af='.,punc,,,,,,' name='.' posn='130'>
	))
</Sentence>

<Sentence id='13'>
1	((	NP	<fs name='NP' drel='r6:NP2'>
1.1	saMGa	NN	<fs af='saMGa,n,m,sg,3,o,0,0' name='saMGa' posn='10'>
1.2	ke	PSP	<fs af='kA,psp,m,pl,,d,,' name='ke' posn='20'>
	))
2	((	NP	<fs name='NP2' drel='k1:VGF'>
2.1	loga	NN	<fs af='loga,n,m,pl,3,d,0,0' name='loga' posn='30'>
	))
3	((	NP	<fs name='NP3' drel='ccof:CCP'>
3.1	vicAraXArA	NN	<fs af='vicAraXArA,n,f,sg,3,o,0,0' name='vicAraXArA' posn='40'>
3.2	,	SYM	<fs af='COMMA,punc,,,,,,' name=',' posn='50'>
	))
4	((	NP	<fs name='NP4' drel='ccof:CCP'>
4.1	vyavahAra	NN	<fs af='vyavahAra,n,m,sg,3,o,0,0' name='vyavahAra' posn='60'>
4.2	,	SYM	<fs af='COMMA,punc,,,,,,' name=',2' posn='70'>
	))
5	((	NP	<fs name='NP5' drel='ccof:CCP'>
5.1	sahI	JJ	<fs af='sahI,adj,any,any,,o,,' name='sahI' posn='80'>
5.2	kAryapraNAlI	NN	<fs af='kAryapraNAlI,n,f,sg,3,o,0,0' name='kAryapraNAlI' posn='90'>
	))
6	((	CCP	<fs name='CCP' drel='k4:VGF'>
6.1	Ora	CC	<fs af='Ora,avy,,,,,,' name='Ora' posn='100'>
	))
7	((	NP	<fs name='NP6' drel='ccof:CCP'>
7.1	naI	JJ	<fs af='nayA,adj,f,sg,,o,,' name='naI' posn='110'>
7.2	pIDZI	NN	<fs af='pIDZI,n,f,sg,3,o,0,0' name='pIDZI' posn='120'>
7.3	ko	PSP	<fs af='ko,psp,,,,,,' name='ko' posn='130'>
	))
8	((	NP	<fs name='NP7' drel='r6-k2:NP8'>
8.1	sawwA	NNC	<fs af='sawwA,n,f,sg,3,d,0,0' name='sawwA' posn='140'>
8.2	haswAMwaraNa	NN	<fs af='haswAMwaraNa,n,m,sg,3,o,0,0' name='haswAMwaraNa' posn='150'>
8.3	kI	PSP	<fs af='kA,psp,f,sg,,d,,' name='kI' posn='160'>
	))
9	((	NP	<fs name='NP8' drel='pof:VGF'>
9.1	bAwa	NN	<fs af='bAwa,n,f,sg,3,d,0,0' name='bAwa' posn='170'>
	))
10	((	VGF	<fs name='VGF' stype='declarative' voicetype='active'>
10.1	karawe	VM	<fs af='kara,v,m,pl,any,,wA,wA' name='karawe' posn='180'>
10.2	hEM	VAUX	<fs af='hE,v,any,pl,3,,hE,hE' name='hEM' posn='190'>
10.3	,	SYM	<fs af='COMMA,punc,,,,,,' name=',3' posn='200'>
	))
11	((	NP	<fs coref=':NP8' name='NP9' drel='r6-k2:NP11'>
11.1	jisakA	PRP	<fs af='jo,pn,m,sg,3,o,kA,kA' name='jisakA' posn='210'>
	))
12	((	NP	<fs name='NP10' drel='k1:VGF2'>
12.1	ve	PRP	<fs af='vaha,pn,any,sg,3h,d,0,0' name='ve' posn='220'>
	))
13	((	NP	<fs name='NP11' drel='pof:VGF2'>
13.1	samarWana	NN	<fs af='samarWana,n,m,sg,3,d,0,0' name='samarWana' posn='230'>
	))
14	((	VGF	<fs voicetype='active' name='VGF2' stype='declarative' drel='nmod__relc:NP8'>
14.1	karawI	VM	<fs af='kara,v,f,sg,3h,,wA,wA' name='karawI' posn='240'>
14.2	hEM	VAUX	<fs af='hE,v,any,sg,3h,,hE,hE' name='hEM2' posn='250'>
	))
15	((	BLK	<fs name='BLK' drel='rsym:VGF'>
15.1	.	SYM	<fs af='.,punc,,,,,,' name='.' posn='260'>
	))
</Sentence>

<Sentence id='14'>
1	((	NP	<fs name='NP' drel='k1:VGF'>
1.1	unhoMne	PRP	<fs af='vaha,pn,any,sg,3h,o,ne,ne' name='unhoMne' posn='10'>
	))
2	((	VGF	<fs name='VGF' stype='declarative' voicetype='active'>
2.1	kahA	VM	<fs af='kaha,v,m,sg,any,,yA,yA' name='kahA' posn='20'>
	))
3	((	CCP	<fs name='CCP' drel='k2:VGF'>
3.1	ki	CC	<fs af='ki,avy,,,,,,' name='ki' posn='30'>
	))
4	((	NP	<fs name='NP2' drel='k1:VGF2'>
4.1	unheM	PRP	<fs af='vaha,pn,any,sg,3h,o,ko,ko' name='unheM' posn='40'>
	))
5	((	NP	<fs name='NP3' drel='r6:NP4'>
5.1	notisa	NN	<fs af='notisa,n,m,sg,3,o,0,0' name='notisa' posn='50'>
5.2	kA	PSP	<fs af='kA,psp,m,sg,,d,,' name='kA' posn='60'>
	))
6	((	NP	<fs name='NP4' drel='k2:VGNN'>
6.1	javAba	NN	<fs af='javAba,n,m,sg,3,d,0,0' name='javAba' posn='70'>
	))
7	((	JJP	<fs name='JJP' drel='pof:VGNN'>
7.1	wEyAra	JJ	<fs af='wEyAra,adj,any,any,,,,' name='wEyAra' posn='80'>
	))
8	((	VGNN	<fs name='VGNN' drel='rt:VGF2'>
8.1	karane	VM	<fs af='kara,v,any,any,any,o,nA,nA' name='karane' posn='90'>
8.2	ke	PSP	<fs af='ke,psp,,,,,,' name='ke' posn='100'>
8.3	lie	PSP	<fs af='lie,psp,,,,,,' name='lie' posn='110'>
	))
9	((	NP	<fs name='NP5' drel='k7p:VGNN2'>
9.1	ayoXyA	NNP	<fs af='ayoXyA,n,f,sg,3,o,0,0' name='ayoXyA' posn='120'>
9.2	meM	PSP	<fs af='meM,psp,,,,,,' name='meM' posn='130'>
	))
10	((	NP	<fs name='NP6' drel='k2:VGNN2'>
10.1	mArca	NN	<fs af='mArca,n,m,sg,3,d,0,0' name='mArca' posn='140'>
	))
11	((	JJP	<fs name='JJP2' drel='pof:VGNN2'>
11.1	pUrA	JJ	<fs af='pUrA,adj,m,sg,,,,' name='pUrA' posn='150'>
	))
12	((	VGNN	<fs name='VGNN2' drel='k7t:VGF2'>
12.1	karane	VM	<fs af='kara,v,any,any,any,o,nA,nA' name='karane2' posn='160'>
12.2	ke	PSP	<fs af='ke,psp,,,,,,' name='ke2' posn='170'>
12.3	bAxa	NST	<fs af='bAxa,nst,m,sg,3,d,,' name='bAxa' posn='180'>
	))
13	((	NP	<fs name='NP7' drel='k2:VGF2'>
13.1	kuCa	QF	<fs af='kuCa,avy,,,,,,' name='kuCa' posn='190'>
13.2	samaya	NN	<fs af='samaya,n,m,sg,3,d,0,0' name='samaya' posn='200'>
	))
14	((	VGF	<fs voicetype='active' name='VGF2' stype='declarative' drel='ccof:CCP'>
14.1	cAhie	VM	<fs af='cAhie,v,any,any,any,,0,0' name='cAhie' posn='210'>
14.2	hogA	VAUX	<fs af='ho,v,m,sg,3,,gA,gA' name='hogA' posn='220'>
	))
15	((	BLK	<fs name='BLK' drel='rsym:VGF'>
15.1	.	SYM	<fs af='.,punc,,,,,,' name='.' posn='230'>
	))
</Sentence>

<Sentence id='15'>
1	((	NP	<fs name='NP' drel='k7t:VGNN'>
1.1	'	SYM	<fs af='SINGLE_QUOTE,punc,,,,,,' name=''' posn='10'>
1.2	rAma	NNPC	<fs af='rAma,n,m,sg,3,d,0,0' name='rAma' posn='20'>
1.3	-	SYM	<fs af='-,punc,,,,,,' name='-' posn='30'>
1.4	rotI	NNPC	<fs af='rotI,n,f,sg,3,d,0,0' name='rotI' posn='40'>
1.5	paxayAwrA	NNP	<fs af='paxayAwrA,n,f,sg,3,o,0,0' name='paxayAwrA' posn='50'>
1.6	'	SYM	<fs af='SINGLE_QUOTE,punc,,,,,,' name=''2' posn='60'>
1.7	ke	PSP	<fs af='ke,psp,,,,,,' name='ke' posn='70'>
1.8	bAxa	NST	<fs af='bAxa,nst,m,sg,3,d,,' name='bAxa' posn='80'>
	))
2	((	NP	<fs name='NP2' drel='k2:VGNN'>
2.1	naI	JJ	<fs af='nayA,adj,f,sg,,d,,' name='naI' posn='90'>
2.2	pArtI	NN	<fs af='pArtI,n,f,sg,3,d,0,0' name='pArtI' posn='100'>
	))
3	((	VGNN	<fs name='VGNN' drel='r6:NP3'>
3.1	banAne	VM	<fs af='banA,v,any,any,any,o,nA,nA' name='banAne' posn='110'>
3.2	kI	PSP	<fs af='kA,psp,f,sg,,o,,' name='kI' posn='120'>
	))
4	((	NP	<fs name='NP3' drel='k2:VGNF'>
4.1	bAwa	NN	<fs af='bAwa,n,f,sg,3,o,0,0' name='bAwa' posn='130'>
4.2	se	PSP	<fs af='se,psp,,,,,,' name='se' posn='140'>
	))
5	((	NP	<fs name='NP4' drel='pof:VGNF'>
5.1	inakAra	NN	<fs af='inakAra,n,m,sg,3,d,0,0' name='inakAra' posn='150'>
	))
6	((	VGNF	<fs name='VGNF' drel='vmod:VGF'>
6.1	karawe	VM	<fs af='kara,v,m,sg,any,,wA,wA' name='karawe' posn='160'>
6.2	hue	VAUX	<fs af='ho,v,m,sg,any,,yA,yA' name='hue' posn='170'>
	))
7	((	NP	<fs name='NP5' drel='k1:VGF'>
7.1	umA	NNP	<fs af='umA,n,f,sg,3,o,0,0' name='umA' posn='180'>
7.2	ne	PSP	<fs af='ne,psp,,,,,,' name='ne' posn='190'>
	))
8	((	VGF	<fs name='VGF' stype='declarative' voicetype='active'>
8.1	kahA	VM	<fs af='kaha,v,m,sg,any,,yA,yA' name='kahA' posn='200'>
	))
9	((	CCP	<fs name='CCP' drel='k2:VGF'>
9.1	ki	CC	<fs af='ki,avy,,,,,,' name='ki' posn='210'>
	))
10	((	NP	<fs name='NP6' drel='k1:VGF2'>
10.1	yaha	PRP	<fs af='yaha,pn,any,sg,3,d,0,0' name='yaha' posn='220'>
	))
11	((	NP	<fs name='NP7' drel='k1s:VGF2'>
11.1	gEra	JJC	<fs af='gEra,adj,any,any,,,,' name='gEra' posn='250'>
11.2	-	SYM	<fs af='-,punc,,,,,,' name='-2' posn='240'>
11.3	rAjanIwika	JJ	<fs af='rAjanIwika,adj,any,any,,d,,' name='rAjanIwika' posn='250'>
11.4	paxayAwrA	NN	<fs af='paxayAwrA,n,f,sg,3,d,0,0' name='paxayAwrA2' posn='260'>
	))
12	((	VGF	<fs voicetype='active' name='VGF2' stype='declarative' drel='ccof:CCP'>
12.1	hE	VM	<fs af='hE,v,any,sg,3,,hE,hE' name='hE' posn='270'>
12.2	,	SYM	<fs af='COMMA,punc,,,,,,' name=',' posn='280'>
	))
13	((	NP	<fs coref=':NP7' name='NP8' drel='k2:VGF3'>
13.1	jise	PRP	<fs af='jo,pn,any,sg,3,o,ko,ko' name='jise' posn='290'>
	))
14	((	NP	<fs name='NP9' drel='ccof:CCP2'>
14.1	ve	PRP	<fs af='vaha,pn,any,sg,3h,d,0,0' name='ve' posn='300'>
	))
15	((	CCP	<fs name='CCP2' drel='k1:VGF3'>
15.1	Ora	CC	<fs af='Ora,avy,,,,,,' name='Ora' posn='310'>
	))
16	((	NP	<fs name='NP10' drel='nmod:NP11'>
16.1	pArtI	NNC	<fs af='pArtI,n,f,sg,3,d,0,0' name='pArtI2' posn='320'>
16.2	mahAsaciva	NN	<fs af='mahAsaciva,n,m,sg,3,d,0,0' name='mahAsaciva' posn='330'>
	))
17	((	NP	<fs name='NP11' drel='ccof:CCP2'>
17.1	aruNa	NNPC	<fs af='aruNa,n,m,sg,3,d,0,0' name='aruNa' posn='340'>
17.2	jetalI	NNP	<fs af='jetalI,n,any,sg,3,d,0,0' name='jetalI' posn='350'>
	))
18	((	NP	<fs name='NP12' drel='r6:NP13'>
18.1	AMXra	NNPC	<fs af='AMXra,n,m,sg,3,d,0,0' name='AMXra' posn='360'>
18.2	praxeSa	NNP	<fs af='praxeSa,n,m,sg,3,o,0,0' name='praxeSa' posn='370'>
18.3	ke	PSP	<fs af='kA,psp,m,sg,,o,,' name='ke2' posn='380'>
	))
19	((	NP	<fs name='NP13' drel='k5:VGF3'>
19.1	karImanagara	NNP	<fs af='karImanagara,n,m,sg,3,o,0,0' name='karImanagara' posn='390'>
19.2	se	PSP	<fs af='se,psp,,,,,,' name='se2' posn='400'>
	))
20	((	NP	<fs name='NP14' drel='pof:VGF3'>
20.1	SurU	NN	<fs af='SurU,n,m,sg,3,d,0,0' name='SurU' posn='410'>
	))
21	((	VGF	<fs voicetype='active' name='VGF3' stype='declarative' drel='nmod__relc:NP7'>
21.1	karane	VM	<fs af='kara,v,m,pl,any,,nA,nA' name='karane' posn='420'>
21.2	vAle	VAUX	<fs af='vAlA,v,m,pl,3,,0,0' name='vAle' posn='430'>
21.3	We	VAUX	<fs af='WA,v,m,pl,any,,WA,WA' name='We' posn='440'>
	))
22	((	BLK	<fs name='BLK' drel='rsym:VGF'>
22.1	.	SYM	<fs af='.,punc,,,,,,' name='.' posn='450'>
	))
</Sentence>

<Sentence id='16'>
1	((	NP	<fs name='NP' drel='k4:VGNN'>
1.1	isa	DEM	<fs af='yaha,pn,any,sg,3,o,,' name='isa' posn='10'>
1.2	kAryakrama	NN	<fs af='kAryakrama,n,m,sg,3,o,0,0' name='kAryakrama' posn='20'>
1.3	ko	PSP	<fs af='ko,psp,,,,,,' name='ko' posn='30'>
	))
2	((	NP	<fs name='NP2' drel='pof:VGNN'>
2.1	aMwima	JJ	<fs af='aMwima,adj,any,any,,d,,' name='aMwima' posn='40'>
2.2	rUpa	NN	<fs af='rUpa,n,m,sg,3,d,0,0' name='rUpa' posn='50'>
	))
3	((	VGNN	<fs name='VGNN' drel='rt:VGF'>
3.1	xene	VM	<fs af='xe,v,any,any,any,o,nA,nA' name='xene' posn='60'>
3.2	ke	PSP	<fs af='ke,psp,,,,,,' name='ke' posn='70'>
3.3	lie	PSP	<fs af='lie,psp,,,,,,' name='lie' posn='80'>
	))
4	((	NP	<fs name='NP3' drel='pof:VGF'>
4.1	eka	QC	<fs af='eka,num,any,any,,any,,' name='eka' posn='90'>
4.2	bETaka	NN	<fs af='bETaka,n,f,sg,3,d,0,0' name='bETaka' posn='100'>
4.3	BI	RP	<fs af='BI,avy,,,,,,' name='BI' posn='110'>
	))
5	((	VGF	<fs name='VGF' stype='declarative' voicetype='active'>
5.1	huI	VM	<fs af='ho,v,f,sg,any,,yA,yA' name='huI' posn='120'>
5.2	WI	VAUX	<fs af='WA,v,f,sg,any,,WA,WA' name='WI' posn='130'>
	))
6	((	BLK	<fs name='BLK' drel='rsym:VGF'>
6.1	.	SYM	<fs af='.,punc,,,,,,' name='.' posn='140'>
	))
</Sentence>

<Sentence id='17'>
1	((	NP	<fs name='NP' drel='k7a:VGF'>
1.1	bakOla	PSP	<fs af='bakOla,psp,,,,,,' name='bakOla' posn='10'>
1.2	umA	NNP	<fs af='umA,n,f,sg,3,o,0,0' name='umA' posn='20'>
1.3	,	SYM	<fs af='COMMA,punc,,,,,,' name=',' posn='30'>
	))
2	((	CCP	<fs name='CCP'>
2.1	lekina	CC	<fs af='lekina,avy,,,,,,' name='lekina' posn='40'>
	))
3	((	NP	<fs name='NP2' drel='k1:VGF'>
3.1	AdavANI	NNP	<fs af='AdavANI,n,any,sg,3,o,0,0' name='AdavANI' posn='50'>
3.2	ne	PSP	<fs af='ne,psp,,,,,,' name='ne' posn='60'>
	))
4	((	NP	<fs name='NP3' drel='r6:NP4'>
4.1	mere	PRP	<fs af='mEM,pn,m,sg,1,o,kA,kA' name='mere' posn='70'>
	))
5	((	NP	<fs name='NP4' drel='k7:VGNF'>
5.1	KarAba	JJ	<fs af='KarAba,adj,any,any,,o,,' name='KarAba' posn='80'>
5.2	svAsWya	NN	<fs af='svAsWya,n,m,sg,3,o,0,0' name='svAsWya' posn='90'>
5.3	para	PSP	<fs af='para,psp,,,,,,' name='para' posn='100'>
	))
6	((	NP	<fs name='NP5' drel='k2u:VGNF'>
6.1	'	SYM	<fs af='SINGLE_QUOTE,punc,,,,,,' name=''' posn='110'>
6.2	eka	QC	<fs af='eka,num,any,any,,any,,' name='eka' posn='120'>
6.3	piwA	NN	<fs af='piwA,n,m,sg,3,o,0,0' name='piwA' posn='130'>
6.4	kI	PSP	<fs af='kA,psp,f,,,o,,' name='kI' posn='140'>
6.5	waraha	PSP	<fs af='waraha,n,f,,,o,,' name='waraha' posn='150'>
	))
7	((	NP	<fs name='NP6' drel='k2:VGNF'>
7.1	ciMwA	NN	<fs af='ciMwA,n,f,sg,3,d,0,0' name='ciMwA' posn='160'>
7.2	'	SYM	<fs af='SINGLE_QUOTE,punc,,,,,,' name=''2' posn='170'>
	))
8	((	VGNF	<fs name='VGNF' drel='vmod:VGF'>
8.1	jawAwe	VM	<fs af='jawA,v,m,sg,any,,wA,wA' name='jawAwe' posn='180'>
8.2	hue	VAUX	<fs af='ho,v,m,sg,any,,yA,yA' name='hue' posn='190'>
	))
9	((	NP	<fs name='NP7' drel='k2:VGF'>
9.1	yAwrA	NN	<fs af='yAwrA,n,f,sg,3,d,0,0' name='yAwrA' posn='200'>
	))
10	((	JJP	<fs name='JJP' drel='pof:VGF'>
10.1	sWagiwa	JJ	<fs af='sWagiwa,adj,any,any,,,,' name='sWagiwa' posn='210'>
	))
11	((	VGF	<fs voicetype='active' name='VGF' stype='declarative' drel='ccof:CCP'>
11.1	kara	VM	<fs af='kara,v,any,any,any,,0,0' name='kara' posn='220'>
11.2	xI	VAUX	<fs af='xe,v,f,sg,any,,yA,yA' name='xI' posn='230'>
11.3	WI	VAUX	<fs af='WA,v,f,sg,any,,WA,WA' name='WI' posn='240'>
	))
12	((	BLK	<fs name='BLK' drel='rsym:CCP'>
12.1	.	SYM	<fs af='.,punc,,,,,,' name='.' posn='250'>
	))
</Sentence>

<Sentence id='18'>
1	((	NP	<fs name='NP' drel='k2:VGNN'>
1.1	yaha	PRP	<fs af='yaha,pn,any,sg,3,d,0,0' name='yaha' posn='10'>
	))
2	((	VGNN	<fs name='VGNN' drel='k7:VGF2'>
2.1	pUCe	VM	<fs af='pUCa,v,m,sg,any,,yA,yA' name='pUCe' posn='20'>
2.2	jAne	VAUX	<fs af='jAna,v,any,any,any,o,nA,nA' name='jAne' posn='30'>
2.3	para	PSP	<fs af='para,psp,,,,,,' name='para' posn='40'>
	))
3	((	CCP	<fs name='CCP' drel='k2s:VGNN'>
3.1	ki	CC	<fs af='ki,avy,,,,,,' name='ki' posn='50'>
	))
4	((	RBP	<fs name='RBP' drel='adv:VGF'>
4.1	kyA	WQ	<fs af='kyA,pn,,,,,,' name='kyA' posn='60'>
	))
5	((	NP	<fs name='NP2' drel='rt:VGF'>
5.1	unake	PRP	<fs af='vaha,pn,any,sg,3h,o,ke,ke' name='unake' posn='70'>
5.2	lie	PSP	<fs af='lie,psp,,,,,,' name='lie' posn='80'>
	))
6	((	NP	<fs name='NP3' drel='r6:NP4'>
6.1	xillI	NNP	<fs af='xillI,n,f,sg,3,o,0,0' name='xillI' posn='90'>
6.2	kA	PSP	<fs af='kA,psp,m,sg,,d,,' name='kA' posn='100'>
	))
7	((	NP	<fs name='NP4' drel='k1:VGF'>
7.1	rAswA	NN	<fs af='rAswA,n,m,sg,3,d,0,0' name='rAswA' posn='110'>
	))
8	((	NP	<fs name='NP5' drel='k5:VGNF'>
8.1	ayoXyA	NNP	<fs af='ayoXyA,n,f,sg,3,o,0,0' name='ayoXyA' posn='120'>
8.2	se	PSP	<fs af='se,psp,,,,,,' name='se' posn='130'>
	))
9	((	VGNF	<fs name='VGNF' drel='vmod:VGF'>
9.1	hokara	VM	<fs af='ho,v,any,any,any,,kara,kara' name='hokara' posn='140'>
	))
10	((	VGF	<fs voicetype='active' name='VGF' stype='declarative' drel='ccof:CCP'>
10.1	jAwA	VM	<fs af='jA,v,m,sg,any,,wA,wA' name='jAwA' posn='150'>
10.2	hE	VAUX	<fs af='hE,v,any,sg,3,,hE,hE' name='hE' posn='160'>
10.3	,	SYM	<fs af='COMMA,punc,,,,,,' name=',' posn='170'>
	))
11	((	NP	<fs name='NP6' drel='k1:VGF2'>
11.1	sAXvI	NN	<fs af='sAXvI,n,f,sg,3,o,0,0' name='sAXvI' posn='180'>
11.2	ne	PSP	<fs af='ne,psp,,,,,,' name='ne' posn='190'>
	))
12	((	VGF	<fs name='VGF2' stype='declarative' voicetype='active'>
12.1	kahA	VM	<fs af='kaha,v,m,sg,any,,yA,yA' name='kahA' posn='200'>
	))
13	((	CCP	<fs name='CCP2' drel='k2:VGF2'>
13.1	ki	CC	<fs af='ki,avy,,,,,,' name='ki2' posn='210'>
	))
14	((	NP	<fs name='NP7' drel='r6:NP8'>
14.1	unake	PRP	<fs af='vaha,pn,m,sg,3h,o,ke,ke' name='unake2' posn='220'>
	))
15	((	NP	<fs name='NP8' drel='r6:NP9'>
15.1	jIvana	NN	<fs af='jIvana,n,m,sg,3,o,0,0' name='jIvana' posn='230'>
15.2	kA	PSP	<fs af='kA,psp,m,sg,,d,,' name='kA2' posn='240'>
	))
16	((	NP	<fs name='NP9' drel='k1:VGF3'>
16.1	hara	QF	<fs af='hara,avy,,,,,,' name='hara' posn='250'>
16.2	rAswA	NN	<fs af='rAswA,n,m,sg,3,d,0,0' name='rAswA2' posn='260'>
	))
17	((	NP	<fs name='NP10' drel='k5:VGNF2'>
17.1	ayoXyA	NNP	<fs af='ayoXyA,n,f,sg,3,o,0,0' name='ayoXyA2' posn='270'>
17.2	se	PSP	<fs af='se,psp,,,,,,' name='se2' posn='280'>
	))
18	((	VGNF	<fs name='VGNF2' drel='vmod:VGF3'>
18.1	hokara	VM	<fs af='ho,v,any,any,any,,kara,kara' name='hokara2' posn='290'>
	))
19	((	VGF	<fs voicetype='active' name='VGF3' stype='declarative' drel='ccof:CCP2'>
19.1	jAwA	VM	<fs af='jA,v,m,sg,any,,wA,wA' name='jAwA2' posn='300'>
19.2	hE	VAUX	<fs af='hE,v,any,sg,3,,hE,hE' name='hE2' posn='310'>
	))
20	((	BLK	<fs name='BLK' drel='rsym:VGF2'>
20.1	.	SYM	<fs af='.,punc,,,,,,' name='.' posn='320'>
	))
</Sentence>

<Sentence id='19'>
1	((	NP	<fs name='NP' drel='k1:VGF'>
1.1	BArawI	NNP	<fs af='BArawI,n,f,sg,3,o,0,0' name='BArawI' posn='10'>
1.2	ne	PSP	<fs af='ne,psp,,,,,,' name='ne' posn='20'>
	))
2	((	VGF	<fs name='VGF' stype='declarative' voicetype='active'>
2.1	kahA	VM	<fs af='kaha,v,m,sg,any,,yA,yA' name='kahA' posn='30'>
	))
3	((	CCP	<fs name='CCP' drel='k2:VGF'>
3.1	ki	CC	<fs af='ki,avy,,,,,,' name='ki' posn='40'>
	))
4	((	NP	<fs name='NP2' drel='r6-k2:NP3'>
4.1	AxarSo	NN	<fs af='AxarSa,n,m,pl,3,o,0,0' name='AxarSo' posn='50'>
4.2	kI	PSP	<fs af='kA,psp,f,sg,,d,,' name='kI' posn='60'>
	))
5	((	NP	<fs name='NP3' drel='pof:VGNN'>
5.1	bAwa	NN	<fs af='bAwa,n,f,sg,3,d,0,0' name='bAwa' posn='70'>
	))
6	((	VGNN	<fs name='VGNN' drel='nmod:NP4'>
6.1	karane	VM	<fs af='kara,v,any,any,any,o,nA,nA' name='karane' posn='80'>
6.2	vAle	PSP	<fs af='vAlA,psp,m,pl,,o,,' name='vAle' posn='90'>
	))
7	((	NP	<fs name='NP4' drel='r6:NP5'>
7.1	pArtI	NNC	<fs af='pArtI,n,f,sg,3,d,0,0' name='pArtI' posn='100'>
7.2	newAoM	NN	<fs af='newA,n,m,pl,3,o,0,0' name='newAoM' posn='110'>
7.3	ke	PSP	<fs af='kA,psp,m,pl,,o,,' name='ke' posn='120'>
	))
8	((	NP	<fs name='NP5' drel='rh:VGF2'>
8.1	xohare	JJ	<fs af='xoharA,adj,m,pl,,o,,' name='xohare' posn='130'>
8.2	mApaxaMdoM	NN	<fs af='mApaxaMda,n,m,pl,3,o,0,0' name='mApaxaMdoM' posn='140'>
8.3	kI	PSP	<fs af='kA,psp,f,,,o,,' name='kI2' posn='150'>
8.4	vajaha	PSP	<fs af='vajaha,n,f,,,o,,' name='vajaha' posn='160'>
8.5	se	PSP	<fs af='se,psp,,,,,,' name='se' posn='170'>
	))
9	((	NP	<fs name='NP6' drel='k1:VGF2'>
9.1	ye	DEM	<fs af='yaha,pn,any,pl,3,d,,' name='ye' posn='180'>
9.2	hAlAwa	NN	<fs af='hAlAwa,n,m,pl,3,d,0,0' name='hAlAwa' posn='190'>
	))
10	((	VGF	<fs voicetype='active' name='VGF2' stype='declarative' drel='ccof:CCP'>
10.1	bane	VM	<fs af='bana,v,m,pl,any,,yA,yA' name='bane' posn='200'>
10.2	hEM	VAUX	<fs af='hE,v,any,pl,3,,hE,hE' name='hEM' posn='210'>
	))
11	((	BLK	<fs name='BLK' drel='rsym:VGF'>
11.1	.	SYM	<fs af='.,punc,,,,,,' name='.' posn='220'>
	))
</Sentence>

<Sentence id='20'>
1	((	NP	<fs name='NP' drel='k7t:VGNN'>
1.1	paxayAwrA	NN	<fs af='paxayAwrA,n,f,sg,3,o,0,0' name='paxayAwrA' posn='10'>
1.2	ke	PSP	<fs af='ke,psp,,,,,,' name='ke' posn='20'>
1.3	xOrAna	NST	<fs af='xOrAna,nst,m,sg,3,d,,' name='xOrAna' posn='30'>
	))
2	((	NP	<fs name='NP2' drel='r6-k2:NP3'>
2.1	pArtI	NNC	<fs af='pArtI,n,f,sg,3,d,0,0' name='pArtI' posn='40'>
2.2	Xvaja	NN	<fs af='Xvaja,n,m,sg,3,o,0,0' name='Xvaja' posn='50'>
2.3	kA	PSP	<fs af='kA,psp,m,sg,,d,,' name='kA' posn='60'>
	))
3	((	NP	<fs name='NP3' drel='pof:VGNN'>
3.1	iswemAla	NN	<fs af='iswemAla,n,m,sg,3,d,0,0' name='iswemAla' posn='70'>
	))
4	((	VGNN	<fs name='VGNN' drel='r6:NP4'>
4.1	nahIM	NEG	<fs af='nahIM,avy,,,,,,' name='nahIM' posn='80'>
4.2	karane	VM	<fs af='kara,v,any,any,any,o,nA,nA' name='karane' posn='90'>
4.3	kI	PSP	<fs af='kA,psp,f,sg,,o,,' name='kI' posn='100'>
	))
5	((	NP	<fs name='NP4' drel='r6:NP5'>
5.1	BAjapA	NNP	<fs af='BAjapA,n,f,sg,3,d,0,0' name='BAjapA' posn='110'>
5.2	mahAsaciva	NN	<fs af='mahAsaciva,n,m,sg,3,d,0,0' name='mahAsaciva' posn='120'>
5.3	pramoxa	NNPC	<fs af='pramoxa,n,m,sg,3,d,0,0' name='pramoxa' posn='130'>
5.4	mahAjana	NNP	<fs af='mahAjana,n,m,sg,3,o,0,0' name='mahAjana' posn='140'>
5.5	kI	PSP	<fs af='kA,psp,f,sg,,o,,' name='kI2' posn='150'>
	))
6	((	NP	<fs name='NP5' drel='k7:VGF'>
6.1	cewAvanI	NN	<fs af='cewAvanI,n,f,sg,3,o,0,0' name='cewAvanI' posn='160'>
6.2	para	PSP	<fs af='para,psp,,,,,,' name='para' posn='170'>
	))
7	((	NP	<fs name='NP6' drel='k1:VGF'>
7.1	umA	NNP	<fs af='umA,n,f,sg,3,o,0,0' name='umA' posn='180'>
7.2	ne	PSP	<fs af='ne,psp,,,,,,' name='ne' posn='190'>
	))
8	((	VGF	<fs name='VGF' stype='declarative' voicetype='active'>
8.1	kahA	VM	<fs af='kaha,v,m,sg,any,,yA,yA' name='kahA' posn='200'>
8.2	,	SYM	<fs af='COMMA,punc,,,,,,' name=',' posn='210'>
	))
9	((	NP	<fs name='NP7' drel='k1:VGF2'>
9.1	'	SYM	<fs af='SINGLE_QUOTE,punc,,,,,,' name=''' posn='220'>
9.2	yaha	PRP	<fs af='yaha,pn,any,sg,3,d,0,0' name='yaha' posn='230'>
	))
10	((	RBP	<fs name='RBP' drel='adv:VGF2'>
10.1	kEse	WQ	<fs af='kEse,pn,,,,,,' name='kEse' posn='240'>
	))
11	((	VGF	<fs voicetype='active' name='VGF2' stype='declarative' drel='k2:VGF'>
11.1	ho	VM	<fs af='ho,v,any,any,any,,0,0' name='ho' posn='250'>
11.2	sakawA	VAUX	<fs af='saka,v,m,sg,any,,wA,wA' name='sakawA' posn='260'>
11.3	hE	VAUX	<fs af='hE,v,any,sg,3,,hE,hE' name='hE' posn='270'>
	))
12	((	BLK	<fs name='BLK' drel='rsym:VGF'>
12.1	.	SYM	<fs af='.,punc,,,,,,' name='.' posn='280'>
	))
</Sentence>

<Sentence id='21'>
1	((	NP	<fs name='NP' drel='k4:VGF'>
1.1	muJe	PRP	<fs af='mEM,pn,any,sg,1,o,ko,ko' name='muJe' posn='10'>
	))
2	((	NP	<fs name='NP2' drel='k2:VGNF'>
2.1	isa	DEM	<fs af='yaha,pn,any,sg,3,o,,' name='isa' posn='20'>
2.2	JaMde	NN	<fs af='JaMdA,n,m,sg,3,o,0,0' name='JaMde' posn='30'>
2.3	ko	PSP	<fs af='ko,psp,,,,,,' name='ko' posn='40'>
	))
3	((	NP	<fs name='NP3' drel='k7:VGNF'>
3.1	sAWa	NST	<fs af='sAWa,nst,m,sg,3,d,,' name='sAWa' posn='50'>
	))
4	((	VGNF	<fs name='VGNF' drel='vmod:VGNN'>
4.1	lekara	VM	<fs af='le,v,any,any,any,,kara,kara' name='lekara' posn='60'>
	))
5	((	VGNN	<fs name='VGNN' drel='r6:NP4'>
5.1	calane	VM	<fs af='cala,v,any,any,any,o,nA,nA' name='calane' posn='70'>
5.2	kA	PSP	<fs af='kA,psp,m,sg,,d,,' name='kA' posn='80'>
	))
6	((	NP	<fs name='NP4' drel='k1:VGF'>
6.1	pUrA	JJ	<fs af='pUrA,adj,m,sg,,d,,' name='pUrA' posn='90'>
6.2	aXikara	NN	<fs af='aXikara,n,m,sg,3,d,0,0' name='aXikara' posn='100'>
	))
7	((	VGF	<fs name='VGF' stype='declarative' voicetype='active'>
7.1	hE	VM	<fs af='hE,v,any,sg,3,,hE,hE' name='hE' posn='110'>
	))
8	((	BLK	<fs name='BLK' drel='rsym:VGF'>
8.1	.	SYM	<fs af='.,punc,,,,,,' name='.' posn='120'>
	))
</Sentence>

<Sentence id='22'>
1	((	NP	<fs name='NP' drel='k1:VGF'>
1.1	mEMne	PRP	<fs af='mEM,pn,any,sg,1,o,ne,ne' name='mEMne' posn='10'>
	))
2	((	NP	<fs name='NP2' drel='k7t:VGF'>
2.1	kaBI	PRP	<fs af='kaBI,pn,,,,,,' name='kaBI' posn='20'>
	))
3	((	NP	<fs name='NP3' drel='r6:NP4'>
3.1	pArtI	NN	<fs af='pArtI,n,f,sg,3,o,0,0' name='pArtI' posn='30'>
3.2	ke	PSP	<fs af='kA,psp,m,sg,,o,,' name='ke' posn='40'>
	))
4	((	NP	<fs name='NP4' drel='ccof:CCP'>
4.1	JaMde	NN	<fs af='JaMdA,n,m,sg,3,o,0,0' name='JaMde' posn='50'>
4.2	,	SYM	<fs af='COMMA,punc,,,,,,' name=',' posn='60'>
	))
5	((	NP	<fs name='NP5' drel='r6:NP6'>
5.1	isake	PRP	<fs af='yaha,pn,m,sg,3,o,ke,ke' name='isake' posn='70'>
	))
6	((	NP	<fs name='NP6' drel='ccof:CCP'>
6.1	cihna	NN	<fs af='cihna,n,m,sg,3,o,0,0' name='cihna' posn='80'>
	))
7	((	CCP	<fs name='CCP' drel='r6-k2:NP8'>
7.1	Ora	CC	<fs af='Ora,avy,,,,,,' name='Ora' posn='90'>
	))
8	((	NP	<fs name='NP7' drel='ccof:CCP'>
8.1	BagavA	JJ	<fs af='BagavA,adj,any,any,,o,,' name='BagavA' posn='100'>
8.2	raMga	NN	<fs af='raMga,n,m,sg,3,o,0,0' name='raMga' posn='110'>
8.3	kA	PSP	<fs af='kA,psp,m,sg,,d,,' name='kA' posn='120'>
	))
9	((	NP	<fs name='NP8' drel='pof:VGF'>
9.1	ullaMGana	NN	<fs af='ullaMGana,n,m,sg,3,d,0,0' name='ullaMGana' posn='130'>
	))
10	((	VGF	<fs name='VGF' stype='declarative' voicetype='active'>
10.1	nahIM	NEG	<fs af='nahIM,avy,,,,,,' name='nahIM' posn='140'>
10.2	kiyA	VM	<fs af='kara,v,m,sg,any,,yA,yA' name='kiyA' posn='150'>
	))
11	((	BLK	<fs name='BLK' drel='rsym:VGF'>
11.1	.	SYM	<fs af='.,punc,,,,,,' name='.' posn='160'>
11.2	'	SYM	<fs af='SINGLE_QUOTE,punc,,,,,,' name=''' posn='170'>
	))
</Sentence>

<Sentence id='23'>
1	((	NP	<fs name='NP' drel='k1:VGNN'>
1.1	yaha	PRP	<fs af='yaha,pn,any,sg,3,d,0,0' name='yaha' posn='10'>
	))
2	((	VGNN	<fs name='VGNN' drel='k7:VGF2'>
2.1	pUCe	VM	<fs af='pUCa,v,m,sg,any,,yA,yA' name='pUCe' posn='20'>
2.2	jAne	VAUX	<fs af='jA,v,any,any,any,o,nA,nA' name='jAne' posn='30'>
2.3	para	PSP	<fs af='para,psp,,,,,,' name='para' posn='40'>
	))
3	((	CCP	<fs name='CCP' drel='k2s:VGNN'>
3.1	ki	CC	<fs af='ki,avy,,,,,,' name='ki' posn='50'>
	))
4	((	RBP	<fs name='RBP' drel='adv:VGF'>
4.1	kyA	WQ	<fs af='kyA,pn,,,,,,' name='kyA' posn='60'>
	))
5	((	NP	<fs name='NP2' drel='rt:VGF'>
5.1	unake	PRP	<fs af='vaha,pn,any,sg,3,o,ke,ke' name='unake' posn='70'>
5.2	lie	PSP	<fs af='lie,psp,,,,,,' name='lie' posn='80'>
	))
6	((	NP	<fs name='NP3' drel='r6:NP4'>
6.1	xillI	NNP	<fs af='xillI,n,f,sg,3,o,0,0' name='xillI' posn='90'>
6.2	kA	PSP	<fs af='kA,psp,m,sg,,d,,' name='kA' posn='100'>
	))
7	((	NP	<fs name='NP4' drel='k1:VGF'>
7.1	rAswA	NN	<fs af='rAswA,n,m,sg,3,d,0,0' name='rAswA' posn='110'>
	))
8	((	NP	<fs name='NP5' drel='k5:VGNF'>
8.1	ayoXyA	NNP	<fs af='ayoXyA,n,f,sg,3,o,0,0' name='ayoXyA' posn='120'>
8.2	se	PSP	<fs af='se,psp,,,,,,' name='se' posn='130'>
	))
9	((	VGNF	<fs name='VGNF' drel='vmod:VGF'>
9.1	hokara	VM	<fs af='ho,v,any,any,any,,kara,kara' name='hokara' posn='140'>
	))
10	((	VGF	<fs voicetype='active' name='VGF' stype='declarative' drel='ccof:CCP'>
10.1	jAwA	VM	<fs af='jA,v,m,sg,any,,wA,wA' name='jAwA' posn='150'>
10.2	hE	VAUX	<fs af='hE,v,any,sg,3,,hE,hE' name='hE' posn='160'>
10.3	,	SYM	<fs af='COMMA,punc,,,,,,' name=',' posn='170'>
	))
11	((	NP	<fs name='NP6' drel='k1:VGF2'>
11.1	umA	NNP	<fs af='umA,n,f,sg,3,o,0,0' name='umA' posn='180'>
11.2	ne	PSP	<fs af='ne,psp,,,,,,' name='ne' posn='190'>
	))
12	((	VGF	<fs name='VGF2' stype='declarative' voicetype='active'>
12.1	kahA	VM	<fs af='kaha,v,m,sg,any,,yA,yA' name='kahA' posn='200'>
	))
13	((	CCP	<fs name='CCP2' drel='k2:VGF2'>
13.1	ki	CC	<fs af='ki,avy,,,,,,' name='ki2' posn='210'>
	))
14	((	NP	<fs name='NP7' drel='r6:NP8'>
14.1	mere	PRP	<fs af='mEM,pn,m,sg,1,o,kA,kA' name='mere' posn='220'>
	))
15	((	NP	<fs name='NP8' drel='r6:NP9'>
15.1	jIvana	NN	<fs af='jIvana,n,m,sg,3,o,0,0' name='jIvana' posn='230'>
15.2	ke	PSP	<fs af='kA,psp,m,pl,,d,,' name='ke' posn='240'>
	))
16	((	NP	<fs name='NP9' drel='k1:VGF3'>
16.1	sAre	QF	<fs af='sArA,adj,m,pl,,d,,' name='sAre' posn='250'>
16.2	rAswe	NN	<fs af='rAswA,n,m,pl,3,d,0,0' name='rAswe' posn='260'>
	))
17	((	NP	<fs name='NP10' drel='k5:VGNF2'>
17.1	ayoXyA	NNP	<fs af='ayoXyA,n,f,sg,3,o,0,0' name='ayoXyA2' posn='270'>
17.2	se	PSP	<fs af='se,psp,,,,,,' name='se2' posn='280'>
	))
18	((	VGNF	<fs name='VGNF2' drel='vmod:VGF3'>
18.1	hokara	VM	<fs af='ho,v,any,any,any,,kara,kara' name='hokara2' posn='290'>
18.2	hI	RP	<fs af='hI,avy,,,,,,' name='hI' posn='300'>
	))
19	((	VGF	<fs voicetype='active' name='VGF3' stype='declarative' drel='ccof:CCP2'>
19.1	gujarawe	VM	<fs af='gujara,v,m,pl,any,,wA,wA' name='gujarawe' posn='310'>
19.2	hEM	VAUX	<fs af='hE,v,any,pl,3,,hE,hE' name='hEM' posn='320'>
	))
20	((	BLK	<fs name='BLK' drel='rsym:VGF2'>
20.1	.	SYM	<fs af='.,punc,,,,,,' name='.' posn='330'>
20.2	'	SYM	<fs af='SINGLE_QUOTE,punc,,,,,,' name=''' posn='340'>
	))
</Sentence>

