<Sentence id='1'>
1	((	NP	<fs name='NP' drel='k7p:VGNN'>
1.1	jammU	NNPC	<fs af='jammU,n,m,sg,3,d,0,0' name='jammU' posn='10'>
1.2	-	SYM	<fs af='-,punc,,,,,,' name='-' posn='20'>
1.3	kaSmIra	NNP	<fs af='kaSmIra,n,m,sg,3,o,0,0' name='kaSmIra' posn='30'>
1.4	meM	PSP	<fs af='meM,psp,,,,,,' name='meM' posn='40'>
	))
2	((	NP	<fs name='NP2' drel='k1:VGNN'>
2.1	AwaMkiyoM	NN	<fs af='AwaMkI,n,m,pl,3,o,0,0' name='AwaMkiyoM' posn='50'>
2.2	xvArA	PSP	<fs af='xvArA,psp,,,,,,' name='xvArA' posn='60'>
	))
3	((	NP	<fs name='NP3' drel='k7t:VGNN'>
3.1	samaya	NN	<fs af='samaya,n,m,sg,3,d,0,0' name='samaya' posn='70'>
3.2	-	SYM	<fs af='-,punc,,,,,,' name='-2' posn='80'>
3.3	samaya	RDP	<fs af='samaya,n,m,sg,3,o,0,0' name='samaya2' posn='90'>
3.4	para	PSP	<fs af='para,psp,,,,,,' name='para' posn='100'>
	))
4	((	NP	<fs name='NP4' drel='pof:VGNN'>
4.1	GAwaka	JJ	<fs af='GAwaka,adj,any,any,,d,,' name='GAwaka' posn='110'>
4.2	hamale	NN	<fs af='hamalA,n,m,pl,3,d,0,0' name='hamale' posn='120'>
	))
5	((	VGNN	<fs name='VGNN' drel='vmod:VGF'>
5.1	kie	VM	<fs af='kara,v,m,pl,any,,yA,yA' name='kie' posn='130'>
5.2	jAne	VAUX	<fs af='jA,v,any,any,any,o,nA,nA' name='jAne' posn='140'>
5.3	ke	PSP	<fs af='ke,psp,,,,,,' name='ke' posn='150'>
5.4	bAvajUxa	PSP	<fs af='bAvajUxa,psp,,,,,,' name='bAvajUxa' posn='160'>
	))
6	((	NP	<fs name='NP5' drel='k4a:VGF'>
6.1	surakRAbaloM	NN	<fs af='surakRAbala,n,m,pl,3,o,0,0' name='surakRAbaloM' posn='170'>
6.2	ko	PSP	<fs af='ko,psp,,,,,,' name='ko' posn='180'>
	))
7	((	NP	<fs name='NP6' drel='k7p:VGNN2'>
7.1	rAjya	NN	<fs af='rAjya,n,m,sg,3,o,0,0' name='rAjya' posn='190'>
7.2	meM	PSP	<fs af='meM,psp,,,,,,' name='meM2' posn='200'>
	))
8	((	NP	<fs name='NP7' drel='k7:VGNN2'>
8.1	hiMsaka	JJ	<fs af='hiMsaka,adj,any,any,,o,,' name='hiMsaka' posn='210'>
8.2	GatanAoM	NN	<fs af='GatanA,n,f,pl,3,o,0,0' name='GatanAoM' posn='220'>
8.3	meM	PSP	<fs af='meM,psp,,,,,,' name='meM3' posn='230'>
	))
9	((	NP	<fs name='NP8' drel='pof:VGNN2'>
9.1	kamI	NN	<fs af='kamI,n,f,sg,3,d,0,0' name='kamI' posn='240'>
	))
10	((	VGNN	<fs name='VGNN2' drel='k7:VGF'>
10.1	lAne	VM	<fs af='lA,v,any,any,any,o,nA,nA' name='lAne' posn='250'>
10.2	meM	PSP	<fs af='meM,psp,,,,,,' name='meM4' posn='260'>
	))
11	((	NP	<fs name='NP9' drel='k1:VGF'>
11.1	mahawvapUrNa	JJ	<fs af='mahawvapUrNa,adj,any,any,,d,,' name='mahawvapUrNa' posn='270'>
11.2	saPalawA	NN	<fs af='saPalawA,n,f,sg,3,d,0,0' name='saPalawA' posn='280'>
	))
12	((	VGF	<fs name='VGF' stype='declarative' voicetype='active'>
12.1	milI	VM	<fs af='mila,v,f,sg,any,,yA,yA' name='milI' posn='290'>
12.2	hE	VAUX	<fs af='hE,v,any,sg,3,,hE,hE' name='hE' posn='300'>
	))
13	((	BLK	<fs name='BLK' drel='rsym:VGF'>
13.1	.	SYM	<fs af='.,punc,,,,,,' name='.' posn='310'>
	))
</Sentence>

<Sentence id='2'>
1	((	NP	<fs name='NP' drel='k7p:VGF'>
1.1	rAjya	NN	<fs af='rAjya,n,m,sg,3,o,0,0' name='rAjya' posn='10'>
1.2	meM	PSP	<fs af='meM,psp,,,,,,' name='meM' posn='20'>
	))
2	((	NP	<fs name='NP2' drel='k7t:VGF'>
2.1	piCale	JJ	<fs af='piCalA,adj,any,any,,o,,' name='piCale' posn='30'>
2.2	wIna	QC	<fs af='wIna,num,any,any,,any,,' name='wIna' posn='40'>
2.3	sAla	NN	<fs af='sAla,n,m,sg,3,o,0,0' name='sAla' posn='50'>
2.4	meM	PSP	<fs af='meM,psp,,,,,,' name='meM2' posn='60'>
	))
3	((	NP	<fs name='NP3' drel='r6:NP4'>
3.1	hiMsaka	JJ	<fs af='hiMsaka,adj,any,any,,o,,' name='hiMsaka' posn='70'>
3.2	GatanAoM	NN	<fs af='GatanA,n,f,pl,3,o,0,0' name='GatanAoM' posn='80'>
3.3	kI	PSP	<fs af='kA,psp,f,sg,,o,,' name='kI' posn='90'>
	))
4	((	NP	<fs name='NP4' drel='k7:VGF'>
4.1	saMKyA	NN	<fs af='saMKyA,n,f,sg,3,o,0,0' name='saMKyA' posn='100'>
4.2	meM	PSP	<fs af='meM,psp,,,,,,' name='meM3' posn='110'>
	))
5	((	NP	<fs name='NP5' drel='k1:VGF'>
5.1	ulleKanIya	JJ	<fs af='ulleKanIya,adj,any,any,,d,,' name='ulleKanIya' posn='120'>
5.2	kamI	NN	<fs af='kamI,n,f,sg,3,d,0,0' name='kamI' posn='130'>
	))
6	((	VGF	<fs name='VGF' stype='declarative' voicetype='active'>
6.1	AI	VM	<fs af='A,v,f,sg,any,,yA,yA' name='AI' posn='140'>
6.2	hE	VAUX	<fs af='hE,v,any,sg,3,,hE,hE' name='hE' posn='150'>
	))
7	((	BLK	<fs name='BLK' drel='rsym:VGF'>
7.1	.	SYM	<fs af='.,punc,,,,,,' name='.' posn='160'>
	))
</Sentence>

<Sentence id='3'>
1	((	NP	<fs name='NP' drel='k7a:VGF'>
1.1	sarakArI	JJ	<fs af='sarakArI,adj,any,any,,o,,' name='sarakArI' posn='10'>
1.2	AMkadZoM	NN	<fs af='AMkadZA,n,m,pl,3,o,0,0' name='AMkadZoM' posn='20'>
1.3	ke	PSP	<fs af='ke,psp,,,,,,' name='ke' posn='30'>
1.4	muwAbika	PSP	<fs af='muwAbika,psp,,,,,,' name='muwAbika' posn='40'>
	))
2	((	NP	<fs name='NP2' drel='k7p:VGF'>
2.1	rAjya	NN	<fs af='rAjya,n,m,sg,3,o,0,0' name='rAjya' posn='50'>
2.2	meM	PSP	<fs af='meM,psp,,,,,,' name='meM' posn='60'>
	))
3	((	NP	<fs name='NP3' drel='k7:VGF'>
3.1	hiMsaka	JJ	<fs af='hiMsaka,adj,any,any,,o,,' name='hiMsaka' posn='70'>
3.2	GatanAoM	NN	<fs af='GatanA,n,f,pl,3,o,0,0' name='GatanAoM' posn='80'>
3.3	meM	PSP	<fs af='meM,psp,,,,,,' name='meM2' posn='90'>
	))
4	((	NP	<fs name='NP4' drel='r6-k1:NP5'>
4.1	50	QC	<fs af='50,num,any,any,,any,,' name='50' posn='100'>
4.2	PIsaxI	NN	<fs af='PIsaxI,n,f,sg,3,o,0,0' name='PIsaxI' posn='110'>
4.3	waka	PSP	<fs af='waka,psp,,,,,,' name='waka' posn='120'>
4.4	kI	PSP	<fs af='kA,psp,f,sg,,d,,' name='kI' posn='130'>
	))
5	((	NP	<fs name='NP5' drel='pof:VGF'>
5.1	kamI	NN	<fs af='kamI,n,f,sg,3,d,0,0' name='kamI' posn='140'>
	))
6	((	VGF	<fs name='VGF' stype='declarative' voicetype='active'>
6.1	AI	VM	<fs af='A,v,f,sg,any,,yA,yA' name='AI' posn='150'>
6.2	hE	VAUX	<fs af='hE,v,any,sg,3,,hE,hE' name='hE' posn='160'>
	))
7	((	BLK	<fs name='BLK' drel='rsym:VGF'>
7.1	.	SYM	<fs af='.,punc,,,,,,' name='.' posn='170'>
	))
</Sentence>

<Sentence id='4'>
1	((	NP	<fs name='NP' drel='k7t:VGF'>
1.1	varRa	NNPC	<fs af='varRa,n,m,sg,3,d,0,0' name='varRa' posn='10'>
1.2	2003	NNP	<fs af='2003,n,m,sg,3,o,0,0' name='2003' posn='20'>
1.3	meM	PSP	<fs af='meM,psp,,,,,,' name='meM' posn='30'>
	))
2	((	NP	<fs name='NP2' drel='k7p:VGF'>
2.1	rAjya	NN	<fs af='rAjya,n,m,sg,3,o,0,0' name='rAjya' posn='40'>
2.2	meM	PSP	<fs af='meM,psp,,,,,,' name='meM2' posn='50'>
	))
3	((	RBP	<fs coref=':RBP2' name='RBP' drel='sent-adv:VGF'>
3.1	jahAz	RB	<fs af='jahAz,adv,,,,,,' name='jahAz' posn='60'>
	))
4	((	NP	<fs name='NP3' drel='k1:VGF'>
4.1	3401	QC	<fs af='3401,num,any,any,,any,,' name='3401' posn='70'>
4.2	AwaMkI	JJ	<fs af='AwaMkI,adj,any,any,,d,,' name='AwaMkI' posn='80'>
4.3	GatanAeM	NN	<fs af='GatanA,n,f,pl,3,d,0,0' name='GatanAeM' posn='90'>
	))
5	((	VGF	<fs voicetype='active' name='VGF' stype='declarative' drel='rbmod__relc:RBP2'>
5.1	huI	VM	<fs af='ho,v,f,pl,any,,yA,yA' name='huI' posn='100'>
5.2	WI	VAUX	<fs af='WA,v,f,pl,any,,WA,WA' name='WI' posn='110'>
	))
6	((	RBP	<fs name='RBP2' drel='sent-adv:VGF2'>
6.1	vahIM	RB	<fs af='vahIM,adv,,,,,,' name='vahIM' posn='120'>
	))
7	((	NP	<fs name='NP4' drel='k7t:VGF2'>
7.1	isa	DEM	<fs af='yaha,pn,any,sg,3,o,,' name='isa' posn='130'>
7.2	sAla	NN	<fs af='sAla,n,m,sg,3,d,0,0' name='sAla' posn='140'>
	))
8	((	NP	<fs name='NP5' drel='k1:VGF2'>
8.1	sirPa	RP	<fs af='sirPa,avy,,,,,,' name='sirPa' posn='150'>
8.2	1415	QC	<fs af='1415,num,any,any,,any,,' name='1415' posn='160'>
8.3	AwaMkI	JJ	<fs af='AwaMkI,adj,any,any,,d,,' name='AwaMkI2' posn='170'>
8.4	GatanAeM	NN	<fs af='GatanA,n,f,pl,3,d,0,0' name='GatanAeM2' posn='180'>
	))
9	((	VGF	<fs name='VGF2' stype='declarative' voicetype='active'>
9.1	huI	VM	<fs af='ho,v,f,pl,any,,yA,yA' name='huI2' posn='190'>
9.2	hE	VAUX	<fs af='hE,v,any,pl,3,,hE,hE' name='hE' posn='200'>
	))
10	((	BLK	<fs name='BLK' drel='rsym:VGF2'>
10.1	.	SYM	<fs af='.,punc,,,,,,' name='.' posn='210'>
	))
</Sentence>

<Sentence id='5'>
1	((	NP	<fs name='NP' drel='k7a:VGF'>
1.1	AMkadZoM	NN	<fs af='AMkadZA,n,m,pl,3,o,0,0' name='AMkadZoM' posn='10'>
1.2	ke	PSP	<fs af='ke,psp,,,,,,' name='ke' posn='20'>
1.3	muwAbika	PSP	<fs af='muwAbika,psp,,,,,,' name='muwAbika' posn='30'>
	))
2	((	RBP	<fs coref=':RBP2' name='RBP' drel='sent-adv:VGF'>
2.1	jahAM	RB	<fs af='jahAz,adv,,,,,,' name='jahAM' posn='40'>
	))
3	((	NP	<fs name='NP2' drel='k7t:VGF'>
3.1	varRa	NN	<fs af='varRa,n,m,sg,3,d,0,0' name='varRa' posn='50'>
3.2	2003	NNP	<fs af='2003,n,any,sg,3,o,0,0' name='2003' posn='60'>
3.3	meM	PSP	<fs af='meM,psp,,,,,,' name='meM' posn='70'>
	))
4	((	NP	<fs name='NP3' drel='k7:VGF'>
4.1	AwaMkI	JJ	<fs af='AwaMkI,adj,any,any,,o,,' name='AwaMkI' posn='80'>
4.2	GatanAoM	NN	<fs af='GatanA,n,f,pl,3,o,0,0' name='GatanAoM' posn='90'>
4.3	meM	PSP	<fs af='meM,psp,,,,,,' name='meM2' posn='100'>
	))
5	((	NP	<fs name='NP4' drel='k2:VGF'>
5.1	2716	QC	<fs af='2716,num,any,any,,any,,' name='2716' posn='110'>
5.2	loga	NN	<fs af='loga,n,m,pl,3,d,0,0' name='loga' posn='120'>
	))
6	((	VGF	<fs voicetype='passive' name='VGF' stype='declarative' drel='rbmod__relc:RBP2'>
6.1	mAre	VM	<fs af='mAra,v,m,pl,any,,yA,yA' name='mAre' posn='130'>
6.2	gae	VAUX	<fs af='jA,v,m,pl,any,,yA1,yA1' name='gae' posn='140'>
6.3	We	VAUX	<fs af='WA,v,m,pl,any,,WA,WA' name='We' posn='150'>
	))
7	((	RBP	<fs name='RBP2' drel='sent-adv:VGF2'>
7.1	vahIM	RB	<fs af='vahIM,adv,,,,,,' name='vahIM' posn='160'>
	))
8	((	NP	<fs name='NP5' drel='k7t:VGF2'>
8.1	2005	NNP	<fs af='2005,n,m,sg,3,o,0,0' name='2005' posn='170'>
8.2	meM	PSP	<fs af='meM,psp,,,,,,' name='meM3' posn='180'>
	))
9	((	NP	<fs name='NP6' drel='k2:VGF2'>
9.1	1313	QC	<fs af='1313,num,any,any,,any,,' name='1313' posn='190'>
9.2	loga	NN	<fs af='loga,n,m,pl,3,d,0,0' name='loga2' posn='200'>
	))
10	((	VGF	<fs name='VGF2' stype='declarative' voicetype='passive'>
10.1	mAre	VM	<fs af='mAra,v,m,pl,any,,yA,yA' name='mAre2' posn='210'>
10.2	gae	VAUX	<fs af='jA,v,m,pl,any,,yA1,yA1' name='gae2' posn='220'>
10.3	hEM	VAUX	<fs af='hE,v,any,pl,3,,hE,hE' name='hEM' posn='230'>
	))
11	((	BLK	<fs name='BLK' drel='rsym:VGF2'>
11.1	.	SYM	<fs af='.,punc,,,,,,' name='.' posn='240'>
	))
</Sentence>

<Sentence id='6'>
1	((	NP	<fs name='NP' drel='r6:NP2'>
1.1	mqwakoM	NN	<fs af='mqwaka,n,m,pl,3,o,0,0' name='mqwakoM' posn='10'>
1.2	kI	PSP	<fs af='kA,psp,f,sg,,o,,' name='kI' posn='20'>
	))
2	((	NP	<fs name='NP2' drel='k7:VGF'>
2.1	saMKyA	NN	<fs af='saMKyA,n,f,sg,3,o,0,0' name='saMKyA' posn='30'>
2.2	meM	PSP	<fs af='meM,psp,,,,,,' name='meM' posn='40'>
	))
3	((	NP	<fs name='NP3' drel='ccof:CCP'>
3.1	Ama	JJ	<fs af='Ama,adj,any,any,,o,,' name='Ama' posn='50'>
3.2	nAgarika	NN	<fs af='nAgarika,n,m,sg,3,o,0,0' name='nAgarika' posn='60'>
3.3	,	SYM	<fs af='COMMA,punc,,,,,,' name=',' posn='70'>
	))
4	((	NP	<fs name='NP4' drel='ccof:CCP'>
4.1	surakRAbala	NN	<fs af='surakRAbala,n,m,sg,3,o,0,0' name='surakRAbala' posn='80'>
	))
5	((	CCP	<fs name='CCP' drel='r6:NP6'>
5.1	Ora	CC	<fs af='Ora,avy,,,,,,' name='Ora' posn='90'>
	))
6	((	NP	<fs name='NP5' drel='ccof:CCP'>
6.1	AwaMkiyoM	NN	<fs af='AwaMkI,n,m,sg,3,o,0,0' name='AwaMkiyoM' posn='100'>
6.2	kI	PSP	<fs af='kA,psp,f,sg,,d,,' name='kI2' posn='110'>
	))
7	((	NP	<fs name='NP6' drel='k1:VGF'>
7.1	saMKyA	NN	<fs af='saMKyA,n,f,sg,3,d,0,0' name='saMKyA2' posn='120'>
	))
8	((	JJP	<fs name='JJP' drel='pof:VGF'>
8.1	SAmila	JJ	<fs af='SAmila,adj,any,any,,,,' name='SAmila' posn='130'>
	))
9	((	VGF	<fs name='VGF' stype='declarative' voicetype='active'>
9.1	hE	VM	<fs af='hE,v,any,sg,3,,hE,hE' name='hE' posn='140'>
	))
10	((	BLK	<fs name='BLK' drel='rsym:VGF'>
10.1	.	SYM	<fs af='.,punc,,,,,,' name='.' posn='150'>
	))
</Sentence>

<Sentence id='7'>
1	((	NP	<fs name='NP' drel='k7t:VGF'>
1.1	varRa	NN	<fs af='varRa,n,m,sg,3,d,0,0' name='varRa' posn='10'>
1.2	2004	NNP	<fs af='2004,n,any,sg,3,o,0,0' name='2004' posn='20'>
1.3	meM	PSP	<fs af='meM,psp,,,,,,' name='meM' posn='30'>
	))
2	((	NP	<fs name='NP2' drel='k7p:VGF'>
2.1	rAjya	NN	<fs af='rAjya,n,m,sg,3,o,0,0' name='rAjya' posn='40'>
2.2	meM	PSP	<fs af='meM,psp,,,,,,' name='meM2' posn='50'>
	))
3	((	NP	<fs name='NP3' drel='jjmod:JJP'>
3.1	2565	QC	<fs af='2565,num,any,any,,any,,' name='2565' posn='60'>
3.2	AwaMkavAxa	NN	<fs af='AwaMkavAxa,n,m,sg,3,d,0,0' name='AwaMkavAxa' posn='70'>
	))
4	((	JJP	<fs name='JJP' drel='nmod:NP4'>
4.1	saMbaMXI	JJ	<fs af='saMbaMXI,adj,any,any,,d,,' name='saMbaMXI' posn='80'>
	))
5	((	NP	<fs name='NP4' drel='k1:VGF'>
5.1	hiMsaka	JJ	<fs af='hiMsaka,adj,any,any,,d,,' name='hiMsaka' posn='90'>
5.2	GatanAeM	NN	<fs af='GatanA,n,f,pl,3,d,0,0' name='GatanAeM' posn='100'>
	))
6	((	VGF	<fs voicetype='active' name='VGF' stype='declarative' drel='ccof:CCP'>
6.1	huI	VM	<fs af='ho,v,f,pl,any,,yA,yA' name='huI' posn='110'>
6.2	WIM	VAUX	<fs af='WA,v,f,pl,any,,WA,WA' name='WIM' posn='120'>
	))
7	((	CCP	<fs name='CCP'>
7.1	Ora	CC	<fs af='Ora,avy,,,,,,' name='Ora' posn='130'>
	))
8	((	NP	<fs name='NP5' drel='k2:VGF2'>
8.1	2039	QC	<fs af='2039,num,any,any,,any,,' name='2039' posn='140'>
8.2	loga	NN	<fs af='loga,n,m,pl,3,d,0,0' name='loga' posn='150'>
	))
9	((	VGF	<fs voicetype='passive' name='VGF2' stype='declarative' drel='ccof:CCP'>
9.1	mAre	VM	<fs af='mAra,v,m,pl,any,,yA,yA' name='mAre' posn='160'>
9.2	gae	VAUX	<fs af='jA,v,m,pl,any,,yA1,yA1' name='gae' posn='170'>
9.3	We	VAUX	<fs af='WA,v,m,pl,any,,WA,WA' name='We' posn='180'>
	))
10	((	BLK	<fs name='BLK' drel='rsym:CCP'>
10.1	.	SYM	<fs af='.,punc,,,,,,' name='.' posn='190'>
	))
</Sentence>

<Sentence id='8'>
1	((	NP	<fs name='NP' drel='k7p:VGF'>
1.1	rAjya	NN	<fs af='rAjya,n,m,sg,3,o,0,0' name='rAjya' posn='10'>
1.2	meM	PSP	<fs af='meM,psp,,,,,,' name='meM' posn='20'>
	))
2	((	NP	<fs name='NP2' drel='k4a:VGF'>
2.1	surakRAbaloM	NN	<fs af='surakRAbala,n,m,pl,3,o,0,0' name='surakRAbaloM' posn='30'>
2.2	ko	PSP	<fs af='ko,psp,,,,,,' name='ko' posn='40'>
	))
3	((	NP	<fs name='NP3' drel='vmod:VGF'>
3.1	AwaMkiyoM	NN	<fs af='AwaMkI,n,m,pl,3,o,0,0' name='AwaMkiyoM' posn='50'>
3.2	ke	PSP	<fs af='ke,psp,,,,,,' name='ke' posn='60'>
3.3	KZilAPZa	PSP	<fs af='KilAPa,adj,,,,,,' name='KZilAPZa' posn='70'>
3.4	BI	RP	<fs af='BI,avy,,,,,,' name='BI' posn='80'>
	))
4	((	NP	<fs name='NP4' drel='k1:VGF'>
4.1	badZI	JJ	<fs af='badA,adj,f,pl,,d,,' name='badZI' posn='90'>
4.2	kAmayAbiyAz	NN	<fs af='kAmayAbI,n,f,pl,3,d,0,0' name='kAmayAbiyAz' posn='100'>
	))
5	((	VGF	<fs name='VGF' stype='declarative' voicetype='active'>
5.1	milI	VM	<fs af='mila,v,f,pl,any,,yA,yA' name='milI' posn='110'>
	))
6	((	BLK	<fs name='BLK' drel='rsym:VGF'>
6.1	.	SYM	<fs af='.,punc,,,,,,' name='.' posn='120'>
	))
</Sentence>

<Sentence id='9'>
1	((	NP	<fs name='NP' drel='k1:VGF'>
1.1	surakRAbaloM	NN	<fs af='surakRAbala,n,m,pl,3,o,0,0' name='surakRAbaloM' posn='10'>
1.2	ne	PSP	<fs af='ne,psp,,,,,,' name='ne' posn='20'>
	))
2	((	NP	<fs name='NP2' drel='ccof:CCP'>
2.1	hijZabula	NNPC	<fs af='hijZabula,n,m,sg,3,d,0,0' name='hijZabula' posn='30'>
2.2	mujAhixIna	NNP	<fs af='mujAhixIna,n,m,sg,3,o,0,0' name='mujAhixIna' posn='40'>
2.3	,	SYM	<fs af='COMMA,punc,,,,,,' name=',' posn='50'>
	))
3	((	NP	<fs name='NP3' drel='ccof:CCP'>
3.1	laSkara	NNPC	<fs af='laSkara,n,m,sg,3,d,0,0' name='laSkara' posn='60'>
3.2	-	SYM	<fs af='-,punc,,,,,,' name='-' posn='70'>
3.3	e	NNPC	<fs af='e,n,m,sg,3,d,0,0' name='e' posn='80'>
3.4	-	SYM	<fs af='-,punc,,,,,,' name='-2' posn='90'>
3.5	wAibA	NNP	<fs af='wAibA,n,m,sg,3,o,0,0' name='wAibA' posn='100'>
3.6	,	SYM	<fs af='COMMA,punc,,,,,,' name=',2' posn='110'>
	))
4	((	NP	<fs name='NP4' drel='ccof:CCP'>
4.1	jESa	NNPC	<fs af='jESa,n,m,sg,3,d,0,0' name='jESa' posn='120'>
4.2	-	SYM	<fs af='-,punc,,,,,,' name='-3' posn='130'>
4.3	e	NNPC	<fs af='e,n,m,sg,3,d,0,0' name='e2' posn='140'>
4.4	-	SYM	<fs af='-,punc,,,,,,' name='-4' posn='150'>
4.5	mohammaxa	NNP	<fs af='mohammaxa,n,m,sg,3,o,0,0' name='mohammaxa' posn='160'>
	))
5	((	CCP	<fs name='CCP' drel='r6:NP6'>
5.1	Ora	CC	<fs af='Ora,avy,,,,,,' name='Ora' posn='170'>
	))
6	((	NP	<fs name='NP5' drel='ccof:CCP'>
6.1	harakawa	NNPC	<fs af='harakawa,n,f,sg,3,d,0,0' name='harakawa' posn='180'>
6.2	-	SYM	<fs af='-,punc,,,,,,' name='-5' posn='190'>
6.3	e	NNPC	<fs af='e,n,m,sg,3,d,0,0' name='e3' posn='200'>
6.4	-	SYM	<fs af='-,punc,,,,,,' name='-6' posn='210'>
6.5	jehAxa	NNPC	<fs af='jehAxa,n,f,sg,3,d,0,0' name='jehAxa' posn='220'>
6.6	-	SYM	<fs af='-,punc,,,,,,' name='-7' posn='230'>
6.7	e	NNPC	<fs af='e,n,m,sg,3,d,0,0' name='e4' posn='240'>
6.8	-	SYM	<fs af='-,punc,,,,,,' name='-8' posn='250'>
6.9	islAmI	NNP	<fs af='islAmI,n,f,sg,3,o,0,0' name='islAmI' posn='260'>
6.10	ke	PSP	<fs af='kA,psp,m,pl,,o,,' name='ke' posn='270'>
	))
7	((	NP	<fs name='NP6' drel='k2:VGNN'>
7.1	kaI	QF	<fs af='kaI,avy,,,,,,' name='kaI' posn='280'>
7.2	kamAMdaroM	NN	<fs af='kamAMdara,n,m,pl,3,o,0,0' name='kamAMdaroM' posn='290'>
7.3	ko	PSP	<fs af='ko,psp,,,,,,' name='ko' posn='300'>
	))
8	((	VGNN	<fs name='VGNN' drel='k7:VGF'>
8.1	nipatAne	VM	<fs af='nipatA,v,any,any,any,o,nA,nA' name='nipatAne' posn='310'>
8.2	meM	PSP	<fs af='meM,psp,,,,,,' name='meM' posn='320'>
	))
9	((	NP	<fs name='NP7' drel='k2:VGF'>
9.1	saPalawA	NN	<fs af='saPalawA,n,f,sg,3,d,0,0' name='saPalawA' posn='330'>
	))
10	((	JJP	<fs name='JJP' drel='pof:VGF'>
10.1	prApwa	JJ	<fs af='prApwa,adj,any,any,,,,' name='prApwa' posn='340'>
	))
11	((	VGF	<fs name='VGF' stype='declarative' voicetype='active'>
11.1	kI	VM	<fs af='kara,v,f,sg,any,,yA,yA' name='kI' posn='350'>
	))
12	((	BLK	<fs name='BLK' drel='rsym:VGF'>
12.1	.	SYM	<fs af='.,punc,,,,,,' name='.' posn='360'>
	))
</Sentence>

<Sentence id='10'>
1	((	NP	<fs name='NP' drel='r6:NP2'>
1.1	surakRAbaloM	NN	<fs af='surakRAbala,n,m,pl,3,o,0,0' name='surakRAbaloM' posn='10'>
1.2	ke	PSP	<fs af='kA,psp,m,sg,,o,,' name='ke' posn='20'>
	))
2	((	NP	<fs name='NP2' drel='r6-k2:NP3'>
2.1	aBiyAna	NN	<fs af='aBiyAna,n,m,sg,3,o,0,0' name='aBiyAna' posn='30'>
2.2	kA	PSP	<fs af='kA,psp,m,sg,,d,,' name='kA' posn='40'>
	))
3	((	JJP	<fs name='JJP' drel='adv:VGF'>
3.1	sabase	INTF	<fs af='sabase,avy,,,,,,' name='sabase' posn='50'>
3.2	badZA	JJ	<fs af='badA,adj,m,sg,,d,,' name='badZA' posn='60'>
	))
4	((	NP	<fs name='NP3' drel='pof:VGF'>
4.1	nukZasAna	NN	<fs af='nukasAna,n,m,sg,3,d,0,0' name='nukZasAna' posn='70'>
	))
5	((	NP	<fs name='NP4' drel='k4a:VGF'>
5.1	hijZabula	NNPC	<fs af='hijZabula,n,m,sg,3,d,0,0' name='hijZabula' posn='80'>
5.2	mujAhixIna	NNP	<fs af='mujAhixIna,n,m,sg,3,o,0,0' name='mujAhixIna' posn='90'>
5.3	ko	PSP	<fs af='ko,psp,,,,,,' name='ko' posn='100'>
	))
6	((	VGF	<fs name='VGF' stype='declarative' voicetype='active'>
6.1	uTAnA	VM	<fs af='uTA,v,m,sg,any,,nA,nA' name='uTAnA' posn='110'>
6.2	padZA	VAUX	<fs af='pada,v,m,sg,any,,yA,yA' name='padZA' posn='120'>
	))
7	((	BLK	<fs name='BLK' drel='rsym:VGF'>
7.1	.	SYM	<fs af='.,punc,,,,,,' name='.' posn='130'>
	))
</Sentence>

<Sentence id='11'>
1	((	NP	<fs name='NP' drel='k7t:VGF'>
1.1	isa	DEM	<fs af='yaha,pn,any,sg,3,o,,' name='isa' posn='10'>
1.2	aBiyAna	NN	<fs af='aBiyAna,n,m,sg,3,o,0,0' name='aBiyAna' posn='20'>
1.3	ke	PSP	<fs af='ke,psp,,,,,,' name='ke' posn='30'>
1.4	xOrAna	NST	<fs af='xOrAna,nst,m,sg,3,d,,' name='xOrAna' posn='40'>
	))
2	((	NP	<fs name='NP2' drel='k1:VGF'>
2.1	isa	DEM	<fs af='yaha,pn,any,sg,3,o,,' name='isa2' posn='50'>
2.2	AwaMkI	JJ	<fs af='AwaMkI,adj,any,any,,o,,' name='AwaMkI' posn='60'>
2.3	saMgaTana	NN	<fs af='saMgaTana,n,m,sg,3,o,0,0' name='saMgaTana' posn='70'>
2.4	ko	PSP	<fs af='ko,psp,,,,,,' name='ko' posn='80'>
	))
3	((	NP	<fs name='NP3' drel='r6:NP4'>
3.1	apane	PRP	<fs af='apanA,pn,m,any,any,o,0,0' name='apane' posn='90'>
	))
4	((	NP	<fs name='NP4' drel='k5:VGF'>
4.1	10	QC	<fs af='10,num,any,any,,any,,' name='10' posn='100'>
4.2	variRTa	JJ	<fs af='variRTa,adj,any,any,,o,,' name='variRTa' posn='110'>
4.3	kamAMdaroM	NN	<fs af='kamAMdara,n,m,pl,3,o,0,0' name='kamAMdaroM' posn='120'>
4.4	se	PSP	<fs af='se,psp,,,,,,' name='se' posn='130'>
	))
5	((	NP	<fs name='NP5' drel='pof:VGF'>
5.1	hAWa	NN	<fs af='hAWa,n,m,sg,3,d,0,0' name='hAWa' posn='140'>
	))
6	((	VGF	<fs name='VGF' stype='declarative' voicetype='active'>
6.1	XonA	VM	<fs af='Xo,v,m,sg,any,,nA,nA' name='XonA' posn='150'>
6.2	padZA	VAUX	<fs af='pada,v,m,sg,any,,yA,yA' name='padZA' posn='160'>
	))
7	((	BLK	<fs name='BLK' drel='rsym:VGF'>
7.1	.	SYM	<fs af='.,punc,,,,,,' name='.' posn='170'>
	))
</Sentence>

<Sentence id='12'>
1	((	NP	<fs name='NP' drel='k7t:VGF'>
1.1	varRa	NN	<fs af='varRa,n,m,sg,3,d,0,0' name='varRa' posn='10'>
1.2	2003	NNP	<fs af='2003,n,any,sg,3,o,0,0' name='2003' posn='20'>
1.3	ke	PSP	<fs af='ke,psp,,,,,,' name='ke' posn='30'>
1.4	xOrAna	NST	<fs af='xOrAna,nst,m,sg,3,d,,' name='xOrAna' posn='40'>
	))
2	((	JJP	<fs name='JJP' drel='ccof:CCP'>
2.1	1000	QC	<fs af='1000,num,any,any,,any,,' name='1000' posn='50'>
2.2	sWAnIya	JJ	<fs af='sWAnIya,adj,any,any,,d,,' name='sWAnIya' posn='60'>
	))
3	((	CCP	<fs name='CCP' drel='nmod:NP2'>
3.1	va	CC	<fs af='va,avy,,,,,,' name='va' posn='70'>
	))
4	((	JJP	<fs name='JJP2' drel='ccof:CCP'>
4.1	470	QC	<fs af='470,num,any,any,,any,,' name='470' posn='80'>
4.2	vixeSI	JJ	<fs af='vixeSI,adj,any,any,,d,,' name='vixeSI' posn='90'>
	))
5	((	NP	<fs name='NP2' drel='k2:VGF'>
5.1	AwaMkI	NN	<fs af='AwaMkI,n,m,pl,3,d,0,0' name='AwaMkI' posn='100'>
	))
6	((	NP	<fs name='NP3' drel='k7:VGF'>
6.1	muTaBedZa	NN	<fs af='muTaBeda,n,f,sg,3,o,0,0' name='muTaBedZa' posn='110'>
6.2	meM	PSP	<fs af='meM,psp,,,,,,' name='meM' posn='120'>
	))
7	((	VGF	<fs name='VGF' stype='declarative' voicetype='passive'>
7.1	mAre	VM	<fs af='mAra,v,m,pl,any,,yA,yA' name='mAre' posn='130'>
7.2	gae	VAUX	<fs af='jA,v,m,pl,any,,yA1,yA1' name='gae' posn='140'>
	))
8	((	BLK	<fs name='BLK' drel='rsym:VGF'>
8.1	.	SYM	<fs af='.,punc,,,,,,' name='.' posn='150'>
	))
</Sentence>

<Sentence id='13'>
1	((	CCP	<fs name='CCP'>
1.1	jabaki	CC	<fs af='jabaki,avy,,,,,,' name='jabaki' posn='10'>
	))
2	((	NP	<fs name='NP' drel='k7t:VGF'>
2.1	isa	DEM	<fs af='yaha,pn,any,sg,3,d,,' name='isa' posn='20'>
2.2	sAla	NN	<fs af='sAla,n,m,sg,3,d,0,0' name='sAla' posn='30'>
	))
3	((	NP	<fs name='NP2' drel='k1:VGF'>
3.1	yaha	DEM	<fs af='yaha,pn,any,sg,3,d,,' name='yaha' posn='40'>
3.2	AMkadZA	NN	<fs af='AMkadZA,n,m,sg,3,d,0,0' name='AMkadZA' posn='50'>
	))
4	((	NP	<fs name='NP3' drel='ccof:CCP2'>
4.1	516	QC	<fs af='516,num,any,any,,any,,' name='516' posn='60'>
	))
5	((	CCP	<fs name='CCP2' drel='k1s:VGF'>
5.1	Ora	CC	<fs af='Ora,avy,,,,,,' name='Ora' posn='70'>
	))
6	((	NP	<fs name='NP4' drel='ccof:CCP2'>
6.1	141	QC	<fs af='141,num,any,any,,any,,' name='141' posn='80'>
	))
7	((	VGF	<fs voicetype='active' name='VGF' stype='declarative' drel='ccof:CCP'>
7.1	hE	VM	<fs af='hE,v,any,sg,3,,hE,hE' name='hE' posn='90'>
	))
8	((	BLK	<fs name='BLK' drel='rsym:CCP'>
8.1	.	SYM	<fs af='.,punc,,,,,,' name='.' posn='100'>
	))
</Sentence>

<Sentence id='14'>
1	((	NP	<fs name='NP' drel='k7t:VGF'>
1.1	varRa	NN	<fs af='varRa,n,m,sg,3,d,0,0' name='varRa' posn='10'>
1.2	2004	NNP	<fs af='2004,n,any,sg,3,o,0,0' name='2004' posn='20'>
1.3	meM	PSP	<fs af='meM,psp,,,,,,' name='meM' posn='30'>
	))
2	((	JJP	<fs name='JJP' drel='ccof:CCP'>
2.1	687	QC	<fs af='687,num,any,any,,any,,' name='687' posn='40'>
2.2	sWAnIya	JJ	<fs af='sWAnIya,adj,any,any,,d,,' name='sWAnIya' posn='50'>
	))
3	((	CCP	<fs name='CCP' drel='nmod:NP2'>
3.1	va	CC	<fs af='va,avy,,,,,,' name='va' posn='60'>
	))
4	((	JJP	<fs name='JJP2' drel='ccof:CCP'>
4.1	289	QC	<fs af='289,num,any,any,,any,,' name='289' posn='70'>
4.2	vixeSI	JJ	<fs af='vixeSI,adj,any,any,,d,,' name='vixeSI' posn='80'>
	))
5	((	NP	<fs name='NP2' drel='k2:VGF'>
5.1	AwaMkI	NN	<fs af='AwaMkI,n,m,pl,3,d,0,0' name='AwaMkI' posn='90'>
	))
6	((	NP	<fs name='NP3' drel='r6:NP4'>
6.1	surakRAbaloM	NN	<fs af='surakRAbala,n,m,pl,3,o,0,0' name='surakRAbaloM' posn='100'>
6.2	ke	PSP	<fs af='kA,psp,m,pl,,d,,' name='ke' posn='110'>
	))
7	((	NP	<fs name='NP4' drel='k3:VGF'>
7.1	hAWoM	NN	<fs af='hAWa,n,m,pl,3,d,0,0' name='hAWoM' posn='120'>
	))
8	((	VGF	<fs name='VGF' stype='declarative' voicetype='passive'>
8.1	mAre	VM	<fs af='mAra,v,m,pl,any,,yA,yA' name='mAre' posn='130'>
8.2	gae	VAUX	<fs af='jA,v,m,pl,any,,yA1,yA1' name='gae' posn='140'>
8.3	We	VAUX	<fs af='WA,v,m,pl,any,,WA,WA' name='We' posn='150'>
	))
9	((	BLK	<fs name='BLK' drel='rsym:VGF'>
9.1	.	SYM	<fs af='.,punc,,,,,,' name='.' posn='160'>
	))
</Sentence>

<Sentence id='15'>
1	((	NP	<fs name='NP' drel='k3:VGNN'>
1.1	AwaMkiyoM	NN	<fs af='AwaMkI,n,m,pl,3,o,0,0' name='AwaMkiyoM' posn='10'>
1.2	xvArA	PSP	<fs af='xvArA,psp,,,,,,' name='xvArA' posn='20'>
	))
2	((	NP	<fs name='NP2' drel='k7t:VGNN'>
2.1	samaya	NN	<fs af='samaya,n,m,sg,3,d,0,0' name='samaya' posn='30'>
2.2	-	SYM	<fs af='-,punc,,,,,,' name='-' posn='40'>
2.3	samaya	RDP	<fs af='samaya,n,m,sg,3,o,0,0' name='samaya2' posn='50'>
2.4	para	PSP	<fs af='para,psp,,,,,,' name='para' posn='60'>
	))
3	((	NP	<fs name='NP3' drel='pof:VGNN'>
3.1	badZI	JJ	<fs af='badA,adj,f,sg,,d,,' name='badZI' posn='70'>
3.2	vAraxAwa	NN	<fs af='vAraxAwa,n,f,sg,3,d,0,0' name='vAraxAwa' posn='80'>
	))
4	((	VGNN	<fs name='VGNN' drel='vmod:VGF'>
4.1	karane	VM	<fs af='kara,v,any,any,any,o,nA,nA' name='karane' posn='90'>
4.2	ke	PSP	<fs af='ke,psp,,,,,,' name='ke' posn='100'>
4.3	bAvajUxa	PSP	<fs af='bAvajUxa,psp,,,,,,' name='bAvajUxa' posn='110'>
	))
5	((	NP	<fs name='NP4' drel='k7p:VGF'>
5.1	rAjya	NN	<fs af='rAjya,n,m,sg,3,o,0,0' name='rAjya' posn='120'>
5.2	meM	PSP	<fs af='meM,psp,,,,,,' name='meM' posn='130'>
	))
6	((	NP	<fs name='NP5' drel='r6:NP6'>
6.1	surakRAbaloM	NN	<fs af='surakRAbala,n,m,pl,3,o,0,0' name='surakRAbaloM' posn='140'>
6.2	kI	PSP	<fs af='kA,psp,f,sg,,d,,' name='kI' posn='150'>
	))
7	((	NP	<fs name='NP6' drel='k1:VGF'>
7.1	sWiwi	NN	<fs af='sWiwi,n,f,sg,3,d,0,0' name='sWiwi' posn='160'>
	))
8	((	JJP	<fs name='JJP' drel='k1s:VGF'>
8.1	majZabUwa	JJ	<fs af='majabUwa,adj,any,any,,,,' name='majZabUwa' posn='170'>
	))
9	((	VGF	<fs name='VGF' stype='declarative' voicetype='active'>
9.1	hE	VM	<fs af='hE,v,any,sg,3,,hE,hE' name='hE' posn='180'>
	))
10	((	BLK	<fs name='BLK' drel='rsym:VGF'>
10.1	.	SYM	<fs af='.,punc,,,,,,' name='.' posn='190'>
	))
</Sentence>

<Sentence id='16'>
1	((	NP	<fs name='NP' drel='k7t:VGF'>
1.1	varRa	NN	<fs af='varRa,n,m,sg,3,d,0,0' name='varRa' posn='10'>
1.2	2003	NNP	<fs af='2003,n,any,sg,3,o,0,0' name='2003' posn='20'>
1.3	meM	PSP	<fs af='meM,psp,,,,,,' name='meM' posn='30'>
	))
2	((	NP	<fs name='NP2' drel='vmod:VGF'>
2.1	AwaMkiyoM	NN	<fs af='AwaMkI,n,m,pl,3,o,0,0' name='AwaMkiyoM' posn='40'>
2.2	ke	PSP	<fs af='ke,psp,,,,,,' name='ke' posn='50'>
2.3	KZilAPZa	PSP	<fs af='KilAPa,adj,,,,,,' name='KZilAPZa' posn='60'>
	))
3	((	NP	<fs name='NP3' drel='k7:VGF'>
3.1	aBiyAna	NN	<fs af='aBiyAna,n,m,sg,3,o,0,0' name='aBiyAna' posn='70'>
3.2	meM	PSP	<fs af='meM,psp,,,,,,' name='meM2' posn='80'>
	))
4	((	RBP	<fs coref=':RBP2' name='RBP' drel='sent-adv:VGF'>
4.1	jahAz	RB	<fs af='jahAz,adv,,,,,,' name='jahAz' posn='90'>
	))
5	((	NP	<fs name='NP4' drel='ccof:CCP'>
5.1	384	QC	<fs af='384,num,any,any,,any,,' name='384' posn='100'>
5.2	javAna	NN	<fs af='javAna,n,m,pl,3,d,0,0' name='javAna' posn='110'>
	))
6	((	CCP	<fs name='CCP' drel='k2:VGF'>
6.1	va	CC	<fs af='va,avy,,,,,,' name='va' posn='120'>
	))
7	((	NP	<fs name='NP5' drel='ccof:CCP'>
7.1	aXikArI	NN	<fs af='aXikArI,n,m,pl,3,d,0,0' name='aXikArI' posn='130'>
	))
8	((	VGF	<fs voicetype='active' name='VGF' stype='declarative' drel='rbmod__relc:RBP2'>
8.1	mAre	VM	<fs af='mAra,v,m,pl,any,,yA,yA' name='mAre' posn='140'>
8.2	gae	VAUX	<fs af='jA,v,m,pl,any,,yA1,yA1' name='gae' posn='150'>
8.3	We	VAUX	<fs af='WA,v,m,pl,any,,WA,WA' name='We' posn='160'>
	))
9	((	RBP	<fs name='RBP2' drel='sent-adv:VGF2'>
9.1	vahIM	RB	<fs af='vahIM,adv,,,,,,' name='vahIM' posn='170'>
	))
10	((	NP	<fs name='NP6' drel='k7t:VGF2'>
10.1	isa	DEM	<fs af='yaha,pn,any,sg,3,d,,' name='isa' posn='180'>
10.2	sAla	NN	<fs af='sAla,n,m,sg,3,d,0,0' name='sAla' posn='190'>
	))
11	((	NP	<fs name='NP7' drel='k1:VGNF'>
11.1	yaha	DEM	<fs af='yaha,pn,any,sg,3,d,,' name='yaha' posn='200'>
11.2	saMKyA	NN	<fs af='saMKyA,n,f,sg,3,d,0,0' name='saMKyA' posn='210'>
	))
12	((	VGNF	<fs name='VGNF' drel='vmod:VGF2'>
12.1	Gatakara	VM	<fs af='Gata,v,any,any,any,,kara,kara' name='Gatakara' posn='220'>
	))
13	((	NP	<fs name='NP8' drel='k7:VGF2'>
13.1	173	QC	<fs af='173,num,any,any,,o,,' name='173' posn='100'>
13.2	para	PSP	<fs af='para,psp,,,,,,' name='para' posn='240'>
	))
14	((	VGF	<fs voicetype='active' name='VGF2' stype='declarative' drel='ccof:CCP2'>
14.1	WamI	VM	<fs af='Wama,v,f,sg,any,,yA,yA' name='WamI' posn='250'>
	))
15	((	CCP	<fs name='CCP2'>
15.1	jabaki	CC	<fs af='jabaki,avy,,,,,,' name='jabaki' posn='260'>
	))
16	((	NP	<fs name='NP9' drel='k7t:VGF3'>
16.1	varRa	NN	<fs af='varRa,n,m,sg,3,d,0,0' name='varRa2' posn='270'>
16.2	2004	NNP	<fs af='2004,n,any,sg,3,o,0,0' name='2004' posn='280'>
16.3	meM	PSP	<fs af='meM,psp,,,,,,' name='meM3' posn='290'>
	))
17	((	NP	<fs name='NP10' drel='k1:VGF3'>
17.1	yaha	DEM	<fs af='yaha,pn,any,sg,3,d,,' name='yaha2' posn='300'>
17.2	saMKyA	NN	<fs af='saMKyA,n,f,sg,3,d,0,0' name='saMKyA2' posn='310'>
	))
18	((	NP	<fs name='NP11' drel='k1s:VGF3'>
18.1	330	QC	<fs af='330,num,any,any,,any,,' name='330' posn='320'>
	))
19	((	VGF	<fs voicetype='active' name='VGF3' stype='declarative' drel='ccof:CCP2'>
19.1	WI	VM	<fs af='WA,v,f,sg,any,,WA,WA' name='WI' posn='330'>
	))
20	((	BLK	<fs name='BLK' drel='rsym:CCP2'>
20.1	.	SYM	<fs af='.,punc,,,,,,' name='.' posn='340'>
	))
</Sentence>

<Sentence id='17'>
1	((	NP	<fs name='NP' drel='vmod:VGF'>
1.1	Ama	JJ	<fs af='Ama,adj,any,any,,o,,' name='Ama' posn='10'>
1.2	nAgarikoM	NN	<fs af='nAgarika,n,m,pl,3,o,0,0' name='nAgarikoM' posn='20'>
1.3	ke	PSP	<fs af='ke,psp,,,,,,' name='ke' posn='30'>
1.4	KZilAPZa	PSP	<fs af='KilAPa,adj,,,,,,' name='KZilAPZa' posn='40'>
1.5	BI	RP	<fs af='BI,avy,,,,,,' name='BI' posn='50'>
	))
2	((	NP	<fs name='NP2' drel='k7:VGF'>
2.1	AwaMkI	JJ	<fs af='AwaMkI,adj,any,any,,o,,' name='AwaMkI' posn='60'>
2.2	hiMsaka	JJ	<fs af='hiMsaka,adj,any,any,,o,,' name='hiMsaka' posn='70'>
2.3	GatanAoM	NN	<fs af='GatanA,n,f,pl,3,o,0,0' name='GatanAoM' posn='80'>
2.4	meM	PSP	<fs af='meM,psp,,,,,,' name='meM' posn='90'>
	))
3	((	NP	<fs name='NP3' drel='r6-k2:NP4'>
3.1	50	QC	<fs af='50,num,any,any,,any,,' name='50' posn='100'>
3.2	PIsaxI	NN	<fs af='PIsaxI,n,f,sg,3,o,0,0' name='PIsaxI' posn='110'>
3.3	waka	PSP	<fs af='waka,psp,,,,,,' name='waka' posn='120'>
3.4	kI	PSP	<fs af='kA,psp,f,sg,,d,,' name='kI' posn='130'>
	))
4	((	NP	<fs name='NP4' drel='pof:VGF'>
4.1	kamI	NN	<fs af='kamI,n,f,sg,3,d,0,0' name='kamI' posn='140'>
	))
5	((	VGF	<fs name='VGF' stype='declarative' voicetype='active'>
5.1	AI	VM	<fs af='A,v,f,sg,any,,yA,yA' name='AI' posn='150'>
5.2	hE	VAUX	<fs af='hE,v,any,sg,3,,hE,hE' name='hE' posn='160'>
	))
6	((	BLK	<fs name='BLK' drel='rsym:VGF'>
6.1	.	SYM	<fs af='.,punc,,,,,,' name='.' posn='170'>
	))
</Sentence>

<Sentence id='18'>
1	((	NP	<fs name='NP' drel='k7t:NULL__VGF'>
1.1	varRa	NN	<fs af='varRa,n,m,sg,3,d,0,0' name='varRa' posn='10'>
1.2	2003	NNP	<fs af='2003,n,any,sg,3,o,0,0' name='2003' posn='20'>
1.3	meM	PSP	<fs af='meM,psp,,,,,,' name='meM' posn='30'>
	))
2	((	NP	<fs name='NP2' drel='k1:NULL__VGF'>
2.1	836	QC	<fs af='836,num,any,any,,any,,' name='836' posn='40'>
	))
3	((	NULL__VGF	<fs name='NULL__VGF' dmrel='ccof:CCP' mtype='gap' troot='mAra' voicetype='passive' stype='declarative'>
3.1	NULL	VM	<fs name='NULL'>
3.2	,	SYM	<fs af='COMMA,v,,,,,,' name=',' posn='50'>
	))
4	((	NP	<fs name='NP3' drel='k7t:NULL__VGF2'>
4.1	varRa	NN	<fs af='varRa,n,m,sg,3,d,0,0' name='varRa2' posn='60'>
4.2	2004	NNP	<fs af='2004,n,any,sg,3,o,0,0' name='2004' posn='70'>
4.3	meM	PSP	<fs af='meM,psp,,,,,,' name='meM2' posn='80'>
	))
5	((	NP	<fs name='NP4' drel='k1:NULL__VGF2'>
5.1	733	QC	<fs af='733,num,any,any,,any,,' name='733' posn='90'>
	))
6	((	NULL__VGF	<fs name='NULL__VGF2' dmrel='ccof:CCP' mtype='gap' troot='mAra' voicetype='passive' stype='declarative'>
6.1	NULL	VM	<fs af=',v,,,,,,' name='NULL2'>
	))
7	((	CCP	<fs name='CCP' drel='k1:VGF'>
7.1	Ora	CC	<fs af='Ora,avy,,,,,,' name='Ora' posn='100'>
	))
8	((	NP	<fs name='NP5' drel='k7t:NULL__VGF2'>
8.1	varRa	NN	<fs af='varRa,n,m,sg,3,d,0,0' name='varRa3' posn='110'>
8.2	2005	NNP	<fs af='2005,n,any,sg,3,o,0,0' name='2005' posn='120'>
8.3	meM	PSP	<fs af='meM,psp,,,,,,' name='meM3' posn='130'>
	))
9	((	NP	<fs name='NP6' drel='nmod:NP7'>
9.1	383	QC	<fs af='383,num,any,any,,any,,' name='383' posn='140'>
	))
10	((	NP	<fs name='NP7' drel='k2:VGF'>
10.1	Ama	JJ	<fs af='Ama,adj,any,any,,d,,' name='Ama' posn='150'>
10.2	nAgarika	NN	<fs af='nAgarika,n,m,pl,3,d,0,0' name='nAgarika' posn='160'>
	))
11	((	NP	<fs name='NP8' drel='k1:VGNF'>
11.1	AwaMkiyoM	NN	<fs af='AwaMkI,n,m,pl,3,o,0,0' name='AwaMkiyoM' posn='170'>
11.2	xvArA	PSP	<fs af='xvArA,psp,,,,,,' name='xvArA' posn='180'>
	))
12	((	VGNF	<fs name='VGNF' drel='nmod__pofinv:NP9'>
12.1	kie	VM	<fs af='kara,v,m,pl,any,,yA,yA' name='kie' posn='190'>
12.2	gae	VAUX	<fs af='jA,v,m,pl,any,,yA1,yA1' name='gae' posn='200'>
	))
13	((	NP	<fs name='NP9' drel='k7:VGF'>
13.1	hiMsaka	JJ	<fs af='hiMsaka,adj,any,any,,o,,' name='hiMsaka' posn='210'>
13.2	GatanAoM	NN	<fs af='GatanA,n,f,pl,3,o,0,0' name='GatanAoM' posn='220'>
13.3	meM	PSP	<fs af='meM,psp,,,,,,' name='meM4' posn='230'>
	))
14	((	VGF	<fs name='VGF' stype='declarative' voicetype='passive'>
14.1	mAre	VM	<fs af='mAra,v,m,pl,any,,yA,yA' name='mAre' posn='240'>
14.2	gae	VAUX	<fs af='jA,v,m,pl,any,,yA1,yA1' name='gae2' posn='250'>
	))
15	((	BLK	<fs name='BLK' drel='rsym:VGF'>
15.1	.	SYM	<fs af='.,punc,,,,,,' name='.' posn='260'>
	))
</Sentence>

