<Sentence id='1'>
1	((	NP	<fs name='NP' drel='vmod:VGF2'>
1.1	rAjaXAnI	NN	<fs af='rAjaXAnI,n,f,sg,3,d,0,0' name='rAjaXAnI' posn='10'>
1.2	xillI	NNP	<fs af='xillI,n,f,sg,3,o,0,0' name='xillI' posn='20'>
1.3	samewa	PSP	<fs af='samewa,psp,,,,,,' name='samewa' posn='30'>
	))
2	((	NP	<fs name='NP2' drel='r6:NP3'>
2.1	xeSa	NN	<fs af='xeSa,n,m,sg,3,o,0,0' name='xeSa' posn='40'>
2.2	ke	PSP	<fs af='kA,psp,m,pl,,o,,' name='ke' posn='50'>
	))
3	((	NP	<fs name='NP3' drel='k5:VGF2'>
3.1	wamAma	QF	<fs af='wamAma,avy,,,,,,' name='wamAma' posn='60'>
3.2	rAjyoM	NN	<fs af='rAjya,n,m,pl,3,o,0,0' name='rAjyoM' posn='70'>
3.3	se	PSP	<fs af='se,psp,,,,,,' name='se' posn='80'>
	))
4	((	NP	<fs name='NP4' drel='k2:VGF2'>
4.1	vivAxiwa	JJ	<fs af='vivAxiwa,adj,any,any,,d,,' name='vivAxiwa' posn='90'>
4.2	Pilma	NN	<fs af='Pilma,n,f,sg,3,d,0,0' name='Pilma' posn='100'>
	))
5	((	NP	<fs name='NP5' drel='k1:VGF'>
5.1	'	SYM	<fs af='SINGLE_QUOTE,punc,,,,,,' name=''' posn='110'>
5.2	jo	PRP	<fs af='jo,pn,any,sg,3,d,0,0' name='jo' posn='120'>
	))
6	((	VGF	<fs voicetype='active' name='VGF' stype='declarative' drel='ccof:CCP'>
6.1	bole	VM	<fs af='bola,v,m,sg,3,,yA,yA' name='bole' posn='130'>
	))
7	((	CCP	<fs name='CCP' drel='rs:NP4'>
7.1	so	CC	<fs af='so,avy,,,,,,' name='so' posn='140'>
	))
8	((	JJP	<fs name='JJP' drel='pof:NULL__VGF'>
8.1	nihAla	JJ	<fs af='nihAla,adj,any,any,,,,' name='nihAla' posn='150'>
8.2	'	SYM	<fs af='SINGLE_QUOTE,punc,,,,,,' name=''2' posn='160'>
	))
9	((	NULL__VGF	<fs mtype='gap' troot='hE' dmrel='ccof:CCP' name='NULL__VGF'>
9.1	NULL	VM	<fs name='NULL'>
	))
10	((	VGF	<fs name='VGF2' stype='declarative' voicetype='passive'>
10.1	hatA	VM	<fs af='hatA,v,any,any,any,,0,0' name='hatA' posn='170'>
10.2	lI	VAUX	<fs af='le,v,f,sg,any,,yA,yA' name='lI' posn='180'>
10.3	gaI	VAUX	<fs af='jA,v,f,sg,any,,yA1,yA1' name='gaI' posn='190'>
10.4	hE	VAUX	<fs af='hE,v,any,sg,3,,hE,hE' name='hE' posn='200'>
	))
11	((	BLK	<fs name='BLK' drel='rsym:VGF2'>
11.1	.	SYM	<fs af='.,punc,,,,,,' name='.' posn='210'>
	))
</Sentence>

<Sentence id='2'>
1	((	NP	<fs name='NP' drel='sent-adv:VGF'>
1.1	isI	PRP	<fs af='yaha,pn,any,sg,3,o,0,0' name='isI' posn='10'>
1.2	ke	PSP	<fs af='ke,psp,,,,,,' name='ke' posn='20'>
1.3	sAWa	NST	<fs af='sAWa,nst,m,sg,3,d,,' name='sAWa' posn='30'>
	))
2	((	NP	<fs name='NP2' drel='r6:NP3'>
2.1	saBI	QF	<fs af='saBI,avy,,,,,,' name='saBI' posn='40'>
2.2	sinemA	NNC	<fs af='sinemA,n,m,sg,3,d,0,0' name='sinemA' posn='50'>
2.3	hOYloM	NN	<fs af='hOYla,n,m,pl,3,o,0,0' name='hOYloM' posn='60'>
2.4	kI	PSP	<fs af='kA,psp,f,sg,,d,,' name='kI' posn='70'>
	))
3	((	NP	<fs name='NP3' drel='k2:VGF'>
3.1	surakRA	NN	<fs af='surakRA,n,f,sg,3,d,0,0' name='surakRA' posn='80'>
3.2	BI	RP	<fs af='BI,avy,,,,,,' name='BI' posn='90'>
	))
4	((	VGF	<fs name='VGF' stype='declarative' voicetype='passive'>
4.1	baDZA	VM	<fs af='baDZA,v,any,any,any,,0,0' name='baDZA' posn='100'>
4.2	xI	VAUX	<fs af='xe,v,f,sg,any,,yA,yA' name='xI' posn='110'>
4.3	gaI	VAUX	<fs af='jA,v,f,sg,any,,yA1,yA1' name='gaI' posn='120'>
4.4	hE	VAUX	<fs af='hE,v,any,sg,3,,hE,hE' name='hE' posn='130'>
	))
5	((	BLK	<fs name='BLK' drel='rsym:VGF'>
5.1	.	SYM	<fs af='.,punc,,,,,,' name='.' posn='140'>
	))
</Sentence>

<Sentence id='3'>
1	((	NP	<fs name='NP' drel='k7p:VGNF'>
1.1	xillI	NNP	<fs af='xillI,n,f,sg,3,o,0,0' name='xillI' posn='10'>
1.2	meM	PSP	<fs af='meM,psp,,,,,,' name='meM' posn='20'>
	))
2	((	NP	<fs name='NP2' drel='ccof:CCP'>
2.1	sawyama	NNP	<fs af='sawyama,n,m,sg,3,o,0,0' name='sawyama' posn='30'>
	))
3	((	CCP	<fs name='CCP' drel='nmod:NP4'>
3.1	va	CC	<fs af='va,avy,,,,,,' name='va' posn='40'>
	))
4	((	NP	<fs name='NP3' drel='ccof:CCP'>
4.1	libartI	NNP	<fs af='libartI,n,m,sg,3,o,0,0' name='libartI' posn='50'>
	))
5	((	NP	<fs name='NP4' drel='k7p:VGNF'>
5.1	sinemA	NN	<fs af='sinemA,n,m,sg,3,o,0,0' name='sinemA' posn='60'>
5.2	meM	PSP	<fs af='meM,psp,,,,,,' name='meM2' posn='70'>
	))
6	((	VGNF	<fs name='VGNF' drel='nmod__k1inv:NP5'>
6.1	bIwI	VM	<fs af='bIwa,v,f,sg,any,,yA,yA' name='bIwI' posn='80'>
	))
7	((	NP	<fs name='NP5' drel='k7t:VGF'>
7.1	rAwa	NN	<fs af='rAwa,n,f,sg,3,d,0,0' name='rAwa' posn='90'>
	))
8	((	NP	<fs name='NP6' drel='k7t:VGF'>
8.1	visPota	NN	<fs af='visPota,n,m,sg,3,o,0,0' name='visPota' posn='100'>
8.2	ke	PSP	<fs af='ke,psp,,,,,,' name='ke' posn='110'>
8.3	bAxa	NST	<fs af='bAxa,nst,m,sg,3,d,,' name='bAxa' posn='120'>
	))
9	((	NP	<fs name='NP7' drel='ccof:CCP2'>
9.1	sinemA	NNC	<fs af='sinemA,n,m,sg,3,d,0,0' name='sinemA2' posn='130'>
9.2	hOYla	NNC	<fs af='hOYla,n,m,sg,3,d,0,0' name='hOYla' posn='140'>
9.3	mAlikoM	NN	<fs af='mAlika,n,m,pl,3,o,0,0' name='mAlikoM' posn='150'>
	))
10	((	CCP	<fs name='CCP2' drel='k1:VGF'>
10.1	Ora	CC	<fs af='Ora,avy,,,,,,' name='Ora' posn='160'>
	))
11	((	NP	<fs name='NP8' drel='ccof:CCP2'>
11.1	distrIbyUtaroM	NN	<fs af='distrIbyUtara,n,m,pl,3,o,0,0' name='distrIbyUtaroM' posn='170'>
11.2	ne	PSP	<fs af='ne,psp,,,,,,' name='ne' posn='180'>
	))
12	((	NP	<fs name='NP9' drel='k2:VGF'>
12.1	yaha	DEM	<fs af='yaha,pn,any,sg,3,d,,' name='yaha' posn='190'>
12.2	kaxama	NN	<fs af='kaxama,n,m,sg,3,d,0,0' name='kaxama' posn='200'>
	))
13	((	VGF	<fs name='VGF' stype='declarative' voicetype='active'>
13.1	uTAyA	VM	<fs af='uTA,v,m,sg,any,,yA,yA' name='uTAyA' posn='210'>
13.2	hE	VAUX	<fs af='hE,v,any,sg,3,,hE,hE' name='hE' posn='220'>
	))
14	((	BLK	<fs name='BLK' drel='rsym:VGF'>
14.1	.	SYM	<fs af='.,punc,,,,,,' name='.' posn='230'>
	))
</Sentence>

<Sentence id='4'>
1	((	CCP	<fs name='CCP'>
1.1	jabaki	CC	<fs af='jabaki,avy,,,,,,' name='jabaki' posn='10'>
	))
2	((	NP	<fs name='NP' drel='ccof:CCP2'>
2.1	hariyANA	NNP	<fs af='hariyANA,n,m,sg,3,o,0,0' name='hariyANA' posn='20'>
2.2	,	SYM	<fs af='COMMA,punc,,,,,,' name=',' posn='30'>
	))
3	((	NP	<fs name='NP2' drel='ccof:CCP2'>
3.1	paMjAba	NNP	<fs af='paMjAba,n,m,sg,3,o,0,0' name='paMjAba' posn='40'>
	))
4	((	CCP	<fs name='CCP2' drel='k7p:VGF'>
4.1	va	CC	<fs af='va,avy,,,,,,' name='va' posn='50'>
	))
5	((	NP	<fs name='NP3' drel='ccof:CCP2'>
5.1	jammU	NNP	<fs af='jammU,n,m,sg,3,o,0,0' name='jammU' posn='60'>
5.2	meM	PSP	<fs af='meM,psp,,,,,,' name='meM' posn='70'>
	))
6	((	NP	<fs name='NP4' drel='k1:VGF'>
6.1	yaha	DEM	<fs af='yaha,pn,any,sg,3,d,,' name='yaha' posn='80'>
6.2	Pilma	NN	<fs af='Pilma,n,f,sg,3,d,0,0' name='Pilma' posn='90'>
	))
7	((	NP	<fs name='NP5' drel='k1:VGNF'>
7.1	vivAxa	NN	<fs af='vivAxa,n,m,sg,3,d,0,0' name='vivAxa' posn='100'>
	))
8	((	NP	<fs name='NP6' drel='pof:VGNF'>
8.1	SurU	NN	<fs af='SurU,n,m,sg,3,d,0,0' name='SurU' posn='110'>
	))
9	((	VGNF	<fs name='VGNF' drel='vmod:VGF'>
9.1	howe	VM	<fs af='ho,v,m,sg,any,,wA,wA' name='howe' posn='120'>
9.2	hI	RP	<fs af='hI,avy,,,,,,' name='hI' posn='130'>
	))
10	((	VGF	<fs voicetype='passive' name='VGF' stype='declarative' drel='ccof:CCP'>
10.1	hatA	VM	<fs af='hatA,v,any,any,any,,0,0' name='hatA' posn='140'>
10.2	lI	VAUX	<fs af='le,v,f,sg,any,,yA,yA' name='lI' posn='150'>
10.3	gaI	VAUX	<fs af='jA,v,f,sg,any,,yA1,yA1' name='gaI' posn='160'>
10.4	WI	VAUX	<fs af='WA,v,f,sg,any,,WA,WA' name='WI' posn='170'>
	))
11	((	BLK	<fs name='BLK' drel='rsym:CCP'>
11.1	.	SYM	<fs af='.,punc,,,,,,' name='.' posn='180'>
	))
</Sentence>

<Sentence id='5'>
1	((	NP	<fs name='NP' drel='r6:NP2'>
1.1	veva	NNP	<fs af='veva,n,m,sg,3,d,0,0' name='veva' posn='10'>
1.2	sinemA	NN	<fs af='sinemA,n,m,sg,3,o,0,0' name='sinemA' posn='20'>
1.3	ke	PSP	<fs af='kA,psp,m,sg,,o,,' name='ke' posn='30'>
	))
2	((	NP	<fs name='NP2' drel='k1:VGF'>
2.1	pravakwA	NN	<fs af='pravakwA,n,m,sg,3,o,0,0' name='pravakwA' posn='40'>
2.2	ne	PSP	<fs af='ne,psp,,,,,,' name='ne' posn='50'>
	))
3	((	VGF	<fs name='VGF' stype='declarative' voicetype='active'>
3.1	bawAyA	VM	<fs af='bawA,v,m,sg,any,,yA,yA' name='bawAyA' posn='60'>
	))
4	((	CCP	<fs name='CCP' drel='k2:VGF'>
4.1	ki	CC	<fs af='ki,avy,,,,,,' name='ki' posn='70'>
	))
5	((	NP	<fs name='NP3' drel='r6:NP4'>
5.1	xillI	NNP	<fs af='xillI,n,f,sg,3,o,0,0' name='xillI' posn='80'>
5.2	ke	PSP	<fs af='kA,psp,m,pl,,o,,' name='ke2' posn='90'>
	))
6	((	NP	<fs name='NP4' drel='k5:VGF2'>
6.1	saBI	QF	<fs af='saBI,avy,,,,,,' name='saBI' posn='100'>
6.2	sinemA	NNC	<fs af='sinemA,n,m,sg,3,d,0,0' name='sinemA2' posn='110'>
6.3	hOYla	NN	<fs af='hOYla,n,m,sg,3,o,0,0' name='hOYla' posn='120'>
6.4	se	PSP	<fs af='se,psp,,,,,,' name='se' posn='130'>
	))
7	((	NP	<fs name='NP5' drel='r6:NP6'>
7.1	isa	DEM	<fs af='yaha,pn,any,sg,3,o,,' name='isa' posn='140'>
7.2	Pilma	NN	<fs af='Pilma,n,f,sg,3,o,0,0' name='Pilma' posn='150'>
7.3	ke	PSP	<fs af='kA,psp,m,pl,,d,,' name='ke3' posn='160'>
	))
8	((	NP	<fs name='NP6' drel='k2:VGF2'>
8.1	priMta	NN	<fs af='priMta,n,m,pl,3,d,0,0' name='priMta' posn='170'>
	))
9	((	JJP	<fs name='JJP' drel='pof:VGF2'>
9.1	vApasa	JJ	<fs af='vApasa,adj,any,any,,,,' name='vApasa' posn='180'>
	))
10	((	VGF	<fs voicetype='passive' name='VGF2' stype='declarative' drel='ccof:CCP'>
10.1	maMgA	VM	<fs af='maMgA,v,m,pl,3,,0,0' name='maMgA' posn='190'>
10.2	lie	VAUX	<fs af='le,v,m,pl,any,,yA,yA' name='lie' posn='200'>
10.3	gae	VAUX	<fs af='jA,v,m,pl,any,,yA1,yA1' name='gae' posn='210'>
10.4	hEM	VAUX	<fs af='hE,v,any,pl,3,,hE,hE' name='hEM' posn='220'>
	))
11	((	BLK	<fs name='BLK' drel='rsym:VGF'>
11.1	.	SYM	<fs af='.,punc,,,,,,' name='.' posn='230'>
	))
</Sentence>

<Sentence id='6'>
1	((	NP	<fs name='NP' drel='jjmod:JJP'>
1.1	xillI	NNP	<fs af='xillI,n,f,sg,3,d,0,0' name='xillI' posn='10'>
1.2	geta	NN	<fs af='geta,n,m,sg,3,d,0,0' name='geta' posn='20'>
	))
2	((	JJP	<fs name='JJP' drel='nmod:NP2'>
2.1	sWiwa	JJ	<fs af='sWiwa,adj,any,any,,o,,' name='sWiwa' posn='30'>
	))
3	((	NP	<fs name='NP2' drel='k7p:VGF'>
3.1	'	SYM	<fs af='SINGLE_QUOTE,punc,,,,,,' name=''' posn='40'>
3.2	dilAita	NNP	<fs af='dilAita,n,m,sg,3,d,0,0' name='dilAita' posn='50'>
3.3	'	SYM	<fs af='SINGLE_QUOTE,punc,,,,,,' name=''2' posn='60'>
3.4	sinemA	NN	<fs af='sinemA,n,m,sg,3,o,0,0' name='sinemA' posn='70'>
3.5	meM	PSP	<fs af='meM,psp,,,,,,' name='meM' posn='80'>
	))
4	((	NP	<fs name='NP3' drel='k7t:VGF'>
4.1	somavAra	NNP	<fs af='somavAra,n,m,sg,3,o,0,0' name='somavAra' posn='90'>
4.2	ko	PSP	<fs af='ko,psp,,,,,,' name='ko' posn='100'>
	))
5	((	NP	<fs name='NP4' drel='k5:VGF'>
5.1	pahale	QO	<fs af='pahalA,num,m,sg,,o,,' name='pahale' posn='110'>
5.2	So	NN	<fs af='So,n,m,sg,3,o,0,0' name='So' posn='120'>
5.3	se	PSP	<fs af='se,psp,,,,,,' name='se' posn='130'>
5.4	hI	RP	<fs af='hI,avy,,,,,,' name='hI' posn='140'>
	))
6	((	NP	<fs name='NP5' drel='ccof:CCP'>
6.1	amiwABa	NNPC	<fs af='amiwABa,n,m,sg,3,d,0,0' name='amiwABa' posn='150'>
6.2	baccana	NNP	<fs af='baccana,n,m,sg,3,d,0,0' name='baccana' posn='160'>
	))
7	((	CCP	<fs name='CCP' drel='jjmod:NP7'>
7.1	va	CC	<fs af='va,avy,,,,,,' name='va' posn='170'>
	))
8	((	NP	<fs name='NP6' drel='ccof:CCP'>
8.1	akRaya	NNPC	<fs af='akRaya,n,m,sg,3,d,0,0' name='akRaya' posn='180'>
8.2	kumAra	NNP	<fs af='kumAra,n,m,sg,3,d,0,0' name='kumAra' posn='190'>
	))
9	((	NP	<fs name='NP7' drel='nmod:NP8'>
9.1	aBinIwa	JJ	<fs af='aBinIwa,adj,any,any,,d,,' name='aBinIwa' posn='200'>
9.2	Pilma	NN	<fs af='Pilma,n,f,sg,3,d,0,0' name='Pilma' posn='210'>
	))
10	((	NP	<fs name='NP8' drel='k2:VGF'>
10.1	'	SYM	<fs af='SINGLE_QUOTE,punc,,,,,,' name=''3' posn='220'>
10.2	vakwa	NNP	<fs af='vakwa,n,m,sg,3,d,0,0' name='vakwa' posn='230'>
10.3	'	SYM	<fs af='SINGLE_QUOTE,punc,,,,,,' name=''4' posn='240'>
	))
11	((	VGF	<fs name='VGF' stype='declarative' voicetype='passive'>
11.1	lagA	VM	<fs af='lagA,v,any,any,any,,0,0' name='lagA' posn='250'>
11.2	xI	VAUX	<fs af='xe,v,f,sg,any,,yA,yA' name='xI' posn='260'>
11.3	gaI	VAUX	<fs af='jA,v,f,sg,any,,yA1,yA1' name='gaI' posn='270'>
	))
12	((	BLK	<fs name='BLK' drel='rsym:VGF'>
12.1	.	SYM	<fs af='.,punc,,,,,,' name='.' posn='280'>
	))
</Sentence>

<Sentence id='7'>
1	((	NP	<fs name='NP' drel='r6:NP2'>
1.1	xeSa	NN	<fs af='xeSa,n,m,sg,3,o,0,0' name='xeSa' posn='10'>
1.2	ke	PSP	<fs af='kA,psp,m,pl,,o,,' name='ke' posn='20'>
	))
2	((	NP	<fs name='NP2' drel='k5:VGF'>
2.1	anya	JJ	<fs af='anya,adj,any,any,,o,,' name='anya' posn='30'>
2.2	pramuKa	JJ	<fs af='pramuKa,adj,any,any,,o,,' name='pramuKa' posn='40'>
2.3	SaharoM	NN	<fs af='Sahara,n,m,pl,3,o,0,0' name='SaharoM' posn='50'>
2.4	se	PSP	<fs af='se,psp,,,,,,' name='se' posn='60'>
2.5	BI	RP	<fs af='BI,avy,,,,,,' name='BI' posn='70'>
	))
3	((	NP	<fs name='NP3' drel='k2:VGNN'>
3.1	isa	DEM	<fs af='yaha,pn,any,sg,3,o,,' name='isa' posn='80'>
3.2	Pilma	NN	<fs af='Pilma,n,f,sg,3,o,0,0' name='Pilma' posn='90'>
3.3	ko	PSP	<fs af='ko,psp,,,,,,' name='ko' posn='100'>
	))
4	((	VGNN	<fs name='VGNN' drel='r6-k1:NP4'>
4.1	hatA	VM	<fs af='hatA,v,any,any,any,,0,0' name='hatA' posn='110'>
4.2	lie	VAUX	<fs af='le,v,m,sg,any,,yA,yA' name='lie' posn='120'>
4.3	jAne	VAUX	<fs af='jA,v,any,any,any,o,nA,nA' name='jAne' posn='130'>
4.4	kI	PSP	<fs af='kA,psp,f,sg,,d,,' name='kI' posn='140'>
	))
5	((	NP	<fs name='NP4' drel='pof:VGF'>
5.1	puRti	NN	<fs af='puRti,n,f,sg,3,d,0,0' name='puRti' posn='150'>
	))
6	((	VGF	<fs name='VGF' stype='declarative' voicetype='active'>
6.1	huI	VM	<fs af='ho,v,f,sg,any,,yA,yA' name='huI' posn='160'>
6.2	hE	VAUX	<fs af='hE,v,any,sg,3,,hE,hE' name='hE' posn='170'>
	))
7	((	BLK	<fs name='BLK' drel='rsym:VGF'>
7.1	.	SYM	<fs af='.,punc,,,,,,' name='.' posn='180'>
	))
</Sentence>

<Sentence id='8'>
1	((	NP	<fs name='NP' drel='r6:NP2'>
1.1	himAcala	NNPC	<fs af='himAcala,n,m,sg,3,d,0,0' name='himAcala' posn='10'>
1.2	praxeSa	NNP	<fs af='praxeSa,n,m,sg,3,o,0,0' name='praxeSa' posn='20'>
1.3	ke	PSP	<fs af='kA,psp,m,pl,,o,,' name='ke' posn='30'>
	))
2	((	NP	<fs name='NP2' drel='k5:VGF'>
2.1	hOYloM	NN	<fs af='hOYla,n,m,pl,3,o,0,0' name='hOYloM' posn='40'>
2.2	se	PSP	<fs af='se,psp,,,,,,' name='se' posn='50'>
	))
3	((	NP	<fs name='NP3' drel='k2:VGF'>
3.1	Pilma	NN	<fs af='Pilma,n,f,sg,3,d,0,0' name='Pilma' posn='60'>
	))
4	((	VGF	<fs name='VGF' stype='declarative' voicetype='passive'>
4.1	uwAra	VM	<fs af='uwAra,v,any,any,any,,0,0' name='uwAra' posn='70'>
4.2	lI	VAUX	<fs af='le,v,f,sg,any,,yA,yA' name='lI' posn='80'>
4.3	gaI	VAUX	<fs af='jA,v,f,sg,any,,yA1,yA1' name='gaI' posn='90'>
4.4	hE	VAUX	<fs af='hE,v,any,sg,3,,hE,hE' name='hE' posn='100'>
	))
5	((	BLK	<fs name='BLK' drel='rsym:VGF'>
5.1	.	SYM	<fs af='.,punc,,,,,,' name='.' posn='110'>
	))
</Sentence>

<Sentence id='9'>
1	((	NP	<fs name='NP' drel='k7p:VGNF'>
1.1	muMbaI	NNP	<fs af='muMbaI,n,f,sg,3,o,0,0' name='muMbaI' posn='10'>
1.2	meM	PSP	<fs af='meM,psp,,,,,,' name='meM' posn='20'>
	))
2	((	NP	<fs name='NP2' drel='k2:VGNF'>
2.1	kuCa	QF	<fs af='kuCa,avy,,,,,,' name='kuCa' posn='30'>
2.2	sinemA	NNC	<fs af='sinemA,n,m,sg,3,d,0,0' name='sinemA' posn='40'>
2.3	hOYla	NN	<fs af='hOYla,n,m,pl,3,d,0,0' name='hOYla' posn='50'>
	))
3	((	VGNF	<fs name='VGNF' drel='vmod:VGF'>
3.1	CodZakara	VM	<fs af='CodZa,v,any,any,any,,kara,kara' name='CodZakara' posn='60'>
	))
4	((	NP	<fs name='NP3' drel='k5:VGF'>
4.1	SeRa	NN	<fs af='SeRa,n,m,sg,3,o,0,0' name='SeRa' posn='70'>
4.2	se	PSP	<fs af='se,psp,,,,,,' name='se' posn='80'>
	))
5	((	NP	<fs name='NP4' drel='k2:VGF'>
5.1	yaha	DEM	<fs af='yaha,pn,any,sg,3,d,,' name='yaha' posn='90'>
5.2	Pilma	NN	<fs af='Pilma,n,f,sg,3,d,0,0' name='Pilma' posn='100'>
	))
6	((	VGF	<fs name='VGF' stype='declarative' voicetype='passive'>
6.1	hatA	VM	<fs af='hatA,v,any,any,any,,0,0' name='hatA' posn='110'>
6.2	lI	VAUX	<fs af='le,v,f,sg,any,,yA,yA' name='lI' posn='120'>
6.3	gaI	VAUX	<fs af='jA,v,f,sg,any,,yA1,yA1' name='gaI' posn='130'>
6.4	hE	VAUX	<fs af='hE,v,any,sg,3,,hE,hE' name='hE' posn='140'>
	))
7	((	BLK	<fs name='BLK' drel='rsym:VGF'>
7.1	.	SYM	<fs af='.,punc,,,,,,' name='.' posn='150'>
	))
</Sentence>

<Sentence id='10'>
1	((	NP	<fs name='NP' drel='k1:VGF'>
1.1	paScima	NNPC	<fs af='paScima,n,m,sg,3,d,0,0' name='paScima' posn='10'>
1.2	baMgAla	NNP	<fs af='baMgAla,n,m,sg,3,d,0,0' name='baMgAla' posn='20'>
1.3	sarakAra	NN	<fs af='sarakAra,n,f,sg,3,o,0,0' name='sarakAra' posn='30'>
1.4	ne	PSP	<fs af='ne,psp,,,,,,' name='ne' posn='40'>
	))
2	((	NP	<fs name='NP2' drel='r6:NP3'>
2.1	apane	PRP	<fs af='apanA,pn,m,any,any,o,0,0' name='apane' posn='50'>
	))
3	((	NP	<fs name='NP3' drel='k7a:VGF'>
3.1	eka	QC	<fs af='eka,num,any,any,,any,,' name='eka' posn='60'>
3.2	AxeSa	NN	<fs af='AxeSa,n,m,sg,3,o,0,0' name='AxeSa' posn='70'>
3.3	ke	PSP	<fs af='ke,psp,,,,,,' name='ke' posn='80'>
3.4	wahawa	PSP	<fs af='wahawa,psp,,,,,,' name='wahawa' posn='90'>
	))
4	((	NP	<fs name='NP4' drel='r6:NP5'>
4.1	isa	DEM	<fs af='yaha,pn,any,sg,3,o,,' name='isa' posn='100'>
4.2	Pilma	NN	<fs af='Pilma,n,f,sg,3,o,0,0' name='Pilma' posn='110'>
4.3	ke	PSP	<fs af='kA,psp,m,sg,,o,,' name='ke2' posn='120'>
	))
5	((	NP	<fs name='NP5' drel='k7:VGF'>
5.1	praxarSana	NN	<fs af='praxarSana,n,m,sg,3,o,0,0' name='praxarSana' posn='130'>
5.2	para	PSP	<fs af='para,psp,,,,,,' name='para' posn='140'>
	))
6	((	NP	<fs name='NP6' drel='pof:VGF'>
6.1	roka	NN	<fs af='roka,n,f,sg,3,d,0,0' name='roka' posn='150'>
	))
7	((	VGF	<fs name='VGF' stype='declarative' voicetype='active'>
7.1	lagA	VM	<fs af='lagA,v,any,any,any,,0,0' name='lagA' posn='160'>
7.2	xI	VAUX	<fs af='xe,v,f,sg,any,,yA,yA' name='xI' posn='170'>
7.3	hE	VAUX	<fs af='hE,v,any,sg,3,,hE,hE' name='hE' posn='180'>
	))
8	((	BLK	<fs name='BLK' drel='rsym:VGF'>
8.1	.	SYM	<fs af='.,punc,,,,,,' name='.' posn='190'>
	))
</Sentence>

<Sentence id='11'>
1	((	NP	<fs name='NP' drel='vmod:VGF'>
1.1	kolakAwA	NNP	<fs af='kolakAwA,n,m,sg,3,o,0,0' name='kolakAwA' posn='10'>
1.2	samewa	PSP	<fs af='samewa,psp,,,,,,' name='samewa' posn='20'>
	))
2	((	NP	<fs name='NP2' drel='r6:NP3'>
2.1	rAjya	NN	<fs af='rAjya,n,m,sg,3,o,0,0' name='rAjya' posn='30'>
2.2	ke	PSP	<fs af='kA,psp,m,pl,,o,,' name='ke' posn='40'>
	))
3	((	NP	<fs name='NP3' drel='k5:VGF'>
3.1	saBI	QF	<fs af='saBI,avy,,,,,,' name='saBI' posn='50'>
3.2	hOYloM	NN	<fs af='hOYla,n,m,pl,3,o,0,0' name='hOYloM' posn='60'>
3.3	se	PSP	<fs af='se,psp,,,,,,' name='se' posn='70'>
	))
4	((	NP	<fs name='NP4' drel='k1:VGF'>
4.1	yaha	DEM	<fs af='yaha,pn,any,sg,3,d,,' name='yaha' posn='80'>
4.2	Pilma	NN	<fs af='Pilma,n,f,sg,3,d,0,0' name='Pilma' posn='90'>
	))
5	((	VGF	<fs name='VGF' stype='declarative' voicetype='active'>
5.1	hata	VM	<fs af='hata,v,any,any,any,,0,0' name='hata' posn='100'>
5.2	cukI	VAUX	<fs af='cuka,v,f,sg,any,,yA,yA' name='cukI' posn='110'>
5.3	hE	VAUX	<fs af='hE,v,any,sg,3,,hE,hE' name='hE' posn='120'>
	))
6	((	BLK	<fs name='BLK' drel='rsym:VGF'>
6.1	.	SYM	<fs af='.,punc,,,,,,' name='.' posn='130'>
	))
</Sentence>

<Sentence id='12'>
1	((	NP	<fs name='NP' drel='r6:NP2'>
1.1	uwwara	NNPC	<fs af='uwwara,n,m,sg,3,d,0,0' name='uwwara' posn='10'>
1.2	praxeSa	NNP	<fs af='praxeSa,n,m,sg,3,o,0,0' name='praxeSa' posn='20'>
1.3	ke	PSP	<fs af='kA,psp,m,pl,,o,,' name='ke' posn='30'>
	))
2	((	NP	<fs name='NP2' drel='ccof:CCP'>
2.1	kAnapura	NNP	<fs af='kAnapura,n,m,sg,3,o,0,0' name='kAnapura' posn='40'>
2.2	,	SYM	<fs af='COMMA,punc,,,,,,' name=',' posn='50'>
	))
3	((	NP	<fs name='NP3' drel='ccof:CCP'>
3.1	laKanaU	NNP	<fs af='laKanaU,n,m,sg,3,o,0,0' name='laKanaU' posn='60'>
	))
4	((	CCP	<fs name='CCP' drel='vmod:VGF'>
4.1	va	CC	<fs af='va,avy,,,,,,' name='va' posn='70'>
	))
5	((	NP	<fs name='NP4' drel='ccof:CCP'>
5.1	vArANasI	NNP	<fs af='vArANasI,n,m,sg,3,o,0,0' name='vArANasI' posn='80'>
5.2	ke	PSP	<fs af='ke,psp,,,,,,' name='ke2' posn='90'>
5.3	alAvA	PSP	<fs af='alAvA,psp,,,,,,' name='alAvA' posn='100'>
	))
6	((	NP	<fs name='NP5' drel='k7p:VGF'>
6.1	wamAma	QF	<fs af='wamAma,avy,,,,,,' name='wamAma' posn='110'>
6.2	SaharoM	NN	<fs af='Sahara,n,m,pl,3,o,0,0' name='SaharoM' posn='120'>
6.3	meM	PSP	<fs af='meM,psp,,,,,,' name='meM' posn='130'>
	))
7	((	NP	<fs name='NP6' drel='k2:VGF'>
7.1	Pilma	NN	<fs af='Pilma,n,f,sg,3,d,0,0' name='Pilma' posn='140'>
	))
8	((	VGF	<fs name='VGF' stype='declarative' voicetype='passive'>
8.1	hatA	VM	<fs af='hatA,v,any,any,any,,0,0' name='hatA' posn='150'>
8.2	lI	VAUX	<fs af='le,v,f,sg,any,,yA,yA' name='lI' posn='160'>
8.3	gaI	VAUX	<fs af='jA,v,f,sg,any,,yA1,yA1' name='gaI' posn='170'>
8.4	hE	VAUX	<fs af='hE,v,any,sg,3,,hE,hE' name='hE' posn='180'>
	))
9	((	BLK	<fs name='BLK' drel='rsym:VGF'>
9.1	.	SYM	<fs af='.,punc,,,,,,' name='.' posn='190'>
	))
</Sentence>

<Sentence id='13'>
1	((	NP	<fs name='NP' drel='r6:NP2'>
1.1	uwwarAMcala	NNP	<fs af='uwwarAMcala,n,m,sg,3,o,0,0' name='uwwarAMcala' posn='10'>
1.2	ke	PSP	<fs af='kA,psp,m,pl,,o,,' name='ke' posn='20'>
	))
2	((	NP	<fs name='NP2' drel='ccof:CCP'>
2.1	pramuKa	JJ	<fs af='pramuKa,adj,any,any,,o,,' name='pramuKa' posn='30'>
2.2	SaharoM	NN	<fs af='Sahara,n,m,pl,3,o,0,0' name='SaharoM' posn='40'>
	))
3	((	CCP	<fs name='CCP' drel='r6:NP4'>
3.1	va	CC	<fs af='va,avy,,,,,,' name='va' posn='50'>
	))
4	((	NP	<fs name='NP3' drel='ccof:CCP'>
4.1	rAjaXAnI	NN	<fs af='rAjaXAnI,n,f,sg,3,d,0,0' name='rAjaXAnI' posn='60'>
4.2	xeharAxUna	NNP	<fs af='xeharAxUna,n,m,sg,3,o,0,0' name='xeharAxUna' posn='70'>
4.3	kI	PSP	<fs af='kA,psp,f,sg,,d,,' name='kI' posn='80'>
4.4	BI	RP	<fs af='BI,avy,,,,,,' name='BI' posn='90'>
	))
5	((	NP	<fs name='NP4' drel='k1:VGF'>
5.1	yahI	DEM	<fs af='yaha,pn,any,sg,3,d,,' name='yahI' posn='100'>
5.2	sWiwi	NN	<fs af='sWiwi,n,f,sg,3,d,0,0' name='sWiwi' posn='110'>
	))
6	((	VGF	<fs name='VGF' stype='declarative' voicetype='active'>
6.1	hE	VM	<fs af='hE,v,any,sg,3,,hE,hE' name='hE' posn='120'>
	))
7	((	BLK	<fs name='BLK' drel='rsym:VGF'>
7.1	.	SYM	<fs af='.,punc,,,,,,' name='.' posn='130'>
	))
</Sentence>

<Sentence id='14'>
1	((	NP	<fs name='NP' drel='r6:NP2'>
1.1	mahArARtra	NNP	<fs af='mahArARtra,n,m,sg,3,o,0,0' name='mahArARtra' posn='10'>
1.2	ke	PSP	<fs af='kA,psp,m,sg,,o,,' name='ke' posn='20'>
	))
2	((	NP	<fs name='NP2' drel='k7p:VGF'>
2.1	puNe	NNP	<fs af='puNe,n,m,sg,3,o,0,0' name='puNe' posn='30'>
2.2	meM	PSP	<fs af='meM,psp,,,,,,' name='meM' posn='40'>
	))
3	((	NP	<fs name='NP3' drel='k7p:VGF'>
3.1	wamAma	QF	<fs af='wamAma,avy,,,,,,' name='wamAma' posn='50'>
3.2	maltIpalekseja	NN	<fs af='maltIpaleksa,n,m,pl,3,o,0,0' name='maltIpalekseja' posn='60'>
3.3	meM	PSP	<fs af='meM,psp,,,,,,' name='meM2' posn='70'>
	))
4	((	NP	<fs name='NP4' drel='k7t:VGF'>
4.1	aba	PRP	<fs af='aba,pn,,,,d,,' name='aba' posn='80'>
	))
5	((	NP	<fs name='NP5' drel='r6:NP6'>
5.1	isakI	PRP	<fs af='yaha,pn,f,sg,3,o,kA,kA' name='isakI' posn='90'>
	))
6	((	NP	<fs name='NP6' drel='k7:VGF'>
6.1	jagaha	NN	<fs af='jagaha,n,f,sg,3,d,0,0' name='jagaha' posn='100'>
	))
7	((	NP	<fs name='NP7' drel='k1:VGF'>
7.1	koI	PRP	<fs af='koI,pn,any,sg,3,d,0,0' name='koI' posn='110'>
7.2	Ora	QF	<fs af='Ora,avy,,,,,,' name='Ora' posn='80'>
7.3	Pilma	NN	<fs af='Pilma,n,f,sg,3,d,0,0' name='Pilma' posn='130'>
	))
8	((	VGF	<fs name='VGF' stype='declarative' voicetype='active'>
8.1	cala	VM	<fs af='cala,v,any,any,any,,0,0' name='cala' posn='140'>
8.2	rahI	VAUX	<fs af='raha,v,f,sg,any,,yA,yA' name='rahI' posn='150'>
8.3	hE	VAUX	<fs af='hE,v,any,sg,3,,hE,hE' name='hE' posn='160'>
	))
9	((	BLK	<fs name='BLK' drel='rsym:VGF'>
9.1	.	SYM	<fs af='.,punc,,,,,,' name='.' posn='170'>
	))
</Sentence>

<Sentence id='15'>
1	((	NP	<fs name='NP' drel='ccof:NULL__CCP'>
1.1	nAsika	NNP	<fs af='nAsika,n,m,sg,3,o,0,0' name='nAsika' posn='10'>
1.2	,	SYM	<fs af='COMMA,punc,,,,,,' name=',' posn='20'>
	))
2	((	NP	<fs name='NP2' drel='ccof:NULL__CCP'>
2.1	cennaI	NNP	<fs af='cennaI,n,m,sg,3,o,0,0' name='cennaI' posn='30'>
2.2	,	SYM	<fs af='COMMA,punc,,,,,,' name=',2' posn='40'>
	))
3	((	NP	<fs name='NP3' drel='ccof:NULL__CCP'>
3.1	iMxOra	NNP	<fs af='iMxOra,n,m,sg,3,o,0,0' name='iMxOra' posn='50'>
3.2	,	SYM	<fs af='COMMA,punc,,,,,,' name=',3' posn='60'>
	))
4	((	NP	<fs name='NP4' drel='ccof:NULL__CCP'>
4.1	hExarAbAxa	NNP	<fs af='hExarAbAxa,n,m,sg,3,o,0,0' name='hExarAbAxa' posn='70'>
4.2	,	SYM	<fs af='COMMA,punc,,,,,,' name=',4' posn='80'>
	))
5	((	NP	<fs name='NP5' drel='ccof:NULL__CCP'>
5.1	baMgalOra	NNP	<fs af='baMgalOra,n,m,sg,3,o,0,0' name='baMgalOra' posn='90'>
5.2	,	SYM	<fs af='COMMA,punc,,,,,,' name=',5' posn='100'>
	))
6	((	NP	<fs name='NP6' drel='ccof:NULL__CCP'>
6.1	ahamaxAbAxa	NNP	<fs af='ahamaxAbAxa,n,m,sg,3,o,0,0' name='ahamaxAbAxa' posn='110'>
6.2	,	SYM	<fs af='COMMA,punc,,,,,,' name=',6' posn='120'>
	))
7	((	NULL__CCP	<fs mtype='gap' troot='Ora' dmrel='k7p:VGF' name='NULL__CCP' drel='k7p:VGF'>
7.1	NULL	CC	<fs name='NULL'>
	))
8	((	NP	<fs name='NP7' drel='ccof:NULL__CCP'>
8.1	rAjakota	NNP	<fs af='rAjakota,n,m,sg,3,o,0,0' name='rAjakota' posn='130'>
8.2	vagEraha	RP	<fs af='vagEraha,avy,,,,,,' name='vagEraha' posn='140'>
8.3	meM	PSP	<fs af='meM,psp,,,,,,' name='meM' posn='150'>
8.4	BI	RP	<fs af='BI,avy,,,,,,' name='BI' posn='160'>
	))
9	((	NP	<fs name='NP8' drel='r6:NP9'>
9.1	Pilma	NN	<fs af='Pilma,n,f,sg,3,o,0,0' name='Pilma' posn='170'>
9.2	kA	PSP	<fs af='kA,psp,m,sg,,d,,' name='kA' posn='180'>
	))
10	((	NP	<fs name='NP9' drel='k2:VGF'>
10.1	praxarSana	NN	<fs af='praxarSana,n,m,sg,3,d,0,0' name='praxarSana' posn='190'>
	))
11	((	NP	<fs name='NP10' drel='pof:VGF'>
11.1	roka	NN	<fs af='roka,n,f,sg,3,d,0,0' name='roka' posn='200'>
	))
12	((	VGF	<fs name='VGF' stype='declarative' voicetype='passive'>
12.1	xiyA	VM	<fs af='xe,v,m,sg,any,,yA,yA' name='xiyA' posn='210'>
12.2	gayA	VAUX	<fs af='jA,v,m,sg,any,,yA1,yA1' name='gayA' posn='220'>
12.3	hE	VAUX	<fs af='hE,v,any,sg,3,,hE,hE' name='hE' posn='230'>
	))
13	((	BLK	<fs name='BLK' drel='rsym:VGF'>
13.1	.	SYM	<fs af='.,punc,,,,,,' name='.' posn='240'>
	))
</Sentence>

