<Sentence id='1'>
1	((	NP	<fs name='NP' drel='k1:VGF'>
1.1	suprIma	NNPC	<fs af='suprIma,adj,any,any,,o,,' name='suprIma' posn='10'>
1.2	korta	NNP	<fs af='korta,n,f,sg,3,o,0,0' name='korta' posn='20'>
1.3	ne	PSP	<fs af='ne,psp,,,,,,' name='ne' posn='30'>
	))
2	((	NP	<fs name='NP2' drel='k7:VGNF'>
2.1	OYla	NNPC	<fs af='OYla,n,m,sg,3,d,0,0' name='OYla' posn='40'>
2.2	iMdiyA	NNPC	<fs af='iMdiyA,n,m,sg,3,d,0,0' name='iMdiyA' posn='50'>
2.3	posta	NNPC	<fs af='posta,n,m,sg,3,d,0,0' name='posta' posn='60'>
2.4	grejueta	NNPC	<fs af='grejueta,n,m,sg,3,d,0,0' name='grejueta' posn='70'>
2.5	medIkala	NNPC	<fs af='medIkala,n,m,sg,3,d,0,0' name='medIkala' posn='80'>
2.6	testa	NNP	<fs af='testa,n,m,sg,3,o,0,0' name='testa' posn='90'>
2.7	meM	PSP	<fs af='meM,psp,,,,,,' name='meM' posn='100'>
	))
3	((	JJP	<fs name='JJP' drel='pof:VGNF'>
3.1	uwwIrNa	JJ	<fs af='uwwIrNa,adj,any,any,,,,' name='uwwIrNa' posn='110'>
	))
4	((	VGNF	<fs name='VGNF' drel='nmod__k1inv:NP3'>
4.1	hue	VM	<fs af='ho,v,m,pl,any,,yA,yA' name='hue' posn='120'>
	))
5	((	NP	<fs name='NP3' drel='k4:VGNF2'>
5.1	CAwroM	NN	<fs af='CAwra,n,m,pl,3,o,0,0' name='CAwroM' posn='130'>
5.2	ko	PSP	<fs af='ko,psp,,,,,,' name='ko' posn='140'>
	))
6	((	NP	<fs name='NP4' drel='k2:VGNF2'>
6.1	rAhawa	NN	<fs af='rAhawa,n,f,sg,3,d,0,0' name='rAhawa' posn='150'>
	))
7	((	VGNF	<fs name='VGNF2' drel='vmod:VGF'>
7.1	xewe	VM	<fs af='xe,v,m,sg,any,,wA,wA' name='xewe' posn='160'>
7.2	hue	VAUX	<fs af='ho,v,m,sg,any,,yA,yA' name='hue2' posn='170'>
	))
8	((	NP	<fs name='NP5' drel='k7t:VGNF3'>
8.1	21	NNPC	<fs af='21,n,any,sg,3,d,0,0' name='21' posn='180'>
8.2	aprEla	NNP	<fs af='aprEla,n,m,sg,3,o,0,0' name='aprEla' posn='190'>
8.3	se	PSP	<fs af='se,psp,,,,,,' name='se' posn='200'>
	))
9	((	NP	<fs name='NP6' drel='k2:VGNF3'>
9.1	kAuMsiliMga	NN	<fs af='kAuMsiliMga,n,f,sg,3,d,0,0' name='kAuMsiliMga' posn='210'>
	))
10	((	NP	<fs name='NP7' drel='pof:VGNF3'>
10.1	SurU	NN	<fs af='SurU,n,m,sg,3,d,0,0' name='SurU' posn='220'>
	))
11	((	VGNF	<fs name='VGNF3' drel='vmod:VGNN'>
11.1	kara	VM	<fs af='kara,v,any,any,any,,0,0' name='kara' posn='230'>
	))
12	((	NP	<fs name='NP8' drel='k7t:VGNN'>
12.1	31	NNPC	<fs af='31,n,any,sg,3,d,0,0' name='31' posn='240'>
12.2	maI	NNP	<fs af='maI,n,f,sg,3,o,0,0' name='maI' posn='250'>
12.3	waka	PSP	<fs af='waka,psp,,,,,,' name='waka' posn='260'>
	))
13	((	JJP	<fs name='JJP2' drel='pof:VGNN'>
13.1	pUre	JJ	<fs af='pUrA,adj,m,sg,,,,' name='pUre' posn='270'>
	))
14	((	VGNN	<fs name='VGNN' drel='r6-k2:NP9'>
14.1	kara	VM	<fs af='kara,v,any,any,any,,0,0' name='kara2' posn='280'>
14.2	lene	VAUX	<fs af='le,v,any,any,any,o,nA,nA' name='lene' posn='290'>
14.3	kA	PSP	<fs af='kA,psp,m,sg,,d,,' name='kA' posn='300'>
	))
15	((	NP	<fs name='NP9' drel='pof:VGF'>
15.1	nirxeSa	NN	<fs af='nirxeSa,n,m,sg,3,d,0,0' name='nirxeSa' posn='310'>
	))
16	((	VGF	<fs name='VGF' stype='declarative' voicetype='active'>
16.1	xiyA	VM	<fs af='xe,v,m,sg,any,,yA,yA' name='xiyA' posn='320'>
	))
17	((	BLK	<fs name='BLK' drel='rsym:VGF'>
17.1	.	SYM	<fs af='.,punc,,,,,,' name='.' posn='330'>
	))
</Sentence>

<Sentence id='2'>
1	((	NP	<fs name='NP' drel='k7t:VGF'>
1.1	testa	NNC	<fs af='testa,n,m,sg,3,d,0,0' name='testa' posn='10'>
1.2	parIkRA	NN	<fs af='parIkRA,n,f,sg,3,o,0,0' name='parIkRA' posn='20'>
1.3	ke	PSP	<fs af='ke,psp,,,,,,' name='ke' posn='30'>
1.4	xOrAna	NST	<fs af='xOrAna,nst,m,sg,3,d,,' name='xOrAna' posn='40'>
	))
2	((	NP	<fs name='NP2' drel='k7:VGF'>
2.1	cennaI	NNP	<fs af='cennaI,n,m,sg,3,d,0,0' name='cennaI' posn='50'>
2.2	keMxra	NN	<fs af='keMxra,n,m,sg,3,o,0,0' name='keMxra' posn='60'>
2.3	para	PSP	<fs af='para,psp,,,,,,' name='para' posn='70'>
	))
3	((	NP	<fs name='NP3' drel='adv:VGNN'>
3.1	galawa	JJ	<fs af='galawa,adj,any,any,,d,,' name='galawa' posn='80'>
3.2	warIke	NN	<fs af='warIkA,n,m,pl,3,d,0,0' name='warIke' posn='90'>
	))
4	((	VGNN	<fs name='VGNN' drel='nmod:NP4'>
4.1	apanAne	VM	<fs af='apanA,v,any,any,any,o,nA,nA' name='apanAne' posn='100'>
4.2	vAle	PSP	<fs af='vAlA,psp,m,pl,,o,,' name='vAle' posn='110'>
	))
5	((	NP	<fs name='NP4' drel='k4:VGF'>
5.1	20	QC	<fs af='20,num,any,any,,any,,' name='20' posn='120'>
5.2	CAwroM	NN	<fs af='CAwra,n,m,pl,3,o,0,0' name='CAwroM' posn='130'>
5.3	ko	PSP	<fs af='ko,psp,,,,,,' name='ko' posn='140'>
	))
6	((	NP	<fs name='NP5' drel='k7:VGNN2'>
6.1	kAuMsiliMga	NN	<fs af='kAuMsiliMga,n,f,sg,3,o,0,0' name='kAuMsiliMga' posn='150'>
6.2	meM	PSP	<fs af='meM,psp,,,,,,' name='meM' posn='160'>
	))
7	((	JJP	<fs name='JJP' drel='pof:VGNN2'>
7.1	SAmila	JJ	<fs af='SAmila,adj,any,any,,,,' name='SAmila' posn='170'>
	))
8	((	VGNN	<fs name='VGNN2' drel='rh:VGF'>
8.1	kie	VM	<fs af='kara,v,m,pl,any,,yA,yA' name='kie' posn='180'>
8.2	jAne	VAUX	<fs af='jA,v,any,any,any,o,nA,nA' name='jAne' posn='190'>
8.3	se	PSP	<fs af='se,psp,,,,,,' name='se' posn='200'>
	))
9	((	NP	<fs name='NP6' drel='pof:VGF'>
9.1	roka	NN	<fs af='roka,n,f,sg,3,d,0,0' name='roka' posn='210'>
	))
10	((	VGF	<fs name='VGF' stype='declarative' voicetype='passive'>
10.1	xiyA	VM	<fs af='xe,v,m,sg,any,,yA,yA' name='xiyA' posn='220'>
10.2	gayA	VAUX	<fs af='jA,v,m,sg,any,,yA1,yA1' name='gayA' posn='230'>
	))
11	((	BLK	<fs name='BLK' drel='rsym:VGF'>
11.1	.	SYM	<fs af='.,punc,,,,,,' name='.' posn='240'>
	))
</Sentence>

<Sentence id='3'>
1	((	NP	<fs name='NP' drel='k1:VGF'>
1.1	keMxra	NNP	<fs af='keMxra,n,m,sg,3,o,0,0' name='keMxra' posn='10'>
1.2	ne	PSP	<fs af='ne,psp,,,,,,' name='ne' posn='20'>
	))
2	((	NP	<fs name='NP2' drel='k2:VGNN'>
2.1	testa	NNC	<fs af='testa,n,m,sg,3,d,0,0' name='testa' posn='30'>
2.2	parIkRA	NN	<fs af='parIkRA,n,f,sg,3,o,0,0' name='parIkRA' posn='40'>
2.3	ko	PSP	<fs af='ko,psp,,,,,,' name='ko' posn='50'>
	))
3	((	JJP	<fs name='JJP' drel='pof:VGNN'>
3.1	raxxa	JJ	<fs af='raxxa,adj,any,any,,,,' name='raxxa' posn='60'>
	))
4	((	VGNN	<fs name='VGNN' drel='r6:NP3'>
4.1	karane	VM	<fs af='kara,v,any,any,any,o,nA,nA' name='karane' posn='70'>
4.2	ke	PSP	<fs af='kA,psp,m,sg,,o,,' name='ke' posn='80'>
	))
5	((	NP	<fs name='NP3' drel='k2:VGF'>
5.1	praswAva	NN	<fs af='praswAva,n,m,sg,3,o,0,0' name='praswAva' posn='90'>
5.2	ko	PSP	<fs af='ko,psp,,,,,,' name='ko2' posn='100'>
	))
6	((	NP	<fs name='NP4' drel='k7t:VGF'>
6.1	Aja	NN	<fs af='Aja,n,m,sg,3,d,0,0' name='Aja' posn='110'>
	))
7	((	JJP	<fs name='JJP2' drel='pof:VGF'>
7.1	vApasa	JJ	<fs af='vApasa,adj,any,any,,,,' name='vApasa' posn='120'>
	))
8	((	VGF	<fs name='VGF' stype='declarative' voicetype='active'>
8.1	le	VM	<fs af='le,v,any,any,any,,0,0' name='le' posn='130'>
8.2	liyA	VAUX	<fs af='le,v,m,sg,any,,yA,yA' name='liyA' posn='140'>
	))
9	((	BLK	<fs name='BLK' drel='rsym:VGF'>
9.1	.	SYM	<fs af='.,punc,,,,,,' name='.' posn='150'>
	))
</Sentence>

<Sentence id='4'>
1	((	NP	<fs name='NP' drel='rt:VGF'>
1.1	wIna	QCC	<fs af='wIna,num,any,any,,any,,' name='wIna' posn='10'>
1.2	hajAra	QC	<fs af='hajAra,num,any,any,,any,,' name='hajAra' posn='20'>
1.3	sItoM	NN	<fs af='sIta,n,f,pl,3,o,0,0' name='sItoM' posn='30'>
1.4	ke	PSP	<fs af='ke,psp,,,,,,' name='ke' posn='40'>
1.5	lie	PSP	<fs af='lie,psp,,,,,,' name='lie' posn='50'>
	))
2	((	NP	<fs name='NP2' drel='r6-k2:NP3'>
2.1	lagaBaga	RP	<fs af='lagaBaga,avy,,,,,,' name='lagaBaga' posn='60'>
2.2	4	QCC	<fs af='4,num,any,any,,any,,' name='4' posn='70'>
2.3	hajAra	QC	<fs af='hajAra,num,any,any,,any,,' name='hajAra2' posn='80'>
2.4	CAwroM	NN	<fs af='CAwra,n,m,pl,3,o,0,0' name='CAwroM' posn='90'>
2.5	kI	PSP	<fs af='kA,psp,f,sg,,d,,' name='kI' posn='100'>
	))
3	((	NP	<fs name='NP3' drel='pof:VGF'>
3.1	kAuMsiliMga	NN	<fs af='kAuMsiliMga,n,f,sg,3,o,0,0' name='kAuMsiliMga' posn='110'>
	))
4	((	VGF	<fs name='VGF' stype='declarative' voicetype='active'>
4.1	honI	VM	<fs af='ho,v,f,sg,any,,nA,nA' name='honI' posn='120'>
4.2	hE	VAUX	<fs af='hE,v,any,sg,3,,hE,hE' name='hE' posn='130'>
	))
5	((	BLK	<fs name='BLK' drel='rsym:VGF'>
5.1	.	SYM	<fs af='.,punc,,,,,,' name='.' posn='140'>
	))
</Sentence>

<Sentence id='5'>
1	((	NP	<fs name='NP' drel='ccof:CCP'>
1.1	jastisa	NNC	<fs af='jastisa,n,m,sg,3,d,0,0' name='jastisa' posn='10'>
1.2	ke.	NNPC	<fs af='ke.,n,m,sg,3,d,0,0' name='ke.' posn='20'>
1.3	jI.	NNPC	<fs af='jI.,n,m,sg,3,d,0,0' name='jI.' posn='30'>
1.4	bAlasubramaNyama	NNP	<fs af='bAlasubramaNyama,n,m,sg,3,o,0,0' name='bAlasubramaNyama' posn='40'>
	))
2	((	CCP	<fs name='CCP' drel='r6:NP3'>
2.1	Ora	CC	<fs af='Ora,avy,,,,,,' name='Ora' posn='50'>
	))
3	((	NP	<fs name='NP2' drel='ccof:CCP'>
3.1	jastisa	NNC	<fs af='jastisa,n,m,sg,3,d,0,0' name='jastisa2' posn='60'>
3.2	pI.	NNPC	<fs af='pI.,n,m,sg,3,d,0,0' name='pI.' posn='70'>
3.3	pI.	NNPC	<fs af='pI.,n,m,sg,3,d,0,0' name='pI.2' posn='80'>
3.4	nAyalekara	NNP	<fs af='nAyalekara,n,m,sg,3,o,0,0' name='nAyalekara' posn='90'>
3.5	kI	PSP	<fs af='kA,psp,f,sg,,d,,' name='kI' posn='100'>
	))
4	((	NP	<fs name='NP3' drel='k4:VGF'>
4.1	KaMdapITa	NN	<fs af='KaMdapITa,n,f,sg,3,o,0,0' name='KaMdapITa' posn='110'>
4.2	se	PSP	<fs af='se,psp,,,,,,' name='se' posn='120'>
	))
5	((	NP	<fs name='NP4' drel='k1:VGF'>
5.1	ediSanala	NNC	<fs af='ediSanala,n,m,sg,3,d,0,0' name='ediSanala' posn='130'>
5.2	sOYlIsitara	NNC	<fs af='sOYlIsitara,n,m,sg,3,d,0,0' name='sOYlIsitara' posn='140'>
5.3	janarala	NN	<fs af='janarala,n,m,sg,3,d,0,0' name='janarala' posn='150'>
5.4	gopAla	NNPC	<fs af='gopAla,n,m,sg,3,d,0,0' name='gopAla' posn='160'>
5.5	subramaNyama	NNP	<fs af='subramaNyama,n,m,sg,3,o,0,0' name='subramaNyama' posn='170'>
5.6	ne	PSP	<fs af='ne,psp,,,,,,' name='ne' posn='180'>
	))
6	((	VGF	<fs name='VGF' stype='declarative' voicetype='active'>
6.1	kahA	VM	<fs af='kaha,v,m,sg,any,,yA,yA' name='kahA' posn='190'>
	))
7	((	CCP	<fs name='CCP2' drel='k2:VGF'>
7.1	ki	CC	<fs af='ki,avy,,,,,,' name='ki' posn='200'>
	))
8	((	NP	<fs name='NP5' drel='k7:VGNN'>
8.1	testa	NN	<fs af='testa,n,m,sg,3,o,0,0' name='testa' posn='210'>
8.2	meM	PSP	<fs af='meM,psp,,,,,,' name='meM' posn='220'>
	))
9	((	NP	<fs name='NP6' drel='k2:VGNN'>
9.1	galawa	JJ	<fs af='galawa,adj,any,any,,d,,' name='galawa' posn='230'>
9.2	warIke	NN	<fs af='warIkA,n,m,pl,3,d,0,0' name='warIke' posn='240'>
	))
10	((	VGNN	<fs name='VGNN' drel='r6:NP7'>
10.1	apanAe	VM	<fs af='apanA,v,m,pl,any,,yA,yA' name='apanAe' posn='250'>
10.2	jAne	VAUX	<fs af='jA,v,any,any,any,o,nA,nA' name='jAne' posn='260'>
10.3	kA	PSP	<fs af='kA,psp,m,sg,,d,,' name='kA' posn='270'>
	))
11	((	NP	<fs name='NP7' drel='k1:VGF2'>
11.1	mAmalA	NN	<fs af='mAmalA,n,m,sg,3,d,0,0' name='mAmalA' posn='280'>
	))
12	((	NP	<fs name='NP8' drel='r6v:VGF2'>
12.1	kevala	RP	<fs af='kevala,avy,,,,,,' name='kevala' posn='290'>
12.2	cennaI	NNP	<fs af='cennaI,n,m,sg,3,d,0,0' name='cennaI' posn='300'>
12.3	keMxra	NN	<fs af='keMxra,n,m,sg,3,o,0,0' name='keMxra' posn='310'>
12.4	kA	PSP	<fs af='kA,psp,m,sg,,d,,' name='kA2' posn='320'>
12.5	hI	RP	<fs af='hI,avy,,,,,,' name='hI' posn='330'>
	))
13	((	VGF	<fs voicetype='active' name='VGF2' stype='declarative' drel='ccof:NULL__CCP'>
13.1	hE	VM	<fs af='hE,v,any,sg,3,,hE,hE' name='hE' posn='340'>
	))
14	((	NULL__CCP	<fs mtype='gap' troot='Ora' dmrel='ccof:CCP2' name='NULL__CCP'>
14.1	NULL	CC	<fs name='NULL'>
	))
15	((	NP	<fs name='NP9' drel='rh:VGF3'>
15.1	isalie	PRP	<fs af='isalie,pn,,,,,,' name='isalie' posn='350'>
	))
16	((	NP	<fs name='NP10' drel='k2:VGNN2'>
16.1	testa	NN	<fs af='testa,n,m,sg,3,o,0,0' name='testa2' posn='360'>
16.2	ko	PSP	<fs af='ko,psp,,,,,,' name='ko' posn='370'>
	))
17	((	NP	<fs name='NP11' drel='k1:VGF3'>
17.1	sarakAra	NN	<fs af='sarakAra,n,f,sg,3,d,0,0' name='sarakAra' posn='380'>
	))
18	((	JJP	<fs name='JJP' drel='pof:VGNN2'>
18.1	raxxa	JJ	<fs af='raxxa,adj,any,any,,,,' name='raxxa' posn='390'>
	))
19	((	VGNN	<fs name='VGNN2' drel='r6:NP12'>
19.1	karane	VM	<fs af='kara,v,any,any,any,o,nA,nA' name='karane' posn='400'>
19.2	kA	PSP	<fs af='kA,psp,m,sg,,d,,' name='kA3' posn='410'>
	))
20	((	NP	<fs name='NP12' drel='k1s:VGF3'>
20.1	irAxA	NN	<fs af='irAxA,n,m,sg,3,d,0,0' name='irAxA' posn='420'>
	))
21	((	VGF	<fs voicetype='active' name='VGF3' stype='declarative' drel='ccof:NULL__CCP'>
21.1	nahIM	NEG	<fs af='nahIM,avy,,,,,,' name='nahIM' posn='430'>
21.2	raKawI	VM	<fs af='raKa,v,f,sg,any,,wA,wA' name='raKawI' posn='440'>
	))
22	((	BLK	<fs name='BLK' drel='rsym:VGF'>
22.1	.	SYM	<fs af='.,punc,,,,,,' name='.' posn='450'>
	))
</Sentence>

<Sentence id='6'>
1	((	NP	<fs name='NP' drel='k1:VGF'>
1.1	KaMdapITa	NN	<fs af='KaMdapITa,n,f,sg,3,o,0,0' name='KaMdapITa' posn='10'>
1.2	ne	PSP	<fs af='ne,psp,,,,,,' name='ne' posn='20'>
	))
2	((	VGF	<fs name='VGF' stype='declarative' voicetype='active'>
2.1	kahA	VM	<fs af='kaha,v,m,sg,any,,yA,yA' name='kahA' posn='30'>
	))
3	((	CCP	<fs name='CCP' drel='k2:VGF'>
3.1	ki	CC	<fs af='ki,avy,,,,,,' name='ki' posn='40'>
	))
4	((	NP	<fs name='NP2' drel='k5:VGNF'>
4.1	21	NNPC	<fs af='21,n,m,sg,3,d,0,0' name='21' posn='50'>
4.2	aprEla	NNP	<fs af='aprEla,n,m,sg,3,o,0,0' name='aprEla' posn='60'>
4.3	se	PSP	<fs af='se,psp,,,,,,' name='se' posn='70'>
	))
5	((	NP	<fs name='NP3' drel='k2:VGNF'>
5.1	kAuMsiliMga	NN	<fs af='kAuMsiliMga,n,f,sg,3,d,0,0' name='kAuMsiliMga' posn='80'>
	))
6	((	NP	<fs name='NP4' drel='pof:VGNF'>
6.1	SurU	NN	<fs af='SurU,n,m,sg,3,d,0,0' name='SurU' posn='90'>
	))
7	((	VGNF	<fs name='VGNF' drel='vmod:VGF2'>
7.1	karake	VM	<fs af='kara,v,any,any,any,,kara,kara' name='karake' posn='100'>
	))
8	((	NP	<fs name='NP5' drel='k7t:VGF2'>
8.1	31	NNPC	<fs af='31,n,m,sg,3,d,0,0' name='31' posn='110'>
8.2	maI	NNP	<fs af='maI,n,f,sg,3,o,0,0' name='maI' posn='120'>
8.3	waka	PSP	<fs af='waka,psp,,,,,,' name='waka' posn='130'>
	))
9	((	JJP	<fs name='JJP' drel='pof:VGF2'>
9.1	pUrI	JJ	<fs af='pUrA,adj,f,sg,,,,' name='pUrI' posn='140'>
	))
10	((	VGF	<fs voicetype='active' name='VGF2' stype='declarative' drel='ccof:CCP'>
10.1	kara	VM	<fs af='kara,v,any,any,any,,0,0' name='kara' posn='150'>
10.2	lI	VAUX	<fs af='le,v,f,sg,any,,yA,yA' name='lI' posn='160'>
10.3	jAe	VAUX	<fs af='jA,v,m,sg,any,,yA,yA' name='jAe' posn='170'>
	))
11	((	BLK	<fs name='BLK' drel='rsym:VGF'>
11.1	.	SYM	<fs af='.,punc,,,,,,' name='.' posn='180'>
	))
</Sentence>

<Sentence id='7'>
1	((	NP	<fs name='NP' drel='k1:VGF'>
1.1	KaMdapITa	NN	<fs af='KaMdapITa,n,f,sg,3,o,0,0' name='KaMdapITa' posn='10'>
1.2	ne	PSP	<fs af='ne,psp,,,,,,' name='ne' posn='20'>
	))
2	((	NP	<fs name='NP2' drel='r6:NP3'>
2.1	sarakAra	NN	<fs af='sarakAra,n,f,sg,3,o,0,0' name='sarakAra' posn='30'>
2.2	kI	PSP	<fs af='kA,psp,f,sg,,d,,' name='kI' posn='40'>
	))
3	((	NP	<fs name='NP3' drel='k2:VGF'>
3.1	yaha	DEM	<fs af='yaha,pn,any,sg,3,d,,' name='yaha' posn='50'>
3.2	bAwa	NN	<fs af='bAwa,n,f,sg,3,d,0,0' name='bAwa' posn='60'>
	))
4	((	NP	<fs name='NP4' drel='pof:VGF'>
4.1	svIkAra	NN	<fs af='svIkAra,n,m,sg,3,d,0,0' name='svIkAra' posn='70'>
	))
5	((	VGF	<fs name='VGF' stype='declarative' voicetype='active'>
5.1	kara	VM	<fs af='kara,v,any,any,any,,0,0' name='kara' posn='80'>
5.2	lI	VAUX	<fs af='le,v,f,sg,any,,yA,yA' name='lI' posn='90'>
	))
6	((	CCP	<fs name='CCP' drel='rs:NP3'>
6.1	ki	CC	<fs af='ki,avy,,,,,,' name='ki' posn='100'>
	))
7	((	CCP	<fs name='CCP2' drel='vmod:VGF3'>
7.1	yaxi	CC	<fs af='yaxi,avy,,,,,,' name='yaxi' posn='110'>
	))
8	((	NP	<fs name='NP5' drel='vmod:VGF2'>
8.1	anya	JJ	<fs af='anya,adj,any,any,,o,,' name='anya' posn='120'>
8.2	CAwroM	NN	<fs af='CAwra,n,m,pl,3,o,0,0' name='CAwroM' posn='130'>
8.3	ke	PSP	<fs af='ke,psp,,,,,,' name='ke' posn='140'>
8.4	KilAPa	PSP	<fs af='KilAPa,psp,,,,,,' name='KilAPa' posn='150'>
	))
9	((	NP	<fs name='NP6' drel='nmod:NP7'>
9.1	koI	PRP	<fs af='koI,pn,any,sg,3,d,0,0' name='koI' posn='160'>
	))
10	((	NP	<fs name='NP7' drel='ccof:CCP3'>
10.1	sAmagrI	NN	<fs af='sAmagrI,n,f,sg,3,d,0,0' name='sAmagrI' posn='170'>
	))
11	((	CCP	<fs name='CCP3' drel='k1:VGF2'>
11.1	yA	CC	<fs af='yA,avy,,,,,,' name='yA' posn='180'>
	))
12	((	NP	<fs name='NP8' drel='ccof:CCP3'>
12.1	sAkRya	NN	<fs af='sAkRya,n,m,sg,3,d,0,0' name='sAkRya' posn='190'>
	))
13	((	VGF	<fs voicetype='active' name='VGF2' stype='declarative' drel='ccof:CCP2'>
13.1	pAyA	VM	<fs af='pA,v,m,sg,any,,yA,yA' name='pAyA' posn='200'>
13.2	jAyegA	VAUX	<fs af='jA,v,m,sg,3,,gA,gA' name='jAyegA' posn='210'>
	))
14	((	CCP	<fs name='CCP4' drel='ccof:CCP'>
14.1	wo	CC	<fs af='wo,avy,,,,,,' name='wo' posn='220'>
	))
15	((	NP	<fs name='NP9' drel='k2:VGF3'>
15.1	unheM	PRP	<fs af='vaha,pn,any,pl,3,o,ko,ko' name='unheM' posn='230'>
15.2	BI	RP	<fs af='BI,avy,,,,,,' name='BI' posn='240'>
	))
16	((	JJP	<fs name='JJP' drel='pof:VGF3'>
16.1	alaga	JJ	<fs af='alaga,adj,any,any,,,,' name='alaga' posn='250'>
	))
17	((	VGF	<fs voicetype='passive' name='VGF3' stype='declarative' drel='ccof:CCP4'>
17.1	kara	VM	<fs af='kara,v,any,any,any,,0,0' name='kara2' posn='260'>
17.2	xiyA	VAUX	<fs af='xe,v,m,sg,any,,yA,yA' name='xiyA' posn='270'>
17.3	jAye	VAUX	<fs af='jA,v,m,sg,any,,yA,yA' name='jAye' posn='280'>
	))
18	((	BLK	<fs name='BLK' drel='rsym:VGF'>
18.1	.	SYM	<fs af='.,punc,,,,,,' name='.' posn='290'>
	))
</Sentence>

<Sentence id='8'>
1	((	NP	<fs name='NP' drel='k7:VGF'>
1.1	mAmale	NN	<fs af='mAmalA,n,m,sg,3,o,0,0' name='mAmale' posn='10'>
1.2	meM	PSP	<fs af='meM,psp,,,,,,' name='meM' posn='20'>
	))
2	((	NP	<fs name='NP2' drel='r6:NP3'>
2.1	sI.	NNPC	<fs af='sI.,n,m,sg,3,d,0,0' name='sI.' posn='30'>
2.2	bI.	NNPC	<fs af='bI.,n,m,sg,3,d,0,0' name='bI.' posn='40'>
2.3	AI.	NNP	<fs af='AI.,n,m,sg,3,o,0,0' name='AI.' posn='50'>
2.4	kI	PSP	<fs af='kA,psp,f,sg,,d,,' name='kI' posn='60'>
	))
3	((	NP	<fs name='NP3' drel='k1:VGF'>
3.1	jAMca	NN	<fs af='jAMca,n,f,sg,3,d,0,0' name='jAMca' posn='70'>
	))
4	((	JJP	<fs name='JJP' drel='pof:VGF'>
4.1	jArI	JJ	<fs af='jArI,adj,any,any,,,,' name='jArI' posn='80'>
	))
5	((	VGF	<fs name='VGF' stype='declarative' voicetype='active'>
5.1	hE	VM	<fs af='hE,v,any,sg,3,,hE,hE' name='hE' posn='90'>
	))
6	((	BLK	<fs name='BLK' drel='rsym:VGF'>
6.1	.	SYM	<fs af='.,punc,,,,,,' name='.' posn='100'>
	))
</Sentence>

