<Sentence id='1'>
1	((	NP	<fs name='NP' drel='k7p:VGF'>
1.1	aPagAniswAna	NNP	<fs af='aPagAniswAna,n,m,sg,3,o,0,0' name='aPagAniswAna' posn='10'>
1.2	meM	PSP	<fs af='meM,psp,,,,,,' name='meM' posn='20'>
	))
2	((	NP	<fs name='NP2' drel='r6:NP3'>
2.1	iMdiyana	NNPC	<fs af='iMdiyana,adj,any,any,,o,,' name='iMdiyana' posn='170'>
2.2	eyaralAiMsa	NNP	<fs af='eyaralAina,n,f,pl,3,o,0,0' name='eyaralAiMsa' posn='40'>
2.3	ke	PSP	<fs af='kA,psp,m,sg,,o,,' name='ke' posn='50'>
	))
3	((	NP	<fs name='NP3' drel='r6:NP4'>
3.1	vimAna	NN	<fs af='vimAna,n,m,sg,3,o,0,0' name='vimAna' posn='60'>
3.2	ke	PSP	<fs af='kA,psp,m,sg,,o,,' name='ke2' posn='70'>
	))
4	((	NP	<fs name='NP4' drel='r6:NP5'>
4.1	apaharaNa	NN	<fs af='apaharaNa,n,m,sg,3,o,0,0' name='apaharaNa' posn='80'>
4.2	ke	PSP	<fs af='kA,psp,m,pl,,d,,' name='ke3' posn='90'>
	))
5	((	NP	<fs name='NP5' drel='k7t:VGF'>
5.1	Caha	QC	<fs af='Caha,num,any,any,,any,,' name='Caha' posn='100'>
5.2	sAla	NN	<fs af='sAla,n,m,pl,3,d,0,0' name='sAla' posn='110'>
5.3	bAxa	NST	<fs af='bAxa,nst,m,sg,3,d,,' name='bAxa' posn='120'>
	))
6	((	NP	<fs name='NP6' drel='r6:NP7'>
6.1	BAjapA	NNP	<fs af='BAjapA,n,f,sg,3,o,0,0' name='BAjapA' posn='130'>
6.2	ke	PSP	<fs af='kA,psp,m,sg,,o,,' name='ke4' posn='140'>
	))
7	((	NP	<fs name='NP7' drel='r6:NP8'>
7.1	variRTa	JJ	<fs af='variRTa,adj,any,any,,o,,' name='variRTa' posn='150'>
7.2	newA	NN	<fs af='newA,n,m,sg,3,o,0,0' name='newA' posn='160'>
	))
8	((	NP	<fs name='NP8' drel='k1:VGF'>
8.1	lAlakqRNa	NNPC	<fs af='lAlakqRNa,n,m,sg,3,d,0,0' name='lAlakqRNa' posn='170'>
8.2	AdavANI	NNP	<fs af='AdavANI,n,any,sg,3,o,0,0' name='AdavANI' posn='180'>
8.3	ne	PSP	<fs af='ne,psp,,,,,,' name='ne' posn='190'>
	))
9	((	NP	<fs name='NP9' drel='r6:NP10'>
9.1	apanI	PRP	<fs af='apanA,pn,f,any,any,d,0,0' name='apanI' posn='200'>
	))
10	((	NP	<fs name='NP10' drel='k2:VGNF'>
10.1	cuppI	NN	<fs af='cuppI,n,f,sg,3,d,0,0' name='cuppI' posn='210'>
	))
11	((	VGNF	<fs name='VGNF' drel='nmod__k1inv:NP12'>
11.1	wodZawe	VM	<fs af='wodZa,v,m,sg,any,,wA,wA' name='wodZawe' posn='220'>
11.2	hue	VAUX	<fs af='ho,v,m,sg,any,,yA,yA' name='hue' posn='230'>
	))
12	((	NP	<fs name='NP11' drel='r6:NP12'>
12.1	isa	DEM	<fs af='yaha,pn,any,sg,3,o,,' name='isa' posn='240'>
12.2	bAwa	NN	<fs af='bAwa,n,f,sg,3,o,0,0' name='bAwa' posn='250'>
12.3	ke	PSP	<fs af='kA,psp,m,pl,,d,,' name='ke5' posn='260'>
	))
13	((	NP	<fs name='NP12' drel='k2:VGF'>
13.1	saMkewa	NN	<fs af='saMkewa,n,m,pl,3,d,0,0' name='saMkewa' posn='270'>
	))
14	((	VGF	<fs name='VGF' stype='declarative' voicetype='active'>
14.1	xie	VM	<fs af='xe,v,m,sg,any,,yA,yA' name='xie' posn='280'>
14.2	hEM	VAUX	<fs af='hE,v,any,pl,3,,hE,hE' name='hEM' posn='290'>
	))
15	((	CCP	<fs name='CCP' drel='rs:NP11'>
15.1	ki	CC	<fs af='ki,avy,,,,,,' name='ki' posn='300'>
	))
16	((	NP	<fs name='NP13' drel='k1:VGF2'>
16.1	unhoMne	PRP	<fs af='vaha,pn,any,sg,3h,o,ne,ne' name='unhoMne' posn='310'>
	))
17	((	NP	<fs name='NP14' drel='ras-k1:VGF2'>
17.1	mOlAnA	NNC	<fs af='mOlAnA,n,m,sg,3,d,0,0' name='mOlAnA' posn='320'>
17.2	masUxa	NNPC	<fs af='masUxa,n,m,sg,3,d,0,0' name='masUxa' posn='330'>
17.3	ajahara	NNP	<fs af='ajahara,n,m,sg,3,o,0,0' name='ajahara' posn='340'>
17.4	sahiwa	PSP	<fs af='sahiwa,psp,,,,,,' name='sahiwa' posn='350'>
	))
18	((	NP	<fs name='NP15' drel='r6:NP16'>
18.1	saBI	QF	<fs af='saba,avy,,,,,,' name='saBI' posn='360'>
18.2	AwaMkiyoM	NN	<fs af='AwaMkI,n,m,pl,3,o,0,0' name='AwaMkiyoM' posn='370'>
18.3	kI	PSP	<fs af='kA,psp,f,sg,,o,,' name='kI' posn='380'>
	))
19	((	NP	<fs name='NP16' drel='r6-k2:NP17'>
19.1	rihAI	NN	<fs af='rihAI,n,f,sg,3,o,0,0' name='rihAI' posn='390'>
19.2	kA	PSP	<fs af='kA,psp,m,sg,,d,,' name='kA' posn='400'>
	))
20	((	NP	<fs name='NP17' drel='pof:VGF2'>
20.1	viroXa	NN	<fs af='viroXa,n,m,sg,3,d,0,0' name='viroXa' posn='410'>
	))
21	((	VGF	<fs voicetype='active' name='VGF2' stype='declarative' drel='ccof:CCP'>
21.1	kiyA	VM	<fs af='kara,v,m,sg,any,,yA,yA' name='kiyA' posn='420'>
21.2	WA	VAUX	<fs af='WA,v,m,sg,any,,WA,WA' name='WA' posn='430'>
	))
22	((	BLK	<fs name='BLK' drel='rsym:VGF'>
22.1	.	SYM	<fs af='.,punc,,,,,,' name='.' posn='440'>
	))
</Sentence>

<Sentence id='2'>
1	((	NP	<fs name='NP' drel='r6:NP2'>
1.1	BArawa	NNPC	<fs af='BArawa,n,m,sg,3,d,0,0' name='BArawa' posn='10'>
1.2	surakRA	NNPC	<fs af='surakRA,n,f,sg,3,d,0,0' name='surakRA' posn='20'>
1.3	yAwrA	NNP	<fs af='yAwrA,n,f,sg,3,o,0,0' name='yAwrA' posn='30'>
1.4	ke	PSP	<fs af='kA,psp,m,sg,,o,,' name='ke' posn='40'>
	))
2	((	NP	<fs name='NP2' drel='k7t:VGF'>
2.1	CaTe	QO	<fs af='CaTA,num,m,sg,,o,,' name='CaTe' posn='50'>
2.2	xina	NN	<fs af='xina,n,m,sg,3,o,0,0' name='xina' posn='60'>
	))
3	((	NP	<fs name='NP3' drel='k1:VGF'>
3.1	AdavANI	NNP	<fs af='AdavANI,n,any,sg,3,o,0,0' name='AdavANI' posn='70'>
3.2	ne	PSP	<fs af='ne,psp,,,,,,' name='ne' posn='80'>
	))
4	((	NP	<fs name='NP4' drel='k2:VGF'>
4.1	muslimoM	NN	<fs af='muslima,n,m,pl,3,o,0,0' name='muslimoM' posn='90'>
4.2	se	PSP	<fs af='se,psp,,,,,,' name='se' posn='100'>
	))
5	((	NP	<fs name='NP5' drel='k7p:VGNN'>
5.1	ayoXyA	NNP	<fs af='ayoXyA,n,f,sg,3,o,0,0' name='ayoXyA' posn='110'>
5.2	meM	PSP	<fs af='meM,psp,,,,,,' name='meM' posn='120'>
	))
6	((	NP	<fs name='NP6' drel='k2:VGNN'>
6.1	rAma	NNPC	<fs af='rAma,n,m,sg,3,d,0,0' name='rAma' posn='130'>
6.2	maMxira	NNP	<fs af='maMxira,n,m,sg,3,d,0,0' name='maMxira' posn='140'>
	))
7	((	VGNN	<fs name='VGNN' drel='k7:VGF'>
7.1	banAne	VM	<fs af='banA,v,any,any,any,o,nA,nA' name='banAne' posn='150'>
7.2	meM	PSP	<fs af='meM,psp,,,,,,' name='meM2' posn='160'>
	))
8	((	NP	<fs name='NP7' drel='r6-k2:NP8'>
8.1	maxaxa	NN	<fs af='maxaxa,n,f,sg,3,o,0,0' name='maxaxa' posn='170'>
8.2	kI	PSP	<fs af='kA,psp,f,sg,,d,,' name='kI' posn='180'>
	))
9	((	NP	<fs name='NP8' drel='pof:VGF'>
9.1	apIla	NN	<fs af='apIla,n,f,sg,3,d,0,0' name='apIla' posn='190'>
	))
10	((	VGF	<fs name='VGF' stype='declarative' voicetype='active'>
10.1	kI	VM	<fs af='kara,v,f,sg,any,,yA,yA' name='kI2' posn='200'>
	))
11	((	BLK	<fs name='BLK' drel='rsym:VGF'>
11.1	.	SYM	<fs af='.,punc,,,,,,' name='.' posn='210'>
	))
</Sentence>

<Sentence id='3'>
1	((	NP	<fs name='NP' drel='k1:VGF'>
1.1	AdavANI	NNP	<fs af='AdavANI,n,any,sg,3,o,0,0' name='AdavANI' posn='10'>
1.2	ne	PSP	<fs af='ne,psp,,,,,,' name='ne' posn='20'>
	))
2	((	VGF	<fs name='VGF' stype='declarative' voicetype='active'>
2.1	kahA	VM	<fs af='kaha,v,m,sg,any,,yA,yA' name='kahA' posn='30'>
	))
3	((	CCP	<fs name='CCP' drel='k2:VGF'>
3.1	ki	CC	<fs af='ki,avy,,,,,,' name='ki' posn='40'>
	))
4	((	NP	<fs name='NP2' drel='k1:VGF2'>
4.1	mEM	PRP	<fs af='mEM,pn,any,sg,1,d,0,0' name='mEM' posn='50'>
	))
5	((	NP	<fs name='NP3' drel='k7t:VGF2'>
5.1	iwane	QF	<fs af='iwanA,adj,m,pl,,d,,' name='iwane' posn='60'>
5.2	xinoM	NN	<fs af='xina,n,m,pl,3,d,0,0' name='xinoM' posn='70'>
5.3	bAxa	NST	<fs af='bAxa,nst,m,sg,3,d,,' name='bAxa' posn='80'>
	))
6	((	NP	<fs name='NP4' drel='k7:VGF2'>
6.1	kaMXAra	NNP	<fs af='kaMXAra,n,m,sg,3,d,0,0' name='kaMXAra' posn='90'>
6.2	vimAna	NNC	<fs af='vimAna,n,m,sg,3,d,0,0' name='vimAna' posn='100'>
6.3	apaharaNa	NNC	<fs af='apaharaNa,n,m,sg,3,d,0,0' name='apaharaNa' posn='110'>
6.4	mAmale	NN	<fs af='mAmalA,n,m,sg,3,o,0,0' name='mAmale' posn='120'>
6.5	para	PSP	<fs af='para,psp,,,,,,' name='para' posn='130'>
	))
7	((	NP	<fs name='NP5' drel='k2:VGF2'>
7.1	kuCa	PRP	<fs af='kuCa,pn,any,any,3,d,0,0' name='kuCa' posn='90'>
	))
8	((	VGNN	<fs name='VGNN' drel='vmod:VGF2'>
8.1	nahIM	NEG	<fs af='nahIM,avy,,,,,,' name='nahIM' posn='150'>
8.2	bolanA	VM	<fs af='bola,v,any,any,any,d,nA,nA' name='bolanA' posn='160'>
	))
9	((	VGF	<fs voicetype='active' name='VGF2' stype='declarative' drel='ccof:CCP'>
9.1	cAhawA	VM	<fs af='cAha,v,m,sg,any,,wA,wA' name='cAhawA' posn='170'>
	))
10	((	BLK	<fs name='BLK' drel='rsym:VGF'>
10.1	.	SYM	<fs af='.,punc,,,,,,' name='.' posn='180'>
	))
</Sentence>

<Sentence id='4'>
1	((	NP	<fs name='NP' drel='k7:VGNN'>
1.1	isa	PRP	<fs af='yaha,pn,any,sg,3,o,0,0' name='isa' posn='10'>
1.2	bAre	PSP	<fs af='bAre,psp,,,,,,' name='bAre' posn='30'>
1.3	meM	PSP	<fs af='meM,psp,,,,,,' name='meM' posn='30'>
	))
2	((	NP	<fs name='NP2' drel='k1:VGNN'>
2.1	muJe	PRP	<fs af='mEM,pn,any,sg,1,o,ko,ko' name='muJe' posn='40'>
	))
3	((	NP	<fs name='NP3' drel='k7t:VGNN'>
3.1	usa	DEM	<fs af='vaha,pn,any,sg,3,o,,' name='usa' posn='50'>
3.2	vakwa	NN	<fs af='vakwa,n,m,sg,3,d,0,0' name='vakwa' posn='60'>
	))
4	((	NP	<fs coref=':NP5' name='NP4' drel='k2:VGNN'>
4.1	jo	PRP	<fs af='jo,pn,any,sg,3,d,0,0' name='jo' posn='70'>
	))
5	((	VGNN	<fs name='VGNN' drel='k1:VGF'>
5.1	kahanA	VM	<fs af='kaha,v,any,any,any,d,nA,nA' name='kahanA' posn='80'>
	))
6	((	VGF	<fs voicetype='active' name='VGF' stype='declarative' drel='nmod__relc:NP5'>
6.1	WA	VM	<fs af='WA,v,m,sg,any,,WA,WA' name='WA' posn='90'>
	))
7	((	NP	<fs name='NP5' drel='k2:VGF2'>
7.1	use	PRP	<fs af='vaha,pn,any,sg,3,o,ko,ko' name='use' posn='100'>
	))
8	((	NP	<fs name='NP6' drel='k1:VGF2'>
8.1	mEMne	PRP	<fs af='mEM,pn,any,sg,1,o,ne,ne' name='mEMne' posn='110'>
	))
9	((	NP	<fs name='NP7' drel='k4:VGF2'>
9.1	sarakAra	NN	<fs af='sarakAra,n,f,sg,3,o,0,0' name='sarakAra' posn='120'>
9.2	se	PSP	<fs af='se,psp,,,,,,' name='se' posn='130'>
	))
10	((	VGF	<fs name='VGF2' stype='declarative' voicetype='active'>
10.1	kaha	VM	<fs af='kaha,v,any,any,any,,0,0' name='kaha' posn='140'>
10.2	xiyA	VAUX	<fs af='xe,v,m,sg,any,,yA,yA' name='xiyA' posn='150'>
10.3	WA	VAUX	<fs af='WA,v,m,sg,any,,WA,WA' name='WA2' posn='160'>
	))
11	((	BLK	<fs name='BLK' drel='rsym:VGF2'>
11.1	.	SYM	<fs af='.,punc,,,,,,' name='.' posn='170'>
	))
</Sentence>

<Sentence id='5'>
1	((	NP	<fs name='NP' drel='k1:VGF'>
1.1	unhoMne	PRP	<fs af='vaha,pn,any,sg,3h,o,ne,ne' name='unhoMne' posn='10'>
	))
2	((	VGF	<fs name='VGF' stype='declarative' voicetype='active'>
2.1	kahA	VM	<fs af='kaha,v,m,sg,any,,yA,yA' name='kahA' posn='20'>
	))
3	((	CCP	<fs name='CCP' drel='k2:VGF'>
3.1	ki	CC	<fs af='ki,avy,,,,,,' name='ki' posn='30'>
	))
4	((	NP	<fs name='NP2' drel='k1:VGF2'>
4.1	wawkAlIna	JJ	<fs af='wawkAlIna,adj,any,any,,d,,' name='wawkAlIna' posn='40'>
4.2	vixeSa	NNPC	<fs af='vixeSa,n,m,sg,3,d,0,0' name='vixeSa' posn='50'>
4.3	maMwrI	NNP	<fs af='maMwrI,n,m,sg,3,d,0,0' name='maMwrI' posn='60'>
4.4	jasavaMwa	NNPC	<fs af='jasavaMwa,n,m,sg,3,d,0,0' name='jasavaMwa' posn='70'>
4.5	siMha	NNP	<fs af='siMha,n,any,sg,3,d,0,0' name='siMha' posn='80'>
	))
5	((	NP	<fs name='NP3' drel='k2:VGNF'>
5.1	wIna	QC	<fs af='wIna,num,any,any,,any,,' name='wIna' posn='90'>
5.2	AwaMkiyoM	NN	<fs af='AwaMkI,n,m,pl,3,o,0,0' name='AwaMkiyoM' posn='100'>
5.3	ko	PSP	<fs af='ko,psp,,,,,,' name='ko' posn='110'>
	))
6	((	NP	<fs name='NP4' drel='ras-k2:VGNF'>
6.1	apane	PRP	<fs af='apanA,pn,m,any,any,d,0,0' name='apane' posn='120'>
6.2	sAWa	NST	<fs af='sAWa,nst,m,sg,3,d,,' name='sAWa' posn='130'>
	))
7	((	NP	<fs name='NP5' drel='k7p:VGNF'>
7.1	kaMXAra	NNP	<fs af='kaMXAra,n,m,sg,3,d,0,0' name='kaMXAra' posn='140'>
	))
8	((	VGNF	<fs name='VGNF' drel='vmod:VGF2'>
8.1	lekara	VM	<fs af='le,v,any,any,any,,kara,kara' name='lekara' posn='150'>
	))
9	((	VGF	<fs voicetype='active' name='VGF2' stype='declarative' drel='nmod__relc:NP6'>
9.1	gae	VM	<fs af='jA,v,m,sg,3h,,yA,yA' name='gae' posn='160'>
	))
10	((	NP	<fs name='NP6' drel='k7t:VGF3'>
10.1	waba	PRP	<fs af='waba,pn,,,,d,,' name='waba' posn='170'>
	))
11	((	NP	<fs name='NP7' drel='k1:VGF3'>
11.1	vaha	PRP	<fs af='vaha,pn,any,sg,3,d,0,0' name='vaha' posn='180'>
	))
12	((	NP	<fs name='NP8' drel='r6:NP9'>
12.1	sarakAra	NN	<fs af='sarakAra,n,f,sg,3,o,0,0' name='sarakAra' posn='190'>
12.2	ke	PSP	<fs af='kA,psp,m,sg,,o,,' name='ke' posn='200'>
	))
13	((	NP	<fs name='NP9' drel='r6-k2:NP10'>
13.1	PEsale	NN	<fs af='PEsalA,n,m,sg,3,o,0,0' name='PEsale' posn='210'>
13.2	kA	PSP	<fs af='kA,psp,m,sg,,d,,' name='kA' posn='220'>
	))
14	((	NP	<fs name='NP10' drel='pof:VGF3'>
14.1	pAlana	NN	<fs af='pAlana,n,m,sg,3,d,0,0' name='pAlana' posn='230'>
	))
15	((	VGF	<fs voicetype='active' name='VGF3' stype='declarative' drel='ccof:CCP'>
15.1	kara	VM	<fs af='kara,v,any,any,any,,0,0' name='kara' posn='240'>
15.2	rahe	VAUX	<fs af='raha,v,m,sg,3h,,yA,yA' name='rahe' posn='250'>
15.3	We	VAUX	<fs af='WA,v,m,sg,3h,,WA,WA' name='We' posn='260'>
	))
16	((	BLK	<fs name='BLK' drel='rsym:VGF'>
16.1	.	SYM	<fs af='.,punc,,,,,,' name='.' posn='270'>
	))
</Sentence>

<Sentence id='6'>
1	((	CCP	<fs name='CCP'>
1.1	hAlAMki	CC	<fs af='hAlAMki,avy,,,,,,' name='hAlAMki' posn='10'>
	))
2	((	NP	<fs name='NP' drel='k1:VGF'>
2.1	AdavANI	NNP	<fs af='AdavANI,n,any,sg,3,o,0,0' name='AdavANI' posn='20'>
2.2	ne	PSP	<fs af='ne,psp,,,,,,' name='ne' posn='30'>
	))
3	((	NP	<fs name='NP2' drel='k2:VGF'>
3.1	yaha	PRP	<fs af='yaha,pn,any,sg,3,d,0,0' name='yaha' posn='40'>
	))
4	((	NP	<fs name='NP3' drel='k7:VGF'>
4.1	spaRta	JJ	<fs af='spaRta,adj,any,any,,o,,' name='spaRta' posn='50'>
4.2	wOra	NN	<fs af='wOra,n,m,sg,3,o,0,0' name='wOra' posn='60'>
4.3	para	PSP	<fs af='para,psp,,,,,,' name='para' posn='70'>
	))
5	((	VGF	<fs voicetype='active' name='VGF' stype='declarative' drel='ccof:CCP'>
5.1	nahIM	NEG	<fs af='nahIM,avy,,,,,,' name='nahIM' posn='80'>
5.2	bawAyA	VM	<fs af='bawA,v,m,sg,any,,yA,yA' name='bawAyA' posn='90'>
	))
6	((	CCP	<fs name='CCP2' drel='rs:NP2'>
6.1	ki	CC	<fs af='ki,avy,,,,,,' name='ki' posn='100'>
	))
7	((	NP	<fs name='NP4' drel='k4:VGF2'>
7.1	sarakAra	NN	<fs af='sarakAra,n,f,sg,3,o,0,0' name='sarakAra' posn='110'>
7.2	se	PSP	<fs af='se,psp,,,,,,' name='se' posn='120'>
	))
8	((	NP	<fs name='NP5' drel='k1:VGF2'>
8.1	unhoMne	PRP	<fs af='vaha,pn,any,sg,3h,o,ne,ne' name='unhoMne' posn='130'>
	))
9	((	NP	<fs name='NP6' drel='k7:VGF2'>
9.1	isa	DEM	<fs af='yaha,pn,any,sg,3,o,,' name='isa' posn='140'>
9.2	mAmale	NN	<fs af='mAmalA,n,m,sg,3,o,0,0' name='mAmale' posn='150'>
9.3	meM	PSP	<fs af='meM,psp,,,,,,' name='meM' posn='160'>
	))
10	((	NP	<fs name='NP7' drel='k2:VGF2'>
10.1	kyA	WQ	<fs af='kyA,pn,,,,,,' name='kyA' posn='170'>
	))
11	((	VGF	<fs voicetype='active' name='VGF2' stype='interrogative' drel='ccof:CCP2'>
11.1	kahA	VM	<fs af='kaha,v,m,sg,any,,yA,yA' name='kahA' posn='180'>
11.2	WA	VAUX	<fs af='WA,v,m,sg,any,,WA,WA' name='WA' posn='190'>
	))
12	((	BLK	<fs name='BLK' drel='rsym:CCP'>
12.1	.	SYM	<fs af='.,punc,,,,,,' name='.' posn='200'>
	))
</Sentence>

<Sentence id='7'>
1	((	NP	<fs name='NP' drel='k1:VGF'>
1.1	AdavANI	NNP	<fs af='AdavANI,n,any,sg,3,d,0,0' name='AdavANI' posn='10'>
	))
2	((	NP	<fs name='NP2' drel='r6:NP3'>
2.1	koyambatUra	NNP	<fs af='koyambatUra,n,m,sg,3,d,0,0' name='koyambatUra' posn='20'>
2.2	visPota	NN	<fs af='visPota,n,m,sg,3,o,0,0' name='visPota' posn='30'>
2.3	ke	PSP	<fs af='kA,psp,m,sg,,o,,' name='ke' posn='40'>
	))
3	((	NP	<fs name='NP3' drel='k7:VGF'>
3.1	mAmale	NN	<fs af='mAmalA,n,m,sg,3,o,0,0' name='mAmale' posn='50'>
3.2	meM	PSP	<fs af='meM,psp,,,,,,' name='meM' posn='60'>
	))
4	((	NP	<fs name='NP4' drel='jjmod:JJP'>
4.1	jela	NN	<fs af='jela,n,f,sg,3,o,0,0' name='jela' posn='70'>
4.2	meM	PSP	<fs af='meM,psp,,,,,,' name='meM2' posn='80'>
	))
5	((	JJP	<fs name='JJP' drel='nmod:NP5'>
5.1	baMxa	JJ	<fs af='baMxa,adj,any,any,,o,,' name='baMxa' posn='90'>
	))
6	((	NP	<fs name='NP5' drel='k4:VGNN'>
6.1	maxanI	NNP	<fs af='maxanI,n,m,sg,3,o,0,0' name='maxanI' posn='100'>
6.2	ko	PSP	<fs af='ko,psp,,,,,,' name='ko' posn='110'>
	))
7	((	JJP	<fs name='JJP2' drel='pof:VGNN'>
7.1	rihA	JJ	<fs af='rihA,adj,any,any,,,,' name='rihA' posn='120'>
	))
8	((	VGNN	<fs name='VGNN' drel='k7:VGNF'>
8.1	karane	VM	<fs af='kara,v,any,any,any,o,nA,nA' name='karane' posn='130'>
8.2	ke	PSP	<fs af='ke,psp,,,,,,' name='ke2' posn='140'>
8.3	bAre	PSP	<fs af='bAre,psp,,,,,,' name='bAre' posn='150'>
8.4	meM	PSP	<fs af='meM,psp,,,,,,' name='meM3' posn='160'>
	))
9	((	VGNF	<fs name='VGNF' drel='nmod__k2inv:NP6'>
9.1	pUCe	VM	<fs af='pUCa,v,m,sg,any,,yA,yA' name='pUCe' posn='170'>
9.2	gae	VAUX	<fs af='jA,v,m,sg,any,,yA1,yA1' name='gae' posn='180'>
	))
10	((	NP	<fs name='NP6' drel='r6:NP7'>
10.1	eka	QC	<fs af='eka,num,any,any,,any,,' name='eka' posn='190'>
10.2	savAla	NN	<fs af='savAla,n,m,sg,3,o,0,0' name='savAla' posn='200'>
10.3	kA	PSP	<fs af='kA,psp,m,sg,,d,,' name='kA' posn='210'>
	))
11	((	NP	<fs name='NP7' drel='k2:VGF'>
11.1	javAba	NN	<fs af='javAba,n,m,sg,3,d,0,0' name='javAba' posn='220'>
	))
12	((	VGF	<fs name='VGF' stype='declarative' voicetype='active'>
12.1	xe	VM	<fs af='xe,v,any,any,any,,0,0' name='xe' posn='230'>
12.2	rahe	VAUX	<fs af='raha,v,m,sg,3h,,yA,yA' name='rahe' posn='240'>
12.3	We	VAUX	<fs af='WA,v,m,sg,3h,,WA,WA' name='We' posn='250'>
	))
13	((	BLK	<fs name='BLK' drel='rsym:VGF'>
13.1	.	SYM	<fs af='.,punc,,,,,,' name='.' posn='260'>
	))
</Sentence>

<Sentence id='8'>
1	((	NULL__NP	<fs mtype='gap' troot='yaha' dmrel='k1:VGF' name='NULL__NP'>
1.1	NULL	PRP	<fs af=',pn,,,,,,' name='NULL'>
	))
2	((	JJP	<fs name='JJP' drel='pof:VGF'>
2.1	mAlUma	JJ	<fs af='mAlUma,adj,any,any,,,,' name='mAlUma' posn='10'>
	))
3	((	VGF	<fs name='VGF' stype='declarative' voicetype='active'>
3.1	ho	VM	<fs af='ho,v,any,any,any,,0,0' name='ho' posn='20'>
	))
4	((	CCP	<fs name='CCP' drel='rs:NULL__NP'>
4.1	ki	CC	<fs af='ki,avy,,,,,,' name='ki' posn='30'>
	))
5	((	NP	<fs name='NP' drel='k1:VGNN'>
5.1	use	PRP	<fs af='vaha,pn,any,sg,3,o,ko,ko' name='use' posn='40'>
	))
6	((	JJP	<fs name='JJP2' drel='pof:VGNN'>
6.1	rihA	JJ	<fs af='rihA,adj,any,any,,,,' name='rihA' posn='50'>
	))
7	((	VGNN	<fs name='VGNN' drel='rt:VGF2'>
7.1	karane	VM	<fs af='kara,v,any,any,any,o,nA,nA' name='karane' posn='60'>
7.2	ke	PSP	<fs af='ke,psp,,,,,,' name='ke' posn='70'>
7.3	lie	PSP	<fs af='lie,psp,,,,,,' name='lie' posn='80'>
	))
8	((	NP	<fs name='NP2' drel='adv:VGF2'>
8.1	sarvasammawi	NN	<fs af='sarvasammawi,n,f,sg,3,o,0,0' name='sarvasammawi' posn='90'>
8.2	se	PSP	<fs af='se,psp,,,,,,' name='se' posn='100'>
	))
9	((	NP	<fs name='NP3' drel='k1:VGF2'>
9.1	saBI	QF	<fs af='saBI,avy,,,,,,' name='saBI' posn='110'>
9.2	viXAyakoM	NN	<fs af='viXAyaka,n,m,pl,3,o,0,0' name='viXAyakoM' posn='120'>
9.3	ne	PSP	<fs af='ne,psp,,,,,,' name='ne' posn='130'>
	))
10	((	NP	<fs name='NP4' drel='k7p:VGF2'>
10.1	kerala	NNPC	<fs af='kerala,n,m,sg,3,d,0,0' name='kerala' posn='140'>
10.2	viXAna	NNPC	<fs af='viXAna,n,m,sg,3,d,0,0' name='viXAna' posn='150'>
10.3	saBA	NNP	<fs af='saBA,n,f,sg,3,o,0,0' name='saBA' posn='160'>
10.4	meM	PSP	<fs af='meM,psp,,,,,,' name='meM' posn='170'>
	))
11	((	NP	<fs name='NP5' drel='k2:VGF2'>
11.1	eka	QC	<fs af='eka,num,any,any,,any,,' name='eka' posn='180'>
11.2	praswAva	NN	<fs af='praswAva,n,m,sg,3,d,0,0' name='praswAva' posn='190'>
	))
12	((	JJP	<fs name='JJP3' drel='pof:VGF2'>
12.1	peSa	JJ	<fs af='peSa,adj,any,any,,,,' name='peSa' posn='200'>
	))
13	((	VGF	<fs voicetype='active' name='VGF2' stype='declarative' drel='ccof:CCP'>
13.1	kiyA	VM	<fs af='kara,v,m,sg,any,,yA,yA' name='kiyA' posn='210'>
13.2	hE	VAUX	<fs af='hE,v,any,sg,3,,hE,hE' name='hE' posn='220'>
	))
14	((	BLK	<fs name='BLK' drel='rsym:VGF'>
14.1	.	SYM	<fs af='.,punc,,,,,,' name='.' posn='230'>
	))
</Sentence>

<Sentence id='9'>
1	((	NP	<fs name='NP' drel='sent-adv:VGF'>
1.1	isake	PRP	<fs af='yaha,pn,any,sg,3,o,ke,ke' name='isake' posn='10'>
1.2	sAWa	NST	<fs af='sAWa,nst,m,sg,3,d,,' name='sAWa' posn='20'>
1.3	hI	RP	<fs af='hI,avy,,,,,,' name='hI' posn='30'>
	))
2	((	NP	<fs name='NP2' drel='k1:VGF'>
2.1	AdavANI	NNP	<fs af='AdavANI,n,any,sg,3,o,0,0' name='AdavANI' posn='40'>
2.2	ne	PSP	<fs af='ne,psp,,,,,,' name='ne' posn='50'>
	))
3	((	NP	<fs name='NP3' drel='r6:NP4'>
3.1	jEna	NNP	<fs af='jEna,n,m,sg,3,d,0,0' name='jEna' posn='60'>
3.2	Xarma	NN	<fs af='Xarma,n,m,sg,3,o,0,0' name='Xarma' posn='70'>
3.3	ke	PSP	<fs af='kA,psp,m,pl,,o,,' name='ke' posn='80'>
	))
4	((	NP	<fs name='NP4' drel='k2:VGNN'>
4.1	logoM	NN	<fs af='loga,n,m,pl,3,o,0,0' name='logoM' posn='90'>
4.2	ko	PSP	<fs af='ko,psp,,,,,,' name='ko' posn='100'>
	))
5	((	NP	<fs name='NP5' drel='k7:VGNN'>
5.1	alpasaMKyaka	JJ	<fs af='alpasaMKyaka,adj,any,any,,o,,' name='alpasaMKyaka' posn='110'>
5.2	samuxAya	NN	<fs af='samuxAya,n,m,sg,3,o,0,0' name='samuxAya' posn='120'>
5.3	meM	PSP	<fs af='meM,psp,,,,,,' name='meM' posn='130'>
	))
6	((	VGNN	<fs name='VGNN' drel='r6:NP6'>
6.1	raKane	VM	<fs af='raKa,v,any,any,any,o,nA,nA' name='raKane' posn='140'>
6.2	kI	PSP	<fs af='kA,psp,f,sg,,o,,' name='kI' posn='150'>
	))
7	((	NP	<fs name='NP6' drel='k2:VGNF'>
7.1	mAMga	NN	<fs af='mAMga,n,f,sg,3,o,0,0' name='mAMga' posn='160'>
7.2	ko	PSP	<fs af='ko,psp,,,,,,' name='ko2' posn='170'>
	))
8	((	JJP	<fs name='JJP' drel='k2s:VGNF'>
8.1	wrutipUrNa	JJ	<fs af='wrutipUrNa,adj,any,any,,,,' name='wrutipUrNa' posn='180'>
	))
9	((	VGNF	<fs name='VGNF' drel='vmod:VGF'>
9.1	bawAwe	VM	<fs af='bawA,v,m,sg,any,,wA,wA' name='bawAwe' posn='190'>
9.2	hue	VAUX	<fs af='ho,v,m,sg,any,,yA,yA' name='hue' posn='200'>
	))
10	((	VGF	<fs name='VGF' stype='declarative' voicetype='active'>
10.1	kahA	VM	<fs af='kaha,v,m,sg,any,,yA,yA' name='kahA' posn='210'>
	))
11	((	CCP	<fs name='CCP' drel='k2:VGF'>
11.1	ki	CC	<fs af='ki,avy,,,,,,' name='ki' posn='220'>
	))
12	((	NP	<fs name='NP7' drel='k7p:VGNN2'>
12.1	alpasaMKyaka	JJ	<fs af='alpasaMKyaka,adj,any,any,,o,,' name='alpasaMKyaka2' posn='230'>
12.2	SikRA	NNC	<fs af='SikRA,n,f,sg,3,d,0,0' name='SikRA' posn='240'>
12.3	saMsWAnoM	NN	<fs af='saMsWAna,n,m,pl,3,o,0,0' name='saMsWAnoM' posn='250'>
12.4	meM	PSP	<fs af='meM,psp,,,,,,' name='meM2' posn='260'>
	))
13	((	NP	<fs name='NP8' drel='nmod:NP9'>
13.1	anusUciwa	NN	<fs af='anusUciwa,n,m,sg,3,d,0,0' name='anusUciwa' posn='270'>
	))
14	((	NP	<fs name='NP9' drel='ccof:CCP2'>
14.1	jAwi	NN	<fs af='jAwi,n,f,sg,3,o,0,0' name='jAwi' posn='280'>
	))
15	((	CCP	<fs name='CCP2' drel='k4:VGNN2'>
15.1	Ora	CC	<fs af='Ora,avy,,,,,,' name='Ora' posn='290'>
	))
16	((	NP	<fs name='NP10' drel='ccof:CCP2'>
16.1	janajAwi	NN	<fs af='janajAwi,n,f,sg,3,o,0,0' name='janajAwi' posn='300'>
16.2	ko	PSP	<fs af='ko,psp,,,,,,' name='ko3' posn='310'>
	))
17	((	NP	<fs name='NP11' drel='adv:VGNN2'>
17.1	kAnUnI	JJ	<fs af='kAnUnI,adj,any,any,,o,,' name='kAnUnI' posn='320'>
17.2	rUpa	NN	<fs af='rUpa,n,m,sg,3,o,0,0' name='rUpa' posn='330'>
17.3	se	PSP	<fs af='se,psp,,,,,,' name='se' posn='340'>
	))
18	((	NP	<fs name='NP12' drel='k2:VGNN2'>
18.1	ArakRaNa	NN	<fs af='ArakRaNa,n,m,sg,3,d,0,0' name='ArakRaNa' posn='350'>
	))
19	((	VGNN	<fs name='VGNN2' drel='r6:NP13'>
19.1	xene	VM	<fs af='xe,v,any,any,any,o,nA,nA' name='xene' posn='360'>
19.2	ke	PSP	<fs af='kA,psp,m,sg,,o,,' name='ke2' posn='370'>
	))
20	((	NP	<fs name='NP13' drel='k7:VGF2'>
20.1	mAmale	NN	<fs af='mAmalA,n,m,sg,3,o,0,0' name='mAmale' posn='380'>
20.2	meM	PSP	<fs af='meM,psp,,,,,,' name='meM3' posn='390'>
	))
21	((	NP	<fs name='NP14' drel='k7:VGF2'>
21.1	rARtrIya	JJ	<fs af='rARtrIya,adj,any,any,,o,,' name='rARtrIya' posn='400'>
21.2	swara	NN	<fs af='swara,n,m,sg,3,o,0,0' name='swara' posn='410'>
21.3	para	PSP	<fs af='para,psp,,,,,,' name='para' posn='420'>
	))
22	((	NP	<fs name='NP15' drel='pof:VGF2'>
22.1	bahasa	NN	<fs af='bahasa,n,f,sg,3,d,0,0' name='bahasa' posn='430'>
	))
23	((	VGF	<fs voicetype='active' name='VGF2' stype='declarative' drel='ccof:CCP'>
23.1	honI	VM	<fs af='ho,v,f,sg,any,,nA,nA' name='honI' posn='440'>
23.2	cAhie	VAUX	<fs af='cAhie,v,any,any,any,,0,0' name='cAhie' posn='450'>
	))
24	((	BLK	<fs name='BLK' drel='rsym:VGF'>
24.1	.	SYM	<fs af='.,punc,,,,,,' name='.' posn='460'>
	))
</Sentence>

<Sentence id='10'>
1	((	NP	<fs name='NP' drel='r6:NP2'>
1.1	pEgaMbara	NNC	<fs af='pEgaMbara,n,m,sg,3,d,0,0' name='pEgaMbara' posn='10'>
1.2	mohammaxa	NNP	<fs af='mohammaxa,n,m,sg,3,d,0,0' name='mohammaxa' posn='20'>
1.3	sAhaba	NN	<fs af='sAhaba,n,m,sg,3,o,0,0' name='sAhaba' posn='30'>
1.4	kI	PSP	<fs af='kA,psp,f,sg,,d,,' name='kI' posn='40'>
	))
2	((	NP	<fs name='NP2' drel='nmod:NP3'>
2.1	jayaMwI	NN	<fs af='jayaMwI,n,f,sg,3,d,0,0' name='jayaMwI' posn='50'>
	))
3	((	NP	<fs name='NP3' drel='r6:NP4'>
3.1	Ixa	NNPC	<fs af='Ixa,n,f,sg,3,d,0,0' name='Ixa' posn='60'>
3.2	-	SYM	<fs af='-,punc,,,,,,' name='-' posn='70'>
3.3	milAxa	NNPC	<fs af='milAxa,n,m,sg,3,d,0,0' name='milAxa' posn='80'>
3.4	-	SYM	<fs af='-,punc,,,,,,' name='-2' posn='90'>
3.5	una	NNPC	<fs af='una,unk,,,,,,' name='una' posn='100'>
3.6	-	SYM	<fs af='-,punc,,,,,,' name='-3' posn='110'>
3.7	nabI	NNP	<fs af='nabI,n,f,sg,3,o,0,0' name='nabI' posn='120'>
3.8	ke	PSP	<fs af='kA,psp,m,sg,,o,,' name='ke' posn='130'>
	))
4	((	NP	<fs name='NP4' drel='k7:VGF'>
4.1	mOke	NN	<fs af='mOkA,n,m,sg,3,o,0,0' name='mOke' posn='140'>
4.2	para	PSP	<fs af='para,psp,,,,,,' name='para' posn='150'>
	))
5	((	NP	<fs name='NP5' drel='k4:VGNF'>
5.1	musalamAnoM	NN	<fs af='musalamAna,n,m,pl,3,o,0,0' name='musalamAnoM' posn='160'>
5.2	ko	PSP	<fs af='ko,psp,,,,,,' name='ko' posn='170'>
	))
6	((	NP	<fs name='NP6' drel='pof:VGNF'>
6.1	baXAI	NN	<fs af='baXAI,n,f,sg,3,d,0,0' name='baXAI' posn='180'>
	))
7	((	VGNF	<fs name='VGNF' drel='vmod:VGF'>
7.1	xewe	VM	<fs af='xe,v,m,sg,any,,wA,wA' name='xewe' posn='190'>
7.2	hue	VAUX	<fs af='ho,v,m,sg,any,,yA,yA' name='hue' posn='200'>
	))
8	((	NP	<fs name='NP7' drel='k1:VGF'>
8.1	variRTa	JJ	<fs af='variRTa,adj,any,any,,o,,' name='variRTa' posn='210'>
8.2	BAjapA	NNP	<fs af='BAjapA,n,f,sg,3,d,0,0' name='BAjapA' posn='220'>
8.3	newA	NN	<fs af='newA,n,m,sg,3,o,0,0' name='newA' posn='230'>
8.4	ne	PSP	<fs af='ne,psp,,,,,,' name='ne' posn='240'>
	))
9	((	VGF	<fs name='VGF' stype='declarative' voicetype='active'>
9.1	kahA	VM	<fs af='kaha,v,m,sg,any,,yA,yA' name='kahA' posn='250'>
	))
10	((	CCP	<fs name='CCP' drel='k2:VGF'>
10.1	ki	CC	<fs af='ki,avy,,,,,,' name='ki' posn='260'>
	))
11	((	NP	<fs name='NP8' drel='r6:NP9'>
11.1	BArawa	NNP	<fs af='BArawa,n,m,sg,3,o,0,0' name='BArawa' posn='270'>
11.2	kI	PSP	<fs af='kA,psp,f,sg,,o,,' name='kI2' posn='280'>
	))
12	((	NP	<fs name='NP9' drel='k1:VGNN'>
12.1	aKaMdawA	NN	<fs af='aKaMdawA,n,f,sg,3,o,0,0' name='aKaMdawA' posn='290'>
12.2	ko	PSP	<fs af='ko,psp,,,,,,' name='ko2' posn='300'>
	))
13	((	JJP	<fs name='JJP' drel='k2s:VGNN'>
13.1	majabUwa	JJ	<fs af='majabUwa,adj,any,any,,,,' name='majabUwa' posn='310'>
	))
14	((	VGNN	<fs name='VGNN' drel='rt:VGF2'>
14.1	banAne	VM	<fs af='banA,v,any,any,any,o,nA,nA' name='banAne' posn='320'>
14.2	ke	PSP	<fs af='ke,psp,,,,,,' name='ke2' posn='330'>
14.3	lie	PSP	<fs af='lie,psp,,,,,,' name='lie' posn='340'>
	))
15	((	NP	<fs name='NP10' drel='k1:VGF2'>
15.1	hiMxU	NNP	<fs af='hiMxU,n,m,sg,3,d,0,0' name='hiMxU' posn='350'>
15.2	-	SYM	<fs af='-,punc,,,,,,' name='-4' posn='360'>
15.3	muslima	NNP	<fs af='muslima,n,m,sg,3,d,0,0' name='muslima' posn='370'>
15.4	ekawA	NN	<fs af='ekawA,n,f,sg,3,d,0,0' name='ekawA' posn='380'>
	))
16	((	JJP	<fs name='JJP2' drel='pof:VGF2'>
16.1	jarUrI	JJ	<fs af='jarUrI,adj,any,any,,,,' name='jarUrI' posn='390'>
	))
17	((	VGF	<fs voicetype='active' name='VGF2' stype='declarative' drel='ccof:CCP'>
17.1	hE	VM	<fs af='hE,v,any,sg,3,,hE,hE' name='hE' posn='400'>
	))
18	((	BLK	<fs name='BLK' drel='rsym:VGF'>
18.1	.	SYM	<fs af='.,punc,,,,,,' name='.' posn='410'>
	))
</Sentence>

<Sentence id='11'>
1	((	NP	<fs name='NP' drel='k1:VGF'>
1.1	mEM	PRP	<fs af='mEM,pn,any,sg,1,d,0,0' name='mEM' posn='10'>
	))
2	((	NP	<fs name='NP2' drel='k7:VGNN'>
2.1	xonoM	QC	<fs af='xo,num,any,pl,,any,,' name='xonoM' posn='20'>
2.2	samuxAyoM	NN	<fs af='samuxAya,n,m,pl,3,o,0,0' name='samuxAyoM' posn='30'>
2.3	ke	PSP	<fs af='ke,psp,,,,,,' name='ke' posn='40'>
2.4	bIca	NST	<fs af='bIca,nst,m,sg,3,d,,' name='bIca' posn='50'>
	))
3	((	NP	<fs name='NP3' drel='ccof:CCP'>
3.1	ekawA	NN	<fs af='ekawA,n,f,sg,3,d,0,0' name='ekawA' posn='60'>
3.2	,	SYM	<fs af='COMMA,punc,,,,,,' name=',' posn='70'>
	))
4	((	NP	<fs name='NP4' drel='ccof:CCP'>
4.1	sOhArxa	NN	<fs af='sOhArxa,n,m,sg,3,d,0,0' name='sOhArxa' posn='80'>
4.2	,	SYM	<fs af='COMMA,punc,,,,,,' name=',2' posn='90'>
	))
5	((	NP	<fs name='NP5' drel='ccof:CCP'>
5.1	mEwrI	NN	<fs af='mEwrI,n,f,sg,3,d,0,0' name='mEwrI' posn='100'>
	))
6	((	CCP	<fs name='CCP' drel='k2:VGNN'>
6.1	Ora	CC	<fs af='Ora,avy,,,,,,' name='Ora' posn='110'>
	))
7	((	NP	<fs name='NP6' drel='ccof:CCP'>
7.1	ApasI	JJ	<fs af='ApasI,adj,any,any,,d,,' name='ApasI' posn='120'>
7.2	samaJa	NN	<fs af='samaJa,n,f,sg,3,d,0,0' name='samaJa' posn='130'>
	))
8	((	VGNN	<fs name='VGNN' drel='k7:VGF'>
8.1	baDZAne	VM	<fs af='baDZA,v,any,any,any,o,nA,nA' name='baDZAne' posn='140'>
8.2	meM	PSP	<fs af='meM,psp,,,,,,' name='meM' posn='150'>
	))
9	((	NP	<fs name='NP7' drel='r6:NP8'>
9.1	apanI	PRP	<fs af='apanA,pn,f,any,any,o,0,0' name='apanI' posn='160'>
	))
10	((	NP	<fs name='NP8' drel='k2:VGNF'>
10.1	BUmikA	NN	<fs af='BUmikA,n,f,sg,3,o,0,0' name='BUmikA' posn='170'>
10.2	ko	PSP	<fs af='ko,psp,,,,,,' name='ko' posn='180'>
	))
11	((	VGNF	<fs name='VGNF' drel='vmod:VGF'>
11.1	lekara	VM	<fs af='le,v,any,any,any,,kara,kara' name='lekara' posn='190'>
	))
12	((	NP	<fs name='NP9' drel='adv:VGF'>
12.1	pUrI	JJ	<fs af='pUrA,adj,f,sg,,d,,' name='pUrI' posn='200'>
12.2	waraha	NN	<fs af='waraha,n,f,sg,3,d,0,0' name='waraha' posn='210'>
	))
13	((	JJP	<fs name='JJP' drel='k1s:VGF'>
13.1	prawibaxXa	JJ	<fs af='variRTa,adj,any,any,,,,' name='prawibaxXa' posn='220'>
	))
14	((	VGF	<fs name='VGF' stype='declarative' voicetype='active'>
14.1	hUM	VM	<fs af='hE,v,any,sg,1,,hE,hE' name='hUM' posn='230'>
	))
15	((	BLK	<fs name='BLK' drel='rsym:VGF'>
15.1	.	SYM	<fs af='.,punc,,,,,,' name='.' posn='240'>
	))
</Sentence>

<Sentence id='12'>
1	((	NP	<fs name='NP' drel='k1:VGF'>
1.1	AdavANI	NNP	<fs af='AdavANI,n,any,sg,3,o,0,0' name='AdavANI' posn='10'>
1.2	ne	PSP	<fs af='ne,psp,,,,,,' name='ne' posn='20'>
	))
2	((	NP	<fs name='NP2' drel='k2:VGF'>
2.1	musalamAnoM	NN	<fs af='musalamAna,n,m,pl,3,o,0,0' name='musalamAnoM' posn='30'>
2.2	se	PSP	<fs af='se,psp,,,,,,' name='se' posn='40'>
	))
3	((	NP	<fs name='NP3' drel='k7p:VGNN'>
3.1	ayoXyA	NNP	<fs af='ayoXyA,n,f,sg,3,o,0,0' name='ayoXyA' posn='50'>
3.2	meM	PSP	<fs af='meM,psp,,,,,,' name='meM' posn='60'>
	))
4	((	NP	<fs name='NP4' drel='k2:VGNN'>
4.1	maMxira	NN	<fs af='maMxira,n,m,sg,3,d,0,0' name='maMxira' posn='70'>
	))
5	((	VGNN	<fs name='VGNN' drel='k7:VGF'>
5.1	banAne	VM	<fs af='banA,v,any,any,any,o,nA,nA' name='banAne' posn='80'>
5.2	meM	PSP	<fs af='meM,psp,,,,,,' name='meM2' posn='90'>
	))
6	((	NP	<fs name='NP5' drel='pof:VGNN2'>
6.1	maxaxa	NN	<fs af='maxaxa,n,f,sg,3,d,0,0' name='maxaxa' posn='100'>
	))
7	((	VGNN	<fs name='VGNN2' drel='r6-k2:NP6'>
7.1	karane	VM	<fs af='kara,v,any,any,any,o,nA,nA' name='karane' posn='110'>
7.2	kI	PSP	<fs af='kA,psp,f,sg,,d,,' name='kI' posn='120'>
	))
8	((	NP	<fs name='NP6' drel='pof:VGF'>
8.1	apIla	NN	<fs af='apIla,n,f,sg,3,d,0,0' name='apIla' posn='130'>
	))
9	((	VGF	<fs name='VGF' stype='declarative' voicetype='active'>
9.1	kI	VM	<fs af='kara,v,f,sg,any,,yA,yA' name='kI2' posn='140'>
	))
10	((	BLK	<fs name='BLK' drel='rsym:VGF'>
10.1	.	SYM	<fs af='.,punc,,,,,,' name='.' posn='150'>
	))
</Sentence>

<Sentence id='13'>
1	((	NP	<fs name='NP' drel='k1:VGF'>
1.1	AdavANI	NNP	<fs af='AdavANI,n,any,sg,3,o,0,0' name='AdavANI' posn='10'>
1.2	ne	PSP	<fs af='ne,psp,,,,,,' name='ne' posn='20'>
	))
2	((	VGF	<fs name='VGF' stype='declarative' voicetype='active'>
2.1	kahA	VM	<fs af='kaha,v,m,sg,any,,yA,yA' name='kahA' posn='30'>
	))
3	((	CCP	<fs name='CCP' drel='k2:VGF'>
3.1	ki	CC	<fs af='ki,avy,,,,,,' name='ki' posn='40'>
	))
4	((	NP	<fs name='NP2' drel='k1:VGF2'>
4.1	BArawa	NNP	<fs af='BArawa,n,m,sg,3,d,0,0' name='BArawa' posn='50'>
	))
5	((	NP	<fs name='NP3' drel='r6:NP4'>
5.1	AMwakavAxa	NN	<fs af='AMwakavAxa,n,m,sg,3,o,0,0' name='AMwakavAxa' posn='60'>
5.2	kI	PSP	<fs af='kA,psp,f,sg,,o,,' name='kI' posn='70'>
	))
6	((	NP	<fs name='NP4' drel='ras-k1:VGF2'>
6.1	gaMBIra	JJ	<fs af='gaMBIra,adj,any,any,,o,,' name='gaMBIra' posn='80'>
6.2	samasyA	NN	<fs af='samasyA,n,f,sg,3,o,0,0' name='samasyA' posn='90'>
6.3	se	PSP	<fs af='se,psp,,,,,,' name='se' posn='100'>
	))
7	((	VGF	<fs voicetype='active' name='VGF2' stype='declarative' drel='ccof:CCP2'>
7.1	jUJa	VM	<fs af='jUJa,v,any,any,any,,0,0' name='jUJa' posn='110'>
7.2	rahA	VAUX	<fs af='raha,v,m,sg,any,,yA,yA' name='rahA' posn='120'>
7.3	hE	VAUX	<fs af='hE,v,any,sg,3,,hE,hE' name='hE' posn='130'>
	))
8	((	CCP	<fs name='CCP2' drel='ccof:CCP'>
8.1	Ora	CC	<fs af='Ora,avy,,,,,,' name='Ora' posn='140'>
	))
9	((	NP	<fs name='NP5' drel='rh:VGF3'>
9.1	GusapETa	NN	<fs af='GusapETa,n,f,sg,3,o,0,0' name='GusapETa' posn='150'>
9.2	ke	PSP	<fs af='ke,psp,m,,,o,,' name='ke' posn='160'>
9.3	kAraNa	PSP	<fs af='kAraNa,n,m,,,o,,' name='kAraNa' posn='170'>
	))
10	((	NP	<fs name='NP6' drel='r6:NP7'>
10.1	xeSa	NN	<fs af='xeSa,n,m,sg,3,o,0,0' name='xeSa' posn='180'>
10.2	kI	PSP	<fs af='kA,psp,f,sg,,d,,' name='kI2' posn='190'>
	))
11	((	NP	<fs name='NP7' drel='k1:VGF3'>
11.1	AMwarika	JJ	<fs af='AMwarika,adj,any,any,,d,,' name='AMwarika' posn='200'>
11.2	surakRA	NN	<fs af='surakRA,n,f,sg,3,d,0,0' name='surakRA' posn='210'>
	))
12	((	NP	<fs name='NP8' drel='k7:VGF3'>
12.1	Kaware	NN	<fs af='KawarA,n,m,sg,3,o,0,0' name='Kaware' posn='220'>
12.2	meM	PSP	<fs af='meM,psp,,,,,,' name='meM' posn='230'>
	))
13	((	VGF	<fs voicetype='active' name='VGF3' stype='declarative' drel='ccof:CCP2'>
13.1	hE	VM	<fs af='hE,v,any,sg,3,,hE,hE' name='hE2' posn='240'>
	))
14	((	BLK	<fs name='BLK' drel='rsym:VGF'>
14.1	.	SYM	<fs af='.,punc,,,,,,' name='.' posn='250'>
	))
</Sentence>

<Sentence id='14'>
1	((	CCP	<fs name='CCP'>
1.1	lekina	CC	<fs af='lekina,avy,,,,,,' name='lekina' posn='10'>
	))
2	((	NP	<fs name='NP' drel='k1:VGF'>
2.1	yUpIe	NNP	<fs af='yUpIe,n,m,sg,3,d,0,0' name='yUpIe' posn='20'>
2.2	sarakAra	NN	<fs af='sarakAra,n,f,sg,3,d,0,0' name='sarakAra' posn='30'>
	))
3	((	NP	<fs name='NP2' drel='k5:VGF'>
3.1	ina	DEM	<fs af='yaha,pn,any,pl,3,o,,' name='ina' posn='40'>
3.2	sabase	PRP	<fs af='saba,pn,any,pl,3,o,se,se' name='sabase' posn='50'>
	))
4	((	JJP	<fs name='JJP' drel='k1s:VGF'>
4.1	beKabara	JJ	<fs af='beKabara,adj,any,any,,,,' name='beKabara' posn='60'>
	))
5	((	VGF	<fs voicetype='active' name='VGF' stype='declarative' drel='ccof:CCP'>
5.1	hE	VM	<fs af='hE,v,any,sg,3,,hE,hE' name='hE' posn='70'>
	))
6	((	BLK	<fs name='BLK' drel='rsym:CCP'>
6.1	.	SYM	<fs af='.,punc,,,,,,' name='.' posn='80'>
	))
</Sentence>

<Sentence id='15'>
1	((	NP	<fs name='NP' drel='r6:NP2'>
1.1	kAMgresa	NNP	<fs af='kAMgresa,n,f,sg,3,o,0,0' name='kAMgresa' posn='10'>
1.2	kI	PSP	<fs af='kA,psp,f,sg,,o,,' name='kI' posn='20'>
	))
2	((	NP	<fs name='NP2' drel='k1:VGF'>
2.1	sarakAra	NN	<fs af='sarakAra,n,f,sg,3,o,0,0' name='sarakAra' posn='30'>
2.2	ne	PSP	<fs af='ne,psp,,,,,,' name='ne' posn='40'>
	))
3	((	NP	<fs name='NP3' drel='r6:NP4'>
3.1	Ama	JJ	<fs af='Ama,adj,any,any,,o,,' name='Ama' posn='50'>
3.2	logoM	NN	<fs af='loga,n,m,pl,3,o,0,0' name='logoM' posn='60'>
3.3	kI	PSP	<fs af='kA,psp,f,sg,,o,,' name='kI2' posn='70'>
	))
4	((	NP	<fs name='NP4' drel='rt:VGF'>
4.1	BalAI	NN	<fs af='BalAI,n,f,sg,3,o,0,0' name='BalAI' posn='80'>
4.2	ke	PSP	<fs af='ke,psp,,,,,,' name='ke' posn='90'>
4.3	lie	PSP	<fs af='lie,psp,,,,,,' name='lie' posn='100'>
	))
5	((	NP	<fs name='NP5' drel='pof:VGF'>
5.1	kuCa	PRP	<fs af='kuCa,pn,any,any,3,d,0,0' name='kuCa' posn='10'>
	))
6	((	VGF	<fs name='VGF' stype='declarative' voicetype='active'>
6.1	nahIM	NEG	<fs af='nahIM,avy,,,,,,' name='nahIM' posn='120'>
6.2	kiyA	VM	<fs af='kara,v,m,sg,any,,yA,yA' name='kiyA' posn='130'>
6.3	hE	VAUX	<fs af='hE,v,any,sg,3,,hE,hE' name='hE' posn='140'>
	))
7	((	BLK	<fs name='BLK' drel='rsym:VGF'>
7.1	.	SYM	<fs af='.,punc,,,,,,' name='.' posn='150'>
	))
</Sentence>

<Sentence id='16'>
1	((	NP	<fs name='NP' drel='k1:VGF'>
1.1	AdavANI	NNP	<fs af='AdavANI,n,any,sg,3,o,0,0' name='AdavANI' posn='10'>
1.2	ne	PSP	<fs af='ne,psp,,,,,,' name='ne' posn='20'>
	))
2	((	NP	<fs name='NP2' drel='k2:VGF'>
2.1	yaha	PRP	<fs af='yaha,pn,any,sg,3,d,0,0' name='yaha' posn='30'>
2.2	BI	RP	<fs af='BI,avy,,,,,,' name='BI' posn='40'>
	))
3	((	VGF	<fs name='VGF' stype='declarative' voicetype='active'>
3.1	kahA	VM	<fs af='kaha,v,m,sg,any,,yA,yA' name='kahA' posn='50'>
	))
4	((	CCP	<fs name='CCP' drel='rs:NP2'>
4.1	ki	CC	<fs af='ki,avy,,,,,,' name='ki' posn='60'>
	))
5	((	NP	<fs name='NP3' drel='k7t:VGF2'>
5.1	1990	NNP	<fs af='1990,n,any,sg,3,o,0,0' name='1990' posn='70'>
5.2	meM	PSP	<fs af='meM,psp,,,,,,' name='meM' posn='80'>
	))
6	((	NP	<fs name='NP4' drel='k1:VGF2'>
6.1	unhoMne	PRP	<fs af='vaha,pn,any,sg,3h,o,ne,ne' name='unhoMne' posn='90'>
	))
7	((	NP	<fs coref=':NP7' name='NP5' drel='k2:VGF2'>
7.1	jo	DEM	<fs af='jo,pn,any,sg,3,d,,' name='jo' posn='100'>
7.2	rAma	NNPC	<fs af='rAma,n,m,sg,3,d,0,0' name='rAma' posn='110'>
7.3	raWa	NNPC	<fs af='raWa,n,m,sg,3,d,0,0' name='raWa' posn='120'>
7.4	yAwrA	NNP	<fs af='yAwrA,n,f,sg,3,d,0,0' name='yAwrA' posn='130'>
	))
8	((	NP	<fs name='NP6' drel='pof:VGF2'>
8.1	SurU	NN	<fs af='SurU,n,m,sg,3,d,0,0' name='SurU' posn='140'>
	))
9	((	VGF	<fs voicetype='active' name='VGF2' stype='declarative' drel='nmod__relc:NP7'>
9.1	kI	VM	<fs af='kara,v,f,sg,any,,yA,yA' name='kI' posn='150'>
9.2	WI	VAUX	<fs af='WA,v,f,sg,any,,WA,WA' name='WI' posn='160'>
	))
10	((	NP	<fs name='NP7' drel='k1:VGF3'>
10.1	vaha	PRP	<fs af='vaha,pn,any,sg,3,d,0,0' name='vaha' posn='170'>
	))
11	((	NP	<fs name='NP8' drel='r6:NP9'>
11.1	maMdala	NNPC	<fs af='maMdala,n,m,sg,3,d,0,0' name='maMdala' posn='180'>
11.2	kamISana	NNP	<fs af='kamISana,n,m,sg,3,o,0,0' name='kamISana' posn='190'>
11.3	kI	PSP	<fs af='kA,psp,f,sg,,o,,' name='kI2' posn='200'>
	))
12	((	NP	<fs name='NP9' drel='r6:NP10'>
12.1	GoRaNA	NN	<fs af='GoRaNA,n,f,sg,3,o,0,0' name='GoRaNA' posn='210'>
12.2	kA	PSP	<fs af='kA,psp,m,sg,,d,,' name='kA' posn='220'>
	))
13	((	NP	<fs name='NP10' drel='k1s:VGF3'>
13.1	javAba	NN	<fs af='javAba,n,m,sg,3,d,0,0' name='javAba' posn='230'>
	))
14	((	VGF	<fs voicetype='active' name='VGF3' stype='declarative' drel='ccof:CCP'>
14.1	nahIM	NEG	<fs af='nahIM,avy,,,,,,' name='nahIM' posn='240'>
14.2	WA	VM	<fs af='WA,v,m,sg,any,,WA,WA' name='WA' posn='250'>
	))
15	((	BLK	<fs name='BLK' drel='rsym:VGF'>
15.1	.	SYM	<fs af='.,punc,,,,,,' name='.' posn='260'>
	))
</Sentence>

<Sentence id='17'>
1	((	NP	<fs name='NP' drel='k1:VGF'>
1.1	unhoMne	PRP	<fs af='vaha,pn,any,sg,3h,o,ne,ne' name='unhoMne' posn='10'>
	))
2	((	VGF	<fs name='VGF' stype='declarative' voicetype='active'>
2.1	kahA	VM	<fs af='kaha,v,m,sg,any,,yA,yA' name='kahA' posn='20'>
	))
3	((	CCP	<fs name='CCP' drel='k2:VGF'>
3.1	ki	CC	<fs af='ki,avy,,,,,,' name='ki' posn='30'>
	))
4	((	NP	<fs name='NP2' drel='k7p:VGNN'>
4.1	SEkRika	JJ	<fs af='SEkRika,adj,any,any,,o,,' name='SEkRika' posn='40'>
4.2	saMsWAnoM	NN	<fs af='saMsWAna,n,m,pl,3,o,0,0' name='saMsWAnoM' posn='50'>
4.3	meM	PSP	<fs af='meM,psp,,,,,,' name='meM' posn='60'>
	))
5	((	NP	<fs name='NP3' drel='r6:NP4'>
5.1	ArakRaNa	NN	<fs af='ArakRaNa,n,m,sg,3,o,0,0' name='ArakRaNa' posn='70'>
5.2	kA	PSP	<fs af='kA,psp,m,sg,,d,,' name='kA' posn='80'>
	))
6	((	NP	<fs name='NP4' drel='k2:VGNN'>
6.1	kotA	NN	<fs af='kotA,n,m,sg,3,d,0,0' name='kotA' posn='90'>
	))
7	((	VGNN	<fs name='VGNN' drel='r6:NP5'>
7.1	baDZAne	VM	<fs af='baDZA,v,any,any,any,o,nA,nA' name='baDZAne' posn='100'>
7.2	ke	PSP	<fs af='kA,psp,m,sg,,o,,' name='ke' posn='110'>
	))
8	((	NP	<fs name='NP5' drel='k7:VGNN2'>
8.1	mAmale	NN	<fs af='mAmalA,n,m,sg,3,o,0,0' name='mAmale' posn='120'>
8.2	meM	PSP	<fs af='meM,psp,,,,,,' name='meM2' posn='130'>
	))
9	((	NP	<fs name='NP6' drel='rd:VGNN2'>
9.1	sarakAra	NN	<fs af='sarakAra,n,f,sg,3,o,0,0' name='sarakAra' posn='140'>
9.2	kI	PSP	<fs af='kA,psp,f,sg,,o,,' name='kI' posn='150'>
9.3	ora	NST	<fs af='ora,nst,f,sg,3,o,,' name='ora' posn='160'>
9.4	se	PSP	<fs af='se,psp,,,,,,' name='se' posn='170'>
	))
10	((	NP	<fs name='NP7' drel='k1:VGNN2'>
10.1	praswAva	NN	<fs af='praswAva,n,m,sg,3,d,0,0' name='praswAva' posn='180'>
	))
11	((	VGNN	<fs name='VGNN2' drel='k7t:VGF2'>
11.1	Ane	VM	<fs af='A,v,any,any,any,o,nA,nA' name='Ane' posn='190'>
11.2	ke	PSP	<fs af='ke,psp,,,,,,' name='ke2' posn='200'>
11.3	bAxa	NST	<fs af='bAxa,nst,m,sg,3,d,,' name='bAxa' posn='210'>
11.4	hI	RP	<fs af='hI,avy,,,,,,' name='hI' posn='220'>
	))
12	((	NP	<fs name='NP8' drel='k1:VGF2'>
12.1	BAjapA	NNP	<fs af='BAjapA,n,f,sg,3,d,0,0' name='BAjapA' posn='230'>
	))
13	((	NP	<fs name='NP9' drel='r6:NP10'>
13.1	apanA	PRP	<fs af='apanA,pn,m,sg,any,d,0,0' name='apanA' posn='240'>
	))
14	((	NP	<fs name='NP10' drel='k2:VGF2'>
14.1	vicAra	NN	<fs af='vicAra,n,m,sg,3,d,0,0' name='vicAra' posn='250'>
	))
15	((	JJP	<fs name='JJP' drel='pof:VGF2'>
15.1	vyakwa	JJ	<fs af='vyakwa,adj,any,any,,,,' name='vyakwa' posn='260'>
	))
16	((	VGF	<fs voicetype='active' name='VGF2' stype='declarative' drel='ccof:CCP'>
16.1	karegI	VM	<fs af='kara,v,f,sg,3,,gA,gA' name='karegI' posn='270'>
	))
17	((	BLK	<fs name='BLK' drel='rsym:VGF'>
17.1	.	SYM	<fs af='.,punc,,,,,,' name='.' posn='280'>
	))
</Sentence>

