<Sentence id='1'>
1	((	NP	<fs name='NP' drel='vmod:VGNF'>
1.1	'	SYM	<fs af='SINGLE_QUOTE,punc,,,,,,' name=''' posn='10'>
1.2	rARtraXvaja	NNPC	<fs af='rARtraXvaja,n,m,sg,3,d,0,0' name='rARtraXvaja' posn='20'>
1.3	wiraMgA	NNP	<fs af='wiraMgA,n,m,sg,3,d,0,0' name='wiraMgA' posn='30'>
1.4	'	SYM	<fs af='SINGLE_QUOTE,punc,,,,,,' name=''2' posn='40'>
	))
2	((	VGNF	<fs name='VGNF' drel='nmod__k1inv:NP2'>
2.1	Cape	VM	<fs af='Capa,v,m,pl,any,,yA,yA' name='Cape' posn='50'>
	))
3	((	NP	<fs name='NP2' drel='r6:NP3'>
3.1	pariXAnoM	NN	<fs af='pariXAna,n,m,pl,3,o,0,0' name='pariXAnoM' posn='60'>
3.2	ke	PSP	<fs af='kA,psp,m,sg,,o,,' name='ke' posn='70'>
	))
4	((	NP	<fs name='NP3' drel='k7:VGNN'>
4.1	iswemAla	NN	<fs af='iswemAla,n,m,sg,3,o,0,0' name='iswemAla' posn='80'>
4.2	para	PSP	<fs af='para,psp,,,,,,' name='para' posn='90'>
	))
5	((	NP	<fs name='NP4' drel='k2:VGNN'>
5.1	roka	NN	<fs af='roka,n,f,sg,3,d,0,0' name='roka' posn='100'>
	))
6	((	VGNN	<fs name='VGNN' drel='nmod:NP5'>
6.1	hatAne	VM	<fs af='hatA,v,any,any,any,o,nA,nA' name='hatAne' posn='110'>
6.2	saMbaMXI	PSP	<fs af='saMbaMXI,adj,any,any,,o,,' name='saMbaMXI' posn='120'>
	))
7	((	NP	<fs name='NP5' drel='k2:VGF'>
7.1	praswAva	NN	<fs af='praswAva,n,m,sg,3,o,0,0' name='praswAva' posn='130'>
7.2	ko	PSP	<fs af='ko,psp,,,,,,' name='ko' posn='140'>
	))
8	((	NP	<fs name='NP6' drel='k1:VGF'>
8.1	kEbineta	NN	<fs af='kEbineta,n,m,sg,3,o,0,0' name='kEbineta' posn='150'>
8.2	ne	PSP	<fs af='ne,psp,,,,,,' name='ne' posn='160'>
	))
9	((	NP	<fs name='NP7' drel='k7t:VGF'>
9.1	Aja	NN	<fs af='Aja,n,m,sg,3,d,0,0' name='Aja' posn='170'>
	))
10	((	NP	<fs name='NP8' drel='pof:VGF'>
10.1	maMjZUrI	NN	<fs af='maMjUrI,n,f,sg,3,d,0,0' name='maMjZUrI' posn='180'>
	))
11	((	VGF	<fs name='VGF' stype='declarative' voicetype='active'>
11.1	xe	VM	<fs af='xe,v,any,any,any,,0,0' name='xe' posn='190'>
11.2	xI	VAUX	<fs af='xe,v,f,sg,any,,yA,yA' name='xI' posn='200'>
	))
12	((	BLK	<fs name='BLK' drel='rsym:VGF'>
12.1	.	SYM	<fs af='.,punc,,,,,,' name='.' posn='210'>
	))
</Sentence>

<Sentence id='2'>
1	((	NP	<fs name='NP' drel='k7a:VGF'>
1.1	isake	PRP	<fs af='yaha,pn,any,sg,3,,ke,ke' name='isake' posn='10'>
1.2	wahawa	PSP	<fs af='wahawa,psp,,,,,,' name='wahawa' posn='20'>
	))
2	((	NP	<fs name='NP2' drel='k1:VGF'>
2.1	Ama	JJ	<fs af='Ama,adj,any,any,,d,,' name='Ama' posn='30'>
2.2	janawA	NN	<fs af='janawA,n,f,sg,3,d,0,0' name='janawA' posn='40'>
	))
3	((	NP	<fs name='NP3' drel='vmod:VGF'>
3.1	viSeRa	JJ	<fs af='viSeRa,adj,any,any,,o,,' name='viSeRa' posn='50'>
3.2	rUpa	NN	<fs af='rUpa,n,m,sg,3,o,0,0' name='rUpa' posn='60'>
3.3	se	PSP	<fs af='se,psp,,,,,,' name='se' posn='70'>
	))
4	((	NP	<fs name='NP4' drel='k1s:VGF'>
4.1	KilAdZI	NN	<fs af='KilAdI,n,m,sg,3,d,0,0' name='KilAdZI' posn='80'>
	))
5	((	NP	<fs name='NP5' drel='r6:NP6'>
5.1	apanI	PRP	<fs af='apanA,pn,f,any,any,o,0,0' name='apanI' posn='90'>
	))
6	((	NP	<fs name='NP6' drel='ccof:CCP'>
6.1	varxI	NN	<fs af='varxI,n,f,sg,3,o,0,0' name='varxI' posn='100'>
	))
7	((	CCP	<fs name='CCP' drel='k7p:VGF'>
7.1	Ora	CC	<fs af='Ora,avy,,,,,,' name='Ora' posn='110'>
	))
8	((	NP	<fs name='NP7' drel='ccof:CCP'>
8.1	xUsare	QO	<fs af='xUsarA,num,m,pl,,o,,' name='xUsare' posn='120'>
8.2	kapadZoM	NN	<fs af='kapadA,n,m,pl,3,o,0,0' name='kapadZoM' posn='130'>
8.3	meM	PSP	<fs af='meM,psp,,,,,,' name='meM' posn='140'>
	))
9	((	NP	<fs name='NP8' drel='r6-k2:NP9'>
9.1	wiraMge	NNP	<fs af='wiraMgA,n,m,sg,3,o,0,0' name='wiraMge' posn='150'>
9.2	kA	PSP	<fs af='kA,psp,m,sg,3,d,,' name='kA' posn='160'>
	))
10	((	NP	<fs name='NP9' drel='pof:VGF'>
10.1	iswemAla	NN	<fs af='iswemAla,n,m,sg,3,d,0,0' name='iswemAla' posn='170'>
	))
11	((	VGF	<fs name='VGF' stype='declarative' voicetype='active'>
11.1	kara	VM	<fs af='kara,v,any,any,any,,0,0' name='kara' posn='180'>
11.2	sakeMge	VAUX	<fs af='saka,v,m,pl,any,,gA,gA' name='sakeMge' posn='190'>
	))
12	((	BLK	<fs name='BLK' drel='rsym:VGF'>
12.1	.	SYM	<fs af='.,punc,,,,,,' name='.' posn='200'>
	))
</Sentence>

<Sentence id='3'>
1	((	CCP	<fs name='CCP'>
1.1	lekina	CC	<fs af='lekina,avy,,,,,,' name='lekina' posn='10'>
1.2	,	SYM	<fs af='COMMA,punc,,,,,,' name=',' posn='20'>
	))
2	((	NP	<fs name='NP' drel='ccof:CCP2'>
2.1	aMdaragArameMta	NN	<fs af='aMdaragArameMta,n,m,sg,3,d,0,0' name='aMdaragArameMta' posn='30'>
	))
3	((	CCP	<fs name='CCP2' drel='k7p:VGNN'>
3.1	Ora	CC	<fs af='Ora,avy,,,,,,' name='Ora' posn='40'>
	))
4	((	NP	<fs name='NP2' drel='ccof:CCP2'>
4.1	kamara	NN	<fs af='kamara,n,f,sg,3,o,0,0' name='kamara' posn='50'>
4.2	se	PSP	<fs af='se,psp,,,,,,' name='se' posn='60'>
4.3	nIce	NST	<fs af='nIce,nst,m,sg,3,d,,' name='nIce' posn='70'>
	))
5	((	VGNN	<fs name='VGNN' drel='nmod__k2inv:NP3'>
5.1	pahane	VM	<fs af='pahana,v,m,pl,any,,yA,yA' name='pahane' posn='80'>
5.2	jAne	VAUX	<fs af='jA,v,any,any,any,o,nA,nA' name='jAne' posn='90'>
5.3	vAle	PSP	<fs af='vAlA,psp,m,pl,,o,,' name='vAle' posn='100'>
	))
6	((	NP	<fs name='NP3' drel='k7:VGF'>
6.1	kapadZoM	NN	<fs af='kapadA,n,m,pl,3,o,0,0' name='kapadZoM' posn='110'>
6.2	para	PSP	<fs af='para,psp,,,,,,' name='para' posn='120'>
	))
7	((	NP	<fs name='NP4' drel='r6:NP5'>
7.1	wiraMge	NNP	<fs af='wiraMgA,n,m,sg,3,o,0,0' name='wiraMge' posn='130'>
7.2	kA	PSP	<fs af='kA,psp,m,sg,3,d,,' name='kA' posn='140'>
	))
8	((	NP	<fs name='NP5' drel='k2:VGF'>
8.1	iswemAla	NN	<fs af='iswemAla,n,m,sg,3,d,0,0' name='iswemAla' posn='150'>
	))
9	((	NP	<fs name='NP6' drel='k7tu:VGF'>
9.1	pahale	NST	<fs af='pahalA,nst,m,sg,,o,,' name='pahale' posn='160'>
9.2	kI	PSP	<fs af='kA,psp,f,,,o,,' name='kI' posn='170'>
9.3	waraha	PSP	<fs af='waraha,n,f,,,o,,' name='waraha' posn='180'>
	))
10	((	JJP	<fs name='JJP' drel='pof:VGF'>
10.1	prawibaMXiwa	JJ	<fs af='prawibaMXiwa,adj,any,any,,,,' name='prawibaMXiwa' posn='190'>
	))
11	((	VGF	<fs voicetype='active' name='VGF' stype='declarative' drel='ccof:CCP'>
11.1	rahegA	VM	<fs af='raha,v,m,sg,3,,gA,gA' name='rahegA' posn='200'>
	))
12	((	BLK	<fs name='BLK' drel='rsym:CCP'>
12.1	.	SYM	<fs af='.,punc,,,,,,' name='.' posn='210'>
	))
</Sentence>

<Sentence id='4'>
1	((	NP	<fs name='NP' drel='r6:NP2'>
1.1	praXAnamaMwrI	NNP	<fs af='praXAnamaMwrI,n,m,sg,3,d,0,0' name='praXAnamaMwrI' posn='10'>
1.2	manamohana	NNPC	<fs af='manamohana,n,m,sg,3,d,0,0' name='manamohana' posn='20'>
1.3	siMha	NNP	<fs af='siMha,n,m,sg,3,o,0,0' name='siMha' posn='30'>
1.4	kI	PSP	<fs af='kA,psp,f,sg,,o,,' name='kI' posn='40'>
	))
2	((	NP	<fs name='NP2' drel='k7:VGNF'>
2.1	aXyakRawA	NN	<fs af='aXyakRawA,n,f,sg,3,o,0,0' name='aXyakRawA' posn='50'>
2.2	meM	PSP	<fs af='meM,psp,,,,,,' name='meM' posn='60'>
	))
3	((	VGNF	<fs name='VGNF' drel='nmod__k1inv:NP4'>
3.1	huI	VM	<fs af='ho,v,f,sg,any,,yA,yA' name='huI' posn='70'>
	))
4	((	NP	<fs name='NP3' drel='r6:NP4'>
4.1	kEbineta	NN	<fs af='kEbineta,n,m,sg,3,o,0,0' name='kEbineta' posn='80'>
4.2	kI	PSP	<fs af='kA,psp,f,sg,,o,,' name='kI2' posn='90'>
	))
5	((	NP	<fs name='NP4' drel='k7:VGF'>
5.1	bETaka	NN	<fs af='bETaka,n,f,sg,3,o,0,0' name='bETaka' posn='100'>
5.2	meM	PSP	<fs af='meM,psp,,,,,,' name='meM2' posn='110'>
	))
6	((	NP	<fs name='NP5' drel='ccof:CCP'>
6.1	vExika	JJ	<fs af='vExika,adj,any,any,,d,,' name='vExika' posn='120'>
6.2	maMwroccAra	NN	<fs af='maMwroccAra,n,m,sg,3,o,0,0' name='maMwroccAra' posn='130'>
6.3	,	SYM	<fs af='COMMA,punc,,,,,,' name=',' posn='140'>
	))
7	((	NP	<fs name='NP6' drel='ccof:CCP'>
7.1	saMskqwa	NNPC	<fs af='saMskqwa,n,f,sg,3,d,0,0' name='saMskqwa' posn='150'>
7.2	Wiyetara	NNPC	<fs af='Wiyetara,n,m,sg,3,d,0,0' name='Wiyetara' posn='160'>
7.3	kotiyawwama	NNP	<fs af='kotiyawwama,n,m,sg,3,o,0,0' name='kotiyawwama' posn='170'>
7.4	,	SYM	<fs af='COMMA,punc,,,,,,' name=',2' posn='180'>
	))
8	((	NP	<fs name='NP7' drel='ccof:CCP'>
8.1	rAmalIlA	NN	<fs af='rAmalIlA,n,f,sg,3,o,0,0' name='rAmalIlA' posn='190'>
	))
9	((	CCP	<fs name='CCP' drel='ccof:CCP2'>
9.1	Ora	CC	<fs af='Ora,avy,,,,,,' name='Ora' posn='200'>
	))
10	((	JJP	<fs name='JJP' drel='nmod:NP8'>
10.1	AxivAsI	JJ	<fs af='AxivAsI,adj,any,any,,d,,' name='AxivAsI' posn='210'>
	))
11	((	NP	<fs name='NP8' drel='ccof:CCP2'>
11.1	nqwya	NN	<fs af='nqwya,n,m,sg,3,o,0,0' name='nqwya' posn='220'>
	))
12	((	CCP	<fs name='CCP2' drel='k2u:VGNN'>
12.1	va	CC	<fs af='va,avy,,,,,,' name='va' posn='230'>
	))
13	((	NP	<fs name='NP9' drel='ccof:CCP2'>
13.1	saMgIwa	NN	<fs af='saMgIwa,n,m,sg,3,o,0,0' name='saMgIwa' posn='240'>
13.2	jEsI	PSP	<fs af='jEsA,psp,f,pl,,o,,' name='jEsI' posn='250'>
	))
14	((	NP	<fs name='NP10' drel='r6-k2:NP11'>
14.1	sAMskqwika	JJ	<fs af='sAMskqwika,adj,any,any,,o,,' name='sAMskqwika' posn='260'>
14.2	XaroharoM	NN	<fs af='Xarohara,n,f,pl,3,o,0,0' name='XaroharoM' posn='270'>
14.3	kI	PSP	<fs af='ko,psp,,,,,,' name='kI3' posn='280'>
	))
15	((	NP	<fs name='NP11' drel='pof:VGNN'>
15.1	hiPAjZawa	NN	<fs af='hiPAjawa,n,f,sg,3,d,0,0' name='hiPAjZawa' posn='290'>
	))
16	((	VGNN	<fs name='VGNN' drel='nmod:NP12'>
16.1	karane	VM	<fs af='kara,v,any,any,any,d,nA,nA' name='karane' posn='300'>
16.2	saMbaMXI	PSP	<fs af='saMbaMXI,adj,any,any,,o,,' name='saMbaMXI' posn='310'>
	))
17	((	NP	<fs name='NP12' drel='k2:VGF'>
17.1	praswAva	NN	<fs af='praswAva,n,m,sg,3,o,0,0' name='praswAva' posn='320'>
17.2	ko	PSP	<fs af='ko,psp,,,,,,' name='ko' posn='330'>
17.3	BI	RP	<fs af='BI,avy,,,,,,' name='BI' posn='340'>
	))
18	((	NP	<fs name='NP13' drel='pof:VGF'>
18.1	maMjZUrI	NN	<fs af='maMjUrI,n,f,sg,3,d,0,0' name='maMjZUrI' posn='350'>
	))
19	((	VGF	<fs name='VGF' stype='declarative' voicetype='active'>
19.1	xe	VM	<fs af='xe,v,any,any,any,,0,0' name='xe' posn='360'>
19.2	xI	VAUX	<fs af='xe,v,f,sg,any,,yA,yA' name='xI' posn='370'>
	))
20	((	BLK	<fs name='BLK' drel='rsym:VGF'>
20.1	.	SYM	<fs af='.,punc,,,,,,' name='.' posn='380'>
	))
</Sentence>

<Sentence id='5'>
1	((	NP	<fs name='NP' drel='k1:VGF'>
1.1	kEbineta	NN	<fs af='kEbineta,n,m,sg,3,o,0,0' name='kEbineta' posn='10'>
1.2	ne	PSP	<fs af='ne,psp,,,,,,' name='ne' posn='20'>
	))
2	((	NP	<fs name='NP2' drel='r6:NP3'>
2.1	tIvI	NNC	<fs af='tIvI,n,m,sg,3,d,0,0' name='tIvI' posn='30'>
2.2	cEnaloM	NN	<fs af='cEnala,n,m,pl,3,o,0,0' name='cEnaloM' posn='40'>
2.3	ke	PSP	<fs af='kA,psp,m,sg,,o,,' name='ke' posn='50'>
	))
3	((	NP	<fs name='NP3' drel='r6:NP4'>
3.1	apaliMkiMga	JJC	<fs af='apaliMkiMga,n,f,sg,3,d,0,0' name='apaliMkiMga' posn='60'>
3.2	saMbaMXI	JJ	<fs af='saMbaMXI,adj,any,any,,o,,' name='saMbaMXI' posn='70'>
3.3	niyamoM	NN	<fs af='niyama,n,m,pl,3,o,0,0' name='niyamoM' posn='80'>
3.4	kA	PSP	<fs af='kA,psp,m,sg,3,d,,' name='kA' posn='90'>
	))
4	((	NP	<fs name='NP4' drel='k2:VGF'>
4.1	praswAva	NN	<fs af='praswAva,n,m,sg,3,d,0,0' name='praswAva' posn='100'>
	))
5	((	NP	<fs name='NP5' drel='r6:NP6'>
5.1	maMwriyoM	NN	<fs af='maMwrI,n,m,pl,3,o,0,0' name='maMwriyoM' posn='110'>
5.2	ke	PSP	<fs af='kA,psp,m,sg,,o,,' name='ke2' posn='120'>
	))
6	((	NP	<fs name='NP6' drel='k4:VGF'>
6.1	'	SYM	<fs af='SINGLE_QUOTE,punc,,,,,,' name=''' posn='130'>
6.2	samUha	NN	<fs af='samUha,n,m,sg,3,d,0,0' name='samUha' posn='140'>
6.3	jIoema	NNP	<fs af='jIoema,n,m,sg,3,o,0,0' name='jIoema' posn='150'>
6.4	'	SYM	<fs af='SINGLE_QUOTE,punc,,,,,,' name=''2' posn='160'>
6.5	ko	PSP	<fs af='ko,psp,,,,,,' name='ko' posn='170'>
	))
7	((	VGF	<fs name='VGF' stype='declarative' voicetype='active'>
7.1	sOMpa	VM	<fs af='sOMpa,v,any,any,any,,0,0' name='sOMpa' posn='180'>
7.2	xiyA	VAUX	<fs af='xe,v,m,sg,any,,yA,yA' name='xiyA' posn='190'>
	))
8	((	BLK	<fs name='BLK' drel='rsym:VGF'>
8.1	.	SYM	<fs af='.,punc,,,,,,' name='.' posn='200'>
	))
</Sentence>

<Sentence id='6'>
1	((	NP	<fs name='NP' drel='k3:VGF'>
1.1	isake	PRP	<fs af='yaha,pn,any,sg,3,,ke,ke' name='isake' posn='10'>
1.2	jZarie	PSP	<fs af='jZarie,psp,,,,,,' name='jZarie' posn='20'>
	))
2	((	NP	<fs name='NP2' drel='k1:VGF'>
2.1	sarakAra	NN	<fs af='sarakAra,n,f,sg,3,d,0,0' name='sarakAra' posn='30'>
	))
3	((	NP	<fs name='NP3' drel='k7:VGNF2'>
3.1	nyUjZa	NNC	<fs af='nyUjZa,n,f,sg,3,d,0,0' name='nyUjZa' posn='40'>
3.2	cEnaloM	NN	<fs af='cEnala,n,m,pl,3,o,0,0' name='cEnaloM' posn='50'>
3.3	para	PSP	<fs af='para,psp,,,,,,' name='para' posn='60'>
	))
4	((	NP	<fs name='NP4' drel='k2:VGNF'>
4.1	prawyakRa	NNPC	<fs af='prawyakRa,n,m,sg,3,d,0,0' name='prawyakRa' posn='70'>
4.2	vixeSa	NNPC	<fs af='vixeSa,n,m,sg,3,d,0,0' name='vixeSa' posn='80'>
4.3	niveSa	NNP	<fs af='niveSa,n,m,sg,3,d,0,0' name='niveSa' posn='90'>
	))
5	((	NP	<fs name='NP5' drel='rs:NP4'>
5.1	(	SYM	<fs af='(,punc,,,,,,' name='(' posn='100'>
5.2	ePadIAI	NNP	<fs af='ePadIAI,n,m,sg,3,d,0,0' name='ePadIAI' posn='110'>
5.3	)	SYM	<fs af='),punc,,,,,,' name=')' posn='120'>
	))
6	((	FRAGP	<fs name='FRAGP' drel='fragof:NP4'>
6.1	ko	PSP	<fs af='ko,psp,,,,,,' name='ko' posn='130'>
	))
7	((	VGNF	<fs name='VGNF' drel='vmod:VGNF2'>
7.1	lekara	VM	<fs af='le,v,any,any,any,,kara,kara' name='lekara' posn='140'>
	))
8	((	VGNF	<fs name='VGNF2' drel='nmod__k1inv:NP6'>
8.1	CAI	VM	<fs af='CA,v,f,sg,any,,yA,yA' name='CAI' posn='150'>
	))
9	((	NP	<fs name='NP6' drel='k2:VGNN'>
9.1	XuMXa	NN	<fs af='XuMXa,n,f,sg,3,d,0,0' name='XuMXa' posn='160'>
	))
10	((	JJP	<fs name='JJP' drel='pof:VGNN'>
10.1	sAPZa	JJ	<fs af='sAPa,adj,any,any,,,,' name='sAPZa' posn='170'>
	))
11	((	VGNN	<fs name='VGNN' drel='k2:VGF'>
11.1	karanA	VM	<fs af='kara,v,any,any,any,d,nA,nA' name='karanA' posn='180'>
	))
12	((	VGF	<fs name='VGF' stype='declarative' voicetype='active'>
12.1	cAhawI	VM	<fs af='cAha,v,f,sg,any,,wA,wA' name='cAhawI' posn='190'>
12.2	hE	VAUX	<fs af='hE,v,any,sg,3,,hE,hE' name='hE' posn='200'>
	))
13	((	BLK	<fs name='BLK' drel='rsym:VGF'>
13.1	.	SYM	<fs af='.,punc,,,,,,' name='.' posn='210'>
	))
</Sentence>

<Sentence id='7'>
1	((	NP	<fs name='NP' drel='sent-adv:VGF'>
1.1	sAWa	NST	<fs af='sAWa,nst,m,sg,3,d,,' name='sAWa' posn='10'>
1.2	hI	RP	<fs af='hI,avy,,,,,,' name='hI' posn='20'>
	))
2	((	NP	<fs name='NP2' drel='k1:VGF'>
2.1	sarakAra	NN	<fs af='sarakAra,n,f,sg,3,d,0,0' name='sarakAra' posn='30'>
	))
3	((	VGF	<fs name='VGF' stype='declarative' voicetype='active'>
3.1	cAhawI	VM	<fs af='cAha,v,f,sg,any,,wA,wA' name='cAhawI' posn='40'>
3.2	hE	VAUX	<fs af='hE,v,any,sg,3,,hE,hE' name='hE' posn='50'>
	))
4	((	CCP	<fs name='CCP' drel='k2:VGF'>
4.1	ki	CC	<fs af='ki,avy,,,,,,' name='ki' posn='60'>
	))
5	((	NP	<fs name='NP3' drel='ccof:CCP2'>
5.1	rARtrahiwa	JJC	<fs af='rARtrahiwa,n,m,sg,3,d,0,0' name='rARtrahiwa' posn='70'>
5.2	saMbaMXI	JJ	<fs af='saMbaMXI,adj,any,any,,o,,' name='saMbaMXI' posn='80'>
5.3	Kela	NNC	<fs af='Kela,n,m,sg,3,d,0,0' name='Kela' posn='90'>
5.4	prawiyogiwAoM	NN	<fs af='prawiyogiwA,n,f,pl,3,o,0,0' name='prawiyogiwAoM' posn='100'>
	))
6	((	CCP	<fs name='CCP2' drel='r6-k1:NP5'>
6.1	Ora	CC	<fs af='Ora,avy,,,,,,' name='Ora' posn='110'>
	))
7	((	NP	<fs name='NP4' drel='ccof:CCP2'>
7.1	kAryakramoM	NN	<fs af='kAryakrama,n,m,pl,3,o,0,0' name='kAryakramoM' posn='120'>
7.2	kA	PSP	<fs af='kA,psp,m,sg,3,d,,' name='kA' posn='130'>
	))
8	((	NP	<fs name='NP5' drel='pof:VGF2'>
8.1	prasAraNa	NN	<fs af='prasAraNa,n,m,sg,3,d,0,0' name='prasAraNa' posn='140'>
	))
9	((	NP	<fs name='NP6' drel='k3:VGF2'>
9.1	xUraxarSana	NN	<fs af='xUraxarSana,n,m,sg,3,o,0,0' name='xUraxarSana' posn='150'>
9.2	ke	PSP	<fs af='ke,psp,,,,,,' name='ke' posn='160'>
9.3	jZarie	PSP	<fs af='jZarie,psp,,,,,,' name='jZarie' posn='170'>
	))
10	((	VGF	<fs voicetype='active' name='VGF2' stype='declarative' drel='ccof:CCP'>
10.1	ho	VM	<fs af='ho,v,any,any,any,,0,0' name='ho' posn='180'>
	))
11	((	BLK	<fs name='BLK' drel='rsym:VGF'>
11.1	.	SYM	<fs af='.,punc,,,,,,' name='.' posn='190'>
	))
</Sentence>

<Sentence id='8'>
1	((	NP	<fs name='NP' drel='r6:NP2'>
1.1	maMwrimaMdala	NN	<fs af='maMwrimaMdala,n,m,sg,3,o,0,0' name='maMwrimaMdala' posn='10'>
1.2	kI	PSP	<fs af='kA,psp,f,sg,,o,,' name='kI' posn='20'>
	))
2	((	NP	<fs name='NP2' drel='k7t:VGF'>
2.1	bETaka	NN	<fs af='bETaka,n,f,sg,3,o,0,0' name='bETaka' posn='30'>
2.2	ke	PSP	<fs af='ke,psp,,,,,,' name='ke' posn='40'>
2.3	bAxa	NST	<fs af='bAxa,nst,m,sg,3,d,,' name='bAxa' posn='50'>
	))
3	((	NP	<fs name='NP3' drel='k1:VGF'>
3.1	keMxrIya	NNPC	<fs af='keMxrIya,n,m,sg,3,d,0,0' name='keMxrIya' posn='60'>
3.2	sUcanA	NNPC	<fs af='sUcanA,n,f,sg,3,d,0,0' name='sUcanA' posn='70'>
3.3	Ora	NNPC	<fs af='Ora,avy,,,,,,' name='Ora' posn='80'>
3.4	prasAraNa	NNPC	<fs af='prasAraNa,n,m,sg,3,d,0,0' name='prasAraNa' posn='90'>
3.5	maMwrI	NNP	<fs af='maMwrI,n,m,sg,3,d,0,0' name='maMwrI' posn='100'>
3.6	esa	NNPC	<fs af='esa,n,m,sg,3,d,0,0' name='esa' posn='110'>
3.7	jayapAla	NNPC	<fs af='jayapAla,n,m,sg,3,d,0,0' name='jayapAla' posn='120'>
3.8	reddI	NNP	<fs af='reddI,n,m,sg,3,o,0,0' name='reddI' posn='130'>
3.9	ne	PSP	<fs af='ne,psp,,,,,,' name='ne' posn='140'>
	))
4	((	NP	<fs name='NP4' drel='k4:VGF'>
4.1	pawrakAroM	NN	<fs af='pawrakAra,n,m,pl,3,o,0,0' name='pawrakAroM' posn='150'>
4.2	ko	PSP	<fs af='ko,psp,,,,,,' name='ko' posn='160'>
	))
5	((	VGF	<fs name='VGF' stype='declarative' voicetype='active'>
5.1	bawAyA	VM	<fs af='bawA,v,m,sg,any,,yA,yA' name='bawAyA' posn='170'>
	))
6	((	CCP	<fs name='CCP' drel='k2:VGF'>
6.1	ki	CC	<fs af='ki,avy,,,,,,' name='ki' posn='180'>
	))
7	((	NP	<fs name='NP5' drel='k1:VGF2'>
7.1	maMwrimaMdala	NN	<fs af='maMwrimaMdala,n,m,sg,3,o,0,0' name='maMwrimaMdala2' posn='190'>
7.2	ne	PSP	<fs af='ne,psp,,,,,,' name='ne2' posn='200'>
	))
8	((	NP	<fs name='NP6' drel='nmod:NP7'>
8.1	rARtrIya	JJ	<fs af='rARtrIya,adj,any,any,,d,,' name='rARtrIya' posn='210'>
8.2	'	SYM	<fs af='SINGLE_QUOTE,punc,,,,,,' name=''' posn='220'>
8.3	gOrava	NNPC	<fs af='gOrava,n,m,sg,3,d,0,0' name='gOrava' posn='230'>
8.4	avamAnanA	NNPC	<fs af='avamAnanA,n,f,sg,3,d,0,0' name='avamAnanA' posn='240'>
8.5	prawibaMXa	NNPC	<fs af='prawibaMXa,n,m,sg,3,d,0,0' name='prawibaMXa' posn='250'>
8.6	'	SYM	<fs af='SINGLE_QUOTE,punc,,,,,,' name=''2' posn='260'>
	))
9	((	NP	<fs name='NP7' drel='k7:VGF2'>
9.1	aXiniyama	NNPC	<fs af='aXiniyama,n,m,sg,3,d,0,0' name='aXiniyama' posn='270'>
9.2	1971	NNP	<fs af='1971,n,m,sg,3,o,0,0' name='1971' posn='280'>
9.3	meM	PSP	<fs af='meM,psp,,,,,,' name='meM' posn='290'>
	))
10	((	NP	<fs name='NP8' drel='k4:VGF2'>
10.1	saMSoXana	NN	<fs af='saMSoXana,n,m,sg,3,o,0,0' name='saMSoXana' posn='300'>
10.2	ko	PSP	<fs af='ko,psp,,,,,,' name='ko2' posn='310'>
	))
11	((	NP	<fs name='NP9' drel='k2:VGF2'>
11.1	maMjZUrI	NN	<fs af='maMjUrI,n,f,sg,3,d,0,0' name='maMjZUrI' posn='320'>
	))
12	((	VGF	<fs voicetype='active' name='VGF2' stype='declarative' drel='ccof:CCP'>
12.1	xe	VM	<fs af='xe,v,any,any,any,,0,0' name='xe' posn='330'>
12.2	xI	VAUX	<fs af='xe,v,f,sg,any,,yA,yA' name='xI' posn='340'>
	))
13	((	BLK	<fs name='BLK' drel='rsym:VGF'>
13.1	.	SYM	<fs af='.,punc,,,,,,' name='.' posn='350'>
	))
</Sentence>

<Sentence id='9'>
1	((	NP	<fs name='NP' drel='k7:VGF'>
1.1	praswAviwa	JJ	<fs af='praswAviwa,adj,any,any,,o,,' name='praswAviwa' posn='10'>
1.2	saMSoXana	NN	<fs af='saMSoXana,n,m,sg,3,o,0,0' name='saMSoXana' posn='20'>
1.3	meM	PSP	<fs af='meM,psp,,,,,,' name='meM' posn='30'>
	))
2	((	NP	<fs name='NP2' drel='ccof:CCP'>
2.1	aMdaragArameMta	NN	<fs af='aMdaragArameMta,n,m,sg,3,d,0,0' name='aMdaragArameMta' posn='40'>
	))
3	((	CCP	<fs name='CCP' drel='k7:VGF'>
3.1	yA	CC	<fs af='yA,avy,,,,,,' name='yA' posn='50'>
	))
4	((	NP	<fs name='NP3' drel='k7p:VGNN'>
4.1	kamara	NN	<fs af='kamara,n,f,sg,3,o,0,0' name='kamara' posn='60'>
4.2	ke	PSP	<fs af='ke,psp,,,,,,' name='ke' posn='70'>
4.3	nIce	NST	<fs af=''nIce,,,,,,,' name='nIce' posn='80'>
	))
5	((	VGNN	<fs name='VGNN' drel='nmod__k2inv:NP4'>
5.1	pahane	VM	<fs af='pahana,v,any,any,any,o,nA,nA' name='pahane' posn='90'>
5.2	jAne	VAUX	<fs af='jA,v,any,any,any,o,nA,nA' name='jAne' posn='100'>
5.3	vAle	PSP	<fs af='vAlA,psp,m,sg,,o,,' name='vAle' posn='110'>
	))
6	((	NP	<fs name='NP4' drel='ccof:CCP'>
6.1	kisI	PRP	<fs af='koI,pn,any,sg,3,o,,' name='kisI' posn='120'>
6.2	BI	RP	<fs af='BI,avy,,,,,,' name='BI' posn='130'>
6.3	pariXAna	NN	<fs af='pariXAna,n,m,sg,3,o,0,0' name='pariXAna' posn='140'>
6.4	meM	PSP	<fs af='meM,psp,,,,,,' name='meM2' posn='150'>
	))
7	((	NP	<fs name='NP5' drel='r6-k2:NP6'>
7.1	wiraMge	NNP	<fs af='wiraMgA,n,m,sg,3,o,0,0' name='wiraMge' posn='160'>
7.2	kA	PSP	<fs af='kA,psp,m,sg,3,d,,' name='kA' posn='170'>
	))
8	((	NP	<fs name='NP6' drel='pof:VGF'>
8.1	iswemAla	NN	<fs af='iswemAla,n,m,sg,3,d,0,0' name='iswemAla' posn='180'>
	))
9	((	VGF	<fs name='VGF' stype='declarative' voicetype='passive'>
9.1	nahIM	NEG	<fs af='nahIM,avy,,,,,,' name='nahIM' posn='190'>
9.2	kiyA	VM	<fs af='kara,v,m,sg,any,,yA,yA' name='kiyA' posn='200'>
9.3	jA	VAUX	<fs af='jA,v,any,any,any,,0,0' name='jA' posn='210'>
9.4	sakegA	VAUX	<fs af='saka,v,m,sg,3,,gA,gA' name='sakegA' posn='220'>
	))
10	((	BLK	<fs name='BLK' drel='rsym:VGF'>
10.1	.	SYM	<fs af='.,punc,,,,,,' name='.' posn='230'>
	))
</Sentence>

<Sentence id='10'>
1	((	NP	<fs name='NP' drel='sent-adv:VGF'>
1.1	isI	DEM	<fs af='yaha,pn,any,sg,3,o,,' name='isI' posn='10'>
1.2	waraha	NN	<fs af='waraha,n,f,sg,3,d,0,0' name='waraha' posn='20'>
	))
2	((	NP	<fs name='NP2' drel='ccof:CCP'>
2.1	wakiye	NN	<fs af='wakiyA,n,m,pl,3,o,0,0' name='wakiye' posn='30'>
2.2	,	SYM	<fs af='COMMA,punc,,,,,,' name=',' posn='40'>
	))
3	((	NP	<fs name='NP3' drel='ccof:CCP'>
3.1	glovsa	NN	<fs af='glova,n,m,pl,3,o,0,0' name='glovsa' posn='50'>
3.2	,	SYM	<fs af='COMMA,punc,,,,,,' name=',2' posn='60'>
	))
4	((	NP	<fs name='NP4' drel='ccof:CCP'>
4.1	rUmAla	NN	<fs af='rUmAla,n,m,sg,3,o,0,0' name='rUmAla' posn='70'>
	))
5	((	CCP	<fs name='CCP' drel='k7:VGF'>
5.1	yA	CC	<fs af='yA,avy,,,,,,' name='yA' posn='80'>
	))
6	((	NP	<fs name='NP5' drel='ccof:CCP'>
6.1	nepakIna	NN	<fs af='nepakIna,n,m,sg,3,o,0,0' name='nepakIna' posn='90'>
6.2	meM	PSP	<fs af='meM,psp,,,,,,' name='meM' posn='100'>
	))
7	((	NP	<fs name='NP6' drel='ccof:CCP2'>
7.1	embrAyadarI	NN	<fs af='embrAyadarI,n,f,sg,3,d,0,0' name='embrAyadarI' posn='110'>
	))
8	((	CCP	<fs name='CCP2' drel='k3:VGNN'>
8.1	yA	CC	<fs af='yA,avy,,,,,,' name='yA2' posn='120'>
	))
9	((	NP	<fs name='NP7' drel='ccof:CCP2'>
9.1	kisI	PRP	<fs af='koI,pn,any,sg,3,o,,' name='kisI' posn='130'>
9.2	BI	RP	<fs af='BI,avy,,,,,,' name='BI' posn='140'>
9.3	waraha	NN	<fs af='waraha,n,f,sg,3,o,0,0' name='waraha2' posn='150'>
9.4	se	PSP	<fs af='se,psp,,,,,,' name='se' posn='160'>
	))
10	((	NP	<fs name='NP8' drel='k2:VGNN'>
10.1	wiraMgA	NNP	<fs af='wiraMgA,n,m,sg,3,d,0,0' name='wiraMgA' posn='170'>
	))
11	((	JJP	<fs name='JJP' drel='pof:VGNN'>
11.1	aMkiwa	JJ	<fs af='aMkiwa,adj,any,any,,,,' name='aMkiwa' posn='180'>
	))
12	((	VGNN	<fs name='VGNN' drel='k1:VGF'>
12.1	karanA	VM	<fs af='kara,v,any,any,any,d,nA,nA' name='karanA' posn='190'>
	))
13	((	JJP	<fs name='JJP2' drel='pof:VGF'>
13.1	varjiwa	JJ	<fs af='varjiwa,adj,any,any,,,,' name='varjiwa' posn='200'>
	))
14	((	VGF	<fs name='VGF' stype='declarative' voicetype='active'>
14.1	hogA	VM	<fs af='ho,v,m,sg,3,,gA,gA' name='hogA' posn='210'>
	))
15	((	BLK	<fs name='BLK' drel='rsym:VGF'>
15.1	.	SYM	<fs af='.,punc,,,,,,' name='.' posn='220'>
	))
</Sentence>

<Sentence id='11'>
1	((	NP	<fs name='NP' drel='k7t:VGNF'>
1.1	kuCa	QF	<fs af='kuCa,avy,,,,,,' name='kuCa' posn='10'>
1.2	varRa	NN	<fs af='varRa,n,m,sg,3,d,0,0' name='varRa' posn='20'>
1.3	pahale	NST	<fs af='pahalA,nst,m,sg,,d,,' name='pahale' posn='30'>
	))
2	((	NP	<fs name='NP2' drel='r6:NP3'>
2.1	wiraMge	NNP	<fs af='wiraMgA,n,m,sg,3,o,0,0' name='wiraMge' posn='40'>
2.2	ke	PSP	<fs af='kA,psp,m,sg,,o,,' name='ke' posn='50'>
	))
3	((	NP	<fs name='NP3' drel='k2:VGNF'>
3.1	iswemAla	NN	<fs af='iswemAla,n,m,sg,3,o,0,0' name='iswemAla' posn='60'>
3.2	ko	PSP	<fs af='ko,psp,,,,,,' name='ko' posn='70'>
	))
4	((	JJP	<fs name='JJP' drel='pof:VGNF'>
4.1	uxAra	JJ	<fs af='uxAra,adj,any,any,,,,' name='uxAra' posn='80'>
	))
5	((	VGNF	<fs name='VGNF' drel='nmod__k1inv:NP4'>
5.1	banAwe	VM	<fs af='banA,v,m,sg,any,,wA,wA' name='banAwe' posn='90'>
5.2	hue	VAUX	<fs af='ho,v,m,sg,any,,yA,yA' name='hue' posn='100'>
	))
6	((	NP	<fs name='NP4' drel='k1:VGF'>
6.1	keMxra	NNP	<fs af='keMxra,n,m,sg,3,o,0,0' name='keMxra' posn='110'>
6.2	ne	PSP	<fs af='ne,psp,,,,,,' name='ne' posn='120'>
	))
7	((	NP	<fs name='NP5' drel='r6:NP6'>
7.1	rARtraXvaja	NN	<fs af='rARtraXvaja,n,m,sg,3,o,0,0' name='rARtraXvaja' posn='130'>
7.2	ke	PSP	<fs af='kA,psp,m,sg,,o,,' name='ke2' posn='140'>
	))
8	((	NP	<fs name='NP6' drel='k2:VGNN'>
8.1	apamAna	NN	<fs af='apamAna,n,m,sg,3,o,0,0' name='apamAna' posn='150'>
8.2	ko	PSP	<fs af='ko,psp,,,,,,' name='ko2' posn='160'>
	))
9	((	NP	<fs name='NP7' drel='k2s:VGNN'>
9.1	xaMdanIya	JJ	<fs af='xaMdanIya,adj,any,any,,d,,' name='xaMdanIya' posn='170'>
9.2	aparAXa	NN	<fs af='aparAXa,n,m,sg,3,d,0,0' name='aparAXa' posn='180'>
	))
10	((	VGNN	<fs name='VGNN' drel='k7:VGF'>
10.1	banAne	VM	<fs af='banA,v,any,any,any,o,nA,nA' name='banAne' posn='190'>
10.2	para	PSP	<fs af='para,psp,,,,,,' name='para' posn='200'>
	))
11	((	NP	<fs name='NP8' drel='pof:VGF'>
11.1	vicAra	NN	<fs af='vicAra,n,m,sg,3,d,0,0' name='vicAra' posn='210'>
	))
12	((	VGF	<fs name='VGF' stype='declarative' voicetype='active'>
12.1	kiyA	VM	<fs af='kara,v,m,sg,any,,yA,yA' name='kiyA' posn='220'>
12.2	WA	VAUX	<fs af='WA,v,m,sg,any,,WA,WA' name='WA' posn='230'>
	))
13	((	BLK	<fs name='BLK' drel='rsym:VGF'>
13.1	.	SYM	<fs af='.,punc,,,,,,' name='.' posn='240'>
	))
</Sentence>

<Sentence id='12'>
1	((	NP	<fs name='NP' drel='k7a:VGF'>
1.1	isI	PRP	<fs af='yaha,pn,any,sg,3,o,0,0' name='isI' posn='10'>
1.2	ke	PSP	<fs af='ke,psp,,,,,,' name='ke' posn='20'>
1.3	wahawa	PSP	<fs af='wahawa,psp,,,,,,' name='wahawa' posn='30'>
	))
2	((	NP	<fs name='NP2' drel='k7t:VGF'>
2.1	2003	NNP	<fs af='2003,n,m,sg,3,o,0,0' name='2003' posn='40'>
2.2	meM	PSP	<fs af='meM,psp,,,,,,' name='meM' posn='50'>
	))
3	((	NP	<fs name='NP3' drel='r6:NP4'>
3.1	rARtraXvaja	NN	<fs af='rARtraXvaja,n,m,sg,3,o,0,0' name='rARtraXvaja' posn='60'>
3.2	kI	PSP	<fs af='kA,psp,f,sg,,o,,' name='kI' posn='70'>
	))
4	((	NP	<fs name='NP4' drel='nmod:NP5'>
4.1	avamAnanA	NN	<fs af='avamAnanA,n,f,sg,3,o,0,0' name='avamAnanA' posn='80'>
4.2	ko	PSP	<fs af='ko,psp,,,,,,' name='ko' posn='90'>
	))
5	((	NP	<fs name='NP5' drel='k2:VGF'>
5.1	xaMdanIya	JJ	<fs af='xaMdanIya,adj,any,any,,d,,' name='xaMdanIya' posn='100'>
5.2	aparAXa	NN	<fs af='aparAXa,n,m,sg,3,d,0,0' name='aparAXa' posn='110'>
	))
6	((	JJP	<fs name='JJP' drel='pof:VGF'>
6.1	GoRiwa	JJ	<fs af='GoRiwa,adj,any,any,,,,' name='GoRiwa' posn='120'>
	))
7	((	VGF	<fs name='VGF' stype='declarative' voicetype='passive'>
7.1	kiyA	VM	<fs af='kara,v,m,sg,any,,yA,yA' name='kiyA' posn='130'>
7.2	gayA	VAUX	<fs af='jA,v,m,sg,any,,yA1,yA1' name='gayA' posn='140'>
	))
8	((	BLK	<fs name='BLK' drel='rsym:VGF'>
8.1	.	SYM	<fs af='.,punc,,,,,,' name='.' posn='150'>
	))
</Sentence>

<Sentence id='13'>
1	((	NP	<fs name='NP' drel='sent-adv:VGF'>
1.1	isake	PRP	<fs af='yaha,pn,any,sg,3,o,ke,ke' name='isake' posn='10'>
1.2	sAWa	NST	<fs af='sAWa,nst,m,sg,3,d,,' name='sAWa' posn='20'>
1.3	hI	RP	<fs af='hI,avy,,,,,,' name='hI' posn='30'>
	))
2	((	VGF	<fs name='VGF' stype='declarative' voicetype='active'>
2.1	bawAyA	VM	<fs af='bawA,v,m,sg,any,,yA,yA' name='bawAyA' posn='40'>
2.2	gayA	VAUX	<fs af='jA,v,m,sg,any,,yA1,yA1' name='gayA' posn='50'>
	))
3	((	CCP	<fs name='CCP' drel='k2:VGF'>
3.1	ki	CC	<fs af='ki,avy,,,,,,' name='ki' posn='60'>
	))
4	((	NP	<fs name='NP2' drel='k2:VGF2'>
4.1	kina	WQ	<fs af='kOna,pn,,,,,,' name='kina' posn='70'>
4.2	kqwyoM	NN	<fs af='kqwya,n,m,pl,3,o,0,0' name='kqwyoM' posn='80'>
4.3	ko	PSP	<fs af='ko,psp,,,,,,' name='ko' posn='90'>
	))
5	((	NP	<fs name='NP3' drel='r6:NP4'>
5.1	rARtraXvaja	NN	<fs af='rARtraXvaja,n,m,sg,3,o,0,0' name='rARtraXvaja' posn='100'>
5.2	kA	PSP	<fs af='kA,psp,m,sg,3,d,,' name='kA' posn='110'>
	))
6	((	NP	<fs name='NP4' drel='k2s:VGF2'>
6.1	apamAna	NN	<fs af='apamAna,n,m,sg,3,d,0,0' name='apamAna' posn='120'>
	))
7	((	VGF	<fs voicetype='passive' name='VGF2' stype='declarative' drel='ccof:CCP'>
7.1	mAnA	VM	<fs af='mAna,v,m,sg,any,,yA,yA' name='mAnA' posn='130'>
7.2	jAegA	VAUX	<fs af='jA,v,m,sg,3,,gA,gA' name='jAegA' posn='140'>
	))
8	((	BLK	<fs name='BLK' drel='rsym:VGF'>
8.1	.	SYM	<fs af='.,punc,,,,,,' name='.' posn='150'>
	))
</Sentence>

<Sentence id='14'>
1	((	NP	<fs name='NP' drel='jjmod:JJP'>
1.1	san	NNPC	<fs af='san,n,m,sg,3,d,0,0' name='san' posn='10'>
1.2	2000	NNP	<fs af='2000,n,m,sg,3,o,0,0' name='2000' posn='20'>
1.3	meM	PSP	<fs af='meM,psp,,,,,,' name='meM' posn='30'>
	))
2	((	JJP	<fs name='JJP' drel='nmod:NP2'>
2.1	gaTiwa	JJ	<fs af='gaTiwa,adj,any,any,,d,,' name='gaTiwa' posn='40'>
	))
3	((	NP	<fs name='NP2' drel='k1:VGF'>
3.1	rARtraXvaja	NNC	<fs af='rARtraXvaja,n,m,sg,3,d,0,0' name='rARtraXvaja' posn='50'>
3.2	samiwi	NN	<fs af='samiwi,n,f,sg,3,o,0,0' name='samiwi' posn='60'>
3.3	ne	PSP	<fs af='ne,psp,,,,,,' name='ne' posn='70'>
	))
4	((	NP	<fs name='NP3' drel='r6:NP4'>
4.1	apanI	PRP	<fs af='apanA,pn,f,any,any,o,0,0' name='apanI' posn='80'>
	))
5	((	NP	<fs name='NP4' drel='k7:VGF'>
5.1	riporta	NN	<fs af='riporta,n,f,sg,3,o,0,0' name='riporta' posn='90'>
5.2	meM	PSP	<fs af='meM,psp,,,,,,' name='meM2' posn='100'>
	))
6	((	NP	<fs name='NP5' drel='k2:VGF'>
6.1	rARtraXvaja	NNPC	<fs af='rARtraXvaja,n,m,sg,3,d,0,0' name='rARtraXvaja2' posn='110'>
6.2	saMhiwA	NNPC	<fs af='saMhiwA,n,f,sg,3,d,0,0' name='saMhiwA' posn='120'>
6.3	BArawa	NNPC	<fs af='BArawa,n,m,sg,3,d,0,0' name='BArawa' posn='130'>
6.4	-	SYM	<fs af='-,punc,,,,,,' name='-' posn='140'>
6.5	2002	NNP	<fs af='2002,n,m,sg,3,o,0,0' name='2002' posn='150'>
6.6	ko	PSP	<fs af='ko,psp,,,,,,' name='ko' posn='160'>
	))
7	((	NP	<fs name='NP6' drel='pof:VGF'>
7.1	aMwima	JJ	<fs af='aMwima,adj,any,any,,d,,' name='aMwima' posn='170'>
7.2	rUpa	NN	<fs af='rUpa,n,m,sg,3,d,0,0' name='rUpa' posn='180'>
	))
8	((	VGF	<fs name='VGF' stype='declarative' voicetype='active'>
8.1	xiyA	VM	<fs af='xe,v,m,sg,any,,yA,yA' name='xiyA' posn='190'>
8.2	WA	VAUX	<fs af='WA,v,m,sg,any,,WA,WA' name='WA' posn='200'>
	))
9	((	BLK	<fs name='BLK' drel='rsym:VGF'>
9.1	.	SYM	<fs af='.,punc,,,,,,' name='.' posn='210'>
	))
</Sentence>

<Sentence id='15'>
1	((	NP	<fs name='NP' drel='k5:VGF'>
1.1	26	NNPC	<fs af='26,n,any,sg,3,d,0,0' name='26' posn='10'>
1.2	janavarI	NNPC	<fs af='janavarI,n,f,sg,3,d,0,0' name='janavarI' posn='20'>
1.3	2002	NNP	<fs af='2002,n,m,sg,3,o,0,0' name='2002' posn='30'>
1.4	se	PSP	<fs af='se,psp,,,,,,' name='se' posn='40'>
	))
2	((	NP	<fs name='NP2' drel='k2:VGF'>
2.1	ise	PRP	<fs af='yaha,pn,any,sg,3,o,ko,ko' name='ise' posn='50'>
	))
3	((	JJP	<fs name='JJP' drel='pof:VGF'>
3.1	lAgU	JJ	<fs af='lAgU,adj,any,any,,,,' name='lAgU' posn='60'>
	))
4	((	VGF	<fs name='VGF' stype='declarative' voicetype='passive'>
4.1	kara	VM	<fs af='kara,v,any,any,any,,0,0' name='kara' posn='70'>
4.2	xiyA	VAUX	<fs af='xe,v,m,sg,any,,yA,yA' name='xiyA' posn='80'>
4.3	gayA	VAUX	<fs af='jA,v,m,sg,any,,yA1,yA1' name='gayA' posn='90'>
	))
5	((	BLK	<fs name='BLK' drel='rsym:VGF'>
5.1	.	SYM	<fs af='.,punc,,,,,,' name='.' posn='100'>
	))
</Sentence>

<Sentence id='16'>
1	((	NP	<fs name='NP' drel='k7a:VGF'>
1.1	isake	PRP	<fs af='yaha,pn,any,sg,3,,ke,ke' name='isake' posn='10'>
1.2	wahawa	PSP	<fs af='wahawa,psp,,,,,,' name='wahawa' posn='20'>
	))
2	((	NP	<fs name='NP2' drel='ras-k1:VGF'>
2.1	kuCa	QF	<fs af='kuCa,avy,,,,,,' name='kuCa' posn='30'>
2.2	prawibaMXoM	NN	<fs af='prawibaMXa,n,m,pl,3,o,0,0' name='prawibaMXoM' posn='40'>
2.3	ke	PSP	<fs af='ke,psp,,,,,,' name='ke' posn='50'>
2.4	sAWa	NST	<fs af='sAWa,nst,m,sg,3,d,,' name='sAWa' posn='60'>
	))
3	((	NP	<fs name='NP3' drel='ccof:CCP'>
3.1	Ama	JJ	<fs af='Ama,adj,any,any,,d,,' name='Ama' posn='70'>
3.2	janawA	NN	<fs af='janawA,n,f,sg,3,d,0,0' name='janawA' posn='80'>
3.3	,	SYM	<fs af='COMMA,punc,,,,,,' name=',' posn='90'>
	))
4	((	NP	<fs name='NP4' drel='ccof:CCP'>
4.1	nijI	JJ	<fs af='nijI,adj,any,any,,d,,' name='nijI' posn='100'>
4.2	saMgaTanoM	NN	<fs af='saMgaTana,n,m,pl,3,o,0,0' name='saMgaTanoM' posn='110'>
	))
5	((	CCP	<fs name='CCP' drel='k1:VGF'>
5.1	Ora	CC	<fs af='Ora,avy,,,,,,' name='Ora' posn='120'>
	))
6	((	NP	<fs name='NP5' drel='ccof:CCP'>
6.1	SEkRaNika	JJ	<fs af='SEkRaNika,adj,any,any,,o,,' name='SEkRaNika' posn='130'>
6.2	saMsWAnoM	NN	<fs af='saMsWAna,n,m,pl,3,o,0,0' name='saMsWAnoM' posn='140'>
6.3	xvArA	PSP	<fs af='xvArA,psp,,,,,,' name='xvArA' posn='150'>
	))
7	((	NP	<fs name='NP6' drel='r6:NP7'>
7.1	wiraMge	NNP	<fs af='wiraMgA,n,m,sg,3,o,0,0' name='wiraMge' posn='160'>
7.2	ke	PSP	<fs af='kA,psp,m,sg,,o,,' name='ke2' posn='170'>
	))
8	((	NP	<fs name='NP7' drel='k7:VGF'>
8.1	praxarSana	NN	<fs af='praxarSana,n,m,sg,3,o,0,0' name='praxarSana' posn='180'>
8.2	para	PSP	<fs af='para,psp,,,,,,' name='para' posn='190'>
	))
9	((	NP	<fs name='NP8' drel='k2:VGF'>
9.1	roka	NN	<fs af='roka,n,f,sg,3,d,0,0' name='roka' posn='200'>
	))
10	((	VGF	<fs name='VGF' stype='declarative' voicetype='passive'>
10.1	hatA	VM	<fs af='hatA,v,any,any,any,,0,0' name='hatA' posn='210'>
10.2	xI	VAUX	<fs af='xe,v,f,sg,any,,yA,yA' name='xI' posn='220'>
10.3	gaI	VAUX	<fs af='jA,v,f,sg,any,,yA1,yA1' name='gaI' posn='230'>
10.4	WI	VAUX	<fs af='WA,v,f,sg,any,,WA,WA' name='WI' posn='240'>
	))
11	((	BLK	<fs name='BLK' drel='rsym:VGF'>
11.1	.	SYM	<fs af='.,punc,,,,,,' name='.' posn='250'>
	))
</Sentence>

<Sentence id='17'>
1	((	NP	<fs name='NP' drel='k1:VGF'>
1.1	jayapAla	NNPC	<fs af='jayapAla,n,m,sg,3,d,0,0' name='jayapAla' posn='10'>
1.2	reddI	NNP	<fs af='reddI,n,m,sg,3,o,0,0' name='reddI' posn='20'>
1.3	ne	PSP	<fs af='ne,psp,,,,,,' name='ne' posn='30'>
	))
2	((	VGF	<fs name='VGF' stype='declarative' voicetype='active'>
2.1	bawAyA	VM	<fs af='bawA,v,m,sg,any,,yA,yA' name='bawAyA' posn='40'>
	))
3	((	CCP	<fs name='CCP' drel='k2:VGF'>
3.1	ki	CC	<fs af='ki,avy,,,,,,' name='ki' posn='50'>
	))
4	((	NP	<fs name='NP2' drel='k1:VGF2'>
4.1	kEbineta	NN	<fs af='kEbineta,n,m,sg,3,o,0,0' name='kEbineta' posn='60'>
4.2	ne	PSP	<fs af='ne,psp,,,,,,' name='ne2' posn='70'>
	))
5	((	NP	<fs name='NP3' drel='r6:NP4'>
5.1	parokRa	JJ	<fs af='parokRa,adj,any,any,,o,,' name='parokRa' posn='80'>
5.2	sAMskqwika	JJ	<fs af='sAMskqwika,adj,any,any,,o,,' name='sAMskqwika' posn='90'>
5.3	XaroharoM	NN	<fs af='Xarohara,n,f,pl,3,o,0,0' name='XaroharoM' posn='100'>
5.4	ke	PSP	<fs af='kA,psp,m,sg,,o,,' name='ke' posn='110'>
	))
6	((	NP	<fs name='NP4' drel='k2:VGF2'>
6.1	saMrakRaNa	JJC	<fs af='saMrakRaNa,n,m,sg,3,d,0,0' name='saMrakRaNa' posn='120'>
6.2	saMbaMXI	JJ	<fs af='saMbaMXI,adj,any,any,,o,,' name='saMbaMXI' posn='130'>
6.3	yUnesko	NNP	<fs af='yUnesko,n,m,sg,3,d,0,0' name='yUnesko' posn='140'>
6.4	samaJOwe	NN	<fs af='samaJOwA,n,m,sg,3,o,0,0' name='samaJOwe' posn='150'>
6.5	ko	PSP	<fs af='ko,psp,,,,,,' name='ko' posn='160'>
	))
7	((	NP	<fs name='NP5' drel='pof:VGF2'>
7.1	maMjZUrI	NN	<fs af='maMjUrI,n,f,sg,3,d,0,0' name='maMjZUrI' posn='170'>
	))
8	((	VGF	<fs voicetype='active' name='VGF2' stype='declarative' drel='ccof:CCP'>
8.1	xe	VM	<fs af='xe,v,any,any,any,,0,0' name='xe' posn='180'>
8.2	xI	VAUX	<fs af='xe,v,f,sg,any,,yA,yA' name='xI' posn='190'>
8.3	hE	VAUX	<fs af='hE,v,any,sg,3,,hE,hE' name='hE' posn='200'>
	))
9	((	BLK	<fs name='BLK' drel='rsym:VGF'>
9.1	.	SYM	<fs af='.,punc,,,,,,' name='.' posn='210'>
	))
</Sentence>

<Sentence id='18'>
1	((	NP	<fs name='NP' drel='k7a:VGF'>
1.1	reddI	NNP	<fs af='reddI,n,m,sg,3,o,0,0' name='reddI' posn='10'>
1.2	ke	PSP	<fs af='ke,psp,,,,,,' name='ke' posn='20'>
1.3	muwAbika	PSP	<fs af='muwAbika,psp,,,,,,' name='muwAbika' posn='30'>
	))
2	((	NP	<fs name='NP2' drel='pof:VGNN'>
2.1	yaha	DEM	<fs af='yaha,pn,any,sg,3,d,,' name='yaha' posn='40'>
2.2	pahala	NN	<fs af='pahala,n,f,sg,3,d,0,0' name='pahala' posn='50'>
	))
3	((	VGNN	<fs name='VGNN' drel='nmod__k1inv:NP3'>
3.1	karane	VM	<fs af='kara,v,any,any,any,o,nA,nA' name='karane' posn='60'>
3.2	vAlA	PSP	<fs af='vAlA,psp,m,sg,3,o,,' name='vAlA' posn='70'>
	))
4	((	NP	<fs name='NP3' drel='k1:VGF'>
4.1	BArawa	NNP	<fs af='BArawa,n,m,sg,3,d,0,0' name='BArawa' posn='80'>
	))
5	((	NP	<fs name='NP4' drel='k1s:VGF'>
5.1	pahalA	QO	<fs af='pahalA,num,m,sg,,d,,' name='pahalA' posn='90'>
5.2	xeSa	NN	<fs af='xeSa,n,m,sg,3,d,0,0' name='xeSa' posn='100'>
	))
6	((	VGF	<fs name='VGF' stype='declarative' voicetype='active'>
6.1	hE	VM	<fs af='hE,v,any,sg,3,,hE,hE' name='hE' posn='110'>
	))
7	((	BLK	<fs name='BLK' drel='rsym:VGF'>
7.1	.	SYM	<fs af='.,punc,,,,,,' name='.' posn='120'>
	))
</Sentence>

<Sentence id='19'>
1	((	NP	<fs name='NP' drel='k7a:VGF'>
1.1	unake	PRP	<fs af='vaha,pn,any,pl,3,o,ke,ke' name='unake' posn='10'>
1.2	muwAbika	PSP	<fs af='muwAbika,psp,,,,,,' name='muwAbika' posn='20'>
	))
2	((	JJP	<fs name='JJP' drel='k1:VGNF'>
2.1	lupwa	JJ	<fs af='lupwa,adj,any,any,,,,' name='lupwa' posn='30'>
	))
3	((	VGNF	<fs name='VGNF' drel='nmod__k1inv:NP2'>
3.1	ho	VM	<fs af='ho,v,any,any,any,,0,0' name='ho' posn='40'>
3.2	rahe	VAUX	<fs af='raha,v,m,pl,any,,yA,yA' name='rahe' posn='50'>
	))
4	((	NP	<fs name='NP2' drel='ras-k2:VGF'>
4.1	AxivAsI	JJ	<fs af='AxivAsI,adj,any,any,,o,,' name='AxivAsI' posn='130'>
4.2	nqwya	NNC	<fs af='nqwya,n,m,sg,3,d,0,0' name='nqwya' posn='70'>
4.3	-	SYM	<fs af='-,punc,,,,,,' name='-' posn='80'>
4.4	saMgIwa	NN	<fs af='saMgIwa,n,m,sg,3,o,0,0' name='saMgIwa' posn='90'>
4.5	ke	PSP	<fs af='ke,psp,,,,,,' name='ke' posn='100'>
4.6	sAWa	NST	<fs af='sAWa,nst,m,sg,3,d,,' name='sAWa' posn='110'>
4.7	hI	RP	<fs af='hI,avy,,,,,,' name='hI' posn='120'>
	))
5	((	NP	<fs name='NP3' drel='k2:VGF'>
5.1	anya	JJ	<fs af='anya,adj,any,any,,o,,' name='anya' posn='130'>
5.2	sAMskqwika	JJ	<fs af='sAMskqwika,adj,any,any,,o,,' name='sAMskqwika' posn='140'>
5.3	XaroharoM	NN	<fs af='Xarohara,n,f,pl,3,o,0,0' name='XaroharoM' posn='150'>
5.4	ko	PSP	<fs af='ko,psp,,,,,,' name='ko' posn='160'>
	))
6	((	JJP	<fs name='JJP2' drel='pof:VGF'>
6.1	saMrakRiwa	JJ	<fs af='saMrakRiwa,adj,any,any,,,,' name='saMrakRiwa' posn='170'>
	))
7	((	VGF	<fs name='VGF' stype='declarative' voicetype='passive'>
7.1	kiyA	VM	<fs af='kara,v,m,sg,any,,yA,yA' name='kiyA' posn='180'>
7.2	jAegA	VAUX	<fs af='jA,v,m,sg,3,,gA,gA' name='jAegA' posn='190'>
	))
8	((	BLK	<fs name='BLK' drel='rsym:VGF'>
8.1	.	SYM	<fs af='.,punc,,,,,,' name='.' posn='200'>
	))
</Sentence>

