<Sentence id='1'>
1	((	NP	<fs name='NP' drel='k7t:VGNN'>
1.1	varRa	NN	<fs af='varRa,n,m,sg,3,d,0,0' name='varRa' posn='10'>
1.2	1996	NNP	<fs af='1996,n,any,sg,3,o,0,0' name='1996' posn='20'>
1.3	meM	PSP	<fs af='meM,psp,,,,,,' name='meM' posn='30'>
	))
2	((	NP	<fs name='NP2' drel='vmod:VGNN'>
2.1	eka	QC	<fs af='eka,num,any,any,,any,,' name='eka' posn='40'>
2.2	nOsiKie	NN	<fs af='nOsiKiyA,n,m,sg,3,o,0,0' name='nOsiKie' posn='50'>
2.3	kI	PSP	<fs af='kA,psp,f,,,o,,' name='kI' posn='60'>
2.4	hEsiyawa	PSP	<fs af='hEsiyawa,n,f,,,o,,' name='hEsiyawa' posn='60'>
2.5	se	PSP	<fs af='se,psp,,,,,,' name='se' posn='80'>
	))
3	((	NP	<fs name='NP3' drel='k2:VGNN'>
3.1	rAjanIwi	NN	<fs af='rAjanIwi,n,f,sg,3,d,0,0' name='rAjanIwi' posn='90'>
	))
4	((	NP	<fs name='NP4' drel='pof:VGNN'>
4.1	SurU	NN	<fs af='SurU,n,m,sg,3,d,0,0' name='SurU' posn='100'>
	))
5	((	VGNN	<fs name='VGNN' drel='nmod:NP5'>
5.1	karane	VM	<fs af='kara,v,any,any,any,o,nA,nA' name='karane' posn='110'>
5.2	vAle	PSP	<fs af='vAlA,psp,m,sg,3h,d,,' name='vAle' posn='120'>
	))
6	((	NP	<fs name='NP5' drel='k1:VGF'>
6.1	eca.	NNPC	<fs af='eca.,n,m,sg,3,d,0,0' name='eca.' posn='130'>
6.2	dI.	NNPC	<fs af='dI.,n,m,sg,3,d,0,0' name='dI.' posn='140'>
6.3	kumArasvAmI	NNP	<fs af='kumArasvAmI,n,m,sg,3,d,0,0' name='kumArasvAmI' posn='150'>
	))
7	((	NP	<fs name='NP6' drel='r6:NP7'>
7.1	varRa	NN	<fs af='varRa,n,m,sg,3,d,0,0' name='varRa2' posn='160'>
7.2	2006	NNP	<fs af='2006,n,any,sg,3,o,0,0' name='2006' posn='170'>
7.3	ke	PSP	<fs af='kA,psp,m,sg,,o,,' name='ke' posn='180'>
	))
8	((	NP	<fs name='NP7' drel='k7t:VGF'>
8.1	pahale	QO	<fs af='pahalA,num,m,sg,,o,,' name='pahale' posn='190'>
8.2	mahIne	NN	<fs af='mahInA,n,m,sg,3,o,0,0' name='mahIne' posn='200'>
8.3	meM	PSP	<fs af='meM,psp,,,,,,' name='meM2' posn='210'>
	))
9	((	NP	<fs name='NP8' drel='fragof:NP9'>
9.1	eka	QC	<fs af='eka,num,any,any,,any,,' name='eka2' posn='220'>
9.2	Ese	PRP	<fs af='EsA,pn,m,sg,any,o,0,0' name='Ese' posn='230'>
	))
10	((	VGNF	<fs name='VGNF' drel='nmod__k1inv:NP9'>
10.1	maMje	VM	<fs af='maMJe,v,m,sg,3h,,yA,yA' name='maMje' posn='240'>
10.2	hue	VAUX	<fs af='ho,v,m,sg,3h,,yA,yA' name='hue' posn='250'>
	))
11	((	NP	<fs name='NP9' drel='k7:VGF'>
11.1	newA	NN	<fs af='newA,n,m,sg,3,o,0,0' name='newA' posn='260'>
11.2	ke	PSP	<fs af='ke,psp,m,,,o,,' name='ke2' posn='270'>
11.3	rUpa	PSP	<fs af='rUpa,n,m,,,o,,' name='rUpa' posn='270'>
11.4	meM	PSP	<fs af='meM,psp,,,,,,' name='meM3' posn='290'>
	))
12	((	NP	<fs name='NP10' drel='k7:VGF'>
12.1	sAmane	NST	<fs af='sAmane,nst,m,sg,3,d,,' name='sAmane' posn='300'>
	))
13	((	VGF	<fs name='VGF' stype='declarative' voicetype='active'>
13.1	Ae	VM	<fs af='A,v,m,sg,3h,,yA,yA' name='Ae' posn='310'>
13.2	,	SYM	<fs af='COMMA,punc,,,,,,' name=',' posn='320'>
	))
14	((	NP	<fs coref=':NP9' name='NP11' drel='k1:VGF2'>
14.1	jisane	PRP	<fs af='jo,pn,any,sg,3,o,ne,ne' name='jisane' posn='330'>
	))
15	((	NP	<fs name='NP12' drel='r6:NP13'>
15.1	kaI	QF	<fs af='kaI,avy,,,,,,' name='kaI' posn='340'>
15.2	rAjanIwika	JJ	<fs af='rAjanIwika,adj,any,any,,o,,' name='rAjanIwika' posn='350'>
15.3	aKAdZe	NN	<fs af='aKAdA,n,m,pl,3,o,0,0' name='aKAdZe' posn='360'>
15.4	ke	PSP	<fs af='kA,psp,m,pl,,o,,' name='ke3' posn='370'>
	))
16	((	NP	<fs name='NP13' drel='k2:VGF2'>
16.1	kaI	QF	<fs af='kaI,avy,,,,,,' name='kaI2' posn='380'>
16.2	kaxxAroM	NN	<fs af='kaxxAra,n,m,pl,3,o,0,0' name='kaxxAroM' posn='390'>
16.3	ko	PSP	<fs af='ko,psp,,,,,,' name='ko' posn='400'>
	))
17	((	JJP	<fs name='JJP' drel='pof:VGF2'>
17.1	ciwa	JJ	<fs af='ciwa,adj,any,any,,,,' name='ciwa' posn='410'>
	))
18	((	VGF	<fs voicetype='active' name='VGF2' stype='declarative' drel='nmod__relc:NP9'>
18.1	kara	VM	<fs af='kara,v,any,any,any,,0,0' name='kara' posn='420'>
18.2	xiyA	VAUX	<fs af='xe,v,m,sg,any,,yA,yA' name='xiyA' posn='430'>
	))
19	((	BLK	<fs name='BLK' drel='rsym:VGF'>
19.1	.	SYM	<fs af='.,punc,,,,,,' name='.' posn='440'>
	))
</Sentence>

<Sentence id='2'>
1	((	NP	<fs name='NP' drel='k1:VGF'>
1.1	kumArasvAmI	NNP	<fs af='kumArasvAmI,n,m,sg,3,d,0,0' name='kumArasvAmI' posn='10'>
	))
2	((	NP	<fs name='NP2' drel='r6:NP3'>
2.1	apanI	PRP	<fs af='apanA,pn,f,any,any,o,0,0' name='apanI' posn='20'>
	))
3	((	NP	<fs name='NP3' drel='nmod:NP4'>
3.1	mAM	NN	<fs af='mAz,n,f,sg,3,o,0,0' name='mAM' posn='30'>
	))
4	((	NP	<fs name='NP4' drel='k1:VGNN'>
4.1	cennamA	NNP	<fs af='cennamA,n,f,sg,3,o,0,0' name='cennamA' posn='40'>
4.2	ke	PSP	<fs af='kA,psp,m,sg,,o,,' name='ke' posn='50'>
	))
5	((	VGNN	<fs name='VGNN' drel='k7:VGF'>
5.1	kahane	VM	<fs af='kaha,v,any,any,any,o,nA,nA' name='kahane' posn='60'>
5.2	para	PSP	<fs af='para,psp,,,,,,' name='para' posn='70'>
	))
6	((	NP	<fs name='NP5' drel='adv:VGF'>
6.1	badZI	JJ	<fs af='badA,adj,f,sg,,o,,' name='badZI' posn='80'>
6.2	anicCA	NN	<fs af='anicCA,n,f,sg,3,o,0,0' name='anicCA' posn='90'>
6.3	se	PSP	<fs af='se,psp,,,,,,' name='se' posn='100'>
	))
7	((	NP	<fs name='NP6' drel='k7:VGF'>
7.1	rAjanIwi	NN	<fs af='rAjanIwi,n,f,sg,3,o,0,0' name='rAjanIwi' posn='110'>
7.2	meM	PSP	<fs af='meM,psp,,,,,,' name='meM' posn='120'>
	))
8	((	VGF	<fs name='VGF' stype='declarative' voicetype='active'>
8.1	Ae	VM	<fs af='A,v,m,sg,3h,,yA,yA' name='Ae' posn='130'>
8.2	We	VAUX	<fs af='WA,v,m,sg,3h,,WA,WA' name='We' posn='140'>
	))
9	((	BLK	<fs name='BLK' drel='rsym:VGF'>
9.1	.	SYM	<fs af='.,punc,,,,,,' name='.' posn='150'>
	))
</Sentence>

<Sentence id='3'>
1	((	NP	<fs name='NP' drel='r6:NP2'>
1.1	pUrva	JJ	<fs af='pUrva,adj,any,any,,d,,' name='pUrva' posn='10'>
1.2	praXAnamaMwrI	NNP	<fs af='praXAnamaMwrI,n,m,sg,3,d,0,0' name='praXAnamaMwrI' posn='20'>
1.3	eca.	NNPC	<fs af='eca.,n,m,sg,3,d,0,0' name='eca.' posn='30'>
1.4	dI.	NNPC	<fs af='dI.,n,m,sg,3,d,0,0' name='dI.' posn='40'>
1.5	xevagOdZA	NNP	<fs af='xevagOdZA,n,m,sg,3,o,0,0' name='xevagOdZA' posn='50'>
1.6	ke	PSP	<fs af='kA,psp,m,sg,,o,,' name='ke' posn='60'>
	))
2	((	NP	<fs name='NP2' drel='k1:VGF'>
2.1	isa	DEM	<fs af='yaha,pn,any,sg,3,o,,' name='isa' posn='70'>
2.2	bete	NN	<fs af='betA,n,m,sg,3,o,0,0' name='bete' posn='80'>
2.3	ne	PSP	<fs af='ne,psp,,,,,,' name='ne' posn='90'>
	))
3	((	NP	<fs name='NP3' drel='k7t:VGF'>
3.1	aba	PRP	<fs af='aba,pn,,,,o,,' name='aba' posn='100'>
3.2	waka	PSP	<fs af='waka,psp,,,,,,' name='waka' posn='110'>
	))
4	((	NP	<fs name='NP4' drel='k2:VGF'>
4.1	ve	DEM	<fs af='vaha,pn,any,pl,3,d,,' name='ve' posn='120'>
4.2	pAMca	QC	<fs af='pAMca,num,any,any,,any,,' name='pAMca' posn='130'>
4.3	cunAva	NN	<fs af='cunAva,n,m,pl,3,d,0,0' name='cunAva' posn='140'>
	))
5	((	VGF	<fs name='VGF' stype='declarative' voicetype='active'>
5.1	ladZe	VM	<fs af='lada,v,m,pl,3,,yA,yA' name='ladZe' posn='150'>
5.2	hEM	VAUX	<fs af='hE,v,any,pl,3,,hE,hE' name='hEM' posn='160'>
5.3	,	SYM	<fs af='COMMA,punc,,,,,,' name=',' posn='170'>
	))
6	((	NP	<fs coref=':NP4' name='NP5' drel='k5:VGF2'>
6.1	jinameM	PRP	<fs af='jo,pn,any,pl,3,o,meM,meM' name='jinameM' posn='180'>
6.2	se	PSP	<fs af='se,psp,,,,,,' name='se' posn='190'>
	))
7	((	NP	<fs name='NP6' drel='k7:VGF2'>
7.1	kevala	RP	<fs af='kevala,avy,,,,,,' name='kevala' posn='200'>
7.2	xo	QC	<fs af='xo,num,any,any,,o,,' name='xo' posn='210'>
7.3	meM	PSP	<fs af='meM,psp,,,,,,' name='meM' posn='220'>
	))
8	((	NP	<fs name='NP7' drel='pof:VGF2'>
8.1	kAmayAbI	NN	<fs af='kAmayAbI,n,f,sg,3,d,0,0' name='kAmayAbI' posn='230'>
	))
9	((	VGF	<fs voicetype='active' name='VGF2' stype='declarative' drel='nmod__relc:NP4'>
9.1	milI	VM	<fs af='mila,v,f,sg,any,,yA,yA' name='milI' posn='240'>
	))
10	((	BLK	<fs name='BLK' drel='rsym:VGF'>
10.1	.	SYM	<fs af='.,punc,,,,,,' name='.' posn='250'>
	))
</Sentence>

<Sentence id='4'>
1	((	NP	<fs name='NP' drel='k4:VGF'>
1.1	kumArasvAmI	NNP	<fs af='kumArasvAmI,n,m,sg,3,o,0,0' name='kumArasvAmI' posn='10'>
1.2	ko	PSP	<fs af='ko,psp,,,,,,' name='ko' posn='20'>
	))
2	((	NP	<fs name='NP2' drel='pof:VGF'>
2.1	pahalI	QO	<fs af='pahalA,num,f,sg,,d,,' name='pahalI' posn='30'>
2.2	saPalawA	NN	<fs af='saPalawA,n,f,sg,3,d,0,0' name='saPalawA' posn='40'>
	))
3	((	NP	<fs name='NP3' drel='k7t:VGF'>
3.1	varRa	NN	<fs af='varRa,n,m,sg,3,d,0,0' name='varRa' posn='50'>
3.2	1996	NNP	<fs af='1996,n,any,sg,3,o,0,0' name='1996' posn='60'>
3.3	meM	PSP	<fs af='meM,psp,,,,,,' name='meM' posn='70'>
	))
4	((	VGF	<fs name='VGF' stype='declarative' voicetype='active'>
4.1	milI	VM	<fs af='mila,v,f,sg,any,,yA,yA' name='milI' posn='80'>
4.2	,	SYM	<fs af='COMMA,punc,,,,,,' name=',' posn='90'>
	))
5	((	NP	<fs coref='NP3' name='NP4' drel='k7t:VGF2'>
5.1	jaba	PRP	<fs af='jaba,pn,,,,d,,' name='jaba' posn='100'>
	))
6	((	NP	<fs name='NP5' drel='k1:VGF2'>
6.1	xevagOdZA	NNP	<fs af='xevagOdZA,n,m,sg,3,o,0,0' name='xevagOdZA' posn='110'>
6.2	ne	PSP	<fs af='ne,psp,,,,,,' name='ne' posn='120'>
	))
7	((	NP	<fs name='NP6' drel='k5:VGF2'>
7.1	kanakapurA	NNP	<fs af='kanakapurA,n,m,sg,3,d,0,0' name='kanakapurA' posn='130'>
7.2	saMsaxIya	NNC	<fs af='saMsaxIya,adj,any,any,,d,,' name='saMsaxIya' posn='170'>
7.3	kRewra	NN	<fs af='kRewra,n,m,sg,3,o,0,0' name='kRewra' posn='150'>
7.4	se	PSP	<fs af='se,psp,,,,,,' name='se' posn='160'>
	))
8	((	JJP	<fs name='JJP' drel='nmod:NP7'>
8.1	aviBAjiwa	JJ	<fs af='aviBAjiwa,adj,any,any,,d,,' name='aviBAjiwa' posn='170'>
	))
9	((	NP	<fs name='NP7' drel='k7:VGF3'>
9.1	jaxa	NNPC	<fs af='jaxa,n,m,sg,3,d,0,0' name='jaxa' posn='180'>
9.2	esa	NNP	<fs af='esa,n,m,sg,3,d,0,0' name='esa' posn='190'>
9.3	prawyASI	NN	<fs af='prawyASI,n,m,sg,3,o,0,0' name='prawyASI' posn='200'>
9.4	ke	PSP	<fs af='ke,psp,m,,,o,,' name='ke' posn='210'>
9.5	rUpa	PSP	<fs af='rUpa,n,m,,,o,,' name='rUpa' posn='210'>
9.6	meM	PSP	<fs af='meM,psp,,,,,,' name='meM2' posn='230'>
	))
10	((	NP	<fs name='NP8' drel='r6:NP9'>
10.1	unakA	PRP	<fs af='vaha,pn,m,sg,3h,o,kA,kA' name='unakA' posn='240'>
	))
11	((	NP	<fs name='NP9' drel='k2:VGF2'>
11.1	nAma	NN	<fs af='nAma,n,m,sg,3,d,0,0' name='nAma' posn='250'>
	))
12	((	JJP	<fs name='JJP2' drel='pof:VGF2'>
12.1	praswAviwa	JJ	<fs af='praswAviwa,adj,any,any,,,,' name='praswAviwa' posn='260'>
	))
13	((	VGF	<fs voicetype='active' name='VGF2' stype='declarative' drel='ccof:CCP'>
13.1	kiyA	VM	<fs af='kara,v,m,sg,3,,yA,yA' name='kiyA' posn='270'>
13.2	WA	VAUX	<fs af='WA,v,m,sg,any,,WA,WA' name='WA' posn='280'>
	))
14	((	CCP	<fs name='CCP' drel='nmod__relc:NP3'>
14.1	Ora	CC	<fs af='Ora,avy,,,,,,' name='Ora' posn='290'>
	))
15	((	NP	<fs name='NP10' drel='k1:VGF3'>
15.1	vaha	PRP	<fs af='vaha,pn,any,sg,3,d,0,0' name='vaha' posn='300'>
	))
16	((	NP	<fs name='NP11' drel='k2:VGF3'>
16.1	cunAva	NN	<fs af='cunAva,n,m,sg,3,d,0,0' name='cunAva' posn='310'>
	))
17	((	VGF	<fs voicetype='active' name='VGF3' stype='declarative' drel='ccof:CCP'>
17.1	jIwa	VM	<fs af='jIwa,v,any,any,any,,0,0' name='jIwa' posn='320'>
17.2	gae	VAUX	<fs af='jA,v,m,sg,3h,,yA1,yA1' name='gae' posn='330'>
	))
18	((	BLK	<fs name='BLK' drel='rsym:VGF'>
18.1	.	SYM	<fs af='.,punc,,,,,,' name='.' posn='340'>
	))
</Sentence>

<Sentence id='5'>
1	((	NP	<fs name='NP' drel='k7t:VGF'>
1.1	varRa	NNPC	<fs af='varRa,n,m,sg,3,d,0,0' name='varRa' posn='10'>
1.2	1998	NNP	<fs af='1998,n,m,sg,3,o,0,0' name='1998' posn='20'>
1.3	meM	PSP	<fs af='meM,psp,,,,,,' name='meM' posn='30'>
	))
2	((	NP	<fs name='NP2' drel='k1:VGF'>
2.1	kumArasvAmI	NNP	<fs af='kumArasvAmI,n,m,sg,3,d,0,0' name='kumArasvAmI' posn='40'>
	))
3	((	NP	<fs name='NP3' drel='r6:NP4'>
3.1	apanA	PRP	<fs af='apanA,pn,m,any,any,d,0,0' name='apanA' posn='50'>
	))
4	((	NP	<fs name='NP4' drel='k2:VGNN'>
4.1	jAxU	NN	<fs af='jAxU,n,m,sg,3,d,0,0' name='jAxU' posn='60'>
	))
5	((	VGNN	<fs name='VGNN' drel='k7:VGF'>
5.1	xoharAne	VM	<fs af='xoharA,v,any,any,any,o,nA,nA' name='xoharAne' posn='70'>
5.2	meM	PSP	<fs af='meM,psp,,,,,,' name='meM2' posn='80'>
	))
6	((	JJP	<fs name='JJP' drel='k1s:VGF'>
6.1	nAkAma	JJ	<fs af='nAkAma,adj,any,any,,,,' name='nAkAma' posn='90'>
	))
7	((	VGF	<fs voicetype='active' name='VGF' stype='declarative' drel='ccof:CCP'>
7.1	rahe	VM	<fs af='raha,v,m,sg,3h,,yA,yA' name='rahe' posn='100'>
	))
8	((	CCP	<fs name='CCP'>
8.1	Ora	CC	<fs af='Ora,avy,,,,,,' name='Ora' posn='110'>
	))
9	((	NP	<fs name='NP5' drel='r6:NP6'>
9.1	kAMgresa	NNP	<fs af='kAMgresa,n,f,sg,3,o,0,0' name='kAMgresa' posn='120'>
9.2	ke	PSP	<fs af='kA,psp,m,sg,,o,,' name='ke' posn='130'>
	))
10	((	NP	<fs name='NP6' drel='r6:NP7'>
10.1	ema.	NNPC	<fs af='ema.,n,m,sg,3,d,0,0' name='ema.' posn='140'>
10.2	caMxraSeKara	NNPC	<fs af='caMxraSeKara,n,m,sg,3,d,0,0' name='caMxraSeKara' posn='150'>
10.3	mUrwi	NNP	<fs af='mUrwi,n,m,sg,3,o,0,0' name='mUrwi' posn='160'>
10.4	ke	PSP	<fs af='kA,psp,m,sg,,o,,' name='ke2' posn='170'>
	))
11	((	NP	<fs name='NP7' drel='k3:VGF2'>
11.1	hAWoM	NN	<fs af='hAWa,n,m,pl,3,d,0,0' name='hAWoM' posn='180'>
	))
12	((	NP	<fs name='NP8' drel='k4:VGF2'>
12.1	unheM	PRP	<fs af='vaha,pn,any,sg,3h,o,ko,ko' name='unheM' posn='190'>
	))
13	((	NP	<fs name='NP9' drel='pof:VGF2'>
13.1	mAwa	NN	<fs af='mAwa,n,f,sg,3,d,0,0' name='mAwa' posn='200'>
	))
14	((	VGF	<fs voicetype='active' name='VGF2' stype='declarative' drel='ccof:CCP'>
14.1	KAnI	VM	<fs af='KA,v,f,sg,any,,nA,nA' name='KAnI' posn='210'>
14.2	padZI	VAUX	<fs af='pada,v,f,sg,any,,yA,yA' name='padZI' posn='220'>
	))
15	((	BLK	<fs name='BLK' drel='rsym:CCP'>
15.1	.	SYM	<fs af='.,punc,,,,,,' name='.' posn='230'>
	))
</Sentence>

<Sentence id='6'>
1	((	NP	<fs name='NP' drel='k7t:VGF'>
1.1	agale	JJ	<fs af='agalA,adj,m,sg,,o,,' name='agale' posn='10'>
1.2	hI	RP	<fs af='hI,avy,,,,,,' name='hI' posn='20'>
1.3	sAla	NN	<fs af='sAla,n,m,sg,3,o,0,0' name='sAla' posn='30'>
	))
2	((	NP	<fs name='NP2' drel='k4a:VGF'>
2.1	unheM	PRP	<fs af='vaha,pn,any,sg,3h,o,ko,ko' name='unheM' posn='40'>
	))
3	((	NP	<fs name='NP3' drel='k1:VGF'>
3.1	xoharA	JJ	<fs af='xoharA,adj,m,sg,,d,,' name='xoharA' posn='50'>
3.2	JatakA	NN	<fs af='JatakA,n,m,sg,3,d,0,0' name='JatakA' posn='60'>
	))
4	((	VGF	<fs name='VGF' stype='declarative' voicetype='active'>
4.1	lagA	VM	<fs af='laga,v,m,sg,any,,yA,yA' name='lagA' posn='70'>
4.2	,	SYM	<fs af='COMMA,punc,,,,,,' name=',' posn='80'>
	))
5	((	NP	<fs coref='NP' name='NP4' drel='k7t:VGF2'>
5.1	jaba	PRP	<fs af='jaba,pn,,,,d,,' name='jaba' posn='90'>
	))
6	((	NP	<fs name='NP5' drel='ccof:CCP'>
6.1	saWanura	NNP	<fs af='saWanura,n,m,sg,3,d,0,0' name='saWanura' posn='100'>
6.2	viXAnasaBA	NN	<fs af='viXAnasaBA,n,f,sg,3,o,0,0' name='viXAnasaBA' posn='110'>
	))
7	((	CCP	<fs name='CCP' drel='k7p:VGF2'>
7.1	Ora	CC	<fs af='Ora,avy,,,,,,' name='Ora' posn='120'>
	))
8	((	NP	<fs name='NP6' drel='ccof:CCP'>
8.1	kanakapurA	NNP	<fs af='kanakapurA,n,m,sg,3,d,0,0' name='kanakapurA' posn='130'>
8.2	saMsaxIya	NNC	<fs af='saMsaxIya,adj,any,any,,o,,' name='saMsaxIya' posn='140'>
8.3	kRewroM	NN	<fs af='kRewra,n,m,pl,3,o,0,0' name='kRewroM' posn='150'>
8.4	meM	PSP	<fs af='meM,psp,,,,,,' name='meM' posn='160'>
	))
9	((	NP	<fs name='NP7' drel='k1:VGF2'>
9.1	mawaxAwAoM	NN	<fs af='mawaxAwA,n,m,pl,3,o,0,0' name='mawaxAwAoM' posn='170'>
9.2	ne	PSP	<fs af='ne,psp,,,,,,' name='ne' posn='180'>
	))
10	((	NP	<fs name='NP8' drel='k2:VGF2'>
10.1	unheM	PRP	<fs af='vaha,pn,any,sg,3h,o,ko,ko' name='unheM2' posn='190'>
	))
11	((	VGF	<fs voicetype='active' name='VGF2' stype='declarative' drel='nmod__relc:NP'>
11.1	uKAdZa	VM	<fs af='uKAda,v,any,any,any,,0,0' name='uKAdZa' posn='200'>
11.2	PeMkA	VAUX	<fs af='PeMka,v,m,sg,any,,yA,yA' name='PeMkA' posn='210'>
	))
12	((	BLK	<fs name='BLK' drel='rsym:VGF'>
12.1	.	SYM	<fs af='.,punc,,,,,,' name='.' posn='220'>
	))
</Sentence>

<Sentence id='7'>
1	((	NP	<fs name='NP' drel='k7:VGF'>
1.1	isa	DEM	<fs af='yaha,pn,any,sg,3,o,,' name='isa' posn='10'>
1.2	cunAva	NN	<fs af='cunAva,n,m,sg,3,o,0,0' name='cunAva' posn='20'>
1.3	meM	PSP	<fs af='meM,psp,,,,,,' name='meM' posn='30'>
	))
2	((	NP	<fs name='NP2' drel='k1:VGF'>
2.1	xevagOdZA	NNP	<fs af='xevagOdZA,n,m,sg,3,d,0,0' name='xevagOdZA' posn='40'>
	))
3	((	NP	<fs name='NP3' drel='r6:NP4'>
3.1	apane	PRP	<fs af='apanA,pn,m,any,any,o,0,0' name='apane' posn='50'>
	))
4	((	NP	<fs name='NP4' drel='nmod:NP5'>
4.1	GarelU	JJ	<fs af='GarelU,adj,any,any,,o,,' name='GarelU' posn='60'>
4.2	mExAna	NN	<fs af='mExAna,n,m,sg,3,o,0,0' name='mExAna' posn='70'>
	))
5	((	NP	<fs name='NP5' drel='ccof:CCP'>
5.1	hAsana	NNP	<fs af='hAsana,n,m,sg,3,o,0,0' name='hAsana' posn='80'>
	))
6	((	CCP	<fs name='CCP' drel='k5:VGF'>
6.1	Ora	CC	<fs af='Ora,avy,,,,,,' name='Ora' posn='90'>
	))
7	((	NP	<fs name='NP6' drel='r6:NP7'>
7.1	unake	PRP	<fs af='vaha,pn,m,sg,3h,o,kA,kA' name='unake' posn='100'>
	))
8	((	NP	<fs name='NP7' drel='nmod:NP8'>
8.1	badZe	JJ	<fs af='badA,adj,m,sg,,d,,' name='badZe' posn='110'>
8.2	puwra	NN	<fs af='puwra,n,m,sg,3,d,0,0' name='puwra' posn='120'>
	))
9	((	NP	<fs name='NP8' drel='nmod:NP9'>
9.1	eca.	NNPC	<fs af='eca.,n,m,sg,3,d,0,0' name='eca.' posn='130'>
9.2	dI.	NNPC	<fs af='dI.,n,m,sg,3,d,0,0' name='dI.' posn='140'>
9.3	ravannA	NNP	<fs af='ravannA,n,m,sg,3,d,0,0' name='ravannA' posn='150'>
	))
10	((	NP	<fs name='NP9' drel='r6:NP10'>
10.1	parivAra	NN	<fs af='parivAra,n,m,sg,3,o,0,0' name='parivAra' posn='160'>
10.2	kI	PSP	<fs af='kA,psp,f,sg,,o,,' name='kI' posn='170'>
	))
11	((	NP	<fs name='NP10' drel='nmod:NP11'>
11.1	paraMparAgawa	JJ	<fs af='paraMparAgawa,adj,any,any,,o,,' name='paraMparAgawa' posn='180'>
11.2	sIta	NN	<fs af='sIta,n,f,sg,3,o,0,0' name='sIta' posn='190'>
	))
12	((	NP	<fs name='NP11' drel='ccof:CCP'>
12.1	holanasiMpurA	NNP	<fs af='holanasiMpurA,n,m,sg,3,d,0,0' name='holanasiMpurA' posn='200'>
12.2	sIta	NN	<fs af='sIta,n,f,sg,3,o,0,0' name='sIta2' posn='210'>
12.3	se	PSP	<fs af='se,psp,,,,,,' name='se' posn='220'>
	))
13	((	VGF	<fs name='VGF' stype='declarative' voicetype='active'>
13.1	hAra	VM	<fs af='hAra,v,any,any,any,,0,0' name='hAra' posn='230'>
13.2	gae	VAUX	<fs af='jA,v,m,sg,any,,yA1,yA1' name='gae' posn='240'>
13.3	We	VAUX	<fs af='WA,v,m,sg,3h,,WA,WA' name='We' posn='250'>
	))
14	((	BLK	<fs name='BLK' drel='rsym:VGF'>
14.1	.	SYM	<fs af='.,punc,,,,,,' name='.' posn='260'>
	))
</Sentence>

<Sentence id='8'>
1	((	NP	<fs name='NP' drel='k7:VGNN'>
1.1	jyowiRa	NN	<fs af='jyowiRa,n,m,sg,3,o,0,0' name='jyowiRa' posn='10'>
1.2	para	PSP	<fs af='para,psp,,,,,,' name='para' posn='20'>
	))
2	((	NP	<fs name='NP2' drel='pof:VGNN'>
2.1	BarosA	NN	<fs af='BarosA,n,m,sg,3,d,0,0' name='BarosA' posn='30'>
	))
3	((	VGNN	<fs name='VGNN' drel='nmod:NP3'>
3.1	karane	VM	<fs af='kara,v,any,any,any,o,nA,nA' name='karane' posn='40'>
3.2	vAle	PSP	<fs af='vAlA,psp,m,sg,,o,,' name='vAle' posn='50'>
	))
4	((	NP	<fs name='NP3' drel='r6:NP4'>
4.1	kumArasvAmI	NNP	<fs af='kumArasvAmI,n,m,sg,3,o,0,0' name='kumArasvAmI' posn='60'>
4.2	ke	PSP	<fs af='kA,psp,m,sg,,o,,' name='ke' posn='70'>
	))
5	((	NP	<fs name='NP4' drel='k1:VGF'>
5.1	BAgya	NN	<fs af='BAgya,n,m,sg,3,o,0,0' name='BAgya' posn='80'>
5.2	ne	PSP	<fs af='ne,psp,,,,,,' name='ne' posn='90'>
	))
6	((	NP	<fs name='NP5' drel='k7t:VGF'>
6.1	varRa	NNPC	<fs af='varRa,n,m,sg,3,d,0,0' name='varRa' posn='100'>
6.2	2004	NNP	<fs af='2004,n,m,sg,3,o,0,0' name='2004' posn='110'>
6.3	meM	PSP	<fs af='meM,psp,,,,,,' name='meM' posn='120'>
	))
7	((	RBP	<fs name='RBP' drel='adv:VGF'>
7.1	Pira	RB	<fs af='Pira,adv,,,,,,' name='Pira' posn='130'>
	))
8	((	NP	<fs name='NP6' drel='pof:VGF'>
8.1	jora	NN	<fs af='jora,n,m,sg,3,d,0,0' name='jora' posn='140'>
	))
9	((	VGF	<fs voicetype='active' name='VGF' stype='declarative' drel='ccof:CCP'>
9.1	mArA	VM	<fs af='mAra,v,m,sg,any,,yA,yA' name='mArA' posn='150'>
	))
10	((	CCP	<fs name='CCP'>
10.1	Ora	CC	<fs af='Ora,avy,,,,,,' name='Ora' posn='160'>
	))
11	((	NP	<fs name='NP7' drel='k5:VGF2'>
11.1	rAmanagarama	NNP	<fs af='rAmanagarama,n,m,sg,3,d,0,0' name='rAmanagarama' posn='170'>
11.2	viXAnasaBA	NNC	<fs af='viXAnasaBA,n,f,sg,3,d,0,0' name='viXAnasaBA' posn='180'>
11.3	sIta	NN	<fs af='sIta,n,f,sg,3,o,0,0' name='sIta' posn='190'>
11.4	se	PSP	<fs af='se,psp,,,,,,' name='se' posn='200'>
	))
12	((	VGF	<fs voicetype='active' name='VGF2' stype='declarative' drel='ccof:CCP'>
12.1	jIwa	VM	<fs af='jIwa,v,any,any,any,,0,0' name='jIwa' posn='210'>
12.2	gae	VAUX	<fs af='jA,v,m,sg,3h,,yA1,yA1' name='gae' posn='220'>
	))
13	((	BLK	<fs name='BLK' drel='rsym:CCP'>
13.1	.	SYM	<fs af='.,punc,,,,,,' name='.' posn='230'>
	))
</Sentence>

<Sentence id='9'>
1	((	NP	<fs name='NP' drel='k7t:VGF'>
1.1	varwamAna	NN	<fs af='varwamAna,n,m,sg,3,o,0,0' name='varwamAna' posn='10'>
1.2	meM	PSP	<fs af='meM,psp,,,,,,' name='meM' posn='20'>
	))
2	((	NP	<fs name='NP2' drel='k1:VGF'>
2.1	vaha	PRP	<fs af='vaha,pn,any,sg,3,d,0,0' name='vaha' posn='30'>
	))
3	((	NP	<fs name='NP3' drel='k7:VGF'>
3.1	viXAnasaBA	NN	<fs af='viXAnasaBA,n,f,sg,3,o,0,0' name='viXAnasaBA' posn='40'>
3.2	meM	PSP	<fs af='meM,psp,,,,,,' name='meM2' posn='50'>
	))
4	((	NP	<fs name='NP4' drel='r6-k2:NP5'>
4.1	isI	DEM	<fs af='yaha,pn,any,sg,3,o,,' name='isI' posn='60'>
4.2	sIta	NN	<fs af='sIta,n,f,sg,3,o,0,0' name='sIta' posn='70'>
4.3	kA	PSP	<fs af='kA,psp,m,sg,,d,,' name='kA' posn='80'>
	))
5	((	NP	<fs name='NP5' drel='pof:VGF'>
5.1	prawiniXiwva	NN	<fs af='prawiniXiwva,n,m,sg,3,d,0,0' name='prawiniXiwva' posn='90'>
	))
6	((	VGF	<fs name='VGF' stype='declarative' voicetype='active'>
6.1	kara	VM	<fs af='kara,v,any,any,any,,0,0' name='kara' posn='100'>
6.2	rahe	VAUX	<fs af='raha,v,m,sg,3h,,yA,yA' name='rahe' posn='110'>
6.3	hEM	VAUX	<fs af='hE,v,any,sg,3h,,hE,hE' name='hEM' posn='120'>
	))
7	((	BLK	<fs name='BLK' drel='rsym:VGF'>
7.1	.	SYM	<fs af='.,punc,,,,,,' name='.' posn='130'>
	))
</Sentence>

