<Sentence id='1'>
1	((	NP	<fs name='NP' drel='k7:VGF'>
1.1	kaSmIra	NNP	<fs af='kaSmIra,n,m,sg,3,d,0,0' name='kaSmIra' posn='10'>
1.2	muxxe	NN	<fs af='muxxA,n,m,sg,3,o,0,0' name='muxxe' posn='20'>
1.3	para	PSP	<fs af='para,psp,,,,,,' name='para' posn='30'>
	))
2	((	NP	<fs name='NP2' drel='k7t:VGF'>
2.1	SukravAra	NNP	<fs af='SukravAra,n,m,sg,3,o,0,0' name='SukravAra' posn='40'>
2.2	ko	PSP	<fs af='ko,psp,,,,,,' name='ko' posn='50'>
	))
3	((	NP	<fs name='NP3' drel='k7p:VGF'>
3.1	naI	NNPC	<fs af='nayA,adj,f,any,,o,,' name='naI' posn='60'>
3.2	xillI	NNP	<fs af='xillI,n,f,sg,3,o,0,0' name='xillI' posn='70'>
3.3	meM	PSP	<fs af='meM,psp,,,,,,' name='meM' posn='80'>
	))
4	((	NP	<fs name='NP4' drel='k1:VGF'>
4.1	praXAnamaMwrI	NNP	<fs af='praXAnamaMwrI,n,m,sg,3,d,0,0' name='praXAnamaMwrI' posn='90'>
4.2	manamohana	NNPC	<fs af='manamohana,n,m,sg,3,d,0,0' name='manamohana' posn='100'>
4.3	siMha	NNP	<fs af='siMha,n,m,sg,3,o,0,0' name='siMha' posn='110'>
4.4	ne	PSP	<fs af='ne,psp,,,,,,' name='ne' posn='120'>
	))
5	((	NP	<fs name='NP5' drel='r6:NP6'>
5.1	kaSmIra	NNP	<fs af='kaSmIra,n,m,sg,3,d,0,0' name='kaSmIra2' posn='130'>
5.2	muxxe	NN	<fs af='muxxA,n,m,sg,3,o,0,0' name='muxxe2' posn='140'>
5.3	ke	PSP	<fs af='kA,psp,m,sg,,o,,' name='ke' posn='150'>
	))
6	((	NP	<fs name='NP6' drel='r6:NP7'>
6.1	sWAI	JJ	<fs af='sWAI,adj,any,any,,o,,' name='sWAI' posn='160'>
6.2	samAXAna	NN	<fs af='samAXAna,n,m,sg,3,o,0,0' name='samAXAna' posn='170'>
6.3	kI	PSP	<fs af='kA,psp,f,sg,,o,,' name='kI' posn='180'>
	))
7	((	NP	<fs name='NP7' drel='k7:VGF'>
7.1	ummIxa	NN	<fs af='ummIxa,n,f,sg,3,o,0,0' name='ummIxa' posn='190'>
7.2	meM	PSP	<fs af='meM,psp,,,,,,' name='meM2' posn='200'>
	))
8	((	NP	<fs name='NP8' drel='r6:NP10'>
8.1	jammU	NNPC	<fs af='jammU,n,m,sg,3,d,0,0' name='jammU' posn='210'>
8.2	kaSmIra	NNPC	<fs af='kaSmIra,n,m,sg,3,d,0,0' name='kaSmIra3' posn='220'>
8.3	libareSana	NNPC	<fs af='libareSana,n,m,sg,3,d,0,0' name='libareSana' posn='230'>
8.4	PraMta	NNP	<fs af='PraMta,n,m,sg,3,o,0,0' name='PraMta' posn='240'>
	))
9	((	NP	<fs name='NP9' drel='rs:NP8'>
9.1	(	SYM	<fs af='(,punc,,,,,,' name='(' posn='250'>
9.2	jekeelaePa	NNP	<fs af='jekeelaePa,n,m,sg,3,o,0,0' name='jekeelaePa' posn='260'>
9.3	)	SYM	<fs af='),punc,,,,,,' name=')' posn='270'>
	))
10	((	FRAGP	<fs name='FRAGP' drel='fragof:NP8'>
10.1	ke	PSP	<fs af='kA,psp,m,sg,,o,,' name='ke2' posn='280'>
	))
11	((	NP	<fs name='NP10' drel='nmod:NP11'>
11.1	aXyakRa	NN	<fs af='aXyakRa,n,m,sg,3,o,0,0' name='aXyakRa' posn='290'>
	))
12	((	NP	<fs name='NP11' drel='r6:NP12'>
12.1	yAsIna	NNPC	<fs af='yAsIna,n,m,sg,3,d,0,0' name='yAsIna' posn='300'>
12.2	malika	NNP	<fs af='malika,n,m,sg,3,o,0,0' name='malika' posn='310'>
12.3	ke	PSP	<fs af='kA,psp,m,sg,,o,,' name='ke3' posn='320'>
	))
13	((	NP	<fs name='NP12' drel='k4:VGF'>
13.1	xo	QC	<fs af='xo,num,any,any,,any,,' name='xo' posn='330'>
13.2	saxasyIya	JJ	<fs af='saxasyIya,adj,any,any,,o,,' name='saxasyIya' posn='340'>
13.3	prawiniXi	NNC	<fs af='prawiniXi,n,m,sg,3,d,0,0' name='prawiniXi' posn='350'>
13.4	xala	NN	<fs af='xala,n,m,sg,3,o,0,0' name='xala' posn='360'>
13.5	se	PSP	<fs af='se,psp,,,,,,' name='se' posn='370'>
	))
14	((	NP	<fs name='NP13' drel='pof:VGF'>
14.1	bAwacIwa	NN	<fs af='bAwacIwa,n,f,sg,3,d,0,0' name='bAwacIwa' posn='380'>
	))
15	((	VGF	<fs name='VGF' stype='declarative' voicetype='active'>
15.1	kI	VM	<fs af='kara,v,f,sg,any,,yA,yA' name='kI2' posn='390'>
	))
16	((	BLK	<fs name='BLK' drel='rsym:VGF'>
16.1	.	SYM	<fs af='.,punc,,,,,,' name='.' posn='400'>
	))
</Sentence>

<Sentence id='2'>
1	((	NP	<fs name='NP' drel='k1:VGF'>
1.1	praXAnamaMwrI	NNP	<fs af='praXAnamaMwrI,n,m,sg,3,o,0,0' name='praXAnamaMwrI' posn='10'>
1.2	ne	PSP	<fs af='ne,psp,,,,,,' name='ne' posn='20'>
	))
2	((	NP	<fs name='NP2' drel='k4:VGF'>
2.1	malika	NNP	<fs af='malika,n,m,sg,3,o,0,0' name='malika' posn='30'>
2.2	ko	PSP	<fs af='ko,psp,,,,,,' name='ko' posn='40'>
	))
3	((	NP	<fs name='NP3' drel='r6:NP4'>
3.1	keMxra	NN	<fs af='keMxra,n,m,sg,3,o,0,0' name='keMxra' posn='50'>
3.2	ke	PSP	<fs af='kA,psp,m,sg,,o,,' name='ke' posn='60'>
	))
4	((	NP	<fs name='NP4' drel='k2:VGNN'>
4.1	isa	DEM	<fs af='yaha,pn,any,sg,3,o,,' name='isa' posn='70'>
4.2	muxxe	NN	<fs af='muxxA,n,m,sg,3,o,0,0' name='muxxe' posn='80'>
4.3	ko	PSP	<fs af='ko,psp,,,,,,' name='ko2' posn='90'>
	))
5	((	VGNF	<fs name='VGNF' drel='nmod__k2inv:NP5'>
5.1	Kule	VM	<fs af='Kula,v,m,sg,any,,yA,yA' name='Kule' posn='100'>
	))
6	((	NP	<fs name='NP5' drel='k3:VGNN'>
6.1	ximAga	NN	<fs af='ximAga,n,m,sg,3,o,0,0' name='ximAga' posn='110'>
6.2	se	PSP	<fs af='se,psp,,,,,,' name='se' posn='120'>
	))
7	((	VGNN	<fs name='VGNN' drel='r6-k2:NP6'>
7.1	xeKane	VM	<fs af='xeKa,v,any,any,any,o,nA,nA' name='xeKane' posn='130'>
7.2	kA	PSP	<fs af='kA,psp,m,sg,,d,,' name='kA' posn='140'>
	))
8	((	NP	<fs name='NP6' drel='pof:VGF'>
8.1	BarosA	NN	<fs af='BarosA,n,m,sg,3,d,0,0' name='BarosA' posn='150'>
	))
9	((	VGF	<fs name='VGF' stype='declarative' voicetype='active'>
9.1	xilAyA	VM	<fs af='xilA,v,m,sg,any,,yA,yA' name='xilAyA' posn='160'>
	))
10	((	BLK	<fs name='BLK' drel='rsym:VGF'>
10.1	.	SYM	<fs af='.,punc,,,,,,' name='.' posn='170'>
	))
</Sentence>

<Sentence id='3'>
1	((	NP	<fs name='NP' drel='k1:VGF'>
1.1	unhoMne	PRP	<fs af='vaha,pn,any,sg,3h,o,ne,ne' name='unhoMne' posn='10'>
	))
2	((	VGF	<fs name='VGF' stype='declarative' voicetype='active'>
2.1	kahA	VM	<fs af='kaha,v,m,sg,any,,yA,yA' name='kahA' posn='20'>
	))
3	((	CCP	<fs name='CCP' drel='k2:VGF'>
3.1	ki	CC	<fs af='ki,avy,,,,,,' name='ki' posn='30'>
	))
4	((	NP	<fs name='NP2' drel='k5:VGNF'>
4.1	xaSakoM	NN	<fs af='xaSaka,n,m,pl,3,o,0,0' name='xaSakoM' posn='40'>
4.2	se	PSP	<fs af='se,psp,,,,,,' name='se' posn='50'>
	))
5	((	VGNF	<fs name='VGNF' drel='nmod__k1inv:NP3'>
5.1	calI	VM	<fs af='cala,v,f,sg,any,,yA,yA' name='calI' posn='60'>
5.2	A	VAUX	<fs af='A,v,any,any,any,,0,0' name='A' posn='70'>
5.3	rahI	VAUX	<fs af='raha,v,f,sg,any,,yA,yA' name='rahI' posn='80'>
	))
6	((	NP	<fs name='NP3' drel='k2:VGNN'>
6.1	samasyA	NN	<fs af='samasyA,n,f,sg,3,o,0,0' name='samasyA' posn='90'>
6.2	ko	PSP	<fs af='ko,psp,,,,,,' name='ko' posn='100'>
	))
7	((	JJP	<fs name='JJP' drel='pof:VGNN'>
7.1	Kawma	JJ	<fs af='Kawma,adj,any,any,,,,' name='Kawma' posn='110'>
	))
8	((	VGNN	<fs name='VGNN' drel='rt:VGF2'>
8.1	karane	VM	<fs af='kara,v,any,any,any,o,nA,nA' name='karane' posn='120'>
8.2	ke	PSP	<fs af='ke,psp,,,,,,' name='ke' posn='130'>
8.3	lie	PSP	<fs af='lie,psp,,,,,,' name='lie' posn='140'>
	))
9	((	NP	<fs name='NP4' drel='k7:VGF2'>
9.1	badZe	JJ	<fs af='badZA,adj,m,sg,,o,,' name='badZe' posn='150'>
9.2	swara	NN	<fs af='swara,n,m,sg,3,o,0,0' name='swara' posn='160'>
9.3	para	PSP	<fs af='para,psp,,,,,,' name='para' posn='170'>
	))
10	((	NP	<fs name='NP5' drel='r6:NP6'>
10.1	janawA	NN	<fs af='janawA,n,f,sg,3,o,0,0' name='janawA' posn='180'>
10.2	kI	PSP	<fs af='kA,psp,f,sg,,o,,' name='kI' posn='190'>
	))
11	((	NP	<fs name='NP6' drel='k2:VGF2'>
11.1	rAya	NN	<fs af='rAya,n,f,sg,3,o,0,0' name='rAya' posn='200'>
11.2	ko	PSP	<fs af='ko,psp,,,,,,' name='ko2' posn='210'>
	))
12	((	NP	<fs name='NP7' drel='pof:VGF2'>
12.1	SumAra	NN	<fs af='SumAra,n,m,sg,3,d,0,0' name='SumAra' posn='220'>
	))
13	((	VGF	<fs voicetype='passive' name='VGF2' stype='declarative' drel='ccof:CCP'>
13.1	kiyA	VM	<fs af='kara,v,m,sg,any,,yA,yA' name='kiyA' posn='230'>
13.2	jAegA	VAUX	<fs af='jA,v,m,sg,3,,gA,gA' name='jAegA' posn='240'>
	))
14	((	BLK	<fs name='BLK' drel='rsym:VGF'>
14.1	.	SYM	<fs af='.,punc,,,,,,' name='.' posn='250'>
	))
</Sentence>

<Sentence id='4'>
1	((	CCP	<fs name='CCP'>
1.1	jabaki	CC	<fs af='jabaki,avy,,,,,,' name='jabaki' posn='10'>
	))
2	((	NP	<fs name='NP' drel='k1:VGF'>
2.1	malika	NNP	<fs af='malika,n,m,sg,3,o,0,0' name='malika' posn='20'>
2.2	ne	PSP	<fs af='ne,psp,,,,,,' name='ne' posn='30'>
	))
3	((	NP	<fs name='NP2' drel='rt:VGF'>
3.1	sArWaka	JJ	<fs af='sArWaka,adj,any,any,,o,,' name='sArWaka' posn='40'>
3.2	vArwA	NN	<fs af='vArwA,n,f,sg,3,o,0,0' name='vArwA' posn='50'>
3.3	ke	PSP	<fs af='ke,psp,,,,,,' name='ke' posn='60'>
3.4	lie	PSP	<fs af='lie,psp,,,,,,' name='lie' posn='70'>
	))
4	((	NP	<fs name='NP3' drel='k7:VGNN'>
4.1	isameM	PRP	<fs af='yaha,pn,any,sg,3,o,meM,meM' name='isameM' posn='80'>
	))
5	((	NP	<fs name='NP4' drel='k2:VGNN'>
5.1	AwaMkI	JJ	<fs af='AwaMkI,adj,any,any,,o,,' name='AwaMkI' posn='90'>
5.2	newAoM	NN	<fs af='newA,n,m,pl,3,o,0,0' name='newAoM' posn='100'>
5.3	ko	PSP	<fs af='ko,psp,,,,,,' name='ko' posn='110'>
5.4	BI	RP	<fs af='BI,avy,,,,,,' name='BI' posn='120'>
	))
6	((	JJP	<fs name='JJP' drel='pof:VGNN'>
6.1	SAmila	JJ	<fs af='SAmila,adj,any,any,,,,' name='SAmila' posn='130'>
	))
7	((	VGNN	<fs name='VGNN' drel='r6:NP5'>
7.1	karane	VM	<fs af='kara,v,any,any,any,o,nA,nA' name='karane' posn='140'>
7.2	kI	PSP	<fs af='kA,psp,f,sg,,d,,' name='kI' posn='150'>
	))
8	((	NP	<fs name='NP5' drel='k2:VGF'>
8.1	bAwa	NN	<fs af='bAwa,n,f,sg,3,d,0,0' name='bAwa' posn='160'>
	))
9	((	VGF	<fs voicetype='active' name='VGF' stype='declarative' drel='ccof:CCP'>
9.1	kahI	VM	<fs af='kaha,v,f,sg,any,,yA,yA' name='kahI' posn='170'>
	))
10	((	BLK	<fs name='BLK' drel='rsym:CCP'>
10.1	.	SYM	<fs af='.,punc,,,,,,' name='.' posn='180'>
	))
</Sentence>

<Sentence id='5'>
1	((	CCP	<fs name='CCP'>
1.1	jabaki	CC	<fs af='jabaki,avy,,,,,,' name='jabaki' posn='10'>
	))
2	((	NP	<fs name='NP' drel='ras-k2:VGNF'>
2.1	keMxra	NNP	<fs af='keMxra,n,m,sg,3,o,0,0' name='keMxra' posn='20'>
2.2	se	PSP	<fs af='se,psp,,,,,,' name='se' posn='30'>
	))
3	((	NP	<fs name='NP2' drel='k2:VGNF'>
3.1	bAwacIwa	NN	<fs af='bAwacIwa,n,f,sg,3,o,0,0' name='bAwacIwa' posn='40'>
3.2	ko	PSP	<fs af='ko,psp,,,,,,' name='ko' posn='50'>
	))
4	((	VGNF	<fs name='VGNF' drel='vmod:VGF'>
4.1	lekara	VM	<fs af='le,v,any,any,any,,kara,kara' name='lekara' posn='60'>
	))
5	((	NP	<fs name='NP3' drel='r6:NP4'>
5.1	alagAvavAxI	JJ	<fs af='alagAvavAxI,adj,any,any,,o,,' name='alagAvavAxI' posn='70'>
5.2	hurriyawa	NNPC	<fs af='hurriyawa,n,m,sg,3,d,0,0' name='hurriyawa' posn='80'>
5.3	kAMPreMsa	NNP	<fs af='kAMPreMsa,n,f,sg,3,o,0,0' name='kAMPreMsa' posn='90'>
5.4	ke	PSP	<fs af='kA,psp,m,pl,,o,,' name='ke' posn='100'>
	))
6	((	NP	<fs name='NP4' drel='r6:NP5'>
6.1	newAoM	NN	<fs af='newA,n,m,pl,3,o,0,0' name='newAoM' posn='110'>
6.2	kI	PSP	<fs af='kA,psp,f,sg,,d,,' name='kI' posn='120'>
	))
7	((	NP	<fs name='NP5' drel='k1:VGF'>
7.1	rAya	NN	<fs af='rAya,n,f,sg,3,d,0,0' name='rAya' posn='130'>
	))
8	((	NP	<fs name='NP6' drel='k7t:VGF'>
8.1	aBI	PRP	<fs af='aBI,pn,,,,d,,' name='aBI' posn='140'>
	))
9	((	JJP	<fs name='JJP' drel='k1s:VGF'>
9.1	spaRta	JJ	<fs af='spaRta,adj,any,any,,,,' name='spaRta' posn='150'>
	))
10	((	VGF	<fs voicetype='active' name='VGF' stype='declarative' drel='ccof:CCP'>
10.1	nahIM	NEG	<fs af='nahIM,avy,,,,,,' name='nahIM' posn='160'>
10.2	hE	VM	<fs af='hE,v,any,sg,3,,hE,hE' name='hE' posn='170'>
	))
11	((	BLK	<fs name='BLK' drel='rsym:CCP'>
11.1	.	SYM	<fs af='.,punc,,,,,,' name='.' posn='180'>
	))
</Sentence>

<Sentence id='6'>
1	((	NP	<fs name='NP' drel='k7:VGF'>
1.1	kaSmIra	NNP	<fs af='kaSmIra,n,m,sg,3,o,0,0' name='kaSmIra' posn='10'>
1.2	para	PSP	<fs af='para,psp,,,,,,' name='para' posn='20'>
	))
2	((	NP	<fs name='NP2' drel='rt:VGF'>
2.1	vArwA	NN	<fs af='vArwA,n,f,sg,3,o,0,0' name='vArwA' posn='30'>
2.2	ke	PSP	<fs af='ke,psp,,,,,,' name='ke' posn='40'>
2.3	lie	PSP	<fs af='lie,psp,,,,,,' name='lie' posn='50'>
	))
3	((	NP	<fs name='NP3' drel='k7t:VGNN'>
3.1	25	NNPC	<fs af='25,n,any,sg,3,d,0,0' name='25' posn='60'>
3.2	ParavarI	NNP	<fs af='ParavarI,n,f,sg,3,o,0,0' name='ParavarI' posn='70'>
3.3	ko	PSP	<fs af='ko,psp,,,,,,' name='ko' posn='80'>
	))
4	((	NP	<fs name='NP4' drel='k7:VGNN'>
4.1	rAuMda	NNPC	<fs af='rAuMda,n,m,sg,3,d,0,0' name='rAuMda' posn='90'>
4.2	tebila	NNPC	<fs af='tebila,n,f,sg,3,d,0,0' name='tebila' posn='100'>
4.3	kAMPreMsa	NNP	<fs af='kAMPreMsa,n,f,sg,3,o,0,0' name='kAMPreMsa' posn='110'>
4.4	meM	PSP	<fs af='meM,psp,,,,,,' name='meM' posn='120'>
	))
5	((	NP	<fs name='NP5' drel='pof:VGNN'>
5.1	BAga	NN	<fs af='BAga,n,m,sg,3,d,0,0' name='BAga' posn='130'>
	))
6	((	VGNN	<fs name='VGNN' drel='k7:VGF'>
6.1	lene	VM	<fs af='le,v,any,any,any,o,nA,nA' name='lene' posn='140'>
6.2	para	PSP	<fs af='para,psp,,,,,,' name='para2' posn='150'>
	))
7	((	NP	<fs name='NP6' drel='rd:VGF'>
7.1	eka	QC	<fs af='eka,num,any,any,,any,,' name='eka' posn='160'>
7.2	waraPa	NST	<fs af='waraPa,nst,f,sg,3,d,,' name='waraPa' posn='170'>
7.3	wo	RP	<fs af='wo,avy,,,,,,' name='wo' posn='180'>
	))
8	((	NP	<fs name='NP7' drel='r6:NP8'>
8.1	sEyaxa	NNPC	<fs af='sEyaxa,n,m,sg,3,d,0,0' name='sEyaxa' posn='190'>
8.2	alI	NNPC	<fs af='alI,n,m,sg,3,d,0,0' name='alI' posn='200'>
8.3	SAha	NNPC	<fs af='SAha,n,m,sg,3,d,0,0' name='SAha' posn='210'>
8.4	gilAnI	NNP	<fs af='gilAnI,n,m,sg,3,o,0,0' name='gilAnI' posn='220'>
8.5	ke	PSP	<fs af='kA,psp,m,sg,,o,,' name='ke2' posn='230'>
	))
9	((	NP	<fs name='NP8' drel='nmod:NP9'>
9.1	newqwva	NN	<fs af='newqwva,n,m,sg,3,o,0,0' name='newqwva' posn='240'>
9.2	vAle	PSP	<fs af='vAlA,psp,m,sg,,o,,' name='vAle' posn='250'>
	))
10	((	NP	<fs name='NP9' drel='k1:VGF'>
10.1	kattarapaMWI	JJ	<fs af='kattarapaMWI,adj,any,any,,o,,' name='kattarapaMWI' posn='260'>
10.2	XadZe	NN	<fs af='XadZA,n,m,sg,3,o,0,0' name='XadZe' posn='270'>
10.3	ne	PSP	<fs af='ne,psp,,,,,,' name='ne' posn='280'>
	))
11	((	NP	<fs name='NP10' drel='pof:VGF'>
11.1	inakAra	NN	<fs af='inakAra,n,m,sg,3,d,0,0' name='inakAra' posn='290'>
	))
12	((	VGF	<fs name='VGF' stype='declarative' voicetype='active'>
12.1	kara	VM	<fs af='kara,v,any,any,any,,0,0' name='kara' posn='300'>
12.2	xiyA	VAUX	<fs af='xe,v,m,sg,any,,yA,yA' name='xiyA' posn='310'>
12.3	hE	VAUX	<fs af='hE,v,any,sg,3,,hE,hE' name='hE' posn='320'>
	))
13	((	BLK	<fs name='BLK' drel='rsym:VGF'>
13.1	.	SYM	<fs af='.,punc,,,,,,' name='.' posn='330'>
	))
</Sentence>

<Sentence id='7'>
1	((	RBP	<fs name='RBP' drel='sent-adv:VGF'>
1.1	vahIM	RB	<fs af='vahAM,adv,,,,,,' name='vahIM' posn='10'>
1.2	,	SYM	<fs af='COMMA,punc,,,,,,' name=',' posn='20'>
	))
2	((	NP	<fs name='NP' drel='r6:NP2'>
2.1	hurriyawa	NNP	<fs af='hurriyawa,n,m,sg,3,o,0,0' name='hurriyawa' posn='30'>
2.2	ke	PSP	<fs af='kA,psp,m,sg,,o,,' name='ke' posn='40'>
	))
3	((	NP	<fs name='NP2' drel='k4:VGNN'>
3.1	naramapaMWI	JJ	<fs af='naramapaMWI,adj,any,any,,o,,' name='naramapaMWI' posn='50'>
3.2	guta	NN	<fs af='guta,n,m,sg,3,o,0,0' name='guta' posn='60'>
3.3	ko	PSP	<fs af='ko,psp,,,,,,' name='ko' posn='70'>
	))
4	((	NP	<fs name='NP3' drel='k7t:VGNN'>
4.1	aBI	PRP	<fs af='aBI,pn,,,,d,,' name='aBI' posn='80'>
	))
5	((	NP	<fs name='NP4' drel='k7:VGNN'>
5.1	isa	PRP	<fs af='yaha,pn,any,sg,3,o,0,0' name='isa' posn='90'>
5.2	para	PSP	<fs af='para,psp,,,,,,' name='para' posn='100'>
	))
6	((	NP	<fs name='NP5' drel='k2:VGNN'>
6.1	koI	PRP	<fs af='koI,pn,any,sg,3,d,,' name='koI' posn='110'>
6.2	PEsalA	NN	<fs af='PEsalA,n,m,sg,3,d,0,0' name='PEsalA' posn='120'>
	))
7	((	VGNN	<fs name='VGNN' drel='k1:VGF'>
7.1	lenA	VM	<fs af='le,v,any,any,any,o,nA,nA' name='lenA' posn='130'>
	))
8	((	JJP	<fs name='JJP' drel='k1s:VGF'>
8.1	bAkI	JJ	<fs af='bAkI,adj,any,any,,,,' name='bAkI' posn='140'>
	))
9	((	VGF	<fs name='VGF' stype='declarative' voicetype='active'>
9.1	hE	VM	<fs af='hE,v,any,sg,3,,hE,hE' name='hE' posn='150'>
	))
10	((	BLK	<fs name='BLK' drel='rsym:VGF'>
10.1	.	SYM	<fs af='.,punc,,,,,,' name='.' posn='160'>
	))
</Sentence>

<Sentence id='8'>
1	((	NP	<fs name='NP' drel='k7p:VGF'>
1.1	naI	NNPC	<fs af='nayA,adj,f,any,,o,,' name='naI' posn='10'>
1.2	xillI	NNP	<fs af='xillI,n,f,sg,3,o,0,0' name='xillI' posn='20'>
1.3	meM	PSP	<fs af='meM,psp,,,,,,' name='meM' posn='30'>
	))
2	((	NP	<fs name='NP2' drel='r6:NP3'>
2.1	SukravAra	NNP	<fs af='SukravAra,n,m,sg,3,o,0,0' name='SukravAra' posn='40'>
2.2	kI	PSP	<fs af='kA,psp,f,sg,,o,,' name='kI' posn='50'>
	))
3	((	NP	<fs name='NP3' drel='k7t:VGF'>
3.1	SAma	NN	<fs af='SAma,n,f,sg,3,o,0,0' name='SAma' posn='60'>
3.2	ko	PSP	<fs af='ko,psp,,,,,,' name='ko' posn='70'>
	))
4	((	NP	<fs name='NP4' drel='r6:NP5'>
4.1	praXAnamaMwrI	NNP	<fs af='praXAnamaMwrI,n,m,sg,3,o,0,0' name='praXAnamaMwrI' posn='80'>
4.2	ke	PSP	<fs af='kA,psp,m,sg,,o,,' name='ke' posn='90'>
	))
5	((	NP	<fs name='NP5' drel='k7p:VGF'>
5.1	AXikArika	JJ	<fs af='AXikArika,adj,any,any,,o,,' name='AXikArika' posn='100'>
5.2	nivAsa	NN	<fs af='nivAsa,n,m,sg,3,o,0,0' name='nivAsa' posn='110'>
5.3	para	PSP	<fs af='para,psp,,,,,,' name='para' posn='120'>
	))
6	((	NP	<fs name='NP6' drel='ccof:CCP'>
6.1	jekeelaePa	NNP	<fs af='jekeelaePa,n,m,sg,3,d,0,0' name='jekeelaePa' posn='130'>
6.2	suprImo	NN	<fs af='suprImo,n,m,sg,3,d,0,0' name='suprImo' posn='140'>
6.3	yAsIna	NNPC	<fs af='yAsIna,n,m,sg,3,d,0,0' name='yAsIna' posn='150'>
6.4	malika	NNP	<fs af='malika,n,m,sg,3,o,0,0' name='malika' posn='160'>
	))
7	((	CCP	<fs name='CCP' drel='k1:VGF'>
7.1	Ora	CC	<fs af='Ora,avy,,,,,,' name='Ora' posn='170'>
	))
8	((	NP	<fs name='NP7' drel='ccof:CCP'>
8.1	mahAsaciva	NN	<fs af='mahAsaciva,n,m,sg,3,d,0,0' name='mahAsaciva' posn='180'>
8.2	gulAma	NNPC	<fs af='gulAma,n,m,sg,3,d,0,0' name='gulAma' posn='190'>
8.3	rasUla	NNPC	<fs af='rasUla,n,m,sg,3,d,0,0' name='rasUla' posn='200'>
8.4	dAra	NNP	<fs af='dAra,n,m,sg,3,o,0,0' name='dAra' posn='210'>
8.5	ne	PSP	<fs af='ne,psp,,,,,,' name='ne' posn='220'>
	))
9	((	NP	<fs name='NP8' drel='k2:VGNF'>
9.1	kaSmIra	NNP	<fs af='kaSmIra,n,m,sg,3,d,0,0' name='kaSmIra' posn='230'>
9.2	muxxe	NN	<fs af='muxxA,n,m,sg,3,o,0,0' name='muxxe' posn='240'>
9.3	ko	PSP	<fs af='ko,psp,,,,,,' name='ko2' posn='250'>
	))
10	((	VGNF	<fs name='VGNF' drel='vmod:VGF'>
10.1	lekara	VM	<fs af='le,v,any,any,any,,kara,kara' name='lekara' posn='260'>
	))
11	((	NP	<fs name='NP9' drel='ras-k1:VGF'>
11.1	praXAnamaMwrI	NNP	<fs af='praXAnamaMwrI,n,m,sg,3,d,0,0' name='praXAnamaMwrI2' posn='270'>
11.2	manamohana	NNPC	<fs af='manamohana,n,m,sg,3,d,0,0' name='manamohana' posn='280'>
11.3	siMha	NNP	<fs af='siMha,n,m,sg,3,o,0,0' name='siMha' posn='290'>
11.4	se	PSP	<fs af='se,psp,,,,,,' name='se' posn='300'>
	))
12	((	NP	<fs name='NP10' drel='k7t:VGF'>
12.1	eka	QC	<fs af='eka,num,any,any,,any,,' name='eka' posn='310'>
12.2	GaMtA	NN	<fs af='GaMtA,n,m,sg,3,d,0,0' name='GaMtA' posn='320'>
	))
13	((	NP	<fs name='NP11' drel='pof:VGF'>
13.1	gahana	JJ	<fs af='gahana,adj,any,any,,d,,' name='gahana' posn='330'>
13.2	vArwA	NN	<fs af='vArwA,n,f,sg,3,d,0,0' name='vArwA' posn='340'>
	))
14	((	VGF	<fs name='VGF' stype='declarative' voicetype='active'>
14.1	kI	VM	<fs af='kara,v,f,sg,any,,yA,yA' name='kI2' posn='350'>
	))
15	((	BLK	<fs name='BLK' drel='rsym:VGF'>
15.1	.	SYM	<fs af='.,punc,,,,,,' name='.' posn='360'>
	))
</Sentence>

<Sentence id='9'>
1	((	NP	<fs name='NP' drel='k1:VGF'>
1.1	praXAnamaMwrI	NNP	<fs af='praXAnamaMwrI,n,m,sg,3,o,0,0' name='praXAnamaMwrI' posn='10'>
1.2	ne	PSP	<fs af='ne,psp,,,,,,' name='ne' posn='20'>
	))
2	((	NP	<fs name='NP2' drel='k4:VGF'>
2.1	malika	NNP	<fs af='malika,n,m,sg,3,o,0,0' name='malika' posn='30'>
2.2	se	PSP	<fs af='se,psp,,,,,,' name='se' posn='40'>
	))
3	((	NP	<fs name='NP3' drel='k7:VGF'>
3.1	pahalI	QO	<fs af='pahalA,num,f,sg,,o,,' name='pahalI' posn='50'>
3.2	mulAkAwa	NN	<fs af='mulAkAwa,n,f,sg,3,o,0,0' name='mulAkAwa' posn='60'>
3.3	meM	PSP	<fs af='meM,psp,,,,,,' name='meM' posn='70'>
	))
4	((	VGF	<fs name='VGF' stype='declarative' voicetype='active'>
4.1	kahA	VM	<fs af='kaha,v,m,sg,any,,yA,yA' name='kahA' posn='80'>
	))
5	((	CCP	<fs name='CCP' drel='k2:VGF'>
5.1	ki	CC	<fs af='ki,avy,,,,,,' name='ki' posn='90'>
	))
6	((	NP	<fs name='NP4' drel='k7p:VGF2'>
6.1	kaSmIra	NNP	<fs af='kaSmIra,n,m,sg,3,o,0,0' name='kaSmIra' posn='100'>
6.2	meM	PSP	<fs af='meM,psp,,,,,,' name='meM2' posn='110'>
	))
7	((	NP	<fs name='NP5' drel='k1:VGF2'>
7.1	mAhOla	NN	<fs af='mAhOla,n,m,sg,3,d,0,0' name='mAhOla' posn='120'>
	))
8	((	NP	<fs name='NP6' drel='adv:VGF2'>
8.1	ummIxoM	NN	<fs af='ummIxa,n,f,pl,3,o,0,0' name='ummIxoM' posn='130'>
8.2	se	PSP	<fs af='se,psp,,,,,,' name='se2' posn='140'>
	))
9	((	VGF	<fs voicetype='active' name='VGF2' stype='declarative' drel='ccof:CCP'>
9.1	BarA	VM	<fs af='Bara,v,m,sg,any,,yA,yA' name='BarA' posn='150'>
9.2	hE	VAUX	<fs af='hE,v,any,sg,3,,hE,hE' name='hE' posn='160'>
	))
10	((	BLK	<fs name='BLK' drel='rsym:VGF'>
10.1	.	SYM	<fs af='.,punc,,,,,,' name='.' posn='170'>
	))
</Sentence>

<Sentence id='10'>
1	((	NP	<fs name='NP' drel='k1:VGF'>
1.1	yaha	PRP	<fs af='yaha,pn,any,sg,3,d,0,0' name='yaha' posn='10'>
	))
2	((	NP	<fs name='NP2' drel='k7p:VGF'>
2.1	rAjya	NN	<fs af='rAjya,n,m,sg,3,o,0,0' name='rAjya' posn='20'>
2.2	meM	PSP	<fs af='meM,psp,,,,,,' name='meM' posn='30'>
	))
3	((	JJP	<fs name='JJP' drel='ccof:CCP'>
3.1	sWAI	JJ	<fs af='sWAI,adj,any,any,,o,,' name='sWAI' posn='40'>
	))
4	((	CCP	<fs name='CCP' drel='nmod:NP4'>
4.1	Ora	CC	<fs af='Ora,avy,,,,,,' name='Ora' posn='50'>
	))
5	((	NP	<fs name='NP3' drel='k7t:VGNN'>
5.1	kaBI	PRP	<fs af='kaBI,pn,,,,,,' name='kaBI' posn='60'>
	))
6	((	NEGP	<fs name='NEGP' drel='vmod:VGNN'>
6.1	na	NEG	<fs af='na,avy,,,,,,' name='na' posn='70'>
	))
7	((	JJP	<fs name='JJP2' drel='pof:VGNN'>
7.1	Kawma	JJ	<fs af='Kawma,adj,any,any,,,,' name='Kawma' posn='80'>
	))
8	((	VGNN	<fs name='VGNN' drel='ccof:CCP'>
8.1	hone	VM	<fs af='ho,v,any,any,any,o,nA,nA' name='hone' posn='90'>
8.2	vAlI	PSP	<fs af='vAlA,psp,f,sg,,o,,' name='vAlI' posn='100'>
	))
9	((	NP	<fs name='NP4' drel='k2:VGNN2'>
9.1	SAMwi	NN	<fs af='SAnwi,n,f,sg,3,o,0,0' name='SAMwi' posn='110'>
9.2	ko	PSP	<fs af='ko,psp,,,,,,' name='ko' posn='120'>
	))
10	((	JJP	<fs name='JJP3' drel='pof:VGNN2'>
10.1	sWApiwa	JJ	<fs af='sWApiwa,adj,any,any,,,,' name='sWApiwa' posn='130'>
	))
11	((	VGNN	<fs name='VGNN2' drel='r6:NP5'>
11.1	karane	VM	<fs af='kara,v,any,any,any,o,nA,nA' name='karane' posn='140'>
11.2	kA	PSP	<fs af='kA,psp,m,sg,,d,,' name='kA' posn='150'>
	))
12	((	NP	<fs name='NP5' drel='k1s:VGF'>
12.1	mOkA	NN	<fs af='mOkA,n,m,sg,3,d,0,0' name='mOkA' posn='160'>
	))
13	((	VGF	<fs name='VGF' stype='declarative' voicetype='active'>
13.1	hE	VM	<fs af='hE,v,any,sg,3,,hE,hE' name='hE' posn='170'>
	))
14	((	BLK	<fs name='BLK' drel='rsym:VGF'>
14.1	.	SYM	<fs af='.,punc,,,,,,' name='.' posn='180'>
	))
</Sentence>

<Sentence id='11'>
1	((	NP	<fs name='NP' drel='k7:VGF'>
1.1	bAwacIwa	NN	<fs af='bAwacIwa,n,f,sg,3,o,0,0' name='bAwacIwa' posn='10'>
1.2	meM	PSP	<fs af='meM,psp,,,,,,' name='meM' posn='20'>
	))
2	((	NP	<fs name='NP2' drel='ras-k1:VGF'>
2.1	praXAnamaMwrI	NNP	<fs af='praXAnamaMwrI,n,m,sg,3,o,0,0' name='praXAnamaMwrI' posn='30'>
2.2	ke	PSP	<fs af='ke,psp,,,,,,' name='ke' posn='40'>
2.3	sAWa	NST	<fs af='sAWa,nst,m,sg,3,d,,' name='sAWa' posn='50'>
	))
3	((	NP	<fs name='NP3' drel='ccof:CCP'>
3.1	gqha	NNPC	<fs af='gqha,n,m,sg,3,d,0,0' name='gqha' posn='60'>
3.2	maMwrI	NNP	<fs af='maMwrI,n,m,sg,3,d,0,0' name='maMwrI' posn='70'>
3.3	SivarAja	NNPC	<fs af='SivarAja,n,m,sg,3,d,0,0' name='SivarAja' posn='80'>
3.4	pAtila	NNP	<fs af='pAtila,n,m,sg,3,o,0,0' name='pAtila' posn='90'>
3.5	,	SYM	<fs af='COMMA,punc,,,,,,' name=',' posn='100'>
	))
4	((	NP	<fs name='NP4' drel='ccof:CCP'>
4.1	rARtrIya	JJ	<fs af='rARtrIya,adj,any,any,,o,,' name='rARtrIya' posn='110'>
4.2	surakRA	NNC	<fs af='surakRA,n,f,sg,3,d,0,0' name='surakRA' posn='120'>
4.3	salAhakAra	NN	<fs af='salAhakAra,n,m,sg,3,d,0,0' name='salAhakAra' posn='130'>
4.4	ema.	NNPC	<fs af='ema.,n,m,sg,3,d,0,0' name='ema.' posn='140'>
4.5	ke.	NNPC	<fs af='ke.,n,m,sg,3,d,0,0' name='ke.' posn='150'>
4.6	nArAyaNana	NNP	<fs af='nArAyaNana,n,m,sg,3,o,0,0' name='nArAyaNana' posn='160'>
	))
5	((	CCP	<fs name='CCP' drel='k1:VGF'>
5.1	Ora	CC	<fs af='Ora,avy,,,,,,' name='Ora' posn='170'>
	))
6	((	NP	<fs name='NP5' drel='ccof:CCP'>
6.1	gqha	NNC	<fs af='gqha,n,m,sg,3,d,0,0' name='gqha2' posn='180'>
6.2	saciva	NN	<fs af='saciva,n,m,sg,3,d,0,0' name='saciva' posn='190'>
6.3	vI.	NNPC	<fs af='vI.,n,m,sg,3,d,0,0' name='vI.' posn='200'>
6.4	ke.	NNPC	<fs af='ke.,n,m,sg,3,d,0,0' name='ke.2' posn='210'>
6.5	xuggala	NNP	<fs af='xuggala,n,m,sg,3,o,0,0' name='xuggala' posn='220'>
6.6	ne	PSP	<fs af='ne,psp,,,,,,' name='ne' posn='230'>
	))
7	((	NP	<fs name='NP6' drel='k2:VGF'>
7.1	BAga	NN	<fs af='BAga,n,m,sg,3,d,0,0' name='BAga' posn='240'>
	))
8	((	VGF	<fs name='VGF' stype='declarative' voicetype='active'>
8.1	liyA	VM	<fs af='le,v,m,sg,any,,yA,yA' name='liyA' posn='250'>
	))
9	((	BLK	<fs name='BLK' drel='rsym:VGF'>
9.1	.	SYM	<fs af='.,punc,,,,,,' name='.' posn='260'>
	))
</Sentence>

<Sentence id='12'>
1	((	NP	<fs name='NP' drel='k7:VGF'>
1.1	vArwA	NN	<fs af='vArwA,n,f,sg,3,o,0,0' name='vArwA' posn='10'>
1.2	meM	PSP	<fs af='meM,psp,,,,,,' name='meM' posn='20'>
	))
2	((	NP	<fs name='NP2' drel='k7:VGF'>
2.1	kaSmIra	NNP	<fs af='kaSmIra,n,m,sg,3,d,0,0' name='kaSmIra' posn='30'>
2.2	muxxe	NN	<fs af='muxxA,n,m,sg,3,o,0,0' name='muxxe' posn='40'>
2.3	para	PSP	<fs af='para,psp,,,,,,' name='para' posn='50'>
	))
3	((	NP	<fs name='NP3' drel='r6:NP4'>
3.1	keMxra	NNP	<fs af='keMxra,n,m,sg,3,o,0,0' name='keMxra' posn='60'>
3.2	ke	PSP	<fs af='kA,psp,m,sg,3h,d,,' name='ke' posn='70'>
	))
4	((	NP	<fs name='NP4' drel='nmod:NP5'>
4.1	maXyasWa	NN	<fs af='maXyasWa,n,m,sg,3,d,0,0' name='maXyasWa' posn='80'>
	))
5	((	NP	<fs name='NP5' drel='ccof:CCP'>
5.1	enaena	NNPC	<fs af='enaena,n,m,sg,3,d,0,0' name='enaena' posn='90'>
5.2	voharA	NNP	<fs af='voharA,n,m,sg,3,d,0,0' name='voharA' posn='100'>
	))
6	((	CCP	<fs name='CCP' drel='k1:VGF'>
6.1	Ora	CC	<fs af='Ora,avy,,,,,,' name='Ora' posn='110'>
	))
7	((	NP	<fs name='NP6' drel='r6:NP7'>
7.1	praXAnamaMwrI	NNP	<fs af='praXAnamaMwrI,n,m,sg,3,o,0,0' name='praXAnamaMwrI' posn='120'>
7.2	ke	PSP	<fs af='kA,psp,m,sg,3h,d,,' name='ke2' posn='130'>
	))
8	((	NP	<fs name='NP7' drel='nmod:NP8'>
8.1	praXAna	NNC	<fs af='praXAna,adj,any,any,,d,,' name='praXAna' posn='210'>
8.2	saciva	NN	<fs af='saciva,n,m,sg,3,d,0,0' name='saciva' posn='150'>
	))
9	((	NP	<fs name='NP8' drel='ccof:CCP'>
9.1	tI.	NNPC	<fs af='tI.,n,m,sg,3,d,0,0' name='tI.' posn='160'>
9.2	ke.	NNPC	<fs af='ke.,n,m,sg,3,d,0,0' name='ke.' posn='170'>
9.3	e.	NNPC	<fs af='e.,n,m,sg,3,d,0,0' name='e.' posn='180'>
9.4	nAyara	NNP	<fs af='nAyara,n,m,sg,3,d,0,0' name='nAyara' posn='190'>
9.5	BI	RP	<fs af='BI,avy,,,,,,' name='BI' posn='200'>
	))
10	((	JJP	<fs name='JJP' drel='k1s:VGF'>
10.1	mOjUxa	JJ	<fs af='mOjUxa,adj,any,any,,,,' name='mOjUxa' posn='210'>
	))
11	((	VGF	<fs name='VGF' stype='declarative' voicetype='active'>
11.1	We	VM	<fs af='WA,v,m,pl,any,,WA,WA' name='We' posn='220'>
	))
12	((	BLK	<fs name='BLK' drel='rsym:VGF'>
12.1	.	SYM	<fs af='.,punc,,,,,,' name='.' posn='230'>
	))
</Sentence>

<Sentence id='13'>
1	((	NP	<fs name='NP' drel='r6:NP2'>
1.1	praXAnamaMwrI	NNP	<fs af='praXAnamaMwrI,n,m,sg,3,o,0,0' name='praXAnamaMwrI' posn='10'>
1.2	ke	PSP	<fs af='kA,psp,m,sg,,o,,' name='ke' posn='20'>
	))
2	((	NP	<fs name='NP2' drel='nmod:NP3'>
2.1	mIdiyA	NNC	<fs af='mIdiyA,n,m,sg,3,d,0,0' name='mIdiyA' posn='30'>
2.2	salAhakAra	NN	<fs af='salAhakAra,n,m,sg,3,o,0,0' name='salAhakAra' posn='40'>
	))
3	((	NP	<fs name='NP3' drel='k1:VGF'>
3.1	saMjaya	NNPC	<fs af='saMjaya,n,m,sg,3,d,0,0' name='saMjaya' posn='50'>
3.2	bArU	NNP	<fs af='bArU,n,m,sg,3,o,0,0' name='bArU' posn='60'>
3.3	ne	PSP	<fs af='ne,psp,,,,,,' name='ne' posn='70'>
	))
4	((	NP	<fs name='NP4' drel='k7t:VGF'>
4.1	bETaka	NN	<fs af='bETaka,n,f,sg,3,o,0,0' name='bETaka' posn='80'>
4.2	ke	PSP	<fs af='ke,psp,,,,,,' name='ke2' posn='90'>
4.3	bAxa	NST	<fs af='bAxa,nst,m,sg,3,d,,' name='bAxa' posn='100'>
	))
5	((	NP	<fs name='NP5' drel='k4:VGF'>
5.1	saMvAxAwAoM	NN	<fs af='saMvAxAwA,n,m,pl,3,o,0,0' name='saMvAxAwAoM' posn='110'>
5.2	ko	PSP	<fs af='ko,psp,,,,,,' name='ko' posn='120'>
	))
6	((	VGF	<fs name='VGF' stype='declarative' voicetype='active'>
6.1	bawAyA	VM	<fs af='bawA,v,m,sg,any,,yA,yA' name='bawAyA' posn='130'>
	))
7	((	CCP	<fs name='CCP' drel='k2:VGF'>
7.1	ki	CC	<fs af='ki,avy,,,,,,' name='ki' posn='140'>
	))
8	((	NP	<fs name='NP6' drel='k1:VGF2'>
8.1	praXAnamaMwrI	NNP	<fs af='praXAnamaMwrI,n,m,sg,3,d,0,0' name='praXAnamaMwrI2' posn='150'>
	))
9	((	NP	<fs name='NP7' drel='k7:VGF2'>
9.1	isa	DEM	<fs af='yaha,pn,any,sg,3,o,,' name='isa' posn='160'>
9.2	vArwA	NNC	<fs af='vArwA,n,f,sg,3,d,0,0' name='vArwA' posn='170'>
9.3	prakriyA	NN	<fs af='prakriyA,n,f,sg,3,o,0,0' name='prakriyA' posn='180'>
9.4	meM	PSP	<fs af='meM,psp,,,,,,' name='meM' posn='190'>
	))
10	((	NP	<fs name='NP8' drel='ccof:CCP2'>
10.1	saBI	QF	<fs af='saBI,avy,,,,,,' name='saBI' posn='200'>
10.2	puruRoM	NN	<fs af='puruRa,n,m,pl,3,o,0,0' name='puruRoM' posn='210'>
	))
11	((	CCP	<fs name='CCP2' drel='r6-k2:NP10'>
11.1	Ora	CC	<fs af='Ora,avy,,,,,,' name='Ora' posn='220'>
	))
12	((	NP	<fs name='NP9' drel='ccof:CCP2'>
12.1	mahilAoM	NN	<fs af='mahilA,n,f,pl,3,o,0,0' name='mahilAoM' posn='230'>
12.2	kI	PSP	<fs af='kA,psp,f,sg,,d,,' name='kI' posn='240'>
	))
13	((	NP	<fs name='NP10' drel='pof:VGF2'>
13.1	sahamawi	NN	<fs af='sahamawi,n,f,sg,3,d,0,0' name='sahamawi' posn='250'>
	))
14	((	VGF	<fs voicetype='active' name='VGF2' stype='declarative' drel='ccof:CCP'>
14.1	cAhawe	VM	<fs af='cAha,v,m,sg,3h,,wA,wA' name='cAhawe' posn='260'>
14.2	hEM	VAUX	<fs af='hE,v,any,sg,3h,,hE,hE' name='hEM' posn='270'>
	))
15	((	NP	<fs coref=':NP10' name='NP11' drel='rh:VGF3'>
15.1	jisase	PRP	<fs af='jo,pn,any,sg,3,o,se,se' name='jisase' posn='290'>
	))
16	((	NP	<fs name='NP12' drel='r6:NP13'>
16.1	logoM	NN	<fs af='loga,n,m,pl,3,o,0,0' name='logoM' posn='300'>
16.2	kI	PSP	<fs af='kA,psp,f,sg,,d,,' name='kI2' posn='310'>
	))
17	((	NP	<fs name='NP13' drel='k1:VGF3'>
17.1	pIdZA	NN	<fs af='pIdZA,n,f,sg,3,d,0,0' name='pIdZA' posn='320'>
	))
18	((	NP	<fs name='NP14' drel='k7:VGF3'>
18.1	xUra	NST	<fs af='xUra,nst,m,sg,3,d,,' name='xUra' posn='330'>
	))
19	((	VGF	<fs voicetype='active' name='VGF3' stype='declarative' drel='nmod__relc:NP10'>
19.1	ho	VM	<fs af='ho,v,any,any,any,,0,0' name='ho' posn='340'>
19.2	sake	VAUX	<fs af='saka,v,any,sg,3,,eM,eM' name='sake' posn='350'>
	))
20	((	BLK	<fs name='BLK' drel='rsym:VGF'>
20.1	.	SYM	<fs af='.,punc,,,,,,' name='.' posn='360'>
	))
</Sentence>

<Sentence id='14'>
1	((	CCP	<fs name='CCP'>
1.1	jabaki	CC	<fs af='jabaki,avy,,,,,,' name='jabaki' posn='10'>
	))
2	((	NP	<fs name='NP' drel='k1:VGF'>
2.1	malika	NNP	<fs af='malika,n,m,sg,3,o,0,0' name='malika' posn='20'>
2.2	ne	PSP	<fs af='ne,psp,,,,,,' name='ne' posn='30'>
	))
3	((	NP	<fs name='NP2' drel='k7:VGF'>
3.1	bETaka	NN	<fs af='bETaka,n,f,sg,3,o,0,0' name='bETaka' posn='40'>
3.2	meM	PSP	<fs af='meM,psp,,,,,,' name='meM' posn='50'>
	))
4	((	VGF	<fs voicetype='active' name='VGF' stype='declarative' drel='ccof:CCP'>
4.1	kahA	VM	<fs af='kaha,v,m,sg,any,,yA,yA' name='kahA' posn='60'>
	))
5	((	CCP	<fs name='CCP2' drel='k2:VGF'>
5.1	ki	CC	<fs af='ki,avy,,,,,,' name='ki' posn='70'>
	))
6	((	NP	<fs name='NP3' drel='k1:VGF2'>
6.1	bAwacIwa	NN	<fs af='bAwacIwa,n,f,sg,3,d,0,0' name='bAwacIwa' posn='80'>
	))
7	((	JJP	<fs name='JJP' drel='pof:VGF2'>
7.1	asaraxAra	JJ	<fs af='asaraxAra,adj,any,any,,,,' name='asaraxAra' posn='90'>
	))
8	((	NP	<fs name='NP4' drel='k7t:VGF2'>
8.1	waBI	PRP	<fs af='waBI,pn,,,,d,,' name='waBI' posn='100'>
	))
9	((	VGF	<fs voicetype='active' name='VGF2' stype='declarative' drel='ccof:CCP2'>
9.1	hogI	VM	<fs af='ho,v,f,sg,3,,gA,gA' name='hogI' posn='110'>
	))
10	((	NP	<fs coref=':NP4' name='NP5' drel='k7t:VGF3'>
10.1	jaba	PRP	<fs af='jaba,pn,,,,d,,' name='jaba' posn='120'>
	))
11	((	NP	<fs name='NP6' drel='k7:VGF3'>
11.1	isameM	PRP	<fs af='yaha,pn,any,sg,3,o,meM,meM' name='isameM' posn='130'>
	))
12	((	NP	<fs name='NP7' drel='k2:VGF3'>
12.1	AwaMkI	JJ	<fs af='AwaMkI,adj,any,any,,o,,' name='AwaMkI' posn='140'>
12.2	newAoM	NN	<fs af='newA,n,m,pl,3,o,0,0' name='newAoM' posn='150'>
12.3	ko	PSP	<fs af='ko,psp,,,,,,' name='ko' posn='160'>
12.4	BI	RP	<fs af='BI,avy,,,,,,' name='BI' posn='170'>
	))
13	((	JJP	<fs name='JJP2' drel='pof:VGF3'>
13.1	SAmila	JJ	<fs af='SAmila,adj,any,any,,,,' name='SAmila' posn='180'>
	))
14	((	VGF	<fs voicetype='active' name='VGF3' stype='declarative' drel='nmod__relc:NP4'>
14.1	kiyA	VM	<fs af='kara,v,m,sg,any,,yA,yA' name='kiyA' posn='190'>
14.2	jAegA	VAUX	<fs af='jA,v,m,sg,3,,gA,gA' name='jAegA' posn='200'>
	))
15	((	BLK	<fs name='BLK' drel='rsym:CCP'>
15.1	.	SYM	<fs af='.,punc,,,,,,' name='.' posn='210'>
	))
</Sentence>

<Sentence id='15'>
1	((	NP	<fs name='NP' drel='k1:VGF'>
1.1	unhoMne	PRP	<fs af='vaha,pn,any,sg,3h,o,ne,ne' name='unhoMne' posn='10'>
	))
2	((	NP	<fs name='NP2' drel='r6:NP3'>
2.1	Aja	NN	<fs af='Aja,n,m,sg,3,o,0,0' name='Aja' posn='20'>
2.2	kI	PSP	<fs af='kA,psp,f,sg,,o,,' name='kI' posn='30'>
	))
3	((	NP	<fs name='NP3' drel='k2:VGF'>
3.1	bAwacIwa	NN	<fs af='bAwacIwa,n,f,sg,3,o,0,0' name='bAwacIwa' posn='40'>
3.2	ko	PSP	<fs af='ko,psp,,,,,,' name='ko' posn='50'>
	))
4	((	NP	<fs name='NP4' drel='ras-NEG:VGF'>
4.1	vArwA	NNC	<fs af='vArwA,n,f,sg,3,d,0,0' name='vArwA' posn='60'>
4.2	prakriyA	NN	<fs af='prakriyA,n,f,sg,3,o,0,0' name='prakriyA' posn='70'>
4.3	ke	PSP	<fs af='ke,psp,,,,,,' name='ke' posn='80'>
4.4	bajAya	PSP	<fs af='bajAya,psp,,,,,,' name='bajAya' posn='90'>
	))
5	((	NP	<fs name='NP5' drel='k2s:VGF'>
5.1	salAha	NNC	<fs af='salAha,n,f,sg,3,d,0,0' name='salAha' posn='100'>
5.2	-	SYM	<fs af='-,punc,,,,,,' name='-' posn='110'>
5.3	maSvirA	NN	<fs af='maSvirA,n,m,sg,3,d,0,0' name='maSvirA' posn='120'>
	))
6	((	VGF	<fs name='VGF' stype='declarative' voicetype='active'>
6.1	kahA	VM	<fs af='kaha,v,m,sg,any,,yA,yA' name='kahA' posn='130'>
	))
7	((	BLK	<fs name='BLK' drel='rsym:VGF'>
7.1	.	SYM	<fs af='.,punc,,,,,,' name='.' posn='140'>
	))
</Sentence>

<Sentence id='16'>
1	((	NP	<fs name='NP' drel='k7:VGF'>
1.1	kaSmIra	NNP	<fs af='kaSmIra,n,m,sg,3,d,0,0' name='kaSmIra' posn='10'>
1.2	muxxe	NN	<fs af='muxxA,n,m,sg,3,o,0,0' name='muxxe' posn='20'>
1.3	para	PSP	<fs af='para,psp,,,,,,' name='para' posn='30'>
	))
2	((	NP	<fs name='NP2' drel='k1:VGF'>
2.1	manamohana	NNPC	<fs af='manamohana,n,m,sg,3,d,0,0' name='manamohana' posn='40'>
2.2	siMha	NNP	<fs af='siMha,n,m,sg,3,o,0,0' name='siMha' posn='50'>
2.3	ne	PSP	<fs af='ne,psp,,,,,,' name='ne' posn='60'>
	))
3	((	NP	<fs name='NP3' drel='k7t:VGF'>
3.1	malika	NNP	<fs af='malika,n,m,sg,3,o,0,0' name='malika' posn='70'>
3.2	se	PSP	<fs af='se,psp,,,,,,' name='se' posn='80'>
3.3	pahale	NST	<fs af='pahale,nst,m,sg,3,d,,' name='pahale' posn='90'>
	))
4	((	NP	<fs name='NP4' drel='k7t:VGF'>
4.1	piCale	JJ	<fs af='piCalA,adj,m,sg,,o,,' name='piCale' posn='100'>
4.2	mahIne	NN	<fs af='mahInA,n,m,sg,3,o,0,0' name='mahIne' posn='110'>
	))
5	((	NP	<fs name='NP5' drel='r6:NP6'>
5.1	pIpulsa	NNPC	<fs af='pIpula,n,m,sg,3,d,0,0' name='pIpulsa' posn='120'>
5.2	kAMPreMsa	NNP	<fs af='kAMPreMsa,n,f,sg,3,o,0,0' name='kAMPreMsa' posn='130'>
5.3	ke	PSP	<fs af='kA,psp,m,sg,,o,,' name='ke' posn='140'>
	))
6	((	NP	<fs name='NP6' drel='ras-k1:VGF'>
6.1	sajjAxa	NNPC	<fs af='sajjAxa,n,m,sg,3,d,0,0' name='sajjAxa' posn='150'>
6.2	lona	NNP	<fs af='lona,n,m,sg,3,o,0,0' name='lona' posn='160'>
6.3	se	PSP	<fs af='se,psp,,,,,,' name='se2' posn='170'>
	))
7	((	NP	<fs name='NP7' drel='pof:VGF'>
7.1	bAwacIwa	NN	<fs af='bAwacIwa,n,f,sg,3,d,0,0' name='bAwacIwa' posn='180'>
	))
8	((	VGF	<fs name='VGF' stype='declarative' voicetype='active'>
8.1	kI	VM	<fs af='kara,v,f,sg,any,,yA,yA' name='kI' posn='190'>
8.2	WI	VAUX	<fs af='WA,v,f,sg,any,,WA,WA' name='WI' posn='200'>
	))
9	((	BLK	<fs name='BLK' drel='rsym:VGF'>
9.1	.	SYM	<fs af='.,punc,,,,,,' name='.' posn='210'>
	))
</Sentence>

<Sentence id='17'>
1	((	NP	<fs name='NP' drel='sent-adv:VGF'>
1.1	xUsarI	QO	<fs af='xUsarA,num,f,sg,,d,,' name='xUsarI' posn='10'>
1.2	ora	NST	<fs af='ora,nst,f,sg,3,d,,' name='ora' posn='20'>
1.3	,	SYM	<fs af='COMMA,punc,,,,,,' name=',' posn='30'>
	))
2	((	NP	<fs name='NP2' drel='k7t:VGF'>
2.1	Aja	NN	<fs af='Aja,n,m,sg,3,d,0,0' name='Aja' posn='40'>
	))
3	((	NP	<fs name='NP3' drel='k1:VGF'>
3.1	keMxra	NNPC	<fs af='keMxra,n,m,sg,3,d,0,0' name='keMxra' posn='50'>
3.2	sarakAra	NNP	<fs af='sarakAra,n,f,sg,3,o,0,0' name='sarakAra' posn='60'>
3.3	ne	PSP	<fs af='ne,psp,,,,,,' name='ne' posn='70'>
	))
4	((	NP	<fs name='NP4' drel='k7:VGF'>
4.1	kaSmIra	NNP	<fs af='kaSmIra,n,m,sg,3,d,0,0' name='kaSmIra' posn='80'>
4.2	muxxe	NN	<fs af='muxxA,n,m,sg,3,o,0,0' name='muxxe' posn='90'>
4.3	para	PSP	<fs af='para,psp,,,,,,' name='para' posn='100'>
	))
5	((	NP	<fs name='NP5' drel='r6:JJP'>
5.1	praXAnamaMwrI	NNP	<fs af='praXAnamaMwrI,n,m,sg,3,o,0,0' name='praXAnamaMwrI' posn='110'>
5.2	kI	PSP	<fs af='kA,psp,f,sg,,o,,' name='kI' posn='120'>
	))
6	((	JJP	<fs name='JJP' drel='nmod:NP6'>
6.1	praswAviwa	JJ	<fs af='praswAviwa,adj,any,any,,o,,' name='praswAviwa' posn='130'>
	))
7	((	NP	<fs name='NP6' drel='k2:VGF'>
7.1	rAuMda	NNPC	<fs af='rAuMda,n,m,sg,3,d,0,0' name='rAuMda' posn='140'>
7.2	tebila	NNPC	<fs af='tebila,n,m,sg,3,d,0,0' name='tebila' posn='150'>
7.3	kAMPreMsa	NNP	<fs af='kAMPreMsa,n,f,sg,3,o,0,0' name='kAMPreMsa' posn='160'>
7.4	ko	PSP	<fs af='ko,psp,,,,,,' name='ko' posn='170'>
	))
8	((	NP	<fs name='NP7' drel='rt:VGF'>
8.1	eka	QC	<fs af='eka,num,any,any,,any,,' name='eka' posn='180'>
8.2	xina	NN	<fs af='xina,n,m,sg,3,o,0,0' name='xina' posn='190'>
8.3	ke	PSP	<fs af='ke,psp,,,,,,' name='ke' posn='200'>
8.4	lie	PSP	<fs af='lie,psp,,,,,,' name='lie' posn='210'>
	))
9	((	VGF	<fs name='VGF' stype='declarative' voicetype='active'>
9.1	tAla	VM	<fs af='tAla,v,any,any,any,,0,0' name='tAla' posn='220'>
9.2	xiyA	VAUX	<fs af='xe,v,m,sg,any,,yA,yA' name='xiyA' posn='230'>
9.3	hE	VAUX	<fs af='hE,v,any,sg,3,,hE,hE' name='hE' posn='240'>
	))
10	((	BLK	<fs name='BLK' drel='rsym:VGF'>
10.1	.	SYM	<fs af='.,punc,,,,,,' name='.' posn='250'>
	))
</Sentence>

<Sentence id='18'>
1	((	NP	<fs name='NP' drel='k1:VGF'>
1.1	yaha	DEM	<fs af='yaha,pn,any,sg,3,d,,' name='yaha' posn='10'>
1.2	vArwA	NN	<fs af='vArwA,n,f,sg,3,d,0,0' name='vArwA' posn='20'>
	))
2	((	NP	<fs name='NP2' drel='k7t:VGF'>
2.1	aba	PRP	<fs af='aba,pn,,,,d,,' name='aba' posn='30'>
	))
3	((	NP	<fs name='NP3' drel='k7t:VGF'>
3.1	25	NNPC	<fs af='25,n,any,sg,3,d,0,0' name='25' posn='40'>
3.2	ParavarI	NNP	<fs af='ParavarI,n,f,sg,3,o,0,0' name='ParavarI' posn='50'>
3.3	ko	PSP	<fs af='ko,psp,,,,,,' name='ko' posn='60'>
	))
4	((	VGF	<fs name='VGF' stype='declarative' voicetype='active'>
4.1	hogI	VM	<fs af='ho,v,f,sg,3,,gA,gA' name='hogI' posn='70'>
	))
5	((	BLK	<fs name='BLK' drel='rsym:VGF'>
5.1	.	SYM	<fs af='.,punc,,,,,,' name='.' posn='80'>
	))
</Sentence>

<Sentence id='19'>
1	((	CCP	<fs name='CCP'>
1.1	hAlAMki	CC	<fs af='hAlAMki,avy,,,,,,' name='hAlAMki' posn='10'>
	))
2	((	NP	<fs name='NP' drel='r6:NP2'>
2.1	isakI	PRP	<fs af='yaha,pn,f,sg,3,o,kA,kA' name='isakI' posn='20'>
	))
3	((	NP	<fs name='NP2' drel='k2:VGF'>
3.1	koI	PRP	<fs af='koI,pn,any,sg,3,d,,' name='koI' posn='30'>
3.2	AXikArika	JJ	<fs af='AXikArika,adj,any,any,,d,,' name='AXikArika' posn='40'>
3.3	vajaha	NN	<fs af='vajaha,n,f,sg,3,d,0,0' name='vajaha' posn='50'>
	))
4	((	VGF	<fs voicetype='active' name='VGF' stype='declarative' drel='ccof:CCP'>
4.1	nahIM	NEG	<fs af='nahIM,avy,,,,,,' name='nahIM' posn='60'>
4.2	bawAI	VM	<fs af='bawA,v,f,sg,any,,yA,yA' name='bawAI' posn='70'>
4.3	gaI	VAUX	<fs af='jA,v,f,sg,any,,yA1,yA1' name='gaI' posn='80'>
4.4	hE	VAUX	<fs af='hE,v,any,sg,3,,hE,hE' name='hE' posn='90'>
	))
5	((	BLK	<fs name='BLK' drel='rsym:CCP'>
5.1	.	SYM	<fs af='.,punc,,,,,,' name='.' posn='100'>
	))
</Sentence>

<Sentence id='20'>
1	((	NP	<fs name='NP' drel='r6:NP2'>
1.1	hurriyawa	NNPC	<fs af='hurriyawa,n,m,sg,3,d,0,0' name='hurriyawa' posn='10'>
1.2	kAMPreMsa	NNP	<fs af='kAMPreMsa,n,f,sg,3,o,0,0' name='kAMPreMsa' posn='20'>
1.3	ke	PSP	<fs af='kA,psp,m,sg,,o,,' name='ke' posn='30'>
	))
2	((	NP	<fs name='NP2' drel='r6:NP3'>
2.1	kattarapaMWI	JJ	<fs af='kattarapaMWI,adj,any,any,,o,,' name='kattarapaMWI' posn='40'>
2.2	XadZe	NN	<fs af='XadZA,n,m,sg,3,o,0,0' name='XadZe' posn='50'>
2.3	ke	PSP	<fs af='kA,psp,m,sg,,o,,' name='ke2' posn='60'>
	))
3	((	NP	<fs name='NP3' drel='nmod:NP4'>
3.1	pramuKa	NN	<fs af='pramuKa,n,m,sg,3,o,0,0' name='pramuKa' posn='70'>
	))
4	((	NP	<fs name='NP4' drel='k1:VGF'>
4.1	sEyaxa	NNPC	<fs af='sEyaxa,n,m,sg,3,d,0,0' name='sEyaxa' posn='80'>
4.2	alI	NNPC	<fs af='alI,n,m,sg,3,d,0,0' name='alI' posn='90'>
4.3	SAha	NNPC	<fs af='SAha,n,m,sg,3,d,0,0' name='SAha' posn='100'>
4.4	gilAnI	NNP	<fs af='gilAnI,n,m,sg,3,o,0,0' name='gilAnI' posn='110'>
4.5	ne	PSP	<fs af='ne,psp,,,,,,' name='ne' posn='120'>
	))
5	((	NP	<fs name='NP5' drel='r6:NP6'>
5.1	keMxra	NNP	<fs af='keMxra,n,m,sg,3,o,0,0' name='keMxra' posn='130'>
5.2	kI	PSP	<fs af='kA,psp,f,sg,,o,,' name='kI' posn='140'>
	))
6	((	NP	<fs name='NP6' drel='k7:VGF'>
6.1	rAuMda	NNPC	<fs af='rAuMda,n,m,sg,3,d,0,0' name='rAuMda' posn='150'>
6.2	tebila	NNPC	<fs af='tebila,n,m,sg,3,d,0,0' name='tebila' posn='160'>
6.3	kAMPreMsa	NNP	<fs af='kAMPreMsa,n,m,sg,3,o,0,0' name='kAMPreMsa2' posn='170'>
6.4	meM	PSP	<fs af='meM,psp,,,,,,' name='meM' posn='180'>
	))
7	((	NP	<fs name='NP7' drel='pof:VGNN'>
7.1	Sirakawa	NN	<fs af='Sirakawa,n,f,sg,3,d,0,0' name='Sirakawa' posn='190'>
	))
8	((	VGNN	<fs name='VGNN' drel='k2:VGF'>
8.1	karane	VM	<fs af='kara,v,any,any,any,o,nA,nA' name='karane' posn='200'>
8.2	se	PSP	<fs af='se,psp,,,,,,' name='se' posn='210'>
	))
9	((	NP	<fs name='NP8' drel='pof:VGF'>
9.1	sAPa	JJ	<fs af='sAPa,adj,any,any,,d,,' name='sAPa' posn='220'>
9.2	inakAra	NN	<fs af='inakAra,n,m,sg,3,d,0,0' name='inakAra' posn='230'>
	))
10	((	VGF	<fs name='VGF' stype='declarative' voicetype='active'>
10.1	kara	VM	<fs af='kara,v,any,any,any,,0,0' name='kara' posn='240'>
10.2	xiyA	VAUX	<fs af='xe,v,m,sg,any,,yA,yA' name='xiyA' posn='250'>
	))
11	((	BLK	<fs name='BLK' drel='rsym:VGF'>
11.1	.	SYM	<fs af='.,punc,,,,,,' name='.' posn='260'>
	))
</Sentence>

<Sentence id='21'>
1	((	NP	<fs name='NP' drel='k1:VGNN'>
1.1	unakA	PRP	<fs af='vaha,pn,m,sg,3h,o,kA,kA' name='unakA' posn='10'>
	))
2	((	NULL__NP	<fs mtype='gap' troot='yaha' dmrel='k2:VGNN' name='NULL__NP'>
2.1	NULL	PRP	<fs name='NULL'>
	))
3	((	VGNN	<fs name='VGNN' drel='k1:VGF'>
3.1	mAnanA	VM	<fs af='mAna,v,any,any,any,o,nA,nA' name='mAnanA' posn='20'>
	))
4	((	VGF	<fs name='VGF' stype='declarative' voicetype='active'>
4.1	hE	VM	<fs af='hE,v,any,sg,3,,hE,hE' name='hE' posn='30'>
	))
5	((	CCP	<fs name='CCP' drel='rs:NULL__NP'>
5.1	ki	CC	<fs af='ki,avy,,,,,,' name='ki' posn='40'>
	))
6	((	NP	<fs name='NP2' drel='rh:NEGP'>
6.1	isa	DEM	<fs af='yaha,pn,any,sg,3,o,,' name='isa' posn='50'>
6.2	kavAyaxa	NN	<fs af='kavAyaxa,n,f,sg,3,o,0,0' name='kavAyaxa' posn='60'>
6.3	se	PSP	<fs af='se,psp,,,,,,' name='se' posn='70'>
	))
7	((	NP	<fs name='NP3' drel='pof:NEGP'>
7.1	koI	PRP	<fs af='koI,pn,any,sg,3,d,,' name='koI' posn='80'>
7.2	PAyaxA	NN	<fs af='PAyaxA,n,m,sg,3,d,0,0' name='PAyaxA' posn='90'>
	))
8	((	NEGP	<fs name='NEGP' drel='ccof:CCP'>
8.1	nahIM	NEG	<fs af='nahIM,avy,,,,,,' name='nahIM' posn='100'>
	))
9	((	BLK	<fs name='BLK' drel='rsym:VGF'>
9.1	.	SYM	<fs af='.,punc,,,,,,' name='.' posn='110'>
	))
</Sentence>

<Sentence id='22'>
1	((	CCP	<fs name='CCP'>
1.1	jabaki	CC	<fs af='jabaki,avy,,,,,,' name='jabaki' posn='10'>
	))
2	((	NP	<fs name='NP' drel='r6:NP2'>
2.1	mIravAyaja	NNPC	<fs af='mIravAyaja,n,m,sg,3,d,0,0' name='mIravAyaja' posn='20'>
2.2	umara	NNPC	<fs af='umara,n,m,sg,3,d,0,0' name='umara' posn='30'>
2.3	PAruka	NNP	<fs af='PAruka,n,m,sg,3,o,0,0' name='PAruka' posn='40'>
2.4	ke	PSP	<fs af='kA,psp,m,sg,,o,,' name='ke' posn='50'>
	))
3	((	NP	<fs name='NP2' drel='nmod:NP3'>
3.1	newqwva	NN	<fs af='newqwva,n,m,sg,3,o,0,0' name='newqwva' posn='60'>
3.2	vAle	PSP	<fs af='vAlA,psp,m,sg,,o,,' name='vAle' posn='70'>
	))
4	((	NP	<fs name='NP3' drel='r6:NP4'>
4.1	hurriyawa	NNPC	<fs af='hurriyawa,n,m,sg,3,d,0,0' name='hurriyawa' posn='80'>
4.2	kAMPreMsa	NNP	<fs af='kAMPreMsa,n,f,sg,3,o,0,0' name='kAMPreMsa' posn='90'>
4.3	ke	PSP	<fs af='kA,psp,m,sg,,o,,' name='ke2' posn='100'>
	))
5	((	NP	<fs name='NP4' drel='k1:VGF'>
5.1	naramapaMWI	JJ	<fs af='naramapaMWI,adj,any,any,,o,,' name='naramapaMWI' posn='110'>
5.2	XadZe	NN	<fs af='XadZA,n,m,sg,3,o,0,0' name='XadZe' posn='120'>
5.3	ne	PSP	<fs af='ne,psp,,,,,,' name='ne' posn='130'>
	))
6	((	NP	<fs name='NP5' drel='k7:VGNN'>
6.1	rAuMda	NNPC	<fs af='rAuMda,n,m,sg,3,d,0,0' name='rAuMda' posn='140'>
6.2	tebila	NNPC	<fs af='tebila,n,f,sg,3,d,0,0' name='tebila' posn='150'>
6.3	kAMPreMsa	NNP	<fs af='kAMPreMsa,n,f,sg,3,o,0,0' name='kAMPreMsa2' posn='160'>
6.4	meM	PSP	<fs af='meM,psp,,,,,,' name='meM' posn='170'>
	))
7	((	NP	<fs name='NP6' drel='pof:VGNN'>
7.1	Sirakawa	NN	<fs af='Sirakawa,n,f,sg,3,d,0,0' name='Sirakawa' posn='180'>
	))
8	((	VGNN	<fs name='VGNN' drel='k7:VGF'>
8.1	karane	VM	<fs af='kara,v,any,any,any,o,nA,nA' name='karane' posn='190'>
8.2	para	PSP	<fs af='para,psp,,,,,,' name='para' posn='200'>
	))
9	((	NP	<fs name='NP7' drel='pof:VGNN2'>
9.1	PEsalA	NN	<fs af='PEsalA,n,m,sg,3,d,0,0' name='PEsalA' posn='210'>
	))
10	((	VGNN	<fs name='VGNN2' drel='rt:VGF'>
10.1	lene	VM	<fs af='le,v,any,any,any,o,nA,nA' name='lene' posn='220'>
10.2	ke	PSP	<fs af='ke,psp,,,,,,' name='ke3' posn='230'>
10.3	lie	PSP	<fs af='lie,psp,,,,,,' name='lie' posn='240'>
	))
11	((	NP	<fs name='NP8' drel='k2:VGF'>
11.1	bETaka	NN	<fs af='bETaka,n,f,sg,3,d,0,0' name='bETaka' posn='250'>
	))
12	((	NP	<fs name='NP9' drel='k7t:VGF'>
12.1	somavAra	NNP	<fs af='somavAra,n,m,sg,3,o,0,0' name='somavAra' posn='260'>
12.2	ko	PSP	<fs af='ko,psp,,,,,,' name='ko' posn='270'>
	))
13	((	VGF	<fs voicetype='active' name='VGF' stype='declarative' drel='ccof:CCP'>
13.1	bulAI	VM	<fs af='bulA,v,f,sg,any,,yA,yA' name='bulAI' posn='280'>
13.2	hE	VAUX	<fs af='hE,v,any,sg,3,,hE,hE' name='hE' posn='290'>
	))
14	((	BLK	<fs name='BLK' drel='rsym:CCP'>
14.1	.	SYM	<fs af='.,punc,,,,,,' name='.' posn='300'>
	))
</Sentence>

