<Sentence id='1'>
1	((	NP	<fs name='NP' drel='k1:VGF'>
1.1	mAnava	NNPC	<fs af='mAnava,n,m,sg,3,d,0,0' name='mAnava' posn='10'>
1.2	saMsAXana	NNPC	<fs af='saMsAXana,n,m,sg,3,d,0,0' name='saMsAXana' posn='20'>
1.3	vikAsa	NNPC	<fs af='vikAsa,n,m,sg,3,d,0,0' name='vikAsa' posn='30'>
1.4	maMwrI	NNP	<fs af='maMwrI,n,m,sg,3,d,0,0' name='maMwrI' posn='40'>
1.5	arjuna	NNPC	<fs af='arjuna,n,m,sg,3,d,0,0' name='arjuna' posn='50'>
1.6	siMha	NNP	<fs af='siMha,n,m,sg,3,d,0,0' name='siMha' posn='60'>
	))
2	((	NP	<fs name='NP2' drel='r6:NP3'>
2.1	enasIIAratI	NNP	<fs af='enasIIAratI,n,m,sg,3,o,0,0' name='enasIIAratI' posn='70'>
2.2	kI	PSP	<fs af='kA,psp,f,sg,,o,,' name='kI' posn='80'>
	))
3	((	NP	<fs name='NP3' drel='r6:NP4'>
3.1	iwihAsa	NNP	<fs af='iwihAsa,n,m,sg,3,o,0,0' name='iwihAsa' posn='90'>
3.2	kI	PSP	<fs af='kA,psp,f,pl,,o,,' name='kI2' posn='100'>
	))
4	((	NP	<fs name='NP4' drel='r6:NP5'>
4.1	puswakoM	NN	<fs af='puswaka,n,m,pl,3,o,0,0' name='puswakoM' posn='110'>
4.2	kI	PSP	<fs af='kA,psp,f,sg,,o,,' name='kI3' posn='120'>
	))
5	((	NP	<fs name='NP5' drel='rt:VGNF'>
5.1	samIkRA	NN	<fs af='samIkRA,n,f,sg,3,o,0,0' name='samIkRA' posn='130'>
5.2	ke	PSP	<fs af='ke,psp,,,,,,' name='ke' posn='140'>
5.3	lie	PSP	<fs af='lie,psp,,,,,,' name='lie' posn='150'>
	))
6	((	VGNF	<fs name='VGNF' drel='nmod__k1inv:NP6'>
6.1	bane	VM	<fs af='bana,v,m,sg,any,,yA,yA' name='bane' posn='160'>
	))
7	((	NP	<fs name='NP6' drel='r6:NP7'>
7.1	pEnala	NN	<fs af='pEnala,n,m,sg,3,o,0,0' name='pEnala' posn='170'>
7.2	kI	PSP	<fs af='kA,psp,f,sg,,o,,' name='kI4' posn='180'>
	))
8	((	NP	<fs name='NP7' drel='k7:VGF'>
8.1	aMwarima	JJ	<fs af='aMwarima,adj,any,any,,o,,' name='aMwarima' posn='190'>
8.2	riporta	NN	<fs af='riporta,n,f,sg,3,o,0,0' name='riporta' posn='200'>
8.3	para	PSP	<fs af='para,psp,,,,,,' name='para' posn='210'>
	))
9	((	NP	<fs name='NP8' drel='adv:VGF'>
9.1	gaMBIrawA	NN	<fs af='gaMBIrawA,n,f,sg,3,o,0,0' name='gaMBIrawA' posn='220'>
9.2	se	PSP	<fs af='se,psp,,,,,,' name='se' posn='230'>
	))
10	((	NP	<fs name='NP9' drel='pof:VGF'>
10.1	vicAra	NN	<fs af='vicAra,n,m,sg,3,d,0,0' name='vicAra' posn='240'>
	))
11	((	VGF	<fs name='VGF' stype='declarative' voicetype='active'>
11.1	kara	VM	<fs af='kara,v,any,any,any,,0,0' name='kara' posn='250'>
11.2	rahe	VAUX	<fs af='raha,v,m,sg,3h,,yA,yA' name='rahe' posn='260'>
11.3	hEM	VAUX	<fs af='hE,v,any,sg,3h,,hE,hE' name='hEM' posn='270'>
	))
12	((	BLK	<fs name='BLK' drel='rsym:VGF'>
12.1	.	SYM	<fs af='.,punc,,,,,,' name='.' posn='280'>
	))
</Sentence>

<Sentence id='2'>
1	((	NP	<fs name='NP' drel='k7:VGNN'>
1.1	pATyakrama	NN	<fs af='pATyakrama,n,m,sg,3,o,0,0' name='pATyakrama' posn='10'>
1.2	meM	PSP	<fs af='meM,psp,,,,,,' name='meM' posn='20'>
	))
2	((	NP	<fs name='NP2' drel='k2:VGNF'>
2.1	baxalAva	NN	<fs af='baxalAva,n,m,sg,3,o,0,0' name='baxalAva' posn='30'>
2.2	ke	PSP	<fs af='ke,psp,m,,,o,,' name='ke' posn='40'>
2.3	bahAne	PSP	<fs af='bahAnA,n,m,,,o,,' name='bahAne' posn='50'>
	))
3	((	VGNF	<fs name='VGNF' drel='nmod:NP3'>
3.1	hue	VM	<fs af='ho,v,m,sg,any,,yA,yA' name='hue' posn='60'>
	))
4	((	NP	<fs name='NP3' drel='k2:VGNN'>
4.1	kaWiwa	JJ	<fs af='kaWiwa,adj,any,any,,o,,' name='kaWiwa' posn='70'>
4.2	BagavAkaraNa	NN	<fs af='BagavAkaraNa,n,m,sg,3,o,0,0' name='BagavAkaraNa' posn='80'>
4.3	ko	PSP	<fs af='ko,psp,,,,,,' name='ko' posn='90'>
	))
5	((	NP	<fs name='NP4' drel='pof:VGNN'>
5.1	xUra	NST	<fs af='xUra,nst,m,sg,3,d,,' name='xUra' posn='100'>
	))
6	((	VGNN	<fs name='VGNN' drel='k7:VGF'>
6.1	karane	VM	<fs af='kara,v,any,any,any,o,nA,nA' name='karane' posn='110'>
6.2	ke	PSP	<fs af='ke,psp,,,,,,' name='ke2' posn='120'>
6.3	bAre	PSP	<fs af='bAre,psp,,,,,,' name='bAre' posn='130'>
6.4	meM	PSP	<fs af='meM,psp,,,,,,' name='meM2' posn='140'>
	))
7	((	NP	<fs name='NP5' drel='k1:VGF'>
7.1	vaha	PRP	<fs af='vaha,pn,any,sg,3,d,0,0' name='vaha' posn='150'>
	))
8	((	NP	<fs name='NP6' drel='k7t:VGF'>
8.1	agale	JJ	<fs af='agalA,adj,m,pl,,o,,' name='agale' posn='160'>
8.2	ATa	QCC	<fs af='ATa,num,any,any,,any,,' name='ATa' posn='170'>
8.3	-	SYM	<fs af='-,punc,,,,,,' name='-' posn='180'>
8.4	xasa	QC	<fs af='xasa,num,any,any,,any,,' name='xasa' posn='190'>
8.5	xinoM	NN	<fs af='xina,n,m,pl,3,o,0,0' name='xinoM' posn='200'>
8.6	meM	PSP	<fs af='meM,psp,,,,,,' name='meM3' posn='210'>
8.7	hI	RP	<fs af='hI,avy,,,,,,' name='hI' posn='220'>
	))
9	((	NP	<fs name='NP7' drel='k2:VGF'>
9.1	koI	PRP	<fs af='koI,pn,any,sg,3,d,0,0' name='koI' posn='150'>
9.2	nirNaya	NN	<fs af='nirNaya,n,m,sg,3,d,0,0' name='nirNaya' posn='240'>
	))
10	((	VGF	<fs name='VGF' stype='declarative' voicetype='active'>
10.1	le	VM	<fs af='le,v,any,any,any,,0,0' name='le' posn='250'>
10.2	leMge	VAUX	<fs af='le,v,m,sg,3h,,gA,gA' name='leMge' posn='260'>
	))
11	((	BLK	<fs name='BLK' drel='rsym:VGF'>
11.1	.	SYM	<fs af='.,punc,,,,,,' name='.' posn='270'>
	))
</Sentence>

<Sentence id='3'>
1	((	NP	<fs name='NP' drel='r6:NP2'>
1.1	iwihAsavixoM	NN	<fs af='iwihAsavixa,n,m,pl,3,o,0,0' name='iwihAsavixoM' posn='10'>
1.2	ke	PSP	<fs af='kA,psp,m,sg,,o,,' name='ke' posn='20'>
	))
2	((	NP	<fs name='NP2' drel='k1:VGF'>
2.1	wIna	QC	<fs af='wIna,num,any,any,,any,,' name='wIna' posn='30'>
2.2	saxasyIya	JJ	<fs af='saxasyIya,adj,any,any,,o,,' name='saxasyIya' posn='40'>
2.3	pEnala	NN	<fs af='pEnala,n,m,sg,3,o,0,0' name='pEnala' posn='50'>
2.4	ne	PSP	<fs af='ne,psp,,,,,,' name='ne' posn='60'>
2.5	wo	RP	<fs af='wo,avy,,,,,,' name='wo' posn='70'>
	))
3	((	NP	<fs name='NP3' drel='r6:NP4'>
3.1	apanI	PRP	<fs af='apanA,pn,f,any,any,o,0,0' name='apanI' posn='80'>
	))
4	((	NP	<fs name='NP4' drel='k7:VGF'>
4.1	aMwarima	JJ	<fs af='aMwarima,adj,any,any,,o,,' name='aMwarima' posn='90'>
4.2	riporta	NN	<fs af='riporta,n,f,sg,3,o,0,0' name='riporta' posn='100'>
4.3	meM	PSP	<fs af='meM,psp,,,,,,' name='meM' posn='110'>
	))
5	((	NP	<fs name='NP5' drel='k2:VGNN'>
5.1	pATya	NNC	<fs af='pATya,n,m,sg,3,d,0,0' name='pATya' posn='120'>
5.2	-	SYM	<fs af='-,punc,,,,,,' name='-' posn='130'>
5.3	puswakoM	NN	<fs af='puswaka,n,f,pl,3,o,0,0' name='puswakoM' posn='140'>
5.4	ko	PSP	<fs af='ko,psp,,,,,,' name='ko' posn='150'>
	))
6	((	VGNN	<fs name='VGNN' drel='r6-k2:NP6'>
6.1	baxalane	VM	<fs af='baxala,v,any,any,any,o,nA,nA' name='baxalane' posn='160'>
6.2	kI	PSP	<fs af='kA,psp,f,sg,,d,,' name='kI' posn='170'>
	))
7	((	NP	<fs name='NP6' drel='pof:VGF'>
7.1	siPAriSa	NN	<fs af='siPAriSa,n,f,sg,3,d,0,0' name='siPAriSa' posn='180'>
	))
8	((	VGF	<fs name='VGF' stype='declarative' voicetype='active'>
8.1	kI	VM	<fs af='kara,v,f,sg,any,,yA,yA' name='kI2' posn='190'>
8.2	hE	VAUX	<fs af='hE,v,any,sg,3,,hE,hE' name='hE' posn='200'>
	))
9	((	BLK	<fs name='BLK' drel='rsym:VGF'>
9.1	.	SYM	<fs af='.,punc,,,,,,' name='.' posn='210'>
	))
</Sentence>

<Sentence id='4'>
1	((	CCP	<fs name='CCP'>
1.1	lekina	CC	<fs af='lekina,avy,,,,,,' name='lekina' posn='10'>
	))
2	((	RBP	<fs name='RBP' drel='adv:VGF'>
2.1	PilahAla	RB	<fs af='PilahAla,adv,,,,,,' name='PilahAla' posn='20'>
	))
3	((	NP	<fs name='NP' drel='k1:VGF'>
3.1	maMwrAlaya	NN	<fs af='maMwrAlaya,n,m,sg,3,d,0,0' name='maMwrAlaya' posn='30'>
	))
4	((	NP	<fs name='NP2' drel='k7:VGNN2'>
4.1	isa	DEM	<fs af='yaha,pn,any,sg,3,o,,' name='isa' posn='40'>
4.2	sawra	NN	<fs af='sawra,n,m,sg,3,o,0,0' name='sawra' posn='50'>
4.3	meM	PSP	<fs af='meM,psp,,,,,,' name='meM' posn='60'>
	))
5	((	NP	<fs name='NP3' drel='r6:NP4'>
5.1	mOjUxA	JJ	<fs af='mOjUxA,adj,any,any,,o,,' name='mOjUxA' posn='70'>
5.2	kiwAboM	NN	<fs af='kiwAba,n,f,pl,3,o,0,0' name='kiwAboM' posn='80'>
5.3	ke	PSP	<fs af='kA,psp,m,sg,,o,,' name='ke' posn='90'>
5.4	hI	RP	<fs af='hI,avy,,,,,,' name='hI' posn='100'>
	))
6	((	NP	<fs name='NP4' drel='k2:VGNF'>
6.1	kuCa	QF	<fs af='kuCa,avy,,,,,,' name='kuCa' posn='110'>
6.2	aMSoM	NN	<fs af='aMSa,n,m,pl,3,o,0,0' name='aMSoM' posn='120'>
6.3	ko	PSP	<fs af='ko,psp,,,,,,' name='ko' posn='130'>
	))
7	((	VGNF	<fs name='VGNF' drel='vmod:VGNN'>
7.1	hatAkara	VM	<fs af='hatA,v,any,any,any,,kara,kara' name='hatAkara' posn='140'>
	))
8	((	VGNN	<fs name='VGNN' drel='r6:NP5'>
8.1	paDZAne	VM	<fs af='paDZA,v,any,any,any,o,nA,nA' name='paDZAne' posn='150'>
8.2	kA	PSP	<fs af='kA,psp,m,sg,,d,,' name='kA' posn='160'>
	))
9	((	NP	<fs name='NP5' drel='k2:VGNN2'>
9.1	vikalpa	NN	<fs af='vikalpa,n,m,sg,3,d,0,0' name='vikalpa' posn='170'>
9.2	BI	RP	<fs af='BI,avy,,,,,,' name='BI' posn='180'>
	))
10	((	JJP	<fs name='JJP' drel='pof:VGNN2'>
10.1	KulA	JJ	<fs af='KulA,adj,any,any,,,,' name='KulA' posn='190'>
	))
11	((	VGNN	<fs name='VGNN2' drel='k7:VGF'>
11.1	raKane	VM	<fs af='raKa,v,any,any,any,o,nA,nA' name='raKane' posn='200'>
11.2	para	PSP	<fs af='para,psp,,,,,,' name='para' posn='210'>
	))
12	((	NP	<fs name='NP6' drel='pof:VGF'>
12.1	vicAra	NN	<fs af='vicAra,n,m,sg,3,d,0,0' name='vicAra' posn='220'>
	))
13	((	VGF	<fs voicetype='active' name='VGF' stype='declarative' drel='ccof:CCP'>
13.1	kara	VM	<fs af='kara,v,any,any,any,,0,0' name='kara' posn='230'>
13.2	rahA	VAUX	<fs af='raha,v,m,sg,any,,yA,yA' name='rahA' posn='240'>
13.3	hE	VAUX	<fs af='hE,v,any,sg,3,,hE,hE' name='hE' posn='250'>
	))
14	((	BLK	<fs name='BLK' drel='rsym:CCP'>
14.1	.	SYM	<fs af='.,punc,,,,,,' name='.' posn='260'>
	))
</Sentence>

<Sentence id='5'>
1	((	NP	<fs name='NP' drel='k2:VGNN'>
1.1	EsA	PRP	<fs af='EsA,pn,m,sg,any,d,0,0' name='EsA' posn='10'>
	))
2	((	VGNN	<fs name='VGNN' drel='r6:NP2'>
2.1	hone	VM	<fs af='ho,v,any,any,any,o,nA,nA' name='hone' posn='20'>
2.2	kI	PSP	<fs af='kA,psp,f,sg,,o,,' name='kI' posn='30'>
	))
3	((	NP	<fs name='NP2' drel='k7:VGF'>
3.1	sWiwi	NN	<fs af='sWiwi,n,f,sg,3,o,0,0' name='sWiwi' posn='40'>
3.2	meM	PSP	<fs af='meM,psp,,,,,,' name='meM' posn='50'>
	))
4	((	NP	<fs name='NP3' drel='rt:VGF'>
4.1	SikRakoM	NN	<fs af='SikRaka,n,m,pl,3,o,0,0' name='SikRakoM' posn='60'>
4.2	ke	PSP	<fs af='ke,psp,,,,,,' name='ke' posn='70'>
4.3	lie	PSP	<fs af='lie,psp,,,,,,' name='lie' posn='80'>
	))
5	((	NP	<fs name='NP4' drel='r6:NP5'>
5.1	pATya	NNC	<fs af='pATya,n,m,sg,3,d,0,0' name='pATya' posn='90'>
5.2	-	SYM	<fs af='-,punc,,,,,,' name='-' posn='100'>
5.3	puswakoM	NN	<fs af='puswaka,n,f,pl,3,o,0,0' name='puswakoM' posn='110'>
5.4	ke	PSP	<fs af='kA,psp,m,pl,,d,,' name='ke2' posn='120'>
	))
6	((	NP	<fs name='NP5' drel='k2:VGNN2'>
6.1	kuCa	QF	<fs af='kuCa,avy,,,,,,' name='kuCa' posn='130'>
6.2	aMSa	NN	<fs af='aMSa,n,m,pl,3,d,0,0' name='aMSa' posn='140'>
	))
7	((	VGNN	<fs name='VGNN2' drel='ccof:CCP'>
7.1	na	NEG	<fs af='na,avy,,,,,,' name='na' posn='150'>
7.2	paDZAne	VM	<fs af='paDZA,v,any,any,any,o,nA,nA' name='paDZAne' posn='160'>
	))
8	((	CCP	<fs name='CCP' drel='nmod:NP6'>
8.1	Ora	CC	<fs af='Ora,avy,,,,,,' name='Ora' posn='170'>
	))
9	((	JJP	<fs name='JJP' drel='k2:VGNN3'>
9.1	kuCa	QF	<fs af='kuCa,avy,,,,,,' name='kuCa2' posn='180'>
	))
10	((	RBP	<fs name='RBP' drel='adv:VGNN3'>
10.1	alaga	RB	<fs af='alaga,adv,,,,,,' name='alaga' posn='190'>
10.2	se	RP	<fs af='se,avy,,,,,,' name='se' posn='200'>
	))
11	((	VGNN	<fs name='VGNN3' drel='ccof:CCP'>
11.1	paDZAne	VM	<fs af='paDZA,v,any,any,any,o,nA,nA' name='paDZAne2' posn='210'>
11.2	jEse	PSP	<fs af='jEsA,psp,m,pl,,d,,' name='jEse' posn='220'>
	))
12	((	NP	<fs name='NP6' drel='k2:VGF'>
12.1	xiSA	NNC	<fs af='xiSA,n,f,sg,3,d,0,0' name='xiSA' posn='230'>
12.2	-	SYM	<fs af='-,punc,,,,,,' name='-2' posn='240'>
12.3	nirxeSa	NN	<fs af='nirxeSa,n,m,pl,3,d,0,0' name='nirxeSa' posn='250'>
12.4	BI	RP	<fs af='BI,avy,,,,,,' name='BI' posn='260'>
	))
13	((	JJP	<fs name='JJP2' drel='pof:VGF'>
13.1	jArI	JJ	<fs af='jArI,adj,any,any,,,,' name='jArI' posn='270'>
	))
14	((	VGF	<fs name='VGF' stype='declarative' voicetype='passive'>
14.1	kie	VM	<fs af='kara,v,m,pl,any,,yA,yA' name='kie' posn='280'>
14.2	jA	VAUX	<fs af='jA,v,any,any,any,,0,0' name='jA' posn='290'>
14.3	sakawe	VAUX	<fs af='saka,v,m,pl,any,,wA,wA' name='sakawe' posn='300'>
14.4	hEM	VAUX	<fs af='hE,v,any,pl,3,,hE,hE' name='hEM' posn='310'>
	))
15	((	BLK	<fs name='BLK' drel='rsym:VGF'>
15.1	.	SYM	<fs af='.,punc,,,,,,' name='.' posn='320'>
	))
</Sentence>

<Sentence id='6'>
1	((	NP	<fs name='NP' drel='k7p:VGF'>
1.1	mAnava	NNPC	<fs af='mAnava,n,m,sg,3,d,0,0' name='mAnava' posn='10'>
1.2	saMsAXana	NNPC	<fs af='saMsAXana,n,m,sg,3,d,0,0' name='saMsAXana' posn='20'>
1.3	vikAsa	NNPC	<fs af='vikAsa,n,m,sg,3,d,0,0' name='vikAsa' posn='30'>
1.4	maMwrAlaya	NNP	<fs af='maMwrAlaya,n,m,sg,3,o,0,0' name='maMwrAlaya' posn='40'>
1.5	meM	PSP	<fs af='meM,psp,,,,,,' name='meM' posn='50'>
	))
2	((	NP	<fs name='NP2' drel='k1:VGF'>
2.1	saciva	NN	<fs af='saciva,n,m,sg,3,d,0,0' name='saciva' posn='60'>
2.2	bI.	NNPC	<fs af='bI.,n,m,sg,3,d,0,0' name='bI.' posn='70'>
2.3	esa	NNPC	<fs af='esa.,n,m,sg,3,d,0,0' name='esa' posn='80'>
2.4	bAsavAna	NNP	<fs af='bAsavAna,n,any,sg,3,o,0,0' name='bAsavAna' posn='90'>
2.5	ne	PSP	<fs af='ne,psp,,,,,,' name='ne' posn='100'>
	))
3	((	NP	<fs name='NP3' drel='k7t:VGF'>
3.1	maMgalavAra	NNP	<fs af='maMgalavAra,n,m,sg,3,o,0,0' name='maMgalavAra' posn='110'>
3.2	ko	PSP	<fs af='ko,psp,,,,,,' name='ko' posn='120'>
	))
4	((	NP	<fs name='NP4' drel='k4:VGF'>
4.1	pawrakAroM	NN	<fs af='pawrakAra,n,m,pl,3,o,0,0' name='pawrakAroM' posn='130'>
4.2	se	PSP	<fs af='se,psp,,,,,,' name='se' posn='140'>
	))
5	((	NP	<fs name='NP5' drel='k7:VGF'>
5.1	bAwacIwa	NN	<fs af='bAwacIwa,n,f,sg,3,o,0,0' name='bAwacIwa' posn='150'>
5.2	meM	PSP	<fs af='meM,psp,,,,,,' name='meM2' posn='160'>
	))
6	((	VGF	<fs name='VGF' stype='declarative' voicetype='active'>
6.1	kahA	VM	<fs af='kaha,v,m,sg,any,,yA,yA' name='kahA' posn='170'>
	))
7	((	CCP	<fs name='CCP' drel='k2:VGF'>
7.1	ki	CC	<fs af='ki,avy,,,,,,' name='ki' posn='180'>
	))
8	((	NP	<fs name='NP6' drel='r6:NP7'>
8.1	pATyakrama	NN	<fs af='pATyakrama,n,m,sg,3,o,0,0' name='pATyakrama' posn='190'>
8.2	kI	PSP	<fs af='kA,psp,f,sg,,o,,' name='kI' posn='200'>
	))
9	((	NP	<fs name='NP7' drel='rt:VGNF'>
9.1	samIkRA	NN	<fs af='samIkRA,n,f,sg,3,o,0,0' name='samIkRA' posn='210'>
9.2	ke	PSP	<fs af='ke,psp,,,,,,' name='ke' posn='220'>
9.3	lie	PSP	<fs af='lie,psp,,,,,,' name='lie' posn='230'>
	))
10	((	VGNF	<fs name='VGNF' drel='nmod__k1inv:NP8'>
10.1	bane	VM	<fs af='bana,v,m,sg,any,,yA,yA' name='bane' posn='240'>
	))
11	((	NP	<fs name='NP8' drel='k1:VGF2'>
11.1	pEnala	NN	<fs af='pEnala,n,m,sg,3,o,0,0' name='pEnala' posn='250'>
11.2	ne	PSP	<fs af='ne,psp,,,,,,' name='ne2' posn='260'>
	))
12	((	NP	<fs name='NP9' drel='r6:NP10'>
12.1	apanI	PRP	<fs af='apanA,pn,f,any,any,o,0,0' name='apanI' posn='270'>
	))
13	((	NP	<fs name='NP10' drel='k7:VGF2'>
13.1	aMwarima	JJ	<fs af='aMwarima,adj,any,any,,o,,' name='aMwarima' posn='280'>
13.2	riporta	NN	<fs af='riporta,n,f,sg,3,o,0,0' name='riporta' posn='290'>
13.3	meM	PSP	<fs af='meM,psp,,,,,,' name='meM3' posn='300'>
	))
14	((	NP	<fs name='NP11' drel='k2:VGNN'>
14.1	kiwAbeM	NN	<fs af='kiwAba,n,f,pl,3,d,0,0' name='kiwAbeM' posn='310'>
	))
15	((	VGNN	<fs name='VGNN' drel='r6-k2:NP12'>
15.1	baxalane	VM	<fs af='baxala,v,any,any,any,o,nA,nA' name='baxalane' posn='320'>
15.2	kI	PSP	<fs af='kA,psp,f,sg,,d,,' name='kI2' posn='330'>
	))
16	((	NP	<fs name='NP12' drel='pof:VGF2'>
16.1	siPAriSa	NN	<fs af='siPAriSa,n,f,sg,3,d,0,0' name='siPAriSa' posn='340'>
	))
17	((	VGF	<fs voicetype='active' name='VGF2' stype='declarative' drel='ccof:CCP'>
17.1	kI	VM	<fs af='kara,v,f,sg,any,,yA,yA' name='kI3' posn='350'>
17.2	hE	VAUX	<fs af='hE,v,any,sg,3,,hE,hE' name='hE' posn='360'>
	))
18	((	BLK	<fs name='BLK' drel='rsym:VGF'>
18.1	.	SYM	<fs af='.,punc,,,,,,' name='.' posn='370'>
	))
</Sentence>

<Sentence id='7'>
1	((	NP	<fs name='NP' drel='k7:VGF'>
1.1	maMwrAlaya	NN	<fs af='maMwrAlaya,n,m,sg,3,o,0,0' name='maMwrAlaya' posn='10'>
1.2	meM	PSP	<fs af='meM,psp,,,,,,' name='meM' posn='20'>
	))
2	((	NP	<fs name='NP2' drel='k7:VGF'>
2.1	isa	DEM	<fs af='yaha,pn,any,sg,3,o,,' name='isa' posn='30'>
2.2	riporta	NN	<fs af='riporta,n,f,sg,3,o,0,0' name='riporta' posn='40'>
2.3	para	PSP	<fs af='para,psp,,,,,,' name='para' posn='50'>
	))
3	((	NP	<fs name='NP3' drel='k1:VGF'>
3.1	vicAra	NNC	<fs af='vicAra,n,m,sg,3,d,0,0' name='vicAra' posn='60'>
3.2	-	SYM	<fs af='-,punc,,,,,,' name='-' posn='70'>
3.3	vimarSa	NN	<fs af='vimarSa,n,m,sg,3,d,0,0' name='vimarSa' posn='80'>
	))
4	((	VGF	<fs voicetype='active' name='VGF' stype='declarative' drel='ccof:CCP'>
4.1	cala	VM	<fs af='cala,v,any,any,any,,0,0' name='cala' posn='90'>
4.2	rahA	VAUX	<fs af='raha,v,m,sg,any,,yA,yA' name='rahA' posn='100'>
4.3	hE	VAUX	<fs af='hE,v,any,sg,3,,hE,hE' name='hE' posn='110'>
	))
5	((	CCP	<fs name='CCP'>
5.1	Ora	CC	<fs af='Ora,avy,,,,,,' name='Ora' posn='120'>
	))
6	((	RBP	<fs name='RBP' drel='adv:VGF2'>
6.1	jalxa	RB	<fs af='jalxa,adv,,,,,,' name='jalxa' posn='130'>
6.2	hI	RP	<fs af='hI,avy,,,,,,' name='hI' posn='140'>
	))
7	((	NP	<fs name='NP4' drel='k2:VGF2'>
7.1	koI	PRP	<fs af='koI,pn,any,sg,3,d,0,0' name='koI' posn='150'>
7.2	nirNaya	NN	<fs af='nirNaya,n,m,sg,3,d,0,0' name='nirNaya' posn='160'>
	))
8	((	VGF	<fs voicetype='passive' name='VGF2' stype='declarative' drel='ccof:CCP'>
8.1	le	VM	<fs af='le,v,any,any,any,,0,0' name='le' posn='170'>
8.2	liyA	VAUX	<fs af='le,v,m,sg,any,,yA,yA' name='liyA' posn='180'>
8.3	jAegA	VAUX	<fs af='jA,v,m,sg,3,,gA,gA' name='jAegA' posn='190'>
	))
9	((	BLK	<fs name='BLK' drel='rsym:CCP'>
9.1	.	SYM	<fs af='.,punc,,,,,,' name='.' posn='200'>
	))
</Sentence>

<Sentence id='8'>
1	((	NP	<fs name='NP' drel='k1:VGF'>
1.1	unhoMne	PRP	<fs af='vaha,pn,any,sg,3h,o,ne,ne' name='unhoMne' posn='10'>
	))
2	((	VGF	<fs name='VGF' stype='declarative' voicetype='active'>
2.1	kahA	VM	<fs af='kaha,v,m,sg,any,,yA,yA' name='kahA' posn='20'>
	))
3	((	CCP	<fs name='CCP' drel='k2:VGF'>
3.1	ki	CC	<fs af='ki,avy,,,,,,' name='ki' posn='30'>
	))
4	((	NP	<fs name='NP2' drel='k1:VGF2'>
4.1	pEnala	NN	<fs af='pEnala,n,m,sg,3,o,0,0' name='pEnala' posn='40'>
4.2	ne	PSP	<fs af='ne,psp,,,,,,' name='ne' posn='50'>
	))
5	((	NP	<fs name='NP3' drel='k7t:VGNF'>
5.1	isa	DEM	<fs af='yaha,pn,any,sg,3,o,,' name='isa' posn='60'>
5.2	samaya	NN	<fs af='samaya,n,m,sg,3,d,0,0' name='samaya' posn='70'>
	))
6	((	VGNF	<fs name='VGNF' drel='nmod__k1inv:NP4'>
6.1	cala	VM	<fs af='cala,v,any,any,any,,0,0' name='cala' posn='80'>
6.2	rahI	VAUX	<fs af='raha,v,f,pl,any,,yA,yA' name='rahI' posn='90'>
	))
7	((	NP	<fs name='NP4' drel='k2:VGF2'>
7.1	kiwAboM	NN	<fs af='kiwAba,n,f,pl,3,o,0,0' name='kiwAboM' posn='100'>
7.2	ko	PSP	<fs af='ko,psp,,,,,,' name='ko' posn='110'>
	))
8	((	NP	<fs name='NP5' drel='r6:NULL__NP'>
8.1	nimna	JJ	<fs af='nimna,adj,any,any,,o,,' name='nimna' posn='120'>
8.2	swara	NN	<fs af='swara,n,m,sg,3,o,0,0' name='swara' posn='130'>
8.3	kA	PSP	<fs af='kA,psp,m,sg,,d,,' name='kA' posn='140'>
	))
9	((	NULL__NP	<fs mtype='gap' dmrel='k2s:VGF2' name='NULL__NP'>
9.1	NULL	NN	<fs name='NULL'>
	))
10	((	VGF	<fs voicetype='active' name='VGF2' stype='declarative' drel='ccof:CCP'>
10.1	bawAyA	VM	<fs af='bawA,v,m,sg,any,,yA,yA' name='bawAyA' posn='150'>
10.2	hE	VAUX	<fs af='hE,v,any,sg,3,,hE,hE' name='hE' posn='160'>
	))
11	((	BLK	<fs name='BLK' drel='rsym:VGF'>
11.1	.	SYM	<fs af='.,punc,,,,,,' name='.' posn='170'>
	))
</Sentence>

<Sentence id='9'>
1	((	NP	<fs name='NP' drel='k7:VGF'>
1.1	isameM	PRP	<fs af='yaha,pn,any,sg,3,o,meM,meM' name='isameM' posn='10'>
	))
2	((	VGNF	<fs name='VGNF' drel='vmod:VGF'>
2.1	jAna	VMC	<fs af='jAna,v,any,any,any,,0,0' name='jAna' posn='20'>
2.2	-	SYM	<fs af='-,punc,,,,,,' name='-' posn='30'>
2.3	bUJakara	VM	<fs af='bUJa,v,any,any,any,,kara,kara' name='bUJakara' posn='40'>
	))
3	((	NP	<fs name='NP2' drel='pof:VGF'>
3.1	wamAma	JJ	<fs af='wamAma,adj,any,any,,d,,' name='wamAma' posn='50'>
3.2	baxalAva	NN	<fs af='baxalAva,n,m,pl,3,d,0,0' name='baxalAva' posn='60'>
	))
4	((	VGF	<fs voicetype='active' name='VGF' stype='declarative' drel='ccof:CCP'>
4.1	kie	VM	<fs af='kara,v,m,pl,any,,yA,yA' name='kie' posn='70'>
4.2	gae	VAUX	<fs af='jA,v,m,pl,any,,yA1,yA1' name='gae' posn='80'>
4.3	hEM	VAUX	<fs af='hE,v,any,pl,3,,hE,hE' name='hEM' posn='90'>
	))
5	((	CCP	<fs name='CCP'>
5.1	Ora	CC	<fs af='Ora,avy,,,,,,' name='Ora' posn='100'>
	))
6	((	NP	<fs name='NP3' drel='r6:NP4'>
6.1	kaI	QF	<fs af='kaI,avy,,,,,,' name='kaI' posn='110'>
6.2	waraha	NN	<fs af='waraha,n,f,sg,3,o,0,0' name='waraha' posn='120'>
6.3	kI	PSP	<fs af='kA,psp,f,pl,,d,,' name='kI' posn='130'>
	))
7	((	NP	<fs name='NP4' drel='k1:VGF2'>
7.1	wrutiyAz	NN	<fs af='wruti,n,f,pl,3,d,0,0' name='wrutiyAz' posn='140'>
	))
8	((	VGF	<fs voicetype='active' name='VGF2' stype='declarative' drel='ccof:CCP'>
8.1	hEM	VM	<fs af='hE,v,any,pl,3,,hE,hE' name='hEM2' posn='150'>
8.2	,	SYM	<fs af='COMMA,punc,,,,,,' name=',' posn='160'>
	))
9	((	NP	<fs coref=':NP4' name='NP5' drel='k2:VGNN'>
9.1	jinheM	PRP	<fs af='jo,pn,any,pl,3,o,ko,ko' name='jinheM' posn='170'>
	))
10	((	NP	<fs name='NP6' drel='pof:VGNN'>
10.1	xUra	NST	<fs af='xUra,nst,m,sg,3,d,,' name='xUra' posn='180'>
	))
11	((	VGNN	<fs name='VGNN' drel='r6-k2:NP7'>
11.1	karane	VM	<fs af='kara,v,any,any,any,o,nA,nA' name='karane' posn='190'>
11.2	kI	PSP	<fs af='kA,psp,f,sg,,d,,' name='kI2' posn='200'>
	))
12	((	NP	<fs name='NP7' drel='pof:VGF3'>
12.1	siPAriSa	NN	<fs af='siPAriSa,n,f,sg,3,d,0,0' name='siPAriSa' posn='210'>
	))
13	((	VGF	<fs voicetype='active' name='VGF3' stype='declarative' drel='nmod__relc:NP4'>
13.1	kI	VM	<fs af='kara,v,f,sg,any,,yA,yA' name='kI3' posn='220'>
13.2	gaI	VAUX	<fs af='jA,v,f,sg,any,,yA1,yA1' name='gaI' posn='230'>
13.3	hE	VAUX	<fs af='hE,v,any,sg,3,,hE,hE' name='hE' posn='240'>
	))
14	((	BLK	<fs name='BLK' drel='rsym:CCP'>
14.1	.	SYM	<fs af='.,punc,,,,,,' name='.' posn='250'>
	))
</Sentence>

<Sentence id='10'>
1	((	NP	<fs name='NP' drel='k1:VGF'>
1.1	pEnala	NN	<fs af='pEnala,n,m,sg,3,o,0,0' name='pEnala' posn='10'>
1.2	ne	PSP	<fs af='ne,psp,,,,,,' name='ne' posn='20'>
	))
2	((	NP	<fs name='NP2' drel='pof:VGF'>
2.1	siPAriSa	NN	<fs af='siPAriSa,n,f,sg,3,d,0,0' name='siPAriSa' posn='30'>
	))
3	((	VGF	<fs name='VGF' stype='declarative' voicetype='active'>
3.1	kI	VM	<fs af='kara,v,f,sg,any,,yA,yA' name='kI' posn='40'>
3.2	hE	VAUX	<fs af='hE,v,any,sg,3,,hE,hE' name='hE' posn='50'>
	))
4	((	CCP	<fs name='CCP' drel='k2:VGF'>
4.1	ki	CC	<fs af='ki,avy,,,,,,' name='ki' posn='60'>
	))
5	((	NP	<fs name='NP3' drel='k1:VGF2'>
5.1	kiwAbeM	NN	<fs af='kiwAba,n,f,pl,3,d,0,0' name='kiwAbeM' posn='70'>
	))
6	((	JJP	<fs name='JJP' drel='ccof:CCP2'>
6.1	acCI	JJ	<fs af='acCA,adj,f,any,,,,' name='acCI' posn='80'>
	))
7	((	CCP	<fs name='CCP2' drel='k1s:VGF2'>
7.1	Ora	CC	<fs af='Ora,avy,,,,,,' name='Ora' posn='90'>
	))
8	((	JJP	<fs name='JJP2' drel='ccof:CCP2'>
8.1	Xarma	JJC	<fs af='Xarma,n,m,sg,3,d,0,0' name='Xarma' posn='100'>
8.2	-	SYM	<fs af='-,punc,,,,,,' name='-' posn='110'>
8.3	nirapekRa	JJ	<fs af='nirapekRa,adj,any,any,,,,' name='nirapekRa' posn='120'>
	))
9	((	VGF	<fs voicetype='active' name='VGF2' stype='declarative' drel='ccof:CCP'>
9.1	honI	VM	<fs af='ho,v,f,sg,any,,nA,nA' name='honI' posn='130'>
9.2	cAhie	VAUX	<fs af='cAhie,v,any,any,any,,0,0' name='cAhie' posn='140'>
	))
10	((	BLK	<fs name='BLK' drel='rsym:VGF'>
10.1	.	SYM	<fs af='.,punc,,,,,,' name='.' posn='150'>
	))
</Sentence>

<Sentence id='11'>
1	((	NP	<fs name='NP' drel='k2:VGNN'>
1.1	yaha	PRP	<fs af='yaha,pn,any,sg,3,d,0,0' name='yaha' posn='10'>
	))
2	((	VGNN	<fs name='VGNN'>
2.1	pUCe	VM	<fs af='pUCa,v,m,sg,any,,yA,yA' name='pUCe' posn='20'>
2.2	jAne	VAUX	<fs af='jA,v,any,any,any,o,nA,nA' name='jAne' posn='30'>
2.3	para	PSP	<fs af='para,psp,,,,,,' name='para' posn='40'>
	))
3	((	NULL__CCP	<fs mtype='gap' troot='ki' dmrel='rs:NP' name='NULL__CCP'>
3.1	NULL	CC	<fs name='NULL'>
	))
4	((	RBP	<fs name='RBP' drel='vmod:VGF'>
4.1	kyA	WQ	<fs af='kyA,pn,,,,,,' name='kyA' posn='50'>
	))
5	((	NP	<fs name='NP2' drel='k2:VGF'>
5.1	kiwAboM	NN	<fs af='kiwAba,n,f,pl,3,o,0,0' name='kiwAboM' posn='60'>
5.2	ko	PSP	<fs af='ko,psp,,,,,,' name='ko' posn='70'>
	))
6	((	NP	<fs name='NP3' drel='k7t:VGF'>
6.1	isI	DEM	<fs af='yaha,pn,any,sg,3,o,,' name='isI' posn='80'>
6.2	SEkRaNika	JJ	<fs af='SEkRaNika,adj,any,any,,o,,' name='SEkRaNika' posn='90'>
6.3	sawra	NN	<fs af='sawra,n,m,sg,3,o,0,0' name='sawra' posn='100'>
6.4	se	PSP	<fs af='se,psp,,,,,,' name='se' posn='110'>
	))
7	((	VGF	<fs voicetype='passive' name='VGF' stype='interrogative' drel='ccof:CCP'>
7.1	baxala	VM	<fs af='baxala,v,any,any,any,,0,0' name='baxala' posn='120'>
7.2	xiyA	VAUX	<fs af='xe,v,m,sg,any,,yA,yA' name='xiyA' posn='130'>
7.3	jAegA	VAUX	<fs af='jA,v,m,sg,3,,gA,gA' name='jAegA' posn='140'>
	))
8	((	CCP	<fs name='CCP' drel='ccof:NULL__CCP'>
8.1	wo	CC	<fs af='wo,avy,,,,,,' name='wo' posn='150'>
	))
9	((	NP	<fs name='NP4' drel='k1:VGF2'>
9.1	bAsavAna	NNP	<fs af='bAsavAna,n,any,sg,3,o,0,0' name='bAsavAna' posn='160'>
9.2	ne	PSP	<fs af='ne,psp,,,,,,' name='ne' posn='170'>
	))
10	((	NP	<fs name='NP5' drel='pof:VGF2'>
10.1	koI	PRP	<fs af='koI,pn,any,sg,3,d,0,0' name='koI' posn='180'>
10.2	sIXI	JJ	<fs af='sIXA,adj,f,sg,,d,,' name='sIXI' posn='190'>
10.3	tiWI	NN	<fs af='tiWI,n,f,sg,3,d,0,0' name='tiWI' posn='200'>
	))
11	((	VGF	<fs voicetype='active' name='VGF2' stype='declarative' drel='ccof:CCP'>
11.1	nahIM	NEG	<fs af='nahIM,avy,,,,,,' name='nahIM' posn='210'>
11.2	kI	VM	<fs af='kara,v,f,sg,any,,yA,yA' name='kI' posn='220'>
	))
12	((	BLK	<fs name='BLK' drel='rsym:VGNN'>
12.1	.	SYM	<fs af='.,punc,,,,,,' name='.' posn='230'>
	))
</Sentence>

<Sentence id='12'>
1	((	NP	<fs name='NP' drel='k1:VGF'>
1.1	unhoMne	PRP	<fs af='vaha,pn,any,sg,3h,o,ne,ne' name='unhoMne' posn='10'>
	))
2	((	NP	<fs name='NP2' drel='k2:VGF'>
2.1	yaha	PRP	<fs af='yaha,pn,any,sg,3,d,0,0' name='yaha' posn='20'>
	))
3	((	RBP	<fs name='RBP' drel='adv:VGF'>
3.1	jarUra	RB	<fs af='jarUra,adv,,,,,,' name='jarUra' posn='30'>
	))
4	((	VGF	<fs name='VGF' stype='declarative' voicetype='active'>
4.1	kahA	VM	<fs af='kaha,v,m,sg,any,,yA,yA' name='kahA' posn='40'>
	))
5	((	CCP	<fs name='CCP' drel='rs:NP2'>
5.1	ki	CC	<fs af='ki,avy,,,,,,' name='ki' posn='50'>
	))
6	((	NP	<fs name='NP3' drel='ccof:CCP2'>
6.1	samaya	NN	<fs af='samaya,n,m,sg,3,o,0,0' name='samaya' posn='60'>
	))
7	((	CCP	<fs name='CCP2' drel='k2:VGNF'>
7.1	Ora	CC	<fs af='Ora,avy,,,,,,' name='Ora' posn='70'>
	))
8	((	NP	<fs name='NP4' drel='ccof:CCP2'>
8.1	parisWiwiyoM	NN	<fs af='parisWiwi,n,f,pl,3,o,0,0' name='parisWiwiyoM' posn='80'>
8.2	ko	PSP	<fs af='ko,psp,,,,,,' name='ko' posn='90'>
	))
9	((	VGNF	<fs name='VGNF' drel='vmod:VGF2'>
9.1	xeKawe	VM	<fs af='xeKa,v,m,sg,any,,wA,wA' name='xeKawe' posn='100'>
9.2	hue	VAUX	<fs af='ho,v,m,sg,any,,yA,yA' name='hue' posn='110'>
9.3	hI	RP	<fs af='hI,avy,,,,,,' name='hI' posn='120'>
	))
10	((	NP	<fs name='NP5' drel='k2:VGF2'>
10.1	koI	PRP	<fs af='koI,pn,any,sg,3,d,0,0' name='koI' posn='130'>
10.2	nirNaya	NN	<fs af='nirNaya,n,m,sg,3,d,0,0' name='nirNaya' posn='140'>
	))
11	((	VGF	<fs voicetype='active' name='VGF2' stype='declarative' drel='ccof:NULL__CCP'>
11.1	liyA	VM	<fs af='le,v,m,sg,any,,yA,yA' name='liyA' posn='150'>
11.2	jAegA	VAUX	<fs af='jA,v,m,sg,3,,gA,gA' name='jAegA' posn='160'>
11.3	,	SYM	<fs af='COMMA,punc,,,,,,' name=',' posn='170'>
	))
12	((	NULL__CCP	<fs mtype='gap' troot='Ora' dmrel='ccof:CCP' name='NULL__CCP'>
12.1	NULL	CC	<fs name='NULL'>
	))
13	((	RBP	<fs name='RBP2' drel='vmod:VGF3'>
13.1	kyA	WQ	<fs af='kyA,pn,,,,,,' name='kyA' posn='180'>
	))
14	((	NP	<fs name='NP6' drel='k2:VGNN'>
14.1	SEkRaNika	JJ	<fs af='SEkRaNika,adj,any,any,,d,,' name='SEkRaNika' posn='190'>
14.2	sawra	NN	<fs af='sawra,n,m,sg,3,d,0,0' name='sawra' posn='200'>
	))
15	((	NP	<fs name='NP7' drel='pof:VGNN'>
15.1	SurU	NN	<fs af='SurU,n,m,sg,3,d,0,0' name='SurU' posn='210'>
	))
16	((	VGNN	<fs name='VGNN' drel='k7t:VGF3'>
16.1	hone	VM	<fs af='ho,v,any,any,any,o,nA,nA' name='hone' posn='220'>
16.2	ke	PSP	<fs af='ke,psp,,,,,,' name='ke' posn='230'>
16.3	bAxa	NST	<fs af='bAxa,nst,m,sg,3,d,,' name='bAxa' posn='240'>
	))
17	((	NP	<fs name='NP8' drel='k7t:VGF3'>
17.1	bIca	NST	<fs af='bIca,nst,m,sg,3,o,,' name='bIca' posn='250'>
17.2	meM	PSP	<fs af='meM,psp,,,,,,' name='meM' posn='260'>
	))
18	((	NP	<fs name='NP9' drel='k2:VGNN2'>
18.1	kiwAbeM	NN	<fs af='kiwAba,n,f,pl,3,d,0,0' name='kiwAbeM' posn='270'>
	))
19	((	VGNN	<fs name='VGNN2' drel='k2:VGF3'>
19.1	baxalanA	VM	<fs af='baxala,v,any,any,any,d,nA,nA' name='baxalanA' posn='280'>
	))
20	((	JJP	<fs name='JJP' drel='pof:VGF3'>
20.1	saMBava	JJ	<fs af='saMBava,adj,any,any,,,,' name='saMBava' posn='290'>
	))
21	((	VGF	<fs voicetype='active' name='VGF3' stype='interrogative' drel='ccof:NULL__CCP'>
21.1	hogA	VM	<fs af='ho,v,m,sg,3,,gA,gA' name='hogA' posn='300'>
	))
22	((	BLK	<fs name='BLK' drel='rsym:VGF'>
22.1	?	SYM	<fs af='.,punc,,,,,,' name='?' posn='310'>
	))
</Sentence>

<Sentence id='13'>
1	((	NP	<fs name='NP' drel='k1:VGF'>
1.1	maMwrAlaya	NN	<fs af='maMwrAlaya,n,m,sg,3,d,0,0' name='maMwrAlaya' posn='10'>
	))
2	((	NP	<fs name='NP2' drel='k7:VGNN'>
2.1	isa	DEM	<fs af='yaha,pn,any,sg,3,o,,' name='isa' posn='20'>
2.2	masale	NN	<fs af='masalA,n,m,sg,3,o,0,0' name='masale' posn='30'>
2.3	para	PSP	<fs af='para,psp,,,,,,' name='para' posn='40'>
	))
3	((	NP	<fs name='NP3' drel='ras-k1:VGNN'>
3.1	skUloM	NN	<fs af='skUla,n,m,pl,3,o,0,0' name='skUloM' posn='50'>
3.2	ke	PSP	<fs af='ke,psp,,,,,,' name='ke' posn='60'>
3.3	sAWa	NST	<fs af='sAWa,nst,m,sg,3,d,,' name='sAWa' posn='70'>
	))
4	((	NP	<fs name='NP4' drel='pof:VGNN'>
4.1	bAwacIwa	NN	<fs af='bAwacIwa,n,f,sg,3,d,0,0' name='bAwacIwa' posn='80'>
	))
5	((	VGNN	<fs name='VGNN' drel='r6-k2:NP5'>
5.1	karane	VM	<fs af='kara,v,any,any,any,o,nA,nA' name='karane' posn='90'>
5.2	kI	PSP	<fs af='kA,psp,f,sg,,d,,' name='kI' posn='100'>
	))
6	((	NP	<fs name='NP5' drel='pof:VGF'>
6.1	wEyArI	NN	<fs af='wEyArI,n,f,sg,3,d,0,0' name='wEyArI' posn='110'>
6.2	BI	RP	<fs af='BI,avy,,,,,,' name='BI' posn='120'>
	))
7	((	VGF	<fs name='VGF' stype='declarative' voicetype='active'>
7.1	kara	VM	<fs af='kara,v,any,any,any,,0,0' name='kara' posn='130'>
7.2	rahA	VAUX	<fs af='raha,v,m,sg,any,,yA,yA' name='rahA' posn='140'>
7.3	hE	VAUX	<fs af='hE,v,any,sg,3,,hE,hE' name='hE' posn='150'>
	))
8	((	BLK	<fs name='BLK' drel='rsym:VGF'>
8.1	.	SYM	<fs af='.,punc,,,,,,' name='.' posn='160'>
	))
</Sentence>

<Sentence id='14'>
1	((	NP	<fs name='NP' drel='k1:VGF'>
1.1	bAsavAna	NNP	<fs af='bAsavAna,n,any,sg,3,o,0,0' name='bAsavAna' posn='10'>
1.2	ne	PSP	<fs af='ne,psp,,,,,,' name='ne' posn='20'>
	))
2	((	VGF	<fs name='VGF' stype='declarative' voicetype='active'>
2.1	kahA	VM	<fs af='kaha,v,m,sg,any,,yA,yA' name='kahA' posn='30'>
	))
3	((	CCP	<fs name='CCP' drel='k2:VGF'>
3.1	ki	CC	<fs af='ki,avy,,,,,,' name='ki' posn='40'>
	))
4	((	NP	<fs name='NP2' drel='k2:VGNN'>
4.1	koI	PRP	<fs af='koI,pn,any,sg,3,d,0,0' name='koI' posn='50'>
4.2	BI	RP	<fs af='BI,avy,,,,,,' name='BI' posn='60'>
4.3	nirNaya	NN	<fs af='nirNaya,n,m,sg,3,d,0,0' name='nirNaya' posn='70'>
	))
5	((	VGNN	<fs name='VGNN' drel='k7t:VGF2'>
5.1	lewe	VM	<fs af='le,v,any,any,any,o,wA,wA' name='lewe' posn='80'>
5.2	samaya	PSP	<fs af='samaya,n,m,,,o,,' name='samaya' posn='90'>
	))
6	((	NP	<fs name='NP3' drel='r6:NP4'>
6.1	CAwroM	NN	<fs af='CAwra,n,m,pl,3,o,0,0' name='CAwroM' posn='100'>
6.2	ke	PSP	<fs af='kA,psp,m,pl,,o,,' name='ke' posn='110'>
	))
7	((	NP	<fs name='NP4' drel='r6:NP5'>
7.1	hiwoM	NN	<fs af='hiwa,n,m,pl,3,o,0,0' name='hiwoM' posn='120'>
7.2	kA	PSP	<fs af='kA,psp,m,sg,,d,,' name='kA' posn='130'>
	))
8	((	NP	<fs name='NP5' drel='k2:VGF2'>
8.1	pUrA	JJ	<fs af='pUrA,adj,m,sg,,d,,' name='pUrA' posn='140'>
8.2	KyAla	NN	<fs af='KyAla,n,m,sg,3,d,0,0' name='KyAla' posn='150'>
	))
9	((	VGF	<fs voicetype='passive' name='VGF2' stype='declarative' drel='ccof:CCP'>
9.1	raKA	VM	<fs af='raKa,v,m,sg,any,,yA,yA' name='raKA' posn='160'>
9.2	jAegA	VAUX	<fs af='jA,v,m,sg,3,,gA,gA' name='jAegA' posn='170'>
	))
10	((	BLK	<fs name='BLK' drel='rsym:VGF'>
10.1	.	SYM	<fs af='.,punc,,,,,,' name='.' posn='180'>
	))
</Sentence>

