<Sentence id='1'>
1	((	NP	<fs name='NP' drel='k1:VGF'>
1.1	kuvEwa	NNPC	<fs af='kuvEwa,n,m,sg,3,d,0,0' name='kuvEwa' posn='10'>
1.2	sarakAra	NNP	<fs af='sarakAra,n,f,sg,3,o,0,0' name='sarakAra' posn='20'>
1.3	ne	PSP	<fs af='ne,psp,,,,,,' name='ne' posn='30'>
	))
2	((	NP	<fs name='NP2' drel='k7t:VGF'>
2.1	AgAmI	JJ	<fs af='AgAmI,adj,any,any,,o,,' name='AgAmI' posn='40'>
2.2	eka	NNPC	<fs af='eka,adj,any,sg,3,d,0,0' name='eka' posn='50'>
2.3	julAI	NNP	<fs af='julAI,n,f,sg,3,o,0,0' name='julAI' posn='60'>
2.4	se	PSP	<fs af='se,psp,,,,,,' name='se' posn='70'>
	))
3	((	NP	<fs name='NP3' drel='ccof:CCP'>
3.1	eyara	NNPC	<fs af='eyara,n,m,sg,3,d,0,0' name='eyara' posn='80'>
3.2	iMdiyA	NNP	<fs af='iMdiyA,n,f,sg,3,o,0,0' name='iMdiyA' posn='90'>
	))
4	((	CCP	<fs name='CCP' drel='r6:NP5'>
4.1	Ora	CC	<fs af='Ora,avy,,,,,,' name='Ora' posn='100'>
	))
5	((	NP	<fs name='NP4' drel='ccof:CCP'>
5.1	iMdiyana	NNPC	<fs af='iMdiyana,adj,any,any,,o,,' name='iMdiyana' posn='50'>
5.2	eyaralAiMsa	NNP	<fs af='eyaralAina,n,f,pl,3,o,0,0' name='eyaralAiMsa' posn='120'>
5.3	ke	PSP	<fs af='kA,psp,m,pl,,o,,' name='ke' posn='130'>
	))
6	((	NP	<fs name='NP5' drel='k2:VGF'>
6.1	vimAnoM	NN	<fs af='vimAna,n,m,pl,3,o,0,0' name='vimAnoM' posn='140'>
6.2	ko	PSP	<fs af='ko,psp,,,,,,' name='ko' posn='150'>
	))
7	((	NP	<fs name='NP6' drel='k7p:NP7'>
7.1	xeSa	NN	<fs af='xeSa,n,m,sg,3,o,0,0' name='xeSa' posn='160'>
7.2	meM	PSP	<fs af='meM,psp,,,,,,' name='meM' posn='170'>
	))
8	((	NP	<fs name='NP7' drel='k7:VGF'>
8.1	praveSa	NN	<fs af='praveSa,n,m,sg,3,o,0,0' name='praveSa' posn='180'>
8.2	para	PSP	<fs af='para,psp,,,,,,' name='para' posn='190'>
	))
9	((	NP	<fs name='NP8' drel='pof:VGF'>
9.1	roka	NN	<fs af='roka,n,f,sg,3,d,0,0' name='roka' posn='200'>
	))
10	((	VGF	<fs name='VGF' stype='declarative' voicetype='active'>
10.1	lagA	VM	<fs af='lagA,v,any,any,any,,0,0' name='lagA' posn='210'>
10.2	xI	VAUX	<fs af='xe,v,f,sg,any,,yA,yA' name='xI' posn='220'>
10.3	hE	VAUX	<fs af='hE,v,any,sg,3,,hE,hE' name='hE' posn='230'>
	))
11	((	BLK	<fs name='BLK' drel='rsym:VGF'>
11.1	.	SYM	<fs af='.,punc,,,,,,' name='.' posn='240'>
	))
</Sentence>

<Sentence id='2'>
1	((	NP	<fs name='NP' drel='k1:VGF'>
1.1	yaha	DEM	<fs af='yaha,pn,any,sg,3,d,,' name='yaha' posn='10'>
1.2	prawibaMXa	NN	<fs af='prawibaMXa,n,m,sg,3,d,0,0' name='prawibaMXa' posn='20'>
	))
2	((	NP	<fs name='NP2' drel='k5:VGF'>
2.1	eka	NNPC	<fs af='eka,n,any,sg,3,d,0,0' name='eka' posn='30'>
2.2	julAI	NNPC	<fs af='julAI,null,f,sg,3,d,0,0' name='julAI' posn='40'>
2.3	,	SYM	<fs af='COMMA,punc,,,,,,' name=',' posn='50'>
2.4	2007	NNP	<fs af='2007,n,any,sg,3,o,0,0' name='2007' posn='60'>
2.5	se	PSP	<fs af='se,psp,,,,,,' name='se' posn='70'>
	))
3	((	JJP	<fs name='JJP' drel='pof:VGF'>
3.1	lAgU	JJ	<fs af='lAgU,adj,any,any,,,,' name='lAgU' posn='80'>
	))
4	((	VGF	<fs name='VGF' stype='declarative' voicetype='active'>
4.1	hogA	VM	<fs af='ho,v,m,sg,3,,gA,gA' name='hogA' posn='90'>
	))
5	((	BLK	<fs name='BLK' drel='rsym:VGF'>
5.1	.	SYM	<fs af='.,punc,,,,,,' name='.' posn='100'>
	))
</Sentence>

<Sentence id='3'>
1	((	NP	<fs name='NP' drel='k1:VGF'>
1.1	kuvEwa	NNP	<fs af='kuvEwa,n,m,sg,3,o,0,0' name='kuvEwa' posn='10'>
1.2	ne	PSP	<fs af='ne,psp,,,,,,' name='ne' posn='20'>
	))
2	((	NP	<fs name='NP2' drel='k7:VGNF'>
2.1	BArawa	NNPC	<fs af='BArawa,n,m,sg,3,d,0,0' name='BArawa' posn='30'>
2.2	sarakAra	NNP	<fs af='sarakAra,n,f,sg,3,o,0,0' name='sarakAra' posn='40'>
2.3	para	PSP	<fs af='para,psp,,,,,,' name='para' posn='50'>
	))
3	((	NP	<fs name='NP3' drel='r6:NP4'>
3.1	vimAnoM	NN	<fs af='vimAna,n,m,pl,3,o,0,0' name='vimAnoM' posn='60'>
3.2	kI	PSP	<fs af='kA,psp,f,pl,,o,,' name='kI' posn='70'>
	))
4	((	NP	<fs name='NP4' drel='jjmod:JJP'>
4.1	AvAjAhI	NN	<fs af='AvAjAhI,n,f,sg,3,o,0,0' name='AvAjAhI' posn='80'>
4.2	se	PSP	<fs af='se,psp,,,,,,' name='se' posn='90'>
	))
5	((	JJP	<fs name='JJP' drel='nmod:NP5'>
5.1	saMbaMXiwa	JJ	<fs af='saMbaMXiwa,adj,any,any,,o,,' name='saMbaMXiwa' posn='100'>
	))
6	((	NP	<fs name='NP5' drel='r6-k2:NP6'>
6.1	eka	QC	<fs af='eka,num,any,any,,any,,' name='eka' posn='110'>
6.2	samaJOwe	NN	<fs af='samaJOwA,n,m,sg,3,o,0,0' name='samaJOwe' posn='120'>
6.3	kA	PSP	<fs af='kA,psp,m,sg,,d,,' name='kA' posn='130'>
	))
7	((	NP	<fs name='NP6' drel='pof:VGNN'>
7.1	pAlana	NN	<fs af='pAlana,n,m,sg,3,d,0,0' name='pAlana' posn='140'>
	))
8	((	VGNN	<fs name='VGNN' drel='r6-k2:NP7'>
8.1	na	NEG	<fs af='na,avy,,,,,,' name='na' posn='150'>
8.2	karane	VM	<fs af='kara,v,any,any,any,o,nA,nA' name='karane' posn='160'>
8.3	kA	PSP	<fs af='kA,psp,m,sg,,d,,' name='kA2' posn='170'>
	))
9	((	NP	<fs name='NP7' drel='pof:VGNF'>
9.1	Aropa	NN	<fs af='Aropa,n,m,sg,3,d,0,0' name='Aropa' posn='180'>
	))
10	((	VGNF	<fs name='VGNF' drel='vmod:VGF'>
10.1	lagAwe	VM	<fs af='lagA,v,m,sg,3,,wA,wA' name='lagAwe' posn='190'>
10.2	hue	VAUX	<fs af='ho,v,m,sg,any,,yA,yA' name='hue' posn='200'>
	))
11	((	NP	<fs name='NP8' drel='pof:VGF'>
11.1	yaha	DEM	<fs af='yaha,pn,any,sg,3,d,,' name='yaha' posn='210'>
11.2	kaxama	NN	<fs af='kaxama,n,m,sg,3,d,0,0' name='kaxama' posn='220'>
	))
12	((	VGF	<fs name='VGF' stype='declarative' voicetype='active'>
12.1	uTAyA	VM	<fs af='uTA,v,m,sg,any,,yA,yA' name='uTAyA' posn='230'>
12.2	hE	VAUX	<fs af='hE,v,any,sg,3,,hE,hE' name='hE' posn='240'>
	))
13	((	BLK	<fs name='BLK' drel='rsym:VGF'>
13.1	.	SYM	<fs af='.,punc,,,,,,' name='.' posn='250'>
	))
</Sentence>

<Sentence id='4'>
1	((	VGF	<fs name='VGF' stype='declarative' voicetype='active'>
1.1	mAnA	VM	<fs af='mAna,v,m,sg,any,,yA,yA' name='mAnA' posn='10'>
1.2	jA	VAUX	<fs af='jA,v,any,any,any,,0,0' name='jA' posn='20'>
1.3	rahA	VAUX	<fs af='raha,v,m,sg,any,,yA,yA' name='rahA' posn='30'>
1.4	hE	VAUX	<fs af='hE,v,any,sg,3,,hE,hE' name='hE' posn='40'>
	))
2	((	CCP	<fs name='CCP' drel='k2:VGF'>
2.1	ki	CC	<fs af='ki,avy,,,,,,' name='ki' posn='50'>
	))
3	((	CCP	<fs name='CCP2' drel='vmod:VGF3'>
3.1	yaxi	CC	<fs af='yaxi,avy,,,,,,' name='yaxi' posn='60'>
	))
4	((	NP	<fs name='NP' drel='k7:VGF2'>
4.1	udZAnoM	NN	<fs af='udAna,n,f,pl,3,o,0,0' name='udZAnoM' posn='70'>
4.2	para	PSP	<fs af='para,psp,,,,,,' name='para' posn='80'>
	))
5	((	NP	<fs name='NP2' drel='k1:VGF2'>
5.1	prawibaMXa	NN	<fs af='prawibaMXa,n,m,sg,3,d,0,0' name='prawibaMXa' posn='90'>
	))
6	((	JJP	<fs name='JJP' drel='pof:VGF2'>
6.1	lAgU	JJ	<fs af='lAgU,adj,any,any,,,,' name='lAgU' posn='100'>
	))
7	((	VGF	<fs voicetype='active' name='VGF2' stype='declarative' drel='ccof:CCP2'>
7.1	ho	VM	<fs af='ho,v,any,any,any,,0,0' name='ho' posn='110'>
7.2	jAwA	VAUX	<fs af='jA,v,m,sg,any,,wA,wA' name='jAwA' posn='120'>
7.3	hE	VAUX	<fs af='hE,v,any,sg,3,,hE,hE' name='hE2' posn='130'>
	))
8	((	CCP	<fs name='CCP3' drel='ccof:CCP'>
8.1	wo	CC	<fs af='wo,avy,,,,,,' name='wo' posn='140'>
	))
9	((	NP	<fs name='NP3' drel='k7t:VGF3'>
9.1	prawixina	NN	<fs af='prawixina,n,m,sg,3,d,0,0' name='prawixina' posn='150'>
	))
10	((	NP	<fs name='NP4' drel='k1:VGF3'>
10.1	hajAroM	QC	<fs af='hajAra,num,any,any,,any,,' name='hajAroM' posn='160'>
10.2	BArawIya	NN	<fs af='BArawIya,n,m,pl,3,d,0,0' name='BArawIya' posn='170'>
	))
11	((	JJP	<fs name='JJP2' drel='pof:VGF3'>
11.1	praBAviwa	JJ	<fs af='praBAviwa,adj,any,any,,,,' name='praBAviwa' posn='180'>
	))
12	((	VGF	<fs voicetype='active' name='VGF3' stype='declarative' drel='ccof:CCP3'>
12.1	hoMge	VM	<fs af='ho,v,m,pl,3,,gA,gA' name='hoMge' posn='190'>
	))
13	((	BLK	<fs name='BLK' drel='rsym:VGF'>
13.1	.	SYM	<fs af='.,punc,,,,,,' name='.' posn='200'>
	))
</Sentence>

<Sentence id='5'>
1	((	NP	<fs name='NP' drel='sent-adv:VGF'>
1.1	xUsarI	QO	<fs af='xUsarA,num,f,sg,,o,,' name='xUsarI' posn='10'>
1.2	ora	NST	<fs af='ora,nst,f,sg,3,d,,' name='ora' posn='20'>
1.3	,	SYM	<fs af='COMMA,punc,,,,,,' name=',' posn='30'>
	))
2	((	NP	<fs name='NP2' drel='k1:VGF'>
2.1	BArawIya	JJ	<fs af='BArawIya,adj,any,any,,o,,' name='BArawIya' posn='40'>
2.2	aXikAriyoM	NN	<fs af='aXikArI,n,m,pl,3,o,0,0' name='aXikAriyoM' posn='50'>
2.3	ne	PSP	<fs af='ne,psp,,,,,,' name='ne' posn='60'>
	))
3	((	VGF	<fs name='VGF' stype='declarative' voicetype='active'>
3.1	kahA	VM	<fs af='kaha,v,m,sg,any,,yA,yA' name='kahA' posn='70'>
3.2	hE	VAUX	<fs af='hE,v,any,sg,3,,hE,hE' name='hE' posn='80'>
	))
4	((	CCP	<fs name='CCP' drel='k2:VGF'>
4.1	ki	CC	<fs af='ki,avy,,,,,,' name='ki' posn='90'>
	))
5	((	NP	<fs name='NP3' drel='k7:VGF2'>
5.1	isa	DEM	<fs af='yaha,pn,any,sg,3,o,,' name='isa' posn='100'>
5.2	saMbaMXa	NN	<fs af='saMbaMXa,n,m,sg,3,o,0,0' name='saMbaMXa' posn='110'>
5.3	meM	PSP	<fs af='meM,psp,,,,,,' name='meM' posn='120'>
	))
6	((	NP	<fs name='NP4' drel='k4:VGF2'>
6.1	kuvEwa	NNPC	<fs af='kuvEwa,n,m,sg,3,d,0,0' name='kuvEwa' posn='130'>
6.2	sarakAra	NNP	<fs af='sarakAra,n,f,sg,3,o,0,0' name='sarakAra' posn='140'>
6.3	se	PSP	<fs af='se,psp,,,,,,' name='se' posn='150'>
	))
7	((	NP	<fs name='NP5' drel='pof:VGF2'>
7.1	bAwacIwa	NN	<fs af='bAwacIwa,n,f,sg,3,d,0,0' name='bAwacIwa' posn='160'>
	))
8	((	VGF	<fs voicetype='active' name='VGF2' stype='declarative' drel='ccof:CCP'>
8.1	kI	VM	<fs af='kara,v,f,sg,any,,yA,yA' name='kI' posn='170'>
8.2	jAegI	VAUX	<fs af='jA,v,f,sg,3,,gA,gA' name='jAegI' posn='180'>
	))
9	((	BLK	<fs name='BLK' drel='rsym:VGF'>
9.1	.	SYM	<fs af='.,punc,,,,,,' name='.' posn='190'>
	))
</Sentence>

<Sentence id='6'>
1	((	NP	<fs name='NP' drel='k1:VGF'>
1.1	prawibaMXa	NN	<fs af='prawibaMXa,n,m,sg,3,d,0,0' name='prawibaMXa' posn='10'>
	))
2	((	JJP	<fs name='JJP' drel='pof:VGF'>
2.1	lAgU	JJ	<fs af='lAgU,adj,any,any,,,,' name='lAgU' posn='20'>
	))
3	((	VGF	<fs voicetype='active' name='VGF' stype='declarative' drel='vmod:VGF2'>
3.1	huA	VM	<fs af='ho,v,m,sg,any,,yA,yA' name='huA' posn='30'>
	))
4	((	CCP	<fs name='CCP'>
4.1	wo	CC	<fs af='wo,avy,,,,,,' name='wo' posn='40'>
	))
5	((	NP	<fs name='NP2' drel='k1:VGF2'>
5.1	yAwrI	NN	<fs af='yAwrI,n,m,pl,3,d,0,0' name='yAwrI' posn='50'>
	))
6	((	VGF	<fs voicetype='active' name='VGF2' stype='declarative' drel='ccof:CCP'>
6.1	hoMge	VM	<fs af='ho,v,m,pl,3,,gA,gA' name='hoMge' posn='60'>
	))
7	((	JJP	<fs name='JJP2' drel='pof:VGF2'>
7.1	praBAviwa	JJ	<fs af='praBAviwa,adj,any,any,,,,' name='praBAviwa' posn='70'>
	))
8	((	BLK	<fs name='BLK' drel='rsym:CCP'>
8.1	.	SYM	<fs af='.,punc,,,,,,' name='.' posn='190'>
	))
</Sentence>

<Sentence id='7'>
1	((	NP	<fs name='NP' drel='k1:VGF'>
1.1	kuvEwa	NNPC	<fs af='kuvEwa,n,m,sg,3,d,0,0' name='kuvEwa' posn='80'>
1.2	sarakAra	NNP	<fs af='sarakAra,n,f,sg,3,o,0,0' name='sarakAra' posn='90'>
1.3	ne	PSP	<fs af='ne,psp,,,,,,' name='ne' posn='100'>
	))
2	((	NP	<fs name='NP2' drel='pof:VGF'>
2.1	yaha	DEM	<fs af='yaha,pn,any,sg,3,d,,' name='yaha' posn='110'>
2.2	kaxama	NN	<fs af='kaxama,n,m,sg,3,d,0,0' name='kaxama' posn='120'>
	))
3	((	NP	<fs name='NP3' drel='k5:VGNN'>
3.1	BArawa	NNP	<fs af='BArawa,n,m,sg,3,o,0,0' name='BArawa' posn='130'>
3.2	se	PSP	<fs af='se,psp,,,,,,' name='se' posn='140'>
	))
4	((	NP	<fs name='NP4' drel='pof:VGNN'>
4.1	udZAna	NN	<fs af='udAna,n,f,sg,3,d,0,0' name='udZAna' posn='150'>
	))
5	((	VGNN	<fs name='VGNN' drel='nmod:NP5'>
5.1	Barane	VM	<fs af='Bara,v,any,any,any,o,nA,nA' name='Barane' posn='160'>
5.2	vAle	PSP	<fs af='vAlA,psp,m,pl,,o,,' name='vAle' posn='170'>
	))
6	((	NP	<fs name='NP5' drel='r6:NP6'>
6.1	kuvEwI	JJ	<fs af='kuvEwI,adj,any,any,,o,,' name='kuvEwI' posn='180'>
6.2	vimAnoM	NN	<fs af='vimAna,n,m,pl,3,o,0,0' name='vimAnoM' posn='190'>
6.3	kI	PSP	<fs af='kA,psp,f,sg,,d,,' name='kI' posn='200'>
	))
7	((	NP	<fs name='NP6' drel='k1:VGNN2'>
7.1	saMKyA	NN	<fs af='saMKyA,n,f,sg,3,d,0,0' name='saMKyA' posn='210'>
	))
8	((	VGNN	<fs name='VGNN2' drel='r6:NP7'>
8.1	baDZAe	VM	<fs af='baDA,v,m,sg,any,,yA,yA' name='baDZAe' posn='220'>
8.2	jAne	VAUX	<fs af='jA,v,any,any,any,o,nA,nA' name='jAne' posn='230'>
8.3	ke	PSP	<fs af='kA,psp,m,sg,,o,,' name='ke' posn='240'>
	))
9	((	NP	<fs name='NP7' drel='k7:VGNN3'>
9.1	masale	NN	<fs af='masalA,n,m,sg,3,o,0,0' name='masale' posn='250'>
9.2	para	PSP	<fs af='para,psp,,,,,,' name='para' posn='260'>
	))
10	((	NP	<fs name='NP8' drel='pof:VGNN3'>
10.1	ruci	NN	<fs af='ruci,n,f,sg,3,d,0,0' name='ruci' posn='270'>
	))
11	((	VGNN	<fs name='VGNN3' drel='k7:VGF'>
11.1	na	NEG	<fs af='na,avy,,,,,,' name='na' posn='280'>
11.2	xiKAne	VM	<fs af='xiKA,v,any,any,any,o,nA,nA' name='xiKAne' posn='290'>
11.3	para	PSP	<fs af='para,psp,,,,,,' name='para2' posn='300'>
	))
12	((	VGF	<fs name='VGF' stype='declarative' voicetype='active'>
12.1	uTAyA	VM	<fs af='uTA,v,m,sg,any,,yA,yA' name='uTAyA' posn='310'>
12.2	hE	VAUX	<fs af='hE,v,any,sg,3,,hE,hE' name='hE' posn='320'>
	))
13	((	BLK	<fs name='BLK' drel='rsym:VGF'>
13.1	.	SYM	<fs af='.,punc,,,,,,' name='.' posn='330'>
	))
</Sentence>

<Sentence id='8'>
1	((	NULL__NP	<fs mtype='gap' troot='yaha' dmrel='k1:VGF' name='NULL__NP'>
1.1	NULL	PRP	<fs name='NULL' cat='pn'>
	))
2	((	JJP	<fs name='JJP' drel='k1s:VGF'>
2.1	ulleKanIya	JJ	<fs af='ulleKanIya,adj,any,any,,,,' name='ulleKanIya' posn='10'>
	))
3	((	VGF	<fs name='VGF' stype='declarative' voicetype='active'>
3.1	hE	VM	<fs af='hE,v,any,sg,3,,hE,hE' name='hE' posn='20'>
	))
4	((	CCP	<fs name='CCP' drel='rs:NULL__NP'>
4.1	ki	CC	<fs af='ki,avy,,,,,,' name='ki' posn='30'>
	))
5	((	NP	<fs name='NP' drel='ccof:CCP2'>
5.1	BArawa	NNP	<fs af='BArawa,n,m,sg,3,d,0,0' name='BArawa' posn='40'>
	))
6	((	CCP	<fs name='CCP2' drel='k7:VGF2'>
6.1	Ora	CC	<fs af='Ora,avy,,,,,,' name='Ora' posn='50'>
	))
7	((	NP	<fs name='NP2' drel='ccof:CCP2'>
7.1	kuvEwa	NNP	<fs af='kuvEwa,n,m,sg,3,o,0,0' name='kuvEwa' posn='60'>
7.2	ke	PSP	<fs af='ke,psp,,,,,,' name='ke' posn='70'>
7.3	bIca	NST	<fs af='bIca,nst,m,sg,3,d,,' name='bIca' posn='80'>
	))
8	((	NP	<fs name='NP3' drel='k7t:VGF2'>
8.1	isase	PRP	<fs af='yaha,pn,any,sg,3,o,se,se' name='isase' posn='90'>
8.2	pahale	NST	<fs af='pahale,nst,m,sg,3,d,,' name='pahale' posn='100'>
	))
9	((	NP	<fs name='NP4' drel='r6:NP5'>
9.1	udZAnoM	NN	<fs af='udAna,n,f,pl,3,o,0,0' name='udZAnoM' posn='110'>
9.2	kI	PSP	<fs af='kA,psp,f,sg,,d,,' name='kI' posn='120'>
	))
10	((	NP	<fs name='NP5' drel='k1:VGNN'>
10.1	saMKyA	NN	<fs af='saMKyA,n,f,sg,3,d,0,0' name='saMKyA' posn='130'>
	))
11	((	VGNN	<fs name='VGNN' drel='k2:VGNF'>
11.1	baDZAne	VM	<fs af='baDA,v,any,any,any,o,nA,nA' name='baDZAne' posn='140'>
11.2	ko	PSP	<fs af='ko,psp,,,,,,' name='ko' posn='150'>
	))
12	((	VGNF	<fs name='VGNF' drel='vmod:VGF2'>
12.1	lekara	VM	<fs af='le,v,any,any,any,,kara,kara' name='lekara' posn='160'>
	))
13	((	NP	<fs name='NP6' drel='pof:VGF2'>
13.1	eka	QC	<fs af='eka,num,any,any,,any,,' name='eka' posn='170'>
13.2	samaJOwA	NN	<fs af='samaJOwA,n,m,sg,3,d,0,0' name='samaJOwA' posn='180'>
13.3	BI	RP	<fs af='BI,avy,,,,,,' name='BI' posn='190'>
	))
14	((	VGF	<fs voicetype='active' name='VGF2' stype='declarative' drel='ccof:CCP'>
14.1	ho	VM	<fs af='ho,v,any,any,any,,0,0' name='ho' posn='200'>
14.2	cukA	VAUX	<fs af='cuka,v,m,sg,any,,yA,yA' name='cukA' posn='210'>
14.3	hE	VAUX	<fs af='hE,v,any,sg,3,,hE,hE' name='hE2' posn='220'>
	))
15	((	BLK	<fs name='BLK' drel='rsym:VGF'>
15.1	.	SYM	<fs af='.,punc,,,,,,' name='.' posn='230'>
	))
</Sentence>

<Sentence id='9'>
1	((	NP	<fs name='NP' drel='k1:VGNN'>
1.1	kuvEwa	NNP	<fs af='kuvEwa,n,m,sg,3,o,0,0' name='kuvEwa' posn='10'>
1.2	kA	PSP	<fs af='kA,psp,m,sg,,d,,' name='kA' posn='20'>
	))
2	((	VGNN	<fs name='VGNN' drel='k1:VGF'>
2.1	kahanA	VM	<fs af='kaha,v,any,any,any,d,nA,nA' name='kahanA' posn='30'>
	))
3	((	VGF	<fs name='VGF' stype='declarative' voicetype='active'>
3.1	hE	VM	<fs af='hE,v,any,sg,3,,hE,hE' name='hE' posn='40'>
	))
4	((	CCP	<fs name='CCP' drel='k2:VGNN'>
4.1	ki	CC	<fs af='ki,avy,,,,,,' name='ki' posn='50'>
	))
5	((	NP	<fs name='NP2' drel='k1:VGF2'>
5.1	BArawa	NNP	<fs af='BArawa,n,m,sg,3,d,0,0' name='BArawa' posn='60'>
	))
6	((	NP	<fs name='NP3' drel='k7t:VGF2'>
6.1	aba	PRP	<fs af='aba,pn,,,,d,,' name='aba' posn='70'>
	))
7	((	NP	<fs name='NP4' drel='rd:VGF2'>
7.1	isa	DEM	<fs af='yaha,pn,any,sg,3,o,,' name='isa' posn='80'>
7.2	samaJOwe	NN	<fs af='samaJOwA,n,m,sg,3,o,0,0' name='samaJOwe' posn='90'>
7.3	se	PSP	<fs af='se,psp,,,,,,' name='se' posn='100'>
7.4	pICe	NST	<fs af='pICA,nst,m,sg,3,d,,' name='pICe' posn='110'>
	))
8	((	VGF	<fs voicetype='active' name='VGF2' stype='declarative' drel='ccof:CCP'>
8.1	hata	VM	<fs af='hata,v,any,any,any,,0,0' name='hata' posn='120'>
8.2	rahA	VAUX	<fs af='raha,v,m,sg,any,,yA,yA' name='rahA' posn='130'>
8.3	hE	VAUX	<fs af='hE,v,any,sg,3,,hE,hE' name='hE2' posn='140'>
	))
9	((	BLK	<fs name='BLK' drel='rsym:VGF'>
9.1	.	SYM	<fs af='.,punc,,,,,,' name='.' posn='150'>
	))
</Sentence>

<Sentence id='10'>
1	((	RBP	<fs name='RBP' drel='sent-adv:VGF'>
1.1	xaraasala	RB	<fs af='xaraasala,adv,,,,,,' name='xaraasala' posn='10'>
	))
2	((	NP	<fs name='NP' drel='k1:VGF'>
2.1	kuvEwa	NNP	<fs af='kuvEwa,n,m,sg,3,d,0,0' name='kuvEwa' posn='20'>
	))
3	((	VGF	<fs name='VGF' stype='declarative' voicetype='active'>
3.1	cAhawA	VM	<fs af='cAha,v,m,sg,any,,wA,wA' name='cAhawA' posn='30'>
3.2	hE	VAUX	<fs af='hE,v,any,sg,3,,hE,hE' name='hE' posn='40'>
	))
4	((	CCP	<fs name='CCP' drel='k2:VGF'>
4.1	ki	CC	<fs af='ki,avy,,,,,,' name='ki' posn='50'>
	))
5	((	NP	<fs name='NP2' drel='r6:NP3'>
5.1	usakI	PRP	<fs af='vaha,pn,f,sg,3,o,kA,kA' name='usakI' posn='60'>
	))
6	((	NP	<fs name='NP3' drel='r6:NP4'>
6.1	eka	QC	<fs af='eka,num,any,any,,any,,' name='eka' posn='70'>
6.2	eyaralAiMsa	NN	<fs af='eyaralAina,n,f,sg,3,o,0,0' name='eyaralAiMsa' posn='80'>
6.3	kI	PSP	<fs af='kA,psp,f,sg,,o,,' name='kI' posn='90'>
	))
7	((	NP	<fs name='NP4' drel='k5:VGF2'>
7.1	BArawa	NNP	<fs af='BArawa,n,m,sg,3,o,0,0' name='BArawa' posn='100'>
7.2	se	PSP	<fs af='se,psp,,,,,,' name='se' posn='110'>
	))
8	((	NP	<fs name='NP5' drel='k2:VGF2'>
8.1	udZAnoM	NN	<fs af='udAna,n,f,pl,3,o,0,0' name='udZAnoM' posn='120'>
8.2	ko	PSP	<fs af='ko,psp,,,,,,' name='ko' posn='130'>
	))
9	((	VGF	<fs voicetype='active' name='VGF2' stype='declarative' drel='ccof:CCP2'>
9.1	baDZA	VM	<fs af='baDa,v,m,sg,any,,yA,yA' name='baDZA' posn='140'>
9.2	xiyA	VAUX	<fs af='xe,v,m,sg,any,,yA,yA' name='xiyA' posn='150'>
9.3	jAe	VAUX	<fs af='jA,v,m,sg,any,,eM,eM' name='jAe' posn='160'>
	))
10	((	CCP	<fs name='CCP2' drel='ccof:CCP'>
10.1	lekina	CC	<fs af='lekina,avy,,,,,,' name='lekina' posn='170'>
	))
11	((	NP	<fs name='NP6' drel='k1:VGF3'>
11.1	BArawa	NNP	<fs af='BArawa,n,m,sg,3,d,0,0' name='BArawa2' posn='180'>
	))
12	((	NP	<fs name='NP7' drel='r6-k2:NP8'>
12.1	isakI	PRP	<fs af='yaha,pn,f,sg,3,o,kA,kA' name='isakI' posn='190'>
	))
13	((	NP	<fs name='NP8' drel='pof:VGF3'>
13.1	svIkqwi	NN	<fs af='svIkqwi,n,f,sg,3,d,0,0' name='svIkqwi' posn='200'>
	))
14	((	VGF	<fs voicetype='active' name='VGF3' stype='declarative' drel='ccof:CCP2'>
14.1	nahIM	NEG	<fs af='nahIM,avy,,,,,,' name='nahIM' posn='210'>
14.2	xe	VM	<fs af='xe,v,any,any,any,,0,0' name='xe' posn='220'>
14.3	rahA	VAUX	<fs af='raha,v,m,sg,any,,yA,yA' name='rahA' posn='230'>
	))
15	((	BLK	<fs name='BLK' drel='rsym:VGF'>
15.1	.	SYM	<fs af='.,punc,,,,,,' name='.' posn='240'>
	))
</Sentence>

<Sentence id='11'>
1	((	CCP	<fs name='CCP'>
1.1	jabaki	CC	<fs af='jabaki,avy,,,,,,' name='jabaki' posn='10'>
	))
2	((	NP	<fs name='NP' drel='k1:VGNN'>
2.1	jAnakAroM	NN	<fs af='jAnakAra,n,f,pl,3,o,0,0' name='jAnakAroM' posn='20'>
2.2	kA	PSP	<fs af='kA,psp,m,sg,,d,,' name='kA' posn='30'>
	))
3	((	VGNN	<fs name='VGNN' drel='k1:VGF'>
3.1	mAnanA	VM	<fs af='mAna,v,any,any,any,d,nA,nA' name='mAnanA' posn='40'>
	))
4	((	VGF	<fs voicetype='active' name='VGF' stype='declarative' drel='ccof:CCP'>
4.1	hE	VM	<fs af='hE,v,any,sg,3,,hE,hE' name='hE' posn='50'>
	))
5	((	CCP	<fs name='CCP2' drel='k2:VGNN'>
5.1	ki	CC	<fs af='ki,avy,,,,,,' name='ki' posn='60'>
	))
6	((	NP	<fs name='NP2' drel='k1:VGF2'>
6.1	BArawa	NNP	<fs af='BArawa,n,m,sg,3,o,0,0' name='BArawa' posn='70'>
6.2	ne	PSP	<fs af='ne,psp,,,,,,' name='ne' posn='80'>
	))
7	((	NP	<fs name='NP3' drel='k2:VGF2'>
7.1	yaha	DEM	<fs af='yaha,pn,any,sg,3,d,,' name='yaha' posn='90'>
7.2	kaxama	NN	<fs af='kaxama,n,m,sg,3,d,0,0' name='kaxama' posn='100'>
	))
8	((	NP	<fs name='NP4' drel='r6:NP5'>
8.1	apanI	PRP	<fs af='apanA,pn,f,any,any,o,0,0' name='apanI' posn='110'>
	))
9	((	NP	<fs name='NP5' drel='r6:NP6'>
9.1	vimAna	NNC	<fs af='vimAna,n,m,sg,3,d,0,0' name='vimAna' posn='120'>
9.2	sevAoM	NN	<fs af='sevA,n,f,pl,3,o,0,0' name='sevAoM' posn='130'>
9.3	ke	PSP	<fs af='kA,psp,m,sg,,o,,' name='ke' posn='140'>
	))
10	((	NP	<fs name='NP6' drel='k2:VGNF'>
10.1	hiwa	NN	<fs af='hiwa,n,m,sg,3,o,0,0' name='hiwa' posn='150'>
10.2	ko	PSP	<fs af='ko,psp,,,,,,' name='ko' posn='160'>
	))
11	((	NP	<fs name='NP7' drel='k7:VGNF'>
11.1	XyAna	NN	<fs af='XyAna,n,m,sg,3,o,0,0' name='XyAna' posn='170'>
11.2	meM	PSP	<fs af='meM,psp,,,,,,' name='meM' posn='180'>
	))
12	((	VGNF	<fs name='VGNF' drel='vmod:VGF2'>
12.1	raKakara	VM	<fs af='raKa,v,any,any,any,,kara,kara' name='raKakara' posn='190'>
	))
13	((	VGF	<fs voicetype='active' name='VGF2' stype='declarative' drel='ccof:CCP2'>
13.1	uTAyA	VM	<fs af='uTA,v,m,sg,any,,yA,yA' name='uTAyA' posn='200'>
13.2	hE	VAUX	<fs af='hE,v,any,sg,3,,hE,hE' name='hE2' posn='210'>
	))
14	((	BLK	<fs name='BLK' drel='rsym:CCP'>
14.1	.	SYM	<fs af='.,punc,,,,,,' name='.' posn='220'>
	))
</Sentence>

<Sentence id='12'>
1	((	NP	<fs name='NP' drel='r6:NP2'>
1.1	maMwrAlaya	NN	<fs af='maMwrAlaya,n,m,sg,3,o,0,0' name='maMwrAlaya' posn='10'>
1.2	ke	PSP	<fs af='kA,psp,m,sg,,o,,' name='ke' posn='20'>
	))
2	((	NP	<fs name='NP2' drel='k7a:VGF'>
2.1	eka	QC	<fs af='eka,num,any,any,,any,,' name='eka' posn='30'>
2.2	aXikArI	NN	<fs af='aXikArI,n,m,sg,3,o,0,0' name='aXikArI' posn='40'>
2.3	ke	PSP	<fs af='ke,psp,,,,,,' name='ke2' posn='50'>
2.4	muwAbika	PSP	<fs af='muwAbika,psp,,,,,,' name='muwAbika' posn='60'>
	))
3	((	NP	<fs name='NP3' drel='ras-k1:VGF'>
3.1	kuvEwI	JJ	<fs af='kuvEwI,adj,any,any,,o,,' name='kuvEwI' posn='70'>
3.2	aXikAriyoM	NN	<fs af='aXikArI,n,m,pl,3,o,0,0' name='aXikAriyoM' posn='80'>
3.3	ke	PSP	<fs af='ke,psp,,,,,,' name='ke3' posn='90'>
3.4	sAWa	NST	<fs af='sAWa,nst,m,sg,3,d,,' name='sAWa' posn='100'>
	))
4	((	NP	<fs name='NP4' drel='k1:VGNN'>
4.1	cAlU	JJ	<fs af='cAlU,adj,any,any,,o,,' name='cAlU' posn='110'>
4.2	mAha	NN	<fs af='mAha,n,m,sg,3,o,0,0' name='mAha' posn='120'>
4.3	ke	PSP	<fs af='kA,psp,m,sg,,o,,' name='ke4' posn='130'>
	))
5	((	JJP	<fs name='JJP' drel='pof:VGNN'>
5.1	samApwa	JJ	<fs af='samApwa,adj,any,any,,,,' name='samApwa' posn='140'>
	))
6	((	VGNN	<fs name='VGNN' drel='k7t:VGF'>
6.1	hone	VM	<fs af='ho,v,any,any,any,o,nA,nA' name='hone' posn='150'>
6.2	se	PSP	<fs af='se,psp,,,,,,' name='se' posn='160'>
6.3	pahale	NST	<fs af='pahale,nst,m,sg,3,d,,' name='pahale' posn='170'>
6.4	hI	RP	<fs af='hI,avy,,,,,,' name='hI' posn='180'>
	))
7	((	NP	<fs name='NP5' drel='pof:VGF'>
7.1	eka	QC	<fs af='eka,num,any,any,,any,,' name='eka2' posn='190'>
7.2	bETaka	NN	<fs af='bETaka,n,f,sg,3,d,0,0' name='bETaka' posn='200'>
	))
8	((	VGF	<fs name='VGF' stype='declarative' voicetype='active'>
8.1	kI	VM	<fs af='kara,v,f,sg,any,,yA,yA' name='kI' posn='210'>
8.2	jAegI	VAUX	<fs af='jA,v,f,sg,3,,gA,gA' name='jAegI' posn='220'>
	))
9	((	BLK	<fs name='BLK' drel='rsym:VGF'>
9.1	.	SYM	<fs af='.,punc,,,,,,' name='.' posn='230'>
	))
</Sentence>

<Sentence id='13'>
1	((	NP	<fs name='NP' drel='k7:VGNN'>
1.1	isa	DEM	<fs af='yaha,pn,any,sg,3,o,,' name='isa' posn='10'>
1.2	bETaka	NN	<fs af='bETaka,n,f,sg,3,o,0,0' name='bETaka' posn='20'>
1.3	meM	PSP	<fs af='meM,psp,,,,,,' name='meM' posn='30'>
	))
2	((	JJP	<fs name='JJP' drel='pof:VGNN'>
2.1	SAmila	JJ	<fs af='SAmila,adj,any,any,,,,' name='SAmila' posn='40'>
	))
3	((	VGNN	<fs name='VGNN' drel='rt:VGF'>
3.1	hone	VM	<fs af='ho,v,any,any,any,o,nA,nA' name='hone' posn='50'>
3.2	ke	PSP	<fs af='ke,psp,,,,,,' name='ke' posn='60'>
3.3	lie	PSP	<fs af='lie,psp,,,,,,' name='lie' posn='70'>
	))
4	((	NP	<fs name='NP2' drel='r6:NP3'>
4.1	nAgarika	NNPC	<fs af='nAgarika,n,m,sg,3,d,0,0' name='nAgarika' posn='80'>
4.2	uddayana	NNPC	<fs af='uddayana,null,m,sg,3,d,0,0' name='uddayana' posn='90'>
4.3	maMwrAlaya	NNP	<fs af='maMwrAlaya,n,m,sg,3,o,0,0' name='maMwrAlaya' posn='100'>
4.4	ke	PSP	<fs af='kA,psp,m,sg,3h,d,,' name='ke2' posn='110'>
	))
5	((	NP	<fs name='NP3' drel='k1:VGF'>
5.1	eka	QC	<fs af='eka,num,any,any,,any,,' name='eka' posn='120'>
5.2	saMyukwa	NNC	<fs af='saMyukwa,num,any,any,,d,,' name='saMyukwa' posn='130'>
5.3	saciva	NN	<fs af='saciva,n,m,sg,3,d,0,0' name='saciva' posn='140'>
	))
6	((	NP	<fs name='NP4' drel='k2p:VGF'>
6.1	kuvEwa	NNP	<fs af='kuvEwa,n,m,sg,3,d,0,0' name='kuvEwa' posn='150'>
	))
7	((	VGF	<fs name='VGF' stype='declarative' voicetype='active'>
7.1	jAeMge	VM	<fs af='jA,v,m,sg,3h,,gA,gA' name='jAeMge' posn='160'>
	))
8	((	BLK	<fs name='BLK' drel='rsym:VGF'>
8.1	.	SYM	<fs af='.,punc,,,,,,' name='.' posn='170'>
	))
</Sentence>

<Sentence id='14'>
1	((	NP	<fs name='NP' drel='sent-adv:VGF'>
1.1	sAWa	NST	<fs af='sAWa,nst,m,sg,3,d,,' name='sAWa' posn='10'>
1.2	hI	RP	<fs af='hI,avy,,,,,,' name='hI' posn='20'>
	))
2	((	NP	<fs name='NP2' drel='k7p:VGF'>
2.1	kuvEwa	NNP	<fs af='kuvEwa,n,m,sg,3,o,0,0' name='kuvEwa' posn='30'>
2.2	meM	PSP	<fs af='meM,psp,,,,,,' name='meM' posn='40'>
	))
3	((	NP	<fs name='NP3' drel='r6:NP4'>
3.1	BArawa	NNP	<fs af='BArawa,n,m,sg,3,o,0,0' name='BArawa' posn='50'>
3.2	ke	PSP	<fs af='kA,psp,m,sg,,o,,' name='ke' posn='60'>
	))
4	((	NP	<fs name='NP4' drel='k1:VGF'>
4.1	rAjaxUwa	NN	<fs af='rAjaxUwa,n,m,sg,3,d,0,0' name='rAjaxUwa' posn='70'>
4.2	BI	RP	<fs af='BI,avy,,,,,,' name='BI' posn='80'>
	))
5	((	NP	<fs name='NP5' drel='k7:VGF'>
5.1	isa	DEM	<fs af='yaha,pn,any,sg,3,o,,' name='isa' posn='90'>
5.2	bETaka	NN	<fs af='bETaka,n,f,sg,3,o,0,0' name='bETaka' posn='100'>
5.3	meM	PSP	<fs af='meM,psp,,,,,,' name='meM2' posn='110'>
	))
6	((	JJP	<fs name='JJP' drel='pof:VGF'>
6.1	SAmila	JJ	<fs af='SAmila,adj,any,any,,,,' name='SAmila' posn='120'>
	))
7	((	VGF	<fs name='VGF' stype='declarative' voicetype='active'>
7.1	hoMge	VM	<fs af='ho,v,m,sg,3h,,gA,gA' name='hoMge' posn='130'>
	))
8	((	BLK	<fs name='BLK' drel='rsym:VGF'>
8.1	.	SYM	<fs af='.,punc,,,,,,' name='.' posn='140'>
	))
</Sentence>

<Sentence id='15'>
1	((	NP	<fs comment='probsent' name='NP' drel='ccof:CCP'>
1.1	eyara	NNPC	<fs af='eyara,n,f,sg,3,d,0,0' name='eyara' posn='10'>
1.2	iMdiyA	NNP	<fs af='iMdiyA,n,f,sg,3,o,0,0' name='iMdiyA' posn='20'>
	))
2	((	CCP	<fs comment='probsent' name='CCP'>
2.1	Ora	CC	<fs af='Ora,avy,,,,,,' name='Ora' posn='30'>
	))
3	((	NP	<fs name='NP2' drel='ccof:CCP'>
3.1	iMdiyana	JJ	<fs af='iMdiyana,adj,any,any,,o,,' name='iMdiyana' posn='40'>
3.2	vimAna	NNC	<fs af='vimAna,adj,m,sg,3,d,0,0' name='vimAna' posn='50'>
3.3	sevAoM	NN	<fs af='sevA,n,f,pl,3,o,0,0' name='sevAoM' posn='60'>
3.4	ko	PSP	<fs af='ko,psp,,,,,,' name='ko' posn='70'>
	))
4	((	NP	<fs name='NP3'>
4.1	notisa	NN	<fs af='notisa,n,m,sg,3,d,0,0' name='notisa' posn='80'>
	))
</Sentence>

<Sentence id='16'>
1	((	NP	<fs name='NP' drel='ccof:CCP'>
1.1	'1	SYM	<fs af='1,punc,,,,,,' name=''1' posn='90'>
1.2	eyara	NNPC	<fs af='eyara,s,f,sg,3,d,0,0' name='eyara' posn='100'>
1.3	iMdiyA	NNP	<fs af='iMdiyA,n,f,sg,3,o,0,0' name='iMdiyA' posn='110'>
1.4	'2	SYM	<fs af='2,punc,,,,,,' name=''2' posn='120'>
	))
2	((	CCP	<fs name='CCP' drel='k4:VGF'>
2.1	Ora	CC	<fs af='Ora,avy,,,,,,' name='Ora' posn='130'>
	))
3	((	NP	<fs name='NP2' drel='ccof:CCP'>
3.1	'1	SYM	<fs af='1,punc,,,,,,' name=''12' posn='140'>
3.2	iMdiyana	JJ	<fs af='iMdiyana,adj,any,any,,o,,' name='iMdiyana' posn='40'>
3.3	'2	SYM	<fs af='2,punc,,,,,,' name=''22' posn='160'>
3.4	vimAna	NNC	<fs af='vimAna,s,m,sg,3,d,0,0' name='vimAna' posn='170'>
3.5	sevAoM	NN	<fs af='sevA,n,f,pl,3,o,0,0' name='sevAoM' posn='180'>
3.6	ko	PSP	<fs af='ko,psp,,,,,,' name='ko' posn='190'>
	))
4	((	NP	<fs name='NP3' drel='pof:VGF'>
4.1	notisa	NN	<fs af='notisa,n,m,sg,3,d,0,0' name='notisa' posn='200'>
	))
5	((	VGF	<fs name='VGF' stype='declarative' voicetype='active'>
5.1	xe	VM	<fs af='xe,v,any,any,any,,0,0' name='xe' posn='210'>
5.2	xiyA	VAUX	<fs af='xe,v,m,sg,any,,yA,yA' name='xiyA' posn='220'>
5.3	gayA	VAUX	<fs af='jA,v,m,sg,any,,yA1,yA1' name='gayA' posn='230'>
5.4	hE	VAUX	<fs af='hE,v,any,sg,3,,hE,hE' name='hE' posn='240'>
	))
6	((	BLK	<fs name='BLK' drel='rsym:VGF'>
6.1	.	SYM	<fs af='.,punc,,,,,,' name='.' posn='250'>
	))
</Sentence>

<Sentence id='17'>
1	((	NP	<fs name='NP' drel='k2:VGF'>
1.1	yaha	DEM	<fs af='yaha,pn,any,sg,3,d,,' name='yaha' posn='10'>
1.2	notisa	NN	<fs af='notisa,n,m,sg,3,d,0,0' name='notisa' posn='20'>
	))
2	((	NP	<fs name='NP2' drel='r6:NP3'>
2.1	kuvEwa	NNP	<fs af='kuvEwa,n,m,sg,3,o,0,0' name='kuvEwa' posn='30'>
2.2	ke	PSP	<fs af='kA,psp,m,sg,,o,,' name='ke' posn='40'>
	))
3	((	NP	<fs name='NP3' drel='r6:NP4'>
3.1	vimAna	NNPC	<fs af='vimAna,n,m,sg,3,d,0,0' name='vimAna' posn='50'>
3.2	prAXikaraNa	NNPC	<fs af='prAXikaraNa,null,m,sg,3,d,0,0' name='prAXikaraNa' posn='60'>
3.3	maMwrAlaya	NNP	<fs af='maMwrAlaya,n,m,sg,3,o,0,0' name='maMwrAlaya' posn='70'>
3.4	ke	PSP	<fs af='kA,psp,m,sg,,o,,' name='ke2' posn='80'>
	))
4	((	NP	<fs name='NP4' drel='k1:VGF'>
4.1	dAyarektara	NNC	<fs af='dAyarektara,n,m,sg,3,d,0,0' name='dAyarektara' posn='90'>
4.2	janarala	NN	<fs af='janarala,n,m,sg,3,o,0,0' name='janarala' posn='100'>
4.3	ne	PSP	<fs af='ne,psp,,,,,,' name='ne' posn='110'>
	))
5	((	JJP	<fs name='JJP' drel='pof:VGF'>
5.1	jArI	JJ	<fs af='jArI,adj,any,any,,,,' name='jArI' posn='120'>
	))
6	((	VGF	<fs name='VGF' stype='declarative' voicetype='active'>
6.1	kiyA	VM	<fs af='kara,v,m,sg,any,,yA,yA' name='kiyA' posn='130'>
6.2	hE	VAUX	<fs af='hE,v,any,sg,3,,hE,hE' name='hE' posn='140'>
	))
7	((	BLK	<fs name='BLK' drel='rsym:VGF'>
7.1	.	SYM	<fs af='.,punc,,,,,,' name='.' posn='150'>
	))
</Sentence>

<Sentence id='18'>
1	((	NP	<fs name='NP' drel='k7:VGF'>
1.1	isa	PRP	<fs af='yaha,pn,any,sg,3,o,0,0' name='isa' posn='10'>
1.2	para	PSP	<fs af='para,psp,,,,,,' name='para' posn='20'>
	))
2	((	NP	<fs name='NP2' drel='r6:NP3'>
2.1	kuvEwa	NNPC	<fs af='kuvEwa,n,m,sg,3,d,0,0' name='kuvEwa' posn='30'>
2.2	eyaraveja	NNP	<fs af='eyarave,n,m,pl,3,o,0,0' name='eyaraveja' posn='40'>
2.3	ke	PSP	<fs af='kA,psp,m,sg,,o,,' name='ke' posn='50'>
	))
3	((	NP	<fs name='NP3' drel='k1:VGF'>
3.1	eka	QC	<fs af='eka,num,any,any,,any,,' name='eka' posn='60'>
3.2	aXikArI	NN	<fs af='aXikArI,n,m,sg,3,o,0,0' name='aXikArI' posn='70'>
3.3	ne	PSP	<fs af='ne,psp,,,,,,' name='ne' posn='80'>
	))
4	((	VGF	<fs name='VGF' stype='declarative' voicetype='active'>
4.1	kahA	VM	<fs af='kaha,v,m,sg,any,,yA,yA' name='kahA' posn='90'>
4.2	,	SYM	<fs af='COMMA,punc,,,,,,' name=',' posn='100'>
	))
5	((	NP	<fs name='NP4' drel='k7t:VGF2'>
5.1	laMbe	JJ	<fs af='laMbA,adj,m,sg,,o,,' name='laMbe' posn='110'>
5.2	samaya	NN	<fs af='samaya,n,m,sg,3,o,0,0' name='samaya' posn='120'>
5.3	se	PSP	<fs af='se,psp,,,,,,' name='se' posn='130'>
	))
6	((	NP	<fs name='NP5' drel='k1:VGF2'>
6.1	BArawa	NNP	<fs af='BArawa,n,m,sg,3,d,0,0' name='BArawa' posn='140'>
	))
7	((	NP	<fs name='NP6' drel='k2:VGNF'>
7.1	isa	DEM	<fs af='yaha,pn,any,sg,3,o,,' name='isa2' posn='150'>
7.2	samaJOwe	NN	<fs af='samaJOwA,n,m,sg,3,o,0,0' name='samaJOwe' posn='160'>
7.3	ko	PSP	<fs af='ko,psp,,,,,,' name='ko' posn='170'>
	))
8	((	VGNF	<fs name='VGNF' drel='vmod:VGF2'>
8.1	lekara	VM	<fs af='le,v,any,any,any,,kara,kara' name='lekara' posn='180'>
	))
9	((	NP	<fs name='NP7' drel='pof:VGF2'>
9.1	uxAsIna	JJ	<fs af='uxAsIna,adj,any,any,,d,,' name='uxAsIna' posn='190'>
9.2	ravEyA	NN	<fs af='ravEyA,n,m,sg,3,d,0,0' name='ravEyA' posn='200'>
	))
10	((	VGF	<fs voicetype='active' name='VGF2' stype='declarative' drel='k2:VGF'>
10.1	apanAwA	VM	<fs af='apanA,v,m,sg,any,,wA,wA' name='apanAwA' posn='210'>
10.2	rahA	VAUX	<fs af='raha,v,m,sg,any,,yA,yA' name='rahA' posn='220'>
	))
11	((	BLK	<fs name='BLK' drel='rsym:VGF'>
11.1	.	SYM	<fs af='.,punc,,,,,,' name='.' posn='230'>
	))
</Sentence>

<Sentence id='19'>
1	((	NP	<fs name='NP' drel='k1:VGF'>
1.1	isa	DEM	<fs af='yaha,pn,any,sg,3,o,,' name='isa' posn='10'>
1.2	aXikArI	NN	<fs af='aXikArI,n,m,sg,3,o,0,0' name='aXikArI' posn='20'>
1.3	ne	PSP	<fs af='ne,psp,,,,,,' name='ne' posn='30'>
	))
2	((	NP	<fs name='NP2' drel='pof:VGF'>
2.1	ummIxa	NN	<fs af='ummIxa,n,f,sg,3,o,0,0' name='ummIxa' posn='40'>
	))
3	((	VGF	<fs name='VGF' stype='declarative' voicetype='active'>
3.1	jawAI	VM	<fs af='jawA,v,f,sg,any,,yA,yA' name='jawAI' posn='50'>
	))
4	((	CCP	<fs name='CCP' drel='k2:VGF'>
4.1	ki	CC	<fs af='ki,avy,,,,,,' name='ki' posn='60'>
	))
5	((	NP	<fs name='NP3' drel='ccof:CCP2'>
5.1	kuvEwa	NNP	<fs af='kuvEwa,n,m,sg,3,o,0,0' name='kuvEwa' posn='70'>
	))
6	((	CCP	<fs name='CCP2' drel='r6:NP5'>
6.1	Ora	CC	<fs af='Ora,avy,,,,,,' name='Ora' posn='80'>
	))
7	((	NP	<fs name='NP4' drel='ccof:CCP2'>
7.1	BArawa	NNP	<fs af='BArawa,n,m,sg,3,o,0,0' name='BArawa' posn='90'>
7.2	ke	PSP	<fs af='kA,psp,m,sg,,o,,' name='ke' posn='100'>
	))
8	((	NP	<fs name='NP5' drel='k7:VGNN'>
8.1	aXikAriyoM	NN	<fs af='aXikArI,n,m,pl,3,o,0,0' name='aXikAriyoM' posn='110'>
8.2	ke	PSP	<fs af='ke,psp,,,,,,' name='ke2' posn='120'>
8.3	bIca	NST	<fs af='bIca,nst,m,sg,3,d,,' name='bIca' posn='130'>
	))
9	((	NP	<fs name='NP6' drel='k7p:VGNN'>
9.1	naI	NNPC	<fs af='nayA,n,f,sg,3,d,0,0' name='naI' posn='140'>
9.2	xillI	NNP	<fs af='xillI,n,f,sg,3,o,0,0' name='xillI' posn='150'>
9.3	meM	PSP	<fs af='meM,psp,,,,,,' name='meM' posn='160'>
	))
10	((	VGNN	<fs name='VGNN' drel='nmod:NP7'>
10.1	hone	VM	<fs af='ho,v,any,any,any,o,nA,nA' name='hone' posn='170'>
10.2	vAlI	PSP	<fs af='vAlA,psp,f,sg,,o,,' name='vAlI' posn='180'>
	))
11	((	NP	<fs name='NP7' drel='k7:VGF2'>
11.1	bETaka	NN	<fs af='bETaka,n,f,sg,3,o,0,0' name='bETaka' posn='190'>
11.2	meM	PSP	<fs af='meM,psp,,,,,,' name='meM2' posn='200'>
	))
12	((	NP	<fs name='NP8' drel='r6-k2:NP9'>
12.1	isa	DEM	<fs af='yaha,pn,any,sg,3,o,,' name='isa2' posn='210'>
12.2	samasyA	NN	<fs af='samasyA,n,f,sg,3,o,0,0' name='samasyA' posn='220'>
12.3	kA	PSP	<fs af='kA,psp,m,sg,,d,,' name='kA' posn='230'>
	))
13	((	NP	<fs name='NP9' drel='pof:VGF2'>
13.1	hala	NN	<fs af='hala,n,m,sg,3,d,0,0' name='hala' posn='240'>
	))
14	((	VGF	<fs voicetype='active' name='VGF2' stype='declarative' drel='ccof:CCP'>
14.1	nikAla	VM	<fs af='nikAla,v,any,any,any,,0,0' name='nikAla' posn='250'>
14.2	liyA	VAUX	<fs af='le,v,m,sg,any,,yA,yA' name='liyA' posn='260'>
14.3	jAegA	VAUX	<fs af='jA,v,m,sg,3,,gA,gA' name='jAegA' posn='270'>
	))
15	((	BLK	<fs name='BLK' drel='rsym:VGF'>
15.1	.	SYM	<fs af='.,punc,,,,,,' name='.' posn='280'>
	))
</Sentence>

<Sentence id='20'>
1	((	CCP	<fs name='CCP'>
1.1	jabaki	CC	<fs af='jabaki,avy,,,,,,' name='jabaki' posn='10'>
	))
2	((	NP	<fs name='NP' drel='k1:VGNN'>
2.1	eka	QC	<fs af='eka,num,any,any,,any,,' name='eka' posn='20'>
2.2	BArawIya	JJ	<fs af='BArawIya,adj,any,any,,o,,' name='BArawIya' posn='30'>
2.3	aXikArI	NN	<fs af='aXikArI,n,m,sg,3,o,0,0' name='aXikArI' posn='40'>
2.4	kA	PSP	<fs af='kA,psp,m,sg,,d,,' name='kA' posn='50'>
	))
3	((	VGNN	<fs name='VGNN' drel='k1:VGF'>
3.1	kahanA	VM	<fs af='kaha,v,any,any,any,d,nA,nA' name='kahanA' posn='60'>
	))
4	((	VGF	<fs voicetype='active' name='VGF' stype='declarative' drel='pof:CCP'>
4.1	WA	VM	<fs af='WA,v,m,sg,any,,WA,WA' name='WA' posn='70'>
4.2	,	SYM	<fs af='COMMA,punc,,,,,,' name=','>
	))
5	((	NP	<fs name='NP2' drel='k1:VGF2'>
5.1	hama	PRP	<fs af='hama,pn,any,pl,1,d,0,0' name='hama' posn='90'>
	))
6	((	NP	<fs name='NP3' drel='jjmod:JJP'>
6.1	naI	NNPC	<fs af='nayA,adj,f,sg,,d,,' name='naI' posn='100'>
6.2	xillI	NNP	<fs af='xillI,n,f,sg,3,d,0,0' name='xillI' posn='110'>
	))
7	((	JJP	<fs name='JJP' drel='jjmod:NP5'>
7.1	sWiwa	JJ	<fs af='sWiwa,adj,any,any,,o,,' name='sWiwa' posn='120'>
	))
8	((	NP	<fs name='NP4' drel='r6:NP5'>
8.1	apane	PRP	<fs af='apanA,pn,m,any,any,o,0,0' name='apane' posn='130'>
	))
9	((	NP	<fs name='NP5' drel='k2:VGF2'>
9.1	muKya	JJ	<fs af='muKya,adj,any,any,,o,,' name='muKya' posn='140'>
9.2	kAryAlaya	NN	<fs af='kAryAlaya,n,m,sg,3,o,0,0' name='kAryAlaya' posn='150'>
9.3	se	PSP	<fs af='se,psp,,,,,,' name='se' posn='160'>
	))
10	((	RBP	<fs name='RBP' drel='adv:VGF2'>
10.1	niraMwara	RB	<fs af='niranwara,adv,,,,,,' name='niraMwara' posn='170'>
	))
11	((	NP	<fs name='NP6' drel='pof:VGF2'>
11.1	saMparka	NN	<fs af='saMparka,n,m,sg,3,d,0,0' name='saMparka' posn='180'>
	))
12	((	VGF	<fs voicetype='active' name='VGF2' stype='declarative' drel='k2:VGNN'>
12.1	banAe	VM	<fs af='banA,v,m,pl,any,,yA,yA' name='banAe' posn='190'>
12.2	hue	VAUX	<fs af='ho,v,m,pl,any,,yA,yA' name='hue' posn='200'>
12.3	hEM	VAUX	<fs af='hE,v,any,pl,any,,hE,hE' name='hEM' posn='210'>
	))
13	((	BLK	<fs name='BLK' drel='rsym:CCP'>
13.1	.	SYM	<fs af='.,punc,,,,,,' name='.' posn='220'>
	))
</Sentence>

<Sentence id='21'>
1	((	NP	<fs name='NP' drel='k7a:VGF'>
1.1	eka	QC	<fs af='eka,num,any,any,,any,,' name='eka' posn='10'>
1.2	anumAna	NN	<fs af='anumAna,n,m,sg,3,o,0,0' name='anumAna' posn='20'>
1.3	ke	PSP	<fs af='ke,psp,,,,,,' name='ke' posn='30'>
1.4	muwAbika	PSP	<fs af='muwAbika,psp,,,,,,' name='muwAbika' posn='40'>
	))
2	((	NP	<fs name='NP2' drel='k7t:VGF'>
2.1	prawixina	NN	<fs af='prawixina,n,m,sg,3,d,0,0' name='prawixina' posn='50'>
	))
3	((	NP	<fs name='NP3' drel='k5:VGF'>
3.1	BArawa	NNP	<fs af='BArawa,n,m,sg,3,o,0,0' name='BArawa' posn='60'>
3.2	se	PSP	<fs af='se,psp,,,,,,' name='se' posn='70'>
	))
4	((	NP	<fs name='NP4' drel='k1:VGF'>
4.1	karIba	RP	<fs af='karIba,avy,,,,,,' name='karIba' posn='80'>
4.2	100	QC	<fs af='100,num,any,any,,any,,' name='100' posn='90'>
4.3	yAwrI	NN	<fs af='yAwrI,n,m,pl,3,d,0,0' name='yAwrI' posn='100'>
	))
5	((	NP	<fs name='NP5' drel='k2p:VGF'>
5.1	yahAM	PRP	<fs af='yahAz,pn,,,,d,,' name='yahAM' posn='110'>
	))
6	((	VGF	<fs name='VGF' stype='declarative' voicetype='active'>
6.1	Awe	VM	<fs af='A,v,m,pl,any,,wA,wA' name='Awe' posn='120'>
6.2	hEM	VAUX	<fs af='hE,v,any,pl,3,,hE,hE' name='hEM' posn='130'>
	))
7	((	BLK	<fs name='BLK' drel='rsym:VGF'>
7.1	.	SYM	<fs af='.,punc,,,,,,' name='.' posn='140'>
	))
</Sentence>

<Sentence id='22'>
1	((	RBP	<fs comment='probsent' name='RBP' drel='adv:VGNF'>
1.1	jalxa	RB	<fs af='jalxa,adv,,,,,,' name='jalxa' posn='10'>
	))
2	((	VGNF	<fs name='VGNF'>
2.1	hogI	VM	<fs af='ho,v,f,sg,3,,gA,gA' name='hogI' posn='20'>
	))
3	((	NP	<fs name='NP' drel='ras-k1:VGNF'>
3.1	kuvEwa	NNPC	<fs af='kuvEwa,n,m,sg,3,d,0,0' name='kuvEwa' posn='30'>
3.2	sarakAra	NNP	<fs af='sarakAra,n,f,sg,3,o,0,0' name='sarakAra' posn='40'>
3.3	se	PSP	<fs af='se,psp,,,,,,' name='se' posn='50'>
	))
4	((	NP	<fs name='NP2' drel='pof:VGNF'>
4.1	vArwA	NN	<fs af='vArwA,n,f,sg,3,d,0,0' name='vArwA' posn='60'>
	))
5	((	NP	<fs name='NP3'>
5.1	BArawa	NNP	<fs af='BArawa,n,m,sg,3,d,0,0' name='BArawa' posn='70'>
	))
</Sentence>

<Sentence id='23'>
1	((	NP	<fs name='NP' drel='r6:NP2'>
1.1	kuvEwa	NNPC	<fs af='kuvEwa,n,m,sg,3,d,0,0' name='kuvEwa' posn='80'>
1.2	sarakAra	NNP	<fs af='sarakAra,n,f,sg,3,o,0,0' name='sarakAra' posn='90'>
1.3	kI	PSP	<fs af='kA,psp,f,sg,,o,,' name='kI' posn='100'>
	))
2	((	NP	<fs name='NP2' drel='k7t:VGF'>
2.1	isa	DEM	<fs af='yaha,pn,any,sg,3,o,,' name='isa' posn='110'>
2.2	GoRaNA	NN	<fs af='GoRaNA,n,f,sg,3,o,0,0' name='GoRaNA' posn='120'>
2.3	ke	PSP	<fs af='ke,psp,,,,,,' name='ke' posn='130'>
2.4	bAxa	NST	<fs af='bAxa,nst,m,sg,3,d,,' name='bAxa' posn='140'>
	))
3	((	NP	<fs name='NP3' drel='k1:VGF'>
3.1	BArawIya	JJ	<fs af='BArawIya,adj,any,any,,o,,' name='BArawIya' posn='150'>
3.2	vimAna	NNC	<fs af='vimAna,adj,m,sg,3,d,0,0' name='vimAna' posn='160'>
3.3	sevA	NN	<fs af='sevA,n,f,sg,3,o,0,0' name='sevA' posn='170'>
3.4	ne	PSP	<fs af='ne,psp,,,,,,' name='ne' posn='180'>
	))
4	((	NP	<fs name='NP4' drel='k4:VGF'>
4.1	anya	JJ	<fs af='anya,adj,any,any,,o,,' name='anya' posn='190'>
4.2	eyaralAiMsa	NN	<fs af='eyaralAina,n,f,pl,3,o,0,0' name='eyaralAiMsa' posn='200'>
4.3	se	PSP	<fs af='se,psp,,,,,,' name='se' posn='210'>
	))
5	((	NP	<fs name='NP5' drel='r6:NP6'>
5.1	imarajeMsI	NN	<fs af='imarajeMsI,n,f,sg,3,o,0,0' name='imarajeMsI' posn='220'>
5.2	kI	PSP	<fs af='kA,psp,f,sg,,o,,' name='kI2' posn='230'>
	))
6	((	NP	<fs name='NP6' drel='k7:VGNN'>
6.1	sWiwi	NN	<fs af='sWiwi,n,f,sg,3,o,0,0' name='sWiwi' posn='240'>
6.2	meM	PSP	<fs af='meM,psp,,,,,,' name='meM' posn='250'>
	))
7	((	NP	<fs name='NP7' drel='pof:VGNN'>
7.1	iMwajAma	NN	<fs af='iMwajAma,n,m,sg,3,d,0,0' name='iMwajAma' posn='260'>
	))
8	((	VGNN	<fs name='VGNN' drel='rt:VGF'>
8.1	karane	VM	<fs af='kara,v,any,any,any,o,nA,nA' name='karane' posn='270'>
8.2	ke	PSP	<fs af='ke,psp,,,,,,' name='ke2' posn='280'>
8.3	lie	PSP	<fs af='lie,psp,,,,,,' name='lie' posn='290'>
	))
9	((	NP	<fs name='NP8' drel='k2:VGF'>
9.1	bAwa	NN	<fs af='bAwa,n,f,sg,3,d,0,0' name='bAwa' posn='300'>
	))
10	((	NP	<fs name='NP9' drel='pof:VGF'>
10.1	SurU	NN	<fs af='SurU,n,m,sg,3,d,0,0' name='SurU' posn='310'>
	))
11	((	VGF	<fs name='VGF' stype='declarative' voicetype='active'>
11.1	kara	VM	<fs af='kara,v,any,any,any,,0,0' name='kara' posn='320'>
11.2	xI	VAUX	<fs af='xe,v,f,sg,any,,yA,yA' name='xI' posn='330'>
11.3	hE	VAUX	<fs af='hE,v,any,sg,3,,hE,hE' name='hE' posn='340'>
	))
12	((	BLK	<fs name='BLK' drel='rsym:VGF'>
12.1	.	SYM	<fs af='.,punc,,,,,,' name='.' posn='350'>
	))
</Sentence>

<Sentence id='24'>
1	((	RBP	<fs name='RBP' drel='sent-adv:VGF'>
1.1	vahIM	RB	<fs af='vahIM,adv,,,,,,' name='vahIM' posn='10'>
	))
2	((	NP	<fs name='NP' drel='pof:VGNF'>
2.1	edavAMsa	NNC	<fs af='edavAMsa,n,m,sg,3,d,0,0' name='edavAMsa' posn='120'>
2.2	bukiMga	NN	<fs af='bukiMga,n,f,sg,3,d,0,0' name='bukiMga' posn='120'>
	))
3	((	VGNF	<fs name='VGNF' drel='nmod:NP2'>
3.1	le	VM	<fs af='le,v,any,any,any,,0,0' name='le' posn='40'>
3.2	cuke	VAUX	<fs af='cuka,v,any,pl,3,,yA,yA' name='cuke' posn='50'>
	))
4	((	NP	<fs name='NP2' drel='k1:VGF'>
4.1	kuCa	QF	<fs af='kuCa,avy,,,,,,' name='kuCa' posn='60'>
4.2	logoM	NN	<fs af='loga,n,m,pl,3,o,0,0' name='logoM' posn='70'>
4.3	ne	PSP	<fs af='ne,psp,,,,,,' name='ne' posn='80'>
	))
5	((	NP	<fs name='NP3' drel='k2:VGNN'>
5.1	tikata	NN	<fs af='tikata,n,m,sg,3,d,0,0' name='tikata' posn='90'>
	))
6	((	BLK	<fs name='BLK' drel='pof:VGNN'>
6.1	kEMsila	UNK	<fs af='kEMsila,unk,,,,,,' name='kEMsila' posn='100'>
	))
7	((	VGNN	<fs name='VGNN' drel='k2:VGF'>
7.1	karAnA	VM	<fs af='karA,v,any,any,any,d,nA,nA' name='karAnA' posn='110'>
	))
8	((	NP	<fs name='NP4' drel='pof:VGF'>
8.1	SurU	NN	<fs af='SurU,n,m,sg,3,d,0,0' name='SurU' posn='120'>
	))
9	((	VGF	<fs name='VGF' stype='declarative' voicetype='active'>
9.1	kara	VM	<fs af='kara,v,any,any,any,,0,0' name='kara' posn='130'>
9.2	xiyA	VAUX	<fs af='xe,v,m,sg,any,,yA,yA' name='xiyA' posn='140'>
9.3	hE	VAUX	<fs af='hE,v,any,sg,3,,hE,hE' name='hE' posn='150'>
	))
10	((	BLK	<fs name='BLK2' drel='rsym:VGF'>
10.1	.	SYM	<fs af='.,punc,,,,,,' name='.' posn='160'>
	))
</Sentence>

<Sentence id='25'>
1	((	NP	<fs name='NP' drel='k7:VGF'>
1.1	isa	PRP	<fs af='yaha,pn,any,sg,3,o,,' name='isa' posn='10'>
1.2	bAbawa	PSP	<fs af='bAbawa,psp,,,,,,' name='bAbawa' posn='90'>
	))
2	((	NP	<fs name='NP2' drel='k1:VGF'>
2.1	vimAna	NNC	<fs af='vimAna,n,m,sg,3,d,0,0' name='vimAna' posn='30'>
2.2	sevAeM	NN	<fs af='sevA,n,f,pl,3,d,0,0' name='sevAeM' posn='40'>
	))
3	((	NP	<fs name='NP3' drel='k5:VGF'>
3.1	inase	PRP	<fs af='yaha,pn,any,pl,3,o,se,se' name='inase' posn='50'>
	))
4	((	NP	<fs name='NP4' drel='r6:NP5'>
4.1	kisI	PRP	<fs af='koI,pn,any,sg,3,o,0,0' name='kisI' posn='60'>
4.2	waraha	NN	<fs af='waraha,n,f,sg,3,o,0,0' name='waraha' posn='70'>
4.3	kI	PSP	<fs af='kA,psp,f,sg,,d,,' name='kI' posn='80'>
	))
5	((	NP	<fs name='NP5' drel='k2:VGF'>
5.1	kEMsileSana	NNC	<fs af='kEMsileSana,n,m,sg,3,d,0,0' name='kEMsileSana' posn='120'>
5.2	PIsa	NN	<fs af='PIsa,n,f,sg,3,d,0,0' name='PIsa' posn='120'>
	))
6	((	VGF	<fs name='VGF' stype='declarative' voicetype='active'>
6.1	nahIM	NEG	<fs af='nahIM,avy,,,,,,' name='nahIM' posn='110'>
6.2	vasUla	VM	<fs af='vasUla,v,any,any,any,,0,0' name='vasUla' posn='120'>
6.3	rahI	VAUX	<fs af='raha,v,f,pl,any,,yA,yA' name='rahI' posn='130'>
6.4	hEM	VAUX	<fs af='hE,v,any,pl,3,,hE,hE' name='hEM' posn='140'>
	))
7	((	BLK	<fs name='BLK' drel='rsym:VGF'>
7.1	.	SYM	<fs af='.,punc,,,,,,' name='.' posn='150'>
	))
</Sentence>

<Sentence id='26'>
1	((	CCP	<fs name='CCP'>
1.1	hAlAMki	CC	<fs af='hAlAMki,avy,,,,,,' name='hAlAMki' posn='10'>
	))
2	((	NP	<fs name='NP' drel='k1:VGF'>
2.1	vimAna	NNC	<fs af='vimAna,n,m,sg,3,d,0,0' name='vimAna' posn='20'>
2.2	kaMpaniyAM	NN	<fs af='kaMpanI,n,m,pl,3,d,0,0' name='kaMpaniyAM' posn='30'>
	))
3	((	VGF	<fs voicetype='active' name='VGF' stype='declarative' drel='ccof:CCP'>
3.1	kaha	VM	<fs af='kaha,v,any,any,any,,0,0' name='kaha' posn='40'>
3.2	rahI	VAUX	<fs af='raha,v,f,pl,3,,yA,yA' name='rahI' posn='50'>
3.3	hEM	VAUX	<fs af='hE,v,any,pl,3,,hE,hE' name='hEM' posn='60'>
	))
4	((	CCP	<fs name='CCP2' drel='k2:VGF'>
4.1	ki	CC	<fs af='ki,avy,,,,,,' name='ki' posn='70'>
	))
5	((	NP	<fs name='NP2' drel='k7:VGF2'>
5.1	yAwriyoM	NN	<fs af='yAwrI,n,m,pl,3,o,0,0' name='yAwriyoM' posn='80'>
5.2	meM	PSP	<fs af='meM,psp,,,,,,' name='meM' posn='90'>
	))
6	((	NP	<fs name='NP3' drel='k2:VGNF'>
6.1	isa	DEM	<fs af='yaha,pn,any,sg,3,o,,' name='isa' posn='100'>
6.2	sUcanA	NN	<fs af='sUcanA,n,f,sg,3,o,0,0' name='sUcanA' posn='110'>
6.3	ko	PSP	<fs af='ko,psp,,,,,,' name='ko' posn='120'>
	))
7	((	VGNF	<fs name='VGNF' drel='vmod:VGF2'>
7.1	lekara	VM	<fs af='le,v,any,any,any,,kara,kara' name='lekara' posn='130'>
	))
8	((	NP	<fs name='NP4' drel='r6-k2:NP5'>
8.1	kisI	PRP	<fs af='koI,pn,any,sg,3,o,0,0' name='kisI' posn='140'>
8.2	waraha	NN	<fs af='waraha,n,f,sg,3,o,0,0' name='waraha' posn='150'>
8.3	kI	PSP	<fs af='kA,psp,f,sg,,d,,' name='kI' posn='160'>
	))
9	((	NP	<fs name='NP5' drel='pof:VGF2'>
9.1	hadZabadZI	NN	<fs af='hadabadI,n,f,sg,3,d,0,0' name='hadZabadZI' posn='170'>
	))
10	((	VGF	<fs voicetype='active' name='VGF2' stype='declarative' drel='ccof:CCP3'>
10.1	nahIM	NEG	<fs af='nahIM,avy,,,,,,' name='nahIM' posn='180'>
10.2	hE	VM	<fs af='hE,v,any,sg,3,,hE,hE' name='hE' posn='190'>
	))
11	((	CCP	<fs name='CCP3' drel='ccof:CCP2'>
11.1	Ora	CC	<fs af='Ora,avy,,,,,,' name='Ora' posn='200'>
	))
12	((	NP	<fs name='NP6' drel='k7t:VGF3'>
12.1	julAI	NNP	<fs af='julAI,n,f,sg,3,o,0,0' name='julAI' posn='210'>
12.2	waka	PSP	<fs af='waka,psp,,,,,,' name='waka' posn='220'>
12.3	ke	PSP	<fs af='ke,psp,,,,,,' name='ke' posn='230'>
12.4	lie	PSP	<fs af='lie,psp,,,,,,' name='lie' posn='240'>
	))
13	((	NP	<fs name='NP7' drel='pof:VGF3'>
13.1	edavAMsa	NNC	<fs af='edavAMsa,n,m,sg,3,d,0,0' name='edavAMsa' posn='210'>
13.2	bukiMga	NN	<fs af='bukiMga,n,f,sg,3,d,0,0' name='bukiMga' posn='210'>
	))
14	((	VGF	<fs voicetype='active' name='VGF3' stype='declarative' drel='ccof:CCP3'>
14.1	kI	VM	<fs af='kara,v,f,sg,any,,yA,yA' name='kI2' posn='270'>
14.2	jA	VAUX	<fs af='jA,v,any,any,any,,0,0' name='jA' posn='280'>
14.3	rahI	VAUX	<fs af='raha,v,f,sg,any,,yA,yA' name='rahI2' posn='290'>
14.4	hE	VAUX	<fs af='hE,v,any,sg,3,,hE,hE' name='hE2' posn='300'>
	))
15	((	BLK	<fs name='BLK' drel='rsym:CCP'>
15.1	.	SYM	<fs af='.,punc,,,,,,' name='.' posn='310'>
	))
</Sentence>

<Sentence id='27'>
1	((	NP	<fs name='NP' drel='k7t:VGF'>
1.1	jaba	PRP	<fs af='jaba,pn,,,,d,,' name='jaba' posn='10'>
	))
2	((	NP	<fs name='NP2' drel='k4:VGF'>
2.1	BArawIya	JJ	<fs af='BArawIya,adj,any,any,,o,,' name='BArawIya' posn='20'>
2.2	aXikAriyoM	NN	<fs af='aXikArI,n,m,pl,3,o,0,0' name='aXikAriyoM' posn='30'>
2.3	se	PSP	<fs af='se,psp,,,,,,' name='se' posn='40'>
	))
3	((	VGF	<fs name='VGF' stype='declarative' voicetype='active'>
3.1	pUCA	VM	<fs af='pUCa,v,m,sg,any,,yA,yA' name='pUCA' posn='50'>
3.2	gayA	VAUX	<fs af='jA,v,m,sg,any,,yA1,yA1' name='gayA' posn='60'>
	))
4	((	CCP	<fs name='CCP' drel='k2:VGF'>
4.1	ki	CC	<fs af='ki,avy,,,,,,' name='ki' posn='70'>
	))
5	((	NP	<fs name='NP3' drel='k1:VGNN'>
5.1	PlAita	NN	<fs af='PlAita,n,f,sg,3,d,0,0' name='PlAita' posn='210'>
	))
6	((	BLK	<fs name='BLK' drel='pof:VGNN'>
6.1	kEMsila	UNK	<fs af='kEMsila,unk,,,,,,' name='kEMsila' posn='90'>
	))
7	((	VGNN	<fs name='VGNN' drel='vmod:VGF2'>
7.1	hone	VM	<fs af='ho,v,any,any,any,o,nA,nA' name='hone' posn='100'>
7.2	para	PSP	<fs af='para,psp,,,,,,' name='para' posn='110'>
	))
8	((	NP	<fs name='NP4' drel='rt:VGF2'>
8.1	yAwriyoM	NN	<fs af='yAwrI,n,m,pl,3,o,0,0' name='yAwriyoM' posn='120'>
8.2	ke	PSP	<fs af='ke,psp,,,,,,' name='ke' posn='130'>
8.3	lie	PSP	<fs af='lie,psp,,,,,,' name='lie' posn='140'>
	))
9	((	NP	<fs name='NP5' drel='k2:VGF2'>
9.1	kyA	WQ	<fs af='kyA,pn,,,,,,' name='kyA' posn='150'>
9.2	iMwajAma	NN	<fs af='iMwajAma,n,m,pl,3,d,0,0' name='iMwajAma' posn='160'>
	))
10	((	VGF	<fs voicetype='active' name='VGF2' stype='interrogative' drel='ccof:CCP'>
10.1	kie	VM	<fs af='kara,v,m,pl,any,,yA,yA' name='kie' posn='170'>
10.2	gae	VAUX	<fs af='jA,v,m,pl,any,,yA1,yA1' name='gae' posn='180'>
10.3	hEM	VAUX	<fs af='hE,v,any,pl,3,,hE,hE' name='hEM' posn='190'>
	))
11	((	NP	<fs name='NP6' drel='k7t:VGF3'>
11.1	wo	PRP	<fs af='wo,pn,,,,,,' name='wo' posn='200'>
	))
12	((	NP	<fs name='NP7' drel='k1:VGF3'>
12.1	unhoMne	PRP	<fs af='vaha,pn,any,pl,3,o,ne,ne' name='unhoMne' posn='210'>
	))
13	((	VGF	<fs voicetype='active' name='VGF3' stype='declarative' drel='nmod__relc:NP'>
13.1	kahA	VM	<fs af='kaha,v,m,sg,any,,yA,yA' name='kahA' posn='220'>
13.2	,	SYM	<fs af='COMMA,punc,,,,,,' name=',' posn='230'>
	))
14	((	CCP	<fs name='CCP2' drel='vmod:VGF5'>
14.1	yaxi	CC	<fs af='yaxi,avy,,,,,,' name='yaxi' posn='240'>
	))
15	((	NP	<fs name='NP8' drel='k1:VGF4'>
15.1	EsA	DEM	<fs af='EsA,pn,m,sg,any,d,,' name='EsA' posn='250'>
15.2	kuCa	PRP	<fs af='kuCa,pn,,,,d,,' name='kuCa' posn='260'>
	))
16	((	VGF	<fs voicetype='active' name='VGF4' stype='declarative' drel='ccof:CCP2'>
16.1	howA	VM	<fs af='ho,v,m,sg,any,,wA,wA' name='howA' posn='270'>
16.2	hE	VAUX	<fs af='hE,v,any,sg,3,,hE,hE' name='hE' posn='280'>
	))
17	((	CCP	<fs name='CCP3' drel='k2:VGF3'>
17.1	wo	CC	<fs af='wo,avy,,,,,,' name='wo2' posn='290'>
	))
18	((	NP	<fs name='NP9' drel='k1:VGF5'>
18.1	eyaralAiMsa	NN	<fs af='eyaralAina,n,f,sg,3,d,0,0' name='eyaralAiMsa' posn='210'>
	))
19	((	NP	<fs name='NP10' drel='k4:VGF5'>
19.1	yAwriyoM	NN	<fs af='yAwrI,n,m,pl,3,o,0,0' name='yAwriyoM2' posn='310'>
19.2	ko	PSP	<fs af='ko,psp,,,,,,' name='ko' posn='320'>
	))
20	((	NP	<fs name='NP11' drel='r6:NP12'>
20.1	isakI	PRP	<fs af='yaha,pn,f,sg,3,o,kA,kA' name='isakI' posn='330'>
	))
21	((	NP	<fs name='NP12' drel='k2:VGF5'>
21.1	pUrva	JJ	<fs af='pUrva,adj,any,any,,d,,' name='pUrva' posn='340'>
21.2	sUcanA	NN	<fs af='sUcanA,n,f,sg,3,d,0,0' name='sUcanA' posn='350'>
	))
22	((	JJP	<fs name='JJP' drel='pof:VGF5'>
22.1	upalabXa	JJ	<fs af='upalabXa,adj,any,any,,,,' name='upalabXa' posn='360'>
	))
23	((	VGF	<fs voicetype='active' name='VGF5' stype='declarative' drel='ccof:CCP3'>
23.1	karAegA	VM	<fs af='karA,v,m,sg,3,,gA,gA' name='karAegA' posn='370'>
	))
24	((	BLK	<fs name='BLK2' drel='rsym:VGF'>
24.1	.	SYM	<fs af='.,punc,,,,,,' name='.' posn='380'>
	))
</Sentence>

<Sentence id='28'>
1	((	NP	<fs comment='probsent' name='NP' drel='k1:VGF'>
1.1	kyA	WQ	<fs af='kyA,pn,,,,,,' name='kyA' posn='10'>
	))
2	((	VGF	<fs name='VGF' stype='declarative' voicetype='active'>
2.1	hE	VM	<fs af='hE,v,any,sg,3,,hE,hE' name='hE' posn='20'>
	))
3	((	NP	<fs name='NP2' drel='k1s:VGF'>
3.1	vivAxa	NN	<fs af='vivAxa,n,m,sg,3,d,0,0' name='vivAxa' posn='30'>
	))
4	((	NP	<fs name='NP3'>
4.1	naI	NNPC	<fs af='nayA,n,f,sg,3,d,0,0' name='naI' posn='40'>
4.2	xillI	NNP	<fs af='xillI,n,f,sg,3,d,0,0' name='xillI' posn='50'>
	))
5	((	BLK	<fs name='BLK' drel='rsym:NP3'>
5.1	.	SYM	<fs af='.,punc,,,,,,' name='.' posn='60'>
	))
</Sentence>

<Sentence id='29'>
1	((	NP	<fs name='NP' drel='k7t:VGF'>
1.1	kuCa	QF	<fs af='kuCa,avy,,,,,,' name='kuCa' posn='10'>
1.2	xina	NN	<fs af='xina,n,m,sg,3,d,0,0' name='xina' posn='20'>
1.3	pahale	NST	<fs af='pahalA,nst,m,sg,3,d,,' name='pahale' posn='30'>
	))
2	((	NP	<fs name='NP2' drel='k1:VGF'>
2.1	kuvEwa	NNP	<fs af='kuvEwa,n,m,sg,3,o,0,0' name='kuvEwa' posn='40'>
2.2	ne	PSP	<fs af='ne,psp,,,,,,' name='ne' posn='50'>
	))
3	((	NP	<fs name='NP3' drel='r6:NP4'>
3.1	apanI	PRP	<fs af='apanA,pn,f,any,any,o,0,0' name='apanI' posn='60'>
	))
4	((	NP	<fs name='NP4' drel='nmod:NP5'>
4.1	pahalI	QO	<fs af=''pahalA,num,f,sg,,o,,' name='pahalI' posn='70'>
4.2	prAiveta	JJ	<fs af='prAiveta,adj,any,any,,d,,' name='prAiveta' posn='80'>
4.3	bajata	NNC	<fs af='bajata,adj,m,sg,3,d,0,0' name='bajata' posn='90'>
4.4	eyaralAiMsa	NN	<fs af='eyaralAina,n,f,pl,3,o,0,0' name='eyaralAiMsa' posn='110'>
	))
5	((	NP	<fs name='NP5' drel='r6:NP6'>
5.1	jajIrA	NNPC	<fs af='jajIrA,n,m,sg,3,d,0,0' name='jajIrA' posn='110'>
5.2	eyaraveja	NNP	<fs af='eyarave,n,m,pl,3,o,0,0' name='eyaraveja' posn='110'>
5.3	kI	PSP	<fs af='kA,psp,f,sg,,o,,' name='kI' posn='130'>
	))
6	((	NP	<fs name='NP6' drel='r6:NP7'>
6.1	udZAnoM	NN	<fs af='udAna,n,f,pl,3,o,0,0' name='udZAnoM' posn='140'>
6.2	kI	PSP	<fs af='kA,psp,f,sg,,d,,' name='kI2' posn='150'>
	))
7	((	NP	<fs name='NP7' drel='k2:VGNN'>
7.1	saMKyA	NN	<fs af='saMKyA,n,f,sg,3,o,0,0' name='saMKyA' posn='160'>
	))
8	((	VGNN	<fs name='VGNN' drel='r6-k2:NP8'>
8.1	baDZAne	VM	<fs af='baDA,v,any,any,any,o,nA,nA' name='baDZAne' posn='170'>
8.2	kI	PSP	<fs af='kA,psp,f,sg,,d,,' name='kI3' posn='180'>
	))
9	((	NP	<fs name='NP8' drel='pof:VGF'>
9.1	mAMga	NN	<fs af='mAMga,n,f,sg,3,d,0,0' name='mAMga' posn='190'>
	))
10	((	VGF	<fs name='VGF' stype='declarative' voicetype='active'>
10.1	kI	VM	<fs af='kara,v,f,sg,any,,yA,yA' name='kI4' posn='200'>
	))
11	((	BLK	<fs name='BLK' drel='rsym:VGF'>
11.1	.	SYM	<fs af='.,punc,,,,,,' name='.' posn='210'>
	))
</Sentence>

<Sentence id='30'>
1	((	NP	<fs name='NP' drel='rt:VGF'>
1.1	isake	PRP	<fs af='yaha,pn,m,any,3,o,ke,ke' name='isake' posn='10'>
1.2	lie	PSP	<fs af='lie,psp,,,,,,' name='lie' posn='20'>
	))
2	((	NP	<fs name='NP2' drel='r6:NP3'>
2.1	udZAnoM	NN	<fs af='udAna,n,f,pl,3,o,0,0' name='udZAnoM' posn='30'>
2.2	kI	PSP	<fs af='kA,psp,f,sg,,d,,' name='kI' posn='40'>
	))
3	((	NP	<fs name='NP3' drel='k2:VGNN'>
3.1	saMKyA	NN	<fs af='saMKyA,n,f,sg,3,d,0,0' name='saMKyA' posn='50'>
	))
4	((	NP	<fs name='NP4' drel='k2s:VGNN'>
4.1	karIba	RP	<fs af='karIba,avy,,,,,,' name='karIba' posn='60'>
4.2	50	QC	<fs af='50,num,any,any,,any,,' name='50' posn='70'>
4.3	PIsaxI	NN	<fs af='PIsaxI,n,m,sg,3,d,0,0' name='PIsaxI' posn='80'>
	))
5	((	VGNN	<fs name='VGNN' drel='vmod:VGF'>
5.1	baDZAne	VM	<fs af='baDA,v,any,any,any,o,nA,nA' name='baDZAne' posn='90'>
5.2	ko	PSP	<fs af='ko,psp,,,,,,' name='ko' posn='100'>
	))
6	((	VGF	<fs name='VGF' stype='declarative' voicetype='active'>
6.1	kahA	VM	<fs af='kaha,v,m,sg,any,,yA,yA' name='kahA' posn='110'>
6.2	gayA	VAUX	<fs af='jA,v,m,sg,any,,yA1,yA1' name='gayA' posn='120'>
	))
7	((	BLK	<fs name='BLK' drel='rsym:VGF'>
7.1	.	SYM	<fs af='.,punc,,,,,,' name='.' posn='130'>
	))
</Sentence>

<Sentence id='31'>
1	((	CCP	<fs name='CCP'>
1.1	lekina	CC	<fs af='lekina,avy,,,,,,' name='lekina' posn='10'>
	))
2	((	NP	<fs name='NP' drel='k1:VGF'>
2.1	BArawa	NNPC	<fs af='BArawa,n,m,sg,3,d,0,0' name='BArawa' posn='20'>
2.2	sarakAra	NNP	<fs af='sarakAra,n,f,sg,3,o,0,0' name='sarakAra' posn='30'>
2.3	ne	PSP	<fs af='ne,psp,,,,,,' name='ne' posn='40'>
	))
3	((	NP	<fs name='NP2' drel='k2:VGNN'>
3.1	EsA	PRP	<fs af='EsA,pn,m,sg,3,d,0,0' name='EsA' posn='50'>
	))
4	((	VGNN	<fs name='VGNN' drel='vmod:VGF'>
4.1	karane	VM	<fs af='kara,v,any,any,any,o,nA,nA' name='karane' posn='60'>
4.2	se	PSP	<fs af='se,psp,,,,,,' name='se' posn='70'>
	))
5	((	NP	<fs name='NP3' drel='pof:VGF'>
5.1	manA	NN	<fs af='manA,n,m,sg,3,d,0,0' name='manA' posn='80'>
	))
6	((	VGF	<fs voicetype='active' name='VGF' stype='declarative' drel='ccof:CCP'>
6.1	kara	VM	<fs af='kara,v,any,any,any,,0,0' name='kara' posn='90'>
6.2	xiyA	VAUX	<fs af='xe,v,m,sg,any,,yA,yA' name='xiyA' posn='100'>
	))
7	((	BLK	<fs name='BLK' drel='rsym:CCP'>
7.1	.	SYM	<fs af='.,punc,,,,,,' name='.' posn='110'>
	))
</Sentence>

<Sentence id='32'>
1	((	CCP	<fs name='CCP' drel='vmod:VGF2'>
1.1	yaxi	CC	<fs af='yaxi,avy,,,,,,' name='yaxi' posn='10'>
	))
2	((	NP	<fs name='NP' drel='k4:VGF'>
2.1	jajIrA	NNPC	<fs af='jajIrA,n,m,sg,3,d,0,0' name='jajIrA' posn='20'>
2.2	eyaraveja	NNP	<fs af='eyarave,n,m,sg,3,o,0,0' name='eyaraveja' posn='110'>
2.3	ko	PSP	<fs af='ko,psp,,,,,,' name='ko' posn='40'>
	))
3	((	NP	<fs name='NP2' drel='k2:VGNN'>
3.1	EsA	PRP	<fs af='EsA,pn,m,sg,,d,0,0' name='EsA' posn='50'>
	))
4	((	VGNN	<fs name='VGNN' drel='r6-k1:NP3'>
4.1	karane	VM	<fs af='kara,v,any,any,any,o,nA,nA' name='karane' posn='60'>
4.2	kI	PSP	<fs af='kA,psp,f,sg,,d,,' name='kI' posn='70'>
	))
5	((	NP	<fs name='NP3' drel='pof:VGF'>
5.1	svIkqwi	NN	<fs af='svIkqwi,n,f,sg,3,d,0,0' name='svIkqwi' posn='80'>
	))
6	((	VGF	<fs voicetype='active' name='VGF' stype='declarative' drel='ccof:CCP'>
6.1	mila	VM	<fs af='mila,v,any,any,any,,0,0' name='mila' posn='90'>
6.2	jAwI	VAUX	<fs af='jA,v,f,sg,any,,wA,wA' name='jAwI' posn='100'>
	))
7	((	CCP	<fs name='CCP2'>
7.1	wo	CC	<fs af='wo,avy,,,,,,' name='wo' posn='110'>
	))
8	((	NP	<fs name='NP4' drel='rh:VGF2'>
8.1	isase	PRP	<fs af='yaha,pn,any,sg,3,o,se,se' name='isase' posn='120'>
	))
9	((	NP	<fs name='NP5' drel='ccof:CCP3'>
9.1	iMdiyana	NNPC	<fs af='iMdiyana,adj,any,any,,o,,' name='iMdiyana' posn='50'>
9.2	eyaralAiMsa	NNP	<fs af='eyaralAina,n,f,pl,3,o,0,0' name='eyaralAiMsa' posn='140'>
	))
10	((	CCP	<fs name='CCP3' drel='r6:NP7'>
10.1	Ora	CC	<fs af='Ora,avy,,,,,,' name='Ora' posn='150'>
	))
11	((	NP	<fs name='NP6' drel='ccof:CCP3'>
11.1	eyara	NNPC	<fs af='eyara,n,f,sg,3,d,0,0' name='eyara' posn='160'>
11.2	iMdiyA	NNP	<fs af='iMdiyA,n,m,sg,3,o,0,0' name='iMdiyA' posn='170'>
11.3	ke	PSP	<fs af='kA,psp,m,sg,,o,,' name='ke' posn='180'>
	))
12	((	NP	<fs name='NP7' drel='k7:VGF2'>
12.1	vyApAra	NN	<fs af='vyApAra,n,m,sg,3,o,0,0' name='vyApAra' posn='190'>
12.2	para	PSP	<fs af='para,psp,,,,,,' name='para' posn='200'>
	))
13	((	NP	<fs name='NP8' drel='pof:VGF2'>
13.1	asara	NN	<fs af='asara,n,m,sg,3,d,0,0' name='asara' posn='210'>
	))
14	((	VGF	<fs voicetype='active' name='VGF2' stype='declarative' drel='ccof:CCP2'>
14.1	padZa	VM	<fs af='pada,v,any,any,any,,0,0' name='padZa' posn='220'>
14.2	sakawA	VAUX	<fs af='saka,v,m,sg,any,,wA,wA' name='sakawA' posn='230'>
14.3	hE	VAUX	<fs af='hE,v,any,sg,3,,hE,hE' name='hE' posn='240'>
	))
15	((	BLK	<fs name='BLK' drel='rsym:CCP2'>
15.1	.	SYM	<fs af='.,punc,,,,,,' name='.' posn='250'>
	))
</Sentence>

<Sentence id='33'>
1	((	NP	<fs name='NP' drel='k1:VGF'>
1.1	kAraNa	NN	<fs af='kAraNa,n,m,sg,3,d,0,0' name='kAraNa' posn='10'>
	))
2	((	NP	<fs name='NP2' drel='k1s:VGF'>
2.1	yaha	PRP	<fs af='yaha,pn,any,sg,3,d,0,0' name='yaha' posn='20'>
	))
3	((	VGF	<fs name='VGF' stype='declarative' voicetype='active'>
3.1	hE	VM	<fs af='hE,v,any,sg,3,,hE,hE' name='hE' posn='30'>
	))
4	((	CCP	<fs name='CCP' drel='rs:NP2'>
4.1	ki	CC	<fs af='ki,avy,,,,,,' name='ki' posn='40'>
	))
5	((	NP	<fs name='NP3' drel='k2p:CCP2'>
5.1	BArawa	NNP	<fs af='BArawa,n,m,sg,3,d,0,0' name='BArawa' posn='50'>
	))
6	((	VGNN	<fs name='VGNN' drel='ccof:CCP2'>
6.1	Ane	VM	<fs af='A,v,any,any,any,o,nA,nA' name='Ane' posn='60'>
	))
7	((	CCP	<fs name='CCP2' drel='nmod:NP5'>
7.1	Ora	CC	<fs af='Ora,avy,,,,,,' name='Ora' posn='70'>
	))
8	((	VGNN	<fs name='VGNN2' drel='ccof:CCP2'>
8.1	jAne	VM	<fs af='jA,v,any,any,any,o,nA,nA' name='jAne' posn='80'>
8.2	vAlI	PSP	<fs af='vAlA,psp,f,sg,,o,,' name='vAlI' posn='90'>
	))
9	((	NP	<fs name='NP4' drel='r6:NP5'>
9.1	jajIrA	NNP	<fs af='jajIrA,n,m,sg,3,o,0,0' name='jajIrA' posn='100'>
9.2	kI	PSP	<fs af='kA,psp,f,sg,,o,,' name='kI' posn='110'>
	))
10	((	NP	<fs name='NP5' drel='k7:VGF2'>
10.1	13	QC	<fs af='13,num,any,any,,o,,' name='13' posn='120'>
10.2	meM	PSP	<fs af='meM,psp,,,,,,' name='meM' posn='130'>
10.3	se	PSP	<fs af='se,psp,,,,,,' name='se' posn='140'>
	))
11	((	NP	<fs name='NP6' drel='k1:VGF2'>
11.1	10	QC	<fs af='10,num,any,any,,any,,' name='10' posn='150'>
11.2	PlAita	NN	<fs af='PlAita,n,f,sg,3,d,0,0' name='PlAita' posn='160'>
	))
12	((	NP	<fs name='NP7' drel='r6:NP8'>
12.1	xubaI	NNP	<fs af='xubaI,n,m,sg,3,o,0,0' name='xubaI' posn='170'>
12.2	ke	PSP	<fs af='kA,psp,m,pl,,d,,' name='ke' posn='180'>
	))
13	((	NP	<fs name='NP8' drel='k7p:VGF2'>
13.1	rAswe	NN	<fs af='rAswA,n,m,sg,3,d,0,0' name='rAswe' posn='190'>
	))
14	((	NP	<fs name='NP9' drel='k2p:VGF2'>
14.1	kuvEwa	NNP	<fs af='kuvEwa,n,m,sg,3,d,0,0' name='kuvEwa' posn='200'>
	))
15	((	VGF	<fs voicetype='active' name='VGF2' stype='declarative' drel='ccof:CCP'>
15.1	jAwI	VM	<fs af='jA,v,f,pl,any,,wA,wA' name='jAwI' posn='210'>
15.2	hEM	VAUX	<fs af='hE,v,any,pl,3,,hE,hE' name='hEM' posn='220'>
	))
16	((	BLK	<fs name='BLK' drel='rsym:VGF'>
16.1	.	SYM	<fs af='.,punc,,,,,,' name='.' posn='230'>
	))
</Sentence>

<Sentence id='34'>
1	((	NP	<fs name='NP' drel='rh:VGF'>
1.1	jisase	PRP	<fs af='jo,pn,any,sg,3,o,se,se' name='jisase' posn='10'>
	))
2	((	NP	<fs name='NP2' drel='k1:VGF'>
2.1	aXikawara	JJ	<fs af='aXikawara,adj,any,any,,d,,' name='aXikawara' posn='20'>
2.2	loga	NN	<fs af='loga,n,m,pl,3,d,0,0' name='loga' posn='30'>
	))
3	((	NP	<fs name='NP3' drel='k7p:VGNN'>
3.1	inhIM	DEM	<fs af='yaha,pn,f,pl,3,o,,' name='inhIM' posn='40'>
3.2	PlAitoM	NN	<fs af='PlAitoM,n,f,pl,3,o,0,0' name='PlAitoM' posn='50'>
3.3	meM	PSP	<fs af='meM,psp,,,,,,' name='meM' posn='60'>
	))
4	((	VGNN	<fs name='VGNN' drel='k2:VGF'>
4.1	jAnA	VM	<fs af='jA,v,any,any,any,d,nA,nA' name='jAnA' posn='70'>
	))
5	((	NP	<fs name='NP4' drel='pof:VGF'>
5.1	pasaMxa	NN	<fs af='pasaMxa,n,m,sg,3,d,0,0' name='pasaMxa' posn='80'>
	))
6	((	VGF	<fs name='VGF' stype='declarative' voicetype='active'>
6.1	karawe	VM	<fs af='kara,v,m,pl,any,,wA,wA' name='karawe' posn='90'>
6.2	hEM	VAUX	<fs af='hE,v,any,pl,3,,hE,hE' name='hEM' posn='100'>
	))
7	((	BLK	<fs name='BLK' drel='rsym:VGF'>
7.1	.	SYM	<fs af='.,punc,,,,,,' name='.' posn='110'>
	))
</Sentence>

<Sentence id='35'>
1	((	VGNF	<fs name='VGNF' drel='vmod:VGF'>
1.1	bawAwe	VM	<fs af='bawA,v,m,pl,any,,wA,wA' name='bawAwe' posn='10'>
	))
2	((	VGF	<fs name='VGF' stype='declarative' voicetype='active'>
2.1	caleM	VM	<fs af='cala,v,any,pl,3,,eM,eM' name='caleM' posn='20'>
	))
3	((	CCP	<fs name='CCP' drel='k2:VGF'>
3.1	ki	CC	<fs af='ki,avy,,,,,,' name='ki' posn='30'>
	))
4	((	NP	<fs name='NP' drel='k7t:VGF2'>
4.1	aBI	PRP	<fs af='aBI,pn,,,,o,,' name='aBI' posn='40'>
4.2	waka	PSP	<fs af='waka,psp,,,,,,' name='waka' posn='50'>
	))
5	((	NP	<fs name='NP2' drel='r6:NP6'>
5.1	eyara	NNPC	<fs af='eyara,n,f,sg,3,d,0,0' name='eyara' posn='60'>
5.2	iMdiyA	NNP	<fs af='iMdiyA,n,f,sg,3,o,0,0' name='iMdiyA' posn='70'>
5.3	kI	PSP	<fs af='kA,psp,f,sg,,o,,' name='kI' posn='80'>
	))
6	((	NP	<fs name='NP3' drel='k5:VGF2'>
6.1	muMbaI	NNP	<fs af='muMbaI,n,f,sg,3,o,0,0' name='muMbaI' posn='90'>
6.2	se	PSP	<fs af='se,psp,,,,,,' name='se' posn='100'>
	))
7	((	NP	<fs name='NP4' drel='rt:VGF2'>
7.1	kuvEwa	NNP	<fs af='kuvEwa,n,m,sg,3,o,0,0' name='kuvEwa' posn='110'>
7.2	ke	PSP	<fs af='ke,psp,,,,,,' name='ke' posn='120'>
7.3	lie	PSP	<fs af='lie,psp,,,,,,' name='lie' posn='130'>
	))
8	((	NP	<fs name='NP5' drel='k7t:VGF2'>
8.1	hara	QF	<fs af='hara,avy,,,,,,' name='hara' posn='140'>
8.2	mAha	NN	<fs af='mAha,n,m,sg,3,d,0,0' name='mAha' posn='150'>
	))
9	((	NP	<fs name='NP6' drel='k1:VGF2'>
9.1	cAra	QC	<fs af='cAra,num,any,any,,any,,' name='cAra' posn='160'>
9.2	PlAitsa	NN	<fs af='PlAita,n,f,pl,3,d,0,0' name='PlAitsa' posn='170'>
	))
10	((	VGF	<fs voicetype='active' name='VGF2' stype='declarative' drel='ccof:CCP2'>
10.1	hEM	VM	<fs af='hE,v,any,pl,3,,hE,hE' name='hEM' posn='180'>
	))
11	((	CCP	<fs name='CCP2' drel='ccof:CCP'>
11.1	jabaki	CC	<fs af='jabaki,avy,,,,,,' name='jabaki' posn='190'>
	))
12	((	NP	<fs name='NP7' drel='r6:NP8'>
12.1	iMdiyana	NNPC	<fs af='iMdiyana,adj,any,any,,o,,' name='iMdiyana' posn='50'>
12.2	eyaralAiMsa	NNP	<fs af='eyaralAina,n,f,pl,3,o,0,0' name='eyaralAiMsa' posn='210'>
12.3	kI	PSP	<fs af='kA,psp,f,sg,,d,,' name='kI2' posn='220'>
	))
13	((	NP	<fs name='NP8' drel='k1:NULL__VGF'>
13.1	wIna	QC	<fs af='wIna,num,any,any,,any,,' name='wIna' posn='230'>
	))
14	((	NULL__VGF	<fs name='NULL__VGF' dmrel='ccof:CCP2' mtype='gap' troot='hE' voicetype='active' stype='declarative'>
14.1	NULL	VM	<fs name='NULL' cat='v'>
	))
15	((	BLK	<fs name='BLK' drel='rsym:VGF'>
15.1	.	SYM	<fs af='.,punc,,,,,,' name='.' posn='240'>
	))
</Sentence>

<Sentence id='36'>
1	((	RBP	<fs name='RBP' drel='sent-adv:VGF'>
1.1	vahIM	RB	<fs af='vahIM,adv,,,,,,' name='vahIM' posn='10'>
	))
2	((	NP	<fs name='NP' drel='ccof:CCP'>
2.1	kuvEwa	NNPC	<fs af='kuvEwa,n,m,sg,3,d,0,0' name='kuvEwa' posn='20'>
2.2	eyaraveja	NNP	<fs af='eyarave,n,m,sg,3,o,0,0' name='eyaraveja' posn='30'>
	))
3	((	CCP	<fs name='CCP' drel='r6:NP5'>
3.1	Ora	CC	<fs af='Ora,avy,,,,,,' name='Ora' posn='40'>
	))
4	((	NP	<fs name='NP2' drel='ccof:CCP'>
4.1	jajIrA	NNPC	<fs af='jajIrA,n,m,sg,3,d,0,0' name='jajIrA' posn='50'>
4.2	eyaralAiMsa	NNP	<fs af='eyaralAina,n,f,pl,3,o,0,0' name='eyaralAiMsa' posn='60'>
4.3	kI	PSP	<fs af='kA,psp,f,sg,,o,,' name='kI' posn='70'>
	))
5	((	NP	<fs name='NP3' drel='r6:NP5'>
5.1	muMbaI	NNP	<fs af='muMbaI,n,f,sg,3,o,0,0' name='muMbaI' posn='80'>
5.2	waka	PSP	<fs af='waka,psp,,,,,,' name='waka' posn='90'>
5.3	kI	PSP	<fs af='kA,psp,f,sg,,d,,' name='kI2' posn='100'>
	))
6	((	NP	<fs name='NP4' drel='k7t:VGF'>
6.1	prawixina	NN	<fs af='prawixina,n,m,sg,3,d,0,0' name='prawixina' posn='110'>
	))
7	((	NP	<fs name='NP5' drel='k1:VGF'>
7.1	eka	QC	<fs af='eka,num,any,any,,any,,' name='eka' posn='120'>
7.2	udZAna	NN	<fs af='udAna,n,f,sg,3,d,0,0' name='udZAna' posn='130'>
	))
8	((	VGF	<fs voicetype='active' name='VGF' stype='declarative' drel='ccof:CCP2'>
8.1	hE	VM	<fs af='hE,v,any,sg,3,,hE,hE' name='hE' posn='140'>
	))
9	((	CCP	<fs name='CCP2'>
9.1	Ora	CC	<fs af='Ora,avy,,,,,,' name='Ora2' posn='150'>
	))
10	((	NP	<fs name='NP6' drel='rt:VGF2'>
10.1	xakRiNa	NNPC	<fs af='xakRiNa,n,m,sg,3,d,0,0' name='xakRiNa' posn='160'>
10.2	BArawa	NNP	<fs af='BArawa,n,m,sg,3,o,0,0' name='BArawa' posn='170'>
10.3	ke	PSP	<fs af='ke,psp,,,,,,' name='ke' posn='180'>
10.4	lie	PSP	<fs af='lie,psp,,,,,,' name='lie' posn='190'>
	))
11	((	NP	<fs name='NP7' drel='k1:VGF2'>
11.1	sApwAhika	JJ	<fs af='sApwAhika,adj,any,any,,d,,' name='sApwAhika' posn='200'>
11.2	udZAne	NN	<fs af='udAna,n,f,pl,3,d,0,0' name='udZAne' posn='210'>
	))
12	((	VGF	<fs voicetype='active' name='VGF2' stype='declarative' drel='ccof:CCP2'>
12.1	hEM	VM	<fs af='hE,v,any,pl,3,,hE,hE' name='hEM' posn='220'>
	))
13	((	BLK	<fs name='BLK' drel='rsym:CCP2'>
13.1	.	SYM	<fs af='.,punc,,,,,,' name='.' posn='230'>
	))
</Sentence>

