<Sentence id='1'>
1	((	NP	<fs name='NP' drel='k1:VGF'>
1.1	keMxra	NNPC	<fs af='keMxra,n,m,sg,3,d,0,0' name='keMxra' posn='10'>
1.2	sarakAra	NNP	<fs af='sarakAra,n,f,sg,3,d,0,0' name='sarakAra' posn='20'>
	))
2	((	RBP	<fs name='RBP' drel='adv:VGNN'>
2.1	aMXAXuMXa	RB	<fs af='aMXAXuMXa,adv,,,,,,' name='aMXAXuMXa' posn='30'>
	))
3	((	NP	<fs name='NP2' drel='r6-k2:NP3'>
3.1	bijalI	NN	<fs af='bijalI,n,f,sg,3,o,0,0' name='bijalI' posn='40'>
3.2	kA	PSP	<fs af='kA,psp,m,sg,,d,,' name='kA' posn='50'>
	))
4	((	NP	<fs name='NP3' drel='pof:VGNN'>
4.1	iswemAla	NN	<fs af='iswemAla,n,m,sg,3,d,0,0' name='iswemAla' posn='60'>
	))
5	((	VGNN	<fs name='VGNN' drel='nmod:NP4'>
5.1	karane	VM	<fs af='kara,v,any,any,any,o,nA,nA' name='karane' posn='70'>
5.2	vAle	PSP	<fs af='vAlA,psp,m,pl,,o,,' name='vAle' posn='80'>
	))
6	((	NP	<fs name='NP4' drel='vmod:VGF'>
6.1	SapiMga	NNC	<fs af='SapiMga,n,f,sg,3,d,0,0' name='SapiMga' posn='60'>
6.2	mOYla	NN	<fs af='mOYla,n,m,pl,3,o,0,0' name='mOYla' posn='100'>
6.3	samewa	PSP	<fs af='samewa,psp,,,,,,' name='samewa' posn='110'>
	))
7	((	NP	<fs name='NP5' drel='r6-k2:NP6'>
7.1	saBI	QF	<fs af='saBI,avy,,,,,,' name='saBI' posn='120'>
7.2	kamarSiyala	JJ	<fs af='kamarSiyala,adj,any,any,,o,,' name='kamarSiyala' posn='130'>
7.3	imArawoM	NN	<fs af='imArawa,n,f,pl,3,o,0,0' name='imArawoM' posn='140'>
7.4	kI	PSP	<fs af='kA,psp,f,sg,,d,,' name='kI' posn='150'>
	))
8	((	NP	<fs name='NP6' drel='pof:VGF'>
8.1	lagAma	NN	<fs af='lagAma,n,f,sg,3,d,0,0' name='lagAma' posn='160'>
	))
9	((	VGF	<fs name='VGF' stype='declarative' voicetype='active'>
9.1	kasane	VM	<fs af='kasa,v,any,any,any,,nA,nA' name='kasane' posn='170'>
9.2	jA	VAUX	<fs af='jA,v,any,any,any,,0,0' name='jA' posn='180'>
9.3	rahI	VAUX	<fs af='raha,v,f,sg,any,,yA,yA' name='rahI' posn='190'>
9.4	hE	VAUX	<fs af='hE,v,any,sg,3,,hE,hE' name='hE' posn='200'>
	))
10	((	BLK	<fs name='BLK' drel='rsym:VGF'>
10.1	.	SYM	<fs af='.,punc,,,,,,' name='.' posn='210'>
	))
</Sentence>

<Sentence id='2'>
1	((	NP	<fs name='NP' drel='k7p:VGF'>
1.1	ina	DEM	<fs af='yaha,pn,any,pl,3,o,,' name='ina' posn='10'>
1.2	imArawoM	NN	<fs af='imArawa,n,f,pl,3,o,0,0' name='imArawoM' posn='20'>
1.3	meM	PSP	<fs af='meM,psp,,,,,,' name='meM' posn='30'>
	))
2	((	NP	<fs name='NP2' drel='k7t:VGF'>
2.1	aba	PRP	<fs af='aba,pn,,,,d,,' name='aba' posn='40'>
	))
3	((	NP	<fs name='NP3' drel='r6-k2:NP4'>
3.1	bijalI	NN	<fs af='bijalI,n,f,sg,3,o,0,0' name='bijalI' posn='50'>
3.2	kI	PSP	<fs af='kA,psp,f,sg,,d,,' name='kI' posn='60'>
	))
4	((	NP	<fs name='NP4' drel='pof:VGF'>
4.1	PijUlaKarcI	NN	<fs af='PijUlaKarcI,n,f,sg,3,d,0,0' name='PijUlaKarcI' posn='70'>
	))
5	((	VGF	<fs name='VGF' stype='declarative' voicetype='passive'>
5.1	nahIM	NEG	<fs af='nahIM,avy,,,,,,' name='nahIM' posn='80'>
5.2	ho	VM	<fs af='ho,v,any,any,any,,0,0' name='ho' posn='90'>
5.3	sakegI	VAUX	<fs af='saka,v,f,sg,3,,gA,gA' name='sakegI' posn='100'>
	))
6	((	BLK	<fs name='BLK' drel='rsym:VGF'>
6.1	.	SYM	<fs af='.,punc,,,,,,' name='.' posn='110'>
	))
</Sentence>

<Sentence id='3'>
1	((	NP	<fs name='NP' drel='rt:VGF'>
1.1	isake	PRP	<fs af='yaha,pn,m,sg,3,o,ke,ke' name='isake' posn='10'>
1.2	lie	PSP	<fs af='lie,psp,,,,,,' name='lie' posn='20'>
	))
2	((	NP	<fs name='NP2' drel='k1:VGF'>
2.1	keMxra	NNPC	<fs af='keMxra,n,m,sg,3,d,0,0' name='keMxra' posn='30'>
2.2	sarakAra	NNP	<fs af='sarakAra,n,f,sg,3,d,0,0' name='sarakAra' posn='40'>
	))
3	((	NP	<fs name='NP3' drel='r6:NP4'>
3.1	isa	DEM	<fs af='yaha,pn,any,sg,3,o,,' name='isa' posn='50'>
3.2	sAla	NN	<fs af='sAla,n,m,sg,3,o,0,0' name='sAla' posn='60'>
3.3	ke	PSP	<fs af='kA,psp,m,sg,,o,,' name='ke' posn='70'>
	))
4	((	NP	<fs name='NP4' drel='k7t:VGF'>
4.1	aMwa	NN	<fs af='aMwa,n,m,sg,3,o,0,0' name='aMwa' posn='80'>
4.2	waka	PSP	<fs af='waka,psp,,,,,,' name='waka' posn='90'>
	))
5	((	NP	<fs name='NP5' drel='k2:VGF'>
5.1	'	SYM	<fs af='SINGLE_QUOTE,punc,,,,,,' name=''' posn='100'>
5.2	enarjI	NNPC	<fs af='enarjI,n,f,sg,3,d,0,0' name='enarjI' posn='110'>
5.3	ePISeMsI	NNPC	<fs af='ePISeMsI,n,f,sg,3,d,0,0' name='ePISeMsI' posn='120'>
5.4	bildiMga	NNPC	<fs af='bildiMga,n,f,sg,3,d,0,0' name='bildiMga' posn='130'>
5.5	koda	NNP	<fs af='koda,n,m,sg,3,d,0,0' name='koda' posn='140'>
5.6	'	SYM	<fs af='SINGLE_QUOTE,punc,,,,,,' name=''2' posn='150'>
	))
6	((	JJP	<fs name='JJP' drel='pof:VGF'>
6.1	lAgU	JJ	<fs af='lAgU,adj,any,any,,,,' name='lAgU' posn='160'>
	))
7	((	VGF	<fs name='VGF' stype='declarative' voicetype='active'>
7.1	karane	VM	<fs af='kara,v,any,any,any,,nA,nA' name='karane' posn='170'>
7.2	jA	VAUX	<fs af='jA,v,any,any,any,,0,0' name='jA' posn='180'>
7.3	rahI	VAUX	<fs af='raha,v,f,sg,any,,yA,yA' name='rahI' posn='190'>
7.4	hE	VAUX	<fs af='hE,v,any,sg,3,,hE,hE' name='hE' posn='200'>
	))
8	((	BLK	<fs name='BLK' drel='rsym:VGF'>
8.1	.	SYM	<fs af='.,punc,,,,,,' name='.' posn='210'>
	))
</Sentence>

<Sentence id='4'>
1	((	NP	<fs name='NP' drel='r6:NP2'>
1.1	bijalI	NNC	<fs af='bijalI,n,f,sg,3,d,0,0' name='bijalI' posn='10'>
1.2	saMkata	NN	<fs af='saMkata,n,m,sg,3,o,0,0' name='saMkata' posn='20'>
1.3	kI	PSP	<fs af='kA,psp,f,sg,,o,,' name='kI' posn='30'>
	))
2	((	NP	<fs name='NP2' drel='k2:VGNF'>
2.1	BayAvahawA	NN	<fs af='BayAvahawA,n,f,sg,3,o,0,0' name='BayAvahawA' posn='40'>
2.2	ko	PSP	<fs af='ko,psp,,,,,,' name='ko' posn='50'>
	))
3	((	VGNF	<fs name='VGNF' drel='nmod__k1inv:NP3'>
3.1	xeKawe	VM	<fs af='xeKa,v,m,sg,any,,wA,wA' name='xeKawe' posn='60'>
3.2	hue	VAUX	<fs af='ho,v,m,sg,any,,yA,yA' name='hue' posn='70'>
	))
4	((	NP	<fs name='NP3' drel='k1:VGF'>
4.1	keMxra	NNPC	<fs af='keMxra,n,m,sg,3,d,0,0' name='keMxra' posn='80'>
4.2	sarakAra	NNP	<fs af='sarakAra,n,f,sg,3,d,0,0' name='sarakAra' posn='90'>
	))
5	((	NP	<fs name='NP4' drel='k2:VGF'>
5.1	yaha	DEM	<fs af='yaha,pn,any,sg,3,d,,' name='yaha' posn='100'>
5.2	bildiMga	NNC	<fs af='bildiMga,n,f,sg,3,d,0,0' name='bildiMga' posn='110'>
5.3	kAnUna	NN	<fs af='kAnUna,n,m,sg,3,d,0,0' name='kAnUna' posn='120'>
	))
6	((	VGF	<fs name='VGF' stype='declarative' voicetype='active'>
6.1	banAne	VM	<fs af='banA,v,any,any,any,o,nA,nA' name='banAne' posn='130'>
6.2	jA	VM	<fs af='jA,v,any,any,any,,0,0' name='jA' posn='140'>
6.3	rahI	VAUX	<fs af='raha,v,f,sg,any,,yA,yA' name='rahI' posn='150'>
6.4	hE	VAUX	<fs af='hE,v,any,sg,3,,hE,hE' name='hE' posn='160'>
	))
7	((	BLK	<fs name='BLK' drel='rsym:VGF'>
7.1	.	SYM	<fs af='.,punc,,,,,,' name='.' posn='170'>
	))
</Sentence>

<Sentence id='5'>
1	((	NP	<fs name='NP' drel='r6:NP2'>
1.1	vixyuwa	NNPC	<fs af='vixyuwa,n,f,sg,3,d,0,0' name='vixyuwa' posn='10'>
1.2	maMwrAlaya	NNP	<fs af='maMwrAlaya,n,m,sg,3,o,0,0' name='maMwrAlaya' posn='20'>
1.3	ke	PSP	<fs af='kA,psp,m,sg,,o,,' name='ke' posn='30'>
	))
2	((	NP	<fs name='NP2' drel='nmod:NP3'>
2.1	upakrama	NN	<fs af='upakrama,n,m,sg,3,o,0,0' name='upakrama' posn='40'>
	))
3	((	NP	<fs name='NP3' drel='k4:VGF'>
3.1	'	SYM	<fs af='SINGLE_QUOTE,punc,,,,,,' name=''' posn='50'>
3.2	byUro	NNPC	<fs af='byUro,n,m,sg,3,d,0,0' name='byUro' posn='60'>
3.3	OYPa	NNPC	<fs af='OYPa,unk,,,,,,' name='OYPa' posn='70'>
3.4	enarjI	NNPC	<fs af='enarjI,n,f,sg,3,d,0,0' name='enarjI' posn='80'>
3.5	ePISeMsI	NNP	<fs af='ePISeMsI,n,f,sg,3,o,0,0' name='ePISeMsI' posn='90'>
3.6	'	SYM	<fs af='SINGLE_QUOTE,punc,,,,,,' name=''2' posn='100'>
3.7	ko	PSP	<fs af='ko,psp,,,,,,' name='ko' posn='110'>
	))
4	((	NP	<fs name='NP4' drel='k2:VGF'>
4.1	yaha	DEM	<fs af='yaha,pn,any,sg,3,d,,' name='yaha' posn='120'>
4.2	kAma	NN	<fs af='kAma,n,m,sg,3,d,0,0' name='kAma' posn='130'>
	))
5	((	VGF	<fs name='VGF' stype='declarative' voicetype='passive'>
5.1	sOMpA	VM	<fs af='sOMpa,v,m,sg,any,,yA,yA' name='sOMpA' posn='140'>
5.2	gayA	VAUX	<fs af='jA,v,m,sg,any,,yA1,yA1' name='gayA' posn='150'>
5.3	hE	VAUX	<fs af='hE,v,any,sg,3,,hE,hE' name='hE' posn='160'>
	))
6	((	BLK	<fs name='BLK' drel='rsym:VGF'>
6.1	.	SYM	<fs af='.,punc,,,,,,' name='.' posn='170'>
	))
</Sentence>

<Sentence id='6'>
1	((	NP	<fs name='NP' drel='k7a:VGF'>
1.1	byUro	NN	<fs af='byUro,n,m,sg,3,o,0,0' name='byUro' posn='10'>
1.2	ke	PSP	<fs af='ke,psp,,,,,,' name='ke' posn='20'>
1.3	muwAbika	PSP	<fs af='muwAbika,psp,,,,,,' name='muwAbika' posn='30'>
	))
2	((	NP	<fs name='NP2' drel='k7t:VGF'>
2.1	aBI	PRP	<fs af='aBI,pn,,,,d,,' name='aBI' posn='40'>
	))
3	((	NP	<fs name='NP3' drel='k7p:VGF'>
3.1	xeSa	NN	<fs af='xeSa,n,m,sg,3,o,0,0' name='xeSa' posn='50'>
3.2	meM	PSP	<fs af='meM,psp,,,,,,' name='meM' posn='60'>
	))
4	((	NP	<fs name='NP4' drel='r6:NP5'>
4.1	karIba	RP	<fs af='karIba,avy,,,,,,' name='karIba' posn='70'>
4.2	12	QC	<fs af='12,num,any,any,,any,,' name='12' posn='80'>
4.3	PIsaxI	NN	<fs af='PIsaxI,n,f,sg,3,d,0,0' name='PIsaxI' posn='90'>
4.4	bijalI	NN	<fs af='bijalI,n,f,sg,3,o,0,0' name='bijalI' posn='100'>
4.5	kI	PSP	<fs af='kA,psp,f,sg,,d,,' name='kI' posn='110'>
	))
5	((	NP	<fs name='NP5' drel='k1:VGF'>
5.1	kamI	NN	<fs af='kamI,n,f,sg,3,d,0,0' name='kamI' posn='120'>
	))
6	((	VGF	<fs voicetype='active' name='VGF' stype='declarative' drel='ccof:CCP'>
6.1	hE	VM	<fs af='hE,v,any,sg,3,,hE,hE' name='hE' posn='130'>
6.2	,	SYM	<fs af='COMMA,punc,,,,,,' name=',' posn='140'>
	))
7	((	CCP	<fs name='CCP'>
7.1	jabaki	CC	<fs af='jabaki,avy,,,,,,' name='jabaki' posn='150'>
	))
8	((	NP	<fs name='NP6' drel='k1:VGF2'>
8.1	lagaBaga	RP	<fs af='lagaBaga,avy,,,,,,' name='lagaBaga' posn='160'>
8.2	23	QC	<fs af='23,num,any,any,,any,,' name='23' posn='170'>
8.3	PIsaxI	NN	<fs af='PIsaxI,n,f,sg,3,d,0,0' name='PIsaxI2' posn='180'>
8.4	bijalI	NN	<fs af='bijalI,n,f,sg,3,d,0,0' name='bijalI2' posn='190'>
	))
9	((	NP	<fs name='NP7' drel='k7:VGF2'>
9.1	PijUla	NN	<fs af='PijUla,n,m,sg,3,o,0,0' name='PijUla' posn='200'>
9.2	meM	PSP	<fs af='meM,psp,,,,,,' name='meM2' posn='210'>
	))
10	((	NP	<fs name='NP8' drel='pof:VGF2'>
10.1	iswemAla	NN	<fs af='iswemAla,n,m,sg,3,d,0,0' name='iswemAla' posn='220'>
	))
11	((	VGF	<fs voicetype='active' name='VGF2' stype='declarative' drel='ccof:CCP'>
11.1	ho	VM	<fs af='ho,v,any,any,any,,0,0' name='ho' posn='230'>
11.2	rahI	VAUX	<fs af='raha,v,f,sg,any,,yA,yA' name='rahI' posn='240'>
11.3	hE	VAUX	<fs af='hE,v,any,sg,3,,hE,hE' name='hE2' posn='250'>
	))
12	((	BLK	<fs name='BLK' drel='rsym:CCP'>
12.1	.	SYM	<fs af='.,punc,,,,,,' name='.' posn='260'>
	))
</Sentence>

<Sentence id='7'>
1	((	CCP	<fs name='CCP' drel='vmod:VGF2'>
1.1	yaxi	CC	<fs af='yaxi,avy,,,,,,' name='yaxi' posn='10'>
	))
2	((	NP	<fs name='NP' drel='k7:VGF'>
2.1	isa	DEM	<fs af='yaha,pn,any,sg,3,o,,' name='isa' posn='20'>
2.2	PijUlaKarcI	NN	<fs af='PijUlaKarcI,n,f,sg,3,o,0,0' name='PijUlaKarcI' posn='30'>
2.3	para	PSP	<fs af='para,psp,,,,,,' name='para' posn='40'>
	))
3	((	NP	<fs name='NP2' drel='k2:VGF'>
3.1	lagAma	NN	<fs af='lagAma,n,f,sg,3,d,0,0' name='lagAma' posn='50'>
	))
4	((	VGF	<fs voicetype='active' name='VGF' stype='declarative' drel='ccof:CCP'>
4.1	lagA	VM	<fs af='lagA,v,any,any,any,,0,0' name='lagA' posn='60'>
4.2	xI	VAUX	<fs af='xe,v,f,sg,any,,yA,yA' name='xI' posn='70'>
4.3	jAe	VAUX	<fs af='jA,v,m,sg,any,,eM,eM' name='jAe' posn='80'>
	))
5	((	CCP	<fs name='CCP2'>
5.1	wo	CC	<fs af='wo,avy,,,,,,' name='wo' posn='90'>
	))
6	((	NP	<fs name='NP3' drel='k1:VGF2'>
6.1	saMkata	NN	<fs af='saMkata,n,m,sg,3,o,0,0' name='saMkata' posn='100'>
6.2	wo	RP	<fs af='wo,avy,,,,,,' name='wo2' posn='110'>
	))
7	((	NP	<fs name='NP4' drel='k7:VGF2'>
7.1	xUra	NST	<fs af='xUra,nst,m,sg,3,d,,' name='xUra' posn='120'>
	))
8	((	VGF	<fs voicetype='active' name='VGF2' stype='declarative' drel='ccof:CCP2'>
8.1	hogA	VM	<fs af='ho,v,m,sg,3,,gA,gA' name='hogA' posn='130'>
8.2	hI	RP	<fs af='hI,avy,,,,,,' name='hI' posn='140'>
	))
9	((	NP	<fs name='NP5' drel='sent-adv:VGF3'>
9.1	sAWa	NST	<fs af='sAWa,nst,m,sg,3,d,,' name='sAWa' posn='150'>
9.2	hI	RP	<fs af='hI,avy,,,,,,' name='hI2' posn='160'>
	))
10	((	NP	<fs name='NP6' drel='k1:VGF3'>
10.1	11	QC	<fs af='11,num,any,any,,any,,' name='11' posn='170'>
10.2	PIsaxI	NN	<fs af='PIsaxI,n,f,sg,3,d,0,0' name='PIsaxI' posn='180'>
10.3	bijalI	NN	<fs af='bijalI,n,f,sg,3,d,0,0' name='bijalI' posn='190'>
	))
11	((	JJP	<fs name='JJP' drel='pof:VGF3'>
11.1	saraplasa	JJ	<fs af='saraplasa,adj,any,any,,,,' name='saraplasa' posn='160'>
	))
12	((	VGF	<fs voicetype='active' name='VGF3' stype='declarative' drel='vmod:VGF2'>
12.1	ho	VM	<fs af='ho,v,any,any,any,,0,0' name='ho' posn='210'>
12.2	jAegI	VAUX	<fs af='jA,v,f,sg,3,,gA,gA' name='jAegI' posn='220'>
	))
13	((	BLK	<fs name='BLK' drel='rsym:CCP2'>
13.1	.	SYM	<fs af='.,punc,,,,,,' name='.' posn='230'>
	))
</Sentence>

<Sentence id='8'>
1	((	NP	<fs name='NP' drel='k2:VGNF'>
1.1	isI	PRP	<fs af='yaha,pn,any,sg,3,o,0,0' name='isI' posn='10'>
1.2	ko	PSP	<fs af='ko,psp,,,,,,' name='ko' posn='20'>
	))
2	((	NP	<fs name='NP2' drel='k7:VGNF'>
2.1	XyAna	NN	<fs af='XyAna,n,m,sg,3,o,0,0' name='XyAna' posn='30'>
2.2	meM	PSP	<fs af='meM,psp,,,,,,' name='meM' posn='40'>
	))
3	((	VGNF	<fs name='VGNF' drel='vmod:VGF'>
3.1	raKakara	VM	<fs af='raKa,v,any,any,any,,kara,kara' name='raKakara' posn='50'>
	))
4	((	NP	<fs name='NP3' drel='k7t:VGF'>
4.1	sabase	JJ	<fs af='sabase,adj,any,any,,d,,' name='sabase' posn='60'>
4.2	pahale	NST	<fs af='pahale,nst,m,sg,3,d,,' name='pahale' posn='70'>
	))
5	((	NP	<fs name='NP4' drel='k7p:VGF'>
5.1	una	DEM	<fs af='vaha,pn,any,pl,3,o,,' name='una' posn='80'>
5.2	imArawoM	NN	<fs af='imArawa,n,f,pl,3,o,0,0' name='imArawoM' posn='90'>
5.3	para	PSP	<fs af='para,psp,,,,,,' name='para' posn='100'>
	))
6	((	NP	<fs name='NP5' drel='pof:VGF'>
6.1	lagAma	NN	<fs af='lagAma,n,f,sg,3,d,0,0' name='lagAma' posn='110'>
	))
7	((	VGF	<fs name='VGF' stype='declarative' voicetype='active'>
7.1	kasI	VM	<fs af='kasa,v,f,sg,any,,yA,yA' name='kasI' posn='120'>
7.2	jA	VAUX	<fs af='jA,v,any,any,any,,0,0' name='jA' posn='130'>
7.3	rahI	VAUX	<fs af='raha,v,f,sg,any,,yA,yA' name='rahI' posn='140'>
7.4	hE	VAUX	<fs af='hE,v,any,sg,3,,hE,hE' name='hE' posn='150'>
7.5	,	SYM	<fs af='COMMA,punc,,,,,,' name=',' posn='160'>
	))
8	((	NP	<fs coref=':NP4' name='NP6' drel='k7:VGF2'>
8.1	jahAM	PRP	<fs af='jahAz,pn,,,,d,,' name='jahAM' posn='170'>
	))
9	((	NP	<fs name='NP7' drel='rt:VGF2'>
9.1	cakAcOMXa	NN	<fs af='cakAcOMXa,n,f,sg,3,o,0,0' name='cakAcOMXa' posn='180'>
9.2	ke	PSP	<fs af='ke,psp,,,,,,' name='ke' posn='190'>
9.3	lie	PSP	<fs af='lie,psp,,,,,,' name='lie' posn='200'>
	))
10	((	RBP	<fs name='RBP' drel='adv:VGF2'>
10.1	bevajaha	RB	<fs af='bevajaha,adv,,,,,,' name='bevajaha' posn='210'>
	))
11	((	NP	<fs name='NP8' drel='r6-k1:NP9'>
11.1	bijalI	NN	<fs af='bijalI,n,f,sg,3,o,0,0' name='bijalI' posn='220'>
11.2	kA	PSP	<fs af='kA,psp,m,sg,,d,,' name='kA' posn='230'>
	))
12	((	NP	<fs name='NP9' drel='pof:VGF2'>
12.1	iswemAla	NN	<fs af='iswemAla,n,m,sg,3,d,0,0' name='iswemAla' posn='240'>
	))
13	((	VGF	<fs voicetype='active' name='VGF2' stype='declarative' drel='nmod__relc:NP4'>
13.1	howA	VM	<fs af='ho,v,m,sg,any,,wA,wA' name='howA' posn='250'>
13.2	hE	VAUX	<fs af='hE,v,any,sg,3,,hE,hE' name='hE2' posn='260'>
	))
14	((	BLK	<fs name='BLK' drel='rsym:VGF'>
14.1	.	SYM	<fs af='.,punc,,,,,,' name='.' posn='270'>
	))
</Sentence>

<Sentence id='9'>
1	((	NP	<fs name='NP' drel='k7a:VGF'>
1.1	isa	DEM	<fs af='yaha,pn,any,sg,3,o,,' name='isa' posn='10'>
1.2	'	SYM	<fs af='SINGLE_QUOTE,punc,,,,,,' name=''' posn='20'>
1.3	enarjI	NNPC	<fs af='enarjI,n,f,sg,3,d,0,0' name='enarjI' posn='30'>
1.4	iPIseMsI	NNPC	<fs af='iPIseMsI,n,f,sg,3,d,0,0' name='iPIseMsI' posn='40'>
1.5	bildiMga	NNPC	<fs af='bildiMga,n,f,sg,3,d,0,0' name='bildiMga' posn='50'>
1.6	koda	NNP	<fs af='koda,n,m,sg,3,o,0,0' name='koda' posn='60'>
1.7	'	SYM	<fs af='SINGLE_QUOTE,punc,,,,,,' name=''2' posn='70'>
1.8	ke	PSP	<fs af='ke,psp,,,,,,' name='ke' posn='80'>
1.9	wahawa	PSP	<fs af='wahawa,psp,,,,,,' name='wahawa' posn='90'>
	))
2	((	NP	<fs name='NP2' drel='k1:VGF'>
2.1	badZI	JJ	<fs af='badZA,adj,f,pl,,o,,' name='badZI' posn='100'>
2.2	kamarSiyala	JJ	<fs af='kamarSiyala,adj,any,any,,o,,' name='kamarSiyala' posn='110'>
2.3	imArawoM	NN	<fs af='imArawa,n,f,pl,3,o,0,0' name='imArawoM' posn='120'>
2.4	ko	PSP	<fs af='ko,psp,,,,,,' name='ko' posn='130'>
	))
3	((	NP	<fs name='NP3' drel='pof:VGF'>
3.1	bijalI	NNC	<fs af='bijalI,n,f,sg,3,d,0,0' name='bijalI' posn='140'>
3.2	OYdita	NN	<fs af='OYdita,n,m,sg,3,d,0,0' name='OYdita' posn='150'>
	))
4	((	VGF	<fs name='VGF' stype='declarative' voicetype='active'>
4.1	karAnA	VM	<fs af='karA,v,m,sg,any,,nA,nA' name='karAnA' posn='160'>
4.2	hogA	VAUX	<fs af='ho,v,m,sg,3,,gA,gA' name='hogA' posn='170'>
	))
5	((	BLK	<fs name='BLK' drel='rsym:VGF'>
5.1	.	SYM	<fs af='.,punc,,,,,,' name='.' posn='180'>
	))
</Sentence>

<Sentence id='10'>
1	((	CCP	<fs name='CCP'>
1.1	yAnI	CC	<fs af='yAnI,avy,,,,,,' name='yAnI' posn='10'>
	))
2	((	NP	<fs name='NP' drel='k1:VGF'>
2.1	sarakAra	NN	<fs af='sarakAra,n,f,sg,3,d,0,0' name='sarakAra' posn='20'>
	))
3	((	VGF	<fs voicetype='active' name='VGF' stype='declarative' drel='ccof:CCP'>
3.1	xeKegI	VM	<fs af='xeKa,v,f,sg,3,,gA,gA' name='xeKegI' posn='30'>
	))
4	((	CCP	<fs name='CCP2' drel='k2:VGF'>
4.1	ki	CC	<fs af='ki,avy,,,,,,' name='ki' posn='40'>
	))
5	((	NP	<fs name='NP2' drel='k7:VGF2'>
5.1	vahAM	PRP	<fs af='vahAz,pn,,,,d,,' name='vahAM' posn='50'>
	))
6	((	NP	<fs name='NP3' drel='r6:NP4'>
6.1	bijalI	NN	<fs af='bijalI,n,f,sg,3,o,0,0' name='bijalI' posn='60'>
6.2	ke	PSP	<fs af='kA,psp,m,pl,,d,,' name='ke' posn='70'>
	))
7	((	NP	<fs name='NP4' drel='k2:VGF2'>
7.1	upakaraNa	NN	<fs af='upakaraNa,n,m,pl,3,d,0,0' name='upakaraNa' posn='80'>
	))
8	((	NP	<fs name='NP5' drel='jjmod:JJP'>
8.1	jarUrawa	NN	<fs af='jarUrawa,n,f,sg,3,o,0,0' name='jarUrawa' posn='90'>
8.2	se	PSP	<fs af='se,psp,,,,,,' name='se' posn='100'>
	))
9	((	JJP	<fs name='JJP' drel='pof:VGF2'>
9.1	jyAxA	QF	<fs af='jyAxA,avy,,,,,,' name='jyAxA' posn='110'>
9.2	wo	RP	<fs af='wo,avy,,,,,,' name='wo' posn='120'>
	))
10	((	VGF	<fs voicetype='active' name='VGF2' stype='declarative' drel='ccof:CCP2'>
10.1	nahIM	NEG	<fs af='nahIM,avy,,,,,,' name='nahIM' posn='130'>
10.2	lage	VM	<fs af='laga,v,m,pl,any,,yA,yA' name='lage' posn='140'>
10.3	hEM	VAUX	<fs af='hE,v,any,pl,3,,hE,hE' name='hEM' posn='150'>
	))
11	((	BLK	<fs name='BLK' drel='rsym:CCP'>
11.1	.	SYM	<fs af='.,punc,,,,,,' name='.' posn='160'>
	))
</Sentence>

<Sentence id='11'>
1	((	NP	<fs name='NP' drel='k7p:VGF'>
1.1	ina	DEM	<fs af='yaha,pn,any,pl,3,o,,' name='ina' posn='10'>
1.2	imArawoM	NN	<fs af='imArawa,n,f,pl,3,o,0,0' name='imArawoM' posn='20'>
1.3	meM	PSP	<fs af='meM,psp,,,,,,' name='meM' posn='30'>
	))
2	((	NP	<fs name='NP2' drel='r6-k2:NP3'>
2.1	isa	DEM	<fs af='yaha,pn,any,sg,3,o,,' name='isa' posn='40'>
2.2	bAwa	NN	<fs af='bAwa,n,f,sg,3,o,0,0' name='bAwa' posn='50'>
2.3	ke	PSP	<fs af='kA,psp,m,pl,,d,,' name='ke' posn='60'>
	))
3	((	NP	<fs name='NP3' drel='pof:VGF'>
3.1	prayAsa	NN	<fs af='prayAsa,n,m,pl,3,d,0,0' name='prayAsa' posn='70'>
	))
4	((	VGF	<fs name='VGF' stype='declarative' voicetype='active'>
4.1	karane	VM	<fs af='kara,v,m,pl,any,,nA,nA' name='karane' posn='80'>
4.2	hoMge	VAUX	<fs af='ho,v,m,pl,3,,gA,gA' name='hoMge' posn='90'>
	))
5	((	CCP	<fs name='CCP' drel='k2:VGF'>
5.1	ki	CC	<fs af='ki,avy,,,,,,' name='ki' posn='100'>
	))
6	((	NP	<fs name='NP4' drel='k7p:VGF2'>
6.1	vahAM	PRP	<fs af='vahAz,pn,,,,d,,' name='vahAM' posn='110'>
	))
7	((	NP	<fs name='NP5' drel='r6:NP6'>
7.1	sUraja	NN	<fs af='sUraja,n,m,sg,3,o,0,0' name='sUraja' posn='120'>
7.2	kI	PSP	<fs af='kA,psp,f,sg,,o,,' name='kI' posn='130'>
	))
8	((	NP	<fs name='NP6' drel='r6-k1:NP7'>
8.1	roSanI	NN	<fs af='roSanI,n,f,sg,3,o,0,0' name='roSanI' posn='140'>
8.2	kA	PSP	<fs af='kA,psp,m,sg,,d,,' name='kA' posn='150'>
	))
9	((	NP	<fs name='NP7' drel='pof:VGF2'>
9.1	jyAxA	QF	<fs af='jyAxA,avy,,,,,,' name='jyAxA' posn='160'>
9.2	se	RP	<fs af='se,avy,,,,,,' name='se' posn='170'>
9.3	jyAxA	QF	<fs af='jyAxA,avy,,,,,,' name='jyAxA2' posn='180'>
9.4	upayoga	NN	<fs af='upayoga,n,m,sg,3,d,0,0' name='upayoga' posn='190'>
	))
10	((	VGF	<fs voicetype='active' name='VGF2' stype='declarative' drel='ccof:CCP'>
10.1	ho	VM	<fs af='ho,v,any,any,any,,0,0' name='ho' posn='200'>
	))
11	((	BLK	<fs name='BLK' drel='rsym:VGF'>
11.1	.	SYM	<fs af='.,punc,,,,,,' name='.' posn='210'>
	))
</Sentence>

<Sentence id='12'>
1	((	NP	<fs name='NP' drel='r6:NP2'>
1.1	imArawa	NN	<fs af='imArawa,n,f,sg,3,o,0,0' name='imArawa' posn='10'>
1.2	kI	PSP	<fs af='kA,psp,f,pl,,o,,' name='kI' posn='20'>
	))
2	((	NP	<fs name='NP2' drel='k2:VGF'>
2.1	xIvAroM	NN	<fs af='xIvAra,n,f,pl,3,o,0,0' name='xIvAroM' posn='30'>
2.2	ko	PSP	<fs af='ko,psp,,,,,,' name='ko' posn='40'>
	))
3	((	NP	<fs name='NP3' drel='adv:VGF'>
3.1	isa	DEM	<fs af='yaha,pn,any,sg,3,o,,' name='isa' posn='50'>
3.2	waraha	NN	<fs af='waraha,n,f,sg,3,o,0,0' name='waraha' posn='60'>
3.3	se	PSP	<fs af='se,psp,,,,,,' name='se' posn='70'>
	))
4	((	VGF	<fs name='VGF' stype='declarative' voicetype='active'>
4.1	banAnA	VM	<fs af='banA,v,m,sg,any,,nA,nA' name='banAnA' posn='80'>
4.2	hogA	VAUX	<fs af='ho,v,m,sg,3,,gA,gA' name='hogA' posn='90'>
	))
5	((	CCP	<fs name='CCP' drel='rs:NP3'>
5.1	ki	CC	<fs af='ki,avy,,,,,,' name='ki' posn='100'>
	))
6	((	NP	<fs name='NP4' drel='k7p:VGNF'>
6.1	vahAM	PRP	<fs af='vahAz,pn,,,,d,,' name='vahAM' posn='110'>
	))
7	((	VGNF	<fs name='VGNF' drel='nmod__k2inv:NP5'>
7.1	lage	VM	<fs af='laga,v,m,sg,any,,yA,yA' name='lage' posn='120'>
	))
8	((	NP	<fs name='NP5' drel='r6-k1:NP6'>
8.1	vAwAnukUliwa	JJ	<fs af='vAwAnukUliwa,adj,any,any,,o,,' name='vAwAnukUliwa' posn='130'>
8.2	saMyaMwra	NN	<fs af='saMyaMwra,n,m,sg,3,o,0,0' name='saMyaMwra' posn='140'>
8.3	kA	PSP	<fs af='kA,psp,m,sg,,d,,' name='kA' posn='150'>
	))
9	((	NP	<fs name='NP6' drel='pof:VGF2'>
9.1	jyAxA	QF	<fs af='jyAxA,avy,,,,,,' name='jyAxA' posn='160'>
9.2	se	RP	<fs af='se,avy,,,,,,' name='se2' posn='170'>
9.3	jyAxA	QF	<fs af='jyAxA,avy,,,,,,' name='jyAxA2' posn='180'>
9.4	saxupayoga	NN	<fs af='saxupayoga,n,m,sg,3,d,0,0' name='saxupayoga' posn='190'>
	))
10	((	VGF	<fs voicetype='active' name='VGF2' stype='declarative' drel='ccof:CCP'>
10.1	ho	VM	<fs af='ho,v,any,any,any,,0,0' name='ho' posn='200'>
	))
11	((	BLK	<fs name='BLK' drel='rsym:VGF'>
11.1	.	SYM	<fs af='.,punc,,,,,,' name='.' posn='210'>
	))
</Sentence>

<Sentence id='13'>
1	((	NP	<fs name='NP' drel='r6:NP2'>
1.1	isa	DEM	<fs af='yaha,pn,any,sg,3,o,,' name='isa' posn='10'>
1.2	waraha	NN	<fs af='waraha,n,f,sg,3,o,0,0' name='waraha' posn='20'>
1.3	ke	PSP	<fs af='kA,psp,m,pl,,d,,' name='ke' posn='30'>
	))
2	((	NP	<fs name='NP2' drel='k1:VGF'>
2.1	Ora	QF	<fs af='Ora,avy,,,,,,' name='Ora' posn='40'>
2.2	BI	RP	<fs af='BI,avy,,,,,,' name='BI' posn='50'>
2.3	kaI	QF	<fs af='kaI,avy,,,,,,' name='kaI' posn='60'>
2.4	upAya	NN	<fs af='upAya,n,m,pl,3,d,0,0' name='upAya' posn='70'>
	))
3	((	VGF	<fs name='VGF' stype='declarative' voicetype='active'>
3.1	hEM	VM	<fs af='hE,v,any,pl,3,,hE,hE' name='hEM' posn='80'>
	))
4	((	BLK	<fs name='BLK' drel='rsym:VGF'>
4.1	.	SYM	<fs af='.,punc,,,,,,' name='.' posn='90'>
	))
</Sentence>

<Sentence id='14'>
1	((	NP	<fs name='NP' drel='r6:NP2'>
1.1	byUro	NNPC	<fs af='byUro,n,m,sg,3,d,0,0' name='byUro' posn='10'>
1.2	OYPa	NNPC	<fs af='OYPa,unk,,,,,,' name='OYPa' posn='20'>
1.3	enarjI	NNPC	<fs af='enarjI,n,f,sg,3,d,0,0' name='enarjI' posn='30'>
1.4	iPISaMsI	NNP	<fs af='iPISaMsI,n,f,sg,3,o,0,0' name='iPISaMsI' posn='40'>
1.5	ke	PSP	<fs af='kA,psp,m,sg,,o,,' name='ke' posn='50'>
	))
2	((	NP	<fs name='NP2' drel='nmod:NP3'>
2.1	mahAnixeSaka	NN	<fs af='mahAnixeSaka,n,m,sg,3,o,0,0' name='mahAnixeSaka' posn='60'>
	))
3	((	NP	<fs name='NP3' drel='k7a:VGF'>
3.1	vIesa	NNPC	<fs af='vIesa,n,m,sg,3,d,0,0' name='vIesa' posn='70'>
3.2	varmA	NNP	<fs af='varmA,n,m,sg,3,o,0,0' name='varmA' posn='80'>
3.3	ke	PSP	<fs af='ke,psp,,,,,,' name='ke2' posn='90'>
3.4	anusAra	PSP	<fs af='anusAra,psp,,,,,,' name='anusAra' posn='100'>
	))
4	((	NP	<fs name='NP4' drel='rh:VGF'>
4.1	ina	DEM	<fs af='yaha,pn,any,pl,3,o,,' name='ina' posn='110'>
4.2	prayAsoM	NN	<fs af='prayAsa,n,m,pl,3,o,0,0' name='prayAsoM' posn='120'>
4.3	se	PSP	<fs af='se,psp,,,,,,' name='se' posn='130'>
	))
5	((	NP	<fs name='NP5' drel='k7p:VGF'>
5.1	imArawoM	NN	<fs af='imArawa,n,f,pl,3,o,0,0' name='imArawoM' posn='140'>
5.2	meM	PSP	<fs af='meM,psp,,,,,,' name='meM' posn='150'>
	))
6	((	NP	<fs name='NP6' drel='nmod:NP7'>
6.1	kama	QF	<fs af='kama,avy,,,,,,' name='kama' posn='160'>
6.2	se	RP	<fs af='se,avy,,,,,,' name='se2' posn='170'>
6.3	kama	QF	<fs af='kama,avy,,,,,,' name='kama2' posn='180'>
6.4	25	QC	<fs af='25,num,any,any,,any,,' name='25' posn='190'>
6.5	se	PSP	<fs af='se,psp,,,,,,' name='se3' posn='200'>
	))
7	((	NP	<fs name='NP7' drel='nmod:NP8'>
7.1	50	QC	<fs af='50,num,any,any,,any,,' name='50' posn='210'>
	))
8	((	NP	<fs name='NP8' drel='k2:VGF'>
8.1	PIsaxI	NN	<fs af='PIsaxI,n,f,sg,3,d,0,0' name='PIsaxI' posn='220'>
8.2	bijalI	NN	<fs af='bijalI,n,f,sg,3,d,0,0' name='bijalI' posn='230'>
	))
9	((	VGF	<fs name='VGF' stype='declarative' voicetype='active'>
9.1	bacAI	VM	<fs af='bacA,v,f,sg,any,,yA,yA' name='bacAI' posn='240'>
9.2	jA	VAUX	<fs af='jA,v,any,any,any,,0,0' name='jA' posn='250'>
9.3	sakegI	VAUX	<fs af='saka,v,f,sg,3,,gA,gA' name='sakegI' posn='260'>
	))
10	((	BLK	<fs name='BLK' drel='rsym:VGF'>
10.1	.	SYM	<fs af='.,punc,,,,,,' name='.' posn='270'>
	))
</Sentence>

<Sentence id='15'>
1	((	NP	<fs name='NP' drel='k1:VGF'>
1.1	unhoMne	PRP	<fs af='vaha,pn,any,sg,3h,o,ne,ne' name='unhoMne' posn='10'>
	))
2	((	VGF	<fs name='VGF' stype='declarative' voicetype='active'>
2.1	kahA	VM	<fs af='kaha,v,m,sg,any,,yA,yA' name='kahA' posn='20'>
	))
3	((	CCP	<fs name='CCP' drel='k2:VGF'>
3.1	ki	CC	<fs af='ki,avy,,,,,,' name='ki' posn='30'>
	))
4	((	NP	<fs name='NP2' drel='k7t:VGF2'>
4.1	isa	DEM	<fs af='yaha,pn,any,sg,3,o,,' name='isa' posn='40'>
4.2	sAla	NN	<fs af='sAla,n,m,sg,3,d,0,0' name='sAla' posn='50'>
	))
5	((	NP	<fs name='NP3' drel='k7t:VGF2'>
5.1	xisaMbara	NNP	<fs af='xisaMbara,n,m,sg,3,o,0,0' name='xisaMbara' posn='60'>
5.2	waka	PSP	<fs af='waka,psp,,,,,,' name='waka' posn='70'>
	))
6	((	NP	<fs name='NP4' drel='k2:VGF2'>
6.1	'	SYM	<fs af='SINGLE_QUOTE,punc,,,,,,' name=''' posn='80'>
6.2	enarjI	NNPC	<fs af='enarjI,n,f,sg,3,d,0,0' name='enarjI' posn='90'>
6.3	iPISaMsI	NNPC	<fs af='iPISaMsI,n,f,sg,3,d,0,0' name='iPISaMsI' posn='100'>
6.4	bildiMga	NNPC	<fs af='bildiMga,n,f,sg,3,d,0,0' name='bildiMga' posn='110'>
6.5	koda	NNP	<fs af='koda,n,m,sg,3,d,0,0' name='koda' posn='120'>
6.6	'	SYM	<fs af='SINGLE_QUOTE,punc,,,,,,' name=''2' posn='130'>
	))
7	((	JJP	<fs name='JJP' drel='pof:VGF2'>
7.1	lAgU	JJ	<fs af='lAgU,adj,any,any,,,,' name='lAgU' posn='140'>
	))
8	((	VGF	<fs voicetype='active' name='VGF2' stype='declarative' drel='ccof:CCP'>
8.1	kara	VM	<fs af='kara,v,any,any,any,,0,0' name='kara' posn='150'>
8.2	xiyA	VAUX	<fs af='xe,v,m,sg,any,,yA,yA' name='xiyA' posn='160'>
8.3	jAegA	VAUX	<fs af='jA,v,m,sg,3,,gA,gA' name='jAegA' posn='170'>
	))
9	((	BLK	<fs name='BLK' drel='rsym:VGF'>
9.1	.	SYM	<fs af='.,punc,,,,,,' name='.' posn='180'>
	))
</Sentence>

<Sentence id='16'>
1	((	NP	<fs name='NP' drel='r6:NP2'>
1.1	isa	DEM	<fs af='yaha,pn,any,sg,3,o,,' name='isa' posn='10'>
1.2	yojanA	NN	<fs af='yojanA,n,f,sg,3,o,0,0' name='yojanA' posn='20'>
1.3	ke	PSP	<fs af='kA,psp,m,sg,,o,,' name='ke' posn='30'>
	))
2	((	NP	<fs name='NP2' drel='k7:VGF'>
2.1	pahale	QO	<fs af='pahalA,num,m,sg,,o,,' name='pahale' posn='40'>
2.2	caraNa	NN	<fs af='caraNa,n,m,sg,3,o,0,0' name='caraNa' posn='50'>
2.3	meM	PSP	<fs af='meM,psp,,,,,,' name='meM' posn='60'>
	))
3	((	NP	<fs name='NP3' drel='ras-k2:VGF'>
3.1	una	DEM	<fs af='vaha,pn,any,pl,3,o,,' name='una' posn='70'>
3.2	SapiMga	NNC	<fs af='SapiMga,n,f,sg,3,d,0,0' name='SapiMga' posn='90'>
3.3	mOYla	NN	<fs af='mOYla,n,m,pl,3,o,0,0' name='mOYla' posn='90'>
3.4	samewa	PSP	<fs af='samewa,psp,,,,,,' name='samewa' posn='100'>
	))
4	((	NP	<fs name='NP4' drel='k2:VGF'>
4.1	una	DEM	<fs af='vaha,pn,any,pl,3,o,,' name='una2' posn='110'>
4.2	naI	JJ	<fs af='nayA,adj,f,pl,,o,,' name='naI' posn='120'>
4.3	kamarSiyala	JJ	<fs af='kamarSiyala,adj,any,any,,o,,' name='kamarSiyala' posn='130'>
4.4	imArawoM	NN	<fs af='imArawa,n,f,pl,3,o,0,0' name='imArawoM' posn='140'>
4.5	ko	PSP	<fs af='ko,psp,,,,,,' name='ko' posn='150'>
	))
5	((	VGF	<fs name='VGF' stype='declarative' voicetype='active'>
5.1	liyA	VM	<fs af='le,v,m,sg,any,,yA,yA' name='liyA' posn='160'>
5.2	jAegA	VAUX	<fs af='jA,v,m,sg,3,,gA,gA' name='jAegA' posn='170'>
5.3	,	SYM	<fs af='COMMA,punc,,,,,,' name=',' posn='180'>
	))
6	((	NP	<fs coref=':NP4' name='NP5' drel='k7:VGF2'>
6.1	jahAM	PRP	<fs af='jahAz,pn,,,,d,,' name='jahAM' posn='190'>
	))
7	((	NP	<fs name='NP6' drel='r6:NP7'>
7.1	kama	QF	<fs af='kama,avy,,,,,,' name='kama' posn='200'>
7.2	se	RP	<fs af='se,avy,,,,,,' name='se' posn='210'>
7.3	kama	QF	<fs af='kama,avy,,,,,,' name='kama2' posn='220'>
7.4	500	QC	<fs af='500,num,any,any,,any,,' name='500' posn='230'>
7.5	kilovOYta	NN	<fs af='kilovOYta,n,m,sg,3,d,0,0' name='kilovOYta' posn='240'>
7.6	bijalI	NN	<fs af='bijalI,n,f,sg,3,o,0,0' name='bijalI' posn='250'>
7.7	kA	PSP	<fs af='kA,psp,m,sg,,d,,' name='kA' posn='260'>
	))
8	((	NP	<fs name='NP7' drel='k2:VGF2'>
8.1	kanekSana	NN	<fs af='kanekSana,n,m,sg,3,d,0,0' name='kanekSana' posn='270'>
	))
9	((	VGF	<fs voicetype='passive' name='VGF2' stype='declarative' drel='nmod__relc:NP4'>
9.1	liyA	VM	<fs af='le,v,m,sg,any,,yA,yA' name='liyA2' posn='280'>
9.2	gayA	VAUX	<fs af='jA,v,m,sg,any,,yA1,yA1' name='gayA' posn='290'>
9.3	hE	VAUX	<fs af='hE,v,any,sg,3,,hE,hE' name='hE' posn='300'>
	))
10	((	BLK	<fs name='BLK' drel='rsym:VGF'>
10.1	.	SYM	<fs af='.,punc,,,,,,' name='.' posn='310'>
	))
</Sentence>

<Sentence id='17'>
1	((	NP	<fs name='NP' drel='k7t:VGF'>
1.1	kuCa	QF	<fs af='kuCa,avy,,,,,,' name='kuCa' posn='10'>
1.2	samaya	NN	<fs af='samaya,n,m,sg,3,o,0,0' name='samaya' posn='20'>
1.3	waka	PSP	<fs af='waka,psp,,,,,,' name='waka' posn='30'>
	))
2	((	NP	<fs name='NP2' drel='k1:VGF'>
2.1	yaha	DEM	<fs af='yaha,pn,any,sg,3,d,,' name='yaha' posn='40'>
2.2	koda	NN	<fs af='koda,n,m,sg,3,d,0,0' name='koda' posn='50'>
	))
3	((	NP	<fs name='NP3' drel='k7:VGF'>
3.1	svEcCika	JJ	<fs af='svEcCika,adj,any,any,,o,,' name='svEcCika' posn='60'>
3.2	wOra	NN	<fs af='wOra,n,m,sg,3,o,0,0' name='wOra' posn='70'>
3.3	para	PSP	<fs af='para,psp,,,,,,' name='para' posn='80'>
	))
4	((	JJP	<fs name='JJP' drel='pof:VGF'>
4.1	lAgU	JJ	<fs af='lAgU,adj,any,any,,,,' name='lAgU' posn='90'>
	))
5	((	VGF	<fs name='VGF' stype='declarative' voicetype='active'>
5.1	hogA	VM	<fs af='ho,v,m,sg,3,,gA,gA' name='hogA' posn='100'>
5.2	,	SYM	<fs af='COMMA,punc,,,,,,' name=',' posn='110'>
	))
6	((	CCP	<fs name='CCP' drel='vmod:VGF'>
6.1	wAki	CC	<fs af='wAki,avy,,,,,,' name='wAki' posn='120'>
	))
7	((	NP	<fs name='NP4' drel='k4a:VGF2'>
7.1	byUro	NN	<fs af='byUro,n,m,sg,3,o,0,0' name='byUro' posn='130'>
7.2	ko	PSP	<fs af='ko,psp,,,,,,' name='ko' posn='140'>
	))
8	((	NP	<fs name='NP5' drel='r6:NP6'>
8.1	logoM	NN	<fs af='loga,n,m,pl,3,o,0,0' name='logoM' posn='150'>
8.2	kI	PSP	<fs af='kA,psp,f,sg,,d,,' name='kI' posn='160'>
	))
9	((	NP	<fs name='NP6' drel='k1:VGF2'>
9.1	prawikriyA	NN	<fs af='prawikriyA,n,f,sg,3,d,0,0' name='prawikriyA' posn='170'>
	))
10	((	JJP	<fs name='JJP2' drel='pof:VGF2'>
10.1	mAlUma	JJ	<fs af='mAlUma,adj,any,any,,,,' name='mAlUma' posn='180'>
	))
11	((	VGF	<fs voicetype='active' name='VGF2' stype='declarative' drel='ccof:CCP'>
11.1	ho	VM	<fs af='ho,v,any,any,any,,0,0' name='ho' posn='190'>
11.2	jAe	VAUX	<fs af='jA,v,m,sg,any,,eM,eM' name='jAe' posn='200'>
	))
12	((	BLK	<fs name='BLK' drel='rsym:VGF'>
12.1	.	SYM	<fs af='.,punc,,,,,,' name='.' posn='210'>
	))
</Sentence>

<Sentence id='18'>
1	((	NP	<fs name='NP' drel='k7t:VGF'>
1.1	isake	PRP	<fs af='yaha,pn,m,sg,3,o,ke,ke' name='isake' posn='10'>
1.2	bAxa	NST	<fs af='bAxa,nst,m,sg,3,d,,' name='bAxa' posn='20'>
	))
2	((	NP	<fs name='NP2' drel='rt:VGF'>
2.1	saBI	QF	<fs af='saBI,avy,,,,,,' name='saBI' posn='30'>
2.2	naI	JJ	<fs af='nayA,adj,f,pl,,o,,' name='naI' posn='40'>
2.3	-	SYM	<fs af='-,punc,,,,,,' name='-' posn='50'>
2.4	purAnI	JJ	<fs af='purAnA,adj,f,pl,,o,,' name='purAnI' posn='60'>
2.5	imArawoM	NN	<fs af='imArawa,n,f,pl,3,o,0,0' name='imArawoM' posn='70'>
2.6	ke	PSP	<fs af='ke,psp,,,,,,' name='ke' posn='80'>
2.7	lie	PSP	<fs af='lie,psp,,,,,,' name='lie' posn='90'>
	))
3	((	NP	<fs name='NP3' drel='k2:VGF'>
3.1	ise	PRP	<fs af='yaha,pn,any,sg,3,o,ko,ko' name='ise' posn='100'>
	))
4	((	JJP	<fs name='JJP' drel='pof:VGF'>
4.1	anivArya	JJ	<fs af='anivArya,adj,any,any,,,,' name='anivArya' posn='110'>
	))
5	((	VGF	<fs name='VGF' stype='declarative' voicetype='active'>
5.1	kara	VM	<fs af='kara,v,any,any,any,,0,0' name='kara' posn='120'>
5.2	xiyA	VAUX	<fs af='xe,v,m,sg,any,,yA,yA' name='xiyA' posn='130'>
5.3	jAegA	VAUX	<fs af='jA,v,m,sg,3,,gA,gA' name='jAegA' posn='140'>
	))
6	((	BLK	<fs name='BLK' drel='rsym:VGF'>
6.1	.	SYM	<fs af='.,punc,,,,,,' name='.' posn='150'>
	))
</Sentence>

<Sentence id='19'>
1	((	NP	<fs name='NP' drel='r6:NP2'>
1.1	byUro	NN	<fs af='byUro,n,m,sg,3,o,0,0' name='byUro' posn='10'>
1.2	ke	PSP	<fs af='kA,psp,m,pl,,o,,' name='ke' posn='20'>
	))
2	((	NP	<fs name='NP2' drel='rh:VGF'>
2.1	prayAsoM	NN	<fs af='prayAsa,n,m,pl,3,o,0,0' name='prayAsoM' posn='30'>
2.2	se	PSP	<fs af='se,psp,,,,,,' name='se' posn='40'>
	))
3	((	NP	<fs name='NP3' drel='k7t:VGF'>
3.1	aba	PRP	<fs af='aba,pn,,,,o,,' name='aba' posn='50'>
3.2	waka	PSP	<fs af='waka,psp,,,,,,' name='waka' posn='60'>
	))
4	((	NP	<fs name='NP4' drel='k7p:VGF'>
4.1	xeSa	NN	<fs af='xeSa,n,m,sg,3,o,0,0' name='xeSa' posn='70'>
4.2	Bara	RP	<fs af='Bara,avy,,,,,,' name='Bara' posn='80'>
4.3	meM	PSP	<fs af='meM,psp,,,,,,' name='meM' posn='90'>
	))
5	((	NP	<fs name='NP5' drel='k1:VGF'>
5.1	kaI	QF	<fs af='kaI,avy,,,,,,' name='kaI' posn='100'>
5.2	uxyogoM	NN	<fs af='uxyoga,n,m,pl,3,o,0,0' name='uxyogoM' posn='110'>
5.3	ne	PSP	<fs af='ne,psp,,,,,,' name='ne' posn='120'>
	))
6	((	NP	<fs name='NP6' drel='r6:NP7'>
6.1	apane	PRP	<fs af='apanA,pn,m,any,any,o,0,0' name='apane' posn='130'>
	))
7	((	NP	<fs name='NP7' drel='k7p:VGNF'>
7.1	parisaroM	NN	<fs af='parisara,n,m,pl,3,o,0,0' name='parisaroM' posn='140'>
7.2	meM	PSP	<fs af='meM,psp,,,,,,' name='meM2' posn='150'>
	))
8	((	NP	<fs name='NP8' drel='r6-k2:NP9'>
8.1	bijalI	NNC	<fs af='bijalI,n,f,sg,3,d,0,0' name='bijalI' posn='160'>
8.2	bacAva	NN	<fs af='bacAva,n,m,sg,3,o,0,0' name='bacAva' posn='170'>
8.3	ke	PSP	<fs af='kA,psp,m,pl,,d,,' name='ke2' posn='180'>
	))
9	((	NP	<fs name='NP9' drel='pof:VGNF'>
9.1	upAya	NN	<fs af='upAya,n,m,pl,3,d,0,0' name='upAya' posn='190'>
	))
10	((	VGNF	<fs name='VGNF' drel='vmod:VGF'>
10.1	karake	VM	<fs af='kara,v,any,any,any,,kara,kara' name='karake' posn='200'>
	))
11	((	NP	<fs name='NP10' drel='r6:NP11'>
11.1	apanI	PRP	<fs af='apanA,pn,f,any,any,o,0,0' name='apanI' posn='210'>
	))
12	((	NP	<fs name='NP11' drel='k2:VGF'>
12.1	Kapawa	NN	<fs af='Kapawa,n,f,sg,3,o,0,0' name='Kapawa' posn='220'>
12.2	ko	PSP	<fs af='ko,psp,,,,,,' name='ko' posn='230'>
	))
13	((	JJP	<fs name='JJP' drel='pof:VGF'>
13.1	kAPI	INTF	<fs af='kAPI,avy,,,,,,' name='kAPI' posn='240'>
13.2	kama	QF	<fs af='kama,avy,,,,,,' name='kama' posn='250'>
	))
14	((	VGF	<fs name='VGF' stype='declarative' voicetype='active'>
14.1	kiyA	VM	<fs af='kara,v,m,sg,any,,yA,yA' name='kiyA' posn='260'>
14.2	hE	VAUX	<fs af='hE,v,any,sg,3,,hE,hE' name='hE' posn='270'>
	))
15	((	BLK	<fs name='BLK' drel='rsym:VGF'>
15.1	.	SYM	<fs af='.,punc,,,,,,' name='.' posn='280'>
	))
</Sentence>

<Sentence id='20'>
1	((	NP	<fs name='NP' drel='k7t:VGF'>
1.1	sAla	NNPC	<fs af='sAla,n,m,sg,3,d,0,0' name='sAla' posn='10'>
1.2	2004	NNPC	<fs af='2004,n,m,sg,3,d,0,0' name='2004' posn='20'>
1.3	-	SYM	<fs af='-,punc,,,,,,' name='-' posn='30'>
1.4	05	NNP	<fs af='05,n,m,sg,3,o,0,0' name='05' posn='40'>
1.5	ke	PSP	<fs af='ke,psp,,,,,,' name='ke' posn='50'>
1.6	xOrAna	NST	<fs af='xOrAna,nst,m,sg,3,d,,' name='xOrAna' posn='60'>
	))
2	((	NP	<fs name='NP2' drel='ccof:NULL__CCP'>
2.1	plAstika	NN	<fs af='plAstika,n,m,sg,3,o,0,0' name='plAstika' posn='70'>
2.2	,	SYM	<fs af='COMMA,punc,,,,,,' name=',' posn='80'>
	))
3	((	NP	<fs name='NP3' drel='ccof:NULL__CCP'>
3.1	jUta	NN	<fs af='jUta,n,m,sg,3,o,0,0' name='jUta' posn='90'>
3.2	,	SYM	<fs af='COMMA,punc,,,,,,' name=',2' posn='100'>
	))
4	((	NP	<fs name='NP4' drel='ccof:NULL__CCP'>
4.1	peMta	NN	<fs af='peMta,n,m,sg,3,o,0,0' name='peMta' posn='110'>
4.2	,	SYM	<fs af='COMMA,punc,,,,,,' name=',3' posn='120'>
	))
5	((	NP	<fs name='NP5' drel='ccof:NULL__CCP'>
5.1	upaBokwA	NNC	<fs af='upaBokwA,n,m,sg,3,d,0,0' name='upaBokwA' posn='130'>
5.2	vaswueM	NN	<fs af='vaswu,n,f,pl,3,o,0,0' name='vaswueM' posn='140'>
5.3	,	SYM	<fs af='COMMA,punc,,,,,,' name=',4' posn='150'>
	))
6	((	NULL__CCP	<fs mtype='gap' troot='Ora' dmrel='r6:NP7' name='NULL__CCP'>
6.1	NULL	CC	<fs name='NULL'>
	))
7	((	NP	<fs name='NP6' drel='ccof:NULL__CCP'>
7.1	KAxya	JJ	<fs af='KAxya,adj,any,any,,o,,' name='KAxya' posn='160'>
7.2	prasaMskaraNa	NNC	<fs af='prasaMskaraNa,n,m,sg,3,d,0,0' name='prasaMskaraNa' posn='170'>
7.3	kRewra	NN	<fs af='kRewra,n,m,sg,3,o,0,0' name='kRewra' posn='180'>
7.4	kI	PSP	<fs af='kA,psp,f,pl,,o,,' name='kI' posn='190'>
	))
8	((	NP	<fs name='NP7' drel='k1:VGF'>
8.1	311	QC	<fs af='311,num,any,any,,any,,' name='311' posn='200'>
8.2	kaMpaniyoM	NN	<fs af='kaMpanI,n,f,pl,3,o,0,0' name='kaMpaniyoM' posn='210'>
8.3	ne	PSP	<fs af='ne,psp,,,,,,' name='ne' posn='220'>
	))
9	((	NP	<fs name='NP8' drel='r6-k2:NP9'>
9.1	250	QC	<fs af='250,num,any,any,,any,,' name='250' posn='230'>
9.2	megAvAta	NN	<fs af='megAvAta,n,m,sg,3,d,0,0' name='megAvAta' posn='240'>
9.3	bijalI	NN	<fs af='bijalI,n,f,sg,3,o,0,0' name='bijalI' posn='250'>
9.4	kI	PSP	<fs af='kA,psp,f,sg,,d,,' name='kI2' posn='260'>
	))
10	((	NP	<fs name='NP9' drel='pof:VGF'>
10.1	bacawa	NN	<fs af='bacawa,n,f,sg,3,d,0,0' name='bacawa' posn='270'>
	))
11	((	VGF	<fs name='VGF' stype='declarative' voicetype='active'>
11.1	kI	VM	<fs af='kara,v,f,sg,any,,yA,yA' name='kI3' posn='280'>
	))
12	((	BLK	<fs name='BLK' drel='rsym:VGF'>
12.1	.	SYM	<fs af='.,punc,,,,,,' name='.' posn='290'>
	))
</Sentence>

<Sentence id='21'>
1	((	NP	<fs name='NP' drel='rh:VGF'>
1.1	isase	PRP	<fs af='yaha,pn,any,sg,3,o,se,se' name='isase' posn='10'>
	))
2	((	NP	<fs name='NP2' drel='r6:NP3'>
2.1	unakI	PRP	<fs af='vaha,pn,f,any,any,o,kA,kA' name='unakI' posn='20'>
	))
3	((	NP	<fs name='NP3' drel='k7t:VGF'>
3.1	sAlAnA	NN	<fs af='sAlAnA,n,f,sg,3,d,0,0' name='sAlAnA' posn='30'>
	))
4	((	NP	<fs name='NP4' drel='r6:NP5'>
4.1	karIba	RP	<fs af='karIba,avy,,,,,,' name='karIba' posn='40'>
4.2	989	QCC	<fs af='989,num,any,any,,any,,' name='989' posn='50'>
4.3	karodZa	QC	<fs af='karoda,num,any,any,,any,,' name='karodZa' posn='60'>
4.4	rupaye	NN	<fs af='rupayA,n,m,sg,3,o,0,0' name='rupaye' posn='70'>
4.5	kI	PSP	<fs af='kA,psp,f,sg,,d,,' name='kI' posn='80'>
	))
5	((	NP	<fs name='NP5' drel='k1:VGF'>
5.1	bacawa	NN	<fs af='bacawa,n,f,sg,3,d,0,0' name='bacawa' posn='90'>
	))
6	((	VGF	<fs name='VGF' stype='declarative' voicetype='active'>
6.1	ho	VM	<fs af='ho,v,any,any,any,,0,0' name='ho' posn='100'>
6.2	rahI	VAUX	<fs af='raha,v,f,sg,any,,yA,yA' name='rahI' posn='110'>
6.3	hE	VAUX	<fs af='hE,v,any,sg,3,,hE,hE' name='hE' posn='120'>
	))
7	((	BLK	<fs name='BLK' drel='rsym:VGF'>
7.1	.	SYM	<fs af='.,punc,,,,,,' name='.' posn='130'>
	))
</Sentence>

