<Sentence id='1'>
1	((	NP	<fs name='NP' drel='k2:VGNF'>
1.1	sAwa	QC	<fs af='sAwa,num,any,any,,any,,' name='sAwa' posn='10'>
1.2	varRIya	JJ	<fs af='varRIya,adj,any,any,,o,,' name='varRIya' posn='20'>
1.3	bAlikA	NN	<fs af='bAlikA,n,f,sg,3,o,0,0' name='bAlikA' posn='30'>
1.4	se	PSP	<fs af='se,psp,,,,,,' name='se' posn='40'>
	))
2	((	NP	<fs name='NP2' drel='pof:VGNF'>
2.1	xuRkarma	NN	<fs af='xuRkarma,n,m,sg,3,d,0,0' name='xuRkarma' posn='50'>
	))
3	((	VGNF	<fs name='VGNF' drel='vmod:VGNN'>
3.1	kara	VM	<fs af='kara,v,any,any,any,,0,0' name='kara' posn='60'>
	))
4	((	NP	<fs name='NP3' drel='r6-k2:NP4'>
4.1	usakI	PRP	<fs af='vaha,pn,f,sg,3,o,kA,kA' name='usakI' posn='70'>
	))
5	((	NP	<fs name='NP4' drel='pof:VGNN'>
5.1	hawyA	NN	<fs af='hawyA,n,f,sg,3,d,0,0' name='hawyA' posn='80'>
	))
6	((	VGNN	<fs name='VGNN' drel='r6:NP5'>
6.1	kara	VM	<fs af='kara,v,any,any,any,,0,0' name='kara2' posn='90'>
6.2	xene	VAUX	<fs af='xe,v,any,any,any,o,nA,nA' name='xene' posn='100'>
6.3	ke	PSP	<fs af='kA,psp,m,sg,,o,,' name='ke' posn='110'>
	))
7	((	NP	<fs name='NP5' drel='k7:VGF'>
7.1	mAmale	NN	<fs af='mAmalA,n,m,sg,3,o,0,0' name='mAmale' posn='120'>
7.2	meM	PSP	<fs af='meM,psp,,,,,,' name='meM' posn='130'>
	))
8	((	NP	<fs name='NP6' drel='k7t:VGF'>
8.1	buXavAra	NNP	<fs af='buXavAra,n,m,sg,3,o,0,0' name='buXavAra' posn='140'>
8.2	ko	PSP	<fs af='ko,psp,,,,,,' name='ko' posn='150'>
	))
9	((	NP	<fs name='NP7' drel='ccof:CCP'>
9.1	paMjAba	NNP	<fs af='paMjAba,n,m,sg,3,d,0,0' name='paMjAba' posn='160'>
	))
10	((	CCP	<fs name='CCP' drel='nmod:NP9'>
10.1	evaM	CC	<fs af='evaM,avy,,,,,,' name='evaM' posn='170'>
	))
11	((	NP	<fs name='NP8' drel='ccof:CCP'>
11.1	hariyANA	NNP	<fs af='hariyANA,n,m,sg,3,d,0,0' name='hariyANA' posn='180'>
	))
12	((	NP	<fs name='NP9' drel='k1:VGF'>
12.1	hAIkorta	NN	<fs af='hAIkorta,n,m,sg,3,o,0,0' name='hAIkorta' posn='190'>
12.2	ne	PSP	<fs af='ne,psp,,,,,,' name='ne' posn='200'>
	))
13	((	NP	<fs name='NP10' drel='r6:NP11'>
13.1	mAnasA	NNP	<fs af='mAnasA,n,f,sg,3,o,0,0' name='mAnasA' posn='210'>
13.2	kI	PSP	<fs af='kA,psp,f,sg,,o,,' name='kI' posn='220'>
	))
14	((	NP	<fs name='NP11' drel='r6:NP12'>
14.1	axAlawa	NN	<fs af='axAlawa,n,f,sg,3,o,0,0' name='axAlawa' posn='230'>
14.2	ke	PSP	<fs af='kA,psp,m,sg,,o,,' name='ke2' posn='240'>
	))
15	((	NP	<fs name='NP12' drel='k2:VGNF2'>
15.1	PEsale	NN	<fs af='PEsalA,n,m,sg,3,o,0,0' name='PEsale' posn='250'>
15.2	ko	PSP	<fs af='ko,psp,,,,,,' name='ko2' posn='260'>
	))
16	((	JJP	<fs name='JJP' drel='k2s:VGNF2'>
16.1	sahI	JJ	<fs af='sahI,adj,any,any,,,,' name='sahI' posn='270'>
	))
17	((	VGNF	<fs name='VGNF2' drel='vmod:VGF'>
17.1	TaharAwe	VM	<fs af='TaharA,v,m,sg,any,,wA,wA' name='TaharAwe' posn='280'>
17.2	hue	VAUX	<fs af='ho,v,m,sg,any,,yA,yA' name='hue' posn='290'>
	))
18	((	NP	<fs name='NP13' drel='k4:VGNN2'>
18.1	aBiyukwa	JJ	<fs af='aBiyukwa,adj,any,any,,o,,' name='aBiyukwa' posn='300'>
18.2	amqwa	NNPC	<fs af='amqwa,adj,m,sg,3,d,0,0' name='amqwa' posn='310'>
18.3	siMha	NNP	<fs af='siMha,n,m,sg,3,o,0,0' name='siMha' posn='320'>
18.4	ko	PSP	<fs af='ko,psp,,,,,,' name='ko3' posn='330'>
	))
19	((	NP	<fs name='NP14' drel='r6:NP15'>
19.1	mOwa	NN	<fs af='mOwa,n,f,sg,3,o,0,0' name='mOwa' posn='340'>
19.2	kI	PSP	<fs af='kA,psp,f,sg,,d,,' name='kI2' posn='350'>
	))
20	((	NP	<fs name='NP15' drel='k2:VGNN2'>
20.1	sajA	NN	<fs af='sajA,n,f,sg,3,d,0,0' name='sajA' posn='360'>
	))
21	((	VGNN	<fs name='VGNN2' drel='r6:NP16'>
21.1	xie	VM	<fs af='xe,v,m,sg,any,,yA,yA' name='xie' posn='370'>
21.2	jAne	VAUX	<fs af='jA,v,any,any,any,o,nA,nA' name='jAne' posn='380'>
21.3	ke	PSP	<fs af='kA,psp,m,sg,,o,,' name='ke3' posn='390'>
	))
22	((	NP	<fs name='NP16' drel='k2:VGF'>
22.1	PEsale	NN	<fs af='PEsalA,n,m,sg,3,o,0,0' name='PEsale2' posn='400'>
22.2	ko	PSP	<fs af='ko,psp,,,,,,' name='ko4' posn='410'>
	))
23	((	JJP	<fs name='JJP2' drel='pof:VGF'>
23.1	barakarAra	JJ	<fs af='barakarAra,adj,any,any,,,,' name='barakarAra' posn='420'>
	))
24	((	VGF	<fs name='VGF' stype='declarative' voicetype='active'>
24.1	raKA	VM	<fs af='raKa,v,m,sg,any,,yA,yA' name='raKA' posn='430'>
24.2	hE	VAUX	<fs af='hE,v,any,sg,3,,hE,hE' name='hE' posn='440'>
	))
25	((	BLK	<fs name='BLK' drel='rsym:VGF'>
25.1	.	SYM	<fs af='.,punc,,,,,,' name='.' posn='450'>
	))
</Sentence>

<Sentence id='2'>
1	((	NP	<fs name='NP' drel='ccof:CCP'>
1.1	nyAyamUrwi	NNC	<fs af='nyAyamUrwi,n,m,sg,3,d,0,0' name='nyAyamUrwi' posn='10'>
1.2	prIwama	NNPC	<fs af='prIwama,null,m,sg,3,d,0,0' name='prIwama' posn='20'>
1.3	pAla	NNP	<fs af='pAla,n,m,sg,3,o,0,0' name='pAla' posn='30'>
	))
2	((	CCP	<fs name='CCP' drel='r6:NP3'>
2.1	va	CC	<fs af='va,avy,,,,,,' name='va' posn='40'>
	))
3	((	NP	<fs name='NP2' drel='ccof:CCP'>
3.1	nyAyamUrwi	NNC	<fs af='nyAyamUrwi,n,m,sg,3,d,0,0' name='nyAyamUrwi2' posn='50'>
3.2	ema.	NNPC	<fs af='ema.,null,m,sg,3,d,0,0' name='ema.' posn='60'>
3.3	esa.	NNPC	<fs af='esa.,null,m,sg,3,d,0,0' name='esa.' posn='70'>
3.4	gila	NNP	<fs af='gila,n,m,sg,3,o,0,0' name='gila' posn='80'>
3.5	kI	PSP	<fs af='kA,psp,f,sg,,o,,' name='kI' posn='90'>
	))
4	((	NP	<fs name='NP3' drel='k1:VGF'>
4.1	KaMdapITa	NN	<fs af='KaMdapITa,n,f,sg,3,o,0,0' name='KaMdapITa' posn='100'>
4.2	ne	PSP	<fs af='ne,psp,,,,,,' name='ne' posn='110'>
	))
5	((	NP	<fs name='NP4' drel='r6:NP5'>
5.1	apane	PRP	<fs af='apanA,pn,m,any,any,o,0,0' name='apane' posn='120'>
	))
6	((	NP	<fs name='NP5' drel='r6:NP6'>
6.1	23	QC	<fs af='23,num,any,any,,any,,' name='23' posn='130'>
6.2	pqRToM	NN	<fs af='pqRTa,n,m,pl,3,o,0,0' name='pqRToM' posn='140'>
6.3	ke	PSP	<fs af='kA,psp,m,sg,,o,,' name='ke' posn='150'>
	))
7	((	NP	<fs name='NP6' drel='k7:VGF'>
7.1	AxeSa	NN	<fs af='AxeSa,n,m,sg,3,o,0,0' name='AxeSa' posn='160'>
7.2	meM	PSP	<fs af='meM,psp,,,,,,' name='meM' posn='170'>
	))
8	((	VGF	<fs name='VGF' stype='declarative' voicetype='active'>
8.1	kahA	VM	<fs af='kaha,v,m,sg,any,,yA,yA' name='kahA' posn='180'>
	))
9	((	CCP	<fs name='CCP2' drel='k2:VGF'>
9.1	ki	CC	<fs af='ki,avy,,,,,,' name='ki' posn='190'>
	))
10	((	NP	<fs name='NP7' drel='k4a:VGF2'>
10.1	unheM	PRP	<fs af='vaha,pn,any,sg,3h,o,ko,ko' name='unheM' posn='200'>
	))
11	((	NP	<fs name='NP8' drel='nmod:NP9'>
11.1	EsA	PRP	<fs af='EsA,pn,m,sg,any,d,0,0' name='EsA' posn='210'>
	))
12	((	NP	<fs name='NP9' drel='k1:VGF2'>
12.1	koI	PRP	<fs af='koI,pn,any,sg,3,d,0,0' name='koI' posn='220'>
12.2	kAraNa	NN	<fs af='kAraNa,n,m,sg,3,d,0,0' name='kAraNa' posn='230'>
	))
13	((	NP	<fs name='NP10' drel='pof:VGF2'>
13.1	najara	NN	<fs af='najara,n,f,sg,3,d,0,0' name='najara' posn='240'>
	))
14	((	VGF	<fs voicetype='active' name='VGF2' stype='declarative' drel='ccof:CCP2'>
14.1	nahIM	NEG	<fs af='nahIM,avy,,,,,,' name='nahIM' posn='250'>
14.2	AwA	VM	<fs af='A,v,m,sg,any,,wA,wA' name='AwA' posn='260'>
	))
15	((	CCP	<fs name='CCP3' drel='rs:NP8'>
15.1	ki	CC	<fs af='ki,avy,,,,,,' name='ki2' posn='270'>
	))
16	((	NP	<fs name='NP11' drel='k7:VGF3'>
16.1	aBiyukwa	NN	<fs af='aBiyukwa,n,m,sg,3,o,0,0' name='aBiyukwa' posn='280'>
16.2	ke	PSP	<fs af='ke,psp,,,,,,' name='ke2' posn='290'>
16.3	sAWa	NST	<fs af='sAWa,nst,m,sg,3,d,,' name='sAWa' posn='300'>
	))
17	((	NP	<fs name='NP12' drel='pof:VGF3'>
17.1	rahama	NN	<fs af='rahama,n,m,sg,3,d,0,0' name='rahama' posn='310'>
	))
18	((	VGF	<fs voicetype='active' name='VGF3' stype='declarative' drel='ccof:CCP3'>
18.1	barawA	VM	<fs af='barawa,v,m,sg,any,,yA,yA' name='barawA' posn='320'>
18.2	jAe	VAUX	<fs af='jA,v,any,sg,3,,eM,eM' name='jAe' posn='330'>
	))
19	((	BLK	<fs name='BLK' drel='rsym:VGF'>
19.1	.	SYM	<fs af='.,punc,,,,,,' name='.' posn='340'>
	))
</Sentence>

<Sentence id='3'>
1	((	NP	<fs name='NP' drel='k1:VGF'>
1.1	sAkRya	NN	<fs af='sAkRya,n,m,pl,3,d,0,0' name='sAkRya' posn='10'>
	))
2	((	JJP	<fs name='JJP' drel='pof:VGF'>
2.1	sAbiwa	JJ	<fs af='sAbiwa,adj,any,any,,,,' name='sAbiwa' posn='20'>
	))
3	((	VGF	<fs name='VGF' stype='declarative' voicetype='active'>
3.1	kara	VM	<fs af='kara,v,any,any,any,,0,0' name='kara' posn='30'>
3.2	rahe	VAUX	<fs af='raha,v,m,pl,any,,yA,yA' name='rahe' posn='40'>
3.3	hEM	VAUX	<fs af='hE,v,any,pl,3,,hE,hE' name='hEM' posn='50'>
	))
4	((	CCP	<fs name='CCP' drel='k2:VGF'>
4.1	ki	CC	<fs af='ki,avy,,,,,,' name='ki' posn='60'>
	))
5	((	NP	<fs name='NP2' drel='k1:VGF2'>
5.1	aBiyukwa	NN	<fs af='aBiyukwa,n,m,sg,3,o,0,0' name='aBiyukwa' posn='70'>
5.2	ne	PSP	<fs af='ne,psp,,,,,,' name='ne' posn='80'>
	))
6	((	NP	<fs name='NP3' drel='ccof:CCP2'>
6.1	barbarawA	NN	<fs af='barbarawA,n,f,sg,3,o,0,0' name='barbarawA' posn='90'>
	))
7	((	CCP	<fs name='CCP2' drel='adv:VGNN'>
7.1	va	CC	<fs af='va,avy,,,,,,' name='va' posn='100'>
	))
8	((	NP	<fs name='NP4' drel='ccof:CCP2'>
8.1	amAnavIya	JJ	<fs af='amAnavIya,adj,any,any,,o,,' name='amAnavIya' posn='110'>
8.2	DaMga	NN	<fs af='DaMga,n,m,sg,3,o,0,0' name='DaMga' posn='120'>
8.3	se	PSP	<fs af='se,psp,,,,,,' name='se' posn='130'>
	))
9	((	NP	<fs name='NP5' drel='k2:VGNN'>
9.1	bAlikA	NN	<fs af='bAlikA,n,f,sg,3,o,0,0' name='bAlikA' posn='140'>
9.2	ke	PSP	<fs af='ke,psp,,,,,,' name='ke' posn='150'>
9.3	sAWa	NST	<fs af='sAWa,nst,m,sg,3,d,,' name='sAWa' posn='160'>
	))
10	((	NP	<fs name='NP6' drel='pof:VGNN'>
10.1	xuRkarma	NN	<fs af='xuRkarma,n,m,sg,3,d,0,0' name='xuRkarma' posn='170'>
	))
11	((	VGNN	<fs name='VGNN' drel='k7t:VGF2'>
11.1	karane	VM	<fs af='kara,v,any,any,any,o,nA,nA' name='karane' posn='180'>
11.2	ke	PSP	<fs af='ke,psp,,,,,,' name='ke2' posn='190'>
11.3	bAxa	NST	<fs af='bAxa,nst,m,sg,3,d,,' name='bAxa' posn='200'>
	))
12	((	NP	<fs name='NP7' drel='r6-k2:NP8'>
12.1	usakI	PRP	<fs af='vaha,pn,f,sg,3,o,kA,kA' name='usakI' posn='210'>
	))
13	((	NP	<fs name='NP8' drel='pof:VGF2'>
13.1	hawyA	NN	<fs af='hawyA,n,f,sg,3,d,0,0' name='hawyA' posn='220'>
	))
14	((	VGF	<fs voicetype='active' name='VGF2' stype='declarative' drel='ccof:CCP'>
14.1	kI	VM	<fs af='kara,v,f,sg,any,,yA,yA' name='kI' posn='230'>
	))
15	((	BLK	<fs name='BLK' drel='rsym:VGF'>
15.1	.	SYM	<fs af='.,punc,,,,,,' name='.' posn='240'>
	))
</Sentence>

<Sentence id='4'>
1	((	NP	<fs name='NP' drel='k1:VGF'>
1.1	KaMdapITa	NN	<fs af='KaMdapITa,n,f,sg,3,o,0,0' name='KaMdapITa' posn='10'>
1.2	ne	PSP	<fs af='ne,psp,,,,,,' name='ne' posn='20'>
	))
2	((	VGF	<fs name='VGF' stype='declarative' voicetype='active'>
2.1	kahA	VM	<fs af='kaha,v,m,sg,any,,yA,yA' name='kahA' posn='30'>
	))
3	((	CCP	<fs name='CCP' drel='k2:VGF'>
3.1	ki	CC	<fs af='ki,avy,,,,,,' name='ki' posn='40'>
	))
4	((	NP	<fs name='NP2' drel='k4a:NULL__VGF'>
4.1	unheM	PRP	<fs af='vaha,pn,any,sg,3h,o,ko,ko' name='unheM' posn='50'>
	))
5	((	NP	<fs name='NP3' drel='k2:VGNF'>
5.1	yaha	PRP	<fs af='yaha,pn,any,sg,3,d,0,0' name='yaha' posn='60'>
	))
6	((	VGNF	<fs name='VGNF' drel='vmod:NULL__VGF'>
6.1	kahawe	VM	<fs af='kaha,v,m,sg,any,,wA,wA' name='kahawe' posn='70'>
	))
7	((	NP	<fs name='NP4' drel='k1:NULL__VGF'>
7.1	koI	PRP	<fs af='koI,pn,any,sg,3,d,0,0' name='koI' posn='80'>
7.2	saMxeha	NN	<fs af='saMxeha,n,m,sg,3,d,0,0' name='saMxeha' posn='90'>
	))
8	((	NEGP	<fs name='NEGP' drel='vmod:NULL__VGF'>
8.1	nahIM	NEG	<fs af='nahIM,avy,,,,,,' name='nahIM' posn='100'>
	))
9	((	NULL__VGF	<fs name='NULL__VGF' dmrel='ccof:CCP' mtype='gap' troot='hE' voicetype='active' stype='declarative'>
9.1	NULL	VM	<fs name='NULL' cat='v'>
	))
10	((	CCP	<fs name='CCP2' drel='rs:NP3'>
10.1	ki	CC	<fs af='ki,avy,,,,,,' name='ki2' posn='110'>
	))
11	((	NP	<fs name='NP5' drel='k1:VGF2'>
11.1	yaha	PRP	<fs af='yaha,pn,any,sg,3,d,0,0' name='yaha2' posn='120'>
	))
12	((	NP	<fs name='NP6' drel='r6:NP7'>
12.1	awi	INTF	<fs af='awi,avy,,,,,,' name='awi' posn='130'>
12.2	xurlaBa	JJ	<fs af='xurlaBa,adj,any,any,,o,,' name='xurlaBa' posn='140'>
12.3	waraha	NN	<fs af='waraha,n,f,sg,3,o,0,0' name='waraha' posn='150'>
12.4	kA	PSP	<fs af='kA,psp,m,sg,,d,,' name='kA' posn='160'>
	))
13	((	NP	<fs name='NP7' drel='k1s:VGF2'>
13.1	mAmalA	NN	<fs af='mAmalA,n,m,sg,3,d,0,0' name='mAmalA' posn='170'>
	))
14	((	VGF	<fs voicetype='active' name='VGF2' stype='declarative' drel='ccof:CCP2'>
14.1	hE	VM	<fs af='hE,v,any,sg,3,,hE,hE' name='hE' posn='180'>
14.2	,	SYM	<fs af='COMMA,punc,,,,,,' name=',' posn='190'>
	))
15	((	NP	<fs coref=':NP7' name='NP8' drel='k7:VGF3'>
15.1	jahAM	PRP	<fs af='jahAz,pn,,,,d,,' name='jahAM' posn='200'>
	))
16	((	NP	<fs name='NP9' drel='k4:VGNN'>
16.1	aBiyukwa	JJ	<fs af='aBiyukwa,adj,any,any,,o,,' name='aBiyukwa' posn='210'>
16.2	amqwa	NNPC	<fs af='amqwa,adj,m,sg,3,d,0,0' name='amqwa' posn='220'>
16.3	siMha	NNP	<fs af='siMha,n,m,sg,3,o,0,0' name='siMha' posn='230'>
16.4	ko	PSP	<fs af='ko,psp,,,,,,' name='ko' posn='240'>
	))
17	((	NP	<fs name='NP10' drel='r6:NP11'>
17.1	mOwa	NN	<fs af='mOwa,n,f,sg,3,o,0,0' name='mOwa' posn='250'>
17.2	kI	PSP	<fs af='kA,psp,f,sg,,d,,' name='kI' posn='260'>
	))
18	((	NP	<fs name='NP11' drel='k2:VGNN'>
18.1	sajA	NN	<fs af='sajA,n,f,sg,3,d,0,0' name='sajA' posn='270'>
	))
19	((	VGNN	<fs name='VGNN' drel='k1:VGF3'>
19.1	xiyA	VM	<fs af='xe,v,m,sg,any,,yA,yA' name='xiyA' posn='280'>
19.2	jAnA	VAUX	<fs af='jA,v,any,any,any,d,nA,nA' name='jAnA' posn='290'>
19.3	hI	RP	<fs af='hI,avy,,,,,,' name='hI' posn='300'>
	))
20	((	JJP	<fs name='JJP' drel='k1s:VGF3'>
20.1	sahI	JJ	<fs af='sahI,adj,any,any,,,,' name='sahI' posn='310'>
	))
21	((	VGF	<fs voicetype='active' name='VGF3' stype='declarative' drel='nmod__relc:NP7'>
21.1	hogA	VM	<fs af='ho,v,m,sg,3,,gA,gA' name='hogA' posn='320'>
	))
22	((	BLK	<fs name='BLK' drel='rsym:VGF'>
22.1	.	SYM	<fs af='.,punc,,,,,,' name='.' posn='330'>
	))
</Sentence>

<Sentence id='5'>
1	((	NP	<fs name='NP' drel='nmod:NP2'>
1.1	gAMva	NN	<fs af='gAzva,n,m,sg,3,d,0,0' name='gAMva' posn='10'>
	))
2	((	NP	<fs name='NP2' drel='jjmod:JJP'>
2.1	rAmagaDZa	NNPC	<fs af='rAmagaDZa,n,m,sg,3,d,0,0' name='rAmagaDZa' posn='20'>
2.2	SAhapuriyA	NNP	<fs af='SAhapuriyA,n,m,sg,3,d,0,0' name='SAhapuriyA' posn='30'>
	))
3	((	JJP	<fs name='JJP' drel='nmod:NP5'>
3.1	nivAsI	JJ	<fs af='nivAsI,adj,any,any,,d,,' name='nivAsI' posn='40'>
	))
4	((	NP	<fs name='NP3' drel='k7p:VGNN'>
4.1	xUsarI	QO	<fs af='xUsarA,num,f,sg,,o,,' name='xUsarI' posn='50'>
4.2	kakRA	NN	<fs af='kakRA,n,f,sg,3,o,0,0' name='kakRA' posn='60'>
4.3	meM	PSP	<fs af='meM,psp,,,,,,' name='meM' posn='70'>
	))
5	((	VGNN	<fs name='VGNN' drel='nmod:NP4'>
5.1	paDZane	VM	<fs af='paDa,v,any,any,any,o,nA,nA' name='paDZane' posn='80'>
5.2	vAlI	PSP	<fs af='vAlA,psp,f,sg,,d,,' name='vAlI' posn='90'>
	))
6	((	NP	<fs name='NP4' drel='nmod:NP5'>
6.1	sAwa	QC	<fs af='sAwa,num,any,any,,any,,' name='sAwa' posn='100'>
6.2	varRIya	JJ	<fs af='varRIya,adj,any,any,,d,,' name='varRIya' posn='110'>
6.3	bAlikA	NN	<fs af='bAlikA,n,f,sg,3,d,0,0' name='bAlikA' posn='120'>
	))
7	((	NP	<fs name='NP5' drel='nmod:NP6'>
7.1	rAjaprIwa	NNPC	<fs af='rAjaprIwa,n,f,sg,3,d,0,0' name='rAjaprIwa' posn='130'>
7.2	kOra	NNP	<fs af='kOra,n,f,sg,3,d,0,0' name='kOra' posn='140'>
	))
8	((	NP	<fs name='NP6' drel='k1:VGF'>
8.1	urPa	RP	<fs af='urPa,avy,,,,,,' name='urPa' posn='150'>
8.2	rUbI	NNP	<fs af='rUbI,n,f,sg,3,d,0,0' name='rUbI' posn='160'>
	))
9	((	NP	<fs name='NP7' drel='k7t:VGF'>
9.1	wIna	NNPC	<fs af='wIna,n,any,sg,3,d,0,0' name='wIna' posn='170'>
9.2	navaMbara	NNPC	<fs af='navaMbara,null,m,sg,3,d,0,0' name='navaMbara' posn='180'>
9.3	2003	NNP	<fs af='2003,n,any,sg,3,o,0,0' name='2003' posn='190'>
9.4	ko	PSP	<fs af='ko,psp,,,,,,' name='ko' posn='200'>
	))
10	((	NP	<fs name='NP8' drel='r6:NP9'>
10.1	apanI	PRP	<fs af='apanA,pn,f,any,any,o,0,0' name='apanI' posn='210'>
	))
11	((	NP	<fs name='NP9' drel='nmod:NP10'>
11.1	sahelI	NN	<fs af='sahelI,n,f,sg,3,o,0,0' name='sahelI' posn='220'>
	))
12	((	NP	<fs name='NP10' drel='r6:NP11'>
12.1	amanaprIwa	NNPC	<fs af='amanaprIwa,n,f,sg,3,d,0,0' name='amanaprIwa' posn='230'>
12.2	kOra	NNP	<fs af='kOra,n,f,sg,3,o,0,0' name='kOra2' posn='240'>
12.3	ke	PSP	<fs af='ke,psp,,,,,,' name='ke' posn='250'>
	))
13	((	NP	<fs name='NP11' drel='k2p:VGF'>
13.1	Gara	NN	<fs af='Gara,n,m,sg,3,d,0,0' name='Gara' posn='260'>
	))
14	((	VGNN	<fs name='VGNN2' drel='rt:VGF'>
14.1	Kelane	VM	<fs af='Kela,v,any,any,any,o,nA,nA' name='Kelane' posn='270'>
14.2	ke	PSP	<fs af='ke,psp,,,,,,' name='ke2' posn='280'>
14.3	lie	PSP	<fs af='lie,psp,,,,,,' name='lie' posn='290'>
	))
15	((	VGF	<fs name='VGF' stype='declarative' voicetype='active'>
15.1	gaI	VM	<fs af='jA,v,f,sg,any,,yA1,yA1' name='gaI' posn='300'>
	))
16	((	BLK	<fs name='BLK' drel='rsym:VGF'>
16.1	.	SYM	<fs af='.,punc,,,,,,' name='.' posn='310'>
	))
</Sentence>

<Sentence id='6'>
1	((	NP	<fs name='NP' drel='r6:NP2'>
1.1	amana	NNP	<fs af='amana,n,f,sg,3,o,0,0' name='amana' posn='10'>
1.2	kA	PSP	<fs af='kA,psp,m,sg,,d,,' name='kA' posn='20'>
	))
2	((	NP	<fs name='NP2' drel='k1:VGF'>
2.1	Gara	NN	<fs af='Gara,n,m,sg,3,d,0,0' name='Gara' posn='30'>
	))
3	((	NP	<fs name='NP3' drel='k7p:VGF'>
3.1	KewoM	NN	<fs af='Kewa,n,m,pl,3,o,0,0' name='KewoM' posn='40'>
3.2	meM	PSP	<fs af='meM,psp,,,,,,' name='meM' posn='50'>
	))
4	((	VGF	<fs name='VGF' stype='declarative' voicetype='active'>
4.1	banA	VM	<fs af='bana,v,m,sg,any,,yA,yA' name='banA' posn='60'>
4.2	WA	VAUX	<fs af='WA,v,m,sg,any,,WA,WA' name='WA' posn='70'>
	))
5	((	BLK	<fs name='BLK' drel='rsym:VGF'>
5.1	.	SYM	<fs af='.,punc,,,,,,' name='.' posn='80'>
	))
</Sentence>

<Sentence id='7'>
1	((	VGNN	<fs name='VGNN' drel='k7t:VGF'>
1.1	Kelane	VM	<fs af='Kela,v,any,any,any,o,nA,nA' name='Kelane' posn='10'>
1.2	ke	PSP	<fs af='ke,psp,,,,,,' name='ke' posn='20'>
1.3	bAxa	NST	<fs af='bAxa,nst,m,sg,3,d,,' name='bAxa' posn='30'>
	))
2	((	NP	<fs name='NP' drel='k1:VGF'>
2.1	amana	NNP	<fs af='amana,n,f,sg,3,d,0,0' name='amana' posn='40'>
	))
3	((	NP	<fs name='NP2' drel='k7p:VGF'>
3.1	AXe	QF	<fs af='AXA,avy,m,sg,,o,,' name='AXe' posn='50'>
3.2	rAswe	NN	<fs af='rAswA,n,m,sg,3,o,0,0' name='rAswe' posn='60'>
3.3	waka	PSP	<fs af='waka,psp,,,,,,' name='waka' posn='70'>
	))
4	((	NP	<fs name='NP3' drel='r6:NP4'>
4.1	apanI	PRP	<fs af='apanA,pn,f,any,any,o,0,0' name='apanI' posn='80'>
	))
5	((	NP	<fs name='NP4' drel='nmod:NP5'>
5.1	sahelI	NN	<fs af='sahelI,n,f,sg,3,o,0,0' name='sahelI' posn='90'>
	))
6	((	NP	<fs name='NP5' drel='k2:VGF'>
6.1	rAjaprIwa	NNP	<fs af='rAjaprIwa,n,f,sg,3,o,0,0' name='rAjaprIwa' posn='100'>
6.2	ko	PSP	<fs af='ko,psp,,,,,,' name='ko' posn='110'>
	))
7	((	VGNN	<fs name='VGNN2' drel='rt:VGF'>
7.1	CodZane	VM	<fs af='Coda,v,any,any,any,d,nA,nA' name='CodZane' posn='120'>
	))
8	((	VGF	<fs name='VGF' stype='declarative' voicetype='active'>
8.1	AI	VM	<fs af='A,v,f,sg,any,,yA,yA' name='AI' posn='130'>
	))
9	((	BLK	<fs name='BLK' drel='rsym:VGF'>
9.1	.	SYM	<fs af='.,punc,,,,,,' name='.' posn='140'>
	))
</Sentence>

<Sentence id='8'>
1	((	NP	<fs name='NP' drel='k7t:VGNN'>
1.1	xera	NN	<fs af='xera,n,f,sg,3,d,0,0' name='xera' posn='10'>
1.2	SAma	NN	<fs af='SAma,n,f,sg,3,o,0,0' name='SAma' posn='20'>
1.3	waka	PSP	<fs af='waka,psp,,,,,,' name='waka' posn='30'>
	))
2	((	NP	<fs name='NP2' drel='k1:VGNN'>
2.1	rAjaprIwa	NNP	<fs af='rAjaprIwa,n,f,sg,3,o,0,0' name='rAjaprIwa' posn='40'>
2.2	ke	PSP	<fs af='kA,psp,,,,,,' name='ke' posn='50'>
	))
3	((	NP	<fs name='NP3' drel='k2p:VGNN'>
3.1	Gara	NN	<fs af='Gara,n,m,sg,3,d,0,0' name='Gara' posn='60'>
	))
4	((	VGNN	<fs name='VGNN' drel='rh:VGF'>
4.1	na	NEG	<fs af='na,avy,,,,,,' name='na' posn='70'>
4.2	pahuMcane	VM	<fs af='pahuMca,v,any,any,any,o,nA,nA' name='pahuMcane' posn='80'>
4.3	para	PSP	<fs af='para,psp,,,,,,' name='para' posn='90'>
	))
5	((	NP	<fs name='NP4' drel='k1:VGF'>
5.1	Gara	NN	<fs af='Gara,n,m,sg,3,o,0,0' name='Gara2' posn='100'>
5.2	vAloM	PSP	<fs af='vAlA,psp,m,pl,,o,,' name='vAloM' posn='110'>
5.3	ne	PSP	<fs af='ne,psp,,,,,,' name='ne' posn='120'>
	))
6	((	NP	<fs name='NP5' drel='k2:VGF'>
6.1	use	PRP	<fs af='vaha,pn,any,sg,3,o,ko,ko' name='use' posn='130'>
	))
7	((	VGF	<fs voicetype='active' name='VGF' stype='declarative' drel='ccof:CCP'>
7.1	DUMDA	VM	<fs af='DUMDa,v,m,sg,any,,yA,yA' name='DUMDA' posn='140'>
7.2	,	SYM	<fs af='COMMA,punc,,,,,,' name=',' posn='150'>
	))
8	((	CCP	<fs name='CCP'>
8.1	lekina	CC	<fs af='lekina,avy,,,,,,' name='lekina' posn='160'>
	))
9	((	NP	<fs name='NP6' drel='k1:VGF2'>
9.1	vaha	PRP	<fs af='vaha,pn,any,sg,3,d,0,0' name='vaha' posn='170'>
	))
10	((	VGF	<fs voicetype='active' name='VGF2' stype='declarative' drel='ccof:CCP'>
10.1	nahIM	NEG	<fs af='nahIM,avy,,,,,,' name='nahIM' posn='180'>
10.2	milI	VM	<fs af='mila,v,f,sg,any,,yA,yA' name='milI' posn='190'>
	))
11	((	BLK	<fs name='BLK' drel='rsym:CCP'>
11.1	.	SYM	<fs af='.,punc,,,,,,' name='.' posn='200'>
	))
</Sentence>

<Sentence id='9'>
1	((	NP	<fs name='NP' drel='k7t:VGF'>
1.1	bAxa	NST	<fs af='bAxa,nst,m,sg,3,o,,' name='bAxa' posn='10'>
1.2	meM	PSP	<fs af='meM,psp,,,,,,' name='meM' posn='20'>
	))
2	((	NP	<fs name='NP2' drel='r6:NP3'>
2.1	rAjaprIwa	NNP	<fs af='rAjaprIwa,n,f,sg,3,o,0,0' name='rAjaprIwa' posn='30'>
2.2	kA	PSP	<fs af='kA,psp,m,sg,,d,,' name='kA' posn='40'>
	))
3	((	NP	<fs name='NP3' drel='k1:VGF'>
3.1	Sava	NN	<fs af='Sava,n,m,sg,3,d,0,0' name='Sava' posn='50'>
	))
4	((	NP	<fs name='NP4' drel='r6:NP5'>
4.1	aBiyukwa	JJ	<fs af='aBiyukwa,adj,any,any,,o,,' name='aBiyukwa' posn='60'>
4.2	amqwa	NNP	<fs af='amqwa,n,m,sg,3,o,0,0' name='amqwa' posn='70'>
4.3	ke	PSP	<fs af='kA,psp,m,pl,,o,,' name='ke' posn='80'>
	))
5	((	NP	<fs name='NP5' drel='k7p:VGF'>
5.1	KewoM	NN	<fs af='Kewa,n,m,pl,3,o,0,0' name='KewoM' posn='90'>
5.2	meM	PSP	<fs af='meM,psp,,,,,,' name='meM2' posn='100'>
	))
6	((	NP	<fs name='NP6' drel='k7:VGF'>
6.1	nagna	JJ	<fs af='nagna,adj,any,any,,o,,' name='nagna' posn='110'>
6.2	avasWA	NN	<fs af='avasWA,n,f,sg,3,o,0,0' name='avasWA' posn='120'>
6.3	meM	PSP	<fs af='meM,psp,,,,,,' name='meM3' posn='130'>
	))
7	((	VGF	<fs name='VGF' stype='declarative' voicetype='active'>
7.1	milA	VM	<fs af='mila,v,m,sg,any,,yA,yA' name='milA' posn='140'>
	))
8	((	BLK	<fs name='BLK' drel='rsym:VGF'>
8.1	.	SYM	<fs af='.,punc,,,,,,' name='.' posn='150'>
	))
</Sentence>

<Sentence id='10'>
1	((	NP	<fs name='NP' drel='r6:NP2'>
1.1	bAlikA	NN	<fs af='bAlikA,n,f,sg,3,o,0,0' name='bAlikA' posn='10'>
1.2	ke	PSP	<fs af='kA,psp,m,pl,,d,,' name='ke' posn='20'>
	))
2	((	NP	<fs name='NP2' drel='k1:VGF'>
2.1	aMga	NN	<fs af='aMga,n,m,pl,3,d,0,0' name='aMga' posn='30'>
	))
3	((	NP	<fs name='NP3' drel='jjmod:JJP'>
3.1	KUna	NN	<fs af='KUna,n,m,sg,3,o,0,0' name='KUna' posn='40'>
3.2	se	PSP	<fs af='se,psp,,,,,,' name='se' posn='50'>
	))
4	((	JJP	<fs name='JJP' drel='k1s:VGF'>
4.1	sarAbora	JJ	<fs af='sarAbora,adj,any,any,,,,' name='sarAbora' posn='60'>
	))
5	((	VGF	<fs voicetype='active' name='VGF' stype='declarative' drel='ccof:CCP'>
5.1	We	VM	<fs af='WA,v,m,pl,any,,WA,WA' name='We' posn='70'>
	))
6	((	CCP	<fs name='CCP'>
6.1	Ora	CC	<fs af='Ora,avy,,,,,,' name='Ora' posn='80'>
	))
7	((	NP	<fs name='NP4' drel='r6:NP5'>
7.1	usake	PRP	<fs af='vaha,pn,m,sg,3,o,kA,kA' name='usake' posn='90'>
	))
8	((	NP	<fs name='NP5' drel='k7p:VGF2'>
8.1	hAWa	NN	<fs af='hAWa,n,m,sg,3,o,0,0' name='hAWa' posn='100'>
8.2	meM	PSP	<fs af='meM,psp,,,,,,' name='meM' posn='110'>
	))
9	((	NP	<fs name='NP6' drel='k1:VGF2'>
9.1	bAla	NN	<fs af='bAla,n,m,pl,3,d,0,0' name='bAla' posn='120'>
	))
10	((	VGF	<fs voicetype='active' name='VGF2' stype='declarative' drel='ccof:CCP'>
10.1	We	VM	<fs af='WA,v,m,pl,any,,WA,WA' name='We2' posn='130'>
	))
11	((	BLK	<fs name='BLK' drel='rsym:CCP'>
11.1	.	SYM	<fs af='.,punc,,,,,,' name='.' posn='140'>
	))
</Sentence>

<Sentence id='11'>
1	((	NP	<fs name='NP' drel='k7p:VGF'>
1.1	gale	NN	<fs af='galA,n,m,sg,3,o,0,0' name='gale' posn='10'>
1.2	para	PSP	<fs af='para,psp,,,,,,' name='para' posn='20'>
1.3	BI	RP	<fs af='BI,avy,,,,,,' name='BI' posn='30'>
	))
2	((	NP	<fs name='NP2' drel='k1:VGF'>
2.1	niSAna	NN	<fs af='niSAna,n,m,pl,3,d,0,0' name='niSAna' posn='40'>
	))
3	((	VGF	<fs name='VGF' stype='declarative' voicetype='active'>
3.1	We	VM	<fs af='WA,v,m,pl,any,,WA,WA' name='We' posn='50'>
	))
4	((	BLK	<fs name='BLK' drel='rsym:VGF'>
4.1	.	SYM	<fs af='.,punc,,,,,,' name='.' posn='60'>
	))
</Sentence>

<Sentence id='12'>
1	((	NP	<fs name='NP' drel='r6:NP2'>
1.1	gAMva	NN	<fs af='gAzva,n,m,sg,3,o,0,0' name='gAMva' posn='10'>
1.2	ke	PSP	<fs af='kA,psp,m,sg,,o,,' name='ke' posn='20'>
1.3	hI	RP	<fs af='hI,avy,,,,,,' name='hI' posn='30'>
	))
2	((	NP	<fs name='NP2' drel='nmod:NP3'>
2.1	eka	QC	<fs af='eka,num,any,any,,any,,' name='eka' posn='40'>
2.2	vyakwi	NN	<fs af='vyakwi,n,m,sg,3,o,0,0' name='vyakwi' posn='50'>
	))
3	((	NP	<fs name='NP3' drel='k1:VGF'>
3.1	guramela	NNPC	<fs af='guramela,n,m,sg,3,d,0,0' name='guramela' posn='60'>
3.2	siMha	NNP	<fs af='siMha,n,m,sg,3,o,0,0' name='siMha' posn='70'>
3.3	ne	PSP	<fs af='ne,psp,,,,,,' name='ne' posn='80'>
	))
4	((	VGF	<fs name='VGF' stype='declarative' voicetype='active'>
4.1	kahA	VM	<fs af='kaha,v,m,sg,any,,yA,yA' name='kahA' posn='90'>
	))
5	((	CCP	<fs name='CCP' drel='k2:VGF'>
5.1	ki	CC	<fs af='ki,avy,,,,,,' name='ki' posn='100'>
	))
6	((	NP	<fs name='NP4' drel='k1:VGF2'>
6.1	usane	PRP	<fs af='vaha,pn,any,sg,3,o,ne,ne' name='usane' posn='110'>
	))
7	((	NP	<fs name='NP5' drel='k2:VGF2'>
7.1	baccI	NN	<fs af='baccI,n,f,sg,3,o,0,0' name='baccI' posn='120'>
7.2	ko	PSP	<fs af='ko,psp,,,,,,' name='ko' posn='130'>
	))
8	((	NP	<fs name='NP6' drel='ras-k2:VGF2'>
8.1	amqwa	NNP	<fs af='amqwa,n,m,sg,3,o,0,0' name='amqwa' posn='140'>
8.2	ke	PSP	<fs af='ke,psp,,,,,,' name='ke2' posn='150'>
8.3	sAWa	NST	<fs af='sAWa,nst,m,sg,3,d,,' name='sAWa' posn='160'>
	))
9	((	VGF	<fs voicetype='active' name='VGF2' stype='declarative' drel='ccof:CCP'>
9.1	xeKA	VM	<fs af='xeKa,v,m,sg,any,,yA,yA' name='xeKA' posn='170'>
9.2	WA	VAUX	<fs af='WA,v,m,sg,any,,WA,WA' name='WA' posn='180'>
	))
10	((	BLK	<fs name='BLK' drel='rsym:VGF'>
10.1	.	SYM	<fs af='.,punc,,,,,,' name='.' posn='190'>
	))
</Sentence>

<Sentence id='13'>
1	((	NP	<fs name='NP' drel='k1:VGF'>
1.1	pulisa	NN	<fs af='pulisa,n,f,sg,3,o,0,0' name='pulisa' posn='10'>
1.2	ne	PSP	<fs af='ne,psp,,,,,,' name='ne' posn='20'>
	))
2	((	NP	<fs name='NP2' drel='r6:NP3'>
2.1	amqwa	NNP	<fs af='amqwa,n,m,sg,3,o,0,0' name='amqwa' posn='30'>
2.2	ke	PSP	<fs af='kA,psp,m,sg,,o,,' name='ke' posn='40'>
	))
3	((	NP	<fs name='NP3' drel='k7p:VGF'>
3.1	Gara	NN	<fs af='Gara,n,m,sg,3,o,0,0' name='Gara' posn='50'>
3.2	para	PSP	<fs af='para,psp,,,,,,' name='para' posn='60'>
	))
4	((	NP	<fs name='NP4' drel='pof:VGF'>
4.1	xabiSa	NN	<fs af='xabiSa,n,f,sg,3,d,0,0' name='xabiSa' posn='70'>
	))
5	((	VGF	<fs voicetype='active' name='VGF' stype='declarative' drel='ccof:CCP'>
5.1	xI	VM	<fs af='xe,v,f,sg,any,,yA,yA' name='xI' posn='80'>
5.2	,	SYM	<fs af='COMMA,punc,,,,,,' name=',' posn='90'>
	))
6	((	CCP	<fs name='CCP'>
6.1	lekina	CC	<fs af='lekina,avy,,,,,,' name='lekina' posn='100'>
	))
7	((	NP	<fs name='NP5' drel='k1:VGF2'>
7.1	vaha	PRP	<fs af='vaha,pn,any,sg,3,d,0,0' name='vaha' posn='110'>
	))
8	((	VGF	<fs voicetype='active' name='VGF2' stype='declarative' drel='ccof:CCP'>
8.1	nahIM	NEG	<fs af='nahIM,avy,,,,,,' name='nahIM' posn='120'>
8.2	milA	VM	<fs af='mila,v,m,sg,any,,yA,yA' name='milA' posn='130'>
	))
9	((	BLK	<fs name='BLK' drel='rsym:CCP'>
9.1	.	SYM	<fs af='.,punc,,,,,,' name='.' posn='140'>
	))
</Sentence>

<Sentence id='14'>
1	((	NP	<fs name='NP' drel='k7t:VGF'>
1.1	bAxa	NST	<fs af='bAxa,nst,m,sg,3,o,,' name='bAxa' posn='10'>
1.2	meM	PSP	<fs af='meM,psp,,,,,,' name='meM' posn='20'>
	))
2	((	NP	<fs name='NP2' drel='r6:NP3'>
2.1	gAMva	NN	<fs af='gAzva,n,m,sg,3,o,0,0' name='gAMva' posn='30'>
2.2	ke	PSP	<fs af='kA,psp,m,sg,,o,,' name='ke' posn='40'>
	))
3	((	NP	<fs name='NP3' drel='nmod:NP4'>
3.1	paMca	NN	<fs af='paMca,n,m,sg,3,o,0,0' name='paMca' posn='50'>
	))
4	((	NP	<fs name='NP4' drel='k1:VGF'>
4.1	karmajIwa	NNPC	<fs af='karmajIwa,n,m,sg,3,d,0,0' name='karmajIwa' posn='60'>
4.2	siMha	NNP	<fs af='siMha,n,m,sg,3,o,0,0' name='siMha' posn='70'>
4.3	ne	PSP	<fs af='ne,psp,,,,,,' name='ne' posn='80'>
	))
5	((	NP	<fs name='NP5' drel='k2:VGF'>
5.1	amqwa	NNP	<fs af='amqwa,n,m,sg,3,o,0,0' name='amqwa' posn='90'>
5.2	ko	PSP	<fs af='ko,psp,,,,,,' name='ko' posn='100'>
	))
6	((	NP	<fs name='NP6' drel='k7:VGF'>
6.1	pulisa	NN	<fs af='pulisa,n,f,sg,3,o,0,0' name='pulisa' posn='110'>
6.2	ke	PSP	<fs af='ke,psp,,,,,,' name='ke2' posn='120'>
6.3	sAmane	NST	<fs af='sAmane,nst,m,sg,3,d,,' name='sAmane' posn='130'>
	))
7	((	JJP	<fs name='JJP' drel='pof:VGF'>
7.1	peSa	JJ	<fs af='peSa,adj,any,any,,,,' name='peSa' posn='140'>
	))
8	((	VGF	<fs name='VGF' stype='declarative' voicetype='active'>
8.1	kiyA	VM	<fs af='kara,v,m,sg,any,,yA,yA' name='kiyA' posn='150'>
	))
9	((	BLK	<fs name='BLK' drel='rsym:VGF'>
9.1	.	SYM	<fs af='.,punc,,,,,,' name='.' posn='160'>
	))
</Sentence>

<Sentence id='15'>
1	((	NP	<fs name='NP' drel='k7:VGF'>
1.1	postamArtama	NNC	<fs af='postamArtama,n,m,sg,3,d,0,0' name='postamArtama' posn='10'>
1.2	riporta	NN	<fs af='riporta,n,f,sg,3,o,0,0' name='riporta' posn='20'>
1.3	meM	PSP	<fs af='meM,psp,,,,,,' name='meM' posn='30'>
	))
2	((	VGF	<fs name='VGF' stype='declarative' voicetype='active'>
2.1	AyA	VM	<fs af='A,v,m,sg,any,,yA,yA' name='AyA' posn='40'>
	))
3	((	CCP	<fs name='CCP' drel='k1:VGF'>
3.1	ki	CC	<fs af='ki,avy,,,,,,' name='ki' posn='50'>
	))
4	((	NP	<fs name='NP2' drel='k2:VGF2'>
4.1	baccI	NN	<fs af='baccI,n,f,sg,3,o,0,0' name='baccI' posn='60'>
4.2	ke	PSP	<fs af='ke,psp,,,,,,' name='ke' posn='70'>
4.3	sAWa	NST	<fs af='sAWa,nst,m,sg,3,d,,' name='sAWa' posn='80'>
	))
5	((	NP	<fs name='NP3' drel='pof:VGF2'>
5.1	xuRkarma	NN	<fs af='xuRkarma,n,m,sg,3,d,0,0' name='xuRkarma' posn='90'>
	))
6	((	VGF	<fs voicetype='active' name='VGF2' stype='declarative' drel='ccof:CCP2'>
6.1	kiyA	VM	<fs af='kara,v,m,sg,any,,yA,yA' name='kiyA' posn='100'>
6.2	gayA	VAUX	<fs af='jA,v,m,sg,any,,yA1,yA1' name='gayA' posn='110'>
	))
7	((	CCP	<fs name='CCP2' drel='ccof:CCP'>
7.1	Ora	CC	<fs af='Ora,avy,,,,,,' name='Ora' posn='120'>
	))
8	((	NP	<fs name='NP4' drel='k1:VGNN'>
8.1	jyAxA	QF	<fs af='jyAxA,avy,,,,,,' name='jyAxA' posn='130'>
8.2	KUna	NN	<fs af='KUna,n,m,sg,3,d,0,0' name='KUna' posn='140'>
	))
9	((	VGNN	<fs name='VGNN' drel='rh:VGF3'>
9.1	baha	VM	<fs af='baha,v,any,any,any,,0,0' name='baha' posn='150'>
9.2	jAne	VAUX	<fs af='jA,v,any,any,any,o,nA,nA' name='jAne' posn='160'>
9.3	ke	PSP	<fs af='ke,psp,m,,,o,,' name='ke2' posn='170'>
9.4	kAraNa	PSP	<fs af='kAraNa,psp,m,,,o,,' name='kAraNa' posn='170'>
	))
10	((	NP	<fs name='NP5' drel='r6-k1:NP6'>
10.1	usakI	PRP	<fs af='vaha,pn,f,sg,3,o,kA,kA' name='usakI' posn='190'>
	))
11	((	NP	<fs name='NP6' drel='pof:VGF3'>
11.1	mOwa	NN	<fs af='mOwa,n,f,sg,3,d,0,0' name='mOwa' posn='200'>
	))
12	((	VGF	<fs voicetype='active' name='VGF3' stype='declarative' drel='ccof:CCP2'>
12.1	ho	VM	<fs af='ho,v,any,any,any,,0,0' name='ho' posn='210'>
12.2	gaI	VAUX	<fs af='jA,v,f,sg,any,,yA1,yA1' name='gaI' posn='220'>
	))
13	((	BLK	<fs name='BLK' drel='rsym:VGF'>
13.1	.	SYM	<fs af='.,punc,,,,,,' name='.' posn='230'>
	))
</Sentence>

<Sentence id='16'>
1	((	NP	<fs name='NP' drel='r6:NP2'>
1.1	mAnasA	NNP	<fs af='mAnasA,n,m,sg,3,o,0,0' name='mAnasA' posn='10'>
1.2	ke	PSP	<fs af='kA,psp,m,sg,,o,,' name='ke' posn='20'>
	))
2	((	NP	<fs name='NP2' drel='k1:VGF'>
2.1	awirikwa	NNC	<fs af='awirikwa,adj,any,any,,o,,' name='awirikwa' posn='30'>
2.2	jilA	NNC	<fs af='jilA,null,m,sg,3,d,0,0' name='jilA' posn='40'>
2.3	nyAyAXISa	NN	<fs af='nyAyAXISa,n,m,sg,3,o,0,0' name='nyAyAXISa' posn='50'>
2.4	ne	PSP	<fs af='ne,psp,,,,,,' name='ne' posn='60'>
	))
3	((	NP	<fs name='NP3' drel='k1:VGNN'>
3.1	Aropa	NN	<fs af='Aropa,n,m,sg,3,d,0,0' name='Aropa' posn='70'>
	))
4	((	JJP	<fs name='JJP' drel='pof:VGNN'>
4.1	sAbiwa	JJ	<fs af='sAbiwa,adj,any,any,,,,' name='sAbiwa' posn='80'>
	))
5	((	VGNN	<fs name='VGNN' drel='k7:VGF'>
5.1	ho	VM	<fs af='ho,v,any,any,any,,0,0' name='ho' posn='90'>
5.2	jAne	VAUX	<fs af='jA,v,any,any,any,o,nA,nA' name='jAne' posn='100'>
5.3	para	PSP	<fs af='para,psp,,,,,,' name='para' posn='110'>
	))
6	((	NP	<fs name='NP4' drel='k4:VGF'>
6.1	amqwa	NNP	<fs af='amqwa,n,m,sg,3,o,0,0' name='amqwa' posn='120'>
6.2	ko	PSP	<fs af='ko,psp,,,,,,' name='ko' posn='130'>
	))
7	((	NP	<fs name='NP5' drel='k7t:VGF'>
7.1	19	NNPC	<fs af='19,n,any,sg,3,d,0,0' name='19' posn='140'>
7.2	mArca	NNPC	<fs af='mArca,null,m,sg,3,d,0,0' name='mArca' posn='150'>
7.3	2005	NNP	<fs af='2005,n,m,sg,3,o,0,0' name='2005' posn='160'>
7.4	ko	PSP	<fs af='ko,psp,,,,,,' name='ko2' posn='170'>
	))
8	((	NP	<fs name='NP6' drel='r6:NP7'>
8.1	mOwa	NN	<fs af='mOwa,n,f,sg,3,o,0,0' name='mOwa' posn='180'>
8.2	kI	PSP	<fs af='kA,psp,f,sg,,d,,' name='kI' posn='190'>
	))
9	((	NP	<fs name='NP7' drel='k2:VGF'>
9.1	sajA	NN	<fs af='sajA,n,f,sg,3,d,0,0' name='sajA' posn='200'>
	))
10	((	VGF	<fs name='VGF' stype='declarative' voicetype='active'>
10.1	sunAI	VM	<fs af='sunA,v,f,sg,any,,yA,yA' name='sunAI' posn='210'>
	))
11	((	BLK	<fs name='BLK' drel='rsym:VGF'>
11.1	.	SYM	<fs af='.,punc,,,,,,' name='.' posn='220'>
	))
</Sentence>

<Sentence id='17'>
1	((	NP	<fs name='NP' drel='vmod:VGF'>
1.1	PEsale	NN	<fs af='PEsalA,n,m,sg,3,o,0,0' name='PEsale' posn='10'>
1.2	ke	PSP	<fs af='ke,psp,,,,,,' name='ke' posn='20'>
1.3	KilAPa	PSP	<fs af='KilAPa,psp,,,,,,' name='KilAPa' posn='30'>
	))
2	((	NP	<fs name='NP2' drel='k1:VGF'>
2.1	amqwa	NNP	<fs af='amqwa,n,m,sg,3,o,0,0' name='amqwa' posn='40'>
2.2	ne	PSP	<fs af='ne,psp,,,,,,' name='ne' posn='50'>
	))
3	((	NP	<fs name='NP3' drel='k7p:VGF'>
3.1	hAIkorta	NN	<fs af='hAIkorta,n,m,sg,3,o,0,0' name='hAIkorta' posn='60'>
3.2	meM	PSP	<fs af='meM,psp,,,,,,' name='meM' posn='70'>
	))
4	((	NP	<fs name='NP4' drel='k2:VGF'>
4.1	apIla	NN	<fs af='apIla,n,f,sg,3,d,0,0' name='apIla' posn='80'>
	))
5	((	JJP	<fs name='JJP' drel='pof:VGF'>
5.1	xAyara	JJ	<fs af='xAyara,adj,any,any,,,,' name='xAyara' posn='90'>
	))
6	((	VGF	<fs name='VGF' stype='declarative' voicetype='active'>
6.1	kI	VM	<fs af='kara,v,f,sg,any,,yA,yA' name='kI' posn='100'>
	))
7	((	BLK	<fs name='BLK' drel='rsym:VGF'>
7.1	.	SYM	<fs af='.,punc,,,,,,' name='.' posn='110'>
	))
</Sentence>

<Sentence id='18'>
1	((	NP	<fs name='NP' drel='k7:VGF'>
1.1	apIla	NN	<fs af='apIla,n,f,sg,3,o,0,0' name='apIla' posn='10'>
1.2	meM	PSP	<fs af='meM,psp,,,,,,' name='meM' posn='20'>
	))
2	((	NP	<fs name='NP2' drel='r6:NP3'>
2.1	amqwa	NNP	<fs af='amqwa,n,m,sg,3,o,0,0' name='amqwa' posn='30'>
2.2	ke	PSP	<fs af='kA,psp,m,sg,,o,,' name='ke' posn='40'>
	))
3	((	NP	<fs name='NP3' drel='k1:VGF'>
3.1	vakIla	NN	<fs af='vakIla,n,m,sg,3,o,0,0' name='vakIla' posn='50'>
3.2	ne	PSP	<fs af='ne,psp,,,,,,' name='ne' posn='60'>
	))
4	((	VGF	<fs name='VGF' stype='declarative' voicetype='active'>
4.1	kahA	VM	<fs af='kaha,v,m,sg,any,,yA,yA' name='kahA' posn='70'>
	))
5	((	CCP	<fs name='CCP' drel='k2:VGF'>
5.1	ki	CC	<fs af='ki,avy,,,,,,' name='ki' posn='80'>
	))
6	((	NP	<fs name='NP4' drel='k1:VGF2'>
6.1	pulisa	NN	<fs af='pulisa,n,f,sg,3,o,0,0' name='pulisa' posn='90'>
6.2	ne	PSP	<fs af='ne,psp,,,,,,' name='ne2' posn='100'>
	))
7	((	NP	<fs name='NP5' drel='k2:VGF2'>
7.1	use	PRP	<fs af='vaha,pn,any,sg,3,o,ko,ko' name='use' posn='110'>
	))
8	((	NP	<fs name='NP6' drel='r6:NP7'>
8.1	GatanA	NN	<fs af='GatanA,n,f,sg,3,o,0,0' name='GatanA' posn='120'>
8.2	ke	PSP	<fs af='kA,psp,m,sg,,o,,' name='ke2' posn='130'>
	))
9	((	NP	<fs name='NP7' drel='k7t:VGF2'>
9.1	xUsare	QO	<fs af='xUsarA,num,m,sg,,o,,' name='xUsare' posn='140'>
9.2	hI	RP	<fs af='hI,avy,,,,,,' name='hI' posn='150'>
9.3	xina	NN	<fs af='xina,n,m,sg,3,o,0,0' name='xina' posn='160'>
	))
10	((	VGF	<fs voicetype='active' name='VGF2' stype='declarative' drel='ccof:CCP'>
10.1	pakadZa	VM	<fs af='pakada,v,any,any,,any,0,0' name='pakadZa' posn='170'>
10.2	liyA	VAUX	<fs af='le,v,m,sg,any,,yA,yA' name='liyA' posn='180'>
10.3	WA	VAUX	<fs af='WA,v,m,sg,any,,WA,WA' name='WA' posn='190'>
	))
11	((	BLK	<fs name='BLK' drel='rsym:VGF'>
11.1	.	SYM	<fs af='.,punc,,,,,,' name='.' posn='200'>
	))
</Sentence>

<Sentence id='19'>
1	((	NP	<fs name='NP' drel='k1:VGNN'>
1.1	asala	JJ	<fs af='asala,adj,any,any,,o,,' name='asala' posn='10'>
1.2	AropI	NN	<fs af='AropI,n,m,sg,3,o,0,0' name='AropI' posn='20'>
1.3	ke	PSP	<fs af='ke,psp,,,,o,,' name='ke' posn='30'>
	))
2	((	VGNN	<fs name='VGNN' drel='rh:VGF'>
2.1	na	NEG	<fs af='na,avy,,,,,,' name='na' posn='40'>
2.2	milane	VM	<fs af='mila,v,any,any,any,o,nA,nA' name='milane' posn='50'>
2.3	para	PSP	<fs af='para,psp,,,,,,' name='para' posn='60'>
	))
3	((	NP	<fs name='NP2' drel='vmod:VGF'>
3.1	usake	PRP	<fs af='vaha,pn,any,sg,3,o,ke,ke' name='usake' posn='70'>
3.2	KilAPa	PSP	<fs af='KilAPa,psp,,,,,,' name='KilAPa' posn='80'>
	))
4	((	NP	<fs name='NP3' drel='k2:VGF'>
4.1	JUTA	JJ	<fs af='JUTA,adj,m,sg,,d,,' name='JUTA' posn='90'>
4.2	kesa	NN	<fs af='kesa,n,m,sg,3,d,0,0' name='kesa' posn='100'>
	))
5	((	VGF	<fs name='VGF' stype='declarative' voicetype='passive'>
5.1	banA	VM	<fs af='bana,v,m,sg,any,,yA,yA' name='banA' posn='110'>
5.2	xiyA	VAUX	<fs af='xe,v,m,sg,any,,yA,yA' name='xiyA' posn='120'>
5.3	gayA	VAUX	<fs af='jA,v,m,sg,any,,yA1,yA1' name='gayA' posn='130'>
	))
6	((	BLK	<fs name='BLK' drel='rsym:VGF'>
6.1	.	SYM	<fs af='.,punc,,,,,,' name='.' posn='140'>
	))
</Sentence>

<Sentence id='20'>
1	((	NP	<fs name='NP' drel='vmod:VGF'>
1.1	isake	PRP	<fs af='yaha,pn,any,sg,3,o,ke,ke' name='isake' posn='10'>
1.2	alAvA	PSP	<fs af='alAvA,psp,,,,,,' name='alAvA' posn='20'>
	))
2	((	NP	<fs name='NP2' drel='r6:NP3'>
2.1	unake	PRP	<fs af='vaha,pn,m,sg,3h,o,kA,kA' name='unake' posn='30'>
	))
3	((	NP	<fs name='NP3' drel='k1:VGF'>
3.1	Kewa	NN	<fs af='Kewa,n,m,pl,3,d,0,0' name='Kewa' posn='40'>
	))
4	((	NP	<fs name='NP4' drel='k7:VGF'>
4.1	AbAxI	NN	<fs af='AbAxI,n,f,sg,3,o,0,0' name='AbAxI' posn='50'>
4.2	ke	PSP	<fs af='ke,psp,,,,,,' name='ke' posn='60'>
4.3	samIpa	NST	<fs af='samIpa,nst,m,sg,3,d,,' name='samIpa' posn='70'>
	))
5	((	VGF	<fs voicetype='active' name='VGF' stype='declarative' drel='ccof:CCP'>
5.1	hEM	VM	<fs af='hE,v,any,pl,3,,hE,hE' name='hEM' posn='80'>
	))
6	((	CCP	<fs name='CCP'>
6.1	Ora	CC	<fs af='Ora,avy,,,,,,' name='Ora' posn='90'>
	))
7	((	NP	<fs name='NP5' drel='k7p:VGF2'>
7.1	EsI	DEM	<fs af='yaha,pn,f,sg,3,o,,' name='EsI' posn='100'>
7.2	jagaha	NN	<fs af='jagaha,n,f,sg,3,o,0,0' name='jagaha' posn='110'>
7.3	para	PSP	<fs af='para,psp,,,,,,' name='para' posn='120'>
	))
8	((	NP	<fs name='NP6' drel='k2:VGNN'>
8.1	bAlikA	NN	<fs af='bAlikA,n,f,sg,3,o,0,0' name='bAlikA' posn='130'>
8.2	se	PSP	<fs af='se,psp,,,,,,' name='se' posn='140'>
	))
9	((	NP	<fs name='NP7' drel='pof:VGNN'>
9.1	xuRkarma	NN	<fs af='xuRkarma,n,m,sg,3,d,0,0' name='xuRkarma' posn='150'>
	))
10	((	VGNN	<fs name='VGNN' drel='k1:VGF2'>
10.1	karanA	VM	<fs af='kara,v,any,any,any,o,nA,nA' name='karanA' posn='160'>
	))
11	((	JJP	<fs name='JJP' drel='k1s:VGF2'>
11.1	saMBava	JJ	<fs af='saMBava,adj,any,any,,,,' name='saMBava' posn='170'>
	))
12	((	VGF	<fs voicetype='active' name='VGF2' stype='declarative' drel='ccof:CCP'>
12.1	nahIM	NEG	<fs af='nahIM,avy,,,,,,' name='nahIM' posn='180'>
12.2	hE	VM	<fs af='hE,v,any,sg,3,,hE,hE' name='hE' posn='190'>
	))
13	((	BLK	<fs name='BLK' drel='rsym:CCP'>
13.1	.	SYM	<fs af='.,punc,,,,,,' name='.' posn='200'>
	))
</Sentence>

<Sentence id='21'>
1	((	NP	<fs name='NP' drel='r6:NP2'>
1.1	paMjAba	NNP	<fs af='paMjAba,n,m,sg,3,d,0,0' name='paMjAba' posn='10'>
1.2	sarakAra	NN	<fs af='sarakAra,n,f,sg,3,o,0,0' name='sarakAra' posn='20'>
1.3	ke	PSP	<fs af='kA,psp,m,sg,,o,,' name='ke' posn='30'>
	))
2	((	NP	<fs name='NP2' drel='k1:VGF'>
2.1	vakIla	NN	<fs af='vakIla,n,m,sg,3,o,0,0' name='vakIla' posn='40'>
2.2	ne	PSP	<fs af='ne,psp,,,,,,' name='ne' posn='50'>
	))
3	((	VGF	<fs name='VGF' stype='declarative' voicetype='active'>
3.1	kahA	VM	<fs af='kaha,v,m,sg,any,,yA,yA' name='kahA' posn='60'>
	))
4	((	CCP	<fs name='CCP' drel='k2:VGF'>
4.1	ki	CC	<fs af='ki,avy,,,,,,' name='ki' posn='70'>
	))
5	((	NP	<fs name='NP3' drel='r6:NP4'>
5.1	gAMva	NN	<fs af='gAzva,n,m,sg,3,o,0,0' name='gAMva' posn='80'>
5.2	kA	PSP	<fs af='kA,psp,m,sg,,d,,' name='kA' posn='90'>
	))
6	((	NP	<fs name='NP4' drel='nmod:NP5'>
6.1	yuvaka	NN	<fs af='yuvaka,n,m,sg,3,d,0,0' name='yuvaka' posn='100'>
	))
7	((	NP	<fs name='NP5' drel='k1:VGF2'>
7.1	guramela	NNPC	<fs af='guramela,n,m,sg,3,d,0,0' name='guramela' posn='110'>
7.2	siMha	NNP	<fs af='siMha,n,m,sg,3,d,0,0' name='siMha' posn='120'>
	))
8	((	NP	<fs name='NP6' drel='k1s:VGF2'>
8.1	svawaMwra	JJ	<fs af='svawaMwra,adj,any,any,,d,,' name='svawaMwra' posn='130'>
8.2	gavAha	NN	<fs af='gavAha,n,m,sg,3,d,0,0' name='gavAha' posn='140'>
	))
9	((	VGF	<fs voicetype='active' name='VGF2' stype='declarative' drel='ccof:CCP2'>
9.1	hE	VM	<fs af='hE,v,any,sg,3,,hE,hE' name='hE' posn='150'>
	))
10	((	CCP	<fs name='CCP2' drel='ccof:CCP'>
10.1	Ora	CC	<fs af='Ora,avy,,,,,,' name='Ora' posn='160'>
	))
11	((	NP	<fs name='NP7' drel='k1:VGF3'>
11.1	usane	PRP	<fs af='vaha,pn,any,sg,3,o,ne,ne' name='usane' posn='170'>
	))
12	((	NP	<fs name='NP8' drel='k2:VGF3'>
12.1	baccI	NN	<fs af='baccI,n,f,sg,3,o,0,0' name='baccI' posn='180'>
12.2	ko	PSP	<fs af='ko,psp,,,,,,' name='ko' posn='190'>
	))
13	((	NP	<fs name='NP9' drel='ras-k2:VGF3'>
13.1	aBiyukwa	NN	<fs af='aBiyukwa,n,m,sg,3,o,0,0' name='aBiyukwa' posn='200'>
13.2	ke	PSP	<fs af='ke,psp,,,,,,' name='ke2' posn='210'>
13.3	sAWa	NST	<fs af='sAWa,nst,m,sg,3,d,,' name='sAWa' posn='220'>
	))
14	((	VGF	<fs voicetype='active' name='VGF3' stype='declarative' drel='ccof:CCP2'>
14.1	xeKA	VM	<fs af='xeKa,v,m,sg,any,,yA,yA' name='xeKA' posn='230'>
14.2	WA	VAUX	<fs af='WA,v,m,sg,any,,WA,WA' name='WA' posn='240'>
	))
15	((	BLK	<fs name='BLK' drel='rsym:VGF'>
15.1	.	SYM	<fs af='.,punc,,,,,,' name='.' posn='250'>
	))
</Sentence>

<Sentence id='22'>
1	((	NP	<fs name='NP' drel='adv:VGF'>
1.1	Ese	PRP	<fs af='EsA,pn,m,sg,any,o,0,0' name='Ese' posn='10'>
1.2	meM	PSP	<fs af='meM,psp,,,,,,' name='meM' posn='20'>
	))
2	((	NP	<fs name='NP2' drel='k1:VGF'>
2.1	Aropa	NN	<fs af='Aropa,n,m,sg,3,d,0,0' name='Aropa' posn='30'>
	))
3	((	JJP	<fs name='JJP' drel='k1s:VGF'>
3.1	sAbiwa	JJ	<fs af='sAbiwa,adj,any,any,,,,' name='sAbiwa' posn='40'>
	))
4	((	VGF	<fs name='VGF' stype='declarative' voicetype='active'>
4.1	howA	VM	<fs af='ho,v,m,sg,any,,wA,wA' name='howA' posn='50'>
4.2	hE	VAUX	<fs af='hE,v,any,sg,3,,hE,hE' name='hE' posn='60'>
	))
5	((	BLK	<fs name='BLK' drel='rsym:VGF'>
5.1	.	SYM	<fs af='.,punc,,,,,,' name='.' posn='70'>
	))
</Sentence>

<Sentence id='23'>
1	((	NP	<fs name='NP' drel='r6:NP2'>
1.1	xonoM	QC	<fs af='xo,num,any,pl,,any,,' name='xonoM' posn='10'>
1.2	pakRoM	NN	<fs af='pakRa,n,m,pl,3,o,0,0' name='pakRoM' posn='20'>
1.3	kI	PSP	<fs af='kA,psp,f,sg,,d,,' name='kI' posn='30'>
	))
2	((	NP	<fs name='NP2' drel='k2:VGNN'>
2.1	xalIla	NN	<fs af='xalIla,n,f,sg,3,d,0,0' name='xalIla' posn='40'>
	))
3	((	VGNN	<fs name='VGNN' drel='k7t:VGF'>
3.1	sunane	VM	<fs af='suna,v,any,any,any,o,nA,nA' name='sunane' posn='50'>
3.2	ke	PSP	<fs af='ke,psp,,,,,,' name='ke' posn='60'>
3.3	bAxa	NST	<fs af='bAxa,nst,m,sg,3,d,,' name='bAxa' posn='70'>
	))
4	((	NP	<fs name='NP3' drel='r6:NP4'>
4.1	hAIkorta	NN	<fs af='hAIkorta,n,m,sg,3,o,0,0' name='hAIkorta' posn='80'>
4.2	kI	PSP	<fs af='kA,psp,f,sg,,o,,' name='kI2' posn='90'>
	))
5	((	NP	<fs name='NP4' drel='k1:VGF'>
5.1	KaMdapITa	NN	<fs af='KaMdapITa,n,f,sg,3,o,0,0' name='KaMdapITa' posn='100'>
5.2	ne	PSP	<fs af='ne,psp,,,,,,' name='ne' posn='110'>
	))
6	((	NP	<fs name='NP5' drel='r6:NP6'>
6.1	nicalI	JJ	<fs af='nicalA,adj,f,sg,,o,,' name='nicalI' posn='120'>
6.2	axAlawa	NN	<fs af='axAlawa,n,f,sg,3,o,0,0' name='axAlawa' posn='130'>
6.3	ke	PSP	<fs af='kA,psp,m,sg,,o,,' name='ke2' posn='140'>
	))
7	((	NP	<fs name='NP6' drel='k2:VGNF'>
7.1	PEsale	NN	<fs af='PEsalA,n,m,sg,3,o,0,0' name='PEsale' posn='150'>
7.2	ko	PSP	<fs af='ko,psp,,,,,,' name='ko' posn='160'>
	))
8	((	JJP	<fs name='JJP' drel='k2s:VGNF'>
8.1	sahI	JJ	<fs af='sahI,adj,any,any,,,,' name='sahI' posn='170'>
	))
9	((	VGNF	<fs name='VGNF' drel='vmod:VGF'>
9.1	TaharAwe	VM	<fs af='TaharA,v,m,sg,any,,wA,wA' name='TaharAwe' posn='180'>
9.2	hue	VAUX	<fs af='ho,v,m,sg,any,,yA,yA' name='hue' posn='190'>
	))
10	((	NP	<fs name='NP7' drel='r6:NP8'>
10.1	mOwa	NN	<fs af='mOwa,n,f,sg,3,o,0,0' name='mOwa' posn='200'>
10.2	kI	PSP	<fs af='kA,psp,f,sg,,d,,' name='kI3' posn='210'>
	))
11	((	NP	<fs name='NP8' drel='k2:VGNN2'>
11.1	sajA	NN	<fs af='sajA,n,f,sg,3,d,0,0' name='sajA' posn='220'>
	))
12	((	VGNN	<fs name='VGNN2' drel='r6-k2:NP9'>
12.1	banAe	VM	<fs af='banA,v,m,sg,any,,yA,yA' name='banAe' posn='230'>
12.2	raKane	VAUX	<fs af='raKa,v,any,any,any,o,nA,nA' name='raKane' posn='240'>
12.3	kA	PSP	<fs af='kA,psp,m,sg,,d,,' name='kA' posn='250'>
	))
13	((	NP	<fs name='NP9' drel='pof:VGF'>
13.1	AxeSa	NN	<fs af='AxeSa,n,m,sg,3,d,0,0' name='AxeSa' posn='260'>
	))
14	((	VGF	<fs name='VGF' stype='declarative' voicetype='active'>
14.1	xiyA	VM	<fs af='xe,v,m,sg,any,,yA,yA' name='xiyA' posn='270'>
	))
15	((	BLK	<fs name='BLK' drel='rsym:VGF'>
15.1	.	SYM	<fs af='.,punc,,,,,,' name='.' posn='280'>
	))
</Sentence>

