<Sentence id='1'>
1	((	NP	<fs name='NP' drel='k7p:VGF'>
1.1	kaSmIra	NNP	<fs af='kaSmIra,n,m,sg,3,o,0,0' name='kaSmIra' posn='10'>
1.2	para	PSP	<fs af='para,psp,,,,,,' name='para' posn='20'>
	))
2	((	NP	<fs name='NP2' drel='r6:NP3'>
2.1	keMxra	NNP	<fs af='keMxra,n,m,sg,3,o,0,0' name='keMxra' posn='30'>
2.2	ke	PSP	<fs af='kA,psp,m,sg,,o,,' name='ke' posn='40'>
	))
3	((	NP	<fs name='NP3' drel='nmod:NP4'>
3.1	vArwAkAra	NN	<fs af='vArwAkAra,n,m,sg,3,o,0,0' name='vArwAkAra' posn='50'>
	))
4	((	NP	<fs name='NP4' drel='k1:VGF'>
4.1	ena.	NNPC	<fs af='ena.,n,m,sg,3,d,0,0' name='ena.' posn='60'>
4.2	ena.	NNPC	<fs af='ena.,n,m,sg,3,d,0,0' name='ena.2' posn='70'>
4.3	voharA	NNP	<fs af='voharA,n,any,sg,3,o,0,0' name='voharA' posn='80'>
4.4	ne	PSP	<fs af='ne,psp,,,,,,' name='ne' posn='90'>
	))
5	((	NP	<fs name='NP5' drel='r6:NP6'>
5.1	apane	PRP	<fs af='apanA,pn,m,any,any,o,0,0' name='apane' posn='100'>
	))
6	((	NP	<fs name='NP6' drel='k5:VGF'>
6.1	paxa	NN	<fs af='paxa,n,m,sg,3,o,0,0' name='paxa' posn='110'>
6.2	se	PSP	<fs af='se,psp,,,,,,' name='se' posn='120'>
	))
7	((	NP	<fs name='NP7' drel='k2:VGF'>
7.1	iswIPA	NN	<fs af='iswIPA,n,m,sg,3,d,0,0' name='iswIPA' posn='130'>
	))
8	((	VGF	<fs name='VGF' stype='declarative' voicetype='active'>
8.1	xe	VM	<fs af='xe,v,any,any,any,,0,0' name='xe' posn='140'>
8.2	xiyA	VAUX	<fs af='xe,v,m,sg,any,,yA,yA' name='xiyA' posn='150'>
8.3	hE	VAUX	<fs af='hE,v,any,sg,3,,hE,hE' name='hE' posn='160'>
	))
9	((	BLK	<fs name='BLK' drel='rsym:VGF'>
9.1	.	SYM	<fs af='.,punc,,,,,,' name='.' posn='170'>
	))
</Sentence>

<Sentence id='2'>
1	((	NP	<fs name='NP' drel='k1:VGF'>
1.1	sUwroM	NN	<fs af='sUwra,n,m,pl,3,o,0,0' name='sUwroM' posn='10'>
1.2	ne	PSP	<fs af='ne,psp,,,,,,' name='ne' posn='20'>
	))
2	((	VGF	<fs name='VGF' stype='declarative' voicetype='active'>
2.1	bawAyA	VM	<fs af='bawA,v,m,sg,any,,yA,yA' name='bawAyA' posn='30'>
	))
3	((	CCP	<fs name='CCP' drel='k2:VGF'>
3.1	ki	CC	<fs af='ki,avy,,,,,,' name='ki' posn='40'>
	))
4	((	NP	<fs name='NP2' drel='k1:VGF2'>
4.1	voharA	NNP	<fs af='voharA,n,any,sg,3,o,0,0' name='voharA' posn='50'>
4.2	ne	PSP	<fs af='ne,psp,,,,,,' name='ne2' posn='60'>
	))
5	((	NP	<fs name='NP3' drel='r6:NP4'>
5.1	apanA	PRP	<fs af='apanA,pn,m,sg,any,d,0,0' name='apanA' posn='70'>
	))
6	((	NP	<fs name='NP4' drel='k2:VGF2'>
6.1	iswIPA	NN	<fs af='iswIPA,n,m,sg,3,d,0,0' name='iswIPA' posn='80'>
	))
7	((	NP	<fs name='NP5' drel='r6-k2:NP6'>
7.1	naI	JJ	<fs af='nayA,adj,f,sg,,o,,' name='naI' posn='90'>
7.2	sarakAra	NN	<fs af='sarakAra,n,f,sg,3,o,0,0' name='sarakAra' posn='100'>
7.3	ke	PSP	<fs af='kA,psp,m,sg,,o,,' name='ke' posn='110'>
	))
8	((	NP	<fs name='NP6' drel='pof:VGNN'>
8.1	SapaWa	NNC	<fs af='SapaWa,n,f,sg,3,d,0,0' name='SapaWa' posn='120'>
8.2	grahaNa	NN	<fs af='grahaNa,n,m,sg,3,d,0,0' name='grahaNa' posn='130'>
	))
9	((	VGNN	<fs name='VGNN' drel='r6:NP7'>
9.1	karane	VM	<fs af='kara,v,any,any,any,o,nA,nA' name='karane' posn='140'>
9.2	ke	PSP	<fs af='kA,psp,m,sg,,o,,' name='ke2' posn='150'>
	))
10	((	NP	<fs name='NP7' drel='k7t:VGF2'>
10.1	eka	QC	<fs af='eka,num,any,any,,any,,' name='eka' posn='160'>
10.2	xina	NN	<fs af='xina,n,m,sg,3,d,0,0' name='xina' posn='170'>
10.3	bAxa	NST	<fs af='bAxa,nst,m,sg,3,d,,' name='bAxa' posn='180'>
	))
11	((	NP	<fs name='NP8' drel='k4:VGF2'>
11.1	praXAnamaMwrI	NNP	<fs af='praXAnamaMwrI,n,m,sg,3,d,0,0' name='praXAnamaMwrI' posn='190'>
11.2	manamohana	NNPC	<fs af='manamohana,n,m,sg,3,d,0,0' name='manamohana' posn='200'>
11.3	siMha	NNP	<fs af='siMha,n,m,sg,3,o,0,0' name='siMha' posn='210'>
11.4	ko	PSP	<fs af='ko,psp,,,,,,' name='ko' posn='220'>
	))
12	((	VGF	<fs voicetype='active' name='VGF2' stype='declarative' drel='ccof:CCP'>
12.1	sOMpa	VM	<fs af='sOMpa,v,any,any,any,,0,0' name='sOMpa' posn='230'>
12.2	xiyA	VAUX	<fs af='xe,v,m,sg,any,,yA,yA' name='xiyA' posn='240'>
12.3	WA	VAUX	<fs af='WA,v,m,sg,any,,WA,WA' name='WA' posn='250'>
	))
13	((	BLK	<fs name='BLK' drel='rsym:VGF'>
13.1	.	SYM	<fs af='.,punc,,,,,,' name='.' posn='260'>
	))
</Sentence>

<Sentence id='3'>
1	((	NP	<fs name='NP' drel='k1:VGF'>
1.1	voharA	NNP	<fs af='voharA,n,any,sg,3,o,0,0' name='voharA' posn='10'>
1.2	ne	PSP	<fs af='ne,psp,,,,,,' name='ne' posn='20'>
	))
2	((	NP	<fs name='NP2' drel='k7t:VGF'>
2.1	maMgalavAra	NNP	<fs af='maMgalavAra,n,m,sg,3,o,0,0' name='maMgalavAra' posn='30'>
2.2	ko	PSP	<fs af='ko,psp,,,,,,' name='ko' posn='40'>
	))
3	((	NP	<fs name='NP3' drel='k2:VGNF'>
3.1	praXAnamaMwrI	NNP	<fs af='praXAnamaMwrI,n,m,sg,3,d,0,0' name='praXAnamaMwrI' posn='50'>
3.2	manamohana	NNPC	<fs af='manamohana,n,m,sg,3,d,0,0' name='manamohana' posn='60'>
3.3	siMha	NNP	<fs af='siMha,n,m,sg,3,o,0,0' name='siMha' posn='70'>
3.4	se	PSP	<fs af='se,psp,,,,,,' name='se' posn='80'>
	))
4	((	NP	<fs name='NP4' drel='pof:VGNF'>
4.1	mulAkAwa	NN	<fs af='mulAkAwa,n,f,sg,3,d,0,0' name='mulAkAwa' posn='90'>
	))
5	((	VGNF	<fs name='VGNF' drel='vmod:VGF'>
5.1	kara	VM	<fs af='kara,v,any,any,any,,0,0' name='kara' posn='100'>
	))
6	((	NP	<fs name='NP5' drel='k4:VGF'>
6.1	unheM	PRP	<fs af='vaha,pn,any,sg,3h,o,ko,ko' name='unheM' posn='110'>
	))
7	((	NP	<fs name='NP6' drel='ras-k1:VGF'>
7.1	hurriyawa	NNPC	<fs af='hurriyawa,n,f,sg,3,d,0,0' name='hurriyawa' posn='120'>
7.2	kAMPreMsa	NNP	<fs af='kAMPreMsa,n,f,sg,3,o,0,0' name='kAMPreMsa' posn='130'>
7.3	samewa	PSP	<fs af='samewa,psp,,,,,,' name='samewa' posn='140'>
	))
8	((	NP	<fs name='NP7' drel='r6:NP8'>
8.1	rAjya	NN	<fs af='rAjya,n,m,sg,3,o,0,0' name='rAjya' posn='150'>
8.2	ke	PSP	<fs af='kA,psp,m,pl,,o,,' name='ke' posn='160'>
	))
9	((	NP	<fs name='NP8' drel='ras-k1:VGF'>
9.1	viBinna	JJ	<fs af='viBinna,adj,any,any,,o,,' name='viBinna' posn='170'>
9.2	alagAvavAxI	JJ	<fs af='alagAvavAxI,adj,any,any,,o,,' name='alagAvavAxI' posn='180'>
9.3	samUhoM	NN	<fs af='samUha,n,m,pl,3,o,0,0' name='samUhoM' posn='190'>
9.4	se	PSP	<fs af='se,psp,,,,,,' name='se2' posn='200'>
	))
10	((	NP	<fs name='NP9' drel='r6-k2:NP10'>
10.1	bAwacIwa	NN	<fs af='bAwacIwa,n,f,sg,3,o,0,0' name='bAwacIwa' posn='210'>
10.2	kI	PSP	<fs af='kA,psp,f,sg,,d,,' name='kI' posn='220'>
	))
11	((	NP	<fs name='NP10' drel='pof:VGF'>
11.1	jAnakArI	NN	<fs af='jAnakArI,n,f,sg,3,d,0,0' name='jAnakArI' posn='230'>
	))
12	((	VGF	<fs name='VGF' stype='declarative' voicetype='active'>
12.1	xI	VM	<fs af='xe,v,f,sg,any,,yA,yA' name='xI' posn='240'>
	))
13	((	BLK	<fs name='BLK' drel='rsym:VGF'>
13.1	.	SYM	<fs af='.,punc,,,,,,' name='.' posn='250'>
	))
</Sentence>

<Sentence id='4'>
1	((	NP	<fs name='NP' drel='r6:NP2'>
1.1	kaSmIra	NNP	<fs af='kaSmIra,n,m,sg,3,d,0,0' name='kaSmIra' posn='10'>
1.2	samasyA	NN	<fs af='samasyA,n,f,sg,3,o,0,0' name='samasyA' posn='20'>
1.3	ke	PSP	<fs af='kA,psp,m,sg,,o,,' name='ke' posn='30'>
	))
2	((	NP	<fs name='NP2' drel='rt:VGNF'>
2.1	hala	NN	<fs af='hala,n,m,sg,3,o,0,0' name='hala' posn='40'>
2.2	ke	PSP	<fs af='ke,psp,,,,,,' name='ke2' posn='50'>
2.3	lie	PSP	<fs af='lie,psp,,,,,,' name='lie' posn='60'>
	))
3	((	JJP	<fs name='JJP' drel='ccof:CCP'>
3.1	sAhasika	JJ	<fs af='sAhasika,adj,any,any,,o,,' name='sAhasika' posn='70'>
	))
4	((	CCP	<fs name='CCP' drel='nmod:NP3'>
4.1	Ora	CC	<fs af='Ora,avy,,,,,,' name='Ora' posn='80'>
	))
5	((	JJP	<fs name='JJP2' drel='ccof:CCP'>
5.1	gaMBIra	JJ	<fs af='gaMBIra,adj,any,any,,o,,' name='gaMBIra' posn='90'>
	))
6	((	NP	<fs name='NP3' drel='k2:VGNF'>
6.1	koSiSoM	NN	<fs af='koSiSa,n,f,pl,3,o,0,0' name='koSiSoM' posn='100'>
6.2	ko	PSP	<fs af='ko,psp,,,,,,' name='ko' posn='110'>
	))
7	((	JJP	<fs name='JJP3' drel='pof:VGNF'>
7.1	jarUrI	JJ	<fs af='jarUrI,adj,any,any,,,,' name='jarUrI' posn='120'>
	))
8	((	VGNF	<fs name='VGNF' drel='vmod:VGF'>
8.1	bawAwe	VM	<fs af='bawA,v,m,sg,3,,wA,wA' name='bawAwe' posn='130'>
8.2	hue	VAUX	<fs af='ho,v,m,sg,3,,yA,yA' name='hue' posn='140'>
	))
9	((	NP	<fs name='NP4' drel='r6:NP5'>
9.1	mAkapA	NNP	<fs af='mAkapA,n,f,sg,3,o,0,0' name='mAkapA' posn='150'>
9.2	kI	PSP	<fs af='kA,psp,f,sg,,o,,' name='kI' posn='160'>
	))
10	((	NP	<fs name='NP5' drel='k1:VGF'>
10.1	rAjya	NNC	<fs af='rAjya,n,m,sg,3,d,0,0' name='rAjya' posn='170'>
10.2	IkAI	NN	<fs af='IkAI,n,f,sg,3,o,0,0' name='IkAI' posn='180'>
10.3	ne	PSP	<fs af='ne,psp,,,,,,' name='ne' posn='190'>
	))
11	((	NP	<fs name='NP6' drel='k7t:VGF'>
11.1	maMgalavAra	NNP	<fs af='maMgalavAra,n,m,sg,3,o,0,0' name='maMgalavAra' posn='200'>
11.2	ko	PSP	<fs af='ko,psp,,,,,,' name='ko2' posn='210'>
	))
12	((	NP	<fs name='NP7' drel='k7:VGF'>
12.1	keMxra	NNP	<fs af='keMxra,n,m,sg,3,o,0,0' name='keMxra' posn='220'>
12.2	meM	PSP	<fs af='meM,psp,,,,,,' name='meM' posn='230'>
	))
13	((	NP	<fs name='NP8' drel='nmod:NP9'>
13.1	kAMgresa	NNP	<fs af='kAMgresa,n,f,sg,3,d,0,0' name='kAMgresa' posn='240'>
13.2	newqwva	NN	<fs af='newqwva,n,m,sg,3,o,0,0' name='newqwva' posn='250'>
13.3	vAle	PSP	<fs af='vAlA,psp,m,sg,,o,,' name='vAle' posn='260'>
	))
14	((	NP	<fs name='NP9' drel='ras-k1:VGF'>
14.1	yUnAiteda	NNPC	<fs af='yUnAiteda,n,m,sg,3,d,0,0' name='yUnAiteda' posn='240'>
14.2	progresiva	NNPC	<fs af='progresiva,n,m,sg,3,d,0,0' name='progresiva' posn='240'>
14.3	alAyaMsa	NNP	<fs af='alAyaMsa,n,m,sg,3,o,0,0' name='alAyaMsa' posn='240'>
	))
15	((	NP	<fs name='NP10' drel='rs:NP9'>
15.1	(	SYM	<fs af='(,punc,,,,,,' name='(' posn='300'>
15.2	yUpIe	NNP	<fs af='yUpIe,n,m,sg,3,o,0,0' name='yUpIe' posn='240'>
15.3	)	SYM	<fs af='),punc,,,,,,' name=')' posn='320'>
	))
16	((	FRAGP	<fs name='FRAGP' drel='fragof:NP9'>
16.1	se	PSP	<fs af='se,psp,,,,,,' name='se' posn='330'>
	))
17	((	NP	<fs name='NP11' drel='k7:VGF'>
17.1	nyUnawama	NNPC	<fs af='nyUnawama,adj,any,any,,,,' name='nyUnawama' posn='120'>
17.2	sAJA	NNPC	<fs af='sAJA,n,m,sg,3,d,0,0' name='sAJA' posn='350'>
17.3	kAryakrama	NNP	<fs af='kAryakrama,n,m,sg,3,o,0,0' name='kAryakrama' posn='360'>
17.4	meM	PSP	<fs af='meM,psp,,,,,,' name='meM2' posn='370'>
	))
18	((	NP	<fs name='NP12' drel='ras-k1:VGNN'>
18.1	pAkiswAna	NNP	<fs af='pAkiswAna,n,m,sg,3,o,0,0' name='pAkiswAna' posn='380'>
18.2	ke	PSP	<fs af='ke,psp,,,,,,' name='ke3' posn='390'>
18.3	sAWa	NST	<fs af='sAWa,nst,m,sg,3,d,,' name='sAWa' posn='400'>
	))
19	((	NP	<fs name='NP13' drel='k2:VGNN'>
19.1	vArwA	NNC	<fs af='vArwA,n,f,sg,3,d,0,0' name='vArwA' posn='410'>
19.2	prakriyA	NN	<fs af='prakriyA,n,f,sg,3,d,0,0' name='prakriyA' posn='420'>
	))
20	((	JJP	<fs name='JJP4' drel='pof:VGNN'>
20.1	jArI	JJ	<fs af='jArI,adj,any,any,,o,,' name='jArI' posn='430'>
	))
21	((	VGNN	<fs name='VGNN' drel='ccof:CCP2'>
21.1	raKane	VM	<fs af='raKa,v,any,any,any,o,nA,nA' name='raKane' posn='440'>
	))
22	((	CCP	<fs name='CCP2' drel='r6-k2:NP15'>
22.1	Ora	CC	<fs af='Ora,avy,,,,,,' name='Ora2' posn='450'>
	))
23	((	NP	<fs name='NP14' drel='k2:VGNN2'>
23.1	alagAvavAxiyoM	NN	<fs af='alagAvavAxI,n,m,pl,3,o,0,0' name='alagAvavAxiyoM' posn='420'>
23.2	ko	PSP	<fs af='ko,psp,,,,,,' name='ko3' posn='470'>
	))
24	((	JJP	<fs name='JJP5' drel='pof:VGNN2'>
24.1	SAmila	JJ	<fs af='SAmila,adj,any,any,,,,' name='SAmila' posn='480'>
	))
25	((	VGNN	<fs name='VGNN2' drel='ccof:CCP2'>
25.1	karane	VM	<fs af='kara,v,any,any,any,o,nA,nA' name='karane' posn='490'>
25.2	kA	PSP	<fs af='kA,psp,m,sg,,d,,' name='kA' posn='500'>
	))
26	((	NP	<fs name='NP15' drel='pof:VGF'>
26.1	praswAva	NN	<fs af='praswAva,n,m,sg,3,d,0,0' name='praswAva' posn='510'>
	))
27	((	VGF	<fs name='VGF' stype='declarative' voicetype='active'>
27.1	raKA	VM	<fs af='raKa,v,m,sg,3,,yA,yA' name='raKA' posn='520'>
27.2	hE	VAUX	<fs af='hE,v,any,sg,3,,hE,hE' name='hE' posn='530'>
	))
28	((	BLK	<fs name='BLK' drel='rsym:VGF'>
28.1	.	SYM	<fs af='.,punc,,,,,,' name='.' posn='540'>
	))
</Sentence>

<Sentence id='5'>
1	((	NP	<fs name='NP' drel='k1:VGF'>
1.1	hurriyawa	NNPC	<fs af='hurriyawa,n,f,sg,3,d,0,0' name='hurriyawa' posn='10'>
1.2	kAMPreMsa	NNP	<fs af='kAMPreMsa,n,f,sg,3,o,0,0' name='kAMPreMsa' posn='20'>
1.3	ne	PSP	<fs af='ne,psp,,,,,,' name='ne' posn='30'>
	))
2	((	NP	<fs name='NP2' drel='r6:NP3'>
2.1	nae	JJ	<fs af='nayA,adj,m,sg,,o,,' name='nae' posn='40'>
2.2	gqha	NNPC	<fs af='gqha,n,m,sg,3,d,0,0' name='gqha' posn='50'>
2.3	maMwrI	NNP	<fs af='maMwrI,n,m,sg,3,d,0,0' name='maMwrI' posn='60'>
2.4	SivarAja	NNPC	<fs af='SivarAja,n,m,sg,3,d,0,0' name='SivarAja' posn='70'>
2.5	pAtila	NNP	<fs af='pAtila,n,any,sg,3,o,0,0' name='pAtila' posn='80'>
2.6	ke	PSP	<fs af='kA,psp,m,sg,,o,,' name='ke' posn='90'>
	))
3	((	NP	<fs name='NP3' drel='k7p:VGNN'>
3.1	kaSmIra	NNP	<fs af='kaSamIra,n,m,sg,3,o,0,0' name='kaSmIra' posn='100'>
3.2	meM	PSP	<fs af='meM,psp,,,,,,' name='meM' posn='110'>
	))
4	((	NP	<fs name='NP4' drel='ras-k1:VGNN'>
4.1	alagAvavAxiyoM	NN	<fs af='alagAvavAxI,n,m,pl,3,o,0,0' name='alagAvavAxiyoM' posn='120'>
4.2	ke	PSP	<fs af='ke,psp,,,,,,' name='ke2' posn='130'>
4.3	sAWa	NST	<fs af='sAWa,nst,m,sg,3,d,,' name='sAWa' posn='140'>
	))
5	((	NP	<fs name='NP5' drel='k2:VGNN'>
5.1	vArwA	NN	<fs af='vArwA,n,f,sg,3,d,0,0' name='vArwA' posn='150'>
	))
6	((	JJP	<fs name='JJP' drel='pof:VGNN'>
6.1	jArI	JJ	<fs af='jArI,adj,any,any,,,,' name='jArI' posn='160'>
	))
7	((	VGNN	<fs name='VGNN' drel='r6:NP6'>
7.1	raKane	VM	<fs af='raKa,v,any,any,any,o,nA,nA' name='raKane' posn='170'>
7.2	ke	PSP	<fs af='kA,psp,m,sg,,o,,' name='ke3' posn='180'>
	))
8	((	NP	<fs name='NP6' drel='r6-k2:NP7'>
8.1	bayAna	NN	<fs af='bayAna,n,m,sg,3,o,0,0' name='bayAna' posn='190'>
8.2	kA	PSP	<fs af='kA,psp,m,sg,,d,,' name='kA' posn='200'>
	))
9	((	NP	<fs name='NP7' drel='pof:VGNF'>
9.1	svAgawa	NN	<fs af='svAgawa,n,m,sg,3,d,0,0' name='svAgawa' posn='210'>
	))
10	((	VGNF	<fs name='VGNF' drel='vmod:VGF'>
10.1	karawe	VM	<fs af='kara,v,m,sg,3,,wA,wA' name='karawe' posn='220'>
10.2	hue	VM	<fs af='ho,v,m,sg,3,,wA,wA' name='hue' posn='230'>
	))
11	((	NP	<fs name='NP8' drel='pof:VGF'>
11.1	ummIxa	NN	<fs af='ummIxa,n,f,sg,3,d,0,0' name='ummIxa' posn='240'>
	))
12	((	VGF	<fs name='VGF' stype='declarative' voicetype='active'>
12.1	jawAI	VM	<fs af='jawA,v,f,sg,3,,yA,yA' name='jawAI' posn='250'>
12.2	hE	VAUX	<fs af='hE,v,any,sg,3,,hE,hE' name='hE' posn='260'>
	))
13	((	CCP	<fs name='CCP' drel='k2:VGF'>
13.1	ki	CC	<fs af='ki,avy,,,,,,' name='ki' posn='270'>
	))
14	((	NP	<fs name='NP9' drel='nmod:NP10'>
14.1	kAMgresa	NNP	<fs af='kAMgresa,n,f,sg,3,d,0,0' name='kAMgresa' posn='280'>
14.2	newqwva	NN	<fs af='newqwva,n,m,sg,3,o,0,0' name='newqwva' posn='290'>
14.3	vAlI	PSP	<fs af='vAlA,psp,f,sg,,d,,' name='vAlI' posn='300'>
	))
15	((	NP	<fs name='NP10' drel='k1:VGF2'>
15.1	yUpIe	NNP	<fs af='yUpIe,n,m,sg,3,d,0,0' name='yUpIe' posn='70'>
15.2	sarakAra	NN	<fs af='sarakAra,n,f,sg,3,d,0,0' name='sarakAra' posn='320'>
	))
16	((	NP	<fs name='NP11' drel='ras-k1:VGF2'>
16.1	rAjaga	NNP	<fs af='rAjaga,n,m,sg,3,d,0,0' name='rAjaga' posn='330'>
16.2	sarakAra	NN	<fs af='sarakAra,n,f,sg,3,o,0,0' name='sarakAra2' posn='340'>
16.3	ke	PSP	<fs af='ke,psp,,,,,,' name='ke4' posn='350'>
16.4	sAWa	NST	<fs af='sAWa,nst,m,sg,3,d,,' name='sAWa2' posn='360'>
	))
17	((	NP	<fs name='NP12' drel='r6:NP13'>
17.1	vArwA	NN	<fs af='vArwA,n,f,sg,3,o,0,0' name='vArwA2' posn='370'>
17.2	ke	PSP	<fs af='kA,psp,m,sg,,o,,' name='ke5' posn='380'>
	))
18	((	NP	<fs name='NP13' drel='r6-k2:NP14'>
18.1	nawIjoM	NN	<fs af='nawIjA,n,m,pl,3,o,0,0' name='nawIjoM' posn='390'>
18.2	kA	PSP	<fs af='kA,psp,m,sg,,d,,' name='kA2' posn='400'>
	))
19	((	NP	<fs name='NP14' drel='pof:VGF2'>
19.1	sammAna	NN	<fs af='sammAna,n,m,sg,3,d,0,0' name='sammAna' posn='410'>
	))
20	((	VGF	<fs voicetype='active' name='VGF2' stype='declarative' drel='ccof:CCP'>
20.1	karegI	VM	<fs af='kara,v,f,sg,3,,gA,gA' name='karegI' posn='420'>
	))
21	((	BLK	<fs name='BLK' drel='rsym:VGF'>
21.1	.	SYM	<fs af='.,punc,,,,,,' name='.' posn='430'>
	))
</Sentence>

<Sentence id='6'>
1	((	NP	<fs name='NP' drel='k1:VGF'>
1.1	sUwroM	NN	<fs af='sUwra,n,m,pl,3,o,0,0' name='sUwroM' posn='10'>
1.2	ne	PSP	<fs af='ne,psp,,,,,,' name='ne' posn='20'>
	))
2	((	VGF	<fs name='VGF' stype='declarative' voicetype='active'>
2.1	bawAyA	VM	<fs af='bawA,v,m,sg,any,,yA,yA' name='bawAyA' posn='30'>
	))
3	((	CCP	<fs name='CCP' drel='k2:VGF'>
3.1	ki	CC	<fs af='ki,avy,,,,,,' name='ki' posn='40'>
	))
4	((	NP	<fs name='NP2' drel='k1:VGF2'>
4.1	voharA	NNP	<fs af='voharA,n,any,sg,3,o,0,0' name='voharA' posn='50'>
4.2	ne	PSP	<fs af='ne,psp,,,,,,' name='ne2' posn='60'>
	))
5	((	NP	<fs name='NP3' drel='rd:VGF2'>
5.1	rAjaga	NNP	<fs af='rAjaga,n,m,sg,3,d,0,0' name='rAjaga' posn='70'>
5.2	sarakAra	NN	<fs af='sarakAra,n,f,sg,3,o,0,0' name='sarakAra' posn='80'>
5.3	kI	PSP	<fs af='kA,psp,f,sg,,o,,' name='kI' posn='90'>
5.4	ora	NST	<fs af='ora,nst,f,sg,3,o,,' name='ora' posn='100'>
5.5	se	PSP	<fs af='se,psp,,,,,,' name='se' posn='110'>
	))
6	((	NP	<fs name='NP4' drel='r6-k2:NP5'>
6.1	unakI	PRP	<fs af='vaha,pn,f,sg,3h,o,kA,kA' name='unakI' posn='120'>
	))
7	((	NP	<fs name='NP5' drel='pof:VGNN'>
7.1	niyukwi	NN	<fs af='niyukwi,n,f,sg,3,d,0,0' name='niyukwi' posn='130'>
	))
8	((	VGNN	<fs name='VGNN' drel='rh:VGF2'>
8.1	kie	VM	<fs af='kara,v,m,sg,3,,yA,yA' name='kie' posn='140'>
8.2	jAne	VAUX	<fs af='jA,v,any,any,any,o,nA,nA' name='jAne' posn='150'>
8.3	kI	PSP	<fs af='kA,psp,f,,,o,,' name='kI2' posn='160'>
8.4	vajaha	PSP	<fs af='vajaha,n,f,,,o,,' name='vajaha' posn='160'>
8.5	se	PSP	<fs af='se,psp,,,,,,' name='se2' posn='180'>
	))
9	((	NP	<fs name='NP6' drel='k5:VGF2'>
9.1	paxa	NN	<fs af='paxa,n,m,sg,3,o,0,0' name='paxa' posn='190'>
9.2	se	PSP	<fs af='se,psp,,,,,,' name='se3' posn='200'>
	))
10	((	NP	<fs name='NP7' drel='pof:VGF2'>
10.1	iswIPA	NN	<fs af='iswIPA,n,m,sg,3,d,0,0' name='iswIPA' posn='210'>
	))
11	((	VGF	<fs voicetype='active' name='VGF2' stype='declarative' drel='ccof:CCP'>
11.1	xiyA	VM	<fs af='xe,v,m,sg,any,,yA,yA' name='xiyA' posn='220'>
11.2	hE	VAUX	<fs af='hE,v,any,sg,3,,hE,hE' name='hE' posn='230'>
	))
12	((	BLK	<fs name='BLK' drel='rsym:VGF'>
12.1	.	SYM	<fs af='.,punc,,,,,,' name='.' posn='240'>
	))
</Sentence>

<Sentence id='7'>
1	((	CCP	<fs name='CCP'>
1.1	hAlAMki	CC	<fs af='hAlAMki,avy,,,,,,' name='hAlAMki' posn='10'>
	))
2	((	NP	<fs name='NP' drel='nmod:NP2'>
2.1	kAMgresa	NNP	<fs af='kAMgresa,n,f,sg,3,d,0,0' name='kAMgresa' posn='20'>
2.2	newqwva	NN	<fs af='newqwva,n,m,sg,3,o,0,0' name='newqwva' posn='30'>
2.3	vAlI	PSP	<fs af='vAlA,psp,f,sg,,o,,' name='vAlI' posn='40'>
	))
3	((	NP	<fs name='NP2' drel='k1:VGNN'>
3.1	yUpIe	NNP	<fs af='yUpIe,n,m,sg,3,d,0,0' name='yUpIe' posn='60'>
3.2	sarakAra	NN	<fs af='sarakAra,n,f,sg,3,o,0,0' name='sarakAra' posn='60'>
3.3	ko	PSP	<fs af='ko,psp,,,,,,' name='ko' posn='70'>
	))
4	((	NP	<fs name='NP3' drel='k7t:VGNN'>
4.1	aBI	PRP	<fs af='aBI,pn,,,,d,,' name='aBI' posn='80'>
	))
5	((	JJP	<fs name='JJP' drel='pof:VGNN'>
5.1	waya	JJ	<fs af='waya,adj,any,any,,,,' name='waya' posn='90'>
	))
6	((	VGNN	<fs name='VGNN' drel='k1:VGF'>
6.1	karanA	VM	<fs af='kara,v,any,any,any,d,nA,nA' name='karanA' posn='100'>
	))
7	((	JJP	<fs name='JJP2' drel='k1s:VGF'>
7.1	bAkI	JJ	<fs af='bAkI,adj,any,any,,,,' name='bAkI' posn='110'>
	))
8	((	VGF	<fs voicetype='active' name='VGF' stype='declarative' drel='ccof:CCP'>
8.1	hE	VM	<fs af='hE,v,any,sg,3,,hE,hE' name='hE' posn='120'>
	))
9	((	CCP	<fs name='CCP2' drel='k2:VGNN'>
9.1	ki	CC	<fs af='ki,avy,,,,,,' name='ki' posn='130'>
	))
10	((	NP	<fs name='NP4' drel='k2:VGNN2'>
10.1	vArwA	NNC	<fs af='vArwA,n,f,sg,3,d,0,0' name='vArwA' posn='140'>
10.2	prakriyA	NN	<fs af='prakriyA,n,f,sg,3,d,0,0' name='prakriyA' posn='150'>
	))
11	((	JJP	<fs name='JJP3' drel='pof:VGNN2'>
11.1	jArI	JJ	<fs af='jArI,adj,any,any,,,,' name='jArI' posn='160'>
	))
12	((	VGNN	<fs name='VGNN2' drel='rt:VGF2'>
12.1	raKane	VM	<fs af='raKa,v,any,any,any,o,nA,nA' name='raKane' posn='170'>
12.2	ke	PSP	<fs af='ke,psp,,,,,,' name='ke' posn='180'>
12.3	lie	PSP	<fs af='lie,psp,,,,,,' name='lie' posn='190'>
	))
13	((	NP	<fs name='NP5' drel='k2:VGF2'>
13.1	voharA	NNP	<fs af='voharA,n,any,sg,3,o,0,0' name='voharA' posn='200'>
13.2	ko	PSP	<fs af='ko,psp,,,,,,' name='ko2' posn='210'>
	))
14	((	NP	<fs name='NP6' drel='k7:VGF2'>
14.1	paxa	NN	<fs af='paxa,n,m,sg,3,o,0,0' name='paxa' posn='220'>
14.2	para	PSP	<fs af='para,psp,,,,,,' name='para' posn='230'>
	))
15	((	VGF	<fs voicetype='active' name='VGF2' stype='declarative' drel='ccof:CCP3'>
15.1	banAe	VM	<fs af='banA,v,any,sg,3,,yA,yA' name='banAe' posn='240'>
15.2	raKA	VAUX	<fs af='raKa,v,m,sg,any,,yA,yA' name='raKA' posn='250'>
15.3	jAe	VAUX	<fs af='jA,v,any,sg,3,,eM,eM' name='jAe' posn='260'>
	))
16	((	CCP	<fs name='CCP3' drel='ccof:CCP2'>
16.1	yA	CC	<fs af='yA,avy,,,,,,' name='yA' posn='270'>
	))
17	((	RBP	<fs name='RBP' drel='vmod:VGF3'>
17.1	Pira	RB	<fs af='Pira,adv,,,,,,' name='Pira' posn='280'>
	))
18	((	NP	<fs name='NP7' drel='r6:NP8'>
18.1	unake	PRP	<fs af='vaha,pn,m,sg,3h,o,kA,kA' name='unake' posn='290'>
	))
19	((	NP	<fs name='NP8' drel='k7:VGF3'>
19.1	sWAna	NN	<fs af='sWAna,n,m,sg,3,o,0,0' name='sWAna' posn='300'>
19.2	para	PSP	<fs af='para,psp,,,,,,' name='para2' posn='310'>
	))
20	((	NP	<fs name='NP9' drel='k2:VGF3'>
20.1	kisI	PRP	<fs af='koI,pn,any,sg,3,o,0,0' name='kisI' posn='320'>
20.2	Ora	NN	<fs af='Ora,n,m,sg,3,o,0,0' name='Ora' posn='330'>
20.3	ko	PSP	<fs af='ko,psp,,,,,,' name='ko3' posn='340'>
	))
21	((	VGF	<fs voicetype='active' name='VGF3' stype='declarative' drel='ccof:CCP3'>
21.1	lAyA	VM	<fs af='lA,v,m,sg,any,,yA,yA' name='lAyA' posn='350'>
21.2	jAe	VAUX	<fs af='jA,v,any,sg,3,,eM,eM' name='jAe2' posn='360'>
	))
22	((	BLK	<fs name='BLK' drel='rsym:CCP'>
22.1	.	SYM	<fs af='.,punc,,,,,,' name='.' posn='370'>
	))
</Sentence>

<Sentence id='8'>
1	((	NP	<fs name='NP' drel='k1:VGF'>
1.1	voharA	NNP	<fs af='voharA,n,any,sg,3,o,0,0' name='voharA' posn='10'>
1.2	ne	PSP	<fs af='ne,psp,,,,,,' name='ne' posn='20'>
	))
2	((	NP	<fs name='NP2' drel='k7t:VGF'>
2.1	maMgalavAra	NNP	<fs af='maMgalavAra,n,m,sg,3,o,0,0' name='maMgalavAra' posn='30'>
2.2	ko	PSP	<fs af='ko,psp,,,,,,' name='ko' posn='40'>
	))
3	((	NP	<fs name='NP3' drel='k2:VGNF'>
3.1	praXAnamaMwrI	NNP	<fs af='praXAnamaMwrI,n,m,sg,3,d,0,0' name='praXAnamaMwrI' posn='50'>
3.2	manamohana	NNPC	<fs af='manamohana,n,m,sg,3,d,0,0' name='manamohana' posn='60'>
3.3	siMha	NNP	<fs af='siMha,n,m,sg,3,o,0,0' name='siMha' posn='70'>
3.4	se	PSP	<fs af='se,psp,,,,,,' name='se' posn='80'>
	))
4	((	NP	<fs name='NP4' drel='pof:VGNF'>
4.1	mulAkAwa	NN	<fs af='mulAkAwa,n,f,sg,3,d,0,0' name='mulAkAwa' posn='90'>
	))
5	((	VGNF	<fs name='VGNF' drel='vmod:VGF'>
5.1	kara	VM	<fs af='kara,v,any,any,any,,0,0' name='kara' posn='100'>
	))
6	((	NP	<fs name='NP5' drel='k4:VGF'>
6.1	unheM	PRP	<fs af='vaha,pn,any,sg,3h,o,ko,ko' name='unheM' posn='110'>
	))
7	((	NP	<fs name='NP6' drel='vmod:VGF'>
7.1	hurriyawa	NNPC	<fs af='hurriyawa,n,f,sg,3,d,0,0' name='hurriyawa' posn='120'>
7.2	kAMPreMsa	NNP	<fs af='kAMPreMsa,n,f,sg,3,o,0,0' name='kAMPreMsa' posn='130'>
7.3	samewa	PSP	<fs af='samewa,psp,,,,,,' name='samewa' posn='140'>
	))
8	((	NP	<fs name='NP7' drel='r6:NP8'>
8.1	rAjya	NN	<fs af='rAjya,n,m,sg,3,o,0,0' name='rAjya' posn='150'>
8.2	ke	PSP	<fs af='kA,psp,m,pl,,o,,' name='ke' posn='160'>
	))
9	((	NP	<fs name='NP8' drel='ras-r6:VGF'>
9.1	viBinna	JJ	<fs af='viBinna,adj,any,any,,o,,' name='viBinna' posn='170'>
9.2	alagAvavAxI	JJ	<fs af='alagAvavAxI,adj,any,any,,o,,' name='alagAvavAxI' posn='180'>
9.3	saMgaTanoM	NN	<fs af='saMgaTana,n,m,pl,3,o,0,0' name='saMgaTanoM' posn='190'>
9.4	ke	PSP	<fs af='ke,psp,,,,,,' name='ke2' posn='200'>
9.5	sAWa	NST	<fs af='sAWa,nst,m,sg,3,d,,' name='sAWa' posn='210'>
	))
10	((	NP	<fs name='NP9' drel='r6:NP10'>
10.1	unakI	PRP	<fs af='vaha,pn,f,sg,3h,o,kA,kA' name='unakI' posn='220'>
	))
11	((	NP	<fs name='NP10' drel='r6-k2:NP11'>
11.1	vArwA	NN	<fs af='vArwA,n,f,sg,3,o,0,0' name='vArwA' posn='230'>
11.2	kI	PSP	<fs af='kA,psp,f,sg,,d,,' name='kI' posn='240'>
	))
12	((	NP	<fs name='NP11' drel='pof:VGF'>
12.1	jAnakArI	NN	<fs af='jAnakArI,n,f,sg,3,d,0,0' name='jAnakArI' posn='250'>
	))
13	((	VGF	<fs name='VGF' stype='declarative' voicetype='active'>
13.1	xI	VM	<fs af='xe,v,f,sg,3,,yA,yA' name='xI' posn='260'>
	))
14	((	BLK	<fs name='BLK' drel='rsym:VGF'>
14.1	.	SYM	<fs af='.,punc,,,,,,' name='.' posn='270'>
	))
</Sentence>

<Sentence id='9'>
1	((	RBP	<fs name='RBP' drel='sent-adv:VGF'>
1.1	vahIM	RB	<fs af='vahIM,adv,,,,,,' name='vahIM' posn='10'>
1.2	,	SYM	<fs af='COMMA,punc,,,,,,' name=',' posn='20'>
	))
2	((	NP	<fs name='NP' drel='k7p:VGF'>
2.1	jammU	NNPC	<fs af='jammU,n,m,sg,3,d,0,0' name='jammU' posn='30'>
2.2	-	SYM	<fs af='-,punc,,,,,,' name='-' posn='40'>
2.3	kaSmIra	NNP	<fs af='kaSamIra,n,m,sg,3,o,0,0' name='kaSmIra' posn='50'>
2.4	meM	PSP	<fs af='meM,psp,,,,,,' name='meM' posn='60'>
	))
3	((	NP	<fs name='NP2' drel='r6:NP3'>
3.1	mAkapA	NNP	<fs af='mAkapA,n,f,sg,3,o,0,0' name='mAkapA' posn='70'>
3.2	kI	PSP	<fs af='kA,psp,f,sg,,o,,' name='kI' posn='80'>
	))
4	((	NP	<fs name='NP3' drel='r6:NP4'>
4.1	rAjya	NNC	<fs af='rAjya,n,m,sg,3,d,0,0' name='rAjya' posn='90'>
4.2	IkAI	NN	<fs af='IkAI,n,f,sg,3,o,0,0' name='IkAI' posn='100'>
4.3	ke	PSP	<fs af='kA,psp,m,sg,,o,,' name='ke' posn='110'>
	))
5	((	NP	<fs name='NP4' drel='nmod:NP5'>
5.1	saciva	NN	<fs af='saciva,n,m,sg,3,o,0,0' name='saciva' posn='120'>
	))
6	((	NP	<fs name='NP5' drel='k1:VGF'>
6.1	ema.	NNPC	<fs af='ema.,n,m,sg,3,d,0,0' name='ema.' posn='130'>
6.2	vAI.	NNPC	<fs af='vAI,n,m,sg,3,d,0,0' name='vAI.' posn='140'>
6.3	wArIgAmI	NNP	<fs af='wArIgAmI,n,any,sg,3,o,0,0' name='wArIgAmI' posn='150'>
6.4	ne	PSP	<fs af='ne,psp,,,,,,' name='ne' posn='160'>
	))
7	((	NP	<fs name='NP6' drel='k4:VGF'>
7.1	pawrakAroM	NN	<fs af='pawrakAra,n,m,pl,3,o,0,0' name='pawrakAroM' posn='170'>
7.2	se	PSP	<fs af='se,psp,,,,,,' name='se' posn='180'>
	))
8	((	VGF	<fs name='VGF' stype='declarative' voicetype='active'>
8.1	kahA	VM	<fs af='kaha,v,m,sg,3,,yA,yA' name='kahA' posn='190'>
	))
9	((	CCP	<fs name='CCP' drel='k2:VGF'>
9.1	ki	CC	<fs af='ki,avy,,,,,,' name='ki' posn='200'>
	))
10	((	NP	<fs name='NP7' drel='k1:VGF2'>
10.1	hama	PRP	<fs af='hama,pn,any,pl,1,d,0,0' name='hama' posn='210'>
	))
11	((	NP	<fs name='NP8' drel='k4:VGF2'>
11.1	yUpIe	NNP	<fs af='yUpIe,n,m,sg,3,d,0,0' name='yUpIe' posn='220'>
11.2	sarakAra	NN	<fs af='sarakAra,n,f,sg,3,o,0,0' name='sarakAra' posn='230'>
11.3	se	PSP	<fs af='se,psp,,,,,,' name='se2' posn='240'>
	))
12	((	NP	<fs name='NP9' drel='k7:VGF2'>
12.1	nyUnawama	NNPC	<fs af='nyUnawama,adj,any,any,,o,,' name='nyUnawama' posn='120'>
12.2	sAJA	NNPC	<fs af='sAJA,n,m,sg,3,d,0,0' name='sAJA' posn='260'>
12.3	kAryakrama	NNP	<fs af='kAryakrama,n,m,sg,3,o,0,0' name='kAryakrama' posn='270'>
12.4	meM	PSP	<fs af='meM,psp,,,,,,' name='meM2' posn='280'>
	))
13	((	NP	<fs name='NP10' drel='ccof:CCP2'>
13.1	pAkiswAna	NNP	<fs af='pAkiswAna,n,m,sg,3,o,0,0' name='pAkiswAna' posn='290'>
	))
14	((	CCP	<fs name='CCP2' drel='r6:NP12'>
14.1	Ora	CC	<fs af='Ora,avy,,,,,,' name='Ora' posn='300'>
	))
15	((	NP	<fs name='NP11' drel='ccof:CCP2'>
15.1	kaSmIra	NNP	<fs af='kaSamIra,n,m,sg,3,o,0,0' name='kaSmIra2' posn='310'>
15.2	ke	PSP	<fs af='kA,psp,m,pl,,o,,' name='ke2' posn='320'>
	))
16	((	NP	<fs name='NP12' drel='vmod:VGF2'>
16.1	saBI	QF	<fs af='saBI,avy,,,,,,' name='saBI' posn='330'>
16.2	saMgaTanoM	NN	<fs af='saMgaTana,n,m,pl,3,o,0,0' name='saMgaTanoM' posn='340'>
16.3	ke	PSP	<fs af='ke,psp,,,,,,' name='ke3' posn='350'>
16.4	sAWa	NST	<fs af='sAWa,nst,m,sg,3,d,,' name='sAWa' posn='360'>
	))
17	((	NP	<fs name='NP13' drel='k2:VGNN'>
17.1	vArwA	NN	<fs af='vArwA,n,f,sg,3,o,0,0' name='vArwA' posn='370'>
17.2	ko	PSP	<fs af='ko,psp,,,,,,' name='ko' posn='380'>
	))
18	((	JJP	<fs name='JJP' drel='pof:VGNN'>
18.1	SAmila	JJ	<fs af='SAmila,adj,any,any,,,,' name='SAmila' posn='390'>
	))
19	((	VGNN	<fs name='VGNN' drel='r6-k2:NP14'>
19.1	karane	VM	<fs af='kara,v,any,any,any,o,nA,nA' name='karane' posn='400'>
19.2	kI	PSP	<fs af='kA,psp,f,sg,,d,,' name='kI2' posn='410'>
	))
20	((	NP	<fs name='NP14' drel='pof:VGF2'>
20.1	apIla	NN	<fs af='apIla,n,f,sg,3,d,0,0' name='apIla' posn='420'>
	))
21	((	VGF	<fs voicetype='active' name='VGF2' stype='declarative' drel='ccof:CCP'>
21.1	karawe	VM	<fs af='kara,v,m,pl,any,,wA,wA' name='karawe' posn='430'>
21.2	hEM	VAUX	<fs af='hE,v,any,pl,1,,hE,hE' name='hEM' posn='440'>
	))
22	((	BLK	<fs name='BLK' drel='rsym:VGF'>
22.1	.	SYM	<fs af='.,punc,,,,,,' name='.' posn='450'>
	))
</Sentence>

<Sentence id='11'>
1	((	NP	<fs name='NP' drel='k1:VGF'>
1.1	unhoMne	PRP	<fs af='vaha,pn,any,sg,3h,o,ne,ne' name='unhoMne' posn='10'>
	))
2	((	VGF	<fs name='VGF' stype='declarative' voicetype='active'>
2.1	kahA	VM	<fs af='kaha,v,m,sg,3,,yA,yA' name='kahA' posn='20'>
	))
3	((	CCP	<fs name='CCP' drel='k2:VGF'>
3.1	ki	CC	<fs af='ki,avy,,,,,,' name='ki' posn='30'>
	))
4	((	NP	<fs name='NP2' drel='k7p:VGNN'>
4.1	rAjya	NN	<fs af='rAjya,n,m,sg,3,o,0,0' name='rAjya' posn='40'>
4.2	meM	PSP	<fs af='meM,psp,,,,,,' name='meM' posn='50'>
	))
5	((	NP	<fs name='NP3' drel='k2:VGNN'>
5.1	KUnaKarAbA	NN	<fs af='KUnaKarAbA,n,m,sg,3,d,0,0' name='KUnaKarAbA' posn='60'>
	))
6	((	VGNN	<fs name='VGNN' drel='rt:VGNN2'>
6.1	rokane	VM	<fs af='roka,v,any,any,any,o,nA,nA' name='rokane' posn='70'>
6.2	ke	PSP	<fs af='ke,psp,,,,,,' name='ke' posn='80'>
6.3	lie	PSP	<fs af='lie,psp,,,,,,' name='lie' posn='90'>
	))
7	((	NP	<fs name='NP4' drel='k7:VGNN2'>
7.1	rAjanIwika	JJ	<fs af='rAjanIwika,adj,any,any,,o,,' name='rAjanIwika' posn='100'>
7.2	swara	NN	<fs af='swara,n,m,sg,3,o,0,0' name='swara' posn='110'>
7.3	para	PSP	<fs af='para,psp,,,,,,' name='para' posn='120'>
	))
8	((	NP	<fs name='NP5' drel='ras-k1:VGNN2'>
8.1	pAkiswAna	NNP	<fs af='pAkiswAna,n,m,sg,3,o,0,0' name='pAkiswAna' posn='130'>
8.2	ke	PSP	<fs af='ke,psp,,,,,,' name='ke2' posn='140'>
8.3	sAWa	NST	<fs af='sAWa,nst,m,sg,3,d,,' name='sAWa' posn='150'>
	))
9	((	NP	<fs name='NP6' drel='k2:VGNN2'>
9.1	vArwA	NN	<fs af='vArwA,n,f,sg,3,d,0,0' name='vArwA' posn='160'>
	))
10	((	NP	<fs name='NP7' drel='pof:VGNN2'>
10.1	SurU	NN	<fs af='SurU,n,m,sg,3,d,0,0' name='SurU' posn='170'>
	))
11	((	VGNN	<fs name='VGNN2' drel='ccof:CCP2'>
11.1	karane	VM	<fs af='kara,v,any,any,any,o,nA,nA' name='karane' posn='180'>
	))
12	((	CCP	<fs name='CCP2' drel='k2u:VGNN4'>
12.1	Ora	CC	<fs af='Ora,avy,,,,,,' name='Ora' posn='190'>
	))
13	((	NP	<fs name='NP8' drel='k7:VGNN3'>
13.1	vArwA	NN	<fs af='vArwA,n,f,sg,3,o,0,0' name='vArwA2' posn='200'>
13.2	meM	PSP	<fs af='meM,psp,,,,,,' name='meM2' posn='210'>
	))
14	((	NP	<fs name='NP9' drel='r6:NP10'>
14.1	kaSmIra	NNP	<fs af='kaSamIra,n,m,sg,3,o,0,0' name='kaSmIra' posn='220'>
14.2	ke	PSP	<fs af='kA,psp,m,pl,,o,,' name='ke3' posn='230'>
	))
15	((	NP	<fs name='NP10' drel='nmod:NP11'>
15.1	viBinna	JJ	<fs af='viBinna,adj,any,any,,o,,' name='viBinna' posn='240'>
15.2	vicAraXArAoM	NN	<fs af='vicAraXArA,n,f,pl,3,o,0,0' name='vicAraXArAoM' posn='250'>
15.3	vAle	PSP	<fs af='vAlA,psp,m,pl,,o,,' name='vAle' posn='260'>
	))
16	((	NP	<fs name='NP11' drel='k2:VGNN3'>
16.1	xaloM	NN	<fs af='xala,n,m,pl,3,o,0,0' name='xaloM' posn='270'>
16.2	ko	PSP	<fs af='ko,psp,,,,,,' name='ko' posn='280'>
	))
17	((	JJP	<fs name='JJP' drel='pof:VGNN3'>
17.1	SAmila	JJ	<fs af='SAmila,adj,any,any,,,,' name='SAmila' posn='290'>
	))
18	((	VGNN	<fs name='VGNN3' drel='ccof:CCP2'>
18.1	karane	VM	<fs af='kara,v,any,any,any,o,nA,nA' name='karane2' posn='300'>
18.2	jEse	PSP	<fs af='jEsA,psp,m,pl,,d,,' name='jEse' posn='310'>
	))
19	((	NP	<fs name='NP12' drel='k2:VGNN4'>
19.1	sAhasika	JJ	<fs af='sAhasika,adj,any,any,,d,,' name='sAhasika' posn='320'>
19.2	kaxama	NN	<fs af='kaxama,n,m,pl,3,d,0,0' name='kaxama' posn='330'>
	))
20	((	VGNN	<fs name='VGNN4' drel='r6:NP13'>
20.1	uTAne	VM	<fs af='uTA,v,any,any,any,o,nA,nA' name='uTAne' posn='340'>
20.2	kI	PSP	<fs af='kA,psp,f,sg,,d,,' name='kI' posn='350'>
	))
21	((	NP	<fs name='NP13' drel='k1:VGF2'>
21.1	jarUrawa	NN	<fs af='jarUrawa,n,f,sg,3,d,0,0' name='jarUrawa' posn='360'>
	))
22	((	VGF	<fs voicetype='active' name='VGF2' stype='declarative' drel='ccof:CCP'>
22.1	hE	VM	<fs af='hE,v,any,sg,3,,hE,hE' name='hE' posn='370'>
	))
23	((	BLK	<fs name='BLK' drel='rsym:VGF'>
23.1	.	SYM	<fs af='.,punc,,,,,,' name='.' posn='380'>
	))
</Sentence>

<Sentence id='12'>
1	((	NP	<fs name='NP' drel='k1:VGF'>
1.1	unhoMne	PRP	<fs af='vaha,pn,any,sg,3h,o,ne,ne' name='unhoMne' posn='10'>
	))
2	((	VGF	<fs name='VGF' stype='declarative' voicetype='active'>
2.1	kahA	VM	<fs af='kaha,v,m,sg,3,,yA,yA' name='kahA' posn='20'>
	))
3	((	CCP	<fs name='CCP' drel='k2:VGF'>
3.1	ki	CC	<fs af='ki,avy,,,,,,' name='ki' posn='30'>
	))
4	((	NP	<fs name='NP2' drel='ccof:CCP2'>
4.1	praXAnamaMwrI	NNP	<fs af='praXAnamaMwrI,n,m,sg,3,d,0,0' name='praXAnamaMwrI' posn='40'>
4.2	manamohana	NNPC	<fs af='manamohana,n,m,sg,3,d,0,0' name='manamohana' posn='50'>
4.3	siMha	NNP	<fs af='siMha,n,m,sg,3,d,0,0' name='siMha' posn='60'>
	))
5	((	CCP	<fs name='CCP2' drel='k7:VGNN'>
5.1	Ora	CC	<fs af='Ora,avy,,,,,,' name='Ora' posn='70'>
	))
6	((	NP	<fs name='NP3' drel='ccof:CCP3'>
6.1	rARtrapawi	NNP	<fs af='rARtrapawi,n,m,sg,3,d,0,0' name='rARtrapawi' posn='80'>
6.2	paraveja	NNPC	<fs af='paraveja,n,m,sg,3,d,0,0' name='paraveja' posn='90'>
6.3	muSarraPa	NNP	<fs af='muSarraPa,n,any,sg,3,d,0,0' name='muSarraPa' posn='100'>
	))
7	((	CCP	<fs name='CCP3' drel='ccof:CCP2'>
7.1	yA	CC	<fs af='yA,avy,,,,,,' name='yA' posn='110'>
	))
8	((	NP	<fs name='NP4' drel='ccof:CCP3'>
8.1	vixeSa	NNC	<fs af='vixeSa,n,m,sg,3,d,0,0' name='vixeSa' posn='120'>
8.2	sacivoM	NN	<fs af='saciva,n,m,pl,3,o,0,0' name='sacivoM' posn='130'>
8.3	ke	PSP	<fs af='ke,psp,,,,,,' name='ke' posn='140'>
8.4	bIca	NST	<fs af='bIca,nst,m,sg,3,d,,' name='bIca' posn='150'>
	))
9	((	NP	<fs name='NP5' drel='nmod:NP6'>
9.1	bETaka	NN	<fs af='bETaka,n,f,sg,3,o,0,0' name='bETaka' posn='160'>
9.2	jEse	PSP	<fs af='jEsA,psp,m,pl,,o,,' name='jEse' posn='170'>
	))
10	((	NP	<fs name='NP6' drel='k3:VGNN'>
10.1	sAhasika	JJ	<fs af='sAhasika,adj,any,any,,o,,' name='sAhasika' posn='180'>
10.2	kaxamoM	NN	<fs af='kaxama,n,m,pl,3,o,0,0' name='kaxamoM' posn='190'>
10.3	ke	PSP	<fs af='ke,psp,,,,,,' name='ke2' posn='200'>
10.4	jarie	PSP	<fs af='jariye,psp,,,,,,' name='jarie' posn='210'>
	))
11	((	NP	<fs name='NP7' drel='k4:VGNN'>
11.1	saMbaMXoM	NN	<fs af='saMbaMXa,n,m,pl,3,o,0,0' name='saMbaMXoM' posn='220'>
11.2	ko	PSP	<fs af='ko,psp,,,,,,' name='ko' posn='230'>
	))
12	((	NP	<fs name='NP8' drel='pof:VGNN'>
12.1	majabUwI	NN	<fs af='majabUwI,n,f,sg,3,d,0,0' name='majabUwI' posn='240'>
	))
13	((	VGNN	<fs name='VGNN' drel='r6:NP9'>
13.1	xene	VM	<fs af='xe,v,any,any,any,o,nA,nA' name='xene' posn='250'>
13.2	kI	PSP	<fs af='kA,psp,f,sg,,d,,' name='kI' posn='260'>
	))
14	((	NP	<fs name='NP9' drel='k1:VGF2'>
14.1	jarUrawa	NN	<fs af='jarUrawa,n,f,sg,3,d,0,0' name='jarUrawa' posn='270'>
	))
15	((	VGF	<fs voicetype='active' name='VGF2' stype='declarative' drel='ccof:CCP'>
15.1	hE	VM	<fs af='hE,v,any,sg,3,,hE,hE' name='hE' posn='280'>
	))
16	((	BLK	<fs name='BLK' drel='rsym:VGF'>
16.1	.	SYM	<fs af='.,punc,,,,,,' name='.' posn='290'>
	))
</Sentence>

<Sentence id='13'>
1	((	NP	<fs name='NP' drel='r6:NP2'>
1.1	mOlAnA	NNC	<fs af='mOlAnA,n,m,sg,3,d,0,0' name='mOlAnA' posn='10'>
1.2	abbAsa	NNPC	<fs af='abbAsa,n,m,sg,3,d,0,0' name='abbAsa' posn='20'>
1.3	aMsArI	NNP	<fs af='aMsArI,n,any,sg,3,o,0,0' name='aMsArI' posn='30'>
1.4	ke	PSP	<fs af='kA,psp,m,sg,,o,,' name='ke' posn='40'>
	))
2	((	NP	<fs name='NP2' drel='nmod:NP3'>
2.1	newqwva	NN	<fs af='newqwva,n,m,sg,3,o,0,0' name='newqwva' posn='50'>
2.2	vAle	PSP	<fs af='vAlA,psp,m,sg,,o,,' name='vAle' posn='60'>
	))
3	((	NP	<fs name='NP3' drel='k1:VGF'>
3.1	hurriyawa	NNPC	<fs af='hurriyawa,n,f,sg,3,d,0,0' name='hurriyawa' posn='70'>
3.2	kAMPreMsa	NNP	<fs af='kAMPreMsa,n,f,sg,3,o,0,0' name='kAMPreMsa' posn='80'>
3.3	ne	PSP	<fs af='ne,psp,,,,,,' name='ne' posn='90'>
	))
4	((	NP	<fs name='NP4' drel='r6:NP5'>
4.1	nae	JJ	<fs af='nayA,adj,m,sg,,o,,' name='nae' posn='100'>
4.2	gqha	NNPC	<fs af='gqha,n,m,sg,3,d,0,0' name='gqha' posn='110'>
4.3	maMwrI	NNP	<fs af='maMwrI,n,m,sg,3,d,0,0' name='maMwrI' posn='120'>
4.4	SivarAja	NNPC	<fs af='SivarAja,n,m,sg,3,d,0,0' name='SivarAja' posn='130'>
4.5	pAtila	NNP	<fs af='pAtila,n,any,sg,3,o,0,0' name='pAtila' posn='140'>
4.6	ke	PSP	<fs af='kA,psp,m,sg,,o,,' name='ke2' posn='150'>
	))
5	((	NP	<fs name='NP5' drel='k7p:VGNN'>
5.1	kaSmIra	NNP	<fs af='kaSamIra,n,m,sg,3,o,0,0' name='kaSmIra' posn='160'>
5.2	meM	PSP	<fs af='meM,psp,,,,,,' name='meM' posn='170'>
	))
6	((	NP	<fs name='NP6' drel='ras-k2:VGNN'>
6.1	alagAvavAxiyoM	NN	<fs af='alagAvavAxI,n,m,pl,3,o,0,0' name='alagAvavAxiyoM' posn='180'>
6.2	ke	PSP	<fs af='ke,psp,,,,,,' name='ke3' posn='190'>
6.3	sAWa	NST	<fs af='sAWa,nst,m,sg,3,d,,' name='sAWa' posn='200'>
	))
7	((	NP	<fs name='NP7' drel='k2:VGNN'>
7.1	vArwA	NN	<fs af='vArwA,n,f,sg,3,d,0,0' name='vArwA' posn='210'>
	))
8	((	JJP	<fs name='JJP' drel='pof:VGNN'>
8.1	jArI	JJ	<fs af='jArI,adj,any,any,,,,' name='jArI' posn='220'>
	))
9	((	VGNN	<fs name='VGNN' drel='r6:NP8'>
9.1	raKane	VM	<fs af='raKa,v,any,any,any,o,nA,nA' name='raKane' posn='230'>
9.2	ke	PSP	<fs af='kA,psp,m,sg,,o,,' name='ke4' posn='240'>
	))
10	((	NP	<fs name='NP8' drel='r6-k2:NP9'>
10.1	bayAna	NN	<fs af='bayAna,n,m,sg,3,o,0,0' name='bayAna' posn='250'>
10.2	kA	PSP	<fs af='kA,psp,m,sg,,d,,' name='kA' posn='260'>
	))
11	((	NP	<fs name='NP9' drel='pof:VGF'>
11.1	svAgawa	NN	<fs af='svAgawa,n,m,sg,3,d,0,0' name='svAgawa' posn='270'>
	))
12	((	VGF	<fs name='VGF' stype='declarative' voicetype='active'>
12.1	kiyA	VM	<fs af='kara,v,m,sg,3,,yA,yA' name='kiyA' posn='280'>
12.2	hE	VAUX	<fs af='hE,v,any,sg,3,,hE,hE' name='hE' posn='290'>
	))
13	((	BLK	<fs name='BLK' drel='rsym:VGF'>
13.1	.	SYM	<fs af='.,punc,,,,,,' name='.' posn='300'>
	))
</Sentence>

<Sentence id='14'>
1	((	NP	<fs name='NP' drel='k1:VGF'>
1.1	saMgaTana	NN	<fs af='saMgaTana,n,m,sg,3,o,0,0' name='saMgaTana' posn='10'>
1.2	ne	PSP	<fs af='ne,psp,,,,,,' name='ne' posn='20'>
	))
2	((	NP	<fs name='NP2' drel='pof:VGF'>
2.1	ummIxa	NN	<fs af='ummIxa,n,f,sg,3,d,0,0' name='ummIxa' posn='30'>
	))
3	((	VGF	<fs name='VGF' stype='declarative' voicetype='active'>
3.1	jawAI	VM	<fs af='jawA,v,f,sg,any,,yA,yA' name='jawAI' posn='40'>
3.2	hE	VAUX	<fs af='hE,v,any,sg,3,,hE,hE' name='hE' posn='50'>
	))
4	((	CCP	<fs name='CCP' drel='k2:VGF'>
4.1	ki	CC	<fs af='ki,avy,,,,,,' name='ki' posn='60'>
	))
5	((	NP	<fs name='NP3' drel='k1:VGF2'>
5.1	naI	JJ	<fs af='nayA,adj,f,sg,,d,,' name='naI' posn='70'>
5.2	sarakAra	NN	<fs af='sarakAra,n,f,sg,3,d,0,0' name='sarakAra' posn='80'>
	))
6	((	NP	<fs name='NP4' drel='ras-k1:VGF2'>
6.1	rAjaga	NNP	<fs af='rAjaga,n,m,sg,3,d,0,0' name='rAjaga' posn='90'>
6.2	sarakAra	NN	<fs af='sarakAra,n,f,sg,3,o,0,0' name='sarakAra2' posn='100'>
6.3	ke	PSP	<fs af='ke,psp,,,,,,' name='ke' posn='110'>
6.4	sAWa	NST	<fs af='sAWa,nst,m,sg,3,d,,' name='sAWa' posn='120'>
	))
7	((	NP	<fs name='NP5' drel='r6:NP6'>
7.1	vArwA	NN	<fs af='vArwA,n,f,sg,3,o,0,0' name='vArwA' posn='130'>
7.2	ke	PSP	<fs af='kA,psp,m,pl,,o,,' name='ke2' posn='140'>
	))
8	((	NP	<fs name='NP6' drel='r6-k2:NP7'>
8.1	nawIjoM	NN	<fs af='nawIjA,n,m,pl,3,o,0,0' name='nawIjoM' posn='150'>
8.2	kA	PSP	<fs af='kA,psp,m,sg,,d,,' name='kA' posn='160'>
	))
9	((	NP	<fs name='NP7' drel='pof:VGF2'>
9.1	sammAna	NN	<fs af='sammAna,n,m,sg,3,d,0,0' name='sammAna' posn='170'>
	))
10	((	VGF	<fs voicetype='active' name='VGF2' stype='declarative' drel='ccof:CCP'>
10.1	karegI	VM	<fs af='kara,v,f,sg,3,,gA,gA' name='karegI' posn='180'>
	))
11	((	BLK	<fs name='BLK' drel='rsym:VGF'>
11.1	.	SYM	<fs af='.,punc,,,,,,' name='.' posn='190'>
	))
</Sentence>

<Sentence id='15'>
1	((	NP	<fs name='NP' drel='k1:VGF'>
1.1	aMsArI	NNP	<fs af='aMsArI,n,any,sg,3,o,0,0' name='aMsArI' posn='10'>
1.2	ne	PSP	<fs af='ne,psp,,,,,,' name='ne' posn='20'>
	))
2	((	VGF	<fs name='VGF' stype='declarative' voicetype='active'>
2.1	kahA	VM	<fs af='kaha,v,m,sg,any,,yA,yA' name='kahA' posn='30'>
	))
3	((	CCP	<fs name='CCP' drel='k2:VGF'>
3.1	ki	CC	<fs af='ki,avy,,,,,,' name='ki' posn='40'>
	))
4	((	NP	<fs name='NP2' drel='k1:VGF2'>
4.1	hama	PRP	<fs af='hama,pn,any,pl,1,d,0,0' name='hama' posn='50'>
	))
5	((	NP	<fs name='NP3' drel='r6:NP4'>
5.1	pAtila	NNP	<fs af='pAtila,n,any,sg,3,o,0,0' name='pAtila' posn='60'>
5.2	ke	PSP	<fs af='kA,psp,m,sg,,o,,' name='ke' posn='70'>
	))
6	((	NP	<fs name='NP4' drel='r6-k2:NP5'>
6.1	bayAna	NN	<fs af='bayAna,n,m,sg,3,o,0,0' name='bayAna' posn='80'>
6.2	kA	PSP	<fs af='kA,psp,m,sg,,d,,' name='kA' posn='90'>
	))
7	((	NP	<fs name='NP5' drel='pof:VGF2'>
7.1	svAgawa	NN	<fs af='svAgawa,n,m,sg,3,d,0,0' name='svAgawa' posn='100'>
	))
8	((	VGF	<fs voicetype='active' name='VGF2' stype='declarative' drel='ccof:CCP'>
8.1	karawe	VM	<fs af='kara,v,m,pl,1,,wA,wA' name='karawe' posn='110'>
8.2	hEM	VAUX	<fs af='hE,v,any,pl,1,,hE,hE' name='hEM' posn='120'>
8.3	,	SYM	<fs af='COMMA,punc,,,,,,' name=',' posn='130'>
	))
9	((	NP	<fs coref='NP4' name='NP6' drel='k7:VGF3'>
9.1	jisameM	PRP	<fs af='jo,pn,any,sg,3,o,meM,meM' name='jisameM' posn='140'>
	))
10	((	NP	<fs name='NP7' drel='k1:VGF3'>
10.1	unhoMne	PRP	<fs af='vaha,pn,any,sg,3h,o,ne,ne' name='unhoMne' posn='150'>
	))
11	((	NP	<fs name='NP8' drel='ras-k1:VGNN'>
11.1	alagAvavAxiyoM	NN	<fs af='alagAvavAxI,n,m,pl,3,o,0,0' name='alagAvavAxiyoM' posn='160'>
11.2	ke	PSP	<fs af='ke,psp,,,,,,' name='ke2' posn='170'>
11.3	sAWa	NST	<fs af='sAWa,nst,m,sg,3,d,,' name='sAWa' posn='180'>
	))
12	((	NP	<fs name='NP9' drel='k2:VGNN'>
12.1	vArwA	NN	<fs af='vArwA,n,f,sg,3,d,0,0' name='vArwA' posn='190'>
	))
13	((	JJP	<fs name='JJP' drel='pof:VGNN'>
13.1	jArI	JJ	<fs af='jArI,adj,any,any,,,,' name='jArI' posn='200'>
	))
14	((	VGNN	<fs name='VGNN' drel='r6:NP10'>
14.1	raKane	VM	<fs af='raKa,v,any,any,any,o,nA,nA' name='raKane' posn='210'>
14.2	kI	PSP	<fs af='kA,psp,f,sg,,d,,' name='kI' posn='220'>
	))
15	((	NP	<fs name='NP10' drel='k2:VGF3'>
15.1	bAwa	NN	<fs af='bAwa,n,f,sg,3,d,0,0' name='bAwa' posn='230'>
	))
16	((	VGF	<fs voicetype='active' name='VGF3' stype='declarative' drel='nmod__relc:NP4'>
16.1	kahI	VM	<fs af='kaha,v,f,sg,any,,yA,yA' name='kahI' posn='240'>
16.2	hE	VAUX	<fs af='hE,v,any,sg,3,,hE,hE' name='hE' posn='250'>
	))
17	((	BLK	<fs name='BLK' drel='rsym:VGF'>
17.1	.	SYM	<fs af='.,punc,,,,,,' name='.' posn='260'>
	))
</Sentence>

<Sentence id='16'>
1	((	NP	<fs name='NP' drel='k1:VGF'>
1.1	yaha	PRP	<fs af='yaha,pn,any,sg,3,d,0,0' name='yaha' posn='10'>
	))
2	((	NP	<fs name='NP2' drel='k1s:VGF'>
2.1	eka	QC	<fs af='eka,num,any,any,,any,,' name='eka' posn='20'>
2.2	acCA	JJ	<fs af='acCA,adj,m,sg,,d,,' name='acCA' posn='30'>
2.3	saMkewa	NN	<fs af='saMkewa,n,m,sg,3,d,0,0' name='saMkewa' posn='40'>
	))
3	((	VGF	<fs name='VGF' stype='declarative' voicetype='active'>
3.1	hE	VM	<fs af='hE,v,any,sg,3,,hE,hE' name='hE' posn='50'>
	))
4	((	BLK	<fs name='BLK' drel='rsym:VGF'>
4.1	.	SYM	<fs af='.,punc,,,,,,' name='.' posn='60'>
	))
</Sentence>

