<Sentence id='1'>
1	((	NP	<fs name='NP' drel='k7p:VGNF'>
1.1	bArAmulA	NNP	<fs af='bArAmulA,n,m,sg,3,d,0,0' name='bArAmulA' posn='10'>
1.2	jile	NN	<fs af='jilA,n,m,sg,3,o,0,0' name='jile' posn='20'>
1.3	meM	PSP	<fs af='meM,psp,,,,,,' name='meM' posn='30'>
	))
2	((	NP	<fs name='NP2' drel='r6:NP3'>
2.1	sopora	NNP	<fs af='sopora,n,m,sg,3,o,0,0' name='sopora' posn='40'>
2.2	kI	PSP	<fs af='kA,psp,f,sg,,o,,' name='kI' posn='50'>
	))
3	((	NP	<fs name='NP3' drel='k7p:VGNF'>
3.1	eka	QC	<fs af='eka,num,any,any,,any,,' name='eka' posn='60'>
3.2	masjixa	NN	<fs af='masjixa,n,f,sg,3,o,0,0' name='masjixa' posn='70'>
3.3	meM	PSP	<fs af='meM,psp,,,,,,' name='meM2' posn='80'>
	))
4	((	VGNF	<fs name='VGNF' drel='nmod__k1inv:NP4'>
4.1	Cipe	VM	<fs af='Cipa,v,m,pl,any,o,yA,yA' name='Cipe' posn='90'>
	))
5	((	NP	<fs name='NP4' drel='r6:NP5'>
5.1	AwaMkiyoM	NN	<fs af='AwaMkI,n,m,pl,3,o,0,0' name='AwaMkiyoM' posn='100'>
5.2	kI	PSP	<fs af='kA,psp,f,sg,,o,,' name='kI2' posn='110'>
	))
6	((	NP	<fs name='NP5' drel='k3:VGF'>
6.1	golI	NN	<fs af='golI,n,f,sg,3,o,0,0' name='golI' posn='120'>
6.2	se	PSP	<fs af='se,psp,,,,,,' name='se' posn='130'>
	))
7	((	NP	<fs name='NP6' drel='r6:NP7'>
7.1	jammU	NNP	<fs af='jammU,n,m,sg,3,d,0,0' name='jammU' posn='140'>
7.2	-	SYM	<fs af='-,punc,,,,,,' name='-' posn='150'>
7.3	kaSmIra	NNP	<fs af='kaSmIra,n,m,sg,3,d,0,0' name='kaSmIra' posn='160'>
7.4	pulisa	NN	<fs af='pulisa,n,f,sg,3,o,0,0' name='pulisa' posn='170'>
7.5	ke	PSP	<fs af='kA,psp,m,sg,,o,,' name='ke' posn='180'>
	))
8	((	NP	<fs name='NP7' drel='r6:NP8'>
8.1	speSala	JJ	<fs af='speSala,adj,any,any,,o,,' name='speSala' posn='190'>
8.2	OYpareSana	NNC	<fs af='OYpareSana,n,m,sg,3,d,0,0' name='OYpareSana' posn='200'>
8.3	grupa	NN	<fs af='grupa,n,m,sg,3,o,0,0' name='grupa' posn='210'>
8.4	ke	PSP	<fs af='kA,psp,m,pl,,d,,' name='ke2' posn='220'>
	))
9	((	NP	<fs name='NP8' drel='k1:VGF'>
9.1	xo	QC	<fs af='xo,num,any,any,,any,,' name='xo' posn='230'>
9.2	pulisakarmI	NN	<fs af='pulisakarmI,n,m,pl,3,d,0,0' name='pulisakarmI' posn='240'>
	))
10	((	JJP	<fs name='JJP' drel='pof:VGF'>
10.1	SahIxa	JJ	<fs af='SahIxa,adj,any,any,,,,' name='SahIxa' posn='250'>
	))
11	((	VGF	<fs name='VGF' stype='declarative' voicetype='active'>
11.1	ho	VM	<fs af='ho,v,any,any,any,,0,0' name='ho' posn='260'>
11.2	gae	VAUX	<fs af='jA,v,m,pl,any,,yA1,yA1' name='gae' posn='270'>
	))
12	((	BLK	<fs name='BLK' drel='rsym:VGF'>
12.1	.	SYM	<fs af='.,punc,,,,,,' name='.' posn='280'>
	))
</Sentence>

<Sentence id='2'>
1	((	NP	<fs name='NP' drel='k1:VGF'>
1.1	rakRA	NNC	<fs af='rakRA,n,f,sg,3,d,0,0' name='rakRA' posn='10'>
1.2	sUwroM	NN	<fs af='sUwra,n,m,pl,3,o,0,0' name='sUwroM' posn='20'>
1.3	ne	PSP	<fs af='ne,psp,,,,,,' name='ne' posn='30'>
	))
2	((	NP	<fs name='NP2' drel='k7t:VGF'>
2.1	buXavAra	NNP	<fs af='buXavAra,n,m,sg,3,o,0,0' name='buXavAra' posn='40'>
2.2	ko	PSP	<fs af='ko,psp,,,,,,' name='ko' posn='50'>
	))
3	((	NP	<fs name='NP3' drel='k2:VGF'>
3.1	yaha	DEM	<fs af='yaha,pn,any,sg,3,d,,' name='yaha' posn='60'>
3.2	jAnakArI	NN	<fs af='jAnakArI,n,f,sg,3,d,0,0' name='jAnakArI' posn='70'>
	))
4	((	VGF	<fs name='VGF' stype='declarative' voicetype='active'>
4.1	xI	VM	<fs af='xe,v,f,sg,any,,yA,yA' name='xI' posn='80'>
	))
5	((	BLK	<fs name='BLK' drel='rsym:VGF'>
5.1	.	SYM	<fs af='.,punc,,,,,,' name='.' posn='90'>
	))
</Sentence>

<Sentence id='3'>
1	((	NP	<fs name='NP' drel='k7a:VGF'>
1.1	sUwroM	NN	<fs af='sUwra,n,m,pl,3,o,0,0' name='sUwroM' posn='10'>
1.2	ke	PSP	<fs af='ke,psp,,,,,,' name='ke' posn='20'>
1.3	muwAbika	PSP	<fs af='muwAbika,psp,,,,,,' name='muwAbika' posn='30'>
	))
2	((	NP	<fs name='NP2' drel='r6:NP3'>
2.1	KuPiyA	JJ	<fs af='KuPiyA,adj,any,any,,o,,' name='KuPiyA' posn='40'>
2.2	jAnakArI	NN	<fs af='jAnakArI,n,f,sg,3,o,0,0' name='jAnakArI' posn='50'>
2.3	ke	PSP	<fs af='kA,psp,m,sg,,o,,' name='ke2' posn='60'>
	))
3	((	NP	<fs name='NP3' drel='k7:VGF'>
3.1	AXAra	NN	<fs af='AXAra,n,m,sg,3,o,0,0' name='AXAra' posn='70'>
3.2	para	PSP	<fs af='para,psp,,,,,,' name='para' posn='80'>
	))
4	((	NP	<fs name='NP4' drel='r6:NP5'>
4.1	52vIM	QO	<fs af='52vAz,num,f,sg,,o,,' name='52vIM' posn='260'>
4.2	rARtrIya	NNPC	<fs af='rARtrIya,adj,any,any,,o,,' name='rARtrIya' posn='40'>
4.3	rAiPala	NNP	<fs af='rAiPala,n,f,sg,3,o,0,0' name='rAiPala' posn='110'>
4.4	ke	PSP	<fs af='kA,psp,m,pl,,o,,' name='ke3' posn='120'>
	))
5	((	NP	<fs name='NP5' drel='ccof:CCP'>
5.1	javAna	NN	<fs af='javAna,n,m,pl,3,o,0,0' name='javAna' posn='130'>
	))
6	((	CCP	<fs name='CCP' drel='k1:VGF'>
6.1	Ora	CC	<fs af='Ora,avy,,,,,,' name='Ora' posn='140'>
	))
7	((	NP	<fs name='NP6' drel='r6:NP7'>
7.1	speSala	JJ	<fs af='speSala,adj,any,any,,o,,' name='speSala' posn='150'>
7.2	OYpareSana	NNC	<fs af='OYpareSana,n,m,sg,3,d,0,0' name='OYpareSana' posn='160'>
7.3	grupa	NN	<fs af='grupa,n,m,sg,3,o,0,0' name='grupa' posn='170'>
7.4	ke	PSP	<fs af='kA,psp,m,pl,,o,,' name='ke4' posn='180'>
	))
8	((	NP	<fs name='NP7' drel='ccof:CCP'>
8.1	pulisakarmiyoM	NN	<fs af='pulisakarmI,n,m,pl,3,o,0,0' name='pulisakarmiyoM' posn='190'>
8.2	ne	PSP	<fs af='ne,psp,,,,,,' name='ne' posn='200'>
	))
9	((	NP	<fs name='NP8' drel='r6:NP9'>
9.1	CanaKana	NNP	<fs af='CanaKana,n,m,sg,3,d,0,0' name='CanaKana' posn='210'>
9.2	-	SYM	<fs af='-,punc,,,,,,' name='-' posn='220'>
9.3	sopora	NNP	<fs af='sopora,n,m,sg,3,d,0,0' name='sopora' posn='230'>
9.4	gAMva	NN	<fs af='gAMva,n,m,sg,3,o,0,0' name='gAMva' posn='240'>
9.5	kI	PSP	<fs af='kA,psp,f,sg,,o,,' name='kI' posn='250'>
	))
10	((	NP	<fs name='NP9' drel='k7p:VGNF'>
10.1	eka	QC	<fs af='eka,num,any,any,,any,,' name='eka' posn='260'>
10.2	masjixa	NN	<fs af='masjixa,n,f,sg,3,o,0,0' name='masjixa' posn='270'>
10.3	meM	PSP	<fs af='meM,psp,,,,,,' name='meM' posn='280'>
	))
11	((	VGNF	<fs name='VGNF' drel='nmod__k1inv:NP10'>
11.1	Cipe	VM	<fs af='Cipa,v,m,pl,any,,yA,yA' name='Cipe' posn='290'>
	))
12	((	NP	<fs name='NP10' drel='k2:VGNN'>
12.1	AwaMkiyoM	NN	<fs af='AwaMkI,n,m,pl,3,o,0,0' name='AwaMkiyoM' posn='300'>
12.2	ko	PSP	<fs af='ko,psp,,,,,,' name='ko' posn='310'>
	))
13	((	VGNN	<fs name='VGNN' drel='rt:VGF'>
13.1	pakadZane	VM	<fs af='pakada,v,any,any,any,o,nA,nA' name='pakadZane' posn='320'>
13.2	ke	PSP	<fs af='ke,psp,,,,,,' name='ke5' posn='330'>
13.3	lie	PSP	<fs af='lie,psp,,,,,,' name='lie' posn='340'>
	))
14	((	NP	<fs name='NP11' drel='k2:VGF'>
14.1	pUre	JJ	<fs af='pUrA,adj,m,sg,,o,,' name='pUre' posn='350'>
14.2	gAMva	NN	<fs af='gAMva,n,m,sg,3,o,0,0' name='gAMva2' posn='360'>
14.3	ko	PSP	<fs af='ko,psp,,,,,,' name='ko2' posn='370'>
	))
15	((	VGF	<fs name='VGF' stype='declarative' voicetype='active'>
15.1	Gera	VM	<fs af='Gera,v,any,any,any,,0,0' name='Gera' posn='380'>
15.2	liyA	VAUX	<fs af='le,v,m,sg,any,,yA,yA' name='liyA' posn='390'>
	))
16	((	BLK	<fs name='BLK' drel='rsym:VGF'>
16.1	.	SYM	<fs af='.,punc,,,,,,' name='.' posn='400'>
	))
</Sentence>

<Sentence id='4'>
1	((	NP	<fs name='NP' drel='r6:NP2'>
1.1	rARtrIya	NNPC	<fs af='rARtrIya,adj,any,any,,o,,' name='rARtrIya' posn='150'>
1.2	rAiPala	NNP	<fs af='rAiPala,n,f,sg,3,o,0,0' name='rAiPala' posn='20'>
1.3	ke	PSP	<fs af='kA,psp,m,pl,,d,,' name='ke' posn='30'>
	))
2	((	NP	<fs name='NP2' drel='k1:VGF'>
2.1	javAna	NN	<fs af='javAna,n,m,pl,3,d,0,0' name='javAna' posn='40'>
	))
3	((	NP	<fs name='NP3' drel='k7p:VGF'>
3.1	masjixa	NN	<fs af='masjixa,n,f,sg,3,o,0,0' name='masjixa' posn='50'>
3.2	ke	PSP	<fs af='ke,psp,,,,,,' name='ke2' posn='60'>
3.3	bAhara	NST	<fs af='bAhara,nst,m,sg,3,d,,' name='bAhara' posn='70'>
	))
4	((	VGF	<fs voicetype='active' name='VGF' stype='declarative' drel='ccof:CCP'>
4.1	We	VM	<fs af='WA,v,m,pl,any,,WA,WA' name='We' posn='80'>
	))
5	((	CCP	<fs name='CCP'>
5.1	jabaki	CC	<fs af='jabaki,avy,,,,,,' name='jabaki' posn='90'>
	))
6	((	NP	<fs name='NP4' drel='r6:NP5'>
6.1	rAjya	NNC	<fs af='rAjya,n,m,sg,3,d,0,0' name='rAjya' posn='100'>
6.2	pulisa	NN	<fs af='pulisa,n,f,sg,3,o,0,0' name='pulisa' posn='110'>
6.3	kI	PSP	<fs af='kA,psp,f,sg,,d,,' name='kI' posn='120'>
	))
7	((	NP	<fs name='NP5' drel='k1:VGF2'>
7.1	tIma	NN	<fs af='tIma,n,f,sg,3,d,0,0' name='tIma' posn='130'>
	))
8	((	NP	<fs name='NP6' drel='k7p:VGF2'>
8.1	masjixa	NN	<fs af='masjixa,n,f,sg,3,o,0,0' name='masjixa2' posn='140'>
8.2	ke	PSP	<fs af='ke,psp,,,,,,' name='ke3' posn='150'>
8.3	aMxara	NST	<fs af='aMxara,nst,m,sg,3,d,,' name='aMxara' posn='160'>
	))
9	((	VGF	<fs voicetype='active' name='VGF2' stype='declarative' drel='ccof:CCP'>
9.1	GusI	VM	<fs af='Gusa,v,f,sg,any,,yA,yA' name='GusI' posn='170'>
	))
10	((	BLK	<fs name='BLK' drel='rsym:CCP'>
10.1	.	SYM	<fs af='.,punc,,,,,,' name='.' posn='180'>
	))
</Sentence>

<Sentence id='5'>
1	((	NP	<fs name='NP' drel='k7t:VGF'>
1.1	isI	DEM	<fs af='yaha,pn,any,sg,3,o,,' name='isI' posn='10'>
1.2	bIca	NST	<fs af='bIca,nst,m,sg,3,d,,' name='bIca' posn='20'>
	))
2	((	NP	<fs name='NP2' drel='k7p:VGNF'>
2.1	vahAM	PRP	<fs af='vahAz,pn,,,,d,,' name='vahAM' posn='30'>
	))
3	((	VGNF	<fs name='VGNF' drel='nmod__k1inv:NP3'>
3.1	Cipe	VM	<fs af='Cipa,v,m,pl,any,,yA,yA' name='Cipe' posn='40'>
	))
4	((	NP	<fs name='NP3' drel='r6:NP4'>
4.1	AwaMkiyoM	NN	<fs af='AwaMkI,n,m,pl,3,o,0,0' name='AwaMkiyoM' posn='50'>
4.2	kI	PSP	<fs af='kA,psp,f,sg,,d,,' name='kI' posn='60'>
	))
5	((	NP	<fs name='NP4' drel='k2:VGNN'>
5.1	golI	NN	<fs af='golI,n,f,sg,3,d,0,0' name='golI' posn='70'>
	))
6	((	VGNN	<fs name='VGNN' drel='rh:VGF'>
6.1	lagane	VM	<fs af='laga,v,any,any,any,o,nA,nA' name='lagane' posn='80'>
6.2	se	PSP	<fs af='se,psp,,,,,,' name='se' posn='90'>
	))
7	((	NP	<fs name='NP5' drel='k1:VGF'>
7.1	xo	QC	<fs af='xo,num,any,any,,any,,' name='xo' posn='100'>
7.2	pulisakarmI	NN	<fs af='pulisakarmI,n,m,pl,3,d,0,0' name='pulisakarmI' posn='110'>
	))
8	((	JJP	<fs name='JJP' drel='pof:VGF'>
8.1	GAyala	JJ	<fs af='GAyala,adj,any,any,,,,' name='GAyala' posn='120'>
	))
9	((	VGF	<fs name='VGF' stype='declarative' voicetype='active'>
9.1	ho	VM	<fs af='ho,v,any,any,any,,0,0' name='ho' posn='130'>
9.2	gae	VAUX	<fs af='jA,v,m,pl,any,,yA1,yA1' name='gae' posn='140'>
	))
10	((	NP	<fs coref=':NP5' name='NP6' drel='r6-k1:NP8'>
10.1	jinakI	PRP	<fs af='jo,pn,f,pl,3,o,kA,kA' name='jinakI' posn='150'>
	))
11	((	NP	<fs name='NP7' drel='k7t:VGF2'>
11.1	bAxa	NST	<fs af='bAxa,nst,m,sg,3,o,,' name='bAxa' posn='160'>
11.2	meM	PSP	<fs af='meM,psp,,,,,,' name='meM' posn='170'>
	))
12	((	NP	<fs name='NP8' drel='pof:VGF2'>
12.1	mOwa	NN	<fs af='mOwa,n,f,sg,3,d,0,0' name='mOwa' posn='180'>
	))
13	((	VGF	<fs voicetype='active' name='VGF2' stype='declarative' drel='nmod__relc:NP5'>
13.1	ho	VM	<fs af='ho,v,any,any,any,,0,0' name='ho2' posn='190'>
13.2	gaI	VAUX	<fs af='jA,v,f,sg,any,,yA1,yA1' name='gaI' posn='200'>
	))
14	((	BLK	<fs name='BLK' drel='rsym:VGF'>
14.1	.	SYM	<fs af='.,punc,,,,,,' name='.' posn='210'>
	))
</Sentence>



