<Sentence id='1'>
1	((	NP	<fs name='NP' drel='k1:VGF'>
1.1	cAlU	JJ	<fs af='cAlU,adj,any,any,,o,,' name='cAlU' posn='10'>
1.2	varRa	NN	<fs af='varRa,n,m,sg,3,o,0,0' name='varRa' posn='20'>
1.3	ne	PSP	<fs af='ne,psp,,,,,,' name='ne' posn='30'>
	))
2	((	VGNF	<fs name='VGNF' drel='vmod:VGF'>
2.1	jAwe	VM	<fs af='jA,v,m,sg,any,,wA,wA' name='jAwe' posn='40'>
2.2	-	SYM	<fs af='-,punc,,,,,,' name='-' posn='50'>
2.3	jAwe	RDP	<fs af='jA,v,m,sg,any,,wA,wA' name='jAwe2' posn='60'>
	))
3	((	NP	<fs name='NP2' drel='jjmod:JJP'>
3.1	karIba	RP	<fs af='karIba,avy,,,,,,' name='karIba' posn='70'>
3.2	deDZa	QC	<fs af='deDa,num,any,any,,any,,' name='deDZa' posn='80'>
3.3	sAla	NN	<fs af='sAla,n,m,sg,3,d,0,0' name='sAla' posn='90'>
	))
4	((	JJP	<fs name='JJP' drel='nmod:NP3'>
4.1	purAne	JJ	<fs af='purAnA,adj,m,sg,,o,,' name='purAne' posn='100'>
	))
5	((	NP	<fs name='NP3' drel='k7:VGF'>
5.1	saMyukwa	NNPC	<fs af='saMyukwa,adj,any,any,,o,,' name='saMyukwa' posn='100'>
5.2	pragawiSIla	NNPC	<fs af='pragawiSIla,adj,any,any,,o,,' name='pragawiSIla' posn='100'>
5.3	gaTabaMXana	NNP	<fs af='gaTabaMXana,n,m,sg,3,o,0,0' name='gaTabaMXana' posn='130'>
	))
6	((	NP	<fs name='NP4' drel='rs:NP3'>
6.1	(	SYM	<fs af='(,punc,,,,,,' name='(' posn='140'>
6.2	yUpIe	NNP	<fs af='yUpIe,n,m,sg,3,o,0,0' name='yUpIe' posn='150'>
6.3	)	SYM	<fs af='),punc,,,,,,' name=')' posn='160'>
	))
7	((	FRAGP	<fs name='FRAGP' drel='fragof:NP3'>
7.1	meM	PSP	<fs af='meM,psp,,,,,,' name='meM' posn='170'>
	))
8	((	NP	<fs name='NP5' drel='r6-k2:NP6'>
8.1	PUta	NN	<fs af='PUta,n,f,sg,3,o,0,0' name='PUta' posn='180'>
8.2	ke	PSP	<fs af='kA,psp,m,pl,,d,,' name='ke' posn='190'>
	))
9	((	NP	<fs name='NP6' drel='pof:VGF'>
9.1	saMkewa	NN	<fs af='saMkewa,n,m,pl,3,d,0,0' name='saMkewa' posn='200'>
	))
10	((	VGF	<fs name='VGF' stype='declarative' voicetype='active'>
10.1	xe	VM	<fs af='xe,v,any,any,any,,0,0' name='xe' posn='210'>
10.2	xie	VAUX	<fs af='xe,v,m,pl,3,,yA,yA' name='xie' posn='220'>
10.3	hEM	VAUX	<fs af='hE,v,any,pl,3,,hE,hE' name='hEM' posn='230'>
	))
11	((	BLK	<fs name='BLK' drel='rsym:VGF'>
11.1	.	SYM	<fs af='.,punc,,,,,,' name='.' posn='240'>
	))
</Sentence>

<Sentence id='2'>
1	((	NP	<fs name='NP' drel='ccof:CCP'>
1.1	rAjaxa	NNP	<fs af='rAjaxa,n,m,sg,3,o,0,0' name='rAjaxa' posn='10'>
	))
2	((	CCP	<fs name='CCP' drel='k1:VGF'>
2.1	va	CC	<fs af='va,avy,,,,,,' name='va' posn='20'>
	))
3	((	NP	<fs name='NP2' drel='ccof:CCP'>
3.1	tIAraesa	NNP	<fs af='tIAraesa,n,m,sg,3,o,0,0' name='tIAraesa' posn='30'>
3.2	ne	PSP	<fs af='ne,psp,,,,,,' name='ne' posn='40'>
	))
4	((	NP	<fs name='NP3' drel='k7t:VGF'>
4.1	bqhaspawivAra	NNP	<fs af='bqhaspawivAra,n,m,sg,3,o,0,0' name='bqhaspawivAra' posn='50'>
4.2	ko	PSP	<fs af='ko,psp,,,,,,' name='ko' posn='60'>
	))
5	((	NP	<fs name='NP4' drel='nmod:NP9'>
5.1	yUpIe	NNP	<fs af='yUpIe,n,m,sg,3,d,0,0' name='yUpIe' posn='70'>
5.2	sarakAra	NN	<fs af='sarakAra,n,f,sg,3,o,0,0' name='sarakAra' posn='80'>
5.3	xvArA	PSP	<fs af='xvArA,psp,,,,,,' name='xvArA' posn='90'>
	))
6	((	NP	<fs name='NP5' drel='r6:NP6'>
6.1	nyUnawama	NNPC	<fs af='nyUnawama,adj,any,any,,o,,' name='nyUnawama' posn='100'>
6.2	sAJA	NNPC	<fs af='sAJA,n,m,sg,3,d,0,0' name='sAJA' posn='110'>
6.3	kAryakrama	NNP	<fs af='kAryakrama,n,m,sg,3,o,0,0' name='kAryakrama' posn='120'>
6.4	ke	PSP	<fs af='kA,psp,m,sg,,o,,' name='ke' posn='130'>
	))
7	((	NP	<fs name='NP6' drel='r6:NP7'>
7.1	kriyAnvayana	NN	<fs af='kriyAnvayana,n,m,sg,3,o,0,0' name='kriyAnvayana' posn='140'>
7.2	kI	PSP	<fs af='kA,psp,f,sg,,o,,' name='kI' posn='150'>
	))
8	((	NP	<fs name='NP7' drel='rt:VGF'>
8.1	samIkRA	NN	<fs af='samIkRA,n,f,sg,3,o,0,0' name='samIkRA' posn='160'>
8.2	ke	PSP	<fs af='ke,psp,,,,,,' name='ke2' posn='170'>
8.3	lie	PSP	<fs af='lie,psp,,,,,,' name='lie' posn='180'>
	))
9	((	NP	<fs name='NP8' drel='r6:NP9'>
9.1	eka	QC	<fs af='eka,num,any,any,,any,,' name='eka' posn='190'>
9.2	anOpacArika	JJ	<fs af='anOpacArika,adj,any,any,,o,,' name='anOpacArika' posn='200'>
9.3	samUha	NN	<fs af='samUha,n,m,sg,3,o,0,0' name='samUha' posn='210'>
9.4	ke	PSP	<fs af='kA,psp,m,sg,,o,,' name='ke3' posn='220'>
	))
10	((	NP	<fs name='NP9' drel='r6-k2:NP10'>
10.1	gaTana	NN	<fs af='gaTana,n,m,sg,3,o,0,0' name='gaTana' posn='230'>
10.2	kI	PSP	<fs af='kA,psp,f,sg,,d,,' name='kI2' posn='240'>
	))
11	((	NP	<fs name='NP10' drel='pof:VGF'>
11.1	GoRaNA	NN	<fs af='GoRaNA,n,f,sg,3,d,0,0' name='GoRaNA' posn='250'>
	))
12	((	VGF	<fs name='VGF' stype='declarative' voicetype='active'>
12.1	kI	VM	<fs af='kara,v,f,sg,3,,yA,yA' name='kI3' posn='260'>
12.2	hE	VAUX	<fs af='hE,v,any,sg,3,,hE,hE' name='hE' posn='270'>
	))
13	((	BLK	<fs name='BLK' drel='rsym:VGF'>
13.1	.	SYM	<fs af='.,punc,,,,,,' name='.' posn='280'>
	))
</Sentence>

<Sentence id='3'>
1	((	NP	<fs name='NP' drel='r6:NP2'>
1.1	sarakAra	NN	<fs af='sarakAra,n,f,sg,3,o,0,0' name='sarakAra' posn='10'>
1.2	ke	PSP	<fs af='kA,psp,m,sg,,o,,' name='ke' posn='20'>
	))
2	((	NP	<fs name='NP2' drel='r6:NP3'>
2.1	sahayogI	JJ	<fs af='sahayogI,adj,any,any,,o,,' name='sahayogI' posn='30'>
2.2	xaloM	NN	<fs af='xala,n,m,pl,3,o,0,0' name='xaloM' posn='40'>
2.3	kI	PSP	<fs af='kA,psp,f,sg,,o,,' name='kI' posn='50'>
	))
3	((	NP	<fs name='NP3' drel='rh:VGF'>
3.1	isa	DEM	<fs af='yaha,pn,any,sg,3,o,,' name='isa' posn='60'>
3.2	GoRaNA	NN	<fs af='GoRaNA,n,f,sg,3,o,0,0' name='GoRaNA' posn='70'>
3.3	se	PSP	<fs af='se,psp,,,,,,' name='se' posn='80'>
	))
4	((	NP	<fs name='NP4' drel='k1:VGF'>
4.1	kAMgresa	NNP	<fs af='kAMgresa,n,f,sg,3,d,0,0' name='kAMgresa' posn='90'>
	))
5	((	NP	<fs name='NP5' drel='k7:VGF'>
5.1	sakawe	NN	<fs af='sakawe,n,m,sg,3,o,0,0' name='sakawe' posn='100'>
5.2	meM	PSP	<fs af='meM,psp,,,,,,' name='meM' posn='110'>
	))
6	((	VGF	<fs name='VGF' stype='declarative' voicetype='active'>
6.1	hE	VM	<fs af='hE,v,any,sg,3,,hE,hE' name='hE' posn='120'>
	))
7	((	BLK	<fs name='BLK' drel='rsym:VGF'>
7.1	.	SYM	<fs af='.,punc,,,,,,' name='.' posn='130'>
	))
</Sentence>

<Sentence id='4'>
1	((	NP	<fs name='NP' drel='r6:NP2'>
1.1	tIAraesa	NNP	<fs af='tIAraesa,n,m,sg,3,o,0,0' name='tIAraesa' posn='10'>
1.2	ke	PSP	<fs af='kA,psp,m,sg,,o,,' name='ke' posn='20'>
	))
2	((	NP	<fs name='NP2' drel='k7t:VGF'>
2.1	ElAna	NN	<fs af='ElAna,n,m,sg,3,o,0,0' name='ElAna' posn='30'>
2.2	ke	PSP	<fs af='ke,psp,,,,,,' name='ke2' posn='40'>
2.3	bAxa	NST	<fs af='bAxa,nst,m,sg,3,d,,' name='bAxa' posn='50'>
	))
3	((	NP	<fs name='NP3' drel='k7t:VGF'>
3.1	bqhaspawivAra	NNP	<fs af='bqhaspawivAra,n,m,sg,3,o,0,0' name='bqhaspawivAra' posn='60'>
3.2	ko	PSP	<fs af='ko,psp,,,,,,' name='ko' posn='70'>
	))
4	((	NP	<fs name='NP4' drel='k7:VGF'>
4.1	Anana	NNC	<fs af='Anana,n,m,sg,3,d,0,0' name='Anana' posn='80'>
4.2	-JOIN	SYM	<fs af='-,punc,,,,,,' name='-JOIN' posn='90'>
4.3	PAnana	NN	<fs af='PAnana,n,m,sg,3,o,0,0' name='PAnana' posn='100'>
4.4	meM	PSP	<fs af='meM,psp,,,,,,' name='meM' posn='110'>
	))
5	((	NP	<fs name='NP5' drel='r6:NP6'>
5.1	kAMgresa	NNP	<fs af='kAMgresa,n,f,sg,3,o,0,0' name='kAMgresa' posn='120'>
5.2	ke	PSP	<fs af='kA,psp,m,sg,,o,,' name='ke3' posn='130'>
	))
6	((	NP	<fs name='NP6' drel='k7p:VGF'>
6.1	muKyAlaya	NN	<fs af='muKyAlaya,n,m,sg,3,o,0,0' name='muKyAlaya' posn='140'>
6.2	meM	PSP	<fs af='meM,psp,,,,,,' name='meM2' posn='150'>
	))
7	((	NP	<fs name='NP7' drel='r6:NP8'>
7.1	pArtI	NN	<fs af='pArtI,n,f,sg,3,o,0,0' name='pArtI' posn='160'>
7.2	ke	PSP	<fs af='kA,psp,m,pl,,o,,' name='ke4' posn='170'>
	))
8	((	NP	<fs name='NP8' drel='r6-k1:NP9'>
8.1	variRTa	JJ	<fs af='variRTa,adj,any,any,,o,,' name='variRTa' posn='180'>
8.2	newAoM	NN	<fs af='newA,n,m,pl,3,o,0,0' name='newAoM' posn='190'>
8.3	kI	PSP	<fs af='kA,psp,f,sg,,d,,' name='kI' posn='200'>
	))
9	((	NP	<fs name='NP9' drel='pof:VGF'>
9.1	bETaka	NN	<fs af='bETaka,n,f,sg,3,d,0,0' name='bETaka' posn='210'>
	))
10	((	VGF	<fs name='VGF' stype='declarative' voicetype='active'>
10.1	huI	VM	<fs af='ho,v,f,sg,3,,yA,yA' name='huI' posn='220'>
	))
11	((	BLK	<fs name='BLK' drel='rsym:VGF'>
11.1	.	SYM	<fs af='.,punc,,,,,,' name='.' posn='230'>
	))
</Sentence>

<Sentence id='5'>
1	((	NP	<fs name='NP' drel='k7t:VGF'>
1.1	bETaka	NN	<fs af='bETaka,n,f,sg,3,o,0,0' name='bETaka' posn='10'>
1.2	ke	PSP	<fs af='ke,psp,,,,,,' name='ke' posn='20'>
1.3	bAxa	NST	<fs af='bAxa,nst,m,sg,3,d,,' name='bAxa' posn='30'>
	))
2	((	NP	<fs name='NP2' drel='k1:VGF'>
2.1	variRTa	JJ	<fs af='variRTa,adj,any,any,,o,,' name='variRTa' posn='40'>
2.2	kAMgresI	JJ	<fs af='kAMgresI,adj,any,any,,o,,' name='kAMgresI' posn='50'>
2.3	newAoM	NN	<fs af='newA,n,m,pl,3,o,0,0' name='newAoM' posn='60'>
2.4	ne	PSP	<fs af='ne,psp,,,,,,' name='ne' posn='70'>
	))
3	((	NP	<fs name='NP3' drel='ccof:CCP'>
3.1	rAjaxa	NNC	<fs af='rAjaxa,n,m,sg,3,d,0,0' name='rAjaxa' posn='80'>
3.2	suprImo	NN	<fs af='suprImo,n,m,sg,3,d,o,o' name='suprImo' posn='90'>
3.3	lAlU	NNPC	<fs af='lAlU,n,m,sg,3,d,0,0' name='lAlU' posn='100'>
3.4	yAxava	NNP	<fs af='yAxava,n,any,sg,3,d,0,0' name='yAxava' posn='110'>
	))
4	((	CCP	<fs name='CCP' drel='k2:VGNF'>
4.1	va	CC	<fs af='va,avy,,,,,,' name='va' posn='120'>
	))
5	((	NP	<fs name='NP4' drel='ccof:CCP'>
5.1	enasIpI	NNC	<fs af='enasIpI,n,f,sg,3,d,0,0' name='enasIpI' posn='130'>
5.2	aXyakRa	NN	<fs af='aXyakRa,n,m,sg,3,d,0,0' name='aXyakRa' posn='140'>
5.3	Saraxa	NNPC	<fs af='Saraxa,n,m,sg,3,d,0,0' name='Saraxa' posn='150'>
5.4	pavAra	NNP	<fs af='pavAra,n,any,sg,3,o,0,0' name='pavAra' posn='160'>
5.5	ko	PSP	<fs af='ko,psp,,,,,,' name='ko' posn='170'>
	))
6	((	NP	<fs name='NP5' drel='pof:VGNF'>
6.1	Pona	NN	<fs af='Pona,n,m,sg,3,d,0,0' name='Pona' posn='180'>
	))
7	((	VGNF	<fs name='VGNF' drel='vmod:VGF'>
7.1	kara	VM	<fs af='kara,v,any,any,any,,0,0' name='kara' posn='190'>
	))
8	((	NP	<fs name='NP6' drel='r6:NP7'>
8.1	isa	DEM	<fs af='yaha,pn,any,sg,3,o,,' name='isa' posn='200'>
8.2	waraha	NN	<fs af='waraha,n,f,sg,3,o,0,0' name='waraha' posn='210'>
8.3	ke	PSP	<fs af='kA,psp,m,sg,,o,,' name='ke2' posn='220'>
	))
9	((	NP	<fs name='NP7' drel='k7:VGNF2'>
9.1	kisI	PRP	<fs af='koI,pn,any,sg,3,o,0,0' name='kisI' posn='230'>
9.2	xabAva	NN	<fs af='xabAva,n,m,sg,3,o,0,0' name='xabAva' posn='240'>
9.3	meM	PSP	<fs af='meM,psp,,,,,,' name='meM' posn='250'>
	))
10	((	VGNF	<fs name='VGNF2' drel='vmod:VGNN'>
10.1	Akara	VM	<fs af='A,v,any,any,3,,kara,kara' name='Akara' posn='260'>
	))
11	((	NP	<fs name='NP8' drel='r6:NP9'>
11.1	samUha	NN	<fs af='samUha,n,m,sg,3,o,0,0' name='samUha' posn='270'>
11.2	ke	PSP	<fs af='kA,psp,m,sg,,o,,' name='ke3' posn='280'>
	))
12	((	NP	<fs name='NP9' drel='r6:NP10'>
12.1	gaTana	NN	<fs af='gaTana,n,m,sg,3,o,0,0' name='gaTana' posn='290'>
12.2	kI	PSP	<fs af='kA,psp,f,sg,,o,,' name='kI' posn='300'>
	))
13	((	NP	<fs name='NP10' drel='k2:VGNN'>
13.1	Kabara	NN	<fs af='Kabara,n,f,sg,3,o,0,0' name='Kabara' posn='310'>
13.2	ko	PSP	<fs af='ko,psp,,,,,,' name='ko2' posn='320'>
	))
14	((	JJP	<fs name='JJP' drel='pof:VGNN'>
14.1	KArija	JJ	<fs af='KArija,adj,any,any,,,,' name='KArija' posn='330'>
	))
15	((	VGNN	<fs name='VGNN' drel='rt:VGF'>
15.1	karane	VM	<fs af='kara,v,any,any,any,o,nA,nA' name='karane' posn='340'>
15.2	ke	PSP	<fs af='ke,psp,,,,,,' name='ke4' posn='350'>
15.3	lie	PSP	<fs af='lie,psp,,,,,,' name='lie' posn='360'>
	))
16	((	VGF	<fs name='VGF' stype='declarative' voicetype='active'>
16.1	kahA	VM	<fs af='kaha,v,m,sg,3,,yA,yA' name='kahA' posn='370'>
	))
17	((	BLK	<fs name='BLK' drel='rsym:VGF'>
17.1	.	SYM	<fs af='.,punc,,,,,,' name='.' posn='380'>
	))
</Sentence>

<Sentence id='6'>
1	((	RBP	<fs name='RBP' drel='sent-adv:VGF'>
1.1	xaraasala	RB	<fs af='xaraasala,adv,,,,,,' name='xaraasala' posn='10'>
1.2	,	SYM	<fs af='COMMA,punc,,,,,,' name=',' posn='20'>
	))
2	((	NP	<fs name='NP' drel='k1:VGF'>
2.1	keMxrIya	NNPC	<fs af='keMxrIya,adj,any,any,,o,,' name='keMxrIya' posn='100'>
2.2	Srama	NNPC	<fs af='Srama,n,m,sg,3,d,0,0' name='Srama' posn='40'>
2.3	evaM	NNPC	<fs af='evaM,avy,,,,,,' name='evaM' posn='50'>
2.4	rojagAra	NNPC	<fs af='rojagAra,n,m,sg,3,d,0,0' name='rojagAra' posn='60'>
2.5	maMwrI	NNP	<fs af='maMwrI,n,m,sg,3,d,0,0' name='maMwrI' posn='70'>
2.6	ke.	NNPC	<fs af='ke,n,m,sg,3,d,0,0' name='ke.' posn='80'>
2.7	caMxraSeKara	NNPC	<fs af='caMxraSeKara,c,m,sg,3,d,0,0' name='caMxraSeKara' posn='90'>
2.8	rAva	NNP	<fs af='rAva,n,any,sg,3,d,0,0' name='rAva' posn='100'>
	))
3	((	NP	<fs name='NP2' drel='k7:VGNN'>
3.1	yUpIe	NNP	<fs af='yUpIe,n,m,sg,3,o,0,0' name='yUpIe' posn='110'>
3.2	meM	PSP	<fs af='meM,psp,,,,,,' name='meM' posn='120'>
	))
4	((	NP	<fs name='NP3' drel='k2:VGNN'>
4.1	vAmaxaloM	NN	<fs af='vAmaxala,n,m,pl,3,o,0,0' name='vAmaxaloM' posn='130'>
4.2	ko	PSP	<fs af='ko,psp,,,,,,' name='ko' posn='140'>
	))
5	((	NP	<fs name='NP4' drel='pof:VGNN'>
5.1	jyAxA	QF	<fs af='jyAxA,avy,,,,,,' name='jyAxA' posn='150'>
5.2	warajIha	NN	<fs af='warajIha,n,f,sg,3,d,0,0' name='warajIha' posn='160'>
	))
6	((	VGNN	<fs name='VGNN' drel='rh:VGF'>
6.1	xie	VM	<fs af='xe,v,m,sg,3,,yA,yA' name='xie' posn='170'>
6.2	jAne	VAUX	<fs af='jA,v,any,any,any,o,nA,nA' name='jAne' posn='180'>
6.3	se	PSP	<fs af='se,psp,,,,,,' name='se' posn='190'>
	))
7	((	JJP	<fs name='JJP' drel='k1s:VGF'>
7.1	nArAja	JJ	<fs af='nArAja,adj,any,any,,,,' name='nArAja' posn='200'>
	))
8	((	VGF	<fs name='VGF' stype='declarative' voicetype='active'>
8.1	hEM	VM	<fs af='hE,v,any,sg,3h,,hE,hE' name='hEM' posn='210'>
	))
9	((	BLK	<fs name='BLK' drel='rsym:VGF'>
9.1	.	SYM	<fs af='.,punc,,,,,,' name='.' posn='220'>
	))
</Sentence>

<Sentence id='7'>
1	((	NP	<fs name='NP' drel='k1:VGNN'>
1.1	unakA	PRP	<fs af='vaha,pn,m,sg,3h,o,kA,kA' name='unakA' posn='10'>
	))
2	((	VGNN	<fs name='VGNN' drel='k1:VGF'>
2.1	mAnanA	VM	<fs af='mAna,v,any,any,any,d,nA,nA' name='mAnanA' posn='20'>
	))
3	((	VGF	<fs name='VGF' stype='declarative' voicetype='active'>
3.1	hE	VM	<fs af='hE,v,any,sg,3,,hE,hE' name='hE' posn='30'>
	))
4	((	CCP	<fs name='CCP' drel='k2:VGNN'>
4.1	ki	CC	<fs af='ki,avy,,,,,,' name='ki' posn='40'>
	))
5	((	NP	<fs name='NP2' drel='k1:VGF2'>
5.1	sarakAra	NN	<fs af='sarakAra,n,f,sg,3,d,0,0' name='sarakAra' posn='50'>
	))
6	((	NP	<fs name='NP3' drel='r6:NP4'>
6.1	welaMgAnA	NNP	<fs af='welaMgAnA,n,m,sg,3,d,0,0' name='welaMgAnA' posn='60'>
6.2	rAjya	NN	<fs af='rAjya,n,m,sg,3,o,0,0' name='rAjya' posn='70'>
6.3	ke	PSP	<fs af='kA,psp,m,sg,,o,,' name='ke' posn='80'>
	))
7	((	NP	<fs name='NP4' drel='k2:VGF2'>
7.1	muxxe	NN	<fs af='muxxA,n,m,sg,3,o,0,0' name='muxxe' posn='90'>
7.2	ko	PSP	<fs af='ko,psp,,,,,,' name='ko' posn='100'>
	))
8	((	NP	<fs name='NP5' drel='adv:VGF2'>
8.1	gaMBIrawA	NN	<fs af='gaMBIrawA,n,f,sg,3,o,0,0' name='gaMBIrawA' posn='110'>
8.2	se	PSP	<fs af='se,psp,,,,,,' name='se' posn='120'>
	))
9	((	VGF	<fs voicetype='active' name='VGF2' stype='declarative' drel='ccof:CCP'>
9.1	nahIM	NEG	<fs af='nahIM,avy,,,,,,' name='nahIM' posn='130'>
9.2	le	VM	<fs af='le,v,any,any,any,,0,0' name='le' posn='140'>
9.3	rahI	VAUX	<fs af='raha,v,f,sg,3,,yA,yA' name='rahI' posn='150'>
9.4	hE	VAUX	<fs af='hE,v,any,sg,3,,hE,hE' name='hE2' posn='160'>
	))
10	((	BLK	<fs name='BLK' drel='rsym:VGF'>
10.1	.	SYM	<fs af='.,punc,,,,,,' name='.' posn='170'>
	))
</Sentence>

<Sentence id='8'>
1	((	NP	<fs name='NP' drel='k7a:VGF'>
1.1	unake	PRP	<fs af='vaha,pn,any,sg,3h,o,ke,ke' name='unake' posn='10'>
1.2	muwAbika	PSP	<fs af='muwAbika,psp,,,,,,' name='muwAbika' posn='20'>
	))
2	((	JJP	<fs name='JJP' drel='ccof:CCP'>
2.1	gEra	JJC	<fs af='gEra,adj,any,any,,d,,' name='gEra' posn='30'>
2.2	kAMgresI	JJ	<fs af='kAMgresI,adj,any,any,,d,,' name='kAMgresI' posn='40'>
	))
3	((	CCP	<fs name='CCP' drel='nmod:NP3'>
3.1	va	CC	<fs af='va,avy,,,,,,' name='va' posn='50'>
	))
4	((	NP	<fs name='NP2' drel='ccof:CCP'>
4.1	gEra	JJ	<fs af='gEra,adj,any,any,,d,,' name='gEra2' posn='60'>
4.2	vAmaxala	NN	<fs af='vAmaxala,n,m,sg,3,d,0,0' name='vAmaxala' posn='70'>
	))
5	((	NP	<fs name='NP3' drel='k1:VGNN'>
5.1	PraMta	NN	<fs af='PraMta,n,m,sg,3,d,0,0' name='PraMta' posn='80'>
	))
6	((	VGNN	<fs name='VGNN' drel='r6:NP4'>
6.1	banAne	VM	<fs af='banA,v,any,any,any,o,nA,nA' name='banAne' posn='90'>
6.2	kI	PSP	<fs af='kA,psp,f,sg,,d,,' name='kI' posn='100'>
	))
7	((	NP	<fs name='NP4' drel='k1:VGF'>
7.1	behaxa	JJ	<fs af='behaxa,adj,any,any,,d,,' name='behaxa' posn='110' poslcat='NM'>
7.2	jarUrawa	NN	<fs af='jarUrawa,n,f,sg,3,d,0,0' name='jarUrawa' posn='120'>
	))
8	((	VGF	<fs name='VGF' stype='declarative' voicetype='active'>
8.1	hE	VM	<fs af='hE,v,any,sg,3,,hE,hE' name='hE' posn='130'>
	))
9	((	BLK	<fs name='BLK' drel='rsym:VGF'>
9.1	.	SYM	<fs af='.,punc,,,,,,' name='.' posn='140'>
	))
</Sentence>

<Sentence id='9'>
1	((	CCP	<fs name='CCP'>
1.1	wAki	CC	<fs af='wAki,avy,,,,,,' name='wAki' posn='10'>
1.2	,	SYM	<fs af='COMMA,punc,,,,,,' name=',' posn='20'>
	))
2	((	NP	<fs name='NP' drel='r6:NP2'>
2.1	sarakAra	NN	<fs af='sarakAra,n,f,sg,3,o,0,0' name='sarakAra' posn='30'>
2.2	ke	PSP	<fs af='kA,psp,m,sg,,o,,' name='ke' posn='40'>
	))
3	((	NP	<fs name='NP2' drel='k7:VGF'>
3.1	nyUnawama	NNPC	<fs af='nyUnawama,adj,any,any,,o,,' name='nyUnawama' posn='100'>
3.2	sAJA	NNPC	<fs af='sAJA,n,m,sg,3,d,0,0' name='sAJA' posn='70'>
3.3	kAryakrama	NNP	<fs af='kAryakrama,n,m,sg,3,o,0,0' name='kAryakrama' posn='70'>
3.4	para	PSP	<fs af='para,psp,,,,,,' name='para' posn='80'>
	))
4	((	NP	<fs name='NP3' drel='k7:VGF'>
4.1	amala	NN	<fs af='amala,n,m,sg,3,o,0,0' name='amala' posn='90'>
4.2	para	PSP	<fs af='para,psp,,,,,,' name='para2' posn='100'>
	))
5	((	NP	<fs name='NP4' drel='pof:VGF'>
5.1	najara	NN	<fs af='najara,n,f,sg,3,d,0,0' name='najara' posn='110'>
	))
6	((	VGF	<fs voicetype='active' name='VGF' stype='declarative' drel='ccof:CCP'>
6.1	raKI	VM	<fs af='raKa,v,f,sg,3,,yA,yA' name='raKI' posn='120'>
6.2	jA	VAUX	<fs af='jA,v,any,any,any,,0,0' name='jA' posn='130'>
6.3	sake	VAUX	<fs af='saka,v,any,sg,3,,eM,eM' name='sake' posn='140'>
	))
7	((	BLK	<fs name='BLK' drel='rsym:CCP'>
7.1	.	SYM	<fs af='.,punc,,,,,,' name='.' posn='150'>
	))
</Sentence>

<Sentence id='10'>
1	((	NP	<fs name='NP' drel='k1:VGF'>
1.1	rAjaxa	NNC	<fs af='rAjaxa,n,m,sg,3,d,0,0' name='rAjaxa' posn='10'>
1.2	suprImo	NN	<fs af='suprImo,n,m,sg,3,d,0,0' name='suprImo' posn='20'>
1.3	lAlU	NNPC	<fs af='lAlU,n,m,sg,3,d,0,0' name='lAlU' posn='30'>
1.4	prasAxa	NNPC	<fs af='prasAxa,n,m,sg,3,d,0,0' name='prasAxa' posn='40'>
1.5	yAxava	NNP	<fs af='yAxava,n,any,sg,3,o,0,0' name='yAxava' posn='50'>
1.6	ne	PSP	<fs af='ne,psp,,,,,,' name='ne' posn='60'>
1.7	BI	RP	<fs af='BI,avy,,,,,,' name='BI' posn='70'>
	))
2	((	NP	<fs name='NP2' drel='r6:NP3'>
2.1	isa	DEM	<fs af='yaha,pn,any,sg,3,o,,' name='isa' posn='80'>
2.2	waraha	NN	<fs af='waraha,n,f,sg,3,o,0,0' name='waraha' posn='90'>
2.3	kI	PSP	<fs af='kA,psp,f,pl,,o,,' name='kI' posn='100'>
	))
3	((	NP	<fs name='NP3' drel='rt:VGF'>
3.1	koSiSoM	NN	<fs af='koSiSa,n,f,pl,3,o,0,0' name='koSiSoM' posn='110'>
3.2	se	PSP	<fs af='se,psp,,,,,,' name='se' posn='120'>
	))
4	((	NP	<fs name='NP4' drel='pof:VGF'>
4.1	inakAra	NN	<fs af='inakAra,n,m,sg,3,d,0,0' name='inakAra' posn='130'>
	))
5	((	VGF	<fs name='VGF' stype='declarative' voicetype='active'>
5.1	nahIM	NEG	<fs af='nahIM,avy,,,,,,' name='nahIM' posn='140'>
5.2	kiyA	VM	<fs af='kara,v,m,sg,3,,yA,yA' name='kiyA' posn='150'>
5.3	hE	VAUX	<fs af='hE,v,any,sg,3,,hE,hE' name='hE' posn='160'>
	))
6	((	BLK	<fs name='BLK' drel='rsym:VGF'>
6.1	.	SYM	<fs af='.,punc,,,,,,' name='.' posn='170'>
	))
</Sentence>

<Sentence id='11'>
1	((	NP	<fs name='NP' drel='ccof:CCP'>
1.1	gEra	JJ	<fs af='gEra,adj,any,any,,d,,' name='gEra' posn='10'>
1.2	kAMgresa	NNP	<fs af='kAMgresa,n,f,sg,3,d,0,0' name='kAMgresa' posn='20'>
	))
2	((	CCP	<fs name='CCP' drel='nmod:NP11'>
2.1	va	CC	<fs af='va,avy,,,,,,' name='va' posn='30'>
	))
3	((	NP	<fs name='NP2' drel='ccof:CCP'>
3.1	vAmaxala	NNP	<fs af='vAmaxala,n,m,sg,3,d,0,0' name='vAmaxala' posn='40'>
	))
4	((	NP	<fs name='NP3' drel='k2:VGNN'>
4.1	PraMta	NN	<fs af='PraMta,n,m,sg,3,o,0,0' name='PraMta' posn='50'>
4.2	ko	PSP	<fs af='ko,psp,,,,,,' name='ko' posn='60'>
	))
5	((	NP	<fs name='NP4' drel='pof:VGNN'>
5.1	aMwima	JJ	<fs af='aMwima,adj,any,any,,d,,' name='aMwima' posn='70'>
5.2	rUpa	NN	<fs af='rUpa,n,m,sg,3,d,0,0' name='rUpa' posn='80'>
	))
6	((	VGNN	<fs name='VGNN' drel='rt:VGF'>
6.1	xene	VM	<fs af='xe,v,any,any,any,o,nA,nA' name='xene' posn='90'>
6.2	ke	PSP	<fs af='ke,psp,,,,,,' name='ke' posn='100'>
6.3	lie	PSP	<fs af='lie,psp,,,,,,' name='lie' posn='110'>
	))
7	((	NP	<fs name='NP5' drel='r6:NP10'>
7.1	ina	DEM	<fs af='yaha,pn,any,pl,3,o,,' name='ina' posn='120'>
7.2	pArtiyoM	NN	<fs af='pArtI,n,f,pl,3,o,0,0' name='pArtiyoM' posn='130'>
7.3	ke	PSP	<fs af='kA,psp,m,pl,,o,,' name='ke2' posn='140'>
	))
8	((	NP	<fs name='NP6' drel='k1:VGF'>
8.1	newAoM	NN	<fs af='newA,n,m,pl,3,o,0,0' name='newAoM' posn='150'>
8.2	ne	PSP	<fs af='ne,psp,,,,,,' name='ne' posn='160'>
	))
9	((	NP	<fs name='NP7' drel='r6:NP10'>
9.1	janavarI	NNP	<fs af='janavarI,n,f,sg,3,o,0,0' name='janavarI' posn='170'>
9.2	ke	PSP	<fs af='kA,psp,m,sg,,o,,' name='ke3' posn='180'>
	))
10	((	NP	<fs name='NP8' drel='k7t:VGNN2'>
10.1	pahale	QO	<fs af='pahalA,num,m,sg,,o,,' name='pahale' posn='190'>
10.2	sapwAha	NN	<fs af='sapwAha,n,m,sg,3,o,0,0' name='sapwAha' posn='200'>
10.3	meM	PSP	<fs af='meM,psp,,,,,,' name='meM' posn='210'>
	))
11	((	NP	<fs name='NP9' drel='k7p:VGNN2'>
11.1	xillI	NNP	<fs af='xillI,n,f,sg,3,o,0,0' name='xillI' posn='220'>
11.2	meM	PSP	<fs af='meM,psp,,,,,,' name='meM2' posn='230'>
	))
12	((	NP	<fs name='NP10' drel='pof:VGNN2'>
12.1	bETaka	NN	<fs af='bETaka,n,f,sg,3,d,0,0' name='bETaka' posn='240'>
	))
13	((	VGNN	<fs name='VGNN2' drel='r6-k2:NP11'>
13.1	karane	VM	<fs af='kara,v,any,any,any,o,nA,nA' name='karane' posn='250'>
13.2	kA	PSP	<fs af='kA,psp,m,sg,,d,,' name='kA' posn='260'>
	))
14	((	NP	<fs name='NP11' drel='pof:VGF'>
14.1	PEsalA	NN	<fs af='PEsalA,n,m,sg,3,d,0,0' name='PEsalA' posn='270'>
	))
15	((	VGF	<fs name='VGF' stype='declarative' voicetype='active'>
15.1	kiyA	VM	<fs af='kara,v,m,sg,3,,yA,yA' name='kiyA' posn='280'>
15.2	hE	VAUX	<fs af='hE,v,any,sg,3,,hE,hE' name='hE' posn='290'>
	))
16	((	BLK	<fs name='BLK' drel='rsym:VGF'>
16.1	.	SYM	<fs af='.,punc,,,,,,' name='.' posn='300'>
	))
</Sentence>

<Sentence id='12'>
1	((	NP	<fs name='NP' drel='k7:JJP'>
1.1	sarakAra	NN	<fs af='sarakAra,n,f,sg,3,o,0,0' name='sarakAra' posn='10'>
1.2	meM	PSP	<fs af='meM,psp,,,,,,' name='meM' posn='20'>
	))
2	((	JJP	<fs name='JJP' drel='nmod__k1inv:NP2'>
2.1	SAmila	JJ	<fs af='SAmila,adj,any,any,,d,,' name='SAmila' posn='30'>
	))
3	((	NP	<fs name='NP2' drel='k1:VGF'>
3.1	Gataka	NNC	<fs af='Gataka,adj,any,any,,d,,' name='Gataka' posn='40'>
3.2	xala	NN	<fs af='xala,n,m,pl,3,d,0,0' name='xala' posn='50'>
	))
4	((	CCP	<fs name='CCP' drel='vmod:VGF2'>
4.1	agara	CC	<fs af='agara,avy,,,,,,' name='agara' posn='60'>
	))
5	((	JJP	<fs name='JJP2' drel='ccof:CCP2'>
5.1	gEra	JJC	<fs af='gEra,adj,any,any,,d,,' name='gEra' posn='70'>
5.2	kAMgresI	JJ	<fs af='kAMgresI,adj,any,any,,d,,' name='kAMgresI' posn='80'>
	))
6	((	CCP	<fs name='CCP2' drel='nmod:NP4'>
6.1	va	CC	<fs af='va,avy,,,,,,' name='va' posn='90'>
	))
7	((	NP	<fs name='NP3' drel='ccof:CCP2'>
7.1	gEra	JJ	<fs af='gEra,adj,any,any,,d,,' name='gEra2' posn='100'>
7.2	-	SYM	<fs af='-,punc,,,,,,' name='-' posn='110'>
7.3	vAmaxala	NN	<fs af='vAmaxala,n,m,pl,3,d,0,0' name='vAmaxala' posn='120'>
	))
8	((	NP	<fs name='NP4' drel='k2:VGF'>
8.1	PraMta	NN	<fs af='PraMta,n,m,sg,3,d,0,0' name='PraMta' posn='130'>
	))
9	((	VGF	<fs voicetype='active' name='VGF' stype='declarative' drel='ccof:CCP'>
9.1	banAwe	VM	<fs af='banA,v,m,pl,3,,wA,wA' name='banAwe' posn='140'>
9.2	hEM	VAUX	<fs af='hE,v,any,pl,3,,hE,hE' name='hEM' posn='150'>
9.3	,	SYM	<fs af='COMMA,punc,,,,,,' name=',' posn='160'>
	))
10	((	CCP	<fs name='CCP3'>
10.1	wo	CC	<fs af='wo,avy,,,,,,' name='wo' posn='170'>
	))
11	((	NP	<fs name='NP5' drel='r6:NP6'>
11.1	yUpIe	NNP	<fs af='yUpIe,n,m,sg,3,o,0,0' name='yUpIe' posn='180'>
11.2	kI	PSP	<fs af='kA,psp,f,sg,,d,,' name='kI' posn='190'>
	))
12	((	NP	<fs name='NP6' drel='k1:VGNN'>
12.1	sehawa	NN	<fs af='sehawa,n,f,sg,3,d,0,0' name='sehawa' posn='200'>
	))
13	((	VGNN	<fs name='VGNN' drel='k1:VGF2'>
13.1	bigadZanI	VM	<fs af='bigada,v,f,sg,,o,nA,nA' name='bigadZanI' posn='210'>
	))
14	((	JJP	<fs name='JJP3' drel='k1s:VGF2'>
14.1	lAjimI	JJ	<fs af='lAjimI,adj,any,any,,,,' name='lAjimI' posn='220'>
	))
15	((	VGF	<fs voicetype='active' name='VGF2' stype='declarative' drel='ccof:CCP3'>
15.1	hE	VM	<fs af='hE,v,any,sg,3,,hE,hE' name='hE' posn='230'>
	))
16	((	BLK	<fs name='BLK' drel='rsym:CCP3'>
16.1	.	SYM	<fs af='.,punc,,,,,,' name='.' posn='240'>
	))
</Sentence>

<Sentence id='13'>
1	((	NP	<fs name='NP' drel='k2:VGNF'>
1.1	yahI	PRP	<fs af='yahI,pn,,,,d,,' name='yahI' posn='10'>
	))
2	((	VGNF	<fs name='VGNF' drel='vmod:VGF'>
2.1	socakara	VM	<fs af='soca,v,any,any,3,,kara,kara' name='socakara' posn='20'>
	))
3	((	NP	<fs name='NP2' drel='k1:VGF'>
3.1	kAMgresa	NNP	<fs af='kAMgresa,n,f,sg,3,o,0,0' name='kAMgresa' posn='30'>
3.2	ne	PSP	<fs af='ne,psp,,,,,,' name='ne' posn='40'>
	))
4	((	NP	<fs name='NP3' drel='k2:VGNN'>
4.1	rAva	NNP	<fs af='rAva,n,m,sg,3,o,0,0' name='rAva' posn='50'>
4.2	ko	PSP	<fs af='ko,psp,,,,,,' name='ko' posn='60'>
	))
5	((	VGNN	<fs name='VGNN' drel='r6:NP4'>
5.1	manAne	VM	<fs af='manA,v,any,any,any,o,nA,nA' name='manAne' posn='70'>
5.2	kI	PSP	<fs af='kA,psp,f,pl,,d,,' name='kI' posn='80'>
	))
6	((	NP	<fs name='NP4' drel='k2:VGF'>
6.1	koSiSeM	NN	<fs af='koSiSa,n,f,pl,3,d,0,0' name='koSiSeM' posn='90'>
	))
7	((	NP	<fs name='NP5' drel='pof:VGF'>
7.1	SurU	NN	<fs af='SurU,n,m,sg,3,d,0,0' name='SurU' posn='100'>
	))
8	((	VGF	<fs name='VGF' stype='declarative' voicetype='active'>
8.1	kara	VM	<fs af='kara,v,any,any,any,,0,0' name='kara' posn='110'>
8.2	xI	VAUX	<fs af='xe,v,f,pl,3,,yA,yA' name='xI' posn='120'>
8.3	hE	VAUX	<fs af='hE,v,any,pl,3,,hE,hE' name='hE' posn='130'>
	))
9	((	BLK	<fs name='BLK' drel='rsym:VGF'>
9.1	.	SYM	<fs af='.,punc,,,,,,' name='.' posn='140'>
	))
</Sentence>

<Sentence id='14'>
1	((	NP	<fs name='NP' drel='r6:NP2'>
1.1	pArtI	NN	<fs af='pArtI,n,f,sg,3,o,0,0' name='pArtI' posn='10'>
1.2	ke	PSP	<fs af='kA,psp,m,sg,,o,,' name='ke' posn='20'>
	))
2	((	NP	<fs name='NP2' drel='nmod:NP3'>
2.1	variRTa	JJ	<fs af='variRTa,adj,any,any,,o,,' name='variRTa' posn='30'>
2.2	newA	NN	<fs af='newA,n,m,sg,3,o,0,0' name='newA' posn='40'>
	))
3	((	NP	<fs name='NP3' drel='k1:VGF'>
3.1	ahamaxa	NNPC	<fs af='ahamaxa,n,m,sg,3,d,0,0' name='ahamaxa' posn='50'>
3.2	patela	NNP	<fs af='patela,n,any,sg,3,o,0,0' name='patela' posn='60'>
3.3	ne	PSP	<fs af='ne,psp,,,,,,' name='ne' posn='70'>
	))
4	((	VGF	<fs name='VGF' stype='declarative' voicetype='active'>
4.1	kahA	VM	<fs af='kaha,v,m,sg,3,,yA,yA' name='kahA' posn='80'>
	))
5	((	CCP	<fs name='CCP' drel='k2:VGF'>
5.1	ki	CC	<fs af='ki,avy,,,,,,' name='ki' posn='90'>
	))
6	((	CCP	<fs name='CCP2' drel='vmod:VGF3'>
6.1	yaxi	CC	<fs af='yaxi,avy,,,,,,' name='yaxi' posn='100'>
	))
7	((	NP	<fs name='NP4' drel='r6:NP5'>
7.1	yUpIe	NNP	<fs af='yUpIe,n,m,sg,3,o,0,0' name='yUpIe' posn='110'>
7.2	ke	PSP	<fs af='kA,psp,m,pl,,o,,' name='ke2' posn='120'>
	))
8	((	NP	<fs name='NP5' drel='k4a:VGF2'>
8.1	Gataka	NNC	<fs af='Gataka,adj,any,any,,o,,' name='Gataka' posn='130'>
8.2	xaloM	NN	<fs af='xala,n,m,pl,3,o,0,0' name='xaloM' posn='140'>
8.3	ko	PSP	<fs af='ko,psp,,,,,,' name='ko' posn='150'>
	))
9	((	NP	<fs name='NP6' drel='k1:VGF2'>
9.1	koI	PRP	<fs af='koI,pn,any,sg,3,d,0,0' name='koI' posn='160'>
9.2	SikAyawa	NN	<fs af='SikAyawa,n,f,sg,3,d,0,0' name='SikAyawa' posn='170'>
	))
10	((	VGF	<fs voicetype='active' name='VGF2' stype='declarative' drel='ccof:CCP2'>
10.1	hE	VM	<fs af='hE,v,any,sg,3,,hE,hE' name='hE' posn='180'>
10.2	,	SYM	<fs af='COMMA,punc,,,,,,' name=',' posn='190'>
	))
11	((	CCP	<fs name='CCP3' drel='ccof:CCP'>
11.1	wo	CC	<fs af='wo,avy,,,,,,' name='wo' posn='200'>
	))
12	((	NP	<fs name='NP7' drel='k1:VGF3'>
12.1	aXyakRa	NN	<fs af='aXyakRa,n,f,sg,3,d,0,0' name='aXyakRa' posn='210'>
12.2	soniyA	NNPC	<fs af='soniyA,n,f,sg,3,d,0,0' name='soniyA' posn='220'>
12.3	gAMXI	NNP	<fs af='gAMXI,n,any,sg,3,d,0,0' name='gAMXI' posn='230'>
	))
13	((	NP	<fs name='NP8' drel='ras-k1:VGF3'>
13.1	unase	PRP	<fs af='vaha,pn,any,pl,3,o,se,se' name='unase' posn='240'>
	))
14	((	NP	<fs name='NP9' drel='pof:VGNN'>
14.1	bAwa	NN	<fs af='bAwa,n,f,sg,3,d,0,0' name='bAwa' posn='250'>
	))
15	((	VGNN	<fs name='VGNN' drel='rt:VGF3'>
15.1	karane	VM	<fs af='kara,v,any,any,any,o,nA,nA' name='karane' posn='260'>
15.2	ke	PSP	<fs af='ke,psp,,,,,,' name='ke3' posn='270'>
15.3	lie	PSP	<fs af='lie,psp,,,,,,' name='lie' posn='280'>
	))
16	((	JJP	<fs name='JJP' drel='k1s:VGF3'>
16.1	wEyAra	JJ	<fs af='wEyAra,adj,any,any,,,,' name='wEyAra' posn='290'>
	))
17	((	VGF	<fs voicetype='active' name='VGF3' stype='declarative' drel='ccof:CCP3'>
17.1	hEM	VM	<fs af='hE,v,any,sg,3h,,hE,hE' name='hEM' posn='300'>
	))
18	((	BLK	<fs name='BLK' drel='rsym:VGF'>
18.1	.	SYM	<fs af='.,punc,,,,,,' name='.' posn='310'>
	))
</Sentence>

<Sentence id='15'>
1	((	NP	<fs name='NP' drel='k3:VGF'>
1.1	bAwacIwa	NN	<fs af='bAwacIwa,n,f,sg,3,o,0,0' name='bAwacIwa' posn='10'>
1.2	ke	PSP	<fs af='ke,psp,,,,,,' name='ke' posn='20'>
1.3	jarie	PSP	<fs af='jariye,psp,,,,,,' name='jarie' posn='30'>
	))
2	((	NP	<fs name='NP2' drel='r6:NP3'>
2.1	hara	QF	<fs af='hara,avy,,,,,,' name='hara' posn='40'>
2.2	masale	NN	<fs af='masalA,n,m,sg,3,o,0,0' name='masale' posn='50'>
2.3	kA	PSP	<fs af='kA,psp,m,sg,,d,,' name='kA' posn='60'>
	))
3	((	NP	<fs name='NP3' drel='k2:VGF'>
3.1	hala	NN	<fs af='hala,n,m,sg,3,d,0,0' name='hala' posn='70'>
	))
4	((	VGF	<fs name='VGF' stype='declarative' voicetype='passive'>
4.1	walASA	VM	<fs af='walASa,v,m,sg,3,,yA,yA' name='walASA' posn='80'>
4.2	jA	VAUX	<fs af='jA,v,any,any,any,,0,0' name='jA' posn='90'>
4.3	sakawA	VAUX	<fs af='saka,v,m,sg,any,,wA,wA' name='sakawA' posn='100'>
4.4	hE	VAUX	<fs af='hE,v,any,sg,3,,hE,hE' name='hE' posn='110'>
	))
5	((	BLK	<fs name='BLK' drel='rsym:VGF'>
5.1	.	SYM	<fs af='.,punc,,,,,,' name='.' posn='120'>
	))
</Sentence>

<Sentence id='16'>
1	((	NP	<fs name='NP' drel='k1:VGF'>
1.1	unhoMne	PRP	<fs af='vaha,pn,any,sg,3h,o,ne,ne' name='unhoMne' posn='10'>
	))
2	((	VGF	<fs name='VGF' stype='declarative' voicetype='active'>
2.1	kahA	VM	<fs af='kaha,v,m,sg,3,,yA,yA' name='kahA' posn='20'>
	))
3	((	CCP	<fs name='CCP' drel='k2:VGF'>
3.1	ki	CC	<fs af='ki,avy,,,,,,' name='ki' posn='30'>
	))
4	((	NP	<fs name='NP2' drel='k7:VGF2'>
4.1	gaTabaMXana	NNC	<fs af='gaTabaMXana,adj,any,any,,o,,' name='gaTabaMXana' posn='40'>
4.2	sarakAra	NN	<fs af='sarakAra,n,f,sg,3,o,0,0' name='sarakAra' posn='50'>
4.3	meM	PSP	<fs af='meM,psp,,,,,,' name='meM' posn='60'>
	))
5	((	NP	<fs name='NP3' drel='r6:NP4'>
5.1	isa	DEM	<fs af='yaha,pn,any,sg,3,o,,' name='isa' posn='70'>
5.2	waraha	NN	<fs af='waraha,n,f,sg,3,o,0,0' name='waraha' posn='80'>
5.3	kI	PSP	<fs af='kA,psp,f,pl,,d,,' name='kI' posn='90'>
	))
6	((	NP	<fs name='NP4' drel='k1:VGF2'>
6.1	xikkaweM	NN	<fs af='xikkawa,n,f,pl,3,d,0,0' name='xikkaweM' posn='100'>
	))
7	((	VGF	<fs voicetype='active' name='VGF2' stype='declarative' drel='ccof:CCP'>
7.1	AwI	VM	<fs af='A,v,f,pl,3,,wA,wA' name='AwI' posn='110'>
7.2	rahawI	VAUX	<fs af='raha,v,f,pl,3,,wA,wA' name='rahawI' posn='120'>
7.3	hEM	VAUX	<fs af='hE,v,any,pl,3,,hE,hE' name='hEM' posn='130'>
	))
8	((	BLK	<fs name='BLK' drel='rsym:VGF'>
8.1	.	SYM	<fs af='.,punc,,,,,,' name='.' posn='140'>
	))
</Sentence>

<Sentence id='17'>
1	((	NP	<fs name='NP' drel='k7t:VGF'>
1.1	isase	PRP	<fs af='yaha,pn,any,sg,3,o,se,se' name='isase' posn='10'>
1.2	pahale	NST	<fs af='pahale,nst,m,sg,3,d,,' name='pahale' posn='20'>
1.3	BI	RP	<fs af='BI,avy,,,,,,' name='BI' posn='30'>
	))
2	((	NP	<fs name='NP2' drel='k1:VGF'>
2.1	kuCa	QF	<fs af='kuCa,avy,,,,,,' name='kuCa' posn='40'>
2.2	muSkileM	NN	<fs af='muSkila,n,f,pl,3,d,0,0' name='muSkileM' posn='50'>
	))
3	((	JJP	<fs name='JJP' drel='pof:VGF'>
3.1	pExA	JJ	<fs af='pExA,adj,any,any,,,,' name='pExA' posn='60'>
	))
4	((	VGF	<fs name='VGF' stype='declarative' voicetype='active'>
4.1	huI	VM	<fs af='ho,v,f,pl,3,,yA,yA' name='huI' posn='70'>
4.2	WIM	VAUX	<fs af='WA,v,f,pl,3,,WA,WA' name='WIM' posn='80'>
	))
5	((	BLK	<fs name='BLK' drel='rsym:VGF'>
5.1	.	SYM	<fs af='.,punc,,,,,,' name='.' posn='90'>
	))
</Sentence>

<Sentence id='18'>
1	((	CCP	<fs name='CCP'>
1.1	para	CC	<fs af='para,avy,,,,,,' name='para' posn='10' poslcat='NM'>
	))
2	((	NP	<fs name='NP' drel='k2:VGF'>
2.1	una	DEM	<fs af='vaha,pn,any,pl,3,o,,' name='una' posn='20'>
2.2	saBI	PRP	<fs af='saba,pn,any,pl,3,o,0,0' name='saBI' posn='30'>
2.3	ko	PSP	<fs af='ko,psp,,,,,,' name='ko' posn='40'>
	))
3	((	NP	<fs name='NP2' drel='pof:VGF'>
3.1	hala	NN	<fs af='hala,n,m,sg,3,d,0,0' name='hala' posn='50'>
	))
4	((	VGF	<fs voicetype='passive' name='VGF' stype='declarative' drel='ccof:CCP'>
4.1	kara	VM	<fs af='kara,v,any,any,any,,0,0' name='kara' posn='60'>
4.2	liyA	VAUX	<fs af='le,v,m,sg,3,,yA,yA' name='liyA' posn='70'>
4.3	gayA	VAUX	<fs af='jA,v,m,sg,3,,yA1,yA1' name='gayA' posn='80'>
	))
5	((	BLK	<fs name='BLK' drel='rsym:CCP'>
5.1	.	SYM	<fs af='.,punc,,,,,,' name='.' posn='90'>
	))
</Sentence>

<Sentence id='19'>
1	((	NP	<fs name='NP' drel='rh:VGF'>
1.1	isalie	PRP	<fs af='isaliye,pn,,,,,,' name='isalie' posn='10'>
1.2	,	SYM	<fs af='COMMA,punc,,,,,,' name=',' posn='20'>
	))
2	((	NP	<fs name='NP2' drel='r6:NP3'>
2.1	unakI	PRP	<fs af='vaha,pn,f,sg,3h,o,kA,kA' name='unakI' posn='30'>
	))
3	((	NP	<fs name='NP3' drel='r6:NP4'>
3.1	isa	DEM	<fs af='yaha,pn,any,sg,3,o,,' name='isa' posn='40'>
3.2	nArAjagI	NN	<fs af='nArAjagI,n,f,sg,3,o,0,0' name='nArAjagI' posn='50'>
3.3	kA	PSP	<fs af='kA,psp,m,sg,,d,,' name='kA' posn='60'>
3.4	BI	RP	<fs af='BI,avy,,,,,,' name='BI' posn='70'>
	))
4	((	NP	<fs name='NP4' drel='k2:VGF'>
4.1	hala	NN	<fs af='hala,n,m,sg,3,d,0,0' name='hala' posn='80'>
	))
5	((	VGF	<fs name='VGF' stype='declarative' voicetype='active'>
5.1	walASa	VM	<fs af='walASa,v,f,sg,3,,0,0' name='walASa' posn='90'>
5.2	liyA	VAUX	<fs af='le,v,m,sg,3,,yA,yA' name='liyA' posn='100'>
5.3	jAegA	VAUX	<fs af='jA,v,m,sg,3,,gA,gA' name='jAegA' posn='110'>
	))
6	((	BLK	<fs name='BLK' drel='rsym:VGF'>
6.1	.	SYM	<fs af='.,punc,,,,,,' name='.' posn='120'>
	))
</Sentence>

