<Sentence id='1'>
1	((	NP	<fs name='NP' drel='k1:VGF'>
1.1	rela	NNPC	<fs af='rela,n,f,sg,3,d,0,0' name='rela' posn='10'>
1.2	maMwrI	NNP	<fs af='maMwrI,n,m,sg,3,d,0,0' name='maMwrI' posn='20'>
1.3	lAlU	NNPC	<fs af='lAlU,n,m,sg,3,d,0,0' name='lAlU' posn='30'>
1.4	prasAxa	NNPC	<fs af='prasAxa,n,m,sg,3,d,0,0' name='prasAxa' posn='40'>
1.5	yAxava	NNP	<fs af='yAxava,n,any,sg,3,o,0,0' name='yAxava' posn='50'>
1.6	ne	PSP	<fs af='ne,psp,,,,,,' name='ne' posn='60'>
	))
2	((	NP	<fs name='NP2' drel='k2:VGNN'>
2.1	BArawIya	JJ	<fs af='BArawIya,adj,any,any,,o,,' name='BArawIya' posn='70'>
2.2	rela	NN	<fs af='rela,n,f,sg,3,o,0,0' name='rela2' posn='80'>
2.3	ko	PSP	<fs af='ko,psp,,,,,,' name='ko' posn='90'>
	))
3	((	NP	<fs name='NP3' drel='k2s:VGNN'>
3.1	naMbara	NN	<fs af='naMbara,n,m,sg,3,d,0,0' name='naMbara' posn='100'>
3.2	vana	QC	<fs af='vana,num,any,any,,any,,' name='vana' posn='110'>
	))
4	((	VGNN	<fs name='VGNN' drel='r6-k2:NP4'>
4.1	banAne	VM	<fs af='banA,v,any,any,any,o,nA,nA' name='banAne' posn='120'>
4.2	kI	PSP	<fs af='kA,psp,f,sg,,o,,' name='kI' posn='130'>
	))
5	((	NP	<fs name='NP4' drel='pof:VGF'>
5.1	prawijFA	NN	<fs af='prawijFA,n,f,sg,3,d,0,0' name='prawijFA' posn='140'>
	))
6	((	VGF	<fs name='VGF' stype='declarative' voicetype='active'>
6.1	kI	VM	<fs af='kara,v,f,sg,any,,yA,yA' name='kI2' posn='150'>
6.2	hE	VAUX	<fs af='hE,v,any,sg,3,,hE,hE' name='hE' posn='160'>
	))
7	((	BLK	<fs name='BLK' drel='rsym:VGF'>
7.1	.	SYM	<fs af='.,punc,,,,,,' name='.' posn='170'>
	))
</Sentence>

<Sentence id='2'>
1	((	NP	<fs name='NP' drel='k1:VGF'>
1.1	unhoMne	PRP	<fs af='vaha,pn,m,sg,3h,o,ne,ne' name='unhoMne' posn='10'>
	))
2	((	JJP	<fs name='JJP' drel='pof:VGF'>
2.1	spaRta	JJ	<fs af='spaRta,adj,any,any,,,,' name='spaRta' posn='20'>
	))
3	((	VGF	<fs name='VGF' stype='declarative' voicetype='active'>
3.1	kara	VM	<fs af='kara,v,any,any,any,,0,0' name='kara' posn='30'>
3.2	xiyA	VAUX	<fs af='xe,v,m,sg,any,,yA,yA' name='xiyA' posn='40'>
3.3	hE	VAUX	<fs af='hE,v,any,sg,3,,hE,hE' name='hE' posn='50'>
	))
4	((	CCP	<fs name='CCP' drel='k2:VGF'>
4.1	ki	CC	<fs af='ki,avy,,,,,,' name='ki' posn='60'>
	))
5	((	NP	<fs name='NP2' drel='k1:VGF2'>
5.1	relave	NN	<fs af='relave,n,m,sg,3,d,0,0' name='relave' posn='70'>
	))
6	((	NP	<fs name='NP3' drel='k7:VGF2'>
6.1	kisI	PRP	<fs af='koI,pn,any,sg,3,o,0,0' name='kisI' posn='80'>
6.2	BI	RP	<fs af='BI,avy,,,,,,' name='BI' posn='90'>
6.3	hAla	NN	<fs af='hAla,n,m,sg,3,o,0,0' name='hAla' posn='100'>
6.4	meM	PSP	<fs af='meM,psp,,,,,,' name='meM' posn='110'>
	))
7	((	NP	<fs name='NP4' drel='r6:NP5'>
7.1	xeSa	NN	<fs af='xeSa,n,m,sg,3,o,0,0' name='xeSa' posn='120'>
7.2	kA	PSP	<fs af='kA,psp,m,sg,,d,,' name='kA' posn='130'>
	))
8	((	NP	<fs name='NP5' drel='k2:VGF2'>
8.1	pEsA	NN	<fs af='pEsA,n,m,sg,3,d,0,0' name='pEsA' posn='140'>
	))
9	((	NP	<fs name='NP6' drel='k7p:VGF2'>
9.1	vixeSoM	NN	<fs af='vixeSa,n,m,pl,3,o,0,0' name='vixeSoM' posn='150'>
9.2	meM	PSP	<fs af='meM,psp,,,,,,' name='meM2' posn='160'>
	))
10	((	VGF	<fs voicetype='active' name='VGF2' stype='declarative' drel='ccof:NULL__CCP'>
10.1	nahIM	NEG	<fs af='nahIM,avy,,,,,,' name='nahIM' posn='170'>
10.2	jAne	VM	<fs af='jA,v,any,any,any,,nA,nA' name='jAne' posn='180'>
10.3	xegA	VAUX	<fs af='xe,v,m,sg,3,,gA,gA' name='xegA' posn='190'>
10.4	,	SYM	<fs af='COMMA,punc,,,,,,' name=',' posn='200'>
	))
11	((	NULL__CCP	<fs mtype='gap' troot='Ora' dmrel='ccof:CCP' name='NULL__CCP'>
11.1	NULL	CC	<fs name='NULL'>
	))
12	((	NP	<fs name='NP7' drel='rt:VGF3'>
12.1	Bale	RP	<fs af='BalA,avy,,,,,,' name='Bale' posn='210'>
12.2	isake	PRP	<fs af='yaha,pn,any,sg,3,o,ke,ke' name='isake' posn='220'>
12.3	lie	PSP	<fs af='lie,psp,,,,,,' name='lie' posn='230'>
	))
13	((	NP	<fs name='NP8' drel='k1:VGF3'>
13.1	relave	NN	<fs af='relave,n,m,sg,3,o,0,0' name='relave2' posn='240'>
13.2	ko	PSP	<fs af='ko,psp,,,,,,' name='ko' posn='250'>
	))
14	((	NP	<fs name='NP9' drel='r6-k2:NP10'>
14.1	musIbawoM	NN	<fs af='musIbawa,n,f,pl,3,o,0,0' name='musIbawoM' posn='260'>
14.2	kA	PSP	<fs af='kA,psp,m,sg,,d,,' name='kA2' posn='270'>
	))
15	((	NP	<fs name='NP10' drel='pof:VGF3'>
15.1	sAmanA	NN	<fs af='sAmanA,n,m,sg,3,d,0,0' name='sAmanA' posn='280'>
	))
16	((	RBP	<fs name='RBP' drel='adv:VGF3'>
16.1	kyoM	WQ	<fs af='kyoM,pn,,,,,,' name='kyoM' posn='290'>
	))
17	((	VGF	<fs voicetype='active' name='VGF3' stype='declarative' drel='ccof:NULL__CCP'>
17.1	na	NEG	<fs af='na,avy,,,,,,' name='na' posn='300'>
17.2	karanA	VM	<fs af='kara,v,m,sg,any,,nA,nA' name='karanA' posn='310'>
17.3	padZe	VAUX	<fs af='pada,v,m,sg,any,,eM,eM' name='padZe' posn='320'>
	))
18	((	BLK	<fs name='BLK' drel='rsym:VGF'>
18.1	.	SYM	<fs af='.,punc,,,,,,' name='.' posn='330'>
	))
</Sentence>

<Sentence id='3'>
1	((	NP	<fs name='NP' drel='k1:VGF'>
1.1	unhoMne	PRP	<fs af='vaha,pn,any,sg,3h,o,ne,ne' name='unhoMne' posn='10'>
	))
2	((	NP	<fs name='NP2' drel='k5:VGNN'>
2.1	relave	NN	<fs af='relave,n,m,sg,3,o,0,0' name='relave' posn='20'>
2.2	se	PSP	<fs af='se,psp,,,,,,' name='se' posn='30'>
	))
3	((	NP	<fs name='NP3' drel='k2:VGNN'>
3.1	BraRtAcAra	NN	<fs af='BraRtAcAra,n,m,sg,3,d,0,0' name='BraRtAcAra' posn='40'>
	))
4	((	VGNN	<fs name='VGNN' drel='r6:NP4'>
4.1	mitAne	VM	<fs af='mitA,v,any,any,any,o,nA,nA' name='mitAne' posn='50'>
4.2	kA	PSP	<fs af='kA,psp,m,sg,,d,,' name='kA' posn='60'>
	))
5	((	NP	<fs name='NP4' drel='k2:VGNF'>
5.1	saMkalpa	NN	<fs af='saMkalpa,n,m,sg,3,d,0,0' name='saMkalpa' posn='70'>
	))
6	((	VGNF	<fs name='VGNF' drel='vmod:VGF'>
6.1	xoharAwe	VM	<fs af='xoharA,v,m,sg,3,,wA,wA' name='xoharAwe' posn='80'>
6.2	hue	VAUX	<fs af='ho,v,m,sg,any,,yA,yA' name='hue' posn='90'>
	))
7	((	NP	<fs name='NP5' drel='r6:NP6'>
7.1	relaneta	NN	<fs af='relaneta,n,m,sg,3,o,0,0' name='relaneta' posn='100'>
7.2	ke	PSP	<fs af='kA,psp,m,sg,,o,,' name='ke' posn='110'>
	))
8	((	NP	<fs name='NP6' drel='r6-k2:NP7'>
8.1	vyavasAyIkaraNa	NN	<fs af='vyavasAyIkaraNa,n,m,sg,3,o,0,0' name='vyavasAyIkaraNa' posn='120'>
8.2	ke	PSP	<fs af='kA,psp,m,pl,,d,,' name='ke2' posn='130'>
	))
9	((	NP	<fs name='NP7' drel='pof:VGF'>
9.1	saMkewa	NN	<fs af='saMkewa,n,m,pl,3,d,0,0' name='saMkewa' posn='140'>
	))
10	((	VGF	<fs name='VGF' stype='declarative' voicetype='active'>
10.1	xie	VM	<fs af='xe,v,m,pl,any,,yA,yA' name='xie' posn='150'>
	))
11	((	BLK	<fs name='BLK' drel='rsym:VGF'>
11.1	.	SYM	<fs af='.,punc,,,,,,' name='.' posn='160'>
	))
</Sentence>

<Sentence id='4'>
1	((	NP	<fs name='NP' drel='k7p:VGF'>
1.1	rela	NNC	<fs af='rela,n,f,sg,3,d,0,0' name='rela' posn='10'>
1.2	Bavana	NN	<fs af='Bavana,n,m,sg,3,o,0,0' name='Bavana' posn='20'>
1.3	meM	PSP	<fs af='meM,psp,,,,,,' name='meM' posn='30'>
	))
2	((	NP	<fs name='NP2' drel='k4:VGF'>
2.1	rela	NNPC	<fs af='rela,n,f,sg,3,d,0,0' name='rela2' posn='40'>
2.2	maMwrI	NNP	<fs af='maMwrI,n,m,sg,3,d,0,0' name='maMwrI' posn='50'>
2.3	lAlU	NNPC	<fs af='lAlU,n,m,sg,3,d,0,0' name='lAlU' posn='60'>
2.4	yAxava	NNP	<fs af='yAxava,n,any,sg,3,o,0,0' name='yAxava' posn='70'>
2.5	ko	PSP	<fs af='ko,psp,,,,,,' name='ko' posn='80'>
	))
3	((	NP	<fs name='NP3' drel='ccof:CCP'>
3.1	BArawIya	NNPC	<fs af='BArawIya,adj,any,any,,o,,' name='BArawIya' posn='70'>
3.2	rela	NNPC	<fs af='rela,n,f,sg,3,d,0,0' name='rela3' posn='100'>
3.3	viwwa	NNPC	<fs af='viwwa,n,m,sg,3,d,0,0' name='viwwa' posn='110'>
3.4	nigama	NNP	<fs af='nigama,n,m,sg,3,o,0,0' name='nigama' posn='120'>
	))
4	((	CCP	<fs name='CCP' drel='k1:VGF'>
4.1	Ora	CC	<fs af='Ora,avy,,,,,,' name='Ora' posn='130'>
	))
5	((	NP	<fs name='NP4' drel='ccof:CCP'>
5.1	iMdiyana	NNPC	<fs af='iMdiyana,adj,any,any,,o,,' name='iMdiyana' posn='70'>
5.2	relave	NNPC	<fs af='relave,n,f,sg,3,d,0,0' name='relave' posn='150'>
5.3	kaMstrakSana	NNPC	<fs af='kaMstrakSana,n,m,sg,3,d,0,0' name='kaMstrakSana' posn='160'>
5.4	kaMpanI	NNP	<fs af='kaMpanI,n,f,sg,3,o,0,0' name='kaMpanI' posn='170'>
	))
6	((	NP	<fs name='NP5' drel='nmod:NP4'>
6.1	(	SYM	<fs af='(,punc,,,,,,' name='(' posn='180'>
6.2	irakaka	NNP	<fs af='irakaka,n,f,sg,3,o,0,0' name='irakaka' posn='190'>
6.3	)	SYM	<fs af='),punc,,,,,,' name=')' posn='200'>
	))
7	((	FRAGP	<fs name='FRAGP' drel='fragof:NP4'>
7.1	xvArA	PSP	<fs af='xvArA,psp,,,,,,' name='xvArA' posn='210'>
	))
8	((	NP	<fs name='NP6' drel='k2:VGF'>
8.1	lABAMSa	NNC	<fs af='lABAMSa,n,m,sg,3,d,0,0' name='lABAMSa' posn='220'>
8.2	ceka	NN	<fs af='ceka,n,m,sg,3,d,0,0' name='ceka' posn='230'>
	))
9	((	VGF	<fs name='VGF' stype='declarative' voicetype='passive'>
9.1	sOMpA	VM	<fs af='sOMpa,v,m,sg,any,,yA,yA' name='sOMpA' posn='240'>
9.2	gayA	VAUX	<fs af='jA,v,m,sg,any,,yA1,yA1' name='gayA' posn='250'>
	))
10	((	BLK	<fs name='BLK' drel='rsym:VGF'>
10.1	.	SYM	<fs af='.,punc,,,,,,' name='.' posn='260'>
	))
</Sentence>

<Sentence id='5'>
1	((	NP	<fs name='NP' drel='k1:NULL__VGF'>
1.1	viwwa	NNPC	<fs af='viwwa,n,m,sg,3,d,0,0' name='viwwa' posn='10'>
1.2	nigama	NNP	<fs af='nigama,n,m,sg,3,o,0,0' name='nigama' posn='20'>
1.3	xvArA	PSP	<fs af='xvArA,psp,,,,,,' name='xvArA' posn='30'>
	))
2	((	NP	<fs name='NP2' drel='k2:NULL__VGF'>
2.1	110	QCC	<fs af='110,num,any,any,,any,,' name='110' posn='110'>
2.2	karodZa	QC	<fs af='karoda,num,any,any,,o,,' name='karodZa' posn='110'>
	))
3	((	NULL__VGF	<fs name='NULL__VGF' dmrel='ccof:CCP' mtype='gap' troot='sOMpa' voicetype='passive' stype='declarative'>
3.1	NULL	VM	<fs af=',v,,,,,,' name='NULL'>
	))
4	((	CCP	<fs name='CCP'>
4.1	va	CC	<fs af='va,avy,,,,,,' name='va' posn='60'>
	))
5	((	NP	<fs name='NP3' drel='k1:VGF'>
5.1	irakaka	NNP	<fs af='irakaka,n,m,sg,3,o,0,0' name='irakaka' posn='70'>
5.2	xvArA	PSP	<fs af='xvArA,psp,,,,,,' name='xvArA2' posn='80'>
	))
6	((	NP	<fs name='NP4' drel='r6:NP5'>
6.1	18.75	QCC	<fs af='18.75,num,any,any,,any,,' name='18.75' posn='110'>
6.2	karodZa	QC	<fs af='karoda,num,any,any,,o,,' name='karodZa2' posn='110'>
6.3	kA	PSP	<fs af='kA,psp,m,sg,,d,,' name='kA' posn='110'>
	))
7	((	NP	<fs name='NP5' drel='k2:VGF'>
7.1	ceka	NN	<fs af='ceka,n,m,sg,3,d,0,0' name='ceka' posn='120'>
	))
8	((	VGF	<fs voicetype='passive' name='VGF' stype='declarative' drel='ccof:CCP'>
8.1	sOMpA	VM	<fs af='sOMpa,v,m,sg,any,,yA,yA' name='sOMpA' posn='130'>
8.2	gayA	VAUX	<fs af='jA,v,m,sg,any,,yA1,yA1' name='gayA' posn='140'>
	))
9	((	BLK	<fs name='BLK' drel='rsym:CCP'>
9.1	.	SYM	<fs af='.,punc,,,,,,' name='.' posn='150'>
	))
</Sentence>

<Sentence id='6'>
1	((	NP	<fs name='NP' drel='k7:VGF'>
1.1	isa	DEM	<fs af='yaha,pn,any,sg,3,o,,' name='isa' posn='10'>
1.2	avasara	NN	<fs af='avasara,n,m,sg,3,o,0,0' name='avasara' posn='20'>
1.3	para	PSP	<fs af='para,psp,,,,,,' name='para' posn='30'>
	))
2	((	NP	<fs name='NP2' drel='k1:VGF'>
2.1	rela	NNPC	<fs af='rela,n,f,sg,3,d,0,0' name='rela' posn='40'>
2.2	maMwrI	NNP	<fs af='maMwrI,n,m,sg,3,o,0,0' name='maMwrI' posn='50'>
2.3	ne	PSP	<fs af='ne,psp,,,,,,' name='ne' posn='60'>
	))
3	((	VGF	<fs name='VGF' stype='declarative' voicetype='active'>
3.1	kahA	VM	<fs af='kaha,v,m,sg,any,,yA,yA' name='kahA' posn='70'>
	))
4	((	CCP	<fs name='CCP' drel='k2:VGF'>
4.1	ki	CC	<fs af='ki,avy,,,,,,' name='ki' posn='80'>
	))
5	((	NP	<fs name='NP3' drel='r6:NP4'>
5.1	relave	NN	<fs af='relave,n,m,sg,3,o,0,0' name='relave' posn='90'>
5.2	ke	PSP	<fs af='kA,psp,m,pl,,o,,' name='ke' posn='100'>
	))
6	((	NP	<fs name='NP4' drel='k1:VGF2'>
6.1	xonoM	QC	<fs af='xo,num,m,pl,,any,,' name='xonoM' posn='110'>
6.2	upakramoM	NN	<fs af='upakrama,n,m,pl,3,o,0,0' name='upakramoM' posn='120'>
6.3	ne	PSP	<fs af='ne,psp,,,,,,' name='ne2' posn='130'>
	))
7	((	NP	<fs name='NP5' drel='k7p:VGF2'>
7.1	vixeSoM	NN	<fs af='vixeSa,n,m,pl,3,o,0,0' name='vixeSoM' posn='140'>
7.2	meM	PSP	<fs af='meM,psp,,,,,,' name='meM' posn='150'>
	))
8	((	NP	<fs name='NP6' drel='r6-k2:NP7'>
8.1	apanI	PRP	<fs af='apanA,pn,f,any,any,d,0,0' name='apanI' posn='160'>
	))
9	((	NP	<fs name='NP7' drel='pof:VGNF'>
9.1	sevA	NN	<fs af='sevA,n,f,sg,3,d,0,0' name='sevA' posn='170'>
	))
10	((	VGNF	<fs name='VGNF' drel='vmod:VGF2'>
10.1	xekara	VM	<fs af='xe,v,any,any,any,,kara,kara' name='xekara' posn='180'>
	))
11	((	NP	<fs name='NP8' drel='k2:VGF2'>
11.1	lABa	NN	<fs af='lABa,n,m,sg,3,d,0,0' name='lABa' posn='190'>
	))
12	((	JJP	<fs name='JJP' drel='pof:VGF2'>
12.1	arjiwa	JJ	<fs af='arjiwa,adj,any,any,,,,' name='arjiwa' posn='200'>
	))
13	((	VGF	<fs voicetype='active' name='VGF2' stype='declarative' drel='ccof:CCP'>
13.1	kiyA	VM	<fs af='kara,v,m,sg,any,,yA,yA' name='kiyA' posn='210'>
13.2	hE	VAUX	<fs af='hE,v,any,sg,3,,hE,hE' name='hE' posn='220'>
	))
14	((	BLK	<fs name='BLK' drel='rsym:VGF'>
14.1	.	SYM	<fs af='.,punc,,,,,,' name='.' posn='230'>
	))
</Sentence>

<Sentence id='7'>
1	((	NP	<fs name='NP' drel='r6:NP2'>
1.1	relave	NN	<fs af='relave,n,m,sg,3,o,0,0' name='relave' posn='10'>
1.2	ke	PSP	<fs af='kA,psp,m,pl,,d,,' name='ke' posn='20'>
	))
2	((	NP	<fs name='NP2' drel='k1:VGF'>
2.1	anya	JJ	<fs af='anya,adj,any,any,,d,,' name='anya' posn='30'>
2.2	upakrama	NN	<fs af='upakrama,n,m,pl,3,d,0,0' name='upakrama' posn='40'>
2.3	BI	RP	<fs af='BI,avy,,,,,,' name='BI' posn='50'>
	))
3	((	NP	<fs name='NP3' drel='k7p:VGF'>
3.1	vixeSoM	NN	<fs af='vixeSa,n,m,pl,3,o,0,0' name='vixeSoM' posn='60'>
3.2	meM	PSP	<fs af='meM,psp,,,,,,' name='meM' posn='70'>
	))
4	((	NP	<fs name='NP4' drel='r6-k2:NP5'>
4.1	apanI	PRP	<fs af='apanA,pn,f,any,any,d,0,0' name='apanI' posn='80'>
	))
5	((	NP	<fs name='NP5' drel='pof:VGNF'>
5.1	sevA	NN	<fs af='sevA,n,f,sg,3,d,0,0' name='sevA' posn='90'>
	))
6	((	VGNF	<fs name='VGNF' drel='vmod:VGF'>
6.1	xekara	VM	<fs af='xe,v,any,any,any,,kara,kara' name='xekara' posn='100'>
	))
7	((	NP	<fs name='NP6' drel='k2:VGF'>
7.1	lABa	NN	<fs af='lABa,n,m,sg,3,d,0,0' name='lABa' posn='110'>
	))
8	((	JJP	<fs name='JJP' drel='pof:VGF'>
8.1	arjiwa	JJ	<fs af='arjiwa,adj,any,any,,,,' name='arjiwa' posn='120'>
	))
9	((	VGF	<fs voicetype='active' name='VGF' stype='declarative' drel='rs:NP7'>
9.1	kareM	VM	<fs af='kara,v,any,pl,3,,eM,eM' name='kareM' posn='130'>
	))
10	((	NP	<fs name='NP7' drel='pof:VGF2'>
10.1	yaha	DEM	<fs af='yaha,pn,any,sg,3,d,,' name='yaha' posn='140'>
10.2	prayAsa	NN	<fs af='prayAsa,n,m,sg,3,d,0,0' name='prayAsa' posn='150'>
	))
11	((	VGF	<fs name='VGF2' stype='declarative' voicetype='passive'>
11.1	kiyA	VM	<fs af='kara,v,m,sg,any,,yA,yA' name='kiyA' posn='160'>
11.2	jAegA	VAUX	<fs af='jA,v,m,sg,3,,gA,gA' name='jAegA' posn='170'>
	))
12	((	BLK	<fs name='BLK' drel='rsym:VGF2'>
12.1	.	SYM	<fs af='.,punc,,,,,,' name='.' posn='180'>
	))
</Sentence>

<Sentence id='8'>
1	((	NP	<fs name='NP' drel='k1:VGF'>
1.1	rela	NNPC	<fs af='rela,n,f,sg,3,d,0,0' name='rela' posn='10'>
1.2	maMwrI	NNP	<fs af='maMwrI,n,m,sg,3,o,0,0' name='maMwrI' posn='20'>
1.3	ne	PSP	<fs af='ne,psp,,,,,,' name='ne' posn='30'>
	))
2	((	VGF	<fs name='VGF' stype='declarative' voicetype='active'>
2.1	kahA	VM	<fs af='kaha,v,m,sg,any,,yA,yA' name='kahA' posn='40'>
	))
3	((	CCP	<fs name='CCP' drel='k2:VGF'>
3.1	ki	CC	<fs af='ki,avy,,,,,,' name='ki' posn='50'>
	))
4	((	CCP	<fs name='CCP2' drel='vmod:VGF3'>
4.1	agara	CC	<fs af='agara,avy,,,,,,' name='agara' posn='60'>
	))
5	((	NP	<fs name='NP2' drel='k1:VGF2'>
5.1	rAjaga	NNP	<fs af='rAjaga,n,m,sg,3,d,0,0' name='rAjaga' posn='70'>
5.2	sarakAra	NN	<fs af='sarakAra,n,f,sg,3,d,0,0' name='sarakAra' posn='80'>
	))
6	((	NP	<fs name='NP3' drel='k7:VGNF'>
6.1	cunAva	NN	<fs af='cunAva,n,m,sg,3,o,0,0' name='cunAva' posn='90'>
6.2	meM	PSP	<fs af='meM,psp,,,,,,' name='meM' posn='100'>
	))
7	((	VGNF	<fs name='VGNF' drel='vmod:VGF2'>
7.1	hArakara	VM	<fs af='hAra,v,any,any,any,,kara,kara' name='hArakara' posn='110'>
	))
8	((	NP	<fs name='NP4' drel='k5:VGF2'>
8.1	sawwA	NN	<fs af='sawwA,n,f,sg,3,o,0,0' name='sawwA' posn='120'>
8.2	se	PSP	<fs af='se,psp,,,,,,' name='se' posn='130'>
	))
9	((	NP	<fs name='NP5' drel='pof:VGF2'>
9.1	bAhara	NST	<fs af='bAhara,nst,m,sg,3,d,,' name='bAhara' posn='140'>
	))
10	((	VGF	<fs voicetype='active' name='VGF2' stype='declarative' drel='ccof:CCP2'>
10.1	nahIM	NEG	<fs af='nahIM,avy,,,,,,' name='nahIM' posn='150'>
10.2	huI	VM	<fs af='ho,v,f,sg,any,,yA,yA' name='huI' posn='160'>
10.3	howI	VAUX	<fs af='ho,v,f,sg,any,,wA,wA' name='howI' posn='170'>
	))
11	((	CCP	<fs name='CCP3' drel='ccof:CCP'>
11.1	wo	CC	<fs af='wo,avy,,,,,,' name='wo' posn='180'>
	))
12	((	NP	<fs name='NP6' drel='r6:NP8'>
12.1	relave	NN	<fs af='relave,n,m,sg,3,o,0,0' name='relave' posn='190'>
12.2	kA	PSP	<fs af='kA,psp,m,sg,,d,,' name='kA' posn='200'>
	))
13	((	NP	<fs name='NP7' drel='k7t:VGF3'>
13.1	aba	PRP	<fs af='aba,pn,,,,o,,' name='aba' posn='210'>
13.2	waka	PSP	<fs af='waka,psp,,,,,,' name='waka' posn='220'>
	))
14	((	NP	<fs name='NP8' drel='k1:VGF3'>
14.1	viniveSa	NN	<fs af='viniveSa,n,m,sg,3,d,0,0' name='viniveSa' posn='230'>
	))
15	((	VGF	<fs voicetype='active' name='VGF3' stype='declarative' drel='ccof:CCP3'>
15.1	ho	VM	<fs af='ho,v,any,any,any,,0,0' name='ho' posn='240'>
15.2	cukA	VAUX	<fs af='cuka,v,m,sg,any,,yA,yA' name='cukA' posn='250'>
15.3	howA	VAUX	<fs af='ho,v,m,sg,any,,wA,wA' name='howA' posn='260'>
	))
16	((	BLK	<fs name='BLK' drel='rsym:VGF'>
16.1	.	SYM	<fs af='.,punc,,,,,,' name='.' posn='270'>
	))
</Sentence>

<Sentence id='9'>
1	((	NP	<fs name='NP' drel='k1:VGF'>
1.1	unhoMne	PRP	<fs af='vaha,pn,m,sg,3h,o,ne,ne' name='unhoMne' posn='10'>
	))
2	((	JJP	<fs name='JJP' drel='pof:VGF'>
2.1	spaRta	JJ	<fs af='spaRta,adj,any,any,,,,' name='spaRta' posn='20'>
	))
3	((	VGF	<fs name='VGF' stype='declarative' voicetype='active'>
3.1	kiyA	VM	<fs af='kara,v,m,sg,any,,yA,yA' name='kiyA' posn='30'>
	))
4	((	CCP	<fs name='CCP' drel='k2:VGF'>
4.1	ki	CC	<fs af='ki,avy,,,,,,' name='ki' posn='40'>
4.2	,	SYM	<fs af='COMMA,punc,,,,,,' name=',' posn='50'>
	))
5	((	NP	<fs name='NP2' drel='k7:VGF2'>
5.1	kisI	PRP	<fs af='koI,pn,any,sg,3,o,0,0' name='kisI' posn='80'>
5.2	BI	RP	<fs af='BI,avy,,,,,,' name='BI' posn='70'>
5.3	hAla	NN	<fs af='hAla,n,m,sg,3,o,0,0' name='hAla' posn='80'>
5.4	meM	PSP	<fs af='meM,psp,,,,,,' name='meM' posn='90'>
	))
6	((	NP	<fs name='NP3' drel='k1:VGF2'>
6.1	BArawIya	JJ	<fs af='BArawIya,adj,any,any,,d,,' name='BArawIya' posn='100'>
6.2	rela	NN	<fs af='rela,n,f,sg,3,d,0,0' name='rela' posn='110'>
	))
7	((	NP	<fs name='NP4' drel='r6:NP5'>
7.1	xeSa	NN	<fs af='xeSa,n,m,sg,3,o,0,0' name='xeSa' posn='120'>
7.2	kA	PSP	<fs af='kA,psp,m,sg,,d,,' name='kA' posn='130'>
	))
8	((	NP	<fs name='NP5' drel='k2:VGF2'>
8.1	pEsA	NN	<fs af='pEsA,n,m,sg,3,d,0,0' name='pEsA' posn='140'>
	))
9	((	NP	<fs name='NP6' drel='k7p:VGF2'>
9.1	vixeSoM	NN	<fs af='vixeSa,n,m,pl,3,o,0,0' name='vixeSoM' posn='150'>
9.2	meM	PSP	<fs af='meM,psp,,,,,,' name='meM2' posn='160'>
	))
10	((	VGF	<fs voicetype='active' name='VGF2' stype='declarative' drel='ccof:CCP'>
10.1	nahIM	NEG	<fs af='nahIM,avy,,,,,,' name='nahIM' posn='170'>
10.2	jAne	VM	<fs af='jA,v,any,any,any,,nA,nA' name='jAne' posn='180'>
10.3	xegA	VAUX	<fs af='xe,v,m,sg,3,,gA,gA' name='xegA' posn='190'>
	))
11	((	BLK	<fs name='BLK' drel='rsym:VGF'>
11.1	.	SYM	<fs af='.,punc,,,,,,' name='.' posn='200'>
	))
</Sentence>

<Sentence id='10'>
1	((	NP	<fs name='NP' drel='rt:VGF'>
1.1	isake	PRP	<fs af='yaha,pn,any,sg,3,o,ke,ke' name='isake' posn='10'>
1.2	lie	PSP	<fs af='lie,psp,,,,,,' name='lie' posn='20'>
	))
2	((	NP	<fs name='NP2' drel='k7t:VGF'>
2.1	sabase	JJ	<fs af='sabase,adj,any,any,,d,,' name='sabase' posn='30'>
2.2	pahale	NST	<fs af='pahale,nst,m,sg,3,d,,' name='pahale' posn='40'>
	))
3	((	NP	<fs name='NP3' drel='k1:VGF'>
3.1	relave	NN	<fs af='relave,n,m,sg,3,d,0,0' name='relave' posn='50'>
	))
4	((	NP	<fs name='NP4' drel='rt:VGF'>
4.1	apane	PRP	<fs af='apanA,pn,m,any,any,o,0,0' name='apane' posn='60'>
4.2	lie	PSP	<fs af='lie,psp,,,,,,' name='lie2' posn='70'>
	))
5	((	NP	<fs name='NP5' drel='r6:NP6'>
5.1	AyAwiwa	JJ	<fs af='AyAwiwa,adj,any,any,,o,,' name='AyAwiwa' posn='80'>
5.2	sAmAna	NN	<fs af='sAmAna,n,m,sg,3,o,0,0' name='sAmAna' posn='90'>
5.3	kI	PSP	<fs af='kA,psp,f,pl,,o,,' name='kI' posn='100'>
	))
6	((	NP	<fs name='NP6' drel='k2:VGF'>
6.1	jZarUrawoM	NN	<fs af='jZarUrawa,n,f,pl,3,o,0,0' name='jZarUrawoM' posn='110'>
6.2	ko	PSP	<fs af='ko,psp,,,,,,' name='ko' posn='120'>
	))
7	((	JJP	<fs name='JJP' drel='pof:VGF'>
7.1	kama	QF	<fs af='kama,avy,,,,,,' name='kama' posn='130'>
	))
8	((	VGF	<fs voicetype='active' name='VGF' stype='declarative' drel='ccof:CCP'>
8.1	karegA	VM	<fs af='kara,v,m,sg,3,,gA,gA' name='karegA' posn='140'>
	))
9	((	CCP	<fs name='CCP'>
9.1	Ora	CC	<fs af='Ora,avy,,,,,,' name='Ora' posn='150'>
	))
10	((	NP	<fs name='NP7' drel='rt:VGF2'>
10.1	isake	PRP	<fs af='yaha,pn,any,sg,3,o,ke,ke' name='isake2' posn='160'>
10.2	lie	PSP	<fs af='lie,psp,,,,,,' name='lie3' posn='170'>
	))
11	((	NP	<fs name='NP8' drel='k7p:VGF2'>
11.1	xeSa	NN	<fs af='xeSa,n,m,sg,3,o,0,0' name='xeSa' posn='180'>
11.2	meM	PSP	<fs af='meM,psp,,,,,,' name='meM' posn='190'>
11.3	hI	RP	<fs af='hI,avy,,,,,,' name='hI' posn='200'>
	))
12	((	NP	<fs name='NP9' drel='pof:VGF2'>
12.1	uwpAxana	NN	<fs af='uwpAxana,n,m,sg,3,d,0,0' name='uwpAxana' posn='210'>
	))
13	((	VGF	<fs voicetype='active' name='VGF2' stype='declarative' drel='ccof:CCP'>
13.1	hogA	VM	<fs af='ho,v,m,sg,3,,gA,gA' name='hogA' posn='220'>
	))
14	((	BLK	<fs name='BLK' drel='rsym:CCP'>
14.1	.	SYM	<fs af='.,punc,,,,,,' name='.' posn='230'>
	))
</Sentence>

<Sentence id='11'>
1	((	NP	<fs name='NP' drel='k1:VGF'>
1.1	unhoMne	PRP	<fs af='vaha,pn,m,sg,3h,o,ne,ne' name='unhoMne' posn='10'>
	))
2	((	VGF	<fs name='VGF' stype='declarative' voicetype='active'>
2.1	kahA	VM	<fs af='kaha,v,m,sg,any,,yA,yA' name='kahA' posn='20'>
	))
3	((	CCP	<fs name='CCP' drel='k2:VGF'>
3.1	ki	CC	<fs af='ki,avy,,,,,,' name='ki' posn='30'>
	))
4	((	NP	<fs name='NP2' drel='k1:VGNN'>
4.1	AyAwa	NN	<fs af='AyAwa,n,m,sg,3,d,0,0' name='AyAwa' posn='40'>
	))
5	((	VGNN	<fs name='VGNN' drel='k7:VGF2'>
5.1	nahIM	NEG	<fs af='nahIM,avy,,,,,,' name='nahIM' posn='50'>
5.2	hone	VM	<fs af='ho,v,any,any,any,o,nA,nA' name='hone' posn='60'>
5.3	para	PSP	<fs af='para,psp,,,,,,' name='para' posn='70'>
	))
6	((	NP	<fs name='NP3' drel='pof:VGF2'>
6.1	kuCa	QF	<fs af='kuCa,avy,,,,,,' name='kuCa' posn='80'>
6.2	xikkawa	NN	<fs af='xikkawa,n,f,sg,3,d,0,0' name='xikkawa' posn='90'>
6.3	wo	RP	<fs af='wo,avy,,,,,,' name='wo' posn='100'>
	))
7	((	VGF	<fs voicetype='active' name='VGF2' stype='declarative' drel='ccof:CCP2'>
7.1	hogI	VM	<fs af='ho,v,f,sg,3,,gA,gA' name='hogI' posn='110'>
	))
8	((	CCP	<fs name='CCP2' drel='ccof:CCP'>
8.1	lekina	CC	<fs af='lekina,avy,,,,,,' name='lekina' posn='120'>
	))
9	((	NP	<fs name='NP4' drel='k2:VGF3'>
9.1	ise	PRP	<fs af='yaha,pn,any,sg,3,o,ko,ko' name='ise' posn='130'>
	))
10	((	NP	<fs name='NP5' drel='pof:VGF3'>
10.1	sahana	NN	<fs af='sahana,n,m,sg,3,d,0,0' name='sahana' posn='140'>
	))
11	((	VGF	<fs voicetype='passive' name='VGF3' stype='declarative' drel='ccof:CCP2'>
11.1	kiyA	VM	<fs af='kara,v,m,sg,any,,yA,yA' name='kiyA' posn='150'>
11.2	jAegA	VAUX	<fs af='jA,v,m,sg,3,,gA,gA' name='jAegA' posn='160'>
	))
12	((	BLK	<fs name='BLK' drel='rsym:VGF'>
12.1	.	SYM	<fs af='.,punc,,,,,,' name='.' posn='170'>
	))
</Sentence>

<Sentence id='12'>
1	((	NP	<fs name='NP' drel='k2:VGNN'>
1.1	BArawIya	JJ	<fs af='BArawIya,adj,any,any,,o,,' name='BArawIya' posn='10'>
1.2	rela	NN	<fs af='rela,n,f,sg,3,o,0,0' name='rela' posn='20'>
1.3	ko	PSP	<fs af='ko,psp,,,,,,' name='ko' posn='30'>
	))
2	((	NP	<fs name='NP2' drel='r6:NP3'>
2.1	viSva	NN	<fs af='viSva,n,m,sg,3,o,0,0' name='viSva' posn='40'>
2.2	kI	PSP	<fs af='kA,psp,f,sg,,d,,' name='kI' posn='50'>
	))
3	((	NP	<fs name='NP3' drel='k2s:VGNN'>
3.1	naMbara	NN	<fs af='naMbara,n,m,sg,3,d,0,0' name='naMbara' posn='60'>
3.2	vana	QC	<fs af='vana,num,any,any,,any,,' name='vana' posn='10'>
3.3	relave	NN	<fs af='relave,n,m,sg,3,d,0,0' name='relave' posn='80'>
	))
4	((	VGNN	<fs name='VGNN' drel='r6-k2:NP4'>
4.1	banAne	VM	<fs af='banA,v,any,any,any,o,nA,nA' name='banAne' posn='90'>
4.2	kI	PSP	<fs af='kA,psp,f,sg,,d,,' name='kI2' posn='100'>
	))
5	((	NP	<fs name='NP4' drel='pof:VGNF'>
5.1	BIRma	NNPC	<fs af='BIRma,n,m,sg,3,d,0,0' name='BIRma' posn='110'>
5.2	prawijFA	NNP	<fs af='prawijFA,n,f,sg,3,d,0,0' name='prawijFA' posn='120'>
	))
6	((	VGNF	<fs name='VGNF' drel='vmod:VGF'>
6.1	karawe	VM	<fs af='kara,v,m,sg,3,,wA,wA' name='karawe' posn='130'>
6.2	hue	VAUX	<fs af='ho,v,m,sg,3,,yA,yA' name='hue' posn='140'>
	))
7	((	NP	<fs name='NP5' drel='k1:VGF'>
7.1	lAlU	NNPC	<fs af='lAlU,n,m,sg,3,d,0,0' name='lAlU' posn='150'>
7.2	yAxava	NNP	<fs af='yAxava,n,any,sg,3,o,0,0' name='yAxava' posn='160'>
7.3	ne	PSP	<fs af='ne,psp,,,,,,' name='ne' posn='170'>
	))
8	((	VGF	<fs name='VGF' stype='declarative' voicetype='active'>
8.1	kahA	VM	<fs af='kaha,v,m,sg,any,,yA,yA' name='kahA' posn='180'>
	))
9	((	CCP	<fs name='CCP' drel='k2:VGF'>
9.1	ki	CC	<fs af='ki,avy,,,,,,' name='ki' posn='190'>
	))
10	((	NP	<fs name='NP6' drel='k5:VGNF2'>
10.1	relave	NN	<fs af='relave,n,m,sg,3,o,0,0' name='relave2' posn='200'>
10.2	se	PSP	<fs af='se,psp,,,,,,' name='se' posn='210'>
	))
11	((	NP	<fs name='NP7' drel='k2:VGNF2'>
11.1	BraRtAcAra	NN	<fs af='BraRtAcAra,n,m,sg,3,d,0,0' name='BraRtAcAra' posn='220'>
	))
12	((	NP	<fs name='NP8' drel='adv:VGNF2'>
12.1	pUrI	JJ	<fs af='pUrA,adj,f,sg,,o,,' name='pUrI' posn='230'>
12.2	waraha	NN	<fs af='waraha,n,f,sg,3,o,0,0' name='waraha' posn='240'>
12.3	se	PSP	<fs af='se,psp,,,,,,' name='se2' posn='250'>
	))
13	((	VGNF	<fs name='VGNF2' drel='vmod:VGF2'>
13.1	mitA	VM	<fs af='mita,v,m,sg,any,,yA,yA' name='mitA' posn='260'>
13.2	kara	VAUX	<fs af='kara,v,any,any,any,,0,0' name='kara' posn='270'>
13.3	hI	RP	<fs af='hI,avy,,,,,,' name='hI' posn='280'>
	))
14	((	NP	<fs name='NP9' drel='pof:VGF2'>
14.1	xama	NN	<fs af='xama,n,m,sg,3,d,0,0' name='xama' posn='300'>
	))
15	((	VGF	<fs voicetype='active' name='VGF2' stype='declarative' drel='ccof:CCP'>
15.1	leMge	VM	<fs af='le,v,m,sg,3h,,gA,gA' name='leMge' posn='320'>
	))
16	((	BLK	<fs name='BLK' drel='rsym:VGF'>
16.1	.	SYM	<fs af='.,punc,,,,,,' name='.' posn='330'>
	))
</Sentence>

<Sentence id='13'>
1	((	NP	<fs name='NP' drel='sent-adv:VGF'>
1.1	sAWa	NST	<fs af='sAWa,nst,m,sg,3,d,,' name='sAWa' posn='10'>
1.2	hI	RP	<fs af='hI,avy,,,,,,' name='hI' posn='20'>
	))
2	((	NP	<fs name='NP2' drel='ccof:CCP'>
2.1	trenoM	NN	<fs af='trena,n,f,pl,3,o,0,0' name='trenoM' posn='30'>
	))
3	((	CCP	<fs name='CCP' drel='k7a:VGF'>
3.1	va	CC	<fs af='va,avy,,,,,,' name='va' posn='40'>
	))
4	((	NP	<fs name='NP3' drel='ccof:CCP'>
4.1	relave	NNC	<fs af='relave,n,m,sg,3,d,0,0' name='relave' posn='50'>
4.2	parisaroM	NN	<fs af='parisara,n,m,pl,3,o,0,0' name='parisaroM' posn='60'>
4.3	meM	PSP	<fs af='meM,psp,,,,,,' name='meM' posn='70'>
	))
5	((	NP	<fs name='NP4' drel='k7:VGF'>
5.1	saPAI	NN	<fs af='saPAI,n,f,sg,3,o,0,0' name='saPAI' posn='80'>
5.2	para	PSP	<fs af='para,psp,,,,,,' name='para' posn='90'>
	))
6	((	NP	<fs name='NP5' drel='pof:VGF'>
6.1	sabase	INTF	<fs af='sabase,avy,,,,,,' name='sabase' posn='100'>
6.2	aXika	QF	<fs af='aXika,avy,,,,,,' name='aXika' posn='110'>
6.3	XyAna	NN	<fs af='XyAna,n,m,sg,3,d,0,0' name='XyAna' posn='120'>
	))
7	((	VGF	<fs name='VGF' stype='declarative' voicetype='passive'>
7.1	xiyA	VM	<fs af='xe,v,m,sg,any,,yA,yA' name='xiyA' posn='130'>
7.2	jAegA	VAUX	<fs af='jA,v,m,sg,3,,gA,gA' name='jAegA' posn='140'>
	))
8	((	BLK	<fs name='BLK' drel='rsym:VGF'>
8.1	.	SYM	<fs af='.,punc,,,,,,' name='.' posn='150'>
	))
</Sentence>

<Sentence id='14'>
1	((	NP	<fs name='NP' drel='k1:VGF'>
1.1	unhoMne	PRP	<fs af='vaha,pn,m,sg,3,o,ne,ne' name='unhoMne' posn='10'>
	))
2	((	NP	<fs name='NP2' drel='r6:NP3'>
2.1	relaneta	NN	<fs af='relaneta,n,m,sg,3,o,0,0' name='relaneta' posn='20'>
2.2	ke	PSP	<fs af='kA,psp,m,sg,,o,,' name='ke' posn='30'>
	))
3	((	NP	<fs name='NP3' drel='r6-k2:NP4'>
3.1	vyavasAyIkaraNa	NN	<fs af='vyavasAyIkaraNa,n,m,sg,3,o,0,0' name='vyavasAyIkaraNa' posn='40'>
3.2	ke	PSP	<fs af='kA,psp,m,pl,,d,,' name='ke2' posn='50'>
	))
4	((	NP	<fs name='NP4' drel='pof:VGF'>
4.1	saMkewa	NN	<fs af='saMkewa,n,m,pl,3,d,0,0' name='saMkewa' posn='60'>
	))
5	((	VGF	<fs voicetype='active' name='VGF' stype='declarative' drel='ccof:CCP'>
5.1	xie	VM	<fs af='xe,v,m,pl,any,,yA,yA' name='xie' posn='70'>
	))
6	((	CCP	<fs name='CCP'>
6.1	Ora	CC	<fs af='Ora,avy,,,,,,' name='Ora' posn='80'>
	))
7	((	VGF	<fs voicetype='active' name='VGF2' stype='declarative' drel='ccof:CCP'>
7.1	kahA	VM	<fs af='kaha,v,m,sg,any,,yA,yA' name='kahA' posn='90'>
	))
8	((	CCP	<fs name='CCP2' drel='k2:VGF2'>
8.1	ki	CC	<fs af='ki,avy,,,,,,' name='ki' posn='100'>
	))
9	((	NP	<fs name='NP5' drel='r6:NP6'>
9.1	sUcanA	NNPC	<fs af='sUcanA,n,f,sg,3,d,0,0' name='sUcanA' posn='110'>
9.2	prOxyogikI	NNP	<fs af='prOxyogikI,n,f,sg,3,o,0,0' name='prOxyogikI' posn='120'>
9.3	ke	PSP	<fs af='kA,psp,m,sg,,o,,' name='ke3' posn='130'>
	))
10	((	NP	<fs name='NP6' drel='k7:VGF3'>
10.1	isa	DEM	<fs af='yaha,pn,any,sg,3,o,,' name='isa' posn='140'>
10.2	jZamAne	NN	<fs af='jamAnA,n,m,sg,3,o,0,0' name='jZamAne' posn='150'>
10.3	meM	PSP	<fs af='meM,psp,,,,,,' name='meM' posn='160'>
	))
11	((	NP	<fs name='NP7' drel='r6:NP8'>
11.1	relaneta	NN	<fs af='relaneta,n,m,sg,3,o,0,0' name='relaneta2' posn='170'>
11.2	ke	PSP	<fs af='kA,psp,m,sg,,o,,' name='ke4' posn='180'>
	))
12	((	NP	<fs name='NP8' drel='r6:NP9'>
12.1	vyavasAyIkaraNa	NN	<fs af='vyavasAyIkaraNa,n,m,sg,3,o,0,0' name='vyavasAyIkaraNa2' posn='190'>
12.2	ke	PSP	<fs af='kA,psp,m,pl,,o,,' name='ke5' posn='200'>
	))
13	((	NP	<fs name='NP9' drel='r6-k2:NP10'>
13.1	vikalpoM	NN	<fs af='vikalpa,n,m,pl,3,o,0,0' name='vikalpoM' posn='210'>
13.2	kI	PSP	<fs af='kA,psp,f,sg,,d,,' name='kI' posn='220'>
	))
14	((	NP	<fs name='NP10' drel='pof:VGF3'>
14.1	walASa	NN	<fs af='walASa,n,f,sg,3,d,0,0' name='walASa' posn='230'>
	))
15	((	VGF	<fs voicetype='active' name='VGF3' stype='declarative' drel='ccof:CCP2'>
15.1	kI	VM	<fs af='kara,v,f,sg,any,,yA,yA' name='kI2' posn='240'>
15.2	jAegI	VAUX	<fs af='jA,v,f,sg,3,,gA,gA' name='jAegI' posn='250'>
	))
16	((	BLK	<fs name='BLK' drel='rsym:CCP'>
16.1	.	SYM	<fs af='.,punc,,,,,,' name='.' posn='260'>
	))
</Sentence>

<Sentence id='15'>
1	((	NP	<fs name='NP' drel='k2:VGNN'>
1.1	wahalakA	NNP	<fs af='wahalakA,n,m,sg,3,d,0,0' name='wahalakA' posn='10'>
1.2	mAmalA	NN	<fs af='mAmalA,n,m,sg,3,d,0,0' name='mAmalA' posn='20'>
	))
2	((	NP	<fs name='NP2' drel='k4:VGNN'>
2.1	sIbIAI	NNP	<fs af='sIbIAI,n,m,sg,3,o,0,0' name='sIbIAI' posn='30'>
2.2	ko	PSP	<fs af='ko,psp,,,,,,' name='ko' posn='40'>
	))
3	((	VGNN	<fs name='VGNN' drel='ccof:CCP'>
3.1	sOMpane	VM	<fs af='sOMpa,v,any,any,any,d,nA,nA' name='sOMpane' posn='50'>
	))
4	((	CCP	<fs name='CCP' drel='rt:VGF'>
4.1	Ora	CC	<fs af='Ora,avy,,,,,,' name='Ora' posn='60'>
	))
5	((	NP	<fs name='NP3' drel='nmod:NP5'>
5.1	uwwara	JJC	<fs af='uwwara,n,m,sg,3,d,0,0' name='uwwara' posn='70'>
5.2	-	SYM	<fs af='-,punc,,,,,,' name='-' posn='80'>
5.3	pUrvI	JJ	<fs af='pUrvI,adj,any,any,,o,,' name='pUrvI' posn='90'>
5.4	rAjyoM	NN	<fs af='rAjya,n,m,pl,3,o,0,0' name='rAjyoM' posn='100'>
5.5	meM	PSP	<fs af='meM,psp,,,,,,' name='meM' posn='110'>
	))
6	((	NP	<fs name='NP4' drel='r6:NP5'>
6.1	hAla	NN	<fs af='hAla,n,m,sg,3,o,0,0' name='hAla' posn='120'>
6.2	kI	PSP	<fs af='kA,psp,f,sg,,o,,' name='kI' posn='130'>
	))
7	((	NP	<fs name='NP5' drel='ccof:CCP'>
7.1	hiMsA	NN	<fs af='hiMsA,n,f,sg,3,o,0,0' name='hiMsA' posn='140'>
7.2	ke	PSP	<fs af='ke,psp,,,,,,' name='ke' posn='150'>
7.3	lie	PSP	<fs af='lie,psp,,,,,,' name='lie' posn='160'>
	))
8	((	NP	<fs name='NP6' drel='r6:NP7'>
8.1	manamohana	NNP	<fs af='manamohana,n,m,sg,3,d,0,0' name='manamohana' posn='170'>
8.2	sarakAra	NN	<fs af='sarakAra,n,f,sg,3,o,0,0' name='sarakAra' posn='180'>
8.3	kI	PSP	<fs af='kA,psp,f,sg,,o,,' name='kI2' posn='190'>
	))
9	((	NP	<fs name='NP7' drel='k2:VGF'>
9.1	AlocanA	NN	<fs af='AlocanA,n,f,sg,3,o,0,0' name='AlocanA' posn='200'>
9.2	ko	PSP	<fs af='ko,psp,,,,,,' name='ko2' posn='210'>
	))
10	((	NP	<fs name='NP8' drel='k1:VGF'>
10.1	unhoMne	PRP	<fs af='vaha,pn,any,sg,3h,o,ne,ne' name='unhoMne' posn='220'>
	))
11	((	NP	<fs name='NP9' drel='adv:VGF'>
11.1	sire	NN	<fs af='sirA,n,m,sg,3,o,0,0' name='sire' posn='230'>
11.2	se	PSP	<fs af='se,psp,,,,,,' name='se' posn='240'>
	))
12	((	NP	<fs name='NP10' drel='pof:VGF'>
12.1	nakAra	NN	<fs af='nakAra,n,m,sg,3,d,0,0' name='nakAra' posn='230'>
	))
13	((	VGF	<fs name='VGF' stype='declarative' voicetype='active'>
13.1	xiyA	VM	<fs af='xe,v,m,sg,any,,yA,yA' name='xiyA' posn='260'>
	))
14	((	BLK	<fs name='BLK' drel='rsym:VGF'>
14.1	.	SYM	<fs af='.,punc,,,,,,' name='.' posn='270'>
	))
</Sentence>

