1	nyUyOYrka	nyUyOYrka	NNPC	n	lex-nyUyOYrka|cat-n|gen-m|num-sg|pers-3|case-d|vib-0|tam-0|chunkId-NP|chunkType-child|stype-|voicetype-	2	pof__cn	_	_
2	eksaceMja	eksaceMja	NNP	n	lex-eksaceMja|cat-n|gen-m|num-sg|pers-3|case-o|vib-0_meM|tam-0|chunkId-NP|chunkType-head|stype-|voicetype-	5	jjmod	_	_
3	meM	meM	PSP	psp	lex-meM|cat-psp|gen-|num-|pers-|case-|vib-|tam-|chunkId-NP|chunkType-child|stype-|voicetype-	2	lwg__psp	_	_
4	kala	kala	NN	n	lex-kala|cat-n|gen-m|num-sg|pers-3|case-d|vib-0|tam-0|chunkId-NP2|chunkType-head|stype-|voicetype-	5	jjmod	_	_
5	xarja	xarja	JJ	adj	lex-xarja|cat-adj|gen-any|num-any|pers-|case-o|vib-|tam-|chunkId-JJP|chunkType-head|stype-|voicetype-	7	nmod	_	_
6	BArI	BArI	JJ	adj	lex-BArI|cat-adj|gen-any|num-any|pers-|case-o|vib-|tam-|chunkId-NP3|chunkType-child|stype-|voicetype-	7	nmod__adj	_	_
7	wejI	wejI	NN	n	lex-wejI|cat-n|gen-f|num-sg|pers-3|case-o|vib-0_kA|tam-0|chunkId-NP3|chunkType-head|stype-|voicetype-	9	r6	_	_
8	ke	kA	PSP	psp	lex-kA|cat-psp|gen-m|num-sg|pers-|case-o|vib-|tam-|chunkId-NP3|chunkType-child|stype-|voicetype-	7	lwg__psp	_	_
9	asara	asara	NN	n	lex-asara|cat-n|gen-m|num-sg|pers-3|case-o|vib-0_se|tam-0|chunkId-NP4|chunkType-head|stype-|voicetype-	24	rh	_	_
10	se	se	PSP	psp	lex-se|cat-psp|gen-|num-|pers-|case-|vib-|tam-|chunkId-NP4|chunkType-child|stype-|voicetype-	9	lwg__psp	_	_
11	Aja	Aja	NN	n	lex-Aja|cat-n|gen-m|num-sg|pers-3|case-d|vib-0|tam-0|chunkId-NP5|chunkType-head|stype-|voicetype-	24	k7t	_	_
12	xillI	xillI	NNP	n	lex-xillI|cat-n|gen-f|num-sg|pers-3|case-d|vib-0|tam-0|chunkId-NP6|chunkType-child|stype-|voicetype-	14	nmod__adj	_	_
13	sarrAPA	sarrAPA	NNC	n	lex-sarrAPA|cat-n|gen-m|num-sg|pers-3|case-d|vib-0|tam-0|chunkId-NP6|chunkType-child|stype-|voicetype-	14	pof__cn	_	_
14	bAjAra	bAjAra	NN	n	lex-bAjAra|cat-n|gen-m|num-sg|pers-3|case-o|vib-0_meM|tam-0|chunkId-NP6|chunkType-head|stype-|voicetype-	24	k7p	_	_
15	meM	meM	PSP	psp	lex-meM|cat-psp|gen-|num-|pers-|case-|vib-|tam-|chunkId-NP6|chunkType-child|stype-|voicetype-	14	lwg__psp	_	_
16	BI	BI	RP	avy	lex-BI|cat-avy|gen-|num-|pers-|case-|vib-|tam-|chunkId-NP6|chunkType-child|stype-|voicetype-	14	lwg__rp	_	_
17	xonoM	xo	QC	num	lex-xo|cat-num|gen-any|num-pl|pers-|case-any|vib-|tam-|chunkId-NP7|chunkType-child|stype-|voicetype-	19	nmod__adj	_	_
18	bahumUlya	bahumUlya	JJ	adj	lex-bahumUlya|cat-adj|gen-any|num-any|pers-|case-o|vib-|tam-|chunkId-NP7|chunkType-child|stype-|voicetype-	19	nmod__adj	_	_
19	XAwuoM	XAwu	NN	n	lex-XAwu|cat-n|gen-f|num-pl|pers-3|case-o|vib-0_meM|tam-0|chunkId-NP7|chunkType-head|stype-|voicetype-	24	k7	_	_
20	meM	meM	PSP	psp	lex-meM|cat-psp|gen-|num-|pers-|case-|vib-|tam-|chunkId-NP7|chunkType-child|stype-|voicetype-	19	lwg__psp	_	_
21	uCAla	uCAla	NN	n	lex-uCAla|cat-n|gen-m|num-sg|pers-3|case-o|vib-0_kA|tam-0|chunkId-NP8|chunkType-head|stype-|voicetype-	23	r6	_	_
22	kA	kA	PSP	psp	lex-kA|cat-psp|gen-m|num-sg|pers-|case-d|vib-|tam-|chunkId-NP8|chunkType-child|stype-|voicetype-	21	lwg__psp	_	_
23	ruKa	ruKa	NN	n	lex-ruKa|cat-n|gen-m|num-sg|pers-3|case-d|vib-0|tam-0|chunkId-NP9|chunkType-head|stype-|voicetype-	24	k2	_	_
24	rahA	raha	VM	v	lex-raha|cat-v|gen-m|num-sg|pers-any|case-|vib-yA|tam-yA|chunkId-VGF|chunkType-head|stype-declarative|voicetype-active	0	main	_	_
25	.	.	SYM	punc	lex-.|cat-punc|gen-|num-|pers-|case-|vib-|tam-|chunkId-BLK|chunkType-head|stype-|voicetype-	24	rsym	_	_

1	nyUyOYrka	nyUyOYrka	NNP	n	lex-nyUyOYrka|cat-n|gen-m|num-sg|pers-3|case-o|vib-0_meM|tam-0|chunkId-NP|chunkType-head|stype-|voicetype-	14	k7p	_	_
2	meM	meM	PSP	psp	lex-meM|cat-psp|gen-|num-|pers-|case-|vib-|tam-|chunkId-NP|chunkType-child|stype-|voicetype-	1	lwg__psp	_	_
3	kala	kala	NN	n	lex-kala|cat-n|gen-m|num-sg|pers-3|case-d|vib-0|tam-0|chunkId-NP2|chunkType-head|stype-|voicetype-	14	k7t	_	_
4	sonA	sonA	NN	n	lex-sonA|cat-n|gen-m|num-sg|pers-3|case-d|vib-0|tam-0|chunkId-NP3|chunkType-head|stype-|voicetype-	14	k1	_	_
5	5	5	QC	num	lex-5|cat-num|gen-any|num-any|pers-|case-any|vib-|tam-|chunkId-NP4|chunkType-child|stype-|voicetype-	6	nmod__adj	_	_
6	dOYlara	dOYlara	NN	n	lex-dOYlara|cat-n|gen-m|num-pl|pers-3|case-d|vib-0|tam-0|chunkId-NP4|chunkType-head|stype-|voicetype-	7	k2	_	_
7	baDZakara	baDZa	VM	v	lex-baDZa|cat-v|gen-any|num-any|pers-any|case-|vib-kara|tam-kara|chunkId-VGNF|chunkType-head|stype-|voicetype-	14	vmod	_	_
8	424.50	424.50	QC	num	lex-424.50|cat-num|gen-any|num-any|pers-|case-any|vib-|tam-|chunkId-NP5|chunkType-child|stype-|voicetype-	9	nmod__adj	_	_
9	dOYlara	dOYlara	NN	n	lex-dOYlara|cat-n|gen-m|num-pl|pers-3|case-d|vib-0|tam-0|chunkId-NP5|chunkType-child|stype-|voicetype-	11	nmod	_	_
10	prawi	prawi	RP	avy	lex-prawi|cat-avy|gen-|num-|pers-|case-|vib-|tam-|chunkId-NP5|chunkType-child|stype-|voicetype-	11	lwg__rp	_	_
11	OMsa	OMsa	NN	n	lex-OMsa|cat-n|gen-m|num-sg|pers-3|case-o|vib-0_para|tam-0|chunkId-NP5|chunkType-head|stype-|voicetype-	14	k7	_	_
12	para	para	PSP	psp	lex-para|cat-psp|gen-|num-|pers-|case-|vib-|tam-|chunkId-NP5|chunkType-child|stype-|voicetype-	11	lwg__psp	_	_
13	baMxa	baMxa	JJ	adj	lex-baMxa|cat-adj|gen-any|num-any|pers-|case-|vib-|tam-|chunkId-JJP|chunkType-head|stype-|voicetype-	14	pof	_	_
14	huA	ho	VM	v	lex-ho|cat-v|gen-m|num-sg|pers-any|case-|vib-yA_WA|tam-yA|chunkId-VGF|chunkType-head|stype-declarative|voicetype-active	0	main	_	_
15	WA	WA	VAUX	v	lex-WA|cat-v|gen-m|num-sg|pers-any|case-|vib-WA|tam-WA|chunkId-VGF|chunkType-child|stype-|voicetype-	14	lwg__vaux	_	_
16	.	.	SYM	punc	lex-.|cat-punc|gen-|num-|pers-|case-|vib-|tam-|chunkId-BLK|chunkType-head|stype-|voicetype-	14	rsym	_	_

1	isake	yaha	PRP	pn	lex-yaha|cat-pn|gen-m|num-sg|pers-3|case-o|vib-kA|tam-kA|chunkId-NP|chunkType-head|stype-|voicetype-	2	r6	_	_
2	asara	asara	NN	n	lex-asara|cat-n|gen-m|num-sg|pers-3|case-o|vib-0_se|tam-0|chunkId-NP2|chunkType-head|stype-|voicetype-	22	rh	_	_
3	se	se	PSP	psp	lex-se|cat-psp|gen-|num-|pers-|case-|vib-|tam-|chunkId-NP2|chunkType-child|stype-|voicetype-	2	lwg__psp	_	_
4	Aja	Aja	NN	n	lex-Aja|cat-n|gen-m|num-sg|pers-3|case-d|vib-0|tam-0|chunkId-NP3|chunkType-head|stype-|voicetype-	22	k7t	_	_
5	xillI	xillI	NNP	n	lex-xillI|cat-n|gen-f|num-sg|pers-3|case-o|vib-0_meM|tam-0|chunkId-NP4|chunkType-head|stype-|voicetype-	22	k7p	_	_
6	meM	meM	PSP	psp	lex-meM|cat-psp|gen-|num-|pers-|case-|vib-|tam-|chunkId-NP4|chunkType-child|stype-|voicetype-	5	lwg__psp	_	_
7	sonA	sonA	NNC	n	lex-sonA|cat-n|gen-m|num-sg|pers-3|case-d|vib-0|tam-0|chunkId-NP5|chunkType-child|stype-|voicetype-	8	pof__cn	_	_
8	stEMdarda	stEMdarda	NN	n	lex-stEMdarda|cat-n|gen-m|num-sg|pers-3|case-d|vib-0|tam-0|chunkId-NP5|chunkType-head|stype-|voicetype-	22	k1	_	_
9	wejI	wejI	NN	n	lex-wejI|cat-n|gen-f|num-sg|pers-3|case-o|vib-0_kA|tam-0|chunkId-NP6|chunkType-head|stype-|voicetype-	12	r6	_	_
10	kA	kA	PSP	psp	lex-kA|cat-psp|gen-m|num-sg|pers-|case-d|vib-|tam-|chunkId-NP6|chunkType-child|stype-|voicetype-	9	lwg__psp	_	_
11	nayA	nayA	JJ	adj	lex-nayA|cat-adj|gen-m|num-sg|pers-|case-d|vib-|tam-|chunkId-NP7|chunkType-child|stype-|voicetype-	12	nmod__adj	_	_
12	rikOYrda	rikOYrda	NN	n	lex-rikOYrda|cat-n|gen-m|num-sg|pers-3|case-d|vib-0|tam-0|chunkId-NP7|chunkType-head|stype-|voicetype-	13	k2	_	_
13	banAwe	banA	VM	v	lex-banA|cat-v|gen-m|num-sg|pers-any|case-|vib-wA_ho+yA|tam-wA|chunkId-VGNF|chunkType-head|stype-|voicetype-	22	vmod	_	_
14	hue	ho	VAUX	v	lex-ho|cat-v|gen-m|num-sg|pers-any|case-|vib-yA|tam-yA|chunkId-VGNF|chunkType-child|stype-|voicetype-	13	lwg__vaux	_	_
15	6330	6330	QC	num	lex-6330|cat-num|gen-any|num-any|pers-|case-any|vib-|tam-|chunkId-NP8|chunkType-child|stype-|voicetype-	16	nmod__adj	_	_
16	rupaye	rupayA	NN	n	lex-rupayA|cat-n|gen-m|num-pl|pers-3|case-d|vib-0|tam-0|chunkId-NP8|chunkType-child|stype-|voicetype-	19	nmod	_	_
17	prawi	prawi	RP	avy	lex-prawi|cat-avy|gen-|num-|pers-|case-|vib-|tam-|chunkId-NP8|chunkType-child|stype-|voicetype-	19	lwg__rp	_	_
18	10	10	QC	num	lex-10|cat-num|gen-any|num-any|pers-|case-any|vib-|tam-|chunkId-NP8|chunkType-child|stype-|voicetype-	19	nmod__adj	_	_
19	grAma	grAma	NN	n	lex-grAma|cat-n|gen-m|num-sg|pers-3|case-o|vib-0_para|tam-0|chunkId-NP8|chunkType-head|stype-|voicetype-	22	k7	_	_
20	para	para	PSP	psp	lex-para|cat-psp|gen-|num-|pers-|case-|vib-|tam-|chunkId-NP8|chunkType-child|stype-|voicetype-	19	lwg__psp	_	_
21	baMxa	baMxa	JJ	adj	lex-baMxa|cat-adj|gen-any|num-any|pers-|case-|vib-|tam-|chunkId-JJP|chunkType-head|stype-|voicetype-	22	pof	_	_
22	huA	ho	VM	v	lex-ho|cat-v|gen-m|num-sg|pers-any|case-|vib-yA|tam-yA|chunkId-VGF|chunkType-head|stype-declarative|voicetype-active	0	main	_	_
23	.	.	SYM	punc	lex-.|cat-punc|gen-|num-|pers-|case-|vib-|tam-|chunkId-BLK|chunkType-head|stype-|voicetype-	22	rsym	_	_

1	isake	yaha	PRP	pn	lex-yaha|cat-pn|gen-any|num-sg|pers-3|case-o|vib-0_pUrva|tam-ke|chunkId-NP|chunkType-head|stype-|voicetype-	15	k7t	_	_
2	pUrva	pUrva	NST	nst	lex-pUrva|cat-nst|gen-m|num-sg|pers-3|case-d|vib-|tam-|chunkId-NP|chunkType-child|stype-|voicetype-	1	lwg__psp	_	_
3	12	12	NNPC	n	lex-12|cat-n|gen-any|num-sg|pers-3|case-d|vib-0|tam-0|chunkId-NP2|chunkType-child|stype-|voicetype-	4	pof__cn	_	_
4	janavarI	janavarI	NNP	n	lex-janavarI|cat-n|gen-f|num-sg|pers-3|case-o|vib-0_ko|tam-0|chunkId-NP2|chunkType-head|stype-|voicetype-	15	k7	_	_
5	ko	ko	PSP	psp	lex-ko|cat-psp|gen-|num-|pers-|case-|vib-|tam-|chunkId-NP2|chunkType-child|stype-|voicetype-	4	lwg__psp	_	_
6	sone	sonA	NN	n	lex-sonA|cat-n|gen-m|num-sg|pers-3|case-o|vib-0_kA|tam-0|chunkId-NP3|chunkType-head|stype-|voicetype-	8	r6	_	_
7	ke	kA	PSP	psp	lex-kA|cat-psp|gen-m|num-pl|pers-|case-d|vib-|tam-|chunkId-NP3|chunkType-child|stype-|voicetype-	6	lwg__psp	_	_
8	xAma	xAma	NN	n	lex-xAma|cat-n|gen-m|num-pl|pers-3|case-d|vib-0|tam-0|chunkId-NP4|chunkType-head|stype-|voicetype-	15	k1	_	_
9	6325	6325	QC	num	lex-6325|cat-num|gen-any|num-any|pers-|case-any|vib-|tam-|chunkId-NP5|chunkType-child|stype-|voicetype-	10	nmod__adj	_	_
10	rupaye	rupayA	NN	n	lex-rupayA|cat-n|gen-m|num-pl|pers-3|case-d|vib-0|tam-0|chunkId-NP5|chunkType-child|stype-|voicetype-	13	nmod	_	_
11	prawi	prawi	RP	avy	lex-prawi|cat-avy|gen-|num-|pers-|case-|vib-|tam-|chunkId-NP5|chunkType-child|stype-|voicetype-	13	lwg__rp	_	_
12	10	10	QC	num	lex-10|cat-num|gen-any|num-any|pers-|case-any|vib-|tam-|chunkId-NP5|chunkType-child|stype-|voicetype-	13	nmod__adj	_	_
13	grAma	grAma	NN	n	lex-grAma|cat-n|gen-m|num-sg|pers-3|case-o|vib-0_para|tam-0|chunkId-NP5|chunkType-head|stype-|voicetype-	15	k7	_	_
14	para	para	PSP	psp	lex-para|cat-psp|gen-|num-|pers-|case-|vib-|tam-|chunkId-NP5|chunkType-child|stype-|voicetype-	13	lwg__psp	_	_
15	pahuMce	pahuMca	VM	v	lex-pahuMca|cat-v|gen-m|num-pl|pers-any|case-|vib-yA_WA|tam-yA|chunkId-VGF|chunkType-head|stype-declarative|voicetype-active	0	main	_	_
16	We	WA	VAUX	v	lex-WA|cat-v|gen-m|num-pl|pers-any|case-|vib-WA|tam-WA|chunkId-VGF|chunkType-child|stype-|voicetype-	15	lwg__vaux	_	_
17	.	.	SYM	punc	lex-.|cat-punc|gen-|num-|pers-|case-|vib-|tam-|chunkId-BLK|chunkType-head|stype-|voicetype-	15	rsym	_	_

1	xUsarI	xUsarA	QO	num	lex-xUsarA|cat-num|gen-f|num-sg|pers-|case-d|vib-|tam-|chunkId-NP|chunkType-head|stype-|voicetype-	18	sent-adv	_	_
2	waraPa	waraPa	NST	nst	lex-waraPa|cat-nst|gen-f|num-sg|pers-3|case-d|vib-|tam-|chunkId-NP|chunkType-child|stype-|voicetype-	1	lwg__psp	_	_
3	muMbaI	muMbaI	NNP	n	lex-muMbaI|cat-n|gen-f|num-sg|pers-3|case-o|vib-0_meM|tam-0|chunkId-NP2|chunkType-head|stype-|voicetype-	18	k7p	_	_
4	meM	meM	PSP	psp	lex-meM|cat-psp|gen-|num-|pers-|case-|vib-|tam-|chunkId-NP2|chunkType-child|stype-|voicetype-	3	lwg__psp	_	_
5	sonA	sonA	NNC	n	lex-sonA|cat-n|gen-m|num-sg|pers-3|case-d|vib-0|tam-0|chunkId-NP3|chunkType-child|stype-|voicetype-	6	pof__cn	_	_
6	stEMdarda	stEMdarda	NN	n	lex-stEMdarda|cat-n|gen-m|num-sg|pers-3|case-d|vib-0|tam-0|chunkId-NP3|chunkType-head|stype-|voicetype-	18	k1	_	_
7	35	35	QC	num	lex-35|cat-num|gen-any|num-any|pers-|case-any|vib-|tam-|chunkId-NP4|chunkType-child|stype-|voicetype-	8	nmod__adj	_	_
8	rupaye	rupayA	NN	n	lex-rupayA|cat-n|gen-m|num-pl|pers-3|case-d|vib-0|tam-0|chunkId-NP4|chunkType-head|stype-|voicetype-	10	k2	_	_
9	majabUwa	majabUwa	JJ	adj	lex-majabUwa|cat-adj|gen-any|num-any|pers-|case-|vib-|tam-|chunkId-JJP|chunkType-head|stype-|voicetype-	10	pof	_	_
10	hokara	ho	VM	v	lex-ho|cat-v|gen-any|num-any|pers-any|case-|vib-kara|tam-kara|chunkId-VGNF|chunkType-head|stype-|voicetype-	18	vmod	_	_
11	6365	6365	QC	num	lex-6365|cat-num|gen-any|num-any|pers-|case-any|vib-|tam-|chunkId-NP5|chunkType-child|stype-|voicetype-	12	nmod__adj	_	_
12	rupaye	rupayA	NN	n	lex-rupayA|cat-n|gen-m|num-pl|pers-3|case-d|vib-0|tam-0|chunkId-NP5|chunkType-child|stype-|voicetype-	15	nmod	_	_
13	prawi	prawi	RP	avy	lex-prawi|cat-avy|gen-|num-|pers-|case-|vib-|tam-|chunkId-NP5|chunkType-child|stype-|voicetype-	15	lwg__rp	_	_
14	xasa	xasa	QC	num	lex-xasa|cat-num|gen-any|num-any|pers-|case-any|vib-|tam-|chunkId-NP5|chunkType-child|stype-|voicetype-	15	nmod__adj	_	_
15	grAma	grAma	NN	n	lex-grAma|cat-n|gen-m|num-sg|pers-3|case-o|vib-0_para|tam-0|chunkId-NP5|chunkType-head|stype-|voicetype-	18	k7	_	_
16	para	para	PSP	psp	lex-para|cat-psp|gen-|num-|pers-|case-|vib-|tam-|chunkId-NP5|chunkType-child|stype-|voicetype-	15	lwg__psp	_	_
17	baMxa	baMxa	JJ	adj	lex-baMxa|cat-adj|gen-any|num-any|pers-|case-|vib-|tam-|chunkId-JJP2|chunkType-head|stype-|voicetype-	18	pof	_	_
18	huA	ho	VM	v	lex-ho|cat-v|gen-m|num-sg|pers-any|case-|vib-yA|tam-yA|chunkId-VGF|chunkType-head|stype-declarative|voicetype-active	0	main	_	_
19	.	.	SYM	punc	lex-.|cat-punc|gen-|num-|pers-|case-|vib-|tam-|chunkId-BLK|chunkType-head|stype-|voicetype-	18	rsym	_	_

1	xillI	xillI	NNP	n	lex-xillI|cat-n|gen-f|num-sg|pers-3|case-o|vib-0_meM|tam-0|chunkId-NP|chunkType-head|stype-|voicetype-	18	k7p	_	_
2	meM	meM	PSP	psp	lex-meM|cat-psp|gen-|num-|pers-|case-|vib-|tam-|chunkId-NP|chunkType-child|stype-|voicetype-	1	lwg__psp	_	_
3	cAMxI	cAMxI	NNC	n	lex-cAMxI|cat-n|gen-f|num-sg|pers-3|case-d|vib-0|tam-0|chunkId-NP2|chunkType-child|stype-|voicetype-	6	pof__cn	_	_
4	hAjira	hAjira	NNC	n	lex-hAjira|cat-n|gen-m|num-sg|pers-3|case-d|vib-0|tam-0|chunkId-NP2|chunkType-child|stype-|voicetype-	6	pof__cn	_	_
5	,	COMMA	SYM	punc	lex-COMMA|cat-punc|gen-|num-|pers-|case-|vib-|tam-|chunkId-NP2|chunkType-child|stype-|voicetype-	6	pof__cn	_	_
6	999	999	QC	num	lex-999|cat-num|gen-any|num-any|pers-|case-any|vib-|tam-|chunkId-NP2|chunkType-child|stype-|voicetype-	7	nmod__adj	_	_
7	taMca	taMca	NN	n	lex-taMca|cat-n|gen-m|num-sg|pers-3|case-o|vib-0_kA|tam-0|chunkId-NP2|chunkType-head|stype-|voicetype-	9	r6	_	_
8	kA	kA	PSP	psp	lex-kA|cat-psp|gen-m|num-sg|pers-|case-d|vib-|tam-|chunkId-NP2|chunkType-child|stype-|voicetype-	7	lwg__psp	_	_
9	xAma	xAma	NN	n	lex-xAma|cat-n|gen-m|num-sg|pers-3|case-d|vib-0|tam-0|chunkId-NP3|chunkType-head|stype-|voicetype-	18	k1	_	_
10	90	90	QC	num	lex-90|cat-num|gen-any|num-any|pers-|case-any|vib-|tam-|chunkId-NP4|chunkType-child|stype-|voicetype-	11	nmod__adj	_	_
11	rupaye	rupayA	NN	n	lex-rupayA|cat-n|gen-m|num-pl|pers-3|case-d|vib-0|tam-0|chunkId-NP4|chunkType-head|stype-|voicetype-	12	k2	_	_
12	uCalakara	uCala	VM	v	lex-uCala|cat-v|gen-any|num-any|pers-any|case-|vib-kara|tam-kara|chunkId-VGNF|chunkType-head|stype-|voicetype-	18	vmod	_	_
13	11220	11220	QC	num	lex-11220|cat-num|gen-any|num-any|pers-|case-any|vib-|tam-|chunkId-NP5|chunkType-child|stype-|voicetype-	14	nmod__adj	_	_
14	rupaye	rupayA	NN	n	lex-rupayA|cat-n|gen-m|num-pl|pers-3|case-d|vib-0|tam-0|chunkId-NP5|chunkType-child|stype-|voicetype-	16	nmod	_	_
15	prawi	prawi	RP	avy	lex-prawi|cat-avy|gen-|num-|pers-|case-|vib-|tam-|chunkId-NP5|chunkType-child|stype-|voicetype-	16	lwg__rp	_	_
16	kilo	kilo	NN	n	lex-kilo|cat-n|gen-m|num-sg|pers-3|case-o|vib-0_para|tam-0|chunkId-NP5|chunkType-head|stype-|voicetype-	18	k7	_	_
17	para	para	PSP	psp	lex-para|cat-psp|gen-|num-|pers-|case-|vib-|tam-|chunkId-NP5|chunkType-child|stype-|voicetype-	16	lwg__psp	_	_
18	pahuMca	pahuMca	VM	v	lex-pahuMca|cat-v|gen-any|num-sg|pers-any|case-|vib-0_jA+yA1|tam-0|chunkId-VGF|chunkType-head|stype-declarative|voicetype-active	0	main	_	_
19	gayA	jA	VAUX	v	lex-jA|cat-v|gen-m|num-sg|pers-any|case-|vib-yA1|tam-yA1|chunkId-VGF|chunkType-child|stype-|voicetype-	18	lwg__vaux	_	_
20	.	.	SYM	punc	lex-.|cat-punc|gen-|num-|pers-|case-|vib-|tam-|chunkId-BLK|chunkType-head|stype-|voicetype-	18	rsym	_	_

1	samarWana	samarWana	NN	n	lex-samarWana|cat-n|gen-m|num-sg|pers-3|case-o|vib-0_meM|tam-0|chunkId-NP|chunkType-head|stype-|voicetype-	12	k7	_	_
2	meM	meM	PSP	psp	lex-meM|cat-psp|gen-|num-|pers-|case-|vib-|tam-|chunkId-NP|chunkType-child|stype-|voicetype-	1	lwg__psp	_	_
3	cAMxI	cAMxI	NNC	n	lex-cAMxI|cat-n|gen-f|num-sg|pers-3|case-d|vib-0|tam-0|chunkId-NP2|chunkType-child|stype-|voicetype-	4	pof__cn	_	_
4	sikkA	sikkA	NN	n	lex-sikkA|cat-n|gen-m|num-sg|pers-3|case-o|vib-0|tam-0|chunkId-NP2|chunkType-head|stype-|voicetype-	5	ccof	_	_
5	va	va	CC	avy	lex-va|cat-avy|gen-|num-|pers-|case-|vib-|tam-|chunkId-CCP|chunkType-head|stype-|voicetype-	12	k7	_	_
6	ginnI	ginnI	NN	n	lex-ginnI|cat-n|gen-f|num-sg|pers-3|case-o|vib-0_meM|tam-0|chunkId-NP3|chunkType-head|stype-|voicetype-	5	ccof	_	_
7	meM	meM	PSP	psp	lex-meM|cat-psp|gen-|num-|pers-|case-|vib-|tam-|chunkId-NP3|chunkType-child|stype-|voicetype-	6	lwg__psp	_	_
8	BI	BI	RP	avy	lex-BI|cat-avy|gen-|num-|pers-|case-|vib-|tam-|chunkId-NP3|chunkType-child|stype-|voicetype-	6	lwg__rp	_	_
9	BArI	BArI	JJ	adj	lex-BArI|cat-adj|gen-any|num-any|pers-|case-d|vib-|tam-|chunkId-NP4|chunkType-child|stype-|voicetype-	10	nmod__adj	_	_
10	wejI	wejI	NN	n	lex-wejI|cat-n|gen-f|num-sg|pers-3|case-d|vib-0|tam-0|chunkId-NP4|chunkType-head|stype-|voicetype-	12	k2	_	_
11	xarja	xarja	JJ	adj	lex-xarja|cat-adj|gen-any|num-any|pers-|case-|vib-|tam-|chunkId-JJP|chunkType-head|stype-|voicetype-	12	pof	_	_
12	kI	kara	VM	v	lex-kara|cat-v|gen-f|num-sg|pers-any|case-|vib-yA_jA+yA1|tam-yA|chunkId-VGF|chunkType-head|stype-declarative|voicetype-active	0	main	_	_
13	gaI	jA	VAUX	v	lex-jA|cat-v|gen-f|num-sg|pers-any|case-|vib-yA1|tam-yA1|chunkId-VGF|chunkType-child|stype-|voicetype-	12	lwg__vaux	_	_
14	.	.	SYM	punc	lex-.|cat-punc|gen-|num-|pers-|case-|vib-|tam-|chunkId-BLK|chunkType-head|stype-|voicetype-	12	rsym	_	_

