1	SrIrAma	SrIrAma	NNPC	n	lex-SrIrAma|cat-n|gen-m|num-sg|pers-3|case-d|vib-0|tam-0|chunkId-NP|chunkType-child|stype-|voicetype-	6	pof__cn	_	_
2	janmaBUmi	janmaBUmi	NNPC	n	lex-janmaBUmi|cat-n|gen-f|num-sg|pers-3|case-d|vib-0|tam-0|chunkId-NP|chunkType-child|stype-|voicetype-	6	pof__cn	_	_
3	maMxira	maMxira	NNPC	n	lex-maMxira|cat-n|gen-m|num-sg|pers-3|case-d|vib-0|tam-0|chunkId-NP|chunkType-child|stype-|voicetype-	6	pof__cn	_	_
4	-	-	SYM	punc	lex--|cat-punc|gen-|num-|pers-|case-|vib-|tam-|chunkId-NP|chunkType-child|stype-|voicetype-	7	rsym	_	_
5	bAbarI	bAbarI	NNPC	n	lex-bAbarI|cat-n|gen-f|num-sg|pers-3|case-d|vib-0|tam-0|chunkId-NP|chunkType-child|stype-|voicetype-	7	nmod__adj	_	_
6	masjixa	masjixa	NNP	n	lex-masjixa|cat-n|gen-f|num-sg|pers-3|case-d|vib-0|tam-0|chunkId-NP|chunkType-child|stype-|voicetype-	7	nmod__adj	_	_
7	prakaraNa	prakaraNa	NN	n	lex-prakaraNa|cat-n|gen-m|num-sg|pers-3|case-o|vib-0_kA|tam-0|chunkId-NP|chunkType-head|stype-|voicetype-	10	r6	_	_
8	ke	kA	PSP	psp	lex-kA|cat-psp|gen-m|num-sg|pers-|case-o|vib-|tam-|chunkId-NP|chunkType-child|stype-|voicetype-	7	lwg__psp	_	_
9	sarvamAnya	sarvamAnya	JJ	adj	lex-sarvamAnya|cat-adj|gen-any|num-any|pers-|case-o|vib-|tam-|chunkId-NP2|chunkType-child|stype-|voicetype-	10	nmod__adj	_	_
10	samAXAna	samAXAna	NN	n	lex-samAXAna|cat-n|gen-m|num-sg|pers-3|case-o|vib-0_ke_lie|tam-0|chunkId-NP2|chunkType-head|stype-|voicetype-	27	rt	_	_
11	ke	ke	PSP	psp	lex-ke|cat-psp|gen-|num-|pers-|case-|vib-|tam-|chunkId-NP2|chunkType-child|stype-|voicetype-	10	lwg__psp	_	_
12	lie	lie	PSP	psp	lex-lie|cat-psp|gen-|num-|pers-|case-|vib-|tam-|chunkId-NP2|chunkType-child|stype-|voicetype-	10	lwg__psp	_	_
13	OYla	OYla	NNPC	avy	lex-OYla|cat-avy|gen-|num-|pers-|case-|vib-|tam-|chunkId-NP3|chunkType-child|stype-|voicetype-	18	pof__cn	_	_
14	iMdiyA	iMdiyA	NNPC	n	lex-iMdiyA|cat-n|gen-m|num-sg|pers-3|case-d|vib-0|tam-0|chunkId-NP3|chunkType-child|stype-|voicetype-	18	pof__cn	_	_
15	muslima	muslima	NNPC	n	lex-muslima|cat-n|gen-m|num-sg|pers-3|case-d|vib-0|tam-0|chunkId-NP3|chunkType-child|stype-|voicetype-	18	pof__cn	_	_
16	parsanala	parsanala	NNPC	n	lex-parsanala|cat-n|gen-m|num-sg|pers-3|case-d|vib-0|tam-0|chunkId-NP3|chunkType-child|stype-|voicetype-	18	pof__cn	_	_
17	lOY	lOY	NNPC	n	lex-lOY|cat-n|gen-m|num-sg|pers-3|case-d|vib-0|tam-0|chunkId-NP3|chunkType-child|stype-|voicetype-	18	pof__cn	_	_
18	borda	borda	NNP	n	lex-borda|cat-n|gen-m|num-sg|pers-3|case-o|vib-0_se|tam-0|chunkId-NP3|chunkType-head|stype-|voicetype-	27	vmod	_	_
19	se	se	PSP	psp	lex-se|cat-psp|gen-|num-|pers-|case-|vib-|tam-|chunkId-NP3|chunkType-child|stype-|voicetype-	18	lwg__psp	_	_
20	nae	nayA	JJ	adj	lex-nayA|cat-adj|gen-m|num-pl|pers-|case-o|vib-|tam-|chunkId-NP4|chunkType-child|stype-|voicetype-	21	nmod__adj	_	_
21	praswAvoM	praswAva	NN	n	lex-praswAva|cat-n|gen-m|num-pl|pers-3|case-o|vib-0_ke_wahawa|tam-0|chunkId-NP4|chunkType-head|stype-|voicetype-	27	k7a	_	_
22	ke	ke	PSP	psp	lex-ke|cat-psp|gen-|num-|pers-|case-|vib-|tam-|chunkId-NP4|chunkType-child|stype-|voicetype-	21	lwg__psp	_	_
23	wahawa	wahawa	PSP	psp	lex-wahawa|cat-psp|gen-|num-|pers-|case-|vib-|tam-|chunkId-NP4|chunkType-child|stype-|voicetype-	21	lwg__psp	_	_
24	bAwacIwa	bAwacIwa	NN	n	lex-bAwacIwa|cat-n|gen-f|num-sg|pers-3|case-o|vib-0_kA|tam-0|chunkId-NP5|chunkType-head|stype-|voicetype-	26	r6-k1	_	_
25	kI	kA	PSP	psp	lex-kA|cat-psp|gen-f|num-sg|pers-|case-d|vib-|tam-|chunkId-NP5|chunkType-child|stype-|voicetype-	24	lwg__psp	_	_
26	wEyArI	wEyArI	NN	n	lex-wEyArI|cat-n|gen-f|num-sg|pers-3|case-d|vib-0|tam-0|chunkId-NP6|chunkType-head|stype-|voicetype-	27	pof	_	_
27	hE	hE	VM	v	lex-hE|cat-v|gen-any|num-sg|pers-3|case-|vib-hE|tam-hE|chunkId-VGF|chunkType-head|stype-declarative|voicetype-active	0	main	_	_
28	.	.	SYM	punc	lex-.|cat-punc|gen-|num-|pers-|case-|vib-|tam-|chunkId-BLK|chunkType-head|stype-|voicetype-	27	rsym	_	_

1	kAMcI	kAMcI	NNPC	n	lex-kAMcI|cat-n|gen-m|num-sg|pers-3|case-d|vib-0|tam-0|chunkId-NP|chunkType-child|stype-|voicetype-	3	pof__cn	_	_
2	kAmakoti	kAmakoti	NNPC	n	lex-kAmakoti|cat-n|gen-m|num-sg|pers-3|case-d|vib-0|tam-0|chunkId-NP|chunkType-child|stype-|voicetype-	3	pof__cn	_	_
3	pITa	pITa	NNP	n	lex-pITa|cat-n|gen-f|num-sg|pers-3|case-o|vib-0_kA|tam-0|chunkId-NP|chunkType-head|stype-|voicetype-	5	r6	_	_
4	ke	kA	PSP	psp	lex-kA|cat-psp|gen-m|num-sg|pers-|case-o|vib-|tam-|chunkId-NP|chunkType-child|stype-|voicetype-	3	lwg__psp	_	_
5	SaMkarAcArya	SaMkarAcArya	NN	n	lex-SaMkarAcArya|cat-n|gen-m|num-sg|pers-3|case-o|vib-0|tam-0|chunkId-NP2|chunkType-head|stype-|voicetype-	8	nmod	_	_
6	svAmI	svAmI	NNC	n	lex-svAmI|cat-n|gen-m|num-sg|pers-3|case-d|vib-0|tam-0|chunkId-NP3|chunkType-child|stype-|voicetype-	7	pof__cn	_	_
7	jayeMxra	jayeMxra	NNPC	n	lex-jayeMxra|cat-n|gen-m|num-sg|pers-3|case-d|vib-0|tam-0|chunkId-NP3|chunkType-child|stype-|voicetype-	8	pof__cn	_	_
8	sarasvawI	sarasvawI	NNP	n	lex-sarasvawI|cat-n|gen-any|num-sg|pers-3|case-o|vib-0_ne|tam-0|chunkId-NP3|chunkType-head|stype-|voicetype-	16	k1	_	_
9	ne	ne	PSP	psp	lex-ne|cat-psp|gen-|num-|pers-|case-|vib-|tam-|chunkId-NP3|chunkType-child|stype-|voicetype-	8	lwg__psp	_	_
10	samAXAna	samAXAna	NN	n	lex-samAXAna|cat-n|gen-m|num-sg|pers-3|case-o|vib-0_ke_lie|tam-0|chunkId-NP4|chunkType-head|stype-|voicetype-	16	rt	_	_
11	ke	ke	PSP	psp	lex-ke|cat-psp|gen-|num-|pers-|case-|vib-|tam-|chunkId-NP4|chunkType-child|stype-|voicetype-	10	lwg__psp	_	_
12	lie	lie	PSP	psp	lex-lie|cat-psp|gen-|num-|pers-|case-|vib-|tam-|chunkId-NP4|chunkType-child|stype-|voicetype-	10	lwg__psp	_	_
13	punaH	punaH	RB	adv	lex-punaH|cat-adv|gen-|num-|pers-|case-|vib-|tam-|chunkId-RBP|chunkType-head|stype-|voicetype-	16	adv	_	_
14	prayAsa	prayAsa	NN	n	lex-prayAsa|cat-n|gen-m|num-sg|pers-3|case-d|vib-0|tam-0|chunkId-NP5|chunkType-head|stype-|voicetype-	16	k2	_	_
15	AraMBa	AramBa	NN	n	lex-AramBa|cat-n|gen-m|num-sg|pers-3|case-d|vib-0|tam-0|chunkId-NP6|chunkType-head|stype-|voicetype-	16	pof	_	_
16	kara	kara	VM	v	lex-kara|cat-v|gen-m|num-sg|pers-3|case-|vib-0_xe+yA_hE|tam-0|chunkId-VGF|chunkType-head|stype-declarative|voicetype-active	0	main	_	_
17	xiyA	xe	VAUX	v	lex-xe|cat-v|gen-m|num-sg|pers-any|case-|vib-yA|tam-yA|chunkId-VGF|chunkType-child|stype-|voicetype-	16	lwg__vaux	_	_
18	hE	hE	VAUX	v	lex-hE|cat-v|gen-any|num-sg|pers-3|case-|vib-hE|tam-hE|chunkId-VGF|chunkType-child|stype-|voicetype-	16	lwg__vaux	_	_
19	.	.	SYM	punc	lex-.|cat-punc|gen-|num-|pers-|case-|vib-|tam-|chunkId-BLK|chunkType-head|stype-|voicetype-	16	rsym	_	_

1	ayoXyA	ayoXyA	NNP	n	lex-ayoXyA|cat-n|gen-m|num-sg|pers-3|case-d|vib-0|tam-0|chunkId-NP|chunkType-child|stype-|voicetype-	2	nmod__adj	_	_
2	vivAxa	vivAxa	NN	n	lex-vivAxa|cat-n|gen-m|num-sg|pers-3|case-o|vib-0_kA|tam-0|chunkId-NP|chunkType-head|stype-|voicetype-	4	r6	_	_
3	ke	kA	PSP	psp	lex-kA|cat-psp|gen-m|num-sg|pers-|case-o|vib-|tam-|chunkId-NP|chunkType-child|stype-|voicetype-	2	lwg__psp	_	_
4	hala	hala	NN	n	lex-hala|cat-n|gen-m|num-sg|pers-3|case-o|vib-0_ke_lie|tam-0|chunkId-NP2|chunkType-head|stype-|voicetype-	14	rt	_	_
5	ke	ke	PSP	psp	lex-ke|cat-psp|gen-|num-|pers-|case-|vib-|tam-|chunkId-NP2|chunkType-child|stype-|voicetype-	4	lwg__psp	_	_
6	lie	lie	PSP	psp	lex-lie|cat-psp|gen-|num-|pers-|case-|vib-|tam-|chunkId-NP2|chunkType-child|stype-|voicetype-	4	lwg__psp	_	_
7	ayoXyA	ayoXyA	NNPC	n	lex-ayoXyA|cat-n|gen-m|num-sg|pers-3|case-d|vib-0|tam-0|chunkId-NP3|chunkType-child|stype-|voicetype-	11	pof__cn	_	_
8	prakaraNa	prakaraNa	NNPC	n	lex-prakaraNa|cat-n|gen-m|num-sg|pers-3|case-d|vib-0|tam-0|chunkId-NP3|chunkType-child|stype-|voicetype-	11	pof__cn	_	_
9	samAXAna	samAXAna	NNPC	n	lex-samAXAna|cat-n|gen-m|num-sg|pers-3|case-d|vib-0|tam-0|chunkId-NP3|chunkType-child|stype-|voicetype-	11	pof__cn	_	_
10	samanvaya	samanvaya	NNPC	n	lex-samanvaya|cat-n|gen-m|num-sg|pers-3|case-d|vib-0|tam-0|chunkId-NP3|chunkType-child|stype-|voicetype-	11	pof__cn	_	_
11	samiwi	samiwi	NNP	n	lex-samiwi|cat-n|gen-f|num-sg|pers-3|case-o|vib-0_kA|tam-0|chunkId-NP3|chunkType-head|stype-|voicetype-	13	r6-k2	_	_
12	kA	kA	PSP	psp	lex-kA|cat-psp|gen-m|num-sg|pers-|case-d|vib-|tam-|chunkId-NP3|chunkType-child|stype-|voicetype-	11	lwg__psp	_	_
13	gaTana	gaTana	NN	n	lex-gaTana|cat-n|gen-m|num-sg|pers-3|case-d|vib-0|tam-0|chunkId-NP4|chunkType-head|stype-|voicetype-	14	pof	_	_
14	kiyA	kara	VM	v	lex-kara|cat-v|gen-m|num-sg|pers-3|case-|vib-yA_jA+yA1_hE|tam-yA|chunkId-VGF|chunkType-head|stype-declarative|voicetype-passive	0	main	_	_
15	gayA	jA	VAUX	v	lex-jA|cat-v|gen-m|num-sg|pers-any|case-|vib-yA1|tam-yA1|chunkId-VGF|chunkType-child|stype-|voicetype-	14	lwg__vaux	_	_
16	hE	hE	VAUX	v	lex-hE|cat-v|gen-any|num-sg|pers-3|case-|vib-hE|tam-hE|chunkId-VGF|chunkType-child|stype-|voicetype-	14	lwg__vaux	_	_
17	.	.	SYM	punc	lex-.|cat-punc|gen-|num-|pers-|case-|vib-|tam-|chunkId-BLK|chunkType-head|stype-|voicetype-	14	rsym	_	_

1	borda	borda	NN	n	lex-borda|cat-n|gen-m|num-sg|pers-3|case-o|vib-0_se|tam-0|chunkId-NP|chunkType-head|stype-|voicetype-	19	ras-k1	_	_
2	se	se	PSP	psp	lex-se|cat-psp|gen-|num-|pers-|case-|vib-|tam-|chunkId-NP|chunkType-child|stype-|voicetype-	1	lwg__psp	_	_
3	bAwacIwa	bAwacIwa	NN	n	lex-bAwacIwa|cat-n|gen-f|num-sg|pers-3|case-o|vib-0_ke_lie|tam-0|chunkId-NP2|chunkType-head|stype-|voicetype-	19	rt	_	_
4	ke	ke	PSP	psp	lex-ke|cat-psp|gen-|num-|pers-|case-|vib-|tam-|chunkId-NP2|chunkType-child|stype-|voicetype-	3	lwg__psp	_	_
5	lie	lie	PSP	psp	lex-lie|cat-psp|gen-|num-|pers-|case-|vib-|tam-|chunkId-NP2|chunkType-child|stype-|voicetype-	3	lwg__psp	_	_
6	nae	nayA	JJ	adj	lex-nayA|cat-adj|gen-m|num-sg|pers-|case-o|vib-|tam-|chunkId-NP3|chunkType-child|stype-|voicetype-	7	nmod__adj	_	_
7	praswAva	praswAva	NN	n	lex-praswAva|cat-n|gen-m|num-sg|pers-3|case-o|vib-0_para|tam-0|chunkId-NP3|chunkType-head|stype-|voicetype-	19	k7	_	_
8	para	para	PSP	psp	lex-para|cat-psp|gen-|num-|pers-|case-|vib-|tam-|chunkId-NP3|chunkType-child|stype-|voicetype-	7	lwg__psp	_	_
9	carcA	carcA	NN	n	lex-carcA|cat-n|gen-f|num-sg|pers-3|case-o|vib-0_ko|tam-0|chunkId-NP4|chunkType-head|stype-|voicetype-	19	k4	_	_
10	ko	ko	PSP	psp	lex-ko|cat-psp|gen-|num-|pers-|case-|vib-|tam-|chunkId-NP4|chunkType-child|stype-|voicetype-	9	lwg__psp	_	_
11	ayoXyA	ayoXyA	NNP	n	lex-ayoXyA|cat-n|gen-m|num-sg|pers-3|case-o|vib-0_meM|tam-0|chunkId-NP5|chunkType-head|stype-|voicetype-	19	k7p	_	_
12	meM	meM	PSP	psp	lex-meM|cat-psp|gen-|num-|pers-|case-|vib-|tam-|chunkId-NP5|chunkType-child|stype-|voicetype-	11	lwg__psp	_	_
13	isI	yaha	DEM	pn	lex-yaha|cat-pn|gen-any|num-sg|pers-3|case-o|vib-|tam-|chunkId-NP6|chunkType-child|stype-|voicetype-	14	nmod__adj	_	_
14	mAha	mAha	NN	n	lex-mAha|cat-n|gen-m|num-sg|pers-3|case-o|vib-0_kA|tam-0|chunkId-NP6|chunkType-head|stype-|voicetype-	17	r6	_	_
15	ke	kA	PSP	psp	lex-kA|cat-psp|gen-m|num-sg|pers-|case-o|vib-|tam-|chunkId-NP6|chunkType-child|stype-|voicetype-	14	lwg__psp	_	_
16	wIsare	wIsarA	QO	num	lex-wIsarA|cat-num|gen-m|num-sg|pers-|case-d|vib-|tam-|chunkId-NP7|chunkType-child|stype-|voicetype-	17	nmod__adj	_	_
17	haPwe	haPwA	NN	n	lex-haPwA|cat-n|gen-m|num-sg|pers-3|case-d|vib-0|tam-0|chunkId-NP7|chunkType-head|stype-|voicetype-	19	k7t	_	_
18	bETaka	bETaka	NN	n	lex-bETaka|cat-n|gen-f|num-sg|pers-3|case-d|vib-0|tam-0|chunkId-NP8|chunkType-head|stype-|voicetype-	19	pof	_	_
19	hone	ho	VM	v	lex-ho|cat-v|gen-f|num-sg|pers-3|case-|vib-nA_vAlA_hE|tam-nA|chunkId-VGF|chunkType-head|stype-declarative|voicetype-active	0	main	_	_
20	vAlI	vAlA	VAUX	v	lex-vAlA|cat-v|gen-f|num-sg|pers-3|case-|vib-0|tam-0|chunkId-VGF|chunkType-child|stype-|voicetype-	19	lwg__vaux	_	_
21	hE	hE	VAUX	v	lex-hE|cat-v|gen-any|num-sg|pers-3|case-|vib-hE|tam-hE|chunkId-VGF|chunkType-child|stype-|voicetype-	19	lwg__vaux	_	_
22	.	.	SYM	punc	lex-.|cat-punc|gen-|num-|pers-|case-|vib-|tam-|chunkId-BLK|chunkType-head|stype-|voicetype-	19	rsym	_	_

1	keMxra	keMxra	NNP	n	lex-keMxra|cat-n|gen-m|num-sg|pers-3|case-o|vib-0_meM|tam-0|chunkId-NP|chunkType-head|stype-|voicetype-	21	k7	_	_
2	meM	meM	PSP	psp	lex-meM|cat-psp|gen-|num-|pers-|case-|vib-|tam-|chunkId-NP|chunkType-child|stype-|voicetype-	1	lwg__psp	_	_
3	naI	nayA	JJ	adj	lex-nayA|cat-adj|gen-f|num-sg|pers-|case-o|vib-|tam-|chunkId-NP2|chunkType-child|stype-|voicetype-	4	nmod__adj	_	_
4	sarakAra	sarakAra	NN	n	lex-sarakAra|cat-n|gen-f|num-sg|pers-3|case-o|vib-0_kA|tam-0|chunkId-NP2|chunkType-head|stype-|voicetype-	6	r6	_	_
5	ke	kA	PSP	psp	lex-kA|cat-psp|gen-m|num-sg|pers-|case-o|vib-|tam-|chunkId-NP2|chunkType-child|stype-|voicetype-	4	lwg__psp	_	_
6	gaTana	gaTana	NN	n	lex-gaTana|cat-n|gen-m|num-sg|pers-3|case-o|vib-0_ke_sAWa|tam-0|chunkId-NP3|chunkType-head|stype-|voicetype-	21	vmod	_	_
7	ke	ke	PSP	psp	lex-ke|cat-psp|gen-|num-|pers-|case-|vib-|tam-|chunkId-NP3|chunkType-child|stype-|voicetype-	6	lwg__psp	_	_
8	sAWa	sAWa	NST	nst	lex-sAWa|cat-nst|gen-m|num-sg|pers-3|case-d|vib-|tam-|chunkId-NP3|chunkType-child|stype-|voicetype-	6	lwg__psp	_	_
9	ayoXyA	ayoXyA	NNP	n	lex-ayoXyA|cat-n|gen-m|num-sg|pers-3|case-d|vib-0|tam-0|chunkId-NP4|chunkType-child|stype-|voicetype-	10	nmod__adj	_	_
10	vivAxa	vivAxa	NN	n	lex-vivAxa|cat-n|gen-m|num-sg|pers-3|case-o|vib-0_kA|tam-0|chunkId-NP4|chunkType-head|stype-|voicetype-	12	r6	_	_
11	ke	kA	PSP	psp	lex-kA|cat-psp|gen-m|num-sg|pers-|case-o|vib-|tam-|chunkId-NP4|chunkType-child|stype-|voicetype-	10	lwg__psp	_	_
12	samAXAna	samAXAna	NN	n	lex-samAXAna|cat-n|gen-m|num-sg|pers-3|case-o|vib-0_ke_lie|tam-0|chunkId-NP5|chunkType-head|stype-|voicetype-	21	rt	_	_
13	ke	ke	PSP	psp	lex-ke|cat-psp|gen-|num-|pers-|case-|vib-|tam-|chunkId-NP5|chunkType-child|stype-|voicetype-	12	lwg__psp	_	_
14	lie	lie	PSP	psp	lex-lie|cat-psp|gen-|num-|pers-|case-|vib-|tam-|chunkId-NP5|chunkType-child|stype-|voicetype-	12	lwg__psp	_	_
15	BI	BI	RP	avy	lex-BI|cat-avy|gen-|num-|pers-|case-|vib-|tam-|chunkId-NP5|chunkType-child|stype-|voicetype-	12	lwg__rp	_	_
16	nae	nayA	JJ	adj	lex-nayA|cat-adj|gen-m|num-sg|pers-|case-o|vib-|tam-|chunkId-NP6|chunkType-child|stype-|voicetype-	17	nmod__adj	_	_
17	sire	sirA	NN	n	lex-sirA|cat-n|gen-m|num-sg|pers-3|case-o|vib-0_se|tam-0|chunkId-NP6|chunkType-head|stype-|voicetype-	21	adv	_	_
18	se	se	PSP	psp	lex-se|cat-psp|gen-|num-|pers-|case-|vib-|tam-|chunkId-NP6|chunkType-child|stype-|voicetype-	17	lwg__psp	_	_
19	prayAsa	prayAsa	NN	n	lex-prayAsa|cat-n|gen-m|num-pl|pers-3|case-d|vib-0|tam-0|chunkId-NP7|chunkType-head|stype-|voicetype-	21	k1	_	_
20	SurU	SurU	NN	n	lex-SurU|cat-n|gen-m|num-sg|pers-3|case-d|vib-0|tam-0|chunkId-NP8|chunkType-head|stype-|voicetype-	21	pof	_	_
21	ho	ho	VM	v	lex-ho|cat-v|gen-m|num-pl|pers-3|case-|vib-0_jA+yA1_hE|tam-0|chunkId-VGF|chunkType-head|stype-declarative|voicetype-active	0	main	_	_
22	gae	jA	VAUX	v	lex-jA|cat-v|gen-m|num-pl|pers-any|case-|vib-yA1|tam-yA1|chunkId-VGF|chunkType-child|stype-|voicetype-	21	lwg__vaux	_	_
23	hEM	hE	VAUX	v	lex-hE|cat-v|gen-any|num-pl|pers-3|case-|vib-hE|tam-hE|chunkId-VGF|chunkType-child|stype-|voicetype-	21	lwg__vaux	_	_
24	.	.	SYM	punc	lex-.|cat-punc|gen-|num-|pers-|case-|vib-|tam-|chunkId-BLK|chunkType-head|stype-|voicetype-	21	rsym	_	_

1	isa	yaha	DEM	pn	lex-yaha|cat-pn|gen-any|num-sg|pers-3|case-o|vib-|tam-|chunkId-NP|chunkType-child|stype-|voicetype-	2	nmod__adj	_	_
2	bAra	bAra	NN	n	lex-bAra|cat-n|gen-f|num-sg|pers-3|case-d|vib-0|tam-0|chunkId-NP|chunkType-head|stype-|voicetype-	14	k7t	_	_
3	isakI	yaha	PRP	pn	lex-yaha|cat-pn|gen-f|num-sg|pers-3|case-o|vib-kA|tam-kA|chunkId-NP2|chunkType-head|stype-|voicetype-	4	r6	_	_
4	kamAna	kamAna	NN	n	lex-kamAna|cat-n|gen-f|num-sg|pers-3|case-d|vib-0|tam-0|chunkId-NP3|chunkType-head|stype-|voicetype-	14	k1	_	_
5	kAMcI	kAMcI	NNPC	n	lex-kAMcI|cat-n|gen-m|num-sg|pers-3|case-d|vib-0|tam-0|chunkId-NP4|chunkType-child|stype-|voicetype-	6	pof__cn	_	_
6	kAmikoti	kAmikoti	NNP	n	lex-kAmikoti|cat-n|gen-m|num-sg|pers-3|case-o|vib-0_kA|tam-0|chunkId-NP4|chunkType-head|stype-|voicetype-	8	r6	_	_
7	ke	kA	PSP	psp	lex-kA|cat-psp|gen-m|num-sg|pers-|case-o|vib-|tam-|chunkId-NP4|chunkType-child|stype-|voicetype-	6	lwg__psp	_	_
8	SaMkarAcArya	SaMkarAcArya	NN	n	lex-SaMkarAcArya|cat-n|gen-m|num-sg|pers-3|case-o|vib-0|tam-0|chunkId-NP5|chunkType-head|stype-|voicetype-	11	nmod	_	_
9	svAmI	svAmI	NNC	n	lex-svAmI|cat-n|gen-m|num-sg|pers-3|case-d|vib-0|tam-0|chunkId-NP6|chunkType-child|stype-|voicetype-	10	pof__cn	_	_
10	jayeMxra	jayeMxra	NNPC	n	lex-jayeMxra|cat-n|gen-m|num-sg|pers-3|case-d|vib-0|tam-0|chunkId-NP6|chunkType-child|stype-|voicetype-	11	pof__cn	_	_
11	sarasvawI	sarasvawI	NNP	n	lex-sarasvawI|cat-n|gen-any|num-sg|pers-3|case-o|vib-0_kA|tam-0|chunkId-NP6|chunkType-head|stype-|voicetype-	13	r6	_	_
12	ke	kA	PSP	psp	lex-kA|cat-psp|gen-m|num-pl|pers-|case-d|vib-|tam-|chunkId-NP6|chunkType-child|stype-|voicetype-	11	lwg__psp	_	_
13	hAWa	hAWa	NN	n	lex-hAWa|cat-n|gen-m|num-pl|pers-3|case-d|vib-0|tam-0|chunkId-NP7|chunkType-head|stype-|voicetype-	14	k1s	_	_
14	hE	hE	VM	v	lex-hE|cat-v|gen-any|num-sg|pers-3|case-|vib-hE|tam-hE|chunkId-VGF|chunkType-head|stype-declarative|voicetype-active	0	main	_	_
15	.	.	SYM	punc	lex-.|cat-punc|gen-|num-|pers-|case-|vib-|tam-|chunkId-BLK|chunkType-head|stype-|voicetype-	14	rsym	_	_

1	SaMkarAcArya	SaMkarAcArya	NN	n	lex-SaMkarAcArya|cat-n|gen-m|num-sg|pers-3|case-o|vib-0_ne|tam-0|chunkId-NP|chunkType-head|stype-|voicetype-	77	k1	_	_
2	ne	ne	PSP	psp	lex-ne|cat-psp|gen-|num-|pers-|case-|vib-|tam-|chunkId-NP|chunkType-child|stype-|voicetype-	1	lwg__psp	_	_
3	jUna	jUna	NNP	n	lex-jUna|cat-n|gen-m|num-sg|pers-3|case-o|vib-0_kA|tam-0|chunkId-NP2|chunkType-head|stype-|voicetype-	6	r6	_	_
4	ke	kA	PSP	psp	lex-kA|cat-psp|gen-m|num-sg|pers-|case-o|vib-|tam-|chunkId-NP2|chunkType-child|stype-|voicetype-	3	lwg__psp	_	_
5	pahale	pahalA	QO	num	lex-pahalA|cat-num|gen-m|num-sg|pers-|case-o|vib-|tam-|chunkId-NP3|chunkType-child|stype-|voicetype-	6	nmod__adj	_	_
6	sapwAha	sapwAha	NN	n	lex-sapwAha|cat-n|gen-m|num-sg|pers-3|case-o|vib-0_kA|tam-0|chunkId-NP3|chunkType-head|stype-|voicetype-	8	r6	_	_
7	ke	kA	PSP	psp	lex-kA|cat-psp|gen-m|num-sg|pers-|case-o|vib-|tam-|chunkId-NP3|chunkType-child|stype-|voicetype-	6	lwg__psp	_	_
8	apane	apanA	PRP	pn	lex-apanA|cat-pn|gen-m|num-any|pers-any|case-o|vib-0|tam-0|chunkId-NP4|chunkType-head|stype-|voicetype-	10	r6	_	_
9	xillI	xillI	NNP	n	lex-xillI|cat-n|gen-f|num-sg|pers-3|case-d|vib-0|tam-0|chunkId-NP5|chunkType-child|stype-|voicetype-	10	nmod__adj	_	_
10	pravAsa	pravAsa	NN	n	lex-pravAsa|cat-n|gen-m|num-sg|pers-3|case-o|vib-0_ke_xOrAna|tam-0|chunkId-NP5|chunkType-head|stype-|voicetype-	77	k7t	_	_
11	ke	ke	PSP	psp	lex-ke|cat-psp|gen-|num-|pers-|case-|vib-|tam-|chunkId-NP5|chunkType-child|stype-|voicetype-	10	lwg__psp	_	_
12	xOrAna	xOrAna	NST	nst	lex-xOrAna|cat-nst|gen-m|num-sg|pers-3|case-d|vib-|tam-|chunkId-NP5|chunkType-child|stype-|voicetype-	10	lwg__psp	_	_
13	muslima	muslima	JJ	adj	lex-muslima|cat-adj|gen-any|num-any|pers-|case-o|vib-|tam-|chunkId-NP6|chunkType-child|stype-|voicetype-	14	nmod__adj	_	_
14	rARtroM	rARtra	NN	n	lex-rARtra|cat-n|gen-m|num-pl|pers-3|case-o|vib-0_kA|tam-0|chunkId-NP6|chunkType-head|stype-|voicetype-	16	r6	_	_
15	ke	kA	PSP	psp	lex-kA|cat-psp|gen-m|num-pl|pers-|case-o|vib-|tam-|chunkId-NP6|chunkType-child|stype-|voicetype-	14	lwg__psp	_	_
16	rAjaxUwoM	rAjaxUwa	NN	n	lex-rAjaxUwa|cat-n|gen-m|num-pl|pers-3|case-o|vib-0|tam-0|chunkId-NP7|chunkType-head|stype-|voicetype-	61	ccof	_	_
17	,	COMMA	SYM	punc	lex-COMMA|cat-punc|gen-|num-|pers-|case-|vib-|tam-|chunkId-NP7|chunkType-child|stype-|voicetype-	16	rsym	_	_
18	yUpIe	yUpIe	NNP	n	lex-yUpIe|cat-n|gen-m|num-sg|pers-3|case-d|vib-0|tam-0|chunkId-NP8|chunkType-child|stype-|voicetype-	21	nmod__adj	_	_
19	aXyakRa	aXyakRa	NN	n	lex-aXyakRa|cat-n|gen-any|num-sg|pers-3|case-d|vib-0|tam-0|chunkId-NP8|chunkType-child|stype-|voicetype-	21	nmod	_	_
20	soniyA	soniyA	NNPC	n	lex-soniyA|cat-n|gen-f|num-sg|pers-3|case-d|vib-0|tam-0|chunkId-NP8|chunkType-child|stype-|voicetype-	21	pof__cn	_	_
21	gAMXI	gAMXI	NNP	n	lex-gAMXI|cat-n|gen-any|num-sg|pers-3|case-o|vib-0|tam-0|chunkId-NP8|chunkType-head|stype-|voicetype-	61	ccof	_	_
22	,	COMMA	SYM	punc	lex-COMMA|cat-punc|gen-|num-|pers-|case-|vib-|tam-|chunkId-NP8|chunkType-child|stype-|voicetype-	21	rsym	_	_
23	enadIe	enadIe	NNP	n	lex-enadIe|cat-n|gen-m|num-sg|pers-3|case-d|vib-0|tam-0|chunkId-NP9|chunkType-child|stype-|voicetype-	27	nmod__adj	_	_
24	aXyakRa	aXyakRa	NN	n	lex-aXyakRa|cat-n|gen-m|num-sg|pers-3|case-d|vib-0|tam-0|chunkId-NP9|chunkType-child|stype-|voicetype-	27	nmod	_	_
25	atala	atala	NNPC	n	lex-atala|cat-n|gen-m|num-sg|pers-3|case-d|vib-0|tam-0|chunkId-NP9|chunkType-child|stype-|voicetype-	27	pof__cn	_	_
26	bihArI	bihArI	NNPC	n	lex-bihArI|cat-n|gen-m|num-sg|pers-3|case-d|vib-0|tam-0|chunkId-NP9|chunkType-child|stype-|voicetype-	27	pof__cn	_	_
27	vAjapeyI	vAjapeyI	NNP	n	lex-vAjapeyI|cat-n|gen-any|num-sg|pers-3|case-o|vib-0|tam-0|chunkId-NP9|chunkType-head|stype-|voicetype-	61	ccof	_	_
28	,	COMMA	SYM	punc	lex-COMMA|cat-punc|gen-|num-|pers-|case-|vib-|tam-|chunkId-NP9|chunkType-child|stype-|voicetype-	27	rsym	_	_
29	praXAnamaMwrI	praXAnamaMwrI	NNP	n	lex-praXAnamaMwrI|cat-n|gen-m|num-sg|pers-3|case-o|vib-0|tam-0|chunkId-NP10|chunkType-head|stype-|voicetype-	61	ccof	_	_
30	,	COMMA	SYM	punc	lex-COMMA|cat-punc|gen-|num-|pers-|case-|vib-|tam-|chunkId-NP10|chunkType-child|stype-|voicetype-	29	rsym	_	_
31	lokasaBA	lokasaBA	NN	n	lex-lokasaBA|cat-n|gen-f|num-sg|pers-3|case-o|vib-0_meM|tam-0|chunkId-NP11|chunkType-head|stype-|voicetype-	34	nmod	_	_
32	meM	meM	PSP	psp	lex-meM|cat-psp|gen-|num-|pers-|case-|vib-|tam-|chunkId-NP11|chunkType-child|stype-|voicetype-	31	lwg__psp	_	_
33	newA	newA	NNC	n	lex-newA|cat-n|gen-m|num-pl|pers-3|case-d|vib-0|tam-0|chunkId-NP12|chunkType-child|stype-|voicetype-	34	pof__cn	_	_
34	prawipakRa	prawipakRa	NN	n	lex-prawipakRa|cat-n|gen-m|num-sg|pers-3|case-o|vib-0|tam-0|chunkId-NP12|chunkType-head|stype-|voicetype-	61	ccof	_	_
35	,	COMMA	SYM	punc	lex-COMMA|cat-punc|gen-|num-|pers-|case-|vib-|tam-|chunkId-NP12|chunkType-child|stype-|voicetype-	34	rsym	_	_
36	variRTa	variRTa	JJ	adj	lex-variRTa|cat-adj|gen-any|num-any|pers-|case-o|vib-|tam-|chunkId-NP13|chunkType-child|stype-|voicetype-	38	nmod__adj	_	_
37	keMxrIya	keMxrIya	JJ	adj	lex-keMxrIya|cat-adj|gen-any|num-any|pers-|case-o|vib-|tam-|chunkId-NP13|chunkType-child|stype-|voicetype-	38	nmod__adj	_	_
38	maMwrIgaNa	maMwrIgaNa	NN	n	lex-maMwrIgaNa|cat-n|gen-m|num-pl|pers-3|case-o|vib-0|tam-0|chunkId-NP13|chunkType-head|stype-|voicetype-	61	ccof	_	_
39	,	COMMA	SYM	punc	lex-COMMA|cat-punc|gen-|num-|pers-|case-|vib-|tam-|chunkId-NP13|chunkType-child|stype-|voicetype-	38	rsym	_	_
40	pUrva	pUrva	JJ	adj	lex-pUrva|cat-adj|gen-any|num-any|pers-|case-o|vib-|tam-|chunkId-NP14|chunkType-child|stype-|voicetype-	42	nmod__adj	_	_
41	praXAnamaMwrI	praXAnamaMwrI	NNP	n	lex-praXAnamaMwrI|cat-n|gen-m|num-sg|pers-3|case-d|vib-0|tam-0|chunkId-NP14|chunkType-child|stype-|voicetype-	44	nmod__adj	_	_
42	pI.	pI.	NNPC	n	lex-pI.|cat-n|gen-m|num-sg|pers-3|case-d|vib-0|tam-0|chunkId-NP14|chunkType-child|stype-|voicetype-	44	pof__cn	_	_
43	vI.	vI.	NNPC	n	lex-vI.|cat-n|gen-m|num-sg|pers-3|case-d|vib-0|tam-0|chunkId-NP14|chunkType-child|stype-|voicetype-	44	pof__cn	_	_
44	narasiMhArAva	narasiMhArAva	NNP	n	lex-narasiMhArAva|cat-n|gen-m|num-sg|pers-3|case-o|vib-0|tam-0|chunkId-NP14|chunkType-head|stype-|voicetype-	61	ccof	_	_
45	,	COMMA	SYM	punc	lex-COMMA|cat-punc|gen-|num-|pers-|case-|vib-|tam-|chunkId-NP14|chunkType-child|stype-|voicetype-	44	rsym	_	_
46	uccawama	uccawama	NNPC	adj	lex-uccawama|cat-adj|gen-any|num-any|pers-|case-o|vib-|tam-|chunkId-NP15|chunkType-child|stype-|voicetype-	47	pof__cn	_	_
47	nyAyAlaya	nyAyAlaya	NNP	n	lex-nyAyAlaya|cat-n|gen-m|num-sg|pers-3|case-o|vib-0_kA|tam-0|chunkId-NP15|chunkType-head|stype-|voicetype-	50	r6	_	_
48	ke	kA	PSP	psp	lex-kA|cat-psp|gen-m|num-sg|pers-|case-o|vib-|tam-|chunkId-NP15|chunkType-child|stype-|voicetype-	47	lwg__psp	_	_
49	pUrva	pUrva	JJ	adj	lex-pUrva|cat-adj|gen-any|num-any|pers-|case-o|vib-|tam-|chunkId-NP16|chunkType-child|stype-|voicetype-	50	nmod__adj	_	_
50	nyAyAXISa	nyAyAXISa	NN	n	lex-nyAyAXISa|cat-n|gen-m|num-sg|pers-3|case-o|vib-0|tam-0|chunkId-NP16|chunkType-head|stype-|voicetype-	52	nmod	_	_
51	raMganAWa	raMganAWa	NNPC	n	lex-raMganAWa|cat-n|gen-m|num-sg|pers-3|case-d|vib-0|tam-0|chunkId-NP17|chunkType-child|stype-|voicetype-	52	pof__cn	_	_
52	miSra	miSra	NNP	n	lex-miSra|cat-n|gen-any|num-sg|pers-3|case-o|vib-0|tam-0|chunkId-NP17|chunkType-head|stype-|voicetype-	61	ccof	_	_
53	,	COMMA	SYM	punc	lex-COMMA|cat-punc|gen-|num-|pers-|case-|vib-|tam-|chunkId-NP17|chunkType-child|stype-|voicetype-	52	rsym	_	_
54	pUrva	pUrva	JJ	adj	lex-pUrva|cat-adj|gen-any|num-any|pers-|case-o|vib-|tam-|chunkId-NP18|chunkType-child|stype-|voicetype-	58	nmod__adj	_	_
55	muKya	muKya	NNC	adj	lex-muKya|cat-adj|gen-any|num-any|pers-|case-o|vib-|tam-|chunkId-NP18|chunkType-child|stype-|voicetype-	57	pof__cn	_	_
56	cunAva	cunAva	NNC	n	lex-cunAva|cat-n|gen-m|num-sg|pers-3|case-d|vib-0|tam-0|chunkId-NP18|chunkType-child|stype-|voicetype-	57	pof__cn	_	_
57	Ayukwa	Ayukwa	NN	n	lex-Ayukwa|cat-n|gen-m|num-sg|pers-3|case-d|vib-0|tam-0|chunkId-NP18|chunkType-child|stype-|voicetype-	59	nmod	_	_
58	jIbIjI	jIbIjI	NNPC	n	lex-jIbIjI|cat-n|gen-m|num-sg|pers-3|case-d|vib-0|tam-0|chunkId-NP18|chunkType-child|stype-|voicetype-	59	pof__cn	_	_
59	kqRNAmUrwi	kqRNAmUrwi	NNP	n	lex-kqRNAmUrwi|cat-n|gen-any|num-sg|pers-3|case-o|vib-0|tam-0|chunkId-NP18|chunkType-head|stype-|voicetype-	61	ccof	_	_
60	,	COMMA	SYM	punc	lex-COMMA|cat-punc|gen-|num-|pers-|case-|vib-|tam-|chunkId-NP18|chunkType-child|stype-|voicetype-	59	rsym	_	_
61	NULL	_	CC	_	lex-_|cat-_|gen-|num-|pers-|case-|vib-|tam-|chunkId-NULL__CCP|chunkType-head|stype-|voicetype-	77	ras-k2	_	_
62	vihipa	vihipa	NNP	n	lex-vihipa|cat-n|gen-m|num-sg|pers-3|case-o|vib-0_kA|tam-0|chunkId-NP19|chunkType-head|stype-|voicetype-	65	r6	_	_
63	ke	kA	PSP	psp	lex-kA|cat-psp|gen-m|num-sg|pers-|case-o|vib-|tam-|chunkId-NP19|chunkType-child|stype-|voicetype-	62	lwg__psp	_	_
64	kAryakArI	kAryakArI	NNC	n	lex-kAryakArI|cat-n|gen-f|num-sg|pers-3|case-d|vib-0|tam-0|chunkId-NP20|chunkType-child|stype-|voicetype-	65	pof__cn	_	_
65	aXyakRa	aXyakRa	NN	n	lex-aXyakRa|cat-n|gen-m|num-sg|pers-3|case-o|vib-0|tam-0|chunkId-NP20|chunkType-head|stype-|voicetype-	67	nmod	_	_
66	aSoka	aSoka	NNPC	n	lex-aSoka|cat-n|gen-m|num-sg|pers-3|case-d|vib-0|tam-0|chunkId-NP21|chunkType-child|stype-|voicetype-	67	pof__cn	_	_
67	siMGala	siMGala	NNP	n	lex-siMGala|cat-n|gen-any|num-sg|pers-3|case-o|vib-0_sahiwa|tam-0|chunkId-NP21|chunkType-head|stype-|voicetype-	61	ccof	_	_
68	sahiwa	sahiwa	PSP	psp	lex-sahiwa|cat-psp|gen-|num-|pers-|case-|vib-|tam-|chunkId-NP21|chunkType-child|stype-|voicetype-	67	lwg__psp	_	_
69	kaI	kaI	QF	avy	lex-kaI|cat-avy|gen-|num-|pers-|case-|vib-|tam-|chunkId-NP22|chunkType-child|stype-|voicetype-	70	nmod__adj	_	_
70	logoM	loga	NN	n	lex-loga|cat-n|gen-m|num-pl|pers-3|case-o|vib-0_se|tam-0|chunkId-NP22|chunkType-head|stype-|voicetype-	77	k2	_	_
71	se	se	PSP	psp	lex-se|cat-psp|gen-|num-|pers-|case-|vib-|tam-|chunkId-NP22|chunkType-child|stype-|voicetype-	70	lwg__psp	_	_
72	prakaraNa	prakaraNa	NN	n	lex-prakaraNa|cat-n|gen-m|num-sg|pers-3|case-o|vib-0_kA|tam-0|chunkId-NP23|chunkType-head|stype-|voicetype-	74	r6	_	_
73	ke	kA	PSP	psp	lex-kA|cat-psp|gen-m|num-sg|pers-|case-o|vib-|tam-|chunkId-NP23|chunkType-child|stype-|voicetype-	72	lwg__psp	_	_
74	samAXAna	samAXAna	NN	n	lex-samAXAna|cat-n|gen-m|num-sg|pers-3|case-o|vib-0_para|tam-0|chunkId-NP24|chunkType-head|stype-|voicetype-	77	k7	_	_
75	para	para	PSP	psp	lex-para|cat-psp|gen-|num-|pers-|case-|vib-|tam-|chunkId-NP24|chunkType-child|stype-|voicetype-	74	lwg__psp	_	_
76	bAwacIwa	bAwacIwa	NN	n	lex-bAwacIwa|cat-n|gen-f|num-sg|pers-3|case-d|vib-0|tam-0|chunkId-NP25|chunkType-head|stype-|voicetype-	77	pof	_	_
77	kI	kara	VM	v	lex-kara|cat-v|gen-f|num-sg|pers-3|case-|vib-yA_hE|tam-yA|chunkId-VGF|chunkType-head|stype-declarative|voicetype-active	0	main	_	_
78	hE	hE	VAUX	v	lex-hE|cat-v|gen-any|num-sg|pers-3|case-|vib-hE|tam-hE|chunkId-VGF|chunkType-child|stype-|voicetype-	77	lwg__vaux	_	_
79	.	.	SYM	punc	lex-.|cat-punc|gen-|num-|pers-|case-|vib-|tam-|chunkId-BLK|chunkType-head|stype-|voicetype-	77	rsym	_	_

1	SaMkarAcArya	SaMkarAcArya	NN	n	lex-SaMkarAcArya|cat-n|gen-m|num-sg|pers-3|case-o|vib-0_kA|tam-0|chunkId-NP|chunkType-head|stype-|voicetype-	9	r6-k1	_	_
2	kI	kA	PSP	psp	lex-kA|cat-psp|gen-f|num-pl|pers-|case-o|vib-|tam-|chunkId-NP|chunkType-child|stype-|voicetype-	1	lwg__psp	_	_
3	jina	jo	DEM	pn	lex-jo|cat-pn|gen-any|num-pl|pers-3|case-o|vib-|tam-|chunkId-NP2|chunkType-child|stype-|voicetype-	4	nmod__adj	_	_
4	logoM	loga	NN	n	lex-loga|cat-n|gen-m|num-pl|pers-3|case-o|vib-0_se|tam-0|chunkId-NP2|chunkType-head|stype-|voicetype-	11	vmod	_	_
5	se	se	PSP	psp	lex-se|cat-psp|gen-|num-|pers-|case-|vib-|tam-|chunkId-NP2|chunkType-child|stype-|voicetype-	4	lwg__psp	_	_
6	Amane	Amane	NSTC	nst	lex-Amane|cat-nst|gen-m|num-sg|pers-3|case-d|vib-|tam-|chunkId-NP3|chunkType-head|stype-|voicetype-	11	k7	_	_
7	-	-	SYM	punc	lex--|cat-punc|gen-|num-|pers-|case-|vib-|tam-|chunkId-NP3|chunkType-child|stype-|voicetype-	6	rsym	_	_
8	sAmane	sAmane	NST	nst	lex-sAmane|cat-nst|gen-m|num-sg|pers-3|case-d|vib-|tam-|chunkId-NP3|chunkType-child|stype-|voicetype-	6	lwg__psp	_	_
9	bAwa	bAwa	NN	n	lex-bAwa|cat-n|gen-f|num-sg|pers-3|case-d|vib-0|tam-0|chunkId-NP4|chunkType-head|stype-|voicetype-	11	pof	_	_
10	nahIM	nahIM	NEG	avy	lex-nahIM|cat-avy|gen-|num-|pers-|case-|vib-|tam-|chunkId-VGF|chunkType-child|stype-|voicetype-	11	lwg__neg	_	_
11	ho	ho	VM	v	lex-ho|cat-v|gen-any|num-sg|pers-any|case-|vib-0_pA+yA|tam-0|chunkId-VGF|chunkType-head|stype-declarative|voicetype-active	13	nmod__relc	_	_
12	pAI	pA	VAUX	v	lex-pA|cat-v|gen-f|num-sg|pers-any|case-|vib-yA|tam-yA|chunkId-VGF|chunkType-child|stype-|voicetype-	11	lwg__vaux	_	_
13	unase	vaha	PRP	pn	lex-vaha|cat-pn|gen-any|num-pl|pers-3|case-o|vib-se|tam-se|chunkId-NP5|chunkType-head|stype-|voicetype-	17	k2	_	_
14	xUraBARa	xUraBARa	NN	n	lex-xUraBARa|cat-n|gen-m|num-sg|pers-3|case-o|vib-0_para|tam-0|chunkId-NP6|chunkType-head|stype-|voicetype-	17	k7	_	_
15	para	para	PSP	psp	lex-para|cat-psp|gen-|num-|pers-|case-|vib-|tam-|chunkId-NP6|chunkType-child|stype-|voicetype-	14	lwg__psp	_	_
16	saMparka	saMparka	NN	n	lex-saMparka|cat-n|gen-m|num-sg|pers-3|case-d|vib-0|tam-0|chunkId-NP7|chunkType-head|stype-|voicetype-	17	pof	_	_
17	karake	kara	VM	v	lex-kara|cat-v|gen-any|num-any|pers-any|case-|vib-kara|tam-kara|chunkId-VGNF|chunkType-head|stype-|voicetype-	29	vmod	_	_
18	ayoXyA	ayoXyA	NNP	n	lex-ayoXyA|cat-n|gen-m|num-sg|pers-3|case-d|vib-0|tam-0|chunkId-NP8|chunkType-child|stype-|voicetype-	19	nmod__adj	_	_
19	prakaraNa	prakaraNa	NN	n	lex-prakaraNa|cat-n|gen-m|num-sg|pers-3|case-o|vib-0_kA|tam-0|chunkId-NP8|chunkType-head|stype-|voicetype-	24	r6	_	_
20	ke	kA	PSP	psp	lex-kA|cat-psp|gen-m|num-sg|pers-|case-o|vib-|tam-|chunkId-NP8|chunkType-child|stype-|voicetype-	19	lwg__psp	_	_
21	samAXAna	samAXAna	NN	n	lex-samAXAna|cat-n|gen-m|num-sg|pers-3|case-o|vib-0_para|tam-0|chunkId-NP9|chunkType-head|stype-|voicetype-	25	k7	_	_
22	para	para	PSP	psp	lex-para|cat-psp|gen-|num-|pers-|case-|vib-|tam-|chunkId-NP9|chunkType-child|stype-|voicetype-	21	lwg__psp	_	_
23	sakriya	sakriya	JJ	adj	lex-sakriya|cat-adj|gen-any|num-any|pers-|case-d|vib-|tam-|chunkId-NP10|chunkType-child|stype-|voicetype-	24	nmod__adj	_	_
24	yogaxAna	yogaxAna	NN	n	lex-yogaxAna|cat-n|gen-m|num-sg|pers-3|case-d|vib-0|tam-0|chunkId-NP10|chunkType-head|stype-|voicetype-	25	pof	_	_
25	xene	xe	VM	v	lex-xe|cat-v|gen-any|num-any|pers-any|case-o|vib-nA_ke_lie|tam-nA|chunkId-VGNN|chunkType-head|stype-|voicetype-	29	rt	_	_
26	ke	ke	PSP	psp	lex-ke|cat-psp|gen-|num-|pers-|case-|vib-|tam-|chunkId-VGNN|chunkType-child|stype-|voicetype-	25	lwg__psp	_	_
27	lie	lie	PSP	psp	lex-lie|cat-psp|gen-|num-|pers-|case-|vib-|tam-|chunkId-VGNN|chunkType-child|stype-|voicetype-	25	lwg__psp	_	_
28	BI	BI	RP	avy	lex-BI|cat-avy|gen-|num-|pers-|case-|vib-|tam-|chunkId-VGNN|chunkType-child|stype-|voicetype-	25	lwg__rp	_	_
29	kahA	kaha	VM	v	lex-kaha|cat-v|gen-m|num-sg|pers-3|case-|vib-yA_hE|tam-yA|chunkId-VGF2|chunkType-head|stype-declarative|voicetype-active	0	main	_	_
30	hE	hE	VAUX	v	lex-hE|cat-v|gen-any|num-sg|pers-3|case-|vib-hE|tam-hE|chunkId-VGF2|chunkType-child|stype-|voicetype-	29	lwg__vaux	_	_
31	.	.	SYM	punc	lex-.|cat-punc|gen-|num-|pers-|case-|vib-|tam-|chunkId-BLK|chunkType-head|stype-|voicetype-	29	rsym	_	_

1	inameM	yaha	PRP	pn	lex-yaha|cat-pn|gen-any|num-pl|pers-3|case-o|vib-meM|tam-meM|chunkId-NP|chunkType-head|stype-|voicetype-	37	k7	_	_
2	bAbarI	bAbarI	NNPC	n	lex-bAbarI|cat-n|gen-f|num-sg|pers-3|case-d|vib-0|tam-0|chunkId-NP2|chunkType-child|stype-|voicetype-	5	pof__cn	_	_
3	masjixa	masjixa	NNPC	n	lex-masjixa|cat-n|gen-f|num-sg|pers-3|case-d|vib-0|tam-0|chunkId-NP2|chunkType-child|stype-|voicetype-	5	pof__cn	_	_
4	ekSana	ekSana	NNPC	n	lex-ekSana|cat-n|gen-m|num-sg|pers-3|case-d|vib-0|tam-0|chunkId-NP2|chunkType-child|stype-|voicetype-	5	pof__cn	_	_
5	kametI	kametI	NNP	n	lex-kametI|cat-n|gen-f|num-sg|pers-3|case-o|vib-0_kA|tam-0|chunkId-NP2|chunkType-head|stype-|voicetype-	7	r6	_	_
6	ke	kA	PSP	psp	lex-kA|cat-psp|gen-m|num-sg|pers-3h|case-d|vib-|tam-|chunkId-NP2|chunkType-child|stype-|voicetype-	5	lwg__psp	_	_
7	saMyojaka	saMyojaka	NN	n	lex-saMyojaka|cat-n|gen-m|num-sg|pers-3|case-d|vib-0|tam-0|chunkId-NP3|chunkType-head|stype-|voicetype-	9	nmod	_	_
8	jaParayAba	jaParayAba	NNPC	n	lex-jaParayAba|cat-n|gen-m|num-sg|pers-3|case-d|vib-0|tam-0|chunkId-NP4|chunkType-child|stype-|voicetype-	9	pof__cn	_	_
9	jilAnI	jilAnI	NNP	n	lex-jilAnI|cat-n|gen-any|num-sg|pers-3|case-d|vib-0|tam-0|chunkId-NP4|chunkType-head|stype-|voicetype-	31	ccof	_	_
10	,	COMMA	SYM	punc	lex-COMMA|cat-punc|gen-|num-|pers-|case-|vib-|tam-|chunkId-NP4|chunkType-child|stype-|voicetype-	9	rsym	_	_
11	SrIrAma	SrIrAma	NNPC	n	lex-SrIrAma|cat-n|gen-m|num-sg|pers-3|case-d|vib-0|tam-0|chunkId-NP5|chunkType-child|stype-|voicetype-	13	pof__cn	_	_
12	janmaBUmi	janmaBUmi	NNPC	n	lex-janmaBUmi|cat-n|gen-f|num-sg|pers-3|case-d|vib-0|tam-0|chunkId-NP5|chunkType-child|stype-|voicetype-	13	pof__cn	_	_
13	nyAsa	nyAsa	NNP	n	lex-nyAsa|cat-n|gen-m|num-sg|pers-3|case-o|vib-0_kA|tam-0|chunkId-NP5|chunkType-head|stype-|voicetype-	15	r6	_	_
14	ke	kA	PSP	psp	lex-kA|cat-psp|gen-m|num-sg|pers-3h|case-d|vib-|tam-|chunkId-NP5|chunkType-child|stype-|voicetype-	13	lwg__psp	_	_
15	aXyakRa	aXyakRa	NN	n	lex-aXyakRa|cat-n|gen-m|num-sg|pers-3|case-d|vib-0|tam-0|chunkId-NP6|chunkType-head|stype-|voicetype-	19	nmod	_	_
16	mahaMwa	mahaMwa	NNC	n	lex-mahaMwa|cat-n|gen-m|num-sg|pers-3|case-d|vib-0|tam-0|chunkId-NP7|chunkType-child|stype-|voicetype-	17	pof__cn	_	_
17	nqwya	nqwya	NNPC	n	lex-nqwya|cat-n|gen-m|num-sg|pers-3|case-d|vib-0|tam-0|chunkId-NP7|chunkType-child|stype-|voicetype-	19	pof__cn	_	_
18	gopAla	gopAla	NNPC	n	lex-gopAla|cat-n|gen-m|num-sg|pers-3|case-d|vib-0|tam-0|chunkId-NP7|chunkType-child|stype-|voicetype-	19	pof__cn	_	_
19	xAsa	xAsa	NNP	n	lex-xAsa|cat-n|gen-m|num-sg|pers-3|case-d|vib-0|tam-0|chunkId-NP7|chunkType-head|stype-|voicetype-	31	ccof	_	_
20	,	COMMA	SYM	punc	lex-COMMA|cat-punc|gen-|num-|pers-|case-|vib-|tam-|chunkId-NP7|chunkType-child|stype-|voicetype-	19	rsym	_	_
21	nirmohI	nirmohI	NNPC	n	lex-nirmohI|cat-n|gen-m|num-sg|pers-3|case-d|vib-0|tam-0|chunkId-NP8|chunkType-child|stype-|voicetype-	22	pof__cn	_	_
22	aKAdZe	aKAdA	NNP	n	lex-aKAdA|cat-n|gen-m|num-sg|pers-3|case-o|vib-0_kA|tam-0|chunkId-NP8|chunkType-head|stype-|voicetype-	24	nmod	_	_
23	ke	kA	PSP	psp	lex-kA|cat-psp|gen-m|num-sg|pers-3h|case-d|vib-|tam-|chunkId-NP8|chunkType-child|stype-|voicetype-	22	lwg__psp	_	_
24	BARkaraxAsa	BARkaraxAsa	NNP	n	lex-BARkaraxAsa|cat-n|gen-m|num-sg|pers-3|case-d|vib-0|tam-0|chunkId-NP9|chunkType-head|stype-|voicetype-	31	ccof	_	_
25	,	COMMA	SYM	punc	lex-COMMA|cat-punc|gen-|num-|pers-|case-|vib-|tam-|chunkId-NP9|chunkType-child|stype-|voicetype-	24	rsym	_	_
26	unake	vaha	PRP	pn	lex-vaha|cat-pn|gen-m|num-pl|pers-3h|case-o|vib-kA|tam-kA|chunkId-NP10|chunkType-head|stype-|voicetype-	27	nmod	_	_
27	aXivakwA	aXivakwA	NN	n	lex-aXivakwA|cat-n|gen-m|num-pl|pers-3|case-d|vib-0|tam-0|chunkId-NP11|chunkType-head|stype-|voicetype-	29	nmod	_	_
28	raNajIwalAla	raNajIwalAla	NNPC	n	lex-raNajIwalAla|cat-n|gen-m|num-sg|pers-3|case-d|vib-0|tam-0|chunkId-NP12|chunkType-child|stype-|voicetype-	29	pof__cn	_	_
29	varmA	varmA	NNP	n	lex-varmA|cat-n|gen-any|num-sg|pers-3|case-d|vib-0|tam-0|chunkId-NP12|chunkType-head|stype-|voicetype-	31	ccof	_	_
30	,	COMMA	SYM	punc	lex-COMMA|cat-punc|gen-|num-|pers-|case-|vib-|tam-|chunkId-NP12|chunkType-child|stype-|voicetype-	29	rsym	_	_
31	NULL	_	CC	_	lex-_|cat-_|gen-|num-|pers-|case-|vib-|tam-|chunkId-NULL__CCP|chunkType-head|stype-|voicetype-	37	k1	_	_
32	gorakRa	gorakRa	NNC	n	lex-gorakRa|cat-n|gen-m|num-sg|pers-3|case-d|vib-0|tam-0|chunkId-NP13|chunkType-child|stype-|voicetype-	33	pof__cn	_	_
33	pITAXISvara	pITAXISvara	NN	n	lex-pITAXISvara|cat-n|gen-m|num-sg|pers-3|case-d|vib-0|tam-0|chunkId-NP13|chunkType-head|stype-|voicetype-	35	nmod	_	_
34	mahaMwa	mahaMwa	NNPC	n	lex-mahaMwa|cat-n|gen-m|num-sg|pers-3|case-d|vib-0|tam-0|chunkId-NP14|chunkType-child|stype-|voicetype-	35	pof__cn	_	_
35	avExyanAWa	avExyanAWa	NNP	n	lex-avExyanAWa|cat-n|gen-m|num-sg|pers-3|case-d|vib-0|tam-0|chunkId-NP14|chunkType-head|stype-|voicetype-	31	ccof	_	_
36	Axi	Axi	RP	avy	lex-Axi|cat-avy|gen-|num-|pers-|case-|vib-|tam-|chunkId-NP14|chunkType-child|stype-|voicetype-	35	lwg__rp	_	_
37	hEM	hE	VM	v	lex-hE|cat-v|gen-any|num-pl|pers-3|case-|vib-hE|tam-hE|chunkId-VGF|chunkType-head|stype-declarative|voicetype-active	0	main	_	_
38	.	.	SYM	punc	lex-.|cat-punc|gen-|num-|pers-|case-|vib-|tam-|chunkId-BLK|chunkType-head|stype-|voicetype-	37	rsym	_	_

1	vivAxa	vivAxa	NN	n	lex-vivAxa|cat-n|gen-m|num-sg|pers-3|case-o|vib-0_kA|tam-0|chunkId-NP|chunkType-head|stype-|voicetype-	3	r6	_	_
2	ke	kA	PSP	psp	lex-kA|cat-psp|gen-m|num-sg|pers-|case-o|vib-|tam-|chunkId-NP|chunkType-child|stype-|voicetype-	1	lwg__psp	_	_
3	samAXAna	samAXAna	NN	n	lex-samAXAna|cat-n|gen-m|num-sg|pers-3|case-o|vib-0_ke_lie|tam-0|chunkId-NP2|chunkType-head|stype-|voicetype-	13	rt	_	_
4	ke	ke	PSP	psp	lex-ke|cat-psp|gen-|num-|pers-|case-|vib-|tam-|chunkId-NP2|chunkType-child|stype-|voicetype-	3	lwg__psp	_	_
5	lie	lie	PSP	psp	lex-lie|cat-psp|gen-|num-|pers-|case-|vib-|tam-|chunkId-NP2|chunkType-child|stype-|voicetype-	3	lwg__psp	_	_
6	lagAwAra	lagAwAra	RB	adv	lex-lagAwAra|cat-adv|gen-|num-|pers-|case-|vib-|tam-|chunkId-RBP|chunkType-head|stype-|voicetype-	13	adv	_	_
7	bAwacIwa	bAwacIwa	NN	n	lex-bAwacIwa|cat-n|gen-f|num-sg|pers-3|case-o|vib-0_kA|tam-0|chunkId-NP3|chunkType-head|stype-|voicetype-	9	r6	_	_
8	kA	kA	PSP	psp	lex-kA|cat-psp|gen-m|num-sg|pers-|case-d|vib-|tam-|chunkId-NP3|chunkType-child|stype-|voicetype-	7	lwg__psp	_	_
9	xOra	xOra	NN	n	lex-xOra|cat-n|gen-m|num-sg|pers-3|case-d|vib-0|tam-0|chunkId-NP4|chunkType-head|stype-|voicetype-	10	ccof	_	_
10	Ora	Ora	CC	avy	lex-Ora|cat-avy|gen-|num-|pers-|case-|vib-|tam-|chunkId-CCP|chunkType-head|stype-|voicetype-	13	k2	_	_
11	saMparka	saMparka	NN	n	lex-saMparka|cat-n|gen-m|num-sg|pers-3|case-d|vib-0|tam-0|chunkId-NP5|chunkType-head|stype-|voicetype-	10	ccof	_	_
12	jArI	jArI	JJ	adj	lex-jArI|cat-adj|gen-any|num-any|pers-|case-|vib-|tam-|chunkId-JJP|chunkType-head|stype-|voicetype-	13	pof	_	_
13	raKane	raKa	VM	v	lex-raKa|cat-v|gen-any|num-any|pers-any|case-o|vib-nA_ke_lie|tam-nA|chunkId-VGNN|chunkType-head|stype-|voicetype-	23	rt	_	_
14	ke	ke	PSP	psp	lex-ke|cat-psp|gen-|num-|pers-|case-|vib-|tam-|chunkId-VGNN|chunkType-child|stype-|voicetype-	13	lwg__psp	_	_
15	lie	lie	PSP	psp	lex-lie|cat-psp|gen-|num-|pers-|case-|vib-|tam-|chunkId-VGNN|chunkType-child|stype-|voicetype-	13	lwg__psp	_	_
16	ayoXyA	ayoXyA	NNPC	n	lex-ayoXyA|cat-n|gen-m|num-sg|pers-3|case-d|vib-0|tam-0|chunkId-NP6|chunkType-child|stype-|voicetype-	20	pof__cn	_	_
17	prakaraNa	prakaraNa	NNPC	n	lex-prakaraNa|cat-n|gen-m|num-sg|pers-3|case-d|vib-0|tam-0|chunkId-NP6|chunkType-child|stype-|voicetype-	20	pof__cn	_	_
18	samAXAna	samAXAna	NNPC	n	lex-samAXAna|cat-n|gen-m|num-sg|pers-3|case-d|vib-0|tam-0|chunkId-NP6|chunkType-child|stype-|voicetype-	20	pof__cn	_	_
19	samanvaya	samanvaya	NNPC	n	lex-samanvaya|cat-n|gen-m|num-sg|pers-3|case-d|vib-0|tam-0|chunkId-NP6|chunkType-child|stype-|voicetype-	20	pof__cn	_	_
20	samiwi	samiwi	NNP	n	lex-samiwi|cat-n|gen-f|num-sg|pers-3|case-o|vib-0_kA|tam-0|chunkId-NP6|chunkType-head|stype-|voicetype-	22	r6-k2	_	_
21	kA	kA	PSP	psp	lex-kA|cat-psp|gen-m|num-sg|pers-|case-d|vib-|tam-|chunkId-NP6|chunkType-child|stype-|voicetype-	20	lwg__psp	_	_
22	gaTana	gaTana	NN	n	lex-gaTana|cat-n|gen-m|num-sg|pers-3|case-d|vib-0|tam-0|chunkId-NP7|chunkType-head|stype-|voicetype-	23	pof	_	_
23	kiyA	kara	VM	v	lex-kara|cat-v|gen-m|num-sg|pers-3|case-|vib-yA_jA+yA1_hE|tam-yA|chunkId-VGF|chunkType-head|stype-declarative|voicetype-passive	0	main	_	_
24	gayA	jA	VAUX	v	lex-jA|cat-v|gen-m|num-sg|pers-any|case-|vib-yA1|tam-yA1|chunkId-VGF|chunkType-child|stype-|voicetype-	23	lwg__vaux	_	_
25	hE	hE	VAUX	v	lex-hE|cat-v|gen-any|num-sg|pers-3|case-|vib-hE|tam-hE|chunkId-VGF|chunkType-child|stype-|voicetype-	23	lwg__vaux	_	_
26	.	.	SYM	punc	lex-.|cat-punc|gen-|num-|pers-|case-|vib-|tam-|chunkId-BLK|chunkType-head|stype-|voicetype-	23	rsym	_	_

1	yaha	yaha	DEM	pn	lex-yaha|cat-pn|gen-any|num-sg|pers-3|case-d|vib-|tam-|chunkId-NP|chunkType-child|stype-|voicetype-	2	nmod__adj	_	_
2	samiwi	samiwi	NN	n	lex-samiwi|cat-n|gen-f|num-sg|pers-3|case-d|vib-0|tam-0|chunkId-NP|chunkType-head|stype-|voicetype-	10	k1	_	_
3	SaMkarAcArya	SaMkarAcArya	NN	n	lex-SaMkarAcArya|cat-n|gen-m|num-sg|pers-3|case-o|vib-0_kA|tam-0|chunkId-NP2|chunkType-head|stype-|voicetype-	5	r6	_	_
4	ke	kA	PSP	psp	lex-kA|cat-psp|gen-m|num-sg|pers-|case-o|vib-|tam-|chunkId-NP2|chunkType-child|stype-|voicetype-	3	lwg__psp	_	_
5	nirxeSa	nirxeSa	NN	n	lex-nirxeSa|cat-n|gen-m|num-sg|pers-3|case-o|vib-0_meM|tam-0|chunkId-NP3|chunkType-head|stype-|voicetype-	10	k7	_	_
6	meM	meM	PSP	psp	lex-meM|cat-psp|gen-|num-|pers-|case-|vib-|tam-|chunkId-NP3|chunkType-child|stype-|voicetype-	5	lwg__psp	_	_
7	kAryo	kArya	NN	n	lex-kArya|cat-n|gen-m|num-pl|pers-3|case-o|vib-0_kA|tam-0|chunkId-NP4|chunkType-head|stype-|voicetype-	9	r6-k2	_	_
8	kA	kA	PSP	psp	lex-kA|cat-psp|gen-m|num-sg|pers-|case-d|vib-|tam-|chunkId-NP4|chunkType-child|stype-|voicetype-	7	lwg__psp	_	_
9	niRpAxana	niRpAxana	NN	n	lex-niRpAxana|cat-n|gen-m|num-sg|pers-3|case-d|vib-0|tam-0|chunkId-NP5|chunkType-head|stype-|voicetype-	10	pof	_	_
10	karegI	kara	VM	v	lex-kara|cat-v|gen-f|num-sg|pers-3|case-|vib-gA|tam-gA|chunkId-VGF|chunkType-head|stype-declarative|voicetype-active	0	main	_	_
11	.	.	SYM	punc	lex-.|cat-punc|gen-|num-|pers-|case-|vib-|tam-|chunkId-BLK|chunkType-head|stype-|voicetype-	10	rsym	_	_

1	isameM	yaha	PRP	pn	lex-yaha|cat-pn|gen-any|num-sg|pers-3|case-o|vib-meM|tam-meM|chunkId-NP|chunkType-head|stype-|voicetype-	51	k7	_	_
2	saxasya	saxasya	NN	n	lex-saxasya|cat-n|gen-m|num-sg|pers-3|case-o|vib-0_ke_wOra_para|tam-0|chunkId-NP2|chunkType-head|stype-|voicetype-	51	k7	_	_
3	ke	ke	PSP	psp	lex-ke|cat-psp|gen-m|num-|pers-|case-o|vib-|tam-|chunkId-NP2|chunkType-child|stype-|voicetype-	2	lwg__psp	_	_
4	wOra	wOra	PSP	n	lex-wOra|cat-n|gen-m|num-|pers-|case-o|vib-|tam-|chunkId-NP2|chunkType-child|stype-|voicetype-	2	lwg__psp	_	_
5	para	para	PSP	psp	lex-para|cat-psp|gen-|num-|pers-|case-|vib-|tam-|chunkId-NP2|chunkType-child|stype-|voicetype-	2	lwg__psp	_	_
6	ayoXyA	ayoXyA	NNP	n	lex-ayoXyA|cat-n|gen-m|num-sg|pers-3|case-o|vib-0_se|tam-0|chunkId-NP3|chunkType-head|stype-|voicetype-	11	nmod	_	_
7	se	se	PSP	psp	lex-se|cat-psp|gen-|num-|pers-|case-|vib-|tam-|chunkId-NP3|chunkType-child|stype-|voicetype-	6	lwg__psp	_	_
8	vimaleMxra	vimaleMxra	NNPC	n	lex-vimaleMxra|cat-n|gen-m|num-sg|pers-3|case-d|vib-0|tam-0|chunkId-NP4|chunkType-child|stype-|voicetype-	11	pof__cn	_	_
9	mohana	mohana	NNPC	n	lex-mohana|cat-n|gen-m|num-sg|pers-3|case-d|vib-0|tam-0|chunkId-NP4|chunkType-child|stype-|voicetype-	11	pof__cn	_	_
10	prawApa	prawApa	NNPC	n	lex-prawApa|cat-n|gen-m|num-sg|pers-3|case-d|vib-0|tam-0|chunkId-NP4|chunkType-child|stype-|voicetype-	11	pof__cn	_	_
11	miSra	miSra	NNP	n	lex-miSra|cat-n|gen-any|num-sg|pers-3|case-d|vib-0|tam-0|chunkId-NP4|chunkType-head|stype-|voicetype-	32	ccof	_	_
12	,	COMMA	SYM	punc	lex-COMMA|cat-punc|gen-|num-|pers-|case-|vib-|tam-|chunkId-NP4|chunkType-child|stype-|voicetype-	11	rsym	_	_
13	PEjAbAxa	PEjAbAxa	NNP	n	lex-PEjAbAxa|cat-n|gen-m|num-sg|pers-3|case-o|vib-0_se|tam-0|chunkId-NP5|chunkType-head|stype-|voicetype-	17	nmod	_	_
14	se	se	PSP	psp	lex-se|cat-psp|gen-|num-|pers-|case-|vib-|tam-|chunkId-NP5|chunkType-child|stype-|voicetype-	13	lwg__psp	_	_
15	KAlika	KAlika	NNPC	n	lex-KAlika|cat-n|gen-m|num-sg|pers-3|case-d|vib-0|tam-0|chunkId-NP6|chunkType-child|stype-|voicetype-	17	pof__cn	_	_
16	ahamaxa	ahamaxa	NNPC	n	lex-ahamaxa|cat-n|gen-m|num-sg|pers-3|case-d|vib-0|tam-0|chunkId-NP6|chunkType-child|stype-|voicetype-	17	pof__cn	_	_
17	KAna	KAna	NNP	n	lex-KAna|cat-n|gen-m|num-sg|pers-3|case-d|vib-0|tam-0|chunkId-NP6|chunkType-head|stype-|voicetype-	32	ccof	_	_
18	,	COMMA	SYM	punc	lex-COMMA|cat-punc|gen-|num-|pers-|case-|vib-|tam-|chunkId-NP6|chunkType-child|stype-|voicetype-	17	rsym	_	_
19	cennaI	cennaI	NNP	n	lex-cennaI|cat-n|gen-m|num-sg|pers-3|case-o|vib-0_se|tam-0|chunkId-NP7|chunkType-head|stype-|voicetype-	25	nmod	_	_
20	se	se	PSP	psp	lex-se|cat-psp|gen-|num-|pers-|case-|vib-|tam-|chunkId-NP7|chunkType-child|stype-|voicetype-	19	lwg__psp	_	_
21	SaMkarAcArya	SaMkarAcArya	NN	n	lex-SaMkarAcArya|cat-n|gen-m|num-sg|pers-3|case-o|vib-0_kA|tam-0|chunkId-NP8|chunkType-head|stype-|voicetype-	24	r6	_	_
22	ke	kA	PSP	psp	lex-kA|cat-psp|gen-m|num-sg|pers-3h|case-d|vib-|tam-|chunkId-NP8|chunkType-child|stype-|voicetype-	21	lwg__psp	_	_
23	pramuKa	pramuKa	JJ	adj	lex-pramuKa|cat-adj|gen-any|num-any|pers-|case-d|vib-|tam-|chunkId-NP9|chunkType-child|stype-|voicetype-	24	nmod__adj	_	_
24	saciva	saciva	NN	n	lex-saciva|cat-n|gen-m|num-sg|pers-3|case-d|vib-0|tam-0|chunkId-NP9|chunkType-head|stype-|voicetype-	25	nmod	_	_
25	suMxara	sunxara	NNP	n	lex-sunxara|cat-n|gen-m|num-sg|pers-3|case-d|vib-0|tam-0|chunkId-NP10|chunkType-head|stype-|voicetype-	32	ccof	_	_
26	,	COMMA	SYM	punc	lex-COMMA|cat-punc|gen-|num-|pers-|case-|vib-|tam-|chunkId-NP10|chunkType-child|stype-|voicetype-	25	rsym	_	_
27	ahamaxAbAxa	ahamaxAbAxa	NNP	n	lex-ahamaxAbAxa|cat-n|gen-m|num-sg|pers-3|case-o|vib-0_se|tam-0|chunkId-NP11|chunkType-head|stype-|voicetype-	31	nmod	_	_
28	se	se	PSP	psp	lex-se|cat-psp|gen-|num-|pers-|case-|vib-|tam-|chunkId-NP11|chunkType-child|stype-|voicetype-	27	lwg__psp	_	_
29	kqRNa	kqRNa	NNPC	n	lex-kqRNa|cat-n|gen-m|num-sg|pers-3|case-d|vib-0|tam-0|chunkId-NP12|chunkType-child|stype-|voicetype-	31	pof__cn	_	_
30	kumAra	kumAra	NNPC	n	lex-kumAra|cat-n|gen-m|num-sg|pers-3|case-d|vib-0|tam-0|chunkId-NP12|chunkType-child|stype-|voicetype-	31	pof__cn	_	_
31	siMGala	siMGala	NNP	n	lex-siMGala|cat-n|gen-any|num-sg|pers-3|case-d|vib-0|tam-0|chunkId-NP12|chunkType-head|stype-|voicetype-	32	ccof	_	_
32	va	va	CC	avy	lex-va|cat-avy|gen-|num-|pers-|case-|vib-|tam-|chunkId-CCP|chunkType-head|stype-|voicetype-	51	k2	_	_
33	naI	nayA	NNPC	adj	lex-nayA|cat-adj|gen-f|num-sg|pers-|case-o|vib-|tam-|chunkId-NP13|chunkType-child|stype-|voicetype-	34	pof__cn	_	_
34	xillI	xillI	NNP	n	lex-xillI|cat-n|gen-f|num-sg|pers-3|case-o|vib-0_se|tam-0|chunkId-NP13|chunkType-head|stype-|voicetype-	49	nmod	_	_
35	se	se	PSP	psp	lex-se|cat-psp|gen-|num-|pers-|case-|vib-|tam-|chunkId-NP13|chunkType-child|stype-|voicetype-	34	lwg__psp	_	_
36	ayoXyA	ayoXyA	NNPC	n	lex-ayoXyA|cat-n|gen-m|num-sg|pers-3|case-d|vib-0|tam-0|chunkId-NP14|chunkType-child|stype-|voicetype-	39	pof__cn	_	_
37	jAmA	jAmA	NNPC	n	lex-jAmA|cat-n|gen-m|num-sg|pers-3|case-d|vib-0|tam-0|chunkId-NP14|chunkType-child|stype-|voicetype-	39	pof__cn	_	_
38	masjixa	masjixa	NNPC	n	lex-masjixa|cat-n|gen-f|num-sg|pers-3|case-d|vib-0|tam-0|chunkId-NP14|chunkType-child|stype-|voicetype-	39	pof__cn	_	_
39	trasta	trasta	NNP	n	lex-trasta|cat-n|gen-m|num-sg|pers-3|case-o|vib-0_kA|tam-0|chunkId-NP14|chunkType-head|stype-|voicetype-	41	r6	_	_
40	ke	kA	PSP	psp	lex-kA|cat-psp|gen-m|num-sg|pers-3h|case-d|vib-|tam-|chunkId-NP14|chunkType-child|stype-|voicetype-	39	lwg__psp	_	_
41	aXyakRa	aXyakRa	NN	n	lex-aXyakRa|cat-n|gen-m|num-sg|pers-3|case-d|vib-0|tam-0|chunkId-NP15|chunkType-head|stype-|voicetype-	42	ccof	_	_
42	va	va	CC	avy	lex-va|cat-avy|gen-|num-|pers-|case-|vib-|tam-|chunkId-CCP2|chunkType-head|stype-|voicetype-	49	nmod	_	_
43	prabaMXa	prabaMXa	NNC	n	lex-prabaMXa|cat-n|gen-m|num-sg|pers-3|case-d|vib-0|tam-0|chunkId-NP16|chunkType-child|stype-|voicetype-	44	pof__cn	_	_
44	nyAsI	nyAsI	NN	n	lex-nyAsI|cat-n|gen-m|num-sg|pers-3|case-d|vib-0|tam-0|chunkId-NP16|chunkType-head|stype-|voicetype-	42	ccof	_	_
45	allAmA	allAmA	NNPC	n	lex-allAmA|cat-n|gen-m|num-sg|pers-3|case-d|vib-0|tam-0|chunkId-NP17|chunkType-child|stype-|voicetype-	49	pof__cn	_	_
46	sEyaxa	sEyaxa	NNPC	n	lex-sEyaxa|cat-n|gen-m|num-sg|pers-3|case-d|vib-0|tam-0|chunkId-NP17|chunkType-child|stype-|voicetype-	49	pof__cn	_	_
47	asagara	asagara	NNPC	n	lex-asagara|cat-n|gen-m|num-sg|pers-3|case-d|vib-0|tam-0|chunkId-NP17|chunkType-child|stype-|voicetype-	49	pof__cn	_	_
48	abbAsa	abbAsa	NNPC	n	lex-abbAsa|cat-n|gen-m|num-sg|pers-3|case-d|vib-0|tam-0|chunkId-NP17|chunkType-child|stype-|voicetype-	49	pof__cn	_	_
49	rijavI	rijavI	NNP	n	lex-rijavI|cat-n|gen-m|num-sg|pers-3|case-d|vib-0|tam-0|chunkId-NP17|chunkType-head|stype-|voicetype-	32	ccof	_	_
50	nAmiwa	nAmiwa	JJ	adj	lex-nAmiwa|cat-adj|gen-any|num-any|pers-|case-|vib-|tam-|chunkId-JJP|chunkType-head|stype-|voicetype-	51	pof	_	_
51	kie	kara	VM	v	lex-kara|cat-v|gen-m|num-pl|pers-3|case-|vib-yA_jA+yA1_hE|tam-yA|chunkId-VGF|chunkType-head|stype-declarative|voicetype-passive	0	main	_	_
52	gae	jA	VAUX	v	lex-jA|cat-v|gen-m|num-pl|pers-any|case-|vib-yA1|tam-yA1|chunkId-VGF|chunkType-child|stype-|voicetype-	51	lwg__vaux	_	_
53	hEM	hE	VAUX	v	lex-hE|cat-v|gen-any|num-pl|pers-3|case-|vib-hE|tam-hE|chunkId-VGF|chunkType-child|stype-|voicetype-	51	lwg__vaux	_	_
54	.	.	SYM	punc	lex-.|cat-punc|gen-|num-|pers-|case-|vib-|tam-|chunkId-BLK|chunkType-head|stype-|voicetype-	51	rsym	_	_

1	rijavI	rijavI	NNP	n	lex-rijavI|cat-n|gen-m|num-sg|pers-3|case-d|vib-0|tam-0|chunkId-NP|chunkType-head|stype-|voicetype-	5	k1	_	_
2	samiwi	samiwi	NN	n	lex-samiwi|cat-n|gen-f|num-sg|pers-3|case-o|vib-0_kA|tam-0|chunkId-NP2|chunkType-head|stype-|voicetype-	4	r6	_	_
3	ke	kA	PSP	psp	lex-kA|cat-psp|gen-m|num-sg|pers-3h|case-d|vib-|tam-|chunkId-NP2|chunkType-child|stype-|voicetype-	2	lwg__psp	_	_
4	saMyojaka	saMyojaka	NN	n	lex-saMyojaka|cat-n|gen-m|num-sg|pers-3|case-d|vib-0|tam-0|chunkId-NP3|chunkType-head|stype-|voicetype-	5	k1s	_	_
5	banAe	banA	VM	v	lex-banA|cat-v|gen-m|num-sg|pers-3h|case-|vib-yA_jA+yA1_hE|tam-yA|chunkId-VGF|chunkType-head|stype-declarative|voicetype-passive	0	main	_	_
6	gae	jA	VAUX	v	lex-jA|cat-v|gen-m|num-sg|pers-3h|case-|vib-yA1|tam-yA1|chunkId-VGF|chunkType-child|stype-|voicetype-	5	lwg__vaux	_	_
7	hEM	hE	VAUX	v	lex-hE|cat-v|gen-any|num-sg|pers-3h|case-|vib-hE|tam-hE|chunkId-VGF|chunkType-child|stype-|voicetype-	5	lwg__vaux	_	_
8	.	.	SYM	punc	lex-.|cat-punc|gen-|num-|pers-|case-|vib-|tam-|chunkId-BLK|chunkType-head|stype-|voicetype-	5	rsym	_	_

1	rijavI	rijavI	NNP	n	lex-rijavI|cat-n|gen-m|num-sg|pers-3|case-o|vib-0_ne|tam-0|chunkId-NP|chunkType-head|stype-|voicetype-	9	k1	_	_
2	ne	ne	PSP	psp	lex-ne|cat-psp|gen-|num-|pers-|case-|vib-|tam-|chunkId-NP|chunkType-child|stype-|voicetype-	1	lwg__psp	_	_
3	BI	BI	RP	avy	lex-BI|cat-avy|gen-|num-|pers-|case-|vib-|tam-|chunkId-NP|chunkType-child|stype-|voicetype-	1	lwg__rp	_	_
4	samiwi	samiwi	NN	n	lex-samiwi|cat-n|gen-f|num-sg|pers-3|case-o|vib-0_kA|tam-0|chunkId-NP2|chunkType-head|stype-|voicetype-	6	r6	_	_
5	ke	kA	PSP	psp	lex-kA|cat-psp|gen-m|num-sg|pers-|case-o|vib-|tam-|chunkId-NP2|chunkType-child|stype-|voicetype-	4	lwg__psp	_	_
6	gaTana	gaTana	NN	n	lex-gaTana|cat-n|gen-m|num-sg|pers-3|case-o|vib-0_kA|tam-0|chunkId-NP3|chunkType-head|stype-|voicetype-	8	r6-k2	_	_
7	kI	kA	PSP	psp	lex-kA|cat-psp|gen-f|num-sg|pers-|case-d|vib-|tam-|chunkId-NP3|chunkType-child|stype-|voicetype-	6	lwg__psp	_	_
8	puRti	puRti	NN	n	lex-puRti|cat-n|gen-f|num-sg|pers-3|case-d|vib-0|tam-0|chunkId-NP4|chunkType-head|stype-|voicetype-	9	pof	_	_
9	kI	kara	VM	v	lex-kara|cat-v|gen-f|num-sg|pers-3|case-|vib-yA_hE|tam-yA|chunkId-VGF|chunkType-head|stype-declarative|voicetype-active	0	main	_	_
10	hE	hE	VAUX	v	lex-hE|cat-v|gen-any|num-sg|pers-3|case-|vib-hE|tam-hE|chunkId-VGF|chunkType-child|stype-|voicetype-	9	lwg__vaux	_	_
11	.	.	SYM	punc	lex-.|cat-punc|gen-|num-|pers-|case-|vib-|tam-|chunkId-BLK|chunkType-head|stype-|voicetype-	9	rsym	_	_

1	SrI	SrI	NNC	n	lex-SrI|cat-n|gen-m|num-sg|pers-3|case-d|vib-0|tam-0|chunkId-NP|chunkType-child|stype-|voicetype-	2	pof__cn	_	_
2	rijavI	rijavI	NNP	n	lex-rijavI|cat-n|gen-m|num-sg|pers-3|case-o|vib-0_ne|tam-0|chunkId-NP|chunkType-head|stype-|voicetype-	4	k1	_	_
3	ne	ne	PSP	psp	lex-ne|cat-psp|gen-|num-|pers-|case-|vib-|tam-|chunkId-NP|chunkType-child|stype-|voicetype-	2	lwg__psp	_	_
4	bawAyA	bawA	VM	v	lex-bawA|cat-v|gen-m|num-sg|pers-any|case-|vib-yA|tam-yA|chunkId-VGF|chunkType-head|stype-declarative|voicetype-active	0	main	_	_
5	ki	ki	CC	avy	lex-ki|cat-avy|gen-|num-|pers-|case-|vib-|tam-|chunkId-CCP|chunkType-head|stype-|voicetype-	4	k2	_	_
6	samiwi	samiwi	NN	n	lex-samiwi|cat-n|gen-f|num-sg|pers-3|case-o|vib-0_ne|tam-0|chunkId-NP2|chunkType-head|stype-|voicetype-	19	k1	_	_
7	ne	ne	PSP	psp	lex-ne|cat-psp|gen-|num-|pers-|case-|vib-|tam-|chunkId-NP2|chunkType-child|stype-|voicetype-	6	lwg__psp	_	_
8	aba	aba	PRP	pn	lex-aba|cat-pn|gen-|num-|pers-|case-o|vib-0_waka|tam-|chunkId-NP3|chunkType-head|stype-|voicetype-	19	k7t	_	_
9	waka	waka	PSP	psp	lex-waka|cat-psp|gen-|num-|pers-|case-|vib-|tam-|chunkId-NP3|chunkType-child|stype-|voicetype-	8	lwg__psp	_	_
10	ayoXyA	ayoXyA	NNP	n	lex-ayoXyA|cat-n|gen-m|num-sg|pers-3|case-d|vib-0|tam-0|chunkId-NP4|chunkType-child|stype-|voicetype-	11	nmod__adj	_	_
11	prakaraNa	prakaraNa	NN	n	lex-prakaraNa|cat-n|gen-m|num-sg|pers-3|case-o|vib-0_kA|tam-0|chunkId-NP4|chunkType-head|stype-|voicetype-	13	r6	_	_
12	ke	kA	PSP	psp	lex-kA|cat-psp|gen-m|num-sg|pers-|case-o|vib-|tam-|chunkId-NP4|chunkType-child|stype-|voicetype-	11	lwg__psp	_	_
13	samAXAna	samAXAna	NN	n	lex-samAXAna|cat-n|gen-m|num-sg|pers-3|case-o|vib-0_ke_lie|tam-0|chunkId-NP5|chunkType-head|stype-|voicetype-	19	rt	_	_
14	ke	ke	PSP	psp	lex-ke|cat-psp|gen-|num-|pers-|case-|vib-|tam-|chunkId-NP5|chunkType-child|stype-|voicetype-	13	lwg__psp	_	_
15	lie	lie	PSP	psp	lex-lie|cat-psp|gen-|num-|pers-|case-|vib-|tam-|chunkId-NP5|chunkType-child|stype-|voicetype-	13	lwg__psp	_	_
16	vicAra	vicAra	NNC	n	lex-vicAra|cat-n|gen-m|num-sg|pers-3|case-d|vib-0|tam-0|chunkId-NP6|chunkType-child|stype-|voicetype-	18	pof__cn	_	_
17	maMWana	maMWana	NNC	n	lex-maMWana|cat-n|gen-m|num-sg|pers-3|case-d|vib-0|tam-0|chunkId-NP6|chunkType-child|stype-|voicetype-	18	pof__cn	_	_
18	cakra	cakra	NN	n	lex-cakra|cat-n|gen-m|num-sg|pers-3|case-d|vib-0|tam-0|chunkId-NP6|chunkType-head|stype-|voicetype-	19	k2	_	_
19	calAyA	calA	VM	v	lex-calA|cat-v|gen-m|num-sg|pers-any|case-|vib-yA|tam-yA|chunkId-VGF2|chunkType-head|stype-declarative|voicetype-active	5	ccof	_	_
20	.	.	SYM	punc	lex-.|cat-punc|gen-|num-|pers-|case-|vib-|tam-|chunkId-BLK|chunkType-head|stype-|voicetype-	4	rsym	_	_

1	sAWa	sAWa	NST	nst	lex-sAWa|cat-nst|gen-m|num-sg|pers-3|case-d|vib-|tam-|chunkId-NP|chunkType-head|stype-|voicetype-	9	sent-adv	_	_
2	hI	hI	RP	avy	lex-hI|cat-avy|gen-|num-|pers-|case-|vib-|tam-|chunkId-NP|chunkType-child|stype-|voicetype-	1	lwg__rp	_	_
3	SaMkarAcArya	SaMkarAcArya	NN	n	lex-SaMkarAcArya|cat-n|gen-m|num-sg|pers-3|case-o|vib-0_ko|tam-0|chunkId-NP2|chunkType-head|stype-|voicetype-	9	k4	_	_
4	jI	jI	RP	avy	lex-jI|cat-avy|gen-|num-|pers-|case-|vib-|tam-|chunkId-NP2|chunkType-child|stype-|voicetype-	3	lwg__rp	_	_
5	ko	ko	PSP	psp	lex-ko|cat-psp|gen-|num-|pers-|case-|vib-|tam-|chunkId-NP2|chunkType-child|stype-|voicetype-	3	lwg__psp	_	_
6	vaswusWiwi	vaswusWiwi	NN	n	lex-vaswusWiwi|cat-n|gen-f|num-sg|pers-3|case-o|vib-0_se|tam-0|chunkId-NP3|chunkType-head|stype-|voicetype-	9	k2	_	_
7	se	se	PSP	psp	lex-se|cat-psp|gen-|num-|pers-|case-|vib-|tam-|chunkId-NP3|chunkType-child|stype-|voicetype-	6	lwg__psp	_	_
8	avagawa	avagawa	JJ	adj	lex-avagawa|cat-adj|gen-any|num-any|pers-|case-|vib-|tam-|chunkId-JJP|chunkType-head|stype-|voicetype-	9	pof	_	_
9	karAyA	karA	VM	v	lex-karA|cat-v|gen-m|num-sg|pers-any|case-|vib-yA_jA+yA1|tam-yA|chunkId-VGF|chunkType-head|stype-declarative|voicetype-passive	0	main	_	_
10	gayA	jA	VAUX	v	lex-jA|cat-v|gen-m|num-sg|pers-any|case-|vib-yA1|tam-yA1|chunkId-VGF|chunkType-child|stype-|voicetype-	9	lwg__vaux	_	_
11	.	.	SYM	punc	lex-.|cat-punc|gen-|num-|pers-|case-|vib-|tam-|chunkId-BLK|chunkType-head|stype-|voicetype-	9	rsym	_	_

1	unhoMne	vaha	PRP	pn	lex-vaha|cat-pn|gen-any|num-sg|pers-3h|case-o|vib-ne|tam-ne|chunkId-NP|chunkType-head|stype-|voicetype-	2	k1	_	_
2	bawAyA	bawA	VM	v	lex-bawA|cat-v|gen-m|num-sg|pers-any|case-|vib-yA|tam-yA|chunkId-VGF|chunkType-head|stype-declarative|voicetype-active	0	main	_	_
3	ki	ki	CC	avy	lex-ki|cat-avy|gen-|num-|pers-|case-|vib-|tam-|chunkId-CCP|chunkType-head|stype-|voicetype-	2	k2	_	_
4	viBinna	viBinna	JJ	adj	lex-viBinna|cat-adj|gen-any|num-any|pers-|case-o|vib-|tam-|chunkId-NP2|chunkType-child|stype-|voicetype-	5	nmod__adj	_	_
5	xaloM	xala	NN	n	lex-xala|cat-n|gen-m|num-pl|pers-3|case-o|vib-0_kA|tam-0|chunkId-NP2|chunkType-head|stype-|voicetype-	7	r6	_	_
6	ke	kA	PSP	psp	lex-kA|cat-psp|gen-m|num-pl|pers-|case-o|vib-|tam-|chunkId-NP2|chunkType-child|stype-|voicetype-	5	lwg__psp	_	_
7	newAoM	newA	NN	n	lex-newA|cat-n|gen-m|num-pl|pers-3|case-o|vib-0_ke_sAWa|tam-0|chunkId-NP3|chunkType-head|stype-|voicetype-	67	ras-k1	_	_
8	ke	ke	PSP	psp	lex-ke|cat-psp|gen-|num-|pers-|case-|vib-|tam-|chunkId-NP3|chunkType-child|stype-|voicetype-	7	lwg__psp	_	_
9	sAWa	sAWa	NST	nst	lex-sAWa|cat-nst|gen-m|num-sg|pers-3|case-d|vib-|tam-|chunkId-NP3|chunkType-child|stype-|voicetype-	7	lwg__psp	_	_
10	SaMkarAcArya	SaMkarAcArya	NN	n	lex-SaMkarAcArya|cat-n|gen-m|num-sg|pers-3|case-o|vib-0_ne|tam-0|chunkId-NP4|chunkType-head|stype-|voicetype-	67	k1	_	_
11	jI	jI	RP	avy	lex-jI|cat-avy|gen-|num-|pers-|case-|vib-|tam-|chunkId-NP4|chunkType-child|stype-|voicetype-	10	lwg__rp	_	_
12	ne	ne	PSP	psp	lex-ne|cat-psp|gen-|num-|pers-|case-|vib-|tam-|chunkId-NP4|chunkType-child|stype-|voicetype-	10	lwg__psp	_	_
13	aKila	aKila	NNPC	adj	lex-aKila|cat-adj|gen-any|num-any|pers-|case-o|vib-|tam-|chunkId-NP5|chunkType-child|stype-|voicetype-	16	pof__cn	_	_
14	BArawIya	BArawIya	NNPC	adj	lex-BArawIya|cat-adj|gen-any|num-any|pers-|case-o|vib-|tam-|chunkId-NP5|chunkType-child|stype-|voicetype-	16	pof__cn	_	_
15	imAma	imAma	NNPC	n	lex-imAma|cat-n|gen-m|num-sg|pers-3|case-d|vib-0|tam-0|chunkId-NP5|chunkType-child|stype-|voicetype-	16	pof__cn	_	_
16	saMgaTana	saMgaTana	NNP	n	lex-saMgaTana|cat-n|gen-m|num-sg|pers-3|case-o|vib-0_kA|tam-0|chunkId-NP5|chunkType-head|stype-|voicetype-	18	r6	_	_
17	ke	kA	PSP	psp	lex-kA|cat-psp|gen-m|num-sg|pers-|case-o|vib-|tam-|chunkId-NP5|chunkType-child|stype-|voicetype-	16	lwg__psp	_	_
18	aXyakRa	aXyakRa	NN	n	lex-aXyakRa|cat-n|gen-m|num-sg|pers-3|case-o|vib-0|tam-0|chunkId-NP6|chunkType-head|stype-|voicetype-	21	nmod	_	_
19	mOlAnA	mOlAnA	NNC	n	lex-mOlAnA|cat-n|gen-m|num-sg|pers-3|case-d|vib-0|tam-0|chunkId-NP7|chunkType-child|stype-|voicetype-	20	pof__cn	_	_
20	jamIla	jamIla	NNPC	n	lex-jamIla|cat-n|gen-m|num-sg|pers-3|case-d|vib-0|tam-0|chunkId-NP7|chunkType-child|stype-|voicetype-	21	pof__cn	_	_
21	iliyAsI	iliyAsI	NNP	n	lex-iliyAsI|cat-n|gen-m|num-sg|pers-3|case-o|vib-0|tam-0|chunkId-NP7|chunkType-head|stype-|voicetype-	50	ccof	_	_
22	,	COMMA	SYM	punc	lex-COMMA|cat-punc|gen-|num-|pers-|case-|vib-|tam-|chunkId-NP7|chunkType-child|stype-|voicetype-	21	rsym	_	_
23	islAmika	islAmika	NNPC	adj	lex-islAmika|cat-adj|gen-any|num-any|pers-|case-o|vib-|tam-|chunkId-NP8|chunkType-child|stype-|voicetype-	26	pof__cn	_	_
24	kOMsila	kOMsila	NNPC	n	lex-kOMsila|cat-n|gen-f|num-sg|pers-3|case-d|vib-0|tam-0|chunkId-NP8|chunkType-child|stype-|voicetype-	26	pof__cn	_	_
25	APa	APa	NNPC	unk	lex-APa|cat-unk|gen-|num-|pers-|case-|vib-|tam-|chunkId-NP8|chunkType-child|stype-|voicetype-	26	pof__cn	_	_
26	iMdiyA	iMdiyA	NNP	n	lex-iMdiyA|cat-n|gen-m|num-sg|pers-3|case-o|vib-0_kA|tam-0|chunkId-NP8|chunkType-head|stype-|voicetype-	28	r6	_	_
27	ke	kA	PSP	psp	lex-kA|cat-psp|gen-m|num-sg|pers-|case-o|vib-|tam-|chunkId-NP8|chunkType-child|stype-|voicetype-	26	lwg__psp	_	_
28	aXyakRa	aXyakRa	NN	n	lex-aXyakRa|cat-n|gen-m|num-sg|pers-3|case-o|vib-0|tam-0|chunkId-NP9|chunkType-head|stype-|voicetype-	32	nmod	_	_
29	kArI	kArI	NNPC	n	lex-kArI|cat-n|gen-m|num-sg|pers-3|case-d|vib-0|tam-0|chunkId-NP10|chunkType-child|stype-|voicetype-	32	pof__cn	_	_
30	muhammaxa	muhammaxa	NNPC	n	lex-muhammaxa|cat-n|gen-m|num-sg|pers-3|case-d|vib-0|tam-0|chunkId-NP10|chunkType-child|stype-|voicetype-	32	pof__cn	_	_
31	miyAM	miyAz	NNPC	n	lex-miyAz|cat-n|gen-m|num-sg|pers-3|case-d|vib-0|tam-0|chunkId-NP10|chunkType-child|stype-|voicetype-	32	pof__cn	_	_
32	majaharI	majaharI	NNP	n	lex-majaharI|cat-n|gen-m|num-sg|pers-3|case-o|vib-0|tam-0|chunkId-NP10|chunkType-head|stype-|voicetype-	50	ccof	_	_
33	,	COMMA	SYM	punc	lex-COMMA|cat-punc|gen-|num-|pers-|case-|vib-|tam-|chunkId-NP10|chunkType-child|stype-|voicetype-	32	rsym	_	_
34	siyA	siyA	NNC	n	lex-siyA|cat-n|gen-m|num-sg|pers-3|case-d|vib-0|tam-0|chunkId-NP11|chunkType-child|stype-|voicetype-	35	pof__cn	_	_
35	mOlAnA	mOlAnA	NN	n	lex-mOlAnA|cat-n|gen-m|num-sg|pers-3|case-d|vib-0|tam-0|chunkId-NP11|chunkType-head|stype-|voicetype-	38	nmod	_	_
36	sEyaxa	sEyaxa	NNPC	n	lex-sEyaxa|cat-n|gen-m|num-sg|pers-3|case-d|vib-0|tam-0|chunkId-NP12|chunkType-child|stype-|voicetype-	38	pof__cn	_	_
37	kalve	kalve	NNPC	n	lex-kalve|cat-n|gen-m|num-sg|pers-3|case-d|vib-0|tam-0|chunkId-NP12|chunkType-child|stype-|voicetype-	38	pof__cn	_	_
38	ruSexa	ruSexa	NNP	n	lex-ruSexa|cat-n|gen-m|num-sg|pers-3|case-o|vib-0|tam-0|chunkId-NP12|chunkType-head|stype-|voicetype-	50	ccof	_	_
39	,	COMMA	SYM	punc	lex-COMMA|cat-punc|gen-|num-|pers-|case-|vib-|tam-|chunkId-NP12|chunkType-child|stype-|voicetype-	38	rsym	_	_
40	helAla	helAla	NNPC	n	lex-helAla|cat-n|gen-m|num-sg|pers-3|case-d|vib-0|tam-0|chunkId-NP13|chunkType-child|stype-|voicetype-	42	pof__cn	_	_
41	kametI	kametI	NNPC	n	lex-kametI|cat-n|gen-f|num-sg|pers-3|case-d|vib-0|tam-0|chunkId-NP13|chunkType-child|stype-|voicetype-	42	pof__cn	_	_
42	PEjAbAxa	PEjAbAxa	NNP	n	lex-PEjAbAxa|cat-n|gen-m|num-sg|pers-3|case-o|vib-0_kA|tam-0|chunkId-NP13|chunkType-head|stype-|voicetype-	44	r6	_	_
43	ke	kA	PSP	psp	lex-kA|cat-psp|gen-m|num-pl|pers-|case-o|vib-|tam-|chunkId-NP13|chunkType-child|stype-|voicetype-	42	lwg__psp	_	_
44	paxAXikArI	paxAXikArI	NN	n	lex-paxAXikArI|cat-n|gen-m|num-sg|pers-3|case-o|vib-0_sahiwa|tam-0|chunkId-NP14|chunkType-head|stype-|voicetype-	46	nmod	_	_
45	sahiwa	sahiwa	PSP	psp	lex-sahiwa|cat-psp|gen-|num-|pers-|case-|vib-|tam-|chunkId-NP14|chunkType-child|stype-|voicetype-	44	lwg__psp	_	_
46	xevabaMxa	xevabaMxa	NNP	n	lex-xevabaMxa|cat-n|gen-m|num-sg|pers-3|case-o|vib-0_kA|tam-0|chunkId-NP15|chunkType-head|stype-|voicetype-	49	nmod	_	_
47	ke	kA	PSP	psp	lex-kA|cat-psp|gen-m|num-sg|pers-|case-o|vib-|tam-|chunkId-NP15|chunkType-child|stype-|voicetype-	46	lwg__psp	_	_
48	KAlixa	KAlixa	NNPC	n	lex-KAlixa|cat-n|gen-m|num-sg|pers-3|case-d|vib-0|tam-0|chunkId-NP16|chunkType-child|stype-|voicetype-	49	pof__cn	_	_
49	aMsArI	aMsArI	NNP	n	lex-aMsArI|cat-n|gen-m|num-sg|pers-3|case-o|vib-0|tam-0|chunkId-NP16|chunkType-head|stype-|voicetype-	50	ccof	_	_
50	,	COMMA	SYM	punc	lex-COMMA|cat-punc|gen-|num-|pers-|case-|vib-|tam-|chunkId-CCP2|chunkType-head|stype-|voicetype-	67	ras-k1	_	_
51	OYla	OYla	NNPC	avy	lex-OYla|cat-avy|gen-|num-|pers-|case-|vib-|tam-|chunkId-NP17|chunkType-child|stype-|voicetype-	54	pof__cn	_	_
52	iMdiyA	iMdiyA	NNPC	n	lex-iMdiyA|cat-n|gen-f|num-sg|pers-3|case-d|vib-0|tam-0|chunkId-NP17|chunkType-child|stype-|voicetype-	54	pof__cn	_	_
53	siyA	siyA	NNPC	n	lex-siyA|cat-n|gen-m|num-sg|pers-3|case-d|vib-0|tam-0|chunkId-NP17|chunkType-child|stype-|voicetype-	54	pof__cn	_	_
54	kAMPreMsa	kAMPreMsa	NNP	n	lex-kAMPreMsa|cat-n|gen-f|num-sg|pers-3|case-o|vib-0_kA|tam-0|chunkId-NP17|chunkType-head|stype-|voicetype-	58	nmod	_	_
55	ke	kA	PSP	psp	lex-kA|cat-psp|gen-m|num-sg|pers-|case-o|vib-|tam-|chunkId-NP17|chunkType-child|stype-|voicetype-	54	lwg__psp	_	_
56	sEyaxa	sEyaxa	NNPC	n	lex-sEyaxa|cat-n|gen-m|num-sg|pers-3|case-d|vib-0|tam-0|chunkId-NP18|chunkType-child|stype-|voicetype-	58	pof__cn	_	_
57	jamIra	jamIra	NNPC	n	lex-jamIra|cat-n|gen-m|num-sg|pers-3|case-d|vib-0|tam-0|chunkId-NP18|chunkType-child|stype-|voicetype-	58	pof__cn	_	_
58	sulwAna	sulwAna	NNP	n	lex-sulwAna|cat-n|gen-m|num-sg|pers-3|case-o|vib-0_sahiwa|tam-0|chunkId-NP18|chunkType-head|stype-|voicetype-	50	ccof	_	_
59	sahiwa	sahiwa	PSP	psp	lex-sahiwa|cat-psp|gen-|num-|pers-|case-|vib-|tam-|chunkId-NP18|chunkType-child|stype-|voicetype-	58	lwg__psp	_	_
60	xUsare	xUsarA	QO	num	lex-xUsarA|cat-num|gen-m|num-pl|pers-|case-o|vib-|tam-|chunkId-NP19|chunkType-child|stype-|voicetype-	61	nmod__adj	_	_
61	mOlAnAoM	mOlAnA	NN	n	lex-mOlAnA|cat-n|gen-m|num-pl|pers-3|case-o|vib-0_se|tam-0|chunkId-NP19|chunkType-head|stype-|voicetype-	67	ras-k1	_	_
62	se	se	PSP	psp	lex-se|cat-psp|gen-|num-|pers-|case-|vib-|tam-|chunkId-NP19|chunkType-child|stype-|voicetype-	61	lwg__psp	_	_
63	BI	BI	RP	avy	lex-BI|cat-avy|gen-|num-|pers-|case-|vib-|tam-|chunkId-NP19|chunkType-child|stype-|voicetype-	61	lwg__rp	_	_
64	vicAra	vicAra	NNC	n	lex-vicAra|cat-n|gen-m|num-sg|pers-3|case-d|vib-0|tam-0|chunkId-NP20|chunkType-child|stype-|voicetype-	66	pof__cn	_	_
65	-	-	SYM	punc	lex--|cat-punc|gen-|num-|pers-|case-|vib-|tam-|chunkId-NP20|chunkType-child|stype-|voicetype-	66	pof__cn	_	_
66	vimarSa	vimarSa	NN	n	lex-vimarSa|cat-n|gen-m|num-sg|pers-3|case-d|vib-0|tam-0|chunkId-NP20|chunkType-head|stype-|voicetype-	67	pof	_	_
67	kiyA	kara	VM	v	lex-kara|cat-v|gen-m|num-sg|pers-any|case-|vib-yA|tam-yA|chunkId-VGF2|chunkType-head|stype-declarative|voicetype-active	3	ccof	_	_
68	.	.	SYM	punc	lex-.|cat-punc|gen-|num-|pers-|case-|vib-|tam-|chunkId-BLK|chunkType-head|stype-|voicetype-	2	rsym	_	_

1	ayoXyA	ayoXyA	NNP	n	lex-ayoXyA|cat-n|gen-m|num-sg|pers-3|case-d|vib-0|tam-0|chunkId-NP|chunkType-child|stype-|voicetype-	2	nmod__adj	_	_
2	vivAxa	vivAxa	NN	n	lex-vivAxa|cat-n|gen-m|num-sg|pers-3|case-o|vib-0_kA|tam-0|chunkId-NP|chunkType-head|stype-|voicetype-	4	r6	_	_
3	ke	kA	PSP	psp	lex-kA|cat-psp|gen-m|num-sg|pers-|case-o|vib-|tam-|chunkId-NP|chunkType-child|stype-|voicetype-	2	lwg__psp	_	_
4	hala	hala	NN	n	lex-hala|cat-n|gen-m|num-sg|pers-3|case-o|vib-0_ke_lie|tam-0|chunkId-NP2|chunkType-head|stype-|voicetype-	21	rt	_	_
5	ke	ke	PSP	psp	lex-ke|cat-psp|gen-|num-|pers-|case-|vib-|tam-|chunkId-NP2|chunkType-child|stype-|voicetype-	4	lwg__psp	_	_
6	lie	lie	PSP	psp	lex-lie|cat-psp|gen-|num-|pers-|case-|vib-|tam-|chunkId-NP2|chunkType-child|stype-|voicetype-	4	lwg__psp	_	_
7	nae	nayA	JJ	adj	lex-nayA|cat-adj|gen-m|num-sg|pers-|case-o|vib-|tam-|chunkId-NP3|chunkType-child|stype-|voicetype-	8	nmod__adj	_	_
8	sire	sirA	NN	n	lex-sirA|cat-n|gen-m|num-sg|pers-3|case-o|vib-0_se|tam-0|chunkId-NP3|chunkType-head|stype-|voicetype-	21	adv	_	_
9	se	se	PSP	psp	lex-se|cat-psp|gen-|num-|pers-|case-|vib-|tam-|chunkId-NP3|chunkType-child|stype-|voicetype-	8	lwg__psp	_	_
10	OYla	OYla	NNPC	avy	lex-OYla|cat-avy|gen-|num-|pers-|case-|vib-|tam-|chunkId-NP4|chunkType-child|stype-|voicetype-	15	pof__cn	_	_
11	iMdiyA	iMdiyA	NNPC	n	lex-iMdiyA|cat-n|gen-f|num-sg|pers-3|case-d|vib-0|tam-0|chunkId-NP4|chunkType-child|stype-|voicetype-	15	pof__cn	_	_
12	muslima	muslima	NNPC	n	lex-muslima|cat-n|gen-m|num-sg|pers-3|case-d|vib-0|tam-0|chunkId-NP4|chunkType-child|stype-|voicetype-	15	pof__cn	_	_
13	parsanala	parsanala	NNPC	n	lex-parsanala|cat-n|gen-m|num-sg|pers-3|case-d|vib-0|tam-0|chunkId-NP4|chunkType-child|stype-|voicetype-	15	pof__cn	_	_
14	lOY	lOY	NNPC	n	lex-lOY|cat-n|gen-m|num-sg|pers-3|case-d|vib-0|tam-0|chunkId-NP4|chunkType-child|stype-|voicetype-	15	pof__cn	_	_
15	borda	borda	NNP	n	lex-borda|cat-n|gen-m|num-sg|pers-3|case-o|vib-0_se|tam-0|chunkId-NP4|chunkType-head|stype-|voicetype-	21	ras-k1	_	_
16	se	se	PSP	psp	lex-se|cat-psp|gen-|num-|pers-|case-|vib-|tam-|chunkId-NP4|chunkType-child|stype-|voicetype-	15	lwg__psp	_	_
17	bAwacIwa	bAwacIwa	NN	n	lex-bAwacIwa|cat-n|gen-f|num-sg|pers-3|case-o|vib-0_kA|tam-0|chunkId-NP5|chunkType-head|stype-|voicetype-	19	r6	_	_
18	kI	kA	PSP	psp	lex-kA|cat-psp|gen-f|num-sg|pers-|case-d|vib-|tam-|chunkId-NP5|chunkType-child|stype-|voicetype-	17	lwg__psp	_	_
19	raNanIwi	raNanIwi	NN	n	lex-raNanIwi|cat-n|gen-f|num-sg|pers-3|case-d|vib-0|tam-0|chunkId-NP6|chunkType-head|stype-|voicetype-	21	k1	_	_
20	BI	BI	RP	avy	lex-BI|cat-avy|gen-|num-|pers-|case-|vib-|tam-|chunkId-NP6|chunkType-child|stype-|voicetype-	19	lwg__rp	_	_
21	hE	hE	VM	v	lex-hE|cat-v|gen-any|num-sg|pers-3|case-|vib-hE|tam-hE|chunkId-VGF|chunkType-head|stype-declarative|voicetype-active	0	main	_	_
22	.	.	SYM	punc	lex-.|cat-punc|gen-|num-|pers-|case-|vib-|tam-|chunkId-BLK|chunkType-head|stype-|voicetype-	21	rsym	_	_

1	isake	yaha	PRP	pn	lex-yaha|cat-pn|gen-any|num-sg|pers-3|case-o|vib-0_lie|tam-ke|chunkId-NP|chunkType-head|stype-|voicetype-	7	rt	_	_
2	lie	lie	PSP	psp	lex-lie|cat-psp|gen-|num-|pers-|case-|vib-|tam-|chunkId-NP|chunkType-child|stype-|voicetype-	1	lwg__psp	_	_
3	praswAva	praswAva	NN	n	lex-praswAva|cat-n|gen-m|num-sg|pers-3|case-o|vib-0_para|tam-0|chunkId-NP2|chunkType-head|stype-|voicetype-	7	k7	_	_
4	para	para	PSP	psp	lex-para|cat-psp|gen-|num-|pers-|case-|vib-|tam-|chunkId-NP2|chunkType-child|stype-|voicetype-	3	lwg__psp	_	_
5	carcA	carcA	NN	n	lex-carcA|cat-n|gen-f|num-sg|pers-3|case-d|vib-0|tam-0|chunkId-NP3|chunkType-head|stype-|voicetype-	7	k2	_	_
6	SurU	SurU	NN	n	lex-SurU|cat-n|gen-m|num-sg|pers-3|case-d|vib-0|tam-0|chunkId-NP4|chunkType-head|stype-|voicetype-	7	pof	_	_
7	hone	ho	VM	v	lex-ho|cat-v|gen-f|num-sg|pers-3|case-|vib-nA_vAlA_hE|tam-nA|chunkId-VGF|chunkType-head|stype-declarative|voicetype-active	0	main	_	_
8	vAlI	vAlA	VAUX	v	lex-vAlA|cat-v|gen-f|num-sg|pers-3|case-|vib-0|tam-0|chunkId-VGF|chunkType-child|stype-|voicetype-	7	lwg__vaux	_	_
9	hE	hE	VAUX	v	lex-hE|cat-v|gen-any|num-sg|pers-3|case-|vib-hE|tam-hE|chunkId-VGF|chunkType-child|stype-|voicetype-	7	lwg__vaux	_	_
10	.	.	SYM	punc	lex-.|cat-punc|gen-|num-|pers-|case-|vib-|tam-|chunkId-BLK|chunkType-head|stype-|voicetype-	7	rsym	_	_

1	yaha	yaha	DEM	pn	lex-yaha|cat-pn|gen-any|num-sg|pers-3|case-d|vib-|tam-|chunkId-NP|chunkType-child|stype-|voicetype-	3	nmod__adj	_	_
2	samAXAna	samAXAna	NNC	n	lex-samAXAna|cat-n|gen-m|num-sg|pers-3|case-d|vib-0|tam-0|chunkId-NP|chunkType-child|stype-|voicetype-	3	pof__cn	_	_
3	praswAva	praswAva	NN	n	lex-praswAva|cat-n|gen-m|num-sg|pers-3|case-d|vib-0|tam-0|chunkId-NP|chunkType-head|stype-|voicetype-	9	k1	_	_
4	30	30	NNPC	n	lex-30|cat-n|gen-any|num-sg|pers-3|case-d|vib-0|tam-0|chunkId-NP2|chunkType-child|stype-|voicetype-	6	pof__cn	_	_
5	siwaMbara	siwaMbara	NNPC	n	lex-siwaMbara|cat-n|gen-m|num-sg|pers-3|case-d|vib-0|tam-0|chunkId-NP2|chunkType-child|stype-|voicetype-	6	pof__cn	_	_
6	2004	2004	NNP	n	lex-2004|cat-n|gen-any|num-sg|pers-3|case-o|vib-0_waka|tam-0|chunkId-NP2|chunkType-head|stype-|voicetype-	9	k7t	_	_
7	waka	waka	PSP	psp	lex-waka|cat-psp|gen-|num-|pers-|case-|vib-|tam-|chunkId-NP2|chunkType-child|stype-|voicetype-	6	lwg__psp	_	_
8	wEyAra	wEyAra	JJ	adj	lex-wEyAra|cat-adj|gen-any|num-any|pers-|case-|vib-|tam-|chunkId-JJP|chunkType-head|stype-|voicetype-	9	pof	_	_
9	ho	ho	VM	v	lex-ho|cat-v|gen-any|num-sg|pers-any|case-|vib-0_jA+nA_kA|tam-0|chunkId-VGNN|chunkType-head|stype-|voicetype-	12	r6	_	_
10	jAne	jA	VAUX	v	lex-jA|cat-v|gen-any|num-any|pers-any|case-o|vib-nA|tam-nA|chunkId-VGNN|chunkType-child|stype-|voicetype-	9	lwg__vaux	_	_
11	kI	kA	PSP	psp	lex-kA|cat-psp|gen-f|num-sg|pers-|case-d|vib-|tam-|chunkId-VGNN|chunkType-child|stype-|voicetype-	9	lwg__psp	_	_
12	ummIxa	ummIxa	NN	n	lex-ummIxa|cat-n|gen-f|num-sg|pers-3|case-d|vib-0|tam-0|chunkId-NP3|chunkType-head|stype-|voicetype-	13	k1	_	_
13	hE	hE	VM	v	lex-hE|cat-v|gen-any|num-sg|pers-3|case-|vib-hE|tam-hE|chunkId-VGF|chunkType-head|stype-declarative|voicetype-active	0	main	_	_
14	.	.	SYM	punc	lex-.|cat-punc|gen-|num-|pers-|case-|vib-|tam-|chunkId-BLK|chunkType-head|stype-|voicetype-	13	rsym	_	_

1	isakI	yaha	PRP	pn	lex-yaha|cat-pn|gen-f|num-sg|pers-3|case-o|vib-kA|tam-kA|chunkId-NP|chunkType-head|stype-|voicetype-	3	r6	_	_
2	pahalI	pahalA	QO	num	lex-pahalA|cat-num|gen-f|num-sg|pers-|case-d|vib-|tam-|chunkId-NP2|chunkType-child|stype-|voicetype-	3	nmod__adj	_	_
3	bETaka	bETaka	NN	n	lex-bETaka|cat-n|gen-f|num-sg|pers-3|case-d|vib-0|tam-0|chunkId-NP2|chunkType-head|stype-|voicetype-	12	k1	_	_
4	jUna	jUna	NNP	n	lex-jUna|cat-n|gen-m|num-sg|pers-3|case-o|vib-0_kA|tam-0|chunkId-NP3|chunkType-head|stype-|voicetype-	7	r6	_	_
5	ke	kA	PSP	psp	lex-kA|cat-psp|gen-m|num-sg|pers-|case-o|vib-|tam-|chunkId-NP3|chunkType-child|stype-|voicetype-	4	lwg__psp	_	_
6	wIsare	wIsarA	QO	num	lex-wIsarA|cat-num|gen-m|num-sg|pers-|case-o|vib-|tam-|chunkId-NP4|chunkType-child|stype-|voicetype-	7	nmod__adj	_	_
7	sapwAha	sapwAha	NN	n	lex-sapwAha|cat-n|gen-m|num-sg|pers-3|case-o|vib-0_meM|tam-0|chunkId-NP4|chunkType-head|stype-|voicetype-	12	k7t	_	_
8	meM	meM	PSP	psp	lex-meM|cat-psp|gen-|num-|pers-|case-|vib-|tam-|chunkId-NP4|chunkType-child|stype-|voicetype-	7	lwg__psp	_	_
9	ayoXyA	ayoXyA	NNP	n	lex-ayoXyA|cat-n|gen-m|num-sg|pers-3|case-o|vib-0_meM|tam-0|chunkId-NP5|chunkType-head|stype-|voicetype-	12	k7p	_	_
10	meM	meM	PSP	psp	lex-meM|cat-psp|gen-|num-|pers-|case-|vib-|tam-|chunkId-NP5|chunkType-child|stype-|voicetype-	9	lwg__psp	_	_
11	Ayojiwa	Ayojiwa	JJ	adj	lex-Ayojiwa|cat-adj|gen-any|num-any|pers-|case-|vib-|tam-|chunkId-JJP|chunkType-head|stype-|voicetype-	12	pof	_	_
12	hogI	ho	VM	v	lex-ho|cat-v|gen-f|num-sg|pers-3|case-|vib-gA|tam-gA|chunkId-VGF|chunkType-head|stype-declarative|voicetype-active	0	main	_	_
13	.	.	SYM	punc	lex-.|cat-punc|gen-|num-|pers-|case-|vib-|tam-|chunkId-BLK|chunkType-head|stype-|voicetype-	12	rsym	_	_

1	isakI	yaha	PRP	pn	lex-yaha|cat-pn|gen-f|num-sg|pers-3|case-o|vib-kA|tam-kA|chunkId-NP|chunkType-head|stype-|voicetype-	2	r6-k2	_	_
2	puRti	puRti	NN	n	lex-puRti|cat-n|gen-f|num-sg|pers-3|case-d|vib-0|tam-0|chunkId-NP2|chunkType-head|stype-|voicetype-	9	pof	_	_
3	samiwi	samiwi	NN	n	lex-samiwi|cat-n|gen-f|num-sg|pers-3|case-o|vib-0_kA|tam-0|chunkId-NP3|chunkType-head|stype-|voicetype-	5	r6	_	_
4	ke	kA	PSP	psp	lex-kA|cat-psp|gen-m|num-sg|pers-3h|case-d|vib-|tam-|chunkId-NP3|chunkType-child|stype-|voicetype-	3	lwg__psp	_	_
5	saMyojaka	saMyojaka	NN	n	lex-saMyojaka|cat-n|gen-m|num-sg|pers-3|case-d|vib-0|tam-0|chunkId-NP4|chunkType-head|stype-|voicetype-	7	nmod	_	_
6	SrI	SrI	NNC	n	lex-SrI|cat-n|gen-m|num-sg|pers-3|case-d|vib-0|tam-0|chunkId-NP5|chunkType-child|stype-|voicetype-	7	pof__cn	_	_
7	rijavI	rijavI	NNP	n	lex-rijavI|cat-n|gen-m|num-sg|pers-3|case-d|vib-0|tam-0|chunkId-NP5|chunkType-head|stype-|voicetype-	9	k1	_	_
8	BI	BI	RP	avy	lex-BI|cat-avy|gen-|num-|pers-|case-|vib-|tam-|chunkId-NP5|chunkType-child|stype-|voicetype-	7	lwg__rp	_	_
9	karawe	kara	VM	v	lex-kara|cat-v|gen-m|num-sg|pers-3h|case-|vib-wA_hE|tam-wA|chunkId-VGF|chunkType-head|stype-declarative|voicetype-active	0	main	_	_
10	hEM	hE	VAUX	v	lex-hE|cat-v|gen-any|num-sg|pers-3h|case-|vib-hE|tam-hE|chunkId-VGF|chunkType-child|stype-|voicetype-	9	lwg__vaux	_	_
11	.	.	SYM	punc	lex-.|cat-punc|gen-|num-|pers-|case-|vib-|tam-|chunkId-BLK|chunkType-head|stype-|voicetype-	9	rsym	_	_

1	SrI	SrI	NNC	n	lex-SrI|cat-n|gen-m|num-sg|pers-3|case-d|vib-0|tam-0|chunkId-NP|chunkType-child|stype-|voicetype-	2	pof__cn	_	_
2	rijavI	rijavI	NNP	n	lex-rijavI|cat-n|gen-m|num-sg|pers-3|case-d|vib-0|tam-0|chunkId-NP|chunkType-head|stype-|voicetype-	3	k1	_	_
3	bawAwe	bawA	VM	v	lex-bawA|cat-v|gen-m|num-sg|pers-3h|case-|vib-wA_hE|tam-wA|chunkId-VGF|chunkType-head|stype-declarative|voicetype-active	0	main	_	_
4	hEM	hE	VAUX	v	lex-hE|cat-v|gen-any|num-sg|pers-3h|case-|vib-hE|tam-hE|chunkId-VGF|chunkType-child|stype-|voicetype-	3	lwg__vaux	_	_
5	ki	ki	CC	avy	lex-ki|cat-avy|gen-|num-|pers-|case-|vib-|tam-|chunkId-CCP|chunkType-head|stype-|voicetype-	3	k2	_	_
6	samAXAna	samAXAna	NNC	n	lex-samAXAna|cat-n|gen-m|num-sg|pers-3|case-d|vib-0|tam-0|chunkId-NP2|chunkType-child|stype-|voicetype-	7	pof__cn	_	_
7	praswAva	praswAva	NN	n	lex-praswAva|cat-n|gen-m|num-sg|pers-3|case-d|vib-0|tam-0|chunkId-NP2|chunkType-head|stype-|voicetype-	15	k7	_	_
8	saBI	saBI	QF	avy	lex-saBI|cat-avy|gen-|num-|pers-|case-|vib-|tam-|chunkId-NP3|chunkType-child|stype-|voicetype-	10	nmod__adj	_	_
9	saMbaMXiwa	saMbaMXiwa	JJ	adj	lex-saMbaMXiwa|cat-adj|gen-any|num-any|pers-|case-o|vib-|tam-|chunkId-NP3|chunkType-child|stype-|voicetype-	10	nmod__adj	_	_
10	pakRoM	pakRa	NN	n	lex-pakRa|cat-n|gen-m|num-pl|pers-3|case-o|vib-0_se|tam-0|chunkId-NP3|chunkType-head|stype-|voicetype-	15	k2	_	_
11	se	se	PSP	psp	lex-se|cat-psp|gen-|num-|pers-|case-|vib-|tam-|chunkId-NP3|chunkType-child|stype-|voicetype-	10	lwg__psp	_	_
12	vicAra	vicAra	NNC	n	lex-vicAra|cat-n|gen-m|num-sg|pers-3|case-d|vib-0|tam-0|chunkId-NP4|chunkType-child|stype-|voicetype-	14	pof__cn	_	_
13	-	-	SYM	punc	lex--|cat-punc|gen-|num-|pers-|case-|vib-|tam-|chunkId-NP4|chunkType-child|stype-|voicetype-	14	pof__cn	_	_
14	vimarSa	vimarSa	NN	n	lex-vimarSa|cat-n|gen-m|num-sg|pers-3|case-d|vib-0|tam-0|chunkId-NP4|chunkType-head|stype-|voicetype-	15	pof	_	_
15	kiyA	kara	VM	v	lex-kara|cat-v|gen-m|num-sg|pers-3|case-|vib-yA_jA+gA|tam-yA|chunkId-VGF2|chunkType-head|stype-declarative|voicetype-passive	17	ccof	_	_
16	jAegA	jA	VAUX	v	lex-jA|cat-v|gen-m|num-sg|pers-3|case-|vib-gA|tam-gA|chunkId-VGF2|chunkType-child|stype-|voicetype-	15	lwg__vaux	_	_
17	waWA	waWA	CC	avy	lex-waWA|cat-avy|gen-|num-|pers-|case-|vib-|tam-|chunkId-CCP2|chunkType-head|stype-|voicetype-	5	ccof	_	_
18	aMwima	aMwima	JJ	adj	lex-aMwima|cat-adj|gen-any|num-any|pers-|case-o|vib-|tam-|chunkId-NP5|chunkType-child|stype-|voicetype-	19	nmod__adj	_	_
19	wOra	wOra	NN	n	lex-wOra|cat-n|gen-m|num-sg|pers-3|case-o|vib-0_para|tam-0|chunkId-NP5|chunkType-head|stype-|voicetype-	41	k7	_	_
20	para	para	PSP	psp	lex-para|cat-psp|gen-|num-|pers-|case-|vib-|tam-|chunkId-NP5|chunkType-child|stype-|voicetype-	19	lwg__psp	_	_
21	SaMkarAcArya	SaMkarAcArya	NN	n	lex-SaMkarAcArya|cat-n|gen-m|num-sg|pers-3|case-d|vib-0|tam-0|chunkId-NP6|chunkType-child|stype-|voicetype-	23	nmod	_	_
22	jI	jI	RP	avy	lex-jI|cat-avy|gen-|num-|pers-|case-|vib-|tam-|chunkId-NP6|chunkType-child|stype-|voicetype-	23	lwg__rp	_	_
23	mahArAja	mahArAja	NN	n	lex-mahArAja|cat-n|gen-m|num-sg|pers-3|case-d|vib-0|tam-0|chunkId-NP6|chunkType-head|stype-|voicetype-	24	ccof	_	_
24	Ora	Ora	CC	avy	lex-Ora|cat-avy|gen-|num-|pers-|case-|vib-|tam-|chunkId-CCP3|chunkType-head|stype-|voicetype-	41	k1	_	_
25	OYla	OYla	NNPC	avy	lex-OYla|cat-avy|gen-|num-|pers-|case-|vib-|tam-|chunkId-NP7|chunkType-child|stype-|voicetype-	30	pof__cn	_	_
26	iMdiyA	iMdiyA	NNPC	n	lex-iMdiyA|cat-n|gen-m|num-sg|pers-3|case-d|vib-0|tam-0|chunkId-NP7|chunkType-child|stype-|voicetype-	30	pof__cn	_	_
27	muslima	muslima	NNPC	n	lex-muslima|cat-n|gen-m|num-sg|pers-3|case-d|vib-0|tam-0|chunkId-NP7|chunkType-child|stype-|voicetype-	30	pof__cn	_	_
28	parsanala	parsanala	NNPC	n	lex-parsanala|cat-n|gen-m|num-sg|pers-3|case-d|vib-0|tam-0|chunkId-NP7|chunkType-child|stype-|voicetype-	30	pof__cn	_	_
29	lOY	lOY	NNPC	n	lex-lOY|cat-n|gen-m|num-sg|pers-3|case-d|vib-0|tam-0|chunkId-NP7|chunkType-child|stype-|voicetype-	30	pof__cn	_	_
30	borda	borda	NNP	n	lex-borda|cat-n|gen-m|num-sg|pers-3|case-o|vib-0_kA|tam-0|chunkId-NP7|chunkType-head|stype-|voicetype-	32	r6	_	_
31	ke	kA	PSP	psp	lex-kA|cat-psp|gen-m|num-sg|pers-3h|case-d|vib-|tam-|chunkId-NP7|chunkType-child|stype-|voicetype-	30	lwg__psp	_	_
32	aXyakRa	aXyakRa	NN	n	lex-aXyakRa|cat-n|gen-m|num-sg|pers-3|case-d|vib-0|tam-0|chunkId-NP8|chunkType-head|stype-|voicetype-	35	nmod	_	_
33	mOlAnA	mOlAnA	NNC	n	lex-mOlAnA|cat-n|gen-m|num-sg|pers-3|case-d|vib-0|tam-0|chunkId-NP9|chunkType-child|stype-|voicetype-	34	pof__cn	_	_
34	naxavI	naxavI	NNPC	n	lex-naxavI|cat-n|gen-m|num-sg|pers-3|case-d|vib-0|tam-0|chunkId-NP9|chunkType-child|stype-|voicetype-	35	pof__cn	_	_
35	sAhaba	sAhaba	NNP	n	lex-sAhaba|cat-n|gen-m|num-sg|pers-3|case-d|vib-0|tam-0|chunkId-NP9|chunkType-head|stype-|voicetype-	24	ccof	_	_
36	hI	hI	RP	avy	lex-hI|cat-avy|gen-|num-|pers-|case-|vib-|tam-|chunkId-NP9|chunkType-child|stype-|voicetype-	35	lwg__rp	_	_
37	samAXAna	samAXAna	NNC	n	lex-samAXAna|cat-n|gen-m|num-sg|pers-3|case-d|vib-0|tam-0|chunkId-NP10|chunkType-child|stype-|voicetype-	38	pof__cn	_	_
38	praswAva	praswAva	NN	n	lex-praswAva|cat-n|gen-m|num-sg|pers-3|case-o|vib-0_para|tam-0|chunkId-NP10|chunkType-head|stype-|voicetype-	41	k7	_	_
39	para	para	PSP	psp	lex-para|cat-psp|gen-|num-|pers-|case-|vib-|tam-|chunkId-NP10|chunkType-child|stype-|voicetype-	38	lwg__psp	_	_
40	nirNaya	nirNaya	NN	n	lex-nirNaya|cat-n|gen-m|num-sg|pers-3|case-d|vib-0|tam-0|chunkId-NP11|chunkType-head|stype-|voicetype-	41	pof	_	_
41	kareMge	kara	VM	v	lex-kara|cat-v|gen-m|num-pl|pers-3|case-|vib-gA|tam-gA|chunkId-VGF3|chunkType-head|stype-declarative|voicetype-active	17	ccof	_	_
42	.	.	SYM	punc	lex-.|cat-punc|gen-|num-|pers-|case-|vib-|tam-|chunkId-BLK|chunkType-head|stype-|voicetype-	3	rsym	_	_

1	vaha	vaha	PRP	pn	lex-vaha|cat-pn|gen-any|num-sg|pers-3|case-d|vib-0|tam-0|chunkId-NP|chunkType-head|stype-|voicetype-	2	k1	_	_
2	bawAwe	bawA	VM	v	lex-bawA|cat-v|gen-m|num-sg|pers-3h|case-|vib-wA_hE|tam-wA|chunkId-VGF|chunkType-head|stype-declarative|voicetype-active	0	main	_	_
3	hEM	hE	VAUX	v	lex-hE|cat-v|gen-any|num-sg|pers-3h|case-|vib-hE|tam-hE|chunkId-VGF|chunkType-child|stype-|voicetype-	2	lwg__vaux	_	_
4	ki	ki	CC	avy	lex-ki|cat-avy|gen-|num-|pers-|case-|vib-|tam-|chunkId-CCP|chunkType-head|stype-|voicetype-	2	k2	_	_
5	samiwi	samiwi	NN	n	lex-samiwi|cat-n|gen-f|num-sg|pers-3|case-d|vib-0|tam-0|chunkId-NP2|chunkType-head|stype-|voicetype-	11	k1	_	_
6	SaMkarAcArya	SaMkarAcArya	NN	n	lex-SaMkarAcArya|cat-n|gen-m|num-sg|pers-3|case-o|vib-0_ke_prawi|tam-0|chunkId-NP3|chunkType-head|stype-|voicetype-	11	rd	_	_
7	jI	jI	RP	avy	lex-jI|cat-avy|gen-|num-|pers-|case-|vib-|tam-|chunkId-NP3|chunkType-child|stype-|voicetype-	6	lwg__rp	_	_
8	ke	ke	PSP	psp	lex-ke|cat-psp|gen-|num-|pers-|case-|vib-|tam-|chunkId-NP3|chunkType-child|stype-|voicetype-	6	lwg__psp	_	_
9	prawi	prawi	PSP	psp	lex-prawi|cat-psp|gen-|num-|pers-|case-|vib-|tam-|chunkId-NP3|chunkType-child|stype-|voicetype-	6	lwg__psp	_	_
10	uwwaraxAyI	uwwaraxAyI	JJ	adj	lex-uwwaraxAyI|cat-adj|gen-any|num-any|pers-|case-|vib-|tam-|chunkId-JJP|chunkType-head|stype-|voicetype-	11	pof	_	_
11	hogI	ho	VM	v	lex-ho|cat-v|gen-f|num-sg|pers-3|case-|vib-gA|tam-gA|chunkId-VGF2|chunkType-head|stype-declarative|voicetype-active	4	ccof	_	_
12	.	.	SYM	punc	lex-.|cat-punc|gen-|num-|pers-|case-|vib-|tam-|chunkId-BLK|chunkType-head|stype-|voicetype-	2	rsym	_	_

1	yaha	yaha	PRP	pn	lex-yaha|cat-pn|gen-any|num-sg|pers-3|case-d|vib-0|tam-0|chunkId-NP|chunkType-head|stype-|voicetype-	11	k1	_	_
2	BArawa	BArawa	NNPC	n	lex-BArawa|cat-n|gen-m|num-sg|pers-3|case-d|vib-0|tam-0|chunkId-NP2|chunkType-child|stype-|voicetype-	3	pof__cn	_	_
3	sarakAra	sarakAra	NNP	n	lex-sarakAra|cat-n|gen-f|num-sg|pers-3|case-d|vib-0|tam-0|chunkId-NP2|chunkType-head|stype-|voicetype-	4	ccof	_	_
4	aWavA	aWavA	CC	avy	lex-aWavA|cat-avy|gen-|num-|pers-|case-|vib-|tam-|chunkId-CCP|chunkType-head|stype-|voicetype-	11	k7	_	_
5	anya	anya	JJ	adj	lex-anya|cat-adj|gen-any|num-any|pers-|case-o|vib-|tam-|chunkId-NP3|chunkType-child|stype-|voicetype-	7	nmod__adj	_	_
6	SAsakIya	SAsakIya	JJ	adj	lex-SAsakIya|cat-adj|gen-any|num-any|pers-|case-o|vib-|tam-|chunkId-NP3|chunkType-child|stype-|voicetype-	7	nmod__adj	_	_
7	swara	swara	NN	n	lex-swara|cat-n|gen-m|num-sg|pers-3|case-o|vib-0_para|tam-0|chunkId-NP3|chunkType-head|stype-|voicetype-	4	ccof	_	_
8	para	para	PSP	psp	lex-para|cat-psp|gen-|num-|pers-|case-|vib-|tam-|chunkId-NP3|chunkType-child|stype-|voicetype-	7	lwg__psp	_	_
9	waBI	waBI	PRP	pn	lex-waBI|cat-pn|gen-|num-|pers-|case-d|vib-|tam-|chunkId-NP4|chunkType-head|stype-|voicetype-	11	k7t	_	_
10	saMparka	saMparka	NN	n	lex-saMparka|cat-n|gen-m|num-sg|pers-3|case-d|vib-0|tam-0|chunkId-NP5|chunkType-head|stype-|voicetype-	11	pof	_	_
11	karegI	kara	VM	v	lex-kara|cat-v|gen-f|num-sg|pers-3|case-|vib-gA|tam-gA|chunkId-VGF|chunkType-head|stype-declarative|voicetype-active	0	main	_	_
12	,	COMMA	SYM	punc	lex-COMMA|cat-punc|gen-|num-|pers-|case-|vib-|tam-|chunkId-VGF|chunkType-child|stype-|voicetype-	11	rsym	_	_
13	jaba	jaba	PRP	pn	lex-jaba|cat-pn|gen-|num-|pers-|case-|vib-|tam-|chunkId-NP6|chunkType-head|stype-|voicetype-	26	k7t	_	_
14	SaMkarAcArya	SaMkarAcArya	NN	n	lex-SaMkarAcArya|cat-n|gen-m|num-sg|pers-3|case-o|vib-0_kA_waraPa_se|tam-0|chunkId-NP7|chunkType-head|stype-|voicetype-	26	rd	_	_
15	jI	jI	RP	avy	lex-jI|cat-avy|gen-|num-|pers-|case-|vib-|tam-|chunkId-NP7|chunkType-child|stype-|voicetype-	14	lwg__rp	_	_
16	kI	kA	PSP	psp	lex-kA|cat-psp|gen-f|num-sg|pers-|case-d|vib-|tam-|chunkId-NP7|chunkType-child|stype-|voicetype-	14	lwg__psp	_	_
17	waraPa	waraPa	NST	nst	lex-waraPa|cat-nst|gen-f|num-sg|pers-3|case-o|vib-|tam-|chunkId-NP7|chunkType-child|stype-|voicetype-	14	lwg__psp	_	_
18	se	se	PSP	psp	lex-se|cat-psp|gen-|num-|pers-|case-|vib-|tam-|chunkId-NP7|chunkType-child|stype-|voicetype-	14	lwg__psp	_	_
19	unake	vaha	PRP	pn	lex-vaha|cat-pn|gen-m|num-sg|pers-3h|case-o|vib-kA|tam-kA|chunkId-NP8|chunkType-head|stype-|voicetype-	21	r6	_	_
20	pramuKa	pramuKa	JJ	adj	lex-pramuKa|cat-adj|gen-any|num-any|pers-|case-d|vib-|tam-|chunkId-NP9|chunkType-child|stype-|voicetype-	21	nmod__adj	_	_
21	saciva	saciva	NN	n	lex-saciva|cat-n|gen-m|num-sg|pers-3|case-d|vib-0|tam-0|chunkId-NP9|chunkType-head|stype-|voicetype-	26	k1	_	_
22	liKiwa	liKiwa	JJ	adj	lex-liKiwa|cat-adj|gen-any|num-any|pers-|case-o|vib-|tam-|chunkId-NP10|chunkType-child|stype-|voicetype-	23	nmod__adj	_	_
23	wOra	wOra	NN	n	lex-wOra|cat-n|gen-m|num-sg|pers-3|case-o|vib-0_para|tam-0|chunkId-NP10|chunkType-head|stype-|voicetype-	26	k7	_	_
24	para	para	PSP	psp	lex-para|cat-psp|gen-|num-|pers-|case-|vib-|tam-|chunkId-NP10|chunkType-child|stype-|voicetype-	23	lwg__psp	_	_
25	sUciwa	sUciwa	JJ	adj	lex-sUciwa|cat-adj|gen-any|num-any|pers-|case-|vib-|tam-|chunkId-JJP|chunkType-head|stype-|voicetype-	26	pof	_	_
26	kareMge	kara	VM	v	lex-kara|cat-v|gen-m|num-sg|pers-3h|case-|vib-gA|tam-gA|chunkId-VGF2|chunkType-head|stype-declarative|voicetype-active	9	nmod__relc	_	_
27	.	.	SYM	punc	lex-.|cat-punc|gen-|num-|pers-|case-|vib-|tam-|chunkId-BLK|chunkType-head|stype-|voicetype-	11	rsym	_	_

1	SrI	SrI	NNC	n	lex-SrI|cat-n|gen-m|num-sg|pers-3|case-d|vib-0|tam-0|chunkId-NP|chunkType-child|stype-|voicetype-	2	pof__cn	_	_
2	rijavI	rijavI	NNP	n	lex-rijavI|cat-n|gen-m|num-sg|pers-3|case-o|vib-0_ne|tam-0|chunkId-NP|chunkType-head|stype-|voicetype-	4	k1	_	_
3	ne	ne	PSP	psp	lex-ne|cat-psp|gen-|num-|pers-|case-|vib-|tam-|chunkId-NP|chunkType-child|stype-|voicetype-	2	lwg__psp	_	_
4	bawAyA	bawA	VM	v	lex-bawA|cat-v|gen-m|num-sg|pers-any|case-|vib-yA|tam-yA|chunkId-VGF|chunkType-head|stype-declarative|voicetype-active	0	main	_	_
5	ki	ki	CC	avy	lex-ki|cat-avy|gen-|num-|pers-|case-|vib-|tam-|chunkId-CCP|chunkType-head|stype-|voicetype-	4	k2	_	_
6	akwUbara	akwUbara	NNPC	n	lex-akwUbara|cat-n|gen-m|num-sg|pers-3|case-d|vib-0|tam-0|chunkId-NP2|chunkType-child|stype-|voicetype-	7	pof__cn	_	_
7	2004	2004	NNP	n	lex-2004|cat-n|gen-any|num-sg|pers-3|case-o|vib-0_meM|tam-0|chunkId-NP2|chunkType-head|stype-|voicetype-	18	k7t	_	_
8	meM	meM	PSP	psp	lex-meM|cat-psp|gen-|num-|pers-|case-|vib-|tam-|chunkId-NP2|chunkType-child|stype-|voicetype-	7	lwg__psp	_	_
9	xillI	xillI	NNP	n	lex-xillI|cat-n|gen-f|num-sg|pers-3|case-o|vib-0_kA|tam-0|chunkId-NP3|chunkType-head|stype-|voicetype-	12	r6	_	_
10	ke	kA	PSP	psp	lex-kA|cat-psp|gen-m|num-sg|pers-|case-o|vib-|tam-|chunkId-NP3|chunkType-child|stype-|voicetype-	9	lwg__psp	_	_
11	vijFAna	vijFAna	NNPC	n	lex-vijFAna|cat-n|gen-m|num-sg|pers-3|case-d|vib-0|tam-0|chunkId-NP4|chunkType-child|stype-|voicetype-	12	pof__cn	_	_
12	Bavana	Bavana	NNP	n	lex-Bavana|cat-n|gen-m|num-sg|pers-3|case-o|vib-0_meM|tam-0|chunkId-NP4|chunkType-head|stype-|voicetype-	18	k7p	_	_
13	meM	meM	PSP	psp	lex-meM|cat-psp|gen-|num-|pers-|case-|vib-|tam-|chunkId-NP4|chunkType-child|stype-|voicetype-	12	lwg__psp	_	_
14	eka	eka	QC	num	lex-eka|cat-num|gen-any|num-any|pers-|case-any|vib-|tam-|chunkId-NP5|chunkType-child|stype-|voicetype-	16	nmod__adj	_	_
15	samAXAna	samAXAna	NNC	n	lex-samAXAna|cat-n|gen-m|num-sg|pers-3|case-d|vib-0|tam-0|chunkId-NP5|chunkType-child|stype-|voicetype-	16	pof__cn	_	_
16	sammelana	sammelana	NN	n	lex-sammelana|cat-n|gen-m|num-sg|pers-3|case-d|vib-0|tam-0|chunkId-NP5|chunkType-head|stype-|voicetype-	18	k2	_	_
17	Ayojiwa	Ayojiwa	JJ	adj	lex-Ayojiwa|cat-adj|gen-any|num-any|pers-|case-|vib-|tam-|chunkId-JJP|chunkType-head|stype-|voicetype-	18	pof	_	_
18	kiyA	kara	VM	v	lex-kara|cat-v|gen-m|num-sg|pers-3|case-|vib-yA_jA+gA|tam-yA|chunkId-VGF2|chunkType-head|stype-declarative|voicetype-passive	5	ccof	_	_
19	jAegA	jA	VAUX	v	lex-jA|cat-v|gen-m|num-sg|pers-3|case-|vib-gA|tam-gA|chunkId-VGF2|chunkType-child|stype-|voicetype-	18	lwg__vaux	_	_
20	.	.	SYM	punc	lex-.|cat-punc|gen-|num-|pers-|case-|vib-|tam-|chunkId-BLK|chunkType-head|stype-|voicetype-	4	rsym	_	_

1	isakI	yaha	PRP	pn	lex-yaha|cat-pn|gen-f|num-sg|pers-3|case-o|vib-kA|tam-kA|chunkId-NP|chunkType-head|stype-|voicetype-	2	r6-k2	_	_
2	aXyakRawA	aXyakRawA	NN	n	lex-aXyakRawA|cat-n|gen-f|num-sg|pers-3|case-d|vib-0|tam-0|chunkId-NP2|chunkType-head|stype-|voicetype-	5	pof	_	_
3	SaMkarAcArya	SaMkarAcArya	NN	n	lex-SaMkarAcArya|cat-n|gen-m|num-sg|pers-3|case-d|vib-0|tam-0|chunkId-NP3|chunkType-head|stype-|voicetype-	5	k1	_	_
4	jI	jI	RP	avy	lex-jI|cat-avy|gen-|num-|pers-|case-|vib-|tam-|chunkId-NP3|chunkType-child|stype-|voicetype-	3	lwg__rp	_	_
5	kareMge	kara	VM	v	lex-kara|cat-v|gen-m|num-sg|pers-3h|case-|vib-gA|tam-gA|chunkId-VGF|chunkType-head|stype-declarative|voicetype-active	0	main	_	_
6	.	.	SYM	punc	lex-.|cat-punc|gen-|num-|pers-|case-|vib-|tam-|chunkId-BLK|chunkType-head|stype-|voicetype-	5	rsym	_	_

1	sammelana	sammelana	NN	n	lex-sammelana|cat-n|gen-m|num-sg|pers-3|case-o|vib-0_meM|tam-0|chunkId-NP|chunkType-head|stype-|voicetype-	11	k7	_	_
2	meM	meM	PSP	psp	lex-meM|cat-psp|gen-|num-|pers-|case-|vib-|tam-|chunkId-NP|chunkType-child|stype-|voicetype-	1	lwg__psp	_	_
3	ayoXyA	ayoXyA	NNP	n	lex-ayoXyA|cat-n|gen-m|num-sg|pers-3|case-d|vib-0|tam-0|chunkId-NP2|chunkType-child|stype-|voicetype-	4	nmod__adj	_	_
4	prakaraNa	prakaraNa	NN	n	lex-prakaraNa|cat-n|gen-m|num-sg|pers-3|case-o|vib-0_se|tam-0|chunkId-NP2|chunkType-head|stype-|voicetype-	6	ras-k1	_	_
5	se	se	PSP	psp	lex-se|cat-psp|gen-|num-|pers-|case-|vib-|tam-|chunkId-NP2|chunkType-child|stype-|voicetype-	4	lwg__psp	_	_
6	judZe	judZa	VM	v	lex-judZa|cat-v|gen-m|num-pl|pers-any|case-|vib-yA|tam-yA|chunkId-VGNF|chunkType-head|stype-|voicetype-	8	nmod__k1inv	_	_
7	saBI	saBI	QF	avy	lex-saBI|cat-avy|gen-|num-|pers-|case-|vib-|tam-|chunkId-NP3|chunkType-child|stype-|voicetype-	8	nmod__adj	_	_
8	pakRoM	pakRa	NN	n	lex-pakRa|cat-n|gen-m|num-pl|pers-3|case-o|vib-0_ko|tam-0|chunkId-NP3|chunkType-head|stype-|voicetype-	11	k2	_	_
9	ko	ko	PSP	psp	lex-ko|cat-psp|gen-|num-|pers-|case-|vib-|tam-|chunkId-NP3|chunkType-child|stype-|voicetype-	8	lwg__psp	_	_
10	AmaMwriwa	AmaMwriwa	JJ	adj	lex-AmaMwriwa|cat-adj|gen-any|num-any|pers-|case-|vib-|tam-|chunkId-JJP|chunkType-head|stype-|voicetype-	11	pof	_	_
11	kiyA	kara	VM	v	lex-kara|cat-v|gen-m|num-sg|pers-3|case-|vib-yA_jA+gA|tam-yA|chunkId-VGF|chunkType-head|stype-declarative|voicetype-passive	0	main	_	_
12	jAegA	jA	VAUX	v	lex-jA|cat-v|gen-m|num-sg|pers-3|case-|vib-gA|tam-gA|chunkId-VGF|chunkType-child|stype-|voicetype-	11	lwg__vaux	_	_
13	.	.	SYM	punc	lex-.|cat-punc|gen-|num-|pers-|case-|vib-|tam-|chunkId-BLK|chunkType-head|stype-|voicetype-	11	rsym	_	_

1	samAXAna	samAXAna	NNC	n	lex-samAXAna|cat-n|gen-m|num-sg|pers-3|case-d|vib-0|tam-0|chunkId-NP|chunkType-child|stype-|voicetype-	2	pof__cn	_	_
2	praswAva	praswAva	NN	n	lex-praswAva|cat-n|gen-m|num-sg|pers-3|case-o|vib-0_ko|tam-0|chunkId-NP|chunkType-head|stype-|voicetype-	7	k2	_	_
3	ko	ko	PSP	psp	lex-ko|cat-psp|gen-|num-|pers-|case-|vib-|tam-|chunkId-NP|chunkType-child|stype-|voicetype-	2	lwg__psp	_	_
4	sammelana	sammelana	NN	n	lex-sammelana|cat-n|gen-m|num-sg|pers-3|case-o|vib-0_meM|tam-0|chunkId-NP2|chunkType-head|stype-|voicetype-	7	k7	_	_
5	meM	meM	PSP	psp	lex-meM|cat-psp|gen-|num-|pers-|case-|vib-|tam-|chunkId-NP2|chunkType-child|stype-|voicetype-	4	lwg__psp	_	_
6	pAriwa	pAriwa	JJ	adj	lex-pAriwa|cat-adj|gen-any|num-any|pers-|case-|vib-|tam-|chunkId-JJP|chunkType-head|stype-|voicetype-	7	pof	_	_
7	karavAkara	kara	VM	v	lex-kara|cat-v|gen-any|num-any|pers-any|case-|vib-kara|tam-kara|chunkId-VGNF|chunkType-head|stype-|voicetype-	17	vmod	_	_
8	use	vaha	PRP	pn	lex-vaha|cat-pn|gen-any|num-sg|pers-3|case-o|vib-ko|tam-ko|chunkId-NP3|chunkType-head|stype-|voicetype-	17	k2	_	_
9	praXAnamaMwrI	praXAnamaMwrI	NNP	n	lex-praXAnamaMwrI|cat-n|gen-m|num-sg|pers-3|case-d|vib-0|tam-0|chunkId-NP4|chunkType-child|stype-|voicetype-	12	nmod__adj	_	_
10	saraxAra	saraxAra	NNC	n	lex-saraxAra|cat-n|gen-m|num-sg|pers-3|case-d|vib-0|tam-0|chunkId-NP4|chunkType-child|stype-|voicetype-	11	pof__cn	_	_
11	manamohana	manamohana	NNPC	n	lex-manamohana|cat-n|gen-m|num-sg|pers-3|case-d|vib-0|tam-0|chunkId-NP4|chunkType-child|stype-|voicetype-	12	pof__cn	_	_
12	siMha	siMha	NNP	n	lex-siMha|cat-n|gen-m|num-sg|pers-3|case-o|vib-0_ko|tam-0|chunkId-NP4|chunkType-head|stype-|voicetype-	17	k4	_	_
13	ko	ko	PSP	psp	lex-ko|cat-psp|gen-|num-|pers-|case-|vib-|tam-|chunkId-NP4|chunkType-child|stype-|voicetype-	12	lwg__psp	_	_
14	isa	yaha	DEM	pn	lex-yaha|cat-pn|gen-any|num-sg|pers-3|case-o|vib-|tam-|chunkId-NP5|chunkType-child|stype-|voicetype-	15	nmod__adj	_	_
15	ASaya	ASaya	NN	n	lex-ASaya|cat-n|gen-m|num-sg|pers-3|case-o|vib-0_se|tam-0|chunkId-NP5|chunkType-head|stype-|voicetype-	17	vmod	_	_
16	se	se	PSP	psp	lex-se|cat-psp|gen-|num-|pers-|case-|vib-|tam-|chunkId-NP5|chunkType-child|stype-|voicetype-	15	lwg__psp	_	_
17	sOMpA	sOMpa	VM	v	lex-sOMpa|cat-v|gen-m|num-sg|pers-3|case-|vib-yA_jA+gA|tam-yA|chunkId-VGF|chunkType-head|stype-declarative|voicetype-active	0	main	_	_
18	jAegA	jA	VAUX	v	lex-jA|cat-v|gen-m|num-sg|pers-3|case-|vib-gA|tam-gA|chunkId-VGF|chunkType-child|stype-|voicetype-	17	lwg__vaux	_	_
19	ki	ki	CC	avy	lex-ki|cat-avy|gen-|num-|pers-|case-|vib-|tam-|chunkId-CCP|chunkType-head|stype-|voicetype-	17	k2s	_	_
20	BArawa	BArawa	NNPC	n	lex-BArawa|cat-n|gen-m|num-sg|pers-3|case-d|vib-0|tam-0|chunkId-NP6|chunkType-child|stype-|voicetype-	21	pof__cn	_	_
21	sarakAra	sarakAra	NNP	n	lex-sarakAra|cat-n|gen-f|num-sg|pers-3|case-d|vib-0|tam-0|chunkId-NP6|chunkType-head|stype-|voicetype-	30	k1	_	_
22	uccawama	uccawama	NNPC	adj	lex-uccawama|cat-adj|gen-any|num-any|pers-|case-o|vib-|tam-|chunkId-NP7|chunkType-child|stype-|voicetype-	23	pof__cn	_	_
23	nyAyAlaya	nyAyAlaya	NNP	n	lex-nyAyAlaya|cat-n|gen-m|num-sg|pers-3|case-o|vib-0_meM|tam-0|chunkId-NP7|chunkType-head|stype-|voicetype-	30	k7p	_	_
24	meM	meM	PSP	psp	lex-meM|cat-psp|gen-|num-|pers-|case-|vib-|tam-|chunkId-NP7|chunkType-child|stype-|voicetype-	23	lwg__psp	_	_
25	yAcikA	yAcikA	NN	n	lex-yAcikA|cat-n|gen-f|num-sg|pers-3|case-o|vib-0_para|tam-0|chunkId-NP8|chunkType-head|stype-|voicetype-	30	k7	_	_
26	para	para	PSP	psp	lex-para|cat-psp|gen-|num-|pers-|case-|vib-|tam-|chunkId-NP8|chunkType-child|stype-|voicetype-	25	lwg__psp	_	_
27	samAXAna	samAXAna	NNC	n	lex-samAXAna|cat-n|gen-m|num-sg|pers-3|case-d|vib-0|tam-0|chunkId-NP9|chunkType-child|stype-|voicetype-	28	pof__cn	_	_
28	prakriyA	prakriyA	NN	n	lex-prakriyA|cat-n|gen-f|num-sg|pers-3|case-d|vib-0|tam-0|chunkId-NP9|chunkType-head|stype-|voicetype-	30	k2	_	_
29	suniSciwa	suniSciwa	JJ	adj	lex-suniSciwa|cat-adj|gen-any|num-any|pers-|case-|vib-|tam-|chunkId-JJP2|chunkType-head|stype-|voicetype-	30	pof	_	_
30	kara	kara	VM	v	lex-kara|cat-v|gen-any|num-sg|pers-3|case-|vib-0_saka+eM|tam-0|chunkId-VGF2|chunkType-head|stype-declarative|voicetype-active	19	ccof	_	_
31	sake	saka	VAUX	v	lex-saka|cat-v|gen-any|num-sg|pers-3|case-|vib-eM|tam-eM|chunkId-VGF2|chunkType-child|stype-|voicetype-	30	lwg__vaux	_	_
32	.	.	SYM	punc	lex-.|cat-punc|gen-|num-|pers-|case-|vib-|tam-|chunkId-BLK|chunkType-head|stype-|voicetype-	17	rsym	_	_

1	unhoMne	vaha	PRP	pn	lex-vaha|cat-pn|gen-any|num-sg|pers-3h|case-o|vib-ne|tam-ne|chunkId-NP|chunkType-head|stype-|voicetype-	3	k1	_	_
2	sAPa	sAPa	JJ	adj	lex-sAPa|cat-adj|gen-any|num-any|pers-|case-|vib-|tam-|chunkId-JJP|chunkType-head|stype-|voicetype-	3	pof	_	_
3	kiyA	kara	VM	v	lex-kara|cat-v|gen-m|num-sg|pers-any|case-|vib-yA|tam-yA|chunkId-VGF|chunkType-head|stype-declarative|voicetype-active	0	main	_	_
4	ki	ki	CC	avy	lex-ki|cat-avy|gen-|num-|pers-|case-|vib-|tam-|chunkId-CCP|chunkType-head|stype-|voicetype-	3	k2	_	_
5	isa	yaha	DEM	pn	lex-yaha|cat-pn|gen-any|num-sg|pers-3|case-o|vib-|tam-|chunkId-NP2|chunkType-child|stype-|voicetype-	6	nmod__adj	_	_
6	viRayaka	viRayaka	NN	n	lex-viRayaka|cat-n|gen-m|num-sg|pers-3|case-o|vib-0_kA|tam-0|chunkId-NP2|chunkType-head|stype-|voicetype-	8	r6	_	_
7	kI	kA	PSP	psp	lex-kA|cat-psp|gen-f|num-sg|pers-|case-o|vib-|tam-|chunkId-NP2|chunkType-child|stype-|voicetype-	6	lwg__psp	_	_
8	jAnakArI	jAnakArI	NN	n	lex-jAnakArI|cat-n|gen-f|num-sg|pers-3|case-o|vib-0_ke_lie|tam-0|chunkId-NP3|chunkType-head|stype-|voicetype-	26	rt	_	_
9	ke	ke	PSP	psp	lex-ke|cat-psp|gen-|num-|pers-|case-|vib-|tam-|chunkId-NP3|chunkType-child|stype-|voicetype-	8	lwg__psp	_	_
10	lie	lie	PSP	psp	lex-lie|cat-psp|gen-|num-|pers-|case-|vib-|tam-|chunkId-NP3|chunkType-child|stype-|voicetype-	8	lwg__psp	_	_
11	SaMkarAcArya	SaMkarAcArya	NN	n	lex-SaMkarAcArya|cat-n|gen-m|num-sg|pers-3|case-o|vib-0_kA|tam-0|chunkId-NP4|chunkType-head|stype-|voicetype-	15	r6	_	_
12	jI	jI	RP	avy	lex-jI|cat-avy|gen-|num-|pers-|case-|vib-|tam-|chunkId-NP4|chunkType-child|stype-|voicetype-	11	lwg__rp	_	_
13	ke	kA	PSP	psp	lex-kA|cat-psp|gen-m|num-sg|pers-3h|case-d|vib-|tam-|chunkId-NP4|chunkType-child|stype-|voicetype-	11	lwg__psp	_	_
14	pramuKa	pramuKa	JJ	adj	lex-pramuKa|cat-adj|gen-any|num-any|pers-|case-d|vib-|tam-|chunkId-NP5|chunkType-child|stype-|voicetype-	15	nmod__adj	_	_
15	saciva	saciva	NN	n	lex-saciva|cat-n|gen-m|num-sg|pers-3|case-d|vib-0|tam-0|chunkId-NP5|chunkType-head|stype-|voicetype-	17	nmod	_	_
16	SrI	SrI	NNPC	n	lex-SrI|cat-n|gen-m|num-sg|pers-3|case-d|vib-0|tam-0|chunkId-NP6|chunkType-child|stype-|voicetype-	17	pof__cn	_	_
17	suMxara	sunxara	NNP	n	lex-sunxara|cat-n|gen-m|num-sg|pers-3|case-d|vib-0|tam-0|chunkId-NP6|chunkType-head|stype-|voicetype-	18	ccof	_	_
18	va	va	CC	avy	lex-va|cat-avy|gen-|num-|pers-|case-|vib-|tam-|chunkId-CCP2|chunkType-head|stype-|voicetype-	26	k1	_	_
19	samanvaya	samanvaya	NNC	n	lex-samanvaya|cat-n|gen-m|num-sg|pers-3|case-d|vib-0|tam-0|chunkId-NP7|chunkType-child|stype-|voicetype-	20	pof__cn	_	_
20	samiwi	samiwi	NN	n	lex-samiwi|cat-n|gen-f|num-sg|pers-3|case-o|vib-0_kA|tam-0|chunkId-NP7|chunkType-head|stype-|voicetype-	22	r6	_	_
21	ke	kA	PSP	psp	lex-kA|cat-psp|gen-m|num-pl|pers-|case-d|vib-|tam-|chunkId-NP7|chunkType-child|stype-|voicetype-	20	lwg__psp	_	_
22	saxasyagaNa	saxasyagaNa	NN	n	lex-saxasyagaNa|cat-n|gen-m|num-pl|pers-3|case-d|vib-0|tam-0|chunkId-NP8|chunkType-head|stype-|voicetype-	18	ccof	_	_
23	hI	hI	RP	avy	lex-hI|cat-avy|gen-|num-|pers-|case-|vib-|tam-|chunkId-NP8|chunkType-child|stype-|voicetype-	22	lwg__rp	_	_
24	aXikqwa	aXikqwa	JJ	adj	lex-aXikqwa|cat-adj|gen-any|num-any|pers-|case-d|vib-|tam-|chunkId-NP9|chunkType-child|stype-|voicetype-	25	nmod__adj	_	_
25	pravakwA	pravakwA	NN	n	lex-pravakwA|cat-n|gen-m|num-pl|pers-3|case-d|vib-0|tam-0|chunkId-NP9|chunkType-head|stype-|voicetype-	26	k1s	_	_
26	hEM	hE	VM	v	lex-hE|cat-v|gen-any|num-pl|pers-3|case-|vib-hE|tam-hE|chunkId-VGF2|chunkType-head|stype-declarative|voicetype-active	4	ccof	_	_
27	.	.	SYM	punc	lex-.|cat-punc|gen-|num-|pers-|case-|vib-|tam-|chunkId-BLK|chunkType-head|stype-|voicetype-	3	rsym	_	_

