1	rAjaga	rAjaga	NNP	n	lex-rAjaga|cat-n|gen-m|num-sg|pers-3|case-d|vib-0|tam-0|chunkId-NP|chunkType-child|stype-|voicetype-	2	nmod__adj	_	_
2	saMyojaka	saMyojaka	NN	n	lex-saMyojaka|cat-n|gen-m|num-sg|pers-3|case-o|vib-0|tam-0|chunkId-NP|chunkType-head|stype-|voicetype-	4	nmod	_	_
3	jOYrja	jOYrja	NNPC	n	lex-jOYrja|cat-n|gen-m|num-sg|pers-3|case-d|vib-0|tam-0|chunkId-NP2|chunkType-child|stype-|voicetype-	4	pof__cn	_	_
4	ParnAMdisa	ParnAMdisa	NNP	n	lex-ParnAMdisa|cat-n|gen-m|num-sg|pers-3|case-o|vib-0_ne|tam-0|chunkId-NP2|chunkType-head|stype-|voicetype-	11	k1	_	_
5	ne	ne	PSP	psp	lex-ne|cat-psp|gen-|num-|pers-|case-|vib-|tam-|chunkId-NP2|chunkType-child|stype-|voicetype-	4	lwg__psp	_	_
6	buXavAra	buXavAra	NNP	n	lex-buXavAra|cat-n|gen-m|num-sg|pers-3|case-o|vib-0_ko|tam-0|chunkId-NP3|chunkType-head|stype-|voicetype-	11	k7t	_	_
7	ko	ko	PSP	psp	lex-ko|cat-psp|gen-|num-|pers-|case-|vib-|tam-|chunkId-NP3|chunkType-child|stype-|voicetype-	6	lwg__psp	_	_
8	lokasaBA	lokasaBA	NN	n	lex-lokasaBA|cat-n|gen-f|num-sg|pers-3|case-o|vib-0_meM|tam-0|chunkId-NP4|chunkType-head|stype-|voicetype-	11	k7p	_	_
9	meM	meM	PSP	psp	lex-meM|cat-psp|gen-|num-|pers-|case-|vib-|tam-|chunkId-NP4|chunkType-child|stype-|voicetype-	8	lwg__psp	_	_
10	Aropa	Aropa	NN	n	lex-Aropa|cat-n|gen-m|num-sg|pers-3|case-d|vib-0|tam-0|chunkId-NP5|chunkType-head|stype-|voicetype-	11	k2	_	_
11	lagAyA	lagA	VM	v	lex-lagA|cat-v|gen-m|num-sg|pers-any|case-|vib-yA|tam-yA|chunkId-VGF|chunkType-head|stype-declarative|voicetype-active	0	main	_	_
12	ki	ki	CC	avy	lex-ki|cat-avy|gen-|num-|pers-|case-|vib-|tam-|chunkId-CCP|chunkType-head|stype-|voicetype-	10	rs	_	_
13	wAbUwa	wAbUwa	NNPC	n	lex-wAbUwa|cat-n|gen-m|num-sg|pers-3|case-d|vib-0|tam-0|chunkId-NP6|chunkType-child|stype-|voicetype-	14	pof__cn	_	_
14	GotAlA	GotAlA	NNP	n	lex-GotAlA|cat-n|gen-m|num-sg|pers-3|case-d|vib-0|tam-0|chunkId-NP6|chunkType-head|stype-|voicetype-	26	k2	_	_
15	soniyA	soniyA	NNPC	n	lex-soniyA|cat-n|gen-f|num-sg|pers-3|case-d|vib-0|tam-0|chunkId-NP7|chunkType-child|stype-|voicetype-	16	pof__cn	_	_
16	gAMXI	gAMXI	NNP	n	lex-gAMXI|cat-n|gen-any|num-sg|pers-3|case-o|vib-0_ne|tam-0|chunkId-NP7|chunkType-head|stype-|voicetype-	26	k1	_	_
17	ne	ne	PSP	psp	lex-ne|cat-psp|gen-|num-|pers-|case-|vib-|tam-|chunkId-NP7|chunkType-child|stype-|voicetype-	16	lwg__psp	_	_
18	piCalI	piCalA	JJ	adj	lex-piCalA|cat-adj|gen-f|num-sg|pers-|case-o|vib-|tam-|chunkId-NP8|chunkType-child|stype-|voicetype-	20	nmod__adj	_	_
19	rAjaga	rAjaga	NNP	n	lex-rAjaga|cat-n|gen-m|num-sg|pers-3|case-d|vib-0|tam-0|chunkId-NP8|chunkType-child|stype-|voicetype-	20	nmod__adj	_	_
20	sarakAra	sarakAra	NN	n	lex-sarakAra|cat-n|gen-f|num-sg|pers-3|case-o|vib-0_ko|tam-0|chunkId-NP8|chunkType-head|stype-|voicetype-	23	k2	_	_
21	ko	ko	PSP	psp	lex-ko|cat-psp|gen-|num-|pers-|case-|vib-|tam-|chunkId-NP8|chunkType-child|stype-|voicetype-	20	lwg__psp	_	_
22	baxanAma	baxanAma	JJ	adj	lex-baxanAma|cat-adj|gen-any|num-any|pers-|case-|vib-|tam-|chunkId-JJP|chunkType-head|stype-|voicetype-	23	pof	_	_
23	karane	kara	VM	v	lex-kara|cat-v|gen-any|num-any|pers-any|case-o|vib-nA_ke_lie|tam-nA|chunkId-VGNN|chunkType-head|stype-|voicetype-	26	rt	_	_
24	ke	ke	PSP	psp	lex-ke|cat-psp|gen-|num-|pers-|case-|vib-|tam-|chunkId-VGNN|chunkType-child|stype-|voicetype-	23	lwg__psp	_	_
25	lie	lie	PSP	psp	lex-lie|cat-psp|gen-|num-|pers-|case-|vib-|tam-|chunkId-VGNN|chunkType-child|stype-|voicetype-	23	lwg__psp	_	_
26	uTAyA	uTA	VM	v	lex-uTA|cat-v|gen-m|num-sg|pers-any|case-|vib-yA_WA|tam-yA|chunkId-VGF2|chunkType-head|stype-declarative|voicetype-active	12	ccof	_	_
27	WA	WA	VAUX	v	lex-WA|cat-v|gen-m|num-sg|pers-any|case-|vib-WA|tam-WA|chunkId-VGF2|chunkType-child|stype-|voicetype-	26	lwg__vaux	_	_
28	.	.	SYM	punc	lex-.|cat-punc|gen-|num-|pers-|case-|vib-|tam-|chunkId-BLK|chunkType-head|stype-|voicetype-	11	rsym	_	_

1	jOYrja	jOYrja	NNP	n	lex-jOYrja|cat-n|gen-m|num-sg|pers-3|case-o|vib-0_kA|tam-0|chunkId-NP|chunkType-head|stype-|voicetype-	4	r6	_	_
2	kI	kA	PSP	psp	lex-kA|cat-psp|gen-f|num-sg|pers-|case-o|vib-|tam-|chunkId-NP|chunkType-child|stype-|voicetype-	1	lwg__psp	_	_
3	isa	yaha	DEM	pn	lex-yaha|cat-pn|gen-any|num-sg|pers-3|case-o|vib-|tam-|chunkId-NP2|chunkType-child|stype-|voicetype-	4	nmod__adj	_	_
4	tiWI	tiWI	NN	n	lex-tiWI|cat-n|gen-f|num-sg|pers-3|case-o|vib-0_para|tam-0|chunkId-NP2|chunkType-head|stype-|voicetype-	12	k7	_	_
5	para	para	PSP	psp	lex-para|cat-psp|gen-|num-|pers-|case-|vib-|tam-|chunkId-NP2|chunkType-child|stype-|voicetype-	4	lwg__psp	_	_
6	saxana	saxana	NN	n	lex-saxana|cat-n|gen-m|num-sg|pers-3|case-o|vib-0_meM|tam-0|chunkId-NP3|chunkType-head|stype-|voicetype-	12	k7p	_	_
7	meM	meM	PSP	psp	lex-meM|cat-psp|gen-|num-|pers-|case-|vib-|tam-|chunkId-NP3|chunkType-child|stype-|voicetype-	6	lwg__psp	_	_
8	kAPI	kAPI	QF	avy	lex-kAPI|cat-avy|gen-|num-|pers-|case-|vib-|tam-|chunkId-NP4|chunkType-child|stype-|voicetype-	9	nmod__adj	_	_
9	xera	xera	NN	n	lex-xera|cat-n|gen-f|num-sg|pers-3|case-o|vib-0_waka|tam-0|chunkId-NP4|chunkType-head|stype-|voicetype-	12	k7t	_	_
10	waka	waka	PSP	psp	lex-waka|cat-psp|gen-|num-|pers-|case-|vib-|tam-|chunkId-NP4|chunkType-child|stype-|voicetype-	9	lwg__psp	_	_
11	haMgAmA	haMgAmA	NN	n	lex-haMgAmA|cat-n|gen-m|num-sg|pers-3|case-d|vib-0|tam-0|chunkId-NP5|chunkType-head|stype-|voicetype-	12	pof	_	_
12	huA	ho	VM	v	lex-ho|cat-v|gen-m|num-sg|pers-any|case-|vib-yA|tam-yA|chunkId-VGF|chunkType-head|stype-declarative|voicetype-active	0	main	_	_
13	.	.	SYM	punc	lex-.|cat-punc|gen-|num-|pers-|case-|vib-|tam-|chunkId-BLK|chunkType-head|stype-|voicetype-	12	rsym	_	_

1	jaba	jaba	PRP	pn	lex-jaba|cat-pn|gen-|num-|pers-|case-d|vib-|tam-|chunkId-NP|chunkType-head|stype-|voicetype-	4	k7t	_	_
2	yaha	yaha	DEM	pn	lex-yaha|cat-pn|gen-any|num-sg|pers-3|case-d|vib-|tam-|chunkId-NP2|chunkType-child|stype-|voicetype-	3	nmod__adj	_	_
3	mAmalA	mAmalA	NN	n	lex-mAmalA|cat-n|gen-m|num-sg|pers-3|case-d|vib-0|tam-0|chunkId-NP2|chunkType-head|stype-|voicetype-	4	k1	_	_
4	uTA	uTa	VM	v	lex-uTa|cat-v|gen-m|num-sg|pers-any|case-|vib-yA|tam-yA|chunkId-VGF|chunkType-head|stype-declarative|voicetype-active	5	nmod__relc	_	_
5	wo	wo	PRP	pn	lex-wo|cat-pn|gen-|num-|pers-|case-|vib-|tam-|chunkId-NP3|chunkType-head|stype-|voicetype-	14	k7t	_	_
6	usa	vaha	DEM	pn	lex-vaha|cat-pn|gen-any|num-sg|pers-3|case-d|vib-|tam-|chunkId-NP4|chunkType-child|stype-|voicetype-	7	nmod__adj	_	_
7	samaya	samaya	NN	n	lex-samaya|cat-n|gen-m|num-sg|pers-3|case-d|vib-0|tam-0|chunkId-NP4|chunkType-head|stype-|voicetype-	14	k7t	_	_
8	kAMgresa	kAMgresa	NNP	n	lex-kAMgresa|cat-n|gen-f|num-sg|pers-3|case-o|vib-0_kA|tam-0|chunkId-NP5|chunkType-head|stype-|voicetype-	11	r6	_	_
9	ke	kA	PSP	psp	lex-kA|cat-psp|gen-m|num-pl|pers-|case-d|vib-|tam-|chunkId-NP5|chunkType-child|stype-|voicetype-	8	lwg__psp	_	_
10	kama	kama	QF	avy	lex-kama|cat-avy|gen-|num-|pers-|case-|vib-|tam-|chunkId-NP6|chunkType-child|stype-|voicetype-	11	nmod__adj	_	_
11	sAMsaxa	sAMsaxa	NN	n	lex-sAMsaxa|cat-n|gen-m|num-pl|pers-3|case-d|vib-0|tam-0|chunkId-NP6|chunkType-head|stype-|voicetype-	14	k1	_	_
12	saxana	saxana	NN	n	lex-saxana|cat-n|gen-m|num-sg|pers-3|case-o|vib-0_meM|tam-0|chunkId-NP7|chunkType-head|stype-|voicetype-	14	k7p	_	_
13	meM	meM	PSP	psp	lex-meM|cat-psp|gen-|num-|pers-|case-|vib-|tam-|chunkId-NP7|chunkType-child|stype-|voicetype-	12	lwg__psp	_	_
14	We	WA	VM	v	lex-WA|cat-v|gen-m|num-pl|pers-any|case-|vib-WA|tam-WA|chunkId-VGF2|chunkType-head|stype-declarative|voicetype-active	15	ccof	_	_
15	lekina	lekina	CC	avy	lex-lekina|cat-avy|gen-|num-|pers-|case-|vib-|tam-|chunkId-CCP|chunkType-head|stype-|voicetype-	0	main	_	_
16	unakI	vaha	PRP	pn	lex-vaha|cat-pn|gen-f|num-pl|pers-3|case-o|vib-kA|tam-kA|chunkId-NP8|chunkType-head|stype-|voicetype-	17	r6	_	_
17	maxaxa	maxaxa	NN	n	lex-maxaxa|cat-n|gen-f|num-sg|pers-3|case-o|vib-0_ko|tam-0|chunkId-NP9|chunkType-head|stype-|voicetype-	30	rt	_	_
18	ko	ko	PSP	psp	lex-ko|cat-psp|gen-|num-|pers-|case-|vib-|tam-|chunkId-NP9|chunkType-child|stype-|voicetype-	17	lwg__psp	_	_
19	rela	rela	NNPC	n	lex-rela|cat-n|gen-f|num-sg|pers-3|case-d|vib-0|tam-0|chunkId-NP10|chunkType-child|stype-|voicetype-	20	pof__cn	_	_
20	maMwrI	maMwrI	NNP	n	lex-maMwrI|cat-n|gen-m|num-sg|pers-3|case-d|vib-0|tam-0|chunkId-NP10|chunkType-child|stype-|voicetype-	23	nmod__adj	_	_
21	lAlU	lAlU	NNPC	n	lex-lAlU|cat-n|gen-m|num-sg|pers-3|case-d|vib-0|tam-0|chunkId-NP10|chunkType-child|stype-|voicetype-	23	pof__cn	_	_
22	prasAxa	prasAxa	NNPC	n	lex-prasAxa|cat-n|gen-m|num-sg|pers-3|case-d|vib-0|tam-0|chunkId-NP10|chunkType-child|stype-|voicetype-	23	pof__cn	_	_
23	yAxava	yAxava	NNP	n	lex-yAxava|cat-n|gen-any|num-sg|pers-3|case-d|vib-0|tam-0|chunkId-NP10|chunkType-head|stype-|voicetype-	24	ccof	_	_
24	va	va	CC	avy	lex-va|cat-avy|gen-|num-|pers-|case-|vib-|tam-|chunkId-CCP2|chunkType-head|stype-|voicetype-	27	r6	_	_
25	rAjaxa	rAjaxa	NNP	n	lex-rAjaxa|cat-n|gen-m|num-sg|pers-3|case-o|vib-0_kA|tam-0|chunkId-NP11|chunkType-head|stype-|voicetype-	24	ccof	_	_
26	ke	kA	PSP	psp	lex-kA|cat-psp|gen-m|num-pl|pers-|case-d|vib-|tam-|chunkId-NP11|chunkType-child|stype-|voicetype-	25	lwg__psp	_	_
27	sAMsaxa	sAMsaxa	NN	n	lex-sAMsaxa|cat-n|gen-m|num-pl|pers-3|case-d|vib-0|tam-0|chunkId-NP12|chunkType-head|stype-|voicetype-	30	k1	_	_
28	POrana	POrana	RB	adv	lex-POrana|cat-adv|gen-|num-|pers-|case-|vib-|tam-|chunkId-RBP|chunkType-head|stype-|voicetype-	30	adv	_	_
29	Age	Age	NST	nst	lex-Age|cat-nst|gen-m|num-sg|pers-3|case-d|vib-|tam-|chunkId-NP13|chunkType-head|stype-|voicetype-	30	vmod	_	_
30	Ae	A	VM	v	lex-A|cat-v|gen-m|num-pl|pers-any|case-|vib-yA|tam-yA|chunkId-VGF3|chunkType-head|stype-declarative|voicetype-active	15	ccof	_	_
31	.	.	SYM	punc	lex-.|cat-punc|gen-|num-|pers-|case-|vib-|tam-|chunkId-BLK|chunkType-head|stype-|voicetype-	15	rsym	_	_

1	haMgAme	haMgAmA	NN	n	lex-haMgAmA|cat-n|gen-m|num-sg|pers-3|case-o|vib-0_ko|tam-0|chunkId-NP|chunkType-head|stype-|voicetype-	4	k2	_	_
2	ko	ko	PSP	psp	lex-ko|cat-psp|gen-|num-|pers-|case-|vib-|tam-|chunkId-NP|chunkType-child|stype-|voicetype-	1	lwg__psp	_	_
3	niyaMwriwa	niyaMwriwa	JJ	adj	lex-niyaMwriwa|cat-adj|gen-any|num-any|pers-|case-|vib-|tam-|chunkId-JJP|chunkType-head|stype-|voicetype-	4	pof	_	_
4	karane	kara	VM	v	lex-kara|cat-v|gen-any|num-any|pers-any|case-o|vib-nA_meM|tam-nA|chunkId-VGNN|chunkType-head|stype-|voicetype-	13	k7	_	_
5	meM	meM	PSP	psp	lex-meM|cat-psp|gen-|num-|pers-|case-|vib-|tam-|chunkId-VGNN|chunkType-child|stype-|voicetype-	4	lwg__psp	_	_
6	lokasaBA	lokasaBA	NNC	n	lex-lokasaBA|cat-n|gen-f|num-sg|pers-3|case-d|vib-0|tam-0|chunkId-NP2|chunkType-child|stype-|voicetype-	7	pof__cn	_	_
7	aXyakRa	aXyakRa	NN	n	lex-aXyakRa|cat-n|gen-m|num-sg|pers-3|case-d|vib-0|tam-0|chunkId-NP2|chunkType-child|stype-|voicetype-	9	nmod	_	_
8	somanAWa	somanAWa	NNPC	n	lex-somanAWa|cat-n|gen-m|num-sg|pers-3|case-d|vib-0|tam-0|chunkId-NP2|chunkType-child|stype-|voicetype-	9	pof__cn	_	_
9	catarjI	catarjI	NNP	n	lex-catarjI|cat-n|gen-any|num-sg|pers-3|case-o|vib-0_ko|tam-0|chunkId-NP2|chunkType-head|stype-|voicetype-	13	k1	_	_
10	ko	ko	PSP	psp	lex-ko|cat-psp|gen-|num-|pers-|case-|vib-|tam-|chunkId-NP2|chunkType-child|stype-|voicetype-	9	lwg__psp	_	_
11	KAsI	KAsA	JJ	adj	lex-KAsA|cat-adj|gen-f|num-sg|pers-|case-d|vib-|tam-|chunkId-NP3|chunkType-child|stype-|voicetype-	12	nmod__adj	_	_
12	muSkila	muSkila	NN	n	lex-muSkila|cat-n|gen-f|num-sg|pers-3|case-d|vib-0|tam-0|chunkId-NP3|chunkType-head|stype-|voicetype-	13	pof	_	_
13	AI	A	VM	v	lex-A|cat-v|gen-f|num-sg|pers-any|case-|vib-yA|tam-yA|chunkId-VGF|chunkType-head|stype-declarative|voicetype-active	0	main	_	_
14	.	.	SYM	punc	lex-.|cat-punc|gen-|num-|pers-|case-|vib-|tam-|chunkId-BLK|chunkType-head|stype-|voicetype-	13	rsym	_	_

1	lAlU	lAlU	NNP	n	lex-lAlU|cat-n|gen-m|num-sg|pers-3|case-o|vib-0_ne|tam-0|chunkId-NP|chunkType-head|stype-|voicetype-	3	k1	_	_
2	ne	ne	PSP	psp	lex-ne|cat-psp|gen-|num-|pers-|case-|vib-|tam-|chunkId-NP|chunkType-child|stype-|voicetype-	1	lwg__psp	_	_
3	kahA	kaha	VM	v	lex-kaha|cat-v|gen-m|num-sg|pers-any|case-|vib-yA|tam-yA|chunkId-VGF|chunkType-head|stype-declarative|voicetype-active	0	main	_	_
4	ki	ki	CC	avy	lex-ki|cat-avy|gen-|num-|pers-|case-|vib-|tam-|chunkId-CCP|chunkType-head|stype-|voicetype-	3	k2	_	_
5	vipakRa	vipakRa	NN	n	lex-vipakRa|cat-n|gen-m|num-sg|pers-3|case-o|vib-0_ko|tam-0|chunkId-NP2|chunkType-head|stype-|voicetype-	16	k1	_	_
6	ko	ko	PSP	psp	lex-ko|cat-psp|gen-|num-|pers-|case-|vib-|tam-|chunkId-NP2|chunkType-child|stype-|voicetype-	5	lwg__psp	_	_
7	hara	hara	QF	avy	lex-hara|cat-avy|gen-|num-|pers-|case-|vib-|tam-|chunkId-NP3|chunkType-child|stype-|voicetype-	8	nmod__adj	_	_
8	bAwa	bAwa	NN	n	lex-bAwa|cat-n|gen-f|num-sg|pers-3|case-o|vib-0_meM|tam-0|chunkId-NP3|chunkType-head|stype-|voicetype-	13	k7	_	_
9	meM	meM	PSP	psp	lex-meM|cat-psp|gen-|num-|pers-|case-|vib-|tam-|chunkId-NP3|chunkType-child|stype-|voicetype-	8	lwg__psp	_	_
10	soniyA	soniyA	NNP	n	lex-soniyA|cat-n|gen-f|num-sg|pers-3|case-o|vib-0_kA|tam-0|chunkId-NP4|chunkType-head|stype-|voicetype-	12	r6	_	_
11	kA	kA	PSP	psp	lex-kA|cat-psp|gen-m|num-sg|pers-|case-d|vib-|tam-|chunkId-NP4|chunkType-child|stype-|voicetype-	10	lwg__psp	_	_
12	nAma	nAma	NN	n	lex-nAma|cat-n|gen-m|num-sg|pers-3|case-d|vib-0|tam-0|chunkId-NP5|chunkType-head|stype-|voicetype-	13	k2	_	_
13	lene	le	VM	v	lex-le|cat-v|gen-any|num-sg|pers-any|case-o|vib-nA_kA|tam-nA|chunkId-VGNN|chunkType-head|stype-|voicetype-	15	r6-k2	_	_
14	kI	kA	PSP	psp	lex-kA|cat-psp|gen-f|num-sg|pers-|case-d|vib-|tam-|chunkId-VGNN|chunkType-child|stype-|voicetype-	13	lwg__psp	_	_
15	Axawa	Axawa	NN	n	lex-Axawa|cat-n|gen-f|num-sg|pers-3|case-d|vib-0|tam-0|chunkId-NP6|chunkType-head|stype-|voicetype-	16	pof	_	_
16	padZa	padZa	VM	v	lex-padZa|cat-v|gen-f|num-sg|pers-3|case-|vib-0_jA+yA1_hE|tam-0|chunkId-VGF2|chunkType-head|stype-declarative|voicetype-active	4	ccof	_	_
17	gaI	jA	VAUX	v	lex-jA|cat-v|gen-f|num-sg|pers-any|case-|vib-yA1|tam-yA1|chunkId-VGF2|chunkType-child|stype-|voicetype-	16	lwg__vaux	_	_
18	hE	hE	VAUX	v	lex-hE|cat-v|gen-any|num-sg|pers-3|case-|vib-hE|tam-hE|chunkId-VGF2|chunkType-child|stype-|voicetype-	16	lwg__vaux	_	_
19	.	.	SYM	punc	lex-.|cat-punc|gen-|num-|pers-|case-|vib-|tam-|chunkId-BLK|chunkType-head|stype-|voicetype-	3	rsym	_	_

1	saxana	saxana	NN	n	lex-saxana|cat-n|gen-m|num-sg|pers-3|case-o|vib-0_meM|tam-0|chunkId-NP|chunkType-head|stype-|voicetype-	6	k7p	_	_
2	meM	meM	PSP	psp	lex-meM|cat-psp|gen-|num-|pers-|case-|vib-|tam-|chunkId-NP|chunkType-child|stype-|voicetype-	1	lwg__psp	_	_
3	jaba	jaba	PRP	pn	lex-jaba|cat-pn|gen-|num-|pers-|case-d|vib-|tam-|chunkId-NP2|chunkType-head|stype-|voicetype-	6	k7t	_	_
4	yaha	yaha	DEM	pn	lex-yaha|cat-pn|gen-any|num-sg|pers-3|case-d|vib-|tam-|chunkId-NP3|chunkType-child|stype-|voicetype-	5	nmod__adj	_	_
5	mAmalA	mAmalA	NN	n	lex-mAmalA|cat-n|gen-m|num-sg|pers-3|case-d|vib-0|tam-0|chunkId-NP3|chunkType-head|stype-|voicetype-	6	k2	_	_
6	uTA	uTa	VM	v	lex-uTa|cat-v|gen-m|num-sg|pers-any|case-|vib-yA|tam-yA|chunkId-VGF|chunkType-head|stype-declarative|voicetype-active	7	nmod__relc	_	_
7	wo	wo	PRP	pn	lex-wo|cat-pn|gen-|num-|pers-|case-|vib-|tam-|chunkId-NP4|chunkType-head|stype-|voicetype-	14	k7t	_	_
8	usa	vaha	DEM	pn	lex-vaha|cat-pn|gen-any|num-sg|pers-3|case-o|vib-|tam-|chunkId-NP5|chunkType-child|stype-|voicetype-	9	nmod__adj	_	_
9	samaya	samaya	NN	n	lex-samaya|cat-n|gen-m|num-sg|pers-3|case-d|vib-0|tam-0|chunkId-NP5|chunkType-head|stype-|voicetype-	14	k7t	_	_
10	soniyA	soniyA	NNPC	n	lex-soniyA|cat-n|gen-f|num-sg|pers-3|case-d|vib-0|tam-0|chunkId-NP6|chunkType-child|stype-|voicetype-	11	pof__cn	_	_
11	gAMXI	gAMXI	NNP	n	lex-gAMXI|cat-n|gen-any|num-sg|pers-3|case-d|vib-0|tam-0|chunkId-NP6|chunkType-head|stype-|voicetype-	14	k1	_	_
12	mOjUxa	mOjUxa	JJ	adj	lex-mOjUxa|cat-adj|gen-any|num-any|pers-|case-|vib-|tam-|chunkId-JJP|chunkType-head|stype-|voicetype-	14	pof	_	_
13	nahIM	nahIM	NEG	avy	lex-nahIM|cat-avy|gen-|num-|pers-|case-|vib-|tam-|chunkId-VGF2|chunkType-child|stype-|voicetype-	14	lwg__neg	_	_
14	WIM	WA	VM	v	lex-WA|cat-v|gen-f|num-sg|pers-3h|case-|vib-WA|tam-WA|chunkId-VGF2|chunkType-head|stype-declarative|voicetype-active	0	main	_	_
15	.	.	SYM	punc	lex-.|cat-punc|gen-|num-|pers-|case-|vib-|tam-|chunkId-BLK|chunkType-head|stype-|voicetype-	14	rsym	_	_

1	kAMgresa	kAMgresa	NNP	n	lex-kAMgresa|cat-n|gen-f|num-sg|pers-3|case-o|vib-0_kA|tam-0|chunkId-NP|chunkType-head|stype-|voicetype-	3	r6	_	_
2	ke	kA	PSP	psp	lex-kA|cat-psp|gen-m|num-pl|pers-|case-d|vib-|tam-|chunkId-NP|chunkType-child|stype-|voicetype-	1	lwg__psp	_	_
3	sAMsaxa	sAMsaxa	NN	n	lex-sAMsaxa|cat-n|gen-m|num-pl|pers-3|case-d|vib-0|tam-0|chunkId-NP2|chunkType-head|stype-|voicetype-	8	k1	_	_
4	BI	BI	RP	avy	lex-BI|cat-avy|gen-|num-|pers-|case-|vib-|tam-|chunkId-NP2|chunkType-child|stype-|voicetype-	3	lwg__rp	_	_
5	kama	kama	QF	avy	lex-kama|cat-avy|gen-|num-|pers-|case-|vib-|tam-|chunkId-NP3|chunkType-child|stype-|voicetype-	6	nmod__adj	_	_
6	saMKyA	saMKyA	NN	n	lex-saMKyA|cat-n|gen-f|num-sg|pers-3|case-o|vib-0_meM|tam-0|chunkId-NP3|chunkType-head|stype-|voicetype-	8	k7	_	_
7	meM	meM	PSP	psp	lex-meM|cat-psp|gen-|num-|pers-|case-|vib-|tam-|chunkId-NP3|chunkType-child|stype-|voicetype-	6	lwg__psp	_	_
8	We	WA	VM	v	lex-WA|cat-v|gen-m|num-pl|pers-any|case-|vib-WA|tam-WA|chunkId-VGF|chunkType-head|stype-declarative|voicetype-active	0	main	_	_
9	.	.	SYM	punc	lex-.|cat-punc|gen-|num-|pers-|case-|vib-|tam-|chunkId-BLK|chunkType-head|stype-|voicetype-	8	rsym	_	_

1	Ese	EsA	PRP	pn	lex-EsA|cat-pn|gen-m|num-sg|pers-any|case-o|vib-0_meM|tam-0|chunkId-NP|chunkType-head|stype-|voicetype-	8	k7	_	_
2	meM	meM	PSP	psp	lex-meM|cat-psp|gen-|num-|pers-|case-|vib-|tam-|chunkId-NP|chunkType-child|stype-|voicetype-	1	lwg__psp	_	_
3	rAjaxa	rAjaxa	NNP	n	lex-rAjaxa|cat-n|gen-m|num-sg|pers-3|case-d|vib-0|tam-0|chunkId-NP2|chunkType-child|stype-|voicetype-	4	nmod__adj	_	_
4	sAMsaxoM	sAMsaxa	NN	n	lex-sAMsaxa|cat-n|gen-m|num-pl|pers-3|case-o|vib-0_ne|tam-0|chunkId-NP2|chunkType-head|stype-|voicetype-	8	k1	_	_
5	ne	ne	PSP	psp	lex-ne|cat-psp|gen-|num-|pers-|case-|vib-|tam-|chunkId-NP2|chunkType-child|stype-|voicetype-	4	lwg__psp	_	_
6	kamI	kamI	NN	n	lex-kamI|cat-n|gen-f|num-sg|pers-3|case-d|vib-0|tam-0|chunkId-NP3|chunkType-head|stype-|voicetype-	8	k2	_	_
7	pUrI	pUrA	JJ	adj	lex-pUrA|cat-adj|gen-f|num-sg|pers-|case-|vib-|tam-|chunkId-JJP|chunkType-head|stype-|voicetype-	8	pof	_	_
8	kI	kara	VM	v	lex-kara|cat-v|gen-f|num-sg|pers-any|case-|vib-yA|tam-yA|chunkId-VGF|chunkType-head|stype-declarative|voicetype-active	0	main	_	_
9	.	.	SYM	punc	lex-.|cat-punc|gen-|num-|pers-|case-|vib-|tam-|chunkId-BLK|chunkType-head|stype-|voicetype-	8	rsym	_	_

1	yahI	yahI	PRP	pn	lex-yahI|cat-pn|gen-any|num-sg|pers-3|case-d|vib-0|tam-0|chunkId-NP|chunkType-head|stype-|voicetype-	3	k1	_	_
2	nahIM	nahIM	NEG	avy	lex-nahIM|cat-avy|gen-|num-|pers-|case-|vib-|tam-|chunkId-NEGP|chunkType-head|stype-|voicetype-	3	vmod	_	_
3	NULL	_	VM	_	lex-_|cat-_|gen-|num-|pers-|case-|vib-|tam-|chunkId-NULL__VGF|chunkType-head|stype-declarative|voicetype-active	4	ccof	_	_
4	NULL	_	CC	_	lex-_|cat-_|gen-|num-|pers-|case-|vib-|tam-|chunkId-NULL__CCP|chunkType-head|stype-|voicetype-	0	main	_	_
5	rAmakqpAla	rAmakqpAla	NNPC	n	lex-rAmakqpAla|cat-n|gen-m|num-sg|pers-3|case-d|vib-0|tam-0|chunkId-NP2|chunkType-child|stype-|voicetype-	6	pof__cn	_	_
6	yAxava	yAxava	NNP	n	lex-yAxava|cat-n|gen-any|num-sg|pers-3|case-o|vib-0_ne|tam-0|chunkId-NP2|chunkType-head|stype-|voicetype-	15	k1	_	_
7	ne	ne	PSP	psp	lex-ne|cat-psp|gen-|num-|pers-|case-|vib-|tam-|chunkId-NP2|chunkType-child|stype-|voicetype-	6	lwg__psp	_	_
8	BI	BI	RP	avy	lex-BI|cat-avy|gen-|num-|pers-|case-|vib-|tam-|chunkId-NP2|chunkType-child|stype-|voicetype-	6	lwg__rp	_	_
9	jOYrja	jOYrja	NNP	n	lex-jOYrja|cat-n|gen-m|num-sg|pers-3|case-o|vib-0_ko|tam-0|chunkId-NP3|chunkType-head|stype-|voicetype-	11	k2	_	_
10	ko	ko	PSP	psp	lex-ko|cat-psp|gen-|num-|pers-|case-|vib-|tam-|chunkId-NP3|chunkType-child|stype-|voicetype-	9	lwg__psp	_	_
11	Gerane	Gera	VM	v	lex-Gera|cat-v|gen-any|num-any|pers-any|case-o|vib-nA_meM|tam-nA|chunkId-VGNN|chunkType-head|stype-|voicetype-	15	k7	_	_
12	meM	meM	PSP	psp	lex-meM|cat-psp|gen-|num-|pers-|case-|vib-|tam-|chunkId-VGNN|chunkType-child|stype-|voicetype-	11	lwg__psp	_	_
13	kamI	kamI	NN	n	lex-kamI|cat-n|gen-f|num-sg|pers-3|case-d|vib-0|tam-0|chunkId-NP4|chunkType-head|stype-|voicetype-	15	k2	_	_
14	nahIM	nahIM	NEG	avy	lex-nahIM|cat-avy|gen-|num-|pers-|case-|vib-|tam-|chunkId-VGF|chunkType-child|stype-|voicetype-	15	lwg__neg	_	_
15	CodZI	CodZa	VM	v	lex-CodZa|cat-v|gen-f|num-sg|pers-any|case-|vib-yA|tam-yA|chunkId-VGF|chunkType-head|stype-declarative|voicetype-active	4	ccof	_	_
16	.	.	SYM	punc	lex-.|cat-punc|gen-|num-|pers-|case-|vib-|tam-|chunkId-BLK|chunkType-head|stype-|voicetype-	4	rsym	_	_

1	unhoMne	vaha	PRP	pn	lex-vaha|cat-pn|gen-any|num-sg|pers-3h|case-o|vib-ne|tam-ne|chunkId-NP|chunkType-head|stype-|voicetype-	4	k1	_	_
2	jOYrja	jOYrja	NNP	n	lex-jOYrja|cat-n|gen-m|num-sg|pers-3|case-o|vib-0_se|tam-0|chunkId-NP2|chunkType-head|stype-|voicetype-	4	k4	_	_
3	se	se	PSP	psp	lex-se|cat-psp|gen-|num-|pers-|case-|vib-|tam-|chunkId-NP2|chunkType-child|stype-|voicetype-	2	lwg__psp	_	_
4	kahA	kaha	VM	v	lex-kaha|cat-v|gen-m|num-sg|pers-any|case-|vib-yA|tam-yA|chunkId-VGF|chunkType-head|stype-declarative|voicetype-active	0	main	_	_
5	ki	ki	CC	avy	lex-ki|cat-avy|gen-|num-|pers-|case-|vib-|tam-|chunkId-CCP|chunkType-head|stype-|voicetype-	4	k2	_	_
6	wAbUwa	wAbUwa	NNPC	n	lex-wAbUwa|cat-n|gen-m|num-sg|pers-3|case-d|vib-0|tam-0|chunkId-NP3|chunkType-child|stype-|voicetype-	7	pof__cn	_	_
7	GotAle	GotAlA	NNP	n	lex-GotAlA|cat-n|gen-m|num-sg|pers-3|case-o|vib-0_kA|tam-0|chunkId-NP3|chunkType-head|stype-|voicetype-	10	r6	_	_
8	ke	kA	PSP	psp	lex-kA|cat-psp|gen-m|num-sg|pers-3h|case-d|vib-|tam-|chunkId-NP3|chunkType-child|stype-|voicetype-	7	lwg__psp	_	_
9	asalI	asalI	JJ	adj	lex-asalI|cat-adj|gen-any|num-any|pers-|case-d|vib-|tam-|chunkId-NP4|chunkType-child|stype-|voicetype-	10	nmod__adj	_	_
10	karwAXarwA	karwAXarwA	NN	n	lex-karwAXarwA|cat-n|gen-m|num-sg|pers-3|case-d|vib-0|tam-0|chunkId-NP4|chunkType-head|stype-|voicetype-	14	k1	_	_
11	wo	wo	RP	avy	lex-wo|cat-avy|gen-|num-|pers-|case-|vib-|tam-|chunkId-NP4|chunkType-child|stype-|voicetype-	10	lwg__rp	_	_
12	jOYrja	jOYrja	NNP	n	lex-jOYrja|cat-n|gen-m|num-sg|pers-3|case-d|vib-0|tam-0|chunkId-NP5|chunkType-head|stype-|voicetype-	14	k1s	_	_
13	hI	hI	RP	avy	lex-hI|cat-avy|gen-|num-|pers-|case-|vib-|tam-|chunkId-NP5|chunkType-child|stype-|voicetype-	12	lwg__rp	_	_
14	hEM	hE	VM	v	lex-hE|cat-v|gen-any|num-sg|pers-3h|case-|vib-hE|tam-hE|chunkId-VGF2|chunkType-head|stype-declarative|voicetype-active	5	ccof	_	_
15	.	.	SYM	punc	lex-.|cat-punc|gen-|num-|pers-|case-|vib-|tam-|chunkId-BLK|chunkType-head|stype-|voicetype-	4	rsym	_	_

1	rARtrapawi	rARtrapawi	NNP	n	lex-rARtrapawi|cat-n|gen-m|num-sg|pers-3|case-o|vib-0_kA|tam-0|chunkId-NP|chunkType-head|stype-|voicetype-	3	r6	_	_
2	ke	kA	PSP	psp	lex-kA|cat-psp|gen-m|num-sg|pers-|case-o|vib-|tam-|chunkId-NP|chunkType-child|stype-|voicetype-	1	lwg__psp	_	_
3	aBiBARaNa	aBiBARaNa	NN	n	lex-aBiBARaNa|cat-n|gen-m|num-sg|pers-3|case-o|vib-0_para|tam-0|chunkId-NP2|chunkType-head|stype-|voicetype-	17	k7	_	_
4	para	para	PSP	psp	lex-para|cat-psp|gen-|num-|pers-|case-|vib-|tam-|chunkId-NP2|chunkType-child|stype-|voicetype-	3	lwg__psp	_	_
5	XanyavAxa	XanyavAxa	NNC	n	lex-XanyavAxa|cat-n|gen-m|num-sg|pers-3|case-d|vib-0|tam-0|chunkId-NP3|chunkType-child|stype-|voicetype-	6	pof__cn	_	_
6	praswAva	praswAva	NN	n	lex-praswAva|cat-n|gen-m|num-sg|pers-3|case-o|vib-0_para|tam-0|chunkId-NP3|chunkType-head|stype-|voicetype-	17	k7	_	_
7	para	para	PSP	psp	lex-para|cat-psp|gen-|num-|pers-|case-|vib-|tam-|chunkId-NP3|chunkType-child|stype-|voicetype-	6	lwg__psp	_	_
8	bahasa	bahasa	NN	n	lex-bahasa|cat-n|gen-f|num-sg|pers-3|case-o|vib-0_kA_bajAya|tam-0|chunkId-NP4|chunkType-head|stype-|voicetype-	17	ras-NEG	_	_
9	kI	kA	PSP	psp	lex-kA|cat-psp|gen-f|num-sg|pers-|case-o|vib-|tam-|chunkId-NP4|chunkType-child|stype-|voicetype-	8	lwg__psp	_	_
10	bajAya	bajAya	PSP	psp	lex-bajAya|cat-psp|gen-|num-|pers-|case-|vib-|tam-|chunkId-NP4|chunkType-child|stype-|voicetype-	8	lwg__psp	_	_
11	jOYrja	jOYrja	NNP	n	lex-jOYrja|cat-n|gen-m|num-sg|pers-3|case-o|vib-0_ne|tam-0|chunkId-NP5|chunkType-head|stype-|voicetype-	17	k1	_	_
12	ne	ne	PSP	psp	lex-ne|cat-psp|gen-|num-|pers-|case-|vib-|tam-|chunkId-NP5|chunkType-child|stype-|voicetype-	11	lwg__psp	_	_
13	wAbUwa	wAbUwa	NNPC	n	lex-wAbUwa|cat-n|gen-m|num-sg|pers-3|case-d|vib-0|tam-0|chunkId-NP6|chunkType-child|stype-|voicetype-	14	pof__cn	_	_
14	GotAle	GotAlA	NNP	n	lex-GotAlA|cat-n|gen-m|num-sg|pers-3|case-o|vib-0_kA|tam-0|chunkId-NP6|chunkType-head|stype-|voicetype-	16	r6-k2	_	_
15	kI	kA	PSP	psp	lex-kA|cat-psp|gen-f|num-sg|pers-|case-d|vib-|tam-|chunkId-NP6|chunkType-child|stype-|voicetype-	14	lwg__psp	_	_
16	carcA	carcA	NN	n	lex-carcA|cat-n|gen-f|num-sg|pers-3|case-d|vib-0|tam-0|chunkId-NP7|chunkType-head|stype-|voicetype-	17	pof	_	_
17	CedZa	CedZa	VM	v	lex-CedZa|cat-v|gen-any|num-sg|pers-any|case-|vib-0_xe+yA|tam-0|chunkId-VGF|chunkType-head|stype-declarative|voicetype-active	0	main	_	_
18	xI	xe	VAUX	v	lex-xe|cat-v|gen-f|num-sg|pers-any|case-|vib-yA|tam-yA|chunkId-VGF|chunkType-child|stype-|voicetype-	17	lwg__vaux	_	_
19	.	.	SYM	punc	lex-.|cat-punc|gen-|num-|pers-|case-|vib-|tam-|chunkId-BLK|chunkType-head|stype-|voicetype-	17	rsym	_	_

1	unhoMne	vaha	PRP	pn	lex-vaha|cat-pn|gen-any|num-sg|pers-3h|case-o|vib-ne|tam-ne|chunkId-NP|chunkType-head|stype-|voicetype-	3	k1	_	_
2	saPAI	saPAI	NN	n	lex-saPAI|cat-n|gen-f|num-sg|pers-3|case-d|vib-0|tam-0|chunkId-NP2|chunkType-head|stype-|voicetype-	3	k2	_	_
3	xI	xe	VM	v	lex-xe|cat-v|gen-f|num-sg|pers-any|case-|vib-yA|tam-yA|chunkId-VGF|chunkType-head|stype-declarative|voicetype-active	0	main	_	_
4	ki	ki	CC	avy	lex-ki|cat-avy|gen-|num-|pers-|case-|vib-|tam-|chunkId-CCP|chunkType-head|stype-|voicetype-	2	rs	_	_
5	praXAnamaMwrI	praXAnamaMwrI	NNP	n	lex-praXAnamaMwrI|cat-n|gen-m|num-sg|pers-3|case-d|vib-0|tam-0|chunkId-NP3|chunkType-child|stype-|voicetype-	7	nmod__adj	_	_
6	manamohana	manamohana	NNPC	n	lex-manamohana|cat-n|gen-m|num-sg|pers-3|case-d|vib-0|tam-0|chunkId-NP3|chunkType-child|stype-|voicetype-	7	pof__cn	_	_
7	siMha	siMha	NNP	n	lex-siMha|cat-n|gen-m|num-sg|pers-3|case-o|vib-0_ko|tam-0|chunkId-NP3|chunkType-head|stype-|voicetype-	9	k2	_	_
8	ko	ko	PSP	psp	lex-ko|cat-psp|gen-|num-|pers-|case-|vib-|tam-|chunkId-NP3|chunkType-child|stype-|voicetype-	7	lwg__psp	_	_
9	liKakara	liKa	VM	v	lex-liKa|cat-v|gen-any|num-any|pers-any|case-|vib-kara|tam-kara|chunkId-VGNF|chunkType-head|stype-|voicetype-	11	vmod	_	_
10	vaha	vaha	PRP	pn	lex-vaha|cat-pn|gen-any|num-sg|pers-3|case-d|vib-0|tam-0|chunkId-NP4|chunkType-head|stype-|voicetype-	11	k1	_	_
11	kaha	kaha	VM	v	lex-kaha|cat-v|gen-m|num-sg|pers-3h|case-|vib-0_cuka+yA_hE|tam-0|chunkId-VGF2|chunkType-head|stype-declarative|voicetype-active	4	ccof	_	_
12	cuke	cuka	VAUX	v	lex-cuka|cat-v|gen-m|num-sg|pers-3h|case-|vib-yA|tam-yA|chunkId-VGF2|chunkType-child|stype-|voicetype-	11	lwg__vaux	_	_
13	hEM	hE	VAUX	v	lex-hE|cat-v|gen-any|num-sg|pers-3h|case-|vib-hE|tam-hE|chunkId-VGF2|chunkType-child|stype-|voicetype-	11	lwg__vaux	_	_
14	ki	ki	CC	avy	lex-ki|cat-avy|gen-|num-|pers-|case-|vib-|tam-|chunkId-CCP2|chunkType-head|stype-|voicetype-	11	k2	_	_
15	kAMgresa	kAMgresa	NNP	n	lex-kAMgresa|cat-n|gen-f|num-sg|pers-3|case-d|vib-0|tam-0|chunkId-NP5|chunkType-child|stype-|voicetype-	16	nmod__adj	_	_
16	aXyakRa	aXyakRa	NN	n	lex-aXyakRa|cat-n|gen-f|num-sg|pers-3|case-d|vib-0|tam-0|chunkId-NP5|chunkType-head|stype-|voicetype-	26	k1	_	_
17	laMbe	laMbA	JJ	adj	lex-laMbA|cat-adj|gen-m|num-sg|pers-|case-o|vib-|tam-|chunkId-NP6|chunkType-child|stype-|voicetype-	18	nmod__adj	_	_
18	samaya	samaya	NN	n	lex-samaya|cat-n|gen-m|num-sg|pers-3|case-o|vib-0_se|tam-0|chunkId-NP6|chunkType-head|stype-|voicetype-	26	k7t	_	_
19	se	se	PSP	psp	lex-se|cat-psp|gen-|num-|pers-|case-|vib-|tam-|chunkId-NP6|chunkType-child|stype-|voicetype-	18	lwg__psp	_	_
20	unake	vaha	PRP	pn	lex-vaha|cat-pn|gen-any|num-sg|pers-3h|case-o|vib-0_KilAPa|tam-ke|chunkId-NP7|chunkType-head|stype-|voicetype-	26	vmod	_	_
21	KilAPa	KilAPa	PSP	adj	lex-KilAPa|cat-adj|gen-|num-|pers-|case-|vib-|tam-|chunkId-NP7|chunkType-child|stype-|voicetype-	20	lwg__psp	_	_
22	wAbUwa	wAbUwa	NNPC	n	lex-wAbUwa|cat-n|gen-m|num-sg|pers-3|case-d|vib-0|tam-0|chunkId-NP8|chunkType-child|stype-|voicetype-	23	pof__cn	_	_
23	GotAle	GotAlA	NNP	n	lex-GotAlA|cat-n|gen-m|num-sg|pers-3|case-o|vib-0_kA|tam-0|chunkId-NP8|chunkType-head|stype-|voicetype-	25	r6-k2	_	_
24	kA	kA	PSP	psp	lex-kA|cat-psp|gen-m|num-sg|pers-|case-d|vib-|tam-|chunkId-NP8|chunkType-child|stype-|voicetype-	23	lwg__psp	_	_
25	xuRpracAra	xuRpracAra	NN	n	lex-xuRpracAra|cat-n|gen-m|num-sg|pers-3|case-d|vib-0|tam-0|chunkId-NP9|chunkType-head|stype-|voicetype-	26	pof	_	_
26	kara	kara	VM	v	lex-kara|cat-v|gen-f|num-sg|pers-3h|case-|vib-0_raha+yA_hE|tam-0|chunkId-VGF3|chunkType-head|stype-declarative|voicetype-active	29	ccof	_	_
27	rahI	raha	VAUX	v	lex-raha|cat-v|gen-f|num-sg|pers-3h|case-|vib-yA|tam-yA|chunkId-VGF3|chunkType-child|stype-|voicetype-	26	lwg__vaux	_	_
28	hEM	hE	VAUX	v	lex-hE|cat-v|gen-any|num-sg|pers-3h|case-|vib-hE|tam-hE|chunkId-VGF3|chunkType-child|stype-|voicetype-	26	lwg__vaux	_	_
29	Ora	Ora	CC	avy	lex-Ora|cat-avy|gen-|num-|pers-|case-|vib-|tam-|chunkId-CCP3|chunkType-head|stype-|voicetype-	14	ccof	_	_
30	aba	aba	PRP	pn	lex-aba|cat-pn|gen-|num-|pers-|case-d|vib-|tam-|chunkId-NP10|chunkType-head|stype-|voicetype-	36	k7t	_	_
31	naI	nayA	JJ	adj	lex-nayA|cat-adj|gen-f|num-sg|pers-|case-o|vib-|tam-|chunkId-NP11|chunkType-child|stype-|voicetype-	32	nmod__adj	_	_
32	sarakAra	sarakAra	NN	n	lex-sarakAra|cat-n|gen-f|num-sg|pers-3|case-o|vib-0_ko|tam-0|chunkId-NP11|chunkType-head|stype-|voicetype-	36	k1	_	_
33	ko	ko	PSP	psp	lex-ko|cat-psp|gen-|num-|pers-|case-|vib-|tam-|chunkId-NP11|chunkType-child|stype-|voicetype-	32	lwg__psp	_	_
34	isakI	yaha	PRP	pn	lex-yaha|cat-pn|gen-f|num-sg|pers-3|case-o|vib-kA|tam-kA|chunkId-NP12|chunkType-head|stype-|voicetype-	35	r6-k2	_	_
35	jAMca	jAMca	NN	n	lex-jAMca|cat-n|gen-f|num-sg|pers-3|case-d|vib-0|tam-0|chunkId-NP13|chunkType-head|stype-|voicetype-	36	pof	_	_
36	karanI	kara	VM	v	lex-kara|cat-v|gen-f|num-any|pers-any|case-|vib-nA_cAhie|tam-nA|chunkId-VGF4|chunkType-head|stype-declarative|voicetype-active	29	ccof	_	_
37	cAhie	cAhie	VAUX	v	lex-cAhie|cat-v|gen-any|num-any|pers-any|case-|vib-0|tam-0|chunkId-VGF4|chunkType-child|stype-|voicetype-	36	lwg__vaux	_	_
38	.	.	SYM	punc	lex-.|cat-punc|gen-|num-|pers-|case-|vib-|tam-|chunkId-BLK|chunkType-head|stype-|voicetype-	3	rsym	_	_

1	jOYrja	jOYrja	NNP	n	lex-jOYrja|cat-n|gen-m|num-sg|pers-3|case-o|vib-0_ne|tam-0|chunkId-NP|chunkType-head|stype-|voicetype-	4	k1	_	_
2	ne	ne	PSP	psp	lex-ne|cat-psp|gen-|num-|pers-|case-|vib-|tam-|chunkId-NP|chunkType-child|stype-|voicetype-	1	lwg__psp	_	_
3	savAla	savAla	NN	n	lex-savAla|cat-n|gen-m|num-sg|pers-3|case-d|vib-0|tam-0|chunkId-NP2|chunkType-head|stype-|voicetype-	4	k2	_	_
4	uTAyA	uTA	VM	v	lex-uTA|cat-v|gen-m|num-sg|pers-any|case-|vib-yA|tam-yA|chunkId-VGF|chunkType-head|stype-declarative|voicetype-active	0	main	_	_
5	ki	ki	CC	avy	lex-ki|cat-avy|gen-|num-|pers-|case-|vib-|tam-|chunkId-CCP|chunkType-head|stype-|voicetype-	3	rs	_	_
6	AKira	AKira	RB	adv	lex-AKira|cat-adv|gen-|num-|pers-|case-|vib-|tam-|chunkId-RBP|chunkType-head|stype-|voicetype-	11	adv	_	_
7	isakI	yaha	PRP	pn	lex-yaha|cat-pn|gen-f|num-sg|pers-3|case-o|vib-kA|tam-kA|chunkId-NP3|chunkType-head|stype-|voicetype-	8	r6-k1	_	_
8	jAMca	jAMca	NN	n	lex-jAMca|cat-n|gen-f|num-sg|pers-3|case-d|vib-0|tam-0|chunkId-NP4|chunkType-head|stype-|voicetype-	11	pof	_	_
9	kyoM	kyoM	WQ	pn	lex-kyoM|cat-pn|gen-|num-|pers-|case-|vib-|tam-|chunkId-RBP2|chunkType-head|stype-|voicetype-	11	adv	_	_
10	nahIM	nahIM	NEG	avy	lex-nahIM|cat-avy|gen-|num-|pers-|case-|vib-|tam-|chunkId-VGF2|chunkType-child|stype-|voicetype-	11	lwg__neg	_	_
11	ho	ho	VM	v	lex-ho|cat-v|gen-f|num-sg|pers-3|case-|vib-0_raha+yA_hE|tam-0|chunkId-VGF2|chunkType-head|stype-declarative|voicetype-active	5	ccof	_	_
12	rahI	raha	VAUX	v	lex-raha|cat-v|gen-f|num-sg|pers-any|case-|vib-yA|tam-yA|chunkId-VGF2|chunkType-child|stype-|voicetype-	11	lwg__vaux	_	_
13	hE	hE	VAUX	v	lex-hE|cat-v|gen-any|num-sg|pers-3|case-|vib-hE|tam-hE|chunkId-VGF2|chunkType-child|stype-|voicetype-	11	lwg__vaux	_	_
14	.	.	SYM	punc	lex-.|cat-punc|gen-|num-|pers-|case-|vib-|tam-|chunkId-BLK|chunkType-head|stype-|voicetype-	4	rsym	_	_

1	jOYrja	jOYrja	NNP	n	lex-jOYrja|cat-n|gen-m|num-sg|pers-3|case-o|vib-0_ne|tam-0|chunkId-NP|chunkType-head|stype-|voicetype-	3	k1	_	_
2	ne	ne	PSP	psp	lex-ne|cat-psp|gen-|num-|pers-|case-|vib-|tam-|chunkId-NP|chunkType-child|stype-|voicetype-	1	lwg__psp	_	_
3	kahA	kaha	VM	v	lex-kaha|cat-v|gen-m|num-sg|pers-any|case-|vib-yA|tam-yA|chunkId-VGF|chunkType-head|stype-declarative|voicetype-active	0	main	_	_
4	ki	ki	CC	avy	lex-ki|cat-avy|gen-|num-|pers-|case-|vib-|tam-|chunkId-CCP|chunkType-head|stype-|voicetype-	3	k2	_	_
5	kAMgresa	kAMgresa	NNP	n	lex-kAMgresa|cat-n|gen-f|num-sg|pers-3|case-d|vib-0|tam-0|chunkId-NP2|chunkType-child|stype-|voicetype-	6	nmod__adj	_	_
6	aXyakRa	aXyakRa	NN	n	lex-aXyakRa|cat-n|gen-f|num-sg|pers-3|case-d|vib-0|tam-0|chunkId-NP2|chunkType-head|stype-|voicetype-	8	k1	_	_
7	BI	BI	RP	avy	lex-BI|cat-avy|gen-|num-|pers-|case-|vib-|tam-|chunkId-NP2|chunkType-child|stype-|voicetype-	6	lwg__rp	_	_
8	jAnawI	jAna	VM	v	lex-jAna|cat-v|gen-f|num-sg|pers-3h|case-|vib-wA_hE|tam-wA|chunkId-VGF2|chunkType-head|stype-declarative|voicetype-active	4	ccof	_	_
9	hEM	hE	VAUX	v	lex-hE|cat-v|gen-any|num-sg|pers-3h|case-|vib-hE|tam-hE|chunkId-VGF2|chunkType-child|stype-|voicetype-	8	lwg__vaux	_	_
10	ki	ki	CC	avy	lex-ki|cat-avy|gen-|num-|pers-|case-|vib-|tam-|chunkId-CCP2|chunkType-head|stype-|voicetype-	8	k2	_	_
11	yaha	yaha	DEM	pn	lex-yaha|cat-pn|gen-any|num-sg|pers-3|case-d|vib-|tam-|chunkId-NP3|chunkType-child|stype-|voicetype-	12	nmod__adj	_	_
12	saba	saba	PRP	pn	lex-saba|cat-pn|gen-any|num-pl|pers-any|case-d|vib-0|tam-0|chunkId-NP3|chunkType-head|stype-|voicetype-	14	k1	_	_
13	JUTa	JUTa	NN	n	lex-JUTa|cat-n|gen-m|num-sg|pers-3|case-d|vib-0|tam-0|chunkId-NP4|chunkType-head|stype-|voicetype-	14	k1s	_	_
14	hE	hE	VM	v	lex-hE|cat-v|gen-any|num-sg|pers-3|case-|vib-hE|tam-hE|chunkId-VGF3|chunkType-head|stype-declarative|voicetype-active	10	ccof	_	_
15	.	.	SYM	punc	lex-.|cat-punc|gen-|num-|pers-|case-|vib-|tam-|chunkId-BLK|chunkType-head|stype-|voicetype-	3	rsym	_	_

1	jOYrja	jOYrja	NNP	n	lex-jOYrja|cat-n|gen-m|num-sg|pers-3|case-d|vib-0|tam-0|chunkId-NP|chunkType-head|stype-|voicetype-	5	k1	_	_
2	usa	vaha	DEM	pn	lex-vaha|cat-pn|gen-any|num-sg|pers-3|case-d|vib-|tam-|chunkId-NP2|chunkType-child|stype-|voicetype-	3	nmod__adj	_	_
3	samaya	samaya	NN	n	lex-samaya|cat-n|gen-m|num-sg|pers-3|case-d|vib-0|tam-0|chunkId-NP2|chunkType-head|stype-|voicetype-	5	k7t	_	_
4	acAnaka	acAnaka	RB	adv	lex-acAnaka|cat-adv|gen-|num-|pers-|case-|vib-|tam-|chunkId-RBP|chunkType-head|stype-|voicetype-	5	adv	_	_
5	BadZaka	BadZaka	VM	v	lex-BadZaka|cat-v|gen-any|num-sg|pers-3h|case-|vib-0_jA+yA1|tam-0|chunkId-VGF|chunkType-head|stype-declarative|voicetype-active	0	main	_	_
6	gae	jA	VAUX	v	lex-jA|cat-v|gen-m|num-sg|pers-3h|case-|vib-yA1|tam-yA1|chunkId-VGF|chunkType-child|stype-|voicetype-	5	lwg__vaux	_	_
7	jaba	jaba	PRP	pn	lex-jaba|cat-pn|gen-|num-|pers-|case-d|vib-|tam-|chunkId-NP3|chunkType-head|stype-|voicetype-	12	k7t	_	_
8	unake	vaha	PRP	pn	lex-vaha|cat-pn|gen-m|num-sg|pers-3h|case-o|vib-kA|tam-kA|chunkId-NP4|chunkType-head|stype-|voicetype-	9	r6	_	_
9	BARaNa	BARaNa	NN	n	lex-BARaNa|cat-n|gen-m|num-sg|pers-3|case-o|vib-0_meM|tam-0|chunkId-NP5|chunkType-head|stype-|voicetype-	12	k7	_	_
10	meM	meM	PSP	psp	lex-meM|cat-psp|gen-|num-|pers-|case-|vib-|tam-|chunkId-NP5|chunkType-child|stype-|voicetype-	9	lwg__psp	_	_
11	tokAtAkI	tokAtAkI	NN	n	lex-tokAtAkI|cat-n|gen-f|num-sg|pers-3|case-d|vib-0|tam-0|chunkId-NP6|chunkType-head|stype-|voicetype-	12	pof	_	_
12	kI	kara	VM	v	lex-kara|cat-v|gen-f|num-sg|pers-any|case-|vib-yA_jA_raha+yA_WA|tam-yA|chunkId-VGF2|chunkType-head|stype-declarative|voicetype-active	16	ccof	_	_
13	jA	jA	VAUX	v	lex-jA|cat-v|gen-any|num-any|pers-any|case-|vib-0|tam-0|chunkId-VGF2|chunkType-child|stype-|voicetype-	12	lwg__vaux	_	_
14	rahI	raha	VAUX	v	lex-raha|cat-v|gen-f|num-sg|pers-any|case-|vib-yA|tam-yA|chunkId-VGF2|chunkType-child|stype-|voicetype-	12	lwg__vaux	_	_
15	WI	WA	VAUX	v	lex-WA|cat-v|gen-f|num-sg|pers-any|case-|vib-WA|tam-WA|chunkId-VGF2|chunkType-child|stype-|voicetype-	12	lwg__vaux	_	_
16	Ora	Ora	CC	avy	lex-Ora|cat-avy|gen-|num-|pers-|case-|vib-|tam-|chunkId-CCP|chunkType-head|stype-|voicetype-	3	nmod__relc	_	_
17	sawwAXArI	sawwAXArI	JJ	adj	lex-sawwAXArI|cat-adj|gen-any|num-any|pers-|case-o|vib-|tam-|chunkId-NP7|chunkType-child|stype-|voicetype-	18	nmod__adj	_	_
18	xala	xala	NN	n	lex-xala|cat-n|gen-m|num-sg|pers-3|case-o|vib-0_kA_ora_se|tam-0|chunkId-NP7|chunkType-head|stype-|voicetype-	29	rd	_	_
19	kI	kA	PSP	psp	lex-kA|cat-psp|gen-f|num-sg|pers-|case-o|vib-|tam-|chunkId-NP7|chunkType-child|stype-|voicetype-	18	lwg__psp	_	_
20	ora	ora	NST	nst	lex-ora|cat-nst|gen-f|num-sg|pers-3|case-o|vib-|tam-|chunkId-NP7|chunkType-child|stype-|voicetype-	18	lwg__psp	_	_
21	se	se	PSP	psp	lex-se|cat-psp|gen-|num-|pers-|case-|vib-|tam-|chunkId-NP7|chunkType-child|stype-|voicetype-	18	lwg__psp	_	_
22	wAbUwa	wAbUwa	NNPC	n	lex-wAbUwa|cat-n|gen-m|num-sg|pers-3|case-d|vib-0|tam-0|chunkId-NP8|chunkType-child|stype-|voicetype-	23	pof__cn	_	_
23	GotAle	GotAlA	NNP	n	lex-GotAlA|cat-n|gen-m|num-sg|pers-3|case-o|vib-0|tam-0|chunkId-NP8|chunkType-head|stype-|voicetype-	24	ccof	_	_
24	Ora	Ora	CC	avy	lex-Ora|cat-avy|gen-|num-|pers-|case-|vib-|tam-|chunkId-CCP2|chunkType-head|stype-|voicetype-	28	r6	_	_
25	wahalakA	wahalakA	NNPC	n	lex-wahalakA|cat-n|gen-m|num-sg|pers-3|case-d|vib-0|tam-0|chunkId-NP9|chunkType-child|stype-|voicetype-	26	pof__cn	_	_
26	GotAle	GotAlA	NNP	n	lex-GotAlA|cat-n|gen-m|num-sg|pers-3|case-o|vib-0_kA|tam-0|chunkId-NP9|chunkType-head|stype-|voicetype-	24	ccof	_	_
27	kI	kA	PSP	psp	lex-kA|cat-psp|gen-f|num-pl|pers-|case-d|vib-|tam-|chunkId-NP9|chunkType-child|stype-|voicetype-	26	lwg__psp	_	_
28	bAweM	bAwa	NN	n	lex-bAwa|cat-n|gen-f|num-pl|pers-3|case-d|vib-0|tam-0|chunkId-NP10|chunkType-head|stype-|voicetype-	29	k2	_	_
29	uCAlI	uCAla	VM	v	lex-uCAla|cat-v|gen-f|num-pl|pers-any|case-|vib-yA_jA_raha+yA_WA|tam-yA|chunkId-VGF3|chunkType-head|stype-declarative|voicetype-active	16	ccof	_	_
30	jA	jA	VAUX	v	lex-jA|cat-v|gen-any|num-any|pers-any|case-|vib-0|tam-0|chunkId-VGF3|chunkType-child|stype-|voicetype-	29	lwg__vaux	_	_
31	rahI	raha	VAUX	v	lex-raha|cat-v|gen-f|num-pl|pers-any|case-|vib-yA|tam-yA|chunkId-VGF3|chunkType-child|stype-|voicetype-	29	lwg__vaux	_	_
32	WIM	WA	VAUX	v	lex-WA|cat-v|gen-f|num-pl|pers-any|case-|vib-WA|tam-WA|chunkId-VGF3|chunkType-child|stype-|voicetype-	29	lwg__vaux	_	_
33	.	.	SYM	punc	lex-.|cat-punc|gen-|num-|pers-|case-|vib-|tam-|chunkId-BLK|chunkType-head|stype-|voicetype-	5	rsym	_	_

1	uwwejiwa	uwwejiwa	JJ	adj	lex-uwwejiwa|cat-adj|gen-any|num-any|pers-|case-o|vib-|tam-|chunkId-NP|chunkType-child|stype-|voicetype-	2	nmod__adj	_	_
2	jOYrja	jOYrja	NNP	n	lex-jOYrja|cat-n|gen-m|num-sg|pers-3|case-o|vib-0_ne|tam-0|chunkId-NP|chunkType-head|stype-|voicetype-	10	k1	_	_
3	ne	ne	PSP	psp	lex-ne|cat-psp|gen-|num-|pers-|case-|vib-|tam-|chunkId-NP|chunkType-child|stype-|voicetype-	2	lwg__psp	_	_
4	kAMgresa	kAMgresa	NNP	n	lex-kAMgresa|cat-n|gen-f|num-sg|pers-3|case-d|vib-0|tam-0|chunkId-NP2|chunkType-child|stype-|voicetype-	7	nmod__adj	_	_
5	aXyakRa	aXyakRa	NN	n	lex-aXyakRa|cat-n|gen-f|num-sg|pers-3|case-d|vib-0|tam-0|chunkId-NP2|chunkType-child|stype-|voicetype-	7	nmod	_	_
6	soniyA	soniyA	NNPC	n	lex-soniyA|cat-n|gen-f|num-sg|pers-3|case-d|vib-0|tam-0|chunkId-NP2|chunkType-child|stype-|voicetype-	7	pof__cn	_	_
7	gAMXI	gAMXI	NNP	n	lex-gAMXI|cat-n|gen-any|num-sg|pers-3|case-o|vib-0_para|tam-0|chunkId-NP2|chunkType-head|stype-|voicetype-	10	k7	_	_
8	para	para	PSP	psp	lex-para|cat-psp|gen-|num-|pers-|case-|vib-|tam-|chunkId-NP2|chunkType-child|stype-|voicetype-	7	lwg__psp	_	_
9	tiWI	tiWI	NN	n	lex-tiWI|cat-n|gen-f|num-sg|pers-3|case-d|vib-0|tam-0|chunkId-NP3|chunkType-head|stype-|voicetype-	10	pof	_	_
10	kI	kara	VM	v	lex-kara|cat-v|gen-f|num-sg|pers-any|case-|vib-yA|tam-yA|chunkId-VGF|chunkType-head|stype-declarative|voicetype-active	0	main	_	_
11	jisa	jo	PRP	pn	lex-jo|cat-pn|gen-any|num-sg|pers-3|case-o|vib-0_para|tam-0|chunkId-NP4|chunkType-head|stype-|voicetype-	21	k7	_	_
12	para	para	PSP	psp	lex-para|cat-psp|gen-|num-|pers-|case-|vib-|tam-|chunkId-NP4|chunkType-child|stype-|voicetype-	11	lwg__psp	_	_
13	sawwAXArI	sawwAXArI	JJ	adj	lex-sawwAXArI|cat-adj|gen-any|num-any|pers-|case-o|vib-|tam-|chunkId-NP5|chunkType-child|stype-|voicetype-	14	nmod__adj	_	_
14	xala	xala	NN	n	lex-xala|cat-n|gen-m|num-sg|pers-3|case-o|vib-0_kA_ora_se|tam-0|chunkId-NP5|chunkType-head|stype-|voicetype-	21	rd	_	_
15	kI	kA	PSP	psp	lex-kA|cat-psp|gen-f|num-sg|pers-|case-o|vib-|tam-|chunkId-NP5|chunkType-child|stype-|voicetype-	14	lwg__psp	_	_
16	ora	ora	NST	nst	lex-ora|cat-nst|gen-f|num-sg|pers-3|case-o|vib-|tam-|chunkId-NP5|chunkType-child|stype-|voicetype-	14	lwg__psp	_	_
17	se	se	PSP	psp	lex-se|cat-psp|gen-|num-|pers-|case-|vib-|tam-|chunkId-NP5|chunkType-child|stype-|voicetype-	14	lwg__psp	_	_
18	saxasya	saxasya	NN	n	lex-saxasya|cat-n|gen-m|num-pl|pers-3|case-d|vib-0|tam-0|chunkId-NP6|chunkType-head|stype-|voicetype-	21	k1	_	_
19	BI	BI	RP	avy	lex-BI|cat-avy|gen-|num-|pers-|case-|vib-|tam-|chunkId-NP6|chunkType-child|stype-|voicetype-	18	lwg__rp	_	_
20	uwwejiwa	uwwejiwa	JJ	adj	lex-uwwejiwa|cat-adj|gen-any|num-any|pers-|case-|vib-|tam-|chunkId-JJP|chunkType-head|stype-|voicetype-	21	pof	_	_
21	ho	ho	VM	v	lex-ho|cat-v|gen-any|num-pl|pers-any|case-|vib-0_jA+yA1|tam-0|chunkId-VGF2|chunkType-head|stype-declarative|voicetype-active	9	nmod__relc	_	_
22	gae	jA	VAUX	v	lex-jA|cat-v|gen-m|num-pl|pers-any|case-|vib-yA1|tam-yA1|chunkId-VGF2|chunkType-child|stype-|voicetype-	21	lwg__vaux	_	_
23	.	.	SYM	punc	lex-.|cat-punc|gen-|num-|pers-|case-|vib-|tam-|chunkId-BLK|chunkType-head|stype-|voicetype-	10	rsym	_	_

1	KAsawOra	KAsawOra	NN	n	lex-KAsawOra|cat-n|gen-m|num-sg|pers-3|case-o|vib-0_se|tam-0|chunkId-NP|chunkType-head|stype-|voicetype-	8	adv	_	_
2	se	se	PSP	psp	lex-se|cat-psp|gen-|num-|pers-|case-|vib-|tam-|chunkId-NP|chunkType-child|stype-|voicetype-	1	lwg__psp	_	_
3	ArajedI	ArajedI	NNP	n	lex-ArajedI|cat-n|gen-m|num-sg|pers-3|case-d|vib-0|tam-0|chunkId-NP2|chunkType-child|stype-|voicetype-	4	nmod__adj	_	_
4	saxasya	saxasya	NN	n	lex-saxasya|cat-n|gen-m|num-pl|pers-3|case-d|vib-0|tam-0|chunkId-NP2|chunkType-head|stype-|voicetype-	8	k1	_	_
5	isameM	yaha	PRP	pn	lex-yaha|cat-pn|gen-any|num-sg|pers-3|case-o|vib-meM|tam-meM|chunkId-NP3|chunkType-head|stype-|voicetype-	7	k7	_	_
6	Sirakawa	Sirakawa	NN	n	lex-Sirakawa|cat-n|gen-f|num-sg|pers-3|case-d|vib-0|tam-0|chunkId-NP4|chunkType-head|stype-|voicetype-	7	pof	_	_
7	karawe	kara	VM	v	lex-kara|cat-v|gen-m|num-pl|pers-any|case-|vib-wA|tam-wA|chunkId-VGNF|chunkType-head|stype-|voicetype-	8	vmod	_	_
8	xeKe	xeKa	VM	v	lex-xeKa|cat-v|gen-m|num-pl|pers-any|case-|vib-yA_jA+yA1|tam-yA|chunkId-VGF|chunkType-head|stype-declarative|voicetype-active	0	main	_	_
9	gae	jA	VAUX	v	lex-jA|cat-v|gen-m|num-pl|pers-any|case-|vib-yA1|tam-yA1|chunkId-VGF|chunkType-child|stype-|voicetype-	8	lwg__vaux	_	_
10	.	.	SYM	punc	lex-.|cat-punc|gen-|num-|pers-|case-|vib-|tam-|chunkId-BLK|chunkType-head|stype-|voicetype-	8	rsym	_	_

1	rAmakqpAla	rAmakqpAla	NNPC	n	lex-rAmakqpAla|cat-n|gen-m|num-sg|pers-3|case-d|vib-0|tam-0|chunkId-NP|chunkType-child|stype-|voicetype-	2	pof__cn	_	_
2	yAxava	yAxava	NNP	n	lex-yAxava|cat-n|gen-any|num-sg|pers-3|case-o|vib-0_ne|tam-0|chunkId-NP|chunkType-head|stype-|voicetype-	11	k1	_	_
3	ne	ne	PSP	psp	lex-ne|cat-psp|gen-|num-|pers-|case-|vib-|tam-|chunkId-NP|chunkType-child|stype-|voicetype-	2	lwg__psp	_	_
4	jOYrja	jOYrja	NNP	n	lex-jOYrja|cat-n|gen-m|num-sg|pers-3|case-o|vib-0_ke_bAre_meM|tam-0|chunkId-NP2|chunkType-head|stype-|voicetype-	11	k7	_	_
5	ke	ke	PSP	psp	lex-ke|cat-psp|gen-|num-|pers-|case-|vib-|tam-|chunkId-NP2|chunkType-child|stype-|voicetype-	4	lwg__psp	_	_
6	bAre	bAre	PSP	psp	lex-bAre|cat-psp|gen-|num-|pers-|case-|vib-|tam-|chunkId-NP2|chunkType-child|stype-|voicetype-	4	lwg__psp	_	_
7	meM	meM	PSP	psp	lex-meM|cat-psp|gen-|num-|pers-|case-|vib-|tam-|chunkId-NP2|chunkType-child|stype-|voicetype-	4	lwg__psp	_	_
8	Pira	Pira	RB	adv	lex-Pira|cat-adv|gen-|num-|pers-|case-|vib-|tam-|chunkId-RBP|chunkType-head|stype-|voicetype-	11	adv	_	_
9	Apawwijanaka	Apawwijanaka	JJ	adj	lex-Apawwijanaka|cat-adj|gen-any|num-any|pers-|case-d|vib-|tam-|chunkId-NP3|chunkType-child|stype-|voicetype-	10	nmod__adj	_	_
10	Sabxa	Sabxa	NN	n	lex-Sabxa|cat-n|gen-m|num-pl|pers-3|case-d|vib-0|tam-0|chunkId-NP3|chunkType-head|stype-|voicetype-	11	k2	_	_
11	kahe	kaha	VM	v	lex-kaha|cat-v|gen-m|num-pl|pers-3|case-|vib-yA|tam-yA|chunkId-VGF|chunkType-head|stype-declarative|voicetype-active	0	main	_	_
12	jinheM	jo	PRP	pn	lex-jo|cat-pn|gen-any|num-pl|pers-3|case-o|vib-ko|tam-ko|chunkId-NP4|chunkType-head|stype-|voicetype-	13	k2	_	_
13	lekara	le	VM	v	lex-le|cat-v|gen-any|num-any|pers-any|case-|vib-kara|tam-kara|chunkId-VGNF|chunkType-head|stype-|voicetype-	21	vmod	_	_
14	BAjapA	BAjapA	NNP	n	lex-BAjapA|cat-n|gen-f|num-sg|pers-3|case-o|vib-0_kA|tam-0|chunkId-NP5|chunkType-head|stype-|voicetype-	16	r6	_	_
15	kI	kA	PSP	psp	lex-kA|cat-psp|gen-f|num-sg|pers-|case-o|vib-|tam-|chunkId-NP5|chunkType-child|stype-|voicetype-	14	lwg__psp	_	_
16	beMca	beMca	NN	n	lex-beMca|cat-n|gen-f|num-sg|pers-3|case-o|vib-0_se|tam-0|chunkId-NP6|chunkType-head|stype-|voicetype-	21	k5	_	_
17	se	se	PSP	psp	lex-se|cat-psp|gen-|num-|pers-|case-|vib-|tam-|chunkId-NP6|chunkType-child|stype-|voicetype-	16	lwg__psp	_	_
18	BI	BI	RP	avy	lex-BI|cat-avy|gen-|num-|pers-|case-|vib-|tam-|chunkId-NP6|chunkType-child|stype-|voicetype-	16	lwg__rp	_	_
19	saxasya	saxasya	NN	n	lex-saxasya|cat-n|gen-m|num-pl|pers-3|case-d|vib-0|tam-0|chunkId-NP7|chunkType-head|stype-|voicetype-	20	k1	_	_
20	uTa	uTa	VM	v	lex-uTa|cat-v|gen-any|num-any|pers-any|case-|vib-0|tam-0|chunkId-VGNF2|chunkType-head|stype-|voicetype-	21	vmod	_	_
21	KadZe	KadZA	VM	v	lex-KadZA|cat-v|gen-m|num-pl|pers-any|case-|vib-yA_ho+yA|tam-yA|chunkId-VGF2|chunkType-head|stype-declarative|voicetype-active	10	nmod__relc	_	_
22	hue	ho	VAUX	v	lex-ho|cat-v|gen-m|num-pl|pers-any|case-|vib-yA|tam-yA|chunkId-VGF2|chunkType-child|stype-|voicetype-	21	lwg__vaux	_	_
23	.	.	SYM	punc	lex-.|cat-punc|gen-|num-|pers-|case-|vib-|tam-|chunkId-BLK|chunkType-head|stype-|voicetype-	11	rsym	_	_

1	karIba	karIba	RP	avy	lex-karIba|cat-avy|gen-|num-|pers-|case-|vib-|tam-|chunkId-NP|chunkType-child|stype-|voicetype-	3	lwg__rp	_	_
2	15	15	QC	num	lex-15|cat-num|gen-any|num-any|pers-|case-any|vib-|tam-|chunkId-NP|chunkType-child|stype-|voicetype-	3	nmod__adj	_	_
3	minata	minata	NN	n	lex-minata|cat-n|gen-m|num-sg|pers-3|case-o|vib-0_waka|tam-0|chunkId-NP|chunkType-head|stype-|voicetype-	6	k7t	_	_
4	waka	waka	PSP	psp	lex-waka|cat-psp|gen-|num-|pers-|case-|vib-|tam-|chunkId-NP|chunkType-child|stype-|voicetype-	3	lwg__psp	_	_
5	haMgAmA	haMgAmA	NN	n	lex-haMgAmA|cat-n|gen-m|num-sg|pers-3|case-d|vib-0|tam-0|chunkId-NP2|chunkType-head|stype-|voicetype-	6	pof	_	_
6	howA	ho	VM	v	lex-ho|cat-v|gen-m|num-sg|pers-any|case-|vib-wA_raha+yA|tam-wA|chunkId-VGF|chunkType-head|stype-declarative|voicetype-active	0	main	_	_
7	rahA	raha	VAUX	v	lex-raha|cat-v|gen-m|num-sg|pers-any|case-|vib-yA|tam-yA|chunkId-VGF|chunkType-child|stype-|voicetype-	6	lwg__vaux	_	_
8	.	.	SYM	punc	lex-.|cat-punc|gen-|num-|pers-|case-|vib-|tam-|chunkId-BLK|chunkType-head|stype-|voicetype-	6	rsym	_	_

1	isake	yaha	PRP	pn	lex-yaha|cat-pn|gen-m|num-sg|pers-3|case-o|vib-0_bAxa|tam-ke|chunkId-NP|chunkType-head|stype-|voicetype-	8	k7t	_	_
2	bAxa	bAxa	NST	nst	lex-bAxa|cat-nst|gen-m|num-sg|pers-3|case-d|vib-|tam-|chunkId-NP|chunkType-child|stype-|voicetype-	1	lwg__psp	_	_
3	lokasaBA	lokasaBA	NNC	n	lex-lokasaBA|cat-n|gen-f|num-sg|pers-3|case-d|vib-0|tam-0|chunkId-NP2|chunkType-child|stype-|voicetype-	4	pof__cn	_	_
4	aXyakRa	aXyakRa	NN	n	lex-aXyakRa|cat-n|gen-m|num-sg|pers-3|case-d|vib-0|tam-0|chunkId-NP2|chunkType-child|stype-|voicetype-	6	nmod	_	_
5	somanAWa	somanAWa	NNPC	n	lex-somanAWa|cat-n|gen-m|num-sg|pers-3|case-d|vib-0|tam-0|chunkId-NP2|chunkType-child|stype-|voicetype-	6	pof__cn	_	_
6	catarjI	catarjI	NNP	n	lex-catarjI|cat-n|gen-any|num-sg|pers-3|case-o|vib-0_ne|tam-0|chunkId-NP2|chunkType-head|stype-|voicetype-	8	k1	_	_
7	ne	ne	PSP	psp	lex-ne|cat-psp|gen-|num-|pers-|case-|vib-|tam-|chunkId-NP2|chunkType-child|stype-|voicetype-	6	lwg__psp	_	_
8	kahA	kaha	VM	v	lex-kaha|cat-v|gen-m|num-sg|pers-any|case-|vib-yA|tam-yA|chunkId-VGF|chunkType-head|stype-declarative|voicetype-active	0	main	_	_
9	ki	ki	CC	avy	lex-ki|cat-avy|gen-|num-|pers-|case-|vib-|tam-|chunkId-CCP|chunkType-head|stype-|voicetype-	8	k2	_	_
10	binA	bina	RP	avy	lex-bina|cat-avy|gen-|num-|pers-|case-|vib-|tam-|chunkId-NEGP|chunkType-head|stype-|voicetype-	11	nmod	_	_
11	notisa	notisa	NN	n	lex-notisa|cat-n|gen-m|num-sg|pers-3|case-o|vib-0_ke|tam-0|chunkId-NP3|chunkType-head|stype-|voicetype-	18	ras-NEG	_	_
12	ke	ke	PSP	psp	lex-ke|cat-psp|gen-|num-|pers-|case-|vib-|tam-|chunkId-NP3|chunkType-child|stype-|voicetype-	11	lwg__psp	_	_
13	Apa	Apa	PRP	pn	lex-Apa|cat-pn|gen-any|num-sg|pers-2h|case-d|vib-0|tam-0|chunkId-NP4|chunkType-head|stype-|voicetype-	18	k1	_	_
14	kisI	koI	PRP	pn	lex-koI|cat-pn|gen-any|num-sg|pers-3|case-o|vib-0_kA|tam-0|chunkId-NP5|chunkType-head|stype-|voicetype-	16	r6	_	_
15	kA	kA	PSP	psp	lex-kA|cat-psp|gen-m|num-sg|pers-|case-d|vib-|tam-|chunkId-NP5|chunkType-child|stype-|voicetype-	14	lwg__psp	_	_
16	nAma	nAma	NN	n	lex-nAma|cat-n|gen-m|num-sg|pers-3|case-d|vib-0|tam-0|chunkId-NP6|chunkType-head|stype-|voicetype-	18	k2	_	_
17	nahIM	nahIM	NEG	avy	lex-nahIM|cat-avy|gen-|num-|pers-|case-|vib-|tam-|chunkId-VGF2|chunkType-child|stype-|voicetype-	18	lwg__neg	_	_
18	le	le	VM	v	lex-le|cat-v|gen-any|num-sg|pers-2h|case-|vib-0_saka+wA|tam-0|chunkId-VGF2|chunkType-head|stype-declarative|voicetype-active	9	ccof	_	_
19	sakawe	saka	VAUX	v	lex-saka|cat-v|gen-m|num-sg|pers-2h|case-|vib-wA|tam-wA|chunkId-VGF2|chunkType-child|stype-|voicetype-	18	lwg__vaux	_	_
20	.	.	SYM	punc	lex-.|cat-punc|gen-|num-|pers-|case-|vib-|tam-|chunkId-BLK|chunkType-head|stype-|voicetype-	8	rsym	_	_

1	waba	waba	PRP	pn	lex-waba|cat-pn|gen-|num-|pers-|case-d|vib-|tam-|chunkId-NP|chunkType-head|stype-|voicetype-	7	k7t	_	_
2	newA	newA	NNC	n	lex-newA|cat-n|gen-m|num-sg|pers-3|case-d|vib-0|tam-0|chunkId-NP2|chunkType-child|stype-|voicetype-	3	pof__cn	_	_
3	prawipakRa	prawipakRa	NN	n	lex-prawipakRa|cat-n|gen-m|num-sg|pers-3|case-o|vib-0|tam-0|chunkId-NP2|chunkType-head|stype-|voicetype-	5	nmod	_	_
4	lAlakqRNa	lAlakqRNa	NNPC	n	lex-lAlakqRNa|cat-n|gen-m|num-sg|pers-3|case-d|vib-0|tam-0|chunkId-NP3|chunkType-child|stype-|voicetype-	5	pof__cn	_	_
5	AdavANI	AdavANI	NNP	n	lex-AdavANI|cat-n|gen-any|num-sg|pers-3|case-o|vib-0_ne|tam-0|chunkId-NP3|chunkType-head|stype-|voicetype-	7	k1	_	_
6	ne	ne	PSP	psp	lex-ne|cat-psp|gen-|num-|pers-|case-|vib-|tam-|chunkId-NP3|chunkType-child|stype-|voicetype-	5	lwg__psp	_	_
7	kahA	kaha	VM	v	lex-kaha|cat-v|gen-m|num-sg|pers-any|case-|vib-yA|tam-yA|chunkId-VGF|chunkType-head|stype-declarative|voicetype-active	0	main	_	_
8	ki	ki	CC	avy	lex-ki|cat-avy|gen-|num-|pers-|case-|vib-|tam-|chunkId-CCP|chunkType-head|stype-|voicetype-	7	k2	_	_
9	jOYrja	jOYrja	NNP	n	lex-jOYrja|cat-n|gen-m|num-sg|pers-3|case-d|vib-0|tam-0|chunkId-NP4|chunkType-head|stype-|voicetype-	12	k1	_	_
10	jaba	jaba	PRP	pn	lex-jaba|cat-pn|gen-|num-|pers-|case-d|vib-|tam-|chunkId-NP5|chunkType-head|stype-|voicetype-	12	k7t	_	_
11	rakRAmaMwrI	rakRAmaMwrI	NNP	n	lex-rakRAmaMwrI|cat-n|gen-m|num-sg|pers-3|case-d|vib-0|tam-0|chunkId-NP6|chunkType-head|stype-|voicetype-	12	k1s	_	_
12	We	WA	VM	v	lex-WA|cat-v|gen-m|num-sg|pers-3h|case-|vib-WA|tam-WA|chunkId-VGF2|chunkType-head|stype-declarative|voicetype-active	13	nmod	_	_
13	waba	waba	PRP	pn	lex-waba|cat-pn|gen-|num-|pers-|case-d|vib-|tam-|chunkId-NP7|chunkType-head|stype-|voicetype-	24	k7t	_	_
14	BI	BI	RP	avy	lex-BI|cat-avy|gen-|num-|pers-|case-|vib-|tam-|chunkId-NP7|chunkType-child|stype-|voicetype-	13	lwg__rp	_	_
15	unake	vaha	PRP	pn	lex-vaha|cat-pn|gen-any|num-sg|pers-3h|case-o|vib-0_KilAPa|tam-ke|chunkId-NP8|chunkType-head|stype-|voicetype-	24	vmod	_	_
16	KilAPa	KilAPa	PSP	adj	lex-KilAPa|cat-adj|gen-|num-|pers-|case-|vib-|tam-|chunkId-NP8|chunkType-child|stype-|voicetype-	15	lwg__psp	_	_
17	isa	yaha	DEM	pn	lex-yaha|cat-pn|gen-any|num-sg|pers-3|case-o|vib-|tam-|chunkId-NP9|chunkType-child|stype-|voicetype-	19	nmod__adj	_	_
18	KAsa	KAsa	JJ	adj	lex-KAsa|cat-adj|gen-any|num-any|pers-|case-o|vib-|tam-|chunkId-NP9|chunkType-child|stype-|voicetype-	19	nmod__adj	_	_
19	muxxe	muxxA	NN	n	lex-muxxA|cat-n|gen-m|num-sg|pers-3|case-o|vib-0_ko|tam-0|chunkId-NP9|chunkType-head|stype-|voicetype-	21	k2	_	_
20	ko	ko	PSP	psp	lex-ko|cat-psp|gen-|num-|pers-|case-|vib-|tam-|chunkId-NP9|chunkType-child|stype-|voicetype-	19	lwg__psp	_	_
21	lekara	le	VM	v	lex-le|cat-v|gen-any|num-any|pers-any|case-|vib-kara|tam-kara|chunkId-VGNF|chunkType-head|stype-|voicetype-	24	vmod	_	_
22	JUTA	JUTA	JJ	adj	lex-JUTA|cat-adj|gen-m|num-sg|pers-|case-d|vib-|tam-|chunkId-NP10|chunkType-child|stype-|voicetype-	23	nmod__adj	_	_
23	pracAra	pracAra	NN	n	lex-pracAra|cat-n|gen-m|num-sg|pers-3|case-d|vib-0|tam-0|chunkId-NP10|chunkType-head|stype-|voicetype-	24	pof	_	_
24	kiyA	kara	VM	v	lex-kara|cat-v|gen-m|num-sg|pers-any|case-|vib-yA_jA_raha+yA_WA|tam-yA|chunkId-VGF3|chunkType-head|stype-declarative|voicetype-active	8	ccof	_	_
25	jA	jA	VAUX	v	lex-jA|cat-v|gen-any|num-any|pers-any|case-|vib-0|tam-0|chunkId-VGF3|chunkType-child|stype-|voicetype-	24	lwg__vaux	_	_
26	rahA	raha	VAUX	v	lex-raha|cat-v|gen-m|num-sg|pers-any|case-|vib-yA|tam-yA|chunkId-VGF3|chunkType-child|stype-|voicetype-	24	lwg__vaux	_	_
27	WA	WA	VAUX	v	lex-WA|cat-v|gen-m|num-sg|pers-any|case-|vib-WA|tam-WA|chunkId-VGF3|chunkType-child|stype-|voicetype-	24	lwg__vaux	_	_
28	.	.	SYM	punc	lex-.|cat-punc|gen-|num-|pers-|case-|vib-|tam-|chunkId-BLK|chunkType-head|stype-|voicetype-	7	rsym	_	_

1	aba	aba	PRP	pn	lex-aba|cat-pn|gen-|num-|pers-|case-d|vib-|tam-|chunkId-NP|chunkType-head|stype-|voicetype-	5	k7t	_	_
2	unhoMne	vaha	PRP	pn	lex-vaha|cat-pn|gen-any|num-sg|pers-3h|case-o|vib-ne|tam-ne|chunkId-NP2|chunkType-head|stype-|voicetype-	5	k1	_	_
3	praXAnamaMwrI	praXAnamaMwrI	NNP	n	lex-praXAnamaMwrI|cat-n|gen-m|num-sg|pers-3|case-o|vib-0_ko|tam-0|chunkId-NP3|chunkType-head|stype-|voicetype-	5	k2	_	_
4	ko	ko	PSP	psp	lex-ko|cat-psp|gen-|num-|pers-|case-|vib-|tam-|chunkId-NP3|chunkType-child|stype-|voicetype-	3	lwg__psp	_	_
5	liKA	liKa	VM	v	lex-liKa|cat-v|gen-m|num-sg|pers-3|case-|vib-yA_hE|tam-yA|chunkId-VGF|chunkType-head|stype-declarative|voicetype-active	7	nmod__relc	_	_
6	hE	hE	VAUX	v	lex-hE|cat-v|gen-any|num-sg|pers-3|case-|vib-hE|tam-hE|chunkId-VGF|chunkType-child|stype-|voicetype-	5	lwg__vaux	_	_
7	wo	wo	PRP	pn	lex-wo|cat-pn|gen-|num-|pers-|case-|vib-|tam-|chunkId-NP4|chunkType-head|stype-|voicetype-	11	UNDEF	_	_
8	unheM	vaha	PRP	pn	lex-vaha|cat-pn|gen-any|num-sg|pers-3h|case-o|vib-ko|tam-ko|chunkId-NP5|chunkType-head|stype-|voicetype-	11	k1	_	_
9	isakA	yaha	PRP	pn	lex-yaha|cat-pn|gen-m|num-sg|pers-3|case-o|vib-kA|tam-kA|chunkId-NP6|chunkType-head|stype-|voicetype-	10	r6-k2	_	_
10	jikra	jikra	NN	n	lex-jikra|cat-n|gen-m|num-sg|pers-3|case-d|vib-0|tam-0|chunkId-NP7|chunkType-head|stype-|voicetype-	11	pof	_	_
11	karane	kara	VM	v	lex-kara|cat-v|gen-m|num-any|pers-any|case-|vib-nA_xe+yA_jA+nA_cAhie|tam-nA|chunkId-VGF2|chunkType-head|stype-declarative|voicetype-passive	0	main	_	_
12	xiyA	xe	VAUX	v	lex-xe|cat-v|gen-m|num-sg|pers-any|case-|vib-yA|tam-yA|chunkId-VGF2|chunkType-child|stype-|voicetype-	11	lwg__vaux	_	_
13	jAnA	jA	VAUX	v	lex-jA|cat-v|gen-m|num-sg|pers-any|case-|vib-nA|tam-nA|chunkId-VGF2|chunkType-child|stype-|voicetype-	11	lwg__vaux	_	_
14	cAhie	cAhie	VAUX	v	lex-cAhie|cat-v|gen-any|num-any|pers-any|case-|vib-0|tam-0|chunkId-VGF2|chunkType-child|stype-|voicetype-	11	lwg__vaux	_	_
15	.	.	SYM	punc	lex-.|cat-punc|gen-|num-|pers-|case-|vib-|tam-|chunkId-BLK|chunkType-head|stype-|voicetype-	11	rsym	_	_

1	jOYrja	jOYrja	NNP	n	lex-jOYrja|cat-n|gen-m|num-sg|pers-3|case-o|vib-0_ne|tam-0|chunkId-NP|chunkType-head|stype-|voicetype-	5	k1	_	_
2	ne	ne	PSP	psp	lex-ne|cat-psp|gen-|num-|pers-|case-|vib-|tam-|chunkId-NP|chunkType-child|stype-|voicetype-	1	lwg__psp	_	_
3	Pira	Pira	RB	adv	lex-Pira|cat-adv|gen-|num-|pers-|case-|vib-|tam-|chunkId-RBP|chunkType-head|stype-|voicetype-	5	adv	_	_
4	xAvA	xAvA	NN	n	lex-xAvA|cat-n|gen-m|num-sg|pers-3|case-d|vib-0|tam-0|chunkId-NP2|chunkType-head|stype-|voicetype-	5	pof	_	_
5	kiyA	kara	VM	v	lex-kara|cat-v|gen-m|num-sg|pers-any|case-|vib-yA|tam-yA|chunkId-VGF|chunkType-head|stype-declarative|voicetype-active	0	main	_	_
6	ki	ki	CC	avy	lex-ki|cat-avy|gen-|num-|pers-|case-|vib-|tam-|chunkId-CCP|chunkType-head|stype-|voicetype-	5	k2	_	_
7	vaha	vaha	PRP	pn	lex-vaha|cat-pn|gen-any|num-sg|pers-3|case-d|vib-0|tam-0|chunkId-NP3|chunkType-head|stype-|voicetype-	18	k1	_	_
8	isa	yaha	PRP	pn	lex-yaha|cat-pn|gen-any|num-sg|pers-3|case-o|vib-0_kA|tam-0|chunkId-NP4|chunkType-head|stype-|voicetype-	10	r6	_	_
9	kI	kA	PSP	psp	lex-kA|cat-psp|gen-f|num-sg|pers-|case-d|vib-|tam-|chunkId-NP4|chunkType-child|stype-|voicetype-	8	lwg__psp	_	_
10	prawi	prawi	NN	n	lex-prawi|cat-n|gen-f|num-sg|pers-3|case-d|vib-0|tam-0|chunkId-NP5|chunkType-head|stype-|voicetype-	15	k2	_	_
11	saMsaxa	saMsaxa	NN	n	lex-saMsaxa|cat-n|gen-f|num-sg|pers-3|case-o|vib-0_kA|tam-0|chunkId-NP6|chunkType-head|stype-|voicetype-	13	r6	_	_
12	ke	kA	PSP	psp	lex-kA|cat-psp|gen-m|num-sg|pers-|case-o|vib-|tam-|chunkId-NP6|chunkType-child|stype-|voicetype-	11	lwg__psp	_	_
13	patala	patala	NN	n	lex-patala|cat-n|gen-m|num-sg|pers-3|case-o|vib-0_para|tam-0|chunkId-NP7|chunkType-head|stype-|voicetype-	15	k7	_	_
14	para	para	PSP	psp	lex-para|cat-psp|gen-|num-|pers-|case-|vib-|tam-|chunkId-NP7|chunkType-child|stype-|voicetype-	13	lwg__psp	_	_
15	raKane	raKa	VM	v	lex-raKa|cat-v|gen-any|num-any|pers-any|case-o|vib-nA_ko|tam-nA|chunkId-VGNN|chunkType-head|stype-|voicetype-	18	rt	_	_
16	ko	ko	PSP	psp	lex-ko|cat-psp|gen-|num-|pers-|case-|vib-|tam-|chunkId-VGNN|chunkType-child|stype-|voicetype-	15	lwg__psp	_	_
17	rAjI	rAjI	JJ	adj	lex-rAjI|cat-adj|gen-any|num-any|pers-|case-|vib-|tam-|chunkId-JJP|chunkType-head|stype-|voicetype-	18	k1s	_	_
18	hEM	hE	VM	v	lex-hE|cat-v|gen-any|num-sg|pers-3h|case-|vib-hE|tam-hE|chunkId-VGF2|chunkType-head|stype-declarative|voicetype-active	6	ccof	_	_
19	.	.	SYM	punc	lex-.|cat-punc|gen-|num-|pers-|case-|vib-|tam-|chunkId-BLK|chunkType-head|stype-|voicetype-	5	rsym	_	_

1	unhoMne	vaha	PRP	pn	lex-vaha|cat-pn|gen-any|num-sg|pers-3h|case-o|vib-ne|tam-ne|chunkId-NP|chunkType-head|stype-|voicetype-	2	k1	_	_
2	kahA	kaha	VM	v	lex-kaha|cat-v|gen-m|num-sg|pers-any|case-|vib-yA|tam-yA|chunkId-VGF|chunkType-head|stype-declarative|voicetype-active	0	main	_	_
3	ki	ki	CC	avy	lex-ki|cat-avy|gen-|num-|pers-|case-|vib-|tam-|chunkId-CCP|chunkType-head|stype-|voicetype-	2	k2	_	_
4	wahalakA	wahalakA	NNP	n	lex-wahalakA|cat-n|gen-m|num-sg|pers-3|case-o|vib-0_kA|tam-0|chunkId-NP2|chunkType-head|stype-|voicetype-	6	r6	_	_
5	ke	kA	PSP	psp	lex-kA|cat-psp|gen-m|num-sg|pers-|case-o|vib-|tam-|chunkId-NP2|chunkType-child|stype-|voicetype-	4	lwg__psp	_	_
6	mAmale	mAmalA	NN	n	lex-mAmalA|cat-n|gen-m|num-sg|pers-3|case-o|vib-0_meM|tam-0|chunkId-NP3|chunkType-head|stype-|voicetype-	18	k7	_	_
7	meM	meM	PSP	psp	lex-meM|cat-psp|gen-|num-|pers-|case-|vib-|tam-|chunkId-NP3|chunkType-child|stype-|voicetype-	6	lwg__psp	_	_
8	BI	BI	RP	avy	lex-BI|cat-avy|gen-|num-|pers-|case-|vib-|tam-|chunkId-NP3|chunkType-child|stype-|voicetype-	6	lwg__rp	_	_
9	jisa	jo	DEM	pn	lex-jo|cat-pn|gen-any|num-sg|pers-3|case-o|vib-|tam-|chunkId-NP4|chunkType-child|stype-|voicetype-	10	nmod__adj	_	_
10	waraha	waraha	NN	n	lex-waraha|cat-n|gen-f|num-sg|pers-3|case-o|vib-0_se|tam-0|chunkId-NP4|chunkType-head|stype-|voicetype-	18	k3	_	_
11	se	se	PSP	psp	lex-se|cat-psp|gen-|num-|pers-|case-|vib-|tam-|chunkId-NP4|chunkType-child|stype-|voicetype-	10	lwg__psp	_	_
12	kuCa	kuCa	QF	avy	lex-kuCa|cat-avy|gen-|num-|pers-|case-|vib-|tam-|chunkId-NP5|chunkType-child|stype-|voicetype-	13	nmod__adj	_	_
13	logoM	loga	NN	n	lex-loga|cat-n|gen-m|num-pl|pers-3|case-o|vib-0_ne|tam-0|chunkId-NP5|chunkType-head|stype-|voicetype-	18	k1	_	_
14	ne	ne	PSP	psp	lex-ne|cat-psp|gen-|num-|pers-|case-|vib-|tam-|chunkId-NP5|chunkType-child|stype-|voicetype-	13	lwg__psp	_	_
15	yaha	yaha	DEM	pn	lex-yaha|cat-pn|gen-any|num-sg|pers-3|case-d|vib-|tam-|chunkId-NP6|chunkType-child|stype-|voicetype-	16	nmod__adj	_	_
16	mAmalA	mAmalA	NN	n	lex-mAmalA|cat-n|gen-m|num-sg|pers-3|case-d|vib-0|tam-0|chunkId-NP6|chunkType-head|stype-|voicetype-	18	k2	_	_
17	wEyAra	wEyAra	JJ	adj	lex-wEyAra|cat-adj|gen-any|num-any|pers-|case-|vib-|tam-|chunkId-JJP|chunkType-head|stype-|voicetype-	18	pof	_	_
18	kiyA	kara	VM	v	lex-kara|cat-v|gen-m|num-sg|pers-3|case-|vib-yA_hE|tam-yA|chunkId-VGF2|chunkType-head|stype-declarative|voicetype-active	20	nmod	_	_
19	hE	hE	VAUX	v	lex-hE|cat-v|gen-any|num-sg|pers-3|case-|vib-hE|tam-hE|chunkId-VGF2|chunkType-child|stype-|voicetype-	18	lwg__vaux	_	_
20	usakA	vaha	PRP	pn	lex-vaha|cat-pn|gen-m|num-sg|pers-3|case-o|vib-kA|tam-kA|chunkId-NP7|chunkType-head|stype-|voicetype-	22	r6	_	_
21	pUrA	pUrA	JJ	adj	lex-pUrA|cat-adj|gen-m|num-sg|pers-|case-d|vib-|tam-|chunkId-NP8|chunkType-child|stype-|voicetype-	22	nmod__adj	_	_
22	byorA	byorA	NN	n	lex-byorA|cat-n|gen-m|num-sg|pers-3|case-d|vib-0|tam-0|chunkId-NP8|chunkType-head|stype-|voicetype-	28	k2	_	_
23	vaha	vaha	PRP	pn	lex-vaha|cat-pn|gen-any|num-sg|pers-3|case-d|vib-0|tam-0|chunkId-NP9|chunkType-head|stype-|voicetype-	31	k1	_	_
24	saxana	saxana	NN	n	lex-saxana|cat-n|gen-m|num-sg|pers-3|case-o|vib-0_kA|tam-0|chunkId-NP10|chunkType-head|stype-|voicetype-	26	r6	_	_
25	ke	kA	PSP	psp	lex-kA|cat-psp|gen-m|num-sg|pers-|case-o|vib-|tam-|chunkId-NP10|chunkType-child|stype-|voicetype-	24	lwg__psp	_	_
26	patala	patala	NN	n	lex-patala|cat-n|gen-m|num-sg|pers-3|case-o|vib-0_para|tam-0|chunkId-NP11|chunkType-head|stype-|voicetype-	28	k7	_	_
27	para	para	PSP	psp	lex-para|cat-psp|gen-|num-|pers-|case-|vib-|tam-|chunkId-NP11|chunkType-child|stype-|voicetype-	26	lwg__psp	_	_
28	raKane	raKa	VM	v	lex-raKa|cat-v|gen-any|num-any|pers-any|case-o|vib-nA_ko|tam-nA|chunkId-VGNN|chunkType-head|stype-|voicetype-	31	rt	_	_
29	ko	ko	PSP	psp	lex-ko|cat-psp|gen-|num-|pers-|case-|vib-|tam-|chunkId-VGNN|chunkType-child|stype-|voicetype-	28	lwg__psp	_	_
30	wEyAra	wEyAra	JJ	adj	lex-wEyAra|cat-adj|gen-any|num-any|pers-|case-|vib-|tam-|chunkId-JJP2|chunkType-head|stype-|voicetype-	31	k1s	_	_
31	hEM	hE	VM	v	lex-hE|cat-v|gen-any|num-sg|pers-3h|case-|vib-hE|tam-hE|chunkId-VGF3|chunkType-head|stype-declarative|voicetype-active	3	ccof	_	_
32	.	.	SYM	punc	lex-.|cat-punc|gen-|num-|pers-|case-|vib-|tam-|chunkId-BLK|chunkType-head|stype-|voicetype-	2	rsym	_	_

1	jOYrja	jOYrja	NNP	n	lex-jOYrja|cat-n|gen-m|num-sg|pers-3|case-o|vib-0_kA|tam-0|chunkId-NP|chunkType-head|stype-|voicetype-	3	r6	_	_
2	kA	kA	PSP	psp	lex-kA|cat-psp|gen-m|num-sg|pers-|case-d|vib-|tam-|chunkId-NP|chunkType-child|stype-|voicetype-	1	lwg__psp	_	_
3	Aropa	Aropa	NN	n	lex-Aropa|cat-n|gen-m|num-sg|pers-3|case-d|vib-0|tam-0|chunkId-NP2|chunkType-head|stype-|voicetype-	4	k1	_	_
4	WA	WA	VM	v	lex-WA|cat-v|gen-m|num-sg|pers-any|case-|vib-WA|tam-WA|chunkId-VGF|chunkType-head|stype-declarative|voicetype-active	0	main	_	_
5	ki	ki	CC	avy	lex-ki|cat-avy|gen-|num-|pers-|case-|vib-|tam-|chunkId-CCP|chunkType-head|stype-|voicetype-	4	k2	_	_
6	yaha	yaha	PRP	pn	lex-yaha|cat-pn|gen-any|num-sg|pers-3|case-d|vib-0|tam-0|chunkId-NP3|chunkType-head|stype-|voicetype-	16	k1	_	_
7	sawwAXArI	sawwAXArI	JJ	adj	lex-sawwAXArI|cat-adj|gen-any|num-any|pers-|case-o|vib-|tam-|chunkId-NP4|chunkType-child|stype-|voicetype-	8	nmod__adj	_	_
8	xala	xala	NN	n	lex-xala|cat-n|gen-m|num-sg|pers-3|case-o|vib-0_kA|tam-0|chunkId-NP4|chunkType-head|stype-|voicetype-	11	r6	_	_
9	ke	kA	PSP	psp	lex-kA|cat-psp|gen-m|num-pl|pers-|case-o|vib-|tam-|chunkId-NP4|chunkType-child|stype-|voicetype-	8	lwg__psp	_	_
10	kuCa	kuCa	QF	avy	lex-kuCa|cat-avy|gen-|num-|pers-|case-|vib-|tam-|chunkId-NP5|chunkType-child|stype-|voicetype-	11	nmod__adj	_	_
11	newAoM	newA	NN	n	lex-newA|cat-n|gen-m|num-pl|pers-3|case-o|vib-0_kA|tam-0|chunkId-NP5|chunkType-head|stype-|voicetype-	13	r6	_	_
12	ke	kA	PSP	psp	lex-kA|cat-psp|gen-m|num-sg|pers-|case-o|vib-|tam-|chunkId-NP5|chunkType-child|stype-|voicetype-	11	lwg__psp	_	_
13	iSAre	iSArA	NN	n	lex-iSArA|cat-n|gen-m|num-sg|pers-3|case-o|vib-0_para|tam-0|chunkId-NP6|chunkType-head|stype-|voicetype-	16	k7	_	_
14	para	para	PSP	psp	lex-para|cat-psp|gen-|num-|pers-|case-|vib-|tam-|chunkId-NP6|chunkType-child|stype-|voicetype-	13	lwg__psp	_	_
15	wEyAra	wEyAra	JJ	adj	lex-wEyAra|cat-adj|gen-any|num-any|pers-|case-|vib-|tam-|chunkId-JJP|chunkType-head|stype-|voicetype-	16	pof	_	_
16	kiyA	kara	VM	v	lex-kara|cat-v|gen-m|num-sg|pers-any|case-|vib-yA_jA+yA1_WA|tam-yA|chunkId-VGF2|chunkType-head|stype-declarative|voicetype-passive	5	ccof	_	_
17	gayA	jA	VAUX	v	lex-jA|cat-v|gen-m|num-sg|pers-any|case-|vib-yA1|tam-yA1|chunkId-VGF2|chunkType-child|stype-|voicetype-	16	lwg__vaux	_	_
18	WA	WA	VAUX	v	lex-WA|cat-v|gen-m|num-sg|pers-any|case-|vib-WA|tam-WA|chunkId-VGF2|chunkType-child|stype-|voicetype-	16	lwg__vaux	_	_
19	.	.	SYM	punc	lex-.|cat-punc|gen-|num-|pers-|case-|vib-|tam-|chunkId-BLK|chunkType-head|stype-|voicetype-	4	rsym	_	_

1	BARaNa	BARaNa	NN	n	lex-BARaNa|cat-n|gen-m|num-sg|pers-3|case-o|vib-0_ke_lie|tam-0|chunkId-NP|chunkType-head|stype-|voicetype-	6	rt	_	_
2	ke	ke	PSP	psp	lex-ke|cat-psp|gen-|num-|pers-|case-|vib-|tam-|chunkId-NP|chunkType-child|stype-|voicetype-	1	lwg__psp	_	_
3	lie	lie	PSP	psp	lex-lie|cat-psp|gen-|num-|pers-|case-|vib-|tam-|chunkId-NP|chunkType-child|stype-|voicetype-	1	lwg__psp	_	_
4	jOYrja	jOYrja	NNP	n	lex-jOYrja|cat-n|gen-m|num-sg|pers-3|case-o|vib-0_ko|tam-0|chunkId-NP2|chunkType-head|stype-|voicetype-	6	k4	_	_
5	ko	ko	PSP	psp	lex-ko|cat-psp|gen-|num-|pers-|case-|vib-|tam-|chunkId-NP2|chunkType-child|stype-|voicetype-	4	lwg__psp	_	_
6	xie	xe	VM	v	lex-xe|cat-v|gen-m|num-sg|pers-any|case-|vib-yA_jA+yA1|tam-yA|chunkId-VGNF|chunkType-head|stype-|voicetype-	9	nmod__k1inv	_	_
7	gae	jA	VAUX	v	lex-jA|cat-v|gen-m|num-sg|pers-any|case-|vib-yA1|tam-yA1|chunkId-VGNF|chunkType-child|stype-|voicetype-	6	lwg__vaux	_	_
8	10	10	QC	num	lex-10|cat-num|gen-any|num-any|pers-|case-any|vib-|tam-|chunkId-NP3|chunkType-child|stype-|voicetype-	9	nmod__adj	_	_
9	minata	minata	NN	n	lex-minata|cat-n|gen-m|num-sg|pers-3|case-o|vib-0_kA|tam-0|chunkId-NP3|chunkType-head|stype-|voicetype-	11	r6	_	_
10	kA	kA	PSP	psp	lex-kA|cat-psp|gen-m|num-sg|pers-|case-d|vib-|tam-|chunkId-NP3|chunkType-child|stype-|voicetype-	9	lwg__psp	_	_
11	samaya	samaya	NN	n	lex-samaya|cat-n|gen-m|num-sg|pers-3|case-d|vib-0|tam-0|chunkId-NP4|chunkType-head|stype-|voicetype-	13	k1	_	_
12	Kawma	Kawma	JJ	adj	lex-Kawma|cat-adj|gen-any|num-any|pers-|case-|vib-|tam-|chunkId-JJP|chunkType-head|stype-|voicetype-	13	pof	_	_
13	ho	ho	VM	v	lex-ho|cat-v|gen-any|num-sg|pers-3|case-|vib-0_jA+nA_ke_bAxa|tam-0|chunkId-VGNN|chunkType-head|stype-|voicetype-	27	k7t	_	_
14	jAne	jA	VAUX	v	lex-jA|cat-v|gen-any|num-any|pers-any|case-o|vib-nA|tam-nA|chunkId-VGNN|chunkType-child|stype-|voicetype-	13	lwg__vaux	_	_
15	ke	ke	PSP	psp	lex-ke|cat-psp|gen-|num-|pers-|case-|vib-|tam-|chunkId-VGNN|chunkType-child|stype-|voicetype-	13	lwg__psp	_	_
16	bAxa	bAxa	NST	nst	lex-bAxa|cat-nst|gen-m|num-sg|pers-3|case-d|vib-|tam-|chunkId-VGNN|chunkType-child|stype-|voicetype-	13	lwg__nst	_	_
17	BAjapA	BAjapA	NNP	n	lex-BAjapA|cat-n|gen-f|num-sg|pers-3|case-d|vib-0|tam-0|chunkId-NP5|chunkType-child|stype-|voicetype-	18	nmod__adj	_	_
18	saxasyoM	saxasya	NN	n	lex-saxasya|cat-n|gen-m|num-pl|pers-3|case-o|vib-0_ne|tam-0|chunkId-NP5|chunkType-head|stype-|voicetype-	27	k1	_	_
19	ne	ne	PSP	psp	lex-ne|cat-psp|gen-|num-|pers-|case-|vib-|tam-|chunkId-NP5|chunkType-child|stype-|voicetype-	18	lwg__psp	_	_
20	svecCA	svecCA	NN	n	lex-svecCA|cat-n|gen-f|num-sg|pers-3|case-o|vib-0_se|tam-0|chunkId-NP6|chunkType-head|stype-|voicetype-	27	adv	_	_
21	se	se	PSP	psp	lex-se|cat-psp|gen-|num-|pers-|case-|vib-|tam-|chunkId-NP6|chunkType-child|stype-|voicetype-	20	lwg__psp	_	_
22	apane	apanA	PRP	pn	lex-apanA|cat-pn|gen-m|num-any|pers-any|case-o|vib-0|tam-0|chunkId-NP7|chunkType-head|stype-|voicetype-	23	r6	_	_
23	hisse	hissA	NN	n	lex-hissA|cat-n|gen-m|num-sg|pers-3|case-o|vib-0_kA|tam-0|chunkId-NP8|chunkType-head|stype-|voicetype-	25	r6	_	_
24	kA	kA	PSP	psp	lex-kA|cat-psp|gen-m|num-sg|pers-|case-d|vib-|tam-|chunkId-NP8|chunkType-child|stype-|voicetype-	23	lwg__psp	_	_
25	samaya	samaya	NN	n	lex-samaya|cat-n|gen-m|num-sg|pers-3|case-d|vib-0|tam-0|chunkId-NP9|chunkType-head|stype-|voicetype-	27	k2	_	_
26	BI	BI	RP	avy	lex-BI|cat-avy|gen-|num-|pers-|case-|vib-|tam-|chunkId-NP9|chunkType-child|stype-|voicetype-	25	lwg__rp	_	_
27	xe	xe	VM	v	lex-xe|cat-v|gen-any|num-sg|pers-any|case-|vib-0_xe+yA|tam-0|chunkId-VGF|chunkType-head|stype-declarative|voicetype-active	0	main	_	_
28	xiyA	xe	VAUX	v	lex-xe|cat-v|gen-m|num-sg|pers-any|case-|vib-yA|tam-yA|chunkId-VGF|chunkType-child|stype-|voicetype-	27	lwg__vaux	_	_
29	.	.	SYM	punc	lex-.|cat-punc|gen-|num-|pers-|case-|vib-|tam-|chunkId-BLK|chunkType-head|stype-|voicetype-	27	rsym	_	_

1	isa	yaha	DEM	pn	lex-yaha|cat-pn|gen-any|num-sg|pers-3|case-o|vib-|tam-|chunkId-NP|chunkType-child|stype-|voicetype-	3	nmod__adj	_	_
2	sAre	sArA	QF	adj	lex-sArA|cat-adj|gen-m|num-sg|pers-|case-o|vib-|tam-|chunkId-NP|chunkType-child|stype-|voicetype-	3	nmod__adj	_	_
3	mAmale	mAmalA	NN	n	lex-mAmalA|cat-n|gen-m|num-sg|pers-3|case-o|vib-0_meM|tam-0|chunkId-NP|chunkType-head|stype-|voicetype-	8	k7	_	_
4	meM	meM	PSP	psp	lex-meM|cat-psp|gen-|num-|pers-|case-|vib-|tam-|chunkId-NP|chunkType-child|stype-|voicetype-	3	lwg__psp	_	_
5	KAsa	KAsa	JJ	adj	lex-KAsa|cat-adj|gen-any|num-any|pers-|case-d|vib-|tam-|chunkId-NP2|chunkType-child|stype-|voicetype-	6	nmod__adj	_	_
6	bAwa	bAwa	NN	n	lex-bAwa|cat-n|gen-f|num-sg|pers-3|case-d|vib-0|tam-0|chunkId-NP2|chunkType-head|stype-|voicetype-	8	k1s	_	_
7	yaha	yaha	PRP	pn	lex-yaha|cat-pn|gen-any|num-sg|pers-3|case-d|vib-0|tam-0|chunkId-NP3|chunkType-head|stype-|voicetype-	8	k1	_	_
8	xiKAI	xiKA	VM	v	lex-xiKA|cat-v|gen-f|num-sg|pers-any|case-|vib-yA_padZa+yA|tam-yA|chunkId-VGF|chunkType-head|stype-declarative|voicetype-active	0	main	_	_
9	padZI	padZa	VAUX	v	lex-padZa|cat-v|gen-f|num-sg|pers-any|case-|vib-yA|tam-yA|chunkId-VGF|chunkType-child|stype-|voicetype-	8	lwg__vaux	_	_
10	ki	ki	CC	avy	lex-ki|cat-avy|gen-|num-|pers-|case-|vib-|tam-|chunkId-CCP|chunkType-head|stype-|voicetype-	7	rs	_	_
11	xo	xo	QC	num	lex-xo|cat-num|gen-any|num-any|pers-|case-any|vib-|tam-|chunkId-NP4|chunkType-child|stype-|voicetype-	12	nmod__adj	_	_
12	xina	xina	NN	n	lex-xina|cat-n|gen-m|num-pl|pers-3|case-d|vib-0_pahale|tam-0|chunkId-NP4|chunkType-head|stype-|voicetype-	36	k7t	_	_
13	pahale	pahale	NST	nst	lex-pahale|cat-nst|gen-m|num-sg|pers-3|case-d|vib-|tam-|chunkId-NP4|chunkType-child|stype-|voicetype-	12	lwg__psp	_	_
14	bihAra	bihAra	NNP	n	lex-bihAra|cat-n|gen-m|num-sg|pers-3|case-o|vib-0_meM|tam-0|chunkId-NP5|chunkType-head|stype-|voicetype-	36	k7p	_	_
15	meM	meM	PSP	psp	lex-meM|cat-psp|gen-|num-|pers-|case-|vib-|tam-|chunkId-NP5|chunkType-child|stype-|voicetype-	14	lwg__psp	_	_
16	rARtrapawi	rARtrapawi	NNPC	n	lex-rARtrapawi|cat-n|gen-m|num-sg|pers-3|case-d|vib-0|tam-0|chunkId-NP6|chunkType-child|stype-|voicetype-	17	pof__cn	_	_
17	SAsana	SAsana	NNP	n	lex-SAsana|cat-n|gen-m|num-sg|pers-3|case-o|vib-0_kA|tam-0|chunkId-NP6|chunkType-head|stype-|voicetype-	19	r6	_	_
18	ke	kA	PSP	psp	lex-kA|cat-psp|gen-m|num-sg|pers-|case-o|vib-|tam-|chunkId-NP6|chunkType-child|stype-|voicetype-	17	lwg__psp	_	_
19	PEsale	PEsalA	NN	n	lex-PEsalA|cat-n|gen-m|num-sg|pers-3|case-o|vib-0_para|tam-0|chunkId-NP7|chunkType-head|stype-|voicetype-	36	k7	_	_
20	para	para	PSP	psp	lex-para|cat-psp|gen-|num-|pers-|case-|vib-|tam-|chunkId-NP7|chunkType-child|stype-|voicetype-	19	lwg__psp	_	_
21	kEbineta	kEbineta	NNC	n	lex-kEbineta|cat-n|gen-m|num-sg|pers-3|case-d|vib-0|tam-0|chunkId-NP8|chunkType-child|stype-|voicetype-	22	pof__cn	_	_
22	bETaka	bETaka	NN	n	lex-bETaka|cat-n|gen-f|num-sg|pers-3|case-o|vib-0_kA|tam-0|chunkId-NP8|chunkType-head|stype-|voicetype-	24	r6-k2	_	_
23	kA	kA	PSP	psp	lex-kA|cat-psp|gen-m|num-sg|pers-|case-d|vib-|tam-|chunkId-NP8|chunkType-child|stype-|voicetype-	22	lwg__psp	_	_
24	bahiRkAra	bahiRkAra	NN	n	lex-bahiRkAra|cat-n|gen-m|num-sg|pers-3|case-d|vib-0|tam-0|chunkId-NP9|chunkType-head|stype-|voicetype-	25	pof	_	_
25	karane	kara	VM	v	lex-kara|cat-v|gen-any|num-sg|pers-3h|case-o|vib-nA_vAlA|tam-nA|chunkId-VGNN|chunkType-head|stype-|voicetype-	29	nmod	_	_
26	vAle	vAlA	PSP	psp	lex-vAlA|cat-psp|gen-m|num-sg|pers-3h|case-d|vib-|tam-|chunkId-VGNN|chunkType-child|stype-|voicetype-	25	lwg__psp	_	_
27	lAlU	lAlU	NNPC	n	lex-lAlU|cat-n|gen-m|num-sg|pers-3|case-d|vib-0|tam-0|chunkId-NP10|chunkType-child|stype-|voicetype-	29	pof__cn	_	_
28	prasAxa	prasAxa	NNPC	n	lex-prasAxa|cat-n|gen-m|num-sg|pers-3|case-d|vib-0|tam-0|chunkId-NP10|chunkType-child|stype-|voicetype-	29	pof__cn	_	_
29	yAxava	yAxava	NNP	n	lex-yAxava|cat-n|gen-any|num-sg|pers-3|case-d|vib-0|tam-0|chunkId-NP10|chunkType-head|stype-|voicetype-	36	k1	_	_
30	soniyA	soniyA	NNPC	n	lex-soniyA|cat-n|gen-f|num-sg|pers-3|case-d|vib-0|tam-0|chunkId-NP11|chunkType-child|stype-|voicetype-	31	pof__cn	_	_
31	gAMXI	gAMXI	NNP	n	lex-gAMXI|cat-n|gen-any|num-sg|pers-3|case-o|vib-0_kA|tam-0|chunkId-NP11|chunkType-head|stype-|voicetype-	34	r6-k2	_	_
32	kA	kA	PSP	psp	lex-kA|cat-psp|gen-m|num-sg|pers-|case-d|vib-|tam-|chunkId-NP11|chunkType-child|stype-|voicetype-	31	lwg__psp	_	_
33	jamakara	jamakara	RB	adv	lex-jamakara|cat-adv|gen-|num-|pers-|case-|vib-|tam-|chunkId-RBP|chunkType-head|stype-|voicetype-	36	adv	_	_
34	bacAva	bacAva	NN	n	lex-bacAva|cat-n|gen-m|num-sg|pers-3|case-d|vib-0|tam-0|chunkId-NP12|chunkType-head|stype-|voicetype-	35	pof	_	_
35	karawe	kara	VM	v	lex-kara|cat-v|gen-m|num-sg|pers-any|case-|vib-wA|tam-wA|chunkId-VGNF|chunkType-head|stype-|voicetype-	36	vmod	_	_
36	xiKAI	xiKa	VM	v	lex-xiKa|cat-v|gen-any|num-sg|pers-3h|case-|vib-yA_xe+yA|tam-yA|chunkId-VGF2|chunkType-head|stype-declarative|voicetype-active	10	ccof	_	_
37	xie	xe	VAUX	v	lex-xe|cat-v|gen-m|num-sg|pers-3h|case-|vib-yA|tam-yA|chunkId-VGF2|chunkType-child|stype-|voicetype-	36	lwg__vaux	_	_
38	.	.	SYM	punc	lex-.|cat-punc|gen-|num-|pers-|case-|vib-|tam-|chunkId-BLK|chunkType-head|stype-|voicetype-	8	rsym	_	_

1	kAMgresa	kAMgresa	NNP	n	lex-kAMgresa|cat-n|gen-f|num-sg|pers-3|case-o|vib-0_kA_ora_se|tam-0|chunkId-NP|chunkType-head|stype-|voicetype-	12	rd	_	_
2	kI	kA	PSP	psp	lex-kA|cat-psp|gen-f|num-sg|pers-|case-o|vib-|tam-|chunkId-NP|chunkType-child|stype-|voicetype-	1	lwg__psp	_	_
3	ora	ora	NST	nst	lex-ora|cat-nst|gen-f|num-sg|pers-3|case-o|vib-|tam-|chunkId-NP|chunkType-child|stype-|voicetype-	1	lwg__psp	_	_
4	se	se	PSP	psp	lex-se|cat-psp|gen-|num-|pers-|case-|vib-|tam-|chunkId-NP|chunkType-child|stype-|voicetype-	1	lwg__psp	_	_
5	jagaxISa	jagaxISa	NNPC	n	lex-jagaxISa|cat-n|gen-m|num-sg|pers-3|case-d|vib-0|tam-0|chunkId-NP2|chunkType-child|stype-|voicetype-	6	pof__cn	_	_
6	tAitalara	tAitalara	NNP	n	lex-tAitalara|cat-n|gen-any|num-sg|pers-3|case-o|vib-0|tam-0|chunkId-NP2|chunkType-head|stype-|voicetype-	7	ccof	_	_
7	Ora	Ora	CC	avy	lex-Ora|cat-avy|gen-|num-|pers-|case-|vib-|tam-|chunkId-CCP|chunkType-head|stype-|voicetype-	11	r6	_	_
8	pavana	pavana	NNPC	n	lex-pavana|cat-n|gen-m|num-sg|pers-3|case-d|vib-0|tam-0|chunkId-NP3|chunkType-child|stype-|voicetype-	9	pof__cn	_	_
9	baMsala	baMsala	NNP	n	lex-baMsala|cat-n|gen-any|num-sg|pers-3|case-o|vib-0_kA|tam-0|chunkId-NP3|chunkType-head|stype-|voicetype-	7	ccof	_	_
10	kI	kA	PSP	psp	lex-kA|cat-psp|gen-f|num-sg|pers-|case-d|vib-|tam-|chunkId-NP3|chunkType-child|stype-|voicetype-	9	lwg__psp	_	_
11	AvAja	AvAja	NN	n	lex-AvAja|cat-n|gen-f|num-sg|pers-3|case-d|vib-0|tam-0|chunkId-NP4|chunkType-head|stype-|voicetype-	12	k1	_	_
12	sunAI	sunA	VM	v	lex-sunA|cat-v|gen-f|num-sg|pers-any|case-|vib-yA_xe_raha+yA_WA|tam-yA|chunkId-VGF|chunkType-head|stype-declarative|voicetype-active	0	main	_	_
13	xe	xe	VAUX	v	lex-xe|cat-v|gen-any|num-any|pers-any|case-|vib-0|tam-0|chunkId-VGF|chunkType-child|stype-|voicetype-	12	lwg__vaux	_	_
14	rahI	raha	VAUX	v	lex-raha|cat-v|gen-f|num-sg|pers-any|case-|vib-yA|tam-yA|chunkId-VGF|chunkType-child|stype-|voicetype-	12	lwg__vaux	_	_
15	WI	WA	VAUX	v	lex-WA|cat-v|gen-f|num-sg|pers-any|case-|vib-WA|tam-WA|chunkId-VGF|chunkType-child|stype-|voicetype-	12	lwg__vaux	_	_
16	.	.	SYM	punc	lex-.|cat-punc|gen-|num-|pers-|case-|vib-|tam-|chunkId-BLK|chunkType-head|stype-|voicetype-	12	rsym	_	_

1	lAlU	lAlU	NNP	n	lex-lAlU|cat-n|gen-m|num-sg|pers-3|case-o|vib-0_ne|tam-0|chunkId-NP|chunkType-head|stype-|voicetype-	6	k1	_	_
2	ne	ne	PSP	psp	lex-ne|cat-psp|gen-|num-|pers-|case-|vib-|tam-|chunkId-NP|chunkType-child|stype-|voicetype-	1	lwg__psp	_	_
3	jOYrja	jOYrja	NNP	n	lex-jOYrja|cat-n|gen-m|num-sg|pers-3|case-o|vib-0_para|tam-0|chunkId-NP2|chunkType-head|stype-|voicetype-	6	k7	_	_
4	para	para	PSP	psp	lex-para|cat-psp|gen-|num-|pers-|case-|vib-|tam-|chunkId-NP2|chunkType-child|stype-|voicetype-	3	lwg__psp	_	_
5	Aropa	Aropa	NN	n	lex-Aropa|cat-n|gen-m|num-sg|pers-3|case-d|vib-0|tam-0|chunkId-NP3|chunkType-head|stype-|voicetype-	6	k2	_	_
6	lagAyA	lagA	VM	v	lex-lagA|cat-v|gen-m|num-sg|pers-any|case-|vib-yA|tam-yA|chunkId-VGF|chunkType-head|stype-declarative|voicetype-active	0	main	_	_
7	ki	ki	CC	avy	lex-ki|cat-avy|gen-|num-|pers-|case-|vib-|tam-|chunkId-CCP|chunkType-head|stype-|voicetype-	5	rs	_	_
8	unhoMne	vaha	PRP	pn	lex-vaha|cat-pn|gen-any|num-sg|pers-3h|case-o|vib-ne|tam-ne|chunkId-NP4|chunkType-head|stype-|voicetype-	13	k1	_	_
9	eka	eka	QC	num	lex-eka|cat-num|gen-any|num-any|pers-|case-any|vib-|tam-|chunkId-NP5|chunkType-child|stype-|voicetype-	11	nmod__adj	_	_
10	telIvijana	telIvijana	NNC	n	lex-telIvijana|cat-n|gen-m|num-sg|pers-3|case-d|vib-0|tam-0|chunkId-NP5|chunkType-child|stype-|voicetype-	11	pof__cn	_	_
11	cEnala	cEnala	NN	n	lex-cEnala|cat-n|gen-m|num-sg|pers-3|case-o|vib-0_para|tam-0|chunkId-NP5|chunkType-head|stype-|voicetype-	13	k7	_	_
12	para	para	PSP	psp	lex-para|cat-psp|gen-|num-|pers-|case-|vib-|tam-|chunkId-NP5|chunkType-child|stype-|voicetype-	11	lwg__psp	_	_
13	kahA	kaha	VM	v	lex-kaha|cat-v|gen-m|num-sg|pers-any|case-|vib-yA|tam-yA|chunkId-VGF2|chunkType-head|stype-declarative|voicetype-active	7	ccof	_	_
14	soniyA	soniyA	NNPC	n	lex-soniyA|cat-n|gen-f|num-sg|pers-3|case-d|vib-0|tam-0|chunkId-NP6|chunkType-child|stype-|voicetype-	15	pof__cn	_	_
15	gAMXI	gAMXI	NNP	n	lex-gAMXI|cat-n|gen-any|num-sg|pers-3|case-o|vib-0_kA|tam-0|chunkId-NP6|chunkType-head|stype-|voicetype-	17	r6	_	_
16	kA	kA	PSP	psp	lex-kA|cat-psp|gen-m|num-sg|pers-|case-d|vib-|tam-|chunkId-NP6|chunkType-child|stype-|voicetype-	15	lwg__psp	_	_
17	haSra	haSra	NN	n	lex-haSra|cat-n|gen-m|num-sg|pers-3|case-d|vib-0|tam-0|chunkId-NP7|chunkType-head|stype-|voicetype-	20	k2	_	_
18	BI	BI	RP	avy	lex-BI|cat-avy|gen-|num-|pers-|case-|vib-|tam-|chunkId-NP7|chunkType-child|stype-|voicetype-	17	lwg__rp	_	_
19	vahI	vahI	PRP	pn	lex-vahI|cat-pn|gen-any|num-sg|pers-3|case-d|vib-0|tam-0|chunkId-NP8|chunkType-head|stype-|voicetype-	20	k2s	_	_
20	hogA	ho	VM	v	lex-ho|cat-v|gen-m|num-sg|pers-3|case-|vib-gA|tam-gA|chunkId-VGF3|chunkType-head|stype-declarative|voicetype-active	13	k2	_	_
21	jo	jo	PRP	pn	lex-jo|cat-pn|gen-any|num-sg|pers-3|case-d|vib-0|tam-0|chunkId-NP9|chunkType-head|stype-|voicetype-	26	k2	_	_
22	iMxirA	iMxirA	NNPC	n	lex-iMxirA|cat-n|gen-f|num-sg|pers-3|case-d|vib-0|tam-0|chunkId-NP10|chunkType-child|stype-|voicetype-	23	pof__cn	_	_
23	gAMXI	gAMXI	NNP	n	lex-gAMXI|cat-n|gen-any|num-sg|pers-3|case-o|vib-0_kA|tam-0|chunkId-NP10|chunkType-head|stype-|voicetype-	25	r6	_	_
24	kA	kA	PSP	psp	lex-kA|cat-psp|gen-m|num-sg|pers-|case-d|vib-|tam-|chunkId-NP10|chunkType-child|stype-|voicetype-	23	lwg__psp	_	_
25	NULL	_	NN	_	lex-_|cat-_|gen-|num-|pers-|case-|vib-|tam-|chunkId-NULL__NP|chunkType-head|stype-|voicetype-	26	k2s	_	_
26	huA	ho	VM	v	lex-ho|cat-v|gen-m|num-sg|pers-any|case-|vib-yA_WA|tam-yA|chunkId-VGF4|chunkType-head|stype-declarative|voicetype-active	19	nmod__relc	_	_
27	WA	WA	VAUX	v	lex-WA|cat-v|gen-m|num-sg|pers-any|case-|vib-WA|tam-WA|chunkId-VGF4|chunkType-child|stype-|voicetype-	26	lwg__vaux	_	_
28	.	.	SYM	punc	lex-.|cat-punc|gen-|num-|pers-|case-|vib-|tam-|chunkId-BLK|chunkType-head|stype-|voicetype-	6	rsym	_	_

1	pavana	pavana	NNPC	n	lex-pavana|cat-n|gen-m|num-sg|pers-3|case-d|vib-0|tam-0|chunkId-NP|chunkType-child|stype-|voicetype-	2	pof__cn	_	_
2	baMsala	baMsala	NNP	n	lex-baMsala|cat-n|gen-m|num-sg|pers-3|case-o|vib-0_ne|tam-0|chunkId-NP|chunkType-head|stype-|voicetype-	5	k1	_	_
3	ne	ne	PSP	psp	lex-ne|cat-psp|gen-|num-|pers-|case-|vib-|tam-|chunkId-NP|chunkType-child|stype-|voicetype-	2	lwg__psp	_	_
4	savAla	savAla	NN	n	lex-savAla|cat-n|gen-m|num-sg|pers-3|case-d|vib-0|tam-0|chunkId-NP2|chunkType-head|stype-|voicetype-	5	k2	_	_
5	uTAyA	uTA	VM	v	lex-uTA|cat-v|gen-m|num-sg|pers-any|case-|vib-yA|tam-yA|chunkId-VGF|chunkType-head|stype-declarative|voicetype-active	0	main	_	_
6	ki	ki	CC	avy	lex-ki|cat-avy|gen-|num-|pers-|case-|vib-|tam-|chunkId-CCP|chunkType-head|stype-|voicetype-	4	rs	_	_
7	AKira	AKira	RB	adv	lex-AKira|cat-adv|gen-|num-|pers-|case-|vib-|tam-|chunkId-RBP|chunkType-head|stype-|voicetype-	14	adv	_	_
8	soniyA	soniyA	NNPC	n	lex-soniyA|cat-n|gen-f|num-sg|pers-3|case-d|vib-0|tam-0|chunkId-NP3|chunkType-child|stype-|voicetype-	9	pof__cn	_	_
9	gAMXI	gAMXI	NNP	n	lex-gAMXI|cat-n|gen-any|num-sg|pers-3|case-o|vib-0_ke_KilAPa|tam-0|chunkId-NP3|chunkType-head|stype-|voicetype-	14	vmod	_	_
10	ke	ke	PSP	psp	lex-ke|cat-psp|gen-|num-|pers-|case-|vib-|tam-|chunkId-NP3|chunkType-child|stype-|voicetype-	9	lwg__psp	_	_
11	KilAPa	KilAPa	PSP	adj	lex-KilAPa|cat-adj|gen-|num-|pers-|case-|vib-|tam-|chunkId-NP3|chunkType-child|stype-|voicetype-	9	lwg__psp	_	_
12	kyA	kyA	WQ	pn	lex-kyA|cat-pn|gen-|num-|pers-|case-|vib-|tam-|chunkId-NP4|chunkType-child|stype-|voicetype-	13	mod__wq	_	_
13	sAjiSa	sAjiSa	NN	n	lex-sAjiSa|cat-n|gen-f|num-sg|pers-3|case-d|vib-0|tam-0|chunkId-NP4|chunkType-head|stype-|voicetype-	14	k2	_	_
14	racI	raca	VM	v	lex-raca|cat-v|gen-f|num-sg|pers-3|case-|vib-yA_jA_raha+yA_hE|tam-yA|chunkId-VGF2|chunkType-head|stype-declarative|voicetype-passive	6	ccof	_	_
15	jA	jA	VAUX	v	lex-jA|cat-v|gen-any|num-any|pers-any|case-|vib-0|tam-0|chunkId-VGF2|chunkType-child|stype-|voicetype-	14	lwg__vaux	_	_
16	rahI	raha	VAUX	v	lex-raha|cat-v|gen-f|num-sg|pers-any|case-|vib-yA|tam-yA|chunkId-VGF2|chunkType-child|stype-|voicetype-	14	lwg__vaux	_	_
17	hE	hE	VAUX	v	lex-hE|cat-v|gen-any|num-sg|pers-3|case-|vib-hE|tam-hE|chunkId-VGF2|chunkType-child|stype-|voicetype-	14	lwg__vaux	_	_
18	.	.	SYM	punc	lex-.|cat-punc|gen-|num-|pers-|case-|vib-|tam-|chunkId-BLK|chunkType-head|stype-|voicetype-	5	rsym	_	_

1	sawwAXArI	sawwAXArI	JJ	adj	lex-sawwAXArI|cat-adj|gen-any|num-any|pers-|case-o|vib-|tam-|chunkId-NP|chunkType-child|stype-|voicetype-	2	nmod__adj	_	_
2	xala	xala	NN	n	lex-xala|cat-n|gen-m|num-sg|pers-3|case-o|vib-0_kA_ora_se|tam-0|chunkId-NP|chunkType-head|stype-|voicetype-	6	rd	_	_
3	kI	kA	PSP	psp	lex-kA|cat-psp|gen-f|num-sg|pers-|case-o|vib-|tam-|chunkId-NP|chunkType-child|stype-|voicetype-	2	lwg__psp	_	_
4	ora	ora	NST	nst	lex-ora|cat-nst|gen-f|num-sg|pers-3|case-o|vib-|tam-|chunkId-NP|chunkType-child|stype-|voicetype-	2	lwg__psp	_	_
5	se	se	PSP	psp	lex-se|cat-psp|gen-|num-|pers-|case-|vib-|tam-|chunkId-NP|chunkType-child|stype-|voicetype-	2	lwg__psp	_	_
6	hue	ho	VM	v	lex-ho|cat-v|gen-m|num-sg|pers-any|case-|vib-yA|tam-yA|chunkId-VGNF|chunkType-head|stype-|voicetype-	7	nmod__k2inv	_	_
7	Sora	Sora	NN	n	lex-Sora|cat-n|gen-m|num-sg|pers-3|case-o|vib-0_ke_bAxa|tam-0|chunkId-NP2|chunkType-head|stype-|voicetype-	15	k7t	_	_
8	ke	ke	PSP	psp	lex-ke|cat-psp|gen-|num-|pers-|case-|vib-|tam-|chunkId-NP2|chunkType-child|stype-|voicetype-	7	lwg__psp	_	_
9	bAxa	bAxa	NST	nst	lex-bAxa|cat-nst|gen-m|num-sg|pers-3|case-d|vib-|tam-|chunkId-NP2|chunkType-child|stype-|voicetype-	7	lwg__psp	_	_
10	catarjI	catarjI	NNP	n	lex-catarjI|cat-n|gen-any|num-sg|pers-3|case-o|vib-0_ne|tam-0|chunkId-NP3|chunkType-head|stype-|voicetype-	15	k1	_	_
11	ne	ne	PSP	psp	lex-ne|cat-psp|gen-|num-|pers-|case-|vib-|tam-|chunkId-NP3|chunkType-child|stype-|voicetype-	10	lwg__psp	_	_
12	sarakAra	sarakAra	NN	n	lex-sarakAra|cat-n|gen-f|num-sg|pers-3|case-o|vib-0_se|tam-0|chunkId-NP4|chunkType-head|stype-|voicetype-	15	k4	_	_
13	se	se	PSP	psp	lex-se|cat-psp|gen-|num-|pers-|case-|vib-|tam-|chunkId-NP4|chunkType-child|stype-|voicetype-	12	lwg__psp	_	_
14	savAla	savAla	NN	n	lex-savAla|cat-n|gen-m|num-sg|pers-3|case-d|vib-0|tam-0|chunkId-NP5|chunkType-head|stype-|voicetype-	15	pof	_	_
15	kiyA	kara	VM	v	lex-kara|cat-v|gen-m|num-sg|pers-any|case-|vib-yA|tam-yA|chunkId-VGF|chunkType-head|stype-declarative|voicetype-active	0	main	_	_
16	ki	ki	CC	avy	lex-ki|cat-avy|gen-|num-|pers-|case-|vib-|tam-|chunkId-CCP|chunkType-head|stype-|voicetype-	15	k2	_	_
17	sarakAra	sarakAra	NN	n	lex-sarakAra|cat-n|gen-f|num-sg|pers-3|case-d|vib-0|tam-0|chunkId-NP6|chunkType-head|stype-|voicetype-	19	k1	_	_
18	waya	waya	JJ	adj	lex-waya|cat-adj|gen-any|num-any|pers-|case-|vib-|tam-|chunkId-JJP|chunkType-head|stype-|voicetype-	19	pof	_	_
19	kara	kara	VM	v	lex-kara|cat-v|gen-any|num-sg|pers-3|case-|vib-0_le+eM|tam-0|chunkId-VGF2|chunkType-head|stype-declarative|voicetype-active	16	ccof	_	_
20	le	le	VAUX	v	lex-le|cat-v|gen-any|num-sg|pers-3|case-|vib-eM|tam-eM|chunkId-VGF2|chunkType-child|stype-|voicetype-	19	lwg__vaux	_	_
21	ki	ki	CC	avy	lex-ki|cat-avy|gen-|num-|pers-|case-|vib-|tam-|chunkId-CCP2|chunkType-head|stype-|voicetype-	19	k2	_	_
22	vaha	vaha	PRP	pn	lex-vaha|cat-pn|gen-any|num-sg|pers-3|case-d|vib-0|tam-0|chunkId-NP7|chunkType-head|stype-|voicetype-	25	k1	_	_
23	saxana	saxana	NN	n	lex-saxana|cat-n|gen-m|num-sg|pers-3|case-d|vib-0|tam-0|chunkId-NP8|chunkType-head|stype-|voicetype-	24	k2	_	_
24	calAnA	calA	VM	v	lex-calA|cat-v|gen-any|num-any|pers-any|case-d|vib-nA|tam-nA|chunkId-VGNN|chunkType-head|stype-|voicetype-	25	k2	_	_
25	cAhawI	cAha	VM	v	lex-cAha|cat-v|gen-f|num-sg|pers-3|case-|vib-wA_hE|tam-wA|chunkId-VGF3|chunkType-head|stype-declarative|voicetype-active	27	ccof	_	_
26	hE	hE	VAUX	v	lex-hE|cat-v|gen-any|num-sg|pers-3|case-|vib-hE|tam-hE|chunkId-VGF3|chunkType-child|stype-|voicetype-	25	lwg__vaux	_	_
27	yA	yA	CC	avy	lex-yA|cat-avy|gen-|num-|pers-|case-|vib-|tam-|chunkId-CCP3|chunkType-head|stype-|voicetype-	21	ccof	_	_
28	nahIM	nahIM	NEG	avy	lex-nahIM|cat-avy|gen-|num-|pers-|case-|vib-|tam-|chunkId-NEGP|chunkType-head|stype-|voicetype-	29	vmod	_	_
29	NULL	_	VM	_	lex-_|cat-_|gen-|num-|pers-|case-|vib-|tam-|chunkId-NULL__VGF|chunkType-head|stype-declarative|voicetype-active	27	ccof	_	_
30	.	.	SYM	punc	lex-.|cat-punc|gen-|num-|pers-|case-|vib-|tam-|chunkId-BLK|chunkType-head|stype-|voicetype-	15	rsym	_	_

1	sawwAXArI	sawwAXArI	JJ	adj	lex-sawwAXArI|cat-adj|gen-any|num-any|pers-|case-o|vib-|tam-|chunkId-NP|chunkType-child|stype-|voicetype-	2	nmod__adj	_	_
2	xala	xala	NN	n	lex-xala|cat-n|gen-m|num-sg|pers-3|case-o|vib-0_kA_ora_se|tam-0|chunkId-NP|chunkType-head|stype-|voicetype-	17	rd	_	_
3	kI	kA	PSP	psp	lex-kA|cat-psp|gen-f|num-sg|pers-|case-o|vib-|tam-|chunkId-NP|chunkType-child|stype-|voicetype-	2	lwg__psp	_	_
4	ora	ora	NST	nst	lex-ora|cat-nst|gen-f|num-sg|pers-3|case-o|vib-|tam-|chunkId-NP|chunkType-child|stype-|voicetype-	2	lwg__psp	_	_
5	se	se	PSP	psp	lex-se|cat-psp|gen-|num-|pers-|case-|vib-|tam-|chunkId-NP|chunkType-child|stype-|voicetype-	2	lwg__psp	_	_
6	kuCa	kuCa	QF	avy	lex-kuCa|cat-avy|gen-|num-|pers-|case-|vib-|tam-|chunkId-NP2|chunkType-child|stype-|voicetype-	7	nmod__adj	_	_
7	saxasya	saxasya	NN	n	lex-saxasya|cat-n|gen-m|num-pl|pers-3|case-d|vib-0|tam-0|chunkId-NP2|chunkType-head|stype-|voicetype-	17	k1	_	_
8	jOYrja	jOYrja	NNP	n	lex-jOYrja|cat-n|gen-m|num-sg|pers-3|case-o|vib-0_kA|tam-0|chunkId-NP3|chunkType-head|stype-|voicetype-	11	r6	_	_
9	ke	kA	PSP	psp	lex-kA|cat-psp|gen-m|num-sg|pers-|case-o|vib-|tam-|chunkId-NP3|chunkType-child|stype-|voicetype-	8	lwg__psp	_	_
10	isa	yaha	DEM	pn	lex-yaha|cat-pn|gen-any|num-sg|pers-3|case-o|vib-|tam-|chunkId-NP4|chunkType-child|stype-|voicetype-	11	nmod__adj	_	_
11	bayAna	bayAna	NN	n	lex-bayAna|cat-n|gen-m|num-sg|pers-3|case-o|vib-0_para|tam-0|chunkId-NP4|chunkType-head|stype-|voicetype-	14	k7	_	_
12	para	para	PSP	psp	lex-para|cat-psp|gen-|num-|pers-|case-|vib-|tam-|chunkId-NP4|chunkType-child|stype-|voicetype-	11	lwg__psp	_	_
13	mAPI	mAPI	NN	n	lex-mAPI|cat-n|gen-f|num-sg|pers-3|case-d|vib-0|tam-0|chunkId-NP5|chunkType-head|stype-|voicetype-	14	pof	_	_
14	mAMgane	mAMga	VM	v	lex-mAMga|cat-v|gen-any|num-sg|pers-any|case-o|vib-nA_kA|tam-nA|chunkId-VGNN|chunkType-head|stype-|voicetype-	16	r6-k2	_	_
15	kI	kA	PSP	psp	lex-kA|cat-psp|gen-f|num-sg|pers-|case-d|vib-|tam-|chunkId-VGNN|chunkType-child|stype-|voicetype-	14	lwg__psp	_	_
16	bAwa	bAwa	NN	n	lex-bAwa|cat-n|gen-f|num-sg|pers-3|case-d|vib-0|tam-0|chunkId-NP6|chunkType-head|stype-|voicetype-	17	pof	_	_
17	kara	kara	VM	v	lex-kara|cat-v|gen-m|num-pl|pers-any|case-|vib-0_raha+yA_WA|tam-0|chunkId-VGF|chunkType-head|stype-declarative|voicetype-active	0	main	_	_
18	rahe	raha	VAUX	v	lex-raha|cat-v|gen-m|num-pl|pers-any|case-|vib-yA|tam-yA|chunkId-VGF|chunkType-child|stype-|voicetype-	17	lwg__vaux	_	_
19	We	WA	VAUX	v	lex-WA|cat-v|gen-m|num-pl|pers-any|case-|vib-WA|tam-WA|chunkId-VGF|chunkType-child|stype-|voicetype-	17	lwg__vaux	_	_
20	.	.	SYM	punc	lex-.|cat-punc|gen-|num-|pers-|case-|vib-|tam-|chunkId-BLK|chunkType-head|stype-|voicetype-	17	rsym	_	_

