1	praXAnamaMwrI	praXAnamaMwrI	NNP	n	lex-praXAnamaMwrI|cat-n|gen-m|num-sg|pers-3|case-d|vib-0|tam-0|chunkId-NP|chunkType-child|stype-|voicetype-	3	nmod__adj	_	_
2	manamohana	manamohana	NNPC	n	lex-manamohana|cat-n|gen-m|num-sg|pers-3|case-d|vib-0|tam-0|chunkId-NP|chunkType-child|stype-|voicetype-	3	pof__cn	_	_
3	siMha	siMha	NNP	n	lex-siMha|cat-n|gen-m|num-sg|pers-3|case-o|vib-0_ne|tam-0|chunkId-NP|chunkType-head|stype-|voicetype-	14	k1	_	_
4	ne	ne	PSP	psp	lex-ne|cat-psp|gen-|num-|pers-|case-|vib-|tam-|chunkId-NP|chunkType-child|stype-|voicetype-	3	lwg__psp	_	_
5	SukravAra	SukravAra	NNP	n	lex-SukravAra|cat-n|gen-m|num-sg|pers-3|case-o|vib-0_ko|tam-0|chunkId-NP2|chunkType-head|stype-|voicetype-	14	k7t	_	_
6	ko	ko	PSP	psp	lex-ko|cat-psp|gen-|num-|pers-|case-|vib-|tam-|chunkId-NP2|chunkType-child|stype-|voicetype-	5	lwg__psp	_	_
7	AwaMkavAxa	AwaMkavAxa	NN	n	lex-AwaMkavAxa|cat-n|gen-m|num-sg|pers-3|case-o|vib-0_ko|tam-0|chunkId-NP3|chunkType-head|stype-|voicetype-	12	k2	_	_
8	ko	ko	PSP	psp	lex-ko|cat-psp|gen-|num-|pers-|case-|vib-|tam-|chunkId-NP3|chunkType-child|stype-|voicetype-	7	lwg__psp	_	_
9	kAyarawApUrNa	kAyarawApUrNa	JJ	adj	lex-kAyarawApUrNa|cat-adj|gen-any|num-any|pers-|case-d|vib-|tam-|chunkId-NP4|chunkType-child|stype-|voicetype-	10	nmod__adj	_	_
10	kqwa	kqwa	NN	n	lex-kqwa|cat-n|gen-m|num-sg|pers-3|case-d|vib-0|tam-0|chunkId-NP4|chunkType-head|stype-|voicetype-	12	k2s	_	_
11	karAra	karAra	NN	n	lex-karAra|cat-n|gen-m|num-sg|pers-3|case-d|vib-0|tam-0|chunkId-NP5|chunkType-head|stype-|voicetype-	12	pof	_	_
12	xewe	xe	VM	v	lex-xe|cat-v|gen-m|num-sg|pers-any|case-|vib-wA_ho+yA|tam-wA|chunkId-VGNF|chunkType-head|stype-|voicetype-	14	vmod	_	_
13	hue	ho	VAUX	v	lex-ho|cat-v|gen-m|num-sg|pers-any|case-|vib-yA|tam-yA|chunkId-VGNF|chunkType-child|stype-|voicetype-	12	lwg__vaux	_	_
14	kahA	kaha	VM	v	lex-kaha|cat-v|gen-m|num-sg|pers-any|case-|vib-yA|tam-yA|chunkId-VGF|chunkType-head|stype-declarative|voicetype-active	0	main	_	_
15	ki	ki	CC	avy	lex-ki|cat-avy|gen-|num-|pers-|case-|vib-|tam-|chunkId-CCP|chunkType-head|stype-|voicetype-	14	k2	_	_
16	lokawaMwra	lokawaMwra	NN	n	lex-lokawaMwra|cat-n|gen-m|num-sg|pers-3|case-o|vib-0_meM|tam-0|chunkId-NP6|chunkType-head|stype-|voicetype-	26	k7	_	_
17	meM	meM	PSP	psp	lex-meM|cat-psp|gen-|num-|pers-|case-|vib-|tam-|chunkId-NP6|chunkType-child|stype-|voicetype-	16	lwg__psp	_	_
18	AsWA	AsWA	NN	n	lex-AsWA|cat-n|gen-f|num-sg|pers-3|case-d|vib-0|tam-0|chunkId-NP7|chunkType-head|stype-|voicetype-	19	k2	_	_
19	raKane	raKa	VM	v	lex-raKa|cat-v|gen-any|num-pl|pers-any|case-o|vib-nA_vAlA|tam-nA|chunkId-VGNN|chunkType-head|stype-|voicetype-	21	nmod	_	_
20	vAle	vAlA	PSP	psp	lex-vAlA|cat-psp|gen-m|num-pl|pers-|case-o|vib-|tam-|chunkId-VGNN|chunkType-child|stype-|voicetype-	19	lwg__psp	_	_
21	xeSoM	xeSa	NN	n	lex-xeSa|cat-n|gen-m|num-pl|pers-3|case-o|vib-0_ko|tam-0|chunkId-NP8|chunkType-head|stype-|voicetype-	26	k1	_	_
22	ko	ko	PSP	psp	lex-ko|cat-psp|gen-|num-|pers-|case-|vib-|tam-|chunkId-NP8|chunkType-child|stype-|voicetype-	21	lwg__psp	_	_
23	milakara	mila	VM	v	lex-mila|cat-v|gen-any|num-any|pers-any|case-|vib-kara|tam-kara|chunkId-VGNF2|chunkType-head|stype-|voicetype-	26	vmod	_	_
24	isakA	yaha	PRP	pn	lex-yaha|cat-pn|gen-m|num-sg|pers-3|case-o|vib-kA|tam-kA|chunkId-NP9|chunkType-head|stype-|voicetype-	25	r6-k2	_	_
25	mukAbalA	mukAbalA	NN	n	lex-mukAbalA|cat-n|gen-m|num-sg|pers-3|case-d|vib-0|tam-0|chunkId-NP10|chunkType-head|stype-|voicetype-	26	pof	_	_
26	karanA	kara	VM	v	lex-kara|cat-v|gen-m|num-any|pers-any|case-|vib-nA_cAhie|tam-nA|chunkId-VGF2|chunkType-head|stype-declarative|voicetype-active	15	ccof	_	_
27	cAhie	cAhie	VAUX	v	lex-cAhie|cat-v|gen-any|num-any|pers-any|case-|vib-0|tam-0|chunkId-VGF2|chunkType-child|stype-|voicetype-	26	lwg__vaux	_	_
28	.	.	SYM	punc	lex-.|cat-punc|gen-|num-|pers-|case-|vib-|tam-|chunkId-BLK|chunkType-head|stype-|voicetype-	14	rsym	_	_

1	OYksaPorda	OYksaPorda	NNPC	n	lex-OYksaPorda|cat-n|gen-m|num-sg|pers-3|case-d|vib-0|tam-0|chunkId-NP|chunkType-child|stype-|voicetype-	2	pof__cn	_	_
2	viSvavixyAlaya	viSvavixyAlaya	NNP	n	lex-viSvavixyAlaya|cat-n|gen-m|num-sg|pers-3|case-o|vib-0_ne|tam-0|chunkId-NP|chunkType-head|stype-|voicetype-	16	k1	_	_
3	ne	ne	PSP	psp	lex-ne|cat-psp|gen-|num-|pers-|case-|vib-|tam-|chunkId-NP|chunkType-child|stype-|voicetype-	2	lwg__psp	_	_
4	Aja	Aja	NN	n	lex-Aja|cat-n|gen-m|num-sg|pers-3|case-d|vib-0|tam-0|chunkId-NP2|chunkType-head|stype-|voicetype-	16	k7t	_	_
5	manamohana	manamohana	NNPC	n	lex-manamohana|cat-n|gen-m|num-sg|pers-3|case-d|vib-0|tam-0|chunkId-NP3|chunkType-child|stype-|voicetype-	6	pof__cn	_	_
6	siMha	siMha	NNP	n	lex-siMha|cat-n|gen-m|num-sg|pers-3|case-o|vib-0_ko|tam-0|chunkId-NP3|chunkType-head|stype-|voicetype-	16	k4	_	_
7	ko	ko	PSP	psp	lex-ko|cat-psp|gen-|num-|pers-|case-|vib-|tam-|chunkId-NP3|chunkType-child|stype-|voicetype-	6	lwg__psp	_	_
8	nAgarika	nAgarika	NNPC	n	lex-nAgarika|cat-n|gen-m|num-sg|pers-3|case-d|vib-0|tam-0|chunkId-NP4|chunkType-child|stype-|voicetype-	9	pof__cn	_	_
9	kAnUna	kAnUna	NNP	n	lex-kAnUna|cat-n|gen-m|num-sg|pers-3|case-o|vib-0_meM|tam-0|chunkId-NP4|chunkType-head|stype-|voicetype-	16	k7	_	_
10	meM	meM	PSP	psp	lex-meM|cat-psp|gen-|num-|pers-|case-|vib-|tam-|chunkId-NP4|chunkType-child|stype-|voicetype-	9	lwg__psp	_	_
11	dOYktareta	dOYktareta	NN	n	lex-dOYktareta|cat-n|gen-m|num-sg|pers-3|case-o|vib-0_kA|tam-0|chunkId-NP5|chunkType-head|stype-|voicetype-	14	r6	_	_
12	kI	kA	PSP	psp	lex-kA|cat-psp|gen-f|num-sg|pers-|case-d|vib-|tam-|chunkId-NP5|chunkType-child|stype-|voicetype-	11	lwg__psp	_	_
13	mAnaxa	mAnaxa	NNC	adj	lex-mAnaxa|cat-adj|gen-any|num-any|pers-|case-d|vib-|tam-|chunkId-NP6|chunkType-child|stype-|voicetype-	14	pof__cn	_	_
14	upAXi	upAXi	NN	n	lex-upAXi|cat-n|gen-f|num-sg|pers-3|case-d|vib-0|tam-0|chunkId-NP6|chunkType-head|stype-|voicetype-	16	k2	_	_
15	praxAna	praxAna	NN	n	lex-praxAna|cat-n|gen-m|num-sg|pers-3|case-d|vib-0|tam-0|chunkId-NP7|chunkType-head|stype-|voicetype-	16	pof	_	_
16	kI	kara	VM	v	lex-kara|cat-v|gen-f|num-sg|pers-any|case-|vib-yA|tam-yA|chunkId-VGF|chunkType-head|stype-declarative|voicetype-active	0	main	_	_
17	.	.	SYM	punc	lex-.|cat-punc|gen-|num-|pers-|case-|vib-|tam-|chunkId-BLK|chunkType-head|stype-|voicetype-	16	rsym	_	_

1	isa	yaha	DEM	pn	lex-yaha|cat-pn|gen-any|num-sg|pers-3|case-o|vib-|tam-|chunkId-NP|chunkType-child|stype-|voicetype-	2	nmod__adj	_	_
2	avasara	avasara	NN	n	lex-avasara|cat-n|gen-m|num-sg|pers-3|case-o|vib-0_para|tam-0|chunkId-NP|chunkType-head|stype-|voicetype-	4	jjmod	_	_
3	para	para	PSP	psp	lex-para|cat-psp|gen-|num-|pers-|case-|vib-|tam-|chunkId-NP|chunkType-child|stype-|voicetype-	2	lwg__psp	_	_
4	Ayojiwa	Ayojiwa	JJ	adj	lex-Ayojiwa|cat-adj|gen-any|num-any|pers-|case-o|vib-|tam-|chunkId-JJP|chunkType-head|stype-|voicetype-	5	nmod	_	_
5	samAroha	samAroha	NN	n	lex-samAroha|cat-n|gen-m|num-sg|pers-3|case-o|vib-0_ko|tam-0|chunkId-NP2|chunkType-head|stype-|voicetype-	12	k4	_	_
6	ko	ko	PSP	psp	lex-ko|cat-psp|gen-|num-|pers-|case-|vib-|tam-|chunkId-NP2|chunkType-child|stype-|voicetype-	5	lwg__psp	_	_
7	saMboXiwa	saMboXiwa	JJ	adj	lex-saMboXiwa|cat-adj|gen-any|num-any|pers-|case-|vib-|tam-|chunkId-JJP2|chunkType-head|stype-|voicetype-	8	pof	_	_
8	karawe	kara	VM	v	lex-kara|cat-v|gen-m|num-sg|pers-any|case-|vib-wA_ho+yA|tam-wA|chunkId-VGNF|chunkType-head|stype-|voicetype-	12	vmod	_	_
9	hue	ho	VAUX	v	lex-ho|cat-v|gen-m|num-sg|pers-any|case-|vib-yA|tam-yA|chunkId-VGNF|chunkType-child|stype-|voicetype-	8	lwg__vaux	_	_
10	siMha	siMha	NNP	n	lex-siMha|cat-n|gen-m|num-sg|pers-3|case-o|vib-0_ne|tam-0|chunkId-NP3|chunkType-head|stype-|voicetype-	12	k1	_	_
11	ne	ne	PSP	psp	lex-ne|cat-psp|gen-|num-|pers-|case-|vib-|tam-|chunkId-NP3|chunkType-child|stype-|voicetype-	10	lwg__psp	_	_
12	kahA	kaha	VM	v	lex-kaha|cat-v|gen-m|num-sg|pers-any|case-|vib-yA|tam-yA|chunkId-VGF|chunkType-head|stype-declarative|voicetype-active	0	main	_	_
13	ki	ki	CC	avy	lex-ki|cat-avy|gen-|num-|pers-|case-|vib-|tam-|chunkId-CCP|chunkType-head|stype-|voicetype-	12	k2	_	_
14	lokawaMwra	lokawaMwra	NN	n	lex-lokawaMwra|cat-n|gen-m|num-sg|pers-3|case-o|vib-0|tam-0|chunkId-NP4|chunkType-head|stype-|voicetype-	15	ccof	_	_
15	Ora	Ora	CC	avy	lex-Ora|cat-avy|gen-|num-|pers-|case-|vib-|tam-|chunkId-CCP2|chunkType-head|stype-|voicetype-	24	k7	_	_
16	kAnUna	kAnUna	NN	n	lex-kAnUna|cat-n|gen-m|num-sg|pers-3|case-o|vib-0_kA|tam-0|chunkId-NP5|chunkType-head|stype-|voicetype-	18	r6	_	_
17	ke	kA	PSP	psp	lex-kA|cat-psp|gen-m|num-sg|pers-|case-o|vib-|tam-|chunkId-NP5|chunkType-child|stype-|voicetype-	16	lwg__psp	_	_
18	SAsana	SAsana	NN	n	lex-SAsana|cat-n|gen-m|num-sg|pers-3|case-o|vib-0_meM|tam-0|chunkId-NP6|chunkType-head|stype-|voicetype-	15	ccof	_	_
19	meM	meM	PSP	psp	lex-meM|cat-psp|gen-|num-|pers-|case-|vib-|tam-|chunkId-NP6|chunkType-child|stype-|voicetype-	18	lwg__psp	_	_
20	AsWA	AsWA	NN	n	lex-AsWA|cat-n|gen-f|num-sg|pers-3|case-d|vib-0|tam-0|chunkId-NP7|chunkType-head|stype-|voicetype-	21	k2	_	_
21	raKane	raKa	VM	v	lex-raKa|cat-v|gen-m|num-any|pers-any|case-o|vib-nA_vAlA_ko|tam-nA|chunkId-VGNN|chunkType-head|stype-|voicetype-	24	k4	_	_
22	vAloM	vAlA	PSP	psp	lex-vAlA|cat-psp|gen-m|num-pl|pers-|case-o|vib-|tam-|chunkId-VGNN|chunkType-child|stype-|voicetype-	21	lwg__psp	_	_
23	ko	ko	PSP	psp	lex-ko|cat-psp|gen-|num-|pers-|case-|vib-|tam-|chunkId-VGNN|chunkType-child|stype-|voicetype-	21	lwg__psp	_	_
24	cAhie	cAhie	VM	v	lex-cAhie|cat-v|gen-any|num-any|pers-any|case-|vib-0|tam-0|chunkId-VGF2|chunkType-head|stype-declarative|voicetype-active	13	ccof	_	_
25	ki	ki	CC	avy	lex-ki|cat-avy|gen-|num-|pers-|case-|vib-|tam-|chunkId-CCP3|chunkType-head|stype-|voicetype-	24	k2	_	_
26	ve	vaha	PRP	pn	lex-vaha|cat-pn|gen-any|num-pl|pers-3|case-d|vib-0|tam-0|chunkId-NP8|chunkType-head|stype-|voicetype-	31	k1	_	_
27	milakara	mila	VM	v	lex-mila|cat-v|gen-any|num-any|pers-any|case-|vib-kara|tam-kara|chunkId-VGNF2|chunkType-head|stype-|voicetype-	31	vmod	_	_
28	AwaMkavAxa	AwaMkavAxa	NN	n	lex-AwaMkavAxa|cat-n|gen-m|num-sg|pers-3|case-o|vib-0_kA|tam-0|chunkId-NP9|chunkType-head|stype-|voicetype-	30	r6-k2	_	_
29	kA	kA	PSP	psp	lex-kA|cat-psp|gen-m|num-sg|pers-|case-d|vib-|tam-|chunkId-NP9|chunkType-child|stype-|voicetype-	28	lwg__psp	_	_
30	mukAbalA	mukAbalA	NN	n	lex-mukAbalA|cat-n|gen-m|num-sg|pers-3|case-d|vib-0|tam-0|chunkId-NP10|chunkType-head|stype-|voicetype-	31	pof	_	_
31	kareM	kara	VM	v	lex-kara|cat-v|gen-any|num-pl|pers-3|case-|vib-eM|tam-eM|chunkId-VGF3|chunkType-head|stype-imperative|voicetype-active	25	ccof	_	_
32	.	.	SYM	punc	lex-.|cat-punc|gen-|num-|pers-|case-|vib-|tam-|chunkId-BLK|chunkType-head|stype-|voicetype-	12	rsym	_	_

1	unhoMne	vaha	PRP	pn	lex-vaha|cat-pn|gen-any|num-sg|pers-3|case-o|vib-ne|tam-ne|chunkId-NP|chunkType-head|stype-|voicetype-	2	k1	_	_
2	kahA	kaha	VM	v	lex-kaha|cat-v|gen-m|num-sg|pers-any|case-|vib-yA|tam-yA|chunkId-VGF|chunkType-head|stype-declarative|voicetype-active	0	main	_	_
3	ki	ki	CC	avy	lex-ki|cat-avy|gen-|num-|pers-|case-|vib-|tam-|chunkId-CCP|chunkType-head|stype-|voicetype-	2	k2	_	_
4	AwaMkavAxa	AwaMkavAxa	NN	n	lex-AwaMkavAxa|cat-n|gen-m|num-sg|pers-3|case-d|vib-0|tam-0|chunkId-NP2|chunkType-head|stype-|voicetype-	7	k1	_	_
5	kAyarawApUrNa	kAyarawApUrNa	JJ	adj	lex-kAyarawApUrNa|cat-adj|gen-any|num-any|pers-|case-d|vib-|tam-|chunkId-JJP|chunkType-child|stype-|voicetype-	6	nmod__adj	_	_
6	kqwa	kqwa	JJ	adj	lex-kqwa|cat-adj|gen-any|num-any|pers-|case-d|vib-|tam-|chunkId-JJP|chunkType-head|stype-|voicetype-	7	k1s	_	_
7	hE	hE	VM	v	lex-hE|cat-v|gen-any|num-sg|pers-3|case-|vib-hE|tam-hE|chunkId-VGF2|chunkType-head|stype-declarative|voicetype-active	8	ccof	_	_
8	Ora	Ora	CC	avy	lex-Ora|cat-avy|gen-|num-|pers-|case-|vib-|tam-|chunkId-CCP2|chunkType-head|stype-|voicetype-	3	ccof	_	_
9	yaha	yaha	PRP	pn	lex-yaha|cat-pn|gen-any|num-sg|pers-3|case-d|vib-0|tam-0|chunkId-NP3|chunkType-head|stype-|voicetype-	11	k1	_	_
10	naPZarawa	naParawa	NN	n	lex-naParawa|cat-n|gen-f|num-sg|pers-3|case-d|vib-0|tam-0|chunkId-NP4|chunkType-head|stype-|voicetype-	11	k2	_	_
11	PElAwA	PElA	VM	v	lex-PElA|cat-v|gen-m|num-sg|pers-3|case-|vib-wA_hE|tam-wA|chunkId-VGF3|chunkType-head|stype-declarative|voicetype-active	8	ccof	_	_
12	hE	hE	VAUX	v	lex-hE|cat-v|gen-any|num-sg|pers-3|case-|vib-hE|tam-hE|chunkId-VGF3|chunkType-child|stype-|voicetype-	11	lwg__vaux	_	_
13	.	.	SYM	punc	lex-.|cat-punc|gen-|num-|pers-|case-|vib-|tam-|chunkId-BLK|chunkType-head|stype-|voicetype-	2	rsym	_	_

1	NULL	_	PRP	_	lex-_|cat-_|gen-|num-|pers-|case-|vib-|tam-|chunkId-NULL__NP|chunkType-head|stype-|voicetype-	3	k1	_	_
2	gOrawalaba	gOrawalaba	JJ	adj	lex-gOrawalaba|cat-adj|gen-any|num-any|pers-|case-|vib-|tam-|chunkId-JJP|chunkType-head|stype-|voicetype-	3	k1s	_	_
3	hE	hE	VM	v	lex-hE|cat-v|gen-any|num-sg|pers-3|case-|vib-hE|tam-hE|chunkId-VGF|chunkType-head|stype-declarative|voicetype-active	0	main	_	_
4	ki	ki	CC	avy	lex-ki|cat-avy|gen-|num-|pers-|case-|vib-|tam-|chunkId-CCP|chunkType-head|stype-|voicetype-	1	rs	_	_
5	bqhaspawivAra	bqhaspawivAra	NNP	n	lex-bqhaspawivAra|cat-n|gen-m|num-sg|pers-3|case-o|vib-0_ko|tam-0|chunkId-NP|chunkType-head|stype-|voicetype-	11	k7t	_	_
6	ko	ko	PSP	psp	lex-ko|cat-psp|gen-|num-|pers-|case-|vib-|tam-|chunkId-NP|chunkType-child|stype-|voicetype-	5	lwg__psp	_	_
7	laMxana	laMxana	NNP	n	lex-laMxana|cat-n|gen-m|num-sg|pers-3|case-o|vib-0_meM|tam-0|chunkId-NP2|chunkType-head|stype-|voicetype-	11	k7p	_	_
8	meM	meM	PSP	psp	lex-meM|cat-psp|gen-|num-|pers-|case-|vib-|tam-|chunkId-NP2|chunkType-child|stype-|voicetype-	7	lwg__psp	_	_
9	AwaMkI	AwaMkI	JJ	adj	lex-AwaMkI|cat-adj|gen-any|num-any|pers-|case-d|vib-|tam-|chunkId-NP3|chunkType-child|stype-|voicetype-	10	nmod__adj	_	_
10	hamalA	hamalA	NN	n	lex-hamalA|cat-n|gen-m|num-sg|pers-3|case-d|vib-0|tam-0|chunkId-NP3|chunkType-head|stype-|voicetype-	11	pof	_	_
11	huA	ho	VM	v	lex-ho|cat-v|gen-m|num-sg|pers-any|case-|vib-yA_WA|tam-yA|chunkId-VGF2|chunkType-head|stype-declarative|voicetype-active	4	ccof	_	_
12	WA	WA	VAUX	v	lex-WA|cat-v|gen-m|num-sg|pers-any|case-|vib-WA|tam-WA|chunkId-VGF2|chunkType-child|stype-|voicetype-	11	lwg__vaux	_	_
13	.	.	SYM	punc	lex-.|cat-punc|gen-|num-|pers-|case-|vib-|tam-|chunkId-BLK|chunkType-head|stype-|voicetype-	3	rsym	_	_

1	eka	eka	QC	num	lex-eka|cat-num|gen-any|num-any|pers-|case-o|vib-0_ke|tam-|chunkId-NP|chunkType-head|stype-|voicetype-	4	nmod	_	_
2	ke	ke	PSP	psp	lex-ke|cat-psp|gen-|num-|pers-|case-|vib-|tam-|chunkId-NP|chunkType-child|stype-|voicetype-	1	lwg__psp	_	_
3	bAxa	bAxa	NST	nst	lex-bAxa|cat-nst|gen-m|num-sg|pers-3|case-d|vib-|tam-|chunkId-NP|chunkType-child|stype-|voicetype-	1	lwg__psp	_	_
4	eka	eka	QC	num	lex-eka|cat-num|gen-any|num-any|pers-|case-any|vib-|tam-|chunkId-NP2|chunkType-head|stype-|voicetype-	6	nmod	_	_
5	kaI	kaI	QF	avy	lex-kaI|cat-avy|gen-|num-|pers-|case-|vib-|tam-|chunkId-NP3|chunkType-child|stype-|voicetype-	6	nmod__adj	_	_
6	visPotoM	visPota	NN	n	lex-visPota|cat-n|gen-m|num-pl|pers-3|case-o|vib-0_meM|tam-0|chunkId-NP3|chunkType-head|stype-|voicetype-	11	k7	_	_
7	meM	meM	PSP	psp	lex-meM|cat-psp|gen-|num-|pers-|case-|vib-|tam-|chunkId-NP3|chunkType-child|stype-|voicetype-	6	lwg__psp	_	_
8	yahAz	yahAz	PRP	pn	lex-yahAz|cat-pn|gen-|num-|pers-|case-d|vib-|tam-|chunkId-NP4|chunkType-head|stype-|voicetype-	11	k7p	_	_
9	50	50	QC	num	lex-50|cat-num|gen-any|num-any|pers-|case-any|vib-|tam-|chunkId-NP5|chunkType-child|stype-|voicetype-	10	nmod__adj	_	_
10	loga	loga	NN	n	lex-loga|cat-n|gen-m|num-pl|pers-3|case-d|vib-0|tam-0|chunkId-NP5|chunkType-head|stype-|voicetype-	11	k2	_	_
11	mAre	mAra	VM	v	lex-mAra|cat-v|gen-m|num-pl|pers-3|case-|vib-yA_jA+yA1_hE|tam-yA|chunkId-VGF|chunkType-head|stype-declarative|voicetype-passive	14	ccof	_	_
12	gae	jA	VAUX	v	lex-jA|cat-v|gen-m|num-pl|pers-any|case-|vib-yA1|tam-yA1|chunkId-VGF|chunkType-child|stype-|voicetype-	11	lwg__vaux	_	_
13	hEM	hE	VAUX	v	lex-hE|cat-v|gen-any|num-pl|pers-3|case-|vib-hE|tam-hE|chunkId-VGF|chunkType-child|stype-|voicetype-	11	lwg__vaux	_	_
14	Ora	Ora	CC	avy	lex-Ora|cat-avy|gen-|num-|pers-|case-|vib-|tam-|chunkId-CCP|chunkType-head|stype-|voicetype-	0	main	_	_
15	eka	eka	QCC	num	lex-eka|cat-num|gen-any|num-any|pers-|case-any|vib-0_ke|tam-|chunkId-NP6|chunkType-head|stype-|voicetype-	20	k7	_	_
16	hajAra	hajAra	QC	num	lex-hajAra|cat-num|gen-any|num-any|pers-|case-o|vib-|tam-|chunkId-NP6|chunkType-child|stype-|voicetype-	15	ccof	_	_
17	ke	ke	PSP	psp	lex-ke|cat-psp|gen-|num-|pers-|case-|vib-|tam-|chunkId-NP6|chunkType-child|stype-|voicetype-	15	lwg__psp	_	_
18	karIba	karIba	RP	avy	lex-karIba|cat-avy|gen-|num-|pers-|case-|vib-|tam-|chunkId-NP6|chunkType-child|stype-|voicetype-	15	ccof	_	_
19	GAyala	GAyala	JJ	adj	lex-GAyala|cat-adj|gen-any|num-any|pers-|case-|vib-|tam-|chunkId-JJP|chunkType-head|stype-|voicetype-	20	pof	_	_
20	hue	ho	VM	v	lex-ho|cat-v|gen-m|num-pl|pers-3|case-|vib-yA_hE|tam-yA|chunkId-VGF2|chunkType-head|stype-declarative|voicetype-active	14	ccof	_	_
21	hEM	hE	VAUX	v	lex-hE|cat-v|gen-any|num-pl|pers-3|case-|vib-hE|tam-hE|chunkId-VGF2|chunkType-child|stype-|voicetype-	20	lwg__vaux	_	_
22	.	.	SYM	punc	lex-.|cat-punc|gen-|num-|pers-|case-|vib-|tam-|chunkId-BLK|chunkType-head|stype-|voicetype-	14	rsym	_	_

1	isa	yaha	DEM	pn	lex-yaha|cat-pn|gen-any|num-sg|pers-3|case-o|vib-|tam-|chunkId-NP|chunkType-child|stype-|voicetype-	2	nmod__adj	_	_
2	GatanA	GatanA	NN	n	lex-GatanA|cat-n|gen-f|num-sg|pers-3|case-o|vib-0_para|tam-0|chunkId-NP|chunkType-head|stype-|voicetype-	5	k7	_	_
3	para	para	PSP	psp	lex-para|cat-psp|gen-|num-|pers-|case-|vib-|tam-|chunkId-NP|chunkType-child|stype-|voicetype-	2	lwg__psp	_	_
4	Soka	Soka	NN	n	lex-Soka|cat-n|gen-m|num-sg|pers-3|case-d|vib-0|tam-0|chunkId-NP2|chunkType-head|stype-|voicetype-	5	k2	_	_
5	jawAwe	jawA	VM	v	lex-jawA|cat-v|gen-m|num-sg|pers-3|case-|vib-wA_ho+yA|tam-wA|chunkId-VGNF|chunkType-head|stype-|voicetype-	9	vmod	_	_
6	hue	ho	VAUX	v	lex-ho|cat-v|gen-m|num-sg|pers-3|case-|vib-yA|tam-yA|chunkId-VGNF|chunkType-child|stype-|voicetype-	5	lwg__vaux	_	_
7	praXAnamaMwrI	praXAnamaMwrI	NNP	n	lex-praXAnamaMwrI|cat-n|gen-m|num-sg|pers-3|case-o|vib-0_ne|tam-0|chunkId-NP3|chunkType-head|stype-|voicetype-	9	k1	_	_
8	ne	ne	PSP	psp	lex-ne|cat-psp|gen-|num-|pers-|case-|vib-|tam-|chunkId-NP3|chunkType-child|stype-|voicetype-	7	lwg__psp	_	_
9	kahA	kaha	VM	v	lex-kaha|cat-v|gen-m|num-sg|pers-any|case-|vib-yA|tam-yA|chunkId-VGF|chunkType-head|stype-declarative|voicetype-active	0	main	_	_
10	ki	ki	CC	avy	lex-ki|cat-avy|gen-|num-|pers-|case-|vib-|tam-|chunkId-CCP|chunkType-head|stype-|voicetype-	9	k2	_	_
11	saMkata	saMkata	NN	n	lex-saMkata|cat-n|gen-m|num-sg|pers-3|case-o|vib-0_kA|tam-0|chunkId-NP4|chunkType-head|stype-|voicetype-	14	r6	_	_
12	kI	kA	PSP	psp	lex-kA|cat-psp|gen-f|num-sg|pers-|case-o|vib-|tam-|chunkId-NP4|chunkType-child|stype-|voicetype-	11	lwg__psp	_	_
13	isa	yaha	DEM	pn	lex-yaha|cat-pn|gen-any|num-sg|pers-3|case-o|vib-|tam-|chunkId-NP5|chunkType-child|stype-|voicetype-	14	nmod__adj	_	_
14	GadZI	GadZI	NN	n	lex-GadZI|cat-n|gen-f|num-sg|pers-3|case-o|vib-0_meM|tam-0|chunkId-NP5|chunkType-head|stype-|voicetype-	20	k7	_	_
15	meM	meM	PSP	psp	lex-meM|cat-psp|gen-|num-|pers-|case-|vib-|tam-|chunkId-NP5|chunkType-child|stype-|voicetype-	14	lwg__psp	_	_
16	BArawIya	BArawIya	NN	n	lex-BArawIya|cat-n|gen-m|num-pl|pers-3|case-d|vib-0|tam-0|chunkId-NP6|chunkType-head|stype-|voicetype-	20	k1	_	_
17	britena	britena	NNP	n	lex-britena|cat-n|gen-m|num-sg|pers-3|case-o|vib-0_ke_sAWa|tam-0|chunkId-NP7|chunkType-head|stype-|voicetype-	20	ras-k1	_	_
18	ke	ke	PSP	psp	lex-ke|cat-psp|gen-|num-|pers-|case-|vib-|tam-|chunkId-NP7|chunkType-child|stype-|voicetype-	17	lwg__psp	_	_
19	sAWa	sAWa	NST	nst	lex-sAWa|cat-nst|gen-m|num-sg|pers-3|case-d|vib-|tam-|chunkId-NP7|chunkType-child|stype-|voicetype-	17	lwg__psp	_	_
20	hEM	hE	VM	v	lex-hE|cat-v|gen-any|num-pl|pers-3|case-|vib-hE|tam-hE|chunkId-VGF2|chunkType-head|stype-declarative|voicetype-active	10	ccof	_	_
21	.	.	SYM	punc	lex-.|cat-punc|gen-|num-|pers-|case-|vib-|tam-|chunkId-BLK|chunkType-head|stype-|voicetype-	9	rsym	_	_

1	ayoXyA	ayoXyA	NNP	n	lex-ayoXyA|cat-n|gen-m|num-sg|pers-3|case-o|vib-0_meM|tam-0|chunkId-NP|chunkType-head|stype-|voicetype-	12	k7p	_	_
2	meM	meM	PSP	psp	lex-meM|cat-psp|gen-|num-|pers-|case-|vib-|tam-|chunkId-NP|chunkType-child|stype-|voicetype-	1	lwg__psp	_	_
3	AwaMkI	AwaMkI	JJ	adj	lex-AwaMkI|cat-adj|gen-any|num-any|pers-|case-o|vib-|tam-|chunkId-NP2|chunkType-child|stype-|voicetype-	4	nmod__adj	_	_
4	hamale	hamalA	NN	n	lex-hamalA|cat-n|gen-m|num-sg|pers-3|case-o|vib-0_kA|tam-0|chunkId-NP2|chunkType-head|stype-|voicetype-	6	r6-k2	_	_
5	kA	kA	PSP	psp	lex-kA|cat-psp|gen-m|num-sg|pers-|case-d|vib-|tam-|chunkId-NP2|chunkType-child|stype-|voicetype-	4	lwg__psp	_	_
6	jikra	jikra	NN	n	lex-jikra|cat-n|gen-m|num-sg|pers-3|case-d|vib-0|tam-0|chunkId-NP3|chunkType-head|stype-|voicetype-	7	pof	_	_
7	karawe	kara	VM	v	lex-kara|cat-v|gen-m|num-sg|pers-3|case-|vib-wA_ho+yA|tam-wA|chunkId-VGNF|chunkType-head|stype-|voicetype-	12	vmod	_	_
8	hue	ho	VAUX	v	lex-ho|cat-v|gen-m|num-sg|pers-3|case-|vib-yA|tam-yA|chunkId-VGNF|chunkType-child|stype-|voicetype-	7	lwg__vaux	_	_
9	manamohana	manamohana	NNPC	n	lex-manamohana|cat-n|gen-m|num-sg|pers-3|case-d|vib-0|tam-0|chunkId-NP4|chunkType-child|stype-|voicetype-	10	pof__cn	_	_
10	siMha	siMha	NNP	n	lex-siMha|cat-n|gen-m|num-sg|pers-3|case-o|vib-0_ne|tam-0|chunkId-NP4|chunkType-head|stype-|voicetype-	12	k1	_	_
11	ne	ne	PSP	psp	lex-ne|cat-psp|gen-|num-|pers-|case-|vib-|tam-|chunkId-NP4|chunkType-child|stype-|voicetype-	10	lwg__psp	_	_
12	kahA	kaha	VM	v	lex-kaha|cat-v|gen-m|num-sg|pers-any|case-|vib-yA|tam-yA|chunkId-VGF|chunkType-head|stype-declarative|voicetype-active	0	main	_	_
13	ki	ki	CC	avy	lex-ki|cat-avy|gen-|num-|pers-|case-|vib-|tam-|chunkId-CCP|chunkType-head|stype-|voicetype-	12	k2	_	_
14	AwaMkavAxa	AwaMkavAxa	NN	n	lex-AwaMkavAxa|cat-n|gen-m|num-sg|pers-3|case-d|vib-0|tam-0|chunkId-NP5|chunkType-head|stype-|voicetype-	22	k1	_	_
15	viSva	viSva	NN	n	lex-viSva|cat-n|gen-m|num-sg|pers-3|case-o|vib-0_kA|tam-0|chunkId-NP6|chunkType-head|stype-|voicetype-	18	r6	_	_
16	ke	kA	PSP	psp	lex-kA|cat-psp|gen-m|num-pl|pers-|case-o|vib-|tam-|chunkId-NP6|chunkType-child|stype-|voicetype-	15	lwg__psp	_	_
17	saBI	saBI	QF	avy	lex-saBI|cat-avy|gen-|num-|pers-|case-|vib-|tam-|chunkId-NP7|chunkType-child|stype-|voicetype-	18	nmod__adj	_	_
18	xeSoM	xeSa	NN	n	lex-xeSa|cat-n|gen-m|num-pl|pers-3|case-o|vib-0_ke_lie|tam-0|chunkId-NP7|chunkType-head|stype-|voicetype-	22	rt	_	_
19	ke	ke	PSP	psp	lex-ke|cat-psp|gen-|num-|pers-|case-|vib-|tam-|chunkId-NP7|chunkType-child|stype-|voicetype-	18	lwg__psp	_	_
20	lie	lie	PSP	psp	lex-lie|cat-psp|gen-|num-|pers-|case-|vib-|tam-|chunkId-NP7|chunkType-child|stype-|voicetype-	18	lwg__psp	_	_
21	KawarA	KawarA	NN	n	lex-KawarA|cat-n|gen-m|num-sg|pers-3|case-d|vib-0|tam-0|chunkId-NP8|chunkType-head|stype-|voicetype-	22	k2	_	_
22	bana	bana	VM	v	lex-bana|cat-v|gen-m|num-sg|pers-3|case-|vib-0_jA+yA1_hE|tam-0|chunkId-VGF2|chunkType-head|stype-declarative|voicetype-active	13	ccof	_	_
23	gayA	jA	VAUX	v	lex-jA|cat-v|gen-m|num-sg|pers-any|case-|vib-yA1|tam-yA1|chunkId-VGF2|chunkType-child|stype-|voicetype-	22	lwg__vaux	_	_
24	hE	hE	VAUX	v	lex-hE|cat-v|gen-any|num-sg|pers-3|case-|vib-hE|tam-hE|chunkId-VGF2|chunkType-child|stype-|voicetype-	22	lwg__vaux	_	_
25	.	.	SYM	punc	lex-.|cat-punc|gen-|num-|pers-|case-|vib-|tam-|chunkId-BLK|chunkType-head|stype-|voicetype-	12	rsym	_	_

1	yaha	yaha	PRP	pn	lex-yaha|cat-pn|gen-any|num-sg|pers-3|case-d|vib-0|tam-0|chunkId-NP|chunkType-head|stype-|voicetype-	9	k1	_	_
2	SAMwi	SAnwi	NN	n	lex-SAnwi|cat-n|gen-f|num-sg|pers-3|case-o|vib-0|tam-0|chunkId-NP2|chunkType-head|stype-|voicetype-	3	ccof	_	_
3	Ora	Ora	CC	avy	lex-Ora|cat-avy|gen-|num-|pers-|case-|vib-|tam-|chunkId-CCP|chunkType-head|stype-|voicetype-	9	k2	_	_
4	mAnavIyawA	mAnavIyawA	NN	n	lex-mAnavIyawA|cat-n|gen-f|num-sg|pers-3|case-o|vib-0_ko|tam-0|chunkId-NP3|chunkType-head|stype-|voicetype-	3	ccof	_	_
5	ko	ko	PSP	psp	lex-ko|cat-psp|gen-|num-|pers-|case-|vib-|tam-|chunkId-NP3|chunkType-child|stype-|voicetype-	4	lwg__psp	_	_
6	wahasa	wahasa	NNC	n	lex-wahasa|cat-n|gen-m|num-sg|pers-3|case-d|vib-0|tam-0|chunkId-NP4|chunkType-child|stype-|voicetype-	8	pof__cn	_	_
7	-	-	SYM	punc	lex--|cat-punc|gen-|num-|pers-|case-|vib-|tam-|chunkId-NP4|chunkType-child|stype-|voicetype-	8	pof__cn	_	_
8	nahasa	nahasa	NN	n	lex-nahasa|cat-n|gen-m|num-sg|pers-3|case-d|vib-0|tam-0|chunkId-NP4|chunkType-head|stype-|voicetype-	9	pof	_	_
9	kara	kara	VM	v	lex-kara|cat-v|gen-m|num-sg|pers-3|case-|vib-0_raha+yA_hE|tam-0|chunkId-VGF|chunkType-head|stype-declarative|voicetype-active	12	ccof	_	_
10	rahA	raha	VAUX	v	lex-raha|cat-v|gen-m|num-sg|pers-any|case-|vib-yA|tam-yA|chunkId-VGF|chunkType-child|stype-|voicetype-	9	lwg__vaux	_	_
11	hE	hE	VAUX	v	lex-hE|cat-v|gen-any|num-sg|pers-3|case-|vib-hE|tam-hE|chunkId-VGF|chunkType-child|stype-|voicetype-	9	lwg__vaux	_	_
12	Ora	Ora	CC	avy	lex-Ora|cat-avy|gen-|num-|pers-|case-|vib-|tam-|chunkId-CCP2|chunkType-head|stype-|voicetype-	0	main	_	_
13	hameM	hama	PRP	pn	lex-hama|cat-pn|gen-any|num-pl|pers-1|case-o|vib-ko|tam-ko|chunkId-NP5|chunkType-head|stype-|voicetype-	17	k1	_	_
14	isakA	yaha	PRP	pn	lex-yaha|cat-pn|gen-m|num-sg|pers-3|case-o|vib-kA|tam-kA|chunkId-NP6|chunkType-head|stype-|voicetype-	15	r6-k2	_	_
15	mukAbalA	mukAbalA	NN	n	lex-mukAbalA|cat-n|gen-m|num-sg|pers-3|case-d|vib-0|tam-0|chunkId-NP7|chunkType-head|stype-|voicetype-	17	pof	_	_
16	milakara	milakara	RB	adv	lex-milakara|cat-adv|gen-|num-|pers-|case-|vib-|tam-|chunkId-RBP|chunkType-head|stype-|voicetype-	17	vmod	_	_
17	karanA	kara	VM	v	lex-kara|cat-v|gen-m|num-any|pers-any|case-|vib-nA_cAhie|tam-nA|chunkId-VGF2|chunkType-head|stype-declarative|voicetype-active	12	ccof	_	_
18	cAhie	cAhie	VAUX	v	lex-cAhie|cat-v|gen-any|num-any|pers-any|case-|vib-0|tam-0|chunkId-VGF2|chunkType-child|stype-|voicetype-	17	lwg__vaux	_	_
19	.	.	SYM	punc	lex-.|cat-punc|gen-|num-|pers-|case-|vib-|tam-|chunkId-BLK|chunkType-head|stype-|voicetype-	12	rsym	_	_

1	uXara	uXara	NST	nst	lex-uXara|cat-nst|gen-m|num-sg|pers-3|case-d|vib-|tam-|chunkId-NP|chunkType-head|stype-|voicetype-	20	sent-adv	_	_
2	,	COMMA	SYM	punc	lex-COMMA|cat-punc|gen-|num-|pers-|case-|vib-|tam-|chunkId-NP|chunkType-child|stype-|voicetype-	1	rsym	_	_
3	OYksaPorda	OYksaPorda	NNPC	n	lex-OYksaPorda|cat-n|gen-m|num-sg|pers-3|case-d|vib-0|tam-0|chunkId-NP2|chunkType-child|stype-|voicetype-	4	pof__cn	_	_
4	viSvavixyAlaya	viSvavixyAlaya	NNP	n	lex-viSvavixyAlaya|cat-n|gen-m|num-sg|pers-3|case-o|vib-0_kA_ora_se|tam-0|chunkId-NP2|chunkType-head|stype-|voicetype-	20	rd	_	_
5	kI	kA	PSP	psp	lex-kA|cat-psp|gen-f|num-sg|pers-|case-o|vib-|tam-|chunkId-NP2|chunkType-child|stype-|voicetype-	4	lwg__psp	_	_
6	ora	ora	NST	nst	lex-ora|cat-nst|gen-f|num-sg|pers-3|case-o|vib-|tam-|chunkId-NP2|chunkType-child|stype-|voicetype-	4	lwg__psp	_	_
7	se	se	PSP	psp	lex-se|cat-psp|gen-|num-|pers-|case-|vib-|tam-|chunkId-NP2|chunkType-child|stype-|voicetype-	4	lwg__psp	_	_
8	Aja	Aja	NN	n	lex-Aja|cat-n|gen-m|num-sg|pers-3|case-d|vib-0|tam-0|chunkId-NP3|chunkType-head|stype-|voicetype-	20	k7t	_	_
9	manamohana	manamohana	NNPC	n	lex-manamohana|cat-n|gen-m|num-sg|pers-3|case-d|vib-0|tam-0|chunkId-NP4|chunkType-child|stype-|voicetype-	10	pof__cn	_	_
10	siMha	siMha	NNP	n	lex-siMha|cat-n|gen-m|num-sg|pers-3|case-o|vib-0_ko|tam-0|chunkId-NP4|chunkType-head|stype-|voicetype-	20	k4	_	_
11	ko	ko	PSP	psp	lex-ko|cat-psp|gen-|num-|pers-|case-|vib-|tam-|chunkId-NP4|chunkType-child|stype-|voicetype-	10	lwg__psp	_	_
12	nAgarika	nAgarika	NNPC	n	lex-nAgarika|cat-n|gen-m|num-sg|pers-3|case-d|vib-0|tam-0|chunkId-NP5|chunkType-child|stype-|voicetype-	13	pof__cn	_	_
13	kAnUna	kAnUna	NNP	n	lex-kAnUna|cat-n|gen-m|num-sg|pers-3|case-o|vib-0_meM|tam-0|chunkId-NP5|chunkType-head|stype-|voicetype-	20	k7	_	_
14	meM	meM	PSP	psp	lex-meM|cat-psp|gen-|num-|pers-|case-|vib-|tam-|chunkId-NP5|chunkType-child|stype-|voicetype-	13	lwg__psp	_	_
15	dOYktareta	dOYktareta	NN	n	lex-dOYktareta|cat-n|gen-f|num-sg|pers-3|case-o|vib-0_kA|tam-0|chunkId-NP6|chunkType-head|stype-|voicetype-	18	r6	_	_
16	kI	kA	PSP	psp	lex-kA|cat-psp|gen-f|num-sg|pers-|case-d|vib-|tam-|chunkId-NP6|chunkType-child|stype-|voicetype-	15	lwg__psp	_	_
17	mAnaxa	mAnaxa	NNC	adj	lex-mAnaxa|cat-adj|gen-any|num-any|pers-|case-d|vib-|tam-|chunkId-NP7|chunkType-child|stype-|voicetype-	18	pof__cn	_	_
18	upAXi	upAXi	NN	n	lex-upAXi|cat-n|gen-f|num-sg|pers-3|case-d|vib-0|tam-0|chunkId-NP7|chunkType-head|stype-|voicetype-	20	k2	_	_
19	praxAna	praxAna	NN	n	lex-praxAna|cat-n|gen-m|num-sg|pers-3|case-d|vib-0|tam-0|chunkId-NP8|chunkType-head|stype-|voicetype-	20	pof	_	_
20	kI	kara	VM	v	lex-kara|cat-v|gen-f|num-sg|pers-any|case-|vib-yA_jA+yA1|tam-yA|chunkId-VGF|chunkType-head|stype-declarative|voicetype-active	0	main	_	_
21	gaI	jA	VAUX	v	lex-jA|cat-v|gen-f|num-sg|pers-any|case-|vib-yA1|tam-yA1|chunkId-VGF|chunkType-child|stype-|voicetype-	20	lwg__vaux	_	_
22	.	.	SYM	punc	lex-.|cat-punc|gen-|num-|pers-|case-|vib-|tam-|chunkId-BLK|chunkType-head|stype-|voicetype-	20	rsym	_	_

1	siMha	siMha	NNP	n	lex-siMha|cat-n|gen-m|num-sg|pers-3|case-d|vib-0|tam-0|chunkId-NP|chunkType-head|stype-|voicetype-	8	k1	_	_
2	pAMca	pAMca	QC	num	lex-pAMca|cat-num|gen-any|num-any|pers-|case-any|vib-|tam-|chunkId-NP2|chunkType-child|stype-|voicetype-	3	nmod__adj	_	_
3	xaSaka	xaSaka	NN	n	lex-xaSaka|cat-n|gen-m|num-sg|pers-3|case-d|vib-0_pUrva|tam-0|chunkId-NP2|chunkType-head|stype-|voicetype-	8	k7t	_	_
4	pUrva	pUrva	NST	nst	lex-pUrva|cat-nst|gen-m|num-sg|pers-3|case-d|vib-|tam-|chunkId-NP2|chunkType-child|stype-|voicetype-	3	lwg__psp	_	_
5	viSvavixyAlaya	viSvavixyAlaya	NN	n	lex-viSvavixyAlaya|cat-n|gen-m|num-sg|pers-3|case-o|vib-0_kA|tam-0|chunkId-NP3|chunkType-head|stype-|voicetype-	7	r6	_	_
6	ke	kA	PSP	psp	lex-kA|cat-psp|gen-m|num-sg|pers-3h|case-d|vib-|tam-|chunkId-NP3|chunkType-child|stype-|voicetype-	5	lwg__psp	_	_
7	CAwra	CAwra	NN	n	lex-CAwra|cat-n|gen-m|num-sg|pers-3|case-d|vib-0|tam-0|chunkId-NP4|chunkType-head|stype-|voicetype-	8	k1s	_	_
8	rahe	raha	VM	v	lex-raha|cat-v|gen-m|num-sg|pers-3h|case-|vib-yA_WA|tam-yA|chunkId-VGF|chunkType-head|stype-declarative|voicetype-active	0	main	_	_
9	We	WA	VAUX	v	lex-WA|cat-v|gen-m|num-sg|pers-3h|case-|vib-WA|tam-WA|chunkId-VGF|chunkType-child|stype-|voicetype-	8	lwg__vaux	_	_
10	.	.	SYM	punc	lex-.|cat-punc|gen-|num-|pers-|case-|vib-|tam-|chunkId-BLK|chunkType-head|stype-|voicetype-	8	rsym	_	_

1	siMha	siMha	NNP	n	lex-siMha|cat-n|gen-m|num-sg|pers-3|case-o|vib-0_ne|tam-0|chunkId-NP|chunkType-head|stype-|voicetype-	17	k1	_	_
2	ne	ne	PSP	psp	lex-ne|cat-psp|gen-|num-|pers-|case-|vib-|tam-|chunkId-NP|chunkType-child|stype-|voicetype-	1	lwg__psp	_	_
3	1957	1957	NNP	n	lex-1957|cat-n|gen-any|num-sg|pers-3|case-o|vib-0_meM|tam-0|chunkId-NP2|chunkType-head|stype-|voicetype-	17	k7t	_	_
4	meM	meM	PSP	psp	lex-meM|cat-psp|gen-|num-|pers-|case-|vib-|tam-|chunkId-NP2|chunkType-child|stype-|voicetype-	3	lwg__psp	_	_
5	viSvavixyAlaya	viSvavixyAlaya	NN	n	lex-viSvavixyAlaya|cat-n|gen-m|num-sg|pers-3|case-o|vib-0_kA|tam-0|chunkId-NP3|chunkType-head|stype-|voicetype-	8	r6	_	_
6	ke	kA	PSP	psp	lex-kA|cat-psp|gen-m|num-sg|pers-|case-o|vib-|tam-|chunkId-NP3|chunkType-child|stype-|voicetype-	5	lwg__psp	_	_
7	naPIlda	naPIlda	NNPC	n	lex-naPIlda|cat-n|gen-m|num-sg|pers-3|case-d|vib-0|tam-0|chunkId-NP4|chunkType-child|stype-|voicetype-	8	pof__cn	_	_
8	kOYleja	kOYleja	NNP	n	lex-kOYleja|cat-n|gen-m|num-sg|pers-3|case-o|vib-0_se|tam-0|chunkId-NP4|chunkType-head|stype-|voicetype-	17	k5	_	_
9	se	se	PSP	psp	lex-se|cat-psp|gen-|num-|pers-|case-|vib-|tam-|chunkId-NP4|chunkType-child|stype-|voicetype-	8	lwg__psp	_	_
10	arWaSAswra	arWaSAswra	NNP	n	lex-arWaSAswra|cat-n|gen-m|num-sg|pers-3|case-o|vib-0_meM|tam-0|chunkId-NP5|chunkType-head|stype-|voicetype-	17	k7	_	_
11	meM	meM	PSP	psp	lex-meM|cat-psp|gen-|num-|pers-|case-|vib-|tam-|chunkId-NP5|chunkType-child|stype-|voicetype-	10	lwg__psp	_	_
12	dI.	dI.	NNPC	n	lex-dI.|cat-n|gen-m|num-sg|pers-3|case-d|vib-0|tam-0|chunkId-NP6|chunkType-child|stype-|voicetype-	13	pof__cn	_	_
13	Pila.	Pila.	NNP	n	lex-Pila.|cat-n|gen-m|num-sg|pers-3|case-o|vib-0_kA|tam-0|chunkId-NP6|chunkType-head|stype-|voicetype-	15	r6	_	_
14	kI	kA	PSP	psp	lex-kA|cat-psp|gen-f|num-sg|pers-|case-d|vib-|tam-|chunkId-NP6|chunkType-child|stype-|voicetype-	13	lwg__psp	_	_
15	digrI	digrI	NN	n	lex-digrI|cat-n|gen-f|num-sg|pers-3|case-d|vib-0|tam-0|chunkId-NP7|chunkType-head|stype-|voicetype-	17	k2	_	_
16	hAsila	hAsila	JJ	adj	lex-hAsila|cat-adj|gen-any|num-any|pers-|case-|vib-|tam-|chunkId-JJP|chunkType-head|stype-|voicetype-	17	pof	_	_
17	kI	kara	VM	v	lex-kara|cat-v|gen-f|num-sg|pers-any|case-|vib-yA_WA|tam-yA|chunkId-VGF|chunkType-head|stype-declarative|voicetype-active	0	main	_	_
18	WI	WA	VAUX	v	lex-WA|cat-v|gen-f|num-sg|pers-any|case-|vib-WA|tam-WA|chunkId-VGF|chunkType-child|stype-|voicetype-	17	lwg__vaux	_	_
19	.	.	SYM	punc	lex-.|cat-punc|gen-|num-|pers-|case-|vib-|tam-|chunkId-BLK|chunkType-head|stype-|voicetype-	17	rsym	_	_

