<document id="1070829029_1.htm.utf8.cml.V.tkn">
<head>
<title></title>			
<caption></caption>			
<language>Hindi </language>			
<author>			
<firstname></firstname>			
<middlename></middlename>			
<lastname></lastname>			
</author>			
<creation>			
<raw_corpus creation_date="" institute_name=""></raw_corpus>			
<annotated_corpus creation_date="08/23/2010" institute_name="IIIT-Hyderabad"></annotated_corpus>			
</creation>			
<domain_name>News Articles </domain_name>			
<distributor>LTRC, IIIT Hyderabad</distributor>			
<source>ISI, Kolkata</source>			
<publication>			
<place>New Delhi</place>			
<date>99/99/9999</date>			
<address>Connaught Place, New Delhi</address>			
<type>Newspaper</type>			
<publisher>			
<name>Amar Ujala</name>			
<url>http://www.amarujala.com</url>			
</publisher>			
</publication>			
<project_description>NSF Hindi/Urdu Dependency Treebanking Project</project_description>			
<availability>			
<format>CML/SSF</format>			
</availability>			
<byte_count>9031</byte_count>			
<word_count>347</word_count>			
<edition_number>1.0</edition_number>			
<encoding_description>			
<original_encoding>ISO 8859</original_encoding>			
<new_encoding>Unicode UTF8</new_encoding>			
</encoding_description>			
<bibliography></bibliography>			
<sentence_marker>.</sentence_marker>			
<normalization>No</normalization>			
<utility_name>cml_tags</utility_name>			
			

</head>
<body>
<tb number="1" segment="no" bullet="no">
<foreign language="select" writingsystem="LTR"> </foreign>			
<text>
<Sentence id="1">
1	mahArANA	NNPC	<fs af='mahArANA,n,m,sg,3,d,0,0' posn='10' drel='pof__cn:prawApa' chunkType='child:NP' name='mahArANA'>
2	prawApa	NNP	<fs af='prawApa,n,m,sg,3,o,0_kA,0' drel='r6:SOrya' posn='20' vpos='vib_3' name='prawApa' chunkId='NP' chunkType='head:NP'>
3	kA	PSP	<fs af='kA,psp,m,sg,,d,,' posn='30' drel='lwg__psp:prawApa' chunkType='child:NP' name='kA'>
4	SOrya	NN	<fs af='SOrya,n,m,sg,3,d,0,0' drel='ccof:Ora' posn='40' name='SOrya' chunkId='NP2' chunkType='head:NP2'>
5	,	SYM	<fs af='COMMA,punc,,,,,,' posn='50' drel='rsym:SOrya' chunkType='child:NP2' name=','>
6	rAnI	NNC	<fs af='rAnI,n,f,sg,3,d,0,0' posn='60' drel='pof__cn:paxminI' chunkType='child:NP3' name='rAnI'>
7	paxminI	NNP	<fs af='paxminI,n,f,sg,3,o,0_kA,0' drel='r6:sOMxarya' posn='70' vpos='vib_3' name='paxminI' chunkId='NP3' chunkType='head:NP3'>
8	kA	PSP	<fs af='kA,psp,m,sg,,d,,' posn='80' drel='lwg__psp:paxminI' chunkType='child:NP3' name='kA2'>
9	sOMxarya	NN	<fs af='sOMxarya,n,m,sg,3,d,0,0' drel='ccof:Ora' posn='90' name='sOMxarya' chunkId='NP4' chunkType='head:NP4'>
10	Ora	CC	<fs af='Ora,avy,,,,,,' drel='rs:wInoM' posn='100' name='Ora' chunkId='CCP' chunkType='head:CCP'>
11	kqR‍Na	NNP	<fs af='kqR‍Na,n,m,sg,3,o,0_kA,0' drel='r6:xIvAnI' posn='110' vpos='vib_2' name='kqR‍Na' chunkId='NP5' chunkType='head:NP5'>
12	kI	PSP	<fs af='kA,psp,f,sg,,o,,' posn='120' drel='lwg__psp:kqR‍Na' chunkType='child:NP5' name='kI'>
13	xIvAnI	NN	<fs af='xIvAnI,n,f,sg,3,o,0,0' drel='nmod:mIrA' posn='130' name='xIvAnI' chunkId='NP6' chunkType='head:NP6'>
14	mIrA	NNP	<fs af='mIrA,n,f,sg,3,o,0_kA,0' drel='r6:Bakwi' posn='140' vpos='vib_2' name='mIrA' chunkId='NP7' chunkType='head:NP7'>
15	kI	PSP	<fs af='kA,psp,f,sg,,d,,' posn='150' drel='lwg__psp:mIrA' chunkType='child:NP7' name='kI2'>
16	Bakwi	NN	<fs af='Bakwi,n,f,sg,3,d,0,0' drel='ccof:Ora' posn='160' name='Bakwi' chunkId='NP8' chunkType='head:NP8'>
17	wInoM	QC	<fs af='wIna,num,any,pl,,o,0_meM,' drel='k7:hE' posn='170' vpos='2' name='wInoM' chunkId='NP9' chunkType='head:NP9'>
18	meM	PSP	<fs af='meM,psp,,,,,,' posn='180' drel='lwg__psp:wInoM' chunkType='child:NP9' name='meM'>
19	kOna	WQ	<fs af='kOna,pn,,,,,,' posn='190' drel='mod__wq:samAnawA' chunkType='child:NP10' name='kOna'>
20	-	SYM	<fs af='-,punc,,,,,,' posn='200' drel='rsym:samAnawA' chunkType='child:NP10' name='-'>
21	sI	RP	<fs af='sA,avy,f,sg,,d,,' posn='210' drel='lwg__rp:samAnawA' chunkType='child:NP10' name='sI'>
22	samAnawA	NN	<fs af='samAnawA,n,f,sg,3,d,0,0' drel='k1:hE' posn='220' name='samAnawA' chunkId='NP10' chunkType='head:NP10'>
23	hE	VM	<fs af='hE,v,any,sg,3,,hE,hE' stype='interrogative' posn='230' voicetype='active' name='hE' chunkId='VGF' chunkType='head:VGF'>
24	?	SYM	<fs af='?,punc,,,,,,' drel='rsym:hE' posn='240' name='?' chunkId='BLK' chunkType='head:BLK'>
</Sentence>


<Sentence id="2">
1	Apa	PRP	<fs af='Apa,pn,any,sg,2h,d,0,0' drel='k1:soca' posn='10' name='Apa' chunkId='NP' chunkType='head:NP'>
2	soca	VM	<fs af='soca,v,any,sg,2h,,0_raha+yA_ho+gA,0' stype='declarative' posn='20' voicetype='active' vpos='tam_2_3' name='soca' chunkId='VGF' chunkType='head:VGF'>
3	rahe	VAUX	<fs af='raha,v,any,sg,2h,,yA,yA' posn='30' drel='lwg__vaux:soca' chunkType='child:VGF' name='rahe'>
4	hoMge	VAUX	<fs af='ho,v,m,sg,2h,,gA,gA' posn='40' drel='lwg__vaux:soca' chunkType='child:VGF' name='hoMge'>
5	ki	CC	<fs af='ki,avy,,,,,,' drel='k2:soca' posn='50' name='ki' chunkId='CCP' chunkType='head:CCP'>
6	mIrA	NNP	<fs af='mIrA,n,f,sg,3,d,0,0' drel='ccof:Ora' posn='60' name='mIrA' chunkId='NP2' chunkType='head:NP2'>
7	,	SYM	<fs af='COMMA,punc,,,,,,' posn='70' drel='rsym:mIrA' chunkType='child:NP2' name=','>
8	paxminI	NNP	<fs af='paxminI,n,f,sg,3,d,0,0' drel='ccof:Ora' posn='80' name='paxminI' chunkId='NP3' chunkType='head:NP3'>
9	Ora	CC	<fs af='Ora,avy,,,,,,' drel='k7:ho' posn='90' name='Ora' chunkId='CCP2' chunkType='head:CCP2'>
10	mahArANA	NNPC	<fs af='mahArANA,n,m,sg,3,d,0,0' posn='100' drel='pof__cn:prawApa' chunkType='child:NP4' name='mahArANA'>
11	prawApa	NNP	<fs af='prawApa,n,m,sg,3,o,0_meM,0' drel='ccof:Ora' posn='110' vpos='vib_3' name='prawApa' chunkId='NP4' chunkType='head:NP4'>
12	meM	PSP	<fs af='meM,psp,,,,,,' posn='120' drel='lwg__psp:prawApa' chunkType='child:NP4' name='meM'>
13	k‍yA	WQ	<fs af='k‍yA,pn,,,,,,' posn='130' drel='mod__wq:samAnawA' chunkType='child:NP5' name='k‍yA'>
14	samAnawA	NN	<fs af='samAnawA,n,f,sg,3,d,0,0' drel='k1:ho' posn='140' name='samAnawA' chunkId='NP5' chunkType='head:NP5'>
15	ho	VM	<fs af='ho,v,f,sg,3,,0_saka+wA_hE,0' drel='ccof:ki' stype='interrogative' posn='150' voicetype='active' vpos='tam_2_3' name='ho' chunkId='VGF2' chunkType='head:VGF2'>
16	sakawI	VAUX	<fs af='saka,v,f,sg,any,,wA,wA' posn='160' drel='lwg__vaux:ho' chunkType='child:VGF2' name='sakawI'>
17	hE	VAUX	<fs af='hE,v,any,sg,3,,hE,hE' posn='170' drel='lwg__vaux:ho' chunkType='child:VGF2' name='hE'>
18	?	SYM	<fs af='?,punc,,,,,,' drel='rsym:soca' posn='180' name='?' chunkId='BLK' chunkType='head:BLK'>
</Sentence>


<Sentence id="3">
1	ina	DEM	<fs af='yaha,pn,any,pl,3,o,,' posn='10' drel='nmod__adj:wInoM' chunkType='child:NP' name='ina'>
2	wInoM	NN	<fs af='wIna,n,any,pl,any,o,0_kA,0' drel='r6:saMbaMXa' posn='20' vpos='vib_3' name='wInoM' chunkId='NP' chunkType='head:NP'>
3	kA	PSP	<fs af='kA,psp,m,sg,,d,,' posn='30' drel='lwg__psp:wInoM' chunkType='child:NP' name='kA'>
4	saMbaMXa	NN	<fs af='saMbaMXa,n,m,sg,3,d,0,0' drel='k1:hE' posn='40' name='saMbaMXa' chunkId='NP2' chunkType='head:NP2'>
5	rAjas‍WAna	NNP	<fs af='rAjas‍WAna,n,m,sg,3,o,0_kA,0' drel='r6:ciw‍wOdZa' posn='50' vpos='vib_2' name='rAjas‍WAna' chunkId='NP3' chunkType='head:NP3'>
6	ke	PSP	<fs af='kA,psp,m,sg,,o,,' posn='60' drel='lwg__psp:rAjas‍WAna' chunkType='child:NP3' name='ke'>
7	ciw‍wOdZa	NNP	<fs af='ciw‍wOdZa,n,m,sg,3,o,0_se,0' drel='ras-k1:hE' posn='70' vpos='vib_2' name='ciw‍wOdZa' chunkId='NP4' chunkType='head:NP4'>
8	se	PSP	<fs af='se,psp,,,,,,' posn='80' drel='lwg__psp:ciw‍wOdZa' chunkType='child:NP4' name='se'>
9	hE	VM	<fs af='hE,v,any,sg,3,,hE,hE' drel='ccof:Ora' stype='declarative' posn='90' voicetype='active' name='hE' chunkId='VGF' chunkType='head:VGF'>
10	Ora	CC	<fs af='Ora,avy,,,,,,' posn='100' name='Ora' chunkId='CCP' chunkType='head:CCP'>
11	ye	DEM	<fs af='yaha,pn,any,pl,3,d,,' posn='110' drel='nmod__adj:wInoM2' chunkType='child:NP5' name='ye'>
12	wInoM	NN	<fs af='wIna,n,any,pl,any,d,0,0' drel='k1:karawe' posn='120' name='wInoM2' chunkId='NP5' chunkType='head:NP5'>
13	ciw‍wOdZa	NNP	<fs af='ciw‍wOdZa,n,m,sg,3,o,0_kA,0' drel='r6:kile' posn='130' vpos='vib_2' name='ciw‍wOdZa2' chunkId='NP6' chunkType='head:NP6'>
14	ke	PSP	<fs af='kA,psp,m,sg,,o,,' posn='140' drel='lwg__psp:ciw‍wOdZa2' chunkType='child:NP6' name='ke2'>
15	kile	NN	<fs af='kilA,n,m,sg,3,o,0_meM,0' drel='k7p:karawe' posn='150' vpos='vib_2' name='kile' chunkId='NP7' chunkType='head:NP7'>
16	meM	PSP	<fs af='meM,psp,,,,,,' posn='160' drel='lwg__psp:kile' chunkType='child:NP7' name='meM'>
17	nivAsa	NN	<fs af='nivAsa,n,m,sg,3,d,0,0' drel='pof:karawe' posn='170' name='nivAsa' chunkId='NP8' chunkType='head:NP8'>
18	karawe	VM	<fs af='kara,v,m,pl,any,,wA_WA,wA' drel='ccof:Ora' stype='declarative' posn='180' voicetype='active' vpos='tam_2' name='karawe' chunkId='VGF2' chunkType='head:VGF2'>
19	We	VAUX	<fs af='WA,v,m,pl,any,,WA,WA' posn='190' drel='lwg__vaux:karawe' chunkType='child:VGF2' name='We'>
20	.	SYM	<fs af='.,punc,,,,,,' drel='rsym:Ora' posn='200' name='.' chunkId='BLK' chunkType='head:BLK'>
</Sentence>


<Sentence id="4">
1	mahArANA	NNPC	<fs af='mahArANA,n,m,sg,3,d,0,0' posn='10' drel='pof__cn:prawApa' chunkType='child:NP' name='mahArANA'>
2	prawApa	NNP	<fs af='prawApa,n,m,sg,3,d,0,0' drel='k1:NULL' posn='20' name='prawApa' chunkId='NP' chunkType='head:NP'>
3	Aja	NN	<fs af='Aja,n,m,sg,3,d,0,0' drel='k7t:NULL' posn='30' name='Aja' chunkId='NP2' chunkType='head:NP2'>
4	vIragAWAoM	NN	<fs af='vIragAWA,n,f,pl,3,o,0_meM,0' drel='k7:NULL' posn='40' vpos='vib_2' name='vIragAWAoM' chunkId='NP3' chunkType='head:NP3'>
5	meM	PSP	<fs af='meM,psp,,,,,,' posn='50' drel='lwg__psp:vIragAWAoM' chunkType='child:NP3' name='meM'>
6	,	SYM	<fs af='COMMA,punc,,,,,,' posn='60' drel='rsym:vIragAWAoM' chunkType='child:NP3' name=','>
7	NULL	VM	<fs dmrel='ccof:Ora' mtype='gap' troot='hE' voicetype='active' stype='declarative' name='NULL' chunkId='NULL__VGF' chunkType='head:NULL__VGF'>
8	paxminI	NNP	<fs af='paxminI,n,f,sg,3,d,0,0' drel='k1:NULL2' posn='70' name='paxminI' chunkId='NP4' chunkType='head:NP4'>
9	kaviwAoM	NN	<fs af='kaviwA,n,f,pl,3,o,0_meM,0' drel='k7:NULL2' posn='80' vpos='vib_2' name='kaviwAoM' chunkId='NP5' chunkType='head:NP5'>
10	meM	PSP	<fs af='meM,psp,,,,,,' posn='90' drel='lwg__psp:kaviwAoM' chunkType='child:NP5' name='meM2'>
11	NULL	VM	<fs dmrel='ccof:Ora' mtype='gap' troot='hE' voicetype='active' stype='declarative' name='NULL2' chunkId='NULL__VGF2' chunkType='head:NULL__VGF2'>
12	Ora	CC	<fs af='Ora,avy,,,,,,' posn='100' name='Ora' chunkId='CCP' chunkType='head:CCP'>
13	mIrA	NNP	<fs af='mIrA,n,f,sg,3,d,0,0' drel='k1:hEM' posn='110' name='mIrA' chunkId='NP6' chunkType='head:NP6'>
14	apane	PRP	<fs af='apanA,pn,m,any,any,o,0,0' drel='r6:BajanoM' posn='120' name='apane' chunkId='NP7' chunkType='head:NP7'>
15	BajanoM	NN	<fs af='Bajana,n,m,pl,3,o,0_meM,0' drel='k7:hEM' posn='130' vpos='vib_2' name='BajanoM' chunkId='NP8' chunkType='head:NP8'>
16	meM	PSP	<fs af='meM,psp,,,,,,' posn='140' drel='lwg__psp:BajanoM' chunkType='child:NP8' name='meM3'>
17	jIviwa	JJ	<fs af='jIviwa,adj,any,any,,,,' drel='k1s:hEM' posn='150' name='jIviwa' chunkId='JJP' chunkType='head:JJP'>
18	hEM	VM	<fs af='hE,v,any,pl,3,,hE,hE' drel='ccof:Ora' stype='declarative' posn='160' voicetype='active' name='hEM' chunkId='VGF' chunkType='head:VGF'>
19	.	SYM	<fs af='.,punc,,,,,,' drel='rsym:Ora' posn='170' name='.' chunkId='BLK' chunkType='head:BLK'>
</Sentence>


<Sentence id="5">
1	kaBI	PRP	<fs af='kaBI,pn,,,,,,' drel='k7t:rahA' posn='10' name='kaBI' chunkId='NP' chunkType='head:NP'>
2	ina	DEM	<fs af='yaha,pn,any,pl,3,o,,' posn='20' drel='nmod__adj:wInoM' chunkType='child:NP2' name='ina'>
3	wInoM	NN	<fs af='wIna,n,any,pl,any,o,0_kA,0' drel='r6:nivAsas‍Wala' posn='30' vpos='vib_3' name='wInoM' chunkId='NP2' chunkType='head:NP2'>
4	kA	PSP	<fs af='kA,psp,m,sg,,d,,' posn='40' drel='lwg__psp:wInoM' chunkType='child:NP2' name='kA'>
5	nivAsas‍Wala	NN	<fs af='nivAsas‍Wala,n,m,sg,3,d,0,0' drel='k7p:rahA' posn='50' name='nivAsas‍Wala' chunkId='NP3' chunkType='head:NP3'>
6	rahA	VM	<fs af='raha,v,m,sg,any,,yA,yA' drel='nmod__k1inv:kilA' posn='60' name='rahA' chunkId='VGNF' chunkType='head:VGNF'>
7	ciw‍wOdagaDZa	NNP	<fs af='ciw‍wOdagaDZa,n,m,sg,3,o,0_kA,0' drel='r6:kilA' posn='70' vpos='vib_2' name='ciw‍wOdagaDZa' chunkId='NP4' chunkType='head:NP4'>
8	kA	PSP	<fs af='kA,psp,m,sg,,d,,' posn='80' drel='lwg__psp:ciw‍wOdagaDZa' chunkType='child:NP4' name='kA2'>
9	kilA	NN	<fs af='kilA,n,m,sg,3,d,0,0' drel='k1:hE' posn='90' name='kilA' chunkId='NP5' chunkType='head:NP5'>
10	Aja	NN	<fs af='Aja,n,m,sg,3,d,0,0' drel='k7t:hE' posn='100' name='Aja' chunkId='NP6' chunkType='head:NP6'>
11	BI	RP	<fs af='BI,avy,,,,,,' posn='110' drel='lwg__rp:Aja' chunkType='child:NP6' name='BI'>
12	ina	DEM	<fs af='yaha,pn,any,pl,3,o,,' posn='120' drel='nmod__adj:saBI' chunkType='child:NP7' name='ina2'>
13	saBI	PRP	<fs af='saBI,pn,any,pl,any,o,0_kA,0' drel='r6:s‍mqwiyoM' posn='130' vpos='vib_3' name='saBI' chunkId='NP7' chunkType='head:NP7'>
14	kI	PSP	<fs af='kA,psp,f,pl,,o,,' posn='140' drel='lwg__psp:saBI' chunkType='child:NP7' name='kI'>
15	s‍mqwiyoM	NN	<fs af='s‍mqwi,n,f,pl,3,o,0_ko,0' drel='k2:saMjoe' posn='150' vpos='vib_2' name='s‍mqwiyoM' chunkId='NP8' chunkType='head:NP8'>
16	ko	PSP	<fs af='ko,psp,,,,,,' posn='160' drel='lwg__psp:s‍mqwiyoM' chunkType='child:NP8' name='ko'>
17	saMjoe	VM	<fs af='saMjo,v,any,sg,3,,yA,yA' drel='vmod:hE' posn='170' name='saMjoe' chunkId='VGNF2' chunkType='head:VGNF2'>
18	pUrI	JJ	<fs af='pUrA,adj,f,sg,,o,,' posn='180' drel='nmod__adj:SAna' chunkType='child:NP9' name='pUrI'>
19	SAna	NN	<fs af='SAna,n,f,sg,3,o,0_se,0' drel='adv:hE' posn='190' vpos='vib_3' name='SAna' chunkId='NP9' chunkType='head:NP9'>
20	se	PSP	<fs af='se,psp,,,,,,' posn='200' drel='lwg__psp:SAna' chunkType='child:NP9' name='se'>
21	KadZA	JJ	<fs af='KadA,adj,m,sg,,,,' drel='k1s:hE' posn='210' name='KadZA' chunkId='JJP' chunkType='head:JJP'>
22	hE	VM	<fs af='hE,v,any,sg,3,,hE,hE' stype='declarative' posn='220' voicetype='active' name='hE' chunkId='VGF' chunkType='head:VGF'>
23	.	SYM	<fs af='.,punc,,,,,,' drel='rsym:hE' posn='230' name='.' chunkId='BLK' chunkType='head:BLK'>
</Sentence>


<Sentence id="6">
1	vak‍wa	NN	<fs af='vak‍wa,n,m,sg,3,o,0_kA,0' drel='r6:XUla' posn='10' vpos='vib_2' name='vak‍wa' chunkId='NP' chunkType='head:NP'>
2	kI	PSP	<fs af='kA,psp,f,sg,,o,,' posn='20' drel='lwg__psp:vak‍wa' chunkType='child:NP' name='kI'>
3	XUla	NN	<fs af='XUla,n,f,sg,3,o,0_ne,0' drel='k1:kara' posn='30' vpos='vib_2' name='XUla' chunkId='NP2' chunkType='head:NP2'>
4	ne	PSP	<fs af='ne,psp,,,,,,' posn='40' drel='lwg__psp:XUla' chunkType='child:NP2' name='ne'>
5	isakI	PRP	<fs af='yaha,pn,f,sg,3,o,kA,kA' drel='r6:camaka' posn='50' name='isakI' chunkId='NP3' chunkType='head:NP3'>
6	camaka	NN	<fs af='camaka,n,f,sg,3,o,0_ko,0' drel='k2:kara' posn='60' vpos='vib_2' name='camaka' chunkId='NP4' chunkType='head:NP4'>
7	ko	PSP	<fs af='ko,psp,,,,,,' posn='70' drel='lwg__psp:camaka' chunkType='child:NP4' name='ko'>
8	kuCa	QF	<fs af='kuCa,avy,,,,,,' posn='80' drel='nmod__adj:PIkA' chunkType='child:JJP' name='kuCa'>
9	PIkA	JJ	<fs af='PIkA,adj,m,sg,,,,' drel='pof:kara' posn='90' name='PIkA' chunkId='JJP' chunkType='head:JJP'>
10	Bale	RP	<fs af='Bale,avy,,,,,,' drel='vmod:kara' posn='100' name='Bale' chunkId='BLK' chunkType='head:BLK'>
11	hI	RP	<fs af='hI,avy,,,,,,' posn='110' drel='lwg__rp:Bale' chunkType='child:BLK' name='hI'>
12	kara	VM	<fs af='kara,v,m,any,any,,0_xe+yA_ho,0' drel='ccof:para' stype='declarative' posn='120' voicetype='active' vpos='tam_2_3' name='kara' chunkId='VGF' chunkType='head:VGF'>
13	xiyA	VAUX	<fs af='xe,v,m,sg,any,,yA,yA' posn='130' drel='lwg__vaux:kara' chunkType='child:VGF' name='xiyA'>
14	ho	VAUX	<fs af='ho,v,any,any,any,,0,0' posn='140' drel='lwg__vaux:kara' chunkType='child:VGF' name='ho'>
15	,	SYM	<fs af='COMMA,punc,,,,,,' posn='150' drel='rsym:kara' chunkType='child:VGF' name=','>
16	para	CC	<fs af='para,avy,,,,,,' posn='160' name='para' chunkId='CCP' chunkType='head:CCP'>
17	isakI	PRP	<fs af='yaha,pn,f,sg,3,o,kA,kA' drel='r6:SAna' posn='170' name='isakI2' chunkId='NP5' chunkType='head:NP5'>
18	SAna	NN	<fs af='SAna,n,f,sg,3,d,0,0' drel='k1:hE' posn='180' name='SAna' chunkId='NP6' chunkType='head:NP6'>
19	Aja	NN	<fs af='Aja,n,m,sg,3,d,0,0' drel='k7t:hE' posn='190' name='Aja' chunkId='NP7' chunkType='head:NP7'>
20	BI	RP	<fs af='BI,avy,,,,,,' posn='200' drel='lwg__rp:Aja' chunkType='child:NP7' name='BI'>
21	barakarAra	JJ	<fs af='barakarAra,adj,any,any,,,,' drel='k1s:hE' posn='210' name='barakarAra' chunkId='JJP2' chunkType='head:JJP2'>
22	hE	VM	<fs af='hE,v,any,sg,3,,hE,hE' drel='ccof:para' stype='declarative' posn='220' voicetype='active' name='hE' chunkId='VGF2' chunkType='head:VGF2'>
23	.	SYM	<fs af='.,punc,,,,,,' drel='rsym:para' posn='230' name='.' chunkId='BLK2' chunkType='head:BLK2'>
</Sentence>


<Sentence id="7">
1	isa	DEM	<fs af='yaha,pn,any,sg,3,o,,' posn='10' drel='nmod__adj:kile' chunkType='child:NP' name='isa'>
2	kile	NN	<fs af='kilA,n,m,sg,3,o,0_ko,0' drel='k2:xeKane' posn='20' vpos='vib_3' name='kile' chunkId='NP' chunkType='head:NP'>
3	ko	PSP	<fs af='ko,psp,,,,,,' posn='30' drel='lwg__psp:kile' chunkType='child:NP' name='ko'>
4	xeKane	VM	<fs af='xeKa,v,any,any,any,o,nA,nA' drel='rt:pahuzcawe' posn='40' name='xeKane' chunkId='VGNN' chunkType='head:VGNN'>
5	lAKoM	QC	<fs af='lAKa,num,any,pl,,o,0_kA,' drel='r6:saMK‍yA' posn='50' vpos='2' name='lAKoM' chunkId='NP2' chunkType='head:NP2'>
6	kI	PSP	<fs af='kA,psp,f,sg,,o,,' posn='60' drel='lwg__psp:lAKoM' chunkType='child:NP2' name='kI'>
7	saMK‍yA	NN	<fs af='saMK‍yA,n,f,sg,3,o,0_meM,0' drel='nmod:paryataka' posn='70' vpos='vib_2' name='saMK‍yA' chunkId='NP3' chunkType='head:NP3'>
8	meM	PSP	<fs af='meM,psp,,,,,,' posn='80' drel='lwg__psp:saMK‍yA' chunkType='child:NP3' name='meM'>
9	xeSI	JJ	<fs af='xeSI,adj,any,any,,d,,' drel='ccof:Ora' posn='90' name='xeSI' chunkId='JJP' chunkType='head:JJP'>
10	Ora	CC	<fs af='Ora,avy,,,,,,' drel='nmod:paryataka' posn='100' name='Ora' chunkId='CCP' chunkType='head:CCP'>
11	vixeSI	JJ	<fs af='vixeSI,adj,any,any,,d,,' drel='ccof:Ora' posn='110' name='vixeSI' chunkId='JJP2' chunkType='head:JJP2'>
12	paryataka	NN	<fs af='paryataka,n,m,pl,3,d,0,0' drel='k1:pahuzcawe' posn='120' name='paryataka' chunkId='NP4' chunkType='head:NP4'>
13	hara	QF	<fs af='hara,avy,,,,,,' posn='130' drel='nmod__adj:sAla' chunkType='child:NP5' name='hara'>
14	sAla	NN	<fs af='sAla,n,m,sg,3,d,0,0' drel='k7t:pahuzcawe' posn='140' name='sAla' chunkId='NP5' chunkType='head:NP5'>
15	ciw‍wOdagaDZa	NNP	<fs af='ciw‍wOdagaDZa,n,m,sg,3,d,0,0' drel='k2p:pahuzcawe' posn='150' name='ciw‍wOdagaDZa' chunkId='NP6' chunkType='head:NP6'>
16	pahuzcawe	VM	<fs af='pahuzca,v,m,pl,3,,wA_hE,wA' stype='declarative' posn='160' voicetype='active' vpos='tam_2' name='pahuzcawe' chunkId='VGF' chunkType='head:VGF'>
17	hE	VAUX	<fs af='hE,v,any,pl,3,,hE,hE' posn='170' drel='lwg__vaux:pahuzcawe' chunkType='child:VGF' name='hE'>
18	.	SYM	<fs af='.,punc,,,,,,' drel='rsym:pahuzcawe' posn='180' name='.' chunkId='BLK' chunkType='head:BLK'>
</Sentence>


<Sentence id="8">
1	ina	DEM	<fs af='yaha,pn,any,pl,3,o,,' posn='10' drel='nmod__adj:paryatakoM' chunkType='child:NP' name='ina'>
2	paryatakoM	NN	<fs af='paryataka,n,m,pl,3,o,0_meM,0' drel='nmod:kuCa' posn='20' vpos='vib_3' name='paryatakoM' chunkId='NP' chunkType='head:NP'>
3	meM	PSP	<fs af='meM,psp,,,,,,' posn='30' drel='lwg__psp:paryatakoM' chunkType='child:NP' name='meM'>
4	kuCa	PRP	<fs af='kuCa,pn,any,pl,3,d,0,0' drel='k1:Awe' posn='40' name='kuCa' chunkId='NP2' chunkType='head:NP2'>
5	sirPa	RP	<fs af='sirPa,avy,,,,,,' posn='50' drel='lwg__rp:GUmane' chunkType='child:VGNN' name='sirPa'>
6	GUmane	VM	<fs af='GUma,v,any,any,any,o,nA,nA' drel='rt:Awe' posn='60' name='GUmane' chunkId='VGNN' chunkType='head:VGNN'>
7	Awe	VM	<fs af='A,v,m,pl,3,,wA_hE,wA' stype='declarative' posn='70' voicetype='active' vpos='tam_2' name='Awe' chunkId='VGF' chunkType='head:VGF'>
8	hEM	VAUX	<fs af='hE,v,any,pl,3,,hE,hE' posn='80' drel='lwg__vaux:Awe' chunkType='child:VGF' name='hEM'>
9	.	SYM	<fs af='.,punc,,,,,,' drel='rsym:Awe' posn='90' name='.' chunkId='BLK' chunkType='head:BLK'>
</Sentence>


<Sentence id="9">
1	kuCa	PRP	<fs af='kuCa,pn,any,pl,3,d,0,0' drel='k1:Awe' posn='10' name='kuCa' chunkId='NP' chunkType='head:NP'>
2	iwihAsa	NN	<fs af='iwihAsa,n,m,sg,3,o,0_ko,0' drel='k2:Awe' posn='20' vpos='vib_2' name='iwihAsa' chunkId='NP2' chunkType='head:NP2'>
3	ko	PSP	<fs af='ko,psp,,,,,,' posn='30' drel='lwg__psp:iwihAsa' chunkType='child:NP2' name='ko'>
4	kurexane	VM	<fs af='kurexa,v,any,any,any,o,nA,nA' drel='rt:Awe' posn='40' name='kurexane' chunkId='VGNN' chunkType='head:VGNN'>
5	Awe	VM	<fs af='A,v,m,pl,3,,wA_hE,wA' drel='ccof:wo' stype='declarative' posn='50' voicetype='active' vpos='tam_2' name='Awe' chunkId='VGF' chunkType='head:VGF'>
6	hEM	VAUX	<fs af='hE,v,any,pl,3,,hE,hE' posn='60' drel='lwg__vaux:Awe' chunkType='child:VGF' name='hEM'>
7	,	SYM	<fs af='COMMA,punc,,,,,,' posn='70' drel='rsym:Awe' chunkType='child:VGF' name=','>
8	wo	CC	<fs af='wo,avy,,,,,,' posn='80' name='wo' chunkId='CCP' chunkType='head:CCP'>
9	kuCa	PRP	<fs af='kuCa,pn,any,pl,3,o,0_ko,0' drel='k4:milawI' posn='90' vpos='vib_2' name='kuCa2' chunkId='NP3' chunkType='head:NP3'>
10	ko	PSP	<fs af='ko,psp,,,,,,' posn='100' drel='lwg__psp:kuCa2' chunkType='child:NP3' name='ko2'>
11	yahAz	PRP	<fs af='yahAz,pn,,,,d,,' drel='k7p:Akara' posn='110' name='yahAz' chunkId='NP4' chunkType='head:NP4'>
12	Akara	VM	<fs af='A,v,any,any,any,,kara,kara' drel='k7t:milawI' posn='120' name='Akara' chunkId='VGNF' chunkType='head:VGNF'>
13	sqjanAw‍maka	JJ	<fs af='sqjanAw,adj,any,any,,d,,' posn='130' drel='nmod__adj:UrjA' chunkType='child:NP5' name='sqjanAw‍maka'>
14	UrjA	NN	<fs af='UrjA,n,f,sg,3,d,0,0' drel='k1:milawI' posn='140' name='UrjA' chunkId='NP5' chunkType='head:NP5'>
15	milawI	VM	<fs af='mila,v,f,sg,3,,wA_hE,wA' drel='ccof:wo' stype='declarative' posn='150' voicetype='active' vpos='tam_2' name='milawI' chunkId='VGF2' chunkType='head:VGF2'>
16	hE	VAUX	<fs af='hE,v,any,sg,3,,hE,hE' posn='160' drel='lwg__vaux:milawI' chunkType='child:VGF2' name='hE'>
17	.	SYM	<fs af='.,punc,,,,,,' drel='rsym:wo' posn='170' name='.' chunkId='BLK' chunkType='head:BLK'>
</Sentence>


<Sentence id="10">
1	ciw‍wOdZa	NNP	<fs af='ciw‍wOdZa,n,m,sg,3,o,0_kA,0' drel='r6:kilA' posn='10' vpos='vib_2' name='ciw‍wOdZa' chunkId='NP' chunkType='head:NP'>
2	kA	PSP	<fs af='kA,psp,m,sg,,d,,' posn='20' drel='lwg__psp:ciw‍wOdZa' chunkType='child:NP' name='kA'>
3	kilA	NN	<fs af='kilA,n,m,sg,3,d,0,0' drel='k1:hE' posn='30' name='kilA' chunkId='NP2' chunkType='head:NP2'>
4	eka	QC	<fs af='eka,num,any,any,,any,,' posn='40' drel='nmod__adj:pahAdZI' chunkType='child:NP3' name='eka'>
5	pahAdZI	NN	<fs af='pahAdI,n,f,sg,3,o,0_para,0' drel='k7p:hE' posn='50' vpos='vib_3' name='pahAdZI' chunkId='NP3' chunkType='head:NP3'>
6	para	PSP	<fs af='para,psp,,,,,,' posn='60' drel='lwg__psp:pahAdZI' chunkType='child:NP3' name='para'>
7	sWiwa	JJ	<fs af='sWiwa,adj,any,any,,,,' drel='k1s:hE' posn='70' name='sWiwa' chunkId='JJP' chunkType='head:JJP'>
8	hE	VM	<fs af='hE,v,any,sg,3,,hE,hE' stype='declarative' posn='80' voicetype='active' name='hE' chunkId='VGF' chunkType='head:VGF'>
9	.	SYM	<fs af='.,punc,,,,,,' drel='rsym:hE' posn='90' name='.' chunkId='BLK' chunkType='head:BLK'>
</Sentence>


<Sentence id="11">
1	pUrI	JJ	<fs af='pUrA,adj,f,sg,,o,,' posn='10' drel='nmod__adj:pahAdZI' chunkType='child:NP' name='pUrI'>
2	pahAdZI	NN	<fs af='pahAdI,n,f,sg,3,o,0_para,0' drel='k7p:banAI' posn='20' vpos='vib_3' name='pahAdZI' chunkId='NP' chunkType='head:NP'>
3	para	PSP	<fs af='para,psp,,,,,,' posn='30' drel='lwg__psp:pahAdZI' chunkType='child:NP' name='para'>
4	paw‍WaroM	NN	<fs af='paw‍Wara,n,m,pl,3,o,0_ko,0' drel='k2:warASakara' posn='40' vpos='vib_2' name='paw‍WaroM' chunkId='NP2' chunkType='head:NP2'>
5	ko	PSP	<fs af='ko,psp,,,,,,' posn='50' drel='lwg__psp:paw‍WaroM' chunkType='child:NP2' name='ko'>
6	warASakara	VM	<fs af='warASa,v,any,any,any,,kara,kara' drel='vmod:banAI' posn='60' name='warASakara' chunkId='VGNF' chunkType='head:VGNF'>
7	eka	QC	<fs af='eka,num,any,any,,any,,' posn='70' drel='nmod__adj:bAuMdrIvAla' chunkType='child:NP3' name='eka'>
8	KUbasUrawa	JJ	<fs af='KUbasUrawa,adj,any,any,,d,,' posn='80' drel='nmod__adj:bAuMdrIvAla' chunkType='child:NP3' name='KUbasUrawa'>
9	bAuMdrIvAla	NN	<fs af='bAuMdrIvAla,n,f,sg,3,d,0,0' drel='k2:banAI' posn='90' name='bAuMdrIvAla' chunkId='NP3' chunkType='head:NP3'>
10	banAI	VM	<fs af='banA,v,f,sg,3,,yA_jA+yA1_hE,yA' stype='declarative' posn='100' voicetype='active' vpos='tam_2_3' name='banAI' chunkId='VGF' chunkType='head:VGF'>
11	gaI	VAUX	<fs af='jA,v,f,sg,any,,yA1,yA1' posn='110' drel='lwg__vaux:banAI' chunkType='child:VGF' name='gaI'>
12	hE	VAUX	<fs af='hE,v,any,sg,3,,hE,hE' posn='120' drel='lwg__vaux:banAI' chunkType='child:VGF' name='hE'>
13	.	SYM	<fs af='.,punc,,,,,,' drel='rsym:banAI' posn='130' name='.' chunkId='BLK' chunkType='head:BLK'>
</Sentence>


<Sentence id="12">
1	isI	DEM	<fs af='yaha,pn,any,sg,3,o,,' posn='10' drel='nmod__adj:bAuMdrIvAla' chunkType='child:NP' name='isI'>
2	bAuMdrIvAla	NN	<fs af='bAuMdrIvAla,n,f,sg,3,o,0_para,0' drel='k7p:Pil‍mAyA' posn='20' vpos='vib_3' name='bAuMdrIvAla' chunkId='NP' chunkType='head:NP'>
3	para	PSP	<fs af='para,psp,,,,,,' posn='30' drel='lwg__psp:bAuMdrIvAla' chunkType='child:NP' name='para'>
4	vahIxA	NNPC	<fs af='vahIxA,n,f,sg,3,d,0,0' posn='40' drel='pof__cn:rahamAna' chunkType='child:NP2' name='vahIxA'>
5	rahamAna	NNP	<fs af='rahamAna,n,any,sg,3,o,0_kA,0' drel='r6:gIwa' posn='50' vpos='vib_3' name='rahamAna' chunkId='NP2' chunkType='head:NP2'>
6	kA	PSP	<fs af='kA,psp,m,sg,,d,,' posn='60' drel='lwg__psp:rahamAna' chunkType='child:NP2' name='kA'>
7	maSahUra	JJ	<fs af='maSahUra,adj,any,any,,d,,' posn='70' drel='nmod__adj:gIwa' chunkType='child:NP3' name='maSahUra'>
8	gIwa	NN	<fs af='gIwa,n,m,sg,3,d,0,0' drel='k2:Pil‍mAyA' posn='80' name='gIwa' chunkId='NP3' chunkType='head:NP3'>
9	'	SYM	<fs af='SINGLE_QUOTE,punc,,,,,,' ' posn='90' drel='rsym:Aja' chunkType='child:NP4' name=''>
10	Aja	NN	<fs af='Aja,n,m,sg,3,d,0,0' drel='k7t:hE' posn='100' name='Aja' chunkId='NP4' chunkType='head:NP4'>
11	Pira	RB	<fs af='Pira,adv,,,,,,' drel='adv:hE' posn='110' name='Pira' chunkId='RBP' chunkType='head:RBP'>
12	jIne	VM	<fs af='jI,v,any,sg,any,o,nA_kA,nA' drel='r6:waman‍nA' posn='120' vpos='tam_2' name='jIne' chunkId='VGNN' chunkType='head:VGNN'>
13	kI	PSP	<fs af='kA,psp,f,sg,,o,,' posn='130' drel='lwg__psp:jIne' chunkType='child:VGNN' name='kI'>
14	waman‍nA	NN	<fs af='waman‍nA,n,f,sg,3,d,0,0' drel='k1:hE' posn='140' name='waman‍nA' chunkId='NP5' chunkType='head:NP5'>
15	hE	VM	<fs af='hE,v,any,sg,3,,hE,hE' drel='rs:gIwa' stype='declarative' posn='150' voicetype='active' name='hE' chunkId='VGF' chunkType='head:VGF'>
16	'	SYM	<fs af='SINGLE_QUOTE,punc,,,,,,' 2' posn='160' drel='rsym:hE' chunkType='child:VGF' name=''>
17	Pil‍mAyA	VM	<fs af='Pil‍mA,v,m,sg,3,,yA_jA+yA1_hE,yA' stype='declarative' posn='170' voicetype='passive' vpos='tam_2_3' name='Pil‍mAyA' chunkId='VGF2' chunkType='head:VGF2'>
18	gayA	VAUX	<fs af='jA,v,m,sg,any,,yA1,yA1' posn='180' drel='lwg__vaux:Pil‍mAyA' chunkType='child:VGF2' name='gayA'>
19	hE	VAUX	<fs af='hE,v,any,sg,3,,hE,hE' posn='190' drel='lwg__vaux:Pil‍mAyA' chunkType='child:VGF2' name='hE2'>
20	.	SYM	<fs af='.,punc,,,,,,' drel='rsym:Pil‍mAyA' posn='200' name='.' chunkId='BLK' chunkType='head:BLK'>
</Sentence>


<Sentence id="13">
1	kile	NN	<fs af='kilA,n,m,sg,3,o,0_kA,0' drel='r6:parisara' posn='10' vpos='vib_2' name='kile' chunkId='NP' chunkType='head:NP'>
2	ke	PSP	<fs af='kA,psp,m,sg,,o,,' posn='20' drel='lwg__psp:kile' chunkType='child:NP' name='ke'>
3	parisara	NN	<fs af='parisara,n,m,sg,3,o,0_meM,0' drel='k7p:karawe' posn='30' vpos='vib_2' name='parisara' chunkId='NP2' chunkType='head:NP2'>
4	meM	PSP	<fs af='meM,psp,,,,,,' posn='40' drel='lwg__psp:parisara' chunkType='child:NP2' name='meM'>
5	praveSa	NN	<fs af='praveSa,n,m,sg,3,d,0,0' drel='pof:karawe' posn='50' name='praveSa' chunkId='NP3' chunkType='head:NP3'>
6	karawe	VM	<fs af='kara,v,m,sg,any,,wA,wA' drel='vmod:AwA' posn='60' name='karawe' chunkId='VGNF' chunkType='head:VGNF'>
7	hI	RP	<fs af='hI,avy,,,,,,' posn='70' drel='lwg__rp:karawe' chunkType='child:VGNF' name='hI'>
8	sabase	JJ	<fs af='sabase,adj,any,any,,d,,' drel='k7t:AwA' posn='80' name='sabase' chunkId='NP4' chunkType='head:NP4'>
9	pahale	NST	<fs af='pahale,nst,m,sg,3,d,,' posn='90' drel='lwg__psp:sabase' chunkType='child:NP4' name='pahale'>
10	najara	NN	<fs af='najara,n,f,sg,3,d,0,0' drel='pof:AwA' posn='100' name='najara' chunkId='NP5' chunkType='head:NP5'>
11	AwA	VM	<fs af='A,v,m,sg,3,,wA_hE,wA' stype='declarative' posn='110' voicetype='active' vpos='tam_2' name='AwA' chunkId='VGF' chunkType='head:VGF'>
12	hE	VAUX	<fs af='hE,v,any,sg,3,,hE,hE' posn='120' drel='lwg__vaux:AwA' chunkType='child:VGF' name='hE'>
13	,	SYM	<fs af='COMMA,punc,,,,,,' posn='130' drel='rsym:AwA' chunkType='child:VGF' name=','>
14	KUbasUrawa	JJ	<fs af='KUbasUrawa,adj,any,any,,d,,' posn='140' drel='nmod__adj:JaranA' chunkType='child:NP6' name='KUbasUrawa'>
15	JaranA	NN	<fs af='JaranA,n,m,sg,3,d,0,0' drel='k1:AwA' posn='150' name='JaranA' chunkId='NP6' chunkType='head:NP6'>
16	.	SYM	<fs af='.,punc,,,,,,' drel='rsym:AwA' posn='160' name='.' chunkId='BLK' chunkType='head:BLK'>
</Sentence>


<Sentence id="14">
1	isa	DEM	<fs af='yaha,pn,any,sg,3,o,,' posn='10' drel='nmod__adj:Jarane' chunkType='child:NP' name='isa'>
2	Jarane	NN	<fs af='JaranA,n,m,sg,3,o,0_kA,0' drel='r6:saMbaMXa' posn='20' vpos='vib_3' name='Jarane' chunkId='NP' chunkType='head:NP'>
3	kA	PSP	<fs af='kA,psp,m,sg,,d,,' posn='30' drel='lwg__psp:Jarane' chunkType='child:NP' name='kA'>
4	saMbaMXa	NN	<fs af='saMbaMXa,n,m,sg,3,d,0,0' drel='k1:hE' posn='40' name='saMbaMXa' chunkId='NP2' chunkType='head:NP2'>
5	pahAdZa	NN	<fs af='pahAda,n,m,sg,3,o,0_ke_Upara,0' drel='jjmod:sWiwa' posn='50' vpos='vib_2_3' name='pahAdZa' chunkId='NP3' chunkType='head:NP3'>
6	ke	PSP	<fs af='ke,psp,,,,,,' posn='60' drel='lwg__psp:pahAdZa' chunkType='child:NP3' name='ke'>
7	Upara	NST	<fs af='Upara,nst,m,sg,3,d,,' posn='70' drel='lwg__psp:pahAdZa' chunkType='child:NP3' name='Upara'>
8	sWiwa	JJ	<fs af='sWiwa,adj,any,any,,o,,' drel='nmod:jalakuMda' posn='80' name='sWiwa' chunkId='JJP' chunkType='head:JJP'>
9	eka	QC	<fs af='eka,num,any,any,,any,,' posn='90' drel='nmod__adj:jalakuMda' chunkType='child:NP4' name='eka'>
10	jalakuMda	NN	<fs af='jalakuMda,n,m,sg,3,o,0_se,0' drel='ras-k1:hE' posn='100' vpos='vib_3' name='jalakuMda' chunkId='NP4' chunkType='head:NP4'>
11	se	PSP	<fs af='se,psp,,,,,,' posn='110' drel='lwg__psp:jalakuMda' chunkType='child:NP4' name='se'>
12	hE	VM	<fs af='hE,v,any,sg,3,,hE,hE' stype='declarative' posn='120' voicetype='active' name='hE' chunkId='VGF' chunkType='head:VGF'>
13	.	SYM	<fs af='.,punc,,,,,,' drel='rsym:hE' posn='130' name='.' chunkId='BLK' chunkType='head:BLK'>
</Sentence>


<Sentence id="15">
1	barasAwa	NN	<fs af='barasAwa,n,f,sg,3,o,0_kA,0' drel='r6:mOsama' posn='10' vpos='vib_2' name='barasAwa' chunkId='NP' chunkType='head:NP'>
2	ke	PSP	<fs af='kA,psp,m,sg,,o,,' posn='20' drel='lwg__psp:barasAwa' chunkType='child:NP' name='ke'>
3	mOsama	NN	<fs af='mOsama,n,m,sg,3,o,0_meM,0' drel='k7t:howA' posn='30' vpos='vib_2' name='mOsama' chunkId='NP2' chunkType='head:NP2'>
4	meM	PSP	<fs af='meM,psp,,,,,,' posn='40' drel='lwg__psp:mOsama' chunkType='child:NP2' name='meM'>
5	isa	DEM	<fs af='yaha,pn,any,sg,3,o,,' posn='50' drel='nmod__adj:Jarane' chunkType='child:NP3' name='isa'>
6	Jarane	NN	<fs af='JaranA,n,m,sg,3,o,0_kA,0' drel='r6:sOMxarya' posn='60' vpos='vib_3' name='Jarane' chunkId='NP3' chunkType='head:NP3'>
7	kA	PSP	<fs af='kA,psp,m,sg,,d,,' posn='70' drel='lwg__psp:Jarane' chunkType='child:NP3' name='kA'>
8	sOMxarya	NN	<fs af='sOMxarya,n,m,sg,3,d,0,0' drel='k1:howA' posn='80' name='sOMxarya' chunkId='NP4' chunkType='head:NP4'>
9	apane	PRP	<fs af='apanA,pn,m,any,any,o,0,0' drel='r6:carama' posn='90' name='apane' chunkId='NP5' chunkType='head:NP5'>
10	carama	NN	<fs af='carama,n,m,sg,3,o,0_para,0' drel='k7:howA' posn='100' vpos='vib_2' name='carama' chunkId='NP6' chunkType='head:NP6'>
11	para	PSP	<fs af='para,psp,,,,,,' posn='110' drel='lwg__psp:carama' chunkType='child:NP6' name='para'>
12	howA	VM	<fs af='ho,v,m,sg,3,,wA_hE,wA' stype='declarative' posn='120' voicetype='active' vpos='tam_2' name='howA' chunkId='VGF' chunkType='head:VGF'>
13	hE	VAUX	<fs af='hE,v,any,sg,3,,hE,hE' posn='130' drel='lwg__vaux:howA' chunkType='child:VGF' name='hE'>
14	.	SYM	<fs af='.,punc,,,,,,' drel='rsym:howA' posn='140' name='.' chunkId='BLK' chunkType='head:BLK'>
</Sentence>


<Sentence id="16">
1	rAjas‍WAna	NNP	<fs af='rAjas‍WAna,n,m,sg,3,o,0_kA,0' drel='r6:BUmi' posn='10' vpos='vib_2' name='rAjas‍WAna' chunkId='NP' chunkType='head:NP'>
2	kI	PSP	<fs af='kA,psp,f,sg,,o,,' posn='20' drel='lwg__psp:rAjas‍WAna' chunkType='child:NP' name='kI'>
3	wapawI	VM	<fs af='wapa,v,f,sg,any,,wA,wA' drel='nmod:BUmi' posn='30' name='wapawI' chunkId='VGNF' chunkType='head:VGNF'>
4	BUmi	NN	<fs af='BUmi,n,f,sg,3,o,0_para,0' drel='k7p:milawe' posn='40' vpos='vib_2' name='BUmi' chunkId='NP2' chunkType='head:NP2'>
5	para	PSP	<fs af='para,psp,,,,,,' posn='50' drel='lwg__psp:BUmi' chunkType='child:NP2' name='para'>
6	KUbasUrawa	JJ	<fs af='KUbasUrawa,adj,any,any,,o,,' posn='60' drel='nmod__adj:JaranoM' chunkType='child:NP3' name='KUbasUrawa'>
7	JaranoM	NN	<fs af='JaranA,n,m,pl,3,o,0_kA,0' drel='r6:najAre' posn='70' vpos='vib_3' name='JaranoM' chunkId='NP3' chunkType='head:NP3'>
8	ke	PSP	<fs af='kA,psp,m,pl,,d,,' posn='80' drel='lwg__psp:JaranoM' chunkType='child:NP3' name='ke'>
9	najAre	NN	<fs af='najArA,n,m,pl,3,d,0,0' drel='k1:milawe' posn='90' name='najAre' chunkId='NP4' chunkType='head:NP4'>
10	kama	QF	<fs af='kama,avy,,,,,,' drel='vmod:milawe' posn='100' name='kama' chunkId='JJP' chunkType='head:JJP'>
11	hI	RP	<fs af='hI,avy,,,,,,' posn='110' drel='lwg__rp:kama' chunkType='child:JJP' name='hI'>
12	xeKane	VM	<fs af='xeKa,v,any,any,any,o,nA_ko,nA' drel='rt:milawe' posn='120' vpos='tam_2' name='xeKane' chunkId='VGNN' chunkType='head:VGNN'>
13	ko	PSP	<fs af='ko,psp,,,,,,' posn='130' drel='lwg__psp:xeKane' chunkType='child:VGNN' name='ko'>
14	milawe	VM	<fs af='mila,v,m,pl,3,,wA_hE,wA' stype='declarative' posn='140' voicetype='active' vpos='tam_2' name='milawe' chunkId='VGF' chunkType='head:VGF'>
15	hE	VAUX	<fs af='hE,v,any,pl,3,,hE,hE' posn='150' drel='lwg__vaux:milawe' chunkType='child:VGF' name='hE'>
16	.	SYM	<fs af='.,punc,,,,,,' drel='rsym:milawe' posn='160' name='.' chunkId='BLK' chunkType='head:BLK'>
</Sentence>


<Sentence id="17">
1	pahAdZI	NN	<fs af='pahAdI,n,f,sg,3,o,0_para,0' drel='k7p:baDZawe' posn='10' vpos='vib_2' name='pahAdZI' chunkId='NP' chunkType='head:NP'>
2	para	PSP	<fs af='para,psp,,,,,,' posn='20' drel='lwg__psp:pahAdZI' chunkType='child:NP' name='para'>
3	jEse	RB	<fs af='jEse,adv,,,,,,' drel='adv:baDZawe' posn='30' name='jEse' chunkId='RBP' chunkType='head:RBP'>
4	-	SYM	<fs af='-,punc,,,,,,' posn='40' drel='rsym:jEse' chunkType='child:RBP' name='-'>
5	jEse	RDP	<fs af='jEse,adv,,,,,,' posn='50' drel='mod:jEse' chunkType='child:RBP' name='jEse2'>
6	Upara	NST	<fs af='Upara,nst,m,sg,3,o,0_kA,' drel='rd:baDZawe' posn='60' vpos='2' name='Upara' chunkId='NP2' chunkType='head:NP2'>
7	kI	PSP	<fs af='kA,psp,f,sg,,d,,' posn='70' drel='lwg__psp:Upara' chunkType='child:NP2' name='kI'>
8	ora	NST	<fs af='ora,nst,f,sg,3,d,,' posn='80' drel='lwg__psp:Upara' chunkType='child:NP2' name='ora'>
9	Age	NST	<fs af='Age,nst,m,sg,3,d,,' drel='pof:baDZawe' posn='90' name='Age' chunkId='NP3' chunkType='head:NP3'>
10	baDZawe	VM	<fs af='baDa,v,m,sg,3,,wA_jA+wA_hE,wA' drel='ccof:NULL' stype='declarative' posn='100' voicetype='active' vpos='tam_2_3' name='baDZawe' chunkId='VGF' chunkType='head:VGF'>
11	jAwe	VAUX	<fs af='jA,v,m,pl,any,,wA,wA' posn='110' drel='lwg__vaux:baDZawe' chunkType='child:VGF' name='jAwe'>
12	hE	VAUX	<fs af='hE,v,any,sg,3,,hE,hE' posn='120' drel='lwg__vaux:baDZawe' chunkType='child:VGF' name='hE'>
13	,	SYM	<fs af='COMMA,punc,,,,,,' posn='130' drel='rsym:baDZawe' chunkType='child:VGF' name=','>
14	NULL	CC	<fs mtype='gap' troot='Ora' name='NULL' chunkId='NULL__CCP' chunkType='head:NULL__CCP'>
15	KaMdahara	NN	<fs af='KaMdahara,n,m,sg,3,d,0,0' drel='k1s:ho' posn='140' name='KaMdahara' chunkId='NP4' chunkType='head:NP4'>
16	ho	VM	<fs af='ho,v,any,sg,any,,0_cuka+yA,0' drel='nmod__k1inv:haveliyoM' posn='150' vpos='tam_2' name='ho' chunkId='VGNF' chunkType='head:VGNF'>
17	cukI	VAUX	<fs af='cuka,v,f,sg,any,,yA,yA' posn='160' drel='lwg__vaux:ho' chunkType='child:VGNF' name='cukI'>
18	haveliyoM	NN	<fs af='havelI,n,f,pl,3,o,0_kA,0' drel='r6:avaSeRa' posn='170' vpos='vib_2' name='haveliyoM' chunkId='NP5' chunkType='head:NP5'>
19	ke	PSP	<fs af='kA,psp,m,pl,,d,,' posn='180' drel='lwg__psp:haveliyoM' chunkType='child:NP5' name='ke'>
20	avaSeRa	NN	<fs af='avaSeRa,n,m,pl,3,d,0,0' drel='k1:Awe' posn='190' name='avaSeRa' chunkId='NP6' chunkType='head:NP6'>
21	najara	NN	<fs af='najara,n,f,sg,3,d,0,0' drel='pof:Awe' posn='200' name='najara' chunkId='NP7' chunkType='head:NP7'>
22	Awe	VM	<fs af='A,v,m,pl,3,,wA_hE,wA' drel='ccof:NULL' stype='declarative' posn='210' voicetype='active' vpos='tam_2' name='Awe' chunkId='VGF2' chunkType='head:VGF2'>
23	hEM	VAUX	<fs af='hE,v,any,pl,3,,hE,hE' posn='220' drel='lwg__vaux:Awe' chunkType='child:VGF2' name='hEM'>
24	.	SYM	<fs af='.,punc,,,,,,' drel='rsym:NULL' posn='230' name='.' chunkId='BLK' chunkType='head:BLK'>
</Sentence>


<Sentence id="18">
1	yahAz	PRP	<fs af='yahAz,pn,,,,d,,' drel='k7p:hE' posn='10' name='yahAz' chunkId='NP' chunkType='head:NP'>
2	eka	QC	<fs af='eka,num,any,any,,any,,' posn='20' drel='nmod__adj:mohal‍lA' chunkType='child:NP2' name='eka'>
3	CotA	JJ	<fs af='CotA,adj,m,sg,,d,,' posn='30' drel='nmod__adj:mohal‍lA' chunkType='child:NP2' name='CotA'>
4	-	SYM	<fs af='-,punc,,,,,,' posn='40' drel='rsym:mohal‍lA' chunkType='child:NP2' name='-'>
5	sA	RP	<fs af='sA,avy,m,sg,,d,,' posn='50' drel='lwg__rp:mohal‍lA' chunkType='child:NP2' name='sA'>
6	rahavAsI	JJ	<fs af='rahavAsI,adj,any,any,,d,,' posn='60' drel='nmod__adj:mohal‍lA' chunkType='child:NP2' name='rahavAsI'>
7	mohal‍lA	NN	<fs af='mohallA,n,m,sg,3,d,0,0' drel='k1:hE' posn='70' name='mohal‍lA' chunkId='NP2' chunkType='head:NP2'>
8	BI	RP	<fs af='BI,avy,,,,,,' posn='80' drel='lwg__rp:mohal‍lA' chunkType='child:NP2' name='BI'>
9	hE	VM	<fs af='hE,v,any,sg,3,,hE,hE' stype='declarative' posn='90' voicetype='active' name='hE' chunkId='VGF' chunkType='head:VGF'>
10	.	SYM	<fs af='.,punc,,,,,,' drel='rsym:hE' posn='100' name='.' chunkId='BLK' chunkType='head:BLK'>
</Sentence>


<Sentence id="19">
1	yAni	CC	<fs af='yAni,avy,,,,,,' posn='10' name='yAni' chunkId='CCP' chunkType='head:CCP'>
2	kuCa	QF	<fs af='kuCa,avy,,,,,,' posn='20' drel='nmod__adj:logoM' chunkType='child:NP' name='kuCa'>
3	logoM	NN	<fs af='loga,n,m,pl,3,o,0_ko,0' drel='k4:ho' posn='30' vpos='vib_3' name='logoM' chunkId='NP' chunkType='head:NP'>
4	ko	PSP	<fs af='ko,psp,,,,,,' posn='40' drel='lwg__psp:logoM' chunkType='child:NP' name='ko'>
5	apane	PRP	<fs af='apanA,pn,m,any,any,o,0,0' drel='r6:Gara' posn='50' name='apane' chunkId='NP2' chunkType='head:NP2'>
6	Gara	NN	<fs af='Gara,n,m,sg,3,o,0_kA,0' drel='r6:pawA' posn='60' vpos='vib_2' name='Gara' chunkId='NP3' chunkType='head:NP3'>
7	kA	PSP	<fs af='kA,psp,m,sg,,d,,' posn='70' drel='lwg__psp:Gara' chunkType='child:NP3' name='kA'>
8	pawA	NN	<fs af='pawA,n,m,sg,3,d,0,0' drel='k2:liKane' posn='80' name='pawA' chunkId='NP4' chunkType='head:NP4'>
9	'	SYM	<fs af='SINGLE_QUOTE,punc,,,,,,' ' posn='90' drel='rsym:ciw‍wOdZa' chunkType='child:NP5' name=''>
10	ciw‍wOdZa	NNP	<fs af='ciw‍wOdZa,n,m,sg,3,o,0_kA,0' drel='r6:kilA' posn='100' vpos='vib_3' name='ciw‍wOdZa' chunkId='NP5' chunkType='head:NP5'>
11	kA	PSP	<fs af='kA,psp,m,sg,,d,,' posn='110' drel='lwg__psp:ciw‍wOdZa' chunkType='child:NP5' name='kA2'>
12	kilA	NN	<fs af='kilA,n,m,sg,3,d,0,0' drel='k2s:liKane' posn='120' name='kilA' chunkId='NP6' chunkType='head:NP6'>
13	'	SYM	<fs af='SINGLE_QUOTE,punc,,,,,,' 2' posn='130' drel='rsym:kilA' chunkType='child:NP6' name=''>
14	liKane	VM	<fs af='liKa,v,any,sg,any,o,nA_kA,nA' drel='r6:sOBAg‍ya' posn='140' vpos='tam_2' name='liKane' chunkId='VGNN' chunkType='head:VGNN'>
15	kA	PSP	<fs af='kA,psp,m,sg,,d,,' posn='150' drel='lwg__psp:liKane' chunkType='child:VGNN' name='kA3'>
16	sOBAg‍ya	NN	<fs af='sOBAg,n,m,sg,3,d,0,0' drel='k1:ho' posn='160' name='sOBAg‍ya' chunkId='NP7' chunkType='head:NP7'>
17	prAp‍wa	JJ	<fs af='prApwa,adj,any,any,,,,' drel='pof:ho' posn='170' name='prAp‍wa' chunkId='JJP' chunkType='head:JJP'>
18	ho	VM	<fs af='ho,v,m,sg,3,,0_raha+yA_hE,0' drel='ccof:yAni' stype='declarative' posn='180' voicetype='active' vpos='tam_2_3' name='ho' chunkId='VGF' chunkType='head:VGF'>
19	rahA	VAUX	<fs af='raha,v,m,sg,any,,yA,yA' posn='190' drel='lwg__vaux:ho' chunkType='child:VGF' name='rahA'>
20	hE	VAUX	<fs af='hE,v,any,sg,3,,hE,hE' posn='200' drel='lwg__vaux:ho' chunkType='child:VGF' name='hE'>
21	.	SYM	<fs af='.,punc,,,,,,' drel='rsym:yAni' posn='210' name='.' chunkId='BLK' chunkType='head:BLK'>
</Sentence>


<Sentence id="20">
1	hamane	PRP	<fs af='hama,pn,any,sg,1,o,ne,ne' drel='k1:kI2' posn='10' name='hamane' chunkId='NP' chunkType='head:NP'>
2	isa	DEM	<fs af='yaha,pn,any,sg,3,o,,' posn='20' drel='nmod__adj:kile' chunkType='child:NP2' name='isa'>
3	kile	NN	<fs af='kilA,n,m,sg,3,o,0_ko,0' drel='k2:xeKane' posn='30' vpos='vib_3' name='kile' chunkId='NP2' chunkType='head:NP2'>
4	ko	PSP	<fs af='ko,psp,,,,,,' posn='40' drel='lwg__psp:kile' chunkType='child:NP2' name='ko'>
5	xeKane	VM	<fs af='xeKa,v,any,sg,any,o,nA_kA,nA' drel='r6-k1:SuruAwa' posn='50' vpos='tam_2' name='xeKane' chunkId='VGNN' chunkType='head:VGNN'>
6	kI	PSP	<fs af='kA,psp,f,sg,,d,,' posn='60' drel='lwg__psp:xeKane' chunkType='child:VGNN' name='kI'>
7	SuruAwa	NN	<fs af='SuruAwa,n,f,sg,3,d,0,0' drel='pof:kI2' posn='70' name='SuruAwa' chunkId='NP3' chunkType='head:NP3'>
8	kI	VM	<fs af='kara,v,f,sg,any,,yA,yA' stype='declarative' posn='80' voicetype='active' name='kI2' chunkId='VGF' chunkType='head:VGF'>
9	,	SYM	<fs af='COMMA,punc,,,,,,' posn='90' drel='rsym:kI2' chunkType='child:VGF' name=','>
10	vijaya	NNPC	<fs af='vijaya,n,m,sg,3,d,0,0' posn='100' drel='pof__cn:s‍waMBa' chunkType='child:NP4' name='vijaya'>
11	s‍waMBa	NNP	<fs af='s‍waMBa,n,m,sg,3,o,0_ke_sAWa,0' drel='ras-k2:kI2' posn='110' vpos='vib_3_4' name='s‍waMBa' chunkId='NP4' chunkType='head:NP4'>
12	ke	PSP	<fs af='ke,psp,,,,,,' posn='120' drel='lwg__psp:s‍waMBa' chunkType='child:NP4' name='ke'>
13	sAWa	NST	<fs af='sAWa,nst,m,sg,3,d,,' posn='130' drel='lwg__psp:s‍waMBa' chunkType='child:NP4' name='sAWa'>
14	.	SYM	<fs af='.,punc,,,,,,' drel='rsym:kI2' posn='140' name='.' chunkId='BLK' chunkType='head:BLK'>
</Sentence>


</text>
</tb>
</body>
</document>
