<document id="2477219">
<head>
<title>  </title>			
<author>			
<firstname>  </firstname>			
<middlename>    </middlename>			
<lastname></lastname>			
</author>			
<availability format="electronic" ></availability>			
<bibl>			
</bibl>			
<bytecount>8.0K</bytecount>			
<domain name="general" ></domain>			
<creation creationdate="19/06/2007" institutename="IIIT Hyderabad">			
<creatorname>			
<lastname>Dipti</lastname>			
<middlename>			
</middlename>			
<firstname>Sharma</firstname>			
</creatorname>			
</creation>			
<distributor>CLIA Consortia, DIT</distributor>			
<edition number="1.0" ></edition>			
<encodingdesc>			
<newencoding>Unicode(UTF-8)</newencoding>			
<originalencoding>UTF-8</originalencoding>			
</encodingdesc>			
<sentencemarker marker=".">Specify Marker</sentencemarker>			
<language name="hi" writingsystem="LTR" script="Devanagari" ></language>			
<normalization normalized="no">			
<utilityname>xxx.exe</utilityname>			
</normalization>			
<projectdesc name="ILMT" ></projectdesc>			
<pubaddress addresstype="web">			
</pubaddress>			
<pubdate>			
<dateofpublication></dateofpublication>			
</pubdate>			
<publicationstmt type="copyrightfree">			
</publicationstmt>			
<publisher>			
<name></name>			
<url>xxx.com</url>			
</publisher>			
<pubplace place="books" ></pubplace>			
<wordcount>10  </wordcount>			
<caption>ena.ena.voharA kA iswIPA hurriyawa kAMPreMsa ne pAtila ke bayAna kA svAgawa kiyA ejeMsiyAM naI xillI/SrInagara. </caption>			
			

</head>
<body>
<tb number="1" segment="no" bullet="no">
<foreign language="select" writingsystem="LTR"></foreign>
<text>
<Sentence id="1">
1	kaSmIra	NNP	<fs af='kaSmIra,n,m,sg,3,o,0_para,0' drel='k7p:xe' posn='10' vpos='vib_2' name='kaSmIra' chunkId='NP' chunkType='head:NP'>
2	para	PSP	<fs af='para,psp,,,,,,' posn='20' drel='lwg__psp:kaSmIra' chunkType='child:NP' name='para'>
3	keMxra	NNP	<fs af='keMxra,n,m,sg,3,o,0_kA,0' drel='r6:vArwAkAra' posn='30' vpos='vib_2' name='keMxra' chunkId='NP2' chunkType='head:NP2'>
4	ke	PSP	<fs af='kA,psp,m,sg,,o,,' posn='40' drel='lwg__psp:keMxra' chunkType='child:NP2' name='ke'>
5	vArwAkAra	NN	<fs af='vArwAkAra,n,m,sg,3,o,0,0' drel='nmod:voharA' posn='50' name='vArwAkAra' chunkId='NP3' chunkType='head:NP3'>
6	ena.	NNPC	<fs af='ena.,n,m,sg,3,d,0,0' posn='60' drel='pof__cn:voharA' chunkType='child:NP4' name='ena.'>
7	ena.	NNPC	<fs af='ena.,n,m,sg,3,d,0,0' posn='70' drel='pof__cn:voharA' chunkType='child:NP4' name='ena.2'>
8	voharA	NNP	<fs af='voharA,n,any,sg,3,o,0_ne,0' drel='k1:xe' posn='80' vpos='vib_4' name='voharA' chunkId='NP4' chunkType='head:NP4'>
9	ne	PSP	<fs af='ne,psp,,,,,,' posn='90' drel='lwg__psp:voharA' chunkType='child:NP4' name='ne'>
10	apane	PRP	<fs af='apanA,pn,m,any,any,o,0,0' drel='r6:paxa' posn='100' name='apane' chunkId='NP5' chunkType='head:NP5'>
11	paxa	NN	<fs af='paxa,n,m,sg,3,o,0_se,0' drel='k5:xe' posn='110' vpos='vib_2' name='paxa' chunkId='NP6' chunkType='head:NP6'>
12	se	PSP	<fs af='se,psp,,,,,,' posn='120' drel='lwg__psp:paxa' chunkType='child:NP6' name='se'>
13	iswIPA	NN	<fs af='iswIPA,n,m,sg,3,d,0,0' drel='k2:xe' posn='130' name='iswIPA' chunkId='NP7' chunkType='head:NP7'>
14	xe	VM	<fs af='xe,v,m,sg,3,,0_xe+yA_hE,0' stype='declarative' posn='140' voicetype='active' vpos='tam_2_3' name='xe' chunkId='VGF' chunkType='head:VGF'>
15	xiyA	VAUX	<fs af='xe,v,m,sg,any,,yA,yA' posn='150' drel='lwg__vaux:xe' chunkType='child:VGF' name='xiyA'>
16	hE	VAUX	<fs af='hE,v,any,sg,3,,hE,hE' posn='160' drel='lwg__vaux:xe' chunkType='child:VGF' name='hE'>
17	.	SYM	<fs af='.,punc,,,,,,' drel='rsym:xe' posn='170' name='.' chunkId='BLK' chunkType='head:BLK'>
</Sentence>


<Sentence id="2">
1	sUwroM	NN	<fs af='sUwra,n,m,pl,3,o,0_ne,0' drel='k1:bawAyA' posn='10' vpos='vib_2' name='sUwroM' chunkId='NP' chunkType='head:NP'>
2	ne	PSP	<fs af='ne,psp,,,,,,' posn='20' drel='lwg__psp:sUwroM' chunkType='child:NP' name='ne'>
3	bawAyA	VM	<fs af='bawA,v,m,sg,any,,yA,yA' stype='declarative' posn='30' voicetype='active' name='bawAyA' chunkId='VGF' chunkType='head:VGF'>
4	ki	CC	<fs af='ki,avy,,,,,,' drel='k2:bawAyA' posn='40' name='ki' chunkId='CCP' chunkType='head:CCP'>
5	voharA	NNP	<fs af='voharA,n,any,sg,3,o,0_ne,0' drel='k1:sOMpa' posn='50' vpos='vib_2' name='voharA' chunkId='NP2' chunkType='head:NP2'>
6	ne	PSP	<fs af='ne,psp,,,,,,' posn='60' drel='lwg__psp:voharA' chunkType='child:NP2' name='ne2'>
7	apanA	PRP	<fs af='apanA,pn,m,sg,any,d,0,0' drel='r6:iswIPA' posn='70' name='apanA' chunkId='NP3' chunkType='head:NP3'>
8	iswIPA	NN	<fs af='iswIPA,n,m,sg,3,d,0,0' drel='k2:sOMpa' posn='80' name='iswIPA' chunkId='NP4' chunkType='head:NP4'>
9	naI	JJ	<fs af='nayA,adj,f,sg,,o,,' posn='90' drel='nmod__adj:sarakAra' chunkType='child:NP5' name='naI'>
10	sarakAra	NN	<fs af='sarakAra,n,f,sg,3,o,0_kA,0' drel='r6-k2:grahaNa' posn='100' vpos='vib_3' name='sarakAra' chunkId='NP5' chunkType='head:NP5'>
11	ke	PSP	<fs af='kA,psp,m,sg,,o,,' posn='110' drel='lwg__psp:sarakAra' chunkType='child:NP5' name='ke'>
12	SapaWa	NNC	<fs af='SapaWa,n,f,sg,3,d,0,0' posn='120' drel='pof__cn:grahaNa' chunkType='child:NP6' name='SapaWa'>
13	grahaNa	NN	<fs af='grahaNa,n,m,sg,3,d,0,0' drel='pof:karane' posn='130' name='grahaNa' chunkId='NP6' chunkType='head:NP6'>
14	karane	VM	<fs af='kara,v,any,sg,any,o,nA_kA,nA' drel='r6:xina' posn='140' vpos='tam_2' name='karane' chunkId='VGNN' chunkType='head:VGNN'>
15	ke	PSP	<fs af='kA,psp,m,sg,,o,,' posn='150' drel='lwg__psp:karane' chunkType='child:VGNN' name='ke2'>
16	eka	QC	<fs af='eka,num,any,any,,any,,' posn='160' drel='nmod__adj:xina' chunkType='child:NP7' name='eka'>
17	xina	NN	<fs af='xina,n,m,sg,3,d,0_bAxa,0' drel='k7t:sOMpa' posn='170' vpos='vib_3' name='xina' chunkId='NP7' chunkType='head:NP7'>
18	bAxa	NST	<fs af='bAxa,nst,m,sg,3,d,,' posn='180' drel='lwg__psp:xina' chunkType='child:NP7' name='bAxa'>
19	praXAnamaMwrI	NNP	<fs af='praXAnamaMwrI,n,m,sg,3,d,0,0' posn='190' drel='nmod__adj:siMha' chunkType='child:NP8' name='praXAnamaMwrI'>
20	manamohana	NNPC	<fs af='manamohana,n,m,sg,3,d,0,0' posn='200' drel='pof__cn:siMha' chunkType='child:NP8' name='manamohana'>
21	siMha	NNP	<fs af='siMha,n,m,sg,3,o,0_ko,0' drel='k4:sOMpa' posn='210' vpos='vib_vib_4' name='siMha' chunkId='NP8' chunkType='head:NP8'>
22	ko	PSP	<fs af='ko,psp,,,,,,' posn='220' drel='lwg__psp:siMha' chunkType='child:NP8' name='ko'>
23	sOMpa	VM	<fs af='sOMpa,v,m,sg,any,,0_xe+yA_WA,0' drel='ccof:ki' stype='declarative' posn='230' voicetype='active' vpos='tam_2_3' name='sOMpa' chunkId='VGF2' chunkType='head:VGF2'>
24	xiyA	VAUX	<fs af='xe,v,m,sg,any,,yA,yA' posn='240' drel='lwg__vaux:sOMpa' chunkType='child:VGF2' name='xiyA'>
25	WA	VAUX	<fs af='WA,v,m,sg,any,,WA,WA' posn='250' drel='lwg__vaux:sOMpa' chunkType='child:VGF2' name='WA'>
26	.	SYM	<fs af='.,punc,,,,,,' drel='rsym:bawAyA' posn='260' name='.' chunkId='BLK' chunkType='head:BLK'>
</Sentence>


<Sentence id="3">
1	voharA	NNP	<fs af='voharA,n,any,sg,3,o,0_ne,0' drel='k1:xI' posn='10' vpos='vib_2' name='voharA' chunkId='NP' chunkType='head:NP'>
2	ne	PSP	<fs af='ne,psp,,,,,,' posn='20' drel='lwg__psp:voharA' chunkType='child:NP' name='ne'>
3	maMgalavAra	NNP	<fs af='maMgalavAra,n,m,sg,3,o,0_ko,0' drel='k7t:xI' posn='30' vpos='vib_2' name='maMgalavAra' chunkId='NP2' chunkType='head:NP2'>
4	ko	PSP	<fs af='ko,psp,,,,,,' posn='40' drel='lwg__psp:maMgalavAra' chunkType='child:NP2' name='ko'>
5	praXAnamaMwrI	NNP	<fs af='praXAnamaMwrI,n,m,sg,3,d,0,0' posn='50' drel='nmod__adj:siMha' chunkType='child:NP3' name='praXAnamaMwrI'>
6	manamohana	NNPC	<fs af='manamohana,n,m,sg,3,d,0,0' posn='60' drel='pof__cn:siMha' chunkType='child:NP3' name='manamohana'>
7	siMha	NNP	<fs af='siMha,n,m,sg,3,o,0_se,0' drel='k2:kara' posn='70' vpos='vib_vib_4' name='siMha' chunkId='NP3' chunkType='head:NP3'>
8	se	PSP	<fs af='se,psp,,,,,,' posn='80' drel='lwg__psp:siMha' chunkType='child:NP3' name='se'>
9	mulAkAwa	NN	<fs af='mulAkAwa,n,f,sg,3,d,0,0' drel='pof:kara' posn='90' name='mulAkAwa' chunkId='NP4' chunkType='head:NP4'>
10	kara	VM	<fs af='kara,v,any,any,any,,0,0' drel='vmod:xI' posn='100' name='kara' chunkId='VGNF' chunkType='head:VGNF'>
11	unheM	PRP	<fs af='vaha,pn,any,sg,3h,o,ko,ko' drel='k4:xI' posn='110' name='unheM' chunkId='NP5' chunkType='head:NP5'>
12	hurriyawa	NNPC	<fs af='hurriyawa,n,f,sg,3,d,0,0' posn='120' drel='pof__cn:kAMPreMsa' chunkType='child:NP6' name='hurriyawa'>
13	kAMPreMsa	NNP	<fs af='kAMPreMsa,n,f,sg,3,o,0_samewa,0' drel='ras-k1:xI' posn='130' vpos='vib_3' name='kAMPreMsa' chunkId='NP6' chunkType='head:NP6'>
14	samewa	PSP	<fs af='samewa,psp,,,,,,' posn='140' drel='lwg__psp:kAMPreMsa' chunkType='child:NP6' name='samewa'>
15	rAjya	NN	<fs af='rAjya,n,m,sg,3,o,0_kA,0' drel='r6:samUhoM' posn='150' vpos='vib_2' name='rAjya' chunkId='NP7' chunkType='head:NP7'>
16	ke	PSP	<fs af='kA,psp,m,pl,,o,,' posn='160' drel='lwg__psp:rAjya' chunkType='child:NP7' name='ke'>
17	viBinna	JJ	<fs af='viBinna,adj,any,any,,o,,' posn='170' drel='nmod__adj:samUhoM' chunkType='child:NP8' name='viBinna'>
18	alagAvavAxI	JJ	<fs af='alagAvavAxI,adj,any,any,,o,,' posn='180' drel='nmod__adj:samUhoM' chunkType='child:NP8' name='alagAvavAxI'>
19	samUhoM	NN	<fs af='samUha,n,m,pl,3,o,0_se,0' drel='ras-k1:xI' posn='190' vpos='vib_4' name='samUhoM' chunkId='NP8' chunkType='head:NP8'>
20	se	PSP	<fs af='se,psp,,,,,,' posn='200' drel='lwg__psp:samUhoM' chunkType='child:NP8' name='se2'>
21	bAwacIwa	NN	<fs af='bAwacIwa,n,f,sg,3,o,0_kA,0' drel='r6-k2:jAnakArI' posn='210' vpos='vib_2' name='bAwacIwa' chunkId='NP9' chunkType='head:NP9'>
22	kI	PSP	<fs af='kA,psp,f,sg,,d,,' posn='220' drel='lwg__psp:bAwacIwa' chunkType='child:NP9' name='kI'>
23	jAnakArI	NN	<fs af='jAnakArI,n,f,sg,3,d,0,0' drel='pof:xI' posn='230' name='jAnakArI' chunkId='NP10' chunkType='head:NP10'>
24	xI	VM	<fs af='xe,v,f,sg,any,,yA,yA' stype='declarative' posn='240' voicetype='active' name='xI' chunkId='VGF' chunkType='head:VGF'>
25	.	SYM	<fs af='.,punc,,,,,,' drel='rsym:xI' posn='250' name='.' chunkId='BLK' chunkType='head:BLK'>
</Sentence>


<Sentence id="4">
1	kaSmIra	NNP	<fs af='kaSmIra,n,m,sg,3,d,0,0' posn='10' drel='nmod__adj:samasyA' chunkType='child:NP' name='kaSmIra'>
2	samasyA	NN	<fs af='samasyA,n,f,sg,3,o,0_kA,0' drel='r6:hala' posn='20' vpos='vib_vib_3' name='samasyA' chunkId='NP' chunkType='head:NP'>
3	ke	PSP	<fs af='kA,psp,m,sg,,o,,' posn='30' drel='lwg__psp:samasyA' chunkType='child:NP' name='ke'>
4	hala	NN	<fs af='hala,n,m,sg,3,o,0_ke_lie,0' drel='rt:bawAwe' posn='40' vpos='vib_2_3' name='hala' chunkId='NP2' chunkType='head:NP2'>
5	ke	PSP	<fs af='ke,psp,,,,,,' posn='50' drel='lwg__psp:hala' chunkType='child:NP2' name='ke2'>
6	lie	PSP	<fs af='lie,psp,,,,,,' posn='60' drel='lwg__psp:hala' chunkType='child:NP2' name='lie'>
7	sAhasika	JJ	<fs af='sAhasika,adj,any,any,,o,,' drel='ccof:Ora' posn='70' name='sAhasika' chunkId='JJP' chunkType='head:JJP'>
8	Ora	CC	<fs af='Ora,avy,,,,,,' drel='nmod:koSiSoM' posn='80' name='Ora' chunkId='CCP' chunkType='head:CCP'>
9	gaMBIra	JJ	<fs af='gaMBIra,adj,any,any,,o,,' drel='ccof:Ora' posn='90' name='gaMBIra' chunkId='JJP2' chunkType='head:JJP2'>
10	koSiSoM	NN	<fs af='koSiSa,n,f,pl,3,o,0_ko,0' drel='k2:bawAwe' posn='100' vpos='vib_2' name='koSiSoM' chunkId='NP3' chunkType='head:NP3'>
11	ko	PSP	<fs af='ko,psp,,,,,,' posn='110' drel='lwg__psp:koSiSoM' chunkType='child:NP3' name='ko'>
12	jarUrI	JJ	<fs af='jarUrI,adj,any,any,,,,' drel='pof:bawAwe' posn='120' name='jarUrI' chunkId='JJP3' chunkType='head:JJP3'>
13	bawAwe	VM	<fs af='bawA,v,m,sg,3,,wA_ho+yA,wA' drel='vmod:raKA' posn='130' vpos='tam_2' name='bawAwe' chunkId='VGNF' chunkType='head:VGNF'>
14	hue	VAUX	<fs af='ho,v,m,sg,3,,yA,yA' posn='140' drel='lwg__vaux:bawAwe' chunkType='child:VGNF' name='hue'>
15	mAkapA	NNP	<fs af='mAkapA,n,f,sg,3,o,0_kA,0' drel='r6:IkAI' posn='150' vpos='vib_2' name='mAkapA' chunkId='NP4' chunkType='head:NP4'>
16	kI	PSP	<fs af='kA,psp,f,sg,,o,,' posn='160' drel='lwg__psp:mAkapA' chunkType='child:NP4' name='kI'>
17	rAjya	NNC	<fs af='rAjya,n,m,sg,3,d,0,0' posn='170' drel='pof__cn:IkAI' chunkType='child:NP5' name='rAjya'>
18	IkAI	NN	<fs af='IkAI,n,f,sg,3,o,0_ne,0' drel='k1:raKA' posn='180' vpos='vib_3' name='IkAI' chunkId='NP5' chunkType='head:NP5'>
19	ne	PSP	<fs af='ne,psp,,,,,,' posn='190' drel='lwg__psp:IkAI' chunkType='child:NP5' name='ne'>
20	maMgalavAra	NNP	<fs af='maMgalavAra,n,m,sg,3,o,0_ko,0' drel='k7t:raKA' posn='200' vpos='vib_2' name='maMgalavAra' chunkId='NP6' chunkType='head:NP6'>
21	ko	PSP	<fs af='ko,psp,,,,,,' posn='210' drel='lwg__psp:maMgalavAra' chunkType='child:NP6' name='ko2'>
22	keMxra	NNP	<fs af='keMxra,n,m,sg,3,o,0_meM,0' drel='k7:raKA' posn='220' vpos='vib_2' name='keMxra' chunkId='NP7' chunkType='head:NP7'>
23	meM	PSP	<fs af='meM,psp,,,,,,' posn='230' drel='lwg__psp:keMxra' chunkType='child:NP7' name='meM'>
24	kAMgresa	NNP	<fs af='kAMgresa,n,f,sg,3,d,0,0' posn='240' drel='nmod__adj:newqwva' chunkType='child:NP8' name='kAMgresa'>
25	newqwva	NN	<fs af='newqwva,n,m,sg,3,o,0_vAlA,0' drel='nmod:alAyaMsa' posn='250' vpos='vib_vib_3' name='newqwva' chunkId='NP8' chunkType='head:NP8'>
26	vAle	PSP	<fs af='vAlA,psp,m,sg,,o,,' posn='260' drel='lwg__psp:newqwva' chunkType='child:NP8' name='vAle'>
27	yUnAiteda	NNPC	<fs af='yUnAiteda,n,m,sg,3,d,0,0' posn='240' drel='pof__cn:alAyaMsa' chunkType='child:NP9' name='yUnAiteda'>
28	progresiva	NNPC	<fs af='progresiva,n,m,sg,3,d,0,0' posn='240' drel='pof__cn:alAyaMsa' chunkType='child:NP9' name='progresiva'>
29	alAyaMsa	NNP	<fs af='alAyaMsa,n,m,sg,3,o,0,0' drel='ras-k1:raKA' posn='240' name='alAyaMsa' chunkId='NP9' chunkType='head:NP9'>
30	(	SYM	<fs af='(,punc,,,,,,' posn='300' drel='rsym:yUpIe' chunkType='child:NP10' name='('>
31	yUpIe	NNP	<fs af='yUpIe,n,m,sg,3,o,0,0' drel='rs:alAyaMsa' posn='240' name='yUpIe' chunkId='NP10' chunkType='head:NP10'>
32	)	SYM	<fs af='),punc,,,,,,' posn='320' drel='rsym:yUpIe' chunkType='child:NP10' name=')'>
33	se	PSP	<fs drel='fragof:alAyaMsa' name='se' chunkId='FRAGP' chunkType='head:FRAGP'>
34	nyUnawama	NNPC	<fs af='nyUnawama,adj,any,any,,,,' posn='120' drel='pof__cn:kAryakrama' chunkType='child:NP11' name='nyUnawama'>
35	sAJA	NNPC	<fs af='sAJA,n,m,sg,3,d,0,0' posn='350' drel='pof__cn:kAryakrama' chunkType='child:NP11' name='sAJA'>
36	kAryakrama	NNP	<fs af='kAryakrama,n,m,sg,3,o,0_meM,0' drel='k7:raKA' posn='360' vpos='vib_4' name='kAryakrama' chunkId='NP11' chunkType='head:NP11'>
37	meM	PSP	<fs af='meM,psp,,,,,,' posn='370' drel='lwg__psp:kAryakrama' chunkType='child:NP11' name='meM2'>
38	pAkiswAna	NNP	<fs af='pAkiswAna,n,m,sg,3,o,0_ke_sAWa,0' drel='ras-k1:raKane' posn='380' vpos='vib_2_3' name='pAkiswAna' chunkId='NP12' chunkType='head:NP12'>
39	ke	PSP	<fs af='ke,psp,,,,,,' posn='390' drel='lwg__psp:pAkiswAna' chunkType='child:NP12' name='ke3'>
40	sAWa	NST	<fs af='sAWa,nst,m,sg,3,d,,' posn='400' drel='lwg__psp:pAkiswAna' chunkType='child:NP12' name='sAWa'>
41	vArwA	NNC	<fs af='vArwA,n,f,sg,3,d,0,0' posn='410' drel='pof__cn:prakriyA' chunkType='child:NP13' name='vArwA'>
42	prakriyA	NN	<fs af='prakriyA,n,f,sg,3,d,0,0' drel='k2:raKane' posn='420' name='prakriyA' chunkId='NP13' chunkType='head:NP13'>
43	jArI	JJ	<fs af='jArI,adj,any,any,,o,,' drel='pof:raKane' posn='430' name='jArI' chunkId='JJP4' chunkType='head:JJP4'>
44	raKane	VM	<fs af='raKa,v,any,any,any,o,nA,nA' drel='ccof:Ora2' posn='440' name='raKane' chunkId='VGNN' chunkType='head:VGNN'>
45	Ora	CC	<fs af='Ora,avy,,,,,,' drel='r6-k2:praswAva' posn='450' name='Ora2' chunkId='CCP2' chunkType='head:CCP2'>
46	alagAvavAxiyoM	NN	<fs af='alagAvavAxI,n,m,pl,3,o,0_ko,0' drel='k2:karane' posn='420' vpos='vib_2' name='alagAvavAxiyoM' chunkId='NP14' chunkType='head:NP14'>
47	ko	PSP	<fs af='ko,psp,,,,,,' posn='470' drel='lwg__psp:alagAvavAxiyoM' chunkType='child:NP14' name='ko3'>
48	SAmila	JJ	<fs af='SAmila,adj,any,any,,,,' drel='pof:karane' posn='480' name='SAmila' chunkId='JJP5' chunkType='head:JJP5'>
49	karane	VM	<fs af='kara,v,any,sg,any,o,nA_kA,nA' drel='ccof:Ora2' posn='490' vpos='tam_2' name='karane' chunkId='VGNN2' chunkType='head:VGNN2'>
50	kA	PSP	<fs af='kA,psp,m,sg,,d,,' posn='500' drel='lwg__psp:karane' chunkType='child:VGNN2' name='kA'>
51	praswAva	NN	<fs af='praswAva,n,m,sg,3,d,0,0' drel='pof:raKA' posn='510' name='praswAva' chunkId='NP15' chunkType='head:NP15'>
52	raKA	VM	<fs af='raKa,v,m,sg,3,,yA_hE,yA' stype='declarative' posn='520' voicetype='active' vpos='tam_2' name='raKA' chunkId='VGF' chunkType='head:VGF'>
53	hE	VAUX	<fs af='hE,v,any,sg,3,,hE,hE' posn='530' drel='lwg__vaux:raKA' chunkType='child:VGF' name='hE'>
54	.	SYM	<fs af='.,punc,,,,,,' drel='rsym:raKA' posn='540' name='.' chunkId='BLK' chunkType='head:BLK'>
</Sentence>


<Sentence id="5">
1	hurriyawa	NNPC	<fs af='hurriyawa,n,f,sg,3,d,0,0' posn='10' drel='pof__cn:kAMPreMsa' chunkType='child:NP' name='hurriyawa'>
2	kAMPreMsa	NNP	<fs af='kAMPreMsa,n,f,sg,3,o,0_ne,0' drel='k1:jawAI' posn='20' vpos='vib_3' name='kAMPreMsa' chunkId='NP' chunkType='head:NP'>
3	ne	PSP	<fs af='ne,psp,,,,,,' posn='30' drel='lwg__psp:kAMPreMsa' chunkType='child:NP' name='ne'>
4	nae	JJ	<fs af='nayA,adj,m,sg,,o,,' posn='40' drel='nmod__adj:SivarAja' chunkType='child:NP2' name='nae'>
5	gqha	NNPC	<fs af='gqha,n,m,sg,3,d,0,0' posn='50' drel='pof__cn:maMwrI' chunkType='child:NP2' name='gqha'>
6	maMwrI	NNP	<fs af='maMwrI,n,m,sg,3,d,0,0' posn='60' drel='nmod__adj:pAtila' chunkType='child:NP2' name='maMwrI'>
7	SivarAja	NNPC	<fs af='SivarAja,n,m,sg,3,d,0,0' posn='70' drel='pof__cn:pAtila' chunkType='child:NP2' name='SivarAja'>
8	pAtila	NNP	<fs af='pAtila,n,any,sg,3,o,0_kA,0' drel='r6:kaSmIra' posn='80' vpos='vib_vib_6' name='pAtila' chunkId='NP2' chunkType='head:NP2'>
9	ke	PSP	<fs af='kA,psp,m,sg,,o,,' posn='90' drel='lwg__psp:pAtila' chunkType='child:NP2' name='ke'>
10	kaSmIra	NNP	<fs af='kaSamIra,n,m,sg,3,o,0_meM,0' drel='k7p:raKane' posn='100' vpos='vib_2' name='kaSmIra' chunkId='NP3' chunkType='head:NP3'>
11	meM	PSP	<fs af='meM,psp,,,,,,' posn='110' drel='lwg__psp:kaSmIra' chunkType='child:NP3' name='meM'>
12	alagAvavAxiyoM	NN	<fs af='alagAvavAxI,n,m,pl,3,o,0_ke_sAWa,0' drel='ras-k1:raKane' posn='120' vpos='vib_2_3' name='alagAvavAxiyoM' chunkId='NP4' chunkType='head:NP4'>
13	ke	PSP	<fs af='ke,psp,,,,,,' posn='130' drel='lwg__psp:alagAvavAxiyoM' chunkType='child:NP4' name='ke2'>
14	sAWa	NST	<fs af='sAWa,nst,m,sg,3,d,,' posn='140' drel='lwg__psp:alagAvavAxiyoM' chunkType='child:NP4' name='sAWa'>
15	vArwA	NN	<fs af='vArwA,n,f,sg,3,d,0,0' drel='k2:raKane' posn='150' name='vArwA' chunkId='NP5' chunkType='head:NP5'>
16	jArI	JJ	<fs af='jArI,adj,any,any,,,,' drel='pof:raKane' posn='160' name='jArI' chunkId='JJP' chunkType='head:JJP'>
17	raKane	VM	<fs af='raKa,v,any,sg,any,o,nA_kA,nA' drel='r6:bayAna' posn='170' vpos='tam_2' name='raKane' chunkId='VGNN' chunkType='head:VGNN'>
18	ke	PSP	<fs af='kA,psp,m,sg,,o,,' posn='180' drel='lwg__psp:raKane' chunkType='child:VGNN' name='ke3'>
19	bayAna	NN	<fs af='bayAna,n,m,sg,3,o,0_kA,0' drel='r6-k2:svAgawa' posn='190' vpos='vib_2' name='bayAna' chunkId='NP6' chunkType='head:NP6'>
20	kA	PSP	<fs af='kA,psp,m,sg,,d,,' posn='200' drel='lwg__psp:bayAna' chunkType='child:NP6' name='kA'>
21	svAgawa	NN	<fs af='svAgawa,n,m,sg,3,d,0,0' drel='pof:karawe' posn='210' name='svAgawa' chunkId='NP7' chunkType='head:NP7'>
22	karawe	VM	<fs af='kara,v,m,sg,3,,wA,wA' drel='vmod:jawAI' posn='220' name='karawe' chunkId='VGNF' chunkType='head:VGNF'>
23	hue	VM	<fs af='ho,v,m,sg,3,,wA,wA' posn='230' drel='lwg__vm:karawe' chunkType='child:VGNF' name='hue'>
24	ummIxa	NN	<fs af='ummIxa,n,f,sg,3,d,0,0' drel='pof:jawAI' posn='240' name='ummIxa' chunkId='NP8' chunkType='head:NP8'>
25	jawAI	VM	<fs af='jawA,v,f,sg,3,,yA_hE,yA' stype='declarative' posn='250' voicetype='active' vpos='tam_2' name='jawAI' chunkId='VGF' chunkType='head:VGF'>
26	hE	VAUX	<fs af='hE,v,any,sg,3,,hE,hE' posn='260' drel='lwg__vaux:jawAI' chunkType='child:VGF' name='hE'>
27	ki	CC	<fs af='ki,avy,,,,,,' drel='k2:jawAI' posn='270' name='ki' chunkId='CCP' chunkType='head:CCP'>
28	kAMgresa	NNP	<fs af='kAMgresa,n,f,sg,3,d,0,0' posn='280' drel='nmod__adj:newqwva' chunkType='child:NP9' name='kAMgresa'>
29	newqwva	NN	<fs af='newqwva,n,m,sg,3,o,0_vAlA,0' drel='nmod:sarakAra' posn='290' vpos='vib_vib_3' name='newqwva' chunkId='NP9' chunkType='head:NP9'>
30	vAlI	PSP	<fs af='vAlA,psp,f,sg,,d,,' posn='300' drel='lwg__psp:newqwva' chunkType='child:NP9' name='vAlI'>
31	yUpIe	NNP	<fs af='yUpIe,n,m,sg,3,d,0,0' posn='70' drel='nmod__adj:sarakAra' chunkType='child:NP10' name='yUpIe'>
32	sarakAra	NN	<fs af='sarakAra,n,f,sg,3,d,0,0' drel='k1:karegI' posn='320' name='sarakAra' chunkId='NP10' chunkType='head:NP10'>
33	rAjaga	NNP	<fs af='rAjaga,n,m,sg,3,d,0,0' posn='330' drel='nmod__adj:sarakAra2' chunkType='child:NP11' name='rAjaga'>
34	sarakAra	NN	<fs af='sarakAra,n,f,sg,3,o,0_ke_sAWa,0' drel='ras-k1:karegI' posn='340' vpos='vib_vib_3_4' name='sarakAra2' chunkId='NP11' chunkType='head:NP11'>
35	ke	PSP	<fs af='ke,psp,,,,,,' posn='350' drel='lwg__psp:sarakAra2' chunkType='child:NP11' name='ke4'>
36	sAWa	NST	<fs af='sAWa,nst,m,sg,3,d,,' posn='360' drel='lwg__psp:sarakAra2' chunkType='child:NP11' name='sAWa2'>
37	vArwA	NN	<fs af='vArwA,n,f,sg,3,o,0_kA,0' drel='r6:nawIjoM' posn='370' vpos='vib_2' name='vArwA2' chunkId='NP12' chunkType='head:NP12'>
38	ke	PSP	<fs af='kA,psp,m,sg,,o,,' posn='380' drel='lwg__psp:vArwA2' chunkType='child:NP12' name='ke5'>
39	nawIjoM	NN	<fs af='nawIjA,n,m,pl,3,o,0_kA,0' drel='r6-k2:sammAna' posn='390' vpos='vib_2' name='nawIjoM' chunkId='NP13' chunkType='head:NP13'>
40	kA	PSP	<fs af='kA,psp,m,sg,,d,,' posn='400' drel='lwg__psp:nawIjoM' chunkType='child:NP13' name='kA2'>
41	sammAna	NN	<fs af='sammAna,n,m,sg,3,d,0,0' drel='pof:karegI' posn='410' name='sammAna' chunkId='NP14' chunkType='head:NP14'>
42	karegI	VM	<fs af='kara,v,f,sg,3,,gA,gA' drel='ccof:ki' stype='declarative' posn='420' voicetype='active' name='karegI' chunkId='VGF2' chunkType='head:VGF2'>
43	.	SYM	<fs af='.,punc,,,,,,' drel='rsym:jawAI' posn='430' name='.' chunkId='BLK' chunkType='head:BLK'>
</Sentence>


<Sentence id="6">
1	sUwroM	NN	<fs af='sUwra,n,m,pl,3,o,0_ne,0' drel='k1:bawAyA' posn='10' vpos='vib_2' name='sUwroM' chunkId='NP' chunkType='head:NP'>
2	ne	PSP	<fs af='ne,psp,,,,,,' posn='20' drel='lwg__psp:sUwroM' chunkType='child:NP' name='ne'>
3	bawAyA	VM	<fs af='bawA,v,m,sg,any,,yA,yA' stype='declarative' posn='30' voicetype='active' name='bawAyA' chunkId='VGF' chunkType='head:VGF'>
4	ki	CC	<fs af='ki,avy,,,,,,' drel='k2:bawAyA' posn='40' name='ki' chunkId='CCP' chunkType='head:CCP'>
5	voharA	NNP	<fs af='voharA,n,any,sg,3,o,0_ne,0' drel='k1:xiyA' posn='50' vpos='vib_2' name='voharA' chunkId='NP2' chunkType='head:NP2'>
6	ne	PSP	<fs af='ne,psp,,,,,,' posn='60' drel='lwg__psp:voharA' chunkType='child:NP2' name='ne2'>
7	rAjaga	NNP	<fs af='rAjaga,n,m,sg,3,d,0,0' posn='70' drel='nmod__adj:sarakAra' chunkType='child:NP3' name='rAjaga'>
8	sarakAra	NN	<fs af='sarakAra,n,f,sg,3,o,0_kA_ora_se,0' drel='rd:xiyA' posn='80' vpos='vib_vib_3_4_5' name='sarakAra' chunkId='NP3' chunkType='head:NP3'>
9	kI	PSP	<fs af='kA,psp,f,sg,,o,,' posn='90' drel='lwg__psp:sarakAra' chunkType='child:NP3' name='kI'>
10	ora	NST	<fs af='ora,nst,f,sg,3,o,,' posn='100' drel='lwg__psp:sarakAra' chunkType='child:NP3' name='ora'>
11	se	PSP	<fs af='se,psp,,,,,,' posn='110' drel='lwg__psp:sarakAra' chunkType='child:NP3' name='se'>
12	unakI	PRP	<fs af='vaha,pn,f,sg,3h,o,kA,kA' drel='r6-k2:niyukwi' posn='120' name='unakI' chunkId='NP4' chunkType='head:NP4'>
13	niyukwi	NN	<fs af='niyukwi,n,f,sg,3,d,0,0' drel='pof:kie' posn='130' name='niyukwi' chunkId='NP5' chunkType='head:NP5'>
14	kie	VM	<fs af='kara,v,f,sg,3,,yA_jA+nA_kA_vajaha_se,yA' drel='rh:xiyA' posn='140' vpos='tam_2_3_4_5' name='kie' chunkId='VGNN' chunkType='head:VGNN'>
15	jAne	VAUX	<fs af='jA,v,any,any,any,o,nA,nA' posn='150' drel='lwg__vaux:kie' chunkType='child:VGNN' name='jAne'>
16	kI	PSP	<fs af='kA,psp,f,,,o,,' posn='160' drel='lwg__psp:kie' chunkType='child:VGNN' name='kI2'>
17	vajaha	PSP	<fs af='vajaha,n,f,,,o,,' posn='160' drel='lwg__psp:kie' chunkType='child:VGNN' name='vajaha'>
18	se	PSP	<fs af='se,psp,,,,,,' posn='180' drel='lwg__psp:kie' chunkType='child:VGNN' name='se2'>
19	paxa	NN	<fs af='paxa,n,m,sg,3,o,0_se,0' drel='k5:xiyA' posn='190' vpos='vib_2' name='paxa' chunkId='NP6' chunkType='head:NP6'>
20	se	PSP	<fs af='se,psp,,,,,,' posn='200' drel='lwg__psp:paxa' chunkType='child:NP6' name='se3'>
21	iswIPA	NN	<fs af='iswIPA,n,m,sg,3,d,0,0' drel='pof:xiyA' posn='210' name='iswIPA' chunkId='NP7' chunkType='head:NP7'>
22	xiyA	VM	<fs af='xe,v,m,sg,3,,yA_hE,yA' drel='ccof:ki' stype='declarative' posn='220' voicetype='active' vpos='tam_2' name='xiyA' chunkId='VGF2' chunkType='head:VGF2'>
23	hE	VAUX	<fs af='hE,v,any,sg,3,,hE,hE' posn='230' drel='lwg__vaux:xiyA' chunkType='child:VGF2' name='hE'>
24	.	SYM	<fs af='.,punc,,,,,,' drel='rsym:bawAyA' posn='240' name='.' chunkId='BLK' chunkType='head:BLK'>
</Sentence>


<Sentence id="7">
1	hAlAMki	CC	<fs af='hAlAMki,avy,,,,,,' posn='10' name='hAlAMki' chunkId='CCP' chunkType='head:CCP'>
2	kAMgresa	NNP	<fs af='kAMgresa,n,f,sg,3,d,0,0' posn='20' drel='nmod__adj:newqwva' chunkType='child:NP' name='kAMgresa'>
3	newqwva	NN	<fs af='newqwva,n,m,sg,3,o,0_vAlA,0' drel='nmod:sarakAra' posn='30' vpos='vib_vib_3' name='newqwva' chunkId='NP' chunkType='head:NP'>
4	vAlI	PSP	<fs af='vAlA,psp,f,sg,,o,,' posn='40' drel='lwg__psp:newqwva' chunkType='child:NP' name='vAlI'>
5	yUpIe	NNP	<fs af='yUpIe,n,m,sg,3,d,0,0' posn='60' drel='nmod__adj:sarakAra' chunkType='child:NP2' name='yUpIe'>
6	sarakAra	NN	<fs af='sarakAra,n,f,sg,3,o,0_ko,0' drel='k1:karanA' posn='60' vpos='vib_vib_3' name='sarakAra' chunkId='NP2' chunkType='head:NP2'>
7	ko	PSP	<fs af='ko,psp,,,,,,' posn='70' drel='lwg__psp:sarakAra' chunkType='child:NP2' name='ko'>
8	aBI	PRP	<fs af='aBI,pn,,,,d,,' drel='k7t:karanA' posn='80' name='aBI' chunkId='NP3' chunkType='head:NP3'>
9	waya	JJ	<fs af='waya,adj,any,any,,,,' drel='pof:karanA' posn='90' name='waya' chunkId='JJP' chunkType='head:JJP'>
10	karanA	VM	<fs af='kara,v,any,any,any,d,nA,nA' drel='k1:hE' posn='100' name='karanA' chunkId='VGNN' chunkType='head:VGNN'>
11	bAkI	JJ	<fs af='bAkI,adj,any,any,,,,' drel='k1s:hE' posn='110' name='bAkI' chunkId='JJP2' chunkType='head:JJP2'>
12	hE	VM	<fs af='hE,v,any,sg,3,,hE,hE' drel='ccof:hAlAMki' stype='declarative' posn='120' voicetype='active' name='hE' chunkId='VGF' chunkType='head:VGF'>
13	ki	CC	<fs af='ki,avy,,,,,,' drel='k2:karanA' posn='130' name='ki' chunkId='CCP2' chunkType='head:CCP2'>
14	vArwA	NNC	<fs af='vArwA,n,f,sg,3,d,0,0' posn='140' drel='pof__cn:prakriyA' chunkType='child:NP4' name='vArwA'>
15	prakriyA	NN	<fs af='prakriyA,n,f,sg,3,d,0,0' drel='k2:raKane' posn='150' name='prakriyA' chunkId='NP4' chunkType='head:NP4'>
16	jArI	JJ	<fs af='jArI,adj,any,any,,,,' drel='pof:raKane' posn='160' name='jArI' chunkId='JJP3' chunkType='head:JJP3'>
17	raKane	VM	<fs af='raKa,v,any,any,any,o,nA_ke_lie,nA' drel='rt:banAe' posn='170' vpos='tam_2_3' name='raKane' chunkId='VGNN2' chunkType='head:VGNN2'>
18	ke	PSP	<fs af='ke,psp,,,,,,' posn='180' drel='lwg__psp:raKane' chunkType='child:VGNN2' name='ke'>
19	lie	PSP	<fs af='lie,psp,,,,,,' posn='190' drel='lwg__psp:raKane' chunkType='child:VGNN2' name='lie'>
20	voharA	NNP	<fs af='voharA,n,any,sg,3,o,0_ko,0' drel='k2:banAe' posn='200' vpos='vib_2' name='voharA' chunkId='NP5' chunkType='head:NP5'>
21	ko	PSP	<fs af='ko,psp,,,,,,' posn='210' drel='lwg__psp:voharA' chunkType='child:NP5' name='ko2'>
22	paxa	NN	<fs af='paxa,n,m,sg,3,o,0_para,0' drel='k7:banAe' posn='220' vpos='vib_2' name='paxa' chunkId='NP6' chunkType='head:NP6'>
23	para	PSP	<fs af='para,psp,,,,,,' posn='230' drel='lwg__psp:paxa' chunkType='child:NP6' name='para'>
24	banAe	VM	<fs af='banA,v,m,sg,3,,yA_raKa+yA_jA+eM,yA' drel='ccof:yA' stype='declarative' posn='240' voicetype='active' vpos='tam_2_3' name='banAe' chunkId='VGF2' chunkType='head:VGF2'>
25	raKA	VAUX	<fs af='raKa,v,m,sg,any,,yA,yA' posn='250' drel='lwg__vaux:banAe' chunkType='child:VGF2' name='raKA'>
26	jAe	VAUX	<fs af='jA,v,any,sg,3,,eM,eM' posn='260' drel='lwg__vaux:banAe' chunkType='child:VGF2' name='jAe'>
27	yA	CC	<fs af='yA,avy,,,,,,' drel='ccof:ki' posn='270' name='yA' chunkId='CCP3' chunkType='head:CCP3'>
28	Pira	RB	<fs af='Pira,adv,,,,,,' drel='vmod:lAyA' posn='280' name='Pira' chunkId='RBP' chunkType='head:RBP'>
29	unake	PRP	<fs af='vaha,pn,m,sg,3h,o,kA,kA' drel='r6:sWAna' posn='290' name='unake' chunkId='NP7' chunkType='head:NP7'>
30	sWAna	NN	<fs af='sWAna,n,m,sg,3,o,0_para,0' drel='k7:lAyA' posn='300' vpos='vib_2' name='sWAna' chunkId='NP8' chunkType='head:NP8'>
31	para	PSP	<fs af='para,psp,,,,,,' posn='310' drel='lwg__psp:sWAna' chunkType='child:NP8' name='para2'>
32	kisI	PRP	<fs af='koI,pn,any,sg,3,o,0,0' posn='320' drel='nmod__adj:Ora' chunkType='child:NP9' name='kisI'>
33	Ora	NN	<fs af='Ora,n,m,sg,3,o,0_ko,0' drel='k2:lAyA' posn='330' vpos='vib_vib_3' name='Ora' chunkId='NP9' chunkType='head:NP9'>
34	ko	PSP	<fs af='ko,psp,,,,,,' posn='340' drel='lwg__psp:Ora' chunkType='child:NP9' name='ko3'>
35	lAyA	VM	<fs af='lA,v,m,sg,3,,yA_jA+eM,yA' drel='ccof:yA' stype='declarative' posn='350' voicetype='active' vpos='tam_2' name='lAyA' chunkId='VGF3' chunkType='head:VGF3'>
36	jAe	VAUX	<fs af='jA,v,any,sg,3,,eM,eM' posn='360' drel='lwg__vaux:lAyA' chunkType='child:VGF3' name='jAe2'>
37	.	SYM	<fs af='.,punc,,,,,,' drel='rsym:hAlAMki' posn='370' name='.' chunkId='BLK' chunkType='head:BLK'>
</Sentence>


<Sentence id="8">
1	voharA	NNP	<fs af='voharA,n,any,sg,3,o,0_ne,0' drel='k1:xI' posn='10' vpos='vib_2' name='voharA' chunkId='NP' chunkType='head:NP'>
2	ne	PSP	<fs af='ne,psp,,,,,,' posn='20' drel='lwg__psp:voharA' chunkType='child:NP' name='ne'>
3	maMgalavAra	NNP	<fs af='maMgalavAra,n,m,sg,3,o,0_ko,0' drel='k7t:xI' posn='30' vpos='vib_2' name='maMgalavAra' chunkId='NP2' chunkType='head:NP2'>
4	ko	PSP	<fs af='ko,psp,,,,,,' posn='40' drel='lwg__psp:maMgalavAra' chunkType='child:NP2' name='ko'>
5	praXAnamaMwrI	NNP	<fs af='praXAnamaMwrI,n,m,sg,3,d,0,0' posn='50' drel='nmod__adj:siMha' chunkType='child:NP3' name='praXAnamaMwrI'>
6	manamohana	NNPC	<fs af='manamohana,n,m,sg,3,d,0,0' posn='60' drel='pof__cn:siMha' chunkType='child:NP3' name='manamohana'>
7	siMha	NNP	<fs af='siMha,n,m,sg,3,o,0_se,0' drel='k2:kara' posn='70' vpos='vib_vib_4' name='siMha' chunkId='NP3' chunkType='head:NP3'>
8	se	PSP	<fs af='se,psp,,,,,,' posn='80' drel='lwg__psp:siMha' chunkType='child:NP3' name='se'>
9	mulAkAwa	NN	<fs af='mulAkAwa,n,f,sg,3,d,0,0' drel='pof:kara' posn='90' name='mulAkAwa' chunkId='NP4' chunkType='head:NP4'>
10	kara	VM	<fs af='kara,v,any,any,any,,0,0' drel='vmod:xI' posn='100' name='kara' chunkId='VGNF' chunkType='head:VGNF'>
11	unheM	PRP	<fs af='vaha,pn,any,sg,3h,o,ko,ko' drel='k4:xI' posn='110' name='unheM' chunkId='NP5' chunkType='head:NP5'>
12	hurriyawa	NNPC	<fs af='hurriyawa,n,f,sg,3,d,0,0' posn='120' drel='pof__cn:kAMPreMsa' chunkType='child:NP6' name='hurriyawa'>
13	kAMPreMsa	NNP	<fs af='kAMPreMsa,n,f,sg,3,o,0_samewa,0' drel='vmod:xI' posn='130' vpos='vib_3' name='kAMPreMsa' chunkId='NP6' chunkType='head:NP6'>
14	samewa	PSP	<fs af='samewa,psp,,,,,,' posn='140' drel='lwg__psp:kAMPreMsa' chunkType='child:NP6' name='samewa'>
15	rAjya	NN	<fs af='rAjya,n,m,sg,3,o,0_kA,0' drel='r6:saMgaTanoM' posn='150' vpos='vib_2' name='rAjya' chunkId='NP7' chunkType='head:NP7'>
16	ke	PSP	<fs af='kA,psp,m,pl,,o,,' posn='160' drel='lwg__psp:rAjya' chunkType='child:NP7' name='ke'>
17	viBinna	JJ	<fs af='viBinna,adj,any,any,,o,,' posn='170' drel='nmod__adj:saMgaTanoM' chunkType='child:NP8' name='viBinna'>
18	alagAvavAxI	JJ	<fs af='alagAvavAxI,adj,any,any,,o,,' posn='180' drel='nmod__adj:saMgaTanoM' chunkType='child:NP8' name='alagAvavAxI'>
19	saMgaTanoM	NN	<fs af='saMgaTana,n,m,pl,3,o,0_ke_sAWa,0' drel='ras-r6:xI' posn='190' vpos='vib_4_5' name='saMgaTanoM' chunkId='NP8' chunkType='head:NP8'>
20	ke	PSP	<fs af='ke,psp,,,,,,' posn='200' drel='lwg__psp:saMgaTanoM' chunkType='child:NP8' name='ke2'>
21	sAWa	NST	<fs af='sAWa,nst,m,sg,3,d,,' posn='210' drel='lwg__psp:saMgaTanoM' chunkType='child:NP8' name='sAWa'>
22	unakI	PRP	<fs af='vaha,pn,f,sg,3h,o,kA,kA' drel='r6:vArwA' posn='220' name='unakI' chunkId='NP9' chunkType='head:NP9'>
23	vArwA	NN	<fs af='vArwA,n,f,sg,3,o,0_kA,0' drel='r6-k2:jAnakArI' posn='230' vpos='vib_2' name='vArwA' chunkId='NP10' chunkType='head:NP10'>
24	kI	PSP	<fs af='kA,psp,f,sg,,d,,' posn='240' drel='lwg__psp:vArwA' chunkType='child:NP10' name='kI'>
25	jAnakArI	NN	<fs af='jAnakArI,n,f,sg,3,d,0,0' drel='pof:xI' posn='250' name='jAnakArI' chunkId='NP11' chunkType='head:NP11'>
26	xI	VM	<fs af='xe,v,f,sg,3,,yA,yA' stype='declarative' posn='260' voicetype='active' name='xI' chunkId='VGF' chunkType='head:VGF'>
27	.	SYM	<fs af='.,punc,,,,,,' drel='rsym:xI' posn='270' name='.' chunkId='BLK' chunkType='head:BLK'>
</Sentence>


<Sentence id="9">
1	vahIM	RB	<fs af='vahIM,adv,,,,,,' drel='sent-adv:kahA' posn='10' name='vahIM' chunkId='RBP' chunkType='head:RBP'>
2	,	SYM	<fs af='COMMA,punc,,,,,,' posn='20' drel='rsym:vahIM' chunkType='child:RBP' name=','>
3	jammU	NNPC	<fs af='jammU,n,m,sg,3,d,0,0' posn='30' drel='pof__cn:kaSmIra' chunkType='child:NP' name='jammU'>
4	-	SYM	<fs af='-,punc,,,,,,' posn='40' drel='rsym:kaSmIra' chunkType='child:NP' name='-'>
5	kaSmIra	NNP	<fs af='kaSamIra,n,m,sg,3,o,0_meM,0' drel='k7p:kahA' posn='50' vpos='vib_4' name='kaSmIra' chunkId='NP' chunkType='head:NP'>
6	meM	PSP	<fs af='meM,psp,,,,,,' posn='60' drel='lwg__psp:kaSmIra' chunkType='child:NP' name='meM'>
7	mAkapA	NNP	<fs af='mAkapA,n,f,sg,3,o,0_kA,0' drel='r6:IkAI' posn='70' vpos='vib_2' name='mAkapA' chunkId='NP2' chunkType='head:NP2'>
8	kI	PSP	<fs af='kA,psp,f,sg,,o,,' posn='80' drel='lwg__psp:mAkapA' chunkType='child:NP2' name='kI'>
9	rAjya	NNC	<fs af='rAjya,n,m,sg,3,d,0,0' posn='90' drel='pof__cn:IkAI' chunkType='child:NP3' name='rAjya'>
10	IkAI	NN	<fs af='IkAI,n,f,sg,3,o,0_kA,0' drel='r6:saciva' posn='100' vpos='vib_3' name='IkAI' chunkId='NP3' chunkType='head:NP3'>
11	ke	PSP	<fs af='kA,psp,m,sg,,o,,' posn='110' drel='lwg__psp:IkAI' chunkType='child:NP3' name='ke'>
12	saciva	NN	<fs af='saciva,n,m,sg,3,o,0,0' drel='nmod:wArIgAmI' posn='120' name='saciva' chunkId='NP4' chunkType='head:NP4'>
13	ema.	NNPC	<fs af='ema.,n,m,sg,3,d,0,0' posn='130' drel='pof__cn:wArIgAmI' chunkType='child:NP5' name='ema.'>
14	vAI.	NNPC	<fs af='vAI,n,m,sg,3,d,0,0' posn='140' drel='pof__cn:wArIgAmI' chunkType='child:NP5' name='vAI.'>
15	wArIgAmI	NNP	<fs af='wArIgAmI,n,any,sg,3,o,0_ne,0' drel='k1:kahA' posn='150' vpos='vib_4' name='wArIgAmI' chunkId='NP5' chunkType='head:NP5'>
16	ne	PSP	<fs af='ne,psp,,,,,,' posn='160' drel='lwg__psp:wArIgAmI' chunkType='child:NP5' name='ne'>
17	pawrakAroM	NN	<fs af='pawrakAra,n,m,pl,3,o,0_se,0' drel='k4:kahA' posn='170' vpos='vib_2' name='pawrakAroM' chunkId='NP6' chunkType='head:NP6'>
18	se	PSP	<fs af='se,psp,,,,,,' posn='180' drel='lwg__psp:pawrakAroM' chunkType='child:NP6' name='se'>
19	kahA	VM	<fs af='kaha,v,m,sg,3,,yA,yA' stype='declarative' posn='190' voicetype='active' name='kahA' chunkId='VGF' chunkType='head:VGF'>
20	ki	CC	<fs af='ki,avy,,,,,,' drel='k2:kahA' posn='200' name='ki' chunkId='CCP' chunkType='head:CCP'>
21	hama	PRP	<fs af='hama,pn,any,pl,1,d,0,0' drel='k1:karawe' posn='210' name='hama' chunkId='NP7' chunkType='head:NP7'>
22	yUpIe	NNP	<fs af='yUpIe,n,m,sg,3,d,0,0' posn='220' drel='nmod__adj:sarakAra' chunkType='child:NP8' name='yUpIe'>
23	sarakAra	NN	<fs af='sarakAra,n,f,sg,3,o,0_se,0' drel='k4:karawe' posn='230' vpos='vib_vib_3' name='sarakAra' chunkId='NP8' chunkType='head:NP8'>
24	se	PSP	<fs af='se,psp,,,,,,' posn='240' drel='lwg__psp:sarakAra' chunkType='child:NP8' name='se2'>
25	nyUnawama	NNPC	<fs af='nyUnawama,adj,any,any,,o,,' posn='120' drel='pof__cn:kAryakrama' chunkType='child:NP9' name='nyUnawama'>
26	sAJA	NNPC	<fs af='sAJA,n,m,sg,3,d,0,0' posn='260' drel='pof__cn:kAryakrama' chunkType='child:NP9' name='sAJA'>
27	kAryakrama	NNP	<fs af='kAryakrama,n,m,sg,3,o,0_meM,0' drel='k7:karawe' posn='270' vpos='vib_4' name='kAryakrama' chunkId='NP9' chunkType='head:NP9'>
28	meM	PSP	<fs af='meM,psp,,,,,,' posn='280' drel='lwg__psp:kAryakrama' chunkType='child:NP9' name='meM2'>
29	pAkiswAna	NNP	<fs af='pAkiswAna,n,m,sg,3,o,0,0' drel='ccof:Ora' posn='290' name='pAkiswAna' chunkId='NP10' chunkType='head:NP10'>
30	Ora	CC	<fs af='Ora,avy,,,,,,' drel='r6:saMgaTanoM' posn='300' name='Ora' chunkId='CCP2' chunkType='head:CCP2'>
31	kaSmIra	NNP	<fs af='kaSamIra,n,m,sg,3,o,0_kA,0' drel='ccof:Ora' posn='310' vpos='vib_2' name='kaSmIra2' chunkId='NP11' chunkType='head:NP11'>
32	ke	PSP	<fs af='kA,psp,m,pl,,o,,' posn='320' drel='lwg__psp:kaSmIra2' chunkType='child:NP11' name='ke2'>
33	saBI	QF	<fs af='saBI,avy,,,,,,' posn='330' drel='nmod__adj:saMgaTanoM' chunkType='child:NP12' name='saBI'>
34	saMgaTanoM	NN	<fs af='saMgaTana,n,m,pl,3,o,0_ke_sAWa,0' drel='vmod:karawe' posn='340' vpos='vib_3_4' name='saMgaTanoM' chunkId='NP12' chunkType='head:NP12'>
35	ke	PSP	<fs af='ke,psp,,,,,,' posn='350' drel='lwg__psp:saMgaTanoM' chunkType='child:NP12' name='ke3'>
36	sAWa	NST	<fs af='sAWa,nst,m,sg,3,d,,' posn='360' drel='lwg__psp:saMgaTanoM' chunkType='child:NP12' name='sAWa'>
37	vArwA	NN	<fs af='vArwA,n,f,sg,3,o,0_ko,0' drel='k2:karane' posn='370' vpos='vib_2' name='vArwA' chunkId='NP13' chunkType='head:NP13'>
38	ko	PSP	<fs af='ko,psp,,,,,,' posn='380' drel='lwg__psp:vArwA' chunkType='child:NP13' name='ko'>
39	SAmila	JJ	<fs af='SAmila,adj,any,any,,,,' drel='pof:karane' posn='390' name='SAmila' chunkId='JJP' chunkType='head:JJP'>
40	karane	VM	<fs af='kara,v,any,sg,any,o,nA_kA,nA' drel='r6-k2:apIla' posn='400' vpos='tam_2' name='karane' chunkId='VGNN' chunkType='head:VGNN'>
41	kI	PSP	<fs af='kA,psp,f,sg,,d,,' posn='410' drel='lwg__psp:karane' chunkType='child:VGNN' name='kI2'>
42	apIla	NN	<fs af='apIla,n,f,sg,3,d,0,0' drel='pof:karawe' posn='420' name='apIla' chunkId='NP14' chunkType='head:NP14'>
43	karawe	VM	<fs af='kara,v,m,pl,1,,wA_hE,wA' drel='ccof:ki' stype='declarative' posn='430' voicetype='active' vpos='tam_2' name='karawe' chunkId='VGF2' chunkType='head:VGF2'>
44	hEM	VAUX	<fs af='hE,v,any,pl,1,,hE,hE' posn='440' drel='lwg__vaux:karawe' chunkType='child:VGF2' name='hEM'>
45	.	SYM	<fs af='.,punc,,,,,,' drel='rsym:kahA' posn='450' name='.' chunkId='BLK' chunkType='head:BLK'>
</Sentence>


<Sentence id="11">
1	unhoMne	PRP	<fs af='vaha,pn,any,sg,3h,o,ne,ne' drel='k1:kahA' posn='10' name='unhoMne' chunkId='NP' chunkType='head:NP'>
2	kahA	VM	<fs af='kaha,v,m,sg,3,,yA,yA' stype='declarative' posn='20' voicetype='active' name='kahA' chunkId='VGF' chunkType='head:VGF'>
3	ki	CC	<fs af='ki,avy,,,,,,' drel='k2:kahA' posn='30' name='ki' chunkId='CCP' chunkType='head:CCP'>
4	rAjya	NN	<fs af='rAjya,n,m,sg,3,o,0_meM,0' drel='k7p:rokane' posn='40' vpos='vib_2' name='rAjya' chunkId='NP2' chunkType='head:NP2'>
5	meM	PSP	<fs af='meM,psp,,,,,,' posn='50' drel='lwg__psp:rAjya' chunkType='child:NP2' name='meM'>
6	KUnaKarAbA	NN	<fs af='KUnaKarAbA,n,m,sg,3,d,0,0' drel='k2:rokane' posn='60' name='KUnaKarAbA' chunkId='NP3' chunkType='head:NP3'>
7	rokane	VM	<fs af='roka,v,any,any,any,o,nA_ke_lie,nA' drel='rt:karane' posn='70' vpos='tam_2_3' name='rokane' chunkId='VGNN' chunkType='head:VGNN'>
8	ke	PSP	<fs af='ke,psp,,,,,,' posn='80' drel='lwg__psp:rokane' chunkType='child:VGNN' name='ke'>
9	lie	PSP	<fs af='lie,psp,,,,,,' posn='90' drel='lwg__psp:rokane' chunkType='child:VGNN' name='lie'>
10	rAjanIwika	JJ	<fs af='rAjanIwika,adj,any,any,,o,,' posn='100' drel='nmod__adj:swara' chunkType='child:NP4' name='rAjanIwika'>
11	swara	NN	<fs af='swara,n,m,sg,3,o,0_para,0' drel='k7:karane' posn='110' vpos='vib_3' name='swara' chunkId='NP4' chunkType='head:NP4'>
12	para	PSP	<fs af='para,psp,,,,,,' posn='120' drel='lwg__psp:swara' chunkType='child:NP4' name='para'>
13	pAkiswAna	NNP	<fs af='pAkiswAna,n,m,sg,3,o,0_ke_sAWa,0' drel='ras-k1:karane' posn='130' vpos='vib_2_3' name='pAkiswAna' chunkId='NP5' chunkType='head:NP5'>
14	ke	PSP	<fs af='ke,psp,,,,,,' posn='140' drel='lwg__psp:pAkiswAna' chunkType='child:NP5' name='ke2'>
15	sAWa	NST	<fs af='sAWa,nst,m,sg,3,d,,' posn='150' drel='lwg__psp:pAkiswAna' chunkType='child:NP5' name='sAWa'>
16	vArwA	NN	<fs af='vArwA,n,f,sg,3,d,0,0' drel='k2:karane' posn='160' name='vArwA' chunkId='NP6' chunkType='head:NP6'>
17	SurU	NN	<fs af='SurU,n,m,sg,3,d,0,0' drel='pof:karane' posn='170' name='SurU' chunkId='NP7' chunkType='head:NP7'>
18	karane	VM	<fs af='kara,v,any,any,any,o,nA,nA' drel='ccof:Ora' posn='180' name='karane' chunkId='VGNN2' chunkType='head:VGNN2'>
19	Ora	CC	<fs af='Ora,avy,,,,,,' drel='k2u:uTAne' posn='190' name='Ora' chunkId='CCP2' chunkType='head:CCP2'>
20	vArwA	NN	<fs af='vArwA,n,f,sg,3,o,0_meM,0' drel='k7:karane2' posn='200' vpos='vib_2' name='vArwA2' chunkId='NP8' chunkType='head:NP8'>
21	meM	PSP	<fs af='meM,psp,,,,,,' posn='210' drel='lwg__psp:vArwA2' chunkType='child:NP8' name='meM2'>
22	kaSmIra	NNP	<fs af='kaSamIra,n,m,sg,3,o,0_kA,0' drel='r6:vicAraXArAoM' posn='220' vpos='vib_2' name='kaSmIra' chunkId='NP9' chunkType='head:NP9'>
23	ke	PSP	<fs af='kA,psp,m,pl,,o,,' posn='230' drel='lwg__psp:kaSmIra' chunkType='child:NP9' name='ke3'>
24	viBinna	JJ	<fs af='viBinna,adj,any,any,,o,,' posn='240' drel='nmod__adj:vicAraXArAoM' chunkType='child:NP10' name='viBinna'>
25	vicAraXArAoM	NN	<fs af='vicAraXArA,n,f,pl,3,o,0_vAlA,0' drel='nmod:xaloM' posn='250' vpos='vib_3' name='vicAraXArAoM' chunkId='NP10' chunkType='head:NP10'>
26	vAle	PSP	<fs af='vAlA,psp,m,pl,,o,,' posn='260' drel='lwg__psp:vicAraXArAoM' chunkType='child:NP10' name='vAle'>
27	xaloM	NN	<fs af='xala,n,m,pl,3,o,0_ko,0' drel='k2:karane2' posn='270' vpos='vib_2' name='xaloM' chunkId='NP11' chunkType='head:NP11'>
28	ko	PSP	<fs af='ko,psp,,,,,,' posn='280' drel='lwg__psp:xaloM' chunkType='child:NP11' name='ko'>
29	SAmila	JJ	<fs af='SAmila,adj,any,any,,,,' drel='pof:karane2' posn='290' name='SAmila' chunkId='JJP' chunkType='head:JJP'>
30	karane	VM	<fs af='kara,v,any,pl,any,o,nA_jEsA,nA' drel='ccof:Ora' posn='300' vpos='tam_2' name='karane2' chunkId='VGNN3' chunkType='head:VGNN3'>
31	jEse	PSP	<fs af='jEsA,psp,m,pl,,d,,' posn='310' drel='lwg__psp:karane2' chunkType='child:VGNN3' name='jEse'>
32	sAhasika	JJ	<fs af='sAhasika,adj,any,any,,d,,' posn='320' drel='nmod__adj:kaxama' chunkType='child:NP12' name='sAhasika'>
33	kaxama	NN	<fs af='kaxama,n,m,pl,3,d,0,0' drel='k2:uTAne' posn='330' name='kaxama' chunkId='NP12' chunkType='head:NP12'>
34	uTAne	VM	<fs af='uTA,v,any,sg,any,o,nA_kA,nA' drel='r6:jarUrawa' posn='340' vpos='tam_2' name='uTAne' chunkId='VGNN4' chunkType='head:VGNN4'>
35	kI	PSP	<fs af='kA,psp,f,sg,,d,,' posn='350' drel='lwg__psp:uTAne' chunkType='child:VGNN4' name='kI'>
36	jarUrawa	NN	<fs af='jarUrawa,n,f,sg,3,d,0,0' drel='k1:hE' posn='360' name='jarUrawa' chunkId='NP13' chunkType='head:NP13'>
37	hE	VM	<fs af='hE,v,any,sg,3,,hE,hE' drel='ccof:ki' stype='declarative' posn='370' voicetype='active' name='hE' chunkId='VGF2' chunkType='head:VGF2'>
38	.	SYM	<fs af='.,punc,,,,,,' drel='rsym:kahA' posn='380' name='.' chunkId='BLK' chunkType='head:BLK'>
</Sentence>


<Sentence id="12">
1	unhoMne	PRP	<fs af='vaha,pn,any,sg,3h,o,ne,ne' drel='k1:kahA' posn='10' name='unhoMne' chunkId='NP' chunkType='head:NP'>
2	kahA	VM	<fs af='kaha,v,m,sg,3,,yA,yA' stype='declarative' posn='20' voicetype='active' name='kahA' chunkId='VGF' chunkType='head:VGF'>
3	ki	CC	<fs af='ki,avy,,,,,,' drel='k2:kahA' posn='30' name='ki' chunkId='CCP' chunkType='head:CCP'>
4	praXAnamaMwrI	NNP	<fs af='praXAnamaMwrI,n,m,sg,3,d,0,0' posn='40' drel='nmod__adj:siMha' chunkType='child:NP2' name='praXAnamaMwrI'>
5	manamohana	NNPC	<fs af='manamohana,n,m,sg,3,d,0,0' posn='50' drel='pof__cn:siMha' chunkType='child:NP2' name='manamohana'>
6	siMha	NNP	<fs af='siMha,n,m,sg,3,d,0,0' drel='ccof:Ora' posn='60' name='siMha' chunkId='NP2' chunkType='head:NP2'>
7	Ora	CC	<fs af='Ora,avy,,,,,,' drel='k7:xene' posn='70' name='Ora' chunkId='CCP2' chunkType='head:CCP2'>
8	rARtrapawi	NNP	<fs af='rARtrapawi,n,m,sg,3,d,0,0' posn='80' drel='nmod__adj:muSarraPa' chunkType='child:NP3' name='rARtrapawi'>
9	paraveja	NNPC	<fs af='paraveja,n,m,sg,3,d,0,0' posn='90' drel='pof__cn:muSarraPa' chunkType='child:NP3' name='paraveja'>
10	muSarraPa	NNP	<fs af='muSarraPa,n,any,sg,3,d,0,0' drel='ccof:yA' posn='100' name='muSarraPa' chunkId='NP3' chunkType='head:NP3'>
11	yA	CC	<fs af='yA,avy,,,,,,' drel='ccof:Ora' posn='110' name='yA' chunkId='CCP3' chunkType='head:CCP3'>
12	vixeSa	NNC	<fs af='vixeSa,n,m,sg,3,d,0,0' posn='120' drel='pof__cn:sacivoM' chunkType='child:NP4' name='vixeSa'>
13	sacivoM	NN	<fs af='saciva,n,m,pl,3,o,0_ke_bIca,0' drel='ccof:yA' posn='130' vpos='vib_3_4' name='sacivoM' chunkId='NP4' chunkType='head:NP4'>
14	ke	PSP	<fs af='ke,psp,,,,,,' posn='140' drel='lwg__psp:sacivoM' chunkType='child:NP4' name='ke'>
15	bIca	NST	<fs af='bIca,nst,m,sg,3,d,,' posn='150' drel='lwg__psp:sacivoM' chunkType='child:NP4' name='bIca'>
16	bETaka	NN	<fs af='bETaka,n,f,sg,3,o,0_jEsA,0' drel='nmod:kaxamoM' posn='160' vpos='vib_2' name='bETaka' chunkId='NP5' chunkType='head:NP5'>
17	jEse	PSP	<fs af='jEsA,psp,m,pl,,o,,' posn='170' drel='lwg__psp:bETaka' chunkType='child:NP5' name='jEse'>
18	sAhasika	JJ	<fs af='sAhasika,adj,any,any,,o,,' posn='180' drel='nmod__adj:kaxamoM' chunkType='child:NP6' name='sAhasika'>
19	kaxamoM	NN	<fs af='kaxama,n,m,pl,3,o,0_ke_jariye,0' drel='k3:xene' posn='190' vpos='vib_3_4' name='kaxamoM' chunkId='NP6' chunkType='head:NP6'>
20	ke	PSP	<fs af='ke,psp,,,,,,' posn='200' drel='lwg__psp:kaxamoM' chunkType='child:NP6' name='ke2'>
21	jarie	PSP	<fs af='jariye,psp,,,,,,' posn='210' drel='lwg__psp:kaxamoM' chunkType='child:NP6' name='jarie'>
22	saMbaMXoM	NN	<fs af='saMbaMXa,n,m,pl,3,o,0_ko,0' drel='k4:xene' posn='220' vpos='vib_2' name='saMbaMXoM' chunkId='NP7' chunkType='head:NP7'>
23	ko	PSP	<fs af='ko,psp,,,,,,' posn='230' drel='lwg__psp:saMbaMXoM' chunkType='child:NP7' name='ko'>
24	majabUwI	NN	<fs af='majabUwI,n,f,sg,3,d,0,0' drel='pof:xene' posn='240' name='majabUwI' chunkId='NP8' chunkType='head:NP8'>
25	xene	VM	<fs af='xe,v,any,sg,any,o,nA_kA,nA' drel='r6:jarUrawa' posn='250' vpos='tam_2' name='xene' chunkId='VGNN' chunkType='head:VGNN'>
26	kI	PSP	<fs af='kA,psp,f,sg,,d,,' posn='260' drel='lwg__psp:xene' chunkType='child:VGNN' name='kI'>
27	jarUrawa	NN	<fs af='jarUrawa,n,f,sg,3,d,0,0' drel='k1:hE' posn='270' name='jarUrawa' chunkId='NP9' chunkType='head:NP9'>
28	hE	VM	<fs af='hE,v,any,sg,3,,hE,hE' drel='ccof:ki' stype='declarative' posn='280' voicetype='active' name='hE' chunkId='VGF2' chunkType='head:VGF2'>
29	.	SYM	<fs af='.,punc,,,,,,' drel='rsym:kahA' posn='290' name='.' chunkId='BLK' chunkType='head:BLK'>
</Sentence>


<Sentence id="13">
1	mOlAnA	NNC	<fs af='mOlAnA,n,m,sg,3,d,0,0' posn='10' drel='pof__cn:abbAsa' chunkType='child:NP' name='mOlAnA'>
2	abbAsa	NNPC	<fs af='abbAsa,n,m,sg,3,d,0,0' posn='20' drel='pof__cn:aMsArI' chunkType='child:NP' name='abbAsa'>
3	aMsArI	NNP	<fs af='aMsArI,n,any,sg,3,o,0_kA,0' drel='r6:newqwva' posn='30' vpos='vib_4' name='aMsArI' chunkId='NP' chunkType='head:NP'>
4	ke	PSP	<fs af='kA,psp,m,sg,,o,,' posn='40' drel='lwg__psp:aMsArI' chunkType='child:NP' name='ke'>
5	newqwva	NN	<fs af='newqwva,n,m,sg,3,o,0_vAlA,0' drel='nmod:kAMPreMsa' posn='50' vpos='vib_2' name='newqwva' chunkId='NP2' chunkType='head:NP2'>
6	vAle	PSP	<fs af='vAlA,psp,m,sg,,o,,' posn='60' drel='lwg__psp:newqwva' chunkType='child:NP2' name='vAle'>
7	hurriyawa	NNPC	<fs af='hurriyawa,n,f,sg,3,d,0,0' posn='70' drel='pof__cn:kAMPreMsa' chunkType='child:NP3' name='hurriyawa'>
8	kAMPreMsa	NNP	<fs af='kAMPreMsa,n,f,sg,3,o,0_ne,0' drel='k1:kiyA' posn='80' vpos='vib_3' name='kAMPreMsa' chunkId='NP3' chunkType='head:NP3'>
9	ne	PSP	<fs af='ne,psp,,,,,,' posn='90' drel='lwg__psp:kAMPreMsa' chunkType='child:NP3' name='ne'>
10	nae	JJ	<fs af='nayA,adj,m,sg,,o,,' posn='100' drel='nmod__adj:SivarAja' chunkType='child:NP4' name='nae'>
11	gqha	NNPC	<fs af='gqha,n,m,sg,3,d,0,0' posn='110' drel='pof__cn:maMwrI' chunkType='child:NP4' name='gqha'>
12	maMwrI	NNP	<fs af='maMwrI,n,m,sg,3,d,0,0' posn='120' drel='nmod__adj:pAtila' chunkType='child:NP4' name='maMwrI'>
13	SivarAja	NNPC	<fs af='SivarAja,n,m,sg,3,d,0,0' posn='130' drel='pof__cn:pAtila' chunkType='child:NP4' name='SivarAja'>
14	pAtila	NNP	<fs af='pAtila,n,any,sg,3,o,0_kA,0' drel='r6:kaSmIra' posn='140' vpos='vib_vib_6' name='pAtila' chunkId='NP4' chunkType='head:NP4'>
15	ke	PSP	<fs af='kA,psp,m,sg,,o,,' posn='150' drel='lwg__psp:pAtila' chunkType='child:NP4' name='ke2'>
16	kaSmIra	NNP	<fs af='kaSamIra,n,m,sg,3,o,0_meM,0' drel='k7p:raKane' posn='160' vpos='vib_2' name='kaSmIra' chunkId='NP5' chunkType='head:NP5'>
17	meM	PSP	<fs af='meM,psp,,,,,,' posn='170' drel='lwg__psp:kaSmIra' chunkType='child:NP5' name='meM'>
18	alagAvavAxiyoM	NN	<fs af='alagAvavAxI,n,m,pl,3,o,0_ke_sAWa,0' drel='ras-k2:raKane' posn='180' vpos='vib_2_3' name='alagAvavAxiyoM' chunkId='NP6' chunkType='head:NP6'>
19	ke	PSP	<fs af='ke,psp,,,,,,' posn='190' drel='lwg__psp:alagAvavAxiyoM' chunkType='child:NP6' name='ke3'>
20	sAWa	NST	<fs af='sAWa,nst,m,sg,3,d,,' posn='200' drel='lwg__psp:alagAvavAxiyoM' chunkType='child:NP6' name='sAWa'>
21	vArwA	NN	<fs af='vArwA,n,f,sg,3,d,0,0' drel='k2:raKane' posn='210' name='vArwA' chunkId='NP7' chunkType='head:NP7'>
22	jArI	JJ	<fs af='jArI,adj,any,any,,,,' drel='pof:raKane' posn='220' name='jArI' chunkId='JJP' chunkType='head:JJP'>
23	raKane	VM	<fs af='raKa,v,any,sg,any,o,nA_kA,nA' drel='r6:bayAna' posn='230' vpos='tam_2' name='raKane' chunkId='VGNN' chunkType='head:VGNN'>
24	ke	PSP	<fs af='kA,psp,m,sg,,o,,' posn='240' drel='lwg__psp:raKane' chunkType='child:VGNN' name='ke4'>
25	bayAna	NN	<fs af='bayAna,n,m,sg,3,o,0_kA,0' drel='r6-k2:svAgawa' posn='250' vpos='vib_2' name='bayAna' chunkId='NP8' chunkType='head:NP8'>
26	kA	PSP	<fs af='kA,psp,m,sg,,d,,' posn='260' drel='lwg__psp:bayAna' chunkType='child:NP8' name='kA'>
27	svAgawa	NN	<fs af='svAgawa,n,m,sg,3,d,0,0' drel='pof:kiyA' posn='270' name='svAgawa' chunkId='NP9' chunkType='head:NP9'>
28	kiyA	VM	<fs af='kara,v,m,sg,3,,yA_hE,yA' stype='declarative' posn='280' voicetype='active' vpos='tam_2' name='kiyA' chunkId='VGF' chunkType='head:VGF'>
29	hE	VAUX	<fs af='hE,v,any,sg,3,,hE,hE' posn='290' drel='lwg__vaux:kiyA' chunkType='child:VGF' name='hE'>
30	.	SYM	<fs af='.,punc,,,,,,' drel='rsym:kiyA' posn='300' name='.' chunkId='BLK' chunkType='head:BLK'>
</Sentence>


<Sentence id="14">
1	saMgaTana	NN	<fs af='saMgaTana,n,m,sg,3,o,0_ne,0' drel='k1:jawAI' posn='10' vpos='vib_2' name='saMgaTana' chunkId='NP' chunkType='head:NP'>
2	ne	PSP	<fs af='ne,psp,,,,,,' posn='20' drel='lwg__psp:saMgaTana' chunkType='child:NP' name='ne'>
3	ummIxa	NN	<fs af='ummIxa,n,f,sg,3,d,0,0' drel='pof:jawAI' posn='30' name='ummIxa' chunkId='NP2' chunkType='head:NP2'>
4	jawAI	VM	<fs af='jawA,v,f,sg,3,,yA_hE,yA' stype='declarative' posn='40' voicetype='active' vpos='tam_2' name='jawAI' chunkId='VGF' chunkType='head:VGF'>
5	hE	VAUX	<fs af='hE,v,any,sg,3,,hE,hE' posn='50' drel='lwg__vaux:jawAI' chunkType='child:VGF' name='hE'>
6	ki	CC	<fs af='ki,avy,,,,,,' drel='k2:jawAI' posn='60' name='ki' chunkId='CCP' chunkType='head:CCP'>
7	naI	JJ	<fs af='nayA,adj,f,sg,,d,,' posn='70' drel='nmod__adj:sarakAra' chunkType='child:NP3' name='naI'>
8	sarakAra	NN	<fs af='sarakAra,n,f,sg,3,d,0,0' drel='k1:karegI' posn='80' name='sarakAra' chunkId='NP3' chunkType='head:NP3'>
9	rAjaga	NNP	<fs af='rAjaga,n,m,sg,3,d,0,0' posn='90' drel='nmod__adj:sarakAra2' chunkType='child:NP4' name='rAjaga'>
10	sarakAra	NN	<fs af='sarakAra,n,f,sg,3,o,0_ke_sAWa,0' drel='ras-k1:karegI' posn='100' vpos='vib_vib_3_4' name='sarakAra2' chunkId='NP4' chunkType='head:NP4'>
11	ke	PSP	<fs af='ke,psp,,,,,,' posn='110' drel='lwg__psp:sarakAra2' chunkType='child:NP4' name='ke'>
12	sAWa	NST	<fs af='sAWa,nst,m,sg,3,d,,' posn='120' drel='lwg__psp:sarakAra2' chunkType='child:NP4' name='sAWa'>
13	vArwA	NN	<fs af='vArwA,n,f,sg,3,o,0_kA,0' drel='r6:nawIjoM' posn='130' vpos='vib_2' name='vArwA' chunkId='NP5' chunkType='head:NP5'>
14	ke	PSP	<fs af='kA,psp,m,pl,,o,,' posn='140' drel='lwg__psp:vArwA' chunkType='child:NP5' name='ke2'>
15	nawIjoM	NN	<fs af='nawIjA,n,m,pl,3,o,0_kA,0' drel='r6-k2:sammAna' posn='150' vpos='vib_2' name='nawIjoM' chunkId='NP6' chunkType='head:NP6'>
16	kA	PSP	<fs af='kA,psp,m,sg,,d,,' posn='160' drel='lwg__psp:nawIjoM' chunkType='child:NP6' name='kA'>
17	sammAna	NN	<fs af='sammAna,n,m,sg,3,d,0,0' drel='pof:karegI' posn='170' name='sammAna' chunkId='NP7' chunkType='head:NP7'>
18	karegI	VM	<fs af='kara,v,f,sg,3,,gA,gA' drel='ccof:ki' stype='declarative' posn='180' voicetype='active' name='karegI' chunkId='VGF2' chunkType='head:VGF2'>
19	.	SYM	<fs af='.,punc,,,,,,' drel='rsym:jawAI' posn='190' name='.' chunkId='BLK' chunkType='head:BLK'>
</Sentence>


<Sentence id="15">
1	aMsArI	NNP	<fs af='aMsArI,n,any,sg,3,o,0_ne,0' drel='k1:kahA' posn='10' vpos='vib_2' name='aMsArI' chunkId='NP' chunkType='head:NP'>
2	ne	PSP	<fs af='ne,psp,,,,,,' posn='20' drel='lwg__psp:aMsArI' chunkType='child:NP' name='ne'>
3	kahA	VM	<fs af='kaha,v,m,sg,any,,yA,yA' stype='declarative' posn='30' voicetype='active' name='kahA' chunkId='VGF' chunkType='head:VGF'>
4	ki	CC	<fs af='ki,avy,,,,,,' drel='k2:kahA' posn='40' name='ki' chunkId='CCP' chunkType='head:CCP'>
5	hama	PRP	<fs af='hama,pn,any,pl,1,d,0,0' drel='k1:karawe' posn='50' name='hama' chunkId='NP2' chunkType='head:NP2'>
6	pAtila	NNP	<fs af='pAtila,n,any,sg,3,o,0_kA,0' drel='r6:bayAna' posn='60' vpos='vib_2' name='pAtila' chunkId='NP3' chunkType='head:NP3'>
7	ke	PSP	<fs af='kA,psp,m,sg,,o,,' posn='70' drel='lwg__psp:pAtila' chunkType='child:NP3' name='ke'>
8	bayAna	NN	<fs af='bayAna,n,m,sg,3,o,0_kA,0' drel='r6-k2:svAgawa' posn='80' vpos='vib_2' name='bayAna' chunkId='NP4' chunkType='head:NP4'>
9	kA	PSP	<fs af='kA,psp,m,sg,,d,,' posn='90' drel='lwg__psp:bayAna' chunkType='child:NP4' name='kA'>
10	svAgawa	NN	<fs af='svAgawa,n,m,sg,3,d,0,0' drel='pof:karawe' posn='100' name='svAgawa' chunkId='NP5' chunkType='head:NP5'>
11	karawe	VM	<fs af='kara,v,m,pl,1,,wA_hE,wA' drel='ccof:ki' stype='declarative' posn='110' voicetype='active' vpos='tam_2' name='karawe' chunkId='VGF2' chunkType='head:VGF2'>
12	hEM	VAUX	<fs af='hE,v,any,pl,1,,hE,hE' posn='120' drel='lwg__vaux:karawe' chunkType='child:VGF2' name='hEM'>
13	,	SYM	<fs af='COMMA,punc,,,,,,' posn='130' drel='rsym:karawe' chunkType='child:VGF2' name=','>
14	jisameM	PRP	<fs af='jo,pn,any,sg,3,o,meM,meM' drel='k7:kahI' posn='140' coref='bayAna' name='jisameM' chunkId='NP6' chunkType='head:NP6'>
15	unhoMne	PRP	<fs af='vaha,pn,any,sg,3h,o,ne,ne' drel='k1:kahI' posn='150' name='unhoMne' chunkId='NP7' chunkType='head:NP7'>
16	alagAvavAxiyoM	NN	<fs af='alagAvavAxI,n,m,pl,3,o,0_ke_sAWa,0' drel='ras-k1:raKane' posn='160' vpos='vib_2_3' name='alagAvavAxiyoM' chunkId='NP8' chunkType='head:NP8'>
17	ke	PSP	<fs af='ke,psp,,,,,,' posn='170' drel='lwg__psp:alagAvavAxiyoM' chunkType='child:NP8' name='ke2'>
18	sAWa	NST	<fs af='sAWa,nst,m,sg,3,d,,' posn='180' drel='lwg__psp:alagAvavAxiyoM' chunkType='child:NP8' name='sAWa'>
19	vArwA	NN	<fs af='vArwA,n,f,sg,3,d,0,0' drel='k2:raKane' posn='190' name='vArwA' chunkId='NP9' chunkType='head:NP9'>
20	jArI	JJ	<fs af='jArI,adj,any,any,,,,' drel='pof:raKane' posn='200' name='jArI' chunkId='JJP' chunkType='head:JJP'>
21	raKane	VM	<fs af='raKa,v,any,sg,any,o,nA_kA,nA' drel='r6:bAwa' posn='210' vpos='tam_2' name='raKane' chunkId='VGNN' chunkType='head:VGNN'>
22	kI	PSP	<fs af='kA,psp,f,sg,,d,,' posn='220' drel='lwg__psp:raKane' chunkType='child:VGNN' name='kI'>
23	bAwa	NN	<fs af='bAwa,n,f,sg,3,d,0,0' drel='k2:kahI' posn='230' name='bAwa' chunkId='NP10' chunkType='head:NP10'>
24	kahI	VM	<fs af='kaha,v,f,sg,3,,yA_hE,yA' drel='nmod__relc:bayAna' stype='declarative' posn='240' voicetype='active' vpos='tam_2' name='kahI' chunkId='VGF3' chunkType='head:VGF3'>
25	hE	VAUX	<fs af='hE,v,any,sg,3,,hE,hE' posn='250' drel='lwg__vaux:kahI' chunkType='child:VGF3' name='hE'>
26	.	SYM	<fs af='.,punc,,,,,,' drel='rsym:kahA' posn='260' name='.' chunkId='BLK' chunkType='head:BLK'>
</Sentence>


<Sentence id="16">
1	yaha	PRP	<fs af='yaha,pn,any,sg,3,d,0,0' drel='k1:hE' posn='10' name='yaha' chunkId='NP' chunkType='head:NP'>
2	eka	QC	<fs af='eka,num,any,any,,any,,' posn='20' drel='nmod__adj:saMkewa' chunkType='child:NP2' name='eka'>
3	acCA	JJ	<fs af='acCA,adj,m,sg,,d,,' posn='30' drel='nmod__adj:saMkewa' chunkType='child:NP2' name='acCA'>
4	saMkewa	NN	<fs af='saMkewa,n,m,sg,3,d,0,0' drel='k1s:hE' posn='40' name='saMkewa' chunkId='NP2' chunkType='head:NP2'>
5	hE	VM	<fs af='hE,v,any,sg,3,,hE,hE' stype='declarative' posn='50' voicetype='active' name='hE' chunkId='VGF' chunkType='head:VGF'>
6	.	SYM	<fs af='.,punc,,,,,,' drel='rsym:hE' posn='60' name='.' chunkId='BLK' chunkType='head:BLK'>
</Sentence>


</text>
</tb>
</body>
</document>
