<document id="2534448">
<head>
<title></title>			
<caption>wela kImawoM meM vqxXi vApasa nahI        pre   : naI xillI</caption>			
<language>Hindi </language>			
<author>			
<firstname></firstname>			
<middlename></middlename>			
<lastname></lastname>			
</author>			
<creation>			
<raw_corpus creation_date="" institute_name=""></raw_corpus>			
<annotated_corpus creation_date="07/25/2009" institute_name="IIIT-Hyderabad"></annotated_corpus>			
</creation>			
<domain_name>News Articles </domain_name>			
<distributor>LTRC, IIIT Hyderabad</distributor>			
<source>ISI, Kolkata</source>			
<publication>			
<place>New Delhi</place>			
<date>18/6/2004</date>			
<address>Connaught Place, New Delhi</address>			
<type>Newspaper</type>			
<publisher>			
<name>Amar Ujala</name>			
<url>http://www.amarujala.com</url>			
</publisher>			
</publication>			
<project_description>NSF Hindi/Urdu Dependency Treebanking Project</project_description>			
<availability>			
<format>CML/SSF</format>			
</availability>			
<byte_count>5795</byte_count>			
<word_count>195</word_count>			
<edition_number>1.0</edition_number>			
<encoding_description>			
<original_encoding>ISO 8859</original_encoding>			
<new_encoding>Unicode UTF8</new_encoding>			
</encoding_description>			
<bibliography></bibliography>			
<sentence_marker>.</sentence_marker>			
<normalization>No</normalization>			
<utility_name>cml_tags</utility_name>			

</head>
<body>
<tb number="1" segment="no" bullet="no">
<foreign language="select" writingsystem="LTR"> </foreign>			
<text>
<Sentence id="1">
1	vAma	NNC	<fs af='vAma,n,m,sg,3,d,0,0' posn='10' drel='pof__cn:xaloM' chunkType='child:NP' name='vAma'>
2	xaloM	NN	<fs af='xala,n,m,pl,3,o,0_kA,0' drel='r6:mAMga' posn='20' vpos='vib_3' name='xaloM' chunkId='NP' chunkType='head:NP'>
3	kI	PSP	<fs af='kA,psp,f,sg,,o,,' posn='30' drel='lwg__psp:xaloM' chunkType='child:NP' name='kI'>
4	mAMga	NN	<fs af='mAMga,n,f,sg,3,o,0_ke_bIca,0' drel='k7:kiyA' posn='40' vpos='vib_2_3' name='mAMga' chunkId='NP2' chunkType='head:NP2'>
5	ke	PSP	<fs af='ke,psp,,,,,,' posn='50' drel='lwg__psp:mAMga' chunkType='child:NP2' name='ke'>
6	bIca	NST	<fs af='bIca,nst,m,sg,3,d,,' posn='60' drel='lwg__psp:mAMga' chunkType='child:NP2' name='bIca'>
7	petroliyama	NNPC	<fs af='petroliyama,n,m,sg,3,d,0,0' posn='70' drel='pof__cn:maMwrI' chunkType='child:NP3' name='petroliyama'>
8	maMwrI	NNP	<fs af='maMwrI,n,m,sg,3,d,0,0' posn='80' drel='nmod__adj:ayyara' chunkType='child:NP3' name='maMwrI'>
9	maNiSakaMra	NNPC	<fs af='maNiSakaMra,n,m,sg,3,d,0,0' posn='90' drel='pof__cn:ayyara' chunkType='child:NP3' name='maNiSakaMra'>
10	ayyara	NNP	<fs af='ayyara,n,any,sg,3,o,0_ne,0' drel='k1:kiyA' posn='100' vpos='vib_vib_5' name='ayyara' chunkId='NP3' chunkType='head:NP3'>
11	ne	PSP	<fs af='ne,psp,,,,,,' posn='110' drel='lwg__psp:ayyara' chunkType='child:NP3' name='ne'>
12	SukravAra	NNP	<fs af='SukravAra,n,m,sg,3,o,0_ko,0' drel='k7t:kiyA' posn='120' vpos='vib_2' name='SukravAra' chunkId='NP4' chunkType='head:NP4'>
13	ko	PSP	<fs af='ko,psp,,,,,,' posn='130' drel='lwg__psp:SukravAra' chunkType='child:NP4' name='ko'>
14	spaRta	JJ	<fs af='spaRta,adj,any,any,,,,' drel='pof:kiyA' posn='140' name='spaRta' chunkId='JJP' chunkType='head:JJP'>
15	kiyA	VM	<fs af='kara,v,m,sg,any,,yA,yA' stype='declarative' posn='150' voicetype='active' name='kiyA' chunkId='VGF' chunkType='head:VGF'>
16	ki	CC	<fs af='ki,avy,,,,,,' drel='k2:kiyA' posn='160' name='ki' chunkId='CCP' chunkType='head:CCP'>
17	petroliyama	NNC	<fs af='petroliyama,n,m,sg,3,d,0,0' posn='170' drel='pof__cn:uwpAxoM' chunkType='child:NP5' name='petroliyama2'>
18	uwpAxoM	NN	<fs af='uwpAxa,n,m,pl,3,o,0_kA,0' drel='r6:kImawoM' posn='180' vpos='vib_3' name='uwpAxoM' chunkId='NP5' chunkType='head:NP5'>
19	kI	PSP	<fs af='kA,psp,f,sg,,o,,' posn='190' drel='lwg__psp:uwpAxoM' chunkType='child:NP5' name='kI2'>
20	kImawoM	NN	<fs af='kImawa,n,f,pl,3,o,0_meM,0' drel='k7:lI' posn='200' vpos='vib_2' name='kImawoM' chunkId='NP6' chunkType='head:NP6'>
21	meM	PSP	<fs af='meM,psp,,,,,,' posn='210' drel='lwg__psp:kImawoM' chunkType='child:NP6' name='meM'>
22	vqxXi	NN	<fs af='vqxXi,n,f,sg,3,d,0,0' drel='k2:lI' posn='220' name='vqxXi' chunkId='NP7' chunkType='head:NP7'>
23	vApasa	JJ	<fs af='vApasa,adj,any,any,,,,' drel='pof:lI' posn='230' name='vApasa' chunkId='JJP2' chunkType='head:JJP2'>
24	nahIM	NEG	<fs af='nahIM,avy,,,,,,' posn='240' drel='lwg__neg:lI' chunkType='child:VGF2' name='nahIM'>
25	lI	VM	<fs af='le,v,f,sg,3,,yA_jA+gA,yA' drel='ccof:ki' stype='declarative' posn='250' voicetype='active' vpos='tam_3' name='lI' chunkId='VGF2' chunkType='head:VGF2'>
26	jAegI	VAUX	<fs af='jA,v,f,sg,3,,gA,gA' posn='260' drel='lwg__vaux:lI' chunkType='child:VGF2' name='jAegI'>
27	.	SYM	<fs af='.,punc,,,,,,' drel='rsym:kiyA' posn='270' name='.' chunkId='BLK' chunkType='head:BLK'>
</Sentence>


<Sentence id="2">
1	rAjaXAnI	NN	<fs af='rAjaXAnI,n,f,sg,3,o,0_meM,0' drel='k7p:kahA' posn='10' vpos='vib_2' name='rAjaXAnI' chunkId='NP' chunkType='head:NP'>
2	meM	PSP	<fs af='meM,psp,,,,,,' posn='20' drel='lwg__psp:rAjaXAnI' chunkType='child:NP' name='meM'>
3	kerala	NNPC	<fs af='kerala,n,m,sg,3,d,0,0' posn='30' drel='pof__cn:edaministreSana' chunkType='child:NP2' name='kerala'>
4	iMstItyUta	NNPC	<fs af='iMstItyUta,n,m,sg,3,d,0,0' posn='40' drel='pof__cn:edaministreSana' chunkType='child:NP2' name='iMstItyUta'>
5	OYPa	NNPC	<fs af='OYPa,unk,,,,,,' posn='20' drel='pof__cn:edaministreSana' chunkType='child:NP2' name='OYPa'>
6	lokala	NNPC	<fs af='lokala,adj,any,any,,o,,' posn='170' drel='pof__cn:edaministreSana' chunkType='child:NP2' name='lokala'>
7	edaministreSana	NNP	<fs af='edaministreSana,n,m,sg,3,o,0_kA_ora_se,0' drel='jjmod:Ayojiwa' posn='70' vpos='vib_6_7_8' name='edaministreSana' chunkId='NP2' chunkType='head:NP2'>
8	kI	PSP	<fs af='kA,psp,f,sg,,o,,' posn='80' drel='lwg__psp:edaministreSana' chunkType='child:NP2' name='kI'>
9	ora	NST	<fs af='ora,nst,f,sg,3,o,,' posn='90' drel='lwg__psp:edaministreSana' chunkType='child:NP2' name='ora'>
10	se	PSP	<fs af='se,psp,,,,,,' posn='100' drel='lwg__psp:edaministreSana' chunkType='child:NP2' name='se'>
11	Ayojiwa	JJ	<fs af='Ayojiwa,adj,any,any,,o,,' drel='nmod:kAryaSAlA' posn='110' name='Ayojiwa' chunkId='JJP' chunkType='head:JJP'>
12	kAryaSAlA	NN	<fs af='kAryaSAlA,n,f,sg,3,o,0_kA,0' drel='r6:mOke' posn='120' vpos='vib_2' name='kAryaSAlA' chunkId='NP3' chunkType='head:NP3'>
13	ke	PSP	<fs af='kA,psp,m,sg,,o,,' posn='130' drel='lwg__psp:kAryaSAlA' chunkType='child:NP3' name='ke'>
14	mOke	NN	<fs af='mOkA,n,m,sg,3,o,0_para,0' drel='k7:kahA' posn='140' vpos='vib_2' name='mOke' chunkId='NP4' chunkType='head:NP4'>
15	para	PSP	<fs af='para,psp,,,,,,' posn='150' drel='lwg__psp:mOke' chunkType='child:NP4' name='para'>
16	unhoMne	PRP	<fs af='vaha,pn,any,sg,3h,o,ne,ne' drel='k1:kahA' posn='160' name='unhoMne' chunkId='NP5' chunkType='head:NP5'>
17	pawrakAroM	NN	<fs af='pawrakAra,n,m,pl,3,o,0_se,0' drel='k4:kahA' posn='170' vpos='vib_2' name='pawrakAroM' chunkId='NP6' chunkType='head:NP6'>
18	se	PSP	<fs af='se,psp,,,,,,' posn='180' drel='lwg__psp:pawrakAroM' chunkType='child:NP6' name='se2'>
19	kahA	VM	<fs af='kaha,v,m,sg,any,,yA,yA' stype='declarative' posn='190' voicetype='active' name='kahA' chunkId='VGF' chunkType='head:VGF'>
20	ki	CC	<fs af='ki,avy,,,,,,' drel='k2:kahA' posn='200' name='ki' chunkId='CCP' chunkType='head:CCP'>
21	hamArI	PRP	<fs af='hama,pn,f,pl,1,o,kA,kA' drel='r6:sarakAra' posn='210' name='hamArI' chunkId='NP7' chunkType='head:NP7'>
22	sarakAra	NN	<fs af='sarakAra,n,f,sg,3,d,0,0' drel='k1:lewI' posn='220' name='sarakAra' chunkId='NP8' chunkType='head:NP8'>
23	PEsale	NN	<fs af='PEsalA,n,m,pl,3,d,0,0' drel='k2:lewI' posn='230' name='PEsale' chunkId='NP9' chunkType='head:NP9'>
24	vApasa	JJ	<fs af='vApasa,adj,any,any,,,,' drel='pof:lewI' posn='240' name='vApasa' chunkId='JJP2' chunkType='head:JJP2'>
25	nahIM	NEG	<fs af='nahIM,avy,,,,,,' posn='250' drel='lwg__neg:lewI' chunkType='child:VGF2' name='nahIM'>
26	lewI	VM	<fs af='le,v,f,sg,3,,wA_hE,wA' drel='ccof:ki' stype='declarative' posn='260' voicetype='active' vpos='tam_3' name='lewI' chunkId='VGF2' chunkType='head:VGF2'>
27	hE	VAUX	<fs af='hE,v,any,sg,3,,hE,hE' posn='270' drel='lwg__vaux:lewI' chunkType='child:VGF2' name='hE'>
28	.	SYM	<fs af='.,punc,,,,,,' drel='rsym:kahA' posn='280' name='.' chunkId='BLK' chunkType='head:BLK'>
</Sentence>


<Sentence id="3">
1	jo	DEM	<fs af='jo,pn,any,sg,3,d,,' posn='10' drel='nmod__adj:PEsalA' chunkType='child:NP' name='jo'>
2	kuCa	PRP	<fs af='kuCa,pn,any,any,3,d,0,0' posn='30' drel='nmod__adj:PEsalA' chunkType='child:NP' name='kuCa'>
3	BI	RP	<fs af='BI,avy,,,,,,' posn='30' drel='lwg__rp:PEsalA' chunkType='child:NP' name='BI'>
4	PEsalA	NN	<fs af='PEsalA,n,m,sg,3,d,0,0' drel='pof:kiyA' posn='40' coref=':NP2' name='PEsalA' chunkId='NP' chunkType='head:NP'>
5	kiyA	VM	<fs af='kara,v,m,sg,3,,yA_jA+yA1_hE,yA' drel='nmod__relc:vaha' stype='declarative' posn='50' voicetype='passive' vpos='tam_2_3' name='kiyA' chunkId='VGF' chunkType='head:VGF'>
6	gayA	VAUX	<fs af='jA,v,m,sg,any,,yA1,yA1' posn='60' drel='lwg__vaux:kiyA' chunkType='child:VGF' name='gayA'>
7	hE	VAUX	<fs af='hE,v,any,sg,3,,hE,hE' posn='70' drel='lwg__vaux:kiyA' chunkType='child:VGF' name='hE'>
8	,	SYM	<fs af='COMMA,punc,,,,,,' posn='80' drel='rsym:kiyA' chunkType='child:VGF' name=','>
9	vaha	PRP	<fs af='vaha,pn,any,sg,3,d,0,0' drel='k1:kiyA2' posn='90' name='vaha' chunkId='NP2' chunkType='head:NP2'>
10	lAgU	JJ	<fs af='lAgU,adj,any,any,,,,' drel='pof:kiyA2' posn='100' name='lAgU' chunkId='JJP' chunkType='head:JJP'>
11	kiyA	VM	<fs af='kara,v,m,sg,3,,yA_jA_raha+yA_hE,yA' stype='declarative' posn='110' voicetype='passive' vpos='tam_2_3_4' name='kiyA2' chunkId='VGF2' chunkType='head:VGF2'>
12	jA	VAUX	<fs af='jA,v,any,any,any,,0,0' posn='120' drel='lwg__vaux:kiyA2' chunkType='child:VGF2' name='jA'>
13	rahA	VAUX	<fs af='raha,v,m,sg,any,,yA,yA' posn='130' drel='lwg__vaux:kiyA2' chunkType='child:VGF2' name='rahA'>
14	hE	VAUX	<fs af='hE,v,any,sg,3,,hE,hE' posn='140' drel='lwg__vaux:kiyA2' chunkType='child:VGF2' name='hE2'>
15	.	SYM	<fs af='.,punc,,,,,,' drel='rsym:kiyA2' posn='150' name='.' chunkId='BLK' chunkType='head:BLK'>
</Sentence>


<Sentence id="4">
1	kImawoM	NN	<fs af='kImawa,n,f,pl,3,o,0_meM,0' drel='k7:kahA' posn='10' vpos='vib_2' name='kImawoM' chunkId='NP' chunkType='head:NP'>
2	meM	PSP	<fs af='meM,psp,,,,,,' posn='20' drel='lwg__psp:kImawoM' chunkType='child:NP' name='meM'>
3	vqxXi	NN	<fs af='vqxXi,n,f,sg,3,o,0_kA,0' drel='r6:PEsale' posn='30' vpos='vib_2' name='vqxXi' chunkId='NP2' chunkType='head:NP2'>
4	ke	PSP	<fs af='kA,psp,m,sg,,o,,' posn='40' drel='lwg__psp:vqxXi' chunkType='child:NP2' name='ke'>
5	PEsale	NN	<fs af='PEsalA,n,m,sg,3,o,0_kA,0' drel='r6:AlocanA' posn='50' vpos='vib_2' name='PEsale' chunkId='NP3' chunkType='head:NP3'>
6	kI	PSP	<fs af='kA,psp,f,sg,,d,,' posn='60' drel='lwg__psp:PEsale' chunkType='child:NP3' name='kI'>
7	AlocanA	NN	<fs af='AlocanA,n,f,sg,3,o,0_ke_bAre_meM,0' drel='k7:kahA' posn='70' vpos='vib_2_3_4' name='AlocanA' chunkId='NP4' chunkType='head:NP4'>
8	ke	PSP	<fs af='ke,psp,,,,,,' posn='80' drel='lwg__psp:AlocanA' chunkType='child:NP4' name='ke2'>
9	bAre	PSP	<fs af='bAre,psp,,,,,,' posn='90' drel='lwg__psp:AlocanA' chunkType='child:NP4' name='bAre'>
10	meM	PSP	<fs af='meM,psp,,,,,,' posn='100' drel='lwg__psp:AlocanA' chunkType='child:NP4' name='meM2'>
11	unhoMne	PRP	<fs af='vaha,pn,any,sg,3h,o,ne,ne' drel='k1:kahA' posn='110' name='unhoMne' chunkId='NP5' chunkType='head:NP5'>
12	kahA	VM	<fs af='kaha,v,m,sg,any,,yA,yA' stype='declarative' posn='120' voicetype='active' name='kahA' chunkId='VGF' chunkType='head:VGF'>
13	ki	CC	<fs af='ki,avy,,,,,,' drel='k2:kahA' posn='130' name='ki' chunkId='CCP' chunkType='head:CCP'>
14	AlocanA	NN	<fs af='AlocanA,n,f,sg,3,d,0,0' drel='k1:ho' posn='140' name='AlocanA2' chunkId='NP6' chunkType='head:NP6'>
15	baMxa	JJ	<fs af='baMxa,adj,any,any,,,,' drel='k1s:ho' posn='150' name='baMxa' chunkId='JJP' chunkType='head:JJP'>
16	ho	VM	<fs af='ho,v,any,sg,3,,0_jA+gA,0' drel='ccof:ki' stype='declarative' posn='160' voicetype='active' vpos='tam_2' name='ho' chunkId='VGF2' chunkType='head:VGF2'>
17	jAegI	VAUX	<fs af='jA,v,f,sg,3,,gA,gA' posn='170' drel='lwg__vaux:ho' chunkType='child:VGF2' name='jAegI'>
18	.	SYM	<fs af='.,punc,,,,,,' drel='rsym:kahA' posn='180' name='.' chunkId='BLK' chunkType='head:BLK'>
</Sentence>


<Sentence id="5">
1	vAma	NNC	<fs af='vAma,n,m,sg,3,d,0,0' posn='10' drel='pof__cn:xaloM' chunkType='child:NP' name='vAma'>
2	xaloM	NN	<fs af='xala,n,m,pl,3,o,0_kA,0' drel='r6:viroXa' posn='20' vpos='vib_3' name='xaloM' chunkId='NP' chunkType='head:NP'>
3	ke	PSP	<fs af='kA,psp,m,sg,,o,,' posn='30' drel='lwg__psp:xaloM' chunkType='child:NP' name='ke'>
4	viroXa	NN	<fs af='viroXa,n,m,sg,3,o,0_ke_bAre_meM,0' drel='k7:kahA' posn='40' vpos='vib_2_3_4' name='viroXa' chunkId='NP2' chunkType='head:NP2'>
5	ke	PSP	<fs af='ke,psp,,,,,,' posn='50' drel='lwg__psp:viroXa' chunkType='child:NP2' name='ke2'>
6	bAre	PSP	<fs af='bAre,psp,,,,,,' posn='60' drel='lwg__psp:viroXa' chunkType='child:NP2' name='bAre'>
7	meM	PSP	<fs af='meM,psp,,,,,,' posn='70' drel='lwg__psp:viroXa' chunkType='child:NP2' name='meM'>
8	ayyara	NNP	<fs af='ayyara,n,m,sg,3,o,0_ne,0' drel='k1:kahA' posn='80' vpos='vib_2' name='ayyara' chunkId='NP3' chunkType='head:NP3'>
9	ne	PSP	<fs af='ne,psp,,,,,,' posn='90' drel='lwg__psp:ayyara' chunkType='child:NP3' name='ne'>
10	kahA	VM	<fs af='kaha,v,m,sg,any,,yA,yA' stype='declarative' posn='100' voicetype='active' name='kahA' chunkId='VGF' chunkType='head:VGF'>
11	ki	CC	<fs af='ki,avy,,,,,,' drel='k2:kahA' posn='110' name='ki' chunkId='CCP' chunkType='head:CCP'>
12	unheM	PRP	<fs af='vaha,pn,any,sg,3h,o,ko,ko' drel='k4a:hE' posn='120' name='unheM' chunkId='NP4' chunkType='head:NP4'>
13	WodZI	QFC	<fs af='WodZA,adj,f,sg,,d,,' posn='130' drel='mod:AlocanA' chunkType='child:NP5' name='WodZI'>
14	bahuwa	QF	<fs af='bahuwa,avy,,,,,,' posn='140' drel='nmod__adj:AlocanA' chunkType='child:NP5' name='bahuwa'>
15	AlocanA	NN	<fs af='AlocanA,n,f,sg,3,o,0_se,0' drel='rh:hE' posn='150' vpos='vib_4' name='AlocanA' chunkId='NP5' chunkType='head:NP5'>
16	se	PSP	<fs af='se,psp,,,,,,' posn='160' drel='lwg__psp:AlocanA' chunkType='child:NP5' name='se'>
17	koI	PRP	<fs af='koI,pn,any,sg,3,d,0,0' posn='170' drel='nmod__adj:samasyA' chunkType='child:NP6' name='koI'>
18	samasyA	NN	<fs af='samasyA,n,f,sg,3,d,0,0' drel='k1:hE' posn='180' name='samasyA' chunkId='NP6' chunkType='head:NP6'>
19	nahIM	NEG	<fs af='nahIM,avy,,,,,,' posn='190' drel='lwg__neg:hE' chunkType='child:VGF2' name='nahIM'>
20	hE	VM	<fs af='hE,v,any,sg,3,,hE,hE' drel='ccof:ki' stype='declarative' posn='200' voicetype='active' name='hE' chunkId='VGF2' chunkType='head:VGF2'>
21	.	SYM	<fs af='.,punc,,,,,,' drel='rsym:kahA' posn='210' name='.' chunkId='BLK' chunkType='head:BLK'>
</Sentence>


<Sentence id="6">
1	unhoMne	PRP	<fs af='vaha,pn,any,sg,3h,o,ne,ne' drel='k1:kahA' posn='10' name='unhoMne' chunkId='NP' chunkType='head:NP'>
2	kahA	VM	<fs af='kaha,v,m,sg,any,,yA,yA' stype='declarative' posn='20' voicetype='active' name='kahA' chunkId='VGF' chunkType='head:VGF'>
3	ki	CC	<fs af='ki,avy,,,,,,' drel='k2:kahA' posn='30' name='ki' chunkId='CCP' chunkType='head:CCP'>
4	jalxa	RB	<fs af='jalxa,adv,,,,,,' drel='adv:kI3' posn='40' name='jalxa' chunkId='RBP' chunkType='head:RBP'>
5	hI	RP	<fs af='hI,avy,,,,,,' posn='50' drel='lwg__rp:jalxa' chunkType='child:RBP' name='hI'>
6	kacce	JJ	<fs af='kaccA,adj,m,sg,,o,,' posn='60' drel='nmod__adj:wela' chunkType='child:NP2' name='kacce'>
7	wela	NN	<fs af='wela,n,m,sg,3,o,0_kA,0' drel='r6:nIwi' posn='70' vpos='vib_3' name='wela' chunkId='NP2' chunkType='head:NP2'>
8	kI	PSP	<fs af='kA,psp,f,sg,,d,,' posn='80' drel='lwg__psp:wela' chunkType='child:NP2' name='kI'>
9	nIwi	NN	<fs af='nIwi,n,f,sg,3,o,0_kA,0' drel='r6-k1:samIkRA' posn='90' vpos='vib_2' name='nIwi' chunkId='NP3' chunkType='head:NP3'>
10	kI	PSP	<fs af='kA,psp,f,sg,,d,,' posn='100' drel='lwg__psp:nIwi' chunkType='child:NP3' name='kI2'>
11	samIkRA	NN	<fs af='samIkRA,n,f,sg,3,d,0,0' drel='pof:kI3' posn='110' name='samIkRA' chunkId='NP4' chunkType='head:NP4'>
12	kI	VM	<fs af='kara,v,f,sg,3,,yA_jA+gA,yA' drel='ccof:ki' stype='declarative' posn='120' voicetype='passive' vpos='tam_2' name='kI3' chunkId='VGF2' chunkType='head:VGF2'>
13	jAegI	VAUX	<fs af='jA,v,f,sg,3,,gA,gA' posn='130' drel='lwg__vaux:kI3' chunkType='child:VGF2' name='jAegI'>
14	.	SYM	<fs af='.,punc,,,,,,' drel='rsym:kahA' posn='140' name='.' chunkId='BLK' chunkType='head:BLK'>
</Sentence>


<Sentence id="7">
1	isase	PRP	<fs af='yaha,pn,any,sg,3,o,0_pahale,se' drel='k7t:kI2' posn='10' vpos='vib_2' name='isase' chunkId='NP' chunkType='head:NP'>
2	pahale	NST	<fs af='pahale,nst,m,sg,3,d,,' posn='20' drel='lwg__psp:isase' chunkType='child:NP' name='pahale'>
3	vAma	NNC	<fs af='vAma,n,m,sg,3,d,0,0' posn='30' drel='pof__cn:xaloM' chunkType='child:NP2' name='vAma'>
4	xaloM	NN	<fs af='xala,n,m,pl,3,o,0_kA,0' drel='r6:newAoM' posn='40' vpos='vib_3' name='xaloM' chunkId='NP2' chunkType='head:NP2'>
5	ke	PSP	<fs af='kA,psp,m,sg,,o,,' posn='50' drel='lwg__psp:xaloM' chunkType='child:NP2' name='ke'>
6	newAoM	NN	<fs af='newA,n,m,pl,3,o,0_ne,0' drel='k1:kI2' posn='60' vpos='vib_2' name='newAoM' chunkId='NP3' chunkType='head:NP3'>
7	ne	PSP	<fs af='ne,psp,,,,,,' posn='70' drel='lwg__psp:newAoM' chunkType='child:NP3' name='ne'>
8	praXAnamaMwrI	NNP	<fs af='praXAnamaMwrI,n,m,sg,3,o,0_se,0' drel='k2:mila' posn='80' vpos='vib_2' name='praXAnamaMwrI' chunkId='NP4' chunkType='head:NP4'>
9	se	PSP	<fs af='se,psp,,,,,,' posn='90' drel='lwg__psp:praXAnamaMwrI' chunkType='child:NP4' name='se'>
10	mila	VM	<fs af='mila,v,any,any,any,,0_kara,0' drel='vmod:kI2' posn='100' vpos='tam_2' name='mila' chunkId='VGNF' chunkType='head:VGNF'>
11	kara	VAUX	<fs af='kara,v,any,any,any,,0,0' posn='110' drel='lwg__vaux:mila' chunkType='child:VGNF' name='kara'>
12	kImawoM	NN	<fs af='kImawa,n,f,pl,3,o,0_meM,0' drel='k7:lene' posn='120' vpos='vib_2' name='kImawoM' chunkId='NP5' chunkType='head:NP5'>
13	meM	PSP	<fs af='meM,psp,,,,,,' posn='130' drel='lwg__psp:kImawoM' chunkType='child:NP5' name='meM'>
14	vqxXi	NN	<fs af='vqxXi,n,f,sg,3,d,0,0' drel='k2:lene' posn='140' name='vqxXi' chunkId='NP6' chunkType='head:NP6'>
15	vApasa	JJ	<fs af='vApasa,adj,any,any,,,,' drel='pof:lene' posn='150' name='vApasa' chunkId='JJP' chunkType='head:JJP'>
16	lene	VM	<fs af='le,v,any,sg,any,o,nA_kA,nA' drel='r6-k2:mAMga' posn='160' vpos='tam_2' name='lene' chunkId='VGNN' chunkType='head:VGNN'>
17	kI	PSP	<fs af='kA,psp,f,sg,,d,,' posn='170' drel='lwg__psp:lene' chunkType='child:VGNN' name='kI'>
18	mAMga	NN	<fs af='mAMga,n,f,sg,3,d,0,0' drel='pof:kI2' posn='180' name='mAMga' chunkId='NP7' chunkType='head:NP7'>
19	kI	VM	<fs af='kara,v,f,sg,any,,yA,yA' stype='declarative' posn='190' voicetype='active' name='kI2' chunkId='VGF' chunkType='head:VGF'>
20	.	SYM	<fs af='.,punc,,,,,,' drel='rsym:kI2' posn='200' name='.' chunkId='BLK' chunkType='head:BLK'>
</Sentence>


<Sentence id="8">
1	xUsarI	QO	<fs af='xUsarA,num,f,sg,,d,,' drel='sent-adv:roke' posn='10' name='xUsarI' chunkId='NP' chunkType='head:NP'>
2	ora	NST	<fs af='ora,nst,f,sg,3,d,,' posn='20' drel='lwg__psp:xUsarI' chunkType='child:NP' name='ora'>
3	petroliyama	NNC	<fs af='petroliyama,n,m,sg,3,d,0,0' posn='30' drel='pof__cn:uwpAxoM' chunkType='child:NP2' name='petroliyama'>
4	uwpAxoM	NN	<fs af='uwpAxa,n,m,pl,3,o,0_kA,0' drel='r6:kImawoM' posn='40' vpos='vib_3' name='uwpAxoM' chunkId='NP2' chunkType='head:NP2'>
5	kI	PSP	<fs af='kA,psp,f,sg,,d,,' posn='50' drel='lwg__psp:uwpAxoM' chunkType='child:NP2' name='kI'>
6	kImawoM	NN	<fs af='kImawa,n,f,pl,3,o,0_meM,0' drel='k7:roke' posn='60' vpos='vib_2' name='kImawoM' chunkId='NP3' chunkType='head:NP3'>
7	meM	PSP	<fs af='meM,psp,,,,,,' posn='70' drel='lwg__psp:kImawoM' chunkType='child:NP3' name='meM'>
8	vqxXi	NN	<fs af='vqxXi,n,f,sg,3,o,0_kA,0' drel='r6:viroXa' posn='80' vpos='vib_2' name='vqxXi' chunkId='NP4' chunkType='head:NP4'>
9	ke	PSP	<fs af='kA,psp,m,sg,,o,,' posn='90' drel='lwg__psp:vqxXi' chunkType='child:NP4' name='ke'>
10	viroXa	NN	<fs af='viroXa,n,m,sg,3,o,0_meM,0' drel='k7:roke' posn='100' vpos='vib_2' name='viroXa' chunkId='NP5' chunkType='head:NP5'>
11	meM	PSP	<fs af='meM,psp,,,,,,' posn='110' drel='lwg__psp:viroXa' chunkType='child:NP5' name='meM2'>
12	SukravAra	NNP	<fs af='SukravAra,n,m,sg,3,o,0_ko,0' drel='k7t:roke' posn='120' vpos='vib_2' name='SukravAra' chunkId='NP6' chunkType='head:NP6'>
13	ko	PSP	<fs af='ko,psp,,,,,,' posn='130' drel='lwg__psp:SukravAra' chunkType='child:NP6' name='ko'>
14	vijayavAdZA	NNP	<fs af='vijayavAdZA,n,m,sg,3,o,0_meM,0' drel='k7p:roke' posn='140' vpos='vib_2' name='vijayavAdZA' chunkId='NP7' chunkType='head:NP7'>
15	meM	PSP	<fs af='meM,psp,,,,,,' posn='150' drel='lwg__psp:vijayavAdZA' chunkType='child:NP7' name='meM3'>
16	mAkapA	NNP	<fs af='mAkapA,n,f,sg,3,d,0,0' posn='160' drel='nmod__adj:kAryakarwAoM' chunkType='child:NP8' name='mAkapA'>
17	kAryakarwAoM	NN	<fs af='kAryakarwA,n,m,pl,3,o,0_ne,0' drel='k1:roke' posn='170' vpos='vib_vib_3' name='kAryakarwAoM' chunkId='NP8' chunkType='head:NP8'>
18	ne	PSP	<fs af='ne,psp,,,,,,' posn='180' drel='lwg__psp:kAryakarwAoM' chunkType='child:NP8' name='ne'>
19	15	QC	<fs af='15,num,any,any,,any,,' posn='190' drel='nmod__adj:minata' chunkType='child:NP9' name='15'>
20	minata	NN	<fs af='minata,n,m,sg,3,o,0_waka,0' drel='k7t:roke' posn='200' vpos='vib_3' name='minata' chunkId='NP9' chunkType='head:NP9'>
21	waka	PSP	<fs af='waka,psp,,,,,,' posn='210' drel='lwg__psp:minata' chunkType='child:NP9' name='waka'>
22	rAswA	NN	<fs af='rAswA,n,m,sg,3,d,0,0' drel='k2:roke' posn='220' name='rAswA' chunkId='NP10' chunkType='head:NP10'>
23	roke	VM	<fs af='roka,v,any,sg,any,,yA_raKa+yA,yA' drel='ccof:NULL' stype='declarative' posn='230' voicetype='active' vpos='tam_2' name='roke' chunkId='VGF' chunkType='head:VGF'>
24	raKA	VAUX	<fs af='raKa,v,m,sg,any,,yA,yA' posn='240' drel='lwg__vaux:roke' chunkType='child:VGF' name='raKA'>
25	,	SYM	<fs af='COMMA,punc,,,,,,' posn='250' drel='rsym:roke' chunkType='child:VGF' name=','>
26	NULL	CC	<fs mtype='gap' troot='Ora' name='NULL' chunkId='NULL__CCP' chunkType='head:NULL__CCP'>
27	jisase	PRP	<fs af='jo,pn,any,sg,3,o,se,se' drel='rh:huA' posn='260' name='jisase' chunkId='NP11' chunkType='head:NP11'>
28	prakASa	NNPC	<fs af='prakASa,n,m,sg,3,d,0,0' posn='270' drel='pof__cn:nagara' chunkType='child:NP12' name='prakASa'>
29	nagara	NNP	<fs af='nagara,n,m,sg,3,d,0,0' posn='280' drel='nmod__adj:ilAke' chunkType='child:NP12' name='nagara'>
30	ilAke	NN	<fs af='ilAkA,n,m,sg,3,o,0_kA,0' drel='r6:yAwAyAwa' posn='290' vpos='vib_vib_4' name='ilAke' chunkId='NP12' chunkType='head:NP12'>
31	kA	PSP	<fs af='kA,psp,m,sg,,d,,' posn='300' drel='lwg__psp:ilAke' chunkType='child:NP12' name='kA'>
32	yAwAyAwa	NN	<fs af='yAwAyAwa,n,m,sg,3,d,0,0' drel='k1:huA' posn='310' name='yAwAyAwa' chunkId='NP13' chunkType='head:NP13'>
33	bAXiwa	JJ	<fs af='bAXiwa,adj,any,any,,,,' drel='pof:huA' posn='320' name='bAXiwa' chunkId='JJP' chunkType='head:JJP'>
34	huA	VM	<fs af='ho,v,m,sg,any,,yA,yA' drel='ccof:NULL' stype='declarative' posn='330' voicetype='active' name='huA' chunkId='VGF2' chunkType='head:VGF2'>
35	.	SYM	<fs af='.,punc,,,,,,' drel='rsym:NULL' posn='340' name='.' chunkId='BLK' chunkType='head:BLK'>
</Sentence>


<Sentence id="9">
1	Sahara	NN	<fs af='Sahara,n,m,sg,3,o,0_kA,0' drel='r6:saciva' posn='10' vpos='vib_2' name='Sahara' chunkId='NP' chunkType='head:NP'>
2	ke	PSP	<fs af='kA,psp,m,sg,,o,,' posn='20' drel='lwg__psp:Sahara' chunkType='child:NP' name='ke'>
3	mAkapA	NNP	<fs af='mAkapA,n,f,sg,3,d,0,0' posn='30' drel='nmod__adj:saciva' chunkType='child:NP2' name='mAkapA'>
4	saciva	NN	<fs af='saciva,n,m,sg,3,o,0,0' drel='nmod:rAva' posn='40' name='saciva' chunkId='NP2' chunkType='head:NP2'>
5	bAbU	NNPC	<fs af='bAbU,n,m,sg,3,d,0,0' posn='50' drel='pof__cn:rAva' chunkType='child:NP3' name='bAbU'>
6	rAva	NNP	<fs af='rAva,n,m,sg,3,o,0_ne,0' drel='k1:kI2' posn='60' vpos='vib_3' name='rAva' chunkId='NP3' chunkType='head:NP3'>
7	ne	PSP	<fs af='ne,psp,,,,,,' posn='70' drel='lwg__psp:rAva' chunkType='child:NP3' name='ne'>
8	sarakAra	NN	<fs af='sarakAra,n,f,sg,3,o,0_se,0' drel='k2:kI2' posn='80' vpos='vib_2' name='sarakAra' chunkId='NP4' chunkType='head:NP4'>
9	se	PSP	<fs af='se,psp,,,,,,' posn='90' drel='lwg__psp:sarakAra' chunkType='child:NP4' name='se'>
10	kImawoM	NN	<fs af='kImawa,n,f,pl,3,o,0_meM,0' drel='k7:lene' posn='100' vpos='vib_2' name='kImawoM' chunkId='NP5' chunkType='head:NP5'>
11	meM	PSP	<fs af='meM,psp,,,,,,' posn='110' drel='lwg__psp:kImawoM' chunkType='child:NP5' name='meM'>
12	vqxXi	NN	<fs af='vqxXi,n,f,sg,3,d,0,0' drel='k2:lene' posn='120' name='vqxXi' chunkId='NP6' chunkType='head:NP6'>
13	vApasa	JJ	<fs af='vApasa,adj,any,any,,,,' drel='pof:lene' posn='130' name='vApasa' chunkId='JJP' chunkType='head:JJP'>
14	lene	VM	<fs af='le,v,any,sg,any,o,nA_kA,nA' drel='r6-k2:mAMga' posn='140' vpos='tam_2' name='lene' chunkId='VGNN' chunkType='head:VGNN'>
15	kI	PSP	<fs af='kA,psp,f,sg,,d,,' posn='150' drel='lwg__psp:lene' chunkType='child:VGNN' name='kI'>
16	mAMga	NN	<fs af='mAMga,n,f,sg,3,d,0,0' drel='pof:kI2' posn='160' name='mAMga' chunkId='NP7' chunkType='head:NP7'>
17	kI	VM	<fs af='kara,v,f,sg,any,,yA,yA' stype='declarative' posn='170' voicetype='active' name='kI2' chunkId='VGF' chunkType='head:VGF'>
18	.	SYM	<fs af='.,punc,,,,,,' drel='rsym:kI2' posn='180' name='.' chunkId='BLK' chunkType='head:BLK'>
</Sentence>


</text>
</tb>
</body>
</document>
