<document id="2518187">
<head>
<title></title>			
<caption>ePadIAI para mAkapA para xogalepana kA Aropa        pre   : kolakAwA</caption>			
<language>Hindi </language>			
<author>			
<firstname></firstname>			
<middlename></middlename>			
<lastname></lastname>			
</author>			
<creation>			
<raw_corpus creation_date="" institute_name=""></raw_corpus>			
<annotated_corpus creation_date="07/25/2009" institute_name="IIIT-Hyderabad"></annotated_corpus>			
</creation>			
<domain_name>News Articles </domain_name>			
<distributor>LTRC, IIIT Hyderabad</distributor>			
<source>ISI, Kolkata</source>			
<publication>			
<place>New Delhi</place>			
<date>11/6/2004</date>			
<address>Connaught Place, New Delhi</address>			
<type>Newspaper</type>			
<publisher>			
<name>Amar Ujala</name>			
<url>http://www.amarujala.com</url>			
</publisher>			
</publication>			
<project_description>NSF Hindi/Urdu Dependency Treebanking Project</project_description>			
<availability>			
<format>CML/SSF</format>			
</availability>			
<byte_count>6385</byte_count>			
<word_count>229</word_count>			
<edition_number>1.0</edition_number>			
<encoding_description>			
<original_encoding>ISO 8859</original_encoding>			
<new_encoding>Unicode UTF8</new_encoding>			
</encoding_description>			
<bibliography></bibliography>			
<sentence_marker>.</sentence_marker>			
<normalization>No</normalization>			
<utility_name>cml_tags</utility_name>			

</head>
<body>
<tb number="1" segment="no" bullet="no">
<foreign language="select" writingsystem="LTR"> </foreign>			
<text>
<Sentence id="1">
1	BAjapA	NNP	<fs af='BAjapA,n,f,sg,3,o,0_ne,0' drel='k1:lagAyA' posn='10' vpos='vib_2' name='BAjapA' chunkId='NP' chunkType='head:NP'>
2	ne	PSP	<fs af='ne,psp,,,,,,' posn='20' drel='lwg__psp:BAjapA' chunkType='child:NP' name='ne'>
3	SukravAra	NNP	<fs af='SukravAra,n,m,sg,3,o,0_ko,0' drel='k7t:lagAyA' posn='30' vpos='vib_2' name='SukravAra' chunkId='NP2' chunkType='head:NP2'>
4	ko	PSP	<fs af='ko,psp,,,,,,' posn='40' drel='lwg__psp:SukravAra' chunkType='child:NP2' name='ko'>
5	ePadIAI	NNP	<fs af='ePadIAI,n,m,sg,3,o,0_kA,0' drel='r6:masale' posn='50' vpos='vib_2' name='ePadIAI' chunkId='NP3' chunkType='head:NP3'>
6	ke	PSP	<fs af='kA,psp,m,sg,,o,,' posn='60' drel='lwg__psp:ePadIAI' chunkType='child:NP3' name='ke'>
7	masale	NN	<fs af='masalA,n,m,sg,3,o,0_para,0' drel='k7:lagAyA' posn='70' vpos='vib_2' name='masale' chunkId='NP4' chunkType='head:NP4'>
8	para	PSP	<fs af='para,psp,,,,,,' posn='80' drel='lwg__psp:masale' chunkType='child:NP4' name='para'>
9	mAkapA	NNP	<fs af='mAkapA,n,f,sg,3,o,0_para,0' drel='k7:lagAyA' posn='90' vpos='vib_2' name='mAkapA' chunkId='NP5' chunkType='head:NP5'>
10	para	PSP	<fs af='para,psp,,,,,,' posn='100' drel='lwg__psp:mAkapA' chunkType='child:NP5' name='para2'>
11	xoharI	JJ	<fs af='xoharA,adj,f,pl,,d,,' posn='110' drel='nmod__adj:bAweM' chunkType='child:NP6' name='xoharI'>
12	bAweM	NN	<fs af='bAwa,n,f,pl,3,d,0,0' drel='pof:karane' posn='120' name='bAweM' chunkId='NP6' chunkType='head:NP6'>
13	karane	VM	<fs af='kara,v,any,sg,any,o,nA_kA,nA' drel='r6-k2:Aropa' posn='130' vpos='tam_2' name='karane' chunkId='VGNN' chunkType='head:VGNN'>
14	kA	PSP	<fs af='kA,psp,m,sg,,d,,' posn='140' drel='lwg__psp:karane' chunkType='child:VGNN' name='kA'>
15	Aropa	NN	<fs af='Aropa,n,m,sg,3,d,0,0' drel='pof:lagAyA' posn='150' name='Aropa' chunkId='NP7' chunkType='head:NP7'>
16	lagAyA	VM	<fs af='lagA,v,m,sg,any,,yA,yA' stype='declarative' posn='160' voicetype='active' name='lagAyA' chunkId='VGF' chunkType='head:VGF'>
17	.	SYM	<fs af='.,punc,,,,,,' drel='rsym:lagAyA' posn='170' name='.' chunkId='BLK' chunkType='head:BLK'>
</Sentence>


<Sentence id="2">
1	pArtI	NN	<fs af='pArtI,n,f,sg,3,o,0_ne,0' drel='k1:kahA' posn='10' vpos='vib_2' name='pArtI' chunkId='NP' chunkType='head:NP'>
2	ne	PSP	<fs af='ne,psp,,,,,,' posn='20' drel='lwg__psp:pArtI' chunkType='child:NP' name='ne'>
3	kahA	VM	<fs af='kaha,v,m,sg,any,,yA,yA' stype='declarative' posn='30' voicetype='active' name='kahA' chunkId='VGF' chunkType='head:VGF'>
4	ki	CC	<fs af='ki,avy,,,,,,' drel='k2:kahA' posn='40' name='ki' chunkId='CCP' chunkType='head:CCP'>
5	saMsaxa	NN	<fs af='saMsaxa,n,f,sg,3,o,0_kA,0' drel='r6:sawra' posn='50' vpos='vib_2' name='saMsaxa' chunkId='NP2' chunkType='head:NP2'>
6	ke	PSP	<fs af='kA,psp,m,sg,,o,,' posn='60' drel='lwg__psp:saMsaxa' chunkType='child:NP2' name='ke'>
7	bajata	NNC	<fs af='bajata,n,m,sg,3,d,0,0' posn='70' drel='pof__cn:sawra' chunkType='child:NP3' name='bajata'>
8	sawra	NN	<fs af='sawra,n,m,sg,3,o,0_ke_xOrAna,0' drel='k7t:raKegI' posn='80' vpos='vib_3_4' name='sawra' chunkId='NP3' chunkType='head:NP3'>
9	ke	PSP	<fs af='ke,psp,,,,,,' posn='90' drel='lwg__psp:sawra' chunkType='child:NP3' name='ke2'>
10	xOrAna	NST	<fs af='xOrAna,nst,m,sg,3,d,,' posn='100' drel='lwg__psp:sawra' chunkType='child:NP3' name='xOrAna'>
11	vaha	PRP	<fs af='vaha,pn,any,sg,3,d,0,0' drel='k1:raKegI' posn='110' name='vaha' chunkId='NP4' chunkType='head:NP4'>
12	xUrasaMcAra	NN	<fs af='xUrasaMcAra,n,m,sg,3,d,0,0' drel='ccof:Ora' posn='120' name='xUrasaMcAra' chunkId='NP5' chunkType='head:NP5'>
13	Ora	CC	<fs af='Ora,avy,,,,,,' drel='k7:raKegI' posn='130' name='Ora' chunkId='CCP2' chunkType='head:CCP2'>
14	anya	JJ	<fs af='anya,adj,any,any,,o,,' posn='140' drel='nmod__adj:kRewroM' chunkType='child:NP6' name='anya'>
15	pramuKa	JJ	<fs af='pramuKa,adj,any,any,,o,,' posn='150' drel='nmod__adj:kRewroM' chunkType='child:NP6' name='pramuKa'>
16	kRewroM	NN	<fs af='kRewra,n,m,pl,3,o,0_meM,0' drel='ccof:Ora' posn='160' vpos='vib_4' name='kRewroM' chunkId='NP6' chunkType='head:NP6'>
17	meM	PSP	<fs af='meM,psp,,,,,,' posn='170' drel='lwg__psp:kRewroM' chunkType='child:NP6' name='meM'>
18	ePadIAI	NNP	<fs af='ePadIAI,n,m,sg,3,d,0,0' posn='180' drel='nmod__adj:sImA' chunkType='child:NP7' name='ePadIAI'>
19	sImA	NN	<fs af='sImA,n,f,sg,3,d,0,0' drel='pof:baDZAne' posn='190' name='sImA' chunkId='NP7' chunkType='head:NP7'>
20	baDZAne	VM	<fs af='baDZA,v,any,sg,any,o,nA_kA,nA' drel='r6:muxxe' posn='200' vpos='tam_2' name='baDZAne' chunkId='VGNN' chunkType='head:VGNN'>
21	ke	PSP	<fs af='kA,psp,m,sg,,o,,' posn='210' drel='lwg__psp:baDZAne' chunkType='child:VGNN' name='ke3'>
22	muxxe	NN	<fs af='muxxA,n,m,sg,3,o,0_para,0' drel='k7:raKegI' posn='220' vpos='vib_2' name='muxxe' chunkId='NP8' chunkType='head:NP8'>
23	para	PSP	<fs af='para,psp,,,,,,' posn='230' drel='lwg__psp:muxxe' chunkType='child:NP8' name='para'>
24	mAkapA	NNP	<fs af='mAkapA,n,f,sg,3,o,0_kA,0' drel='r6:BUmikA' posn='240' vpos='vib_2' name='mAkapA' chunkId='NP9' chunkType='head:NP9'>
25	kI	PSP	<fs af='kA,psp,f,sg,,o,,' posn='250' drel='lwg__psp:mAkapA' chunkType='child:NP9' name='kI'>
26	BUmikA	NN	<fs af='BUmikA,n,f,sg,3,o,0_para,0' drel='k7:raKegI' posn='260' vpos='vib_2' name='BUmikA' chunkId='NP10' chunkType='head:NP10'>
27	para	PSP	<fs af='para,psp,,,,,,' posn='270' drel='lwg__psp:BUmikA' chunkType='child:NP10' name='para2'>
28	najara	NN	<fs af='najara,n,f,sg,3,d,0,0' drel='pof:raKegI' posn='280' name='najara' chunkId='NP11' chunkType='head:NP11'>
29	raKegI	VM	<fs af='raKa,v,f,sg,3,,gA,gA' drel='ccof:ki' stype='declarative' posn='290' voicetype='active' name='raKegI' chunkId='VGF2' chunkType='head:VGF2'>
30	.	SYM	<fs af='.,punc,,,,,,' drel='rsym:kahA' posn='300' name='.' chunkId='BLK' chunkType='head:BLK'>
</Sentence>


<Sentence id="3">
1	BAjapA	NNP	<fs af='BAjapA,n,f,sg,3,o,0_kA,0' drel='r6:newA' posn='10' vpos='vib_2' name='BAjapA' chunkId='NP' chunkType='head:NP'>
2	ke	PSP	<fs af='kA,psp,m,sg,,o,,' posn='20' drel='lwg__psp:BAjapA' chunkType='child:NP' name='ke'>
3	variRTa	JJ	<fs af='variRTa,adj,any,any,,o,,' posn='30' drel='nmod__adj:newA' chunkType='child:NP2' name='variRTa'>
4	newA	NN	<fs af='newA,n,m,sg,3,o,0,0' drel='nmod:joSI' posn='40' name='newA' chunkId='NP2' chunkType='head:NP2'>
5	muralI	NNPC	<fs af='muralI,n,m,sg,3,d,0,0' posn='50' drel='pof__cn:joSI' chunkType='child:NP3' name='muralI'>
6	manohara	NNPC	<fs af='manohara,n,m,sg,3,d,0,0' posn='60' drel='pof__cn:joSI' chunkType='child:NP3' name='manohara'>
7	joSI	NNP	<fs af='joSI,n,any,sg,3,o,0_ne,0' drel='k1:kahA' posn='70' vpos='vib_4' name='joSI' chunkId='NP3' chunkType='head:NP3'>
8	ne	PSP	<fs af='ne,psp,,,,,,' posn='80' drel='lwg__psp:joSI' chunkType='child:NP3' name='ne'>
9	yahAM	PRP	<fs af='yahAz,pn,,,,d,,' drel='k7p:kahA' posn='90' name='yahAM' chunkId='NP4' chunkType='head:NP4'>
10	eka	QC	<fs af='eka,num,any,any,,any,,' posn='100' drel='nmod__adj:kAMPreMsa' chunkType='child:NP5' name='eka'>
11	presa	NNC	<fs af='presa,n,f,sg,3,d,0,0' posn='110' drel='pof__cn:kAMPreMsa' chunkType='child:NP5' name='presa'>
12	kAMPreMsa	NN	<fs af='kAMPreMsa,n,f,sg,3,o,0_meM,0' drel='k7:kahA' posn='120' vpos='vib_4' name='kAMPreMsa' chunkId='NP5' chunkType='head:NP5'>
13	meM	PSP	<fs af='meM,psp,,,,,,' posn='130' drel='lwg__psp:kAMPreMsa' chunkType='child:NP5' name='meM'>
14	kahA	VM	<fs af='kaha,v,m,sg,any,,yA,yA' stype='declarative' posn='140' voicetype='active' name='kahA' chunkId='VGF' chunkType='head:VGF'>
15	ki	CC	<fs af='ki,avy,,,,,,' drel='k2:kahA' posn='150' name='ki' chunkId='CCP' chunkType='head:CCP'>
16	hama	PRP	<fs af='hama,pn,any,pl,1,d,0,0' drel='k1:cAhawe' posn='160' name='hama' chunkId='NP6' chunkType='head:NP6'>
17	NULL	PRP	<fs mtype='gap' troot='yaha' dmrel='k2:xeKanA' name='NULL' chunkId='NULL__NP' chunkType='head:NULL__NP'>
18	xeKanA	VM	<fs af='xeKa,v,any,any,any,d,nA,nA' drel='k2:cAhawe' posn='170' name='xeKanA' chunkId='VGNN' chunkType='head:VGNN'>
19	cAhawe	VM	<fs af='cAha,v,m,pl,1,,wA_hE,wA' drel='ccof:ki' stype='declarative' posn='180' voicetype='active' vpos='tam_2' name='cAhawe' chunkId='VGF2' chunkType='head:VGF2'>
20	hEM	VAUX	<fs af='hE,v,any,pl,1,,hE,hE' posn='190' drel='lwg__vaux:cAhawe' chunkType='child:VGF2' name='hEM'>
21	ki	CC	<fs af='ki,avy,,,,,,' drel='rs:NULL' posn='200' name='ki2' chunkId='CCP2' chunkType='head:CCP2'>
22	saMsaxa	NN	<fs af='saMsaxa,n,f,sg,3,o,0_kA,0' drel='r6:sawra' posn='210' vpos='vib_2' name='saMsaxa' chunkId='NP7' chunkType='head:NP7'>
23	ke	PSP	<fs af='kA,psp,m,sg,,o,,' posn='220' drel='lwg__psp:saMsaxa' chunkType='child:NP7' name='ke2'>
24	bajata	NNC	<fs af='bajata,n,m,sg,3,d,0,0' posn='230' drel='pof__cn:sawra' chunkType='child:NP8' name='bajata'>
25	sawra	NN	<fs af='sawra,n,m,sg,3,o,0_ke_xOrAna,0' drel='k7t:rahawI' posn='240' vpos='vib_3_4' name='sawra' chunkId='NP8' chunkType='head:NP8'>
26	ke	PSP	<fs af='ke,psp,,,,,,' posn='250' drel='lwg__psp:sawra' chunkType='child:NP8' name='ke3'>
27	xOrAna	NST	<fs af='xOrAna,nst,m,sg,3,d,,' posn='260' drel='lwg__psp:sawra' chunkType='child:NP8' name='xOrAna'>
28	mAkapA	NNP	<fs af='mAkapA,n,f,sg,3,o,0_kA,0' drel='r6-k1:BUmikA' posn='270' vpos='vib_2' name='mAkapA' chunkId='NP9' chunkType='head:NP9'>
29	kI	PSP	<fs af='kA,psp,f,sg,,d,,' posn='280' drel='lwg__psp:mAkapA' chunkType='child:NP9' name='kI'>
30	kyA	WQ	<fs af='kyA,pn,,,,,,' posn='290' drel='mod__wq:BUmikA' chunkType='child:NP10' name='kyA'>
31	BUmikA	NN	<fs af='BUmikA,n,f,sg,3,d,0,0' drel='pof:rahawI' posn='300' name='BUmikA' chunkId='NP10' chunkType='head:NP10'>
32	rahawI	VM	<fs af='raha,v,f,sg,3,,wA_hE,wA' drel='ccof:ki2' stype='declarative' posn='310' voicetype='active' vpos='tam_2' name='rahawI' chunkId='VGF3' chunkType='head:VGF3'>
33	hE	VAUX	<fs af='hE,v,any,sg,3,,hE,hE' posn='320' drel='lwg__vaux:rahawI' chunkType='child:VGF3' name='hE'>
34	.	SYM	<fs af='.,punc,,,,,,' drel='rsym:kahA' posn='330' name='.' chunkId='BLK' chunkType='head:BLK'>
</Sentence>


<Sentence id="4">
1	hameM	PRP	<fs af='hama,pn,any,pl,1,o,ko,ko' drel='k1:xeKanA' posn='10' name='hameM' chunkId='NP' chunkType='head:NP'>
2	yaha	PRP	<fs af='yaha,pn,any,sg,3,d,0,0' drel='k2:xeKanA' posn='20' name='yaha' chunkId='NP2' chunkType='head:NP2'>
3	BI	RP	<fs af='BI,avy,,,,,,' posn='30' drel='lwg__rp:yaha' chunkType='child:NP2' name='BI'>
4	xeKanA	VM	<fs af='xeKa,v,m,sg,3,,nA_hE,nA' stype='declarative' posn='40' voicetype='active' vpos='tam_2' name='xeKanA' chunkId='VGF' chunkType='head:VGF'>
5	hE	VAUX	<fs af='hE,v,any,sg,3,,hE,hE' posn='50' drel='lwg__vaux:xeKanA' chunkType='child:VGF' name='hE'>
6	ki	CC	<fs af='ki,avy,,,,,,' drel='rs:yaha' posn='60' name='ki' chunkId='CCP' chunkType='head:CCP'>
7	kyA	WQ	<fs af='kyA,pn,,,,,,' drel='adv:lewe' posn='70' name='kyA' chunkId='RBP' chunkType='head:RBP'>
8	ve	PRP	<fs af='vaha,pn,any,pl,3,d,0,0' drel='k1:lewe' posn='80' name='ve' chunkId='NP3' chunkType='head:NP3'>
9	isa	DEM	<fs af='yaha,pn,any,sg,3,o,,' posn='90' drel='nmod__adj:muxxe' chunkType='child:NP4' name='isa'>
10	muxxe	NN	<fs af='muxxA,n,m,sg,3,o,0_para,0' drel='k7:lewe' posn='100' vpos='vib_3' name='muxxe' chunkId='NP4' chunkType='head:NP4'>
11	para	PSP	<fs af='para,psp,,,,,,' posn='110' drel='lwg__psp:muxxe' chunkType='child:NP4' name='para'>
12	yUpIe	NNP	<fs af='yUpIe,n,m,sg,3,o,0,0' posn='120' drel='nmod__adj:sarakAra' chunkType='child:NP5' name='yUpIe'>
13	sarakAra	NN	<fs af='sarakAra,n,f,sg,3,o,0_se,0' drel='k5:lewe' posn='130' vpos='vib_vib_3' name='sarakAra' chunkId='NP5' chunkType='head:NP5'>
14	se	PSP	<fs af='se,psp,,,,,,' posn='140' drel='lwg__psp:sarakAra' chunkType='child:NP5' name='se'>
15	samarWana	NN	<fs af='samarWana,n,m,sg,3,d,0,0' drel='k2:lewe' posn='150' name='samarWana' chunkId='NP6' chunkType='head:NP6'>
16	vApasa	JJ	<fs af='vApasa,adj,any,any,,,,' drel='pof:lewe' posn='160' name='vApasa' chunkId='JJP' chunkType='head:JJP'>
17	lewe	VM	<fs af='le,v,m,pl,3,,wA_hE,wA' drel='ccof:ki' stype='interrogative' posn='170' voicetype='active' vpos='tam_2' name='lewe' chunkId='VGF2' chunkType='head:VGF2'>
18	hEM	VAUX	<fs af='hE,v,any,pl,3,,hE,hE' posn='180' drel='lwg__vaux:lewe' chunkType='child:VGF2' name='hEM'>
19	?	SYM	<fs af='?,punc,,,,,,' drel='rsym:xeKanA' posn='190' name='?' chunkId='BLK' chunkType='head:BLK'>
</Sentence>


<Sentence id="5">
1	xUrasaMcAra	NN	<fs af='xUrasaMcAra,n,m,sg,3,o,0_jEsA,0' drel='k7u:kRewroM' posn='10' vpos='vib_2' name='xUrasaMcAra' chunkId='NP' chunkType='head:NP'>
2	jEse	PSP	<fs af='jEsA,psp,m,pl,,o,,' posn='20' drel='lwg__psp:xUrasaMcAra' chunkType='child:NP' name='jEse'>
3	pramuKa	JJ	<fs af='pramuKa,adj,any,any,,o,,' posn='30' drel='nmod__adj:kRewroM' chunkType='child:NP2' name='pramuKa'>
4	kRewroM	NN	<fs af='kRewra,n,m,pl,3,o,0_meM,0' drel='k7:baDZAne' posn='40' vpos='vib_3' name='kRewroM' chunkId='NP2' chunkType='head:NP2'>
5	meM	PSP	<fs af='meM,psp,,,,,,' posn='50' drel='lwg__psp:kRewroM' chunkType='child:NP2' name='meM'>
6	ePadIAI	NNP	<fs af='ePadIAI,n,m,sg,3,d,0,0' drel='k2:baDZAne' posn='60' name='ePadIAI' chunkId='NP3' chunkType='head:NP3'>
7	baDZAne	VM	<fs af='baDZA,v,any,sg,any,o,nA_kA,nA' drel='r6:mAkapA' posn='70' vpos='tam_2' name='baDZAne' chunkId='VGNN' chunkType='head:VGNN'>
8	ke	PSP	<fs af='kA,psp,m,sg,,o,,' posn='80' drel='lwg__psp:baDZAne' chunkType='child:VGNN' name='ke'>
9	mAkapA	NNP	<fs af='mAkapA,n,f,sg,3,o,0_kA,0' drel='r6:viroXa' posn='90' vpos='vib_2' name='mAkapA' chunkId='NP4' chunkType='head:NP4'>
10	ke	PSP	<fs af='kA,psp,m,sg,,o,,' posn='100' drel='lwg__psp:mAkapA' chunkType='child:NP4' name='ke2'>
11	viroXa	NN	<fs af='viroXa,n,m,sg,3,o,0_ko,0' drel='k2:lekara' posn='110' vpos='vib_2' name='viroXa' chunkId='NP5' chunkType='head:NP5'>
12	ko	PSP	<fs af='ko,psp,,,,,,' posn='120' drel='lwg__psp:viroXa' chunkType='child:NP5' name='ko'>
13	lekara	VM	<fs af='le,v,any,any,any,,kara,kara' drel='vmod:pUCe' posn='130' name='lekara' chunkId='VGNF' chunkType='head:VGNF'>
14	pUCe	VM	<fs af='pUCa,v,m,sg,any,,yA_jA+yA1,yA' drel='nmod__k1inv:savAla' posn='140' vpos='tam_2' name='pUCe' chunkId='VGNF2' chunkType='head:VGNF2'>
15	gae	VAUX	<fs af='jA,v,m,sg,any,,yA1,yA1' posn='150' drel='lwg__vaux:pUCe' chunkType='child:VGNF2' name='gae'>
16	savAla	NN	<fs af='savAla,n,m,sg,3,o,0_kA,0' drel='r6:javAba' posn='160' vpos='vib_2' name='savAla' chunkId='NP6' chunkType='head:NP6'>
17	ke	PSP	<fs af='kA,psp,m,sg,,o,,' posn='170' drel='lwg__psp:savAla' chunkType='child:NP6' name='ke3'>
18	javAba	NN	<fs af='javAba,n,m,sg,3,o,0_meM,0' drel='k7:kahA' posn='180' vpos='vib_2' name='javAba' chunkId='NP7' chunkType='head:NP7'>
19	meM	PSP	<fs af='meM,psp,,,,,,' posn='190' drel='lwg__psp:javAba' chunkType='child:NP7' name='meM2'>
20	joSI	NNP	<fs af='joSI,n,any,sg,3,o,0_ne,0' drel='k1:kahA' posn='200' vpos='vib_2' name='joSI' chunkId='NP8' chunkType='head:NP8'>
21	ne	PSP	<fs af='ne,psp,,,,,,' posn='210' drel='lwg__psp:joSI' chunkType='child:NP8' name='ne'>
22	kahA	VM	<fs af='kaha,v,m,sg,any,,yA,yA' stype='declarative' posn='220' voicetype='active' name='kahA' chunkId='VGF' chunkType='head:VGF'>
23	ki	CC	<fs af='ki,avy,,,,,,' drel='k2:kahA' posn='230' name='ki' chunkId='CCP' chunkType='head:CCP'>
24	yaxi	CC	<fs af='yaxi,avy,,,,,,' drel='vmod:hE3' posn='240' name='yaxi' chunkId='CCP2' chunkType='head:CCP2'>
25	unhoMne	PRP	<fs af='vaha,pn,any,sg,3h,o,ne,ne' drel='k1:kiyA' posn='250' name='unhoMne' chunkId='NP9' chunkType='head:NP9'>
26	isakA	PRP	<fs af='yaha,pn,m,sg,3,o,kA,kA' drel='r6-k2:viroXa2' posn='260' name='isakA' chunkId='NP10' chunkType='head:NP10'>
27	viroXa	NN	<fs af='viroXa,n,m,sg,3,d,0,0' drel='pof:kiyA' posn='270' name='viroXa2' chunkId='NP11' chunkType='head:NP11'>
28	kiyA	VM	<fs af='kara,v,m,sg,3,,yA_hE,yA' drel='ccof:Ora' stype='declarative' posn='280' voicetype='active' vpos='tam_2' name='kiyA' chunkId='VGF2' chunkType='head:VGF2'>
29	hE	VAUX	<fs af='hE,v,any,sg,3,,hE,hE' posn='290' drel='lwg__vaux:kiyA' chunkType='child:VGF2' name='hE'>
30	Ora	CC	<fs af='Ora,avy,,,,,,' drel='ccof:yaxi' posn='300' name='Ora' chunkId='CCP3' chunkType='head:CCP3'>
31	isake	PRP	<fs af='yaha,pn,any,sg,3,o,0_bAvajUxa,ke' drel='vmod:hE2' posn='310' vpos='vib_2' name='isake' chunkId='NP12' chunkType='head:NP12'>
32	bAvajUxa	PSP	<fs af='bAvajUxa,psp,,,,,,' posn='320' drel='lwg__psp:isake' chunkType='child:NP12' name='bAvajUxa'>
33	kAMgresa	NNP	<fs af='kAMgresa,n,f,sg,3,d,0,0' posn='330' drel='nmod__adj:newqwva' chunkType='child:NP13' name='kAMgresa'>
34	newqwva	NN	<fs af='newqwva,n,m,sg,3,o,0_vAlA,0' drel='nmod:sarakAra' posn='340' vpos='vib_vib_3' name='newqwva' chunkId='NP13' chunkType='head:NP13'>
35	vAlI	PSP	<fs af='vAlA,psp,f,sg,,o,,' posn='350' drel='lwg__psp:newqwva' chunkType='child:NP13' name='vAlI'>
36	yUpIe	NNP	<fs af='yUpIe,n,m,sg,3,d,0,0' posn='360' drel='nmod__adj:sarakAra' chunkType='child:NP14' name='yUpIe'>
37	sarakAra	NN	<fs af='sarakAra,n,f,sg,3,o,0_ko,0' drel='k4:xenA' posn='370' vpos='vib_vib_3' name='sarakAra' chunkId='NP14' chunkType='head:NP14'>
38	ko	PSP	<fs af='ko,psp,,,,,,' posn='380' drel='lwg__psp:sarakAra' chunkType='child:NP14' name='ko2'>
39	samarWana	NN	<fs af='samarWana,n,m,sg,3,d,0,0' drel='pof:xenA' posn='390' name='samarWana' chunkId='NP15' chunkType='head:NP15'>
40	xenA	VM	<fs af='xe,v,any,any,any,d,nA,nA' drel='k1:hE2' posn='400' name='xenA' chunkId='VGNN2' chunkType='head:VGNN2'>
41	jArI	JJ	<fs af='jArI,adj,any,any,,,,' drel='k1s:hE2' posn='410' name='jArI' chunkId='JJP' chunkType='head:JJP'>
42	hE	VM	<fs af='hE,v,any,sg,3,,hE,hE' drel='ccof:Ora' stype='declarative' posn='420' voicetype='active' name='hE2' chunkId='VGF3' chunkType='head:VGF3'>
43	,	SYM	<fs af='COMMA,punc,,,,,,' posn='430' drel='rsym:hE2' chunkType='child:VGF3' name=','>
44	wo	CC	<fs af='wo,avy,,,,,,' drel='ccof:ki' posn='440' name='wo' chunkId='CCP4' chunkType='head:CCP4'>
45	yaha	PRP	<fs af='yaha,pn,any,sg,3,d,0,0' drel='k1:hE3' posn='450' name='yaha' chunkId='NP16' chunkType='head:NP16'>
46	galawa	JJ	<fs af='galawa,adj,any,any,,,,' drel='k1s:hE3' posn='460' name='galawa' chunkId='JJP2' chunkType='head:JJP2'>
47	hE	VM	<fs af='hE,v,any,sg,3,,hE,hE' drel='ccof:wo' stype='declarative' posn='470' voicetype='active' name='hE3' chunkId='VGF4' chunkType='head:VGF4'>
48	.	SYM	<fs af='.,punc,,,,,,' drel='rsym:kahA' posn='480' name='.' chunkId='BLK' chunkType='head:BLK'>
</Sentence>


<Sentence id="6">
1	isa	DEM	<fs af='yaha,pn,any,sg,3,o,,' posn='10' drel='nmod__adj:mOke' chunkType='child:NP' name='isa'>
2	mOke	NN	<fs af='mOkA,n,m,sg,3,o,0_para,0' drel='k7:lagAyA' posn='20' vpos='vib_3' name='mOke' chunkId='NP' chunkType='head:NP'>
3	para	PSP	<fs af='para,psp,,,,,,' posn='30' drel='lwg__psp:mOke' chunkType='child:NP' name='para'>
4	joSI	NNP	<fs af='joSI,n,any,sg,3,o,0_ne,0' drel='k1:lagAyA' posn='40' vpos='vib_2' name='joSI' chunkId='NP2' chunkType='head:NP2'>
5	ne	PSP	<fs af='ne,psp,,,,,,' posn='50' drel='lwg__psp:joSI' chunkType='child:NP2' name='ne'>
6	mAkapA	NNP	<fs af='mAkapA,n,f,sg,3,o,0_para,0' drel='k7:lagAyA' posn='60' vpos='vib_2' name='mAkapA' chunkId='NP3' chunkType='head:NP3'>
7	para	PSP	<fs af='para,psp,,,,,,' posn='70' drel='lwg__psp:mAkapA' chunkType='child:NP3' name='para2'>
8	ePadIAI	NNP	<fs af='ePadIAI,n,m,sg,3,o,0_kA,0' drel='r6:masale' posn='80' vpos='vib_2' name='ePadIAI' chunkId='NP4' chunkType='head:NP4'>
9	ke	PSP	<fs af='kA,psp,m,sg,,o,,' posn='90' drel='lwg__psp:ePadIAI' chunkType='child:NP4' name='ke'>
10	masale	NN	<fs af='masalA,n,m,sg,3,o,0_para,0' drel='k7:karane' posn='100' vpos='vib_2' name='masale' chunkId='NP5' chunkType='head:NP5'>
11	para	PSP	<fs af='para,psp,,,,,,' posn='110' drel='lwg__psp:masale' chunkType='child:NP5' name='para3'>
12	xoharI	JJ	<fs af='xoharA,adj,f,pl,,d,,' posn='120' drel='nmod__adj:bAweM' chunkType='child:NP6' name='xoharI'>
13	bAweM	NN	<fs af='bAwa,n,f,pl,3,d,0,0' drel='pof:karane' posn='130' name='bAweM' chunkId='NP6' chunkType='head:NP6'>
14	karane	VM	<fs af='kara,v,any,sg,any,o,nA_kA,nA' drel='r6-k2:Aropa' posn='140' vpos='tam_2' name='karane' chunkId='VGNN' chunkType='head:VGNN'>
15	kA	PSP	<fs af='kA,psp,m,sg,,d,,' posn='150' drel='lwg__psp:karane' chunkType='child:VGNN' name='kA'>
16	Aropa	NN	<fs af='Aropa,n,m,sg,3,d,0,0' drel='pof:lagAyA' posn='160' name='Aropa' chunkId='NP7' chunkType='head:NP7'>
17	BI	RP	<fs af='BI,avy,,,,,,' posn='170' drel='lwg__rp:Aropa' chunkType='child:NP7' name='BI'>
18	lagAyA	VM	<fs af='lagA,v,m,sg,any,,yA,yA' stype='declarative' posn='180' voicetype='active' name='lagAyA' chunkId='VGF' chunkType='head:VGF'>
19	.	SYM	<fs af='.,punc,,,,,,' drel='rsym:lagAyA' posn='190' name='.' chunkId='BLK' chunkType='head:BLK'>
</Sentence>


<Sentence id="7">
1	unhoMne	PRP	<fs af='vaha,pn,any,sg,3h,o,ne,ne' drel='k1:kahA' posn='10' name='unhoMne' chunkId='NP' chunkType='head:NP'>
2	kahA	VM	<fs af='kaha,v,m,sg,any,,yA,yA' stype='declarative' posn='20' voicetype='active' name='kahA' chunkId='VGF' chunkType='head:VGF'>
3	ki	CC	<fs af='ki,avy,,,,,,' drel='k2:kahA' posn='30' name='ki' chunkId='CCP' chunkType='head:CCP'>
4	paScima	NNPC	<fs af='paScima,n,m,sg,3,d,0,0' posn='40' drel='pof__cn:baMgAla' chunkType='child:NP2' name='paScima'>
5	baMgAla	NNP	<fs af='baMgAla,n,m,sg,3,o,0_meM,0' drel='k7p:kara' posn='50' vpos='vib_3' name='baMgAla' chunkId='NP2' chunkType='head:NP2'>
6	meM	PSP	<fs af='meM,psp,,,,,,' posn='60' drel='lwg__psp:baMgAla' chunkType='child:NP2' name='meM'>
7	ve	PRP	<fs af='vaha,pn,any,pl,3,d,0,0' drel='k1:kara' posn='70' name='ve' chunkId='NP3' chunkType='head:NP3'>
8	isakA	PRP	<fs af='yaha,pn,m,sg,3,o,kA,kA' drel='r6-k2:svAgawa' posn='80' name='isakA' chunkId='NP4' chunkType='head:NP4'>
9	svAgawa	NN	<fs af='svAgawa,n,m,sg,3,d,0,0' drel='pof:kara' posn='90' name='svAgawa' chunkId='NP5' chunkType='head:NP5'>
10	kara	VM	<fs af='kara,v,any,pl,1,,0_raha+yA_hE,0' drel='ccof:jabaki' stype='declarative' posn='100' voicetype='active' vpos='tam_2_3' name='kara' chunkId='VGF2' chunkType='head:VGF2'>
11	rahe	VAUX	<fs af='raha,v,any,pl,1,,yA,yA' posn='110' drel='lwg__vaux:kara' chunkType='child:VGF2' name='rahe'>
12	hEM	VAUX	<fs af='hE,v,any,pl,1,,hE,hE' posn='120' drel='lwg__vaux:kara' chunkType='child:VGF2' name='hEM'>
13	,	SYM	<fs af='COMMA,punc,,,,,,' posn='130' drel='rsym:kara' chunkType='child:VGF2' name=','>
14	jabaki	CC	<fs af='jabaki,avy,,,,,,' drel='ccof:ki' posn='140' name='jabaki' chunkId='CCP2' chunkType='head:CCP2'>
15	keMxra	NNP	<fs af='keMxra,n,m,sg,3,o,0_meM,0' drel='k7p:NULL' posn='150' vpos='vib_2' name='keMxra' chunkId='NP6' chunkType='head:NP6'>
16	meM	PSP	<fs af='meM,psp,,,,,,' posn='160' drel='lwg__psp:keMxra' chunkType='child:NP6' name='meM2'>
17	isakA	PRP	<fs af='yaha,pn,m,sg,3,o,kA,kA' drel='r6-k1:viroXa' posn='170' name='isakA2' chunkId='NP7' chunkType='head:NP7'>
18	viroXa	NN	<fs af='viroXa,n,m,sg,3,d,0,0' drel='pof:NULL' posn='180' name='viroXa' chunkId='NP8' chunkType='head:NP8'>
19	NULL	VM	<fs mtype='gap' troot='kara' dmrel='ccof:jabaki' name='NULL' chunkId='NULL__VGF' chunkType='head:NULL__VGF'>
20	.	SYM	<fs af='.,punc,,,,,,' drel='rsym:kahA' posn='190' name='.' chunkId='BLK' chunkType='head:BLK'>
</Sentence>


<Sentence id="8">
1	paScima	NNPC	<fs af='paScima,n,m,sg,3,d,0,0' posn='10' drel='pof__cn:baMgAla' chunkType='child:NP' name='paScima'>
2	baMgAla	NNP	<fs af='baMgAla,n,m,sg,3,o,0_kA,0' drel='r6:muKyamaMwrI' posn='20' vpos='vib_3' name='baMgAla' chunkId='NP' chunkType='head:NP'>
3	ke	PSP	<fs af='kA,psp,m,sg,,o,,' posn='30' drel='lwg__psp:baMgAla' chunkType='child:NP' name='ke'>
4	muKyamaMwrI	NNP	<fs af='muKyamaMwrI,n,m,sg,3,o,0,0' drel='nmod:BattAcArya' posn='40' name='muKyamaMwrI' chunkId='NP2' chunkType='head:NP2'>
5	buxXaxeva	NNPC	<fs af='buxXaxeva,n,m,sg,3,d,0,0' posn='50' drel='pof__cn:BattAcArya' chunkType='child:NP3' name='buxXaxeva'>
6	BattAcArya	NNP	<fs af='BattAcArya,n,any,sg,3,o,0_kA,0' drel='k1:kahanA' posn='60' vpos='vib_3' name='BattAcArya' chunkId='NP3' chunkType='head:NP3'>
7	kA	PSP	<fs af='kA,psp,m,sg,,d,,' posn='70' drel='lwg__psp:BattAcArya' chunkType='child:NP3' name='kA'>
8	kahanA	VM	<fs af='kaha,v,any,any,any,d,nA,nA' drel='k1:hE' posn='80' name='kahanA' chunkId='VGNN' chunkType='head:VGNN'>
9	hE	VM	<fs af='hE,v,any,sg,3,,hE,hE' stype='declarative' posn='90' voicetype='active' name='hE' chunkId='VGF' chunkType='head:VGF'>
10	ki	CC	<fs af='ki,avy,,,,,,' drel='k2:kahanA' posn='100' name='ki' chunkId='CCP' chunkType='head:CCP'>
11	ePadIAI	NNP	<fs af='ePadIAI,n,m,sg,3,d,0,0' drel='k1:hE2' posn='110' name='ePadIAI' chunkId='NP4' chunkType='head:NP4'>
12	BUmaMdalIkaraNa	NN	<fs af='BUmaMdalIkaraNa,n,m,sg,3,o,0_kA,0' drel='r6:hissA' posn='120' vpos='vib_2' name='BUmaMdalIkaraNa' chunkId='NP5' chunkType='head:NP5'>
13	kA	PSP	<fs af='kA,psp,m,sg,,d,,' posn='130' drel='lwg__psp:BUmaMdalIkaraNa' chunkType='child:NP5' name='kA2'>
14	hissA	NN	<fs af='hissA,n,m,sg,3,d,0,0' drel='k1s:hE2' posn='140' name='hissA' chunkId='NP6' chunkType='head:NP6'>
15	hE	VM	<fs af='hE,v,any,sg,3,,hE,hE' drel='ccof:ki' stype='declarative' posn='150' voicetype='active' name='hE2' chunkId='VGF2' chunkType='head:VGF2'>
16	.	SYM	<fs af='.,punc,,,,,,' drel='rsym:hE' posn='160' name='.' chunkId='BLK' chunkType='head:BLK'>
</Sentence>


<Sentence id="9">
1	joSI	NNP	<fs af='joSI,n,any,sg,3,o,0_ne,0' drel='k1:kahA' posn='10' vpos='vib_2' name='joSI' chunkId='NP' chunkType='head:NP'>
2	ne	PSP	<fs af='ne,psp,,,,,,' posn='20' drel='lwg__psp:joSI' chunkType='child:NP' name='ne'>
3	savAliyA	JJ	<fs af='savAliyA,adj,any,any,,o,,' posn='30' drel='nmod__adj:aMxAja' chunkType='child:NP2' name='savAliyA'>
4	aMxAja	NN	<fs af='aMxAja,n,m,sg,3,o,0_meM,0' drel='k7:kahA' posn='40' vpos='vib_3' name='aMxAja' chunkId='NP2' chunkType='head:NP2'>
5	meM	PSP	<fs af='meM,psp,,,,,,' posn='50' drel='lwg__psp:aMxAja' chunkType='child:NP2' name='meM'>
6	kahA	VM	<fs af='kaha,v,m,sg,any,,yA,yA' stype='declarative' posn='60' voicetype='active' name='kahA' chunkId='VGF' chunkType='head:VGF'>
7	ki	CC	<fs af='ki,avy,,,,,,' drel='k2:kahA' posn='70' name='ki' chunkId='CCP' chunkType='head:CCP'>
8	kyA	WQ	<fs af='kyA,pn,,,,,,' drel='adv:baxala' posn='80' name='kyA' chunkId='RBP' chunkType='head:RBP'>
9	unhoMne	PRP	<fs af='vaha,pn,any,sg,3h,o,ne,ne' drel='k1:baxala' posn='90' name='unhoMne' chunkId='NP3' chunkType='head:NP3'>
10	apanI	PRP	<fs af='apanA,pn,f,any,any,d,0,0' drel='r6:nIwiyAM' posn='100' name='apanI' chunkId='NP4' chunkType='head:NP4'>
11	ArWika	JJ	<fs af='ArWika,adj,any,any,,d,,' posn='110' drel='nmod__adj:nIwiyAM' chunkType='child:NP5' name='ArWika'>
12	nIwiyAM	NN	<fs af='nIwi,n,f,pl,3,d,0,0' drel='k2:baxala' posn='120' name='nIwiyAM' chunkId='NP5' chunkType='head:NP5'>
13	baxala	VM	<fs af='baxala,v,f,pl,3,,0_xe+yA_hE,0' drel='ccof:ki' stype='interrogative' posn='130' voicetype='active' vpos='tam_2_3' name='baxala' chunkId='VGF2' chunkType='head:VGF2'>
14	xI	VAUX	<fs af='xe,v,f,pl,3,,yA,yA' posn='140' drel='lwg__vaux:baxala' chunkType='child:VGF2' name='xI'>
15	hEM	VAUX	<fs af='hE,v,any,pl,3,,hE,hE' posn='150' drel='lwg__vaux:baxala' chunkType='child:VGF2' name='hEM'>
16	?	SYM	<fs af='?,punc,,,,,,' drel='rsym:kahA' posn='160' name='?' chunkId='BLK' chunkType='head:BLK'>
</Sentence>


<Sentence id="10">
1	yaxi	CC	<fs af='yaxi,avy,,,,,,' drel='vmod:karanA' posn='10' name='yaxi' chunkId='CCP' chunkType='head:CCP'>
2	EsA	PRP	<fs af='EsA,pn,m,sg,any,d,0,0' drel='k1:hE' posn='20' name='EsA' chunkId='NP' chunkType='head:NP'>
3	hE	VM	<fs af='hE,v,any,sg,3,,hE,hE' drel='ccof:yaxi' stype='declarative' posn='30' voicetype='active' name='hE' chunkId='VGF' chunkType='head:VGF'>
4	,	SYM	<fs af='COMMA,punc,,,,,,' posn='40' drel='rsym:hE' chunkType='child:VGF' name=','>
5	wo	CC	<fs af='wo,avy,,,,,,' posn='50' name='wo' chunkId='CCP2' chunkType='head:CCP2'>
6	pArtI	NN	<fs af='pArtI,n,f,sg,3,o,0_ko,0' drel='k1:karanA' posn='60' vpos='vib_2' name='pArtI' chunkId='NP2' chunkType='head:NP2'>
7	ko	PSP	<fs af='ko,psp,,,,,,' posn='70' drel='lwg__psp:pArtI' chunkType='child:NP2' name='ko'>
8	yaha	PRP	<fs af='yaha,pn,any,sg,3,d,0,0' drel='k2:karanA' posn='80' name='yaha' chunkId='NP3' chunkType='head:NP3'>
9	spaRta	JJ	<fs af='spaRta,adj,any,any,,,,' drel='pof:karanA' posn='90' name='spaRta' chunkId='JJP' chunkType='head:JJP'>
10	karanA	VM	<fs af='kara,v,m,any,any,,nA_cAhie,nA' drel='ccof:wo' stype='declarative' posn='100' voicetype='active' vpos='tam_2' name='karanA' chunkId='VGF2' chunkType='head:VGF2'>
11	cAhie	VAUX	<fs af='cAhie,v,any,any,any,,0,0' posn='110' drel='lwg__vaux:karanA' chunkType='child:VGF2' name='cAhie'>
12	.	SYM	<fs af='.,punc,,,,,,' drel='rsym:wo' posn='120' name='.' chunkId='BLK' chunkType='head:BLK'>
</Sentence>


</text>
</tb>
</body>
</document>
