<document id="2522692">
<head>
<title></title>			
<caption>mahArARtra visa cunAva meM 55 PIsaxI mawaxAna        mEnapurI meM xo Ora awarOlI meM eka kI mOwa  ejeMsI/byUro   : naI xillI</caption>			
<language>Hindi </language>			
<author>			
<firstname></firstname>			
<middlename></middlename>			
<lastname></lastname>			
</author>			
<creation>			
<raw_corpus creation_date="" institute_name=""></raw_corpus>			
<annotated_corpus creation_date="07/25/2009" institute_name="IIIT-Hyderabad"></annotated_corpus>			
</creation>			
<domain_name>News Articles </domain_name>			
<distributor>LTRC, IIIT Hyderabad</distributor>			
<source>ISI, Kolkata</source>			
<publication>			
<place>New Delhi</place>			
<date>13/6/2004</date>			
<address>Connaught Place, New Delhi</address>			
<type>Newspaper</type>			
<publisher>			
<name>Amar Ujala</name>			
<url>http://www.amarujala.com</url>			
</publisher>			
</publication>			
<project_description>NSF Hindi/Urdu Dependency Treebanking Project</project_description>			
<availability>			
<format>CML/SSF</format>			
</availability>			
<byte_count>17639</byte_count>			
<word_count>727</word_count>			
<edition_number>1.0</edition_number>			
<encoding_description>			
<original_encoding>ISO 8859</original_encoding>			
<new_encoding>Unicode UTF8</new_encoding>			
</encoding_description>			
<bibliography></bibliography>			
<sentence_marker>.</sentence_marker>			
<normalization>No</normalization>			
<utility_name>cml_tags</utility_name>			

</head>
<body>
<tb number="1" segment="no" bullet="no">
<foreign language="select" writingsystem="LTR"> </foreign>			
<text>
<Sentence id="1">
1	mahArARtra	NNPC	<fs af='mahArARtra,n,m,sg,3,d,0,0' posn='10' drel='pof__cn:viXAnasaBA' chunkType='child:NP' name='mahArARtra'>
2	viXAnasaBA	NNP	<fs af='viXAnasaBA,n,f,sg,3,d,0,0' posn='20' drel='nmod__adj:cunAva' chunkType='child:NP' name='viXAnasaBA'>
3	cunAva	NN	<fs af='cunAva,n,m,sg,3,o,0_ke_sAWa,0' drel='ras-k1:ho' posn='30' vpos='vib_vib_4_5_RP' name='cunAva' chunkId='NP' chunkType='head:NP'>
4	ke	PSP	<fs af='ke,psp,,,,,,' posn='40' drel='lwg__psp:cunAva' chunkType='child:NP' name='ke'>
5	sAWa	NST	<fs af='sAWa,nst,m,sg,3,d,,' posn='50' drel='lwg__psp:cunAva' chunkType='child:NP' name='sAWa'>
6	hI	RP	<fs af='hI,avy,,,,,,' posn='60' drel='lwg__rp:cunAva' chunkType='child:NP' name='hI'>
7	buXavAra	NNP	<fs af='buXavAra,n,m,sg,3,o,0_ko,0' drel='k7t:ho' posn='70' vpos='vib_2' name='buXavAra' chunkId='NP2' chunkType='head:NP2'>
8	ko	PSP	<fs af='ko,psp,,,,,,' posn='80' drel='lwg__psp:buXavAra' chunkType='child:NP2' name='ko'>
9	wIna	QC	<fs af='wIna,num,any,any,,any,,' posn='90' drel='nmod__adj:lokasaBA' chunkType='child:NP3' name='wIna'>
10	lokasaBA	NN	<fs af='lokasaBA,n,f,sg,3,d,0,0' drel='ccof:Ora' posn='100' name='lokasaBA' chunkId='NP3' chunkType='head:NP3'>
11	Ora	CC	<fs af='Ora,avy,,,,,,' drel='nmod:sItoM' posn='110' name='Ora' chunkId='CCP' chunkType='head:CCP'>
12	39	QC	<fs af='39,num,any,any,,any,,' posn='120' drel='nmod__adj:viXAnasaBA2' chunkType='child:NP4' name='39'>
13	viXAnasaBA	NN	<fs af='viXAnasaBA,n,f,sg,3,d,0,0' drel='ccof:Ora' posn='130' name='viXAnasaBA2' chunkId='NP4' chunkType='head:NP4'>
14	sItoM	NN	<fs af='sIta,n,f,pl,3,o,0_ke_lie,0' drel='rt:ho' posn='140' vpos='vib_2_3' name='sItoM' chunkId='NP5' chunkType='head:NP5'>
15	ke	PSP	<fs af='ke,psp,,,,,,' posn='150' drel='lwg__psp:sItoM' chunkType='child:NP5' name='ke2'>
16	lie	PSP	<fs af='lie,psp,,,,,,' posn='160' drel='lwg__psp:sItoM' chunkType='child:NP5' name='lie'>
17	upacunAva	NN	<fs af='upacunAva,n,m,sg,3,d,0,0' drel='k1:ho' posn='170' name='upacunAva' chunkId='NP6' chunkType='head:NP6'>
18	sampanna	JJ	<fs af='saMpanna,adj,any,any,,,,' drel='k1s:ho' posn='180' name='sampanna' chunkId='JJP' chunkType='head:JJP'>
19	ho	VM	<fs af='ho,v,any,sg,any,,0_jA+yA,0' stype='declarative' posn='190' voicetype='active' vpos='tam_2' name='ho' chunkId='VGF' chunkType='head:VGF'>
20	gayA	VAUX	<fs af='jA,v,m,sg,any,,yA,yA' posn='200' drel='lwg__vaux:ho' chunkType='child:VGF' name='gayA'>
21	.	SYM	<fs af='.,punc,,,,,,' drel='rsym:ho' posn='210' name='.' chunkId='BLK' chunkType='head:BLK'>
</Sentence>


<Sentence id="2">
1	mahArARtra	NNPC	<fs af='mahArARtra,n,m,sg,3,d,0,0' posn='10' drel='pof__cn:viXAnasaBA' chunkType='child:NP' name='mahArARtra'>
2	viXAnasaBA	NNP	<fs af='viXAnasaBA,n,f,sg,3,o,0_kA,0' drel='r6:sItoM' posn='20' vpos='vib_3' name='viXAnasaBA' chunkId='NP' chunkType='head:NP'>
3	kI	PSP	<fs af='kA,psp,f,pl,,o,,' posn='30' drel='lwg__psp:viXAnasaBA' chunkType='child:NP' name='kI'>
4	288	QC	<fs af='288,num,any,any,,any,,' posn='40' drel='nmod__adj:sItoM' chunkType='child:NP2' name='288'>
5	sItoM	NN	<fs af='sIta,n,f,pl,3,o,0_ke_lie,0' drel='rt:huA' posn='50' vpos='vib_3_4' name='sItoM' chunkId='NP2' chunkType='head:NP2'>
6	ke	PSP	<fs af='ke,psp,,,,,,' posn='60' drel='lwg__psp:sItoM' chunkType='child:NP2' name='ke'>
7	lie	PSP	<fs af='lie,psp,,,,,,' posn='70' drel='lwg__psp:sItoM' chunkType='child:NP2' name='lie'>
8	mawaxAna	NN	<fs af='mawaxAna,n,m,sg,3,d,0,0' drel='k1:huA' posn='80' name='mawaxAna' chunkId='NP3' chunkType='head:NP3'>
9	Citaputa	JJ	<fs af='Citaputa,adj,any,any,,o,,' posn='90' drel='nmod__adj:GatanAoM' chunkType='child:NP4' name='Citaputa'>
10	GatanAoM	NN	<fs af='GatanA,n,f,pl,3,o,0_ke_bIca,0' drel='k7:huA' posn='100' vpos='vib_3_4' name='GatanAoM' chunkId='NP4' chunkType='head:NP4'>
11	ke	PSP	<fs af='ke,psp,,,,,,' posn='110' drel='lwg__psp:GatanAoM' chunkType='child:NP4' name='ke2'>
12	bIca	NST	<fs af='bIca,nst,m,sg,3,d,,' posn='120' drel='lwg__psp:GatanAoM' chunkType='child:NP4' name='bIca'>
13	apekRAkqwa	RB	<fs af='apekRAkqwa,adv,,,,,,' drel='nmod:warIke' posn='130' name='apekRAkqwa' chunkId='RBP' chunkType='head:RBP'>
14	SAMwipUrNa	JJ	<fs af='SAMwipUrNa,adj,any,any,,o,,' posn='140' drel='nmod__adj:warIke' chunkType='child:NP5' name='SAMwipUrNa'>
15	warIke	NN	<fs af='warIkA,n,m,sg,3,o,0_se,0' drel='adv:huA' posn='150' vpos='vib_3' name='warIke' chunkId='NP5' chunkType='head:NP5'>
16	se	PSP	<fs af='se,psp,,,,,,' posn='160' drel='lwg__psp:warIke' chunkType='child:NP5' name='se'>
17	huA	VM	<fs af='ho,v,m,sg,any,,yA,yA' stype='declarative' posn='170' voicetype='active' name='huA' chunkId='VGF' chunkType='head:VGF'>
18	.	SYM	<fs af='.,punc,,,,,,' drel='rsym:huA' posn='180' name='.' chunkId='BLK' chunkType='head:BLK'>
</Sentence>


<Sentence id="3">
1	uwwara	NNPC	<fs af='uwwara,n,m,sg,3,d,0,0' posn='10' drel='pof__cn:praxeSa' chunkType='child:NP' name='uwwara'>
2	praxeSa	NNP	<fs af='praxeSa,n,m,sg,3,o,0_kA,0' drel='r6:kRewra' posn='20' vpos='vib_3' name='praxeSa' chunkId='NP' chunkType='head:NP'>
3	ke	PSP	<fs af='kA,psp,m,sg,,o,,' posn='30' drel='lwg__psp:praxeSa' chunkType='child:NP' name='ke'>
4	mEnapurI	NNP	<fs af='mEnapurI,n,m,sg,3,d,0,0' posn='40' drel='nmod__adj:kRewra' chunkType='child:NP2' name='mEnapurI'>
5	lokasaBA	NNC	<fs af='lokasaBA,n,f,sg,3,d,0,0' posn='50' drel='pof__cn:kRewra' chunkType='child:NP2' name='lokasaBA'>
6	kRewra	NN	<fs af='kRewra,n,m,sg,3,o,0_meM,0' drel='k7p:mAre' posn='60' vpos='vib_vib_4' name='kRewra' chunkId='NP2' chunkType='head:NP2'>
7	meM	PSP	<fs af='meM,psp,,,,,,' posn='70' drel='lwg__psp:kRewra' chunkType='child:NP2' name='meM'>
8	cunAvI	JJ	<fs af='cunAvI,adj,any,any,,o,,' posn='80' drel='nmod__adj:hiMsA' chunkType='child:NP3' name='cunAvI'>
9	hiMsA	NN	<fs af='hiMsA,n,f,sg,3,o,0_meM,0' drel='k7:mAre' posn='90' vpos='vib_3' name='hiMsA' chunkId='NP3' chunkType='head:NP3'>
10	meM	PSP	<fs af='meM,psp,,,,,,' posn='100' drel='lwg__psp:hiMsA' chunkType='child:NP3' name='meM2'>
11	xo	QC	<fs af='xo,num,any,any,,any,,' posn='110' drel='nmod__adj:loga' chunkType='child:NP4' name='xo'>
12	loga	NN	<fs af='loga,n,m,pl,3,d,0,0' drel='k2:mAre' posn='120' name='loga' chunkId='NP4' chunkType='head:NP4'>
13	mAre	VM	<fs af='mAra,v,m,pl,any,,yA_jA+yA1,yA' drel='ccof:jabaki' stype='declarative' posn='130' voicetype='passive' vpos='tam_2' name='mAre' chunkId='VGF' chunkType='head:VGF'>
14	gae	VAUX	<fs af='jA,v,m,pl,any,,yA1,yA1' posn='140' drel='lwg__vaux:mAre' chunkType='child:VGF' name='gae'>
15	jabaki	CC	<fs af='jabaki,avy,,,,,,' posn='150' name='jabaki' chunkId='CCP' chunkType='head:CCP'>
16	awarOlI	NNP	<fs af='awarOlI,n,m,sg,3,d,0,0' posn='160' drel='nmod__adj:kRewra2' chunkType='child:NP5' name='awarOlI'>
17	viXAnasaBA	NNC	<fs af='viXAnasaBA,n,f,sg,3,d,0,0' posn='170' drel='pof__cn:kRewra2' chunkType='child:NP5' name='viXAnasaBA'>
18	kRewra	NN	<fs af='kRewra,n,m,sg,3,o,0_meM,0' drel='k7p:huA' posn='180' vpos='vib_vib_4' name='kRewra2' chunkId='NP5' chunkType='head:NP5'>
19	meM	PSP	<fs af='meM,psp,,,,,,' posn='190' drel='lwg__psp:kRewra2' chunkType='child:NP5' name='meM3'>
20	eka	QC	<fs af='eka,num,any,any,,any,,' posn='200' drel='nmod__adj:vyakwi' chunkType='child:NP6' name='eka'>
21	vyakwi	NN	<fs af='vyakwi,n,m,sg,3,d,0,0' drel='k1:huA' posn='210' name='vyakwi' chunkId='NP6' chunkType='head:NP6'>
22	hiMsA	NN	<fs af='hiMsA,n,f,sg,3,o,0_kA,0' drel='r6:SikAra' posn='220' vpos='vib_2' name='hiMsA2' chunkId='NP7' chunkType='head:NP7'>
23	kA	PSP	<fs af='kA,psp,m,sg,,d,,' posn='230' drel='lwg__psp:hiMsA2' chunkType='child:NP7' name='kA'>
24	SikAra	NN	<fs af='SikAra,n,m,sg,3,d,0,0' drel='k1s:huA' posn='240' name='SikAra' chunkId='NP8' chunkType='head:NP8'>
25	huA	VM	<fs af='ho,v,m,sg,any,,yA,yA' drel='ccof:jabaki' stype='declarative' posn='250' voicetype='active' name='huA' chunkId='VGF2' chunkType='head:VGF2'>
26	.	SYM	<fs af='.,punc,,,,,,' drel='rsym:jabaki' posn='260' name='.' chunkId='BLK' chunkType='head:BLK'>
</Sentence>


<Sentence id="4">
1	mawagaNanA	NN	<fs af='mawagaNanA,n,m,sg,3,d,0,0' drel='k1:hogI' posn='10' name='mawagaNanA' chunkId='NP' chunkType='head:NP'>
2	16	NNPC	<fs af='16,n,any,sg,3,d,0,0' posn='20' drel='pof__cn:akwUbara' chunkType='child:NP2' name='16'>
3	akwUbara	NNP	<fs af='akwUbara,n,m,sg,3,o,0_ko,0' drel='k7t:hogI' posn='30' vpos='vib_3' name='akwUbara' chunkId='NP2' chunkType='head:NP2'>
4	ko	PSP	<fs af='ko,psp,,,,,,' posn='40' drel='lwg__psp:akwUbara' chunkType='child:NP2' name='ko'>
5	hogI	VM	<fs af='ho,v,f,sg,3,,gA,gA' stype='declarative' posn='50' voicetype='active' name='hogI' chunkId='VGF' chunkType='head:VGF'>
6	.	SYM	<fs af='.,punc,,,,,,' drel='rsym:hogI' posn='60' name='.' chunkId='BLK' chunkType='head:BLK'>
</Sentence>


<Sentence id="5">
1	sAre	JJ	<fs af='sArA,adj,m,pl,,d,,' posn='10' drel='nmod__adj:nawIje' chunkType='child:NP' name='sAre'>
2	nawIje	NN	<fs af='nawIjA,n,m,pl,3,d,0,0' drel='k1:A' posn='20' name='nawIje' chunkId='NP' chunkType='head:NP'>
3	xopahara	NN	<fs af='xopahara,n,f,sg,3,o,0_waka,0' drel='k7t:A' posn='30' vpos='vib_2' name='xopahara' chunkId='NP2' chunkType='head:NP2'>
4	waka	PSP	<fs af='waka,psp,,,,,,' posn='40' drel='lwg__psp:xopahara' chunkType='child:NP2' name='waka'>
5	A	VM	<fs af='A,v,any,pl,3,,0_jA+gA,0' stype='declarative' posn='50' voicetype='active' vpos='tam_2' name='A' chunkId='VGF' chunkType='head:VGF'>
6	jAeMge	VAUX	<fs af='jA,v,m,pl,3,,gA,gA' posn='60' drel='lwg__vaux:A' chunkType='child:VGF' name='jAeMge'>
7	.	SYM	<fs af='.,punc,,,,,,' drel='rsym:A' posn='70' name='.' chunkId='BLK' chunkType='head:BLK'>
</Sentence>


<Sentence id="6">
1	hAlAMki	CC	<fs af='hAlAMki,avy,,,,,,' posn='10' name='hAlAMki' chunkId='CCP' chunkType='head:CCP'>
2	mahArARtra	NNP	<fs af='mahArARtra,n,m,sg,3,o,0_meM,0' drel='k7p:huA' posn='20' vpos='vib_2' name='mahArARtra' chunkId='NP' chunkType='head:NP'>
3	meM	PSP	<fs af='meM,psp,,,,,,' posn='30' drel='lwg__psp:mahArARtra' chunkType='child:NP' name='meM'>
4	mawaxAna	NN	<fs af='mawaxAna,n,m,sg,3,d,0,0' drel='k1:huA' posn='40' name='mawaxAna' chunkId='NP2' chunkType='head:NP2'>
5	XImI	JJ	<fs af='XImA,adj,f,sg,,o,,' posn='50' drel='nmod__adj:gawi' chunkType='child:NP3' name='XImI'>
6	gawi	NN	<fs af='gawi,n,f,sg,3,o,0_se,0' drel='adv:huA' posn='60' vpos='vib_3' name='gawi' chunkId='NP3' chunkType='head:NP3'>
7	se	PSP	<fs af='se,psp,,,,,,' posn='70' drel='lwg__psp:gawi' chunkType='child:NP3' name='se'>
8	SurU	NN	<fs af='SurU,n,m,sg,3,d,0,0' drel='k1s:huA' posn='80' name='SurU' chunkId='NP4' chunkType='head:NP4'>
9	huA	VM	<fs af='ho,v,m,sg,any,,yA,yA' drel='ccof:lekina' stype='declarative' posn='90' voicetype='active' name='huA' chunkId='VGF' chunkType='head:VGF'>
10	lekina	CC	<fs af='lekina,avy,,,,,,' drel='ccof:hAlAMki' posn='100' name='lekina' chunkId='CCP2' chunkType='head:CCP2'>
11	xina	NN	<fs af='xina,n,m,sg,3,d,0,0' drel='k1:bIwawe' posn='110' name='xina' chunkId='NP5' chunkType='head:NP5'>
12	bIwawe	VM	<fs af='bIwa,v,m,sg,any,,wA,wA' drel='vmod:ho' posn='120' name='bIwawe' chunkId='VGNF' chunkType='head:VGNF'>
13	hI	RP	<fs af='hI,avy,,,,,,' posn='130' drel='lwg__rp:bIwawe' chunkType='child:VGNF' name='hI'>
14	votiMga	NN	<fs af='votiMga,n,f,sg,3,o,0_kA,0' drel='r6:raPwAra' posn='140' vpos='vib_2' name='votiMga' chunkId='NP6' chunkType='head:NP6'>
15	kI	PSP	<fs af='kA,psp,f,sg,,d,,' posn='150' drel='lwg__psp:votiMga' chunkType='child:NP6' name='kI'>
16	raPwAra	NN	<fs af='raPwAra,n,f,sg,3,d,0,0' drel='k1:ho' posn='160' name='raPwAra' chunkId='NP7' chunkType='head:NP7'>
17	weja	JJ	<fs af='weja,adj,any,any,,,,' drel='k1s:ho' posn='170' name='weja' chunkId='JJP' chunkType='head:JJP'>
18	ho	VM	<fs af='ho,v,any,sg,any,,0_jA+yA,0' drel='ccof:lekina' stype='declarative' posn='180' voicetype='active' vpos='tam_2' name='ho' chunkId='VGF2' chunkType='head:VGF2'>
19	gaI	VAUX	<fs af='jA,v,f,sg,any,,yA,yA' posn='190' drel='lwg__vaux:ho' chunkType='child:VGF2' name='gaI'>
20	.	SYM	<fs af='.,punc,,,,,,' drel='rsym:hAlAMki' posn='200' name='.' chunkId='BLK' chunkType='head:BLK'>
</Sentence>


<Sentence id="7">
1	cunAva	NNPC	<fs af='cunAva,n,m,sg,3,d,0,0' posn='10' drel='pof__cn:Ayoga' chunkType='child:NP' name='cunAva'>
2	Ayoga	NNP	<fs af='Ayoga,n,m,sg,3,o,0_ke_anusAra,0' drel='k7a:padZe' posn='20' vpos='vib_3_4' name='Ayoga' chunkId='NP' chunkType='head:NP'>
3	ke	PSP	<fs af='ke,psp,,,,,,' posn='30' drel='lwg__psp:Ayoga' chunkType='child:NP' name='ke'>
4	anusAra	PSP	<fs af='anusAra,psp,,,,,,' posn='40' drel='lwg__psp:Ayoga' chunkType='child:NP' name='anusAra'>
5	rAjya	NN	<fs af='rAjya,n,m,sg,3,o,0_meM,0' drel='k7p:padZe' posn='50' vpos='vib_2' name='rAjya' chunkId='NP2' chunkType='head:NP2'>
6	meM	PSP	<fs af='meM,psp,,,,,,' posn='60' drel='lwg__psp:rAjya' chunkType='child:NP2' name='meM'>
7	55	QC	<fs af='55,num,any,any,,any,,' posn='70' drel='nmod__adj:PIsaxI' chunkType='child:NP3' name='55'>
8	-	SYM	<fs af='-,punc,,,,,,' posn='80' drel='rsym:PIsaxI' chunkType='child:NP3' name='-'>
9	60	QC	<fs af='60,num,any,any,,any,,' posn='90' drel='nmod__adj:PIsaxI' chunkType='child:NP3' name='60'>
10	PIsaxI	NN	<fs af='PIsaxI,n,f,sg,3,o,0_waka,0' drel='nmod:vota' posn='100' vpos='vib_5' name='PIsaxI' chunkId='NP3' chunkType='head:NP3'>
11	waka	PSP	<fs af='waka,psp,,,,,,' posn='110' drel='lwg__psp:PIsaxI' chunkType='child:NP3' name='waka'>
12	vota	NN	<fs af='vota,n,m,pl,3,d,0,0' drel='k1:padZe' posn='120' name='vota' chunkId='NP4' chunkType='head:NP4'>
13	padZe	VM	<fs af='padZa,v,m,pl,any,,yA,yA' stype='declarative' posn='130' voicetype='active' name='padZe' chunkId='VGF' chunkType='head:VGF'>
14	.	SYM	<fs af='.,punc,,,,,,' drel='rsym:padZe' posn='140' name='.' chunkId='BLK' chunkType='head:BLK'>
</Sentence>


<Sentence id="8">
1	rAjya	NN	<fs af='rAjya,n,m,sg,3,o,0_kA,0' drel='r6:aXikArI' posn='10' vpos='vib_2' name='rAjya' chunkId='NP' chunkType='head:NP'>
2	ke	PSP	<fs af='kA,psp,m,sg,,o,,' posn='20' drel='lwg__psp:rAjya' chunkType='child:NP' name='ke'>
3	muKya	NNC	<fs af='muKya,adj,any,any,,o,,' posn='30' drel='pof__cn:aXikArI' chunkType='child:NP2' name='muKya'>
4	cunAva	NNC	<fs af='cunAva,n,m,sg,3,d,0,0' posn='40' drel='pof__cn:aXikArI' chunkType='child:NP2' name='cunAva'>
5	aXikArI	NN	<fs af='aXikArI,n,m,sg,3,o,0,0' drel='nmod:maxAna' posn='50' name='aXikArI' chunkId='NP2' chunkType='head:NP2'>
6	yU	NNPC	<fs af='yU,n,m,sg,3,d,0,0' posn='60' drel='pof__cn:maxAna' chunkType='child:NP3' name='yU'>
7	pI	NNPC	<fs af='pI,n,m,sg,3,d,0,0' posn='70' drel='pof__cn:maxAna' chunkType='child:NP3' name='pI'>
8	esa	NNPC	<fs af='esa,n,m,sg,3,d,0,0' posn='80' drel='pof__cn:maxAna' chunkType='child:NP3' name='esa'>
9	maxAna	NNP	<fs af='maxAna,n,any,sg,3,o,0_ne,0' drel='k1:jawAI' posn='90' vpos='vib_5_RP' name='maxAna' chunkId='NP3' chunkType='head:NP3'>
10	ne	PSP	<fs af='ne,psp,,,,,,' posn='100' drel='lwg__psp:maxAna' chunkType='child:NP3' name='ne'>
11	BI	RP	<fs af='BI,avy,,,,,,' posn='110' drel='lwg__rp:maxAna' chunkType='child:NP3' name='BI'>
12	55	QC	<fs af='55,num,any,any,,any,,' posn='120' drel='nmod__adj:PIsaxI' chunkType='child:NP4' name='55'>
13	PIsaxI	NN	<fs af='PIsaxI,n,f,sg,3,o,0_se,0' drel='jjmod:jyAxA' posn='130' vpos='vib_3' name='PIsaxI' chunkId='NP4' chunkType='head:NP4'>
14	se	PSP	<fs af='se,psp,,,,,,' posn='140' drel='lwg__psp:PIsaxI' chunkType='child:NP4' name='se'>
15	jyAxA	QF	<fs af='jyAxA,avy,,,,,,' drel='nmod:vota' posn='150' name='jyAxA' chunkId='JJP' chunkType='head:JJP'>
16	vota	NN	<fs af='vota,n,m,pl,3,d,0,0' drel='k1:padZane' posn='160' name='vota' chunkId='NP5' chunkType='head:NP5'>
17	padZane	VM	<fs af='padZa,v,any,sg,any,o,nA_kA,nA' drel='r6-k2:saMBAvanA' posn='170' vpos='tam_2' name='padZane' chunkId='VGNN' chunkType='head:VGNN'>
18	kI	PSP	<fs af='kA,psp,f,sg,,d,,' posn='180' drel='lwg__psp:padZane' chunkType='child:VGNN' name='kI'>
19	saMBAvanA	NN	<fs af='saMBAvanA,n,f,sg,3,d,0,0' drel='pof:jawAI' posn='190' name='saMBAvanA' chunkId='NP6' chunkType='head:NP6'>
20	jawAI	VM	<fs af='jawA,v,f,sg,3,,yA_hE,yA' stype='declarative' posn='200' voicetype='active' vpos='tam_2' name='jawAI' chunkId='VGF' chunkType='head:VGF'>
21	hE	VAUX	<fs af='hE,v,any,sg,3,,hE,hE' posn='210' drel='lwg__vaux:jawAI' chunkType='child:VGF' name='hE'>
22	.	SYM	<fs af='.,punc,,,,,,' drel='rsym:jawAI' posn='220' name='.' chunkId='BLK' chunkType='head:BLK'>
</Sentence>


<Sentence id="9">
1	rAjya	NN	<fs af='rAjya,n,m,sg,3,o,0_kA,0' drel='r6:jiloM' posn='10' vpos='vib_2' name='rAjya' chunkId='NP' chunkType='head:NP'>
2	ke	PSP	<fs af='kA,psp,m,pl,,o,,' posn='20' drel='lwg__psp:rAjya' chunkType='child:NP' name='ke'>
3	38	QC	<fs af='38,num,any,any,,any,,' posn='30' drel='nmod__adj:jiloM' chunkType='child:NP2' name='38'>
4	jiloM	NN	<fs af='jilA,n,m,pl,3,o,0_meM,0' drel='k7p:PEle' posn='40' vpos='vib_3' name='jiloM' chunkId='NP2' chunkType='head:NP2'>
5	meM	PSP	<fs af='meM,psp,,,,,,' posn='50' drel='lwg__psp:jiloM' chunkType='child:NP2' name='meM'>
6	PEle	VM	<fs af='PEla,v,m,pl,any,,yA,yA' drel='nmod__k1inv:64' posn='60' name='PEle' chunkId='VGNF' chunkType='head:VGNF'>
7	64	QCC	<fs af='64,num,any,any,,any,0_se,' drel='jjmod:jyAxA' posn='70' vpos='3' name='64' chunkId='NP3' chunkType='head:NP3'>
8	hajAra	QC	<fs af='hajAra,num,any,any,,o,,' posn='80' drel='ccof:64' chunkType='child:NP3' name='hajAra'>
9	se	PSP	<fs af='se,psp,,,,,,' posn='90' drel='ccof:64' chunkType='child:NP3' name='se'>
10	jyAxA	QF	<fs af='jyAxA,avy,,,,,,' drel='nmod:keMxroM' posn='100' name='jyAxA' chunkId='JJP' chunkType='head:JJP'>
11	mawaxAna	NNC	<fs af='mawaxAna,n,m,sg,3,d,0,0' posn='110' drel='pof__cn:keMxroM' chunkType='child:NP4' name='mawaxAna'>
12	keMxroM	NN	<fs af='keMxra,n,m,pl,3,o,0_para,0' drel='k7p:dAle' posn='120' vpos='vib_3' name='keMxroM' chunkId='NP4' chunkType='head:NP4'>
13	para	PSP	<fs af='para,psp,,,,,,' posn='130' drel='lwg__psp:keMxroM' chunkType='child:NP4' name='para'>
14	subaha	NN	<fs af='subaha,n,f,sg,3,d,0,0' drel='nmod:baje' posn='140' name='subaha' chunkId='NP5' chunkType='head:NP5'>
15	sADZe	QCC	<fs af='sADZe,num,any,any,,any,,' posn='150' drel='mod:baje' chunkType='child:NP6' name='sADZe'>
16	sAwa	QC	<fs af='sAwa,num,any,any,,any,,' posn='160' drel='nmod__adj:baje' chunkType='child:NP6' name='sAwa'>
17	baje	NN	<fs af='baja,n,m,sg,3,o,0_se,0' drel='rsp:baje2' posn='170' vpos='vib_4' name='baje' chunkId='NP6' chunkType='head:NP6'>
18	se	PSP	<fs af='se,psp,,,,,,' posn='180' drel='lwg__psp:baje' chunkType='child:NP6' name='se2'>
19	SAma	NN	<fs af='SAma,n,f,sg,3,d,0,0' drel='nmod:baje2' posn='190' name='SAma' chunkId='NP7' chunkType='head:NP7'>
20	sADZe	QCC	<fs af='sADZe,num,any,any,,any,,' posn='200' drel='mod:baje2' chunkType='child:NP8' name='sADZe2'>
21	pAMca	QC	<fs af='pAMca,num,any,any,,any,,' posn='210' drel='nmod__adj:baje2' chunkType='child:NP8' name='pAMca'>
22	baje	NN	<fs af='baja,n,m,sg,3,o,0_waka,0' drel='k7t:dAle' posn='220' vpos='vib_4' name='baje2' chunkId='NP8' chunkType='head:NP8'>
23	waka	PSP	<fs af='waka,psp,,,,,,' posn='230' drel='lwg__psp:baje2' chunkType='child:NP8' name='waka'>
24	vota	NN	<fs af='vota,n,m,sg,3,d,0,0' drel='k2:dAle' posn='240' name='vota' chunkId='NP9' chunkType='head:NP9'>
25	dAle	VM	<fs af='dAla,v,m,pl,any,,yA_jA+yA1,yA' stype='declarative' posn='250' voicetype='passive' vpos='tam_2' name='dAle' chunkId='VGF' chunkType='head:VGF'>
26	gae	VAUX	<fs af='jA,v,m,pl,any,,yA1,yA1' posn='260' drel='lwg__vaux:dAle' chunkType='child:VGF' name='gae'>
27	.	SYM	<fs af='.,punc,,,,,,' drel='rsym:dAle' posn='270' name='.' chunkId='BLK' chunkType='head:BLK'>
</Sentence>


<Sentence id="10">
1	muKyamaMwrI	NNP	<fs af='muKyamaMwrI,n,m,sg,3,d,0,0' posn='10' drel='nmod__adj:SiMxe' chunkType='child:NP' name='muKyamaMwrI'>
2	suSIla	NNPC	<fs af='suSIla,n,m,sg,3,d,0,0' posn='20' drel='pof__cn:SiMxe' chunkType='child:NP' name='suSIla'>
3	kumAra	NNPC	<fs af='kumAra,n,m,sg,3,d,0,0' posn='30' drel='pof__cn:SiMxe' chunkType='child:NP' name='kumAra'>
4	SiMxe	NNP	<fs af='SiMxe,n,any,sg,3,o,0,0' drel='ccof:va' posn='40' name='SiMxe' chunkId='NP' chunkType='head:NP'>
5	va	CC	<fs af='va,avy,,,,,,' drel='ccof:NULL' posn='50' name='va' chunkId='CCP' chunkType='head:CCP'>
6	unakI	PRP	<fs af='vaha,pn,f,sg,3h,o,kA,kA' drel='r6:pawnI' posn='60' name='unakI' chunkId='NP2' chunkType='head:NP2'>
7	pawnI	NN	<fs af='pawnI,n,f,sg,3,o,0,0' drel='nmod:ujjvalA' posn='70' name='pawnI' chunkId='NP3' chunkType='head:NP3'>
8	ujjvalA	NNP	<fs af='ujjvalA,n,f,sg,3,o,0,0' drel='ccof:va' posn='80' name='ujjvalA' chunkId='NP4' chunkType='head:NP4'>
9	,	SYM	<fs af='COMMA,punc,,,,,,' posn='90' drel='rsym:ujjvalA' chunkType='child:NP4' name=','>
10	enasIpI	NNP	<fs af='enasIpI,n,m,sg,3,d,0,0' posn='100' drel='nmod__adj:pavAra' chunkType='child:NP5' name='enasIpI'>
11	aXyakRa	NN	<fs af='aXyakRa,n,m,sg,3,d,0,0' posn='110' drel='nmod:pavAra' chunkType='child:NP5' name='aXyakRa'>
12	Saraxa	NNPC	<fs af='Saraxa,n,m,sg,3,d,0,0' posn='120' drel='pof__cn:pavAra' chunkType='child:NP5' name='Saraxa'>
13	pavAra	NNP	<fs af='pavAra,n,any,sg,3,o,0,0' drel='ccof:NULL' posn='130' name='pavAra' chunkId='NP5' chunkType='head:NP5'>
14	,	SYM	<fs af='COMMA,punc,,,,,,' posn='140' drel='rsym:pavAra' chunkType='child:NP5' name=',2'>
15	keMxrIya	NNPC	<fs af='keMxrIya,adj,any,any,,o,,' posn='150' drel='pof__cn:maMwrI' chunkType='child:NP6' name='keMxrIya'>
16	Kela	NNPC	<fs af='Kela,n,m,sg,3,d,0,0' posn='160' drel='pof__cn:maMwrI' chunkType='child:NP6' name='Kela'>
17	maMwrI	NNP	<fs af='maMwrI,n,m,sg,3,d,0,0' posn='170' drel='nmod__adj:xawwa' chunkType='child:NP6' name='maMwrI'>
18	sunIla	NNPC	<fs af='sunIla,n,m,sg,3,d,0,0' posn='180' drel='pof__cn:xawwa' chunkType='child:NP6' name='sunIla'>
19	xawwa	NNP	<fs af='xawwa,n,any,sg,3,o,0,0' drel='ccof:NULL' posn='190' name='xawwa' chunkId='NP6' chunkType='head:NP6'>
20	,	SYM	<fs af='COMMA,punc,,,,,,' posn='200' drel='rsym:xawwa' chunkType='child:NP6' name=',3'>
21	uxyogapawi	NN	<fs af='uxyogapawi,n,m,sg,3,o,0,0' drel='nmod:aMbAnI' posn='210' name='uxyogapawi' chunkId='NP7' chunkType='head:NP7'>
22	anila	NNPC	<fs af='anila,n,m,sg,3,d,0,0' posn='220' drel='pof__cn:aMbAnI' chunkType='child:NP8' name='anila'>
23	aMbAnI	NNP	<fs af='aMbAnI,n,any,sg,3,o,0,0' drel='ccof:va2' posn='230' name='aMbAnI' chunkId='NP8' chunkType='head:NP8'>
24	va	CC	<fs af='va,avy,,,,,,' drel='ccof:NULL' posn='240' name='va2' chunkId='CCP2' chunkType='head:CCP2'>
25	unakI	PRP	<fs af='vaha,pn,f,sg,3h,o,kA,kA' drel='r6:tInA' posn='250' name='unakI2' chunkId='NP9' chunkType='head:NP9'>
26	pawnI	NN	<fs af='pawnI,n,f,sg,3,o,0,0' drel='nmod:tInA' posn='260' name='pawnI2' chunkId='NP10' chunkType='head:NP10'>
27	tInA	NNP	<fs af='tInA,n,f,sg,3,o,0,0' drel='ccof:va2' posn='270' name='tInA' chunkId='NP11' chunkType='head:NP11'>
28	,	SYM	<fs af='COMMA,punc,,,,,,' posn='280' drel='rsym:tInA' chunkType='child:NP11' name=',4'>
29	NULL	CC	<fs mtype='gap' troot='Ora' dmrel='ras-k1:kiyA' name='NULL' chunkId='NULL__CCP' chunkType='head:NULL__CCP'>
30	sAMsaxa	NN	<fs af='sAMsaxa,n,m,sg,3,o,0,0' drel='nmod:goviMxA' posn='290' name='sAMsaxa' chunkId='NP12' chunkType='head:NP12'>
31	goviMxA	NNP	<fs af='goviMxA,n,m,sg,3,o,0_sahiwa,0' drel='ccof:NULL' posn='300' vpos='vib_2' name='goviMxA' chunkId='NP13' chunkType='head:NP13'>
32	sahiwa	PSP	<fs af='sahiwa,psp,,,,,,' posn='310' drel='lwg__psp:goviMxA' chunkType='child:NP13' name='sahiwa'>
33	kaI	QF	<fs af='kaI,avy,,,,,,' posn='320' drel='nmod__adj:siwAroM' chunkType='child:NP14' name='kaI'>
34	PilmI	JJ	<fs af='PilmI,adj,any,any,,o,,' posn='330' drel='nmod__adj:siwAroM' chunkType='child:NP14' name='PilmI'>
35	siwAroM	NN	<fs af='siwArA,n,m,pl,3,o,0_ne,0' drel='k1:kiyA' posn='340' vpos='vib_4_RP' name='siwAroM' chunkId='NP14' chunkType='head:NP14'>
36	ne	PSP	<fs af='ne,psp,,,,,,' posn='350' drel='lwg__psp:siwAroM' chunkType='child:NP14' name='ne'>
37	BI	RP	<fs af='BI,avy,,,,,,' posn='360' drel='lwg__rp:siwAroM' chunkType='child:NP14' name='BI'>
38	mawAXikAra	NN	<fs af='mawAXikAra,n,m,sg,3,o,0_kA,0' drel='r6-k2:prayoga' posn='370' vpos='vib_2' name='mawAXikAra' chunkId='NP15' chunkType='head:NP15'>
39	kA	PSP	<fs af='kA,psp,m,sg,,d,,' posn='380' drel='lwg__psp:mawAXikAra' chunkType='child:NP15' name='kA'>
40	prayoga	NN	<fs af='prayoga,n,m,sg,3,d,0,0' drel='pof:kiyA' posn='390' name='prayoga' chunkId='NP16' chunkType='head:NP16'>
41	kiyA	VM	<fs af='kara,v,m,sg,any,,yA,yA' stype='declarative' posn='400' voicetype='active' name='kiyA' chunkId='VGF' chunkType='head:VGF'>
42	.	SYM	<fs af='.,punc,,,,,,' drel='rsym:kiyA' posn='410' name='.' chunkId='BLK' chunkType='head:BLK'>
</Sentence>


<Sentence id="11">
1	hAlAMki	CC	<fs af='hAlAMki,avy,,,,,,' posn='10' name='hAlAMki' chunkId='CCP' chunkType='head:CCP'>
2	naksaliyoM	NN	<fs af='naksalI,n,m,pl,3,o,0_ne,0' drel='k1:xI' posn='20' vpos='vib_2' name='naksaliyoM' chunkId='NP' chunkType='head:NP'>
3	ne	PSP	<fs af='ne,psp,,,,,,' posn='30' drel='lwg__psp:naksaliyoM' chunkType='child:NP' name='ne'>
4	rAjya	NN	<fs af='rAjya,n,m,sg,3,o,0_meM,0' drel='k7p:xI' posn='40' vpos='vib_2' name='rAjya' chunkId='NP2' chunkType='head:NP2'>
5	meM	PSP	<fs af='meM,psp,,,,,,' posn='50' drel='lwg__psp:rAjya' chunkType='child:NP2' name='meM'>
6	cunAva	NNC	<fs af='cunAva,n,m,sg,3,d,0,0' posn='60' drel='pof__cn:bahiRkAra' chunkType='child:NP3' name='cunAva'>
7	bahiRkAra	NN	<fs af='bahiRkAra,n,m,sg,3,o,0_kA,0' drel='r6-k2:XamakI' posn='70' vpos='vib_3' name='bahiRkAra' chunkId='NP3' chunkType='head:NP3'>
8	kI	PSP	<fs af='kA,psp,f,sg,,d,,' posn='80' drel='lwg__psp:bahiRkAra' chunkType='child:NP3' name='kI'>
9	XamakI	NN	<fs af='XamakI,n,f,sg,3,d,0,0' drel='pof:xI' posn='90' name='XamakI' chunkId='NP4' chunkType='head:NP4'>
10	xI	VM	<fs af='xe,v,f,sg,any,,yA_WA,yA' drel='ccof:lekina' stype='declarative' posn='100' voicetype='active' vpos='tam_2' name='xI' chunkId='VGF' chunkType='head:VGF'>
11	WI	VAUX	<fs af='WA,v,f,sg,any,,WA,WA' posn='110' drel='lwg__vaux:xI' chunkType='child:VGF' name='WI'>
12	,	SYM	<fs af='COMMA,punc,,,,,,' posn='120' drel='rsym:xI' chunkType='child:VGF' name=','>
13	lekina	CC	<fs af='lekina,avy,,,,,,' drel='ccof:hAlAMki' posn='130' name='lekina' chunkId='CCP2' chunkType='head:CCP2'>
14	isakA	PRP	<fs af='yaha,pn,m,sg,3,o,kA,kA' drel='r6-k1:asara' posn='140' name='isakA' chunkId='NP5' chunkType='head:NP5'>
15	KAsa	JJ	<fs af='KAsa,adj,any,any,,d,,' posn='150' drel='nmod__adj:asara' chunkType='child:NP6' name='KAsa'>
16	asara	NN	<fs af='asara,n,m,sg,3,d,0,0' drel='pof:padZA' posn='160' name='asara' chunkId='NP6' chunkType='head:NP6'>
17	nahIM	NEG	<fs af='nahIM,avy,,,,,,' posn='170' drel='lwg__neg:padZA' chunkType='child:VGF2' name='nahIM'>
18	padZA	VM	<fs af='padZa,v,m,sg,any,,yA,yA' drel='ccof:lekina' stype='declarative' posn='180' voicetype='active' name='padZA' chunkId='VGF2' chunkType='head:VGF2'>
19	.	SYM	<fs af='.,punc,,,,,,' drel='rsym:hAlAMki' posn='190' name='.' chunkId='BLK' chunkType='head:BLK'>
</Sentence>


<Sentence id="12">
1	kuCa	QF	<fs af='kuCa,avy,,,,,,' posn='10' drel='nmod__adj:jagahoM' chunkType='child:NP' name='kuCa'>
2	jagahoM	NN	<fs af='jagaha,n,f,pl,3,o,0_para,0' drel='k7p:kI2' posn='20' vpos='vib_3' name='jagahoM' chunkId='NP' chunkType='head:NP'>
3	para	PSP	<fs af='para,psp,,,,,,' posn='30' drel='lwg__psp:jagahoM' chunkType='child:NP' name='para'>
4	IvIema	NNP	<fs af='IvIema,n,m,sg,3,d,0,0' posn='40' drel='nmod__adj:maSInoM' chunkType='child:NP2' name='IvIema'>
5	maSInoM	NN	<fs af='maSIna,n,f,pl,3,o,0_ke_sAWa,0' drel='k2:karane' posn='50' vpos='vib_vib_3_4' name='maSInoM' chunkId='NP2' chunkType='head:NP2'>
6	ke	PSP	<fs af='ke,psp,,,,,,' posn='60' drel='lwg__psp:maSInoM' chunkType='child:NP2' name='ke'>
7	sAWa	NST	<fs af='sAWa,nst,m,sg,3,d,,' posn='70' drel='lwg__psp:maSInoM' chunkType='child:NP2' name='sAWa'>
8	CedZaCAdZa	NN	<fs af='CedaCAda,n,f,sg,3,d,0,0' drel='pof:karane' posn='80' name='CedZaCAdZa' chunkId='NP3' chunkType='head:NP3'>
9	karane	VM	<fs af='kara,v,any,sg,any,o,nA_kA,nA' drel='r6-k2:koSiSa' posn='90' vpos='tam_2' name='karane' chunkId='VGNN' chunkType='head:VGNN'>
10	kI	PSP	<fs af='kA,psp,f,sg,,d,,' posn='100' drel='lwg__psp:karane' chunkType='child:VGNN' name='kI'>
11	koSiSa	NN	<fs af='koSiSa,n,f,sg,3,d,0,0' drel='pof:kI2' posn='110' name='koSiSa' chunkId='NP4' chunkType='head:NP4'>
12	kI	VM	<fs af='kara,v,f,sg,any,,yA_jA+yA1,yA' drel='ccof:NULL' stype='declarative' posn='120' voicetype='passive' vpos='tam_2' name='kI2' chunkId='VGF' chunkType='head:VGF'>
13	gaI	VAUX	<fs af='jA,v,f,sg,any,,yA1,yA1' posn='130' drel='lwg__vaux:kI2' chunkType='child:VGF' name='gaI'>
14	,	SYM	<fs af='COMMA,punc,,,,,,' posn='140' drel='rsym:kI2' chunkType='child:VGF' name=','>
15	NULL	CC	<fs mtype='gap' troot='' name='NULL' chunkId='NULL__CCP' chunkType='head:NULL__CCP'>
16	jise	PRP	<fs af='jo,pn,any,sg,3,o,ko,ko' drel='k2:kara' posn='150' name='jise' chunkId='NP5' chunkType='head:NP5'>
17	TIka	JJ	<fs af='TIka,adj,any,any,,,,' drel='pof:kara' posn='160' name='TIka' chunkId='JJP' chunkType='head:JJP'>
18	kara	VM	<fs af='kara,v,m,sg,any,,0_le+yA_jA+yA1,0' drel='ccof:NULL' stype='declarative' posn='170' voicetype='passive' vpos='tam_2_3' name='kara' chunkId='VGF2' chunkType='head:VGF2'>
19	liyA	VAUX	<fs af='le,v,m,sg,any,,yA,yA' posn='180' drel='lwg__vaux:kara' chunkType='child:VGF2' name='liyA'>
20	gayA	VAUX	<fs af='jA,v,m,sg,any,,yA1,yA1' posn='190' drel='lwg__vaux:kara' chunkType='child:VGF2' name='gayA'>
21	.	SYM	<fs af='.,punc,,,,,,' drel='rsym:NULL' posn='200' name='.' chunkId='BLK' chunkType='head:BLK'>
</Sentence>


<Sentence id="13">
1	pulisa	NN	<fs af='pulisa,n,f,sg,3,o,0_ke_anusAra,0' drel='k7a:ho' posn='10' vpos='vib_2_3' name='pulisa' chunkId='NP' chunkType='head:NP'>
2	ke	PSP	<fs af='ke,psp,,,,,,' posn='20' drel='lwg__psp:pulisa' chunkType='child:NP' name='ke'>
3	anusAra	PSP	<fs af='anusAra,psp,,,,,,' posn='30' drel='lwg__psp:pulisa' chunkType='child:NP' name='anusAra'>
4	vixarBa	NNP	<fs af='vixarBa,n,m,sg,3,o,0_kA,0' drel='r6:gaDZacirOlI' posn='40' vpos='vib_2' name='vixarBa' chunkId='NP2' chunkType='head:NP2'>
5	ke	PSP	<fs af='kA,psp,m,sg,,o,,' posn='50' drel='lwg__psp:vixarBa' chunkType='child:NP2' name='ke2'>
6	gaDZacirOlI	NNP	<fs af='gaDZacirOlI,n,m,sg,3,o,0_meM,0' drel='k7p:ho' posn='60' vpos='vib_2' name='gaDZacirOlI' chunkId='NP3' chunkType='head:NP3'>
7	meM	PSP	<fs af='meM,psp,,,,,,' posn='70' drel='lwg__psp:gaDZacirOlI' chunkType='child:NP3' name='meM'>
8	wIna	QC	<fs af='wIna,num,any,any,,any,,' posn='80' drel='nmod__adj:GatanAoM' chunkType='child:NP4' name='wIna'>
9	alaga	JJ	<fs af='alaga,adj,any,any,,d,,' posn='90' drel='nmod__adj:GatanAoM' chunkType='child:NP4' name='alaga'>
10	-	SYM	<fs af='-,punc,,,,,,' posn='100' drel='rsym:GatanAoM' chunkType='child:NP4' name='-'>
11	alaga	RDP	<fs af='alaga,adj,any,any,,o,,' posn='110' drel='mod:GatanAoM' chunkType='child:NP4' name='alaga2'>
12	GatanAoM	NN	<fs af='GatanA,n,f,pl,3,o,0_meM,0' drel='k7:ho' posn='120' vpos='vib_6' name='GatanAoM' chunkId='NP4' chunkType='head:NP4'>
13	meM	PSP	<fs af='meM,psp,,,,,,' posn='130' drel='lwg__psp:GatanAoM' chunkType='child:NP4' name='meM2'>
14	xo	QC	<fs af='xo,num,any,any,,any,,' posn='140' drel='nmod__adj:pulisakarmI' chunkType='child:NP5' name='xo'>
15	pulisakarmI	NN	<fs af='pulisakarmI,n,f,pl,3,d,0,0' drel='k1:ho' posn='150' name='pulisakarmI' chunkId='NP5' chunkType='head:NP5'>
16	GAyala	JJ	<fs af='GAyala,adj,any,any,,,,' drel='pof:ho' posn='160' name='GAyala' chunkId='JJP' chunkType='head:JJP'>
17	ho	VM	<fs af='ho,v,any,pl,any,,0_jA+yA,0' stype='declarative' posn='170' voicetype='active' vpos='tam_2' name='ho' chunkId='VGF' chunkType='head:VGF'>
18	gae	VAUX	<fs af='jA,v,m,pl,any,,yA,yA' posn='180' drel='lwg__vaux:ho' chunkType='child:VGF' name='gae'>
19	.	SYM	<fs af='.,punc,,,,,,' drel='rsym:ho' posn='190' name='.' chunkId='BLK' chunkType='head:BLK'>
</Sentence>


<Sentence id="14">
1	jile	NN	<fs af='jilA,n,m,sg,3,o,0_kA,0' drel='r6:ilAke' posn='10' vpos='vib_2' name='jile' chunkId='NP' chunkType='head:NP'>
2	ke	PSP	<fs af='kA,psp,m,sg,,o,,' posn='20' drel='lwg__psp:jile' chunkType='child:NP' name='ke'>
3	parasalagotA	NNP	<fs af='parasalagotA,n,m,sg,3,d,0,0' posn='30' drel='nmod__adj:ilAke' chunkType='child:NP2' name='parasalagotA'>
4	ilAke	NN	<fs af='ilAkA,n,m,sg,3,o,0_meM,0' drel='k7p:kara' posn='40' vpos='vib_vib_3' name='ilAke' chunkId='NP2' chunkType='head:NP2'>
5	meM	PSP	<fs af='meM,psp,,,,,,' posn='50' drel='lwg__psp:ilAke' chunkType='child:NP2' name='meM'>
6	bArUxI	NNC	<fs af='bArUxI,adj,any,any,,d,,' posn='60' drel='pof__cn:suraMgeM' chunkType='child:NP3' name='bArUxI'>
7	suraMgeM	NN	<fs af='suraMga,n,f,pl,3,d,0,0' drel='k2:hatA' posn='70' name='suraMgeM' chunkId='NP3' chunkType='head:NP3'>
8	hatA	VM	<fs af='hata,v,any,sg,any,,0_raha+yA,0' drel='nmod__k1inv:pArtI' posn='80' vpos='tam_2' name='hatA' chunkId='VGNF' chunkType='head:VGNF'>
9	rahI	VAUX	<fs af='raha,v,f,sg,any,,yA,yA' posn='90' drel='lwg__vaux:hatA' chunkType='child:VGNF' name='rahI'>
10	pulisa	NNC	<fs af='pulisa,n,f,sg,3,d,0,0' posn='100' drel='pof__cn:pArtI' chunkType='child:NP4' name='pulisa'>
11	pArtI	NN	<fs af='pArtI,n,f,sg,3,o,0_para,0' drel='k7:kara' posn='110' vpos='vib_3' name='pArtI' chunkId='NP4' chunkType='head:NP4'>
12	para	PSP	<fs af='para,psp,,,,,,' posn='120' drel='lwg__psp:pArtI' chunkType='child:NP4' name='para'>
13	naksaliyoM	NN	<fs af='naksalI,n,m,pl,3,o,0_ne,0' drel='k1:kara' posn='130' vpos='vib_2' name='naksaliyoM' chunkId='NP5' chunkType='head:NP5'>
14	ne	PSP	<fs af='ne,psp,,,,,,' posn='140' drel='lwg__psp:naksaliyoM' chunkType='child:NP5' name='ne'>
15	acAnaka	RB	<fs af='acAnaka,adv,,,,,,' drel='adv:kara' posn='150' name='acAnaka' chunkId='RBP' chunkType='head:RBP'>
16	PAyariMga	NN	<fs af='PAyariMga,n,f,sg,3,d,0,0' drel='k2:kara' posn='160' name='PAyariMga' chunkId='NP6' chunkType='head:NP6'>
17	SurU	NN	<fs af='SurU,n,m,sg,3,d,0,0' drel='pof:kara' posn='170' name='SurU' chunkId='NP7' chunkType='head:NP7'>
18	kara	VM	<fs af='kara,v,any,sg,any,,0_xe+yA,0' stype='declarative' posn='180' voicetype='active' vpos='tam_2' name='kara' chunkId='VGF' chunkType='head:VGF'>
19	xI	VAUX	<fs af='xe,v,f,sg,any,,yA,yA' posn='190' drel='lwg__vaux:kara' chunkType='child:VGF' name='xI'>
20	.	SYM	<fs af='.,punc,,,,,,' drel='rsym:kara' posn='200' name='.' chunkId='BLK' chunkType='head:BLK'>
</Sentence>


<Sentence id="15">
1	isameM	PRP	<fs af='yaha,pn,any,sg,3,o,meM,meM' drel='k7:huA' posn='10' name='isameM' chunkId='NP' chunkType='head:NP'>
2	koI	PRP	<fs af='koI,pn,any,sg,3,d,0,0' drel='k1:huA' posn='20' name='koI' chunkId='NP2' chunkType='head:NP2'>
3	GAyala	JJ	<fs af='GAyala,adj,any,any,,,,' drel='pof:huA' posn='30' name='GAyala' chunkId='JJP' chunkType='head:JJP'>
4	nahIM	NEG	<fs af='nahIM,avy,,,,,,' posn='40' drel='lwg__neg:huA' chunkType='child:VGF' name='nahIM'>
5	huA	VM	<fs af='ho,v,m,sg,any,,yA,yA' stype='declarative' posn='50' voicetype='active' name='huA' chunkId='VGF' chunkType='head:VGF'>
6	.	SYM	<fs af='.,punc,,,,,,' drel='rsym:huA' posn='60' name='.' chunkId='BLK' chunkType='head:BLK'>
</Sentence>


<Sentence id="16">
1	javAbI	JJ	<fs af='javAbI,adj,any,any,,o,,' posn='10' drel='nmod__adj:golIbArI' chunkType='child:NP' name='javAbI'>
2	golIbArI	NN	<fs af='golIbArI,n,f,sg,3,o,0_ke_bAxa,0' drel='k7t:BAga' posn='20' vpos='vib_3_4' name='golIbArI' chunkId='NP' chunkType='head:NP'>
3	ke	PSP	<fs af='ke,psp,,,,,,' posn='30' drel='lwg__psp:golIbArI' chunkType='child:NP' name='ke'>
4	bAxa	NST	<fs af='bAxa,nst,m,sg,3,d,,' posn='40' drel='lwg__psp:golIbArI' chunkType='child:NP' name='bAxa'>
5	naksalI	NN	<fs af='naksalI,n,m,pl,3,d,0,0' drel='k1:BAga' posn='50' name='naksalI' chunkId='NP2' chunkType='head:NP2'>
6	BAga	VM	<fs af='BAga,v,any,pl,any,,0_jA+yA,0' stype='declarative' posn='60' voicetype='active' vpos='tam_2' name='BAga' chunkId='VGF' chunkType='head:VGF'>
7	gae	VAUX	<fs af='jA,v,m,pl,any,,yA,yA' posn='70' drel='lwg__vaux:BAga' chunkType='child:VGF' name='gae'>
8	.	SYM	<fs af='.,punc,,,,,,' drel='rsym:BAga' posn='80' name='.' chunkId='BLK' chunkType='head:BLK'>
</Sentence>


<Sentence id="17">
1	xo	QC	<fs af='xo,num,any,any,,any,,' posn='10' drel='nmod__adj:GatanAoM' chunkType='child:NP' name='xo'>
2	anya	JJ	<fs af='anya,adj,any,any,,o,,' posn='20' drel='nmod__adj:GatanAoM' chunkType='child:NP' name='anya'>
3	GatanAoM	NN	<fs af='GatanA,n,f,pl,3,o,0_meM,0' drel='k7:kara' posn='30' vpos='vib_4' name='GatanAoM' chunkId='NP' chunkType='head:NP'>
4	meM	PSP	<fs af='meM,psp,,,,,,' posn='40' drel='lwg__psp:GatanAoM' chunkType='child:NP' name='meM'>
5	bInAgudZI	NNP	<fs af='bInAgudZI,n,m,sg,3,o,0_kA,0' drel='r6:jaMgaloM' posn='50' vpos='vib_2' name='bInAgudZI' chunkId='NP2' chunkType='head:NP2'>
6	ke	PSP	<fs af='kA,psp,m,pl,,o,,' posn='60' drel='lwg__psp:bInAgudZI' chunkType='child:NP2' name='ke'>
7	jaMgaloM	NN	<fs af='jaMgala,n,m,pl,3,o,0_meM,0' drel='ccof:Ora' posn='70' vpos='vib_2' name='jaMgaloM' chunkId='NP3' chunkType='head:NP3'>
8	meM	PSP	<fs af='meM,psp,,,,,,' posn='80' drel='lwg__psp:jaMgaloM' chunkType='child:NP3' name='meM2'>
9	Ora	CC	<fs af='Ora,avy,,,,,,' drel='k7p:kara' posn='90' name='Ora' chunkId='CCP' chunkType='head:CCP'>
10	kAsaMsura	NNP	<fs af='kAsaMsura,n,m,sg,3,o,0_meM,0' drel='ccof:Ora' posn='100' vpos='vib_2' name='kAsaMsura' chunkId='NP4' chunkType='head:NP4'>
11	meM	PSP	<fs af='meM,psp,,,,,,' posn='110' drel='lwg__psp:kAsaMsura' chunkType='child:NP4' name='meM3'>
12	naksaliyoM	NN	<fs af='naksalI,n,m,pl,3,o,0_ne,0' drel='k1:kara' posn='120' vpos='vib_2' name='naksaliyoM' chunkId='NP5' chunkType='head:NP5'>
13	ne	PSP	<fs af='ne,psp,,,,,,' posn='130' drel='lwg__psp:naksaliyoM' chunkType='child:NP5' name='ne'>
14	pulisa	NN	<fs af='pulisa,n,f,sg,3,o,0_kA,0' drel='r6:xala' posn='140' vpos='vib_2' name='pulisa' chunkId='NP6' chunkType='head:NP6'>
15	ke	PSP	<fs af='kA,psp,m,sg,,o,,' posn='150' drel='lwg__psp:pulisa' chunkType='child:NP6' name='ke2'>
16	gaSwI	JJ	<fs af='gaSwI,adj,any,any,,o,,' posn='160' drel='nmod__adj:xala' chunkType='child:NP7' name='gaSwI'>
17	xala	NN	<fs af='xala,n,m,sg,3,o,0,0' drel='ccof:va' posn='170' name='xala' chunkId='NP7' chunkType='head:NP7'>
18	va	CC	<fs af='va,avy,,,,,,' drel='k7:kara' posn='180' name='va' chunkId='CCP2' chunkType='head:CCP2'>
19	poliMga	NNC	<fs af='poliMga,n,f,sg,3,d,0,0' posn='190' drel='pof__cn:pArtI' chunkType='child:NP8' name='poliMga'>
20	pArtI	NN	<fs af='pArtI,n,f,sg,3,o,0_para,0' drel='ccof:va' posn='200' vpos='vib_3' name='pArtI' chunkId='NP8' chunkType='head:NP8'>
21	para	PSP	<fs af='para,psp,,,,,,' posn='210' drel='lwg__psp:pArtI' chunkType='child:NP8' name='para'>
22	hamalA	NN	<fs af='hamalA,n,m,sg,3,d,0,0' drel='pof:kara' posn='220' name='hamalA' chunkId='NP9' chunkType='head:NP9'>
23	kara	VM	<fs af='kara,v,any,sg,any,,0_xe+yA,0' stype='declarative' posn='230' voicetype='active' vpos='tam_2' name='kara' chunkId='VGF' chunkType='head:VGF'>
24	xiyA	VAUX	<fs af='xe,v,m,sg,any,,yA,yA' posn='240' drel='lwg__vaux:kara' chunkType='child:VGF' name='xiyA'>
25	.	SYM	<fs af='.,punc,,,,,,' drel='rsym:kara' posn='250' name='.' chunkId='BLK' chunkType='head:BLK'>
</Sentence>


<Sentence id="18">
1	inameM	PRP	<fs af='yaha,pn,any,pl,3,o,meM,meM' drel='k7:ho' posn='10' name='inameM' chunkId='NP' chunkType='head:NP'>
2	esaArapIePa	NNP	<fs af='esaArapIePa,n,f,sg,3,o,0_kA,0' drel='r6:wivArI' posn='20' vpos='vib_2' name='esaArapIePa' chunkId='NP2' chunkType='head:NP2'>
3	ke	PSP	<fs af='kA,psp,m,sg,3h,d,,' posn='30' drel='lwg__psp:esaArapIePa' chunkType='child:NP2' name='ke'>
4	vIreMxra	NNPC	<fs af='vIreMxra,n,m,sg,3,d,0,0' posn='40' drel='pof__cn:wivArI' chunkType='child:NP3' name='vIreMxra'>
5	kumAra	NNPC	<fs af='kumAra,n,m,sg,3,d,0,0' posn='50' drel='pof__cn:wivArI' chunkType='child:NP3' name='kumAra'>
6	wivArI	NNP	<fs af='wivArI,n,any,sg,3,d,0,0' drel='ccof:Ora' posn='60' name='wivArI' chunkId='NP3' chunkType='head:NP3'>
7	Ora	CC	<fs af='Ora,avy,,,,,,' drel='k1:ho' posn='70' name='Ora' chunkId='CCP' chunkType='head:CCP'>
8	sIArapIePa	NNP	<fs af='sIArapIePa,n,f,sg,3,o,0_kA,0' drel='r6:jAyasavAla' posn='80' vpos='vib_2' name='sIArapIePa' chunkId='NP4' chunkType='head:NP4'>
9	ke	PSP	<fs af='kA,psp,m,sg,3h,d,,' posn='90' drel='lwg__psp:sIArapIePa' chunkType='child:NP4' name='ke2'>
10	saMwoRa	NNPC	<fs af='saMwoRa,n,any,sg,3,d,0,0' posn='100' drel='pof__cn:jAyasavAla' chunkType='child:NP5' name='saMwoRa'>
11	jAyasavAla	NNP	<fs af='jAyasavAla,n,any,sg,3,d,0,0' drel='ccof:Ora' posn='110' name='jAyasavAla' chunkId='NP5' chunkType='head:NP5'>
12	jaKmI	JJ	<fs af='jaKmI,adj,any,any,,,,' drel='pof:ho' posn='120' name='jaKmI' chunkId='JJP' chunkType='head:JJP'>
13	ho	VM	<fs af='ho,v,any,pl,any,,0_jA+yA,0' drel='ccof:,' stype='declarative' posn='130' voicetype='active' vpos='tam_2' name='ho' chunkId='VGF' chunkType='head:VGF'>
14	gae	VAUX	<fs af='jA,v,m,pl,any,,yA,yA' posn='140' drel='lwg__vaux:ho' chunkType='child:VGF' name='gae'>
15	,	SYM	<fs af='COMMA,punc,,,,,,' posn='150' name=',' chunkId='CCP2' chunkType='head:CCP2'>
16	jinheM	PRP	<fs af='jo,pn,any,pl,3,o,ko,ko' drel='k2:karAyA' posn='160' name='jinheM' chunkId='NP6' chunkType='head:NP6'>
17	gaDZacirOlI	NNP	<fs af='gaDZacirOlI,n,m,sg,3,o,0_kA,0' drel='r6:aspawAla' posn='170' vpos='vib_2' name='gaDZacirOlI' chunkId='NP7' chunkType='head:NP7'>
18	ke	PSP	<fs af='kA,psp,m,sg,,o,,' posn='180' drel='lwg__psp:gaDZacirOlI' chunkType='child:NP7' name='ke3'>
19	aspawAla	NN	<fs af='aspawAla,n,m,sg,3,o,0_meM,0' drel='k7p:karAyA' posn='190' vpos='vib_2' name='aspawAla' chunkId='NP8' chunkType='head:NP8'>
20	meM	PSP	<fs af='meM,psp,,,,,,' posn='200' drel='lwg__psp:aspawAla' chunkType='child:NP8' name='meM'>
21	xAKila	JJ	<fs af='xAKila,adj,any,any,,,,' drel='pof:karAyA' posn='210' name='xAKila' chunkId='JJP2' chunkType='head:JJP2'>
22	karAyA	VM	<fs af='karA,v,m,sg,3,,yA_jA+yA1_hE,yA' drel='ccof:,' stype='declarative' posn='220' voicetype='passive' vpos='tam_2_3' name='karAyA' chunkId='VGF2' chunkType='head:VGF2'>
23	gayA	VAUX	<fs af='jA,v,m,sg,any,,yA1,yA1' posn='230' drel='lwg__vaux:karAyA' chunkType='child:VGF2' name='gayA'>
24	hE	VAUX	<fs af='hE,v,any,sg,3,,hE,hE' posn='240' drel='lwg__vaux:karAyA' chunkType='child:VGF2' name='hE'>
25	.	SYM	<fs af='.,punc,,,,,,' drel='rsym:,' posn='250' name='.' chunkId='BLK' chunkType='head:BLK'>
</Sentence>


<Sentence id="19">
1	baharahAla	CC	<fs af='baharahAla,avy,,,,,,' posn='10' name='baharahAla' chunkId='CCP' chunkType='head:CCP'>
2	,	SYM	<fs af='COMMA,punc,,,,,,' posn='20' drel='rsym:baharahAla' chunkType='child:CCP' name=','>
3	uwwara	NNPC	<fs af='uwwara,n,m,sg,3,d,0,0' posn='30' drel='pof__cn:praxeSa' chunkType='child:NP' name='uwwara'>
4	praxeSa	NNP	<fs af='praxeSa,n,m,sg,3,o,0_meM,0' drel='k7p:mAre' posn='40' vpos='vib_3' name='praxeSa' chunkId='NP' chunkType='head:NP'>
5	meM	PSP	<fs af='meM,psp,,,,,,' posn='50' drel='lwg__psp:praxeSa' chunkType='child:NP' name='meM'>
6	cunAva	NN	<fs af='cunAva,n,m,sg,3,o,0_se,0' drel='k7:judZI' posn='60' vpos='vib_2' name='cunAva' chunkId='NP2' chunkType='head:NP2'>
7	se	PSP	<fs af='se,psp,,,,,,' posn='70' drel='lwg__psp:cunAva' chunkType='child:NP2' name='se'>
8	judZI	VM	<fs af='judZa,v,f,sg,any,,yA,yA' drel='nmod__k1inv:hiMsA' posn='80' name='judZI' chunkId='VGNF' chunkType='head:VGNF'>
9	hiMsA	NN	<fs af='hiMsA,n,f,sg,3,o,0_meM,0' drel='k7:mAre' posn='90' vpos='vib_2' name='hiMsA' chunkId='NP3' chunkType='head:NP3'>
10	meM	PSP	<fs af='meM,psp,,,,,,' posn='100' drel='lwg__psp:hiMsA' chunkType='child:NP3' name='meM2'>
11	wIna	QC	<fs af='wIna,num,any,any,,any,,' posn='110' drel='nmod__adj:loga' chunkType='child:NP4' name='wIna'>
12	loga	NN	<fs af='loga,n,m,pl,3,d,0,0' drel='k2:mAre' posn='120' name='loga' chunkId='NP4' chunkType='head:NP4'>
13	mAre	VM	<fs af='mAra,v,m,pl,any,,yA_jA+yA1,yA' drel='ccof:baharahAla' stype='declarative' posn='130' voicetype='passive' vpos='tam_2' name='mAre' chunkId='VGF' chunkType='head:VGF'>
14	gae	VAUX	<fs af='jA,v,m,pl,any,,yA1,yA1' posn='140' drel='lwg__vaux:mAre' chunkType='child:VGF' name='gae'>
15	.	SYM	<fs af='.,punc,,,,,,' drel='rsym:baharahAla' posn='150' name='.' chunkId='BLK' chunkType='head:BLK'>
</Sentence>


<Sentence id="20">
1	muKyamaMwrI	NNP	<fs af='muKyamaMwrI,n,m,sg,3,d,0,0' posn='10' drel='nmod__adj:yAxava' chunkType='child:NP' name='muKyamaMwrI'>
2	mulAyama	NNPC	<fs af='mulAyama,n,m,sg,3,d,0,0' posn='20' drel='pof__cn:yAxava' chunkType='child:NP' name='mulAyama'>
3	siMha	NNPC	<fs af='siMha,n,m,sg,3,d,0,0' posn='30' drel='pof__cn:yAxava' chunkType='child:NP' name='siMha'>
4	yAxava	NNP	<fs af='yAxava,n,any,sg,3,o,0_kA,0' drel='k1:xene' posn='40' vpos='vib_vib_5' name='yAxava' chunkId='NP' chunkType='head:NP'>
5	ke	PSP	<fs af='kA,psp,,,,o,,' posn='50' drel='lwg__psp:yAxava' chunkType='child:NP' name='ke'>
6	iswIPA	NN	<fs af='iswIPA,n,m,sg,3,d,0,0' drel='pof:xene' posn='60' name='iswIPA' chunkId='NP2' chunkType='head:NP2'>
7	xene	VM	<fs af='xe,v,any,any,any,o,nA_se,nA' drel='rh:hue' posn='70' vpos='tam_2' name='xene' chunkId='VGNN' chunkType='head:VGNN'>
8	se	PSP	<fs af='se,psp,,,,,,' posn='80' drel='lwg__psp:xene' chunkType='child:VGNN' name='se'>
9	KAlI	JJ	<fs af='KAlI,adj,any,any,,,,' drel='pof:hue' posn='90' name='KAlI' chunkId='JJP' chunkType='head:JJP'>
10	hue	VM	<fs af='ho,v,m,sg,any,,yA,yA' drel='nmod__k1inv:kRewra' posn='100' name='hue' chunkId='VGNF' chunkType='head:VGNF'>
11	mEnapurI	NNP	<fs af='mEnapurI,n,f,sg,3,d,0,0' posn='110' drel='nmod__adj:kRewra' chunkType='child:NP3' name='mEnapurI'>
12	lokasaBA	NNC	<fs af='lokasaBA,n,f,sg,3,d,0,0' posn='120' drel='pof__cn:kRewra' chunkType='child:NP3' name='lokasaBA'>
13	kRewra	NN	<fs af='kRewra,n,m,sg,3,o,0_meM,0' drel='k7p:mAre' posn='130' vpos='vib_vib_4' name='kRewra' chunkId='NP3' chunkType='head:NP3'>
14	meM	PSP	<fs af='meM,psp,,,,,,' posn='140' drel='lwg__psp:kRewra' chunkType='child:NP3' name='meM'>
15	subaha	NN	<fs af='subaha,n,f,sg,3,d,0,0' drel='nmod:baje' posn='150' name='subaha' chunkId='NP4' chunkType='head:NP4'>
16	lagaBaga	RP	<fs af='lagaBaga,avy,,,,,,' posn='160' drel='lwg__rp:baje' chunkType='child:NP5' name='lagaBaga'>
17	pOne	QCC	<fs af='pOnA,num,m,sg,,d,,' posn='170' drel='mod:baje' chunkType='child:NP5' name='pOne'>
18	nO	QC	<fs af='nO,num,any,any,,any,,' posn='180' drel='nmod__adj:baje' chunkType='child:NP5' name='nO'>
19	baje	NN	<fs af='baja,n,any,sg,3,d,0,0' drel='k7t:mAre' posn='190' name='baje' chunkId='NP5' chunkType='head:NP5'>
20	gutIya	JJ	<fs af='gutIya,adj,any,any,,o,,' posn='200' drel='nmod__adj:saMGarRa' chunkType='child:NP6' name='gutIya'>
21	saMGarRa	NN	<fs af='saMGarRa,n,m,sg,3,o,0_meM,0' drel='k7:mAre' posn='210' vpos='vib_3' name='saMGarRa' chunkId='NP6' chunkType='head:NP6'>
22	meM	PSP	<fs af='meM,psp,,,,,,' posn='220' drel='lwg__psp:saMGarRa' chunkType='child:NP6' name='meM2'>
23	xo	QC	<fs af='xo,num,any,any,,any,,' posn='230' drel='nmod__adj:loga' chunkType='child:NP7' name='xo'>
24	loga	NN	<fs af='loga,n,m,pl,3,d,0,0' drel='k2:mAre' posn='240' name='loga' chunkId='NP7' chunkType='head:NP7'>
25	mAre	VM	<fs af='mAra,v,m,pl,any,,yA_jA+yA1,yA' stype='declarative' posn='250' voicetype='passive' vpos='tam_2' name='mAre' chunkId='VGF' chunkType='head:VGF'>
26	gae	VAUX	<fs af='jA,v,m,pl,any,,yA1,yA1' posn='260' drel='lwg__vaux:mAre' chunkType='child:VGF' name='gae'>
27	.	SYM	<fs af='.,punc,,,,,,' drel='rsym:mAre' posn='270' name='.' chunkId='BLK' chunkType='head:BLK'>
</Sentence>


<Sentence id="21">
1	eka	QC	<fs af='eka,num,any,any,,any,,' posn='10' drel='nmod__adj:hamalAvara' chunkType='child:NP' name='eka'>
2	hamalAvara	NN	<fs af='hamalAvara,n,m,sg,3,o,0_ko,0' drel='k2:kara' posn='20' vpos='vib_3' name='hamalAvara' chunkId='NP' chunkType='head:NP'>
3	ko	PSP	<fs af='ko,psp,,,,,,' posn='30' drel='lwg__psp:hamalAvara' chunkType='child:NP' name='ko'>
4	giraPwAra	JJ	<fs af='giraPwAra,adj,any,any,,,,' drel='pof:kara' posn='40' name='giraPwAra' chunkId='JJP' chunkType='head:JJP'>
5	kara	VM	<fs af='kara,v,m,sg,any,,0_le+yA_jA+yA1,0' stype='declarative' posn='50' voicetype='passive' vpos='tam_2_3' name='kara' chunkId='VGF' chunkType='head:VGF'>
6	liyA	VAUX	<fs af='le,v,m,sg,any,,yA,yA' posn='60' drel='lwg__vaux:kara' chunkType='child:VGF' name='liyA'>
7	gayA	VAUX	<fs af='jA,v,m,sg,any,,yA1,yA1' posn='70' drel='lwg__vaux:kara' chunkType='child:VGF' name='gayA'>
8	.	SYM	<fs af='.,punc,,,,,,' drel='rsym:kara' posn='80' name='.' chunkId='BLK' chunkType='head:BLK'>
</Sentence>


<Sentence id="22">
1	eka	QC	<fs af='eka,num,any,any,,any,,' posn='10' drel='nmod__adj:jagaha' chunkType='child:NP' name='eka'>
2	jagaha	NN	<fs af='jagaha,n,f,sg,3,o,0_para,0' drel='k7p:milI' posn='20' vpos='vib_3' name='jagaha' chunkId='NP' chunkType='head:NP'>
3	para	PSP	<fs af='para,psp,,,,,,' posn='30' drel='lwg__psp:jagaha' chunkType='child:NP' name='para'>
4	poliMga	NNC	<fs af='poliMga,n,f,sg,3,d,0,0' posn='40' drel='pof__cn:pArtI' chunkType='child:NP2' name='poliMga'>
5	pArtI	NN	<fs af='pArtI,n,f,sg,3,o,0_kA,0' drel='r6:prawyASI' posn='50' vpos='vib_3' name='pArtI' chunkId='NP2' chunkType='head:NP2'>
6	ke	PSP	<fs af='kA,psp,m,sg,,o,,' posn='60' drel='lwg__psp:pArtI' chunkType='child:NP2' name='ke'>
7	eka	QC	<fs af='eka,num,any,any,,any,,' posn='70' drel='nmod__adj:prawyASI' chunkType='child:NP3' name='eka2'>
8	prawyASI	NN	<fs af='prawyASI,n,m,sg,3,o,0_kA,0' drel='r6:pakRa' posn='80' vpos='vib_3' name='prawyASI' chunkId='NP3' chunkType='head:NP3'>
9	ke	PSP	<fs af='kA,psp,m,sg,,o,,' posn='90' drel='lwg__psp:prawyASI' chunkType='child:NP3' name='ke2'>
10	pakRa	NN	<fs af='pakRa,n,m,sg,3,o,0_meM,0' drel='k7:karane' posn='100' vpos='vib_2' name='pakRa' chunkId='NP4' chunkType='head:NP4'>
11	meM	PSP	<fs af='meM,psp,,,,,,' posn='110' drel='lwg__psp:pakRa' chunkType='child:NP4' name='meM'>
12	kAma	NN	<fs af='kAma,n,m,sg,3,d,0,0' drel='k2:karane' posn='120' name='kAma' chunkId='NP5' chunkType='head:NP5'>
13	karane	VM	<fs af='kara,v,any,sg,any,o,nA_kA,nA' drel='r6:SikAyawa' posn='130' vpos='tam_2' name='karane' chunkId='VGNN' chunkType='head:VGNN'>
14	kI	PSP	<fs af='kA,psp,f,sg,,d,,' posn='140' drel='lwg__psp:karane' chunkType='child:VGNN' name='kI'>
15	SikAyawa	NN	<fs af='SikAyawa,n,f,sg,3,d,0,0' drel='k1:milI' posn='150' name='SikAyawa' chunkId='NP6' chunkType='head:NP6'>
16	BI	RP	<fs af='BI,avy,,,,,,' posn='160' drel='lwg__rp:SikAyawa' chunkType='child:NP6' name='BI'>
17	cunAva	NNPC	<fs af='cunAva,n,m,sg,3,d,0,0' posn='170' drel='pof__cn:Ayoga' chunkType='child:NP7' name='cunAva'>
18	Ayoga	NNP	<fs af='Ayoga,n,m,sg,3,o,0_ko,0' drel='k4:milI' posn='180' vpos='vib_3' name='Ayoga' chunkId='NP7' chunkType='head:NP7'>
19	ko	PSP	<fs af='ko,psp,,,,,,' posn='190' drel='lwg__psp:Ayoga' chunkType='child:NP7' name='ko'>
20	milI	VM	<fs af='mila,v,f,sg,3,,yA_hE,yA' stype='declarative' posn='200' voicetype='active' vpos='tam_2' name='milI' chunkId='VGF' chunkType='head:VGF'>
21	hE	VAUX	<fs af='hE,v,any,sg,3,,hE,hE' posn='210' drel='lwg__vaux:milI' chunkType='child:VGF' name='hE'>
22	.	SYM	<fs af='.,punc,,,,,,' drel='rsym:milI' posn='220' name='.' chunkId='BLK' chunkType='head:BLK'>
</Sentence>


<Sentence id="23">
1	isa	DEM	<fs af='yaha,pn,any,sg,3,o,,' posn='10' drel='nmod__adj:pArtI' chunkType='child:NP' name='isa'>
2	poliMga	NNC	<fs af='poliMga,n,f,sg,3,d,0,0' posn='20' drel='pof__cn:pArtI' chunkType='child:NP' name='poliMga'>
3	pArtI	NN	<fs af='pArtI,n,f,sg,3,o,0_ko,0' drel='k2:kara' posn='30' vpos='vib_4' name='pArtI' chunkId='NP' chunkType='head:NP'>
4	ko	PSP	<fs af='ko,psp,,,,,,' posn='40' drel='lwg__psp:pArtI' chunkType='child:NP' name='ko'>
5	nilaMbiwa	JJ	<fs af='nilaMbiwa,adj,any,any,,,,' drel='pof:kara' posn='50' name='nilaMbiwa' chunkId='JJP' chunkType='head:JJP'>
6	kara	VM	<fs af='kara,v,m,sg,3,,0_xe+yA_jA+yA1_hE,0' stype='declarative' posn='60' voicetype='passive' vpos='tam_2_3_4' name='kara' chunkId='VGF' chunkType='head:VGF'>
7	xiyA	VAUX	<fs af='xe,v,m,sg,any,,yA,yA' posn='70' drel='lwg__vaux:kara' chunkType='child:VGF' name='xiyA'>
8	gayA	VAUX	<fs af='jA,v,m,sg,any,,yA1,yA1' posn='80' drel='lwg__vaux:kara' chunkType='child:VGF' name='gayA'>
9	hE	VAUX	<fs af='hE,v,any,sg,3,,hE,hE' posn='90' drel='lwg__vaux:kara' chunkType='child:VGF' name='hE'>
10	.	SYM	<fs af='.,punc,,,,,,' drel='rsym:kara' posn='100' name='.' chunkId='BLK' chunkType='head:BLK'>
</Sentence>


<Sentence id="24">
1	vahAM	PRP	<fs af='vahAz,pn,,,,d,,' drel='k7p:hogA' posn='10' name='vahAM' chunkId='NP' chunkType='head:NP'>
2	punarmawaxAna	NN	<fs af='punarmawaxAna,n,m,sg,3,o,0_kA,0' drel='r6:PEsalA' posn='20' vpos='vib_2' name='punarmawaxAna' chunkId='NP2' chunkType='head:NP2'>
3	kA	PSP	<fs af='kA,psp,m,sg,,d,,' posn='30' drel='lwg__psp:punarmawaxAna' chunkType='child:NP2' name='kA'>
4	PEsalA	NN	<fs af='PEsalA,n,m,sg,3,d,0,0' drel='k1:hogA' posn='40' name='PEsalA' chunkId='NP3' chunkType='head:NP3'>
5	cunAva	NNC	<fs af='cunAva,n,m,sg,3,d,0,0' posn='50' drel='pof__cn:aXikArI' chunkType='child:NP4' name='cunAva'>
6	aXikArI	NN	<fs af='aXikArI,n,m,sg,3,o,0_kA,0' drel='r6:riporta' posn='60' vpos='vib_3' name='aXikArI' chunkId='NP4' chunkType='head:NP4'>
7	kI	PSP	<fs af='kA,psp,f,sg,,d,,' posn='70' drel='lwg__psp:aXikArI' chunkType='child:NP4' name='kI'>
8	aMwima	JJ	<fs af='aMwima,adj,any,any,,d,,' posn='80' drel='nmod__adj:riporta' chunkType='child:NP5' name='aMwima'>
9	riporta	NN	<fs af='riporta,n,f,sg,3,d,0,0' drel='k1:Ane' posn='90' name='riporta' chunkId='NP5' chunkType='head:NP5'>
10	Ane	VM	<fs af='A,v,any,sg,3,o,nA_ke_bAxa,nA' drel='k7t:hogA' posn='100' vpos='tam_2_3' name='Ane' chunkId='VGNN' chunkType='head:VGNN'>
11	ke	PSP	<fs af='ke,psp,,,,,,' posn='110' drel='lwg__psp:Ane' chunkType='child:VGNN' name='ke'>
12	bAxa	NST	<fs af='bAxa,nst,m,sg,3,d,,' posn='120' drel='lwg__nst:Ane' chunkType='child:VGNN' name='bAxa'>
13	hogA	VM	<fs af='ho,v,m,sg,3,,gA,gA' stype='declarative' posn='130' voicetype='active' name='hogA' chunkId='VGF' chunkType='head:VGF'>
14	.	SYM	<fs af='.,punc,,,,,,' drel='rsym:hogA' posn='140' name='.' chunkId='BLK' chunkType='head:BLK'>
</Sentence>


<Sentence id="25">
1	uXara	NST	<fs af='uXara,nst,m,sg,3,d,,' drel='sent-adv:ho' posn='10' name='uXara' chunkId='NP' chunkType='head:NP'>
2	,	SYM	<fs af='COMMA,punc,,,,,,' posn='20' drel='rsym:uXara' chunkType='child:NP' name=','>
3	alIgaDZa	NNP	<fs af='alIgaDZa,n,m,sg,3,d,0,0' posn='30' drel='nmod__adj:jile' chunkType='child:NP2' name='alIgaDZa'>
4	jile	NN	<fs af='jilA,n,m,sg,3,o,0_kA,0' drel='r6:kRewra' posn='40' vpos='vib_vib_3' name='jile' chunkId='NP2' chunkType='head:NP2'>
5	ke	PSP	<fs af='kA,psp,m,sg,,o,,' posn='50' drel='lwg__psp:jile' chunkType='child:NP2' name='ke'>
6	awarOlI	NNP	<fs af='awarOlI,n,m,sg,3,d,0,0' posn='60' drel='nmod__adj:kRewra' chunkType='child:NP3' name='awarOlI'>
7	viXAnasaBA	NNC	<fs af='viXAnasaBA,n,f,sg,3,d,0,0' posn='70' drel='pof__cn:kRewra' chunkType='child:NP3' name='viXAnasaBA'>
8	kRewra	NN	<fs af='kRewra,n,m,sg,3,o,0_meM,0' drel='k7p:ho' posn='80' vpos='vib_vib_4' name='kRewra' chunkId='NP3' chunkType='head:NP3'>
9	meM	PSP	<fs af='meM,psp,,,,,,' posn='90' drel='lwg__psp:kRewra' chunkType='child:NP3' name='meM'>
10	viroXI	JJ	<fs af='viroXI,adj,any,any,,o,,' posn='100' drel='nmod__adj:gutoM' chunkType='child:NP4' name='viroXI'>
11	gutoM	NN	<fs af='guta,n,m,pl,3,o,0_meM,0' drel='nmod:saMGarRa' posn='110' vpos='vib_3' name='gutoM' chunkId='NP4' chunkType='head:NP4'>
12	meM	PSP	<fs af='meM,psp,,,,,,' posn='120' drel='lwg__psp:gutoM' chunkType='child:NP4' name='meM2'>
13	saMGarRa	NN	<fs af='saMGarRa,n,m,sg,3,o,0_meM,0' drel='k7:ho' posn='130' vpos='vib_2' name='saMGarRa' chunkId='NP5' chunkType='head:NP5'>
14	meM	PSP	<fs af='meM,psp,,,,,,' posn='140' drel='lwg__psp:saMGarRa' chunkType='child:NP5' name='meM3'>
15	eka	QC	<fs af='eka,num,any,any,,any,,' posn='150' drel='nmod__adj:vyakwi' chunkType='child:NP6' name='eka'>
16	vyakwi	NN	<fs af='vyakwi,n,m,sg,3,o,0_kA,0' drel='r6:mOwa' posn='160' vpos='vib_3' name='vyakwi' chunkId='NP6' chunkType='head:NP6'>
17	kI	PSP	<fs af='kA,psp,f,sg,,d,,' posn='170' drel='lwg__psp:vyakwi' chunkType='child:NP6' name='kI'>
18	mOwa	NN	<fs af='mOwa,n,f,sg,3,d,0,0' drel='k1:ho' posn='180' name='mOwa' chunkId='NP7' chunkType='head:NP7'>
19	ho	VM	<fs af='ho,v,any,sg,any,,0_jA+yA,0' stype='declarative' posn='190' voicetype='active' vpos='tam_2' name='ho' chunkId='VGF' chunkType='head:VGF'>
20	gaI	VAUX	<fs af='jA,v,f,sg,any,,yA,yA' posn='200' drel='lwg__vaux:ho' chunkType='child:VGF' name='gaI'>
21	.	SYM	<fs af='.,punc,,,,,,' drel='rsym:ho' posn='210' name='.' chunkId='BLK' chunkType='head:BLK'>
</Sentence>


<Sentence id="26">
1	rAjya	NN	<fs af='rAjya,n,m,sg,3,o,0_meM,0' drel='k7p:hue' posn='10' vpos='vib_2' name='rAjya' chunkId='NP' chunkType='head:NP'>
2	meM	PSP	<fs af='meM,psp,,,,,,' posn='20' drel='lwg__psp:rAjya' chunkType='child:NP' name='meM'>
3	lokasaBA	NN	<fs af='lokasaBA,n,f,sg,3,o,0_kA,0' drel='r6:sIta' posn='30' vpos='vib_2' name='lokasaBA' chunkId='NP2' chunkType='head:NP2'>
4	kI	PSP	<fs af='kA,psp,f,sg,,o,,' posn='40' drel='lwg__psp:lokasaBA' chunkType='child:NP2' name='kI'>
5	eka	QC	<fs af='eka,num,any,any,,any,,' posn='50' drel='nmod__adj:sIta' chunkType='child:NP3' name='eka'>
6	sIta	NN	<fs af='sIta,n,f,sg,3,o,0,0' drel='ccof:Ora' posn='60' name='sIta' chunkId='NP3' chunkType='head:NP3'>
7	Ora	CC	<fs af='Ora,avy,,,,,,' drel='rt:hue' posn='70' name='Ora' chunkId='CCP' chunkType='head:CCP'>
8	viXAnasaBA	NN	<fs af='viXAnasaBA,n,f,sg,3,o,0_kA,0' drel='r6:sItoM' posn='80' vpos='vib_2' name='viXAnasaBA' chunkId='NP4' chunkType='head:NP4'>
9	kI	PSP	<fs af='kA,psp,f,pl,,o,,' posn='90' drel='lwg__psp:viXAnasaBA' chunkType='child:NP4' name='kI2'>
10	kula	QF	<fs af='kula,avy,,,,,,' posn='100' drel='nmod__adj:sItoM' chunkType='child:NP5' name='kula'>
11	12	QC	<fs af='12,num,any,any,,any,,' posn='110' drel='nmod__adj:sItoM' chunkType='child:NP5' name='12'>
12	sItoM	NN	<fs af='sIta,n,f,pl,3,o,0_ke_lie,0' drel='ccof:Ora' posn='120' vpos='vib_4_5' name='sItoM' chunkId='NP5' chunkType='head:NP5'>
13	ke	PSP	<fs af='ke,psp,,,,,,' posn='130' drel='lwg__psp:sItoM' chunkType='child:NP5' name='ke'>
14	lie	PSP	<fs af='lie,psp,,,,,,' posn='140' drel='lwg__psp:sItoM' chunkType='child:NP5' name='lie'>
15	hue	VM	<fs af='ho,v,m,pl,any,,yA,yA' drel='nmod__k1inv:upacunAva' posn='150' name='hue' chunkId='VGNF' chunkType='head:VGNF'>
16	upacunAva	NN	<fs af='upacunAva,n,m,sg,3,o,0_meM,0' drel='k7:nikale' posn='160' vpos='vib_2' name='upacunAva' chunkId='NP6' chunkType='head:NP6'>
17	meM	PSP	<fs af='meM,psp,,,,,,' posn='170' drel='lwg__psp:upacunAva' chunkType='child:NP6' name='meM2'>
18	kadZI	JJ	<fs af='kadZA,adj,f,sg,,o,,' posn='180' drel='nmod__adj:surakRA' chunkType='child:NP7' name='kadZI'>
19	surakRA	NN	<fs af='surakRA,n,f,sg,3,o,0_ke_bIca,0' drel='k7:nikale' posn='190' vpos='vib_3_4' name='surakRA' chunkId='NP7' chunkType='head:NP7'>
20	ke	PSP	<fs af='ke,psp,,,,,,' posn='200' drel='lwg__psp:surakRA' chunkType='child:NP7' name='ke2'>
21	bIca	NST	<fs af='bIca,nst,m,sg,3,d,,' posn='210' drel='lwg__psp:surakRA' chunkType='child:NP7' name='bIca'>
22	lagaBaga	RP	<fs af='lagaBaga,avy,,,,,,' posn='220' drel='lwg__rp:mawaxAwA' chunkType='child:NP8' name='lagaBaga'>
23	45	QCC	<fs af='45,num,any,any,,any,,' posn='230' drel='mod:mawaxAwA' chunkType='child:NP8' name='45'>
24	-	SYM	<fs af='-,punc,,,,,,' posn='240' drel='rsym:mawaxAwA' chunkType='child:NP8' name='-'>
25	50	QC	<fs af='50,num,any,any,,any,,' posn='250' drel='nmod__adj:mawaxAwA' chunkType='child:NP8' name='50'>
26	PIsaxI	NN	<fs af='PIsaxI,n,f,sg,3,d,0,0' posn='260' drel='nmod:mawaxAwA' chunkType='child:NP8' name='PIsaxI'>
27	mawaxAwA	NN	<fs af='mawaxAwA,n,m,pl,3,d,0,0' drel='k1:nikale' posn='270' name='mawaxAwA' chunkId='NP8' chunkType='head:NP8'>
28	GaroM	NN	<fs af='Gara,n,m,pl,3,o,0_se,0' drel='k5:nikale' posn='280' vpos='vib_2' name='GaroM' chunkId='NP9' chunkType='head:NP9'>
29	se	PSP	<fs af='se,psp,,,,,,' posn='290' drel='lwg__psp:GaroM' chunkType='child:NP9' name='se'>
30	bAhara	NST	<fs af='bAhara,nst,m,sg,3,d,,' drel='rd:nikale' posn='300' name='bAhara' chunkId='NP10' chunkType='head:NP10'>
31	nikale	VM	<fs af='nikala,v,m,pl,any,,yA,yA' stype='declarative' posn='310' voicetype='active' name='nikale' chunkId='VGF' chunkType='head:VGF'>
32	.	SYM	<fs af='.,punc,,,,,,' drel='rsym:nikale' posn='320' name='.' chunkId='BLK' chunkType='head:BLK'>
</Sentence>


<Sentence id="27">
1	jammU	NNPC	<fs af='jammU,n,m,sg,3,d,0,0' posn='10' drel='pof__cn:kaSmIra' chunkType='child:NP' name='jammU'>
2	-	SYM	<fs af='-,punc,,,,,,' posn='20' drel='rsym:kaSmIra' chunkType='child:NP' name='-'>
3	kaSmIra	NNP	<fs af='kaSmIra,n,m,sg,3,o,0_meM,0' drel='k7p:hue' posn='30' vpos='vib_4' name='kaSmIra' chunkId='NP' chunkType='head:NP'>
4	meM	PSP	<fs af='meM,psp,,,,,,' posn='40' drel='lwg__psp:kaSmIra' chunkType='child:NP' name='meM'>
5	viXAnasaBA	NN	<fs af='viXAnasaBA,n,f,sg,3,o,0_kA,0' drel='r6:sItoM' posn='50' vpos='vib_2' name='viXAnasaBA' chunkId='NP2' chunkType='head:NP2'>
6	kI	PSP	<fs af='kA,psp,f,pl,,o,,' posn='60' drel='lwg__psp:viXAnasaBA' chunkType='child:NP2' name='kI'>
7	cAra	QC	<fs af='cAra,num,any,any,,any,,' posn='70' drel='nmod__adj:sItoM' chunkType='child:NP3' name='cAra'>
8	sItoM	NN	<fs af='sIta,n,f,pl,3,o,0_ke_lie,0' drel='rt:hue' posn='80' vpos='vib_3_4' name='sItoM' chunkId='NP3' chunkType='head:NP3'>
9	ke	PSP	<fs af='ke,psp,,,,,,' posn='90' drel='lwg__psp:sItoM' chunkType='child:NP3' name='ke'>
10	lie	PSP	<fs af='lie,psp,,,,,,' posn='100' drel='lwg__psp:sItoM' chunkType='child:NP3' name='lie'>
11	hue	VM	<fs af='ho,v,m,sg,any,,yA,yA' drel='nmod__k1inv:upacunAva' posn='110' name='hue' chunkId='VGNF' chunkType='head:VGNF'>
12	upacunAva	NN	<fs af='upacunAva,n,m,sg,3,o,0_meM,0' drel='k7:huI' posn='120' vpos='vib_2' name='upacunAva' chunkId='NP4' chunkType='head:NP4'>
13	meM	PSP	<fs af='meM,psp,,,,,,' posn='130' drel='lwg__psp:upacunAva' chunkType='child:NP4' name='meM2'>
14	kahIM	PRP	<fs af='kahIM,pn,,,,d,,' drel='jjmod:sAmAnya' posn='140' name='kahIM' chunkId='NP5' chunkType='head:NP5'>
15	sAmAnya	JJ	<fs af='sAmAnya,adj,any,any,,d,,' drel='ccof:wo' posn='150' name='sAmAnya' chunkId='JJP' chunkType='head:JJP'>
16	wo	CC	<fs af='wo,avy,,,,,,' drel='nmod:votiMga' posn='160' name='wo' chunkId='CCP' chunkType='head:CCP'>
17	kahIM	PRP	<fs af='kahIM,pn,,,,d,,' drel='jjmod:mAmUlI' posn='170' name='kahIM2' chunkId='NP6' chunkType='head:NP6'>
18	mAmUlI	JJ	<fs af='mAmUlI,adj,any,any,,d,,' drel='ccof:wo' posn='180' name='mAmUlI' chunkId='JJP2' chunkType='head:JJP2'>
19	votiMga	NN	<fs af='votiMga,n,f,sg,3,d,0,0' drel='k1:huI' posn='190' name='votiMga' chunkId='NP7' chunkType='head:NP7'>
20	huI	VM	<fs af='ho,v,f,sg,any,,yA,yA' stype='declarative' posn='200' voicetype='active' name='huI' chunkId='VGF' chunkType='head:VGF'>
21	.	SYM	<fs af='.,punc,,,,,,' drel='rsym:huI' posn='210' name='.' chunkId='BLK' chunkType='head:BLK'>
</Sentence>


<Sentence id="28">
1	pahalagAma	NNP	<fs af='pahalagAma,n,m,sg,3,o,0_kA,0' drel='r6:sIta' posn='10' vpos='vib_2' name='pahalagAma' chunkId='NP' chunkType='head:NP'>
2	kI	PSP	<fs af='kA,psp,f,sg,,o,,' posn='20' drel='lwg__psp:pahalagAma' chunkType='child:NP' name='kI'>
3	prawiRTiwa	JJ	<fs af='prawiRTiwa,adj,any,any,,o,,' posn='30' drel='nmod__adj:sIta' chunkType='child:NP2' name='prawiRTiwa'>
4	sIta	NN	<fs af='sIta,n,f,sg,3,o,0_ke_lie,0' drel='rt:dAlane' posn='40' vpos='vib_3_4' name='sIta' chunkId='NP2' chunkType='head:NP2'>
5	ke	PSP	<fs af='ke,psp,,,,,,' posn='50' drel='lwg__psp:sIta' chunkType='child:NP2' name='ke'>
6	lie	PSP	<fs af='lie,psp,,,,,,' posn='60' drel='lwg__psp:sIta' chunkType='child:NP2' name='lie'>
7	mAwra	RP	<fs af='mAwra,avy,,,,,,' posn='70' drel='lwg__rp:mawaxAwA' chunkType='child:NP3' name='mAwra'>
8	19	QC	<fs af='19,num,any,any,,any,,' posn='80' drel='nmod__adj:mawaxAwA' chunkType='child:NP3' name='19'>
9	PIsaxI	NN	<fs af='PIsaxI,n,f,sg,3,d,0,0' posn='90' drel='nmod:mawaxAwA' chunkType='child:NP3' name='PIsaxI'>
10	mawaxAwA	NN	<fs af='mawaxAwA,n,m,pl,3,d,0,0' drel='k1:dAlane' posn='100' name='mawaxAwA' chunkId='NP3' chunkType='head:NP3'>
11	vota	NN	<fs af='vota,n,m,pl,3,d,0,0' drel='k2:dAlane' posn='110' name='vota' chunkId='NP4' chunkType='head:NP4'>
12	dAlane	VM	<fs af='dAla,v,any,any,any,o,nA,nA' drel='rt:nikale' posn='120' name='dAlane' chunkId='VGNN' chunkType='head:VGNN'>
13	nikale	VM	<fs af='nikala,v,m,pl,any,,yA,yA' stype='declarative' posn='130' voicetype='active' name='nikale' chunkId='VGF' chunkType='head:VGF'>
14	.	SYM	<fs af='.,punc,,,,,,' drel='rsym:nikale' posn='140' name='.' chunkId='BLK' chunkType='head:BLK'>
</Sentence>


<Sentence id="29">
1	yahAM	PRP	<fs af='yahAz,pn,,,,o,0_se,' drel='k5:kara' posn='10' vpos='vib_2' name='yahAM' chunkId='NP' chunkType='head:NP'>
2	se	PSP	<fs af='se,psp,,,,,,' posn='20' drel='lwg__psp:yahAM' chunkType='child:NP' name='se'>
3	rAjya	NN	<fs af='rAjya,n,m,sg,3,o,0_kA,0' drel='r6:muKyamaMwrI' posn='30' vpos='vib_2' name='rAjya' chunkId='NP2' chunkType='head:NP2'>
4	ke	PSP	<fs af='kA,psp,m,sg,3h,d,,' posn='40' drel='lwg__psp:rAjya' chunkType='child:NP2' name='ke'>
5	muKyamaMwrI	NNP	<fs af='muKyamaMwrI,n,m,sg,3,d,0,0' drel='r6:saIxa' posn='50' name='muKyamaMwrI' chunkId='NP3' chunkType='head:NP3'>
6	muPwI	NNPC	<fs af='muPwI,n,m,sg,3,d,0,0' posn='60' drel='pof__cn:saIxa' chunkType='child:NP4' name='muPwI'>
7	mohammaxa	NNPC	<fs af='mohammaxa,n,m,sg,3,d,0,0' posn='70' drel='pof__cn:saIxa' chunkType='child:NP4' name='mohammaxa'>
8	saIxa	NNP	<fs af='saIxa,n,m,sg,3,d,0,0' drel='k1:kara' posn='80' name='saIxa' chunkId='NP4' chunkType='head:NP4'>
9	viXAnasaBA	NN	<fs af='viXAnasaBA,n,f,sg,3,o,0_meM,0' drel='k7p:pahuMcane' posn='90' vpos='vib_2' name='viXAnasaBA' chunkId='NP5' chunkType='head:NP5'>
10	meM	PSP	<fs af='meM,psp,,,,,,' posn='100' drel='lwg__psp:viXAnasaBA' chunkType='child:NP5' name='meM'>
11	pahuMcane	VM	<fs af='pahuMca,v,any,sg,any,o,nA_kA,nA' drel='r6-k2:koSiSa' posn='110' vpos='tam_2' name='pahuMcane' chunkId='VGNN' chunkType='head:VGNN'>
12	kI	PSP	<fs af='kA,psp,f,sg,,d,,' posn='120' drel='lwg__psp:pahuMcane' chunkType='child:VGNN' name='kI'>
13	koSiSa	NN	<fs af='koSiSa,n,f,sg,3,d,0,0' drel='pof:kara' posn='130' name='koSiSa' chunkId='NP6' chunkType='head:NP6'>
14	kara	VM	<fs af='kara,v,any,sg,3h,,0_raha+yA_hE,0' stype='declarative' posn='140' voicetype='active' vpos='tam_2_3' name='kara' chunkId='VGF' chunkType='head:VGF'>
15	rahe	VAUX	<fs af='raha,v,any,sg,3h,,yA,yA' posn='150' drel='lwg__vaux:kara' chunkType='child:VGF' name='rahe'>
16	hEM	VAUX	<fs af='hE,v,any,sg,3h,,hE,hE' posn='160' drel='lwg__vaux:kara' chunkType='child:VGF' name='hEM'>
17	.	SYM	<fs af='.,punc,,,,,,' drel='rsym:kara' posn='170' name='.' chunkId='BLK' chunkType='head:BLK'>
</Sentence>


<Sentence id="30">
1	batamAlU	NNP	<fs af='batamAlU,n,m,sg,3,d,0,0' posn='10' drel='nmod__adj:kRewra' chunkType='child:NP' name='batamAlU'>
2	viXAnasaBA	NNC	<fs af='viXAnasaBA,n,f,sg,3,d,0,0' posn='20' drel='pof__cn:kRewra' chunkType='child:NP' name='viXAnasaBA'>
3	kRewra	NN	<fs af='kRewra,n,m,sg,3,o,0_meM,0' drel='k7p:padZe' posn='30' vpos='vib_vib_4' name='kRewra' chunkId='NP' chunkType='head:NP'>
4	meM	PSP	<fs af='meM,psp,,,,,,' posn='40' drel='lwg__psp:kRewra' chunkType='child:NP' name='meM'>
5	12	QC	<fs af='12,num,any,any,,any,,' posn='50' drel='nmod__adj:vota' chunkType='child:NP2' name='12'>
6	PIsaxI	NN	<fs af='PIsaxI,n,f,sg,3,d,0,0' posn='60' drel='nmod:vota' chunkType='child:NP2' name='PIsaxI'>
7	vota	NN	<fs af='vota,n,m,pl,3,d,0,0' drel='k1:padZe' posn='70' name='vota' chunkId='NP2' chunkType='head:NP2'>
8	padZe	VM	<fs af='padZa,v,m,pl,any,,yA,yA' stype='declarative' posn='80' voicetype='active' name='padZe' chunkId='VGF' chunkType='head:VGF'>
9	.	SYM	<fs af='.,punc,,,,,,' drel='rsym:padZe' posn='90' name='.' chunkId='BLK' chunkType='head:BLK'>
</Sentence>


<Sentence id="31">
1	hAlAMki	CC	<fs af='hAlAMki,avy,,,,,,' posn='10' name='hAlAMki' chunkId='CCP' chunkType='head:CCP'>
2	basolI	NNP	<fs af='basolI,n,m,sg,3,d,0,0' drel='ccof:va' posn='20' name='basolI' chunkId='NP' chunkType='head:NP'>
3	va	CC	<fs af='va,avy,,,,,,' drel='nmod:kRewroM' posn='30' name='va' chunkId='CCP2' chunkType='head:CCP2'>
4	aKanUra	NNP	<fs af='aKanUra,n,m,sg,3,d,0,0' drel='ccof:va' posn='40' name='aKanUra' chunkId='NP2' chunkType='head:NP2'>
5	viXAnasaBA	NNC	<fs af='viXAnasaBA,n,f,sg,3,d,0,0' posn='50' drel='pof__cn:kRewroM' chunkType='child:NP3' name='viXAnasaBA'>
6	kRewroM	NN	<fs af='kRewra,n,m,pl,3,o,0_meM,0' drel='k7p:hone' posn='60' vpos='vib_3' name='kRewroM' chunkId='NP3' chunkType='head:NP3'>
7	meM	PSP	<fs af='meM,psp,,,,,,' posn='70' drel='lwg__psp:kRewroM' chunkType='child:NP3' name='meM'>
8	58	QCC	<fs af='58,num,any,any,,any,,' posn='80' drel='mod:mawaxAna' chunkType='child:NP4' name='58'>
9	-	SYM	<fs af='-,punc,,,,,,' posn='90' drel='rsym:mawaxAna' chunkType='child:NP4' name='-'>
10	60	QC	<fs af='60,num,any,any,,any,,' posn='100' drel='nmod__adj:mawaxAna' chunkType='child:NP4' name='60'>
11	PIsaxI	NN	<fs af='PIsaxI,n,f,sg,3,d,0,0' posn='110' drel='nmod:mawaxAna' chunkType='child:NP4' name='PIsaxI'>
12	mawaxAna	NN	<fs af='mawaxAna,n,m,pl,3,d,0,0' drel='k1:hone' posn='120' name='mawaxAna' chunkId='NP4' chunkType='head:NP4'>
13	hone	VM	<fs af='ho,v,any,sg,any,o,nA_kA,nA' drel='r6:sUcanA' posn='130' vpos='tam_2' name='hone' chunkId='VGNN' chunkType='head:VGNN'>
14	kI	PSP	<fs af='kA,psp,f,sg,,d,,' posn='140' drel='lwg__psp:hone' chunkType='child:VGNN' name='kI'>
15	sUcanA	NN	<fs af='sUcanA,n,f,sg,3,d,0,0' drel='k1:milI' posn='150' name='sUcanA' chunkId='NP5' chunkType='head:NP5'>
16	milI	VM	<fs af='mila,v,f,sg,3,,yA_hE,yA' drel='ccof:hAlAMki' stype='declarative' posn='160' voicetype='active' vpos='tam_2' name='milI' chunkId='VGF' chunkType='head:VGF'>
17	hE	VAUX	<fs af='hE,v,any,sg,3,,hE,hE' posn='170' drel='lwg__vaux:milI' chunkType='child:VGF' name='hE'>
18	.	SYM	<fs af='.,punc,,,,,,' drel='rsym:hAlAMki' posn='180' name='.' chunkId='BLK' chunkType='head:BLK'>
</Sentence>


<Sentence id="32">
1	bihAra	NNP	<fs af='bihAra,n,m,sg,3,o,0_kA,0' drel='r6:sIta' posn='10' vpos='vib_2' name='bihAra' chunkId='NP' chunkType='head:NP'>
2	kI	PSP	<fs af='kA,psp,f,sg,,o,,' posn='20' drel='lwg__psp:bihAra' chunkType='child:NP' name='kI'>
3	maXepurA	NNP	<fs af='maXepurA,n,m,sg,3,d,0,0' posn='30' drel='nmod__adj:sIta' chunkType='child:NP2' name='maXepurA'>
4	lokasaBA	NNC	<fs af='lokasaBA,n,f,sg,3,d,0,0' posn='40' drel='pof__cn:sIta' chunkType='child:NP2' name='lokasaBA'>
5	sIta	NN	<fs af='sIta,n,f,sg,3,o,0_ke_lie,0' drel='rt:hue' posn='50' vpos='vib_vib_4_5' name='sIta' chunkId='NP2' chunkType='head:NP2'>
6	ke	PSP	<fs af='ke,psp,,,,,,' posn='60' drel='lwg__psp:sIta' chunkType='child:NP2' name='ke'>
7	lie	PSP	<fs af='lie,psp,,,,,,' posn='70' drel='lwg__psp:sIta' chunkType='child:NP2' name='lie'>
8	hue	VM	<fs af='ho,v,m,sg,any,,yA,yA' drel='nmod__k1inv:upacunAva' posn='80' name='hue' chunkId='VGNF' chunkType='head:VGNF'>
9	upacunAva	NN	<fs af='upacunAva,n,m,sg,3,o,0_meM,0' drel='k7:padZe' posn='90' vpos='vib_2' name='upacunAva' chunkId='NP3' chunkType='head:NP3'>
10	meM	PSP	<fs af='meM,psp,,,,,,' posn='100' drel='lwg__psp:upacunAva' chunkType='child:NP3' name='meM'>
11	lagaBaga	RP	<fs af='lagaBaga,avy,,,,,,' posn='110' drel='lwg__rp:vota' chunkType='child:NP4' name='lagaBaga'>
12	50	QC	<fs af='50,num,any,any,,any,,' posn='120' drel='nmod__adj:vota' chunkType='child:NP4' name='50'>
13	PIsaxI	NN	<fs af='PIsaxI,n,f,sg,3,d,0,0' posn='130' drel='nmod:vota' chunkType='child:NP4' name='PIsaxI'>
14	vota	NN	<fs af='vota,n,m,pl,3,d,0,0' drel='k1:padZe' posn='140' name='vota' chunkId='NP4' chunkType='head:NP4'>
15	padZe	VM	<fs af='padZa,v,m,pl,any,,yA,yA' stype='declarative' posn='150' voicetype='active' name='padZe' chunkId='VGF' chunkType='head:VGF'>
16	.	SYM	<fs af='.,punc,,,,,,' drel='rsym:padZe' posn='160' name='.' chunkId='BLK' chunkType='head:BLK'>
</Sentence>


<Sentence id="33">
1	karnAtaka	NNP	<fs af='karnAtaka,n,m,sg,3,o,0_kA,0' drel='r6:sIta' posn='10' vpos='vib_2' name='karnAtaka' chunkId='NP' chunkType='head:NP'>
2	kI	PSP	<fs af='kA,psp,f,sg,,o,,' posn='20' drel='lwg__psp:karnAtaka' chunkType='child:NP' name='kI'>
3	bIxara	NNP	<fs af='bIxara,n,m,sg,3,d,0,0' posn='30' drel='nmod__adj:sIta' chunkType='child:NP2' name='bIxara'>
4	lokasaBA	NNC	<fs af='lokasaBA,n,f,sg,3,d,0,0' posn='40' drel='pof__cn:sIta' chunkType='child:NP2' name='lokasaBA'>
5	sIta	NN	<fs af='sIta,n,f,sg,3,o,0_para,0' drel='k7p:rahane' posn='50' vpos='vib_vib_4' name='sIta' chunkId='NP2' chunkType='head:NP2'>
6	para	PSP	<fs af='para,psp,,,,,,' posn='60' drel='lwg__psp:sIta' chunkType='child:NP2' name='para'>
7	mawaxAna	NNC	<fs af='mawaxAna,n,m,sg,3,d,0,0' posn='70' drel='pof__cn:prawiSawa' chunkType='child:NP3' name='mawaxAna'>
8	prawiSawa	NN	<fs af='prawiSawa,n,m,sg,3,d,0,0' drel='k1:rahane' posn='80' name='prawiSawa' chunkId='NP3' chunkType='head:NP3'>
9	40	QC	<fs af='40,num,any,any,,any,,' posn='90' drel='nmod__adj:PIsaxI' chunkType='child:NP4' name='40'>
10	PIsaxI	NN	<fs af='PIsaxI,n,f,sg,3,d,0,0' drel='k1s:rahane' posn='100' name='PIsaxI' chunkId='NP4' chunkType='head:NP4'>
11	rahane	VM	<fs af='raha,v,any,sg,any,o,nA_kA,nA' drel='r6:saMBAvanA' posn='110' vpos='tam_2' name='rahane' chunkId='VGNN' chunkType='head:VGNN'>
12	kI	PSP	<fs af='kA,psp,f,sg,,d,,' posn='120' drel='lwg__psp:rahane' chunkType='child:VGNN' name='kI2'>
13	saMBAvanA	NN	<fs af='saMBAvanA,n,f,sg,3,d,0,0' drel='k1:hE' posn='130' name='saMBAvanA' chunkId='NP5' chunkType='head:NP5'>
14	hE	VM	<fs af='hE,v,any,sg,3,,hE,hE' stype='declarative' posn='140' voicetype='active' name='hE' chunkId='VGF' chunkType='head:VGF'>
15	.	SYM	<fs af='.,punc,,,,,,' drel='rsym:hE' posn='150' name='.' chunkId='BLK' chunkType='head:BLK'>
</Sentence>


<Sentence id="34">
1	xeSa	NN	<fs af='xeSa,n,m,sg,3,o,0_meM,0' drel='k7p:padZe' posn='10' vpos='vib_2' name='xeSa' chunkId='NP' chunkType='head:NP'>
2	meM	PSP	<fs af='meM,psp,,,,,,' posn='20' drel='lwg__psp:xeSa' chunkType='child:NP' name='meM'>
3	sabase	INTF	<fs af='sabase,avy,,,,,,' posn='30' drel='jjmod__intf:vota' chunkType='child:NP2' name='sabase'>
4	jyAxA	QF	<fs af='jyAxA,avy,,,,,,' posn='40' drel='nmod__adj:vota' chunkType='child:NP2' name='jyAxA'>
5	80	QC	<fs af='80,num,any,any,,any,,' posn='50' drel='nmod__adj:vota' chunkType='child:NP2' name='80'>
6	PIsaxI	NN	<fs af='PIsaxI,n,f,sg,3,d,0,0' posn='60' drel='nmod:vota' chunkType='child:NP2' name='PIsaxI'>
7	vota	NN	<fs af='vota,n,m,pl,3,d,0,0' drel='k1:padZe' posn='70' name='vota' chunkId='NP2' chunkType='head:NP2'>
8	govA	NNP	<fs af='govA,n,m,sg,3,o,0_kA,0' drel='r6:eka' posn='80' vpos='vib_2' name='govA' chunkId='NP3' chunkType='head:NP3'>
9	kI	PSP	<fs af='kA,psp,f,pl,,o,,' posn='90' drel='lwg__psp:govA' chunkType='child:NP3' name='kI'>
10	eka	QC	<fs af='eka,num,any,any,,any,,' drel='ccof:Ora' posn='100' name='eka' chunkId='NP4' chunkType='head:NP4'>
11	Ora	CC	<fs af='Ora,avy,,,,,,' drel='nmod:sItoM' posn='110' name='Ora' chunkId='CCP' chunkType='head:CCP'>
12	nAgAlEMda	NNP	<fs af='nAgAlEMda,n,m,sg,3,o,0_kA,0' drel='r6:wIna' posn='120' vpos='vib_2' name='nAgAlEMda' chunkId='NP5' chunkType='head:NP5'>
13	kI	PSP	<fs af='kA,psp,f,pl,,o,,' posn='130' drel='lwg__psp:nAgAlEMda' chunkType='child:NP5' name='kI2'>
14	wIna	QC	<fs af='wIna,num,any,any,,any,,' drel='ccof:Ora' posn='140' name='wIna' chunkId='NP6' chunkType='head:NP6'>
15	viXAnasaBA	NNC	<fs af='viXAnasaBA,n,f,sg,3,d,0,0' posn='150' drel='pof__cn:sItoM' chunkType='child:NP7' name='viXAnasaBA'>
16	sItoM	NN	<fs af='sIta,n,f,pl,3,o,0_ke_lie,0' drel='rt:hue' posn='160' vpos='vib_3_4' name='sItoM' chunkId='NP7' chunkType='head:NP7'>
17	ke	PSP	<fs af='ke,psp,,,,,,' posn='170' drel='lwg__psp:sItoM' chunkType='child:NP7' name='ke'>
18	lie	PSP	<fs af='lie,psp,,,,,,' posn='180' drel='lwg__psp:sItoM' chunkType='child:NP7' name='lie'>
19	hue	VM	<fs af='ho,v,m,sg,any,,yA,yA' drel='nmod__k1inv:upacunAva' posn='190' name='hue' chunkId='VGNF' chunkType='head:VGNF'>
20	upacunAva	NN	<fs af='upacunAva,n,m,sg,3,o,0_meM,0' drel='k7:padZe' posn='200' vpos='vib_2' name='upacunAva' chunkId='NP8' chunkType='head:NP8'>
21	meM	PSP	<fs af='meM,psp,,,,,,' posn='210' drel='lwg__psp:upacunAva' chunkType='child:NP8' name='meM2'>
22	padZe	VM	<fs af='padZa,v,m,pl,any,,yA,yA' stype='declarative' posn='220' voicetype='active' name='padZe' chunkId='VGF' chunkType='head:VGF'>
23	.	SYM	<fs af='.,punc,,,,,,' drel='rsym:padZe' posn='230' name='.' chunkId='BLK' chunkType='head:BLK'>
</Sentence>


<Sentence id="35">
1	xillI	NNP	<fs af='xillI,n,f,sg,3,o,0_kA,0' drel='r6:sItoM' posn='10' vpos='vib_2' name='xillI' chunkId='NP' chunkType='head:NP'>
2	kI	PSP	<fs af='kA,psp,f,pl,,o,,' posn='20' drel='lwg__psp:xillI' chunkType='child:NP' name='kI'>
3	xo	QC	<fs af='xo,num,any,any,,any,,' posn='30' drel='nmod__adj:sItoM' chunkType='child:NP2' name='xo'>
4	viXAnasaBA	NNC	<fs af='viXAnasaBA,n,f,sg,3,d,0,0' posn='40' drel='pof__cn:sItoM' chunkType='child:NP2' name='viXAnasaBA'>
5	sItoM	NN	<fs af='sIta,n,f,pl,3,o,0_ke_lie,0' drel='rt:hue' posn='50' vpos='vib_4_5' name='sItoM' chunkId='NP2' chunkType='head:NP2'>
6	ke	PSP	<fs af='ke,psp,,,,,,' posn='60' drel='lwg__psp:sItoM' chunkType='child:NP2' name='ke'>
7	lie	PSP	<fs af='lie,psp,,,,,,' posn='70' drel='lwg__psp:sItoM' chunkType='child:NP2' name='lie'>
8	hue	VM	<fs af='ho,v,m,sg,any,,yA,yA' drel='nmod__k1inv:upacunAva' posn='80' name='hue' chunkId='VGNF' chunkType='head:VGNF'>
9	upacunAva	NN	<fs af='upacunAva,n,m,sg,3,o,0_meM,0' drel='k7:xiKAyA' posn='90' vpos='vib_2' name='upacunAva' chunkId='NP3' chunkType='head:NP3'>
10	meM	PSP	<fs af='meM,psp,,,,,,' posn='100' drel='lwg__psp:upacunAva' chunkType='child:NP3' name='meM'>
11	votaroM	NN	<fs af='votara,n,m,pl,3,o,0_ne,0' drel='k1:xiKAyA' posn='110' vpos='vib_2' name='votaroM' chunkId='NP4' chunkType='head:NP4'>
12	ne	PSP	<fs af='ne,psp,,,,,,' posn='120' drel='lwg__psp:votaroM' chunkType='child:NP4' name='ne'>
13	uwsAha	NN	<fs af='uwsAha,n,m,sg,3,d,0,0' drel='k2:xiKAyA' posn='130' name='uwsAha' chunkId='NP5' chunkType='head:NP5'>
14	nahIM	NEG	<fs af='nahIM,avy,,,,,,' posn='140' drel='lwg__neg:xiKAyA' chunkType='child:VGF' name='nahIM'>
15	xiKAyA	VM	<fs af='xiKA,v,m,sg,any,,yA,yA' drel='ccof:Ora' stype='declarative' posn='150' voicetype='active' name='xiKAyA' chunkId='VGF' chunkType='head:VGF'>
16	Ora	CC	<fs af='Ora,avy,,,,,,' posn='160' name='Ora' chunkId='CCP' chunkType='head:CCP'>
17	sirPa	RP	<fs af='sirPa,avy,,,,,,' posn='170' drel='lwg__rp:mawaxAwA' chunkType='child:NP6' name='sirPa'>
18	37	QC	<fs af='37,num,any,any,,any,,' posn='180' drel='nmod__adj:mawaxAwA' chunkType='child:NP6' name='37'>
19	PIsaxI	NN	<fs af='PIsaxI,n,f,sg,3,d,0,0' posn='190' drel='nmod:mawaxAwA' chunkType='child:NP6' name='PIsaxI'>
20	mawaxAwA	NN	<fs af='mawaxAwA,n,m,pl,3,d,0,0' drel='k1:nikale' posn='200' name='mawaxAwA' chunkId='NP6' chunkType='head:NP6'>
21	hI	RP	<fs af='hI,avy,,,,,,' posn='210' drel='lwg__rp:mawaxAwA' chunkType='child:NP6' name='hI'>
22	GaroM	NN	<fs af='Gara,n,m,pl,3,o,0_se,0' drel='k5:nikale' posn='220' vpos='vib_2' name='GaroM' chunkId='NP7' chunkType='head:NP7'>
23	se	PSP	<fs af='se,psp,,,,,,' posn='230' drel='lwg__psp:GaroM' chunkType='child:NP7' name='se'>
24	bAhara	NST	<fs af='bAhara,nst,m,sg,3,d,,' drel='pof:nikale' posn='240' name='bAhara' chunkId='NP8' chunkType='head:NP8'>
25	nikale	VM	<fs af='nikala,v,m,pl,any,,yA,yA' drel='ccof:Ora' stype='declarative' posn='250' voicetype='active' name='nikale' chunkId='VGF2' chunkType='head:VGF2'>
26	.	SYM	<fs af='.,punc,,,,,,' drel='rsym:Ora' posn='260' name='.' chunkId='BLK' chunkType='head:BLK'>
</Sentence>


<Sentence id="36">
1	maNipura	NNP	<fs af='maNipura,n,m,sg,3,o,0_meM,0' drel='k7p:huA' posn='10' vpos='vib_2' name='maNipura' chunkId='NP' chunkType='head:NP'>
2	meM	PSP	<fs af='meM,psp,,,,,,' posn='20' drel='lwg__psp:maNipura' chunkType='child:NP' name='meM'>
3	cunAva	NNC	<fs af='cunAva,n,m,sg,3,d,0,0' posn='30' drel='pof__cn:bahiRkAra' chunkType='child:NP2' name='cunAva'>
4	bahiRkAra	NN	<fs af='bahiRkAra,n,m,sg,3,o,0_kA,0' drel='r6:AhvAna' posn='40' vpos='vib_3' name='bahiRkAra' chunkId='NP2' chunkType='head:NP2'>
5	ke	PSP	<fs af='kA,psp,m,sg,,o,,' posn='50' drel='lwg__psp:bahiRkAra' chunkType='child:NP2' name='ke'>
6	AhvAna	NN	<fs af='AhvAna,n,m,sg,3,o,0,0' drel='ccof:Ora' posn='60' name='AhvAna' chunkId='NP3' chunkType='head:NP3'>
7	Ora	CC	<fs af='Ora,avy,,,,,,' drel='rh:huA' posn='70' name='Ora' chunkId='CCP' chunkType='head:CCP'>
8	24	QC	<fs af='24,num,any,any,,any,,' posn='80' drel='nmod__adj:GaMte' chunkType='child:NP4' name='24'>
9	GaMte	NN	<fs af='GaMtA,n,m,sg,3,o,0_kA,0' drel='r6:hadZawAla' posn='90' vpos='vib_3' name='GaMte' chunkId='NP4' chunkType='head:NP4'>
10	kI	PSP	<fs af='kA,psp,f,sg,,o,,' posn='100' drel='lwg__psp:GaMte' chunkType='child:NP4' name='kI'>
11	Ama	JJ	<fs af='Ama,adj,any,any,,o,,' posn='110' drel='nmod__adj:hadZawAla' chunkType='child:NP5' name='Ama'>
12	hadZawAla	NN	<fs af='hadZawAla,n,f,sg,3,o,0_ke_kAraNa,0' drel='ccof:Ora' posn='120' vpos='vib_3_4' name='hadZawAla' chunkId='NP5' chunkType='head:NP5'>
13	ke	PSP	<fs af='ke,psp,m,,,o,,' posn='130' drel='lwg__psp:hadZawAla' chunkType='child:NP5' name='ke2'>
14	kAraNa	PSP	<fs af='kAraNa,n,m,,,o,,' posn='140' drel='lwg__psp:hadZawAla' chunkType='child:NP5' name='kAraNa'>
15	sAmAnya	JJ	<fs af='sAmAnya,adj,any,any,,d,,' posn='150' drel='nmod__adj:janajIvana' chunkType='child:NP6' name='sAmAnya'>
16	janajIvana	NN	<fs af='janajIvana,n,m,sg,3,d,0,0' drel='k1:huA' posn='160' name='janajIvana' chunkId='NP6' chunkType='head:NP6'>
17	burI	JJ	<fs af='burA,adj,f,sg,,d,,' posn='170' drel='nmod__adj:waraha' chunkType='child:NP7' name='burI'>
18	waraha	NN	<fs af='waraha,n,f,sg,3,d,0,0' drel='adv:huA' posn='180' name='waraha' chunkId='NP7' chunkType='head:NP7'>
19	praBAviwa	JJ	<fs af='praBAviwa,adj,any,any,,,,' drel='pof:huA' posn='190' name='praBAviwa' chunkId='JJP' chunkType='head:JJP'>
20	huA	VM	<fs af='ho,v,m,sg,any,,yA,yA' stype='declarative' posn='200' voicetype='active' name='huA' chunkId='VGF' chunkType='head:VGF'>
21	.	SYM	<fs af='.,punc,,,,,,' drel='rsym:huA' posn='210' name='.' chunkId='BLK' chunkType='head:BLK'>
</Sentence>


<Sentence id="37">
1	ugravAxiyoM	NN	<fs af='ugravAxI,n,f,pl,3,o,0_kA,0' drel='r6:XamakI' posn='10' vpos='vib_2' name='ugravAxiyoM' chunkId='NP' chunkType='head:NP'>
2	kI	PSP	<fs af='kA,psp,f,sg,,o,,' posn='20' drel='lwg__psp:ugravAxiyoM' chunkType='child:NP' name='kI'>
3	XamakI	NN	<fs af='XamakI,n,f,sg,3,o,0_ke_bAvajUxa,0' drel='vmod:ho' posn='30' vpos='vib_2_3' name='XamakI' chunkId='NP2' chunkType='head:NP2'>
4	ke	PSP	<fs af='ke,psp,,,,,,' posn='40' drel='lwg__psp:XamakI' chunkType='child:NP2' name='ke'>
5	bAvajUxa	PSP	<fs af='bAvajUxa,psp,,,,,,' posn='50' drel='lwg__psp:XamakI' chunkType='child:NP2' name='bAvajUxa'>
6	rAjya	NN	<fs af='rAjya,n,m,sg,3,o,0_kA,0' drel='r6:sIta' posn='60' vpos='vib_2' name='rAjya' chunkId='NP3' chunkType='head:NP3'>
7	kI	PSP	<fs af='kA,psp,f,sg,,o,,' posn='70' drel='lwg__psp:rAjya' chunkType='child:NP3' name='kI2'>
8	eka	QC	<fs af='eka,num,any,any,,any,,' posn='80' drel='nmod__adj:sIta' chunkType='child:NP4' name='eka'>
9	viXAnasaBA	NNC	<fs af='viXAnasaBA,n,f,sg,3,d,0,0' posn='90' drel='pof__cn:sIta' chunkType='child:NP4' name='viXAnasaBA'>
10	sIta	NN	<fs af='sIta,n,f,sg,3,o,0_para,0' drel='k7p:huA' posn='100' vpos='vib_4' name='sIta' chunkId='NP4' chunkType='head:NP4'>
11	para	PSP	<fs af='para,psp,,,,,,' posn='110' drel='lwg__psp:sIta' chunkType='child:NP4' name='para'>
12	huA	VM	<fs af='ho,v,m,sg,any,,yA,yA' drel='nmod__k1inv:upacunAva' posn='120' name='huA' chunkId='VGNF' chunkType='head:VGNF'>
13	upacunAva	NN	<fs af='upacunAva,n,m,sg,3,d,0,0' drel='k1:ho' posn='130' name='upacunAva' chunkId='NP5' chunkType='head:NP5'>
14	SAMwipUrNa	JJ	<fs af='SAMwipUrNa,adj,any,any,,o,,' posn='140' drel='nmod__adj:DaMga' chunkType='child:NP6' name='SAMwipUrNa'>
15	DaMga	NN	<fs af='DaMga,n,m,sg,3,o,0_se,0' drel='adv:ho' posn='150' vpos='vib_3' name='DaMga' chunkId='NP6' chunkType='head:NP6'>
16	se	PSP	<fs af='se,psp,,,,,,' posn='160' drel='lwg__psp:DaMga' chunkType='child:NP6' name='se'>
17	saMpanna	JJ	<fs af='saMpanna,adj,any,any,,,,' drel='pof:ho' posn='170' name='saMpanna' chunkId='JJP' chunkType='head:JJP'>
18	ho	VM	<fs af='ho,v,any,sg,any,,0_jA+yA,0' stype='declarative' posn='180' voicetype='active' vpos='tam_2' name='ho' chunkId='VGF' chunkType='head:VGF'>
19	gayA	VAUX	<fs af='jA,v,m,sg,any,,yA,yA' posn='190' drel='lwg__vaux:ho' chunkType='child:VGF' name='gayA'>
20	.	SYM	<fs af='.,punc,,,,,,' drel='rsym:ho' posn='200' name='.' chunkId='BLK' chunkType='head:BLK'>
</Sentence>


<Sentence id="38">
1	anya	JJ	<fs af='anya,adj,any,any,,o,,' posn='10' drel='nmod__adj:rAjyoM' chunkType='child:NP' name='anya'>
2	rAjyoM	NN	<fs af='rAjya,n,m,pl,3,o,0_meM,0' drel='k7p:hE' posn='20' vpos='vib_3' name='rAjyoM' chunkId='NP' chunkType='head:NP'>
3	meM	PSP	<fs af='meM,psp,,,,,,' posn='30' drel='lwg__psp:rAjyoM' chunkType='child:NP' name='meM'>
4	AMXra	NNPC	<fs af='AMXra,n,m,sg,3,d,0,0' posn='40' drel='pof__cn:praxeSa' chunkType='child:NP2' name='AMXra'>
5	praxeSa	NNP	<fs af='praxeSa,n,m,sg,3,o,0_meM,0' drel='nmod:PIsaxI' posn='50' vpos='vib_3' name='praxeSa' chunkId='NP2' chunkType='head:NP2'>
6	meM	PSP	<fs af='meM,psp,,,,,,' posn='60' drel='lwg__psp:praxeSa' chunkType='child:NP2' name='meM2'>
7	40	QC	<fs af='40,num,any,any,,any,,' posn='70' drel='nmod__adj:PIsaxI' chunkType='child:NP3' name='40'>
8	-	SYM	<fs af='-,punc,,,,,,' posn='80' drel='rsym:PIsaxI' chunkType='child:NP3' name='-'>
9	55	QC	<fs af='55,num,any,any,,any,,' posn='90' drel='nmod__adj:PIsaxI' chunkType='child:NP3' name='55'>
10	PIsaxI	NN	<fs af='PIsaxI,n,f,sg,3,d,0,0' drel='ccof:Ora' posn='100' name='PIsaxI' chunkId='NP3' chunkType='head:NP3'>
11	,	SYM	<fs af='COMMA,punc,,,,,,' posn='110' drel='rsym:PIsaxI' chunkType='child:NP3' name=','>
12	paMjAba	NNP	<fs af='paMjAba,n,m,sg,3,o,0_meM,0' drel='nmod:PIsaxI2' posn='120' vpos='vib_2' name='paMjAba' chunkId='NP4' chunkType='head:NP4'>
13	meM	PSP	<fs af='meM,psp,,,,,,' posn='130' drel='lwg__psp:paMjAba' chunkType='child:NP4' name='meM3'>
14	65	QC	<fs af='65,num,any,any,,any,,' posn='140' drel='nmod__adj:PIsaxI2' chunkType='child:NP5' name='65'>
15	PIsaxI	NN	<fs af='PIsaxI,n,f,sg,3,d,0,0' drel='ccof:Ora' posn='150' name='PIsaxI2' chunkId='NP5' chunkType='head:NP5'>
16	,	SYM	<fs af='COMMA,punc,,,,,,' posn='160' drel='rsym:PIsaxI2' chunkType='child:NP5' name=',2'>
17	asama	NNP	<fs af='asama,n,m,sg,3,o,0_meM,0' drel='nmod:PIsaxI3' posn='170' vpos='vib_2' name='asama' chunkId='NP6' chunkType='head:NP6'>
18	meM	PSP	<fs af='meM,psp,,,,,,' posn='180' drel='lwg__psp:asama' chunkType='child:NP6' name='meM4'>
19	60	QC	<fs af='60,num,any,any,,any,,' posn='190' drel='nmod__adj:PIsaxI3' chunkType='child:NP7' name='60'>
20	PIsaxI	NN	<fs af='PIsaxI,n,f,sg,3,d,0,0' drel='ccof:Ora' posn='200' name='PIsaxI3' chunkId='NP7' chunkType='head:NP7'>
21	,	SYM	<fs af='COMMA,punc,,,,,,' posn='210' drel='rsym:PIsaxI3' chunkType='child:NP7' name=',3'>
22	rAjasWAna	NNP	<fs af='rAjasWAna,n,m,sg,3,o,0_meM,0' drel='nmod:PIsaxI4' posn='220' vpos='vib_2' name='rAjasWAna' chunkId='NP8' chunkType='head:NP8'>
23	meM	PSP	<fs af='meM,psp,,,,,,' posn='230' drel='lwg__psp:rAjasWAna' chunkType='child:NP8' name='meM5'>
24	60	QC	<fs af='60,num,any,any,,any,,' posn='240' drel='nmod__adj:PIsaxI4' chunkType='child:NP9' name='602'>
25	-	SYM	<fs af='-,punc,,,,,,' posn='250' drel='rsym:PIsaxI4' chunkType='child:NP9' name='-2'>
26	65	QC	<fs af='65,num,any,any,,any,,' posn='260' drel='nmod__adj:PIsaxI4' chunkType='child:NP9' name='652'>
27	PIsaxI	NN	<fs af='PIsaxI,n,f,sg,3,d,0,0' drel='ccof:Ora' posn='270' name='PIsaxI4' chunkId='NP9' chunkType='head:NP9'>
28	Ora	CC	<fs af='Ora,avy,,,,,,' drel='nmod:mawaxAna' posn='280' name='Ora' chunkId='CCP' chunkType='head:CCP'>
29	gujarAwa	NNP	<fs af='gujarAwa,n,m,sg,3,o,0_meM,0' drel='nmod:PIsaxI5' posn='290' vpos='vib_2' name='gujarAwa' chunkId='NP10' chunkType='head:NP10'>
30	meM	PSP	<fs af='meM,psp,,,,,,' posn='300' drel='lwg__psp:gujarAwa' chunkType='child:NP10' name='meM6'>
31	45	QC	<fs af='45,num,any,any,,any,,' posn='310' drel='nmod__adj:PIsaxI5' chunkType='child:NP11' name='45'>
32	PIsaxI	NN	<fs af='PIsaxI,n,f,sg,3,d,0,0' drel='ccof:Ora' posn='320' name='PIsaxI5' chunkId='NP11' chunkType='head:NP11'>
33	mawaxAna	NN	<fs af='mawaxAna,n,m,sg,3,d,0,0' drel='k1:hone' posn='330' name='mawaxAna' chunkId='NP12' chunkType='head:NP12'>
34	hone	VM	<fs af='ho,v,any,sg,any,o,nA_kA,nA' drel='r6:saMBAvanA' posn='340' vpos='tam_2' name='hone' chunkId='VGNN' chunkType='head:VGNN'>
35	kI	PSP	<fs af='kA,psp,f,sg,,d,,' posn='350' drel='lwg__psp:hone' chunkType='child:VGNN' name='kI'>
36	saMBAvanA	NN	<fs af='saMBAvanA,n,f,sg,3,d,0,0' drel='k1:hE' posn='360' name='saMBAvanA' chunkId='NP13' chunkType='head:NP13'>
37	hE	VM	<fs af='hE,v,any,sg,3,,hE,hE' stype='declarative' posn='370' voicetype='active' name='hE' chunkId='VGF' chunkType='head:VGF'>
38	.	SYM	<fs af='.,punc,,,,,,' drel='rsym:hE' posn='380' name='.' chunkId='BLK' chunkType='head:BLK'>
</Sentence>


</text>
</tb>
</body>
</document>
