<document id="2494356">
<head>
	<caption>BArawa-pAka eka-xUsare ke etamI TikAnoM para hamale nahIM kareMge paramANu prawiRTAnoM kI sUciyoM kA axAna-praxAna kiyA isalAmAbAxa.</caption>
	<language>Hindi </language>
	<domain_name>News Articles </domain_name>
	<word_count>369</word_count>
	<byte_count>45119</byte_count>
	<availability>
		<format>CML/SSF</format>
	<sentence_marker>.</sentence_marker>
	<normalization>No</normalization>
	</availability>
	<encoding_description>
		<original_encoding>ISO 8859</original_encoding>
		<new_encoding>Unicode UTF8</new_encoding>
	</encoding_description>
	<distributor>LTRC, IIIT Hyderabad</distributor>
	<project_description>NSF Hindi/Urdu Dependency Treebanking Project</project_description>
	<creation>
		<raw_corpus creation_date="" institute_name="IIIT Hyderabad"></raw_corpus>
		<annotated_corpus creation_date="06/01/2009" institute_name="IIIT Hyderabad"></annotated_corpus>
	<edition_number>1.0</edition_number>
	</creation>
	<publication>
		<place>New Delhi</place>
		<date>2/6/2004</date>
		<type>Newspaper</type>
		<publisher>
			<name>Amar Ujala</name>
			<url>http://www.amarujala.com</url>
		</publisher>
	</publication>

</head>
<body>
<tb number="1" segment="no" bullet="no">
<foreign language="select" writingsystem="LTR"></foreign>
<text>
<Sentence id="1">
1	BArawa	NNP	<fs af='BArawa,n,m,sg,3,o,0,0' drel='ccof:Ora' posn='10' name='BArawa' chunkId='NP' chunkType='head:NP'>
2	Ora	CC	<fs af='Ora,avy,,,,,,' drel='k1:kiyA' posn='20' name='Ora' chunkId='CCP' chunkType='head:CCP'>
3	pAkiswAna	NNP	<fs af='pAkiswAna,n,m,sg,3,o,0_ne,0' drel='ccof:Ora' posn='30' vpos='vib_2' name='pAkiswAna' chunkId='NP2' chunkType='head:NP2'>
4	ne	PSP	<fs af='ne,psp,,,,,,' posn='40' drel='lwg__psp:pAkiswAna' chunkType='child:NP2' name='ne'>
5	eka	QC	<fs af='eka,num,any,any,,any,,' posn='50' drel='nmod__adj:samaJOwe' chunkType='child:NP3' name='eka'>
6	viSeRa	JJ	<fs af='viSeRa,adj,any,any,,o,,' posn='60' drel='nmod__adj:samaJOwe' chunkType='child:NP3' name='viSeRa'>
7	samaJOwe	NN	<fs af='samaJOwA,n,m,sg,3,o,0_ke_wahawa,0' drel='k7a:kiyA' posn='70' vpos='vib_4_5' name='samaJOwe' chunkId='NP3' chunkType='head:NP3'>
8	ke	PSP	<fs af='ke,psp,,,,,,' posn='80' drel='lwg__psp:samaJOwe' chunkType='child:NP3' name='ke'>
9	wahawa	PSP	<fs af='wahawa,psp,,,,,,' posn='90' drel='lwg__psp:samaJOwe' chunkType='child:NP3' name='wahawa'>
10	ravivAra	NNP	<fs af='ravivAra,n,m,sg,3,o,0_ko,0' drel='k7t:kiyA' posn='100' vpos='vib_2' name='ravivAra' chunkId='NP4' chunkType='head:NP4'>
11	ko	PSP	<fs af='ko,psp,,,,,,' posn='110' drel='lwg__psp:ravivAra' chunkType='child:NP4' name='ko'>
12	apane	PRP	<fs af='apanA,pn,m,any,any,o,0,0' drel='r6:prawiRTAnoM' posn='120' name='apane' chunkId='NP5' chunkType='head:NP5'>
13	paramANu	NNC	<fs af='paramANu,n,m,sg,3,d,0,0' posn='130' drel='pof__cn:prawiRTAnoM' chunkType='child:NP6' name='paramANu'>
14	prawiRTAnoM	NN	<fs af='prawiRTAna,n,m,pl,3,o,0_kA,0' drel='r6:sUciyoM' posn='140' vpos='vib_3' name='prawiRTAnoM' chunkId='NP6' chunkType='head:NP6'>
15	kI	PSP	<fs af='kA,psp,f,sg,,o,,' posn='150' drel='lwg__psp:prawiRTAnoM' chunkType='child:NP6' name='kI'>
16	sUciyoM	NN	<fs af='sUcI,n,f,pl,3,o,0_kA,0' drel='r6-k2:praxAna' posn='160' vpos='vib_2' name='sUciyoM' chunkId='NP7' chunkType='head:NP7'>
17	kA	PSP	<fs af='kA,psp,m,sg,,d,,' posn='170' drel='lwg__psp:sUciyoM' chunkType='child:NP7' name='kA'>
18	AxAna	NNC	<fs af='AxAna,n,m,sg,3,d,0,0' posn='180' drel='pof__cn:praxAna' chunkType='child:NP8' name='AxAna'>
19	-JOIN	SYM	<fs af='-,punc,,,,,,' posn='190' drel='pof__cn:praxAna' chunkType='child:NP8' name='-JOIN'>
20	praxAna	NN	<fs af='praxAna,n,m,sg,3,d,0,0' drel='pof:kiyA' posn='200' name='praxAna' chunkId='NP8' chunkType='head:NP8'>
21	kiyA	VM	<fs af='kara,v,m,sg,any,,yA,yA' stype='declarative' posn='210' voicetype='active' name='kiyA' chunkId='VGF' chunkType='head:VGF'>
22	.	SYM	<fs af='.,punc,,,,,,' drel='rsym:kiyA' posn='220' name='.' chunkId='BLK' chunkType='head:BLK'>
</Sentence>


<Sentence id="2">
1	samaJOwe	NN	<fs af='samaJOwA,n,m,sg,3,o,0_kA,0' drel='r6:Sarwo' posn='10' vpos='vib_2' name='samaJOwe' chunkId='NP' chunkType='head:NP'>
2	kI	PSP	<fs af='kA,psp,f,pl,,o,,' posn='20' drel='lwg__psp:samaJOwe' chunkType='child:NP' name='kI'>
3	Sarwo	NN	<fs af='Sarwa,n,f,pl,3,o,0_ke_muwAbika,0' drel='k7a:hE' posn='30' vpos='vib_2_3' name='Sarwo' chunkId='NP2' chunkType='head:NP2'>
4	ke	PSP	<fs af='ke,psp,,,,,,' posn='40' drel='lwg__psp:Sarwo' chunkType='child:NP2' name='ke'>
5	muwAbika	PSP	<fs af='muwAbika,psp,,,,,,' posn='40' drel='lwg__psp:Sarwo' chunkType='child:NP2' name='muwAbika'>
6	xonoM	QC	<fs af='xo,num,any,any,,any,,' posn='60' drel='nmod__adj:xeSoM' chunkType='child:NP3' name='xonoM'>
7	xeSoM	NN	<fs af='xeSa,n,m,pl,3,o,0_ko,0' drel='k1:karane' posn='70' vpos='vib_3' name='xeSoM' chunkId='NP3' chunkType='head:NP3'>
8	ko	PSP	<fs af='ko,psp,,,,,,' posn='80' drel='lwg__psp:xeSoM' chunkType='child:NP3' name='ko'>
9	eka	PRPC	<fs af='eka,pn,m,sg,3,d,0,0' posn='90' drel='mod:xUsare' chunkType='child:NP4' name='eka'>
10	-	SYM	<fs af='-,punc,,,,,,' posn='100' drel='rsym:xUsare' chunkType='child:NP4' name='-'>
11	xUsare	PRP	<fs af='xUsarA,pn,m,sg,3,o,0_kA,0' drel='r6:prawiRTAnoM' posn='110' vpos='vib_4' name='xUsare' chunkId='NP4' chunkType='head:NP4'>
12	ke	PSP	<fs af='kA,psp,m,pl,,o,,' posn='120' drel='lwg__psp:xUsare' chunkType='child:NP4' name='ke2'>
13	paramANu	NNC	<fs af='paramANu,n,m,sg,3,d,0,0' posn='130' drel='pof__cn:prawiRTAnoM' chunkType='child:NP5' name='paramANu'>
14	prawiRTAnoM	NN	<fs af='prawiRTAna,n,m,pl,3,o,0_para,0' drel='k7:karane' posn='140' vpos='vib_3' name='prawiRTAnoM' chunkId='NP5' chunkType='head:NP5'>
15	para	PSP	<fs af='para,psp,,,,,,' posn='150' drel='lwg__psp:prawiRTAnoM' chunkType='child:NP5' name='para'>
16	hamalA	NN	<fs af='hamalA,n,m,sg,3,d,0,0' drel='pof:karane' posn='160' name='hamalA' chunkId='NP6' chunkType='head:NP6'>
17	karane	VM	<fs af='kara,v,any,sg,any,o,nA_kA,nA' drel='r6:manAhI' posn='170' vpos='tam_2' name='karane' chunkId='VGNN' chunkType='head:VGNN'>
18	kI	PSP	<fs af='kA,psp,f,sg,,d,,' posn='180' drel='lwg__psp:karane' chunkType='child:VGNN' name='kI2'>
19	manAhI	NN	<fs af='manAhI,n,f,sg,3,d,0,0' drel='k1:hE' posn='190' name='manAhI' chunkId='NP7' chunkType='head:NP7'>
20	hE	VM	<fs af='hE,v,any,sg,3,,hE,hE' stype='declarative' posn='200' voicetype='active' name='hE' chunkId='VGF' chunkType='head:VGF'>
21	.	SYM	<fs af='.,punc,,,,,,' drel='rsym:hE' posn='210' name='.' chunkId='BLK' chunkType='head:BLK'>
</Sentence>


<Sentence id="3">
1	uXara	NST	<fs af='uXara,nst,m,sg,3,d,,' drel='sent-adv:ho' posn='10' name='uXara' chunkId='NP' chunkType='head:NP'>
2	,	SYM	<fs af='COMMA,punc,,,,,,' posn='20' drel='rsym:uXara' chunkType='child:NP' name=','>
3	karAcI	NNP	<fs af='karAcI,n,m,sg,3,d,0,0' drel='ccof:va' posn='30' name='karAcI' chunkId='NP2' chunkType='head:NP2'>
4	va	CC	<fs af='va,avy,,,,,,' drel='k7p:Kolane' posn='40' name='va' chunkId='CCP' chunkType='head:CCP'>
5	muMbaI	NNP	<fs af='muMbaI,n,m,sg,3,o,0_meM,0' drel='ccof:va' posn='50' vpos='vib_2' name='muMbaI' chunkId='NP3' chunkType='head:NP3'>
6	meM	PSP	<fs af='meM,psp,,,,,,' posn='60' drel='lwg__psp:muMbaI' chunkType='child:NP3' name='meM'>
7	kramaSaH	RB	<fs af='kramaSaH,adv,,,,,,' drel='vmod:Kolane' posn='70' name='kramaSaH' chunkId='RBP' chunkType='head:RBP'>
8	BArawa	NNP	<fs af='BArawa,n,m,sg,3,o,0,0' drel='ccof:va2' posn='80' name='BArawa' chunkId='NP4' chunkType='head:NP4'>
9	va	CC	<fs af='va,avy,,,,,,' drel='r6:kAryAlaya' posn='90' name='va2' chunkId='CCP2' chunkType='head:CCP2'>
10	pAka	NNP	<fs af='pAka,n,m,sg,3,o,0_kA,0' drel='ccof:va2' posn='100' vpos='vib_2' name='pAka' chunkId='NP5' chunkType='head:NP5'>
11	ke	PSP	<fs af='kA,psp,m,sg,,o,,' posn='110' drel='lwg__psp:pAka' chunkType='child:NP5' name='ke'>
12	vIjA	NNC	<fs af='vIjA,n,m,sg,3,d,0,0' posn='120' drel='pof__cn:kAryAlaya' chunkType='child:NP6' name='vIjA'>
13	kAryAlaya	NN	<fs af='kAryAlaya,n,m,pl,3,d,0,0' drel='k2:Kolane' posn='130' name='kAryAlaya' chunkId='NP6' chunkType='head:NP6'>
14	nae	JJ	<fs af='nayA,adj,m,sg,,o,,' posn='140' drel='nmod__adj:varRa' chunkType='child:NP7' name='nae'>
15	varRa	NN	<fs af='varRa,n,m,sg,3,o,0_kA,0' drel='r6:xina' posn='150' vpos='vib_3' name='varRa' chunkId='NP7' chunkType='head:NP7'>
16	ke	PSP	<fs af='kA,psp,m,sg,,o,,' posn='160' drel='lwg__psp:varRa' chunkType='child:NP7' name='ke2'>
17	pahale	QO	<fs af='pahalA,num,m,sg,,d,,' posn='170' drel='nmod__adj:xina' chunkType='child:NP8' name='pahale'>
18	xina	NN	<fs af='xina,n,m,sg,3,d,0,0' drel='k7t:Kolane' posn='180' name='xina' chunkId='NP8' chunkType='head:NP8'>
19	Pira	RB	<fs af='Pira,adv,,,,,,' drel='adv:Kolane' posn='190' name='Pira' chunkId='RBP2' chunkType='head:RBP2'>
20	se	RP	<fs af='se,avy,,,,,,' posn='200' drel='lwg__rp:Pira' chunkType='child:RBP2' name='se'>
21	Kolane	VM	<fs af='Kola,v,any,sg,any,o,nA_kA,nA' drel='r6:kAryakrama' posn='210' vpos='tam_2' name='Kolane' chunkId='VGNN' chunkType='head:VGNN'>
22	ke	PSP	<fs af='kA,psp,m,sg,,o,,' posn='220' drel='lwg__psp:Kolane' chunkType='child:VGNN' name='ke3'>
23	kAryakrama	NN	<fs af='kAryakrama,n,m,sg,3,o,0_meM,0' drel='k7:ho' posn='230' vpos='vib_2' name='kAryakrama' chunkId='NP9' chunkType='head:NP9'>
24	meM	PSP	<fs af='meM,psp,,,,,,' posn='240' drel='lwg__psp:kAryakrama' chunkType='child:NP9' name='meM2'>
25	vilaMba	NN	<fs af='vilaMba,n,m,sg,3,d,0,0' drel='pof:ho' posn='250' name='vilaMba' chunkId='NP10' chunkType='head:NP10'>
26	ho	VM	<fs af='ho,v,m,sg,3,,0_jA+yA1_hE,0' stype='declarative' posn='260' voicetype='passive' vpos='tam_2_3' name='ho' chunkId='VGF' chunkType='head:VGF'>
27	gayA	VAUX	<fs af='jA,v,m,sg,any,,yA1,yA1' posn='270' drel='lwg__vaux:ho' chunkType='child:VGF' name='gayA'>
28	hE	VAUX	<fs af='hE,v,any,sg,3,,hE,hE' posn='280' drel='lwg__vaux:ho' chunkType='child:VGF' name='hE'>
29	.	SYM	<fs af='.,punc,,,,,,' drel='rsym:ho' posn='290' name='.' chunkId='BLK' chunkType='head:BLK'>
</Sentence>


<Sentence id="4">
1	samaJOwe	NN	<fs af='samaJOwA,n,m,sg,3,o,0_ke_wahawa,0' drel='k7a:karawe' posn='10' vpos='vib_2_3' name='samaJOwe' chunkId='NP' chunkType='head:NP'>
2	ke	PSP	<fs af='ke,psp,,,,,,' posn='20' drel='lwg__psp:samaJOwe' chunkType='child:NP' name='ke'>
3	wahawa	PSP	<fs af='wahawa,psp,,,,,,' posn='30' drel='lwg__psp:samaJOwe' chunkType='child:NP' name='wahawa'>
4	xonoM	QC	<fs af='xo,num,any,any,,any,,' posn='40' drel='nmod__adj:xeSa' chunkType='child:NP2' name='xonoM'>
5	xeSa	NN	<fs af='xeSa,n,m,sg,3,d,0,0' drel='k1:karawe' posn='50' name='xeSa' chunkId='NP2' chunkType='head:NP2'>
6	prawyeka	QF	<fs af='prawyeka,avy,,,,,,' posn='60' drel='nmod__adj:varRa' chunkType='child:NP3' name='prawyeka'>
7	varRa	NN	<fs af='varRa,n,m,sg,3,d,0,0' drel='k7t:karawe' posn='70' name='varRa' chunkId='NP3' chunkType='head:NP3'>
8	janavarI	NNP	<fs af='janavarI,n,f,sg,3,o,0_kA,0' drel='r6:wArIKa' posn='80' vpos='vib_2' name='janavarI' chunkId='NP4' chunkType='head:NP4'>
9	kI	PSP	<fs af='kA,psp,f,sg,,o,,' posn='90' drel='lwg__psp:janavarI' chunkType='child:NP4' name='kI'>
10	pahalI	QO	<fs af='pahalA,num,f,sg,,o,,' posn='100' drel='nmod__adj:wArIKa' chunkType='child:NP5' name='pahalI'>
11	wArIKa	NN	<fs af='wArIKa,n,f,sg,3,o,0_ko,0' drel='k7t:karawe' posn='110' vpos='vib_3' name='wArIKa' chunkId='NP5' chunkType='head:NP5'>
12	ko	PSP	<fs af='ko,psp,,,,,,' posn='120' drel='lwg__psp:wArIKa' chunkType='child:NP5' name='ko'>
13	eka	PRPC	<fs af='eka,pn,m,sg,3,d,0,0' posn='130' drel='mod:xUsare' chunkType='child:NP6' name='eka'>
14	-JOIN	SYM	<fs af='-,punc,,,,,,' posn='140' drel='rsym:xUsare' chunkType='child:NP6' name='-JOIN'>
15	xUsare	PRP	<fs af='xUsarA,pn,m,sg,3,o,0_kA,0' drel='r6:sUciyoM' posn='150' vpos='vib_4' name='xUsare' chunkId='NP6' chunkType='head:NP6'>
16	kI	PSP	<fs af='kA,psp,f,sg,,o,,' posn='160' drel='lwg__psp:xUsare' chunkType='child:NP6' name='kI2'>
17	paramANu	NNC	<fs af='paramANu,n,m,sg,3,d,0,0' posn='170' drel='pof__cn:sUciyoM' chunkType='child:NP7' name='paramANu'>
18	sUciyoM	NN	<fs af='sUcI,n,f,pl,3,o,0_kA,0' drel='r6-k2:praxAna' posn='180' vpos='vib_3' name='sUciyoM' chunkId='NP7' chunkType='head:NP7'>
19	kA	PSP	<fs af='kA,psp,m,sg,,d,,' posn='190' drel='lwg__psp:sUciyoM' chunkType='child:NP7' name='kA'>
20	AxAna	NNC	<fs af='AxAna,n,m,sg,3,d,0,0' posn='200' drel='pof__cn:praxAna' chunkType='child:NP8' name='AxAna'>
21	-JOIN	SYM	<fs af='-,punc,,,,,,' posn='210' drel='pof__cn:praxAna' chunkType='child:NP8' name='-JOIN2'>
22	praxAna	NN	<fs af='praxAna,n,m,sg,3,d,0,0' drel='pof:karawe' posn='220' name='praxAna' chunkId='NP8' chunkType='head:NP8'>
23	karawe	VM	<fs af='kara,v,m,pl,3,,wA_hE,wA' stype='declarative' posn='230' voicetype='active' vpos='tam_2' name='karawe' chunkId='VGF' chunkType='head:VGF'>
24	hEM	VAUX	<fs af='hE,v,any,pl,3,,hE,hE' posn='240' drel='lwg__vaux:karawe' chunkType='child:VGF' name='hEM'>
25	.	SYM	<fs af='.,punc,,,,,,' drel='rsym:karawe' posn='250' name='.' chunkId='BLK' chunkType='head:BLK'>
</Sentence>


<Sentence id="5">
1	vixeSa	NNC	<fs af='vixeSa,n,m,sg,3,d,0,0' posn='10' drel='pof__cn:kAryAlaya' chunkType='child:NP' name='vixeSa'>
2	kAryAlaya	NN	<fs af='kAryAlaya,n,m,sg,3,o,0_xvArA,0' drel='jjmod:jArI' posn='20' vpos='vib_3' name='kAryAlaya' chunkId='NP' chunkType='head:NP'>
3	xvArA	PSP	<fs af='xvArA,psp,,,,,,' posn='30' drel='lwg__psp:kAryAlaya' chunkType='child:NP' name='xvArA'>
4	jArI	JJ	<fs af='jArI,adj,any,any,,o,,' drel='nmod:vakwavya' posn='40' name='jArI' chunkId='JJP' chunkType='head:JJP'>
5	vakwavya	NN	<fs af='vakwavya,n,m,sg,3,o,0_ke_muwAbika,0' drel='k7a:kiyA' posn='50' vpos='vib_2_3' name='vakwavya' chunkId='NP2' chunkType='head:NP2'>
6	ke	PSP	<fs af='ke,psp,,,,,,' posn='60' drel='lwg__psp:vakwavya' chunkType='child:NP2' name='ke'>
7	muwAbika	PSP	<fs af='muwAbika,psp,,,,,,' posn='60' drel='lwg__psp:vakwavya' chunkType='child:NP2' name='muwAbika'>
8	BArawa	NNP	<fs af='BArawa,n,m,sg,3,o,0,0' drel='ccof:va' posn='80' name='BArawa' chunkId='NP3' chunkType='head:NP3'>
9	va	CC	<fs af='va,avy,,,,,,' drel='k1:hue' posn='90' name='va' chunkId='CCP' chunkType='head:CCP'>
10	pAkiswAna	NNP	<fs af='pAkiswAna,n,m,sg,3,o,0_ke_bIca,0' drel='ccof:va' posn='100' vpos='vib_2_3' name='pAkiswAna' chunkId='NP4' chunkType='head:NP4'>
11	ke	PSP	<fs af='ke,psp,,,,,,' posn='110' drel='lwg__psp:pAkiswAna' chunkType='child:NP4' name='ke2'>
12	bIca	NST	<fs af='bIca,nst,m,sg,3,d,,' posn='120' drel='lwg__psp:pAkiswAna' chunkType='child:NP4' name='bIca'>
13	31	NNPC	<fs af='31,n,any,sg,3,d,0,0' posn='130' drel='pof__cn:1988' chunkType='child:NP5' name='31'>
14	xisaMbara	NNPC	<fs af='xisaMbara,n,m,sg,3,d,0,0' posn='140' drel='pof__cn:1988' chunkType='child:NP5' name='xisaMbara'>
15	,	SYM	<fs af='COMMA,punc,,,,,,' posn='150' drel='rsym:1988' chunkType='child:NP5' name=','>
16	1988	NNP	<fs af='1988,n,any,sg,3,o,0_ko,0' drel='k7t:hue' posn='160' vpos='vib_5' name='1988' chunkId='NP5' chunkType='head:NP5'>
17	ko	PSP	<fs af='ko,psp,,,,,,' posn='170' drel='lwg__psp:1988' chunkType='child:NP5' name='ko'>
18	hue	VM	<fs af='ho,v,m,sg,any,,yA,yA' drel='nmod__pofinv:samaJOwe' posn='180' name='hue' chunkId='VGNF' chunkType='head:VGNF'>
19	samaJOwe	NN	<fs af='samaJOwA,n,m,sg,3,o,0_kA,0' drel='r6:xviwIya' posn='190' vpos='vib_2' name='samaJOwe' chunkId='NP6' chunkType='head:NP6'>
20	ke	PSP	<fs af='kA,psp,m,sg,,o,,' posn='200' drel='lwg__psp:samaJOwe' chunkType='child:NP6' name='ke3'>
21	anucCexa	NNPC	<fs af='anucCexa,n,m,sg,3,d,0,0' posn='210' drel='pof__cn:xviwIya' chunkType='child:NP7' name='anucCexa'>
22	xviwIya	NNP	<fs af='xviwIya,n,m,sg,3,o,0_ke_wahawa,0' drel='k7a:kiyA' posn='210' vpos='vib_3_4' name='xviwIya' chunkId='NP7' chunkType='head:NP7'>
23	ke	PSP	<fs af='ke,psp,,,,,,' posn='230' drel='lwg__psp:xviwIya' chunkType='child:NP7' name='ke4'>
24	wahawa	PSP	<fs af='wahawa,psp,,,,,,' posn='240' drel='lwg__psp:xviwIya' chunkType='child:NP7' name='wahawa'>
25	xonoM	QC	<fs af='xo,num,any,any,,any,,' posn='250' drel='nmod__adj:xeSoM' chunkType='child:NP8' name='xonoM'>
26	xeSoM	NN	<fs af='xeSa,n,m,pl,3,o,0_kA,0' drel='r6:sarakAroM' posn='260' vpos='vib_3' name='xeSoM' chunkId='NP8' chunkType='head:NP8'>
27	kI	PSP	<fs af='kA,psp,f,pl,,o,,' posn='270' drel='lwg__psp:xeSoM' chunkType='child:NP8' name='kI'>
28	sarakAroM	NN	<fs af='sarakAra,n,f,pl,3,o,0_ne,0' drel='k1:kiyA' posn='280' vpos='vib_2' name='sarakAroM' chunkId='NP9' chunkType='head:NP9'>
29	ne	PSP	<fs af='ne,psp,,,,,,' posn='290' drel='lwg__psp:sarakAroM' chunkType='child:NP9' name='ne'>
30	eka	PRPC	<fs af='eka,pn,m,sg,3,d,0,0' posn='300' drel='mod:xUsare' chunkType='child:NP10' name='eka'>
31	xUsare	PRP	<fs af='xUsarA,pn,m,sg,,o,0_ke,0' drel='r6:prawiRTAnoM' posn='310' vpos='vib_3' name='xUsare' chunkId='NP10' chunkType='head:NP10'>
32	ke	PSP	<fs af='ke,psp,m,pl,,o,,' posn='320' drel='lwg__psp:xUsare' chunkType='child:NP10' name='ke5'>
33	paramANu	NNC	<fs af='paramANu,n,m,sg,3,d,0,0' posn='330' drel='pof__cn:prawiRTAnoM' chunkType='child:NP11' name='paramANu'>
34	prawiRTAnoM	NN	<fs af='prawiRTAna,n,m,pl,3,o,0_kA,0' drel='r6:sUciyoM' posn='340' vpos='vib_3' name='prawiRTAnoM' chunkId='NP11' chunkType='head:NP11'>
35	kI	PSP	<fs af='kA,psp,f,pl,,o,,' posn='350' drel='lwg__psp:prawiRTAnoM' chunkType='child:NP11' name='kI2'>
36	sUciyoM	NN	<fs af='sUcI,n,f,pl,3,o,0_kA,0' drel='r6-k2:praxAna' posn='360' vpos='vib_2' name='sUciyoM' chunkId='NP12' chunkType='head:NP12'>
37	kA	PSP	<fs af='kA,psp,m,sg,,d,,' posn='370' drel='lwg__psp:sUciyoM' chunkType='child:NP12' name='kA'>
38	AxAna	NNC	<fs af='AxAna,n,m,sg,3,d,0,0' posn='380' drel='pof__cn:praxAna' chunkType='child:NP13' name='AxAna'>
39	-JOIN	SYM	<fs af='-,punc,,,,,,' posn='390' drel='pof__cn:praxAna' chunkType='child:NP13' name='-JOIN'>
40	praxAna	NN	<fs af='praxAna,n,m,sg,3,d,0,0' drel='pof:kiyA' posn='400' name='praxAna' chunkId='NP13' chunkType='head:NP13'>
41	kiyA	VM	<fs af='kara,v,m,sg,any,,yA,yA' stype='declarative' posn='410' voicetype='active' name='kiyA' chunkId='VGF' chunkType='head:VGF'>
42	.	SYM	<fs af='.,punc,,,,,,' drel='rsym:kiyA' posn='420' name='.' chunkId='BLK' chunkType='head:BLK'>
</Sentence>


<Sentence id="6">
1	pAkiswAna	NNP	<fs af='pAkiswAna,n,m,sg,3,o,0_kA,0' drel='r6:maMwrAlaya' posn='10' vpos='vib_2' name='pAkiswAna' chunkId='NP' chunkType='head:NP'>
2	ke	PSP	<fs af='kA,psp,m,sg,,o,,' posn='20' drel='lwg__psp:pAkiswAna' chunkType='child:NP' name='ke'>
3	vixeSa	NNPC	<fs af='vixeSa,n,m,sg,3,d,0,0' posn='30' drel='pof__cn:maMwrAlaya' chunkType='child:NP2' name='vixeSa'>
4	maMwrAlaya	NNP	<fs af='maMwrAlaya,n,m,sg,3,o,0_meM,0' drel='k7:sOMpI' posn='40' vpos='vib_3' name='maMwrAlaya' chunkId='NP2' chunkType='head:NP2'>
5	meM	PSP	<fs af='meM,psp,,,,,,' posn='50' drel='lwg__psp:maMwrAlaya' chunkType='child:NP2' name='meM'>
6	BArawIya	NNPC	<fs af='BArawIya,adj,any,any,,o,,' posn='270' drel='pof__cn:deska' chunkType='child:NP3' name='BArawIya'>
7	deska	NNP	<fs af='deska,n,f,sg,3,o,0_kA,0' drel='r6:nixeSaka' posn='70' vpos='vib_3' name='deska' chunkId='NP3' chunkType='head:NP3'>
8	ke	PSP	<fs af='kA,psp,m,sg,,o,,' posn='80' drel='lwg__psp:deska' chunkType='child:NP3' name='ke2'>
9	nixeSaka	NN	<fs af='nixeSaka,n,m,sg,3,o,0,0' drel='nmod:jaMjuA' posn='90' name='nixeSaka' chunkId='NP4' chunkType='head:NP4'>
10	jahIra	NNPC	<fs af='jahIra,n,m,sg,3,d,0,0' posn='100' drel='pof__cn:jaMjuA' chunkType='child:NP5' name='jahIra'>
11	e.	NNPC	<fs af='e.,n,m,sg,3,d,0,0' posn='110' drel='pof__cn:jaMjuA' chunkType='child:NP5' name='e.'>
12	jaMjuA	NNP	<fs af='jaMjuA,n,m,sg,3,o,0_ne,0' drel='k1:sOMpI' posn='120' vpos='vib_4' name='jaMjuA' chunkId='NP5' chunkType='head:NP5'>
13	ne	PSP	<fs af='ne,psp,,,,,,' posn='130' drel='lwg__psp:jaMjuA' chunkType='child:NP5' name='ne'>
14	pAkiswAna	NNP	<fs af='pAkiswAna,n,m,sg,3,o,0_kA,0' drel='r6:prawiRTAnoM' posn='140' vpos='vib_2' name='pAkiswAna2' chunkId='NP6' chunkType='head:NP6'>
15	ke	PSP	<fs af='kA,psp,m,pl,,o,,' posn='150' drel='lwg__psp:pAkiswAna2' chunkType='child:NP6' name='ke3'>
16	paramANu	NNC	<fs af='paramANu,n,m,sg,3,d,0,0' posn='160' drel='pof__cn:prawiRTAnoM' chunkType='child:NP7' name='paramANu'>
17	prawiRTAnoM	NN	<fs af='prawiRTAna,n,m,pl,3,o,0,0' drel='ccof:va' posn='170' name='prawiRTAnoM' chunkId='NP7' chunkType='head:NP7'>
18	va	CC	<fs af='va,avy,,,,,,' drel='r6:sUcI' posn='180' name='va' chunkId='CCP' chunkType='head:CCP'>
19	TikAnoM	NN	<fs af='TikAnA,n,m,pl,3,o,0_kA,0' drel='ccof:va' posn='190' vpos='vib_2' name='TikAnoM' chunkId='NP8' chunkType='head:NP8'>
20	kI	PSP	<fs af='kA,psp,f,sg,,o,,' posn='200' drel='lwg__psp:TikAnoM' chunkType='child:NP8' name='kI'>
21	sUcI	NN	<fs af='sUcI,n,f,sg,3,d,0,0' drel='k2:sOMpI' posn='210' name='sUcI' chunkId='NP9' chunkType='head:NP9'>
22	islAmAbAxa	NNP	<fs af='islAmAbAxa,n,m,sg,3,o,0_meM,0' drel='k7p:sOMpI' posn='220' vpos='vib_2' name='islAmAbAxa' chunkId='NP10' chunkType='head:NP10'>
23	meM	PSP	<fs af='meM,psp,,,,,,' posn='230' drel='lwg__psp:islAmAbAxa' chunkType='child:NP10' name='meM2'>
24	BArawIya	JJ	<fs af='BArawIya,adj,any,any,,o,,' posn='270' drel='nmod__adj:uccAyoga' chunkType='child:NP11' name='BArawIya2'>
25	uccAyoga	NN	<fs af='uccAyoga,n,m,sg,3,o,0_kA,0' drel='r6:saciva' posn='250' vpos='vib_3' name='uccAyoga' chunkId='NP11' chunkType='head:NP11'>
26	ke	PSP	<fs af='kA,psp,m,sg,,o,,' posn='260' drel='lwg__psp:uccAyoga' chunkType='child:NP11' name='ke4'>
27	praWama	QO	<fs af='praWama,num,any,any,,any,,' posn='270' drel='nmod__adj:saciva' chunkType='child:NP12' name='praWama'>
28	rAjanIwika	JJ	<fs af='rAjanIwika,adj,any,any,,o,,' posn='270' drel='nmod__adj:saciva' chunkType='child:NP12' name='rAjanIwika'>
29	saciva	NN	<fs af='saciva,n,m,sg,3,o,0,0' drel='nmod:jOYrja' posn='290' name='saciva' chunkId='NP12' chunkType='head:NP12'>
30	sibI	NNPC	<fs af='sibI,n,m,sg,3,d,0,0' posn='300' drel='pof__cn:jOYrja' chunkType='child:NP13' name='sibI'>
31	jOYrja	NNP	<fs af='jOYrja,n,m,sg,3,o,0_ko,0' drel='k4:sOMpI' posn='310' vpos='vib_3' name='jOYrja' chunkId='NP13' chunkType='head:NP13'>
32	ko	PSP	<fs af='ko,psp,,,,,,' posn='320' drel='lwg__psp:jOYrja' chunkType='child:NP13' name='ko'>
33	sOMpI	VM	<fs af='sOMpa,v,f,sg,any,,yA,yA' stype='declarative' posn='330' voicetype='active' name='sOMpI' chunkId='VGF' chunkType='head:VGF'>
34	.	SYM	<fs af='.,punc,,,,,,' drel='rsym:sOMpI' posn='340' name='.' chunkId='BLK' chunkType='head:BLK'>
</Sentence>


<Sentence id="7">
1	naI	NNPC	<fs af='nayA,n,f,sg,3,d,0,0' posn='10' drel='pof__cn:xillI' chunkType='child:NP' name='naI'>
2	xillI	NNP	<fs af='xillI,n,f,sg,3,o,0_meM,0' drel='k7p:sOMpI' posn='20' vpos='vib_3' name='xillI' chunkId='NP' chunkType='head:NP'>
3	meM	PSP	<fs af='meM,psp,,,,,,' posn='30' drel='lwg__psp:xillI' chunkType='child:NP' name='meM'>
4	BArawa	NNP	<fs af='BArawa,n,m,sg,3,o,0_kA_waraPa_se,0' drel='rd:sOMpI' posn='40' vpos='vib_2_3_4' name='BArawa' chunkId='NP2' chunkType='head:NP2'>
5	kI	PSP	<fs af='kA,psp,f,sg,,o,,' posn='50' drel='lwg__psp:BArawa' chunkType='child:NP2' name='kI'>
6	waraPa	NST	<fs af='waraPa,nst,f,sg,3,o,,' posn='60' drel='lwg__psp:BArawa' chunkType='child:NP2' name='waraPa'>
7	se	PSP	<fs af='se,psp,,,,,,' posn='70' drel='lwg__psp:BArawa' chunkType='child:NP2' name='se'>
8	vixeSa	NNPC	<fs af='vixeSa,n,m,sg,3,d,0,0' posn='80' drel='pof__cn:maMwrAlaya' chunkType='child:NP3' name='vixeSa'>
9	maMwrAlaya	NNP	<fs af='maMwrAlaya,n,m,sg,3,o,0_meM,0' drel='k7:sOMpI' posn='90' vpos='vib_3' name='maMwrAlaya' chunkId='NP3' chunkType='head:NP3'>
10	meM	PSP	<fs af='meM,psp,,,,,,' posn='100' drel='lwg__psp:maMwrAlaya' chunkType='child:NP3' name='meM2'>
11	pAka	JJ	<fs af='pAka,adj,any,any,,o,,' posn='270' drel='nmod__adj:uccAyoga' chunkType='child:NP4' name='pAka'>
12	uccAyoga	NN	<fs af='uccAyoga,n,m,sg,3,o,0_kA,0' drel='r6:saciva' posn='120' vpos='vib_3' name='uccAyoga' chunkId='NP4' chunkType='head:NP4'>
13	ke	PSP	<fs af='kA,psp,m,sg,,o,,' posn='130' drel='lwg__psp:uccAyoga' chunkType='child:NP4' name='ke'>
14	praWama	QO	<fs af='praWama,num,any,any,,any,,' posn='140' drel='nmod__adj:saciva' chunkType='child:NP5' name='praWama'>
15	saciva	NN	<fs af='saciva,n,m,sg,3,o,0,0' drel='nmod:jamAlI' posn='150' name='saciva' chunkId='NP5' chunkType='head:NP5'>
16	KAlixa	NNPC	<fs af='KAlixa,n,m,sg,3,d,0,0' posn='160' drel='pof__cn:jamAlI' chunkType='child:NP6' name='KAlixa'>
17	jamAlI	NNP	<fs af='jamAlI,n,m,sg,3,o,0_ko,0' drel='k4:sOMpI' posn='170' vpos='vib_3' name='jamAlI' chunkId='NP6' chunkType='head:NP6'>
18	ko	PSP	<fs af='ko,psp,,,,,,' posn='180' drel='lwg__psp:jamAlI' chunkType='child:NP6' name='ko'>
19	sUcI	NN	<fs af='sUcI,n,f,sg,3,d,0,0' drel='k2:sOMpI' posn='190' name='sUcI' chunkId='NP7' chunkType='head:NP7'>
20	sOMpI	VM	<fs af='sOMpa,v,f,sg,any,,yA_jA+yA1,yA' stype='declarative' posn='200' voicetype='passive' vpos='tam_2' name='sOMpI' chunkId='VGF' chunkType='head:VGF'>
21	gaI	VAUX	<fs af='jA,v,f,sg,any,,yA1,yA1' posn='210' drel='lwg__vaux:sOMpI' chunkType='child:VGF' name='gaI'>
22	.	SYM	<fs af='.,punc,,,,,,' drel='rsym:sOMpI' posn='220' name='.' chunkId='BLK' chunkType='head:BLK'>
</Sentence>


<Sentence id="8">
1	vakwavya	NN	<fs af='vakwavya,n,m,sg,3,o,0_meM,0' drel='k7:bawAyA' posn='10' vpos='vib_2' name='vakwavya' chunkId='NP' chunkType='head:NP'>
2	meM	PSP	<fs af='meM,psp,,,,,,' posn='20' drel='lwg__psp:vakwavya' chunkType='child:NP' name='meM'>
3	yaha	PRP	<fs af='yaha,pn,any,sg,3,d,0,0' drel='k2:bawAyA' posn='30' name='yaha' chunkId='NP2' chunkType='head:NP2'>
4	nahIM	NEG	<fs af='nahIM,avy,,,,,,' posn='40' drel='lwg__neg:bawAyA' chunkType='child:VGF' name='nahIM'>
5	bawAyA	VM	<fs af='bawA,v,m,sg,3,,yA_jA+yA1_hE,yA' stype='declarative' posn='50' voicetype='passive' vpos='tam_3_4' name='bawAyA' chunkId='VGF' chunkType='head:VGF'>
6	gayA	VAUX	<fs af='jA,v,m,sg,any,,yA1,yA1' posn='60' drel='lwg__vaux:bawAyA' chunkType='child:VGF' name='gayA'>
7	hE	VAUX	<fs af='hE,v,any,sg,3,,hE,hE' posn='70' drel='lwg__vaux:bawAyA' chunkType='child:VGF' name='hE'>
8	ki	CC	<fs af='ki,avy,,,,,,' drel='rs:yaha' posn='80' name='ki' chunkId='CCP' chunkType='head:CCP'>
9	sUciyoM	NN	<fs af='sUcI,n,f,pl,3,o,0_meM,0' drel='k7:hE2' posn='90' vpos='vib_2' name='sUciyoM' chunkId='NP3' chunkType='head:NP3'>
10	meM	PSP	<fs af='meM,psp,,,,,,' posn='100' drel='lwg__psp:sUciyoM' chunkType='child:NP3' name='meM2'>
11	kina	WQ	<fs af='kOna,pn,any,pl,3,o,,' drel='nmod:prawiRTAnoM' posn='110' name='kina' chunkId='NP4' chunkType='head:NP4'>
12	prawiRTAnoM	NN	<fs af='prawiRTAna,n,m,pl,3,o,0_kA,0' drel='r6:jikra' posn='120' vpos='vib_2' name='prawiRTAnoM' chunkId='NP5' chunkType='head:NP5'>
13	kA	PSP	<fs af='kA,psp,m,sg,,d,,' posn='130' drel='lwg__psp:prawiRTAnoM' chunkType='child:NP5' name='kA'>
14	jikra	NN	<fs af='jikra,n,m,sg,3,d,0,0' drel='k1:hE2' posn='140' name='jikra' chunkId='NP6' chunkType='head:NP6'>
15	hE	VM	<fs af='hE,v,any,sg,3,,hE,hE' drel='ccof:ki' stype='declarative' posn='150' voicetype='active' name='hE2' chunkId='VGF2' chunkType='head:VGF2'>
16	.	SYM	<fs af='.,punc,,,,,,' drel='rsym:bawAyA' posn='160' name='.' chunkId='BLK' chunkType='head:BLK'>
</Sentence>


<Sentence id="9">
1	sAmAnyawaH	RB	<fs af='sAmAnyawaH,adv,,,,,,' drel='sent-adv:kiyA' posn='10' name='sAmAnyawaH' chunkId='RBP' chunkType='head:RBP'>
2	sUcI	NN	<fs af='sUcI,n,f,sg,3,o,0_meM,0' drel='k7:kiyA' posn='20' vpos='vib_2' name='sUcI' chunkId='NP' chunkType='head:NP'>
3	meM	PSP	<fs af='meM,psp,,,,,,' posn='30' drel='lwg__psp:sUcI' chunkType='child:NP' name='meM'>
4	nAgarika	NNC	<fs af='nAgarika,n,m,sg,3,d,0,0' posn='40' drel='pof__cn:saMyaMwroM' chunkType='child:NP2' name='nAgarika'>
5	paramANu	NNC	<fs af='paramANu,n,m,sg,3,d,0,0' posn='50' drel='pof__cn:saMyaMwroM' chunkType='child:NP2' name='paramANu'>
6	bijalI	NNC	<fs af='bijalI,n,f,sg,3,d,0,0' posn='60' drel='pof__cn:saMyaMwroM' chunkType='child:NP2' name='bijalI'>
7	saMyaMwroM	NN	<fs af='saMyaMwra,n,m,pl,3,o,0_ko,0' drel='k2:kiyA' posn='70' vpos='vib_5' name='saMyaMwroM' chunkId='NP2' chunkType='head:NP2'>
8	ko	PSP	<fs af='ko,psp,,,,,,' posn='80' drel='lwg__psp:saMyaMwroM' chunkType='child:NP2' name='ko'>
9	SAmila	JJ	<fs af='SAmila,adj,any,any,,,,' drel='pof:kiyA' posn='90' name='SAmila' chunkId='JJP' chunkType='head:JJP'>
10	kiyA	VM	<fs af='kara,v,m,sg,3,,yA_jA+wA_hE,yA' drel='ccof:va' stype='declarative' posn='100' voicetype='passive' vpos='tam_2_3' name='kiyA' chunkId='VGF' chunkType='head:VGF'>
11	jAwA	VAUX	<fs af='jA,v,m,sg,any,,wA,wA' posn='110' drel='lwg__vaux:kiyA' chunkType='child:VGF' name='jAwA'>
12	hE	VAUX	<fs af='hE,v,any,sg,3,,hE,hE' posn='120' drel='lwg__vaux:kiyA' chunkType='child:VGF' name='hE'>
13	va	CC	<fs af='va,avy,,,,,,' posn='130' name='va' chunkId='CCP' chunkType='head:CCP'>
14	inakI	PRP	<fs af='yaha,pn,f,pl,3,o,kA,kA' drel='r6:sWiwi' posn='140' name='inakI' chunkId='NP3' chunkType='head:NP3'>
15	BOgolika	JJ	<fs af='BOgolika,adj,any,any,,o,,' posn='150' drel='nmod__adj:sWiwi' chunkType='child:NP4' name='BOgolika'>
16	sWiwi	NN	<fs af='sWiwi,n,f,sg,3,o,0_kA,0' drel='r6:jAnakArI' posn='160' vpos='vib_3' name='sWiwi' chunkId='NP4' chunkType='head:NP4'>
17	kI	PSP	<fs af='kA,psp,f,sg,,d,,' posn='170' drel='lwg__psp:sWiwi' chunkType='child:NP4' name='kI'>
18	sahI	JJ	<fs af='sahI,adj,any,any,,d,,' posn='180' drel='nmod__adj:jAnakArI' chunkType='child:NP5' name='sahI'>
19	jAnakArI	NN	<fs af='jAnakArI,n,f,sg,3,d,0,0' drel='k2:xI' posn='190' name='jAnakArI' chunkId='NP5' chunkType='head:NP5'>
20	xI	VM	<fs af='xe,v,f,sg,3,,yA_jA+wA_hE,yA' drel='ccof:va' stype='declarative' posn='200' voicetype='passive' vpos='tam_2_3' name='xI' chunkId='VGF2' chunkType='head:VGF2'>
21	jAwI	VAUX	<fs af='jA,v,f,sg,any,,wA,wA' posn='210' drel='lwg__vaux:xI' chunkType='child:VGF2' name='jAwI'>
22	hE	VAUX	<fs af='hE,v,any,sg,3,,hE,hE' posn='220' drel='lwg__vaux:xI' chunkType='child:VGF2' name='hE2'>
23	.	SYM	<fs af='.,punc,,,,,,' drel='rsym:va' posn='230' name='.' chunkId='BLK' chunkType='head:BLK'>
</Sentence>


<Sentence id="10">
1	nae	JJ	<fs af='nayA,adj,m,sg,,o,,' posn='10' drel='nmod__adj:varRa' chunkType='child:NP' name='nae'>
2	varRa	NN	<fs af='varRa,n,m,sg,3,o,0_meM,0' drel='k7t:Kolane' posn='20' vpos='vib_3' name='varRa' chunkId='NP' chunkType='head:NP'>
3	meM	PSP	<fs af='meM,psp,,,,,,' posn='30' drel='lwg__psp:varRa' chunkType='child:NP' name='meM'>
4	karAcI	NNP	<fs af='karAcI,n,m,sg,3,o,0,0' drel='ccof:va' posn='40' name='karAcI' chunkId='NP2' chunkType='head:NP2'>
5	va	CC	<fs af='va,avy,,,,,,' drel='k7p:Kolane' posn='50' name='va' chunkId='CCP' chunkType='head:CCP'>
6	muMbaI	NNP	<fs af='muMbaI,n,f,sg,3,o,0_meM,0' drel='ccof:va' posn='60' vpos='vib_2' name='muMbaI' chunkId='NP3' chunkType='head:NP3'>
7	meM	PSP	<fs af='meM,psp,,,,,,' posn='70' drel='lwg__psp:muMbaI' chunkType='child:NP3' name='meM2'>
8	kramaSaH	RB	<fs af='kramaSaH,adv,,,,,,' drel='adv:Kolane' posn='80' name='kramaSaH' chunkId='RBP' chunkType='head:RBP'>
9	BArawa	NNP	<fs af='BArawa,n,m,sg,3,o,0,0' drel='ccof:va2' posn='90' name='BArawa' chunkId='NP4' chunkType='head:NP4'>
10	va	CC	<fs af='va,avy,,,,,,' drel='r6:kAryAlaya' posn='100' name='va2' chunkId='CCP2' chunkType='head:CCP2'>
11	pAkiswAna	NNP	<fs af='pAkiswAna,n,m,sg,3,o,0_kA,0' drel='ccof:va2' posn='110' vpos='vib_2' name='pAkiswAna' chunkId='NP5' chunkType='head:NP5'>
12	ke	PSP	<fs af='kA,psp,m,sg,,o,,' posn='120' drel='lwg__psp:pAkiswAna' chunkType='child:NP5' name='ke'>
13	vIjA	NNC	<fs af='vIjA,n,m,sg,3,d,0,0' posn='130' drel='pof__cn:kAryAlaya' chunkType='child:NP6' name='vIjA'>
14	kAryAlaya	NN	<fs af='kAryAlaya,n,m,pl,3,d,0,0' drel='k2:Kolane' posn='140' name='kAryAlaya' chunkId='NP6' chunkType='head:NP6'>
15	Kolane	VM	<fs af='Kola,v,any,sg,any,o,nA_kA,nA' drel='r6:yojanA' posn='150' vpos='tam_2' name='Kolane' chunkId='VGNN' chunkType='head:VGNN'>
16	kI	PSP	<fs af='kA,psp,f,sg,,o,,' posn='160' drel='lwg__psp:Kolane' chunkType='child:VGNN' name='kI'>
17	bahuprawIkRiwa	JJ	<fs af='bahuprawIkRiwa,adj,any,any,,o,,' posn='170' drel='nmod__adj:yojanA' chunkType='child:NP7' name='bahuprawIkRiwa'>
18	yojanA	NN	<fs af='yojanA,n,f,sg,3,o,0_meM,0' drel='k7:ho' posn='180' vpos='vib_3' name='yojanA' chunkId='NP7' chunkType='head:NP7'>
19	meM	PSP	<fs af='meM,psp,,,,,,' posn='190' drel='lwg__psp:yojanA' chunkType='child:NP7' name='meM3'>
20	vilaMba	NN	<fs af='vilaMba,n,m,sg,3,d,0,0' drel='pof:ho' posn='200' name='vilaMba' chunkId='NP8' chunkType='head:NP8'>
21	ho	VM	<fs af='ho,v,m,sg,3,,0_jA+yA1_hE,0' stype='declarative' posn='210' voicetype='passive' vpos='tam_2_3' name='ho' chunkId='VGF' chunkType='head:VGF'>
22	gayA	VAUX	<fs af='jA,v,m,sg,any,,yA1,yA1' posn='220' drel='lwg__vaux:ho' chunkType='child:VGF' name='gayA'>
23	hE	VAUX	<fs af='hE,v,any,sg,3,,hE,hE' posn='230' drel='lwg__vaux:ho' chunkType='child:VGF' name='hE'>
24	.	SYM	<fs af='.,punc,,,,,,' drel='rsym:ho' posn='240' name='.' chunkId='BLK' chunkType='head:BLK'>
</Sentence>


<Sentence id="11">
1	piCale	JJ	<fs af='piCalA,adj,m,sg,,o,,' posn='10' drel='nmod__adj:varRa' chunkType='child:NP' name='piCale'>
2	varRa	NN	<fs af='varRa,n,m,sg,3,o,0,0' drel='k7t:jawAI' posn='20' name='varRa' chunkId='NP' chunkType='head:NP'>
3	aprEla	NNP	<fs af='aprEla,n,m,sg,3,o,0_meM,0' drel='k7t:jawAI' posn='30' vpos='vib_2' name='aprEla' chunkId='NP2' chunkType='head:NP2'>
4	meM	PSP	<fs af='meM,psp,,,,,,' posn='40' drel='lwg__psp:aprEla' chunkType='child:NP2' name='meM'>
5	pAkiswAna	NNP	<fs af='pAkiswAna,n,m,sg,3,o,0_kA,0' drel='r6:rARtrapawi' posn='50' vpos='vib_2' name='pAkiswAna' chunkId='NP3' chunkType='head:NP3'>
6	ke	PSP	<fs af='kA,psp,m,sg,,o,,' posn='60' drel='lwg__psp:pAkiswAna' chunkType='child:NP3' name='ke'>
7	rARtrapawi	NNP	<fs af='rARtrapawi,n,m,sg,3,o,0,0' drel='nmod:muSarraPa' posn='70' name='rARtrapawi' chunkId='NP4' chunkType='head:NP4'>
8	paraveja	NNPC	<fs af='paraveja,n,m,sg,3,d,0,0' posn='80' drel='pof__cn:muSarraPa' chunkType='child:NP5' name='paraveja'>
9	muSarraPa	NNP	<fs af='muSarraPa,n,m,sg,3,o,0_kA,0' drel='r6:yAwrA' posn='90' vpos='vib_3' name='muSarraPa' chunkId='NP5' chunkType='head:NP5'>
10	kI	PSP	<fs af='kA,psp,f,sg,,o,,' posn='100' drel='lwg__psp:muSarraPa' chunkType='child:NP5' name='kI'>
11	BArawa	NNP	<fs af='BArawa,n,m,sg,3,d,0,0' posn='110' drel='nmod__adj:yAwrA' chunkType='child:NP6' name='BArawa'>
12	yAwrA	NN	<fs af='yAwrA,n,f,sg,3,o,0_ke_xOrAna,0' drel='jjmod:jArI' posn='120' vpos='vib_vib_3_4' name='yAwrA' chunkId='NP6' chunkType='head:NP6'>
13	ke	PSP	<fs af='ke,psp,,,,,,' posn='130' drel='lwg__psp:yAwrA' chunkType='child:NP6' name='ke2'>
14	xOrAna	NST	<fs af='xOrAna,nst,m,sg,3,d,,' posn='140' drel='lwg__psp:yAwrA' chunkType='child:NP6' name='xOrAna'>
15	jArI	JJ	<fs af='jArI,adj,any,any,,o,,' drel='nmod:vakwavya' posn='150' name='jArI' chunkId='JJP' chunkType='head:JJP'>
16	saMyukwa	JJ	<fs af='saMyukwa,adj,any,any,,o,,' posn='160' drel='nmod__adj:vakwavya' chunkType='child:NP7' name='saMyukwa'>
17	vakwavya	NN	<fs af='vakwavya,n,m,sg,3,o,0_meM,0' drel='k7:jawAI' posn='170' vpos='vib_3' name='vakwavya' chunkId='NP7' chunkType='head:NP7'>
18	meM	PSP	<fs af='meM,psp,,,,,,' posn='180' drel='lwg__psp:vakwavya' chunkType='child:NP7' name='meM2'>
19	xonoM	QC	<fs af='xo,num,m,any,,any,,' posn='190' drel='nmod__adj:xeSoM' chunkType='child:NP8' name='xonoM'>
20	xeSoM	NN	<fs af='xeSa,n,m,pl,3,o,0_ne,0' drel='k1:jawAI' posn='200' vpos='vib_3' name='xeSoM' chunkId='NP8' chunkType='head:NP8'>
21	ne	PSP	<fs af='ne,psp,,,,,,' posn='210' drel='lwg__psp:xeSoM' chunkType='child:NP8' name='ne'>
22	nava	JJ	<fs af='nava,adj,any,any,,o,,' posn='220' drel='nmod__adj:varRa2' chunkType='child:NP9' name='nava'>
23	varRa	NN	<fs af='varRa,n,m,sg,3,o,0_kA,0' drel='r6:avasara' posn='230' vpos='vib_3' name='varRa2' chunkId='NP9' chunkType='head:NP9'>
24	ke	PSP	<fs af='kA,psp,m,sg,,o,,' posn='240' drel='lwg__psp:varRa2' chunkType='child:NP9' name='ke3'>
25	avasara	NN	<fs af='avasara,n,m,sg,3,o,0_para,0' drel='k7:jawAI' posn='250' vpos='vib_2' name='avasara' chunkId='NP10' chunkType='head:NP10'>
26	para	PSP	<fs af='para,psp,,,,,,' posn='260' drel='lwg__psp:avasara' chunkType='child:NP10' name='para'>
27	vIjA	NNC	<fs af='vIjA,n,m,sg,3,d,0,0' posn='270' drel='pof__cn:kAryAlaya' chunkType='child:NP11' name='vIjA'>
28	kAryAlaya	NN	<fs af='kAryAlaya,n,m,sg,3,d,0,0' drel='k2:Kolane' posn='280' name='kAryAlaya' chunkId='NP11' chunkType='head:NP11'>
29	Kolane	VM	<fs af='Kola,v,any,sg,any,o,nA_kA,nA' drel='r6:praswAva' posn='290' vpos='tam_2' name='Kolane' chunkId='VGNN' chunkType='head:VGNN'>
30	ke	PSP	<fs af='kA,psp,m,sg,,o,,' posn='300' drel='lwg__psp:Kolane' chunkType='child:VGNN' name='ke4'>
31	praswAva	NN	<fs af='praswAva,n,m,sg,3,o,0_para,0' drel='k7:jawAI' posn='310' vpos='vib_2' name='praswAva' chunkId='NP12' chunkType='head:NP12'>
32	para	PSP	<fs af='para,psp,,,,,,' posn='320' drel='lwg__psp:praswAva' chunkType='child:NP12' name='para2'>
33	sahamawi	NN	<fs af='sahamawi,n,f,sg,3,d,0,0' drel='pof:jawAI' posn='330' name='sahamawi' chunkId='NP13' chunkType='head:NP13'>
34	jawAI	VM	<fs af='jawA,v,f,sg,any,,yA_WA,yA' stype='declarative' posn='340' voicetype='active' vpos='tam_2' name='jawAI' chunkId='VGF' chunkType='head:VGF'>
35	WI	VAUX	<fs af='WA,v,f,sg,any,,WA,WA' posn='350' drel='lwg__vaux:jawAI' chunkType='child:VGF' name='WI'>
36	.	SYM	<fs af='.,punc,,,,,,' drel='rsym:jawAI' posn='360' name='.' chunkId='BLK' chunkType='head:BLK'>
</Sentence>


<Sentence id="12">
1	karAcI	NNP	<fs af='karAcI,n,m,sg,3,d,0,0' drel='ccof:va' posn='10' name='karAcI' chunkId='NP' chunkType='head:NP'>
2	va	CC	<fs af='va,avy,,,,,,' drel='k7p:Kolane' posn='20' name='va' chunkId='CCP' chunkType='head:CCP'>
3	muMbaI	NNP	<fs af='muMbaI,n,f,sg,3,o,0_meM,0' drel='ccof:va' posn='30' vpos='vib_2' name='muMbaI' chunkId='NP2' chunkType='head:NP2'>
4	meM	PSP	<fs af='meM,psp,,,,,,' posn='40' drel='lwg__psp:muMbaI' chunkType='child:NP2' name='meM'>
5	vIjA	NNC	<fs af='vIjA,n,m,sg,3,d,0,0' posn='50' drel='pof__cn:kAryAlaya' chunkType='child:NP3' name='vIjA'>
6	kAryAlaya	NN	<fs af='kAryAlaya,n,m,sg,3,d,0,0' drel='k2:Kolane' posn='60' name='kAryAlaya' chunkId='NP3' chunkType='head:NP3'>
7	Kolane	VM	<fs af='Kola,v,any,any,any,o,nA_meM,nA' drel='k7:hE' posn='70' vpos='tam_2' name='Kolane' chunkId='VGNN' chunkType='head:VGNN'>
8	meM	PSP	<fs af='meM,psp,,,,,,' posn='80' drel='lwg__psp:Kolane' chunkType='child:VGNN' name='meM2'>
9	vilaMba	NN	<fs af='vilaMba,n,m,sg,3,o,0_kA,0' drel='r6:vajaha' posn='90' vpos='vib_2' name='vilaMba' chunkId='NP4' chunkType='head:NP4'>
10	kI	PSP	<fs af='kA,psp,f,sg,,d,,' posn='100' drel='lwg__psp:vilaMba' chunkType='child:NP4' name='kI'>
11	vajaha	NN	<fs af='vajaha,n,f,sg,3,d,0,0' drel='k1:hE' posn='110' name='vajaha' chunkId='NP5' chunkType='head:NP5'>
12	yaha	PRP	<fs af='yaha,pn,any,sg,3,d,0,0' drel='k1s:hE' posn='120' name='yaha' chunkId='NP6' chunkType='head:NP6'>
13	hE	VM	<fs af='hE,v,any,sg,3,,hE,hE' stype='declarative' posn='130' voicetype='active' name='hE' chunkId='VGF' chunkType='head:VGF'>
14	ki	CC	<fs af='ki,avy,,,,,,' drel='rs:yaha' posn='140' name='ki' chunkId='CCP2' chunkType='head:CCP2'>
15	pAkiswAna	NNP	<fs af='pAkiswAna,n,m,sg,3,d,0,0' drel='k1:rahA' posn='150' name='pAkiswAna' chunkId='NP7' chunkType='head:NP7'>
16	aBI	PRP	<fs af='aBI,pn,,,,o,0_waka,' drel='k7t:rahA' posn='160' vpos='vib_2' name='aBI' chunkId='NP8' chunkType='head:NP8'>
17	waka	PSP	<fs af='waka,psp,,,,,,' posn='170' drel='lwg__psp:aBI' chunkType='child:NP8' name='waka'>
18	apane	PRP	<fs af='apanA,pn,m,any,any,o,0,0' drel='r6:kAryAlaya2' posn='180' name='apane' chunkId='NP9' chunkType='head:NP9'>
19	asWAyI	JJ	<fs af='asWAyI,adj,any,any,,o,,' posn='190' drel='nmod__adj:kAryAlaya2' chunkType='child:NP10' name='asWAyI'>
20	kAryAlaya	NN	<fs af='kAryAlaya,n,m,sg,3,o,0_ko,0' drel='k2:karane' posn='200' vpos='vib_3' name='kAryAlaya2' chunkId='NP10' chunkType='head:NP10'>
21	ko	PSP	<fs af='ko,psp,,,,,,' posn='210' drel='lwg__psp:kAryAlaya2' chunkType='child:NP10' name='ko'>
22	wEyAra	JJ	<fs af='wEyAra,adj,any,any,,,,' drel='pof:karane' posn='220' name='wEyAra' chunkId='JJP' chunkType='head:JJP'>
23	karane	VM	<fs af='kara,v,any,any,any,o,nA_meM,nA' drel='k7:rahA' posn='230' vpos='tam_2' name='karane' chunkId='VGNN2' chunkType='head:VGNN2'>
24	meM	PSP	<fs af='meM,psp,,,,,,' posn='240' drel='lwg__psp:karane' chunkType='child:VGNN2' name='meM3'>
25	saPala	JJ	<fs af='saPala,adj,any,any,,,,' drel='k1s:rahA' posn='250' name='saPala' chunkId='JJP2' chunkType='head:JJP2'>
26	nahIM	NEG	<fs af='nahIM,avy,,,,,,' posn='260' drel='lwg__neg:rahA' chunkType='child:VGF2' name='nahIM'>
27	rahA	VM	<fs af='raha,v,m,sg,3,,yA_hE,yA' drel='ccof:jabaki' stype='declarative' posn='270' voicetype='active' vpos='tam_3' name='rahA' chunkId='VGF2' chunkType='head:VGF2'>
28	hE	VAUX	<fs af='hE,v,any,sg,3,,hE,hE' posn='280' drel='lwg__vaux:rahA' chunkType='child:VGF2' name='hE2'>
29	,	SYM	<fs af='COMMA,punc,,,,,,' posn='290' drel='rsym:rahA' chunkType='child:VGF2' name=','>
30	jabaki	CC	<fs af='jabaki,avy,,,,,,' drel='ccof:ki' posn='300' name='jabaki' chunkId='CCP3' chunkType='head:CCP3'>
31	BArawa	NNP	<fs af='BArawa,n,m,sg,3,o,0_ne,0' drel='k1:kara' posn='310' vpos='vib_2' name='BArawa' chunkId='NP11' chunkType='head:NP11'>
32	ne	PSP	<fs af='ne,psp,,,,,,' posn='320' drel='lwg__psp:BArawa' chunkType='child:NP11' name='ne'>
33	apane	PRP	<fs af='apanA,pn,m,any,any,o,0,0' drel='r6:Bavana' posn='330' name='apane2' chunkId='NP12' chunkType='head:NP12'>
34	Bavana	NN	<fs af='Bavana,n,m,sg,3,o,0_kA,0' drel='r6:kArya' posn='340' vpos='vib_2' name='Bavana' chunkId='NP13' chunkType='head:NP13'>
35	kA	PSP	<fs af='kA,psp,m,sg,,d,,' posn='350' drel='lwg__psp:Bavana' chunkType='child:NP13' name='kA'>
36	marammawa	NNC	<fs af='marammawa,n,f,sg,3,d,0,0' posn='360' drel='pof__cn:kArya' chunkType='child:NP14' name='marammawa'>
37	kArya	NN	<fs af='kArya,n,m,sg,3,d,0,0' drel='k2:kara' posn='370' name='kArya' chunkId='NP14' chunkType='head:NP14'>
38	pUrA	JJ	<fs af='pUrA,adj,m,sg,,d,,' drel='pof:kara' posn='380' name='pUrA' chunkId='JJP3' chunkType='head:JJP3'>
39	kara	VM	<fs af='kara,v,m,sg,3,,0_le+yA_hE,0' drel='ccof:Ora' stype='declarative' posn='390' voicetype='active' vpos='tam_2_3' name='kara' chunkId='VGF3' chunkType='head:VGF3'>
40	liyA	VAUX	<fs af='le,v,m,sg,any,,yA,yA' posn='400' drel='lwg__vaux:kara' chunkType='child:VGF3' name='liyA'>
41	hE	VAUX	<fs af='hE,v,any,sg,3,,hE,hE' posn='410' drel='lwg__vaux:kara' chunkType='child:VGF3' name='hE3'>
42	Ora	CC	<fs af='Ora,avy,,,,,,' drel='ccof:jabaki' posn='420' name='Ora' chunkId='CCP4' chunkType='head:CCP4'>
43	vIjA	NNC	<fs af='vIjA,n,m,sg,3,d,0,0' posn='430' drel='pof__cn:kAryAlaya3' chunkType='child:NP15' name='vIjA2'>
44	kAryAlaya	NN	<fs af='kAryAlaya,n,m,sg,3,d,0,0' drel='k2:Kolane2' posn='440' name='kAryAlaya3' chunkId='NP15' chunkType='head:NP15'>
45	Kolane	VM	<fs af='Kola,v,any,any,any,o,nA_ke_lie,nA' drel='rt:hE4' posn='450' vpos='tam_2_3' name='Kolane2' chunkId='VGNN3' chunkType='head:VGNN3'>
46	ke	PSP	<fs af='ke,psp,,,,,,' posn='460' drel='lwg__psp:Kolane2' chunkType='child:VGNN3' name='ke'>
47	lie	PSP	<fs af='lie,psp,,,,,,' posn='470' drel='lwg__psp:Kolane2' chunkType='child:VGNN3' name='lie'>
48	use	PRP	<fs af='vaha,pn,any,sg,3,o,ko,ko' drel='k4a:hE4' posn='480' name='use' chunkId='NP16' chunkType='head:NP16'>
49	pAka	NNPC	<fs af='pAka,n,m,sg,3,d,0,0' posn='490' drel='pof__cn:sarakAra' chunkType='child:NP17' name='pAka'>
50	sarakAra	NNP	<fs af='sarakAra,n,f,sg,3,o,0_kA,0' drel='r6:ijAjawa' posn='500' vpos='vib_3' name='sarakAra' chunkId='NP17' chunkType='head:NP17'>
51	kI	PSP	<fs af='kA,psp,f,sg,,d,,' posn='510' drel='lwg__psp:sarakAra' chunkType='child:NP17' name='kI2'>
52	ijAjawa	NN	<fs af='ijAjawa,n,f,sg,3,d,0,0' drel='k1:milane' posn='520' name='ijAjawa' chunkId='NP18' chunkType='head:NP18'>
53	milane	VM	<fs af='mila,v,any,sg,any,o,nA_kA,nA' drel='r6-k2:prawIkRA' posn='530' vpos='tam_2' name='milane' chunkId='VGNN4' chunkType='head:VGNN4'>
54	kI	PSP	<fs af='kA,psp,f,sg,,d,,' posn='540' drel='lwg__psp:milane' chunkType='child:VGNN4' name='kI3'>
55	prawIkRA	NN	<fs af='prawIkRA,n,f,sg,3,d,0,0' drel='pof:hE4' posn='550' name='prawIkRA' chunkId='NP19' chunkType='head:NP19'>
56	hE	VM	<fs af='hE,v,any,sg,3,,hE,hE' drel='ccof:Ora' stype='declarative' posn='560' voicetype='active' name='hE4' chunkId='VGF4' chunkType='head:VGF4'>
57	.	SYM	<fs af='.,punc,,,,,,' drel='rsym:hE' posn='570' name='.' chunkId='BLK' chunkType='head:BLK'>
</Sentence>


<Sentence id="13">
1	samaJOwe	NN	<fs af='samaJOwA,n,m,sg,3,o,0_ke_muwAbika,0' drel='k7a:KolA' posn='10' vpos='vib_2_3' name='samaJOwe' chunkId='NP' chunkType='head:NP'>
2	ke	PSP	<fs af='ke,psp,,,,,,' posn='20' drel='lwg__psp:samaJOwe' chunkType='child:NP' name='ke'>
3	muwAbika	PSP	<fs af='muwAbika,psp,,,,,,' posn='20' drel='lwg__psp:samaJOwe' chunkType='child:NP' name='muwAbika'>
4	xonoM	QC	<fs af='xo,num,m,any,,any,,' posn='40' drel='nmod__adj:kAryAlayoM' chunkType='child:NP2' name='xonoM'>
5	vIjA	NNC	<fs af='vIjA,n,m,sg,3,d,0,0' posn='50' drel='pof__cn:kAryAlayoM' chunkType='child:NP2' name='vIjA'>
6	kAryAlayoM	NN	<fs af='kAryAlaya,n,m,pl,3,o,0_ko,0' drel='k2:KolA' posn='60' vpos='vib_4' name='kAryAlayoM' chunkId='NP2' chunkType='head:NP2'>
7	ko	PSP	<fs af='ko,psp,,,,,,' posn='70' drel='lwg__psp:kAryAlayoM' chunkType='child:NP2' name='ko'>
8	eka	QC	<fs af='eka,num,any,any,,any,,' drel='k7t:KolA' posn='80' name='eka' chunkId='NP3' chunkType='head:NP3'>
9	hI	RP	<fs af='hI,avy,,,,,,' posn='90' drel='lwg__rp:eka' chunkType='child:NP3' name='hI'>
10	sAWa	NST	<fs af='sAWa,nst,m,sg,3,d,,' posn='100' drel='lwg__psp:eka' chunkType='child:NP3' name='sAWa'>
11	KolA	VM	<fs af='Kola,v,m,sg,3,,yA_jA+nA_hE,yA' stype='declarative' posn='110' voicetype='passive' vpos='tam_2_3' name='KolA' chunkId='VGF' chunkType='head:VGF'>
12	jAnA	VAUX	<fs af='jA,v,m,sg,any,,nA,nA' posn='120' drel='lwg__vaux:KolA' chunkType='child:VGF' name='jAnA'>
13	hE	VAUX	<fs af='hE,v,any,sg,3,,hE,hE' posn='130' drel='lwg__vaux:KolA' chunkType='child:VGF' name='hE'>
14	.	SYM	<fs af='.,punc,,,,,,' drel='rsym:KolA' posn='140' name='.' chunkId='BLK' chunkType='head:BLK'>
</Sentence>


</text>
</tb>
</body>
</document>
