<document id="2499323">
<head>
<title></title>			
<caption>masajixa meM Cipe pAMca AwaMkavAxI mAre gae        pulavAmA jile meM huI vAraxAwa  pre   : SrInagara</caption>			
<language>Hindi </language>			
<author>			
<firstname></firstname>			
<middlename></middlename>			
<lastname></lastname>			
</author>			
<creation>			
<raw_corpus creation_date="" institute_name=""></raw_corpus>			
<annotated_corpus creation_date="07/16/2009" institute_name="IIIT-Hyderabad"></annotated_corpus>			
</creation>			
<domain_name>News Articles </domain_name>			
<distributor>LTRC, IIIT Hyderabad</distributor>			
<source>ISI, Kolkata</source>			
<publication>			
<place>New Delhi</place>			
<date>3/6/2004</date>			
<address>Connaught Place, New Delhi</address>			
<type>Newspaper</type>			
<publisher>			
<name>Amar Ujala</name>			
<url>http://www.amarujala.com</url>			
</publisher>			
</publication>			
<project_description>NSF Hindi/Urdu Dependency Treebanking Project</project_description>			
<availability>			
<format>CML/SSF</format>			
</availability>			
<byte_count>7297</byte_count>			
<word_count>268</word_count>			
<edition_number>1.0</edition_number>			
<encoding_description>			
<original_encoding>ISO 8859</original_encoding>			
<new_encoding>Unicode UTF8</new_encoding>			
</encoding_description>			
<bibliography></bibliography>			
<sentence_marker>.</sentence_marker>			
<normalization>No</normalization>			
<utility_name>cml_tags</utility_name>			

</head>
<body>
<tb number="1" segment="no" bullet="no">
<foreign language="select" writingsystem="LTR"> </foreign>			
<text>
<Sentence id="1">
1	jammU	NNP	<fs af='jammU,n,m,sg,3,d,0,0' posn='10' drel='nmod__adj:kaSmIra' chunkType='child:NP' name='jammU'>
2	-	SYM	<fs af='-,punc,,,,,,' posn='20' drel='rsym:kaSmIra' chunkType='child:NP' name='-'>
3	kaSmIra	NNP	<fs af='kaSmIra,n,m,sg,3,o,0_kA,0' drel='r6:jile' posn='30' vpos='vib_vib_4' name='kaSmIra' chunkId='NP' chunkType='head:NP'>
4	ke	PSP	<fs af='kA,psp,m,sg,,o,,' posn='40' drel='lwg__psp:kaSmIra' chunkType='child:NP' name='ke'>
5	pulavAmA	NNP	<fs af='pulavAmA,n,m,sg,3,d,0,0' posn='50' drel='nmod__adj:jile' chunkType='child:NP2' name='pulavAmA'>
6	jile	NN	<fs af='jilA,n,m,sg,3,o,0_meM,0' drel='k7:mAra' posn='60' vpos='vib_vib_3' name='jile' chunkId='NP2' chunkType='head:NP2'>
7	meM	PSP	<fs af='meM,psp,,,,,,' posn='70' drel='lwg__psp:jile' chunkType='child:NP2' name='meM'>
8	senA	NN	<fs af='senA,n,f,sg,3,o,0_kA,0' drel='r6:javAnoM' posn='80' vpos='vib_2' name='senA' chunkId='NP3' chunkType='head:NP3'>
9	ke	PSP	<fs af='kA,psp,m,pl,,o,,' posn='90' drel='lwg__psp:senA' chunkType='child:NP3' name='ke2'>
10	javAnoM	NN	<fs af='javAna,n,m,pl,3,o,0_ne,0' drel='k1:mAra' posn='100' vpos='vib_2' name='javAnoM' chunkId='NP4' chunkType='head:NP4'>
11	ne	PSP	<fs af='ne,psp,,,,,,' posn='110' drel='lwg__psp:javAnoM' chunkType='child:NP4' name='ne'>
12	buXavAra	NNP	<fs af='buXavAra,n,m,sg,3,o,0_ko,0' drel='k7t:mAra' posn='120' vpos='vib_2' name='buXavAra' chunkId='NP5' chunkType='head:NP5'>
13	ko	PSP	<fs af='ko,psp,,,,,,' posn='130' drel='lwg__psp:buXavAra' chunkType='child:NP5' name='ko'>
14	masjixa	NN	<fs af='masjixa,n,f,sg,3,o,0_meM,0' drel='k7p:mAra' posn='140' vpos='vib_2' name='masjixa' chunkId='NP6' chunkType='head:NP6'>
15	meM	PSP	<fs af='meM,psp,,,,,,' posn='150' drel='lwg__psp:masjixa' chunkType='child:NP6' name='meM2'>
16	SaraNa	NN	<fs af='SaraNa,n,f,sg,3,d,0,0' drel='pof:lene' posn='160' name='SaraNa' chunkId='NP7' chunkType='head:NP7'>
17	lene	VM	<fs af='le,v,any,pl,any,o,nA_vAlA,nA' drel='nmod:AwaMkiyoM' posn='170' vpos='tam_2' name='lene' chunkId='VGNN' chunkType='head:VGNN'>
18	vAle	PSP	<fs af='vAlA,psp,m,pl,,o,,' posn='180' drel='lwg__psp:lene' chunkType='child:VGNN' name='vAle'>
19	pAMca	QC	<fs af='pAMca,num,any,any,,any,,' posn='190' drel='nmod__adj:AwaMkiyoM' chunkType='child:NP8' name='pAMca'>
20	AwaMkiyoM	NN	<fs af='AwaMkI,n,m,pl,3,o,0_ko,0' drel='k2:mAra' posn='200' vpos='vib_3' name='AwaMkiyoM' chunkId='NP8' chunkType='head:NP8'>
21	ko	PSP	<fs af='ko,psp,,,,,,' posn='210' drel='lwg__psp:AwaMkiyoM' chunkType='child:NP8' name='ko2'>
22	mAra	VM	<fs af='mAra,v,any,sg,any,,0_girA+yA,0' stype='declarative' posn='220' voicetype='active' vpos='tam_2' name='mAra' chunkId='VGF' chunkType='head:VGF'>
23	girAyA	VAUX	<fs af='girA,v,m,sg,any,,yA,yA' posn='230' drel='lwg__vaux:mAra' chunkType='child:VGF' name='girAyA'>
24	.	SYM	<fs af='.,punc,,,,,,' drel='rsym:mAra' posn='240' name='.' chunkId='BLK' chunkType='head:BLK'>
</Sentence>


<Sentence id="2">
1	AwaMkiyoM	NN	<fs af='AwaMkI,n,m,pl,3,o,0_ne,0' drel='k1:le' posn='10' vpos='vib_2' name='AwaMkiyoM' chunkId='NP' chunkType='head:NP'>
2	ne	PSP	<fs af='ne,psp,,,,,,' posn='20' drel='lwg__psp:AwaMkiyoM' chunkType='child:NP' name='ne'>
3	surakRA	NNC	<fs af='surakRA,n,f,sg,3,d,0,0' posn='30' drel='pof__cn:baloM' chunkType='child:NP2' name='surakRA'>
4	baloM	NN	<fs af='bala,n,m,pl,3,o,0_ke_sAWa,0' drel='ras-k1:le' posn='40' vpos='vib_3_4' name='baloM' chunkId='NP2' chunkType='head:NP2'>
5	ke	PSP	<fs af='ke,psp,,,,,,' posn='50' drel='lwg__psp:baloM' chunkType='child:NP2' name='ke'>
6	sAWa	NST	<fs af='sAWa,nst,m,sg,3,d,,' posn='60' drel='lwg__psp:baloM' chunkType='child:NP2' name='sAWa'>
7	muTaBedZa	NN	<fs af='muTaBeda,n,f,sg,3,o,0_ke_bAxa,0' drel='k7t:le' posn='70' vpos='vib_2_3' name='muTaBedZa' chunkId='NP3' chunkType='head:NP3'>
8	ke	PSP	<fs af='ke,psp,,,,,,' posn='80' drel='lwg__psp:muTaBedZa' chunkType='child:NP3' name='ke2'>
9	bAxa	NST	<fs af='bAxa,nst,m,sg,3,d,,' posn='90' drel='lwg__psp:muTaBedZa' chunkType='child:NP3' name='bAxa'>
10	masjixa	NN	<fs af='masjixa,n,f,sg,3,o,0_meM,0' drel='k7t:le' posn='100' vpos='vib_2' name='masjixa' chunkId='NP4' chunkType='head:NP4'>
11	meM	PSP	<fs af='meM,psp,,,,,,' posn='110' drel='lwg__psp:masjixa' chunkType='child:NP4' name='meM'>
12	SaraNa	NN	<fs af='SaraNa,n,f,sg,3,d,0,0' drel='pof:le' posn='120' name='SaraNa' chunkId='NP5' chunkType='head:NP5'>
13	le	VM	<fs af='le,v,f,sg,any,,0_le+yA_WA,0' stype='declarative' posn='130' voicetype='active' vpos='tam_2_3' name='le' chunkId='VGF' chunkType='head:VGF'>
14	lI	VAUX	<fs af='le,v,f,sg,any,,yA,yA' posn='140' drel='lwg__vaux:le' chunkType='child:VGF' name='lI'>
15	WI	VAUX	<fs af='WA,v,f,sg,any,,WA,WA' posn='150' drel='lwg__vaux:le' chunkType='child:VGF' name='WI'>
16	.	SYM	<fs af='.,punc,,,,,,' drel='rsym:le' posn='160' name='.' chunkId='BLK' chunkType='head:BLK'>
</Sentence>


<Sentence id="3">
1	yaha	DEM	<fs af='yaha,pn,any,sg,3,d,,' posn='10' drel='nmod__adj:jAnakArI' chunkType='child:NP' name='yaha'>
2	jAnakArI	NN	<fs af='jAnakArI,n,f,sg,3,d,0,0' drel='k2:xI' posn='20' name='jAnakArI' chunkId='NP' chunkType='head:NP'>
3	rakRA	NNPC	<fs af='rakRA,n,f,sg,3,d,0,0' posn='30' drel='pof__cn:viBAga' chunkType='child:NP2' name='rakRA'>
4	viBAga	NNP	<fs af='viBAga,n,m,sg,3,o,0_kA,0' drel='r6:pravakwA' posn='40' vpos='vib_3' name='viBAga' chunkId='NP2' chunkType='head:NP2'>
5	ke	PSP	<fs af='kA,psp,m,sg,,o,,' posn='50' drel='lwg__psp:viBAga' chunkType='child:NP2' name='ke'>
6	pravakwA	NN	<fs af='pravakwA,n,m,sg,3,o,0_ne,0' drel='k1:xI' posn='60' vpos='vib_2' name='pravakwA' chunkId='NP3' chunkType='head:NP3'>
7	ne	PSP	<fs af='ne,psp,,,,,,' posn='70' drel='lwg__psp:pravakwA' chunkType='child:NP3' name='ne'>
8	xI	VM	<fs af='xe,v,f,sg,any,,yA,yA' stype='declarative' posn='80' voicetype='active' name='xI' chunkId='VGF' chunkType='head:VGF'>
9	.	SYM	<fs af='.,punc,,,,,,' drel='rsym:xI' posn='90' name='.' chunkId='BLK' chunkType='head:BLK'>
</Sentence>


<Sentence id="4">
1	pravakwA	NN	<fs af='pravakwA,n,m,sg,3,o,0_ne,0' drel='k1:bawAyA' posn='10' vpos='vib_2' name='pravakwA' chunkId='NP' chunkType='head:NP'>
2	ne	PSP	<fs af='ne,psp,,,,,,' posn='20' drel='lwg__psp:pravakwA' chunkType='child:NP' name='ne'>
3	bawAyA	VM	<fs af='bawA,v,m,sg,any,,yA,yA' stype='declarative' posn='30' voicetype='active' name='bawAyA' chunkId='VGF' chunkType='head:VGF'>
4	ki	CC	<fs af='ki,avy,,,,,,' drel='k2:bawAyA' posn='40' name='ki' chunkId='CCP' chunkType='head:CCP'>
5	pulavAmA	NNP	<fs af='pulavAmA,n,m,sg,3,d,0,0' posn='50' drel='nmod__adj:jile' chunkType='child:NP2' name='pulavAmA'>
6	jile	NN	<fs af='jilA,n,m,sg,3,o,0_kA,0' drel='r6:gAMva' posn='60' vpos='vib_vib_3' name='jile' chunkId='NP2' chunkType='head:NP2'>
7	ke	PSP	<fs af='kA,psp,m,sg,,o,,' posn='70' drel='lwg__psp:jile' chunkType='child:NP2' name='ke'>
8	KilAMguMda	NNP	<fs af='KilAMguMda,n,m,sg,3,d,0,0' posn='80' drel='nmod__adj:gAMva' chunkType='child:NP3' name='KilAMguMda'>
9	gAMva	NN	<fs af='gAzva,n,m,sg,3,o,0_meM,0' drel='k7p:calAyA' posn='90' vpos='vib_vib_3' name='gAMva' chunkId='NP3' chunkType='head:NP3'>
10	meM	PSP	<fs af='meM,psp,,,,,,' posn='100' drel='lwg__psp:gAMva' chunkType='child:NP3' name='meM'>
11	Aja	NN	<fs af='Aja,n,m,sg,3,d,0,0' drel='k7t:calAyA' posn='110' name='Aja' chunkId='NP4' chunkType='head:NP4'>
12	AwaMkiyoM	NN	<fs af='AwaMkI,n,m,pl,3,o,0_ke_KilAPa,0' drel='vmod:calAyA' posn='120' vpos='vib_2_3' name='AwaMkiyoM' chunkId='NP5' chunkType='head:NP5'>
13	ke	PSP	<fs af='ke,psp,,,,,,' posn='130' drel='lwg__psp:AwaMkiyoM' chunkType='child:NP5' name='ke2'>
14	KilAPa	PSP	<fs af='KilAPa,adj,,,,,,' posn='140' drel='lwg__psp:AwaMkiyoM' chunkType='child:NP5' name='KilAPa'>
15	walASI	NNC	<fs af='walASI,n,f,sg,3,d,0,0' posn='150' drel='pof__cn:aBiyAna' chunkType='child:NP6' name='walASI'>
16	aBiyAna	NN	<fs af='aBiyAna,n,m,sg,3,d,0,0' drel='k2:calAyA' posn='160' name='aBiyAna' chunkId='NP6' chunkType='head:NP6'>
17	calAyA	VM	<fs af='calA,v,m,sg,any,,yA_jA_raha+yA_WA,yA' drel='ccof:ki' stype='declarative' posn='170' voicetype='active' vpos='tam_2_3_4' name='calAyA' chunkId='VGF2' chunkType='head:VGF2'>
18	jA	VAUX	<fs af='jA,v,any,any,any,,0,0' posn='180' drel='lwg__vaux:calAyA' chunkType='child:VGF2' name='jA'>
19	rahA	VAUX	<fs af='raha,v,m,sg,any,,yA,yA' posn='190' drel='lwg__vaux:calAyA' chunkType='child:VGF2' name='rahA'>
20	WA	VAUX	<fs af='WA,v,m,sg,any,,WA,WA' posn='200' drel='lwg__vaux:calAyA' chunkType='child:VGF2' name='WA'>
21	.	SYM	<fs af='.,punc,,,,,,' drel='rsym:bawAyA' posn='210' name='.' chunkId='BLK' chunkType='head:BLK'>
</Sentence>


<Sentence id="5">
1	isI	DEM	<fs af='yaha,pn,any,sg,3,o,,' drel='k7t:Cupe' posn='10' name='isI' chunkId='NP' chunkType='head:NP'>
2	xOrAna	NST	<fs af='xOrAna,nst,m,sg,3,d,,' posn='20' drel='lwg__psp:isI' chunkType='child:NP' name='xOrAna'>
3	eka	QC	<fs af='eka,num,any,any,,any,,' posn='30' drel='nmod__adj:makAna' chunkType='child:NP2' name='eka'>
4	makAna	NN	<fs af='makAna,n,m,sg,3,o,0_meM,0' drel='k7p:Cupe' posn='40' vpos='vib_3' name='makAna' chunkId='NP2' chunkType='head:NP2'>
5	meM	PSP	<fs af='meM,psp,,,,,,' posn='50' drel='lwg__psp:makAna' chunkType='child:NP2' name='meM'>
6	Cupe	VM	<fs af='Cupa,v,m,pl,3,,yA,yA' drel='nmod__k1inv:AwaMkiyoM' posn='60' name='Cupe' chunkId='VGNF' chunkType='head:VGNF'>
7	AwaMkiyoM	NN	<fs af='AwaMkI,n,m,pl,3,o,0_ne,0' drel='k1:kara' posn='70' vpos='vib_2' name='AwaMkiyoM' chunkId='NP3' chunkType='head:NP3'>
8	ne	PSP	<fs af='ne,psp,,,,,,' posn='80' drel='lwg__psp:AwaMkiyoM' chunkType='child:NP3' name='ne'>
9	javAnoM	NN	<fs af='javAna,n,m,pl,3,o,0_para,0' drel='k7:kara' posn='90' vpos='vib_2' name='javAnoM' chunkId='NP4' chunkType='head:NP4'>
10	para	PSP	<fs af='para,psp,,,,,,' posn='100' drel='lwg__psp:javAnoM' chunkType='child:NP4' name='para'>
11	PAyariMga	NN	<fs af='PAyariMga,n,f,sg,3,d,0,0' drel='k2:kara' posn='120' name='PAyariMga' chunkId='NP5' chunkType='head:NP5'>
12	SurU	NN	<fs af='SurU,n,m,sg,3,d,0,0' drel='pof:kara' posn='120' name='SurU' chunkId='NP6' chunkType='head:NP6'>
13	kara	VM	<fs af='kara,v,any,sg,any,,0_xe+yA,0' stype='declarative' posn='130' voicetype='active' vpos='tam_2' name='kara' chunkId='VGF' chunkType='head:VGF'>
14	xI	VAUX	<fs af='xe,v,f,sg,any,,yA,yA' posn='140' drel='lwg__vaux:kara' chunkType='child:VGF' name='xI'>
15	.	SYM	<fs af='.,punc,,,,,,' drel='rsym:kara' posn='150' name='.' chunkId='BLK' chunkType='head:BLK'>
</Sentence>


<Sentence id="6">
1	xonoM	QC	<fs af='xo,num,any,any,,o,0_se,' drel='rd:huI' posn='10' vpos='3' name='xonoM' chunkId='NP' chunkType='head:NP'>
2	ora	NST	<fs af='ora,nst,f,sg,3,o,,' posn='20' drel='lwg__psp:xonoM' chunkType='child:NP' name='ora'>
3	se	PSP	<fs af='se,psp,,,,,,' posn='30' drel='lwg__psp:xonoM' chunkType='child:NP' name='se'>
4	huI	VM	<fs af='ho,v,f,sg,any,,yA,yA' drel='nmod__k2inv:golAbArI' posn='40' name='huI' chunkId='VGNF' chunkType='head:VGNF'>
5	golAbArI	NN	<fs af='golAbArI,n,f,sg,3,o,0_ke_bAxa,0' drel='k7t:Gusa' posn='50' vpos='vib_2_3' name='golAbArI' chunkId='NP2' chunkType='head:NP2'>
6	ke	PSP	<fs af='ke,psp,,,,,,' posn='60' drel='lwg__psp:golAbArI' chunkType='child:NP2' name='ke'>
7	bAxa	NST	<fs af='bAxa,nst,m,sg,3,d,,' posn='70' drel='lwg__psp:golAbArI' chunkType='child:NP2' name='bAxa'>
8	AwaMkI	NN	<fs af='AwaMkI,n,m,pl,3,d,0,0' drel='k1:Gusa' posn='80' name='AwaMkI' chunkId='NP3' chunkType='head:NP3'>
9	pAsa	NST	<fs af='pAsa,nst,m,sg,3,d,,' drel='jjmod:sWiwa' posn='90' name='pAsa' chunkId='NP4' chunkType='head:NP4'>
10	sWiwa	JJ	<fs af='sWiwa,adj,any,any,,o,,' drel='nmod:masjixa' posn='100' name='sWiwa' chunkId='JJP' chunkType='head:JJP'>
11	eka	QC	<fs af='eka,num,any,any,,any,,' posn='110' drel='nmod__adj:masjixa' chunkType='child:NP5' name='eka'>
12	masjixa	NN	<fs af='masjixa,n,f,sg,3,o,0_meM,0' drel='k7p:Gusa' posn='120' vpos='vib_3' name='masjixa' chunkId='NP5' chunkType='head:NP5'>
13	meM	PSP	<fs af='meM,psp,,,,,,' posn='130' drel='lwg__psp:masjixa' chunkType='child:NP5' name='meM'>
14	Gusa	VM	<fs af='Gusa,v,any,pl,any,,0_jA+yA1,0' stype='declarative' posn='140' voicetype='active' vpos='tam_2' name='Gusa' chunkId='VGF' chunkType='head:VGF'>
15	gae	VAUX	<fs af='jA,v,m,pl,any,,yA1,yA1' posn='150' drel='lwg__vaux:Gusa' chunkType='child:VGF' name='gae'>
16	.	SYM	<fs af='.,punc,,,,,,' drel='rsym:Gusa' posn='160' name='.' chunkId='BLK' chunkType='head:BLK'>
</Sentence>


<Sentence id="7">
1	isake	PRP	<fs af='yaha,pn,any,sg,3,o,0_bAxa,ke' drel='k7t:Gera' posn='10' vpos='vib_2' name='isake' chunkId='NP' chunkType='head:NP'>
2	bAxa	NST	<fs af='bAxa,nst,m,sg,3,d,,' posn='20' drel='lwg__psp:isake' chunkType='child:NP' name='bAxa'>
3	javAnoM	NN	<fs af='javAna,n,m,pl,3,o,0_ne,0' drel='k1:Gera' posn='30' vpos='vib_2' name='javAnoM' chunkId='NP2' chunkType='head:NP2'>
4	ne	PSP	<fs af='ne,psp,,,,,,' posn='40' drel='lwg__psp:javAnoM' chunkType='child:NP2' name='ne'>
5	unheM	PRP	<fs af='vaha,pn,any,pl,3,o,ko,ko' drel='k2:Gera' posn='50' name='unheM' chunkId='NP3' chunkType='head:NP3'>
6	cAroM	QC	<fs af='cAra,num,any,any,,o,0_se,' drel='rd:Gera' posn='60' vpos='3' name='cAroM' chunkId='NP4' chunkType='head:NP4'>
7	ora	NST	<fs af='ora,nst,f,sg,3,o,,' posn='70' drel='lwg__psp:cAroM' chunkType='child:NP4' name='ora'>
8	se	PSP	<fs af='se,psp,,,,,,' posn='80' drel='lwg__psp:cAroM' chunkType='child:NP4' name='se'>
9	Gera	VM	<fs af='Gera,v,any,sg,any,,0_le+yA,0' drel='ccof:Ora' stype='declarative' posn='90' voicetype='active' vpos='tam_2' name='Gera' chunkId='VGF' chunkType='head:VGF'>
10	liyA	VAUX	<fs af='le,v,m,sg,any,,yA,yA' posn='100' drel='lwg__vaux:Gera' chunkType='child:VGF' name='liyA'>
11	Ora	CC	<fs af='Ora,avy,,,,,,' posn='110' name='Ora' chunkId='CCP' chunkType='head:CCP'>
12	XAvA	NN	<fs af='XAvA,n,m,sg,3,d,0,0' drel='pof:bola' posn='120' name='XAvA' chunkId='NP5' chunkType='head:NP5'>
13	bola	VM	<fs af='bola,v,any,any,any,,0_kara,0' drel='vmod:mAra' posn='130' vpos='tam_2' name='bola' chunkId='VGNF' chunkType='head:VGNF'>
14	kara	VAUX	<fs af='kara,v,any,any,any,,0,0' posn='140' drel='lwg__vaux:bola' chunkType='child:VGNF' name='kara'>
15	pAMcoM	QC	<fs af='pAMca,num,any,any,,o,,' posn='150' drel='nmod__adj:AwaMkiyoM' chunkType='child:NP6' name='pAMcoM'>
16	AwaMkiyoM	NN	<fs af='AwaMkI,n,m,pl,3,o,0_ko,0' drel='k2:mAra' posn='160' vpos='vib_3' name='AwaMkiyoM' chunkId='NP6' chunkType='head:NP6'>
17	ko	PSP	<fs af='ko,psp,,,,,,' posn='170' drel='lwg__psp:AwaMkiyoM' chunkType='child:NP6' name='ko'>
18	mAra	VM	<fs af='mAra,v,any,sg,any,,0_girA+yA,0' drel='ccof:Ora' stype='declarative' posn='180' voicetype='active' vpos='tam_2' name='mAra' chunkId='VGF2' chunkType='head:VGF2'>
19	girAyA	VAUX	<fs af='girA,v,m,sg,any,,yA,yA' posn='190' drel='lwg__vaux:mAra' chunkType='child:VGF2' name='girAyA'>
20	.	SYM	<fs af='.,punc,,,,,,' drel='rsym:Ora' posn='200' name='.' chunkId='BLK' chunkType='head:BLK'>
</Sentence>


<Sentence id="8">
1	sEnya	JJ	<fs af='sEnya,adj,any,any,,o,,' posn='10' drel='nmod__adj:kArravAI' chunkType='child:NP' name='sEnya'>
2	kArravAI	NN	<fs af='kArravAI,n,f,sg,3,o,0_meM,0' drel='k7:hE' posn='20' vpos='vib_3' name='kArravAI' chunkId='NP' chunkType='head:NP'>
3	meM	PSP	<fs af='meM,psp,,,,,,' posn='30' drel='lwg__psp:kArravAI' chunkType='child:NP' name='meM'>
4	masjixa	NN	<fs af='masjixa,n,f,sg,3,o,0_ko,0' drel='k4a:hE' posn='40' vpos='vib_2' name='masjixa' chunkId='NP2' chunkType='head:NP2'>
5	ko	PSP	<fs af='ko,psp,,,,,,' posn='50' drel='lwg__psp:masjixa' chunkType='child:NP2' name='ko'>
6	kisI	PRP	<fs af='koI,pn,any,sg,3,o,0,0' posn='60' drel='nmod__adj:waraha' chunkType='child:NP3' name='kisI'>
7	waraha	NN	<fs af='waraha,n,f,sg,3,o,0_kA,0' drel='r6:nukasAna' posn='70' vpos='vib_vib_3' name='waraha' chunkId='NP3' chunkType='head:NP3'>
8	ke	PSP	<fs af='kA,psp,m,sg,,o,,' posn='80' drel='lwg__psp:waraha' chunkType='child:NP3' name='ke'>
9	nukasAna	NN	<fs af='nukasAna,n,m,sg,3,o,0_kA,0' drel='r6:Kabara' posn='90' vpos='vib_2' name='nukasAna' chunkId='NP4' chunkType='head:NP4'>
10	kI	PSP	<fs af='kA,psp,f,sg,,d,,' posn='100' drel='lwg__psp:nukasAna' chunkType='child:NP4' name='kI'>
11	Kabara	NN	<fs af='Kabara,n,f,sg,3,d,0,0' drel='k1:hE' posn='110' name='Kabara' chunkId='NP5' chunkType='head:NP5'>
12	nahIM	NEG	<fs af='nahIM,avy,,,,,,' posn='120' drel='lwg__neg:hE' chunkType='child:VGF' name='nahIM'>
13	hE	VM	<fs af='hE,v,any,sg,3,,hE,hE' stype='declarative' posn='130' voicetype='active' name='hE' chunkId='VGF' chunkType='head:VGF'>
14	.	SYM	<fs af='.,punc,,,,,,' drel='rsym:hE' posn='140' name='.' chunkId='BLK' chunkType='head:BLK'>
</Sentence>


<Sentence id="9">
1	AXikArika	JJ	<fs af='AXikArika,adj,any,any,,o,,' posn='10' drel='nmod__adj:sUwroM' chunkType='child:NP' name='AXikArika'>
2	sUwroM	NN	<fs af='sUwra,n,m,pl,3,o,0_ke_anusAra,0' drel='k7a:lagI' posn='20' vpos='vib_3_4' name='sUwroM' chunkId='NP' chunkType='head:NP'>
3	ke	PSP	<fs af='ke,psp,,,,,,' posn='30' drel='lwg__psp:sUwroM' chunkType='child:NP' name='ke'>
4	anusAra	PSP	<fs af='anusAra,psp,,,,,,' posn='30' drel='lwg__psp:sUwroM' chunkType='child:NP' name='anusAra'>
5	aBiyAna	NN	<fs af='aBiyAna,n,m,sg,3,o,0_meM,0' drel='k7:lagI' posn='50' vpos='vib_2' name='aBiyAna' chunkId='NP2' chunkType='head:NP2'>
6	meM	PSP	<fs af='meM,psp,,,,,,' posn='60' drel='lwg__psp:aBiyAna' chunkType='child:NP2' name='meM'>
7	sEnya	JJ	<fs af='sEnya,adj,any,any,,o,,' posn='70' drel='nmod__adj:xala' chunkType='child:NP3' name='sEnya'>
8	xala	NN	<fs af='xala,n,m,sg,3,o,0_kA,0' drel='r6-k2:newqwva' posn='80' vpos='vib_3' name='xala' chunkId='NP3' chunkType='head:NP3'>
9	kA	PSP	<fs af='kA,psp,m,sg,,d,,' posn='90' drel='lwg__psp:xala' chunkType='child:NP3' name='kA'>
10	newqwva	NN	<fs af='newqwva,n,m,sg,3,d,0,0' drel='pof:karane' posn='100' name='newqwva' chunkId='NP4' chunkType='head:NP4'>
11	karane	VM	<fs af='kara,v,any,sg,any,o,nA_vAlA,nA' drel='nmod:rEMka' posn='110' vpos='tam_2' name='karane' chunkId='VGNN' chunkType='head:VGNN'>
12	vAle	PSP	<fs af='vAlA,psp,m,sg,,o,,' posn='120' drel='lwg__psp:karane' chunkType='child:VGNN' name='vAle'>
13	karnala	NNC	<fs af='karnala,n,m,sg,3,d,0,0' posn='130' drel='pof__cn:rEMka' chunkType='child:NP5' name='karnala'>
14	rEMka	NN	<fs af='rEMka,n,m,sg,3,o,0_kA,0' drel='r6:aPasara' posn='140' vpos='vib_3' name='rEMka' chunkId='NP5' chunkType='head:NP5'>
15	ke	PSP	<fs af='kA,psp,m,sg,,o,,' posn='150' drel='lwg__psp:rEMka' chunkType='child:NP5' name='ke2'>
16	eka	QC	<fs af='eka,num,any,any,,any,,' posn='160' drel='nmod__adj:aPasara' chunkType='child:NP6' name='eka'>
17	aPasara	NN	<fs af='aPasara,n,m,sg,3,o,0_ko,0' drel='k4a:lagI' posn='170' vpos='vib_3' name='aPasara' chunkId='NP6' chunkType='head:NP6'>
18	ko	PSP	<fs af='ko,psp,,,,,,' posn='180' drel='lwg__psp:aPasara' chunkType='child:NP6' name='ko'>
19	halkI	JJ	<fs af='halkA,adj,f,pl,,d,,' posn='190' drel='nmod__adj:coteM' chunkType='child:NP7' name='halkI'>
20	coteM	NN	<fs af='cota,n,f,pl,3,d,0,0' drel='pof:lagI' posn='200' name='coteM' chunkId='NP7' chunkType='head:NP7'>
21	lagI	VM	<fs af='laga,v,f,pl,3,,yA_hE,yA' stype='declarative' posn='210' voicetype='active' vpos='tam_2' name='lagI' chunkId='VGF' chunkType='head:VGF'>
22	hEM	VAUX	<fs af='hE,v,any,pl,3,,hE,hE' posn='220' drel='lwg__vaux:lagI' chunkType='child:VGF' name='hEM'>
23	.	SYM	<fs af='.,punc,,,,,,' drel='rsym:lagI' posn='230' name='.' chunkId='BLK' chunkType='head:BLK'>
</Sentence>


<Sentence id="10">
1	sEnya	JJ	<fs af='sEnya,adj,any,any,,o,,' posn='10' drel='nmod__adj:pravakwA' chunkType='child:NP' name='sEnya'>
2	pravakwA	NN	<fs af='pravakwA,n,m,sg,3,o,0_ne,0' drel='k1:bawAyA' posn='20' vpos='vib_3' name='pravakwA' chunkId='NP' chunkType='head:NP'>
3	ne	PSP	<fs af='ne,psp,,,,,,' posn='30' drel='lwg__psp:pravakwA' chunkType='child:NP' name='ne'>
4	bawAyA	VM	<fs af='bawA,v,m,sg,any,,yA,yA' stype='declarative' posn='40' voicetype='active' name='bawAyA' chunkId='VGF' chunkType='head:VGF'>
5	ki	CC	<fs af='ki,avy,,,,,,' drel='k2:bawAyA' posn='50' name='ki' chunkId='CCP' chunkType='head:CCP'>
6	javAnoM	NN	<fs af='javAna,n,m,pl,3,o,0_ne,0' drel='k1:kI2' posn='60' vpos='vib_2' name='javAnoM' chunkId='NP2' chunkType='head:NP2'>
7	ne	PSP	<fs af='ne,psp,,,,,,' posn='70' drel='lwg__psp:javAnoM' chunkType='child:NP2' name='ne2'>
8	AwaMkiyoM	NN	<fs af='AwaMkI,n,m,pl,3,o,0_se,0' drel='k2:kI2' posn='80' vpos='vib_2' name='AwaMkiyoM' chunkId='NP3' chunkType='head:NP3'>
9	se	PSP	<fs af='se,psp,,,,,,' posn='90' drel='lwg__psp:AwaMkiyoM' chunkType='child:NP3' name='se'>
10	bAra	RB	<fs af='bAra,adv,,,,,,' drel='adv:kI2' posn='100' name='bAra' chunkId='RBP' chunkType='head:RBP'>
11	-	SYM	<fs af='-,punc,,,,,,' posn='110' drel='rsym:bAra' chunkType='child:RBP' name='-'>
12	bAra	RDP	<fs af='bAra,adv,,,,,,' posn='120' drel='mod:bAra' chunkType='child:RBP' name='bAra2'>
13	AwmasamarpaNa	NN	<fs af='AwmasamarpaNa,n,m,sg,3,o,0_kA,0' drel='r6-k2:apIla' posn='130' vpos='vib_2' name='AwmasamarpaNa' chunkId='NP4' chunkType='head:NP4'>
14	kI	PSP	<fs af='kA,psp,f,sg,,d,,' posn='140' drel='lwg__psp:AwmasamarpaNa' chunkType='child:NP4' name='kI'>
15	apIla	NN	<fs af='apIla,n,f,sg,3,d,0,0' drel='pof:kI2' posn='150' name='apIla' chunkId='NP5' chunkType='head:NP5'>
16	kI	VM	<fs af='kara,v,f,sg,any,,yA,yA' drel='ccof:lekina' stype='declarative' posn='160' voicetype='active' name='kI2' chunkId='VGF2' chunkType='head:VGF2'>
17	,	SYM	<fs af='COMMA,punc,,,,,,' posn='170' drel='rsym:kI2' chunkType='child:VGF2' name=','>
18	lekina	CC	<fs af='lekina,avy,,,,,,' drel='ccof:ki' posn='180' name='lekina' chunkId='CCP2' chunkType='head:CCP2'>
19	unhoMne	PRP	<fs af='vaha,pn,any,pl,3,o,ne,ne' drel='k1:kara' posn='190' name='unhoMne' chunkId='NP6' chunkType='head:NP6'>
20	EsA	PRP	<fs af='EsA,pn,m,sg,any,d,0,0' drel='adv:karane' posn='200' name='EsA' chunkId='NP7' chunkType='head:NP7'>
21	karane	VM	<fs af='kara,v,any,any,any,o,nA_se,nA' drel='rt:kara' posn='210' vpos='tam_2' name='karane' chunkId='VGNN' chunkType='head:VGNN'>
22	se	PSP	<fs af='se,psp,,,,,,' posn='220' drel='lwg__psp:karane' chunkType='child:VGNN' name='se2'>
23	inakAra	NN	<fs af='inakAra,n,m,sg,3,d,0,0' drel='pof:kara' posn='230' name='inakAra' chunkId='NP8' chunkType='head:NP8'>
24	kara	VM	<fs af='kara,v,any,sg,any,,0_xe+yA,0' drel='ccof:Ora' stype='declarative' posn='240' voicetype='active' vpos='tam_2' name='kara' chunkId='VGF3' chunkType='head:VGF3'>
25	xiyA	VAUX	<fs af='xe,v,m,sg,any,,yA,yA' posn='250' drel='lwg__vaux:kara' chunkType='child:VGF3' name='xiyA'>
26	Ora	CC	<fs af='Ora,avy,,,,,,' drel='ccof:lekina' posn='260' name='Ora' chunkId='CCP3' chunkType='head:CCP3'>
27	lagAwAra	RB	<fs af='lagAwAra,adv,,,,,,' drel='adv:karawe' posn='270' name='lagAwAra' chunkId='RBP2' chunkType='head:RBP2'>
28	PAyariMga	NN	<fs af='PAyariMga,n,f,sg,3,d,0,0' drel='pof:karawe' posn='230' name='PAyariMga' chunkId='NP9' chunkType='head:NP9'>
29	karawe	VM	<fs af='kara,v,m,pl,any,,wA_raha+yA,wA' drel='ccof:Ora' stype='declarative' posn='290' voicetype='active' vpos='tam_2' name='karawe' chunkId='VGF4' chunkType='head:VGF4'>
30	rahe	VAUX	<fs af='raha,v,m,pl,any,,yA,yA' posn='300' drel='lwg__vaux:karawe' chunkType='child:VGF4' name='rahe'>
31	.	SYM	<fs af='.,punc,,,,,,' drel='rsym:bawAyA' posn='310' name='.' chunkId='BLK' chunkType='head:BLK'>
</Sentence>


<Sentence id="11">
1	masjixa	NN	<fs af='masjixa,n,f,sg,3,o,0_ko,0' drel='k2:kI3' posn='10' vpos='vib_2' name='masjixa' chunkId='NP' chunkType='head:NP'>
2	ko	PSP	<fs af='ko,psp,,,,,,' posn='20' drel='lwg__psp:masjixa' chunkType='child:NP' name='ko'>
3	kisI	PRP	<fs af='koI,pn,any,sg,3,o,0,0' posn='30' drel='nmod__adj:waraha' chunkType='child:NP2' name='kisI'>
4	waraha	NN	<fs af='waraha,n,f,sg,3,o,0_kA,0' drel='r6-k1:kRawi' posn='40' vpos='vib_vib_3' name='waraha' chunkId='NP2' chunkType='head:NP2'>
5	kI	PSP	<fs af='kA,psp,f,sg,,d,,' posn='50' drel='lwg__psp:waraha' chunkType='child:NP2' name='kI'>
6	kRawi	NN	<fs af='kRawi,n,f,sg,3,d,0,0' drel='pof:pahuMce' posn='60' name='kRawi' chunkId='NP3' chunkType='head:NP3'>
7	na	NEG	<fs af='na,avy,,,,,,' posn='70' drel='lwg__neg:pahuMce' chunkType='child:VGF' name='na'>
8	pahuMce	VM	<fs af='pahuMca,v,m,sg,3,,eM,eM' drel='rs:ise' stype='declarative' posn='80' voicetype='active' name='pahuMce' chunkId='VGF' chunkType='head:VGF'>
9	ise	PRP	<fs af='yaha,pn,any,sg,3,o,ko,ko' drel='k2:raKakara' posn='90' name='ise' chunkId='NP4' chunkType='head:NP4'>
10	XyAna	NN	<fs af='XyAna,n,m,sg,3,o,0_meM,0' drel='k7:raKakara' posn='100' vpos='vib_2' name='XyAna' chunkId='NP5' chunkType='head:NP5'>
11	meM	PSP	<fs af='meM,psp,,,,,,' posn='110' drel='lwg__psp:XyAna' chunkType='child:NP5' name='meM'>
12	raKakara	VM	<fs af='raKa,v,any,any,any,,kara,kara' drel='vmod:kI3' posn='120' name='raKakara' chunkId='VGNF' chunkType='head:VGNF'>
13	javAnoM	NN	<fs af='javAna,n,m,pl,3,o,0_ne,0' drel='k1:kI3' posn='130' vpos='vib_2' name='javAnoM' chunkId='NP6' chunkType='head:NP6'>
14	ne	PSP	<fs af='ne,psp,,,,,,' posn='140' drel='lwg__psp:javAnoM' chunkType='child:NP6' name='ne'>
15	kAPI	QF	<fs af='kAPI,avy,,,,,,' posn='150' drel='nmod__adj:xera' chunkType='child:NP7' name='kAPI'>
16	xera	NN	<fs af='xera,n,f,sg,3,o,0_waka,0' drel='k7t:kI3' posn='160' vpos='vib_3' name='xera' chunkId='NP7' chunkType='head:NP7'>
17	waka	PSP	<fs af='waka,psp,,,,,,' posn='170' drel='lwg__psp:xera' chunkType='child:NP7' name='waka'>
18	kisI	PRP	<fs af='koI,pn,any,sg,3,o,0,0' posn='180' drel='nmod__adj:waraha2' chunkType='child:NP8' name='kisI2'>
19	waraha	NN	<fs af='waraha,n,f,sg,3,o,0_kA,0' drel='r6-k2:kArravAI' posn='190' vpos='vib_vib_3' name='waraha2' chunkId='NP8' chunkType='head:NP8'>
20	kI	PSP	<fs af='kA,psp,f,sg,,d,,' posn='200' drel='lwg__psp:waraha2' chunkType='child:NP8' name='kI2'>
21	kArravAI	NN	<fs af='kArravAI,n,f,sg,3,d,0,0' drel='pof:kI3' posn='210' name='kArravAI' chunkId='NP9' chunkType='head:NP9'>
22	nahIM	NEG	<fs af='nahIM,avy,,,,,,' posn='220' drel='lwg__neg:kI3' chunkType='child:VGF2' name='nahIM'>
23	kI	VM	<fs af='kara,v,f,sg,any,,yA,yA' stype='declarative' posn='230' voicetype='active' name='kI3' chunkId='VGF2' chunkType='head:VGF2'>
24	.	SYM	<fs af='.,punc,,,,,,' drel='rsym:kI3' posn='240' name='.' chunkId='BLK' chunkType='head:BLK'>
</Sentence>


<Sentence id="12">
1	AwaMkiyoM	NN	<fs af='AwaMkI,n,m,pl,3,o,0_se,0' drel='k4:karAne' posn='10' vpos='vib_2' name='AwaMkiyoM' chunkId='NP' chunkType='head:NP'>
2	se	PSP	<fs af='se,psp,,,,,,' posn='20' drel='lwg__psp:AwaMkiyoM' chunkType='child:NP' name='se'>
3	samarpaNa	NN	<fs af='samarpaNa,n,m,sg,3,d,0,0' drel='pof:karAne' posn='30' name='samarpaNa' chunkId='NP2' chunkType='head:NP2'>
4	karAne	VM	<fs af='karA,v,any,any,any,o,nA_ke_lie,nA' drel='rt:lI' posn='40' vpos='tam_2_3' name='karAne' chunkId='VGNN' chunkType='head:VGNN'>
5	ke	PSP	<fs af='ke,psp,,,,,,' posn='50' drel='lwg__psp:karAne' chunkType='child:VGNN' name='ke'>
6	lie	PSP	<fs af='lie,psp,,,,,,' posn='60' drel='lwg__psp:karAne' chunkType='child:VGNN' name='lie'>
7	gAMva	NN	<fs af='gAzva,n,m,sg,3,o,0_kA,0' drel='r6:nAgarikoM' posn='70' vpos='vib_2' name='gAMva' chunkId='NP3' chunkType='head:NP3'>
8	ke	PSP	<fs af='kA,psp,m,pl,,o,,' posn='80' drel='lwg__psp:gAMva' chunkType='child:NP3' name='ke2'>
9	variRTa	JJ	<fs af='variRTa,adj,any,any,,o,,' posn='90' drel='nmod__adj:nAgarikoM' chunkType='child:NP4' name='variRTa'>
10	nAgarikoM	NN	<fs af='nAgarika,n,m,pl,3,o,0_kA,0' drel='r6:maxaxa' posn='100' vpos='vib_3' name='nAgarikoM' chunkId='NP4' chunkType='head:NP4'>
11	kI	PSP	<fs af='kA,psp,f,sg,,d,,' posn='110' drel='lwg__psp:nAgarikoM' chunkType='child:NP4' name='kI'>
12	maxaxa	NN	<fs af='maxaxa,n,f,sg,3,d,0,0' drel='k2:lI' posn='120' name='maxaxa' chunkId='NP5' chunkType='head:NP5'>
13	BI	RP	<fs af='BI,avy,,,,,,' posn='130' drel='lwg__rp:maxaxa' chunkType='child:NP5' name='BI'>
14	lI	VM	<fs af='le,v,f,sg,any,,yA_jA+yA1,yA' drel='ccof:lekina' stype='declarative' posn='140' voicetype='active' vpos='tam_2' name='lI' chunkId='VGF' chunkType='head:VGF'>
15	gaI	VAUX	<fs af='jA,v,f,sg,any,,yA1,yA1' posn='150' drel='lwg__vaux:lI' chunkType='child:VGF' name='gaI'>
16	,	SYM	<fs af='COMMA,punc,,,,,,' posn='160' drel='rsym:lI' chunkType='child:VGF' name=','>
17	lekina	CC	<fs af='lekina,avy,,,,,,' posn='170' name='lekina' chunkId='CCP' chunkType='head:CCP'>
18	AwaMkI	NN	<fs af='AwaMkI,n,m,pl,3,d,0,0' drel='k1:karawe' posn='180' name='AwaMkI' chunkId='NP6' chunkType='head:NP6'>
19	PAyariMga	NN	<fs af='PAyariMga,n,f,sg,3,d,0,0' drel='pof:karawe' posn='230' name='PAyariMga' chunkId='NP7' chunkType='head:NP7'>
20	karawe	VM	<fs af='kara,v,m,pl,any,,wA_raha+yA,wA' drel='ccof:lekina' stype='declarative' posn='200' voicetype='active' vpos='tam_2' name='karawe' chunkId='VGF2' chunkType='head:VGF2'>
21	rahe	VAUX	<fs af='raha,v,m,pl,any,,yA,yA' posn='210' drel='lwg__vaux:karawe' chunkType='child:VGF2' name='rahe'>
22	.	SYM	<fs af='.,punc,,,,,,' drel='rsym:lekina' posn='220' name='.' chunkId='BLK' chunkType='head:BLK'>
</Sentence>


<Sentence id="13">
1	isake	PRP	<fs af='yaha,pn,any,sg,3,o,0_bAxa,ke' drel='k7t:bolA' posn='10' vpos='vib_2' name='isake' chunkId='NP' chunkType='head:NP'>
2	bAxa	NST	<fs af='bAxa,nst,m,sg,3,d,,' posn='20' drel='lwg__psp:isake' chunkType='child:NP' name='bAxa'>
3	javAnoM	NN	<fs af='javAna,n,m,pl,3,o,0_ne,0' drel='k1:bolA' posn='30' vpos='vib_2' name='javAnoM' chunkId='NP2' chunkType='head:NP2'>
4	ne	PSP	<fs af='ne,psp,,,,,,' posn='40' drel='lwg__psp:javAnoM' chunkType='child:NP2' name='ne'>
5	masjixa	NN	<fs af='masjixa,n,f,sg,3,o,0_para,0' drel='k7p:bolA' posn='50' vpos='vib_2' name='masjixa' chunkId='NP3' chunkType='head:NP3'>
6	para	PSP	<fs af='para,psp,,,,,,' posn='60' drel='lwg__psp:masjixa' chunkType='child:NP3' name='para'>
7	XAvA	NN	<fs af='XAvA,n,m,sg,3,d,0,0' drel='pof:bolA' posn='70' name='XAvA' chunkId='NP4' chunkType='head:NP4'>
8	bolA	VM	<fs af='bola,v,m,sg,any,,yA,yA' drel='ccof:Ora' stype='declarative' posn='80' voicetype='active' name='bolA' chunkId='VGF' chunkType='head:VGF'>
9	Ora	CC	<fs af='Ora,avy,,,,,,' posn='90' name='Ora' chunkId='CCP' chunkType='head:CCP'>
10	pAMcoM	QC	<fs af='pAMca,num,any,any,,o,,' posn='100' drel='nmod__adj:AwaMkiyoM' chunkType='child:NP5' name='pAMcoM'>
11	AwaMkiyoM	NN	<fs af='AwaMkI,n,m,pl,3,o,0_ko,0' drel='k2:mAra' posn='230' vpos='vib_3' name='AwaMkiyoM' chunkId='NP5' chunkType='head:NP5'>
12	ko	PSP	<fs af='ko,psp,,,,,,' posn='120' drel='lwg__psp:AwaMkiyoM' chunkType='child:NP5' name='ko'>
13	mAra	VM	<fs af='mAra,v,any,sg,any,,0_girA+yA,0' drel='ccof:Ora' stype='declarative' posn='130' voicetype='active' vpos='tam_2' name='mAra' chunkId='VGF2' chunkType='head:VGF2'>
14	girAyA	VAUX	<fs af='girA,v,m,sg,any,,yA,yA' posn='140' drel='lwg__vaux:mAra' chunkType='child:VGF2' name='girAyA'>
15	.	SYM	<fs af='.,punc,,,,,,' drel='rsym:Ora' posn='150' name='.' chunkId='BLK' chunkType='head:BLK'>
</Sentence>


<Sentence id="14">
1	aBI	PRP	<fs af='aBI,pn,,,,d,,' drel='k7t:mila' posn='10' name='aBI' chunkId='NP' chunkType='head:NP'>
2	AwaMkiyoM	NN	<fs af='AwaMkI,n,m,pl,3,o,0_kA,0' drel='r6:pahacAna' posn='20' vpos='vib_2' name='AwaMkiyoM' chunkId='NP2' chunkType='head:NP2'>
3	kI	PSP	<fs af='kA,psp,f,sg,,d,,' posn='30' drel='lwg__psp:AwaMkiyoM' chunkType='child:NP2' name='kI'>
4	pahacAna	NN	<fs af='pahacAna,n,f,sg,3,d,0,0' drel='ccof:aWavA' posn='40' name='pahacAna' chunkId='NP3' chunkType='head:NP3'>
5	aWavA	CC	<fs af='aWavA,avy,,,,,,' drel='k7:mila' posn='50' name='aWavA' chunkId='CCP' chunkType='head:CCP'>
6	unake	PRP	<fs af='vaha,pn,m,pl,3,o,ke,ke' drel='r6:guta' posn='60' name='unake' chunkId='NP4' chunkType='head:NP4'>
7	guta	NN	<fs af='guta,n,m,sg,3,o,0_ke_bAre_meM,0' drel='ccof:aWavA' posn='70' vpos='vib_2_3_4' name='guta' chunkId='NP5' chunkType='head:NP5'>
8	ke	PSP	<fs af='ke,psp,,,,,,' posn='80' drel='lwg__psp:guta' chunkType='child:NP5' name='ke'>
9	bAre	PSP	<fs af='bAre,psp,,,,,,' posn='90' drel='lwg__psp:guta' chunkType='child:NP5' name='bAre'>
10	meM	PSP	<fs af='meM,psp,,,,,,' posn='100' drel='lwg__psp:guta' chunkType='child:NP5' name='meM'>
11	kisI	PRP	<fs af='koI,pn,any,sg,3,o,0,0' posn='110' drel='nmod__adj:waraha' chunkType='child:NP6' name='kisI'>
12	waraha	NN	<fs af='waraha,n,f,sg,3,o,0_kA,0' drel='r6:jAnakArI' posn='120' vpos='vib_vib_3' name='waraha' chunkId='NP6' chunkType='head:NP6'>
13	kI	PSP	<fs af='kA,psp,f,sg,,d,,' posn='130' drel='lwg__psp:waraha' chunkType='child:NP6' name='kI2'>
14	jAnakArI	NN	<fs af='jAnakArI,n,f,sg,3,d,0,0' drel='k1:mila' posn='140' name='jAnakArI' chunkId='NP7' chunkType='head:NP7'>
15	nahIM	NEG	<fs af='nahIM,avy,,,,,,' posn='150' drel='lwg__neg:mila' chunkType='child:VGF' name='nahIM'>
16	mila	VM	<fs af='mila,v,f,sg,3,,0_pA+yA_hE,0' stype='declarative' posn='160' voicetype='passive' vpos='tam_3_4' name='mila' chunkId='VGF' chunkType='head:VGF'>
17	pAI	VAUX	<fs af='pA,v,f,sg,any,,yA,yA' posn='170' drel='lwg__vaux:mila' chunkType='child:VGF' name='pAI'>
18	hE	VAUX	<fs af='hE,v,any,sg,3,,hE,hE' posn='180' drel='lwg__vaux:mila' chunkType='child:VGF' name='hE'>
19	.	SYM	<fs af='.,punc,,,,,,' drel='rsym:mila' posn='190' name='.' chunkId='BLK' chunkType='head:BLK'>
</Sentence>


</text>
</tb>
</body>
</document>
