<document id="2496922">
<head>
<title></title>			
<caption>bEMka dakEwI meM AwaMkI nItA kA sAWI giraPwAra        sinemA hAla visPotoM meM BI pUCawACa jArI  amara ujAlA byUro   : aMbAlA</caption>			
<language>Hindi </language>			
<author>			
<firstname></firstname>			
<middlename></middlename>			
<lastname></lastname>			
</author>			
<creation>			
<raw_corpus creation_date="" institute_name=""></raw_corpus>			
<annotated_corpus creation_date="07/16/2009" institute_name="IIIT-Hyderabad"></annotated_corpus>			
</creation>			
<domain_name>News Articles </domain_name>			
<distributor>LTRC, IIIT Hyderabad</distributor>			
<source>ISI, Kolkata</source>			
<publication>			
<place>New Delhi</place>			
<date>3/6/2004</date>			
<address>Connaught Place, New Delhi</address>			
<type>Newspaper</type>			
<publisher>			
<name>Amar Ujala</name>			
<url>http://www.amarujala.com</url>			
</publisher>			
</publication>			
<project_description>NSF Hindi/Urdu Dependency Treebanking Project</project_description>			
<availability>			
<format>CML/SSF</format>			
</availability>			
<byte_count>11786</byte_count>			
<word_count>498</word_count>			
<edition_number>1.0</edition_number>			
<encoding_description>			
<original_encoding>ISO 8859</original_encoding>			
<new_encoding>Unicode UTF8</new_encoding>			
</encoding_description>			
<bibliography></bibliography>			
<sentence_marker>.</sentence_marker>			
<normalization>No</normalization>			
<utility_name>cml_tags</utility_name>			

</head>
<body>
<tb number="1" segment="no" bullet="no">
<foreign language="select" writingsystem="LTR"> </foreign>			
<text>
<Sentence id="1">
1	pulisa	NN	<fs af='pulisa,n,f,sg,3,o,0_ne,0' drel='k1:kiyA' posn='10' vpos='vib_2' name='pulisa' chunkId='NP' chunkType='head:NP'>
2	ne	PSP	<fs af='ne,psp,,,,,,' posn='20' drel='lwg__psp:pulisa' chunkType='child:NP' name='ne'>
3	pAkiswAna	NNP	<fs af='pAkiswAna,n,m,sg,3,o,0_meM,0' drel='k7p:kiyA' posn='30' vpos='vib_2' name='pAkiswAna' chunkId='NP2' chunkType='head:NP2'>
4	meM	PSP	<fs af='meM,psp,,,,,,' posn='40' drel='lwg__psp:pAkiswAna' chunkType='child:NP2' name='meM'>
5	raha	VM	<fs af='raha,v,any,sg,any,,0_raha+yA,0' drel='nmod__k1inv:AwaMkavAxI' posn='50' vpos='tam_2' name='raha' chunkId='VGNF' chunkType='head:VGNF'>
6	rahe	VAUX	<fs af='raha,v,m,sg,any,,yA,yA' posn='60' drel='lwg__vaux:raha' chunkType='child:VGNF' name='rahe'>
7	kuKyAwa	JJ	<fs af='kuKyAwa,adj,any,any,,o,,' posn='70' drel='nmod__adj:AwaMkavAxI' chunkType='child:NP3' name='kuKyAwa'>
8	AwaMkavAxI	NN	<fs af='AwaMkavAxI,n,m,sg,3,o,0,0' drel='nmod:siMha' posn='80' name='AwaMkavAxI' chunkId='NP3' chunkType='head:NP3'>
9	raMjIwa	NNPC	<fs af='raMjIwa,n,m,sg,3,d,0,0' posn='90' drel='pof__cn:siMha' chunkType='child:NP4' name='raMjIwa'>
10	siMha	NNP	<fs af='siMha,n,any,sg,3,o,0,0' drel='rs:nItA' posn='100' name='siMha' chunkId='NP4' chunkType='head:NP4'>
11	urPa	RP	<fs af='urPa,avy,,,,,,' posn='110' drel='lwg__rp:siMha' chunkType='child:NP4' name='urPa'>
12	nItA	NNP	<fs af='nItA,n,m,sg,3,o,0_kA,0' drel='r6:sAWI' posn='120' vpos='vib_2' name='nItA' chunkId='NP5' chunkType='head:NP5'>
13	ke	PSP	<fs af='kA,psp,m,sg,,o,,' posn='130' drel='lwg__psp:nItA' chunkType='child:NP5' name='ke'>
14	eka	QC	<fs af='eka,num,any,any,,any,,' posn='140' drel='nmod__adj:sAWI' chunkType='child:NP6' name='eka'>
15	sAWI	NN	<fs af='sAWI,n,m,sg,3,o,0_ko,0' drel='k2:kiyA' posn='150' vpos='vib_3' name='sAWI' chunkId='NP6' chunkType='head:NP6'>
16	ko	PSP	<fs af='ko,psp,,,,,,' posn='160' drel='lwg__psp:sAWI' chunkType='child:NP6' name='ko'>
17	bEMka	NNC	<fs af='bEMka,n,m,sg,3,d,0,0' posn='170' drel='pof__cn:dakEwI' chunkType='child:NP7' name='bEMka'>
18	dakEwI	NN	<fs af='dakEwI,n,f,sg,3,o,0_kA,0' drel='r6:Aropa' posn='180' vpos='vib_3' name='dakEwI' chunkId='NP7' chunkType='head:NP7'>
19	ke	PSP	<fs af='kA,psp,m,sg,,o,,' posn='190' drel='lwg__psp:dakEwI' chunkType='child:NP7' name='ke2'>
20	Aropa	NN	<fs af='Aropa,n,m,sg,3,o,0_meM,0' drel='k7:kiyA' posn='200' vpos='vib_2' name='Aropa' chunkId='NP8' chunkType='head:NP8'>
21	meM	PSP	<fs af='meM,psp,,,,,,' posn='210' drel='lwg__psp:Aropa' chunkType='child:NP8' name='meM2'>
22	giraPwAra	JJ	<fs af='giraPwAra,adj,any,any,,,,' drel='pof:kiyA' posn='220' name='giraPwAra' chunkId='JJP' chunkType='head:JJP'>
23	kiyA	VM	<fs af='kara,v,m,sg,3,,yA_hE,yA' stype='declarative' posn='230' voicetype='active' vpos='tam_2' name='kiyA' chunkId='VGF' chunkType='head:VGF'>
24	hE	VAUX	<fs af='hE,v,any,sg,3,,hE,hE' posn='240' drel='lwg__vaux:kiyA' chunkType='child:VGF' name='hE'>
25	.	SYM	<fs af='.,punc,,,,,,' drel='rsym:kiyA' posn='250' name='.' chunkId='BLK' chunkType='head:BLK'>
</Sentence>


<Sentence id="2">
1	pulisa	NN	<fs af='pulisa,n,f,sg,3,o,0_kA,0' drel='r6:xAvA' posn='10' vpos='vib_2' name='pulisa' chunkId='NP' chunkType='head:NP'>
2	kA	PSP	<fs af='kA,psp,m,sg,,d,,' posn='20' drel='lwg__psp:pulisa' chunkType='child:NP' name='kA'>
3	xAvA	NN	<fs af='xAvA,n,m,sg,3,d,0,0' drel='k1:hE' posn='30' name='xAvA' chunkId='NP2' chunkType='head:NP2'>
4	hE	VM	<fs af='hE,v,any,sg,3,,hE,hE' stype='declarative' posn='40' voicetype='active' name='hE' chunkId='VGF' chunkType='head:VGF'>
5	ki	CC	<fs af='ki,avy,,,,,,' drel='rs:xAvA' posn='50' name='ki' chunkId='CCP' chunkType='head:CCP'>
6	vaha	PRP	<fs af='vaha,pn,any,sg,3,d,0,0' drel='k1:rahA' posn='60' name='vaha' chunkId='NP3' chunkType='head:NP3'>
7	BI	RP	<fs af='BI,avy,,,,,,' posn='70' drel='lwg__rp:vaha' chunkType='child:NP3' name='BI'>
8	AwaMkI	JJ	<fs af='AwaMkI,adj,any,any,,o,,' posn='80' drel='nmod__adj:gawiviXiyoM' chunkType='child:NP4' name='AwaMkI'>
9	gawiviXiyoM	NN	<fs af='gawiviXi,n,f,pl,3,o,0_meM,0' drel='k7:rahA' posn='90' vpos='vib_3' name='gawiviXiyoM' chunkId='NP4' chunkType='head:NP4'>
10	meM	PSP	<fs af='meM,psp,,,,,,' posn='100' drel='lwg__psp:gawiviXiyoM' chunkType='child:NP4' name='meM'>
11	saMlipwa	JJ	<fs af='saMlipwa,adj,any,any,,,,' drel='pof:rahA' posn='110' name='saMlipwa' chunkId='JJP' chunkType='head:JJP'>
12	rahA	VM	<fs af='raha,v,m,sg,3,,yA_hE,yA' drel='ccof:ki' stype='declarative' posn='120' voicetype='active' vpos='tam_2' name='rahA' chunkId='VGF2' chunkType='head:VGF2'>
13	hE	VAUX	<fs af='hE,v,any,sg,3,,hE,hE' posn='130' drel='lwg__vaux:rahA' chunkType='child:VGF2' name='hE2'>
14	.	SYM	<fs af='.,punc,,,,,,' drel='rsym:hE' posn='140' name='.' chunkId='BLK' chunkType='head:BLK'>
</Sentence>


<Sentence id="3">
1	giraPwAra	JJ	<fs af='giraPwAra,adj,any,any,,d,,' posn='10' drel='nmod__adj:ugravAxI' chunkType='child:NP' name='giraPwAra'>
2	ugravAxI	NN	<fs af='ugravAxI,n,m,sg,3,d,0,0' drel='nmod:siMha' posn='30' name='ugravAxI' chunkId='NP' chunkType='head:NP'>
3	awarajIwa	NNPC	<fs af='awarajIwa,n,m,sg,3,d,0,0' posn='30' drel='pof__cn:siMha' chunkType='child:NP2' name='awarajIwa'>
4	siMha	NNP	<fs af='siMha,n,any,sg,3,d,0,0' drel='k1:raha' posn='40' name='siMha' chunkId='NP2' chunkType='head:NP2'>
5	lAhOra	NNP	<fs af='lAhOra,n,m,sg,3,o,0,0' drel='ccof:Ora' posn='50' name='lAhOra' chunkId='NP3' chunkType='head:NP3'>
6	(	SYM	<fs af='(,punc,,,,,,' posn='60' drel='rsym:pAkiswAna' chunkType='child:NP4' name='('>
7	pAkiswAna	NNP	<fs af='pAkiswAna,n,m,sg,3,o,0,0' drel='rs:lAhOra' posn='70' name='pAkiswAna' chunkId='NP4' chunkType='head:NP4'>
8	)	SYM	<fs af='),punc,,,,,,' posn='80' drel='rsym:pAkiswAna' chunkType='child:NP4' name=')'>
9	Ora	CC	<fs af='Ora,avy,,,,,,' drel='k7p:raha' posn='90' name='Ora' chunkId='CCP' chunkType='head:CCP'>
10	bEMkAka	NNP	<fs af='bEMkAka,n,m,sg,3,o,0,0' drel='ccof:Ora' posn='100' name='bEMkAka' chunkId='NP5' chunkType='head:NP5'>
11	(	SYM	<fs af='(,punc,,,,,,' posn='110' drel='rsym:WAilEMda' chunkType='child:NP6' name='(2'>
12	WAilEMda	NNP	<fs af='WAilEMda,n,m,sg,3,o,0,0' drel='rs:bEMkAka' posn='120' name='WAilEMda' chunkId='NP6' chunkType='head:NP6'>
13	)	SYM	<fs af='),punc,,,,,,' posn='130' drel='rsym:WAilEMda' chunkType='child:NP6' name=')2'>
14	meM	PSP	<fs drel='fragof:bEMkAka' name='meM' chunkId='FRAGP' chunkType='head:FRAGP'>
15	raha	VM	<fs af='raha,v,any,sg,3,,0_cuka_hE,0' stype='declarative' posn='150' voicetype='active' vpos='tam_2_3' name='raha' chunkId='VGF' chunkType='head:VGF'>
16	cukA	VAUX	<fs af='cuka,v,any,any,any,,0,0' posn='160' drel='lwg__vaux:raha' chunkType='child:VGF' name='cukA'>
17	hE	VAUX	<fs af='hE,v,any,sg,3,,hE,hE' posn='170' drel='lwg__vaux:raha' chunkType='child:VGF' name='hE'>
18	.	SYM	<fs af='.,punc,,,,,,' drel='rsym:raha' posn='180' name='.' chunkId='BLK' chunkType='head:BLK'>
</Sentence>


<Sentence id="4">
1	usakA	PRP	<fs af='vaha,pn,m,sg,3,o,kA,kA' drel='r6:saMbaMXa' posn='10' name='usakA' chunkId='NP' chunkType='head:NP'>
2	saMbaMXa	NN	<fs af='saMbaMXa,n,m,sg,3,d,0,0' drel='k1:rahA' posn='20' name='saMbaMXa' chunkId='NP2' chunkType='head:NP2'>
3	babbara	NNPC	<fs af='babbara,n,m,sg,3,d,0,0' posn='30' drel='pof__cn:KAlasA' chunkType='child:NP3' name='babbara'>
4	KAlasA	NNP	<fs af='KAlasA,n,m,sg,3,o,0_se,0' drel='nmod:saMbaMXa' posn='40' vpos='vib_3' name='KAlasA' chunkId='NP3' chunkType='head:NP3'>
5	se	PSP	<fs af='se,psp,,,,,,' posn='50' drel='lwg__psp:KAlasA' chunkType='child:NP3' name='se'>
6	rahA	VM	<fs af='raha,v,m,sg,3,,yA_hE,yA' stype='declarative' posn='60' voicetype='active' vpos='tam_2' name='rahA' chunkId='VGF' chunkType='head:VGF'>
7	hE	VAUX	<fs af='hE,v,any,sg,3,,hE,hE' posn='70' drel='lwg__vaux:rahA' chunkType='child:VGF' name='hE'>
8	.	SYM	<fs af='.,punc,,,,,,' drel='rsym:rahA' posn='80' name='.' chunkId='BLK' chunkType='head:BLK'>
</Sentence>


<Sentence id="5">
1	pulisa	NN	<fs af='pulisa,n,f,sg,3,o,0_ne,0' drel='k1:kie' posn='10' vpos='vib_2' name='pulisa' chunkId='NP' chunkType='head:NP'>
2	ne	PSP	<fs af='ne,psp,,,,,,' posn='20' drel='lwg__psp:pulisa' chunkType='child:NP' name='ne'>
3	usase	PRP	<fs af='vaha,pn,any,sg,3,o,se,se' drel='k4:karake' posn='30' name='usase' chunkId='NP2' chunkType='head:NP2'>
4	pUCawACa	NN	<fs af='pUCawACa,n,f,sg,3,d,0,0' drel='pof:karake' posn='40' name='pUCawACa' chunkId='NP3' chunkType='head:NP3'>
5	karake	VM	<fs af='kara,v,any,any,any,,kara,kara' drel='vmod:kie' posn='50' name='karake' chunkId='VGNF' chunkType='head:VGNF'>
6	mahawvapUrNa	JJ	<fs af='mahawvapUrNa,adj,any,any,,d,,' posn='60' drel='nmod__adj:surAga' chunkType='child:NP4' name='mahawvapUrNa'>
7	surAga	NN	<fs af='surAga,n,m,pl,3,d,0,0' drel='k2:kie' posn='70' name='surAga' chunkId='NP4' chunkType='head:NP4'>
8	hAsila	JJ	<fs af='hAsila,adj,any,any,,,,' drel='pof:kie' posn='80' name='hAsila' chunkId='JJP' chunkType='head:JJP'>
9	kie	VM	<fs af='kara,v,m,pl,3,,yA_hE,yA' stype='declarative' posn='90' voicetype='active' vpos='tam_2' name='kie' chunkId='VGF' chunkType='head:VGF'>
10	hEM	VAUX	<fs af='hE,v,any,pl,3,,hE,hE' posn='100' drel='lwg__vaux:kie' chunkType='child:VGF' name='hEM'>
11	.	SYM	<fs af='.,punc,,,,,,' drel='rsym:kie' posn='110' name='.' chunkId='BLK' chunkType='head:BLK'>
</Sentence>


<Sentence id="6">
1	pakadZe	VM	<fs af='pakada,v,m,sg,any,,yA_jA+yA1,yA' drel='nmod__k1inv:AwaMkavAxI' posn='10' vpos='tam_2' name='pakadZe' chunkId='VGNF' chunkType='head:VGNF'>
2	gae	VAUX	<fs af='jA,v,m,sg,any,,yA1,yA1' posn='20' drel='lwg__vaux:pakadZe' chunkType='child:VGNF' name='gae'>
3	AwaMkavAxI	NN	<fs af='AwaMkavAxI,n,m,sg,3,o,0_se,0' drel='k4:kara' posn='30' vpos='vib_2' name='AwaMkavAxI' chunkId='NP' chunkType='head:NP'>
4	se	PSP	<fs af='se,psp,,,,,,' posn='40' drel='lwg__psp:AwaMkavAxI' chunkType='child:NP' name='se'>
5	pulisa	NN	<fs af='pulisa,n,f,sg,3,d,0,0' drel='k1:kara' posn='50' name='pulisa' chunkId='NP2' chunkType='head:NP2'>
6	xillI	NNP	<fs af='xillI,n,f,sg,3,o,0_kA,0' drel='k7p:hAla' posn='60' vpos='vib_2' name='xillI' chunkId='NP3' chunkType='head:NP3'>
7	ke	PSP	<fs af='kA,psp,m,sg,,o,,' posn='70' drel='lwg__psp:xillI' chunkType='child:NP3' name='ke'>
8	sinemA	NNC	<fs af='sinemA,n,m,sg,3,d,0,0' posn='80' drel='pof__cn:hAla' chunkType='child:NP4' name='sinemA'>
9	hAla	NN	<fs af='hAla,n,m,sg,3,o,0_meM,0' drel='k7:hue' posn='90' vpos='vib_3' name='hAla' chunkId='NP4' chunkType='head:NP4'>
10	meM	PSP	<fs af='meM,psp,,,,,,' posn='100' drel='lwg__psp:hAla' chunkType='child:NP4' name='meM'>
11	hue	VM	<fs af='ho,v,m,sg,any,,yA,yA' drel='nmod__k1inv:kAMda' posn='110' name='hue' chunkId='VGNF2' chunkType='head:VGNF2'>
12	bama	NNC	<fs af='bama,n,m,sg,3,d,0,0' posn='120' drel='pof__cn:kAMda' chunkType='child:NP5' name='bama'>
13	kAMda	NN	<fs af='kAMda,n,m,sg,3,o,0_kA,0' drel='r6:silasile' posn='130' vpos='vib_3' name='kAMda' chunkId='NP5' chunkType='head:NP5'>
14	ke	PSP	<fs af='kA,psp,m,sg,,o,,' posn='140' drel='lwg__psp:kAMda' chunkType='child:NP5' name='ke2'>
15	silasile	NN	<fs af='silasilA,n,m,sg,3,o,0_meM,0' drel='k7:kara' posn='150' vpos='vib_2_RP' name='silasile' chunkId='NP6' chunkType='head:NP6'>
16	meM	PSP	<fs af='meM,psp,,,,,,' posn='160' drel='lwg__psp:silasile' chunkType='child:NP6' name='meM2'>
17	BI	RP	<fs af='BI,avy,,,,,,' posn='170' drel='lwg__rp:silasile' chunkType='child:NP6' name='BI'>
18	pUCawACa	NN	<fs af='pUCawACa,n,f,sg,3,d,0,0' drel='pof:kara' posn='180' name='pUCawACa' chunkId='NP7' chunkType='head:NP7'>
19	kara	VM	<fs af='kara,v,f,sg,3,,0_raha+yA_hE,0' stype='declarative' posn='190' voicetype='active' vpos='tam_2_3' name='kara' chunkId='VGF' chunkType='head:VGF'>
20	rahI	VAUX	<fs af='raha,v,f,sg,any,,yA,yA' posn='200' drel='lwg__vaux:kara' chunkType='child:VGF' name='rahI'>
21	hE	VAUX	<fs af='hE,v,any,sg,3,,hE,hE' posn='210' drel='lwg__vaux:kara' chunkType='child:VGF' name='hE'>
22	.	SYM	<fs af='.,punc,,,,,,' drel='rsym:kara' posn='220' name='.' chunkId='BLK' chunkType='head:BLK'>
</Sentence>


<Sentence id="7">
1	AwaMkI	NN	<fs af='AwaMkI,n,m,sg,3,o,0_ne,0' drel='k1:kI3' posn='10' vpos='vib_2' name='AwaMkI' chunkId='NP' chunkType='head:NP'>
2	ne	PSP	<fs af='ne,psp,,,,,,' posn='20' drel='lwg__psp:AwaMkI' chunkType='child:NP' name='ne'>
3	paMjAba	NNP	<fs af='paMjAba,n,m,sg,3,o,0_kA,0' drel='r6:muKyamaMwrI' posn='30' vpos='vib_2' name='paMjAba' chunkId='NP2' chunkType='head:NP2'>
4	ke	PSP	<fs af='kA,psp,m,sg,,o,,' posn='40' drel='lwg__psp:paMjAba' chunkType='child:NP2' name='ke'>
5	muKyamaMwrI	NNP	<fs af='muKyamaMwrI,n,m,sg,3,o,0,0' drel='nmod:siMha' posn='50' name='muKyamaMwrI' chunkId='NP3' chunkType='head:NP3'>
6	beaMwa	NNPC	<fs af='beaMwa,n,m,sg,3,d,0,0' posn='60' drel='pof__cn:siMha' chunkType='child:NP4' name='beaMwa'>
7	siMha	NNP	<fs af='siMha,n,any,sg,3,o,0_kA,0' drel='r6:hawyA' posn='70' vpos='vib_3' name='siMha' chunkId='NP4' chunkType='head:NP4'>
8	kI	PSP	<fs af='kA,psp,f,sg,,o,,' posn='80' drel='lwg__psp:siMha' chunkType='child:NP4' name='kI'>
9	hawyA	NN	<fs af='hawyA,n,f,sg,3,o,0_kA,0' drel='r6:aBiyukwoM' posn='90' vpos='vib_2' name='hawyA' chunkId='NP5' chunkType='head:NP5'>
10	ke	PSP	<fs af='kA,psp,m,pl,,o,,' posn='100' drel='lwg__psp:hawyA' chunkType='child:NP5' name='ke2'>
11	aBiyukwoM	NN	<fs af='aBiyukwa,n,m,pl,3,o,0_ko,0' drel='k1:pahuMcAne' posn='110' vpos='vib_2' name='aBiyukwoM' chunkId='NP6' chunkType='head:NP6'>
12	ko	PSP	<fs af='ko,psp,,,,,,' posn='120' drel='lwg__psp:aBiyukwoM' chunkType='child:NP6' name='ko'>
13	haWiyAra	NN	<fs af='haWiyAra,n,m,pl,3,d,0,0' drel='ccof:Ora' posn='130' name='haWiyAra' chunkId='NP7' chunkType='head:NP7'>
14	Ora	CC	<fs af='Ora,avy,,,,,,' drel='k2:pahuMcAne' posn='140' name='Ora' chunkId='CCP' chunkType='head:CCP'>
15	pEse	NN	<fs af='pEsA,n,m,pl,3,d,0,0' drel='ccof:Ora' posn='150' name='pEse' chunkId='NP8' chunkType='head:NP8'>
16	pahuMcAne	VM	<fs af='pahuMca,v,any,sg,any,o,nA_kA,nA' drel='r6:bAwa' posn='160' vpos='tam_2' name='pahuMcAne' chunkId='VGNN' chunkType='head:VGNN'>
17	kI	PSP	<fs af='kA,psp,f,sg,,d,,' posn='170' drel='lwg__psp:pahuMcAne' chunkType='child:VGNN' name='kI2'>
18	bAwa	NN	<fs af='bAwa,n,f,sg,3,d,0,0' drel='k2:kI3' posn='180' name='bAwa' chunkId='NP9' chunkType='head:NP9'>
19	svIkAra	NN	<fs af='svIkAra,n,m,sg,3,d,0,0' drel='pof:kI3' posn='190' name='svIkAra' chunkId='NP10' chunkType='head:NP10'>
20	kI	VM	<fs af='kara,v,f,sg,3,,yA_hE,yA' stype='declarative' posn='200' voicetype='active' vpos='tam_2' name='kI3' chunkId='VGF' chunkType='head:VGF'>
21	hE	VAUX	<fs af='hE,v,any,sg,3,,hE,hE' posn='210' drel='lwg__vaux:kI3' chunkType='child:VGF' name='hE'>
22	.	SYM	<fs af='.,punc,,,,,,' drel='rsym:kI3' posn='220' name='.' chunkId='BLK' chunkType='head:BLK'>
</Sentence>


<Sentence id="8">
1	esapI	NN	<fs af='esapI,n,m,sg,3,d,0,0' posn='10' drel='nmod:siMha' chunkType='child:NP' name='esapI'>
2	rAjeMxra	NNPC	<fs af='rAjeMxra,n,m,sg,3,d,0,0' posn='20' drel='pof__cn:siMha' chunkType='child:NP' name='rAjeMxra'>
3	siMha	NNP	<fs af='siMha,n,any,sg,3,o,0_ne,0' drel='k1:bawAyA' posn='30' vpos='vib_vib_4' name='siMha' chunkId='NP' chunkType='head:NP'>
4	ne	PSP	<fs af='ne,psp,,,,,,' posn='40' drel='lwg__psp:siMha' chunkType='child:NP' name='ne'>
5	bawAyA	VM	<fs af='bawA,v,m,sg,any,,yA,yA' stype='declarative' posn='50' voicetype='active' name='bawAyA' chunkId='VGF' chunkType='head:VGF'>
6	ki	CC	<fs af='ki,avy,,,,,,' drel='k2:bawAyA' posn='60' name='ki' chunkId='CCP' chunkType='head:CCP'>
7	pulisa	NN	<fs af='pulisa,n,f,sg,3,o,0_ko,0' drel='k4:mila' posn='70' vpos='vib_2' name='pulisa' chunkId='NP2' chunkType='head:NP2'>
8	ko	PSP	<fs af='ko,psp,,,,,,' posn='80' drel='lwg__psp:pulisa' chunkType='child:NP2' name='ko'>
9	isa	DEM	<fs af='yaha,pn,any,sg,3,o,,' posn='90' drel='nmod__adj:ugravAxI' chunkType='child:NP3' name='isa'>
10	ugravAxI	NN	<fs af='ugravAxI,n,m,sg,3,o,0_se,0' drel='k5:mila' posn='100' vpos='vib_3' name='ugravAxI' chunkId='NP3' chunkType='head:NP3'>
11	se	PSP	<fs af='se,psp,,,,,,' posn='110' drel='lwg__psp:ugravAxI' chunkType='child:NP3' name='se'>
12	mahawvapUrNa	JJ	<fs af='mahawvapUrNa,adj,any,any,,d,,' posn='120' drel='nmod__adj:surAga' chunkType='child:NP4' name='mahawvapUrNa'>
13	surAga	NN	<fs af='surAga,n,m,pl,3,d,0,0' drel='k1:mila' posn='130' name='surAga' chunkId='NP4' chunkType='head:NP4'>
14	mila	VM	<fs af='mila,v,m,pl,3,,0_saka+wA_hE,0' drel='ccof:ki' stype='declarative' posn='140' voicetype='active' vpos='tam_2_3' name='mila' chunkId='VGF2' chunkType='head:VGF2'>
15	sakawe	VAUX	<fs af='saka,v,m,pl,any,,wA,wA' posn='150' drel='lwg__vaux:mila' chunkType='child:VGF2' name='sakawe'>
16	hEM	VAUX	<fs af='hE,v,any,pl,3,,hE,hE' posn='160' drel='lwg__vaux:mila' chunkType='child:VGF2' name='hEM'>
17	.	SYM	<fs af='.,punc,,,,,,' drel='rsym:bawAyA' posn='170' name='.' chunkId='BLK' chunkType='head:BLK'>
</Sentence>


<Sentence id="9">
1	jalabedZA	NNP	<fs af='jalabedZA,n,m,sg,3,d,0,0' drel='jjmod:sWiwa' posn='10' name='jalabedZA' chunkId='NP' chunkType='head:NP'>
2	sWiwa	JJ	<fs af='sWiwa,adj,any,any,,o,,' drel='nmod:bEMka' posn='20' name='sWiwa' chunkId='JJP' chunkType='head:JJP'>
3	paMjAba	NNPC	<fs af='paMjAba,n,m,sg,3,d,0,0' posn='30' drel='pof__cn:bEMka' chunkType='child:NP2' name='paMjAba'>
4	neSanala	NNPC	<fs af='neSanala,adj,any,any,,o,,' posn='20' drel='pof__cn:bEMka' chunkType='child:NP2' name='neSanala'>
5	bEMka	NNP	<fs af='bEMka,n,m,sg,3,o,0_kA,0' drel='r6:SAKA' posn='50' vpos='vib_4' name='bEMka' chunkId='NP2' chunkType='head:NP2'>
6	kI	PSP	<fs af='kA,psp,f,sg,,o,,' posn='60' drel='lwg__psp:bEMka' chunkType='child:NP2' name='kI'>
7	SAKA	NN	<fs af='SAKA,n,f,sg,3,o,0_se,0' drel='k5:huI' posn='70' vpos='vib_2' name='SAKA' chunkId='NP3' chunkType='head:NP3'>
8	se	PSP	<fs af='se,psp,,,,,,' posn='80' drel='lwg__psp:SAKA' chunkType='child:NP3' name='se'>
9	1	NNPC	<fs af='1,n,any,sg,3,d,0,0' posn='90' drel='pof__cn:mArca' chunkType='child:NP4' name='1'>
10	mArca	NNP	<fs af='mArca,n,m,sg,3,o,0_ko,0' drel='k7t:huI' posn='100' vpos='vib_3' name='mArca' chunkId='NP4' chunkType='head:NP4'>
11	ko	PSP	<fs af='ko,psp,,,,,,' posn='110' drel='lwg__psp:mArca' chunkType='child:NP4' name='ko'>
12	4,29,000	QC	<fs af='429000,num,any,any,,any,,' posn='120' drel='nmod__adj:rupaye' chunkType='child:NP5' name='4,29,000'>
13	rupaye	NN	<fs af='rupayA,n,m,sg,3,o,0_kA,0' drel='r6-k2:lUta' posn='130' vpos='vib_3' name='rupaye' chunkId='NP5' chunkType='head:NP5'>
14	kI	PSP	<fs af='kA,psp,f,sg,,d,,' posn='140' drel='lwg__psp:rupaye' chunkType='child:NP5' name='kI2'>
15	lUta	NN	<fs af='lUta,n,f,sg,3,d,0,0' drel='pof:huI' posn='150' name='lUta' chunkId='NP6' chunkType='head:NP6'>
16	huI	VM	<fs af='ho,v,f,sg,any,,yA_WA,yA' stype='declarative' posn='160' voicetype='active' vpos='tam_2' name='huI' chunkId='VGF' chunkType='head:VGF'>
17	WI	VAUX	<fs af='WA,v,f,sg,any,,WA,WA' posn='170' drel='lwg__vaux:huI' chunkType='child:VGF' name='WI'>
18	.	SYM	<fs af='.,punc,,,,,,' drel='rsym:huI' posn='180' name='.' chunkId='BLK' chunkType='head:BLK'>
</Sentence>


<Sentence id="10">
1	awarajIwa	NNP	<fs af='awarajIwa,n,m,sg,3,d,0,0' drel='k1:WA' posn='10' name='awarajIwa' chunkId='NP' chunkType='head:NP'>
2	isameM	PRP	<fs af='yaha,pn,any,sg,3,o,meM,meM' drel='k7:WA' posn='20' name='isameM' chunkId='NP2' chunkType='head:NP2'>
3	SAmila	JJ	<fs af='SAmila,adj,any,any,,,,' drel='k1s:WA' posn='30' name='SAmila' chunkId='JJP' chunkType='head:JJP'>
4	WA	VM	<fs af='WA,v,m,sg,any,,WA,WA' stype='declarative' posn='40' voicetype='active' name='WA' chunkId='VGF' chunkType='head:VGF'>
5	.	SYM	<fs af='.,punc,,,,,,' drel='rsym:WA' posn='50' name='.' chunkId='BLK' chunkType='head:BLK'>
</Sentence>


<Sentence id="11">
1	use	PRP	<fs af='vaha,pn,any,sg,3,o,ko,ko' drel='k2:xaboca' posn='10' name='use' chunkId='NP' chunkType='head:NP'>
2	CAvanI	NN	<fs af='CAvanI,n,f,sg,3,o,0_kA,0' drel='r6:stEMda' posn='20' vpos='vib_2' name='CAvanI' chunkId='NP2' chunkType='head:NP2'>
3	ke	PSP	<fs af='kA,psp,m,sg,,o,,' posn='30' drel='lwg__psp:CAvanI' chunkType='child:NP2' name='ke'>
4	basa	NNC	<fs af='basa,n,m,sg,3,d,0,0' posn='40' drel='pof__cn:stEMda' chunkType='child:NP3' name='basa'>
5	stEMda	NN	<fs af='stEMda,n,m,sg,3,o,0_para,0' drel='k7p:xaboca' posn='50' vpos='vib_3' name='stEMda' chunkId='NP3' chunkType='head:NP3'>
6	para	PSP	<fs af='para,psp,,,,,,' posn='60' drel='lwg__psp:stEMda' chunkType='child:NP3' name='para'>
7	xaboca	VM	<fs af='xaboca,v,m,sg,any,,0_le+yA_jA+yA1,0' stype='declarative' posn='70' voicetype='passive' vpos='tam_2_3' name='xaboca' chunkId='VGF' chunkType='head:VGF'>
8	liyA	VAUX	<fs af='le,v,m,sg,any,,yA,yA' posn='80' drel='lwg__vaux:xaboca' chunkType='child:VGF' name='liyA'>
9	gayA	VAUX	<fs af='jA,v,m,sg,any,,yA1,yA1' posn='90' drel='lwg__vaux:xaboca' chunkType='child:VGF' name='gayA'>
10	.	SYM	<fs af='.,punc,,,,,,' drel='rsym:xaboca' posn='100' name='.' chunkId='BLK' chunkType='head:BLK'>
</Sentence>


<Sentence id="12">
1	pulisa	NNC	<fs af='pulisa,n,f,sg,3,d,0,0' posn='10' drel='pof__cn:sUwroM' chunkType='child:NP' name='pulisa'>
2	sUwroM	NN	<fs af='sUwra,n,m,pl,3,o,0_ne,0' drel='k1:bawAyA' posn='20' vpos='vib_3' name='sUwroM' chunkId='NP' chunkType='head:NP'>
3	ne	PSP	<fs af='ne,psp,,,,,,' posn='30' drel='lwg__psp:sUwroM' chunkType='child:NP' name='ne'>
4	bawAyA	VM	<fs af='bawA,v,m,sg,any,,yA,yA' stype='declarative' posn='40' voicetype='active' name='bawAyA' chunkId='VGF' chunkType='head:VGF'>
5	ki	CC	<fs af='ki,avy,,,,,,' drel='k2:bawAyA' posn='50' name='ki' chunkId='CCP' chunkType='head:CCP'>
6	giraPwAra	JJ	<fs af='giraPwAra,adj,any,any,,d,,' drel='nmod:ugravAxI' posn='60' name='giraPwAra' chunkId='JJP' chunkType='head:JJP'>
7	ugravAxI	NN	<fs af='ugravAxI,n,m,sg,3,d,0,0' drel='k1:hE' posn='70' name='ugravAxI' chunkId='NP2' chunkType='head:NP2'>
8	jammU	NNP	<fs af='jammU,n,m,sg,3,d,0,0' posn='80' drel='nmod__adj:kaSmIra' chunkType='child:NP3' name='jammU'>
9	-	SYM	<fs af='-,punc,,,,,,' posn='90' drel='rsym:kaSmIra' chunkType='child:NP3' name='-'>
10	kaSmIra	NNP	<fs af='kaSmIra,n,m,sg,3,o,0_kA,0' drel='r6:halake' posn='100' vpos='vib_vib_4' name='kaSmIra' chunkId='NP3' chunkType='head:NP3'>
11	ke	PSP	<fs af='kA,psp,m,sg,,o,,' posn='110' drel='lwg__psp:kaSmIra' chunkType='child:NP3' name='ke'>
12	AraesapurA	NNP	<fs af='AraesapurA,n,m,sg,3,d,0,0' posn='120' drel='nmod__adj:halake' chunkType='child:NP4' name='AraesapurA'>
13	halake	NN	<fs af='halakA,n,m,sg,3,o,0_kA,0' drel='r6:nivAsI' posn='130' vpos='vib_vib_3' name='halake' chunkId='NP4' chunkType='head:NP4'>
14	kA	PSP	<fs af='kA,psp,m,sg,,d,,' posn='140' drel='lwg__psp:halake' chunkType='child:NP4' name='kA'>
15	nivAsI	NN	<fs af='nivAsI,n,m,sg,3,d,0,0' drel='k1s:hE' posn='150' name='nivAsI' chunkId='NP5' chunkType='head:NP5'>
16	hE	VM	<fs af='hE,v,any,sg,3,,hE,hE' drel='ccof:ki' stype='declarative' posn='160' voicetype='active' name='hE' chunkId='VGF2' chunkType='head:VGF2'>
17	.	SYM	<fs af='.,punc,,,,,,' drel='rsym:bawAyA' posn='170' name='.' chunkId='BLK' chunkType='head:BLK'>
</Sentence>


<Sentence id="13">
1	vaha	PRP	<fs af='vaha,pn,any,sg,3,d,0,0' drel='k1:paDZawA' posn='10' name='vaha' chunkId='NP' chunkType='head:NP'>
2	jisa	DEM	<fs af='jo,pn,any,sg,3,o,,' posn='20' drel='nmod__adj:skUla' chunkType='child:NP2' name='jisa'>
3	skUla	NN	<fs af='skUla,n,m,sg,3,o,0_meM,0' drel='k7p:paDZawA' posn='30' vpos='vib_3' name='skUla' chunkId='NP2' chunkType='head:NP2'>
4	meM	PSP	<fs af='meM,psp,,,,,,' posn='40' drel='lwg__psp:skUla' chunkType='child:NP2' name='meM'>
5	paDZawA	VM	<fs af='paDa,v,m,sg,any,,wA_WA,wA' drel='nmod__relc:skUla2' stype='declarative' posn='50' voicetype='active' vpos='tam_2' name='paDZawA' chunkId='VGF' chunkType='head:VGF'>
6	WA	VAUX	<fs af='WA,v,m,sg,any,,WA,WA' posn='60' drel='lwg__vaux:paDZawA' chunkType='child:VGF' name='WA'>
7	,	SYM	<fs af='COMMA,punc,,,,,,' posn='70' drel='rsym:paDZawA' chunkType='child:VGF' name=','>
8	usI	DEM	<fs af='vaha,pn,any,sg,3,o,,' posn='80' drel='nmod__adj:skUla2' chunkType='child:NP3' name='usI'>
9	skUla	NN	<fs af='skUla,n,m,sg,3,o,0_meM,0' drel='k7p:paDZawA2' posn='90' coref='coref:NP2' vpos='vib_3' name='skUla2' chunkId='NP3' chunkType='head:NP3'>
10	meM	PSP	<fs af='meM,psp,,,,,,' posn='100' drel='lwg__psp:skUla2' chunkType='child:NP3' name='meM2'>
11	nItA	NNP	<fs af='nItA,n,m,sg,3,o,0_kA,0' drel='r6:BAI' posn='110' vpos='vib_2' name='nItA' chunkId='NP4' chunkType='head:NP4'>
12	kA	PSP	<fs af='kA,psp,m,sg,,d,,' posn='120' drel='lwg__psp:nItA' chunkType='child:NP4' name='kA'>
13	BAI	NN	<fs af='BAI,n,m,sg,3,d,0,0' drel='nmod:balaviMxra' posn='130' name='BAI' chunkId='NP5' chunkType='head:NP5'>
14	balaviMxra	NNP	<fs af='balaviMxra,n,m,sg,3,d,0,0' drel='k1:paDZawA2' posn='140' name='balaviMxra' chunkId='NP6' chunkType='head:NP6'>
15	BI	RP	<fs af='BI,avy,,,,,,' posn='150' drel='lwg__rp:balaviMxra' chunkType='child:NP6' name='BI'>
16	paDZawA	VM	<fs af='paDa,v,m,sg,any,,wA_WA,wA' stype='declarative' posn='160' voicetype='active' vpos='tam_2' name='paDZawA2' chunkId='VGF2' chunkType='head:VGF2'>
17	WA	VAUX	<fs af='WA,v,m,sg,any,,WA,WA' posn='170' drel='lwg__vaux:paDZawA2' chunkType='child:VGF2' name='WA2'>
18	.	SYM	<fs af='.,punc,,,,,,' drel='rsym:paDZawA2' posn='180' name='.' chunkId='BLK' chunkType='head:BLK'>
</Sentence>


<Sentence id="14">
1	isa	DEM	<fs af='yaha,pn,any,sg,3,o,,' posn='10' drel='nmod__adj:kAraNa' chunkType='child:NP' name='isa'>
2	kAraNa	NN	<fs af='kAraNa,n,m,sg,3,d,0,0' drel='rh:ho' posn='20' name='kAraNa' chunkId='NP' chunkType='head:NP'>
3	usakI	PRP	<fs af='vaha,pn,f,sg,3,o,kA,kA' drel='r6-k1:pahacAna' posn='30' name='usakI' chunkId='NP2' chunkType='head:NP2'>
4	pahacAna	NN	<fs af='pahacAna,n,f,sg,3,d,0,0' drel='pof:ho' posn='40' name='pahacAna' chunkId='NP3' chunkType='head:NP3'>
5	nItA	NNP	<fs af='nItA,n,m,sg,3,o,0_se,0' drel='ras-k1:ho' posn='50' vpos='vib_2_RP' name='nItA' chunkId='NP4' chunkType='head:NP4'>
6	se	PSP	<fs af='se,psp,,,,,,' posn='60' drel='lwg__psp:nItA' chunkType='child:NP4' name='se'>
7	BI	RP	<fs af='BI,avy,,,,,,' posn='70' drel='lwg__rp:nItA' chunkType='child:NP4' name='BI'>
8	ho	VM	<fs af='ho,v,any,sg,any,,0_jA+yA1,0' stype='declarative' posn='80' voicetype='active' vpos='tam_2' name='ho' chunkId='VGF' chunkType='head:VGF'>
9	gaI	VAUX	<fs af='jA,v,f,sg,any,,yA1,yA1' posn='90' drel='lwg__vaux:ho' chunkType='child:VGF' name='gaI'>
10	.	SYM	<fs af='.,punc,,,,,,' drel='rsym:ho' posn='100' name='.' chunkId='BLK' chunkType='head:BLK'>
</Sentence>


<Sentence id="15">
1	jammU	NNP	<fs af='jammU,n,m,sg,3,d,0,0' posn='10' drel='nmod__adj:kaSmIra' chunkType='child:NP' name='jammU'>
2	-	SYM	<fs af='-,punc,,,,,,' posn='20' drel='rsym:kaSmIra' chunkType='child:NP' name='-'>
3	kaSmIra	NNP	<fs af='kaSmIra,n,m,sg,3,o,0_meM,0' drel='k7p:hone' posn='30' vpos='vib_vib_4' name='kaSmIra' chunkId='NP' chunkType='head:NP'>
4	meM	PSP	<fs af='meM,psp,,,,,,' posn='40' drel='lwg__psp:kaSmIra' chunkType='child:NP' name='meM'>
5	BagodZA	JJ	<fs af='BagodA,adj,any,any,,,,' drel='k1s:hone' posn='60' name='BagodZA' chunkId='JJP' chunkType='head:JJP'>
6	GoRiwa	JJ	<fs af='GoRiwa,adj,any,any,,,,' drel='pof:hone' posn='60' name='GoRiwa' chunkId='JJP2' chunkType='head:JJP2'>
7	hone	VM	<fs af='ho,v,any,sg,3,o,nA_ke_bAxa,nA' drel='k7t:calA' posn='70' vpos='tam_2_3' name='hone' chunkId='VGNN' chunkType='head:VGNN'>
8	ke	PSP	<fs af='ke,psp,,,,,,' posn='80' drel='lwg__psp:hone' chunkType='child:VGNN' name='ke'>
9	bAxa	NST	<fs af='bAxa,nst,m,sg,3,d,,' posn='90' drel='lwg__nst:hone' chunkType='child:VGNN' name='bAxa'>
10	nItA	NNP	<fs af='nItA,n,m,sg,3,d,0,0' drel='k1:calA' posn='100' name='nItA' chunkId='NP2' chunkType='head:NP2'>
11	muMbaI	NNP	<fs af='muMbaI,n,f,sg,3,d,0,0' drel='k2p:calA' posn='110' name='muMbaI' chunkId='NP3' chunkType='head:NP3'>
12	calA	VM	<fs af='cala,v,m,sg,any,,yA_jA+yA1,yA' stype='declarative' posn='120' voicetype='active' vpos='tam_2' name='calA' chunkId='VGF' chunkType='head:VGF'>
13	gayA	VAUX	<fs af='jA,v,m,sg,any,,yA1,yA1' posn='130' drel='lwg__vaux:calA' chunkType='child:VGF' name='gayA'>
14	.	SYM	<fs af='.,punc,,,,,,' drel='rsym:calA' posn='140' name='.' chunkId='BLK' chunkType='head:BLK'>
</Sentence>


<Sentence id="16">
1	nItA	NNP	<fs af='nItA,n,m,sg,3,d,0,0' drel='k1:karawA' posn='10' name='nItA' chunkId='NP' chunkType='head:NP'>
2	vahAM	PRP	<fs af='vahAz,pn,,,,d,,' drel='k7p:karawA' posn='20' name='vahAM' chunkId='NP2' chunkType='head:NP2'>
3	apanA	PRP	<fs af='apanA,pn,m,sg,any,d,0,0' drel='r6:giroha' posn='30' name='apanA' chunkId='NP3' chunkType='head:NP3'>
4	giroha	NN	<fs af='giroha,n,m,sg,3,d,0,0' drel='k2:banAkara' posn='40' name='giroha' chunkId='NP4' chunkType='head:NP4'>
5	banAkara	VM	<fs af='banA,v,any,any,any,,kara,kara' drel='vmod:karawA' posn='50' name='banAkara' chunkId='VGNF' chunkType='head:VGNF'>
6	aparAXa	NN	<fs af='aparAXa,n,m,sg,3,d,0,0' drel='pof:karawA' posn='60' name='aparAXa' chunkId='NP5' chunkType='head:NP5'>
7	karawA	VM	<fs af='kara,v,m,sg,any,,wA_raha+yA,wA' stype='declarative' posn='70' voicetype='active' vpos='tam_2' name='karawA' chunkId='VGF' chunkType='head:VGF'>
8	rahA	VAUX	<fs af='raha,v,m,sg,any,,yA,yA' posn='80' drel='lwg__vaux:karawA' chunkType='child:VGF' name='rahA'>
9	.	SYM	<fs af='.,punc,,,,,,' drel='rsym:karawA' posn='90' name='.' chunkId='BLK' chunkType='head:BLK'>
</Sentence>


<Sentence id="17">
1	use	PRP	<fs af='vaha,pn,any,sg,3,o,ko,ko' drel='k2:pakadZA' posn='10' name='use' chunkId='NP' chunkType='head:NP'>
2	cAra	QC	<fs af='cAra,num,any,any,,any,,' posn='20' drel='nmod__adj:sAWiyoM' chunkType='child:NP2' name='cAra'>
3	sAWiyoM	NN	<fs af='sAWI,n,m,pl,3,o,0_ke_sAWa,0' drel='ras-k1:pakadZA' posn='30' vpos='vib_3_4' name='sAWiyoM' chunkId='NP2' chunkType='head:NP2'>
4	ke	PSP	<fs af='ke,psp,,,,,,' posn='40' drel='lwg__psp:sAWiyoM' chunkType='child:NP2' name='ke'>
5	sAWa	NST	<fs af='sAWa,nst,m,sg,3,d,,' posn='50' drel='lwg__psp:sAWiyoM' chunkType='child:NP2' name='sAWa'>
6	muMbaI	NNC	<fs af='muMbaI,n,m,sg,3,d,0,0' posn='60' drel='pof__cn:pulisa' chunkType='child:NP3' name='muMbaI'>
7	pulisa	NN	<fs af='pulisa,n,f,sg,3,o,0_ne,0' drel='k1:pakadZA' posn='70' vpos='vib_3' name='pulisa' chunkId='NP3' chunkType='head:NP3'>
8	ne	PSP	<fs af='ne,psp,,,,,,' posn='80' drel='lwg__psp:pulisa' chunkType='child:NP3' name='ne'>
9	pakadZA	VM	<fs af='pakada,v,m,sg,any,,yA_WA,yA' stype='declarative' posn='90' voicetype='active' vpos='tam_2' name='pakadZA' chunkId='VGF' chunkType='head:VGF'>
10	WA	VAUX	<fs af='WA,v,m,sg,any,,WA,WA' posn='100' drel='lwg__vaux:pakadZA' chunkType='child:VGF' name='WA'>
11	.	SYM	<fs af='.,punc,,,,,,' drel='rsym:pakadZA' posn='110' name='.' chunkId='BLK' chunkType='head:BLK'>
</Sentence>


<Sentence id="18">
1	isake	PRP	<fs af='yaha,pn,any,sg,3,o,0_bAxa,ke' drel='k7t:kI' posn='10' vpos='vib_2' name='isake' chunkId='NP' chunkType='head:NP'>
2	bAxa	NST	<fs af='bAxa,nst,m,sg,3,d,,' posn='20' drel='lwg__psp:isake' chunkType='child:NP' name='bAxa'>
3	jammU	NNP	<fs af='jammU,n,m,sg,3,d,0,0' posn='30' drel='nmod__adj:pulisa' chunkType='child:NP2' name='jammU'>
4	pulisa	NN	<fs af='pulisa,n,f,sg,3,o,0_ne,0' drel='k1:kI' posn='40' vpos='vib_vib_3_RP' name='pulisa' chunkId='NP2' chunkType='head:NP2'>
5	ne	PSP	<fs af='ne,psp,,,,,,' posn='50' drel='lwg__psp:pulisa' chunkType='child:NP2' name='ne'>
6	BI	RP	<fs af='BI,avy,,,,,,' posn='60' drel='lwg__rp:pulisa' chunkType='child:NP2' name='BI'>
7	rimAMda	NN	<fs af='rimAMda,n,m,sg,3,o,0_para,0' drel='k7:lekara' posn='70' vpos='vib_2' name='rimAMda' chunkId='NP3' chunkType='head:NP3'>
8	para	PSP	<fs af='para,psp,,,,,,' posn='80' drel='lwg__psp:rimAMda' chunkType='child:NP3' name='para'>
9	lekara	VM	<fs af='le,v,any,any,any,,kara,kara' drel='vmod:kI' posn='90' name='lekara' chunkId='VGNF' chunkType='head:VGNF'>
10	barakawa	NNP	<fs af='barakawa,n,m,sg,3,o,0,0' drel='ccof:Ora' posn='100' name='barakawa' chunkId='NP4' chunkType='head:NP4'>
11	Ora	CC	<fs af='Ora,avy,,,,,,' drel='k4:kI' posn='110' name='Ora' chunkId='CCP' chunkType='head:CCP'>
12	nItA	NNP	<fs af='nItA,n,m,sg,3,o,0_se,0' drel='ccof:Ora' posn='120' vpos='vib_2' name='nItA' chunkId='NP5' chunkType='head:NP5'>
13	se	PSP	<fs af='se,psp,,,,,,' posn='130' drel='lwg__psp:nItA' chunkType='child:NP5' name='se'>
14	pUCawACa	NN	<fs af='pUCawACa,n,f,sg,3,d,0,0' drel='pof:kI' posn='140' name='pUCawACa' chunkId='NP6' chunkType='head:NP6'>
15	kI	VM	<fs af='kara,v,f,sg,any,,yA_WA,yA' stype='declarative' posn='150' voicetype='active' vpos='tam_2' name='kI' chunkId='VGF' chunkType='head:VGF'>
16	WI	VAUX	<fs af='WA,v,f,sg,any,,WA,WA' posn='160' drel='lwg__vaux:kI' chunkType='child:VGF' name='WI'>
17	.	SYM	<fs af='.,punc,,,,,,' drel='rsym:kI' posn='170' name='.' chunkId='BLK' chunkType='head:BLK'>
</Sentence>


<Sentence id="19">
1	awarajIwa	NNP	<fs af='awarajIwa,n,m,sg,3,o,0_ne,0' drel='k1:bawAyA' posn='10' vpos='vib_2' name='awarajIwa' chunkId='NP' chunkType='head:NP'>
2	ne	PSP	<fs af='ne,psp,,,,,,' posn='20' drel='lwg__psp:awarajIwa' chunkType='child:NP' name='ne'>
3	pUCawACa	NN	<fs af='pUCawACa,n,f,sg,3,o,0_meM,0' drel='k7:bawAyA' posn='30' vpos='vib_2' name='pUCawACa' chunkId='NP2' chunkType='head:NP2'>
4	meM	PSP	<fs af='meM,psp,,,,,,' posn='40' drel='lwg__psp:pUCawACa' chunkType='child:NP2' name='meM'>
5	bawAyA	VM	<fs af='bawA,v,m,sg,any,,yA,yA' stype='declarative' posn='50' voicetype='active' name='bawAyA' chunkId='VGF' chunkType='head:VGF'>
6	ki	CC	<fs af='ki,avy,,,,,,' drel='k2:bawAyA' posn='60' name='ki' chunkId='CCP' chunkType='head:CCP'>
7	jaba	PRP	<fs af='jaba,pn,,,,d,,' drel='k7t:lA' posn='70' coref=':NP8' name='jaba' chunkId='NP3' chunkType='head:NP3'>
8	ina	DEM	<fs af='yaha,pn,any,pl,3,o,,' posn='80' drel='nmod__adj:logoM' chunkType='child:NP4' name='ina'>
9	logoM	NN	<fs af='loga,n,m,pl,3,o,0_ko,0' drel='k2:lA' posn='90' vpos='vib_3' name='logoM' chunkId='NP4' chunkType='head:NP4'>
10	ko	PSP	<fs af='ko,psp,,,,,,' posn='100' drel='lwg__psp:logoM' chunkType='child:NP4' name='ko'>
11	muMbaI	NNPC	<fs af='muMbaI,n,m,sg,3,d,0,0' posn='110' drel='pof__cn:nyAyAlaya' chunkType='child:NP5' name='muMbaI'>
12	pulisa	NNPC	<fs af='pulisa,n,f,sg,3,d,0,0' posn='120' drel='pof__cn:nyAyAlaya' chunkType='child:NP5' name='pulisa'>
13	nyAyAlaya	NNP	<fs af='nyAyAlaya,n,m,sg,3,o,0_meM,0' drel='k7p:lA' posn='130' vpos='vib_4' name='nyAyAlaya' chunkId='NP5' chunkType='head:NP5'>
14	meM	PSP	<fs af='meM,psp,,,,,,' posn='140' drel='lwg__psp:nyAyAlaya' chunkType='child:NP5' name='meM2'>
15	peSI	NN	<fs af='peSI,n,f,sg,3,o,0_ke_bAxa,0' drel='k7t:lA' posn='150' vpos='vib_2_3' name='peSI' chunkId='NP6' chunkType='head:NP6'>
16	ke	PSP	<fs af='ke,psp,,,,,,' posn='160' drel='lwg__psp:peSI' chunkType='child:NP6' name='ke'>
17	bAxa	NST	<fs af='bAxa,nst,m,sg,3,d,,' posn='170' drel='lwg__psp:peSI' chunkType='child:NP6' name='bAxa'>
18	vApasa	JJ	<fs af='vApasa,adj,any,any,,d,,' drel='pof:lA' posn='180' name='vApasa' chunkId='JJP' chunkType='head:JJP'>
19	kOlapura	NNP	<fs af='kOlapura,n,m,sg,3,d,0,0' posn='190' drel='nmod__adj:jela' chunkType='child:NP7' name='kOlapura'>
20	jela	NN	<fs af='jela,n,m,sg,3,d,0,0' drel='k7p:lA' posn='200' name='jela' chunkId='NP7' chunkType='head:NP7'>
21	lA	VM	<fs af='lA,v,f,sg,any,,0_raha+yA_WA,0' drel='nmod__relc:wo' stype='declarative' posn='210' voicetype='active' vpos='tam_2_3' name='lA' chunkId='VGF2' chunkType='head:VGF2'>
22	rahI	VAUX	<fs af='raha,v,f,sg,any,,yA,yA' posn='220' drel='lwg__vaux:lA' chunkType='child:VGF2' name='rahI'>
23	WI	VAUX	<fs af='WA,v,f,sg,any,,WA,WA' posn='230' drel='lwg__vaux:lA' chunkType='child:VGF2' name='WI'>
24	,	SYM	<fs af='COMMA,punc,,,,,,' posn='240' drel='rsym:lA' chunkType='child:VGF2' name=','>
25	wo	PRP	<fs af='wo,pn,,,,,,' drel='k7t:nikale' posn='250' name='wo' chunkId='NP8' chunkType='head:NP8'>
26	ve	PRP	<fs af='vaha,pn,any,pl,3,d,0,0' drel='k1:nikale' posn='260' name='ve' chunkId='NP9' chunkType='head:NP9'>
27	hirAsawa	NN	<fs af='hirAsawa,n,f,sg,3,o,0_se,0' drel='k5:nikale' posn='270' vpos='vib_2' name='hirAsawa' chunkId='NP10' chunkType='head:NP10'>
28	se	PSP	<fs af='se,psp,,,,,,' posn='280' drel='lwg__psp:hirAsawa' chunkType='child:NP10' name='se'>
29	BAga	VM	<fs af='BAga,v,any,any,any,,0,0' drel='vmod:nikale' posn='290' name='BAga' chunkId='VGNF' chunkType='head:VGNF'>
30	nikale	VM	<fs af='nikala,v,m,pl,any,,yA_WA,yA' drel='ccof:ki' stype='declarative' posn='300' voicetype='active' vpos='tam_2' name='nikale' chunkId='VGF3' chunkType='head:VGF3'>
31	We	VAUX	<fs af='WA,v,m,pl,any,,WA,WA' posn='310' drel='lwg__vaux:nikale' chunkType='child:VGF3' name='We'>
32	.	SYM	<fs af='.,punc,,,,,,' drel='rsym:bawAyA' posn='320' name='.' chunkId='BLK' chunkType='head:BLK'>
</Sentence>


<Sentence id="20">
1	kuCa	QF	<fs af='kuCa,avy,,,,,,' posn='10' drel='nmod__adj:xinoM' chunkType='child:NP' name='kuCa'>
2	xinoM	NN	<fs af='xina,n,m,pl,3,d,0_bAxa,0' drel='k7t:pakadZa' posn='20' vpos='vib_3' name='xinoM' chunkId='NP' chunkType='head:NP'>
3	bAxa	NST	<fs af='bAxa,nst,m,sg,3,d,,' posn='30' drel='lwg__psp:xinoM' chunkType='child:NP' name='bAxa'>
4	muMbaI	NNP	<fs af='muMbaI,n,m,sg,3,d,0,0' posn='40' drel='nmod__adj:pulisa' chunkType='child:NP2' name='muMbaI'>
5	pulisa	NN	<fs af='pulisa,n,f,sg,3,o,0_ne,0' drel='k1:pakadZa' posn='50' vpos='vib_vib_3' name='pulisa' chunkId='NP2' chunkType='head:NP2'>
6	ne	PSP	<fs af='ne,psp,,,,,,' posn='60' drel='lwg__psp:pulisa' chunkType='child:NP2' name='ne'>
7	inameM	PRP	<fs af='yaha,pn,any,pl,3,o,0_se,meM' drel='k5:pakadZa' posn='70' vpos='vib_2' name='inameM' chunkId='NP3' chunkType='head:NP3'>
8	se	PSP	<fs af='se,psp,,,,,,' posn='80' drel='lwg__psp:inameM' chunkType='child:NP3' name='se'>
9	wIna	NN	<fs af='wIna,n,m,sg,3,o,0_ko,0' drel='k2:pakadZa' posn='90' vpos='vib_2_RP' name='wIna' chunkId='NP4' chunkType='head:NP4'>
10	ko	PSP	<fs af='ko,psp,,,,,,' posn='100' drel='lwg__psp:wIna' chunkType='child:NP4' name='ko'>
11	wo	RP	<fs af='wo,avy,,,,,,' posn='110' drel='lwg__rp:wIna' chunkType='child:NP4' name='wo'>
12	pakadZa	VM	<fs af='pakada,v,any,sg,any,,0_le+yA,0' drel='ccof:lekina' stype='declarative' posn='120' voicetype='active' vpos='tam_2' name='pakadZa' chunkId='VGF' chunkType='head:VGF'>
13	liyA	VAUX	<fs af='le,v,m,sg,any,,yA,yA' posn='130' drel='lwg__vaux:pakadZa' chunkType='child:VGF' name='liyA'>
14	,	SYM	<fs af='COMMA,punc,,,,,,' posn='140' drel='rsym:pakadZa' chunkType='child:VGF' name=','>
15	lekina	CC	<fs af='lekina,avy,,,,,,' posn='150' name='lekina' chunkId='CCP' chunkType='head:CCP'>
16	nItA	NNP	<fs af='nItA,n,m,sg,3,d,0,0' drel='ccof:Ora' posn='160' name='nItA' chunkId='NP5' chunkType='head:NP5'>
17	Ora	CC	<fs af='Ora,avy,,,,,,' drel='k1:AyA' posn='170' name='Ora' chunkId='CCP2' chunkType='head:CCP2'>
18	usakA	PRP	<fs af='vaha,pn,m,sg,3,o,kA,kA' drel='r6:sAWI' posn='180' name='usakA' chunkId='NP6' chunkType='head:NP6'>
19	eka	QC	<fs af='eka,num,any,any,,any,,' posn='190' drel='nmod__adj:sAWI' chunkType='child:NP7' name='eka'>
20	sAWI	NN	<fs af='sAWI,n,m,sg,3,d,0,0' drel='nmod:piMkA' posn='200' name='sAWI' chunkId='NP7' chunkType='head:NP7'>
21	piMkA	NNP	<fs af='piMkA,n,m,sg,3,d,0,0' drel='ccof:Ora' posn='210' name='piMkA' chunkId='NP8' chunkType='head:NP8'>
22	pulisa	NN	<fs af='pulisa,n,f,sg,3,o,0_kA,0' drel='r6-k2:hAWa' posn='220' vpos='vib_2' name='pulisa2' chunkId='NP9' chunkType='head:NP9'>
23	ke	PSP	<fs af='kA,psp,m,pl,,d,,' posn='230' drel='lwg__psp:pulisa2' chunkType='child:NP9' name='ke'>
24	hAWa	NN	<fs af='hAWa,n,m,pl,3,d,0,0' drel='pof:AyA' posn='240' name='hAWa' chunkId='NP10' chunkType='head:NP10'>
25	nahIM	NEG	<fs af='nahIM,avy,,,,,,' posn='250' drel='lwg__neg:AyA' chunkType='child:VGF2' name='nahIM'>
26	AyA	VM	<fs af='A,v,m,sg,any,,yA,yA' drel='ccof:lekina' stype='declarative' posn='260' voicetype='active' name='AyA' chunkId='VGF2' chunkType='head:VGF2'>
27	.	SYM	<fs af='.,punc,,,,,,' drel='rsym:lekina' posn='270' name='.' chunkId='BLK' chunkType='head:BLK'>
</Sentence>


<Sentence id="21">
1	nItA	NNP	<fs af='nItA,n,m,sg,3,d,0,0' drel='k1:BAgakara' posn='10' name='nItA' chunkId='NP' chunkType='head:NP'>
2	BAgakara	VM	<fs af='BAga,v,any,any,any,,kara,kara' drel='vmod:calA' posn='20' name='BAgakara' chunkId='VGNF' chunkType='head:VGNF'>
3	nepAla	NNP	<fs af='nepAla,n,m,sg,3,d,0,0' drel='k2p:calA' posn='30' name='nepAla' chunkId='NP2' chunkType='head:NP2'>
4	calA	VM	<fs af='cala,v,m,sg,any,,yA_jA+yA1,yA' stype='declarative' posn='40' voicetype='active' vpos='tam_2' name='calA' chunkId='VGF' chunkType='head:VGF'>
5	gayA	VAUX	<fs af='jA,v,m,sg,any,,yA1,yA1' posn='50' drel='lwg__vaux:calA' chunkType='child:VGF' name='gayA'>
6	.	SYM	<fs af='.,punc,,,,,,' drel='rsym:calA' posn='60' name='.' chunkId='BLK' chunkType='head:BLK'>
</Sentence>


<Sentence id="22">
1	vahAM	PRP	<fs af='vahAz,pn,,,,d,,' drel='k7p:rahawI' posn='10' name='vahAM' chunkId='NP' chunkType='head:NP'>
2	usakI	PRP	<fs af='vaha,pn,f,sg,3,o,kA,kA' drel='r6:sAlI' posn='20' name='usakI' chunkId='NP2' chunkType='head:NP2'>
3	sAlI	NN	<fs af='sAlI,n,f,sg,3,d,0,0' drel='k1:rahawI' posn='30' name='sAlI' chunkId='NP3' chunkType='head:NP3'>
4	rahawI	VM	<fs af='raha,v,f,sg,any,,wA_WA,wA' drel='ccof:Ora' stype='declarative' posn='40' voicetype='active' vpos='tam_2' name='rahawI' chunkId='VGF' chunkType='head:VGF'>
5	WI	VAUX	<fs af='WA,v,f,sg,any,,WA,WA' posn='50' drel='lwg__vaux:rahawI' chunkType='child:VGF' name='WI'>
6	Ora	CC	<fs af='Ora,avy,,,,,,' posn='60' name='Ora' chunkId='CCP' chunkType='head:CCP'>
7	vahAM	PRP	<fs af='vahAz,pn,,,,o,0_se,' drel='k5:calA' posn='70' vpos='vib_2' name='vahAM2' chunkId='NP4' chunkType='head:NP4'>
8	se	PSP	<fs af='se,psp,,,,,,' posn='80' drel='lwg__psp:vahAM2' chunkType='child:NP4' name='se'>
9	vaha	PRP	<fs af='vaha,pn,any,sg,3,d,0,0' drel='k1:calA' posn='90' name='vaha' chunkId='NP5' chunkType='head:NP5'>
10	pAkiswAna	NNP	<fs af='pAkiswAna,n,m,sg,3,d,0,0' drel='k2p:calA' posn='100' name='pAkiswAna' chunkId='NP6' chunkType='head:NP6'>
11	calA	VM	<fs af='cala,v,m,sg,any,,yA_jA+yA1,yA' drel='ccof:Ora' stype='declarative' posn='110' voicetype='active' vpos='tam_2' name='calA' chunkId='VGF2' chunkType='head:VGF2'>
12	gayA	VAUX	<fs af='jA,v,m,sg,any,,yA1,yA1' posn='120' drel='lwg__vaux:calA' chunkType='child:VGF2' name='gayA'>
13	.	SYM	<fs af='.,punc,,,,,,' drel='rsym:Ora' posn='130' name='.' chunkId='BLK' chunkType='head:BLK'>
</Sentence>


<Sentence id="23">
1	awarajIwa	NNP	<fs af='awarajIwa,n,m,sg,3,o,0_ke_KilAPa,0' drel='vmod:huA' posn='10' vpos='vib_2_3' name='awarajIwa' chunkId='NP' chunkType='head:NP'>
2	ke	PSP	<fs af='ke,psp,,,,,,' posn='20' drel='lwg__psp:awarajIwa' chunkType='child:NP' name='ke'>
3	KilAPa	PSP	<fs af='KilAPa,psp,,,,,,' posn='30' drel='lwg__psp:awarajIwa' chunkType='child:NP' name='KilAPa'>
4	1997	NNP	<fs af='1997,n,any,sg,3,o,0_meM,0' drel='k7t:huA' posn='40' vpos='vib_2' name='1997' chunkId='NP2' chunkType='head:NP2'>
5	meM	PSP	<fs af='meM,psp,,,,,,' posn='50' drel='lwg__psp:1997' chunkType='child:NP2' name='meM'>
6	bama	NNC	<fs af='bama,n,m,sg,3,d,0,0' posn='60' drel='pof__cn:blAsta' chunkType='child:NP3' name='bama'>
7	blAsta	NN	<fs af='blAsta,n,m,sg,3,o,0_kA,0' drel='r6:kesa' posn='70' vpos='vib_3' name='blAsta' chunkId='NP3' chunkType='head:NP3'>
8	kA	PSP	<fs af='kA,psp,m,sg,,d,,' posn='80' drel='lwg__psp:blAsta' chunkType='child:NP3' name='kA'>
9	kesa	NN	<fs af='kesa,n,m,sg,3,d,0,0' drel='k1:huA' posn='90' name='kesa' chunkId='NP4' chunkType='head:NP4'>
10	xarja	JJ	<fs af='xarja,adj,any,any,,,,' drel='pof:huA' posn='100' name='xarja' chunkId='JJP' chunkType='head:JJP'>
11	huA	VM	<fs af='ho,v,any,any,any,,yA,yA' drel='ccof:Ora' stype='declarative' posn='110' voicetype='active' name='huA' chunkId='VGF' chunkType='head:VGF'>
12	Ora	CC	<fs af='Ora,avy,,,,,,' posn='120' name='Ora' chunkId='CCP' chunkType='head:CCP'>
13	isake	PRP	<fs af='yaha,pn,any,sg,3,o,0_bAxa,ke' drel='k7t:BAga' posn='130' vpos='vib_2' name='isake' chunkId='NP5' chunkType='head:NP5'>
14	bAxa	NST	<fs af='bAxa,nst,m,sg,3,d,,' posn='140' drel='lwg__psp:isake' chunkType='child:NP5' name='bAxa'>
15	vaha	PRP	<fs af='vaha,pn,any,sg,3,d,0,0' drel='k1:BAga' posn='150' name='vaha' chunkId='NP6' chunkType='head:NP6'>
16	nepAla	NNP	<fs af='nepAla,n,m,sg,3,d,0,0' drel='k2p:BAga' posn='160' name='nepAla' chunkId='NP7' chunkType='head:NP7'>
17	BAga	VM	<fs af='BAga,v,any,sg,any,,0_jA+yA1,0' drel='ccof:Ora' stype='declarative' posn='170' voicetype='active' vpos='tam_2' name='BAga' chunkId='VGF2' chunkType='head:VGF2'>
18	gayA	VAUX	<fs af='jA,v,m,sg,any,,yA1,yA1' posn='180' drel='lwg__vaux:BAga' chunkType='child:VGF2' name='gayA'>
19	.	SYM	<fs af='.,punc,,,,,,' drel='rsym:Ora' posn='190' name='.' chunkId='BLK' chunkType='head:BLK'>
</Sentence>


<Sentence id="24">
1	Pona	NN	<fs af='Pona,n,m,sg,3,o,0_se,0' drel='k3:karane' posn='10' vpos='vib_2' name='Pona' chunkId='NP' chunkType='head:NP'>
2	se	PSP	<fs af='se,psp,,,,,,' posn='20' drel='lwg__psp:Pona' chunkType='child:NP' name='se'>
3	saMparka	NN	<fs af='saMparka,n,m,sg,3,d,0,0' drel='pof:karane' posn='30' name='saMparka' chunkId='NP2' chunkType='head:NP2'>
4	karane	VM	<fs af='kara,v,any,any,any,o,nA_para,nA' drel='k7:bulAyA' posn='40' vpos='tam_2' name='karane' chunkId='VGNN' chunkType='head:VGNN'>
5	para	PSP	<fs af='para,psp,,,,,,' posn='50' drel='lwg__psp:karane' chunkType='child:VGNN' name='para'>
6	nItA	NNP	<fs af='nItA,n,m,sg,3,o,0_ne,0' drel='k1:bulAyA' posn='60' vpos='vib_2' name='nItA' chunkId='NP3' chunkType='head:NP3'>
7	ne	PSP	<fs af='ne,psp,,,,,,' posn='70' drel='lwg__psp:nItA' chunkType='child:NP3' name='ne'>
8	use	PRP	<fs af='vaha,pn,any,sg,3,o,ko,ko' drel='k2:bulAyA' posn='80' name='use' chunkId='NP4' chunkType='head:NP4'>
9	pAkiswAna	NNP	<fs af='pAkiswAna,n,m,sg,3,d,0,0' drel='k7p:bulAyA' posn='90' name='pAkiswAna' chunkId='NP5' chunkType='head:NP5'>
10	bulAyA	VM	<fs af='bulA,v,m,sg,any,,yA,yA' stype='declarative' posn='100' voicetype='active' name='bulAyA' chunkId='VGF' chunkType='head:VGF'>
11	.	SYM	<fs af='.,punc,,,,,,' drel='rsym:bulAyA' posn='110' name='.' chunkId='BLK' chunkType='head:BLK'>
</Sentence>


<Sentence id="25">
1	pAkiswAna	NNP	<fs af='pAkiswAna,n,m,sg,3,d,0,0' drel='k2p:jAne' posn='10' name='pAkiswAna' chunkId='NP' chunkType='head:NP'>
2	jAne	VM	<fs af='jA,v,any,any,any,o,nA_ke_lie,nA' drel='rt:gayA' posn='20' vpos='tam_2_3' name='jAne' chunkId='VGNN' chunkType='head:VGNN'>
3	ke	PSP	<fs af='ke,psp,,,,,,' posn='30' drel='lwg__psp:jAne' chunkType='child:VGNN' name='ke'>
4	lie	PSP	<fs af='lie,psp,,,,,,' posn='40' drel='lwg__psp:jAne' chunkType='child:VGNN' name='lie'>
5	vaha	PRP	<fs af='vaha,pn,any,sg,3,d,0,0' drel='k1:gayA' posn='50' name='vaha' chunkId='NP2' chunkType='head:NP2'>
6	xillI	NNP	<fs af='xillI,n,f,sg,3,d,0,0' drel='k2p:gayA' posn='60' name='xillI' chunkId='NP3' chunkType='head:NP3'>
7	gayA	VM	<fs af='jA,v,m,sg,any,,yA1,yA1' stype='declarative' posn='70' voicetype='active' name='gayA' chunkId='VGF' chunkType='head:VGF'>
8	.	SYM	<fs af='.,punc,,,,,,' drel='rsym:gayA' posn='80' name='.' chunkId='BLK' chunkType='head:BLK'>
</Sentence>


<Sentence id="26">
1	vahAM	PRP	<fs af='vahAz,pn,,,,d,,' drel='k7p:liyA' posn='10' name='vahAM' chunkId='NP' chunkType='head:NP'>
2	balavIra	NNP	<fs af='balavIra,n,m,sg,3,o,0_kA,0' drel='r6:sahAyawA' posn='20' vpos='vib_2' name='balavIra' chunkId='NP2' chunkType='head:NP2'>
3	kI	PSP	<fs af='kA,psp,f,sg,,o,,' posn='30' drel='lwg__psp:balavIra' chunkType='child:NP2' name='kI'>
4	sahAyawA	NN	<fs af='sahAyawA,n,f,sg,3,o,0_se,0' drel='k3:liyA' posn='40' vpos='vib_2' name='sahAyawA' chunkId='NP3' chunkType='head:NP3'>
5	se	PSP	<fs af='se,psp,,,,,,' posn='50' drel='lwg__psp:sahAyawA' chunkType='child:NP3' name='se'>
6	usane	PRP	<fs af='vaha,pn,any,sg,3,o,ne,ne' drel='k1:liyA' posn='60' name='usane' chunkId='NP4' chunkType='head:NP4'>
7	WAIlEMda	NNP	<fs af='WAIlEMda,n,m,sg,3,o,0_kA,0' drel='r6:vIjA' posn='70' vpos='vib_2' name='WAIlEMda' chunkId='NP5' chunkType='head:NP5'>
8	kA	PSP	<fs af='kA,psp,m,sg,,d,,' posn='80' drel='lwg__psp:WAIlEMda' chunkType='child:NP5' name='kA'>
9	vIjA	NN	<fs af='vIjA,n,m,sg,3,d,0,0' drel='k2:liyA' posn='90' name='vIjA' chunkId='NP6' chunkType='head:NP6'>
10	liyA	VM	<fs af='le,v,m,sg,any,,yA,yA' drel='ccof:Ora' stype='declarative' posn='100' voicetype='active' name='liyA' chunkId='VGF' chunkType='head:VGF'>
11	Ora	CC	<fs af='Ora,avy,,,,,,' posn='110' name='Ora' chunkId='CCP' chunkType='head:CCP'>
12	bEMkAka	NNP	<fs af='bEMkAka,n,m,sg,3,d,0,0' drel='k2p:calA' posn='120' name='bEMkAka' chunkId='NP7' chunkType='head:NP7'>
13	calA	VM	<fs af='cala,v,m,sg,any,,yA_jA+yA1,yA' drel='ccof:Ora' stype='declarative' posn='130' voicetype='active' vpos='tam_2' name='calA' chunkId='VGF2' chunkType='head:VGF2'>
14	gayA	VAUX	<fs af='jA,v,m,sg,any,,yA1,yA1' posn='140' drel='lwg__vaux:calA' chunkType='child:VGF2' name='gayA'>
15	.	SYM	<fs af='.,punc,,,,,,' drel='rsym:Ora' posn='150' name='.' chunkId='BLK' chunkType='head:BLK'>
</Sentence>


<Sentence id="27">
1	bEMkAka	NNP	<fs af='bEMkAka,n,m,sg,3,o,0_se,0' drel='k7p:liyA' posn='10' vpos='vib_2' name='bEMkAka' chunkId='NP' chunkType='head:NP'>
2	se	PSP	<fs af='se,psp,,,,,,' posn='20' drel='lwg__psp:bEMkAka' chunkType='child:NP' name='se'>
3	usane	PRP	<fs af='vaha,pn,any,sg,3,o,ne,ne' drel='k1:liyA' posn='30' name='usane' chunkId='NP2' chunkType='head:NP2'>
4	xillI	NNP	<fs af='xillI,n,f,sg,3,o,0_kA,0' drel='r6:tikata' posn='40' vpos='vib_2' name='xillI' chunkId='NP3' chunkType='head:NP3'>
5	kA	PSP	<fs af='kA,psp,m,sg,,d,,' posn='50' drel='lwg__psp:xillI' chunkType='child:NP3' name='kA'>
6	tikata	NN	<fs af='tikata,n,m,sg,3,d,0,0' drel='k2:liyA' posn='60' name='tikata' chunkId='NP4' chunkType='head:NP4'>
7	liyA	VM	<fs af='le,v,m,sg,any,,yA,yA' drel='ccof:lekina' stype='declarative' posn='70' voicetype='active' name='liyA' chunkId='VGF' chunkType='head:VGF'>
8	lekina	CC	<fs af='lekina,avy,,,,,,' posn='80' name='lekina' chunkId='CCP' chunkType='head:CCP'>
9	,	SYM	<fs af='COMMA,punc,,,,,,' posn='90' drel='rsym:lekina' chunkType='child:CCP' name=','>
10	karAcI	NNP	<fs af='karAcI,n,m,sg,3,o,0_meM,0' drel='k7p:uwara' posn='100' vpos='vib_2' name='karAcI' chunkId='NP5' chunkType='head:NP5'>
11	meM	PSP	<fs af='meM,psp,,,,,,' posn='110' drel='lwg__psp:karAcI' chunkType='child:NP5' name='meM'>
12	domestika	JJ	<fs af='domestika,adj,any,any,,o,,' posn='60' drel='nmod__adj:eyaraporta' chunkType='child:NP6' name='domestika'>
13	eyaraporta	NN	<fs af='eyaraporta,n,m,sg,3,o,0_para,0' drel='k7:uwara' posn='130' vpos='vib_3' name='eyaraporta' chunkId='NP6' chunkType='head:NP6'>
14	para	PSP	<fs af='para,psp,,,,,,' posn='140' drel='lwg__psp:eyaraporta' chunkType='child:NP6' name='para'>
15	uwara	VM	<fs af='uwara,v,any,sg,any,,0_jA+yA1,0' drel='ccof:lekina' stype='declarative' posn='150' voicetype='active' vpos='tam_2' name='uwara' chunkId='VGF2' chunkType='head:VGF2'>
16	gayA	VAUX	<fs af='jA,v,m,sg,any,,yA1,yA1' posn='160' drel='lwg__vaux:uwara' chunkType='child:VGF2' name='gayA'>
17	.	SYM	<fs af='.,punc,,,,,,' drel='rsym:lekina' posn='170' name='.' chunkId='BLK' chunkType='head:BLK'>
</Sentence>


<Sentence id="28">
1	yahAM	PRP	<fs af='yahAz,pn,,,,o,0_se,' drel='k7p:le' posn='10' vpos='vib_2' name='yahAM' chunkId='NP' chunkType='head:NP'>
2	se	PSP	<fs af='se,psp,,,,,,' posn='20' drel='lwg__psp:yahAM' chunkType='child:NP' name='se'>
3	babbara	NNPC	<fs af='babbara,n,m,sg,3,d,0,0' posn='30' drel='pof__cn:KAlasA' chunkType='child:NP2' name='babbara'>
4	KAlasA	NNP	<fs af='KAlasA,n,m,sg,3,o,0_kA,0' drel='r6:AwaMkavAxI' posn='40' vpos='vib_3' name='KAlasA' chunkId='NP2' chunkType='head:NP2'>
5	kA	PSP	<fs af='kA,psp,m,sg,,d,,' posn='50' drel='lwg__psp:KAlasA' chunkType='child:NP2' name='kA'>
6	kuKyAwa	JJ	<fs af='kuKyAwa,adj,any,any,,d,,' posn='60' drel='nmod__adj:AwaMkavAxI' chunkType='child:NP3' name='kuKyAwa'>
7	AwaMkavAxI	NN	<fs af='AwaMkavAxI,n,m,sg,3,d,0,0' drel='nmod:babbara2' posn='70' name='AwaMkavAxI' chunkId='NP3' chunkType='head:NP3'>
8	mahala	NNPC	<fs af='mahala,n,m,sg,3,d,0,0' posn='80' drel='pof__cn:babbara2' chunkType='child:NP4' name='mahala'>
9	siMha	NNPC	<fs af='siMha,n,m,sg,3,d,0,0' posn='90' drel='pof__cn:babbara2' chunkType='child:NP4' name='siMha'>
10	babbara	NNP	<fs af='babbara,n,m,sg,3,d,0,0' drel='k1:le' posn='100' name='babbara2' chunkId='NP4' chunkType='head:NP4'>
11	use	PRP	<fs af='vaha,pn,any,sg,3,o,ko,ko' drel='k2:le' posn='110' name='use' chunkId='NP5' chunkType='head:NP5'>
12	nItA	NNP	<fs af='nItA,n,m,sg,3,o,0_ke_pAsa,0' drel='k7:le' posn='120' vpos='vib_2_3' name='nItA' chunkId='NP6' chunkType='head:NP6'>
13	ke	PSP	<fs af='ke,psp,,,,,,' posn='130' drel='lwg__psp:nItA' chunkType='child:NP6' name='ke'>
14	pAsa	NST	<fs af='pAsa,nst,m,sg,3,d,,' posn='140' drel='lwg__psp:nItA' chunkType='child:NP6' name='pAsa'>
15	lAhOra	NNP	<fs af='lAhOra,n,m,sg,3,d,0,0' drel='k7p:le' posn='150' name='lAhOra' chunkId='NP7' chunkType='head:NP7'>
16	le	VM	<fs af='le,v,any,sg,any,,0_jA+yA1,0' stype='declarative' posn='160' voicetype='active' vpos='tam_2' name='le' chunkId='VGF' chunkType='head:VGF'>
17	gayA	VAUX	<fs af='jA,v,m,sg,any,,yA1,yA1' posn='170' drel='lwg__vaux:le' chunkType='child:VGF' name='gayA'>
18	.	SYM	<fs af='.,punc,,,,,,' drel='rsym:le' posn='180' name='.' chunkId='BLK' chunkType='head:BLK'>
</Sentence>


<Sentence id="29">
1	awarajIwa	NNP	<fs af='awarajIwa,n,m,sg,3,o,0_ne,0' drel='k1:kiyA' posn='10' vpos='vib_2' name='awarajIwa' chunkId='NP' chunkType='head:NP'>
2	ne	PSP	<fs af='ne,psp,,,,,,' posn='20' drel='lwg__psp:awarajIwa' chunkType='child:NP' name='ne'>
3	svIkAra	NN	<fs af='svIkAra,n,m,sg,3,d,0,0' drel='pof:kiyA' posn='30' name='svIkAra' chunkId='NP2' chunkType='head:NP2'>
4	kiyA	VM	<fs af='kara,v,m,sg,any,,yA,yA' stype='declarative' posn='40' voicetype='active' name='kiyA' chunkId='VGF' chunkType='head:VGF'>
5	ki	CC	<fs af='ki,avy,,,,,,' drel='k2:kiyA' posn='50' name='ki' chunkId='CCP' chunkType='head:CCP'>
6	1997	NNP	<fs af='1997,n,any,sg,3,o,0_meM,0' drel='k7t:xI' posn='60' vpos='vib_2' name='1997' chunkId='NP3' chunkType='head:NP3'>
7	meM	PSP	<fs af='meM,psp,,,,,,' posn='70' drel='lwg__psp:1997' chunkType='child:NP3' name='meM'>
8	bEsAKI	NNP	<fs af='bEsAKI,n,f,sg,3,o,0_kA,0' drel='r6:mOke' posn='80' vpos='vib_2' name='bEsAKI' chunkId='NP4' chunkType='head:NP4'>
9	ke	PSP	<fs af='kA,psp,m,sg,,o,,' posn='90' drel='lwg__psp:bEsAKI' chunkType='child:NP4' name='ke'>
10	mOke	NN	<fs af='mOkA,n,m,sg,3,o,0_para,0' drel='k7:xI' posn='100' vpos='vib_2' name='mOke' chunkId='NP5' chunkType='head:NP5'>
11	para	PSP	<fs af='para,psp,,,,,,' posn='110' drel='lwg__psp:mOke' chunkType='child:NP5' name='para'>
12	nItA	NNP	<fs af='nItA,n,m,sg,3,o,0_ne,0' drel='k1:lOtawe' posn='120' vpos='vib_2' name='nItA' chunkId='NP6' chunkType='head:NP6'>
13	ne	PSP	<fs af='ne,psp,,,,,,' posn='130' drel='lwg__psp:nItA' chunkType='child:NP6' name='ne2'>
14	jammU	NNP	<fs af='jammU,n,m,sg,3,d,0,0' drel='k7p:lOtawe' posn='140' name='jammU' chunkId='NP7' chunkType='head:NP7'>
15	lOtawe	VM	<fs af='lOta,v,any,any,any,o,wA_vakwa,wA' drel='k7t:xI' posn='150' vpos='tam_2' name='lOtawe' chunkId='VGNN' chunkType='head:VGNN'>
16	vakwa	PSP	<fs af='vakwa,n,m,,,o,,' posn='160' drel='lwg__psp:lOtawe' chunkType='child:VGNN' name='vakwa'>
17	use	PRP	<fs af='vaha,pn,any,sg,3,o,ko,ko' drel='k4:xI' posn='170' name='use' chunkId='NP8' chunkType='head:NP8'>
18	eka	QC	<fs af='eka,num,any,any,,any,,' posn='180' drel='nmod__adj:47' chunkType='child:NP9' name='eka'>
19	eke	NNC	<fs af='eke,n,m,sg,3,d,0,0' posn='190' drel='pof__cn:47' chunkType='child:NP9' name='eke'>
20	-	SYM	<fs af='-,punc,,,,,,' posn='200' drel='pof__cn:47' chunkType='child:NP9' name='-'>
21	47	NN	<fs af='47,n,m,sg,3,d,0,0' drel='ccof:Ora' posn='210' name='47' chunkId='NP9' chunkType='head:NP9'>
22	,	SYM	<fs af='COMMA,punc,,,,,,' posn='220' drel='rsym:47' chunkType='child:NP9' name=','>
23	nO	QC	<fs af='nO,num,any,any,,any,,' posn='230' drel='nmod__adj:mEgajZIna' chunkType='child:NP10' name='nO'>
24	mEgajZIna	NNP	<fs af='mEgajIna,n,m,sg,3,d,0,0' drel='ccof:Ora' posn='240' name='mEgajZIna' chunkId='NP10' chunkType='head:NP10'>
25	,	SYM	<fs af='COMMA,punc,,,,,,' posn='250' drel='rsym:mEgajZIna' chunkType='child:NP10' name=',2'>
26	7	QC	<fs af='7,num,any,any,,any,,' posn='260' drel='nmod__adj:AradIeksa' chunkType='child:NP11' name='7'>
27	-	SYM	<fs af='-,punc,,,,,,' posn='270' drel='rsym:AradIeksa' chunkType='child:NP11' name='-2'>
28	8	QC	<fs af='8,num,any,any,,any,,' posn='280' drel='nmod__adj:AradIeksa' chunkType='child:NP11' name='8'>
29	pEketa	NN	<fs af='pEketa,n,m,sg,3,d,0,0' posn='290' drel='nmod:AradIeksa' chunkType='child:NP11' name='pEketa'>
30	AradIeksa	NNP	<fs af='AradIeksa,n,m,sg,3,d,0,0' drel='ccof:Ora' posn='300' name='AradIeksa' chunkId='NP11' chunkType='head:NP11'>
31	,	SYM	<fs af='COMMA,punc,,,,,,' posn='310' drel='rsym:AradIeksa' chunkType='child:NP11' name=',3'>
32	detonetara	NN	<fs af='detonetara,n,m,sg,3,d,0,0' drel='ccof:Ora' posn='320' name='detonetara' chunkId='NP12' chunkType='head:NP12'>
33	,	SYM	<fs af='COMMA,punc,,,,,,' posn='330' drel='rsym:detonetara' chunkType='child:NP12' name=',4'>
34	vAyaralesa	NNC	<fs af='vAyaralesa,n,m,sg,3,d,0,0' posn='340' drel='pof__cn:seta' chunkType='child:NP13' name='vAyaralesa'>
35	seta	NN	<fs af='seta,n,m,sg,3,d,0,0' drel='ccof:Ora' posn='350' name='seta' chunkId='NP13' chunkType='head:NP13'>
36	Ora	CC	<fs af='Ora,avy,,,,,,' drel='k2:xI' posn='360' name='Ora' chunkId='CCP2' chunkType='head:CCP2'>
37	anya	JJ	<fs af='anya,adj,any,any,,d,,' posn='370' drel='nmod__adj:sAmagrI' chunkType='child:NP14' name='anya'>
38	sAmagrI	NN	<fs af='sAmagrI,n,f,sg,3,d,0,0' drel='ccof:Ora' posn='380' name='sAmagrI' chunkId='NP14' chunkType='head:NP14'>
39	xI	VM	<fs af='xe,v,f,sg,any,,yA_WA,yA' drel='ccof:ki' stype='declarative' posn='390' voicetype='active' vpos='tam_2' name='xI' chunkId='VGF2' chunkType='head:VGF2'>
40	WI	VAUX	<fs af='WA,v,f,sg,any,,WA,WA' posn='400' drel='lwg__vaux:xI' chunkType='child:VGF2' name='WI'>
41	.	SYM	<fs af='.,punc,,,,,,' drel='rsym:kiyA' posn='410' name='.' chunkId='BLK' chunkType='head:BLK'>
</Sentence>


<Sentence id="30">
1	pAkiswAna	NNP	<fs af='pAkiswAna,n,m,sg,3,o,0_kA,0' drel='r6:ejeMtoM' posn='10' vpos='vib_2' name='pAkiswAna' chunkId='NP' chunkType='head:NP'>
2	ke	PSP	<fs af='kA,psp,m,pl,,o,,' posn='20' drel='lwg__psp:pAkiswAna' chunkType='child:NP' name='ke'>
3	xo	QC	<fs af='xo,num,any,any,,any,,' posn='30' drel='nmod__adj:ejeMtoM' chunkType='child:NP2' name='xo'>
4	ejeMtoM	NN	<fs af='ejeMta,n,m,pl,3,o,0_ne,0' drel='pk1:karAI' posn='40' vpos='vib_3' name='ejeMtoM' chunkId='NP2' chunkType='head:NP2'>
5	ne	PSP	<fs af='ne,psp,,,,,,' posn='50' drel='lwg__psp:ejeMtoM' chunkType='child:NP2' name='ne'>
6	use	PRP	<fs af='vaha,pn,any,sg,3,o,ko,ko' drel='jk1:karAI' posn='60' name='use' chunkId='NP3' chunkType='head:NP3'>
7	sImA	NN	<fs af='sImA,n,f,sg,3,d,0,0' drel='k2:karAI' posn='70' name='sImA' chunkId='NP4' chunkType='head:NP4'>
8	pAra	NN	<fs af='pAra,n,m,sg,3,d,0,0' drel='pof:karAI' posn='80' name='pAra' chunkId='NP5' chunkType='head:NP5'>
9	karAI	VM	<fs af='karA,v,f,sg,any,,yA_WA,yA' stype='declarative' posn='90' voicetype='active' vpos='tam_2' name='karAI' chunkId='VGF' chunkType='head:VGF'>
10	WI	VAUX	<fs af='WA,v,f,sg,any,,WA,WA' posn='100' drel='lwg__vaux:karAI' chunkType='child:VGF' name='WI'>
11	.	SYM	<fs af='.,punc,,,,,,' drel='rsym:karAI' posn='110' name='.' chunkId='BLK' chunkType='head:BLK'>
</Sentence>


<Sentence id="31">
1	yaha	DEM	<fs af='yaha,pn,any,sg,3,d,,' posn='10' drel='nmod__adj:sAmAna' chunkType='child:NP' name='yaha'>
2	sAmAna	NN	<fs af='sAmAna,n,m,pl,3,d,0,0' drel='k2:kara' posn='20' name='sAmAna' chunkId='NP' chunkType='head:NP'>
3	usane	PRP	<fs af='vaha,pn,any,sg,3,o,ne,ne' drel='k1:kara' posn='30' name='usane' chunkId='NP2' chunkType='head:NP2'>
4	jammU	NNP	<fs af='jammU,n,m,sg,3,o,0_kA,0' drel='r6:vyakwi' posn='40' vpos='vib_2_RP' name='jammU' chunkId='NP3' chunkType='head:NP3'>
5	ke	PSP	<fs af='kA,psp,m,sg,,o,,' posn='50' drel='lwg__psp:jammU' chunkType='child:NP3' name='ke'>
6	hI	RP	<fs af='hI,avy,,,,,,' posn='60' drel='lwg__rp:jammU' chunkType='child:NP3' name='hI'>
7	eka	QC	<fs af='eka,num,any,any,,any,,' posn='70' drel='nmod__adj:vyakwi' chunkType='child:NP4' name='eka'>
8	vyakwi	NN	<fs af='vyakwi,n,m,sg,3,o,0_ke,0' drel='r6-k2:havAle' posn='80' vpos='vib_3' name='vyakwi' chunkId='NP4' chunkType='head:NP4'>
9	ke	PSP	<fs af='ke,psp,m,,,o,,' posn='90' drel='lwg__psp:vyakwi' chunkType='child:NP4' name='ke2'>
10	havAle	NN	<fs af='havAlA,n,m,sg,3,o,0,0' drel='pof:kara' posn='80' name='havAle' chunkId='NP5' chunkType='head:NP5'>
11	kara	VM	<fs af='kara,v,m,sg,any,,0_xe+yA_WA,0' stype='declarative' posn='110' voicetype='active' vpos='tam_2_3' name='kara' chunkId='VGF' chunkType='head:VGF'>
12	xiyA	VAUX	<fs af='xe,v,m,sg,any,,yA,yA' posn='120' drel='lwg__vaux:kara' chunkType='child:VGF' name='xiyA'>
13	WA	VAUX	<fs af='WA,v,m,sg,any,,WA,WA' posn='130' drel='lwg__vaux:kara' chunkType='child:VGF' name='WA'>
14	.	SYM	<fs af='.,punc,,,,,,' drel='rsym:kara' posn='140' name='.' chunkId='BLK' chunkType='head:BLK'>
</Sentence>


</text>
</tb>
</body>
</document>
