<document id="2522695">
<head>
<title></title>			
<caption>hara pAMcaveM sAla dAktaroM ko xenI hogI parIkRA        amaleMxu BURaNa KAM   : naI xillI</caption>			
<language>Hindi </language>			
<author>			
<firstname></firstname>			
<middlename></middlename>			
<lastname></lastname>			
</author>			
<creation>			
<raw_corpus creation_date="" institute_name=""></raw_corpus>			
<annotated_corpus creation_date="07/25/2009" institute_name="IIIT-Hyderabad"></annotated_corpus>			
</creation>			
<domain_name>News Articles </domain_name>			
<distributor>LTRC, IIIT Hyderabad</distributor>			
<source>ISI, Kolkata</source>			
<publication>			
<place>New Delhi</place>			
<date>13/6/2004</date>			
<address>Connaught Place, New Delhi</address>			
<type>Newspaper</type>			
<publisher>			
<name>Amar Ujala</name>			
<url>http://www.amarujala.com</url>			
</publisher>			
</publication>			
<project_description>NSF Hindi/Urdu Dependency Treebanking Project</project_description>			
<availability>			
<format>CML/SSF</format>			
</availability>			
<byte_count>12237</byte_count>			
<word_count>491</word_count>			
<edition_number>1.0</edition_number>			
<encoding_description>			
<original_encoding>ISO 8859</original_encoding>			
<new_encoding>Unicode UTF8</new_encoding>			
</encoding_description>			
<bibliography></bibliography>			
<sentence_marker>.</sentence_marker>			
<normalization>No</normalization>			
<utility_name>cml_tags</utility_name>			

</head>
<body>
<tb number="1" segment="no" bullet="no">
<foreign language="select" writingsystem="LTR"> </foreign>			
<text>
<Sentence id="1">
1	keMxra	NNP	<fs af='keMxra,n,m,sg,3,o,0_kA,0' drel='r6:sarakAra' posn='10' vpos='vib_2' name='keMxra' chunkId='NP' chunkType='head:NP'>
2	kI	PSP	<fs af='kA,psp,f,sg,,d,,' posn='20' drel='lwg__psp:keMxra' chunkType='child:NP' name='kI'>
3	saMyukwa	NNPC	<fs af='saMyukwa,adj,any,any,,d,,' posn='220' drel='pof__cn:gaTabaMXana' chunkType='child:NP2' name='saMyukwa'>
4	pragawiSIla	NNPC	<fs af='pragawiSIla,adj,any,any,,d,,' posn='220' drel='pof__cn:gaTabaMXana' chunkType='child:NP2' name='pragawiSIla'>
5	gaTabaMXana	NNP	<fs af='gaTabaMXana,n,m,sg,3,d,0,0' posn='50' drel='nmod__adj:sarakAra' chunkType='child:NP2' name='gaTabaMXana'>
6	sarakAra	NN	<fs af='sarakAra,n,f,sg,3,d,0,0' drel='k1:cAhawI' posn='60' name='sarakAra' chunkId='NP2' chunkType='head:NP2'>
7	aba	PRP	<fs af='aba,pn,,,,d,,' drel='k7t:cAhawI' posn='70' name='aba' chunkId='NP3' chunkType='head:NP3'>
8	xeSa	NN	<fs af='xeSa,n,m,sg,3,o,0_kA,0' drel='r6:dOYktaroM' posn='80' vpos='vib_2' name='xeSa' chunkId='NP4' chunkType='head:NP4'>
9	ke	PSP	<fs af='kA,psp,m,pl,,o,,' posn='90' drel='lwg__psp:xeSa' chunkType='child:NP4' name='ke'>
10	dOYktaroM	NN	<fs af='dOYktara,n,m,pl,3,o,0_ko,0' drel='k4:cAhawI' posn='100' vpos='vib_2' name='dOYktaroM' chunkId='NP5' chunkType='head:NP5'>
11	ko	PSP	<fs af='ko,psp,,,,,,' posn='110' drel='lwg__psp:dOYktaroM' chunkType='child:NP5' name='ko'>
12	xuniyA	NN	<fs af='xuniyA,n,f,sg,3,o,0_meM,0' drel='k7p:ho' posn='120' vpos='vib_2' name='xuniyA' chunkId='NP6' chunkType='head:NP6'>
13	meM	PSP	<fs af='meM,psp,,,,,,' posn='130' drel='lwg__psp:xuniyA' chunkType='child:NP6' name='meM'>
14	ho	VM	<fs af='ho,v,any,pl,any,,0_raha+yA,0' drel='nmod__k1inv:KojoM' posn='140' vpos='tam_2' name='ho' chunkId='VGNF' chunkType='head:VGNF'>
15	rahI	VAUX	<fs af='raha,v,f,pl,any,,yA,yA' posn='150' drel='lwg__vaux:ho' chunkType='child:VGNF' name='rahI'>
16	naI	JJ	<fs af='nayA,adj,f,pl,,o,,' posn='160' drel='nmod__adj:KojoM' chunkType='child:NP7' name='naI'>
17	KojoM	NN	<fs af='Koja,n,f,pl,3,o,0,0' drel='ccof:Ora' posn='170' name='KojoM' chunkId='NP7' chunkType='head:NP7'>
18	Ora	CC	<fs af='Ora,avy,,,,,,' drel='rd:cAhawI' posn='180' name='Ora' chunkId='CCP' chunkType='head:CCP'>
19	SoXoM	NN	<fs af='SoXa,n,m,pl,3,o,0_ke_prawi,0' drel='ccof:Ora' posn='190' vpos='vib_2_3' name='SoXoM' chunkId='NP8' chunkType='head:NP8'>
20	ke	PSP	<fs af='ke,psp,,,,,,' posn='200' drel='lwg__psp:SoXoM' chunkType='child:NP8' name='ke2'>
21	prawi	PSP	<fs af='prawi,psp,,,,,,' posn='210' drel='lwg__psp:SoXoM' chunkType='child:NP8' name='prawi'>
22	jAgarUka	JJ	<fs af='jAgarUka,adj,any,any,,,,' drel='pof:karanA' posn='220' name='jAgarUka' chunkId='JJP' chunkType='head:JJP'>
23	karanA	VM	<fs af='kara,v,any,any,any,d,nA,nA' drel='k2:cAhawI' posn='230' name='karanA' chunkId='VGNN' chunkType='head:VGNN'>
24	cAhawI	VM	<fs af='cAha,v,f,sg,3,,wA_hE,wA' stype='declarative' posn='240' voicetype='active' vpos='tam_2' name='cAhawI' chunkId='VGF' chunkType='head:VGF'>
25	hE	VAUX	<fs af='hE,v,any,sg,3,,hE,hE' posn='250' drel='lwg__vaux:cAhawI' chunkType='child:VGF' name='hE'>
26	.	SYM	<fs af='.,punc,,,,,,' drel='rsym:cAhawI' posn='260' name='.' chunkId='BLK' chunkType='head:BLK'>
</Sentence>


<Sentence id="2">
1	keMxrIya	NNPC	<fs af='keMxrIya,adj,any,any,,o,,' posn='220' drel='pof__cn:maMwrI' chunkType='child:NP' name='keMxrIya'>
2	svAsWya	NNPC	<fs af='svAsWya,n,m,sg,3,d,0,0' posn='20' drel='pof__cn:maMwrI' chunkType='child:NP' name='svAsWya'>
3	maMwrI	NNP	<fs af='maMwrI,n,m,sg,3,d,0,0' posn='30' drel='nmod__adj:rAmaxAsa' chunkType='child:NP' name='maMwrI'>
4	ambumaNi	NNPC	<fs af='ambumaNi,n,m,sg,3,d,0,0' posn='40' drel='pof__cn:rAmaxAsa' chunkType='child:NP' name='ambumaNi'>
5	rAmaxAsa	NNP	<fs af='rAmaxAsa,n,m,sg,3,o,0_ne,0' drel='k1:kahA' posn='50' vpos='vib_vib_6' name='rAmaxAsa' chunkId='NP' chunkType='head:NP'>
6	ne	PSP	<fs af='ne,psp,,,,,,' posn='60' drel='lwg__psp:rAmaxAsa' chunkType='child:NP' name='ne'>
7	kahA	VM	<fs af='kaha,v,m,sg,3,,yA_hE,yA' stype='declarative' posn='70' voicetype='active' vpos='tam_2' name='kahA' chunkId='VGF' chunkType='head:VGF'>
8	hE	VAUX	<fs af='hE,v,any,sg,3,,hE,hE' posn='80' drel='lwg__vaux:kahA' chunkType='child:VGF' name='hE'>
9	ki	CC	<fs af='ki,avy,,,,,,' drel='k2:kahA' posn='90' name='ki' chunkId='CCP' chunkType='head:CCP'>
10	dOYktaroM	NN	<fs af='dOYktara,n,m,pl,3,o,0_ko,0' drel='k1:karanA' posn='100' vpos='vib_2' name='dOYktaroM' chunkId='NP2' chunkType='head:NP2'>
11	ko	PSP	<fs af='ko,psp,,,,,,' posn='110' drel='lwg__psp:dOYktaroM' chunkType='child:NP2' name='ko'>
12	hara	QF	<fs af='hara,avy,,,,,,' posn='120' drel='nmod__adj:sAla' chunkType='child:NP3' name='hara'>
13	pAMca	QC	<fs af='pAMca,num,any,any,,any,,' posn='130' drel='nmod__adj:sAla' chunkType='child:NP3' name='pAMca'>
14	sAla	NN	<fs af='sAla,n,m,sg,3,o,0_para,0' drel='k7t:karanA' posn='140' vpos='vib_4' name='sAla' chunkId='NP3' chunkType='head:NP3'>
15	para	PSP	<fs af='para,psp,,,,,,' posn='150' drel='lwg__psp:sAla' chunkType='child:NP3' name='para'>
16	eka	QC	<fs af='eka,num,any,any,,any,,' posn='160' drel='nmod__adj:imwahAna' chunkType='child:NP4' name='eka'>
17	imwahAna	NN	<fs af='imwahAna,n,m,sg,3,d,0,0' drel='k2:karanA' posn='170' name='imwahAna' chunkId='NP4' chunkType='head:NP4'>
18	pAsa	UNK	<fs af='pAsa,unk,,,,,,' drel='pof:karanA' posn='180' name='pAsa' chunkId='BLK' chunkType='head:BLK'>
19	karanA	VM	<fs af='kara,v,m,sg,3,,nA_ho+gA,nA' drel='ccof:ki' stype='declarative' posn='190' voicetype='active' vpos='tam_2' name='karanA' chunkId='VGF2' chunkType='head:VGF2'>
20	hogA	VAUX	<fs af='ho,v,m,sg,3,,gA,gA' posn='200' drel='lwg__vaux:karanA' chunkType='child:VGF2' name='hogA'>
21	.	SYM	<fs af='.,punc,,,,,,' drel='rsym:kahA' posn='210' name='.' chunkId='BLK2' chunkType='head:BLK2'>
</Sentence>


<Sentence id="3">
1	isake	PRP	<fs af='yaha,pn,m,sg,3,o,ke,ke' drel='r6:AXAra' posn='10' name='isake' chunkId='NP' chunkType='head:NP'>
2	AXAra	NN	<fs af='AXAra,n,m,sg,3,o,0_para,0' drel='k7:hogA' posn='20' vpos='vib_2_RP' name='AXAra' chunkId='NP2' chunkType='head:NP2'>
3	para	PSP	<fs af='para,psp,,,,,,' posn='30' drel='lwg__psp:AXAra' chunkType='child:NP2' name='para'>
4	hI	RP	<fs af='hI,avy,,,,,,' posn='40' drel='lwg__rp:AXAra' chunkType='child:NP2' name='hI'>
5	unake	PRP	<fs af='vaha,pn,m,pl,3,o,kA,kA' drel='r6:rajistreSana' posn='50' name='unake' chunkId='NP3' chunkType='head:NP3'>
6	rajistreSana	NN	<fs af='rajistreSana,n,m,sg,3,o,0_kA,0' drel='r6-k1:navIkaraNa' posn='60' vpos='vib_2' name='rajistreSana' chunkId='NP4' chunkType='head:NP4'>
7	kA	PSP	<fs af='kA,psp,m,sg,,d,,' posn='70' drel='lwg__psp:rajistreSana' chunkType='child:NP4' name='kA'>
8	navIkaraNa	NN	<fs af='navIkaraNa,n,m,sg,3,d,0,0' drel='pof:hogA' posn='80' name='navIkaraNa' chunkId='NP5' chunkType='head:NP5'>
9	hogA	VM	<fs af='ho,v,m,sg,3,,gA,gA' stype='declarative' posn='90' voicetype='active' name='hogA' chunkId='VGF' chunkType='head:VGF'>
10	.	SYM	<fs af='.,punc,,,,,,' drel='rsym:hogA' posn='100' name='.' chunkId='BLK' chunkType='head:BLK'>
</Sentence>


<Sentence id="4">
1	varwamAna	JJ	<fs af='varwamAna,adj,any,any,,o,,' posn='10' drel='nmod__adj:vyavasWA' chunkType='child:NP' name='varwamAna'>
2	vyavasWA	NN	<fs af='vyavasWA,n,f,sg,3,o,0_meM,0' drel='k7:karAnA' posn='20' vpos='vib_3' name='vyavasWA' chunkId='NP' chunkType='head:NP'>
3	meM	PSP	<fs af='meM,psp,,,,,,' posn='30' drel='lwg__psp:vyavasWA' chunkType='child:NP' name='meM'>
4	eka	QC	<fs af='eka,num,any,any,,any,,' posn='40' drel='nmod__adj:bAra' chunkType='child:NP2' name='eka'>
5	bAra	NN	<fs af='bAra,n,f,sg,3,d,0,0' drel='k7t:karAnA' posn='50' name='bAra' chunkId='NP2' chunkType='head:NP2'>
6	hI	RP	<fs af='hI,avy,,,,,,' posn='60' drel='lwg__rp:bAra' chunkType='child:NP2' name='hI'>
7	paMjIkaraNa	NN	<fs af='paMjIkaraNa,n,m,sg,3,d,0,0' drel='pof:karAnA' posn='70' name='paMjIkaraNa' chunkId='NP3' chunkType='head:NP3'>
8	karAnA	VM	<fs af='karA,v,m,sg,3,,nA_ho+wA_hE,nA' stype='declarative' posn='80' voicetype='active' vpos='tam_2_3' name='karAnA' chunkId='VGF' chunkType='head:VGF'>
9	howA	VAUX	<fs af='ho,v,m,sg,any,,wA,wA' posn='90' drel='lwg__vaux:karAnA' chunkType='child:VGF' name='howA'>
10	hE	VAUX	<fs af='hE,v,any,sg,3,,hE,hE' posn='100' drel='lwg__vaux:karAnA' chunkType='child:VGF' name='hE'>
11	.	SYM	<fs af='.,punc,,,,,,' drel='rsym:karAnA' posn='110' name='.' chunkId='BLK' chunkType='head:BLK'>
</Sentence>


<Sentence id="5">
1	rajistreSana	NN	<fs af='rajistreSana,n,m,sg,3,o,0_kA,0' drel='r6:navIkaraNa' posn='10' vpos='vib_2' name='rajistreSana' chunkId='NP' chunkType='head:NP'>
2	ke	PSP	<fs af='kA,psp,m,sg,,o,,' posn='20' drel='lwg__psp:rajistreSana' chunkType='child:NP' name='ke'>
3	navIkaraNa	NN	<fs af='navIkaraNa,n,m,sg,3,o,0_ke_lie,0' drel='rt:kiyA' posn='30' vpos='vib_2_3' name='navIkaraNa' chunkId='NP2' chunkType='head:NP2'>
4	ke	PSP	<fs af='ke,psp,,,,,,' posn='40' drel='lwg__psp:navIkaraNa' chunkType='child:NP2' name='ke2'>
5	lie	PSP	<fs af='lie,psp,,,,,,' posn='50' drel='lwg__psp:navIkaraNa' chunkType='child:NP2' name='lie'>
6	AIemasI	NNPC	<fs af='AIemasI,n,m,sg,3,d,0,0' posn='60' drel='pof__cn:2002' chunkType='child:NP3' name='AIemasI'>
7	aXiniyama	NNPC	<fs af='aXiniyama,n,m,sg,3,d,0,0' posn='70' drel='pof__cn:2002' chunkType='child:NP3' name='aXiniyama'>
8	2002	NNP	<fs af='2002,n,any,sg,3,o,0_meM,0' drel='k7:kiyA' posn='80' vpos='vib_4' name='2002' chunkId='NP3' chunkType='head:NP3'>
9	meM	PSP	<fs af='meM,psp,,,,,,' posn='90' drel='lwg__psp:2002' chunkType='child:NP3' name='meM'>
10	saMSoXana	NN	<fs af='saMSoXana,n,m,sg,3,d,0,0' drel='pof:kiyA' posn='100' name='saMSoXana' chunkId='NP4' chunkType='head:NP4'>
11	kiyA	VM	<fs af='kara,v,m,sg,3,,yA_jA+gA,yA' stype='declarative' posn='110' voicetype='passive' vpos='tam_2' name='kiyA' chunkId='VGF' chunkType='head:VGF'>
12	jAegA	VAUX	<fs af='jA,v,m,sg,3,,gA,gA' posn='120' drel='lwg__vaux:kiyA' chunkType='child:VGF' name='jAegA'>
13	.	SYM	<fs af='.,punc,,,,,,' drel='rsym:kiyA' posn='130' name='.' chunkId='BLK' chunkType='head:BLK'>
</Sentence>


<Sentence id="6">
1	dA.	NNC	<fs af='dA.,n,m,sg,3,d,0,0' posn='10' drel='pof__cn:rAmaxAsa' chunkType='child:NP' name='dA.'>
2	rAmaxAsa	NNP	<fs af='rAmaxAsa,n,m,sg,3,o,0_ne,0' drel='k1:kahA' posn='20' vpos='vib_3' name='rAmaxAsa' chunkId='NP' chunkType='head:NP'>
3	ne	PSP	<fs af='ne,psp,,,,,,' posn='30' drel='lwg__psp:rAmaxAsa' chunkType='child:NP' name='ne'>
4	kahA	VM	<fs af='kaha,v,m,sg,any,,yA,yA' stype='declarative' posn='40' voicetype='active' name='kahA' chunkId='VGF' chunkType='head:VGF'>
5	ki	CC	<fs af='ki,avy,,,,,,' drel='k2:kahA' posn='50' name='ki' chunkId='CCP' chunkType='head:CCP'>
6	amerikA	NNP	<fs af='amerikA,n,m,sg,3,o,0_sahiwa,0' drel='vmod:hE' posn='60' vpos='vib_2' name='amerikA' chunkId='NP2' chunkType='head:NP2'>
7	sahiwa	PSP	<fs af='sahiwa,psp,,,,,,' posn='70' drel='lwg__psp:amerikA' chunkType='child:NP2' name='sahiwa'>
8	xuniyA	NN	<fs af='xuniyA,n,f,sg,3,o,0_kA,0' drel='r6:xeSoM' posn='80' vpos='vib_2' name='xuniyA' chunkId='NP3' chunkType='head:NP3'>
9	ke	PSP	<fs af='kA,psp,m,pl,,o,,' posn='90' drel='lwg__psp:xuniyA' chunkType='child:NP3' name='ke'>
10	kaI	QF	<fs af='kaI,avy,,,,,,' posn='100' drel='nmod__adj:xeSoM' chunkType='child:NP4' name='kaI'>
11	xeSoM	NN	<fs af='xeSa,n,m,pl,3,o,0_meM,0' drel='k7p:hE' posn='110' vpos='vib_3' name='xeSoM' chunkId='NP4' chunkType='head:NP4'>
12	meM	PSP	<fs af='meM,psp,,,,,,' posn='120' drel='lwg__psp:xeSoM' chunkType='child:NP4' name='meM'>
13	isa	DEM	<fs af='yaha,pn,any,sg,3,o,,' posn='130' drel='nmod__adj:waraha' chunkType='child:NP5' name='isa'>
14	waraha	NN	<fs af='waraha,n,f,sg,3,o,0_kA,0' drel='r6:vyavasWA' posn='140' vpos='vib_3' name='waraha' chunkId='NP5' chunkType='head:NP5'>
15	kI	PSP	<fs af='kA,psp,f,sg,,d,,' posn='150' drel='lwg__psp:waraha' chunkType='child:NP5' name='kI'>
16	vyavasWA	NN	<fs af='vyavasWA,n,f,sg,3,d,0,0' drel='k1:hE' posn='160' name='vyavasWA' chunkId='NP6' chunkType='head:NP6'>
17	hE	VM	<fs af='hE,v,any,sg,3,,hE,hE' drel='vmod:ho' stype='declarative' posn='170' voicetype='active' name='hE' chunkId='VGF2' chunkType='head:VGF2'>
18	wo	CC	<fs af='wo,avy,,,,,,' drel='ccof:ki' posn='180' name='wo' chunkId='CCP2' chunkType='head:CCP2'>
19	BArawa	NNP	<fs af='BArawa,n,m,sg,3,o,0_meM,0' drel='k7p:ho' posn='190' vpos='vib_2' name='BArawa' chunkId='NP7' chunkType='head:NP7'>
20	meM	PSP	<fs af='meM,psp,,,,,,' posn='200' drel='lwg__psp:BArawa' chunkType='child:NP7' name='meM2'>
21	kyoM	WQ	<fs af='kyoM,pn,,,,,,' drel='adv:ho' posn='210' name='kyoM' chunkId='RBP' chunkType='head:RBP'>
22	nahIM	NEG	<fs af='nahIM,avy,,,,,,' posn='220' drel='lwg__neg:ho' chunkType='child:VGF3' name='nahIM'>
23	ho	VM	<fs af='ho,v,any,sg,any,,0_saka+wA,0' drel='ccof:wo' stype='interrogative' posn='230' voicetype='active' vpos='tam_3' name='ho' chunkId='VGF3' chunkType='head:VGF3'>
24	sakawI	VAUX	<fs af='saka,v,f,sg,any,,wA,wA' posn='240' drel='lwg__vaux:ho' chunkType='child:VGF3' name='sakawI'>
25	.	SYM	<fs af='.,punc,,,,,,' drel='rsym:kahA' posn='250' name='.' chunkId='BLK' chunkType='head:BLK'>
</Sentence>


<Sentence id="7">
1	unake	PRP	<fs af='vaha,pn,any,sg,3h,o,0_muwAbika,ke' drel='k7a:hogA' posn='10' vpos='vib_2' name='unake' chunkId='NP' chunkType='head:NP'>
2	muwAbika	PSP	<fs af='muwAbika,psp,,,,,,' posn='20' drel='lwg__psp:unake' chunkType='child:NP' name='muwAbika'>
3	isase	PRP	<fs af='yaha,pn,any,sg,3,o,se,se' drel='rh:hogA' posn='30' name='isase' chunkId='NP2' chunkType='head:NP2'>
4	xeSa	NN	<fs af='xeSa,n,m,sg,3,o,0_meM,0' drel='k7p:hogA' posn='40' vpos='vib_2' name='xeSa' chunkId='NP3' chunkType='head:NP3'>
5	meM	PSP	<fs af='meM,psp,,,,,,' posn='50' drel='lwg__psp:xeSa' chunkType='child:NP3' name='meM'>
6	svAsWya	NNC	<fs af='svAsWya,n,m,sg,3,d,0,0' posn='60' drel='pof__cn:sevAoM' chunkType='child:NP4' name='svAsWya'>
7	sevAoM	NN	<fs af='sevA,n,f,pl,3,o,0_kA,0' drel='r6:swara' posn='70' vpos='vib_3' name='sevAoM' chunkId='NP4' chunkType='head:NP4'>
8	ke	PSP	<fs af='kA,psp,m,sg,,o,,' posn='80' drel='lwg__psp:sevAoM' chunkType='child:NP4' name='ke'>
9	swara	NN	<fs af='swara,n,m,sg,3,o,0_meM,0' drel='k7:hogA' posn='90' vpos='vib_2' name='swara' chunkId='NP5' chunkType='head:NP5'>
10	meM	PSP	<fs af='meM,psp,,,,,,' posn='100' drel='lwg__psp:swara' chunkType='child:NP5' name='meM2'>
11	suXAra	NN	<fs af='suXAra,n,m,sg,3,d,0,0' drel='k1:hogA' posn='110' name='suXAra' chunkId='NP6' chunkType='head:NP6'>
12	hogA	VM	<fs af='ho,v,m,sg,3,,gA,gA' stype='declarative' posn='120' voicetype='active' name='hogA' chunkId='VGF' chunkType='head:VGF'>
13	.	SYM	<fs af='.,punc,,,,,,' drel='rsym:hogA' posn='130' name='.' chunkId='BLK' chunkType='head:BLK'>
</Sentence>


<Sentence id="8">
1	hara	QF	<fs af='hara,avy,,,,,,' posn='10' drel='nmod__adj:sAla' chunkType='child:NP' name='hara'>
2	pAMca	QC	<fs af='pAMca,num,any,any,,any,,' posn='20' drel='nmod__adj:sAla' chunkType='child:NP' name='pAMca'>
3	sAla	NN	<fs af='sAla,n,m,sg,3,o,0_para,0' drel='k7t:hone' posn='30' vpos='vib_4' name='sAla' chunkId='NP' chunkType='head:NP'>
4	para	PSP	<fs af='para,psp,,,,,,' posn='40' drel='lwg__psp:sAla' chunkType='child:NP' name='para'>
5	hone	VM	<fs af='ho,v,any,sg,any,o,nA_vAlA,nA' drel='nmod:parIkRA' posn='50' vpos='tam_2' name='hone' chunkId='VGNN' chunkType='head:VGNN'>
6	vAlI	PSP	<fs af='vAlA,psp,f,sg,,d,,' posn='60' drel='lwg__psp:hone' chunkType='child:VGNN' name='vAlI'>
7	yaha	DEM	<fs af='yaha,pn,any,sg,3,d,,' posn='70' drel='nmod__adj:parIkRA' chunkType='child:NP2' name='yaha'>
8	parIkRA	NN	<fs af='parIkRA,n,f,sg,3,d,0,0' drel='k1:hogI' posn='80' name='parIkRA' chunkId='NP2' chunkType='head:NP2'>
9	BArawIya	NNPC	<fs af='BArawIya,adj,any,any,,o,,' posn='220' drel='pof__cn:saMGa' chunkType='child:NP3' name='BArawIya'>
10	cikiwsA	NNPC	<fs af='cikiwsA,n,f,sg,3,d,0,0' posn='100' drel='pof__cn:saMGa' chunkType='child:NP3' name='cikiwsA'>
11	saMGa	NNP	<fs af='saMGa,n,m,sg,3,o,0,0' drel='r6:wawvAXAna' posn='110' name='saMGa' chunkId='NP3' chunkType='head:NP3'>
12	(	SYM	<fs af='(,punc,,,,,,' posn='120' drel='rsym:esosieSana' chunkType='child:NP4' name='('>
13	iMdiyana	NNPC	<fs af='iMdiyana,adj,any,any,,o,,' posn='220' drel='pof__cn:esosieSana' chunkType='child:NP4' name='iMdiyana'>
14	medikala	NNPC	<fs af='medikala,adj,any,any,,o,,' posn='220' drel='pof__cn:esosieSana' chunkType='child:NP4' name='medikala'>
15	esosieSana	NNP	<fs af='esosieSana,n,f,sg,3,o,0,0' drel='rs:saMGa' posn='150' name='esosieSana' chunkId='NP4' chunkType='head:NP4'>
16	)	SYM	<fs af='),punc,,,,,,' posn='160' drel='rsym:esosieSana' chunkType='child:NP4' name=')'>
17	ke	PSP	<fs drel='fragof:saMGa' name='ke' chunkId='FRAGP' chunkType='head:FRAGP'>
18	wawvAXAna	NN	<fs af='wawvAXAna,n,m,sg,3,o,0_meM,0' drel='k7:hogI' posn='180' vpos='vib_2' name='wawvAXAna' chunkId='NP5' chunkType='head:NP5'>
19	meM	PSP	<fs af='meM,psp,,,,,,' posn='190' drel='lwg__psp:wawvAXAna' chunkType='child:NP5' name='meM'>
20	hogI	VM	<fs af='ho,v,f,sg,3,,gA,gA' stype='declarative' posn='200' voicetype='active' name='hogI' chunkId='VGF' chunkType='head:VGF'>
21	.	SYM	<fs af='.,punc,,,,,,' drel='rsym:hogI' posn='210' name='.' chunkId='BLK' chunkType='head:BLK'>
</Sentence>


<Sentence id="9">
1	isa	DEM	<fs af='yaha,pn,any,sg,3,o,,' posn='10' drel='nmod__adj:muxxe' chunkType='child:NP' name='isa'>
2	muxxe	NN	<fs af='muxxA,n,m,sg,3,o,0_para,0' drel='k7:huI' posn='20' vpos='vib_3' name='muxxe' chunkId='NP' chunkType='head:NP'>
3	para	PSP	<fs af='para,psp,,,,,,' posn='30' drel='lwg__psp:muxxe' chunkType='child:NP' name='para'>
4	dOYktaroM	NN	<fs af='dOYktara,n,m,pl,3,o,0_meM,0' drel='k7:huI' posn='40' vpos='vib_2' name='dOYktaroM' chunkId='NP2' chunkType='head:NP2'>
5	meM	PSP	<fs af='meM,psp,,,,,,' posn='50' drel='lwg__psp:dOYktaroM' chunkType='child:NP2' name='meM'>
6	wIKI	JJ	<fs af='wIKA,adj,f,sg,,d,,' posn='60' drel='nmod__adj:prawikriyA' chunkType='child:NP3' name='wIKI'>
7	prawikriyA	NN	<fs af='prawikriyA,n,f,sg,3,d,0,0' drel='pof:huI' posn='70' name='prawikriyA' chunkId='NP3' chunkType='head:NP3'>
8	huI	VM	<fs af='ho,v,f,sg,3,,yA_hE,yA' stype='declarative' posn='80' voicetype='active' vpos='tam_2' name='huI' chunkId='VGF' chunkType='head:VGF'>
9	hE	VAUX	<fs af='hE,v,any,sg,3,,hE,hE' posn='90' drel='lwg__vaux:huI' chunkType='child:VGF' name='hE'>
10	.	SYM	<fs af='.,punc,,,,,,' drel='rsym:huI' posn='100' name='.' chunkId='BLK' chunkType='head:BLK'>
</Sentence>


<Sentence id="10">
1	amara	NNPC	<fs af='amara,adj,any,any,,o,,' posn='220' drel='pof__cn:ujAlA' chunkType='child:NP' name='amara'>
2	ujAlA	NNP	<fs af='ujAlA,n,m,sg,3,o,0_ne,0' drel='k1:kI' posn='20' vpos='vib_3' name='ujAlA' chunkId='NP' chunkType='head:NP'>
3	ne	PSP	<fs af='ne,psp,,,,,,' posn='30' drel='lwg__psp:ujAlA' chunkType='child:NP' name='ne'>
4	isa	PRP	<fs af='yaha,pn,any,sg,3,o,0_bAre_meM,0' drel='k7:kI' posn='40' vpos='vib_2_3' name='isa' chunkId='NP2' chunkType='head:NP2'>
5	bAre	PSP	<fs af='bAre,psp,,,,,,' posn='50' drel='lwg__psp:isa' chunkType='child:NP2' name='bAre'>
6	meM	PSP	<fs af='meM,psp,,,,,,' posn='60' drel='lwg__psp:isa' chunkType='child:NP2' name='meM'>
7	cikiwsA	NNC	<fs af='cikiwsA,n,f,sg,3,d,0,0' posn='70' drel='pof__cn:jagawa' chunkType='child:NP3' name='cikiwsA'>
8	jagawa	NN	<fs af='jagawa,n,m,sg,3,o,0_kA,0' drel='r6:prawiniXiyoM' posn='80' vpos='vib_3' name='jagawa' chunkId='NP3' chunkType='head:NP3'>
9	ke	PSP	<fs af='kA,psp,m,pl,,o,,' posn='90' drel='lwg__psp:jagawa' chunkType='child:NP3' name='ke'>
10	kuCa	QF	<fs af='kuCa,avy,,,,,,' posn='100' drel='nmod__adj:prawiniXiyoM' chunkType='child:NP4' name='kuCa'>
11	prawiniXiyoM	NN	<fs af='prawiniXi,n,m,pl,3,o,0_se,0' drel='k4:kI' posn='110' vpos='vib_3' name='prawiniXiyoM' chunkId='NP4' chunkType='head:NP4'>
12	se	PSP	<fs af='se,psp,,,,,,' posn='120' drel='lwg__psp:prawiniXiyoM' chunkType='child:NP4' name='se'>
13	bAwa	NN	<fs af='bAwa,n,f,sg,3,d,0,0' drel='pof:kI' posn='130' name='bAwa' chunkId='NP5' chunkType='head:NP5'>
14	kI	VM	<fs af='kara,v,f,sg,3,,0,0' stype='declarative' posn='140' voicetype='active' name='kI' chunkId='VGF' chunkType='head:VGF'>
15	.	SYM	<fs af='.,punc,,,,,,' drel='rsym:kI' posn='150' name='.' chunkId='BLK' chunkType='head:BLK'>
</Sentence>


<Sentence id="11">
1	kuCa	QF	<fs af='kuCa,avy,,,,,,' posn='10' drel='nmod__adj:dOYktara' chunkType='child:NP' name='kuCa'>
2	dOYktara	NN	<fs af='dOYktara,n,m,pl,3,d,0,0' drel='k1:TaharA' posn='20' name='dOYktara' chunkId='NP' chunkType='head:NP'>
3	ise	PRP	<fs af='yaha,pn,any,sg,3,o,ko,ko' drel='k2:TaharA' posn='30' name='ise' chunkId='NP2' chunkType='head:NP2'>
4	jAyaja	JJ	<fs af='jAyaja,adj,any,any,,,,' drel='pof:TaharA' posn='40' name='jAyaja' chunkId='JJP' chunkType='head:JJP'>
5	TaharA	VM	<fs af='TaharA,v,m,pl,3,,0_raha+yA_hE,0' drel='ccof:wo' stype='declarative' posn='50' voicetype='active' vpos='tam_2_3' name='TaharA' chunkId='VGF' chunkType='head:VGF'>
6	rahe	VAUX	<fs af='raha,v,m,pl,any,,yA,yA' posn='60' drel='lwg__vaux:TaharA' chunkType='child:VGF' name='rahe'>
7	hEM	VAUX	<fs af='hE,v,any,pl,3,,hE,hE' posn='70' drel='lwg__vaux:TaharA' chunkType='child:VGF' name='hEM'>
8	,	SYM	<fs af='COMMA,punc,,,,,,' posn='80' drel='rsym:TaharA' chunkType='child:VGF' name=','>
9	wo	CC	<fs af='wo,avy,,,,,,' posn='90' name='wo' chunkId='CCP' chunkType='head:CCP'>
10	kuCa	PRP	<fs af='kuCa,pn,any,any,3,d,0,0' drel='k1:bawA' posn='100' name='kuCa2' chunkId='NP3' chunkType='head:NP3'>
11	ise	PRP	<fs af='yaha,pn,any,sg,3,o,ko,ko' drel='k2:bawA' posn='110' name='ise2' chunkId='NP4' chunkType='head:NP4'>
12	galawa	JJ	<fs af='galawa,adj,any,any,,,,' drel='pof:bawA' posn='120' name='galawa' chunkId='JJP2' chunkType='head:JJP2'>
13	bawA	VM	<fs af='bawA,v,m,pl,3,,0_raha+yA_hE,0' drel='ccof:wo' stype='declarative' posn='130' voicetype='active' vpos='tam_2_3' name='bawA' chunkId='VGF2' chunkType='head:VGF2'>
14	rahe	VAUX	<fs af='raha,v,m,pl,any,,yA,yA' posn='140' drel='lwg__vaux:bawA' chunkType='child:VGF2' name='rahe2'>
15	hEM	VAUX	<fs af='hE,v,any,pl,3,,hE,hE' posn='150' drel='lwg__vaux:bawA' chunkType='child:VGF2' name='hEM2'>
16	.	SYM	<fs af='.,punc,,,,,,' drel='rsym:wo' posn='160' name='.' chunkId='BLK' chunkType='head:BLK'>
</Sentence>


<Sentence id="12">
1	dOY.	NNC	<fs af='dOY.,n,m,sg,3,d,0,0' posn='10' drel='pof__cn:rAmaxAsa' chunkType='child:NP' name='dOY.'>
2	rAmaxAsa	NNP	<fs af='rAmaxAsa,n,m,sg,3,o,0_ne,0' drel='k1:kahA' posn='20' vpos='vib_3' name='rAmaxAsa' chunkId='NP' chunkType='head:NP'>
3	ne	PSP	<fs af='ne,psp,,,,,,' posn='30' drel='lwg__psp:rAmaxAsa' chunkType='child:NP' name='ne'>
4	apane	PRP	<fs af='apanA,pn,m,any,any,o,0,0' drel='r6:bayAna' posn='40' name='apane' chunkId='NP2' chunkType='head:NP2'>
5	bayAna	NN	<fs af='bayAna,n,m,sg,3,o,0_meM,0' drel='k7:kahA' posn='50' vpos='vib_2' name='bayAna' chunkId='NP3' chunkType='head:NP3'>
6	meM	PSP	<fs af='meM,psp,,,,,,' posn='60' drel='lwg__psp:bayAna' chunkType='child:NP3' name='meM'>
7	kahA	VM	<fs af='kaha,v,m,sg,3,,yA_hE,yA' stype='declarative' posn='70' voicetype='active' vpos='tam_2' name='kahA' chunkId='VGF' chunkType='head:VGF'>
8	hE	VAUX	<fs af='hE,v,any,sg,3,,hE,hE' posn='80' drel='lwg__vaux:kahA' chunkType='child:VGF' name='hE'>
9	ki	CC	<fs af='ki,avy,,,,,,' drel='k2:kahA' posn='90' name='ki' chunkId='CCP' chunkType='head:CCP'>
10	dOYktaroM	NN	<fs af='dOYktara,n,m,pl,3,o,0_ko,0' drel='k4:xenI' posn='100' vpos='vib_2' name='dOYktaroM' chunkId='NP4' chunkType='head:NP4'>
11	ko	PSP	<fs af='ko,psp,,,,,,' posn='110' drel='lwg__psp:dOYktaroM' chunkType='child:NP4' name='ko'>
12	apane	PRP	<fs af='apanA,pn,m,any,any,o,0,0' drel='r6:paMjIkaraNa' posn='120' name='apane2' chunkId='NP5' chunkType='head:NP5'>
13	paMjIkaraNa	NN	<fs af='paMjIkaraNa,n,m,sg,3,o,0_kA,0' drel='r6:navIkaraNa' posn='130' vpos='vib_2' name='paMjIkaraNa' chunkId='NP6' chunkType='head:NP6'>
14	ke	PSP	<fs af='kA,psp,m,sg,,o,,' posn='140' drel='lwg__psp:paMjIkaraNa' chunkType='child:NP6' name='ke'>
15	navIkaraNa	NN	<fs af='navIkaraNa,n,m,sg,3,o,0_ke_lie,0' drel='rt:xenI' posn='150' vpos='vib_2_3' name='navIkaraNa' chunkId='NP7' chunkType='head:NP7'>
16	ke	PSP	<fs af='ke,psp,,,,,,' posn='160' drel='lwg__psp:navIkaraNa' chunkType='child:NP7' name='ke2'>
17	lie	PSP	<fs af='lie,psp,,,,,,' posn='170' drel='lwg__psp:navIkaraNa' chunkType='child:NP7' name='lie'>
18	prawyeka	QF	<fs af='prawyeka,avy,,,,,,' posn='180' drel='nmod__adj:varRa' chunkType='child:NP8' name='prawyeka'>
19	pAMca	QC	<fs af='pAMca,num,any,any,,any,,' posn='190' drel='nmod__adj:varRa' chunkType='child:NP8' name='pAMca'>
20	varRa	NN	<fs af='varRa,n,m,sg,3,o,0_meM,0' drel='k7t:xenI' posn='200' vpos='vib_4' name='varRa' chunkId='NP8' chunkType='head:NP8'>
21	meM	PSP	<fs af='meM,psp,,,,,,' posn='210' drel='lwg__psp:varRa' chunkType='child:NP8' name='meM2'>
22	jAMca	NNC	<fs af='jAMca,n,f,sg,3,d,0,0' posn='220' drel='pof__cn:parIkRA' chunkType='child:NP9' name='jAMca'>
23	parIkRA	NN	<fs af='parIkRA,n,f,sg,3,d,0,0' drel='pof:xenI' posn='230' name='parIkRA' chunkId='NP9' chunkType='head:NP9'>
24	xenI	VM	<fs af='xe,v,f,sg,3,,nA_ho+gA,nA' drel='ccof:ki' stype='declarative' posn='240' voicetype='active' vpos='tam_2' name='xenI' chunkId='VGF2' chunkType='head:VGF2'>
25	hogI	VAUX	<fs af='ho,v,f,sg,3,,gA,gA' posn='250' drel='lwg__vaux:xenI' chunkType='child:VGF2' name='hogI'>
26	.	SYM	<fs af='.,punc,,,,,,' drel='rsym:kahA' posn='260' name='.' chunkId='BLK' chunkType='head:BLK'>
</Sentence>


<Sentence id="13">
1	cikiwsA	NNC	<fs af='cikiwsA,n,f,sg,3,d,0,0' posn='10' drel='pof__cn:vijFAna' chunkType='child:NP' name='cikiwsA'>
2	vijFAna	NN	<fs af='vijFAna,n,m,sg,3,o,0_kA,0' drel='r6:kRewra' posn='20' vpos='vib_3' name='vijFAna' chunkId='NP' chunkType='head:NP'>
3	ke	PSP	<fs af='kA,psp,m,sg,,o,,' posn='30' drel='lwg__psp:vijFAna' chunkType='child:NP' name='ke'>
4	kRewra	NN	<fs af='kRewra,n,m,sg,3,o,0_meM,0' drel='k7p:howI' posn='40' vpos='vib_2' name='kRewra' chunkId='NP2' chunkType='head:NP2'>
5	meM	PSP	<fs af='meM,psp,,,,,,' posn='50' drel='lwg__psp:kRewra' chunkType='child:NP2' name='meM'>
6	prawyeka	QF	<fs af='prawyeka,avy,,,,,,' posn='60' drel='nmod__adj:xina' chunkType='child:NP3' name='prawyeka'>
7	xina	NN	<fs af='xina,n,m,sg,3,d,0,0' drel='k7t:howI' posn='70' name='xina' chunkId='NP3' chunkType='head:NP3'>
8	kuCa	QFC	<fs af='kuCa,avy,,,,,,' posn='80' drel='mod:risarca' chunkType='child:NP4' name='kuCa'>
9	na	RP	<fs af='na,avy,,,,,,' posn='90' drel='lwg__rp:risarca' chunkType='child:NP4' name='na'>
10	kuCa	QF	<fs af='kuCa,avy,,,,,,' posn='100' drel='nmod__adj:risarca' chunkType='child:NP4' name='kuCa2'>
11	risarca	NN	<fs af='risarca,n,f,sg,3,d,0,0' drel='k1:howI' posn='110' name='risarca' chunkId='NP4' chunkType='head:NP4'>
12	howI	VM	<fs af='ho,v,f,sg,3,,wA_raha+wA_hE,wA' stype='declarative' posn='120' voicetype='active' vpos='tam_2_3' name='howI' chunkId='VGF' chunkType='head:VGF'>
13	rahawI	VAUX	<fs af='raha,v,f,sg,any,,wA,wA' posn='130' drel='lwg__vaux:howI' chunkType='child:VGF' name='rahawI'>
14	hE	VAUX	<fs af='hE,v,any,sg,3,,hE,hE' posn='140' drel='lwg__vaux:howI' chunkType='child:VGF' name='hE'>
15	.	SYM	<fs af='.,punc,,,,,,' drel='rsym:howI' posn='150' name='.' chunkId='BLK' chunkType='head:BLK'>
</Sentence>


<Sentence id="14">
1	naI	JJ	<fs af='nayA,adj,f,sg,,o,,' posn='10' drel='nmod__adj:wakanIka' chunkType='child:NP' name='naI'>
2	-	SYM	<fs af='-,punc,,,,,,' posn='20' drel='rsym:wakanIka' chunkType='child:NP' name='-'>
3	naI	RDP	<fs af='nayA,adj,f,sg,,o,,' posn='30' drel='mod:wakanIka' chunkType='child:NP' name='naI2'>
4	wakanIka	NN	<fs af='wakanIka,n,f,sg,3,o,0_kA,0' drel='r6:AviRkAra' posn='40' vpos='vib_5' name='wakanIka' chunkId='NP' chunkType='head:NP'>
5	kA	PSP	<fs af='kA,psp,m,sg,,d,,' posn='50' drel='lwg__psp:wakanIka' chunkType='child:NP' name='kA'>
6	AviRkAra	NN	<fs af='AviRkAra,n,m,sg,3,d,0,0' drel='k1:hone' posn='60' name='AviRkAra' chunkId='NP2' chunkType='head:NP2'>
7	hone	VM	<fs af='ho,v,any,any,any,o,nA_se,nA' drel='rh:ho' posn='70' vpos='tam_2' name='hone' chunkId='VGNN' chunkType='head:VGNN'>
8	se	PSP	<fs af='se,psp,,,,,,' posn='80' drel='lwg__psp:hone' chunkType='child:VGNN' name='se'>
9	hI	RP	<fs af='hI,avy,,,,,,' posn='90' drel='lwg__rp:hone' chunkType='child:VGNN' name='hI'>
10	logoM	NN	<fs af='loga,n,m,pl,3,o,0_kA,0' drel='r6:ilAja' posn='100' vpos='vib_2' name='logoM' chunkId='NP3' chunkType='head:NP3'>
11	kA	PSP	<fs af='kA,psp,m,sg,,d,,' posn='110' drel='lwg__psp:logoM' chunkType='child:NP3' name='kA2'>
12	ilAja	NN	<fs af='ilAja,n,m,sg,3,d,0,0' drel='k1:ho' posn='120' name='ilAja' chunkId='NP4' chunkType='head:NP4'>
13	saMBava	JJ	<fs af='saMBava,adj,any,any,,,,' drel='pof:ho' posn='130' name='saMBava' chunkId='JJP' chunkType='head:JJP'>
14	ho	VM	<fs af='ho,v,m,sg,3,,0_saka+yA_hE,0' stype='declarative' posn='140' voicetype='active' vpos='tam_2_3' name='ho' chunkId='VGF' chunkType='head:VGF'>
15	sakA	VAUX	<fs af='saka,v,m,sg,any,,yA,yA' posn='150' drel='lwg__vaux:ho' chunkType='child:VGF' name='sakA'>
16	hE	VAUX	<fs af='hE,v,any,sg,3,,hE,hE' posn='160' drel='lwg__vaux:ho' chunkType='child:VGF' name='hE'>
17	.	SYM	<fs af='.,punc,,,,,,' drel='rsym:ho' posn='170' name='.' chunkId='BLK' chunkType='head:BLK'>
</Sentence>


<Sentence id="15">
1	sara	NNPC	<fs af='sara,n,m,sg,3,d,0,0' posn='10' drel='pof__cn:aspawAla' chunkType='child:NP' name='sara'>
2	gaMgArAma	NNPC	<fs af='gaMgArAma,n,m,sg,3,d,0,0' posn='20' drel='pof__cn:aspawAla' chunkType='child:NP' name='gaMgArAma'>
3	aspawAla	NNP	<fs af='aspawAla,n,m,sg,3,o,0_kA,0' drel='r6:viBAga' posn='30' vpos='vib_4' name='aspawAla' chunkId='NP' chunkType='head:NP'>
4	ke	PSP	<fs af='kA,psp,m,sg,,o,,' posn='40' drel='lwg__psp:aspawAla' chunkType='child:NP' name='ke'>
5	neProlOYjI	NNPC	<fs af='neProlOYjI,n,f,sg,3,d,0,0' posn='50' drel='pof__cn:viBAga' chunkType='child:NP2' name='neProlOYjI'>
6	viBAga	NNP	<fs af='viBAga,n,m,sg,3,o,0_kA,0' drel='r6:pramuKa' posn='60' vpos='vib_3' name='viBAga' chunkId='NP2' chunkType='head:NP2'>
7	ke	PSP	<fs af='kA,psp,m,sg,,o,,' posn='70' drel='lwg__psp:viBAga' chunkType='child:NP2' name='ke2'>
8	pramuKa	NN	<fs af='pramuKa,n,m,sg,3,o,0,0' drel='nmod:rANA' posn='80' name='pramuKa' chunkId='NP3' chunkType='head:NP3'>
9	dOY.	NNC	<fs af='dOY.,n,m,sg,3,d,0,0' posn='90' drel='pof__cn:dI.' chunkType='child:NP4' name='dOY.'>
10	dI.	NNPC	<fs af='dI.,n,m,sg,3,d,0,0' posn='100' drel='pof__cn:esa.' chunkType='child:NP4' name='dI.'>
11	esa.	NNP	<fs af='esa.,n,m,sg,3,d,0,0' posn='110' drel='nmod__adj:rANA' chunkType='child:NP4' name='esa.'>
12	rANA	NNP	<fs af='rANA,n,any,sg,3,o,0_ne,0' drel='k1:kahA' posn='120' vpos='vib_vib_5' name='rANA' chunkId='NP4' chunkType='head:NP4'>
13	ne	PSP	<fs af='ne,psp,,,,,,' posn='130' drel='lwg__psp:rANA' chunkType='child:NP4' name='ne'>
14	dOY.	NNC	<fs af='dOY.,n,m,sg,3,d,0,0' posn='140' drel='pof__cn:rAmaxAsa' chunkType='child:NP5' name='dOY.2'>
15	rAmaxAsa	NNP	<fs af='rAmaxAsa,n,m,sg,3,o,0_kA,0' drel='r6:bayAna' posn='150' vpos='vib_3' name='rAmaxAsa' chunkId='NP5' chunkType='head:NP5'>
16	ke	PSP	<fs af='kA,psp,m,sg,,o,,' posn='160' drel='lwg__psp:rAmaxAsa' chunkType='child:NP5' name='ke3'>
17	bayAna	NN	<fs af='bayAna,n,m,sg,3,o,0_para,0' drel='k7:karawe' posn='170' vpos='vib_2' name='bayAna' chunkId='NP6' chunkType='head:NP6'>
18	para	PSP	<fs af='para,psp,,,,,,' posn='180' drel='lwg__psp:bayAna' chunkType='child:NP6' name='para'>
19	prawikriyA	NN	<fs af='prawikriyA,n,f,sg,3,d,0,0' drel='k2:karawe' posn='190' name='prawikriyA' chunkId='NP7' chunkType='head:NP7'>
20	vyakwa	JJ	<fs af='vyakwa,adj,any,any,,,,' drel='pof:karawe' posn='200' name='vyakwa' chunkId='JJP' chunkType='head:JJP'>
21	karawe	VM	<fs af='kara,v,m,sg,any,,wA_ho+yA,wA' drel='vmod:kahA' posn='210' vpos='tam_2' name='karawe' chunkId='VGNF' chunkType='head:VGNF'>
22	hue	VAUX	<fs af='ho,v,m,sg,any,,yA,yA' posn='220' drel='lwg__vaux:karawe' chunkType='child:VGNF' name='hue'>
23	kahA	VM	<fs af='kaha,v,m,sg,any,,yA,yA' stype='declarative' posn='230' voicetype='active' name='kahA' chunkId='VGF' chunkType='head:VGF'>
24	ki	CC	<fs af='ki,avy,,,,,,' drel='k2:kahA' posn='240' name='ki' chunkId='CCP' chunkType='head:CCP'>
25	yaha	PRP	<fs af='yaha,pn,any,sg,3,d,0,0' drel='k1:hE' posn='250' name='yaha' chunkId='NP8' chunkType='head:NP8'>
26	wo	RP	<fs af='wo,avy,,,,,,' posn='260' drel='lwg__rp:yaha' chunkType='child:NP8' name='wo'>
27	acCI	JJ	<fs af='acCA,adj,f,sg,,d,,' posn='270' drel='nmod__adj:bAwa' chunkType='child:NP9' name='acCI'>
28	bAwa	NN	<fs af='bAwa,n,f,sg,3,d,0,0' drel='k1s:hE' posn='280' name='bAwa' chunkId='NP9' chunkType='head:NP9'>
29	hE	VM	<fs af='hE,v,any,sg,3,,hE,hE' drel='ccof:ki' stype='declarative' posn='290' voicetype='active' name='hE' chunkId='VGF2' chunkType='head:VGF2'>
30	.	SYM	<fs af='.,punc,,,,,,' drel='rsym:kahA' posn='300' name='.' chunkId='BLK' chunkType='head:BLK'>
</Sentence>


<Sentence id="16">
1	dOYktaroM	NN	<fs af='dOYktara,n,m,pl,3,o,0_ko,0' drel='k1:honI' posn='10' vpos='vib_2' name='dOYktaroM' chunkId='NP' chunkType='head:NP'>
2	ko	PSP	<fs af='ko,psp,,,,,,' posn='20' drel='lwg__psp:dOYktaroM' chunkType='child:NP' name='ko'>
3	apane	PRP	<fs af='apanA,pn,m,any,any,o,0,0' drel='r6:viRaya' posn='30' name='apane' chunkId='NP2' chunkType='head:NP2'>
4	viRaya	NN	<fs af='viRaya,n,m,sg,3,o,0_ke_bAre_meM,0' drel='k7:honI' posn='40' vpos='vib_2_3_4' name='viRaya' chunkId='NP3' chunkType='head:NP3'>
5	ke	PSP	<fs af='ke,psp,,,,,,' posn='50' drel='lwg__psp:viRaya' chunkType='child:NP3' name='ke'>
6	bAre	PSP	<fs af='bAre,psp,,,,,,' posn='60' drel='lwg__psp:viRaya' chunkType='child:NP3' name='bAre'>
7	meM	PSP	<fs af='meM,psp,,,,,,' posn='70' drel='lwg__psp:viRaya' chunkType='child:NP3' name='meM'>
8	jAnakArI	NN	<fs af='jAnakArI,n,f,sg,3,d,0,0' drel='k2:honI' posn='80' name='jAnakArI' chunkId='NP4' chunkType='head:NP4'>
9	wo	RP	<fs af='wo,avy,,,,,,' posn='90' drel='lwg__rp:jAnakArI' chunkType='child:NP4' name='wo'>
10	honI	VM	<fs af='ho,v,f,any,any,,nA_cAhie,nA' stype='declarative' posn='100' voicetype='active' vpos='tam_3' name='honI' chunkId='VGF' chunkType='head:VGF'>
11	hI	RP	<fs af='hI,avy,,,,,,' posn='110' drel='lwg__rp:honI' chunkType='child:VGF' name='hI'>
12	cAhie	VAUX	<fs af='cAhie,v,any,any,any,,0,0' posn='120' drel='lwg__vaux:honI' chunkType='child:VGF' name='cAhie'>
13	.	SYM	<fs af='.,punc,,,,,,' drel='rsym:honI' posn='130' name='.' chunkId='BLK' chunkType='head:BLK'>
</Sentence>


<Sentence id="17">
1	yaha	PRP	<fs af='yaha,pn,any,sg,3,d,0,0' drel='k1:hE' posn='10' name='yaha' chunkId='NP' chunkType='head:NP'>
2	logoM	NN	<fs af='loga,n,m,pl,3,o,0_kA,0' drel='r6:jIvana' posn='20' vpos='vib_2' name='logoM' chunkId='NP2' chunkType='head:NP2'>
3	ke	PSP	<fs af='kA,psp,m,sg,,o,,' posn='30' drel='lwg__psp:logoM' chunkType='child:NP2' name='ke'>
4	jIvana	NN	<fs af='jIvana,n,m,sg,3,o,0_se,0' drel='ras-k1:judZA' posn='40' vpos='vib_2' name='jIvana' chunkId='NP3' chunkType='head:NP3'>
5	se	PSP	<fs af='se,psp,,,,,,' posn='50' drel='lwg__psp:jIvana' chunkType='child:NP3' name='se'>
6	judZA	VM	<fs af='judZa,v,m,sg,any,,yA_ho+yA,yA' drel='nmod__k1inv:viRaya' posn='60' vpos='tam_2' name='judZA' chunkId='VGNF' chunkType='head:VGNF'>
7	huA	VAUX	<fs af='ho,v,m,sg,any,,yA,yA' posn='70' drel='lwg__vaux:judZA' chunkType='child:VGNF' name='huA'>
8	viRaya	NN	<fs af='viRaya,n,m,sg,3,d,0,0' drel='k1s:hE' posn='80' name='viRaya' chunkId='NP4' chunkType='head:NP4'>
9	hE	VM	<fs af='hE,v,any,sg,3,,hE,hE' stype='declarative' posn='90' voicetype='active' name='hE' chunkId='VGF' chunkType='head:VGF'>
10	.	SYM	<fs af='.,punc,,,,,,' drel='rsym:hE' posn='100' name='.' chunkId='BLK' chunkType='head:BLK'>
</Sentence>


<Sentence id="18">
1	dOYktaroM	NN	<fs af='dOYktara,n,m,pl,3,o,0_kA,0' drel='r6:lAparavAhI' posn='10' vpos='vib_2' name='dOYktaroM' chunkId='NP' chunkType='head:NP'>
2	kI	PSP	<fs af='kA,psp,f,sg,,o,,' posn='20' drel='lwg__psp:dOYktaroM' chunkType='child:NP' name='kI'>
3	WodZI	QF	<fs af='WodZA,adj,f,sg,,o,,' posn='30' drel='nmod__adj:lAparavAhI' chunkType='child:NP2' name='WodZI'>
4	sI	RP	<fs af='sA,avy,f,,,o,,' posn='40' drel='lwg__rp:lAparavAhI' chunkType='child:NP2' name='sI'>
5	lAparavAhI	NN	<fs af='lAparavAhI,n,f,sg,3,o,0_se,0' drel='rh:jA' posn='50' vpos='vib_4' name='lAparavAhI' chunkId='NP2' chunkType='head:NP2'>
6	se	PSP	<fs af='se,psp,,,,,,' posn='60' drel='lwg__psp:lAparavAhI' chunkType='child:NP2' name='se'>
7	marIja	NN	<fs af='marIja,n,m,sg,3,o,0_kA,0' drel='r6:jAna' posn='70' vpos='vib_2' name='marIja' chunkId='NP3' chunkType='head:NP3'>
8	kI	PSP	<fs af='kA,psp,f,sg,,d,,' posn='80' drel='lwg__psp:marIja' chunkType='child:NP3' name='kI2'>
9	jAna	NN	<fs af='jAna,n,f,sg,3,d,0,0' drel='k1:jA' posn='90' name='jAna' chunkId='NP4' chunkType='head:NP4'>
10	jA	VM	<fs af='jA,v,f,sg,3,,0_saka+wA_hE,0' stype='declarative' posn='100' voicetype='active' vpos='tam_2_3' name='jA' chunkId='VGF' chunkType='head:VGF'>
11	sakawI	VAUX	<fs af='saka,v,f,sg,any,,wA,wA' posn='110' drel='lwg__vaux:jA' chunkType='child:VGF' name='sakawI'>
12	hE	VAUX	<fs af='hE,v,any,sg,3,,hE,hE' posn='120' drel='lwg__vaux:jA' chunkType='child:VGF' name='hE'>
13	.	SYM	<fs af='.,punc,,,,,,' drel='rsym:jA' posn='130' name='.' chunkId='BLK' chunkType='head:BLK'>
</Sentence>


<Sentence id="19">
1	amerikA	NNP	<fs af='amerikA,n,m,sg,3,o,0_jEsA,0' drel='nmod:xeSa' posn='10' vpos='vib_2' name='amerikA' chunkId='NP' chunkType='head:NP'>
2	jEse	PSP	<fs af='jEsA,psp,m,sg,,o,,' posn='20' drel='lwg__psp:amerikA' chunkType='child:NP' name='jEse'>
3	xeSa	NN	<fs af='xeSa,n,m,sg,3,o,0_meM,0' drel='k7p:howA' posn='30' vpos='vib_2_RP' name='xeSa' chunkId='NP2' chunkType='head:NP2'>
4	meM	PSP	<fs af='meM,psp,,,,,,' posn='40' drel='lwg__psp:xeSa' chunkType='child:NP2' name='meM'>
5	wo	RP	<fs af='wo,avy,,,,,,' posn='50' drel='lwg__rp:xeSa' chunkType='child:NP2' name='wo'>
6	eka	QC	<fs af='eka,num,any,any,,any,,' posn='60' drel='nmod__adj:prAMwa' chunkType='child:NP3' name='eka'>
7	prAMwa	NN	<fs af='prAMwa,n,m,sg,3,o,0_kA,0' drel='r6:rajistreSana' posn='70' vpos='vib_3' name='prAMwa' chunkId='NP3' chunkType='head:NP3'>
8	kA	PSP	<fs af='kA,psp,m,sg,,d,,' posn='80' drel='lwg__psp:prAMwa' chunkType='child:NP3' name='kA'>
9	rajistreSana	NN	<fs af='rajistreSana,n,m,sg,3,d,0,0' drel='k1:howA' posn='90' name='rajistreSana' chunkId='NP4' chunkType='head:NP4'>
10	xUsare	QC	<fs af='xUsarA,num,m,sg,,o,,' posn='100' drel='nmod__adj:rAjya' chunkType='child:NP5' name='xUsare'>
11	rAjya	NN	<fs af='rAjya,n,m,sg,3,o,0_meM,0' drel='k7p:howA' posn='110' vpos='vib_3' name='rAjya' chunkId='NP5' chunkType='head:NP5'>
12	meM	PSP	<fs af='meM,psp,,,,,,' posn='120' drel='lwg__psp:rAjya' chunkType='child:NP5' name='meM2'>
13	mAnya	JJ	<fs af='mAnya,adj,any,any,,,,' drel='pof:howA' posn='130' name='mAnya' chunkId='JJP' chunkType='head:JJP'>
14	nahIM	NEG	<fs af='nahIM,avy,,,,,,' posn='140' drel='lwg__neg:howA' chunkType='child:VGF' name='nahIM'>
15	howA	VM	<fs af='ho,v,m,sg,3,,wA_hE,wA' stype='declarative' posn='150' voicetype='active' vpos='tam_3' name='howA' chunkId='VGF' chunkType='head:VGF'>
16	hE	VAUX	<fs af='hE,v,any,sg,3,,hE,hE' posn='160' drel='lwg__vaux:howA' chunkType='child:VGF' name='hE'>
17	.	SYM	<fs af='.,punc,,,,,,' drel='rsym:howA' posn='170' name='.' chunkId='BLK' chunkType='head:BLK'>
</Sentence>


<Sentence id="20">
1	jabaki	CC	<fs af='jabaki,avy,,,,,,' posn='10' name='jabaki' chunkId='CCP' chunkType='head:CCP'>
2	BArawa	NNP	<fs af='BArawa,n,m,sg,3,o,0_meM,0' drel='k7p:kara' posn='20' vpos='vib_2' name='BArawa' chunkId='NP' chunkType='head:NP'>
3	meM	PSP	<fs af='meM,psp,,,,,,' posn='30' drel='lwg__psp:BArawa' chunkType='child:NP' name='meM'>
4	eka	QC	<fs af='eka,num,any,any,,any,,' posn='40' drel='nmod__adj:praxeSa' chunkType='child:NP2' name='eka'>
5	praxeSa	NN	<fs af='praxeSa,n,m,sg,3,o,0_meM,0' drel='k7p:karAkara' posn='50' vpos='vib_3' name='praxeSa' chunkId='NP2' chunkType='head:NP2'>
6	meM	PSP	<fs af='meM,psp,,,,,,' posn='60' drel='lwg__psp:praxeSa' chunkType='child:NP2' name='meM2'>
7	paMjIkaraNa	NN	<fs af='paMjIkaraNa,n,m,sg,3,d,0,0' drel='pof:karAkara' posn='70' name='paMjIkaraNa' chunkId='NP3' chunkType='head:NP3'>
8	karAkara	VM	<fs af='karA,v,any,any,any,,kara,kara' drel='vmod:kara' posn='80' name='karAkara' chunkId='VGNF' chunkType='head:VGNF'>
9	xeSa	NN	<fs af='xeSa,n,m,sg,3,o,0_kA,0' drel='r6:kone' posn='90' vpos='vib_2' name='xeSa' chunkId='NP4' chunkType='head:NP4'>
10	ke	PSP	<fs af='kA,psp,m,sg,,o,,' posn='100' drel='lwg__psp:xeSa' chunkType='child:NP4' name='ke'>
11	kisI	PRP	<fs af='koI,pn,any,sg,3,o,0,0' posn='110' drel='nmod__adj:kone' chunkType='child:NP5' name='kisI'>
12	kone	NN	<fs af='konA,n,m,sg,3,o,0_meM,0' drel='k7p:kara' posn='120' vpos='vib_vib_3' name='kone' chunkId='NP5' chunkType='head:NP5'>
13	meM	PSP	<fs af='meM,psp,,,,,,' posn='130' drel='lwg__psp:kone' chunkType='child:NP5' name='meM3'>
14	dOYktara	NN	<fs af='dOYktara,n,m,sg,3,d,0,0' drel='k1:kara' posn='140' name='dOYktara' chunkId='NP6' chunkType='head:NP6'>
15	prektisa	NN	<fs af='prektisa,n,f,sg,3,d,0,0' drel='pof:kara' posn='150' name='prektisa' chunkId='NP7' chunkType='head:NP7'>
16	kara	VM	<fs af='kara,v,m,sg,3,,0_saka+wA_hE,0' drel='ccof:jabaki' stype='declarative' posn='160' voicetype='active' vpos='tam_2_3' name='kara' chunkId='VGF' chunkType='head:VGF'>
17	sakawA	VAUX	<fs af='saka,v,m,sg,any,,wA,wA' posn='170' drel='lwg__vaux:kara' chunkType='child:VGF' name='sakawA'>
18	hE	VAUX	<fs af='hE,v,any,sg,3,,hE,hE' posn='180' drel='lwg__vaux:kara' chunkType='child:VGF' name='hE'>
19	.	SYM	<fs af='.,punc,,,,,,' drel='rsym:jabaki' posn='190' name='.' chunkId='BLK' chunkType='head:BLK'>
</Sentence>


<Sentence id="21">
1	dOYktaroM	NN	<fs af='dOYktara,n,m,pl,3,o,0_ke_pAsa,0' drel='k7:honA' posn='10' vpos='vib_2_3' name='dOYktaroM' chunkId='NP' chunkType='head:NP'>
2	ke	PSP	<fs af='ke,psp,,,,,,' posn='20' drel='lwg__psp:dOYktaroM' chunkType='child:NP' name='ke'>
3	pAsa	NST	<fs af='pAsa,nst,m,sg,3,d,,' posn='30' drel='lwg__psp:dOYktaroM' chunkType='child:NP' name='pAsa'>
4	AXunikawama	JJ	<fs af='AXunikawama,adj,any,any,,d,,' posn='40' drel='nmod__adj:jAnakArI' chunkType='child:NP2' name='AXunikawama'>
5	jAnakArI	NN	<fs af='jAnakArI,n,f,sg,3,d,0,0' drel='k2:mApane' posn='50' name='jAnakArI' chunkId='NP2' chunkType='head:NP2'>
6	mApane	VM	<fs af='mApa,v,any,sg,any,o,nA_kA,nA' drel='r6:pEmAnA' posn='60' vpos='tam_2' name='mApane' chunkId='VGNN' chunkType='head:VGNN'>
7	kA	PSP	<fs af='kA,psp,m,sg,,d,,' posn='70' drel='lwg__psp:mApane' chunkType='child:VGNN' name='kA'>
8	koI	PRP	<fs af='koI,pn,any,sg,3,d,0,0' posn='80' drel='nmod__adj:pEmAnA' chunkType='child:NP3' name='koI'>
9	pEmAnA	NN	<fs af='pEmAnA,n,m,sg,3,d,0,0' drel='k1:honA' posn='90' name='pEmAnA' chunkId='NP3' chunkType='head:NP3'>
10	wo	RP	<fs af='wo,avy,,,,,,' posn='100' drel='lwg__rp:pEmAnA' chunkType='child:NP3' name='wo'>
11	honA	VM	<fs af='ho,v,m,any,any,,nA_cAhie,nA' stype='declarative' posn='110' voicetype='active' vpos='tam_3' name='honA' chunkId='VGF' chunkType='head:VGF'>
12	hI	RP	<fs af='hI,avy,,,,,,' posn='120' drel='lwg__rp:honA' chunkType='child:VGF' name='hI'>
13	cAhie	VAUX	<fs af='cAhie,v,any,any,any,,0,0' posn='130' drel='lwg__vaux:honA' chunkType='child:VGF' name='cAhie'>
14	.	SYM	<fs af='.,punc,,,,,,' drel='rsym:honA' posn='140' name='.' chunkId='BLK' chunkType='head:BLK'>
</Sentence>


<Sentence id="22">
1	iMdiyana	NNPC	<fs af='iMdiyana,adj,any,any,,o,,' posn='220' drel='pof__cn:esosieSana' chunkType='child:NP' name='iMdiyana'>
2	medikala	NNPC	<fs af='medikala,n,m,sg,3,d,0,0' posn='20' drel='pof__cn:esosieSana' chunkType='child:NP' name='medikala'>
3	esosieSana	NNP	<fs af='esosieSana,n,f,sg,3,o,0_kA,0' drel='r6:mahAsaciva' posn='30' vpos='vib_4' name='esosieSana' chunkId='NP' chunkType='head:NP'>
4	ke	PSP	<fs af='kA,psp,m,sg,,o,,' posn='40' drel='lwg__psp:esosieSana' chunkType='child:NP' name='ke'>
5	mahAsaciva	NN	<fs af='mahAsaciva,n,m,sg,3,o,0,0' drel='nmod:agravAla' posn='50' name='mahAsaciva' chunkId='NP2' chunkType='head:NP2'>
6	dOY.	NNC	<fs af='dOY.,n,m,sg,3,d,0,0' posn='60' drel='pof__cn:vinaya' chunkType='child:NP3' name='dOY.'>
7	vinaya	NNPC	<fs af='vinaya,n,m,sg,3,d,0,0' posn='70' drel='pof__cn:agravAla' chunkType='child:NP3' name='vinaya'>
8	agravAla	NNP	<fs af='agravAla,n,any,sg,3,o,0_kA,0' drel='k1:mAnanA' posn='80' vpos='vib_4' name='agravAla' chunkId='NP3' chunkType='head:NP3'>
9	kA	PSP	<fs af='kA,psp,m,sg,,d,,' posn='90' drel='lwg__psp:agravAla' chunkType='child:NP3' name='kA'>
10	mAnanA	VM	<fs af='mAna,v,any,any,any,d,nA,nA' drel='k1:hE' posn='100' name='mAnanA' chunkId='VGNN' chunkType='head:VGNN'>
11	hE	VM	<fs af='hE,v,any,sg,3,,hE,hE' stype='declarative' posn='110' voicetype='active' name='hE' chunkId='VGF' chunkType='head:VGF'>
12	ki	CC	<fs af='ki,avy,,,,,,' drel='k2:mAnanA' posn='120' name='ki' chunkId='CCP' chunkType='head:CCP'>
13	isa	DEM	<fs af='yaha,pn,any,sg,3,o,,' posn='130' drel='nmod__adj:waraha' chunkType='child:NP4' name='isa'>
14	waraha	NN	<fs af='waraha,n,f,sg,3,o,0_kA,0' drel='r6:bayAna' posn='140' vpos='vib_3' name='waraha' chunkId='NP4' chunkType='head:NP4'>
15	kA	PSP	<fs af='kA,psp,m,sg,,d,,' posn='150' drel='lwg__psp:waraha' chunkType='child:NP4' name='kA2'>
16	bayAna	NN	<fs af='bayAna,n,m,sg,3,d,0,0' drel='k2:xiyA' posn='160' name='bayAna' chunkId='NP5' chunkType='head:NP5'>
17	piCale	JJ	<fs af='piCalA,adj,m,sg,,o,,' posn='170' drel='nmod__adj:sAla' chunkType='child:NP6' name='piCale'>
18	sAla	NN	<fs af='sAla,n,m,sg,3,o,0,0' drel='k7t:xiyA' posn='180' name='sAla' chunkId='NP6' chunkType='head:NP6'>
19	BI	RP	<fs af='BI,avy,,,,,,' posn='190' drel='lwg__rp:sAla' chunkType='child:NP6' name='BI'>
20	dOY.	NNC	<fs af='dOY.,n,m,sg,3,d,0,0' posn='200' drel='pof__cn:rAmaxAsa' chunkType='child:NP7' name='dOY.2'>
21	rAmaxAsa	NNP	<fs af='rAmaxAsa,n,m,sg,3,o,0_ne,0' drel='k1:xiyA' posn='210' vpos='vib_3' name='rAmaxAsa' chunkId='NP7' chunkType='head:NP7'>
22	ne	PSP	<fs af='ne,psp,,,,,,' posn='220' drel='lwg__psp:rAmaxAsa' chunkType='child:NP7' name='ne'>
23	xiyA	VM	<fs af='xe,v,m,sg,any,d,0_WA,0' drel='ccof:lekina' stype='declarative' posn='230' voicetype='active' vpos='tam_2' name='xiyA' chunkId='VGF2' chunkType='head:VGF2'>
24	WA	VAUX	<fs af='WA,v,m,sg,any,,WA,WA' posn='240' drel='lwg__vaux:xiyA' chunkType='child:VGF2' name='WA'>
25	,	SYM	<fs af='COMMA,punc,,,,,,' posn='250' drel='rsym:xiyA' chunkType='child:VGF2' name=','>
26	lekina	CC	<fs af='lekina,avy,,,,,,' drel='ccof:ki' posn='260' name='lekina' chunkId='CCP2' chunkType='head:CCP2'>
27	amala	JJ	<fs af='amala,adj,any,any,,,,' drel='pof:kiyA' posn='270' name='amala' chunkId='JJP' chunkType='head:JJP'>
28	nahIM	NEG	<fs af='nahIM,avy,,,,,,' posn='280' drel='lwg__neg:kiyA' chunkType='child:VGF3' name='nahIM'>
29	kiyA	VM	<fs af='kara,v,m,sg,any,,yA_jA+yA1,yA' drel='ccof:lekina' stype='declarative' posn='290' voicetype='passive' vpos='tam_3' name='kiyA' chunkId='VGF3' chunkType='head:VGF3'>
30	gayA	VAUX	<fs af='jA,v,m,sg,any,,yA1,yA1' posn='300' drel='lwg__vaux:kiyA' chunkType='child:VGF3' name='gayA'>
31	.	SYM	<fs af='.,punc,,,,,,' drel='rsym:hE' posn='310' name='.' chunkId='BLK' chunkType='head:BLK'>
</Sentence>


<Sentence id="23">
1	jAMca	NNC	<fs af='jAMca,n,f,sg,3,d,0,0' posn='10' drel='pof__cn:parIkRA' chunkType='child:NP' name='jAMca'>
2	parIkRA	NN	<fs af='parIkRA,n,f,sg,3,d,0,0' drel='k1:lI' posn='20' name='parIkRA' chunkId='NP' chunkType='head:NP'>
3	wo	RP	<fs af='wo,avy,,,,,,' posn='30' drel='lwg__rp:parIkRA' chunkType='child:NP' name='wo'>
4	AXunikawama	JJ	<fs af='AXunikawama,adj,any,any,,o,,' posn='40' drel='nmod__adj:jAnakArI' chunkType='child:NP2' name='AXunikawama'>
5	jAnakArI	NN	<fs af='jAnakArI,n,f,sg,3,o,0_kA,0' drel='r6:parIkRA' posn='50' vpos='vib_3' name='jAnakArI' chunkId='NP2' chunkType='head:NP2'>
6	kI	PSP	<fs af='kA,psp,f,sg,,d,,' posn='60' drel='lwg__psp:jAnakArI' chunkType='child:NP2' name='kI'>
7	lI	VM	<fs af='le,v,f,sg,3,,yA_jA+gA,yA' drel='ccof:lekina' stype='declarative' posn='70' voicetype='active' vpos='tam_2' name='lI' chunkId='VGF' chunkType='head:VGF'>
8	jAegI	VAUX	<fs af='jA,v,f,sg,3,,gA,gA' posn='80' drel='lwg__vaux:lI' chunkType='child:VGF' name='jAegI'>
9	,	SYM	<fs af='COMMA,punc,,,,,,' posn='90' drel='rsym:lI' chunkType='child:VGF' name=','>
10	lekina	CC	<fs af='lekina,avy,,,,,,' posn='100' name='lekina' chunkId='CCP' chunkType='head:CCP'>
11	BArawa	NNP	<fs af='BArawa,n,m,sg,3,o,0_meM,0' drel='k7p:hE' posn='110' vpos='vib_2' name='BArawa' chunkId='NP3' chunkType='head:NP3'>
12	meM	PSP	<fs af='meM,psp,,,,,,' posn='120' drel='lwg__psp:BArawa' chunkType='child:NP3' name='meM'>
13	dOYktaroM	NN	<fs af='dOYktara,n,m,pl,3,o,0_ko,0' drel='k4a:hE' posn='130' vpos='vib_2' name='dOYktaroM' chunkId='NP4' chunkType='head:NP4'>
14	ko	PSP	<fs af='ko,psp,,,,,,' posn='140' drel='lwg__psp:dOYktaroM' chunkType='child:NP4' name='ko'>
15	EsI	DEM	<fs af='EsA,pn,f,sg,3,d,,' posn='150' drel='nmod__adj:suviXA' chunkType='child:NP5' name='EsI'>
16	suviXA	NN	<fs af='suviXA,n,f,sg,3,d,0,0' drel='k1:hE' posn='160' name='suviXA' chunkId='NP5' chunkType='head:NP5'>
17	wo	RP	<fs af='wo,avy,,,,,,' posn='170' drel='lwg__rp:suviXA' chunkType='child:NP5' name='wo2'>
18	upalabXa	JJ	<fs af='upalabXa,adj,any,any,,,,' drel='k1s:hE' posn='180' name='upalabXa' chunkId='JJP' chunkType='head:JJP'>
19	hE	VM	<fs af='hE,v,any,sg,3,,hE,hE' drel='ccof:lekina' stype='declarative' posn='190' voicetype='active' name='hE' chunkId='VGF2' chunkType='head:VGF2'>
20	hI	RP	<fs af='hI,avy,,,,,,' posn='200' drel='lwg__rp:hE' chunkType='child:VGF2' name='hI'>
21	nahIM	NEG	<fs af='nahIM,avy,,,,,,' posn='210' drel='lwg__neg:hE' chunkType='child:VGF2' name='nahIM'>
22	.	SYM	<fs af='.,punc,,,,,,' drel='rsym:lekina' posn='220' name='.' chunkId='BLK' chunkType='head:BLK'>
</Sentence>


<Sentence id="24">
1	unhoMne	PRP	<fs af='vaha,pn,any,sg,3h,o,ne,ne' drel='k1:kahA' posn='10' name='unhoMne' chunkId='NP' chunkType='head:NP'>
2	kahA	VM	<fs af='kaha,v,m,sg,any,,yA,yA' stype='declarative' posn='20' voicetype='active' name='kahA' chunkId='VGF' chunkType='head:VGF'>
3	yaha	DEM	<fs af='yaha,pn,any,sg,3,d,,' posn='30' drel='nmod__adj:bAwa' chunkType='child:NP2' name='yaha'>
4	bAwa	NN	<fs af='bAwa,n,f,sg,3,d,0,0' drel='k1:hE' posn='40' name='bAwa' chunkId='NP2' chunkType='head:NP2'>
5	BI	RP	<fs af='BI,avy,,,,,,' posn='50' drel='lwg__rp:bAwa' chunkType='child:NP2' name='BI'>
6	saca	JJ	<fs af='saca,adj,any,any,,,,' drel='k1s:hE' posn='60' name='saca' chunkId='JJP' chunkType='head:JJP'>
7	hE	VM	<fs af='hE,v,any,sg,3,,hE,hE' drel='k2:kahA' stype='declarative' posn='70' voicetype='active' name='hE' chunkId='VGF2' chunkType='head:VGF2'>
8	ki	CC	<fs af='ki,avy,,,,,,' drel='rs:bAwa' posn='80' name='ki' chunkId='CCP' chunkType='head:CCP'>
9	dOYktaroM	NN	<fs af='dOYktara,n,m,pl,3,o,0_ko,0' drel='k4:xie' posn='90' vpos='vib_2' name='dOYktaroM' chunkId='NP3' chunkType='head:NP3'>
10	ko	PSP	<fs af='ko,psp,,,,,,' posn='100' drel='lwg__psp:dOYktaroM' chunkType='child:NP3' name='ko'>
11	jisa	DEM	<fs af='jo,pn,any,sg,3,o,,' posn='110' drel='nmod__adj:cIja' chunkType='child:NP4' name='jisa'>
12	cIja	NN	<fs af='cIja,n,f,sg,3,o,0_ke_lie,0' drel='rt:xie' posn='120' coref=':NP7' vpos='vib_3_4' name='cIja' chunkId='NP4' chunkType='head:NP4'>
13	ke	PSP	<fs af='ke,psp,,,,,,' posn='130' drel='lwg__psp:cIja' chunkType='child:NP4' name='ke'>
14	lie	PSP	<fs af='lie,psp,,,,,,' posn='140' drel='lwg__psp:cIja' chunkType='child:NP4' name='lie'>
15	lAiseMsa	NN	<fs af='lAiseMsa,n,m,pl,3,d,0,0' drel='pof:xie' posn='150' name='lAiseMsa' chunkId='NP5' chunkType='head:NP5'>
16	xie	VM	<fs af='xe,v,m,pl,3,,yA_jA_raha+yA_hE,yA' drel='nmod__relc:usakI' stype='declarative' posn='160' voicetype='active' vpos='tam_2_3_4' name='xie' chunkId='VGF3' chunkType='head:VGF3'>
17	jA	VAUX	<fs af='jA,v,any,any,any,,0,0' posn='170' drel='lwg__vaux:xie' chunkType='child:VGF3' name='jA'>
18	rahe	VAUX	<fs af='raha,v,m,pl,any,,yA,yA' posn='180' drel='lwg__vaux:xie' chunkType='child:VGF3' name='rahe'>
19	hEM	VAUX	<fs af='hE,v,any,pl,3,,hE,hE' posn='190' drel='lwg__vaux:xie' chunkType='child:VGF3' name='hEM'>
20	,	SYM	<fs af='COMMA,punc,,,,,,' posn='200' drel='rsym:xie' chunkType='child:VGF3' name=','>
21	unheM	PRP	<fs af='vaha,pn,any,pl,3,o,ko,ko' drel='k2:honI' posn='210' name='unheM' chunkId='NP6' chunkType='head:NP6'>
22	usakI	PRP	<fs af='vaha,pn,f,sg,3,o,kA,kA' drel='r6:jAnakArI' posn='220' name='usakI' chunkId='NP7' chunkType='head:NP7'>
23	jAnakArI	NN	<fs af='jAnakArI,n,f,sg,3,d,0,0' drel='k1:honI' posn='230' name='jAnakArI' chunkId='NP8' chunkType='head:NP8'>
24	wo	RP	<fs af='wo,avy,,,,,,' posn='240' drel='lwg__rp:jAnakArI' chunkType='child:NP8' name='wo'>
25	honI	VM	<fs af='ho,v,f,any,any,,nA_cAhie,nA' drel='ccof:ki' stype='declarative' posn='250' voicetype='active' vpos='tam_2' name='honI' chunkId='VGF4' chunkType='head:VGF4'>
26	cAhie	VAUX	<fs af='cAhie,v,any,any,any,,0,0' posn='260' drel='lwg__vaux:honI' chunkType='child:VGF4' name='cAhie'>
27	.	SYM	<fs af='.,punc,,,,,,' drel='rsym:kahA' posn='270' name='.' chunkId='BLK' chunkType='head:BLK'>
</Sentence>


<Sentence id="25">
1	lekina	CC	<fs af='lekina,avy,,,,,,' posn='10' name='lekina' chunkId='CCP' chunkType='head:CCP'>
2	sarakAra	NN	<fs af='sarakAra,n,f,sg,3,o,0_kA,0' drel='r6:xAyiwva' posn='20' vpos='vib_2_RP' name='sarakAra' chunkId='NP' chunkType='head:NP'>
3	kA	PSP	<fs af='kA,psp,m,sg,,d,,' posn='30' drel='lwg__psp:sarakAra' chunkType='child:NP' name='kA'>
4	BI	RP	<fs af='BI,avy,,,,,,' posn='40' drel='lwg__rp:sarakAra' chunkType='child:NP' name='BI'>
5	kuCa	QF	<fs af='kuCa,avy,,,,,,' posn='50' drel='nmod__adj:xAyiwva' chunkType='child:NP2' name='kuCa'>
6	xAyiwva	NN	<fs af='xAyiwva,n,m,sg,3,d,0,0' drel='k1:banawA' posn='60' name='xAyiwva' chunkId='NP2' chunkType='head:NP2'>
7	banawA	VM	<fs af='bana,v,m,sg,3,,wA_hE,wA' drel='ccof:lekina' stype='declarative' posn='70' voicetype='active' vpos='tam_2' name='banawA' chunkId='VGF' chunkType='head:VGF'>
8	hE	VAUX	<fs af='hE,v,any,sg,3,,hE,hE' posn='80' drel='lwg__vaux:banawA' chunkType='child:VGF' name='hE'>
9	.	SYM	<fs af='.,punc,,,,,,' drel='rsym:lekina' posn='90' name='.' chunkId='BLK' chunkType='head:BLK'>
</Sentence>


<Sentence id="26">
1	hArta	NNPC	<fs af='hArta,n,m,sg,3,d,0,0' posn='10' drel='pof__cn:PAuMdeSana' chunkType='child:NP' name='hArta'>
2	keyara	NNPC	<fs af='keyara,n,f,sg,3,d,0,0' posn='20' drel='pof__cn:PAuMdeSana' chunkType='child:NP' name='keyara'>
3	PAuMdeSana	NNP	<fs af='PAuMdeSana,n,f,sg,3,o,0_kA,0' drel='r6:aXyakRa' posn='30' vpos='vib_4' name='PAuMdeSana' chunkId='NP' chunkType='head:NP'>
4	ke	PSP	<fs af='kA,psp,m,sg,,o,,' posn='40' drel='lwg__psp:PAuMdeSana' chunkType='child:NP' name='ke'>
5	aXyakRa	NN	<fs af='aXyakRa,n,m,sg,3,o,0,0' drel='nmod:agravAla' posn='50' name='aXyakRa' chunkId='NP2' chunkType='head:NP2'>
6	dOY.	NNC	<fs af='dOY.,n,m,sg,3,d,0,0' posn='60' drel='pof__cn:ke.' chunkType='child:NP3' name='dOY.'>
7	ke.	NNPC	<fs af='ke.,n,m,sg,3,d,0,0' posn='70' drel='pof__cn:agravAla' chunkType='child:NP3' name='ke.'>
8	ke.	NNPC	<fs af='ke.,n,m,sg,3,d,0,0' posn='80' drel='pof__cn:agravAla' chunkType='child:NP3' name='ke.2'>
9	agravAla	NNP	<fs af='agravAla,n,any,sg,3,o,0_kA,0' drel='k1:kahanA' posn='90' vpos='vib_5' name='agravAla' chunkId='NP3' chunkType='head:NP3'>
10	kA	PSP	<fs af='kA,psp,m,sg,,d,,' posn='100' drel='lwg__psp:agravAla' chunkType='child:NP3' name='kA'>
11	kahanA	VM	<fs af='kaha,v,any,any,any,d,nA,nA' drel='k1:hE' posn='110' name='kahanA' chunkId='VGNN' chunkType='head:VGNN'>
12	hE	VM	<fs af='hE,v,any,sg,3,,hE,hE' stype='declarative' posn='120' voicetype='active' name='hE' chunkId='VGF' chunkType='head:VGF'>
13	ki	CC	<fs af='ki,avy,,,,,,' drel='k2:kahanA' posn='130' name='ki' chunkId='CCP' chunkType='head:CCP'>
14	jaba	PRP	<fs af='jaba,pn,,,,d,,' drel='k7t:xenI' posn='140' coref=':NP8' name='jaba' chunkId='NP4' chunkType='head:NP4'>
15	eka	QC	<fs af='eka,num,any,any,,any,,' posn='150' drel='nmod__adj:sevA' chunkType='child:NP5' name='eka'>
16	BArawIya	NNPC	<fs af='BArawIya,adj,any,any,,o,,' posn='220' drel='pof__cn:sevA' chunkType='child:NP5' name='BArawIya'>
17	praSAsanika	NNPC	<fs af='praSAsanika,adj,any,any,,o,,' posn='220' drel='pof__cn:sevA' chunkType='child:NP5' name='praSAsanika'>
18	sevA	NNP	<fs af='sevA,n,f,sg,3,o,0_kA,0' drel='r6:aXikArI' posn='180' vpos='vib_5' name='sevA' chunkId='NP5' chunkType='head:NP5'>
19	ke	PSP	<fs af='kA,psp,m,sg,,o,,' posn='190' drel='lwg__psp:sevA' chunkType='child:NP5' name='ke2'>
20	aXikArI	NN	<fs af='aXikArI,n,m,sg,3,o,0_ko,0' drel='k4:xenI' posn='200' vpos='vib_2' name='aXikArI' chunkId='NP6' chunkType='head:NP6'>
21	ko	PSP	<fs af='ko,psp,,,,,,' posn='210' drel='lwg__psp:aXikArI' chunkType='child:NP6' name='ko'>
22	bAra	RB	<fs af='bAra,adv,,,,,,' drel='adv:xenI' posn='220' name='bAra' chunkId='RBP' chunkType='head:RBP'>
23	-	SYM	<fs af='-,punc,,,,,,' posn='230' drel='rsym:bAra' chunkType='child:RBP' name='-'>
24	bAra	RDP	<fs af='bAra,adv,,,,,,' posn='240' drel='mod:bAra' chunkType='child:RBP' name='bAra2'>
25	parIkRA	NN	<fs af='parIkRA,n,f,sg,3,d,0,0' drel='k1:xenI' posn='250' name='parIkRA' chunkId='NP7' chunkType='head:NP7'>
26	nahIM	NEG	<fs af='nahIM,avy,,,,,,' posn='260' drel='lwg__neg:xenI' chunkType='child:VGF2' name='nahIM'>
27	xenI	VM	<fs af='xe,v,f,sg,3,,nA_padZa+wA_hE,nA' drel='nmod__relc:wo' stype='declarative' posn='270' voicetype='active' vpos='tam_3_4' name='xenI' chunkId='VGF2' chunkType='head:VGF2'>
28	padZawI	VAUX	<fs af='padZa,v,f,sg,any,,wA,wA' posn='280' drel='lwg__vaux:xenI' chunkType='child:VGF2' name='padZawI'>
29	hE	VAUX	<fs af='hE,v,any,sg,3,,hE,hE' posn='290' drel='lwg__vaux:xenI' chunkType='child:VGF2' name='hE2'>
30	,	SYM	<fs af='COMMA,punc,,,,,,' posn='300' drel='rsym:xenI' chunkType='child:VGF2' name=','>
31	wo	PRP	<fs af='wo,pn,,,,,,' drel='k7t:hE3' posn='310' name='wo' chunkId='NP8' chunkType='head:NP8'>
32	dOYktaroM	NN	<fs af='dOYktara,n,m,pl,3,o,0_ko,0' drel='k4:xene' posn='320' vpos='vib_2' name='dOYktaroM' chunkId='NP9' chunkType='head:NP9'>
33	ko	PSP	<fs af='ko,psp,,,,,,' posn='330' drel='lwg__psp:dOYktaroM' chunkType='child:NP9' name='ko2'>
34	bAra	RB	<fs af='bAra,adv,,,,,,' drel='adv:xene' posn='340' name='bAra3' chunkId='RBP2' chunkType='head:RBP2'>
35	-	SYM	<fs af='-,punc,,,,,,' posn='350' drel='rsym:bAra3' chunkType='child:RBP2' name='-2'>
36	bAra	RDP	<fs af='bAra,adv,,,,,,' posn='360' drel='mod:bAra3' chunkType='child:RBP2' name='bAra4'>
37	parIkRA	NN	<fs af='parIkRA,n,f,sg,3,d,0,0' drel='pof:xene' posn='370' name='parIkRA2' chunkId='NP10' chunkType='head:NP10'>
38	xene	VM	<fs af='xe,v,any,sg,any,o,nA_kA,nA' drel='r6:Ociwya' posn='380' vpos='tam_2' name='xene' chunkId='VGNN2' chunkType='head:VGNN2'>
39	kA	PSP	<fs af='kA,psp,m,sg,,d,,' posn='390' drel='lwg__psp:xene' chunkType='child:VGNN2' name='kA2'>
40	kyA	WQ	<fs af='kyA,pn,,,,,,' posn='400' drel='mod__wq:Ociwya' chunkType='child:NP11' name='kyA'>
41	Ociwya	NN	<fs af='Ociwya,n,m,sg,3,d,0,0' drel='k1:hE3' posn='410' name='Ociwya' chunkId='NP11' chunkType='head:NP11'>
42	hE	VM	<fs af='hE,v,any,sg,3,,hE,hE' drel='ccof:ki' stype='interrogative' posn='420' voicetype='active' name='hE3' chunkId='VGF3' chunkType='head:VGF3'>
43	.	SYM	<fs af='.,punc,,,,,,' drel='rsym:hE' posn='430' name='.' chunkId='BLK' chunkType='head:BLK'>
</Sentence>


</text>
</tb>
</body>
</document>
