<document id="2531913">
<head>
<title></title>			
<caption>saMGa parivAra kI Kula gaI kalaI  BAkapA        pre   : naI xillI</caption>			
<language>Hindi </language>			
<author>			
<firstname></firstname>			
<middlename></middlename>			
<lastname></lastname>			
</author>			
<creation>			
<raw_corpus creation_date="" institute_name=""></raw_corpus>			
<annotated_corpus creation_date="07/25/2009" institute_name="IIIT-Hyderabad"></annotated_corpus>			
</creation>			
<domain_name>News Articles </domain_name>			
<distributor>LTRC, IIIT Hyderabad</distributor>			
<source>ISI, Kolkata</source>			
<publication>			
<place>New Delhi</place>			
<date>17/6/2004</date>			
<address>Connaught Place, New Delhi</address>			
<type>Newspaper</type>			
<publisher>			
<name>Amar Ujala</name>			
<url>http://www.amarujala.com</url>			
</publisher>			
</publication>			
<project_description>NSF Hindi/Urdu Dependency Treebanking Project</project_description>			
<availability>			
<format>CML/SSF</format>			
</availability>			
<byte_count>4024</byte_count>			
<word_count>113</word_count>			
<edition_number>1.0</edition_number>			
<encoding_description>			
<original_encoding>ISO 8859</original_encoding>			
<new_encoding>Unicode UTF8</new_encoding>			
</encoding_description>			
<bibliography></bibliography>			
<sentence_marker>.</sentence_marker>			
<normalization>No</normalization>			
<utility_name>cml_tags</utility_name>			

</head>
<body>
<tb number="1" segment="no" bullet="no">
<foreign language="select" writingsystem="LTR"> </foreign>			
<text>
<Sentence id="1">
1	BArawIya	NNPC	<fs af='BArawIya,adj,any,any,,o,,' posn='40' drel='pof__cn:pArtI' chunkType='child:NP' name='BArawIya'>
2	kamyunista	NNPC	<fs af='kamyunista,n,m,sg,3,d,0,0' posn='20' drel='pof__cn:pArtI' chunkType='child:NP' name='kamyunista'>
3	pArtI	NNP	<fs af='pArtI,n,f,sg,3,o,0_ne,0' drel='k1:kahA' posn='30' vpos='vib_4' name='pArtI' chunkId='NP' chunkType='head:NP'>
4	ne	PSP	<fs af='ne,psp,,,,,,' posn='40' drel='lwg__psp:pArtI' chunkType='child:NP' name='ne'>
5	kahA	VM	<fs af='kaha,v,m,sg,any,,yA,yA' stype='declarative' posn='50' voicetype='active' name='kahA' chunkId='VGF' chunkType='head:VGF'>
6	ki	CC	<fs af='ki,avy,,,,,,' drel='k2:kahA' posn='60' name='ki' chunkId='CCP' chunkType='head:CCP'>
7	banarjI	NNP	<fs af='banarjI,n,any,sg,3,d,0,0' posn='70' drel='nmod__adj:samiwi' chunkType='child:NP2' name='banarjI'>
8	samiwi	NN	<fs af='samiwi,n,f,sg,3,o,0_kA,0' drel='r6:riporta' posn='80' vpos='vib_vib_3' name='samiwi' chunkId='NP2' chunkType='head:NP2'>
9	kI	PSP	<fs af='kA,psp,f,sg,,o,,' posn='90' drel='lwg__psp:samiwi' chunkType='child:NP2' name='kI'>
10	riporta	NN	<fs af='riporta,n,f,sg,3,o,0_se,0' drel='rh:Kula' posn='100' vpos='vib_2' name='riporta' chunkId='NP3' chunkType='head:NP3'>
11	se	PSP	<fs af='se,psp,,,,,,' posn='110' drel='lwg__psp:riporta' chunkType='child:NP3' name='se'>
12	saMGa	NNC	<fs af='saMGa,n,m,sg,3,d,0,0' posn='120' drel='pof__cn:parivAra' chunkType='child:NP4' name='saMGa'>
13	parivAra	NN	<fs af='parivAra,n,m,sg,3,o,0,0' drel='ccof:Ora' posn='130' name='parivAra' chunkId='NP4' chunkType='head:NP4'>
14	Ora	CC	<fs af='Ora,avy,,,,,,' drel='r6:kalaI' posn='140' name='Ora' chunkId='CCP2' chunkType='head:CCP2'>
15	gujarAwa	NNP	<fs af='gujarAwa,n,m,sg,3,o,0_kA,0' drel='r6:sarakAra' posn='150' vpos='vib_2' name='gujarAwa' chunkId='NP5' chunkType='head:NP5'>
16	kI	PSP	<fs af='kA,psp,f,sg,,o,,' posn='160' drel='lwg__psp:gujarAwa' chunkType='child:NP5' name='kI2'>
17	moxI	NNP	<fs af='moxI,n,m,sg,3,d,0,0' posn='170' drel='nmod__adj:sarakAra' chunkType='child:NP6' name='moxI'>
18	sarakAra	NN	<fs af='sarakAra,n,f,sg,3,o,0_kA,0' drel='ccof:Ora' posn='180' vpos='vib_vib_3' name='sarakAra' chunkId='NP6' chunkType='head:NP6'>
19	kI	PSP	<fs af='kA,psp,f,sg,,d,,' posn='190' drel='lwg__psp:sarakAra' chunkType='child:NP6' name='kI3'>
20	kalaI	NN	<fs af='kalaI,n,f,sg,3,d,0,0' drel='k1:Kula' posn='200' name='kalaI' chunkId='NP7' chunkType='head:NP7'>
21	Kula	VM	<fs af='Kula,v,f,sg,3,,0_jA+yA1_hE,0' drel='ccof:ki' stype='declarative' posn='210' voicetype='active' vpos='tam_2_3' name='Kula' chunkId='VGF2' chunkType='head:VGF2'>
22	gaI	VAUX	<fs af='jA,v,f,sg,any,,yA1,yA1' posn='220' drel='lwg__vaux:Kula' chunkType='child:VGF2' name='gaI'>
23	hE	VAUX	<fs af='hE,v,any,sg,3,,hE,hE' posn='230' drel='lwg__vaux:Kula' chunkType='child:VGF2' name='hE'>
24	.	SYM	<fs af='.,punc,,,,,,' drel='rsym:kahA' posn='240' name='.' chunkId='BLK' chunkType='head:BLK'>
</Sentence>


<Sentence id="2">
1	BAkapA	NNP	<fs af='BAkapA,n,f,sg,3,o,0_ne,0' drel='k1:kahA' posn='10' vpos='vib_2' name='BAkapA' chunkId='NP' chunkType='head:NP'>
2	ne	PSP	<fs af='ne,psp,,,,,,' posn='20' drel='lwg__psp:BAkapA' chunkType='child:NP' name='ne'>
3	kahA	VM	<fs af='kaha,v,m,sg,any,,yA,yA' stype='declarative' posn='30' voicetype='active' name='kahA' chunkId='VGF' chunkType='head:VGF'>
4	ki	CC	<fs af='ki,avy,,,,,,' drel='k2:kahA' posn='40' name='ki' chunkId='CCP' chunkType='head:CCP'>
5	hamArA	PRP	<fs af='hama,pn,m,pl,1,o,kA,kA' drel='r6:ruKa' posn='50' name='hamArA' chunkId='NP2' chunkType='head:NP2'>
6	ruKa	NN	<fs af='ruKa,n,m,sg,3,d,0,0' drel='k1:huA' posn='60' name='ruKa' chunkId='NP3' chunkType='head:NP3'>
7	sahI	JJ	<fs af='sahI,adj,any,any,,,,' posn='70' drel='nmod__adj:sAbiwa' chunkType='child:JJP' name='sahI'>
8	sAbiwa	JJ	<fs af='sAbiwa,adj,any,any,,,,' drel='k1s:huA' posn='80' name='sAbiwa' chunkId='JJP' chunkType='head:JJP'>
9	huA	VM	<fs af='ho,v,m,sg,3,,yA_hE,yA' drel='ccof:ki' stype='declarative' posn='90' voicetype='active' vpos='tam_2' name='huA' chunkId='VGF2' chunkType='head:VGF2'>
10	hE	VAUX	<fs af='hE,v,any,sg,3,,hE,hE' posn='100' drel='lwg__vaux:huA' chunkType='child:VGF2' name='hE'>
11	ki	CC	<fs af='ki,avy,,,,,,' drel='rs:ruKa' posn='110' name='ki2' chunkId='CCP2' chunkType='head:CCP2'>
12	ina	DEM	<fs af='yaha,pn,any,pl,3,o,,' posn='120' drel='nmod__adj:logoM' chunkType='child:NP4' name='ina'>
13	logoM	NN	<fs af='loga,n,m,pl,3,o,0_ne,0' drel='k1:kiyA' posn='130' vpos='vib_3' name='logoM' chunkId='NP4' chunkType='head:NP4'>
14	ne	PSP	<fs af='ne,psp,,,,,,' posn='140' drel='lwg__psp:logoM' chunkType='child:NP4' name='ne2'>
15	goXarA	NNP	<fs af='goXarA,n,m,sg,3,d,0,0' posn='150' drel='nmod__adj:hAxase' chunkType='child:NP5' name='goXarA'>
16	trena	NNC	<fs af='trena,n,f,sg,3,d,0,0' posn='160' drel='pof__cn:hAxase' chunkType='child:NP5' name='trena'>
17	hAxase	NN	<fs af='hAxasA,n,m,sg,3,o,0_kA,0' drel='r6:iswemAla' posn='170' vpos='vib_vib_4' name='hAxase' chunkId='NP5' chunkType='head:NP5'>
18	kA	PSP	<fs af='kA,psp,m,sg,,d,,' posn='180' drel='lwg__psp:hAxase' chunkType='child:NP5' name='kA'>
19	iswemAla	NN	<fs af='iswemAla,n,m,sg,3,d,0,0' drel='pof:kiyA' posn='190' name='iswemAla' chunkId='NP6' chunkType='head:NP6'>
20	sAMpraxAyika	JJ	<fs af='sAMpraxAyika,adj,any,any,,d,,' posn='200' drel='nmod__adj:vEmanasya' chunkType='child:NP7' name='sAMpraxAyika'>
21	vEmanasya	NN	<fs af='vEmanasya,n,m,sg,3,d,0,0' drel='k2:PElAne' posn='210' name='vEmanasya' chunkId='NP7' chunkType='head:NP7'>
22	PElAne	VM	<fs af='PElA,v,any,any,any,o,nA,nA' drel='ccof:Ora' posn='220' name='PElAne' chunkId='VGNN' chunkType='head:VGNN'>
23	Ora	CC	<fs af='Ora,avy,,,,,,' drel='rt:kiyA' posn='230' name='Ora' chunkId='CCP3' chunkType='head:CCP3'>
24	xaMge	NN	<fs af='xaMgA,n,m,pl,3,d,0,0' drel='k2:BadZakAne' posn='240' name='xaMge' chunkId='NP8' chunkType='head:NP8'>
25	BadZakAne	VM	<fs af='BadZakA,v,any,any,any,o,nA_ke_lie,nA' drel='ccof:Ora' posn='250' vpos='tam_2_3' name='BadZakAne' chunkId='VGNN2' chunkType='head:VGNN2'>
26	ke	PSP	<fs af='ke,psp,,,,,,' posn='260' drel='lwg__psp:BadZakAne' chunkType='child:VGNN2' name='ke'>
27	lie	PSP	<fs af='lie,psp,,,,,,' posn='270' drel='lwg__psp:BadZakAne' chunkType='child:VGNN2' name='lie'>
28	kiyA	VM	<fs af='kara,v,m,sg,any,,yA,yA' drel='ccof:ki2' stype='declarative' posn='280' voicetype='active' name='kiyA' chunkId='VGF3' chunkType='head:VGF3'>
29	.	SYM	<fs af='.,punc,,,,,,' drel='rsym:kahA' posn='290' name='.' chunkId='BLK' chunkType='head:BLK'>
</Sentence>


<Sentence id="3">
1	BAkapA	NNP	<fs af='BAkapA,n,f,sg,3,o,0_kA,0' drel='r6:saciva' posn='10' vpos='vib_2' name='BAkapA' chunkId='NP' chunkType='head:NP'>
2	ke	PSP	<fs af='kA,psp,m,sg,,o,,' posn='20' drel='lwg__psp:BAkapA' chunkType='child:NP' name='ke'>
3	saciva	NN	<fs af='saciva,n,m,sg,3,o,0,0' drel='nmod:rAjA' posn='30' name='saciva' chunkId='NP2' chunkType='head:NP2'>
4	dI.	NNPC	<fs af='dI.,n,m,sg,3,d,0,0' posn='40' drel='pof__cn:rAjA' chunkType='child:NP3' name='dI.'>
5	rAjA	NNP	<fs af='rAjA,n,m,sg,3,o,0_ne,0' drel='k1:kahA' posn='50' vpos='vib_3' name='rAjA' chunkId='NP3' chunkType='head:NP3'>
6	ne	PSP	<fs af='ne,psp,,,,,,' posn='60' drel='lwg__psp:rAjA' chunkType='child:NP3' name='ne'>
7	kahA	VM	<fs af='kaha,v,m,sg,any,,yA,yA' stype='declarative' posn='70' voicetype='active' name='kahA' chunkId='VGF' chunkType='head:VGF'>
8	ki	CC	<fs af='ki,avy,,,,,,' drel='k2:kahA' posn='80' name='ki' chunkId='CCP' chunkType='head:CCP'>
9	jAMca	NNC	<fs af='jAMca,n,f,sg,3,d,0,0' posn='90' drel='pof__cn:samiwi' chunkType='child:NP4' name='jAMca'>
10	samiwi	NN	<fs af='samiwi,n,f,sg,3,o,0_ne,0' drel='k1:bawAyA' posn='100' vpos='vib_3' name='samiwi' chunkId='NP4' chunkType='head:NP4'>
11	ne	PSP	<fs af='ne,psp,,,,,,' posn='110' drel='lwg__psp:samiwi' chunkType='child:NP4' name='ne2'>
12	sAbaramawI	NNPC	<fs af='sAbaramawI,n,f,sg,3,d,0,0' posn='120' drel='pof__cn:eksapresa' chunkType='child:NP5' name='sAbaramawI'>
13	eksapresa	NNP	<fs af='eksapresa,n,f,sg,3,d,0,0' posn='130' drel='nmod__adj:Aga' chunkType='child:NP5' name='eksapresa'>
14	Aga	NN	<fs af='Aga,n,f,sg,3,o,0_ko,0' drel='k2:bawAyA' posn='140' vpos='vib_vib_4' name='Aga' chunkId='NP5' chunkType='head:NP5'>
15	ko	PSP	<fs af='ko,psp,,,,,,' posn='150' drel='lwg__psp:Aga' chunkType='child:NP5' name='ko'>
16	xurGatanAvaSa	RB	<fs af='xurGatanAvaSa,adv,,,,,,' drel='adv:bawAyA' posn='160' name='xurGatanAvaSa' chunkId='RBP' chunkType='head:RBP'>
17	bawAyA	VM	<fs af='bawA,v,m,sg,3,,yA_hE,yA' drel='ccof:ki' stype='declarative' posn='170' voicetype='active' vpos='tam_2' name='bawAyA' chunkId='VGF2' chunkType='head:VGF2'>
18	hE	VAUX	<fs af='hE,v,any,sg,3,,hE,hE' posn='180' drel='lwg__vaux:bawAyA' chunkType='child:VGF2' name='hE'>
19	.	SYM	<fs af='.,punc,,,,,,' drel='rsym:kahA' posn='190' name='.' chunkId='BLK' chunkType='head:BLK'>
</Sentence>


<Sentence id="4">
1	lekina	CC	<fs af='lekina,avy,,,,,,' posn='10' name='lekina' chunkId='CCP' chunkType='head:CCP'>
2	yaha	PRP	<fs af='yaha,pn,any,sg,3,d,0,0' drel='k1:ho' posn='20' name='yaha' chunkId='NP' chunkType='head:NP'>
3	pahale	QO	<fs af='pahalA,num,m,sg,,o,,' posn='30' drel='nmod__adj:xina' chunkType='child:NP2' name='pahale'>
4	xina	NN	<fs af='xina,n,m,sg,3,o,0_se,0' drel='k7t:ho' posn='40' vpos='vib_3' name='xina' chunkId='NP2' chunkType='head:NP2'>
5	se	PSP	<fs af='se,psp,,,,,,' posn='50' drel='lwg__psp:xina' chunkType='child:NP2' name='se'>
6	spaRta	JJ	<fs af='spaRta,adj,any,any,,,,' drel='k1s:ho' posn='60' name='spaRta' chunkId='JJP' chunkType='head:JJP'>
7	ho	VM	<fs af='ho,v,m,sg,any,,0_jA+yA1_WA,0' drel='ccof:lekina' stype='declarative' posn='70' voicetype='active' vpos='tam_2_3' name='ho' chunkId='VGF' chunkType='head:VGF'>
8	gayA	VAUX	<fs af='jA,v,m,sg,any,,yA1,yA1' posn='80' drel='lwg__vaux:ho' chunkType='child:VGF' name='gayA'>
9	WA	VAUX	<fs af='WA,v,m,sg,any,,WA,WA' posn='90' drel='lwg__vaux:ho' chunkType='child:VGF' name='WA'>
10	ki	CC	<fs af='ki,avy,,,,,,' drel='rs:yaha' posn='100' name='ki' chunkId='CCP2' chunkType='head:CCP2'>
11	xurGatanA	NN	<fs af='xurGatanA,n,f,sg,3,o,0_kA_vajaha_se,0' drel='rh:huI' posn='110' vpos='vib_2_3_4' name='xurGatanA' chunkId='NP3' chunkType='head:NP3'>
12	kI	PSP	<fs af='kA,psp,f,sg,,o,,' posn='120' drel='lwg__psp:xurGatanA' chunkType='child:NP3' name='kI'>
13	vajaha	PSP	<fs af='vajaha,n,f,sg,,o,,' posn='130' drel='lwg__psp:xurGatanA' chunkType='child:NP3' name='vajaha'>
14	se	PSP	<fs af='se,psp,,,,,,' posn='140' drel='lwg__psp:xurGatanA' chunkType='child:NP3' name='se2'>
15	huI	VM	<fs af='ho,v,f,sg,any,,yA,yA' drel='nmod__k1inv:mOwa' posn='150' name='huI' chunkId='VGNF' chunkType='head:VGNF'>
16	kAra	NNC	<fs af='kAra,n,f,sg,3,d,0,0' posn='160' drel='pof__cn:sevakoM' chunkType='child:NP4' name='kAra'>
17	sevakoM	NN	<fs af='sevaka,n,m,pl,3,o,0_kA,0' drel='r6:mOwa' posn='170' vpos='vib_3' name='sevakoM' chunkId='NP4' chunkType='head:NP4'>
18	kI	PSP	<fs af='kA,psp,f,sg,,o,,' posn='180' drel='lwg__psp:sevakoM' chunkType='child:NP4' name='kI2'>
19	mOwa	NN	<fs af='mOwa,n,f,sg,3,o,0_ko,0' drel='k2:BunAne' posn='190' vpos='vib_2' name='mOwa' chunkId='NP5' chunkType='head:NP5'>
20	ko	PSP	<fs af='ko,psp,,,,,,' posn='200' drel='lwg__psp:mOwa' chunkType='child:NP5' name='ko'>
21	saMGa	NNC	<fs af='saMGa,n,m,sg,3,d,0,0' posn='210' drel='pof__cn:parivAra' chunkType='child:NP6' name='saMGa'>
22	parivAra	NN	<fs af='parivAra,n,m,sg,3,d,0,0' drel='k1:BunAne' posn='220' name='parivAra' chunkId='NP6' chunkType='head:NP6'>
23	BunAne	VM	<fs af='BunA,v,any,sg,any,o,nA_kA,nA' drel='r6-k2:sAjiSa' posn='230' vpos='tam_2' name='BunAne' chunkId='VGNN' chunkType='head:VGNN'>
24	kI	PSP	<fs af='kA,psp,f,sg,,d,,' posn='240' drel='lwg__psp:BunAne' chunkType='child:VGNN' name='kI3'>
25	sAjiSa	NN	<fs af='sAjiSa,n,f,sg,3,d,0,0' drel='pof:raca' posn='250' name='sAjiSa' chunkId='NP7' chunkType='head:NP7'>
26	raca	VM	<fs af='raca,v,m,sg,3,,0_raha+yA_hE,0' drel='ccof:ki' stype='declarative' posn='260' voicetype='active' vpos='tam_2_3' name='raca' chunkId='VGF2' chunkType='head:VGF2'>
27	rahA	VAUX	<fs af='raha,v,m,sg,any,,yA,yA' posn='270' drel='lwg__vaux:raca' chunkType='child:VGF2' name='rahA'>
28	hE	VAUX	<fs af='hE,v,any,sg,3,,hE,hE' posn='280' drel='lwg__vaux:raca' chunkType='child:VGF2' name='hE'>
29	.	SYM	<fs af='.,punc,,,,,,' drel='rsym:lekina' posn='290' name='.' chunkId='BLK' chunkType='head:BLK'>
</Sentence>


<Sentence id="5">
1	isake	PRP	<fs af='yaha,pn,any,sg,3,o,0_jariye,ke' drel='rh:kiyA' posn='10' vpos='vib_2' name='isake' chunkId='NP' chunkType='head:NP'>
2	jarie	PSP	<fs af='jariye,psp,,,,,,' posn='20' drel='lwg__psp:isake' chunkType='child:NP' name='jarie'>
3	alpasaMKyakoM	NN	<fs af='alpasaMKyaka,n,m,pl,3,o,0_ke_KilAPa,0' drel='vmod:kiyA' posn='30' vpos='vib_2_3' name='alpasaMKyakoM' chunkId='NP2' chunkType='head:NP2'>
4	ke	PSP	<fs af='ke,psp,,,,,,' posn='40' drel='lwg__psp:alpasaMKyakoM' chunkType='child:NP2' name='ke'>
5	KilAPa	PSP	<fs af='KilAPa,adj,,,,,,' posn='50' drel='lwg__psp:alpasaMKyakoM' chunkType='child:NP2' name='KilAPa'>
6	GqNA	NN	<fs af='GqNA,n,f,sg,3,o,0_kA,0' drel='r6:vAwAvaraNa' posn='60' vpos='vib_2' name='GqNA' chunkId='NP3' chunkType='head:NP3'>
7	kA	PSP	<fs af='kA,psp,m,sg,,d,,' posn='70' drel='lwg__psp:GqNA' chunkType='child:NP3' name='kA'>
8	vAwAvaraNa	NN	<fs af='vAwAvaraNa,n,m,sg,3,d,0,0' drel='k2:kiyA' posn='80' name='vAwAvaraNa' chunkId='NP4' chunkType='head:NP4'>
9	wEyAra	JJ	<fs af='wEyAra,adj,any,any,,,,' drel='pof:kiyA' posn='90' name='wEyAra' chunkId='JJP' chunkType='head:JJP'>
10	kiyA	VM	<fs af='kara,v,m,sg,any,,yA_jA+yA1,yA' stype='declarative' posn='100' voicetype='passive' vpos='tam_2' name='kiyA' chunkId='VGF' chunkType='head:VGF'>
11	gayA	VAUX	<fs af='jA,v,m,sg,any,,yA1,yA1' posn='110' drel='lwg__vaux:kiyA' chunkType='child:VGF' name='gayA'>
12	.	SYM	<fs af='.,punc,,,,,,' drel='rsym:kiyA' posn='120' name='.' chunkId='BLK' chunkType='head:BLK'>
</Sentence>




</text>
</tb>
</body>
</document>
