<document id="2554863">
<head>
<title></title>			
<caption>lAlU ke KatAla ko AItI seMtara banAeMge nIwISa kumAra        pre   : patanA</caption>			
<language>Hindi </language>			
<author>			
<firstname></firstname>			
<middlename></middlename>			
<lastname></lastname>			
</author>			
<creation>			
<raw_corpus creation_date="" institute_name=""></raw_corpus>			
<annotated_corpus creation_date="07/25/2009" institute_name="IIIT-Hyderabad"></annotated_corpus>			
</creation>			
<domain_name>News Articles </domain_name>			
<distributor>LTRC, IIIT Hyderabad</distributor>			
<source>ISI, Kolkata</source>			
<publication>			
<place>New Delhi</place>			
<date>27/6/2004</date>			
<address>Connaught Place, New Delhi</address>			
<type>Newspaper</type>			
<publisher>			
<name>Amar Ujala</name>			
<url>http://www.amarujala.com</url>			
</publisher>			
</publication>			
<project_description>NSF Hindi/Urdu Dependency Treebanking Project</project_description>			
<availability>			
<format>CML/SSF</format>			
</availability>			
<byte_count>7290</byte_count>			
<word_count>274</word_count>			
<edition_number>1.0</edition_number>			
<encoding_description>			
<original_encoding>ISO 8859</original_encoding>			
<new_encoding>Unicode UTF8</new_encoding>			
</encoding_description>			
<bibliography></bibliography>			
<sentence_marker>.</sentence_marker>			
<normalization>No</normalization>			
<utility_name>cml_tags</utility_name>			

</head>
<body>
<tb number="1" segment="no" bullet="no">
<foreign language="select" writingsystem="LTR"> </foreign>			
<text>
<Sentence id="1">
1	apane	PRP	<fs af='apanA,pn,m,any,any,o,0,0' drel='r6:mahIne' posn='10' name='apane' chunkId='NP' chunkType='head:NP'>
2	eka	QC	<fs af='eka,num,any,any,,any,,' posn='20' drel='nmod__adj:mahIne' chunkType='child:NP2' name='eka'>
3	mahIne	NN	<fs af='mahInA,n,m,sg,3,o,0_kA,0' drel='r6:kAma' posn='30' vpos='vib_3' name='mahIne' chunkId='NP2' chunkType='head:NP2'>
4	ke	PSP	<fs af='kA,psp,m,sg,,o,,' posn='40' drel='lwg__psp:mahIne' chunkType='child:NP2' name='ke'>
5	kAma	NN	<fs af='kAma,n,m,sg,3,o,0_ko,0' drel='k2:bawAne' posn='50' vpos='vib_2' name='kAma' chunkId='NP3' chunkType='head:NP3'>
6	ko	PSP	<fs af='ko,psp,,,,,,' posn='60' drel='lwg__psp:kAma' chunkType='child:NP3' name='ko'>
7	'	SYM	<fs af='SINGLE_QUOTE,punc,,,,,,' ' posn='70' drel='rsym:SuruAwa' chunkType='child:NP4' name=''>
8	acCI	JJ	<fs af='acCA,adj,f,sg,,d,,' posn='80' drel='nmod__adj:SuruAwa' chunkType='child:NP4' name='acCI'>
9	SuruAwa	NN	<fs af='SuruAwa,n,f,sg,3,d,0,0' drel='k2s:bawAne' posn='90' name='SuruAwa' chunkId='NP4' chunkType='head:NP4'>
10	'	SYM	<fs af='SINGLE_QUOTE,punc,,,,,,' 2' posn='100' drel='rsym:SuruAwa' chunkType='child:NP4' name=''>
11	bawAne	VM	<fs af='bawA,v,any,sg,any,o,nA_vAlA,nA' drel='ccof:Ora' posn='110' vpos='tam_2' name='bawAne' chunkId='VGNN' chunkType='head:VGNN'>
12	vAle	PSP	<fs af='vAlA,psp,m,sg,,o,,' posn='120' drel='lwg__psp:bawAne' chunkType='child:VGNN' name='vAle'>
13	Ora	CC	<fs af='Ora,avy,,,,,,' drel='nmod:kumAra' posn='130' name='Ora' chunkId='CCP' chunkType='head:CCP'>
14	bihAra	NNP	<fs af='bihAra,n,m,sg,3,o,0_meM,0' drel='k7p:xene' posn='140' vpos='vib_2' name='bihAra' chunkId='NP5' chunkType='head:NP5'>
15	meM	PSP	<fs af='meM,psp,,,,,,' posn='150' drel='lwg__psp:bihAra' chunkType='child:NP5' name='meM'>
16	suSAsana	NN	<fs af='suSAsana,n,m,sg,3,o,0_kA,0' drel='r6-k2:ASvAsana' posn='160' vpos='vib_2' name='suSAsana' chunkId='NP6' chunkType='head:NP6'>
17	kA	PSP	<fs af='kA,psp,m,sg,,d,,' posn='170' drel='lwg__psp:suSAsana' chunkType='child:NP6' name='kA'>
18	ASvAsana	NN	<fs af='ASvAsana,n,m,sg,3,d,0,0' drel='pof:xene' posn='180' name='ASvAsana' chunkId='NP7' chunkType='head:NP7'>
19	xene	VM	<fs af='xe,v,any,sg,any,o,nA_vAlA,nA' drel='ccof:Ora' posn='190' vpos='tam_2' name='xene' chunkId='VGNN2' chunkType='head:VGNN2'>
20	vAle	PSP	<fs af='vAlA,psp,m,sg,,o,,' posn='200' drel='lwg__psp:xene' chunkType='child:VGNN2' name='vAle2'>
21	muKyamaMwrI	NNP	<fs af='muKyamaMwrI,n,m,sg,3,d,0,0' posn='210' drel='nmod__adj:kumAra' chunkType='child:NP8' name='muKyamaMwrI'>
22	niwISa	NNPC	<fs af='niwISa,n,m,sg,3,d,0,0' posn='220' drel='pof__cn:kumAra' chunkType='child:NP8' name='niwISa'>
23	kumAra	NNP	<fs af='kumAra,n,m,sg,3,o,0,0' drel='ccof:Ora2' posn='230' name='kumAra' chunkId='NP8' chunkType='head:NP8'>
24	Ora	CC	<fs af='Ora,avy,,,,,,' drel='k1:kiyA' posn='240' name='Ora2' chunkId='CCP2' chunkType='head:CCP2'>
25	rAjya	NNPC	<fs af='rAjya,n,m,sg,3,d,0,0' posn='250' drel='pof__cn:viBAga' chunkType='child:NP9' name='rAjya'>
26	Bavana	NNPC	<fs af='Bavana,n,m,sg,3,d,0,0' posn='260' drel='pof__cn:viBAga' chunkType='child:NP9' name='Bavana'>
27	nirmANa	NNPC	<fs af='nirmANa,n,m,sg,3,d,0,0' posn='270' drel='pof__cn:viBAga' chunkType='child:NP9' name='nirmANa'>
28	viBAga	NNP	<fs af='viBAga,n,m,sg,3,o,0_ne,0' drel='ccof:Ora2' posn='280' vpos='vib_5' name='viBAga' chunkId='NP9' chunkType='head:NP9'>
29	ne	PSP	<fs af='ne,psp,,,,,,' posn='290' drel='lwg__psp:viBAga' chunkType='child:NP9' name='ne'>
30	eka	NNPC	<fs af='eka,n,m,sg,3,d,0,0' posn='310' drel='pof__cn:mArga' chunkType='child:NP10' name='eka2'>
31	aNe	NNPC	<fs af='aNe,n,m,sg,3,d,0,0' posn='310' drel='pof__cn:mArga' chunkType='child:NP10' name='aNe'>
32	mArga	NNP	<fs af='mArga,n,m,sg,3,o,0_meM,0' drel='k7p:banAne' posn='320' vpos='vib_4' name='mArga' chunkId='NP10' chunkType='head:NP10'>
33	meM	PSP	<fs af='meM,psp,,,,,,' posn='330' drel='lwg__psp:mArga' chunkType='child:NP10' name='meM2'>
34	eka	QC	<fs af='eka,num,any,any,,any,,' posn='340' drel='nmod__adj:seMtara' chunkType='child:NP11' name='eka3'>
35	AXunika	JJ	<fs af='AXunika,adj,any,any,,d,,' posn='350' drel='nmod__adj:seMtara' chunkType='child:NP11' name='AXunika'>
36	AItI	NNC	<fs af='AItI,n,m,sg,3,d,0,0' posn='360' drel='pof__cn:seMtara' chunkType='child:NP11' name='AItI'>
37	seMtara	NN	<fs af='seMtara,n,m,sg,3,d,0,0' drel='k2:banAne' posn='370' name='seMtara' chunkId='NP11' chunkType='head:NP11'>
38	banAne	VM	<fs af='banA,v,any,sg,any,o,nA_kA,nA' drel='r6-k2:nirNaya' posn='380' vpos='tam_2' name='banAne' chunkId='VGNN3' chunkType='head:VGNN3'>
39	kA	PSP	<fs af='kA,psp,m,sg,,d,,' posn='390' drel='lwg__psp:banAne' chunkType='child:VGNN3' name='kA2'>
40	nirNaya	NN	<fs af='nirNaya,n,m,sg,3,d,0,0' drel='pof:kiyA' posn='400' name='nirNaya' chunkId='NP12' chunkType='head:NP12'>
41	kiyA	VM	<fs af='kara,v,m,sg,3,,yA_hE,yA' stype='declarative' posn='410' voicetype='active' vpos='tam_2' name='kiyA' chunkId='VGF' chunkType='head:VGF'>
42	hE	VAUX	<fs af='hE,v,any,sg,3,,hE,hE' posn='420' drel='lwg__vaux:kiyA' chunkType='child:VGF' name='hE'>
43	.	SYM	<fs af='.,punc,,,,,,' drel='rsym:kiyA' posn='430' name='.' chunkId='BLK' chunkType='head:BLK'>
</Sentence>


<Sentence id="2">
1	isa	DEM	<fs af='yaha,pn,any,sg,3,o,,' posn='10' drel='nmod__adj:seMtara' chunkType='child:NP' name='isa'>
2	seMtara	NN	<fs af='seMtara,n,m,sg,3,o,0_meM,0' drel='k7p:hogI' posn='20' vpos='vib_3' name='seMtara' chunkId='NP' chunkType='head:NP'>
3	meM	PSP	<fs af='meM,psp,,,,,,' posn='30' drel='lwg__psp:seMtara' chunkType='child:NP' name='meM'>
4	kaMpyUtara	NN	<fs af='kaMpyUtara,n,m,sg,3,o,0,0' drel='ccof:Ora' posn='40' name='kaMpyUtara' chunkId='NP2' chunkType='head:NP2'>
5	,	SYM	<fs af='COMMA,punc,,,,,,' posn='50' drel='rsym:kaMpyUtara' chunkType='child:NP2' name=','>
6	iMtaraneta	NN	<fs af='iMtaraneta,n,m,sg,3,o,0,0' drel='ccof:Ora' posn='60' name='iMtaraneta' chunkId='NP3' chunkType='head:NP3'>
7	Ora	CC	<fs af='Ora,avy,,,,,,' drel='r6-k1:suviXA' posn='70' name='Ora' chunkId='CCP' chunkType='head:CCP'>
8	vIdiyo	NNC	<fs af='vIdiyo,n,m,sg,3,d,0,0' posn='80' drel='pof__cn:kAMPreMsiMga' chunkType='child:NP4' name='vIdiyo'>
9	kAMPreMsiMga	NN	<fs af='kAMPreMsiMga,n,f,sg,3,o,0_kA,0' drel='ccof:Ora' posn='90' vpos='vib_3_RP' name='kAMPreMsiMga' chunkId='NP4' chunkType='head:NP4'>
10	kI	PSP	<fs af='kA,psp,f,sg,,d,,' posn='100' drel='lwg__psp:kAMPreMsiMga' chunkType='child:NP4' name='kI'>
11	BI	RP	<fs af='BI,avy,,,,,,' posn='110' drel='lwg__rp:kAMPreMsiMga' chunkType='child:NP4' name='BI'>
12	suviXA	NN	<fs af='suviXA,n,f,sg,3,d,0,0' drel='pof:hogI' posn='120' name='suviXA' chunkId='NP5' chunkType='head:NP5'>
13	hogI	VM	<fs af='ho,v,f,sg,3,,gA,gA' stype='declarative' posn='130' voicetype='active' name='hogI' chunkId='VGF' chunkType='head:VGF'>
14	.	SYM	<fs af='.,punc,,,,,,' drel='rsym:hogI' posn='140' name='.' chunkId='BLK' chunkType='head:BLK'>
</Sentence>


<Sentence id="3">
1	sAWa	NST	<fs af='sAWa,nst,m,sg,3,d,,' drel='sent-adv:apanAyA' posn='10' name='sAWa' chunkId='NP' chunkType='head:NP'>
2	hI	RP	<fs af='hI,avy,,,,,,' posn='20' drel='lwg__rp:sAWa' chunkType='child:NP' name='hI'>
3	muKyamaMwrI	NNP	<fs af='muKyamaMwrI,n,m,sg,3,o,0_ne,0' drel='k1:apanAyA' posn='30' vpos='vib_2' name='muKyamaMwrI' chunkId='NP2' chunkType='head:NP2'>
4	ne	PSP	<fs af='ne,psp,,,,,,' posn='40' drel='lwg__psp:muKyamaMwrI' chunkType='child:NP2' name='ne'>
5	jamInI	JJ	<fs af='jamInI,adj,any,any,,o,,' posn='50' drel='nmod__adj:swara' chunkType='child:NP3' name='jamInI'>
6	swara	NN	<fs af='swara,n,m,sg,3,o,0_kA,0' drel='r6:kAryakarwAoM' posn='60' vpos='vib_3' name='swara' chunkId='NP3' chunkType='head:NP3'>
7	ke	PSP	<fs af='kA,psp,m,pl,,o,,' posn='70' drel='lwg__psp:swara' chunkType='child:NP3' name='ke'>
8	jaxa	NNPC	<fs af='jaxa,n,m,sg,3,d,0,0' posn='80' drel='pof__cn:yU' chunkType='child:NP4' name='jaxa'>
9	(	SYM	<fs af='(,punc,,,,,,' posn='90' drel='rsym:kAryakarwAoM' chunkType='child:NP4' name='('>
10	yU	NNP	<fs af='yU,n,m,sg,3,o,0,0' posn='100' drel='nmod__adj:kAryakarwAoM' chunkType='child:NP4' name='yU'>
11	)	SYM	<fs af='),punc,,,,,,' posn='110' drel='rsym:kAryakarwAoM' chunkType='child:NP4' name=')'>
12	kAryakarwAoM	NN	<fs af='kAryakarwA,n,m,pl,3,o,0,0' drel='ccof:Ora' posn='120' name='kAryakarwAoM' chunkId='NP4' chunkType='head:NP4'>
13	Ora	CC	<fs af='Ora,avy,,,,,,' drel='r6:samasyAeM' posn='130' name='Ora' chunkId='CCP' chunkType='head:CCP'>
14	logoM	NN	<fs af='loga,n,m,pl,3,o,0_kA,0' drel='ccof:Ora' posn='140' vpos='vib_2' name='logoM' chunkId='NP5' chunkType='head:NP5'>
15	kI	PSP	<fs af='kA,psp,f,pl,,d,,' posn='150' drel='lwg__psp:logoM' chunkType='child:NP5' name='kI'>
16	samasyAeM	NN	<fs af='samasyA,n,f,pl,3,d,0,0' drel='k2:jAnane' posn='160' name='samasyAeM' chunkId='NP6' chunkType='head:NP6'>
17	jAnane	VM	<fs af='jAna,v,any,any,any,o,nA_ke_lie,nA' drel='rt:apanAyA' posn='170' vpos='tam_2_3' name='jAnane' chunkId='VGNN' chunkType='head:VGNN'>
18	ke	PSP	<fs af='ke,psp,,,,,,' posn='180' drel='lwg__psp:jAnane' chunkType='child:VGNN' name='ke2'>
19	lie	PSP	<fs af='lie,psp,,,,,,' posn='190' drel='lwg__psp:jAnane' chunkType='child:VGNN' name='lie'>
20	eka	QC	<fs af='eka,num,any,any,,any,,' posn='200' drel='nmod__adj:warIkA' chunkType='child:NP7' name='eka'>
21	nAyAba	JJ	<fs af='nAyAba,adj,any,any,,d,,' posn='210' drel='nmod__adj:warIkA' chunkType='child:NP7' name='nAyAba'>
22	warIkA	NN	<fs af='warIkA,n,m,sg,3,d,0,0' drel='k2:apanAyA' posn='220' name='warIkA' chunkId='NP7' chunkType='head:NP7'>
23	apanAyA	VM	<fs af='apanA,v,m,sg,3,,yA_hE,yA' stype='declarative' posn='230' voicetype='active' vpos='tam_2' name='apanAyA' chunkId='VGF' chunkType='head:VGF'>
24	hE	VAUX	<fs af='hE,v,any,sg,3,,hE,hE' posn='240' drel='lwg__vaux:apanAyA' chunkType='child:VGF' name='hE'>
25	.	SYM	<fs af='.,punc,,,,,,' drel='rsym:apanAyA' posn='250' name='.' chunkId='BLK' chunkType='head:BLK'>
</Sentence>


<Sentence id="4">
1	unhoMne	PRP	<fs af='vaha,pn,any,sg,3h,o,ne,ne' drel='k1:kI' posn='10' name='unhoMne' chunkId='NP' chunkType='head:NP'>
2	GoRaNA	NN	<fs af='GoRaNA,n,f,sg,3,d,0,0' drel='pof:kI' posn='20' name='GoRaNA' chunkId='NP2' chunkType='head:NP2'>
3	kI	VM	<fs af='kara,v,f,sg,any,,yA,yA' stype='declarative' posn='30' voicetype='active' name='kI' chunkId='VGF' chunkType='head:VGF'>
4	ki	CC	<fs af='ki,avy,,,,,,' drel='k2:kI' posn='40' name='ki' chunkId='CCP' chunkType='head:CCP'>
5	suSAsana	NN	<fs af='suSAsana,n,m,sg,3,d,0,0' drel='k2:karane' posn='50' name='suSAsana' chunkId='NP3' chunkType='head:NP3'>
6	suniSciwa	JJ	<fs af='suniSciwa,adj,any,any,,,,' drel='pof:karane' posn='60' name='suniSciwa' chunkId='JJP' chunkType='head:JJP'>
7	karane	VM	<fs af='kara,v,any,any,any,o,nA_ke_lie,nA' drel='rt:mileMge' posn='70' vpos='tam_2_3' name='karane' chunkId='VGNN' chunkType='head:VGNN'>
8	ke	PSP	<fs af='ke,psp,,,,,,' posn='80' drel='lwg__psp:karane' chunkType='child:VGNN' name='ke'>
9	lie	PSP	<fs af='lie,psp,,,,,,' posn='90' drel='lwg__psp:karane' chunkType='child:VGNN' name='lie'>
10	vaha	PRP	<fs af='vaha,pn,any,sg,3,d,0,0' drel='k1:mileMge' posn='100' name='vaha' chunkId='NP4' chunkType='head:NP4'>
11	prawyeka	QF	<fs af='prawyeka,avy,,,,,,' posn='110' drel='nmod__adj:maMgalavAra' chunkType='child:NP5' name='prawyeka'>
12	maMgalavAra	NNP	<fs af='maMgalavAra,n,m,sg,3,o,0_ko,0' drel='k7t:mileMge' posn='120' vpos='vib_3' name='maMgalavAra' chunkId='NP5' chunkType='head:NP5'>
13	ko	PSP	<fs af='ko,psp,,,,,,' posn='130' drel='lwg__psp:maMgalavAra' chunkType='child:NP5' name='ko'>
14	wIna	QC	<fs af='wIna,num,any,any,,any,,' posn='140' drel='nmod__adj:GaMte' chunkType='child:NP6' name='wIna'>
15	GaMte	NN	<fs af='GaMtA,n,m,sg,3,o,0_ke_lie,0' drel='rt:mileMge' posn='150' vpos='vib_3_4' name='GaMte' chunkId='NP6' chunkType='head:NP6'>
16	ke	PSP	<fs af='ke,psp,,,,,,' posn='160' drel='lwg__psp:GaMte' chunkType='child:NP6' name='ke2'>
17	lie	PSP	<fs af='lie,psp,,,,,,' posn='170' drel='lwg__psp:GaMte' chunkType='child:NP6' name='lie2'>
18	praxeSa	NNC	<fs af='praxeSa,n,m,sg,3,d,0,0' posn='180' drel='pof__cn:muKyAlaya' chunkType='child:NP7' name='praxeSa'>
19	pArtI	NNC	<fs af='pArtI,n,f,sg,3,d,0,0' posn='190' drel='pof__cn:muKyAlaya' chunkType='child:NP7' name='pArtI'>
20	muKyAlaya	NN	<fs af='muKyAlaya,n,m,sg,3,o,0_meM,0' drel='k7p:mileMge' posn='200' vpos='vib_4' name='muKyAlaya' chunkId='NP7' chunkType='head:NP7'>
21	meM	PSP	<fs af='meM,psp,,,,,,' posn='210' drel='lwg__psp:muKyAlaya' chunkType='child:NP7' name='meM'>
22	kAryakarwAoM	NN	<fs af='kAryakarwA,n,m,pl,3,o,0_se,0' drel='k2:mileMge' posn='220' vpos='vib_2' name='kAryakarwAoM' chunkId='NP8' chunkType='head:NP8'>
23	se	PSP	<fs af='se,psp,,,,,,' posn='230' drel='lwg__psp:kAryakarwAoM' chunkType='child:NP8' name='se'>
24	mileMge	VM	<fs af='mila,v,m,sg,3h,,gA,gA' drel='ccof:ki' stype='declarative' posn='240' voicetype='active' name='mileMge' chunkId='VGF2' chunkType='head:VGF2'>
25	.	SYM	<fs af='.,punc,,,,,,' drel='rsym:kI' posn='250' name='.' chunkId='BLK' chunkType='head:BLK'>
</Sentence>


<Sentence id="5">
1	Bavana	NNPC	<fs af='Bavana,n,m,sg,3,d,0,0' posn='10' drel='pof__cn:maMwrI' chunkType='child:NP' name='Bavana'>
2	nirmANa	NNPC	<fs af='nirmANa,n,m,sg,3,d,0,0' posn='20' drel='pof__cn:maMwrI' chunkType='child:NP' name='nirmANa'>
3	maMwrI	NNP	<fs af='maMwrI,n,m,sg,3,d,0,0' posn='30' drel='nmod__adj:husEna' chunkType='child:NP' name='maMwrI'>
4	monAjira	NNPC	<fs af='monAjira,n,m,sg,3,d,0,0' posn='40' drel='pof__cn:husEna' chunkType='child:NP' name='monAjira'>
5	husEna	NNP	<fs af='husEna,n,m,sg,3,o,0_ne,0' drel='k1:kahA' posn='50' vpos='vib_vib_6' name='husEna' chunkId='NP' chunkType='head:NP'>
6	ne	PSP	<fs af='ne,psp,,,,,,' posn='60' drel='lwg__psp:husEna' chunkType='child:NP' name='ne'>
7	maMgalavAra	NNP	<fs af='maMgalavAra,n,m,sg,3,o,0_ko,0' drel='k7t:kahA' posn='70' vpos='vib_2' name='maMgalavAra' chunkId='NP2' chunkType='head:NP2'>
8	ko	PSP	<fs af='ko,psp,,,,,,' posn='80' drel='lwg__psp:maMgalavAra' chunkType='child:NP2' name='ko'>
9	kahA	VM	<fs af='kaha,v,m,sg,any,,yA,yA' stype='declarative' posn='90' voicetype='active' name='kahA' chunkId='VGF' chunkType='head:VGF'>
10	ki	CC	<fs af='ki,avy,,,,,,' drel='k2:kahA' posn='100' name='ki' chunkId='CCP' chunkType='head:CCP'>
11	'	SYM	<fs af='SINGLE_QUOTE,punc,,,,,,' ' posn='110' drel='rsym:muKyamaMwrI' chunkType='child:NP3' name=''>
12	muKyamaMwrI	NNP	<fs af='muKyamaMwrI,n,m,sg,3,o,0_kA,0' drel='r6:pasaMxa' posn='120' vpos='vib_3' name='muKyamaMwrI' chunkId='NP3' chunkType='head:NP3'>
13	kI	PSP	<fs af='kA,psp,f,sg,,o,,' posn='130' drel='lwg__psp:muKyamaMwrI' chunkType='child:NP3' name='kI'>
14	pasaMxa	NN	<fs af='pasaMxa,n,f,sg,3,o,0_ko,0' drel='k2:raKawe' posn='140' vpos='vib_2' name='pasaMxa' chunkId='NP4' chunkType='head:NP4'>
15	ko	PSP	<fs af='ko,psp,,,,,,' posn='150' drel='lwg__psp:pasaMxa' chunkType='child:NP4' name='ko2'>
16	XyAna	NN	<fs af='XyAna,n,m,sg,3,o,0_meM,0' drel='k7:raKawe' posn='160' vpos='vib_2' name='XyAna' chunkId='NP5' chunkType='head:NP5'>
17	meM	PSP	<fs af='meM,psp,,,,,,' posn='170' drel='lwg__psp:XyAna' chunkType='child:NP5' name='meM'>
18	raKawe	VM	<fs af='raKa,v,m,sg,any,,wA_ho+yA,wA' drel='vmod:banAegA' posn='180' vpos='tam_2' name='raKawe' chunkId='VGNF' chunkType='head:VGNF'>
19	hue	VAUX	<fs af='ho,v,m,sg,any,,yA,yA' posn='190' drel='lwg__vaux:raKawe' chunkType='child:VGNF' name='hue'>
20	viBAga	NN	<fs af='viBAga,n,m,sg,3,d,0,0' drel='k1:banAegA' posn='200' name='viBAga' chunkId='NP6' chunkType='head:NP6'>
21	TIka	RP	<fs af='TIka,avy,,,,,,' posn='210' drel='lwg__rp:sWAna' chunkType='child:NP7' name='TIka'>
22	usI	DEM	<fs af='vaha,pn,any,sg,3,o,,' posn='220' drel='nmod__adj:sWAna' chunkType='child:NP7' name='usI'>
23	sWAna	NN	<fs af='sWAna,n,m,sg,3,o,0_para,0' drel='k7:banAegA' posn='230' vpos='vib_4' name='sWAna' chunkId='NP7' chunkType='head:NP7'>
24	para	PSP	<fs af='para,psp,,,,,,' posn='240' drel='lwg__psp:sWAna' chunkType='child:NP7' name='para'>
25	eka	QC	<fs af='eka,num,any,any,,any,,' posn='250' drel='nmod__adj:seMtara' chunkType='child:NP8' name='eka'>
26	AItI	NNC	<fs af='AItI,n,m,sg,3,d,0,0' posn='260' drel='pof__cn:seMtara' chunkType='child:NP8' name='AItI'>
27	seMtara	NN	<fs af='seMtara,n,m,sg,3,d,0,0' drel='k2:banAegA' posn='270' name='seMtara' chunkId='NP8' chunkType='head:NP8'>
28	banAegA	VM	<fs af='banA,v,m,sg,3,,gA,gA' drel='ccof:ki' stype='declarative' posn='280' voicetype='active' name='banAegA' chunkId='VGF2' chunkType='head:VGF2'>
29	jahAM	PRP	<fs af='jahAz,pn,,,,d,,' drel='k7p:hE' posn='290' coref=':NP7' name='jahAM' chunkId='NP9' chunkType='head:NP9'>
30	PilahAla	RB	<fs af='PilahAla,adv,,,,,,' drel='adv:hE' posn='300' name='PilahAla' chunkId='RBP' chunkType='head:RBP'>
31	lAlU	NNP	<fs af='lAlU,n,m,sg,3,d,0,0' posn='310' drel='nmod__adj:rAbadZI' chunkType='child:NP10' name='lAlU'>
32	-	SYM	<fs af='-,punc,,,,,,' posn='320' drel='rsym:rAbadZI' chunkType='child:NP10' name='-'>
33	rAbadZI	NNP	<fs af='rAbadZI,n,f,sg,3,o,0_kA,0' drel='r6:KatAla' posn='330' vpos='vib_vib_4' name='rAbadZI' chunkId='NP10' chunkType='head:NP10'>
34	kA	PSP	<fs af='kA,psp,m,sg,,d,,' posn='340' drel='lwg__psp:rAbadZI' chunkType='child:NP10' name='kA'>
35	KatAla	NN	<fs af='KatAla,n,m,sg,3,d,0,0' drel='k1:hE' posn='350' name='KatAla' chunkId='NP11' chunkType='head:NP11'>
36	hE	VM	<fs af='hE,v,any,sg,3,,hE,hE' drel='nmod__relc:sWAna' stype='declarative' posn='360' voicetype='active' name='hE' chunkId='VGF3' chunkType='head:VGF3'>
37	.	SYM	<fs af='.,punc,,,,,,' drel='rsym:kahA' posn='370' name='.' chunkId='BLK' chunkType='head:BLK'>
</Sentence>


<Sentence id="6">
1	isa	DEM	<fs af='yaha,pn,any,sg,3,o,,' posn='10' drel='nmod__adj:KatAla' chunkType='child:NP' name='isa'>
2	KatAla	NN	<fs af='KatAla,n,m,sg,3,o,0_meM,0' drel='k7:hEM' posn='20' vpos='vib_3' name='KatAla' chunkId='NP' chunkType='head:NP'>
3	meM	PSP	<fs af='meM,psp,,,,,,' posn='30' drel='lwg__psp:KatAla' chunkType='child:NP' name='meM'>
4	lAlU	NNP	<fs af='lAlU,n,m,sg,3,o,0_kA,0' drel='r6:paSu' posn='40' vpos='vib_2' name='lAlU' chunkId='NP2' chunkType='head:NP2'>
5	ke	PSP	<fs af='kA,psp,m,pl,,d,,' posn='50' drel='lwg__psp:lAlU' chunkType='child:NP2' name='ke'>
6	pAlawU	JJ	<fs af='pAlawU,adj,any,any,,d,,' posn='60' drel='nmod__adj:paSu' chunkType='child:NP3' name='pAlawU'>
7	paSu	NN	<fs af='paSu,n,m,pl,3,d,0,0' drel='k1:hEM' posn='70' name='paSu' chunkId='NP3' chunkType='head:NP3'>
8	gAya	NN	<fs af='gAya,n,f,pl,3,d,0,0' drel='ccof:Ora' posn='80' name='gAya' chunkId='NP4' chunkType='head:NP4'>
9	,	SYM	<fs af='COMMA,punc,,,,,,' posn='90' drel='rsym:gAya' chunkType='child:NP4' name=','>
10	BEMsa	NN	<fs af='BEMsa,n,f,pl,3,d,0,0' drel='ccof:Ora' posn='100' name='BEMsa' chunkId='NP5' chunkType='head:NP5'>
11	,	SYM	<fs af='COMMA,punc,,,,,,' posn='110' drel='rsym:BEMsa' chunkType='child:NP5' name=',2'>
12	GodZe	NN	<fs af='GodZA,n,m,pl,3,d,0,0' drel='ccof:Ora' posn='120' name='GodZe' chunkId='NP6' chunkType='head:NP6'>
13	Ora	CC	<fs af='Ora,avy,,,,,,' drel='rs:paSu' posn='130' name='Ora' chunkId='CCP' chunkType='head:CCP'>
14	billiyAM	NN	<fs af='billI,n,f,pl,3,d,0,0' drel='ccof:Ora' posn='140' name='billiyAM' chunkId='NP7' chunkType='head:NP7'>
15	BI	RP	<fs af='BI,avy,,,,,,' posn='150' drel='lwg__rp:billiyAM' chunkType='child:NP7' name='BI'>
16	hEM	VM	<fs af='hE,v,any,pl,3,,hE,hE' stype='declarative' posn='160' voicetype='active' name='hEM' chunkId='VGF' chunkType='head:VGF'>
17	.	SYM	<fs af='.,punc,,,,,,' drel='rsym:hEM' posn='170' name='.' chunkId='BLK' chunkType='head:BLK'>
18	'	SYM	<fs af='SINGLE_QUOTE,punc,,,,,,' ' posn='180' drel='rsym:.' chunkType='child:BLK' name=''>
</Sentence>


<Sentence id="7">
1	maMwrI	NN	<fs af='maMwrI,n,m,sg,3,o,0_ne,0' drel='k1:kahA' posn='10' vpos='vib_2' name='maMwrI' chunkId='NP' chunkType='head:NP'>
2	ne	PSP	<fs af='ne,psp,,,,,,' posn='20' drel='lwg__psp:maMwrI' chunkType='child:NP' name='ne'>
3	Age	NST	<fs af='Age,nst,m,sg,3,d,,' drel='vmod:kahA' posn='30' name='Age' chunkId='NP2' chunkType='head:NP2'>
4	kahA	VM	<fs af='kaha,v,m,sg,any,,yA,yA' stype='declarative' posn='40' voicetype='active' name='kahA' chunkId='VGF' chunkType='head:VGF'>
5	ki	CC	<fs af='ki,avy,,,,,,' drel='k2:kahA' posn='50' name='ki' chunkId='CCP' chunkType='head:CCP'>
6	'	SYM	<fs af='SINGLE_QUOTE,punc,,,,,,' ' posn='60' drel='rsym:muKyamaMwrI' chunkType='child:NP3' name=''>
7	muKyamaMwrI	NNP	<fs af='muKyamaMwrI,n,m,sg,3,o,0_kA,0' drel='r6:JukAva' posn='70' vpos='vib_3' name='muKyamaMwrI' chunkId='NP3' chunkType='head:NP3'>
8	kA	PSP	<fs af='kA,psp,m,sg,,d,,' posn='80' drel='lwg__psp:muKyamaMwrI' chunkType='child:NP3' name='kA'>
9	JukAva	NN	<fs af='JukAva,n,m,sg,3,d,0,0' drel='k1:hE' posn='90' name='JukAva' chunkId='NP4' chunkType='head:NP4'>
10	vEjFAnika	JJ	<fs af='vEjFAnika,adj,any,any,,o,,' posn='100' drel='nmod__adj:gawiviXiyoM' chunkType='child:NP5' name='vEjFAnika'>
11	gawiviXiyoM	NN	<fs af='gawiviXi,n,f,pl,3,o,0_kA_ora,0' drel='rd:hE' posn='110' vpos='vib_3_4' name='gawiviXiyoM' chunkId='NP5' chunkType='head:NP5'>
12	kI	PSP	<fs af='kA,psp,f,sg,,d,,' posn='120' drel='lwg__psp:gawiviXiyoM' chunkType='child:NP5' name='kI'>
13	ora	NST	<fs af='ora,nst,f,sg,3,d,,' posn='130' drel='lwg__psp:gawiviXiyoM' chunkType='child:NP5' name='ora'>
14	aXika	QF	<fs af='aXika,avy,,,,,,' drel='k1s:hE' posn='140' name='aXika' chunkId='NP6' chunkType='head:NP6'>
15	hE	VM	<fs af='hE,v,any,sg,3,,hE,hE' drel='ccof:Ora' stype='declarative' posn='150' voicetype='active' name='hE' chunkId='VGF2' chunkType='head:VGF2'>
16	Ora	CC	<fs af='Ora,avy,,,,,,' drel='ccof:ki' posn='160' name='Ora' chunkId='CCP2' chunkType='head:CCP2'>
17	naI	JJ	<fs af='nayA,adj,f,sg,,o,,' posn='170' drel='nmod__adj:tekanolOYjI' chunkType='child:NP7' name='naI'>
18	tekanolOYjI	NN	<fs af='tekanolOYjI,n,f,sg,3,o,0_meM,0' drel='k7:hE2' posn='180' vpos='vib_3' name='tekanolOYjI' chunkId='NP7' chunkType='head:NP7'>
19	meM	PSP	<fs af='meM,psp,,,,,,' posn='190' drel='lwg__psp:tekanolOYjI' chunkType='child:NP7' name='meM'>
20	unakI	PRP	<fs af='vaha,pn,f,sg,3h,o,kA,kA' drel='r6:ruci' posn='200' name='unakI' chunkId='NP8' chunkType='head:NP8'>
21	viSeRa	JJ	<fs af='viSeRa,adj,any,any,,d,,' posn='210' drel='nmod__adj:ruci' chunkType='child:NP9' name='viSeRa'>
22	ruci	NN	<fs af='ruci,n,f,sg,3,d,0,0' drel='k1:hE2' posn='220' name='ruci' chunkId='NP9' chunkType='head:NP9'>
23	hE	VM	<fs af='hE,v,any,sg,3,,hE,hE' drel='ccof:Ora' stype='declarative' posn='230' voicetype='active' name='hE2' chunkId='VGF3' chunkType='head:VGF3'>
24	.	SYM	<fs af='.,punc,,,,,,' drel='rsym:kahA' posn='240' name='.' chunkId='BLK' chunkType='head:BLK'>
</Sentence>


<Sentence id="8">
1	isalie	PRP	<fs af='isalie,pn,,,,,,' drel='rh:kiyA' posn='10' name='isalie' chunkId='NP' chunkType='head:NP'>
2	hamane	PRP	<fs af='hama,pn,any,pl,1,o,ne,ne' drel='k1:kiyA' posn='20' name='hamane' chunkId='NP2' chunkType='head:NP2'>
3	eka	QC	<fs af='eka,num,any,any,,any,,' posn='30' drel='nmod__adj:seMtara' chunkType='child:NP3' name='eka'>
4	AXunika	JJ	<fs af='AXunika,adj,any,any,,d,,' posn='40' drel='nmod__adj:seMtara' chunkType='child:NP3' name='AXunika'>
5	AItI	NNC	<fs af='AItI,n,m,sg,3,d,0,0' posn='50' drel='pof__cn:seMtara' chunkType='child:NP3' name='AItI'>
6	seMtara	NN	<fs af='seMtara,n,m,sg,3,d,0,0' drel='k2:banAne' posn='60' name='seMtara' chunkId='NP3' chunkType='head:NP3'>
7	banAne	VM	<fs af='banA,v,any,any,any,o,nA_ke_lie,nA' drel='rt:kiyA' posn='70' vpos='tam_2_3' name='banAne' chunkId='VGNN' chunkType='head:VGNN'>
8	ke	PSP	<fs af='ke,psp,,,,,,' posn='80' drel='lwg__psp:banAne' chunkType='child:VGNN' name='ke'>
9	lie	PSP	<fs af='lie,psp,,,,,,' posn='90' drel='lwg__psp:banAne' chunkType='child:VGNN' name='lie'>
10	usa	DEM	<fs af='vaha,pn,any,sg,3,o,,' posn='100' drel='nmod__adj:sWAna' chunkType='child:NP4' name='usa'>
11	sWAna	NN	<fs af='sWAna,n,m,sg,3,o,0_kA,0' drel='r6:iswemAla' posn='110' vpos='vib_3' name='sWAna' chunkId='NP4' chunkType='head:NP4'>
12	ke	PSP	<fs af='kA,psp,m,sg,,o,,' posn='120' drel='lwg__psp:sWAna' chunkType='child:NP4' name='ke2'>
13	iswemAla	NN	<fs af='iswemAla,n,m,sg,3,o,0_kA,0' drel='r6-k2:nirNaya' posn='130' vpos='vib_2' name='iswemAla' chunkId='NP5' chunkType='head:NP5'>
14	kA	PSP	<fs af='kA,psp,m,sg,,d,,' posn='140' drel='lwg__psp:iswemAla' chunkType='child:NP5' name='kA'>
15	nirNaya	NN	<fs af='nirNaya,n,m,sg,3,d,0,0' drel='pof:kiyA' posn='150' name='nirNaya' chunkId='NP6' chunkType='head:NP6'>
16	kiyA	VM	<fs af='kara,v,m,sg,3,,yA_hE,yA' stype='declarative' posn='160' voicetype='active' vpos='tam_2' name='kiyA' chunkId='VGF' chunkType='head:VGF'>
17	hE	VAUX	<fs af='hE,v,any,sg,3,,hE,hE' posn='170' drel='lwg__vaux:kiyA' chunkType='child:VGF' name='hE'>
18	.	SYM	<fs af='.,punc,,,,,,' drel='rsym:kiyA' posn='180' name='.' chunkId='BLK' chunkType='head:BLK'>
19	'	SYM	<fs af='SINGLE_QUOTE,punc,,,,,,' ' posn='190' drel='rsym:.' chunkType='child:BLK' name=''>
</Sentence>


<Sentence id="9">
1	unhoMne	PRP	<fs af='vaha,pn,any,sg,3h,o,ne,ne' drel='k1:kahA' posn='10' name='unhoMne' chunkId='NP' chunkType='head:NP'>
2	yaha	PRP	<fs af='yaha,pn,any,sg,3,d,0,0' drel='k2:kahA' posn='20' name='yaha' chunkId='NP2' chunkType='head:NP2'>
3	BI	RP	<fs af='BI,avy,,,,,,' posn='30' drel='lwg__rp:yaha' chunkType='child:NP2' name='BI'>
4	kahA	VM	<fs af='kaha,v,m,sg,any,,yA,yA' stype='declarative' posn='40' voicetype='active' name='kahA' chunkId='VGF' chunkType='head:VGF'>
5	ki	CC	<fs af='ki,avy,,,,,,' drel='rs:yaha' posn='50' name='ki' chunkId='CCP' chunkType='head:CCP'>
6	KatAla	NN	<fs af='KatAla,n,m,sg,3,o,0_ko,0' drel='k2:karane' posn='60' vpos='vib_2' name='KatAla' chunkId='NP3' chunkType='head:NP3'>
7	ko	PSP	<fs af='ko,psp,,,,,,' posn='70' drel='lwg__psp:KatAla' chunkType='child:NP3' name='ko'>
8	AItI	NNC	<fs af='AItI,n,m,sg,3,d,0,0' posn='80' drel='pof__cn:seMtara' chunkType='child:NP4' name='AItI'>
9	seMtara	NN	<fs af='seMtara,n,m,sg,3,o,0_meM,0' drel='k7:karane' posn='90' vpos='vib_3' name='seMtara' chunkId='NP4' chunkType='head:NP4'>
10	meM	PSP	<fs af='meM,psp,,,,,,' posn='100' drel='lwg__psp:seMtara' chunkType='child:NP4' name='meM'>
11	wabxIla	NN	<fs af='wabxIla,n,m,sg,3,d,0,0' drel='pof:karane' posn='110' name='wabxIla' chunkId='NP5' chunkType='head:NP5'>
12	karane	VM	<fs af='kara,v,any,sg,any,o,nA_kA,nA' drel='r6:yojanA' posn='120' vpos='tam_2' name='karane' chunkId='VGNN' chunkType='head:VGNN'>
13	kI	PSP	<fs af='kA,psp,f,sg,,o,,' posn='130' drel='lwg__psp:karane' chunkType='child:VGNN' name='kI'>
14	yojanA	NN	<fs af='yojanA,n,f,sg,3,o,0_para,0' drel='k7:ho' posn='140' vpos='vib_2' name='yojanA' chunkId='NP6' chunkType='head:NP6'>
15	para	PSP	<fs af='para,psp,,,,,,' posn='150' drel='lwg__psp:yojanA' chunkType='child:NP6' name='para'>
16	PilahAla	RB	<fs af='PilahAla,adv,,,,,,' drel='adv:ho' posn='160' name='PilahAla' chunkId='RBP' chunkType='head:RBP'>
17	amala	NN	<fs af='amala,n,m,sg,3,d,0,0' drel='pof:ho' posn='170' name='amala' chunkId='NP7' chunkType='head:NP7'>
18	nahIM	NEG	<fs af='nahIM,avy,,,,,,' posn='180' drel='lwg__neg:ho' chunkType='child:VGF2' name='nahIM'>
19	ho	VM	<fs af='ho,v,m,sg,3,,0_pA+yA_hE,0' drel='ccof:ki' stype='declarative' posn='190' voicetype='active' vpos='tam_3_4' name='ho' chunkId='VGF2' chunkType='head:VGF2'>
20	pAyA	VAUX	<fs af='pA,v,m,sg,any,,yA,yA' posn='200' drel='lwg__vaux:ho' chunkType='child:VGF2' name='pAyA'>
21	hE	VAUX	<fs af='hE,v,any,sg,3,,hE,hE' posn='210' drel='lwg__vaux:ho' chunkType='child:VGF2' name='hE'>
22	kyoMki	CC	<fs af='kyoMki,avy,,,,,,' drel='rh:ho' posn='220' name='kyoMki' chunkId='CCP2' chunkType='head:CCP2'>
23	xo	QC	<fs af='xo,num,any,any,,any,,' posn='230' drel='nmod__adj:bAra' chunkType='child:NP8' name='xo'>
24	bAra	NN	<fs af='bAra,n,f,sg,3,d,0,0' drel='k7t:xie' posn='240' name='bAra' chunkId='NP8' chunkType='head:NP8'>
25	notisa	NN	<fs af='notisa,n,m,sg,3,d,0,0' drel='k2:xie' posn='250' name='notisa' chunkId='NP9' chunkType='head:NP9'>
26	xie	VM	<fs af='xe,v,m,sg,3,,yA_jA+nA_ke_bAvajUxa,yA' drel='vmod:kiyA' posn='260' vpos='tam_2_3_4' name='xie' chunkId='VGNN2' chunkType='head:VGNN2'>
27	jAne	VAUX	<fs af='jA,v,any,any,any,o,nA,nA' posn='270' drel='lwg__vaux:xie' chunkType='child:VGNN2' name='jAne'>
28	ke	PSP	<fs af='ke,psp,,,,,,' posn='280' drel='lwg__psp:xie' chunkType='child:VGNN2' name='ke'>
29	bAvajUxa	PSP	<fs af='bAvajUxa,psp,,,,,,' posn='290' drel='lwg__psp:xie' chunkType='child:VGNN2' name='bAvajUxa'>
30	BI	RP	<fs af='BI,avy,,,,,,' posn='300' drel='lwg__rp:xie' chunkType='child:VGNN2' name='BI2'>
31	pUrva	JJ	<fs af='pUrva,adj,any,any,,o,,' posn='310' drel='nmod__adj:muKyamaMwrI' chunkType='child:NP10' name='pUrva'>
32	muKyamaMwrI	NNP	<fs af='muKyamaMwrI,n,m,sg,3,o,0_ne,0' drel='k1:kiyA' posn='320' vpos='vib_3' name='muKyamaMwrI' chunkId='NP10' chunkType='head:NP10'>
33	ne	PSP	<fs af='ne,psp,,,,,,' posn='330' drel='lwg__psp:muKyamaMwrI' chunkType='child:NP10' name='ne'>
34	aBI	PRP	<fs af='aBI,pn,,,,o,0_waka,' drel='k7t:kiyA' posn='340' vpos='vib_2' name='aBI' chunkId='NP11' chunkType='head:NP11'>
35	waka	PSP	<fs af='waka,psp,,,,,,' posn='350' drel='lwg__psp:aBI' chunkType='child:NP11' name='waka'>
36	baMgalA	NN	<fs af='baMgalA,n,m,sg,3,d,0,0' drel='k2:kiyA' posn='360' name='baMgalA' chunkId='NP12' chunkType='head:NP12'>
37	KAlI	JJ	<fs af='KAlI,adj,any,any,,,,' drel='pof:kiyA' posn='370' name='KAlI' chunkId='JJP' chunkType='head:JJP'>
38	nahIM	NEG	<fs af='nahIM,avy,,,,,,' posn='380' drel='lwg__neg:kiyA' chunkType='child:VGF3' name='nahIM2'>
39	kiyA	VM	<fs af='kara,v,m,sg,3,,yA_hE,yA' drel='ccof:kyoMki' stype='declarative' posn='390' voicetype='active' vpos='tam_3' name='kiyA' chunkId='VGF3' chunkType='head:VGF3'>
40	hE	VAUX	<fs af='hE,v,any,sg,3,,hE,hE' posn='400' drel='lwg__vaux:kiyA' chunkType='child:VGF3' name='hE2'>
41	.	SYM	<fs af='.,punc,,,,,,' drel='rsym:kahA' posn='410' name='.' chunkId='BLK' chunkType='head:BLK'>
</Sentence>


<Sentence id="10">
1	husEna	NNP	<fs af='husEna,n,m,sg,3,o,0_ne,0' drel='k1:kahA' posn='10' vpos='vib_2' name='husEna' chunkId='NP' chunkType='head:NP'>
2	ne	PSP	<fs af='ne,psp,,,,,,' posn='20' drel='lwg__psp:husEna' chunkType='child:NP' name='ne'>
3	kahA	VM	<fs af='kaha,v,m,sg,3,,yA_hE,yA' stype='declarative' posn='30' voicetype='active' vpos='tam_2' name='kahA' chunkId='VGF' chunkType='head:VGF'>
4	hE	VAUX	<fs af='hE,v,any,sg,3,,hE,hE' posn='40' drel='lwg__vaux:kahA' chunkType='child:VGF' name='hE'>
5	ki	CC	<fs af='ki,avy,,,,,,' drel='k2:kahA' posn='50' name='ki' chunkId='CCP' chunkType='head:CCP'>
6	eka	NNPC	<fs af='eka,n,m,sg,3,d,0,0' posn='70' drel='pof__cn:mArga' chunkType='child:NP2' name='eka'>
7	aNe	NNPC	<fs af='aNe,n,m,sg,3,d,0,0' posn='70' drel='pof__cn:mArga' chunkType='child:NP2' name='aNe'>
8	mArga	NNP	<fs af='mArga,n,m,sg,3,o,0_se,0' drel='k5:hatAne' posn='80' vpos='vib_4' name='mArga' chunkId='NP2' chunkType='head:NP2'>
9	se	PSP	<fs af='se,psp,,,,,,' posn='90' drel='lwg__psp:mArga' chunkType='child:NP2' name='se'>
10	paSuoM	NN	<fs af='paSu,n,m,pl,3,o,0_ko,0' drel='k2:hatAne' posn='100' vpos='vib_2' name='paSuoM' chunkId='NP3' chunkType='head:NP3'>
11	ko	PSP	<fs af='ko,psp,,,,,,' posn='110' drel='lwg__psp:paSuoM' chunkType='child:NP3' name='ko'>
12	hatAne	VM	<fs af='hatA,v,any,sg,3,o,nA_ke_bAxa,nA' drel='k7t:kiyA' posn='120' vpos='tam_2_3' name='hatAne' chunkId='VGNN' chunkType='head:VGNN'>
13	ke	PSP	<fs af='ke,psp,,,,,,' posn='130' drel='lwg__psp:hatAne' chunkType='child:VGNN' name='ke'>
14	bAxa	NST	<fs af='bAxa,nst,m,sg,3,d,,' posn='140' drel='lwg__nst:hatAne' chunkType='child:VGNN' name='bAxa'>
15	hI	RP	<fs af='hI,avy,,,,,,' posn='150' drel='lwg__rp:hatAne' chunkType='child:VGNN' name='hI'>
16	vahAM	PRP	<fs af='vahAz,pn,,,,d,,' drel='k7p:banAne' posn='160' name='vahAM' chunkId='NP4' chunkType='head:NP4'>
17	AItI	NNC	<fs af='AItI,n,m,sg,3,d,0,0' posn='170' drel='pof__cn:seMtara' chunkType='child:NP5' name='AItI'>
18	seMtara	NN	<fs af='seMtara,n,m,sg,3,d,0,0' drel='k2:banAne' posn='180' name='seMtara' chunkId='NP5' chunkType='head:NP5'>
19	banAne	VM	<fs af='banA,v,any,sg,any,o,nA_kA,nA' drel='r6:kAma' posn='190' vpos='tam_2' name='banAne' chunkId='VGNN2' chunkType='head:VGNN2'>
20	kA	PSP	<fs af='kA,psp,m,sg,,d,,' posn='200' drel='lwg__psp:banAne' chunkType='child:VGNN2' name='kA'>
21	kAma	NN	<fs af='kAma,n,m,sg,3,d,0,0' drel='k2:kiyA' posn='210' name='kAma' chunkId='NP6' chunkType='head:NP6'>
22	yuxGaswara	NN	<fs af='yuxGaswara,n,m,sg,3,o,0_para,0' drel='k7:kiyA' posn='220' vpos='vib_2' name='yuxGaswara' chunkId='NP7' chunkType='head:NP7'>
23	para	PSP	<fs af='para,psp,,,,,,' posn='230' drel='lwg__psp:yuxGaswara' chunkType='child:NP7' name='para'>
24	SurU	NN	<fs af='SurU,n,m,sg,3,d,0,0' drel='pof:kiyA' posn='240' name='SurU' chunkId='NP8' chunkType='head:NP8'>
25	kiyA	VM	<fs af='kara,v,m,sg,3,,yA_jA+gA,yA' drel='ccof:ki' stype='declarative' posn='250' voicetype='passive' vpos='tam_2' name='kiyA' chunkId='VGF2' chunkType='head:VGF2'>
26	jAegA	VAUX	<fs af='jA,v,m,sg,3,,gA,gA' posn='260' drel='lwg__vaux:kiyA' chunkType='child:VGF2' name='jAegA'>
27	.	SYM	<fs af='.,punc,,,,,,' drel='rsym:kahA' posn='270' name='.' chunkId='BLK' chunkType='head:BLK'>
</Sentence>


</text>
</tb>
</body>
</document>
