<document id="2516263">
<head>
<title></title>			
<caption>borda kI bETakoM meM BAga nahIM le sakeMge dAlamiyA        pre   : cennaI</caption>			
<language>Hindi </language>			
<author>			
<firstname></firstname>			
<middlename></middlename>			
<lastname></lastname>			
</author>			
<creation>			
<raw_corpus creation_date="" institute_name=""></raw_corpus>			
<annotated_corpus creation_date="07/25/2009" institute_name="IIIT-Hyderabad"></annotated_corpus>			
</creation>			
<domain_name>News Articles </domain_name>			
<distributor>LTRC, IIIT Hyderabad</distributor>			
<source>ISI, Kolkata</source>			
<publication>			
<place>New Delhi</place>			
<date>10/6/2004</date>			
<address>Connaught Place, New Delhi</address>			
<type>Newspaper</type>			
<publisher>			
<name>Amar Ujala</name>			
<url>http://www.amarujala.com</url>			
</publisher>			
</publication>			
<project_description>NSF Hindi/Urdu Dependency Treebanking Project</project_description>			
<availability>			
<format>CML/SSF</format>			
</availability>			
<byte_count>3205</byte_count>			
<word_count>67</word_count>			
<edition_number>1.0</edition_number>			
<encoding_description>			
<original_encoding>ISO 8859</original_encoding>			
<new_encoding>Unicode UTF8</new_encoding>			
</encoding_description>			
<bibliography></bibliography>			
<sentence_marker>.</sentence_marker>			
<normalization>No</normalization>			
<utility_name>cml_tags</utility_name>			

</head>
<body>
<tb number="1" segment="no" bullet="no">
<foreign language="select" writingsystem="LTR"> </foreign>			
<text>
<Sentence id="1">
1	BArawIya	NNPC	<fs af='BArawIya,n,m,sg,3,d,0,0' posn='10' drel='pof__cn:borda' chunkType='child:NP' name='BArawIya'>
2	kriketa	NNPC	<fs af='kriketa,n,m,sg,3,d,0,0' posn='20' drel='pof__cn:borda' chunkType='child:NP' name='kriketa'>
3	kaMtrola	NNPC	<fs af='kaMtrola,n,m,sg,3,d,0,0' posn='30' drel='pof__cn:borda' chunkType='child:NP' name='kaMtrola'>
4	borda	NNP	<fs af='kaMtrola,n,m,sg,3,o,0,0' drel='r6:aXyakRa' posn='40' name='borda' chunkId='NP' chunkType='head:NP'>
5	(	SYM	<fs af='(,punc,,,,,,' posn='50' drel='rsym:bIsIsIAI' chunkType='child:NP2' name='('>
6	bIsIsIAI	NNP	<fs af='bIsIsIAI,n,m,sg,3,o,0,0' drel='rs:borda' posn='60' name='bIsIsIAI' chunkId='NP2' chunkType='head:NP2'>
7	)	SYM	<fs af='),punc,,,,,,' posn='70' drel='rsym:bIsIsIAI' chunkType='child:NP2' name=')'>
8	ke	PSP	<fs drel='fragof:borda' name='ke' chunkId='FRAGP' chunkType='head:FRAGP'>
9	pUrva	JJ	<fs af='pUrva,adj,any,any,,o,,' posn='90' drel='nmod__adj:aXyakRa' chunkType='child:NP3' name='pUrva'>
10	aXyakRa	NN	<fs af='aXyakRa,n,m,sg,3,o,0,0' drel='nmod:dAlamiyA' posn='100' name='aXyakRa' chunkId='NP3' chunkType='head:NP3'>
11	jagamohana	NNPC	<fs af='jagamohana,n,m,sg,3,d,0,0' posn='110' drel='pof__cn:dAlamiyA' chunkType='child:NP4' name='jagamohana'>
12	dAlamiyA	NNP	<fs af='dAlamiyA,n,m,sg,3,o,0_para,0' drel='k7:lagA' posn='120' vpos='vib_3' name='dAlamiyA' chunkId='NP4' chunkType='head:NP4'>
13	para	PSP	<fs af='para,psp,,,,,,' posn='130' drel='lwg__psp:dAlamiyA' chunkType='child:NP4' name='para'>
14	borda	NN	<fs af='borda,n,m,sg,3,o,0_kA,0' drel='r6:bETakoM' posn='140' vpos='vib_2' name='borda2' chunkId='NP5' chunkType='head:NP5'>
15	kI	PSP	<fs af='kA,psp,f,pl,,o,,' posn='150' drel='lwg__psp:borda2' chunkType='child:NP5' name='kI'>
16	saBI	QF	<fs af='saBI,avy,,,,,,' posn='160' drel='nmod__adj:bETakoM' chunkType='child:NP6' name='saBI'>
17	bETakoM	NN	<fs af='bETaka,n,f,pl,3,o,0_meM,0' drel='k7p:lene' posn='170' vpos='vib_3' name='bETakoM' chunkId='NP6' chunkType='head:NP6'>
18	meM	PSP	<fs af='meM,psp,,,,,,' posn='180' drel='lwg__psp:bETakoM' chunkType='child:NP6' name='meM'>
19	BAga	NN	<fs af='BAga,n,m,sg,3,d,0,0' drel='pof:lene' posn='190' name='BAga' chunkId='NP7' chunkType='head:NP7'>
20	lene	VM	<fs af='le,v,any,any,any,o,nA_para,nA' drel='k7:lagA' posn='200' vpos='tam_2' name='lene' chunkId='VGNN' chunkType='head:VGNN'>
21	para	PSP	<fs af='para,psp,,,,,,' posn='210' drel='lwg__psp:lene' chunkType='child:VGNN' name='para2'>
22	roka	NN	<fs af='roka,n,f,sg,3,d,0,0' drel='pof:lagA' posn='220' name='roka' chunkId='NP8' chunkType='head:NP8'>
23	lagA	VM	<fs af='lagA,v,f,sg,3,,0_xe+yA_jA+yA1_hE,0' stype='declarative' posn='230' voicetype='active' vpos='tam_2_3_4' name='lagA' chunkId='VGF' chunkType='head:VGF'>
24	xI	VAUX	<fs af='xe,v,f,sg,any,,yA,yA' posn='240' drel='lwg__vaux:lagA' chunkType='child:VGF' name='xI'>
25	gaI	VAUX	<fs af='jA,v,f,sg,any,,yA1,yA1' posn='250' drel='lwg__vaux:lagA' chunkType='child:VGF' name='gaI'>
26	hE	VAUX	<fs af='hE,v,any,sg,3,,hE,hE' posn='260' drel='lwg__vaux:lagA' chunkType='child:VGF' name='hE'>
27	.	SYM	<fs af='.,punc,,,,,,' drel='rsym:lagA' posn='270' name='.' chunkId='BLK' chunkType='head:BLK'>
</Sentence>


<Sentence id="2">
1	yaha	DEM	<fs af='yaha,pn,any,sg,3,d,,' posn='10' drel='nmod__adj:PEsalA' chunkType='child:NP' name='yaha'>
2	PEsalA	NN	<fs af='PEsalA,n,m,sg,3,d,0,0' drel='pof:kiyA' posn='20' name='PEsalA' chunkId='NP' chunkType='head:NP'>
3	somavAra	NNP	<fs af='somavAra,n,m,sg,3,o,0_ko,0' drel='k7t:kiyA' posn='30' vpos='vib_2' name='somavAra' chunkId='NP2' chunkType='head:NP2'>
4	ko	PSP	<fs af='ko,psp,,,,,,' posn='40' drel='lwg__psp:somavAra' chunkType='child:NP2' name='ko'>
5	kiyA	VM	<fs af='kara,v,m,sg,any,,yA_jA+yA1,yA' stype='declarative' posn='50' voicetype='passive' vpos='tam_2' name='kiyA' chunkId='VGF' chunkType='head:VGF'>
6	gayA	VAUX	<fs af='jA,v,m,sg,any,,yA1,yA1' posn='60' drel='lwg__vaux:kiyA' chunkType='child:VGF' name='gayA'>
7	.	SYM	<fs af='.,punc,,,,,,' drel='rsym:kiyA' posn='70' name='.' chunkId='BLK' chunkType='head:BLK'>
</Sentence>


<Sentence id="3">
1	dAlamiyA	NNP	<fs af='dAlamiyA,n,m,sg,3,o,0_para,0' drel='k7:hE' posn='10' vpos='vib_2' name='dAlamiyA' chunkId='NP' chunkType='head:NP'>
2	para	PSP	<fs af='para,psp,,,,,,' posn='20' drel='lwg__psp:dAlamiyA' chunkType='child:NP' name='para'>
3	1996	NNPC	<fs af='1996,n,m,sg,3,d,0,0' posn='30' drel='pof__cn:kapa' chunkType='child:NP2' name='1996'>
4	viSva	NNPC	<fs af='viSva,n,m,sg,3,d,0,0' posn='40' drel='pof__cn:kapa' chunkType='child:NP2' name='viSva'>
5	kapa	NNP	<fs af='kapa,n,m,sg,3,d,0,0' posn='50' drel='nmod__adj:KAwoM' chunkType='child:NP2' name='kapa'>
6	KAwoM	NN	<fs af='KAwA,n,m,pl,3,o,0_meM,0' drel='k7:barawane' posn='60' vpos='vib_vib_5' name='KAwoM' chunkId='NP2' chunkType='head:NP2'>
7	meM	PSP	<fs af='meM,psp,,,,,,' posn='70' drel='lwg__psp:KAwoM' chunkType='child:NP2' name='meM'>
8	aniyamiwawA	NN	<fs af='aniyamiwawA,n,f,sg,3,d,0,0' drel='pof:barawane' posn='80' name='aniyamiwawA' chunkId='NP3' chunkType='head:NP3'>
9	barawane	VM	<fs af='barawa,v,any,sg,any,o,nA_kA,nA' drel='r6:Aropa' posn='90' vpos='tam_2' name='barawane' chunkId='VGNN' chunkType='head:VGNN'>
10	kA	PSP	<fs af='kA,psp,m,sg,,d,,' posn='100' drel='lwg__psp:barawane' chunkType='child:VGNN' name='kA'>
11	Aropa	NN	<fs af='Aropa,n,m,sg,3,d,0,0' drel='k1:hE' posn='110' name='Aropa' chunkId='NP4' chunkType='head:NP4'>
12	hE	VM	<fs af='hE,v,any,sg,3,,hE,hE' stype='declarative' posn='120' voicetype='active' name='hE' chunkId='VGF' chunkType='head:VGF'>
13	.	SYM	<fs af='.,punc,,,,,,' drel='rsym:hE' posn='130' name='.' chunkId='BLK' chunkType='head:BLK'>
</Sentence>


<Sentence id="4">
1	bIsIsIAI	NNP	<fs af='bIsIsIAI,n,m,sg,3,d,0,0' posn='10' drel='nmod__adj:sUwroM' chunkType='child:NP' name='bIsIsIAI'>
2	sUwroM	NN	<fs af='sUwra,n,m,pl,3,o,0_ke_muwAbika,0' drel='k7a:rahegA' posn='20' vpos='vib_vib_3_4' name='sUwroM' chunkId='NP' chunkType='head:NP'>
3	ke	PSP	<fs af='ke,psp,,,,,,' posn='30' drel='lwg__psp:sUwroM' chunkType='child:NP' name='ke'>
4	muwAbika	PSP	<fs af='muwAbika,psp,,,,,,' posn='40' drel='lwg__psp:sUwroM' chunkType='child:NP' name='muwAbika'>
5	borda	NN	<fs af='borda,n,m,sg,3,o,0_kA,0' drel='r6:samiwi' posn='50' vpos='vib_2' name='borda' chunkId='NP2' chunkType='head:NP2'>
6	kI	PSP	<fs af='kA,psp,f,sg,,o,,' posn='60' drel='lwg__psp:borda' chunkType='child:NP2' name='kI'>
7	anuSAsanAwmaka	JJ	<fs af='anuSAsanAwmaka,adj,any,any,,o,,' posn='70' drel='nmod__adj:samiwi' chunkType='child:NP3' name='anuSAsanAwmaka'>
8	samiwi	NN	<fs af='samiwi,n,f,sg,3,o,0_xvArA,0' drel='k1:lie' posn='80' vpos='vib_3' name='samiwi' chunkId='NP3' chunkType='head:NP3'>
9	xvArA	PSP	<fs af='xvArA,psp,,,,,,' posn='90' drel='lwg__psp:samiwi' chunkType='child:NP3' name='xvArA'>
10	isa	PRP	<fs af='yaha,pn,any,sg,3,o,0_bAre_meM,0' drel='k7:lie' posn='100' vpos='vib_2_3' name='isa' chunkId='NP4' chunkType='head:NP4'>
11	bAre	PSP	<fs af='bAre,psp,,,,,,' posn='110' drel='lwg__psp:isa' chunkType='child:NP4' name='bAre'>
12	meM	PSP	<fs af='meM,psp,,,,,,' posn='120' drel='lwg__psp:isa' chunkType='child:NP4' name='meM'>
13	koI	PRP	<fs af='koI,pn,any,sg,3,d,0,0' posn='130' drel='nmod__adj:PEsalA' chunkType='child:NP5' name='koI'>
14	PEsalA	NN	<fs af='PEsalA,n,m,sg,3,d,0,0' drel='k2:lie' posn='140' name='PEsalA' chunkId='NP5' chunkType='head:NP5'>
15	lie	VM	<fs af='le,v,any,sg,any,,yA_jA+nA_waka,yA' drel='k7t:rahegA' posn='150' vpos='tam_2_3' name='lie' chunkId='VGNN' chunkType='head:VGNN'>
16	jAne	VAUX	<fs af='jA,v,any,any,any,o,nA,nA' posn='160' drel='lwg__vaux:lie' chunkType='child:VGNN' name='jAne'>
17	waka	PSP	<fs af='waka,psp,,,,,,' posn='170' drel='lwg__psp:lie' chunkType='child:VGNN' name='waka'>
18	nilaMbana	NN	<fs af='nilaMbana,n,m,sg,3,d,0,0' drel='jjmod:jArI' posn='180' name='nilaMbana' chunkId='NP6' chunkType='head:NP6'>
19	jArI	JJ	<fs af='jArI,adj,any,any,,,,' drel='pof:rahegA' posn='190' name='jArI' chunkId='JJP' chunkType='head:JJP'>
20	rahegA	VM	<fs af='raha,v,m,sg,3,,gA,gA' stype='declarative' posn='200' voicetype='active' name='rahegA' chunkId='VGF' chunkType='head:VGF'>
21	.	SYM	<fs af='.,punc,,,,,,' drel='rsym:rahegA' posn='210' name='.' chunkId='BLK' chunkType='head:BLK'>
</Sentence>


</text>
</tb>
</body>
</document>
