<document id="2575937">
<head>
<title></title>			
<caption>rAjya sarakAreM bAla vikAsa yojanA para XyAna xeM  arjuna siMha        yU   : naI xillI</caption>			
<language>Hindi </language>			
<author>			
<firstname></firstname>			
<middlename></middlename>			
<lastname></lastname>			
</author>			
<creation>			
<raw_corpus creation_date="" institute_name=""></raw_corpus>			
<annotated_corpus creation_date="07/25/2009" institute_name="IIIT-Hyderabad"></annotated_corpus>			
</creation>			
<domain_name>News Articles </domain_name>			
<distributor>LTRC, IIIT Hyderabad</distributor>			
<source>ISI, Kolkata</source>			
<publication>			
<place>New Delhi</place>			
<date>6/7/2004</date>			
<address>Connaught Place, New Delhi</address>			
<type>Newspaper</type>			
<publisher>			
<name>Amar Ujala</name>			
<url>http://www.amarujala.com</url>			
</publisher>			
</publication>			
<project_description>NSF Hindi/Urdu Dependency Treebanking Project</project_description>			
<availability>			
<format>CML/SSF</format>			
</availability>			
<byte_count>7746</byte_count>			
<word_count>293</word_count>			
<edition_number>1.0</edition_number>			
<encoding_description>			
<original_encoding>ISO 8859</original_encoding>			
<new_encoding>Unicode UTF8</new_encoding>			
</encoding_description>			
<bibliography></bibliography>			
<sentence_marker>.</sentence_marker>			
<normalization>No</normalization>			
<utility_name>cml_tags</utility_name>			
			
			

</head>
<body>
<tb number="1" segment="no" bullet="no">
<foreign language="select" writingsystem="LTR"> </foreign>			
<text>
<Sentence id="1">
1	mAnava	NNPC	<fs af='mAnava,n,m,sg,3,d,0,0' posn='10' drel='pof__cn:maMwrI' chunkType='child:NP' name='mAnava'>
2	saMsAXana	NNPC	<fs af='saMsAXana,n,m,sg,3,d,0,0' posn='20' drel='pof__cn:maMwrI' chunkType='child:NP' name='saMsAXana'>
3	vikAsa	NNPC	<fs af='vikAsa,n,m,sg,3,d,0,0' posn='30' drel='pof__cn:maMwrI' chunkType='child:NP' name='vikAsa'>
4	maMwrI	NNP	<fs af='maMwrI,n,m,sg,3,d,0,0' posn='40' drel='nmod__adj:siMha' chunkType='child:NP' name='maMwrI'>
5	arjuna	NNPC	<fs af='arjuna,n,m,sg,3,d,0,0' posn='50' drel='pof__cn:siMha' chunkType='child:NP' name='arjuna'>
6	siMha	NNP	<fs af='siMha,n,m,sg,3,o,0_ne,0' drel='k1:kahA' posn='60' vpos='vib_vib_7' name='siMha' chunkId='NP' chunkType='head:NP'>
7	ne	PSP	<fs af='ne,psp,,,,,,' posn='70' drel='lwg__psp:siMha' chunkType='child:NP' name='ne'>
8	buXavAra	NNP	<fs af='buXavAra,n,m,sg,3,o,0_ko,0' drel='k7t:kahA' posn='80' vpos='vib_2' name='buXavAra' chunkId='NP2' chunkType='head:NP2'>
9	ko	PSP	<fs af='ko,psp,,,,,,' posn='90' drel='lwg__psp:buXavAra' chunkType='child:NP2' name='ko'>
10	rAjya	NNC	<fs af='rAjya,n,m,sg,3,d,0,0' posn='100' drel='pof__cn:sarakAroM' chunkType='child:NP3' name='rAjya'>
11	sarakAroM	NN	<fs af='sarakAra,n,f,pl,3,o,0_se,0' drel='k4:kahA' posn='110' vpos='vib_3' name='sarakAroM' chunkId='NP3' chunkType='head:NP3'>
12	se	PSP	<fs af='se,psp,,,,,,' posn='120' drel='lwg__psp:sarakAroM' chunkType='child:NP3' name='se'>
13	ekIkqwa	NNPC	<fs af='ekIkqwa,n,m,sg,3,d,0,0' posn='130' drel='pof__cn:sevA' chunkType='child:NP4' name='ekIkqwa'>
14	bAla	NNPC	<fs af='bAla,n,m,sg,3,d,0,0' posn='140' drel='pof__cn:sevA' chunkType='child:NP4' name='bAla'>
15	vikAsa	NNPC	<fs af='vikAsa,n,m,sg,3,d,0,0' posn='150' drel='pof__cn:sevA' chunkType='child:NP4' name='vikAsa2'>
16	sevA	NNP	<fs af='sevA,n,f,sg,3,o,0,0' drel='r6:vESvIkaraNa' posn='160' name='sevA' chunkId='NP4' chunkType='head:NP4'>
17	(	SYM	<fs af='(,punc,,,,,,' posn='170' drel='rsym:AIsIdIesa' chunkType='child:NP5' name='('>
18	AIsIdIesa	NNP	<fs af='AIsIdIesa,n,f,sg,3,o,0,0' drel='rs:sevA' posn='180' name='AIsIdIesa' chunkId='NP5' chunkType='head:NP5'>
19	)	SYM	<fs af='),punc,,,,,,' posn='190' drel='rsym:AIsIdIesa' chunkType='child:NP5' name=')'>
20	kA	PSP	<fs drel='fragof:sevA' name='kA' chunkId='FRAGP' chunkType='head:FRAGP'>
21	vESvIkaraNa	NN	<fs af='vESvIkaraNa,n,m,sg,3,d,0,0' drel='k2:karane' posn='210' name='vESvIkaraNa' chunkId='NP6' chunkType='head:NP6'>
22	suniScicawa	JJ	<fs af='suniScicawa,adj,any,any,,,,' drel='pof:karane' posn='220' name='suniScicawa' chunkId='JJP' chunkType='head:JJP'>
23	karane	VM	<fs af='kara,v,any,any,any,o,nA_ke_lie,nA' drel='rt:kahA' posn='230' vpos='tam_2_3' name='karane' chunkId='VGNN' chunkType='head:VGNN'>
24	ke	PSP	<fs af='ke,psp,,,,,,' posn='240' drel='lwg__psp:karane' chunkType='child:VGNN' name='ke'>
25	lie	PSP	<fs af='lie,psp,,,,,,' posn='250' drel='lwg__psp:karane' chunkType='child:VGNN' name='lie'>
26	svayaM	PRP	<fs af='svayaM,pn,any,sg,any,d,0,0' drel='k2:rahane' posn='260' name='svayaM' chunkId='NP7' chunkType='head:NP7'>
27	prawibaxXa	JJ	<fs af='prawibaxXa,adj,any,any,,,,' drel='pof:rahane' posn='270' name='prawibaxXa' chunkId='JJP2' chunkType='head:JJP2'>
28	rahane	VM	<fs af='raha,v,any,any,any,o,nA_ko,nA' drel='k2:kahA' posn='280' vpos='tam_2' name='rahane' chunkId='VGNN2' chunkType='head:VGNN2'>
29	ko	PSP	<fs af='ko,psp,,,,,,' posn='290' drel='lwg__psp:rahane' chunkType='child:VGNN2' name='ko2'>
30	kahA	VM	<fs af='kaha,v,m,sg,any,,yA,yA' stype='declarative' posn='300' voicetype='active' name='kahA' chunkId='VGF' chunkType='head:VGF'>
31	.	SYM	<fs af='.,punc,,,,,,' drel='rsym:kahA' posn='310' name='.' chunkId='BLK' chunkType='head:BLK'>
</Sentence>


<Sentence id="2">
1	mahilA	NNC	<fs af='mahilA,n,f,sg,3,d,0,0' posn='10' drel='pof__cn:maMwriyoM' chunkType='child:NP' name='mahilA'>
2	evaM	NNC	<fs af='evaM,avy,,,,,,' posn='20' drel='pof__cn:maMwriyoM' chunkType='child:NP' name='evaM'>
3	bAla	NNC	<fs af='bAla,n,m,sg,3,d,0,0' posn='30' drel='pof__cn:maMwriyoM' chunkType='child:NP' name='bAla'>
4	vikAsa	NNC	<fs af='vikAsa,n,m,sg,3,d,0,0' posn='40' drel='pof__cn:maMwriyoM' chunkType='child:NP' name='vikAsa'>
5	rAjya	NNC	<fs af='rAjya,n,m,sg,3,d,0,0' posn='50' drel='pof__cn:maMwriyoM' chunkType='child:NP' name='rAjya'>
6	maMwriyoM	NN	<fs af='maMwrI,n,m,pl,3,o,0_kA,0' drel='r6:sammelana' posn='60' vpos='vib_7' name='maMwriyoM' chunkId='NP' chunkType='head:NP'>
7	ke	PSP	<fs af='kA,psp,m,sg,,o,,' posn='70' drel='lwg__psp:maMwriyoM' chunkType='child:NP' name='ke'>
8	xo	QC	<fs af='xo,num,any,any,,any,,' posn='80' drel='nmod__adj:sammelana' chunkType='child:NP2' name='xo'>
9	xivasIya	JJ	<fs af='xivasIya,adj,any,any,,o,,' posn='90' drel='nmod__adj:sammelana' chunkType='child:NP2' name='xivasIya'>
10	sammelana	NN	<fs af='sammelana,n,m,sg,3,o,0_ko,0' drel='k2:karawe' posn='100' vpos='vib_4' name='sammelana' chunkId='NP2' chunkType='head:NP2'>
11	ko	PSP	<fs af='ko,psp,,,,,,' posn='110' drel='lwg__psp:sammelana' chunkType='child:NP2' name='ko'>
12	saMboXiwa	JJ	<fs af='saMboXiwa,adj,any,any,,,,' drel='pof:karawe' posn='120' name='saMboXiwa' chunkId='JJP' chunkType='head:JJP'>
13	karawe	VM	<fs af='kara,v,m,sg,any,,wA_ho+yA,wA' drel='vmod:kiyA' posn='130' vpos='tam_2' name='karawe' chunkId='VGNF' chunkType='head:VGNF'>
14	hue	VAUX	<fs af='ho,v,m,sg,any,,yA,yA' posn='140' drel='lwg__vaux:karawe' chunkType='child:VGNF' name='hue'>
15	siMha	NNP	<fs af='siMha,n,m,sg,3,o,0_ne,0' drel='k1:kiyA' posn='150' vpos='vib_2' name='siMha' chunkId='NP3' chunkType='head:NP3'>
16	ne	PSP	<fs af='ne,psp,,,,,,' posn='160' drel='lwg__psp:siMha' chunkType='child:NP3' name='ne'>
17	rAjyoM	NN	<fs af='rAjya,n,m,pl,3,o,0_se,0' drel='k4:kiyA' posn='170' vpos='vib_2' name='rAjyoM' chunkId='NP4' chunkType='head:NP4'>
18	se	PSP	<fs af='se,psp,,,,,,' posn='180' drel='lwg__psp:rAjyoM' chunkType='child:NP4' name='se'>
19	saBI	QF	<fs af='saBI,avy,,,,,,' posn='190' drel='nmod__adj:nAgarikoM' chunkType='child:NP5' name='saBI'>
20	nAgarikoM	NN	<fs af='nAgarika,n,m,pl,3,o,0,0' drel='nmod:karAne' posn='200' name='nAgarikoM' chunkId='NP5' chunkType='head:NP5'>
21	viSeRakara	RB	<fs af='viSeRakara,adv,,,,,,' drel='adv:karAne' posn='210' name='viSeRakara' chunkId='RBP' chunkType='head:RBP'>
22	baccoM	NN	<fs af='baccA,n,m,pl,3,o,0_ko,0' drel='rs:nAgarikoM' posn='220' vpos='vib_2' name='baccoM' chunkId='NP6' chunkType='head:NP6'>
23	ko	PSP	<fs af='ko,psp,,,,,,' posn='230' drel='lwg__psp:baccoM' chunkType='child:NP6' name='ko2'>
24	SikRA	NN	<fs af='SikRA,n,f,sg,3,d,0,0' drel='ccof:evaM2' posn='240' name='SikRA' chunkId='NP7' chunkType='head:NP7'>
25	evaM	CC	<fs af='evaM,avy,,,,,,' drel='nmod:sevAeM' posn='250' name='evaM2' chunkId='CCP' chunkType='head:CCP'>
26	svAsWya	NN	<fs af='svAsWya,n,m,sg,3,d,0,0' drel='ccof:evaM2' posn='260' name='svAsWya' chunkId='NP8' chunkType='head:NP8'>
27	sevAeM	NN	<fs af='sevA,n,f,pl,3,d,0,0' drel='k2:karAne' posn='270' name='sevAeM' chunkId='NP9' chunkType='head:NP9'>
28	muhEyA	JJ	<fs af='muhEyA,adj,any,any,,,,' drel='pof:karAne' posn='280' name='muhEyA' chunkId='JJP2' chunkType='head:JJP2'>
29	karAne	VM	<fs af='karA,v,any,any,any,o,nA_ke_lie,nA' drel='rt:kiyA' posn='290' vpos='tam_2_3' name='karAne' chunkId='VGNN' chunkType='head:VGNN'>
30	ke	PSP	<fs af='ke,psp,,,,,,' posn='300' drel='lwg__psp:karAne' chunkType='child:VGNN' name='ke2'>
31	lie	PSP	<fs af='lie,psp,,,,,,' posn='310' drel='lwg__psp:karAne' chunkType='child:VGNN' name='lie'>
32	saBI	QF	<fs af='saBI,avy,,,,,,' posn='320' drel='nmod__adj:prayAsa' chunkType='child:NP10' name='saBI2'>
33	prayAsa	NN	<fs af='prayAsa,n,m,pl,3,d,0,0' drel='pof:karane' posn='330' name='prayAsa' chunkId='NP10' chunkType='head:NP10'>
34	karane	VM	<fs af='kara,v,any,sg,any,o,nA_kA,nA' drel='r6-k2:anuroXa' posn='340' vpos='tam_2' name='karane' chunkId='VGNN2' chunkType='head:VGNN2'>
35	kA	PSP	<fs af='kA,psp,m,sg,,d,,' posn='350' drel='lwg__psp:karane' chunkType='child:VGNN2' name='kA'>
36	anuroXa	NN	<fs af='anuroXa,n,m,sg,3,d,0,0' drel='pof:kiyA' posn='360' name='anuroXa' chunkId='NP11' chunkType='head:NP11'>
37	kiyA	VM	<fs af='kara,v,m,sg,any,,yA,yA' stype='declarative' posn='370' voicetype='active' name='kiyA' chunkId='VGF' chunkType='head:VGF'>
38	.	SYM	<fs af='.,punc,,,,,,' drel='rsym:kiyA' posn='380' name='.' chunkId='BLK' chunkType='head:BLK'>
</Sentence>


<Sentence id="3">
1	isa	DEM	<fs af='yaha,pn,any,sg,3,o,,' posn='10' drel='nmod__adj:mOke' chunkType='child:NP' name='isa'>
2	mOke	NN	<fs af='mOkA,n,m,sg,3,o,0_para,0' drel='k7:kahA' posn='20' vpos='vib_3' name='mOke' chunkId='NP' chunkType='head:NP'>
3	para	PSP	<fs af='para,psp,,,,,,' posn='30' drel='lwg__psp:mOke' chunkType='child:NP' name='para'>
4	unhoMne	PRP	<fs af='vaha,pn,any,sg,3h,o,ne,ne' drel='k1:kahA' posn='40' name='unhoMne' chunkId='NP2' chunkType='head:NP2'>
5	kahA	VM	<fs af='kaha,v,m,sg,any,,yA,yA' stype='declarative' posn='50' voicetype='active' name='kahA' chunkId='VGF' chunkType='head:VGF'>
6	ki	CC	<fs af='ki,avy,,,,,,' drel='k2:kahA' posn='60' name='ki' chunkId='CCP' chunkType='head:CCP'>
7	yaha	PRP	<fs af='yaha,pn,any,sg,3,d,0,0' drel='k1:hE' posn='70' name='yaha' chunkId='NP3' chunkType='head:NP3'>
8	hamAre	PRP	<fs af='hama,pn,m,pl,1,o,kA,kA' drel='r6:apane' posn='80' name='hamAre' chunkId='NP4' chunkType='head:NP4'>
9	apane	PRP	<fs af='apanA,pn,m,any,any,o,0,0' drel='r6:baccoM' posn='90' name='apane' chunkId='NP5' chunkType='head:NP5'>
10	baccoM	NN	<fs af='baccA,n,m,pl,3,o,0_kA,0' drel='r6:mAmalA' posn='100' vpos='vib_2' name='baccoM' chunkId='NP6' chunkType='head:NP6'>
11	kA	PSP	<fs af='kA,psp,m,sg,,d,,' posn='110' drel='lwg__psp:baccoM' chunkType='child:NP6' name='kA'>
12	mAmalA	NN	<fs af='mAmalA,n,m,sg,3,d,0,0' drel='k1s:hE' posn='120' name='mAmalA' chunkId='NP7' chunkType='head:NP7'>
13	hE	VM	<fs af='hE,v,any,sg,3,,hE,hE' drel='ccof:ki' stype='declarative' posn='130' voicetype='active' name='hE' chunkId='VGF2' chunkType='head:VGF2'>
14	.	SYM	<fs af='.,punc,,,,,,' drel='rsym:kahA' posn='140' name='.' chunkId='BLK' chunkType='head:BLK'>
</Sentence>


<Sentence id="4">
1	hama	PRP	<fs af='hama,pn,any,pl,1,d,0,0' drel='k1:kara' posn='10' name='hama' chunkId='NP' chunkType='head:NP'>
2	EsA	PRP	<fs af='EsA,pn,m,sg,any,d,0,0' drel='adv:kara' posn='20' name='EsA' chunkId='NP2' chunkType='head:NP2'>
3	kara	VM	<fs af='kara,v,m,pl,any,,0_saka+wA_hE,0' drel='ccof:Ora' stype='declarative' posn='30' voicetype='active' vpos='tam_2_3' name='kara' chunkId='VGF' chunkType='head:VGF'>
4	sakawe	VAUX	<fs af='saka,v,m,pl,any,,wA,wA' posn='40' drel='lwg__vaux:kara' chunkType='child:VGF' name='sakawe'>
5	hEM	VAUX	<fs af='hE,v,any,pl,any,,hE,hE' posn='50' drel='lwg__vaux:kara' chunkType='child:VGF' name='hEM'>
6	Ora	CC	<fs af='Ora,avy,,,,,,' posn='60' name='Ora' chunkId='CCP' chunkType='head:CCP'>
7	hameM	PRP	<fs af='hama,pn,any,pl,1,o,ko,ko' drel='k1:karanA' posn='70' name='hameM' chunkId='NP3' chunkType='head:NP3'>
8	EsA	PRP	<fs af='EsA,pn,m,sg,any,d,0,0' drel='adv:karanA' posn='80' name='EsA2' chunkId='NP4' chunkType='head:NP4'>
9	karanA	VM	<fs af='kara,v,m,any,any,,nA_cAhie,nA' drel='ccof:Ora' stype='declarative' posn='90' voicetype='active' vpos='tam_2' name='karanA' chunkId='VGF2' chunkType='head:VGF2'>
10	cAhie	VAUX	<fs af='cAhie,v,any,any,any,,0,0' posn='100' hon='y' drel='lwg__vaux:karanA' chunkType='child:VGF2' name='cAhie'>
11	.	SYM	<fs af='.,punc,,,,,,' drel='rsym:Ora' posn='110' name='.' chunkId='BLK' chunkType='head:BLK'>
</Sentence>


<Sentence id="5">
1	yaha	DEM	<fs af='yaha,pn,any,sg,3,d,,' posn='10' drel='nmod__adj:saba' chunkType='child:NP' name='yaha'>
2	saba	PRP	<fs af='saba,pn,any,pl,3,d,0,0' drel='k1:ho' posn='20' name='saba' chunkId='NP' chunkType='head:NP'>
3	hamArI	PRP	<fs af='hama,pn,f,any,1,o,kA,kA' drel='r6:prawibaxXawA' posn='30' name='hamArI' chunkId='NP2' chunkType='head:NP2'>
4	prawibaxXawA	NN	<fs af='prawibaxXawA,n,f,sg,3,o,0,0' drel='ccof:Ora' posn='40' name='prawibaxXawA' chunkId='NP3' chunkType='head:NP3'>
5	,	SYM	<fs af='COMMA,punc,,,,,,' posn='50' drel='rsym:prawibaxXawA' chunkType='child:NP3' name=','>
6	Srama	NN	<fs af='Srama,n,m,sg,3,o,0,0' drel='ccof:Ora' posn='60' name='Srama' chunkId='NP4' chunkType='head:NP4'>
7	Ora	CC	<fs af='Ora,avy,,,,,,' drel='k3:ho' posn='70' name='Ora' chunkId='CCP' chunkType='head:CCP'>
8	prayAsoM	NN	<fs af='prayAsa,n,m,pl,3,o,0_se,0' drel='ccof:Ora' posn='80' vpos='vib_2' name='prayAsoM' chunkId='NP5' chunkType='head:NP5'>
9	se	PSP	<fs af='se,psp,,,,,,' posn='90' drel='lwg__psp:prayAsoM' chunkType='child:NP5' name='se'>
10	saMBava	JJ	<fs af='saMBava,adj,any,any,,,,' drel='pof:ho' posn='100' name='saMBava' chunkId='JJP' chunkType='head:JJP'>
11	ho	VM	<fs af='ho,v,any,sg,3,,0_saka+gA,0' stype='declarative' posn='110' voicetype='active' vpos='tam_2' name='ho' chunkId='VGF' chunkType='head:VGF'>
12	sakegA	VAUX	<fs af='saka,v,m,sg,3,,gA,gA' posn='120' drel='lwg__vaux:ho' chunkType='child:VGF' name='sakegA'>
13	.	SYM	<fs af='.,punc,,,,,,' drel='rsym:ho' posn='130' name='.' chunkId='BLK' chunkType='head:BLK'>
</Sentence>


<Sentence id="6">
1	unhoMne	PRP	<fs af='vaha,pn,any,sg,3h,o,ne,ne' drel='k1:kahA' posn='10' name='unhoMne' chunkId='NP' chunkType='head:NP'>
2	kahA	VM	<fs af='kaha,v,m,sg,any,,yA,yA' stype='declarative' posn='20' voicetype='active' name='kahA' chunkId='VGF' chunkType='head:VGF'>
3	ki	CC	<fs af='ki,avy,,,,,,' drel='k2:kahA' posn='30' name='ki' chunkId='CCP' chunkType='head:CCP'>
4	isa	DEM	<fs af='yaha,pn,any,sg,3,o,,' posn='40' drel='nmod__adj:lakRya' chunkType='child:NP2' name='isa'>
5	lakRya	NN	<fs af='lakRya,n,m,sg,3,o,0_ko,0' drel='k2:pAne' posn='50' vpos='vib_3' name='lakRya' chunkId='NP2' chunkType='head:NP2'>
6	ko	PSP	<fs af='ko,psp,,,,,,' posn='60' drel='lwg__psp:lakRya' chunkType='child:NP2' name='ko'>
7	pAne	VM	<fs af='pA,v,any,any,any,o,nA_ke_lie,nA' drel='rt:karane' posn='70' vpos='tam_2_3' name='pAne' chunkId='VGNN' chunkType='head:VGNN'>
8	ke	PSP	<fs af='ke,psp,,,,,,' posn='80' drel='lwg__psp:pAne' chunkType='child:VGNN' name='ke'>
9	lie	PSP	<fs af='lie,psp,,,,,,' posn='90' drel='lwg__psp:pAne' chunkType='child:VGNN' name='lie'>
10	hameM	PRP	<fs af='hama,pn,any,pl,1,o,ko,ko' drel='k1:karane' posn='100' name='hameM' chunkId='NP3' chunkType='head:NP3'>
11	sarvaSreRTa	JJ	<fs af='sarvaSreRTa,adj,any,any,,d,,' posn='110' drel='nmod__adj:prayAsa' chunkType='child:NP4' name='sarvaSreRTa'>
12	prayAsa	NN	<fs af='prayAsa,n,m,pl,3,d,0,0' drel='pof:karane' posn='120' name='prayAsa' chunkId='NP4' chunkType='head:NP4'>
13	karane	VM	<fs af='kara,v,m,pl,3,,nA_ho+gA,nA' drel='ccof:ki' stype='declarative' posn='130' voicetype='active' vpos='tam_2' name='karane' chunkId='VGF2' chunkType='head:VGF2'>
14	hoMge	VAUX	<fs af='ho,v,m,pl,3,,gA,gA' posn='140' drel='lwg__vaux:karane' chunkType='child:VGF2' name='hoMge'>
15	.	SYM	<fs af='.,punc,,,,,,' drel='rsym:kahA' posn='150' name='.' chunkId='BLK' chunkType='head:BLK'>
</Sentence>


<Sentence id="7">
1	yaha	PRP	<fs af='yaha,pn,any,sg,3,d,0,0' drel='k1:hE' posn='10' name='yaha' chunkId='NP' chunkType='head:NP'>
2	apanI	PRP	<fs af='apanA,pn,f,any,any,o,0,0' drel='r6:prawibaxXawA' posn='20' name='apanI' chunkId='NP2' chunkType='head:NP2'>
3	prawibaxXawA	NN	<fs af='prawibaxXawA,n,f,sg,3,o,0_ko,0' drel='k2:karane' posn='30' vpos='vib_2' name='prawibaxXawA' chunkId='NP3' chunkType='head:NP3'>
4	ko	PSP	<fs af='ko,psp,,,,,,' posn='40' drel='lwg__psp:prawibaxXawA' chunkType='child:NP3' name='ko'>
5	jZAhira	JJ	<fs af='jAhira,adj,any,any,,,,' drel='pof:karane' posn='50' name='jZAhira' chunkId='JJP' chunkType='head:JJP'>
6	karane	VM	<fs af='kara,v,any,any,any,o,nA,nA' drel='ccof:Ora' posn='60' name='karane' chunkId='VGNN' chunkType='head:VGNN'>
7	Ora	CC	<fs af='Ora,avy,,,,,,' drel='r6:mOkA' posn='70' name='Ora' chunkId='CCP' chunkType='head:CCP'>
8	xuniyA	NN	<fs af='xuniyA,n,f,sg,3,o,0_kA,0' drel='r6:lokawaMwra' posn='80' vpos='vib_2' name='xuniyA' chunkId='NP4' chunkType='head:NP4'>
9	ke	PSP	<fs af='kA,psp,m,sg,,o,,' posn='90' drel='lwg__psp:xuniyA' chunkType='child:NP4' name='ke'>
10	sabase	INTF	<fs af='sabase,avy,,,,,,' posn='100' drel='jjmod__intf:badZe' chunkType='child:NP5' name='sabase'>
11	badZe	JJ	<fs af='badA,adj,m,sg,,o,,' posn='110' drel='nmod__adj:lokawaMwra' chunkType='child:NP5' name='badZe'>
12	lokawaMwra	NN	<fs af='lokawaMwra,n,m,sg,3,o,0_kA,0' drel='r6:BUmi' posn='120' vpos='vib_4' name='lokawaMwra' chunkId='NP5' chunkType='head:NP5'>
13	kI	PSP	<fs af='kA,psp,f,sg,,o,,' posn='130' drel='lwg__psp:lokawaMwra' chunkType='child:NP5' name='kI'>
14	BUmi	NN	<fs af='BUmi,n,f,sg,3,o,0_para,0' drel='k7:hone' posn='140' vpos='vib_2' name='BUmi' chunkId='NP6' chunkType='head:NP6'>
15	para	PSP	<fs af='para,psp,,,,,,' posn='150' drel='lwg__psp:BUmi' chunkType='child:NP6' name='para'>
16	apanI	PRP	<fs af='apanA,pn,f,any,any,o,0,0' drel='r6:prawibaxXawA2' posn='160' name='apanI2' chunkId='NP7' chunkType='head:NP7'>
17	prawibaxXawA	NN	<fs af='prawibaxXawA,n,f,sg,3,o,0_ke_prawi,0' drel='k2:hone' posn='170' vpos='vib_2_3' name='prawibaxXawA2' chunkId='NP8' chunkType='head:NP8'>
18	ke	PSP	<fs af='ke,psp,,,,,,' posn='180' drel='lwg__psp:prawibaxXawA2' chunkType='child:NP8' name='ke2'>
19	prawi	PSP	<fs af='prawi,psp,,,,,,' posn='190' drel='lwg__psp:prawibaxXawA2' chunkType='child:NP8' name='prawi'>
20	samarpiwa	JJ	<fs af='samarpiwa,adj,any,any,,,,' drel='pof:hone' posn='200' name='samarpiwa' chunkId='JJP2' chunkType='head:JJP2'>
21	hone	VM	<fs af='ho,v,any,sg,any,o,nA_kA,nA' drel='ccof:Ora' posn='210' vpos='tam_2' name='hone' chunkId='VGNN2' chunkType='head:VGNN2'>
22	kA	PSP	<fs af='kA,psp,m,sg,,d,,' posn='220' drel='lwg__psp:hone' chunkType='child:VGNN2' name='kA'>
23	mOkA	NN	<fs af='mOkA,n,m,sg,3,d,0,0' drel='k1s:hE' posn='230' name='mOkA' chunkId='NP9' chunkType='head:NP9'>
24	hE	VM	<fs af='hE,v,any,sg,3,,hE,hE' stype='declarative' posn='240' voicetype='active' name='hE' chunkId='VGF' chunkType='head:VGF'>
25	.	SYM	<fs af='.,punc,,,,,,' drel='rsym:hE' posn='250' name='.' chunkId='BLK' chunkType='head:BLK'>
</Sentence>


<Sentence id="8">
1	isake	PRP	<fs af='yaha,pn,any,sg,3,o,0_lie,ke' drel='rt:karanI' posn='10' vpos='vib_2' name='isake' chunkId='NP' chunkType='head:NP'>
2	lie	PSP	<fs af='lie,psp,,,,,,' posn='20' drel='lwg__psp:isake' chunkType='child:NP' name='lie'>
3	hameM	PRP	<fs af='hama,pn,any,pl,1,o,ko,ko' drel='k1:karanI' posn='30' name='hameM' chunkId='NP2' chunkType='head:NP2'>
4	hara	QF	<fs af='hara,avy,,,,,,' posn='40' drel='nmod__adj:vyakwi' chunkType='child:NP3' name='hara'>
5	vyakwi	NN	<fs af='vyakwi,n,m,sg,3,o,0_ke_lie,0' drel='rt:karanI' posn='50' vpos='vib_3_4' name='vyakwi' chunkId='NP3' chunkType='head:NP3'>
6	ke	PSP	<fs af='ke,psp,,,,,,' posn='60' drel='lwg__psp:vyakwi' chunkType='child:NP3' name='ke'>
7	lie	PSP	<fs af='lie,psp,,,,,,' posn='70' drel='lwg__psp:vyakwi' chunkType='child:NP3' name='lie2'>
8	eka	QC	<fs af='eka,num,any,any,,any,,' posn='80' drel='nmod__adj:yojanA' chunkType='child:NP4' name='eka'>
9	kArya	NNC	<fs af='kArya,n,m,sg,3,d,0,0' posn='90' drel='pof__cn:yojanA' chunkType='child:NP4' name='kArya'>
10	-	SYM	<fs af='-,punc,,,,,,' posn='100' drel='pof__cn:yojanA' chunkType='child:NP4' name='-'>
11	yojanA	NN	<fs af='yojanA,n,f,sg,3,d,0,0' drel='k2:karanI' posn='110' name='yojanA' chunkId='NP4' chunkType='head:NP4'>
12	wEyAra	JJ	<fs af='wEyAra,adj,any,any,,,,' drel='pof:karanI' posn='120' name='wEyAra' chunkId='JJP' chunkType='head:JJP'>
13	karanI	VM	<fs af='kara,v,f,sg,3,,nA_ho+gA,nA' stype='declarative' posn='130' voicetype='active' vpos='tam_2' name='karanI' chunkId='VGF' chunkType='head:VGF'>
14	hogI	VAUX	<fs af='ho,v,f,sg,3,,gA,gA' posn='140' drel='lwg__vaux:karanI' chunkType='child:VGF' name='hogI'>
15	,	SYM	<fs af='COMMA,punc,,,,,,' posn='150' drel='rsym:karanI' chunkType='child:VGF' name=','>
16	jise	PRP	<fs af='jo,pn,any,sg,3,o,ko,ko' drel='k2:kiyA' posn='160' coref=':NP4' name='jise' chunkId='NP5' chunkType='head:NP5'>
17	lAgU	JJ	<fs af='lAgU,adj,any,any,,,,' drel='pof:kiyA' posn='170' name='lAgU' chunkId='JJP2' chunkType='head:JJP2'>
18	kiyA	VM	<fs af='kara,v,m,any,any,,yA_jA+nA_cAhie,yA' drel='nmod__relc:yojanA' stype='declarative' posn='180' voicetype='active' vpos='tam_2_3' name='kiyA' chunkId='VGF2' chunkType='head:VGF2'>
19	jAnA	VAUX	<fs af='jA,v,m,sg,any,,nA,nA' posn='190' drel='lwg__vaux:kiyA' chunkType='child:VGF2' name='jAnA'>
20	cAhie	VAUX	<fs af='cAhie,v,any,any,any,,0,0' posn='200' hon='y' drel='lwg__vaux:kiyA' chunkType='child:VGF2' name='cAhie'>
21	.	SYM	<fs af='.,punc,,,,,,' drel='rsym:karanI' posn='210' name='.' chunkId='BLK' chunkType='head:BLK'>
</Sentence>


<Sentence id="9">
1	siMha	NNP	<fs af='siMha,n,m,sg,3,o,0_ne,0' drel='k1:kahA' posn='10' vpos='vib_2' name='siMha' chunkId='NP' chunkType='head:NP'>
2	ne	PSP	<fs af='ne,psp,,,,,,' posn='20' drel='lwg__psp:siMha' chunkType='child:NP' name='ne'>
3	kahA	VM	<fs af='kaha,v,m,sg,any,,yA,yA' stype='declarative' posn='30' voicetype='active' name='kahA' chunkId='VGF' chunkType='head:VGF'>
4	ki	CC	<fs af='ki,avy,,,,,,' drel='k2:kahA' posn='40' name='ki' chunkId='CCP' chunkType='head:CCP'>
5	kevala	RP	<fs af='kevala,avy,,,,,,' posn='50' drel='lwg__rp:yojanA' chunkType='child:NP2' name='kevala'>
6	sahI	JJ	<fs af='sahI,adj,any,any,,o,,' posn='60' drel='nmod__adj:yojanA' chunkType='child:NP2' name='sahI'>
7	yojanA	NN	<fs af='yojanA,n,f,sg,3,o,0_se,0' drel='k3:pAyA' posn='70' vpos='vib_4_RP' name='yojanA' chunkId='NP2' chunkType='head:NP2'>
8	se	PSP	<fs af='se,psp,,,,,,' posn='80' drel='lwg__psp:yojanA' chunkType='child:NP2' name='se'>
9	hI	RP	<fs af='hI,avy,,,,,,' posn='90' drel='lwg__rp:yojanA' chunkType='child:NP2' name='hI'>
10	lakRya	NN	<fs af='lakRya,n,m,sg,3,d,0,0' drel='k2:pAyA' posn='100' name='lakRya' chunkId='NP3' chunkType='head:NP3'>
11	pAyA	VM	<fs af='pA,v,m,sg,3,,yA_jA_saka+wA_hE,yA' drel='ccof:Ora' stype='declarative' posn='110' voicetype='active' vpos='tam_2_3_4' name='pAyA' chunkId='VGF2' chunkType='head:VGF2'>
12	jA	VAUX	<fs af='jA,v,any,any,any,,0,0' posn='120' drel='lwg__vaux:pAyA' chunkType='child:VGF2' name='jA'>
13	sakawA	VAUX	<fs af='saka,v,m,sg,any,,wA,wA' posn='130' drel='lwg__vaux:pAyA' chunkType='child:VGF2' name='sakawA'>
14	hE	VAUX	<fs af='hE,v,any,sg,3,,hE,hE' posn='140' drel='lwg__vaux:pAyA' chunkType='child:VGF2' name='hE'>
15	Ora	CC	<fs af='Ora,avy,,,,,,' drel='ccof:ki' posn='150' name='Ora' chunkId='CCP2' chunkType='head:CCP2'>
16	prayAsoM	NN	<fs af='prayAsa,n,m,pl,3,o,0_kA,0' drel='r6:nawIjA' posn='160' vpos='vib_2' name='prayAsoM' chunkId='NP4' chunkType='head:NP4'>
17	kA	PSP	<fs af='kA,psp,m,sg,,d,,' posn='170' drel='lwg__psp:prayAsoM' chunkType='child:NP4' name='kA'>
18	nawIjA	NN	<fs af='nawIjA,n,m,sg,3,d,0,0' drel='k1:milegA' posn='180' name='nawIjA' chunkId='NP5' chunkType='head:NP5'>
19	milegA	VM	<fs af='mila,v,m,sg,3,,gA,gA' drel='ccof:Ora' stype='declarative' posn='190' voicetype='active' name='milegA' chunkId='VGF3' chunkType='head:VGF3'>
20	.	SYM	<fs af='.,punc,,,,,,' drel='rsym:kahA' posn='200' name='.' chunkId='BLK' chunkType='head:BLK'>
</Sentence>


<Sentence id="10">
1	unhoMne	PRP	<fs af='vaha,pn,any,sg,3h,o,ne,ne' drel='k1:kahA' posn='10' name='unhoMne' chunkId='NP' chunkType='head:NP'>
2	kahA	VM	<fs af='kaha,v,m,sg,any,,yA,yA' stype='declarative' posn='20' voicetype='active' name='kahA' chunkId='VGF' chunkType='head:VGF'>
3	ki	CC	<fs af='ki,avy,,,,,,' drel='k2:kahA' posn='30' name='ki' chunkId='CCP' chunkType='head:CCP'>
4	yaha	PRP	<fs af='yaha,pn,any,sg,3,d,0,0' drel='k1:kiyA' posn='40' name='yaha' chunkId='NP2' chunkType='head:NP2'>
5	AMgana	NNC	<fs af='AMgana,n,m,sg,3,d,0,0' posn='50' drel='pof__cn:keMxroM' chunkType='child:NP3' name='AMgana'>
6	-	SYM	<fs af='-,punc,,,,,,' posn='60' drel='pof__cn:keMxroM' chunkType='child:NP3' name='-'>
7	bAdZI	NNC	<fs af='bAdI,n,f,sg,3,d,0,0' posn='70' drel='pof__cn:keMxroM' chunkType='child:NP3' name='bAdZI'>
8	keMxroM	NN	<fs af='keMxra,n,m,pl,3,o,0_se,0' drel='k5:kiyA' posn='80' vpos='vib_5' name='keMxroM' chunkId='NP3' chunkType='head:NP3'>
9	se	PSP	<fs af='se,psp,,,,,,' posn='90' drel='lwg__psp:keMxroM' chunkType='child:NP3' name='se'>
10	jiloM	NN	<fs af='jilA,n,m,pl,3,o,0,0' drel='ccof:Ora' posn='100' name='jiloM' chunkId='NP4' chunkType='head:NP4'>
11	,	SYM	<fs af='COMMA,punc,,,,,,' posn='110' drel='rsym:jiloM' chunkType='child:NP4' name=','>
12	rAjyoM	NN	<fs af='rAjya,n,m,pl,3,o,0,0' drel='ccof:Ora' posn='120' name='rAjyoM' chunkId='NP5' chunkType='head:NP5'>
13	Ora	CC	<fs af='Ora,avy,,,,,,' drel='k7p:kiyA' posn='130' name='Ora' chunkId='CCP2' chunkType='head:CCP2'>
14	keMxra	NNC	<fs af='keMxra,n,m,sg,3,d,0,0' posn='140' drel='pof__cn:swara' chunkType='child:NP6' name='keMxra'>
15	swara	NN	<fs af='swara,n,m,sg,3,o,0_para,0' drel='ccof:Ora' posn='150' vpos='vib_3' name='swara' chunkId='NP6' chunkType='head:NP6'>
16	para	PSP	<fs af='para,psp,,,,,,' posn='160' drel='lwg__psp:swara' chunkType='child:NP6' name='para'>
17	lAgU	JJ	<fs af='lAgU,adj,any,any,,,,' drel='pof:kiyA' posn='170' name='lAgU' chunkId='JJP' chunkType='head:JJP'>
18	kiyA	VM	<fs af='kara,v,m,any,any,,yA_jA+nA_cAhie,yA' drel='ccof:ki' stype='declarative' posn='180' voicetype='active' vpos='tam_2_3' name='kiyA' chunkId='VGF2' chunkType='head:VGF2'>
19	jAnA	VAUX	<fs af='jA,v,m,sg,any,,nA,nA' posn='190' drel='lwg__vaux:kiyA' chunkType='child:VGF2' name='jAnA'>
20	cAhie	VAUX	<fs af='cAhie,v,any,any,any,,0,0' posn='200' hon='y' drel='lwg__vaux:kiyA' chunkType='child:VGF2' name='cAhie'>
21	.	SYM	<fs af='.,punc,,,,,,' drel='rsym:kahA' posn='210' name='.' chunkId='BLK' chunkType='head:BLK'>
</Sentence>


<Sentence id="11">
1	unhoMne	PRP	<fs af='vaha,pn,any,sg,3h,o,ne,ne' drel='k1:kahA' posn='10' name='unhoMne' chunkId='NP' chunkType='head:NP'>
2	kahA	VM	<fs af='kaha,v,m,sg,any,,yA,yA' stype='declarative' posn='20' voicetype='active' name='kahA' chunkId='VGF' chunkType='head:VGF'>
3	ki	CC	<fs af='ki,avy,,,,,,' drel='k2:kahA' posn='30' name='ki' chunkId='CCP' chunkType='head:CCP'>
4	eka	QC	<fs af='eka,num,any,any,,any,,' posn='40' drel='nmod__adj:warIkA' chunkType='child:NP2' name='eka'>
5	EsA	DEM	<fs af='EsA,pn,m,sg,any,d,,' posn='50' drel='nmod__adj:warIkA' chunkType='child:NP2' name='EsA'>
6	warIkA	NN	<fs af='warIkA,n,m,sg,3,d,0,0' drel='k2:kiyA' posn='60' name='warIkA' chunkId='NP2' chunkType='head:NP2'>
7	wEyAra	JJ	<fs af='wEyAra,adj,any,any,,,,' drel='pof:kiyA' posn='70' name='wEyAra' chunkId='JJP' chunkType='head:JJP'>
8	kiyA	VM	<fs af='kara,v,m,any,any,,yA_jA+nA_cAhie,yA' drel='ccof:ki' stype='declarative' posn='80' voicetype='active' vpos='tam_2_3' name='kiyA' chunkId='VGF2' chunkType='head:VGF2'>
9	jAnA	VAUX	<fs af='jA,v,m,sg,any,,nA,nA' posn='90' drel='lwg__vaux:kiyA' chunkType='child:VGF2' name='jAnA'>
10	cAhie	VAUX	<fs af='cAhie,v,any,any,any,,0,0' posn='100' hon='y' drel='lwg__vaux:kiyA' chunkType='child:VGF2' name='cAhie'>
11	jo	PRP	<fs af='jo,pn,any,sg,3,d,0,0' drel='k1:xe' posn='110' coref=':NP2' name='jo' chunkId='NP3' chunkType='head:NP3'>
12	isa	DEM	<fs af='yaha,pn,any,sg,3,o,,' posn='120' drel='nmod__adj:bAwa' chunkType='child:NP4' name='isa'>
13	bAwa	NN	<fs af='bAwa,n,f,sg,3,o,0_kA,0' drel='r6:jAnakArI' posn='130' vpos='vib_3' name='bAwa' chunkId='NP4' chunkType='head:NP4'>
14	kI	PSP	<fs af='kA,psp,f,sg,,d,,' posn='140' drel='lwg__psp:bAwa' chunkType='child:NP4' name='kI'>
15	jAnakArI	NN	<fs af='jAnakArI,n,f,sg,3,d,0,0' drel='k2:xe' posn='150' name='jAnakArI' chunkId='NP5' chunkType='head:NP5'>
16	xe	VM	<fs af='xe,v,any,sg,3,,0_saka+eM,0' drel='nmod__relc:warIkA' stype='declarative' posn='160' voicetype='active' vpos='tam_2' name='xe' chunkId='VGF3' chunkType='head:VGF3'>
17	sake	VAUX	<fs af='saka,v,any,sg,3,,eM,eM' posn='170' drel='lwg__vaux:xe' chunkType='child:VGF3' name='sake'>
18	ki	CC	<fs af='ki,avy,,,,,,' drel='rs:bAwa' posn='180' name='ki2' chunkId='CCP2' chunkType='head:CCP2'>
19	hama	PRP	<fs af='hama,pn,any,pl,1,d,0,0' drel='k1:hEM' posn='190' name='hama' chunkId='NP6' chunkType='head:NP6'>
20	kahAz	WQ	<fs af='kahAz,pn,,,,d,,' drel='k7:hEM' posn='200' name='kahAz' chunkId='NP7' chunkType='head:NP7'>
21	galawa	JJ	<fs af='galawa,adj,any,any,,,,' drel='pof:hEM' posn='210' name='galawa' chunkId='JJP2' chunkType='head:JJP2'>
22	hEM	VM	<fs af='hE,v,any,pl,3,,hE,hE' drel='ccof:Ora' stype='declarative' posn='220' voicetype='active' name='hEM' chunkId='VGF4' chunkType='head:VGF4'>
23	Ora	CC	<fs af='Ora,avy,,,,,,' drel='ccof:ki2' posn='230' name='Ora' chunkId='CCP3' chunkType='head:CCP3'>
24	kyA	WQ	<fs af='kyA,pn,,,,,,' posn='240' drel='mod__wq:upAya' chunkType='child:NP8' name='kyA'>
25	sahI	JJ	<fs af='sahI,adj,any,any,,d,,' posn='250' drel='nmod__adj:upAya' chunkType='child:NP8' name='sahI'>
26	upAya	NN	<fs af='upAya,n,m,pl,3,d,0,0' drel='pof:kie' posn='260' name='upAya' chunkId='NP8' chunkType='head:NP8'>
27	kie	VM	<fs af='kara,v,m,any,any,,yA_jA+nA_cAhie,yA' drel='ccof:Ora' stype='interrogative' posn='270' voicetype='active' vpos='tam_2_3' name='kie' chunkId='VGF5' chunkType='head:VGF5'>
28	jAne	VAUX	<fs af='jA,v,m,pl,any,,nA,nA' posn='280' drel='lwg__vaux:kie' chunkType='child:VGF5' name='jAne'>
29	cAhie	VAUX	<fs af='cAhie,v,any,any,any,,0,0' posn='290' hon='y' drel='lwg__vaux:kie' chunkType='child:VGF5' name='cAhie2'>
30	?	SYM	<fs af='.,punc,,,,,,' drel='rsym:kahA' posn='300' name='?' chunkId='BLK' chunkType='head:BLK'>
</Sentence>


<Sentence id="12">
1	rAjyoM	NN	<fs af='rAjya,n,m,pl,3,o,0,0' drel='ccof:Ora' posn='10' name='rAjyoM' chunkId='NP' chunkType='head:NP'>
2	Ora	CC	<fs af='Ora,avy,,,,,,' drel='k1:honA' posn='20' name='Ora' chunkId='CCP' chunkType='head:CCP'>
3	keMxra	NNP	<fs af='keMxra,n,m,sg,3,o,0_ko,0' drel='ccof:Ora' posn='30' vpos='vib_2' name='keMxra' chunkId='NP2' chunkType='head:NP2'>
4	ko	PSP	<fs af='ko,psp,,,,,,' posn='40' drel='lwg__psp:keMxra' chunkType='child:NP2' name='ko'>
5	lagAwAra	RB	<fs af='lagAwAra,adv,,,,,,' drel='adv:honA' posn='50' name='lagAwAra' chunkId='RBP' chunkType='head:RBP'>
6	isa	DEM	<fs af='yaha,pn,any,sg,3,o,,' posn='60' drel='nmod__adj:bAwa' chunkType='child:NP3' name='isa'>
7	bAwa	NN	<fs af='bAwa,n,f,sg,3,o,0_kA,0' drel='r6-k2:ahasAsa' posn='70' vpos='vib_3' name='bAwa' chunkId='NP3' chunkType='head:NP3'>
8	kA	PSP	<fs af='kA,psp,m,sg,,d,,' posn='80' drel='lwg__psp:bAwa' chunkType='child:NP3' name='kA'>
9	ahasAsa	NN	<fs af='ahasAsa,n,m,sg,3,d,0,0' drel='pof:honA' posn='90' name='ahasAsa' chunkId='NP4' chunkType='head:NP4'>
10	honA	VM	<fs af='ho,v,m,any,any,,nA_cAhie,nA' stype='declarative' posn='100' voicetype='active' vpos='tam_2' name='honA' chunkId='VGF' chunkType='head:VGF'>
11	cAhie	VAUX	<fs af='cAhie,v,any,any,any,,0,0' posn='110' hon='y' drel='lwg__vaux:honA' chunkType='child:VGF' name='cAhie'>
12	ki	CC	<fs af='ki,avy,,,,,,' drel='rs:bAwa' posn='120' name='ki' chunkId='CCP2' chunkType='head:CCP2'>
13	lakRya	NN	<fs af='lakRya,n,m,sg,3,o,0_ke_lie,0' drel='rt:kara' posn='130' vpos='vib_2_3' name='lakRya' chunkId='NP5' chunkType='head:NP5'>
14	ke	PSP	<fs af='ke,psp,,,,,,' posn='140' drel='lwg__psp:lakRya' chunkType='child:NP5' name='ke'>
15	lie	PSP	<fs af='lie,psp,,,,,,' posn='150' drel='lwg__psp:lakRya' chunkType='child:NP5' name='lie'>
16	hama	PRP	<fs af='hama,pn,any,pl,1,d,0,0' drel='k1:kara' posn='160' name='hama' chunkId='NP6' chunkType='head:NP6'>
17	kyA	WQ	<fs af='kyA,pn,,,,,,' posn='170' drel='mod__wq:prayAsa' chunkType='child:NP7' name='kyA'>
18	prayAsa	NN	<fs af='prayAsa,n,m,pl,3,d,0,0' drel='pof:kara' posn='180' name='prayAsa' chunkId='NP7' chunkType='head:NP7'>
19	kara	VM	<fs af='kara,v,m,pl,any,,0_raha+yA_hE,0' drel='ccof:ki' stype='interrogative' posn='190' voicetype='active' vpos='tam_2_3' name='kara' chunkId='VGF2' chunkType='head:VGF2'>
20	rahe	VAUX	<fs af='raha,v,m,pl,any,,yA,yA' posn='200' drel='lwg__vaux:kara' chunkType='child:VGF2' name='rahe'>
21	hEM	VAUX	<fs af='hE,v,any,pl,any,,hE,hE' posn='210' drel='lwg__vaux:kara' chunkType='child:VGF2' name='hEM'>
22	?	SYM	<fs af='.,punc,,,,,,' drel='rsym:honA' posn='220' name='?' chunkId='BLK' chunkType='head:BLK'>
</Sentence>


<Sentence id="13">
1	isa	DEM	<fs af='yaha,pn,any,sg,3,o,,' posn='10' drel='nmod__adj:mOke' chunkType='child:NP' name='isa'>
2	mOke	NN	<fs af='mOkA,n,m,sg,3,o,0_para,0' drel='k7:kahA' posn='20' vpos='vib_3' name='mOke' chunkId='NP' chunkType='head:NP'>
3	para	PSP	<fs af='para,psp,,,,,,' posn='30' drel='lwg__psp:mOke' chunkType='child:NP' name='para'>
4	mAnava	NNPC	<fs af='mAnava,n,m,sg,3,d,0,0' posn='40' drel='pof__cn:maMwrI' chunkType='child:NP2' name='mAnava'>
5	saMsAXana	NNPC	<fs af='saMsAXana,n,m,sg,3,d,0,0' posn='50' drel='pof__cn:maMwrI' chunkType='child:NP2' name='saMsAXana'>
6	vikAsa	NNPC	<fs af='vikAsa,n,m,sg,3,d,0,0' posn='60' drel='pof__cn:maMwrI' chunkType='child:NP2' name='vikAsa'>
7	rAjya	NNPC	<fs af='rAjya,n,m,sg,3,d,0,0' posn='70' drel='pof__cn:maMwrI' chunkType='child:NP2' name='rAjya'>
8	maMwrI	NNP	<fs af='maMwrI,n,m,sg,3,d,0,0' posn='80' drel='nmod__adj:siMha' chunkType='child:NP2' name='maMwrI'>
9	kAMwi	NNPC	<fs af='kAMwi,n,m,sg,3,d,0,0' posn='90' drel='pof__cn:siMha' chunkType='child:NP2' name='kAMwi'>
10	siMha	NNP	<fs af='siMha,n,m,sg,3,o,0_ne,0' drel='k1:kahA' posn='100' vpos='vib_vib_8' name='siMha' chunkId='NP2' chunkType='head:NP2'>
11	ne	PSP	<fs af='ne,psp,,,,,,' posn='110' drel='lwg__psp:siMha' chunkType='child:NP2' name='ne'>
12	kahA	VM	<fs af='kaha,v,m,sg,any,,yA,yA' stype='declarative' posn='120' voicetype='active' name='kahA' chunkId='VGF' chunkType='head:VGF'>
13	ki	CC	<fs af='ki,avy,,,,,,' drel='k2:kahA' posn='130' name='ki' chunkId='CCP' chunkType='head:CCP'>
14	pEsA	NN	<fs af='pEsA,n,m,sg,3,d,0,0' drel='k2:karanA' posn='140' name='pEsA' chunkId='NP3' chunkType='head:NP3'>
15	maMjUra	JJ	<fs af='maMjUra,adj,any,any,,,,' drel='pof:karanA' posn='150' name='maMjUra' chunkId='JJP' chunkType='head:JJP'>
16	karanA	VM	<fs af='kara,v,any,any,any,d,nA,nA' drel='k1:hE' posn='160' name='karanA' chunkId='VGNN' chunkType='head:VGNN'>
17	apane	PRPC	<fs af='apanA,pn,m,any,any,d,0,0' posn='170' drel='mod:Apa' chunkType='child:NP4' name='apane'>
18	Apa	PRP	<fs af='Apa,pn,any,any,any,o,0_meM,0' drel='k7:hE' posn='180' vpos='vib_3' name='Apa' chunkId='NP4' chunkType='head:NP4'>
19	meM	PSP	<fs af='meM,psp,,,,,,' posn='190' drel='lwg__psp:Apa' chunkType='child:NP4' name='meM'>
20	paryApwa	JJ	<fs af='paryApwa,adj,any,any,,,,' drel='k1s:hE' posn='200' name='paryApwa' chunkId='JJP2' chunkType='head:JJP2'>
21	nahIM	NEG	<fs af='nahIM,avy,,,,,,' posn='210' drel='lwg__neg:hE' chunkType='child:VGF2' name='nahIM'>
22	hE	VM	<fs af='hE,v,any,sg,3,,hE,hE' drel='ccof:balki' stype='declarative' posn='220' voicetype='active' name='hE' chunkId='VGF2' chunkType='head:VGF2'>
23	,	SYM	<fs af='COMMA,punc,,,,,,' posn='230' drel='rsym:hE' chunkType='child:VGF2' name=','>
24	balki	CC	<fs af='balki,avy,,,,,,' drel='k1s:ki' posn='240' name='balki' chunkId='CCP2' chunkType='head:CCP2'>
25	yaha	PRP	<fs af='yaha,pn,any,sg,3,d,0,0' drel='k2:kiyA' posn='250' name='yaha' chunkId='NP5' chunkType='head:NP5'>
26	suniSciwa	JJ	<fs af='suniSciwa,adj,any,any,,,,' drel='pof:kiyA' posn='260' name='suniSciwa' chunkId='JJP3' chunkType='head:JJP3'>
27	kiyA	VM	<fs af='kara,v,m,any,any,,yA_jA+nA_cAhie,yA' drel='ccof:balki' stype='declarative' posn='270' voicetype='active' vpos='tam_2_3' name='kiyA' chunkId='VGF3' chunkType='head:VGF3'>
28	jAnA	VAUX	<fs af='jA,v,m,sg,any,,nA,nA' posn='280' drel='lwg__vaux:kiyA' chunkType='child:VGF3' name='jAnA'>
29	cAhie	VAUX	<fs af='cAhie,v,any,any,any,,0,0' posn='290' hon='y' drel='lwg__vaux:kiyA' chunkType='child:VGF3' name='cAhie'>
30	ki	CC	<fs af='ki,avy,,,,,,' drel='rs:yaha' posn='300' name='ki2' chunkId='CCP3' chunkType='head:CCP3'>
31	AvaMtana	NN	<fs af='AvaMtana,n,m,sg,3,d,0,0' drel='k1:pahuzce' posn='310' name='AvaMtana' chunkId='NP6' chunkType='head:NP6'>
32	vAswavika	JJ	<fs af='vAswavika,adj,any,any,,o,,' posn='320' drel='nmod__adj:jarUrawamaMxoM' chunkType='child:NP7' name='vAswavika'>
33	jarUrawamaMxoM	NN	<fs af='jarUrawamaMxa,n,m,pl,3,o,0_waka,0' drel='k7:pahuzce' posn='330' vpos='vib_3' name='jarUrawamaMxoM' chunkId='NP7' chunkType='head:NP7'>
34	waka	PSP	<fs af='waka,psp,,,,,,' posn='340' drel='lwg__psp:jarUrawamaMxoM' chunkType='child:NP7' name='waka'>
35	pahuzce	VM	<fs af='pahuzca,v,any,sg,3,,eM,eM' drel='ccof:ki2' stype='declarative' posn='350' voicetype='active' name='pahuzce' chunkId='VGF4' chunkType='head:VGF4'>
36	.	SYM	<fs af='.,punc,,,,,,' drel='rsym:kahA' posn='360' name='.' chunkId='BLK' chunkType='head:BLK'>
</Sentence>


</text>
</tb>
</body>
</document>
