<document id="2496853">
<head>
<title></title>			
<caption>aba sArA jora punarvAsa va mahAmArI rokane para        wIna praBAviwa rAjyoM ke lie xasa-xasa saxasyIya keMxrIya xala  amara ujAlA byUro/ ejeMsiyAM   : naI xillI/ cennaI</caption>			
<language>Hindi </language>			
<author>			
<firstname></firstname>			
<middlename></middlename>			
<lastname></lastname>			
</author>			
<creation>			
<raw_corpus creation_date="" institute_name=""></raw_corpus>			
<annotated_corpus creation_date="07/25/2009" institute_name="IIIT-Hyderabad"></annotated_corpus>			
</creation>			
<domain_name>News Articles </domain_name>			
<distributor>LTRC, IIIT Hyderabad</distributor>			
<source>ISI, Kolkata</source>			
<publication>			
<place>New Delhi</place>			
<date>3/6/2004</date>			
<address>Connaught Place, New Delhi</address>			
<type>Newspaper</type>			
<publisher>			
<name>Amar Ujala</name>			
<url>http://www.amarujala.com</url>			
</publisher>			
</publication>			
<project_description>NSF Hindi/Urdu Dependency Treebanking Project</project_description>			
<availability>			
<format>CML/SSF</format>			
</availability>			
<byte_count>12653</byte_count>			
<word_count>519</word_count>			
<edition_number>1.0</edition_number>			
<encoding_description>			
<original_encoding>ISO 8859</original_encoding>			
<new_encoding>Unicode UTF8</new_encoding>			
</encoding_description>			
<bibliography></bibliography>			
<sentence_marker>.</sentence_marker>			
<normalization>No</normalization>			
<utility_name>cml_tags</utility_name>			

</head>
<body>
<tb number="1" segment="no" bullet="no">
<foreign language="select" writingsystem="LTR"> </foreign>			
<text>
<Sentence id="1">
1	sunAmI	NNP	<fs af='sunAmI,n,f,sg,3,d,0,0' drel='jjmod:praBAviwa' posn='10' name='sunAmI' chunkId='NP' chunkType='head:NP'>
2	praBAviwa	JJ	<fs af='praBAviwa,adj,any,any,,o,,' drel='nmod:rAjyoM' posn='20' name='praBAviwa' chunkId='JJP' chunkType='head:JJP'>
3	rAjyoM	NN	<fs af='rAjya,n,m,pl,3,o,0_meM,0' drel='k7p:hE' posn='30' vpos='vib_2' name='rAjyoM' chunkId='NP2' chunkType='head:NP2'>
4	meM	PSP	<fs af='meM,psp,,,,,,' posn='40' drel='lwg__psp:rAjyoM' chunkType='child:NP2' name='meM'>
5	aba	PRP	<fs af='aba,pn,,,,d,,' drel='k7t:hE' posn='50' name='aba' chunkId='NP3' chunkType='head:NP3'>
6	bacAva	NNPC	<fs af='bacAva,n,m,sg,3,d,0,0' posn='60' drel='pof__cn:aBiyAna' chunkType='child:NP4' name='bacAva'>
7	Ora	NNPC	<fs af='Ora,avy,,,,,,' posn='70' drel='pof__cn:aBiyAna' chunkType='child:NP4' name='Ora'>
8	rAhawa	NNPC	<fs af='rAhawa,n,f,sg,3,d,0,0' posn='80' drel='pof__cn:aBiyAna' chunkType='child:NP4' name='rAhawa'>
9	aBiyAna	NNP	<fs af='aBiyAna,n,m,sg,3,o,0_kA,0' drel='r6:Pokasa' posn='90' vpos='vib_5' name='aBiyAna' chunkId='NP4' chunkType='head:NP4'>
10	kA	PSP	<fs af='kA,psp,m,sg,,d,,' posn='100' drel='lwg__psp:aBiyAna' chunkType='child:NP4' name='kA'>
11	sArA	QF	<fs af='sArA,avy,,,,,,' posn='110' drel='nmod__adj:Pokasa' chunkType='child:NP5' name='sArA'>
12	Pokasa	NN	<fs af='Pokasa,n,m,sg,3,d,0,0' drel='k1:hE' posn='120' name='Pokasa' chunkId='NP5' chunkType='head:NP5'>
13	punarvAsa	NN	<fs af='punarvAsa,n,m,sg,3,o,0,0' drel='ccof:Ora2' posn='130' name='punarvAsa' chunkId='NP6' chunkType='head:NP6'>
14	Ora	CC	<fs af='Ora,avy,,,,,,' drel='k1:rokane' posn='140' name='Ora2' chunkId='CCP' chunkType='head:CCP'>
15	mahAmArI	NN	<fs af='mahAmArI,n,f,sg,3,d,0,0' drel='ccof:Ora2' posn='150' name='mahAmArI' chunkId='NP7' chunkType='head:NP7'>
16	rokane	VM	<fs af='roka,v,any,any,any,o,nA_para,nA' drel='k7:hE' posn='160' vpos='tam_2' name='rokane' chunkId='VGNN' chunkType='head:VGNN'>
17	para	PSP	<fs af='para,psp,,,,,,' posn='170' drel='lwg__psp:rokane' chunkType='child:VGNN' name='para'>
18	hE	VM	<fs af='hE,v,any,sg,3,,hE,hE' stype='declarative' posn='180' voicetype='active' name='hE' chunkId='VGF' chunkType='head:VGF'>
19	.	SYM	<fs af='.,punc,,,,,,' drel='rsym:hE' posn='190' name='.' chunkId='BLK' chunkType='head:BLK'>
</Sentence>


<Sentence id="2">
1	keMxra	NNP	<fs af='keMxra,n,m,sg,3,o,0_ne,0' drel='k1:BejA' posn='10' vpos='vib_2' name='keMxra' chunkId='NP' chunkType='head:NP'>
2	ne	PSP	<fs af='ne,psp,,,,,,' posn='20' drel='lwg__psp:keMxra' chunkType='child:NP' name='ne'>
3	sunAmI	NNP	<fs af='sunAmI,n,f,sg,3,o,0_se,0' drel='nmod:waraha' posn='30' vpos='vib_2' name='sunAmI' chunkId='NP2' chunkType='head:NP2'>
4	se	PSP	<fs af='se,psp,,,,,,' posn='40' drel='lwg__psp:sunAmI' chunkType='child:NP2' name='se'>
5	burI	JJ	<fs af='burA,adj,f,sg,,d,,' posn='50' drel='nmod__adj:waraha' chunkType='child:NP3' name='burI'>
6	waraha	NN	<fs af='waraha,n,f,sg,3,d,0,0' drel='jjmod:praBAviwa' posn='60' name='waraha' chunkId='NP3' chunkType='head:NP3'>
7	praBAviwa	JJ	<fs af='praBAviwa,adj,any,any,,o,,' drel='nmod:nikobAra' posn='70' name='praBAviwa' chunkId='JJP' chunkType='head:JJP'>
8	kAra	NNPC	<fs af='kAra,n,m,sg,3,d,0,0' posn='80' drel='pof__cn:nikobAra' chunkType='child:NP4' name='kAra'>
9	nikobAra	NNP	<fs af='nikobAra,n,m,sg,3,o,0_ke_lie,0' drel='rt:BejA' posn='90' vpos='vib_3_4' name='nikobAra' chunkId='NP4' chunkType='head:NP4'>
10	ke	PSP	<fs af='ke,psp,,,,,,' posn='100' drel='lwg__psp:nikobAra' chunkType='child:NP4' name='ke'>
11	lie	PSP	<fs af='lie,psp,,,,,,' posn='110' drel='lwg__psp:nikobAra' chunkType='child:NP4' name='lie'>
12	ApAwa	JJ	<fs af='ApAwa,adj,any,any,,o,,' posn='120' drel='nmod__adj:suviXAoM' chunkType='child:NP5' name='ApAwa'>
13	cikiwsA	NNC	<fs af='cikiwsA,n,f,sg,3,d,0,0' posn='130' drel='pof__cn:suviXAoM' chunkType='child:NP5' name='cikiwsA'>
14	suviXAoM	NN	<fs af='suviXA,n,f,pl,3,o,0_ke_sAWa,0' drel='ras-k1:BejA' posn='140' vpos='vib_4_5' name='suviXAoM' chunkId='NP5' chunkType='head:NP5'>
15	ke	PSP	<fs af='ke,psp,,,,,,' posn='150' drel='lwg__psp:suviXAoM' chunkType='child:NP5' name='ke2'>
16	sAWa	NST	<fs af='sAWa,nst,m,sg,3,d,,' posn='160' drel='lwg__psp:suviXAoM' chunkType='child:NP5' name='sAWa'>
17	dOYktaroM	NN	<fs af='dOYktara,n,m,pl,3,o,0_kA,0' drel='r6:xala' posn='170' vpos='vib_2' name='dOYktaroM' chunkId='NP6' chunkType='head:NP6'>
18	kA	PSP	<fs af='kA,psp,m,sg,,d,,' posn='180' drel='lwg__psp:dOYktaroM' chunkType='child:NP6' name='kA'>
19	xala	NN	<fs af='xala,n,m,sg,3,d,0,0' drel='k2:BejA' posn='190' name='xala' chunkId='NP7' chunkType='head:NP7'>
20	BejA	VM	<fs af='Beja,v,m,sg,3,,yA_hE,yA' stype='declarative' posn='200' voicetype='active' vpos='tam_2' name='BejA' chunkId='VGF' chunkType='head:VGF'>
21	hE	VAUX	<fs af='hE,v,any,sg,3,,hE,hE' posn='210' drel='lwg__vaux:BejA' chunkType='child:VGF' name='hE'>
22	.	SYM	<fs af='.,punc,,,,,,' drel='rsym:BejA' posn='220' name='.' chunkId='BLK' chunkType='head:BLK'>
</Sentence>


<Sentence id="3">
1	keMxra	NNPC	<fs af='keMxra,n,m,sg,3,d,0,0' posn='10' drel='pof__cn:sarakAra' chunkType='child:NP' name='keMxra'>
2	sarakAra	NNP	<fs af='sarakAra,n,f,sg,3,o,0_ne,0' drel='k1:kiyA' posn='20' vpos='vib_3' name='sarakAra' chunkId='NP' chunkType='head:NP'>
3	ne	PSP	<fs af='ne,psp,,,,,,' posn='30' drel='lwg__psp:sarakAra' chunkType='child:NP' name='ne'>
4	wIna	QC	<fs af='wIna,num,any,any,,any,,' posn='40' drel='nmod__adj:rAjyoM' chunkType='child:NP2' name='wIna'>
5	praBAviwa	JJ	<fs af='praBAviwa,adj,any,any,,o,,' posn='50' drel='nmod__adj:rAjyoM' chunkType='child:NP2' name='praBAviwa'>
6	rAjyoM	NN	<fs af='rAjya,n,m,pl,3,o,0,0' drel='nmod:wamilanAdu' posn='60' name='rAjyoM' chunkId='NP2' chunkType='head:NP2'>
7	wamilanAdu	NNP	<fs af='wamilanAdu,n,m,sg,3,o,0,0' drel='ccof:Ora' posn='70' name='wamilanAdu' chunkId='NP3' chunkType='head:NP3'>
8	,	SYM	<fs af='COMMA,punc,,,,,,' posn='80' drel='rsym:wamilanAdu' chunkType='child:NP3' name=','>
9	AMXra	NNPC	<fs af='AMXra,n,m,sg,3,d,0,0' posn='90' drel='pof__cn:praxeSa' chunkType='child:NP4' name='AMXra'>
10	praxeSa	NNP	<fs af='praxeSa,n,m,sg,3,o,0,0' drel='ccof:Ora' posn='100' name='praxeSa' chunkId='NP4' chunkType='head:NP4'>
11	Ora	CC	<fs af='Ora,avy,,,,,,' drel='rt:kiyA' posn='110' name='Ora' chunkId='CCP' chunkType='head:CCP'>
12	kerala	NNP	<fs af='kerala,n,m,sg,3,o,0_ke_lie,0' drel='ccof:Ora' posn='120' vpos='vib_2_3' name='kerala' chunkId='NP5' chunkType='head:NP5'>
13	ke	PSP	<fs af='ke,psp,,,,,,' posn='130' drel='lwg__psp:kerala' chunkType='child:NP5' name='ke'>
14	lie	PSP	<fs af='lie,psp,,,,,,' posn='140' drel='lwg__psp:kerala' chunkType='child:NP5' name='lie'>
15	ApaxA	NNC	<fs af='ApaxA,n,f,sg,3,d,0,0' posn='150' drel='pof__cn:saciva' chunkType='child:NP6' name='ApaxA'>
16	prabaMXana	NNC	<fs af='prabaMXana,n,m,sg,3,d,0,0' posn='160' drel='pof__cn:saciva' chunkType='child:NP6' name='prabaMXana'>
17	saciva	NN	<fs af='saciva,n,m,sg,3,d,0,0' posn='170' drel='nmod:raswogI' chunkType='child:NP6' name='saciva'>
18	e.	NNPC	<fs af='e.,n,m,sg,3,d,0,0' posn='180' drel='pof__cn:raswogI' chunkType='child:NP6' name='e.'>
19	ke.	NNPC	<fs af='ke.,n,m,sg,3,d,0,0' posn='190' drel='pof__cn:raswogI' chunkType='child:NP6' name='ke.'>
20	raswogI	NNP	<fs af='raswogI,n,any,sg,3,o,0_kA,0' drel='nmod:aXyakRawA' posn='200' vpos='vib_vib_7' name='raswogI' chunkId='NP6' chunkType='head:NP6'>
21	kI	PSP	<fs af='kA,psp,f,sg,,o,,' posn='210' drel='lwg__psp:raswogI' chunkType='child:NP6' name='kI'>
22	aXyakRawA	NN	<fs af='aXyakRawA,n,f,sg,3,o,0_meM,0' drel='k7:kiyA' posn='220' vpos='vib_2' name='aXyakRawA' chunkId='NP7' chunkType='head:NP7'>
23	meM	PSP	<fs af='meM,psp,,,,,,' posn='230' drel='lwg__psp:aXyakRawA' chunkType='child:NP7' name='meM'>
24	xasa	QC	<fs af='xasa,num,any,any,,any,,' posn='240' drel='nmod__adj:xaloM' chunkType='child:NP8' name='xasa'>
25	-	SYM	<fs af='-,punc,,,,,,' posn='250' drel='rsym:xaloM' chunkType='child:NP8' name='-'>
26	xasa	RDP	<fs af='xasa,num,any,any,,any,,' posn='260' drel='pof__redup:-' chunkType='child:NP8' name='xasa2'>
27	saxasyIya	JJ	<fs af='saxasyIya,adj,any,any,,o,,' posn='270' drel='nmod__adj:xaloM' chunkType='child:NP8' name='saxasyIya'>
28	xaloM	NN	<fs af='xala,n,m,pl,3,o,0_kA,0' drel='r6-k2:gaTana' posn='280' vpos='vib_6' name='xaloM' chunkId='NP8' chunkType='head:NP8'>
29	kA	PSP	<fs af='kA,psp,m,sg,,d,,' posn='290' drel='lwg__psp:xaloM' chunkType='child:NP8' name='kA'>
30	gaTana	NN	<fs af='gaTana,n,m,sg,3,d,0,0' drel='pof:kiyA' posn='300' name='gaTana' chunkId='NP9' chunkType='head:NP9'>
31	kiyA	VM	<fs af='kara,v,m,sg,3,,yA_hE,yA' stype='declarative' posn='310' voicetype='active' vpos='tam_2' name='kiyA' chunkId='VGF' chunkType='head:VGF'>
32	hE	VAUX	<fs af='hE,v,any,sg,3,,hE,hE' posn='320' drel='lwg__vaux:kiyA' chunkType='child:VGF' name='hE'>
33	.	SYM	<fs af='.,punc,,,,,,' drel='rsym:kiyA' posn='330' name='.' chunkId='BLK' chunkType='head:BLK'>
</Sentence>


<Sentence id="4">
1	ye	DEM	<fs af='yaha,pn,any,pl,3,d,,' posn='10' drel='nmod__adj:xala' chunkType='child:NP' name='ye'>
2	xala	NN	<fs af='xala,n,m,pl,3,d,0,0' drel='k1:kareMge' posn='20' name='xala' chunkId='NP' chunkType='head:NP'>
3	nukasAna	NN	<fs af='nukasAna,n,m,sg,3,o,0,0' drel='ccof:Ora' posn='30' name='nukasAna' chunkId='NP2' chunkType='head:NP2'>
4	Ora	CC	<fs af='Ora,avy,,,,,,' drel='r6-k2:Akalana' posn='40' name='Ora' chunkId='CCP' chunkType='head:CCP'>
5	punarnirmANa	NN	<fs af='punarnirmANa,n,m,sg,3,o,0_kA,0' drel='ccof:Ora' posn='50' vpos='vib_2' name='punarnirmANa' chunkId='NP3' chunkType='head:NP3'>
6	kA	PSP	<fs af='kA,psp,m,sg,,d,,' posn='60' drel='lwg__psp:punarnirmANa' chunkType='child:NP3' name='kA'>
7	Akalana	NN	<fs af='Akalana,n,m,sg,3,d,0,0' drel='pof:kareMge' posn='70' name='Akalana' chunkId='NP4' chunkType='head:NP4'>
8	kareMge	VM	<fs af='kara,v,m,pl,3,,gA,gA' stype='declarative' posn='80' voicetype='active' name='kareMge' chunkId='VGF' chunkType='head:VGF'>
9	.	SYM	<fs af='.,punc,,,,,,' drel='rsym:kareMge' posn='90' name='.' chunkId='BLK' chunkType='head:BLK'>
</Sentence>


<Sentence id="5">
1	isa	DEM	<fs af='yaha,pn,any,sg,3,o,,' drel='k7t:bulAI' posn='10' name='isa' chunkId='NP' chunkType='head:NP'>
2	bIca	NST	<fs af='bIca,nst,m,sg,3,d,,' posn='20' drel='lwg__psp:isa' chunkType='child:NP' name='bIca'>
3	,	SYM	<fs af='COMMA,punc,,,,,,' posn='30' drel='rsym:isa' chunkType='child:NP' name=','>
4	praXAnamaMwrI	NNP	<fs af='praXAnamaMwrI,n,m,sg,3,d,0,0' posn='40' drel='nmod__adj:siMha' chunkType='child:NP2' name='praXAnamaMwrI'>
5	manamohana	NNPC	<fs af='manamohana,n,m,sg,3,d,0,0' posn='50' drel='pof__cn:siMha' chunkType='child:NP2' name='manamohana'>
6	siMha	NNP	<fs af='siMha,n,m,sg,3,o,0_ne,0' drel='k1:bulAI' posn='60' vpos='vib_vib_4' name='siMha' chunkId='NP2' chunkType='head:NP2'>
7	ne	PSP	<fs af='ne,psp,,,,,,' posn='70' drel='lwg__psp:siMha' chunkType='child:NP2' name='ne'>
8	7	NNPC	<fs af='7,n,any,sg,3,d,0,0' posn='80' drel='pof__cn:janavarI' chunkType='child:NP3' name='7'>
9	janavarI	NNP	<fs af='janavarI,n,f,sg,3,o,0_ko,0' drel='k7t:bulAI' posn='90' vpos='vib_3' name='janavarI' chunkId='NP3' chunkType='head:NP3'>
10	ko	PSP	<fs af='ko,psp,,,,,,' posn='100' drel='lwg__psp:janavarI' chunkType='child:NP3' name='ko'>
11	eka	QC	<fs af='eka,num,any,any,,any,,' posn='110' drel='nmod__adj:bETaka' chunkType='child:NP4' name='eka'>
12	sarvaxalIya	JJ	<fs af='sarvaxalIya,adj,any,any,,d,,' posn='120' drel='nmod__adj:bETaka' chunkType='child:NP4' name='sarvaxalIya'>
13	bETaka	NN	<fs af='bETaka,n,f,sg,3,d,0,0' drel='k2:bulAI' posn='130' name='bETaka' chunkId='NP4' chunkType='head:NP4'>
14	bulAI	VM	<fs af='bulA,v,f,sg,3,,yA_hE,yA' stype='declarative' posn='140' voicetype='active' vpos='tam_2' name='bulAI' chunkId='VGF' chunkType='head:VGF'>
15	hE	VAUX	<fs af='hE,v,any,sg,3,,hE,hE' posn='150' drel='lwg__vaux:bulAI' chunkType='child:VGF' name='hE'>
16	.	SYM	<fs af='.,punc,,,,,,' drel='rsym:bulAI' posn='160' name='.' chunkId='BLK' chunkType='head:BLK'>
</Sentence>


<Sentence id="6">
1	isameM	PRP	<fs af='yaha,pn,any,sg,3,o,meM,meM' drel='k7:xegI' posn='10' name='isameM' chunkId='NP' chunkType='head:NP'>
2	sarakAra	NN	<fs af='sarakAra,n,f,sg,3,d,0,0' drel='k1:xegI' posn='20' name='sarakAra' chunkId='NP2' chunkType='head:NP2'>
3	sunAmI	NNP	<fs af='sunAmI,n,f,sg,3,o,0_kA,0' drel='r6:kahara' posn='30' vpos='vib_2' name='sunAmI' chunkId='NP3' chunkType='head:NP3'>
4	ke	PSP	<fs af='kA,psp,m,sg,,o,,' posn='40' drel='lwg__psp:sunAmI' chunkType='child:NP3' name='ke'>
5	kahara	NN	<fs af='kahara,n,m,sg,3,o,0_se,0' drel='rh:hue' posn='50' vpos='vib_2' name='kahara' chunkId='NP4' chunkType='head:NP4'>
6	se	PSP	<fs af='se,psp,,,,,,' posn='60' drel='lwg__psp:kahara' chunkType='child:NP4' name='se'>
7	hue	VM	<fs af='ho,v,m,sg,any,,yA,yA' drel='nmod__k2inv:nukasAna' posn='70' name='hue' chunkId='VGNF' chunkType='head:VGNF'>
8	nukasAna	NN	<fs af='nukasAna,n,m,sg,3,d,0,0' drel='ccof:waWA' posn='80' name='nukasAna' chunkId='NP5' chunkType='head:NP5'>
9	waWA	CC	<fs af='waWA,avy,,,,,,' drel='r6-k2:jAnakArI' posn='90' name='waWA' chunkId='CCP' chunkType='head:CCP'>
10	rAhawa	NN	<fs af='rAhawa,n,f,sg,3,d,0,0' drel='ccof:va' posn='100' name='rAhawa' chunkId='NP6' chunkType='head:NP6'>
11	va	CC	<fs af='va,avy,,,,,,' drel='nmod:kAryo' posn='110' name='va' chunkId='CCP2' chunkType='head:CCP2'>
12	bacAva	NN	<fs af='bacAva,n,m,sg,3,d,0,0' drel='ccof:va' posn='120' name='bacAva' chunkId='NP7' chunkType='head:NP7'>
13	kAryo	NN	<fs af='kArya,n,m,pl,3,o,0_kA,0' drel='ccof:waWA' posn='130' vpos='vib_2' name='kAryo' chunkId='NP8' chunkType='head:NP8'>
14	kI	PSP	<fs af='kA,psp,f,sg,,d,,' posn='140' drel='lwg__psp:kAryo' chunkType='child:NP8' name='kI'>
15	jAnakArI	NN	<fs af='jAnakArI,n,f,sg,3,d,0,0' drel='pof:xegI' posn='150' name='jAnakArI' chunkId='NP9' chunkType='head:NP9'>
16	vipakRa	NN	<fs af='vipakRa,n,m,sg,3,o,0_samewa,0' drel='ras-k1:xegI' posn='160' vpos='vib_2' name='vipakRa' chunkId='NP10' chunkType='head:NP10'>
17	samewa	PSP	<fs af='samewa,psp,,,,,,' posn='170' drel='lwg__psp:vipakRa' chunkType='child:NP10' name='samewa'>
18	saBI	QF	<fs af='saBI,avy,,,,,,' posn='180' drel='nmod__adj:xaloM' chunkType='child:NP11' name='saBI'>
19	xaloM	NN	<fs af='xala,n,m,pl,3,o,0_ko,0' drel='k4:xegI' posn='190' vpos='vib_3' name='xaloM' chunkId='NP11' chunkType='head:NP11'>
20	ko	PSP	<fs af='ko,psp,,,,,,' posn='200' drel='lwg__psp:xaloM' chunkType='child:NP11' name='ko'>
21	xegI	VM	<fs af='xe,v,f,sg,3,,gA,gA' stype='declarative' posn='210' voicetype='active' name='xegI' chunkId='VGF' chunkType='head:VGF'>
22	.	SYM	<fs af='.,punc,,,,,,' drel='rsym:xegI' posn='220' name='.' chunkId='BLK' chunkType='head:BLK'>
</Sentence>


<Sentence id="7">
1	sUwroM	NN	<fs af='sUwra,n,m,pl,3,o,0_ke_muwAbika,0' drel='k7a:hogA' posn='10' vpos='vib_2_3' name='sUwroM' chunkId='NP' chunkType='head:NP'>
2	ke	PSP	<fs af='ke,psp,,,,,,' posn='20' drel='lwg__psp:sUwroM' chunkType='child:NP' name='ke'>
3	muwAbika	PSP	<fs af='muwAbika,psp,,,,,,' posn='30' drel='lwg__psp:sUwroM' chunkType='child:NP' name='muwAbika'>
4	bETaka	NN	<fs af='bETaka,n,f,sg,3,o,0_meM,0' drel='k7:hogA' posn='40' vpos='vib_2' name='bETaka' chunkId='NP2' chunkType='head:NP2'>
5	meM	PSP	<fs af='meM,psp,,,,,,' posn='50' drel='lwg__psp:bETaka' chunkType='child:NP2' name='meM'>
6	sunAmI	NNP	<fs af='sunAmI,n,f,sg,3,o,0_kA,0' drel='r6:kahara' posn='60' vpos='vib_2' name='sunAmI' chunkId='NP3' chunkType='head:NP3'>
7	ke	PSP	<fs af='kA,psp,m,sg,,o,,' posn='70' drel='lwg__psp:sunAmI' chunkType='child:NP3' name='ke2'>
8	kahara	NN	<fs af='kahara,n,m,sg,3,o,0_ko,0' drel='k2:kie' posn='80' vpos='vib_2' name='kahara' chunkId='NP4' chunkType='head:NP4'>
9	ko	PSP	<fs af='ko,psp,,,,,,' posn='90' drel='lwg__psp:kahara' chunkType='child:NP4' name='ko'>
10	rARtrIya	JJ	<fs af='rARtrIya,adj,any,any,,d,,' posn='100' drel='nmod__adj:ApaxA' chunkType='child:NP5' name='rARtrIya'>
11	ApaxA	NN	<fs af='ApaxA,n,f,sg,3,d,0,0' drel='k2s:kie' posn='110' name='ApaxA' chunkId='NP5' chunkType='head:NP5'>
12	GoRiwa	JJ	<fs af='GoRiwa,adj,any,any,,,,' drel='pof:kie' posn='120' name='GoRiwa' chunkId='JJP' chunkType='head:JJP'>
13	kie	VM	<fs af='kara,v,any,sg,any,,yA_jA+nA_para,yA' drel='k7:hogA' posn='130' vpos='tam_2_3' name='kie' chunkId='VGNN' chunkType='head:VGNN'>
14	jAne	VAUX	<fs af='jA,v,any,any,any,o,nA,nA' posn='140' drel='lwg__vaux:kie' chunkType='child:VGNN' name='jAne'>
15	para	PSP	<fs af='para,psp,,,,,,' posn='150' drel='lwg__psp:kie' chunkType='child:VGNN' name='para'>
16	BI	RP	<fs af='BI,avy,,,,,,' posn='160' drel='lwg__rp:kie' chunkType='child:VGNN' name='BI'>
17	vicAra	NN	<fs af='vicAra,n,m,sg,3,d,0,0' drel='pof:hogA' posn='170' name='vicAra' chunkId='NP6' chunkType='head:NP6'>
18	hogA	VM	<fs af='ho,v,m,sg,3,,gA,gA' stype='declarative' posn='180' voicetype='active' name='hogA' chunkId='VGF' chunkType='head:VGF'>
19	.	SYM	<fs af='.,punc,,,,,,' drel='rsym:hogA' posn='190' name='.' chunkId='BLK' chunkType='head:BLK'>
</Sentence>


<Sentence id="8">
1	isake	PRP	<fs af='yaha,pn,any,sg,3,o,0_alAvA,ke' drel='vmod:hogA' posn='10' vpos='vib_2' name='isake' chunkId='NP' chunkType='head:NP'>
2	alAvA	PSP	<fs af='alAvA,psp,,,,,,' posn='20' drel='lwg__psp:isake' chunkType='child:NP' name='alAvA'>
3	isa	PRP	<fs af='yaha,pn,any,sg,3,o,0_para,0' drel='k7:hogA' posn='30' vpos='vib_2_RP' name='isa' chunkId='NP2' chunkType='head:NP2'>
4	para	PSP	<fs af='para,psp,,,,,,' posn='40' drel='lwg__psp:isa' chunkType='child:NP2' name='para'>
5	BI	RP	<fs af='BI,avy,,,,,,' posn='50' drel='lwg__rp:isa' chunkType='child:NP2' name='BI'>
6	vicAra	NN	<fs af='vicAra,n,m,sg,3,d,0,0' drel='pof:hogA' posn='60' name='vicAra' chunkId='NP3' chunkType='head:NP3'>
7	hogA	VM	<fs af='ho,v,m,sg,3,,gA,gA' stype='declarative' posn='70' voicetype='active' name='hogA' chunkId='VGF' chunkType='head:VGF'>
8	ki	CC	<fs af='ki,avy,,,,,,' drel='rs:isa' posn='80' name='ki' chunkId='CCP' chunkType='head:CCP'>
9	kyA	WQ	<fs af='kyA,adv,,,,,,' drel='adv:manAyA' posn='90' name='kyA' chunkId='RBP' chunkType='head:RBP'>
10	isa	DEM	<fs af='yaha,pn,any,sg,3,o,,' posn='100' drel='nmod__adj:varRa' chunkType='child:NP4' name='isa2'>
11	varRa	NN	<fs af='varRa,n,m,sg,3,d,0,0' drel='k7t:manAyA' posn='110' name='varRa' chunkId='NP4' chunkType='head:NP4'>
12	gaNawaMwra	NNPC	<fs af='gaNawaMwra,n,m,sg,3,d,0,0' posn='120' drel='pof__cn:samAroha' chunkType='child:NP5' name='gaNawaMwra'>
13	samAroha	NNP	<fs af='samAroha,n,m,sg,3,o,0_ko,0' drel='k2:manAyA' posn='130' vpos='vib_3' name='samAroha' chunkId='NP5' chunkType='head:NP5'>
14	ko	PSP	<fs af='ko,psp,,,,,,' posn='140' drel='lwg__psp:samAroha' chunkType='child:NP5' name='ko'>
15	paraMparAgawa	JJ	<fs af='paraMparAgawa,adj,any,any,,o,,' posn='150' drel='nmod__adj:warIke' chunkType='child:NP6' name='paraMparAgawa'>
16	warIke	NN	<fs af='warIkA,n,m,sg,3,o,0_se,0' drel='adv:manAyA' posn='160' vpos='vib_3' name='warIke' chunkId='NP6' chunkType='head:NP6'>
17	se	PSP	<fs af='se,psp,,,,,,' posn='170' drel='lwg__psp:warIke' chunkType='child:NP6' name='se'>
18	manAyA	VM	<fs af='manA,v,m,sg,any,,yA_jA+yA,yA' drel='ccof:yA' stype='declarative' posn='180' voicetype='active' vpos='tam_2' name='manAyA' chunkId='VGF2' chunkType='head:VGF2'>
19	jAe	VAUX	<fs af='jA,v,m,sg,any,,yA,yA' posn='190' drel='lwg__vaux:manAyA' chunkType='child:VGF2' name='jAe'>
20	yA	CC	<fs af='yA,avy,,,,,,' drel='ccof:ki' posn='200' name='yA' chunkId='CCP2' chunkType='head:CCP2'>
21	nahIM	NEG	<fs af='nahIM,avy,,,,,,' drel='vmod:NULL' posn='210' name='nahIM' chunkId='NEGP' chunkType='head:NEGP'>
22	NULL	VM	<fs dmrel='ccof:yA' mtype='gap' troot='manA' voicetype='active' stype='declarative' name='NULL' chunkId='NULL__VGF' chunkType='head:NULL__VGF'>
23	.	SYM	<fs af='.,punc,,,,,,' drel='rsym:hogA' posn='190' name='.' chunkId='BLK' chunkType='head:BLK'>
</Sentence>


<Sentence id="9">
1	NULL	NN	<fs mtype='gap' troot='yaha' dmrel='k2:samaJA' name='NULL' chunkId='NULL__NP' chunkType='head:NULL__NP'>
2	samaJA	VM	<fs af='samaJa,v,m,sg,3,,yA_jA+wA_hE,yA' stype='declarative' posn='10' voicetype='passive' vpos='tam_2_3' name='samaJA' chunkId='VGF' chunkType='head:VGF'>
3	jAwA	VAUX	<fs af='jA,v,m,sg,any,,wA,wA' posn='20' drel='lwg__vaux:samaJA' chunkType='child:VGF' name='jAwA'>
4	hE	VAUX	<fs af='hE,v,any,sg,3,,hE,hE' posn='30' drel='lwg__vaux:samaJA' chunkType='child:VGF' name='hE'>
5	ki	CC	<fs af='ki,avy,,,,,,' drel='rs:NULL' posn='40' name='ki' chunkId='CCP' chunkType='head:CCP'>
6	keMxrIya	NNPC	<fs af='keMxrIya,adj,any,any,,o,,' posn='150' drel='pof__cn:gqhamaMwrI' chunkType='child:NP' name='keMxrIya'>
7	gqhamaMwrI	NNP	<fs af='gqhamaMwrI,n,m,sg,3,d,0,0' posn='60' drel='nmod__adj:pAtila' chunkType='child:NP' name='gqhamaMwrI'>
8	SivarAja	NNPC	<fs af='SivarAja,n,m,sg,3,d,0,0' posn='70' drel='pof__cn:pAtila' chunkType='child:NP' name='SivarAja'>
9	pAtila	NNP	<fs af='pAtila,n,any,sg,3,o,0_ne,0' drel='k1:kiyA' posn='80' vpos='vib_vib_5' name='pAtila' chunkId='NP' chunkType='head:NP'>
10	ne	PSP	<fs af='ne,psp,,,,,,' posn='90' drel='lwg__psp:pAtila' chunkType='child:NP' name='ne'>
11	Aja	NN	<fs af='Aja,n,m,sg,3,d,0,0' posn='100' drel='nmod:SAma' chunkType='child:NP2' name='Aja'>
12	SAma	NN	<fs af='SAma,n,f,sg,3,d,0,0' drel='k7t:kiyA' posn='110' name='SAma' chunkId='NP2' chunkType='head:NP2'>
13	praXAnamaMwrI	NNP	<fs af='praXAnamaMwrI,n,m,sg,3,o,0_ke_sAWa,0' drel='ras-k1:kiyA' posn='120' vpos='vib_2_3' name='praXAnamaMwrI' chunkId='NP3' chunkType='head:NP3'>
14	ke	PSP	<fs af='ke,psp,,,,,,' posn='130' drel='lwg__psp:praXAnamaMwrI' chunkType='child:NP3' name='ke'>
15	sAWa	NST	<fs af='sAWa,nst,m,sg,3,d,,' posn='140' drel='lwg__psp:praXAnamaMwrI' chunkType='child:NP3' name='sAWa'>
16	isa	PRP	<fs af='yaha,pn,any,sg,3,o,0_bAre_meM,0' drel='k7:kiyA' posn='150' vpos='vib_2_3' name='isa' chunkId='NP4' chunkType='head:NP4'>
17	bAre	PSP	<fs af='bAre,psp,,,,,,' posn='160' drel='lwg__psp:isa' chunkType='child:NP4' name='bAre'>
18	meM	PSP	<fs af='meM,psp,,,,,,' posn='170' drel='lwg__psp:isa' chunkType='child:NP4' name='meM'>
19	vicAra	NN	<fs af='vicAra,n,m,sg,3,d,0,0' drel='pof:kiyA' posn='180' name='vicAra' chunkId='NP5' chunkType='head:NP5'>
20	kiyA	VM	<fs af='kara,v,m,sg,any,,yA,yA' drel='ccof:ki' stype='declarative' posn='190' voicetype='active' name='kiyA' chunkId='VGF2' chunkType='head:VGF2'>
21	.	SYM	<fs af='.,punc,,,,,,' drel='rsym:samaJA' posn='200' name='.' chunkId='BLK' chunkType='head:BLK'>
</Sentence>


<Sentence id="10">
1	NULL	NN	<fs mtype='gap' troot='yaha' dmrel='k1:hE' name='NULL' chunkId='NULL__NP' chunkType='head:NULL__NP'>
2	gOrawalaba	JJ	<fs af='gOrawalaba,adj,any,any,,,,' drel='k1s:hE' posn='10' name='gOrawalaba' chunkId='JJP' chunkType='head:JJP'>
3	hE	VM	<fs af='hE,v,any,sg,3,,hE,hE' stype='declarative' posn='20' voicetype='active' name='hE' chunkId='VGF' chunkType='head:VGF'>
4	ki	CC	<fs af='ki,avy,,,,,,' drel='rs:NULL' posn='30' name='ki' chunkId='CCP' chunkType='head:CCP'>
5	manamohana	NNPC	<fs af='manamohana,n,m,sg,3,d,0,0' posn='40' drel='pof__cn:siMha' chunkType='child:NP' name='manamohana'>
6	siMha	NNP	<fs af='siMha,n,m,sg,3,o,0_ne,0' drel='k1:bawAyA' posn='50' vpos='vib_3' name='siMha' chunkId='NP' chunkType='head:NP'>
7	ne	PSP	<fs af='ne,psp,,,,,,' posn='60' drel='lwg__psp:siMha' chunkType='child:NP' name='ne'>
8	isa	DEM	<fs af='yaha,pn,any,sg,3,o,,' posn='70' drel='nmod__adj:ApaxA' chunkType='child:NP2' name='isa'>
9	ApaxA	NN	<fs af='ApaxA,n,f,sg,3,o,0_ko,0' drel='k2:bawAyA' posn='80' vpos='vib_3' name='ApaxA' chunkId='NP2' chunkType='head:NP2'>
10	ko	PSP	<fs af='ko,psp,,,,,,' posn='90' drel='lwg__psp:ApaxA' chunkType='child:NP2' name='ko'>
11	rARtrIya	JJ	<fs af='rARtrIya,adj,any,any,,d,,' posn='100' drel='nmod__adj:ApaxA2' chunkType='child:NP3' name='rARtrIya'>
12	ApaxA	NN	<fs af='ApaxA,n,f,sg,3,d,0,0' drel='k2s:bawAyA' posn='110' name='ApaxA2' chunkId='NP3' chunkType='head:NP3'>
13	bawAyA	VM	<fs af='bawA,v,m,sg,3,,yA_hE,yA' drel='ccof:lekina' stype='declarative' posn='120' voicetype='active' vpos='tam_2' name='bawAyA' chunkId='VGF2' chunkType='head:VGF2'>
14	hE	VAUX	<fs af='hE,v,any,sg,3,,hE,hE' posn='130' drel='lwg__vaux:bawAyA' chunkType='child:VGF2' name='hE2'>
15	,	SYM	<fs af='COMMA,punc,,,,,,' posn='140' drel='rsym:bawAyA' chunkType='child:VGF2' name=','>
16	lekina	CC	<fs af='lekina,avy,,,,,,' drel='ccof:ki' posn='150' name='lekina' chunkId='CCP2' chunkType='head:CCP2'>
17	unhoMne	PRP	<fs af='vaha,pn,any,sg,3h,o,ne,ne' drel='k1:kI' posn='160' name='unhoMne' chunkId='NP4' chunkType='head:NP4'>
18	isakI	PRP	<fs af='yaha,pn,f,sg,3,o,kA,kA' drel='r6-k2:GoRaNA' posn='170' name='isakI' chunkId='NP5' chunkType='head:NP5'>
19	OpacArika	JJ	<fs af='OpacArika,adj,any,any,,d,,' posn='180' drel='nmod__adj:GoRaNA' chunkType='child:NP6' name='OpacArika'>
20	GoRaNA	NN	<fs af='GoRaNA,n,f,sg,3,d,0,0' drel='pof:kI' posn='190' name='GoRaNA' chunkId='NP6' chunkType='head:NP6'>
21	nahIM	NEG	<fs af='nahIM,avy,,,,,,' posn='200' drel='lwg__neg:kI' chunkType='child:VGF3' name='nahIM'>
22	kI	VM	<fs af='kara,v,f,sg,3,,yA_hE,yA' drel='ccof:lekina' stype='declarative' posn='210' voicetype='active' vpos='tam_3' name='kI' chunkId='VGF3' chunkType='head:VGF3'>
23	hE	VAUX	<fs af='hE,v,any,sg,3,,hE,hE' posn='220' drel='lwg__vaux:kI' chunkType='child:VGF3' name='hE3'>
24	.	SYM	<fs af='.,punc,,,,,,' drel='rsym:hE' posn='230' name='.' chunkId='BLK' chunkType='head:BLK'>
</Sentence>


<Sentence id="11">
1	sUwroM	NN	<fs af='sUwra,n,m,pl,3,o,0_ke_muwAbika,0' drel='k7a:kiyA' posn='10' vpos='vib_2_3' name='sUwroM' chunkId='NP' chunkType='head:NP'>
2	ke	PSP	<fs af='ke,psp,,,,,,' posn='20' drel='lwg__psp:sUwroM' chunkType='child:NP' name='ke'>
3	muwAbika	PSP	<fs af='muwAbika,psp,,,,,,' posn='30' drel='lwg__psp:sUwroM' chunkType='child:NP' name='muwAbika'>
4	kEbineta	NNC	<fs af='kEbineta,n,m,sg,3,d,0,0' posn='40' drel='pof__cn:saciva' chunkType='child:NP2' name='kEbineta'>
5	saciva	NN	<fs af='saciva,n,m,sg,3,d,0,0' posn='50' drel='nmod:cawurvexI' chunkType='child:NP2' name='saciva'>
6	bI.	NNPC	<fs af='bI.,n,m,sg,3,d,0,0' posn='60' drel='pof__cn:cawurvexI' chunkType='child:NP2' name='bI.'>
7	ke.	NNPC	<fs af='ke.,n,m,sg,3,d,0,0' posn='70' drel='pof__cn:cawurvexI' chunkType='child:NP2' name='ke.'>
8	cawurvexI	NNP	<fs af='cawurvexI,n,any,sg,3,o,0_kA,0' drel='r6:aXyakRawA' posn='80' vpos='vib_vib_6' name='cawurvexI' chunkId='NP2' chunkType='head:NP2'>
9	kI	PSP	<fs af='kA,psp,f,sg,,o,,' posn='90' drel='lwg__psp:cawurvexI' chunkType='child:NP2' name='kI'>
10	aXyakRawA	NN	<fs af='aXyakRawA,n,f,sg,3,o,0_meM,0' drel='k7:kiyA' posn='100' vpos='vib_2' name='aXyakRawA' chunkId='NP3' chunkType='head:NP3'>
11	meM	PSP	<fs af='meM,psp,,,,,,' posn='110' drel='lwg__psp:aXyakRawA' chunkType='child:NP3' name='meM'>
12	rARtrIya	NNPC	<fs af='rARtrIya,adj,any,any,,o,,' posn='150' drel='pof__cn:samUha' chunkType='child:NP4' name='rARtrIya'>
13	ApaxA	NNPC	<fs af='ApaxA,n,f,sg,3,d,0,0' posn='130' drel='pof__cn:samUha' chunkType='child:NP4' name='ApaxA'>
14	prabaMXana	NNPC	<fs af='prabaMXana,n,m,sg,3,d,0,0' posn='140' drel='pof__cn:samUha' chunkType='child:NP4' name='prabaMXana'>
15	samUha	NNP	<fs af='samUha,n,m,sg,3,o,0_kA,0' drel='r6:bETaka' posn='150' vpos='vib_5' name='samUha' chunkId='NP4' chunkType='head:NP4'>
16	kI	PSP	<fs af='kA,psp,f,sg,,o,,' posn='160' drel='lwg__psp:samUha' chunkType='child:NP4' name='kI2'>
17	bETaka	NN	<fs af='bETaka,n,f,sg,3,o,0_meM,0' drel='k7:kiyA' posn='170' vpos='vib_2' name='bETaka' chunkId='NP5' chunkType='head:NP5'>
18	meM	PSP	<fs af='meM,psp,,,,,,' posn='180' drel='lwg__psp:bETaka' chunkType='child:NP5' name='meM2'>
19	praBAviwa	JJ	<fs af='praBAviwa,adj,any,any,,o,,' posn='190' drel='nmod__adj:rAjyoM' chunkType='child:NP6' name='praBAviwa'>
20	rAjyoM	NN	<fs af='rAjya,n,m,pl,3,o,0_meM,0' drel='k7p:Bejane' posn='200' vpos='vib_3' name='rAjyoM' chunkId='NP6' chunkType='head:NP6'>
21	meM	PSP	<fs af='meM,psp,,,,,,' posn='210' drel='lwg__psp:rAjyoM' chunkType='child:NP6' name='meM3'>
22	keMxrIya	JJ	<fs af='keMxrIya,adj,any,any,,d,,' posn='220' drel='nmod__adj:xala' chunkType='child:NP7' name='keMxrIya'>
23	xala	NN	<fs af='xala,n,m,sg,3,d,0,0' drel='k2:Bejane' posn='230' name='xala' chunkId='NP7' chunkType='head:NP7'>
24	Bejane	VM	<fs af='Beja,v,any,sg,any,o,nA_kA,nA' drel='r6-k2:PEsalA' posn='240' vpos='tam_2' name='Bejane' chunkId='VGNN' chunkType='head:VGNN'>
25	kA	PSP	<fs af='kA,psp,m,sg,,d,,' posn='250' drel='lwg__psp:Bejane' chunkType='child:VGNN' name='kA'>
26	PEsalA	NN	<fs af='PEsalA,n,m,sg,3,d,0,0' drel='pof:kiyA' posn='260' name='PEsalA' chunkId='NP8' chunkType='head:NP8'>
27	kiyA	VM	<fs af='kara,v,m,sg,any,,yA_jA+yA1,yA' stype='declarative' posn='270' voicetype='passive' vpos='tam_2' name='kiyA' chunkId='VGF' chunkType='head:VGF'>
28	gayA	VAUX	<fs af='jA,v,m,sg,any,,yA1,yA1' posn='280' drel='lwg__vaux:kiyA' chunkType='child:VGF' name='gayA'>
29	.	SYM	<fs af='.,punc,,,,,,' drel='rsym:kiyA' posn='290' name='.' chunkId='BLK' chunkType='head:BLK'>
</Sentence>


<Sentence id="12">
1	ye	DEM	<fs af='yaha,pn,any,pl,3,d,,' posn='10' drel='nmod__adj:tIma' chunkType='child:NP' name='ye'>
2	tIma	NN	<fs af='tIma,n,f,pl,3,d,0,0' drel='k1:kareMgI' posn='20' name='tIma' chunkId='NP' chunkType='head:NP'>
3	4	NNPC	<fs af='4,n,any,sg,3,d,0,0' posn='30' drel='pof__cn:janavarI' chunkType='child:NP2' name='4'>
4	janavarI	NNP	<fs af='janavarI,n,f,sg,3,o,0_se,0' drel='k7t:kareMgI' posn='40' vpos='vib_3' name='janavarI' chunkId='NP2' chunkType='head:NP2'>
5	se	PSP	<fs af='se,psp,,,,,,' posn='50' drel='lwg__psp:janavarI' chunkType='child:NP2' name='se'>
6	wInoM	QC	<fs af='wIna,num,any,any,,any,,' posn='60' drel='nmod__adj:rAjyoM' chunkType='child:NP3' name='wInoM'>
7	rAjyoM	NN	<fs af='rAjya,n,m,pl,3,o,0_kA,0' drel='r6:xina' posn='70' vpos='vib_3' name='rAjyoM' chunkId='NP3' chunkType='head:NP3'>
8	kA	PSP	<fs af='kA,psp,m,sg,,d,,' posn='80' drel='lwg__psp:rAjyoM' chunkType='child:NP3' name='kA'>
9	wIna	QC	<fs af='wIna,num,any,any,,any,,' posn='90' drel='nmod__adj:xina' chunkType='child:NP4' name='wIna'>
10	xina	NN	<fs af='xina,n,m,sg,3,o,0_kA,0' drel='r6-k2:xOrA' posn='100' vpos='vib_3' name='xina' chunkId='NP4' chunkType='head:NP4'>
11	kA	PSP	<fs af='kA,psp,m,sg,,d,,' posn='110' drel='lwg__psp:xina' chunkType='child:NP4' name='kA2'>
12	xOrA	NN	<fs af='xOrA,n,m,sg,3,d,0,0' drel='pof:kareMgI' posn='120' name='xOrA' chunkId='NP5' chunkType='head:NP5'>
13	kareMgI	VM	<fs af='kara,v,f,pl,3,,gA,gA' stype='declarative' posn='130' voicetype='active' name='kareMgI' chunkId='VGF' chunkType='head:VGF'>
14	.	SYM	<fs af='.,punc,,,,,,' drel='rsym:kareMgI' posn='140' name='.' chunkId='BLK' chunkType='head:BLK'>
</Sentence>


<Sentence id="13">
1	ina	DEM	<fs af='yaha,pn,any,pl,3,o,,' posn='10' drel='nmod__adj:tImoM' chunkType='child:NP' name='ina'>
2	wInoM	QC	<fs af='wIna,num,any,any,,any,,' posn='20' drel='nmod__adj:tImoM' chunkType='child:NP' name='wInoM'>
3	hI	RP	<fs af='hI,avy,,,,,,' posn='30' drel='lwg__rp:tImoM' chunkType='child:NP' name='hI'>
4	tImoM	NN	<fs af='tIma,n,f,pl,3,o,0_kA,0' drel='r6:pramuKa' posn='40' vpos='vib_5' name='tImoM' chunkId='NP' chunkType='head:NP'>
5	ke	PSP	<fs af='kA,psp,m,sg,3h,d,,' posn='50' drel='lwg__psp:tImoM' chunkType='child:NP' name='ke'>
6	pramuKa	NN	<fs af='pramuKa,n,m,sg,3,d,0,0' drel='k1:hoMge' posn='60' name='pramuKa' chunkId='NP2' chunkType='head:NP2'>
7	raswogI	NNP	<fs af='raswogI,n,any,sg,3,d,0,0' drel='k1s:hoMge' posn='70' name='raswogI' chunkId='NP3' chunkType='head:NP3'>
8	hoMge	VM	<fs af='ho,v,m,sg,3h,,gA,gA' stype='declarative' posn='80' voicetype='active' name='hoMge' chunkId='VGF' chunkType='head:VGF'>
9	.	SYM	<fs af='.,punc,,,,,,' drel='rsym:hoMge' posn='90' name='.' chunkId='BLK' chunkType='head:BLK'>
</Sentence>


<Sentence id="14">
1	bETaka	NN	<fs af='bETaka,n,f,sg,3,o,0_meM,0' drel='k7:kahA' posn='10' vpos='vib_2' name='bETaka' chunkId='NP' chunkType='head:NP'>
2	meM	PSP	<fs af='meM,psp,,,,,,' posn='20' drel='lwg__psp:bETaka' chunkType='child:NP' name='meM'>
3	mOjUxa	JJ	<fs af='mOjUxa,adj,any,any,,o,,' drel='nmod:siMha' posn='30' name='mOjUxa' chunkId='JJP' chunkType='head:JJP'>
4	keMxrIya	NNPC	<fs af='keMxrIya,adj,any,any,,o,,' posn='150' drel='pof__cn:saciva' chunkType='child:NP2' name='keMxrIya'>
5	gqha	NNPC	<fs af='gqha,n,m,sg,3,d,0,0' posn='50' drel='pof__cn:saciva' chunkType='child:NP2' name='gqha'>
6	saciva	NNP	<fs af='saciva,n,m,sg,3,d,0,0' posn='60' drel='nmod__adj:siMha' chunkType='child:NP2' name='saciva'>
7	XIreMxra	NNPC	<fs af='XIreMxra,n,m,sg,3,d,0,0' posn='70' drel='pof__cn:siMha' chunkType='child:NP2' name='XIreMxra'>
8	siMha	NNP	<fs af='siMha,n,any,sg,3,o,0_ne,0' drel='k1:kahA' posn='80' vpos='vib_vib_6' name='siMha' chunkId='NP2' chunkType='head:NP2'>
9	ne	PSP	<fs af='ne,psp,,,,,,' posn='90' drel='lwg__psp:siMha' chunkType='child:NP2' name='ne'>
10	kahA	VM	<fs af='kaha,v,m,sg,any,,yA,yA' stype='declarative' posn='100' voicetype='active' name='kahA' chunkId='VGF' chunkType='head:VGF'>
11	ki	CC	<fs af='ki,avy,,,,,,' drel='k2:kahA' posn='110' name='ki' chunkId='CCP' chunkType='head:CCP'>
12	sunAmI	NNP	<fs af='sunAmI,n,f,sg,3,o,0_se,0' drel='jjmod:praBAviwa' posn='120' vpos='vib_2' name='sunAmI' chunkId='NP3' chunkType='head:NP3'>
13	se	PSP	<fs af='se,psp,,,,,,' posn='130' drel='lwg__psp:sunAmI' chunkType='child:NP3' name='se'>
14	praBAviwa	JJ	<fs af='praBAviwa,adj,any,any,,d,,' drel='nmod:AbAxI' posn='140' name='praBAviwa' chunkId='JJP2' chunkType='head:JJP2'>
15	90	QC	<fs af='90,num,any,any,,any,,' posn='150' drel='nmod__adj:AbAxI' chunkType='child:NP4' name='90'>
16	PIsaxI	NN	<fs af='PIsaxI,n,f,sg,3,d,0,0' posn='160' drel='nmod:AbAxI' chunkType='child:NP4' name='PIsaxI'>
17	AbAxI	NN	<fs af='AbAxI,n,f,sg,3,d,0,0' drel='k1:hE' posn='170' name='AbAxI' chunkId='NP4' chunkType='head:NP4'>
18	maCuAroM	NN	<fs af='maCuArA,n,m,pl,3,o,0_kA,0' drel='r6:NULL' posn='180' vpos='vib_2' name='maCuAroM' chunkId='NP5' chunkType='head:NP5'>
19	kI	PSP	<fs af='kA,psp,f,sg,,d,,' posn='190' drel='lwg__psp:maCuAroM' chunkType='child:NP5' name='kI'>
20	NULL	NN	<fs mtype='gap' troot='AbAxI' dmrel='k1s:AbAxI' name='NULL' chunkId='NULL__NP' chunkType='head:NULL__NP'>
21	hE	VM	<fs af='hE,v,any,sg,3,,hE,hE' drel='ccof:ki' stype='declarative' posn='200' voicetype='active' name='hE' chunkId='VGF2' chunkType='head:VGF2'>
22	.	SYM	<fs af='.,punc,,,,,,' drel='rsym:kahA' posn='210' name='.' chunkId='BLK' chunkType='head:BLK'>
</Sentence>


<Sentence id="15">
1	sarakAra	NN	<fs af='sarakAra,n,f,sg,3,d,0,0' drel='k1:uTA' posn='10' name='sarakAra' chunkId='NP' chunkType='head:NP'>
2	unheM	PRP	<fs af='vaha,pn,any,pl,3,o,ko,ko' drel='k4:karAne' posn='20' name='unheM' chunkId='NP2' chunkType='head:NP2'>
3	jAla	NN	<fs af='jAla,n,m,pl,3,d,0,0' drel='ccof:Ora' posn='30' name='jAla' chunkId='NP3' chunkType='head:NP3'>
4	Ora	CC	<fs af='Ora,avy,,,,,,' drel='k2:karAne' posn='40' name='Ora' chunkId='CCP' chunkType='head:CCP'>
5	nOkAeM	NN	<fs af='nOkA,n,f,pl,3,d,0,0' drel='ccof:Ora' posn='50' name='nOkAeM' chunkId='NP4' chunkType='head:NP4'>
6	upalabXa	JJ	<fs af='upalabXa,adj,any,any,,,,' drel='pof:karAne' posn='60' name='upalabXa' chunkId='JJP' chunkType='head:JJP'>
7	karAne	VM	<fs af='karA,v,any,any,any,o,nA_ke_lie,nA' drel='rt:uTA' posn='70' vpos='tam_2_3' name='karAne' chunkId='VGNN' chunkType='head:VGNN'>
8	ke	PSP	<fs af='ke,psp,,,,,,' posn='80' drel='lwg__psp:karAne' chunkType='child:VGNN' name='ke'>
9	lie	PSP	<fs af='lie,psp,,,,,,' posn='90' drel='lwg__psp:karAne' chunkType='child:VGNN' name='lie'>
10	wuraMwa	RB	<fs af='wuraMwa,adv,,,,,,' drel='adv:uTA' posn='100' name='wuraMwa' chunkId='RBP' chunkType='head:RBP'>
11	kaxama	NN	<fs af='kaxama,n,m,sg,3,d,0,0' drel='pof:uTA' posn='110' name='kaxama' chunkId='NP5' chunkType='head:NP5'>
12	uTA	VM	<fs af='uTa,v,f,sg,3,,yA_raha+yA_hE,yA' stype='declarative' posn='120' voicetype='active' vpos='tam_2_3' name='uTA' chunkId='VGF' chunkType='head:VGF'>
13	rahI	VAUX	<fs af='raha,v,f,sg,any,,yA,yA' posn='130' drel='lwg__vaux:uTA' chunkType='child:VGF' name='rahI'>
14	hE	VAUX	<fs af='hE,v,any,sg,3,,hE,hE' posn='140' drel='lwg__vaux:uTA' chunkType='child:VGF' name='hE'>
15	.	SYM	<fs af='.,punc,,,,,,' drel='rsym:uTA' posn='150' name='.' chunkId='BLK' chunkType='head:BLK'>
</Sentence>


<Sentence id="16">
1	siMha	NNP	<fs af='siMha,n,m,sg,3,o,0_ne,0' drel='k1:kara' posn='10' vpos='vib_2' name='siMha' chunkId='NP' chunkType='head:NP'>
2	ne	PSP	<fs af='ne,psp,,,,,,' posn='20' drel='lwg__psp:siMha' chunkType='child:NP' name='ne'>
3	praBAviwa	JJ	<fs af='praBAviwa,adj,any,any,,o,,' posn='30' drel='nmod__adj:ilAkoM' chunkType='child:NP2' name='praBAviwa'>
4	ilAkoM	NN	<fs af='ilAkA,n,m,pl,3,o,0_meM,0' drel='k7p:PElane' posn='40' vpos='vib_3' name='ilAkoM' chunkId='NP2' chunkType='head:NP2'>
5	meM	PSP	<fs af='meM,psp,,,,,,' posn='50' drel='lwg__psp:ilAkoM' chunkType='child:NP2' name='meM'>
6	mahAmArI	NN	<fs af='mahAmArI,n,f,sg,3,d,0,0' drel='k2:PElane' posn='60' name='mahAmArI' chunkId='NP3' chunkType='head:NP3'>
7	PElane	VM	<fs af='PEla,v,any,sg,any,o,nA_kA,nA' drel='r6:ASaMkA' posn='70' vpos='tam_2' name='PElane' chunkId='VGNN' chunkType='head:VGNN'>
8	kI	PSP	<fs af='kA,psp,f,sg,,o,,' posn='80' drel='lwg__psp:PElane' chunkType='child:VGNN' name='kI'>
9	ASaMkA	NN	<fs af='ASaMkA,n,f,sg,3,o,0_ko,0' drel='k2:kara' posn='90' vpos='vib_2' name='ASaMkA' chunkId='NP4' chunkType='head:NP4'>
10	ko	PSP	<fs af='ko,psp,,,,,,' posn='100' drel='lwg__psp:ASaMkA' chunkType='child:NP4' name='ko'>
11	sire	NN	<fs af='sirA,n,m,sg,3,o,0_se,0' drel='k5:kara' posn='110' vpos='vib_2' name='sire' chunkId='NP5' chunkType='head:NP5'>
12	se	PSP	<fs af='se,psp,,,,,,' posn='120' drel='lwg__psp:sire' chunkType='child:NP5' name='se'>
13	KArija	JJ	<fs af='KArija,adj,any,any,,,,' drel='pof:kara' posn='130' name='KArija' chunkId='JJP' chunkType='head:JJP'>
14	kara	VM	<fs af='kara,v,any,sg,any,,0_xe+yA,0' stype='declarative' posn='140' voicetype='active' vpos='tam_2' name='kara' chunkId='VGF' chunkType='head:VGF'>
15	xiyA	VAUX	<fs af='xe,v,m,sg,any,,yA,yA' posn='150' drel='lwg__vaux:kara' chunkType='child:VGF' name='xiyA'>
16	.	SYM	<fs af='.,punc,,,,,,' drel='rsym:kara' posn='160' name='.' chunkId='BLK' chunkType='head:BLK'>
</Sentence>


<Sentence id="17">
1	keMxra	NNPC	<fs af='keMxra,n,m,sg,3,d,0,0' posn='10' drel='pof__cn:sarakAra' chunkType='child:NP' name='keMxra'>
2	sarakAra	NNP	<fs af='sarakAra,n,f,sg,3,o,0_ne,0' drel='k1:kI2' posn='20' vpos='vib_3' name='sarakAra' chunkId='NP' chunkType='head:NP'>
3	ne	PSP	<fs af='ne,psp,,,,,,' posn='30' drel='lwg__psp:sarakAra' chunkType='child:NP' name='ne'>
4	ravivAra	NNP	<fs af='ravivAra,n,m,sg,3,o,0_ko,0' drel='k7t:kI2' posn='40' vpos='vib_2' name='ravivAra' chunkId='NP2' chunkType='head:NP2'>
5	ko	PSP	<fs af='ko,psp,,,,,,' posn='50' drel='lwg__psp:ravivAra' chunkType='child:NP2' name='ko'>
6	aXikqwa	JJ	<fs af='aXikqwa,adj,any,any,,o,,' posn='60' drel='nmod__adj:wOra' chunkType='child:NP3' name='aXikqwa'>
7	wOra	NN	<fs af='wOra,n,m,sg,3,o,0_para,0' drel='k7:kI2' posn='70' vpos='vib_3' name='wOra' chunkId='NP3' chunkType='head:NP3'>
8	para	PSP	<fs af='para,psp,,,,,,' posn='80' drel='lwg__psp:wOra' chunkType='child:NP3' name='para'>
9	9145	QC	<fs af='9145,num,any,any,,any,,' posn='90' drel='nmod__adj:logoM' chunkType='child:NP4' name='9145'>
10	logoM	NN	<fs af='loga,n,m,pl,3,o,0_kA,0' drel='k1:marane' posn='100' vpos='vib_3' name='logoM' chunkId='NP4' chunkType='head:NP4'>
11	ke	PSP	<fs af='kA,psp,,,,o,,' posn='110' drel='lwg__psp:logoM' chunkType='child:NP4' name='ke'>
12	marane	VM	<fs af='mara,v,any,any,any,o,nA,nA' drel='ccof:Ora' posn='120' name='marane' chunkId='VGNN' chunkType='head:VGNN'>
13	Ora	CC	<fs af='Ora,avy,,,,,,' drel='r6-k2:puRti' posn='130' name='Ora' chunkId='CCP' chunkType='head:CCP'>
14	pAMca	QC	<fs af='pAMca,num,any,any,,any,,' posn='140' drel='nmod__adj:hajAra' chunkType='child:NP5' name='pAMca'>
15	hajAra	NN	<fs af='hajAra,n,m,sg,3,o,0_se,0' drel='jjmod:jyAxA' posn='150' vpos='vib_3' name='hajAra' chunkId='NP5' chunkType='head:NP5'>
16	se	PSP	<fs af='se,psp,,,,,,' posn='160' drel='lwg__psp:hajAra' chunkType='child:NP5' name='se'>
17	jyAxA	QF	<fs af='jyAxA,avy,,,,,,' drel='nmod:logoM2' posn='170' name='jyAxA' chunkId='JJP' chunkType='head:JJP'>
18	logoM	NN	<fs af='loga,n,m,pl,3,o,0_kA,0' drel='k1:hone' posn='180' vpos='vib_2' name='logoM2' chunkId='NP6' chunkType='head:NP6'>
19	ke	PSP	<fs af='kA,psp,,,,o,,' posn='190' drel='lwg__psp:logoM2' chunkType='child:NP6' name='ke2'>
20	lApawA	JJ	<fs af='lApawA,adj,any,any,,,,' drel='pof:hone' posn='200' name='lApawA' chunkId='JJP2' chunkType='head:JJP2'>
21	hone	VM	<fs af='ho,v,any,sg,any,o,nA_kA,nA' drel='ccof:Ora' posn='210' vpos='tam_2' name='hone' chunkId='VGNN2' chunkType='head:VGNN2'>
22	kI	PSP	<fs af='kA,psp,f,sg,,d,,' posn='220' drel='lwg__psp:hone' chunkType='child:VGNN2' name='kI'>
23	puRti	NN	<fs af='puRti,n,f,sg,3,d,0,0' drel='pof:kI2' posn='230' name='puRti' chunkId='NP7' chunkType='head:NP7'>
24	BI	RP	<fs af='BI,avy,,,,,,' posn='240' drel='lwg__rp:puRti' chunkType='child:NP7' name='BI'>
25	kI	VM	<fs af='kara,v,f,sg,3,,yA_hE,yA' stype='declarative' posn='250' voicetype='active' vpos='tam_2' name='kI2' chunkId='VGF' chunkType='head:VGF'>
26	hE	VAUX	<fs af='hE,v,any,sg,3,,hE,hE' posn='260' drel='lwg__vaux:kI2' chunkType='child:VGF' name='hE'>
27	.	SYM	<fs af='.,punc,,,,,,' drel='rsym:kI2' posn='270' name='.' chunkId='BLK' chunkType='head:BLK'>
</Sentence>


<Sentence id="18">
1	isa	DEM	<fs af='yaha,pn,any,sg,3,o,,' drel='sent-adv:nikala' posn='10' name='isa' chunkId='NP' chunkType='head:NP'>
2	bIca	NST	<fs af='bIca,nst,m,sg,3,d,,' posn='20' drel='lwg__psp:isa' chunkType='child:NP' name='bIca'>
3	,	SYM	<fs af='COMMA,punc,,,,,,' posn='30' drel='rsym:isa' chunkType='child:NP' name=','>
4	malaboM	NN	<fs af='malabA,n,m,pl,3,o,0_se,0' drel='k5:nikala' posn='40' vpos='vib_2' name='malaboM' chunkId='NP2' chunkType='head:NP2'>
5	se	PSP	<fs af='se,psp,,,,,,' posn='50' drel='lwg__psp:malaboM' chunkType='child:NP2' name='se'>
6	aba	PRP	<fs af='aba,pn,,,,d,,' drel='k7t:nikala' posn='60' name='aba' chunkId='NP3' chunkType='head:NP3'>
7	BI	RP	<fs af='BI,avy,,,,,,' posn='70' drel='lwg__rp:aba' chunkType='child:NP3' name='BI'>
8	lASeM	NN	<fs af='lASa,n,f,pl,3,d,0,0' drel='k2:nikala' posn='80' name='lASeM' chunkId='NP4' chunkType='head:NP4'>
9	nikala	VM	<fs af='nikala,v,f,pl,3,,0_raha+yA_hE,0' stype='declarative' posn='90' voicetype='active' vpos='tam_2_3' name='nikala' chunkId='VGF' chunkType='head:VGF'>
10	rahI	VAUX	<fs af='raha,v,f,sg,any,,yA,yA' posn='100' drel='lwg__vaux:nikala' chunkType='child:VGF' name='rahI'>
11	hEM	VAUX	<fs af='hE,v,any,pl,3,,hE,hE' posn='110' drel='lwg__vaux:nikala' chunkType='child:VGF' name='hEM'>
12	.	SYM	<fs af='.,punc,,,,,,' drel='rsym:nikala' posn='120' name='.' chunkId='BLK' chunkType='head:BLK'>
</Sentence>


<Sentence id="19">
1	wamilanAdu	NNP	<fs af='wamilanAdu,n,m,sg,3,o,0_kA,0' drel='r6:nAgapattinama' posn='10' vpos='vib_2' name='wamilanAdu' chunkId='NP' chunkType='head:NP'>
2	ke	PSP	<fs af='kA,psp,m,sg,,o,,' posn='20' drel='lwg__psp:wamilanAdu' chunkType='child:NP' name='ke'>
3	nAgapattinama	NNP	<fs af='nAgapattinama,n,m,sg,3,o,0_meM,0' drel='k7p:bIwane' posn='30' vpos='vib_2' name='nAgapattinama' chunkId='NP2' chunkType='head:NP2'>
4	meM	PSP	<fs af='meM,psp,,,,,,' posn='40' drel='lwg__psp:nAgapattinama' chunkType='child:NP2' name='meM'>
5	pala	NN	<fs af='pala,n,m,sg,3,d,0,0' drel='pof:bIwane' posn='50' name='pala' chunkId='NP3' chunkType='head:NP3'>
6	-	SYM	<fs af='-,punc,,,,,,' posn='60' drel='rsym:pala' chunkType='child:NP3' name='-'>
7	pala	RDP	<fs af='pala,n,m,sg,3,d,0,0' posn='70' drel='pof__redup:-' chunkType='child:NP3' name='pala2'>
8	bIwane	VM	<fs af='bIwa,v,any,sg,3,o,nA_ke_bAxa,nA' drel='k7t:A' posn='80' vpos='tam_2_3' name='bIwane' chunkId='VGNN' chunkType='head:VGNN'>
9	ke	PSP	<fs af='ke,psp,,,,,,' posn='90' drel='lwg__psp:bIwane' chunkType='child:VGNN' name='ke2'>
10	bAxa	NST	<fs af='bAxa,nst,m,sg,3,d,,' posn='100' drel='lwg__nst:bIwane' chunkType='child:VGNN' name='bAxa'>
11	wabAhI	NN	<fs af='wabAhI,n,f,sg,3,o,0_kA,0' drel='r6:rUpa' posn='110' vpos='vib_2' name='wabAhI' chunkId='NP4' chunkType='head:NP4'>
12	kA	PSP	<fs af='kA,psp,m,sg,,d,,' posn='120' drel='lwg__psp:wabAhI' chunkType='child:NP4' name='kA'>
13	BayAvaha	JJ	<fs af='BayAvaha,adj,any,any,,d,,' posn='130' drel='nmod__adj:rUpa' chunkType='child:NP5' name='BayAvaha'>
14	rUpa	NN	<fs af='rUpa,n,m,sg,3,d,0,0' drel='k1:A' posn='140' name='rUpa' chunkId='NP5' chunkType='head:NP5'>
15	sAmane	NST	<fs af='sAmane,nst,m,sg,3,d,,' drel='k7:A' posn='150' name='sAmane' chunkId='NP6' chunkType='head:NP6'>
16	A	VM	<fs af='A,v,m,sg,3,,0_raha+yA_hE,0' stype='declarative' posn='160' voicetype='active' vpos='tam_2_3' name='A' chunkId='VGF' chunkType='head:VGF'>
17	rahA	VAUX	<fs af='raha,v,m,sg,any,,yA,yA' posn='170' drel='lwg__vaux:A' chunkType='child:VGF' name='rahA'>
18	hE	VAUX	<fs af='hE,v,any,sg,3,,hE,hE' posn='180' drel='lwg__vaux:A' chunkType='child:VGF' name='hE'>
19	.	SYM	<fs af='.,punc,,,,,,' drel='rsym:A' posn='190' name='.' chunkId='BLK' chunkType='head:BLK'>
</Sentence>


<Sentence id="20">
1	akele	RP	<fs af='akelA,avy,,,,,,' posn='10' drel='lwg__rp:yahIM' chunkType='child:NP' name='akele'>
2	yahIM	PRP	<fs af='yahAz,pn,,,,d,,' drel='k7p:pahuMca' posn='20' name='yahIM' chunkId='NP' chunkType='head:NP'>
3	mqwaka	NNC	<fs af='mqwaka,n,m,sg,3,d,0,0' posn='30' drel='pof__cn:saMKyA' chunkType='child:NP2' name='mqwaka'>
4	saMKyA	NN	<fs af='saMKyA,n,f,sg,3,d,0,0' drel='k1:pahuMca' posn='40' name='saMKyA' chunkId='NP2' chunkType='head:NP2'>
5	Caha	QCC	<fs af='Caha,num,any,any,,any,,' drel='k1s:pahuMca' posn='50' name='Caha' chunkId='NP3' chunkType='head:NP3'>
6	hajAra	QC	<fs af='hajAra,num,any,any,,any,,' posn='60' drel='ccof:Caha' chunkType='child:NP3' name='hajAra'>
7	pahuMca	VM	<fs af='pahuMca,v,f,sg,3,,0_cuka+yA_hE,0' stype='declarative' posn='70' voicetype='active' vpos='tam_2_3' name='pahuMca' chunkId='VGF' chunkType='head:VGF'>
8	cukI	VAUX	<fs af='cuka,v,f,sg,any,,yA,yA' posn='80' drel='lwg__vaux:pahuMca' chunkType='child:VGF' name='cukI'>
9	hE	VAUX	<fs af='hE,v,any,sg,3,,hE,hE' posn='90' drel='lwg__vaux:pahuMca' chunkType='child:VGF' name='hE'>
10	.	SYM	<fs af='.,punc,,,,,,' drel='rsym:pahuMca' posn='100' name='.' chunkId='BLK' chunkType='head:BLK'>
</Sentence>


<Sentence id="21">
1	jile	NN	<fs af='jilA,n,m,sg,3,o,0_kA,0' drel='r6:ilAkoM' posn='10' vpos='vib_2' name='jile' chunkId='NP' chunkType='head:NP'>
2	ke	PSP	<fs af='kA,psp,m,pl,,o,,' posn='20' drel='lwg__psp:jile' chunkType='child:NP' name='ke'>
3	xo	QCC	<fs af='xo,num,any,any,,any,,' posn='30' drel='mod:ilAkoM' chunkType='child:NP2' name='xo'>
4	sO	QC	<fs af='sO,num,any,any,,any,,' posn='40' drel='nmod__adj:kimI' chunkType='child:NP2' name='sO'>
5	kimI	NN	<fs af='kimI,n,m,sg,3,d,0,0' posn='50' drel='nmod:ilAkoM' chunkType='child:NP2' name='kimI'>
6	laMbe	JJ	<fs af='laMbA,adj,m,pl,,o,,' posn='60' drel='nmod__adj:ilAkoM' chunkType='child:NP2' name='laMbe'>
7	watIya	JJ	<fs af='watIya,adj,any,any,,o,,' posn='70' drel='nmod__adj:ilAkoM' chunkType='child:NP2' name='watIya'>
8	ilAkoM	NN	<fs af='ilAkA,n,m,pl,3,o,0_kA,0' drel='r6:SiviroM' posn='80' vpos='vib_vib_7' name='ilAkoM' chunkId='NP2' chunkType='head:NP2'>
9	ke	PSP	<fs af='kA,psp,m,pl,,o,,' posn='90' drel='lwg__psp:ilAkoM' chunkType='child:NP2' name='ke2'>
10	98	QC	<fs af='98,num,any,any,,any,,' posn='100' drel='nmod__adj:SiviroM' chunkType='child:NP3' name='98'>
11	rAhawa	NNC	<fs af='rAhawa,n,f,sg,3,d,0,0' posn='110' drel='pof__cn:SiviroM' chunkType='child:NP3' name='rAhawa'>
12	SiviroM	NN	<fs af='Sivira,n,m,pl,3,o,0_meM,0' drel='k7p:lie' posn='120' vpos='vib_4' name='SiviroM' chunkId='NP3' chunkType='head:NP3'>
13	meM	PSP	<fs af='meM,psp,,,,,,' posn='130' drel='lwg__psp:SiviroM' chunkType='child:NP3' name='meM'>
14	aba	PRP	<fs af='aba,pn,,,,d,,' drel='k7t:lie' posn='140' name='aba' chunkId='NP4' chunkType='head:NP4'>
15	BI	RP	<fs af='BI,avy,,,,,,' posn='150' drel='lwg__rp:aba' chunkType='child:NP4' name='BI'>
16	85	QCC	<fs af='85,num,any,any,,any,,' posn='160' drel='mod:loga' chunkType='child:NP5' name='85'>
17	hajAra	QC	<fs af='hajAra,num,any,any,,any,,' posn='170' drel='nmod__adj:loga' chunkType='child:NP5' name='hajAra'>
18	loga	NN	<fs af='loga,n,m,pl,3,d,0,0' drel='k1:lie' posn='180' name='loga' chunkId='NP5' chunkType='head:NP5'>
19	SaraNa	NN	<fs af='SaraNa,n,m,sg,3,d,0,0' drel='pof:lie' posn='190' name='SaraNa' chunkId='NP6' chunkType='head:NP6'>
20	lie	VM	<fs af='le,v,m,pl,3,,yA_ho+yA_hE,yA' stype='declarative' posn='200' voicetype='active' vpos='tam_2_3' name='lie' chunkId='VGF' chunkType='head:VGF'>
21	hue	VAUX	<fs af='ho,v,m,pl,any,,yA,yA' posn='210' drel='lwg__vaux:lie' chunkType='child:VGF' name='hue'>
22	hEM	VAUX	<fs af='hE,v,any,pl,3,,hE,hE' posn='220' drel='lwg__vaux:lie' chunkType='child:VGF' name='hEM'>
23	.	SYM	<fs af='.,punc,,,,,,' drel='rsym:lie' posn='230' name='.' chunkId='BLK' chunkType='head:BLK'>
</Sentence>


<Sentence id="22">
1	logoM	NN	<fs af='loga,n,m,pl,3,o,0_kA,0' drel='r6:mana' posn='10' vpos='vib_2' name='logoM' chunkId='NP' chunkType='head:NP'>
2	ke	PSP	<fs af='kA,psp,m,sg,,o,,' posn='20' drel='lwg__psp:logoM' chunkType='child:NP' name='ke'>
3	mana	NN	<fs af='mana,n,m,sg,3,o,0_meM,0' drel='k7:samAyA' posn='30' vpos='vib_2' name='mana' chunkId='NP2' chunkType='head:NP2'>
4	meM	PSP	<fs af='meM,psp,,,,,,' posn='40' drel='lwg__psp:mana' chunkType='child:NP2' name='meM'>
5	Aja	NN	<fs af='Aja,n,m,sg,3,d,0,0' drel='k7t:samAyA' posn='50' name='Aja' chunkId='NP3' chunkType='head:NP3'>
6	BI	RP	<fs af='BI,avy,,,,,,' posn='60' drel='lwg__rp:Aja' chunkType='child:NP3' name='BI'>
7	sunAmI	NNP	<fs af='sunAmI,n,f,sg,3,o,0_kA,0' drel='r6-k1:KOPa' posn='70' vpos='vib_2' name='sunAmI' chunkId='NP4' chunkType='head:NP4'>
8	kA	PSP	<fs af='kA,psp,m,sg,,d,,' posn='80' drel='lwg__psp:sunAmI' chunkType='child:NP4' name='kA'>
9	KOPa	NN	<fs af='KOPa,n,m,sg,3,d,0,0' drel='pof:samAyA' posn='90' name='KOPa' chunkId='NP5' chunkType='head:NP5'>
10	samAyA	VM	<fs af='samA,v,m,sg,3,,yA_ho+yA_hE,yA' stype='declarative' posn='100' voicetype='active' vpos='tam_2_3' name='samAyA' chunkId='VGF' chunkType='head:VGF'>
11	huA	VAUX	<fs af='ho,v,m,sg,any,,yA,yA' posn='110' drel='lwg__vaux:samAyA' chunkType='child:VGF' name='huA'>
12	hE	VAUX	<fs af='hE,v,any,sg,3,,hE,hE' posn='120' drel='lwg__vaux:samAyA' chunkType='child:VGF' name='hE'>
13	.	SYM	<fs af='.,punc,,,,,,' drel='rsym:samAyA' posn='130' name='.' chunkId='BLK' chunkType='head:BLK'>
</Sentence>


<Sentence id="23">
1	isI	DEM	<fs af='yaha,pn,f,sg,3,o,,' posn='10' drel='nmod__adj:vajaha' chunkType='child:NP' name='isI'>
2	vajaha	NN	<fs af='vajaha,n,f,sg,3,o,0_se,0' drel='rh:kara' posn='20' vpos='vib_3' name='vajaha' chunkId='NP' chunkType='head:NP'>
3	se	PSP	<fs af='se,psp,,,,,,' posn='30' drel='lwg__psp:vajaha' chunkType='child:NP' name='se'>
4	logoM	NN	<fs af='loga,n,m,pl,3,o,0_ne,0' drel='k1:kara' posn='40' vpos='vib_2' name='logoM' chunkId='NP2' chunkType='head:NP2'>
5	ne	PSP	<fs af='ne,psp,,,,,,' posn='50' drel='lwg__psp:logoM' chunkType='child:NP2' name='ne'>
6	wrAsaxI	NN	<fs af='wrAsaxI,n,f,sg,3,o,0_ke,0' drel='r6:haPwe' posn='60' vpos='vib_2' name='wrAsaxI' chunkId='NP3' chunkType='head:NP3'>
7	ke	PSP	<fs af='ke,psp,,,,,,' posn='70' drel='lwg__psp:wrAsaxI' chunkType='child:NP3' name='ke'>
8	haPwe	NN	<fs af='haPwA,n,m,sg,3,d,0_bAxa,0' drel='k7t:lOtane' posn='80' vpos='vib_RP_3_RP' name='haPwe' chunkId='NP4' chunkType='head:NP4'>
9	Bara	RP	<fs af='Bara,avy,,,,,,' posn='90' drel='lwg__rp:haPwe' chunkType='child:NP4' name='Bara'>
10	bAxa	NST	<fs af='bAxa,nst,m,sg,3,d,,' posn='100' drel='lwg__psp:haPwe' chunkType='child:NP4' name='bAxa'>
11	BI	RP	<fs af='BI,avy,,,,,,' posn='110' drel='lwg__rp:haPwe' chunkType='child:NP4' name='BI'>
12	gAMva	NN	<fs af='gAzva,n,m,sg,3,d,0,0' drel='k2p:lOtane' posn='120' name='gAMva' chunkId='NP5' chunkType='head:NP5'>
13	lOtane	VM	<fs af='lOta,v,any,any,any,o,nA_se,nA' drel='rt:kara' posn='130' vpos='tam_2' name='lOtane' chunkId='VGNN' chunkType='head:VGNN'>
14	se	PSP	<fs af='se,psp,,,,,,' posn='140' drel='lwg__psp:lOtane' chunkType='child:VGNN' name='se2'>
15	inakAra	NN	<fs af='inakAra,n,m,sg,3,d,0,0' drel='pof:kara' posn='150' name='inakAra' chunkId='NP6' chunkType='head:NP6'>
16	kara	VM	<fs af='kara,v,any,sg,any,,0_xe+yA,0' stype='declarative' posn='160' voicetype='active' vpos='tam_2' name='kara' chunkId='VGF' chunkType='head:VGF'>
17	xiyA	VAUX	<fs af='xe,v,m,sg,any,,yA,yA' posn='170' drel='lwg__vaux:kara' chunkType='child:VGF' name='xiyA'>
18	.	SYM	<fs af='.,punc,,,,,,' drel='rsym:kara' posn='180' name='.' chunkId='BLK' chunkType='head:BLK'>
</Sentence>


<Sentence id="24">
1	aMdamAna	NNPC	<fs af='aMdamAna,n,m,sg,3,d,0,0' drel='pof__cn:nikobAra' chunkType='child:NP' name='aMdamAna'>
2	nikobAra	NNP	<fs af='nikobAra,n,m,sg,3,o,0_meM,0' drel='k7p:xeKa' vpos='vib_3' name='nikobAra' chunkId='NP' chunkType='head:NP'>
3	meM	PSP	<fs af='meM,psp,,,,,,' drel='lwg__psp:nikobAra' chunkType='child:NP' name='meM'>
4	rAhawa	NN	<fs af='rAhawa,n,f,sg,3,o,0,0' drel='ccof:Ora' posn='10' name='rAhawa' chunkId='NP2' chunkType='head:NP2'>
5	Ora	CC	<fs af='Ora,avy,,,,,,' drel='r6:kAma' posn='20' name='Ora' chunkId='CCP' chunkType='head:CCP'>
6	bacAva	NN	<fs af='bacAva,n,m,sg,3,o,0_kA,0' drel='r6:Ora' posn='30' vpos='vib_2' name='bacAva' chunkId='NP3' chunkType='head:NP3'>
7	kA	PSP	<fs af='kA,psp,m,sg,,d,,' posn='40' drel='lwg__psp:bacAva' chunkType='child:NP3' name='kA'>
8	kAma	NN	<fs af='kAma,n,m,sg,3,d,0,0' drel='k2:xeKa' posn='50' name='kAma' chunkId='NP4' chunkType='head:NP4'>
9	xeKa	VM	<fs af='xeKa,v,any,sg,3h,,0_raha+yA,0' drel='nmod__k1inv:jAyasavAla' posn='60' vpos='tam_2' name='xeKa' chunkId='VGNF' chunkType='head:VGNF'>
10	rahe	VAUX	<fs af='raha,v,m,sg,3h,,yA,yA' posn='70' drel='lwg__vaux:xeKa' chunkType='child:VGNF' name='rahe'>
11	gqharAjya	NNPC	<fs af='gqharAjya,n,m,sg,3,d,0,0' posn='80' drel='pof__cn:maMwrI' chunkType='child:NP5' name='gqharAjya'>
12	maMwrI	NNP	<fs af='maMwrI,n,m,sg,3,d,0,0' posn='90' drel='nmod__adj:jAyasavAla' chunkType='child:NP5' name='maMwrI'>
13	SrIprakASa	NNPC	<fs af='SrIprakASa,n,m,sg,3,d,0,0' posn='100' drel='pof__cn:jAyasavAla' chunkType='child:NP5' name='SrIprakASa'>
14	jAyasavAla	NNP	<fs af='jAyasavAla,n,any,sg,3,o,0_ne,0' drel='k1:kahA' posn='110' vpos='vib_vib_5' name='jAyasavAla' chunkId='NP5' chunkType='head:NP5'>
15	ne	PSP	<fs af='ne,psp,,,,,,' posn='120' drel='lwg__psp:jAyasavAla' chunkType='child:NP5' name='ne'>
16	ravivAra	NNP	<fs af='ravivAra,n,m,sg,3,o,0_ko,0' drel='k7t:kahA' posn='130' vpos='vib_2' name='ravivAra' chunkId='NP6' chunkType='head:NP6'>
17	ko	PSP	<fs af='ko,psp,,,,,,' posn='140' drel='lwg__psp:ravivAra' chunkType='child:NP6' name='ko'>
18	kahA	VM	<fs af='kaha,v,m,sg,any,,yA,yA' stype='declarative' posn='150' voicetype='active' name='kahA' chunkId='VGF' chunkType='head:VGF'>
19	,	SYM	<fs af='COMMA,punc,,,,,,' posn='160' drel='rsym:kahA' chunkType='child:VGF' name=','>
20	mqwakoM	NN	<fs af='mqwaka,n,m,pl,3,o,0_kA,0' drel='r6:ginawI' posn='170' vpos='vib_2' name='mqwakoM' chunkId='NP7' chunkType='head:NP7'>
21	kI	PSP	<fs af='kA,psp,f,sg,,o,,' posn='180' drel='lwg__psp:mqwakoM' chunkType='child:NP7' name='kI'>
22	ginawI	NN	<fs af='ginawI,n,f,sg,3,o,0_se,0' drel='nmod:jyAxA' posn='190' vpos='vib_2' name='ginawI' chunkId='NP8' chunkType='head:NP8'>
23	se	PSP	<fs af='se,psp,,,,,,' posn='200' drel='lwg__psp:ginawI' chunkType='child:NP8' name='se'>
24	jyAxA	QF	<fs af='jyAxA,avy,,,,,,' drel='jjmod:jarUrI' posn='210' name='jyAxA' chunkId='NP9' chunkType='head:NP9'>
25	aba	PRP	<fs af='aba,pn,,,,d,,' drel='k7t:bace' posn='220' name='aba' chunkId='NP10' chunkType='head:NP10'>
26	bace	VM	<fs af='baca,v,m,pl,any,,yA,yA' drel='nmod__k1inv:rAhawa2' posn='230' name='bace' chunkId='VGNF2' chunkType='head:VGNF2'>
27	logoM	NN	<fs af='loga,n,m,pl,3,o,0_waka,0' drel='k4:pahuMcAnA' posn='240' vpos='vib_2' name='logoM' chunkId='NP11' chunkType='head:NP11'>
28	waka	PSP	<fs af='waka,psp,,,,,,' posn='250' drel='lwg__psp:logoM' chunkType='child:NP11' name='waka'>
29	rAhawa	NN	<fs af='rAhawa,n,f,sg,3,d,0,0' drel='k2:pahuMcAnA' posn='260' name='rAhawa2' chunkId='NP12' chunkType='head:NP12'>
30	pahuMcAnA	VM	<fs af='pahuMcA,v,any,any,any,d,nA,nA' drel='k1:hE' posn='270' name='pahuMcAnA' chunkId='VGNN' chunkType='head:VGNN'>
31	jarUrI	JJ	<fs af='jarUrI,adj,any,any,,,,' drel='pof:hE' posn='280' name='jarUrI' chunkId='JJP' chunkType='head:JJP'>
32	hE	VM	<fs af='hE,v,any,sg,3,,hE,hE' drel='k2:kahA' stype='declarative' posn='290' voicetype='active' name='hE' chunkId='VGF2' chunkType='head:VGF2'>
33	.	SYM	<fs af='.,punc,,,,,,' drel='rsym:kahA' posn='300' name='.' chunkId='BLK' chunkType='head:BLK'>
</Sentence>


<Sentence id="25">
1	jAyasavAla	NNP	<fs af='jAyasavAla,n,any,sg,3,o,0_ne,0' drel='k1:kahA' posn='10' vpos='vib_2' name='jAyasavAla' chunkId='NP' chunkType='head:NP'>
2	ne	PSP	<fs af='ne,psp,,,,,,' posn='20' drel='lwg__psp:jAyasavAla' chunkType='child:NP' name='ne'>
3	kahA	VM	<fs af='kaha,v,m,sg,any,,yA,yA' stype='declarative' posn='30' voicetype='active' name='kahA' chunkId='VGF' chunkType='head:VGF'>
4	ki	CC	<fs af='ki,avy,,,,,,' drel='k2:kahA' posn='40' name='ki' chunkId='CCP' chunkType='head:CCP'>
5	hama	PRP	<fs af='hama,pn,any,pl,1,d,0,0' drel='k1:kaha' posn='50' name='hama' chunkId='NP2' chunkType='head:NP2'>
6	lApawA	JJ	<fs af='lApawA,adj,any,any,,o,,' posn='60' drel='nmod__adj:logoM' chunkType='child:NP3' name='lApawA'>
7	logoM	NN	<fs af='loga,n,m,pl,3,o,0_ke_bAre_meM,0' drel='k7:kaha' posn='70' vpos='vib_3_4_5' name='logoM' chunkId='NP3' chunkType='head:NP3'>
8	ke	PSP	<fs af='ke,psp,,,,,,' posn='80' drel='lwg__psp:logoM' chunkType='child:NP3' name='ke'>
9	bAre	PSP	<fs af='bAre,psp,,,,,,' posn='90' drel='lwg__psp:logoM' chunkType='child:NP3' name='bAre'>
10	meM	PSP	<fs af='meM,psp,,,,,,' posn='100' drel='lwg__psp:logoM' chunkType='child:NP3' name='meM'>
11	kuCa	PRP	<fs af='kuCa,pn,any,sg,3,d,0,0' drel='k2:kaha' posn='110' name='kuCa' chunkId='NP4' chunkType='head:NP4'>
12	nahIM	NEG	<fs af='nahIM,avy,,,,,,' posn='120' drel='lwg__neg:kaha' chunkType='child:VGF2' name='nahIM'>
13	kaha	VM	<fs af='kaha,v,any,pl,3,,0_saka+wA,0' drel='ccof:NULL' stype='declarative' posn='130' voicetype='active' vpos='tam_3' name='kaha' chunkId='VGF2' chunkType='head:VGF2'>
14	sakawe	VAUX	<fs af='saka,v,m,pl,3,,wA,wA' posn='140' drel='lwg__vaux:kaha' chunkType='child:VGF2' name='sakawe'>
15	NULL	CC	<fs mtype='gap' troot='balki' dmrel='ccof:ki' name='NULL' chunkId='NULL__CCP' chunkType='head:NULL__CCP'>
16	sirPa	RP	<fs af='sirPa,avy,,,,,,' posn='150' drel='lwg__rp:ummIxa' chunkType='child:NP5' name='sirPa'>
17	ummIxa	NN	<fs af='ummIxa,n,f,pl,3,d,0,0' drel='pof:kara' posn='160' name='ummIxa' chunkId='NP5' chunkType='head:NP5'>
18	kara	VM	<fs af='kara,v,m,pl,3,,0_saka+wA_hE,0' drel='ccof:NULL' stype='declarative' posn='170' voicetype='active' vpos='tam_2_3' name='kara' chunkId='VGF3' chunkType='head:VGF3'>
19	sakawe	VAUX	<fs af='saka,v,m,pl,any,,wA,wA' posn='180' drel='lwg__vaux:kara' chunkType='child:VGF3' name='sakawe2'>
20	hEM	VAUX	<fs af='hE,v,any,pl,3,,hE,hE' posn='190' drel='lwg__vaux:kara' chunkType='child:VGF3' name='hEM'>
21	.	SYM	<fs af='.,punc,,,,,,' drel='rsym:kahA' posn='200' name='.' chunkId='BLK' chunkType='head:BLK'>
</Sentence>


<Sentence id="26">
1	senA	NN	<fs af='senA,n,f,sg,3,o,0_kA,0' drel='r6:aMgoM' posn='10' vpos='vib_2' name='senA' chunkId='NP' chunkType='head:NP'>
2	ke	PSP	<fs af='kA,psp,m,pl,,o,,' posn='20' drel='lwg__psp:senA' chunkType='child:NP' name='ke'>
3	wInoM	QC	<fs af='wIna,num,any,any,,any,,' posn='30' drel='nmod__adj:aMgoM' chunkType='child:NP2' name='wInoM'>
4	aMgoM	NN	<fs af='aMga,n,m,pl,3,o,0_kA,0' drel='r6:javAna' posn='40' vpos='vib_3' name='aMgoM' chunkId='NP2' chunkType='head:NP2'>
5	ke	PSP	<fs af='kA,psp,m,pl,,d,,' posn='50' drel='lwg__psp:aMgoM' chunkType='child:NP2' name='ke2'>
6	javAna	NN	<fs af='javAna,n,m,pl,3,d,0,0' drel='k1:jute' posn='60' name='javAna' chunkId='NP3' chunkType='head:NP3'>
7	yuxXa	NNC	<fs af='yuxXa,n,m,sg,3,d,0,0' posn='70' drel='pof__cn:swara' chunkType='child:NP4' name='yuxXa'>
8	swara	NN	<fs af='swara,n,m,sg,3,o,0_para,0' drel='k7:jute' posn='80' vpos='vib_3' name='swara' chunkId='NP4' chunkType='head:NP4'>
9	para	PSP	<fs af='para,psp,,,,,,' posn='90' drel='lwg__psp:swara' chunkType='child:NP4' name='para'>
10	rAhawa	NNC	<fs af='rAhawa,n,f,sg,3,d,0,0' posn='100' drel='pof__cn:aBiyAna' chunkType='child:NP5' name='rAhawa'>
11	aBiyAna	NN	<fs af='aBiyAna,n,m,sg,3,o,0_meM,0' drel='k7:jute' posn='110' vpos='vib_3' name='aBiyAna' chunkId='NP5' chunkType='head:NP5'>
12	meM	PSP	<fs af='meM,psp,,,,,,' posn='120' drel='lwg__psp:aBiyAna' chunkType='child:NP5' name='meM'>
13	jute	VM	<fs af='juta,v,m,pl,3,,yA_ho+yA_hE,yA' stype='declarative' posn='130' voicetype='active' vpos='tam_2_3' name='jute' chunkId='VGF' chunkType='head:VGF'>
14	hue	VAUX	<fs af='ho,v,m,pl,any,,yA,yA' posn='140' drel='lwg__vaux:jute' chunkType='child:VGF' name='hue'>
15	hEM	VAUX	<fs af='hE,v,any,pl,3,,hE,hE' posn='150' drel='lwg__vaux:jute' chunkType='child:VGF' name='hEM'>
16	.	SYM	<fs af='.,punc,,,,,,' drel='rsym:jute' posn='160' name='.' chunkId='BLK' chunkType='head:BLK'>
</Sentence>


<Sentence id="27">
1	nOsenA	NN	<fs af='nOsenA,n,f,sg,3,o,0_kA,0' drel='r6:jahAjoM' posn='10' vpos='vib_2' name='nOsenA' chunkId='NP' chunkType='head:NP'>
2	ke	PSP	<fs af='kA,psp,m,pl,,o,,' posn='20' drel='lwg__psp:nOsenA' chunkType='child:NP' name='ke'>
3	jahAjoM	NN	<fs af='jahAja,n,m,pl,3,o,0,0' drel='ccof:Ora' posn='30' name='jahAjoM' chunkId='NP2' chunkType='head:NP2'>
4	Ora	CC	<fs af='Ora,avy,,,,,,' drel='ccof:Ora2' posn='40' name='Ora' chunkId='CCP' chunkType='head:CCP'>
5	vAyusenA	NN	<fs af='vAyusenA,n,f,sg,3,o,0_kA,0' drel='r6:helIkOYptaroM' posn='50' vpos='vib_2' name='vAyusenA' chunkId='NP3' chunkType='head:NP3'>
6	ke	PSP	<fs af='kA,psp,m,pl,,o,,' posn='60' drel='lwg__psp:vAyusenA' chunkType='child:NP3' name='ke2'>
7	helIkOYptaroM	NN	<fs af='helIkOYptara,n,m,pl,3,o,0,0' drel='ccof:Ora' posn='70' name='helIkOYptaroM' chunkId='NP4' chunkType='head:NP4'>
8	Ora	CC	<fs af='Ora,avy,,,,,,' drel='k5:pahuMcAI' posn='80' name='Ora2' chunkId='CCP2' chunkType='head:CCP2'>
9	vimAnoM	NN	<fs af='vimAna,n,m,pl,3,o,0_se,0' drel='ccof:Ora2' posn='90' vpos='vib_2' name='vimAnoM' chunkId='NP5' chunkType='head:NP5'>
10	se	PSP	<fs af='se,psp,,,,,,' posn='100' drel='lwg__psp:vimAnoM' chunkType='child:NP5' name='se'>
11	rAhawa	NNC	<fs af='rAhawa,n,f,sg,3,d,0,0' posn='110' drel='pof__cn:sAmagrI' chunkType='child:NP6' name='rAhawa'>
12	sAmagrI	NN	<fs af='sAmagrI,n,f,sg,3,d,0,0' drel='k2:pahuMcAI' posn='120' name='sAmagrI' chunkId='NP6' chunkType='head:NP6'>
13	jarUrawamaMxoM	NN	<fs af='jarUrawamaMxa,n,m,pl,3,o,0_waka,0' drel='k7:pahuMcAI' posn='130' vpos='vib_2' name='jarUrawamaMxoM' chunkId='NP7' chunkType='head:NP7'>
14	waka	PSP	<fs af='waka,psp,,,,,,' posn='140' drel='lwg__psp:jarUrawamaMxoM' chunkType='child:NP7' name='waka'>
15	pahuMcAI	VM	<fs af='pahuMcA,v,f,sg,3,,yA_jA_raha+yA_hE,yA' stype='declarative' posn='150' voicetype='passive' vpos='tam_2_3_4' name='pahuMcAI' chunkId='VGF' chunkType='head:VGF'>
16	jA	VAUX	<fs af='jA,v,any,any,any,,0,0' posn='160' drel='lwg__vaux:pahuMcAI' chunkType='child:VGF' name='jA'>
17	rahI	VAUX	<fs af='raha,v,f,sg,any,,yA,yA' posn='170' drel='lwg__vaux:pahuMcAI' chunkType='child:VGF' name='rahI'>
18	hE	VAUX	<fs af='hE,v,any,sg,3,,hE,hE' posn='180' drel='lwg__vaux:pahuMcAI' chunkType='child:VGF' name='hE'>
19	.	SYM	<fs af='.,punc,,,,,,' drel='rsym:pahuMcAI' posn='190' name='.' chunkId='BLK' chunkType='head:BLK'>
</Sentence>


</text>
</tb>
</body>
</document>
