<document id="2534459">
<head>
<title></title>			
<caption>BAjapA kA viBAjana ho sakawA hE        ejeMsiyAM   : naI xillI</caption>			
<language>Hindi </language>			
<author>			
<firstname></firstname>			
<middlename></middlename>			
<lastname></lastname>			
</author>			
<creation>			
<raw_corpus creation_date="" institute_name=""></raw_corpus>			
<annotated_corpus creation_date="07/25/2009" institute_name="IIIT-Hyderabad"></annotated_corpus>			
</creation>			
<domain_name>News Articles </domain_name>			
<distributor>LTRC, IIIT Hyderabad</distributor>			
<source>ISI, Kolkata</source>			
<publication>			
<place>New Delhi</place>			
<date>18/6/2004</date>			
<address>Connaught Place, New Delhi</address>			
<type>Newspaper</type>			
<publisher>			
<name>Amar Ujala</name>			
<url>http://www.amarujala.com</url>			
</publisher>			
</publication>			
<project_description>NSF Hindi/Urdu Dependency Treebanking Project</project_description>			
<availability>			
<format>CML/SSF</format>			
</availability>			
<byte_count>10044</byte_count>			
<word_count>389</word_count>			
<edition_number>1.0</edition_number>			
<encoding_description>			
<original_encoding>ISO 8859</original_encoding>			
<new_encoding>Unicode UTF8</new_encoding>			
</encoding_description>			
<bibliography></bibliography>			
<sentence_marker>.</sentence_marker>			
<normalization>No</normalization>			
<utility_name>cml_tags</utility_name>			

</head>
<body>
<tb number="1" segment="no" bullet="no">
<foreign language="select" writingsystem="LTR"> </foreign>			
<text>
<Sentence id="1">
1	BAjapA	NNP	<fs af='BAjapA,n,f,sg,3,o,0_kA,0' drel='r6:swara' posn='10' vpos='vib_2' name='BAjapA' chunkId='NP' chunkType='head:NP'>
2	ke	PSP	<fs af='kA,psp,m,sg,,o,,' posn='20' drel='lwg__psp:BAjapA' chunkType='child:NP' name='ke'>
3	newqwva	NNC	<fs af='newqwva,n,m,sg,3,d,0,0' posn='30' drel='pof__cn:swara' chunkType='child:NP2' name='newqwva'>
4	swara	NN	<fs af='swara,n,m,sg,3,o,0_para,0' drel='jjmod:jArI' posn='40' vpos='vib_3' name='swara' chunkId='NP2' chunkType='head:NP2'>
5	para	PSP	<fs af='para,psp,,,,,,' posn='50' drel='lwg__psp:swara' chunkType='child:NP2' name='para'>
6	jArI	JJ	<fs af='jArI,adj,any,any,,d,,' drel='nmod:saMkata' posn='60' name='jArI' chunkId='JJP' chunkType='head:JJP'>
7	saMkata	NN	<fs af='saMkata,n,m,sg,3,d,0,0' drel='pof:Wamane' posn='70' name='saMkata' chunkId='NP3' chunkType='head:NP3'>
8	Wamane	VM	<fs af='Wama,v,any,sg,any,o,nA_kA,nA' drel='r6-k1:nAma' posn='80' vpos='tam_2' name='Wamane' chunkId='VGNN' chunkType='head:VGNN'>
9	kA	PSP	<fs af='kA,psp,m,sg,,d,,' posn='90' drel='lwg__psp:Wamane' chunkType='child:VGNN' name='kA'>
10	nAma	NN	<fs af='nAma,n,m,sg,3,d,0,0' drel='pof:le' posn='100' name='nAma' chunkId='NP4' chunkType='head:NP4'>
11	nahIM	NEG	<fs af='nahIM,avy,,,,,,' posn='110' drel='lwg__neg:le' chunkType='child:VGF' name='nahIM'>
12	le	VM	<fs af='le,v,m,sg,3,,0_raha+yA_hE,0' stype='declarative' posn='120' voicetype='active' vpos='tam_3_4' name='le' chunkId='VGF' chunkType='head:VGF'>
13	rahA	VAUX	<fs af='raha,v,m,sg,any,,yA,yA' posn='130' drel='lwg__vaux:le' chunkType='child:VGF' name='rahA'>
14	hE	VAUX	<fs af='hE,v,any,sg,3,,hE,hE' posn='140' drel='lwg__vaux:le' chunkType='child:VGF' name='hE'>
15	.	SYM	<fs af='.,punc,,,,,,' drel='rsym:le' posn='150' name='.' chunkId='BLK' chunkType='head:BLK'>
</Sentence>


<Sentence id="2">
1	variRTa	JJ	<fs af='variRTa,adj,any,any,,o,,' posn='10' drel='nmod__adj:newA' chunkType='child:NP' name='variRTa'>
2	BAjapA	NNP	<fs af='BAjapA,n,f,sg,3,d,0,0' posn='20' drel='nmod__adj:newA' chunkType='child:NP' name='BAjapA'>
3	newA	NN	<fs af='newA,n,m,sg,3,o,0,0' drel='nmod:KurAnA' posn='30' name='newA' chunkId='NP' chunkType='head:NP'>
4	maxana	NNPC	<fs af='maxana,n,m,sg,3,d,0,0' posn='40' drel='pof__cn:KurAnA' chunkType='child:NP2' name='maxana'>
5	lAla	NNPC	<fs af='lAla,n,m,sg,3,d,0,0' posn='50' drel='pof__cn:KurAnA' chunkType='child:NP2' name='lAla'>
6	KurAnA	NNP	<fs af='KurAnA,n,any,sg,3,o,0_ne,0' drel='k1:PUMka' posn='60' vpos='vib_4' name='KurAnA' chunkId='NP2' chunkType='head:NP2'>
7	ne	PSP	<fs af='ne,psp,,,,,,' posn='70' drel='lwg__psp:KurAnA' chunkType='child:NP2' name='ne'>
8	eka	QC	<fs af='eka,num,any,any,,any,,' posn='80' drel='nmod__adj:bAra' chunkType='child:NP3' name='eka'>
9	bAra	NN	<fs af='bAra,n,f,sg,3,d,0,0' drel='rbmod:Pira' posn='90' name='bAra' chunkId='NP3' chunkType='head:NP3'>
10	Pira	RB	<fs af='Pira,adv,,,,,,' drel='adv:PUMka' posn='100' name='Pira' chunkId='RBP' chunkType='head:RBP'>
11	pArtI	NN	<fs af='pArtI,n,f,sg,3,o,0_kA,0' drel='r6:newqwva' posn='110' vpos='vib_2' name='pArtI' chunkId='NP4' chunkType='head:NP4'>
12	ke	PSP	<fs af='kA,psp,m,sg,,o,,' posn='120' drel='lwg__psp:pArtI' chunkType='child:NP4' name='ke'>
13	mOjUxA	JJ	<fs af='mOjUxA,adj,any,any,,o,,' posn='130' drel='nmod__adj:newqwva' chunkType='child:NP5' name='mOjUxA'>
14	newqwva	NN	<fs af='newqwva,n,m,sg,3,o,0_ke_KilAPa,0' drel='vmod:PUMka' posn='140' vpos='vib_3_4' name='newqwva' chunkId='NP5' chunkType='head:NP5'>
15	ke	PSP	<fs af='ke,psp,,,,,,' posn='150' drel='lwg__psp:newqwva' chunkType='child:NP5' name='ke2'>
16	KilAPa	PSP	<fs af='KilAPa,adj,,,,,,' posn='160' drel='lwg__psp:newqwva' chunkType='child:NP5' name='KilAPa'>
17	vixroha	NN	<fs af='vixroha,n,m,sg,3,o,0_kA,0' drel='r6-k2:bigula' posn='170' vpos='vib_2' name='vixroha' chunkId='NP6' chunkType='head:NP6'>
18	kA	PSP	<fs af='kA,psp,m,sg,,d,,' posn='180' drel='lwg__psp:vixroha' chunkType='child:NP6' name='kA'>
19	bigula	NN	<fs af='bigula,n,m,sg,3,d,0,0' drel='pof:PUMka' posn='190' name='bigula' chunkId='NP7' chunkType='head:NP7'>
20	PUMka	VM	<fs af='PUMka,v,m,sg,3,,0_xe+yA_hE,0' stype='declarative' posn='200' voicetype='active' vpos='tam_2_3' name='PUMka' chunkId='VGF' chunkType='head:VGF'>
21	xiyA	VAUX	<fs af='xe,v,m,sg,any,,yA,yA' posn='210' drel='lwg__vaux:PUMka' chunkType='child:VGF' name='xiyA'>
22	hE	VAUX	<fs af='hE,v,any,sg,3,,hE,hE' posn='220' drel='lwg__vaux:PUMka' chunkType='child:VGF' name='hE'>
23	.	SYM	<fs af='.,punc,,,,,,' drel='rsym:PUMka' posn='230' name='.' chunkId='BLK' chunkType='head:BLK'>
</Sentence>


<Sentence id="3">
1	unhoMne	PRP	<fs af='vaha,pn,any,sg,3h,o,ne,ne' drel='k1:kahA' posn='10' name='unhoMne' chunkId='NP' chunkType='head:NP'>
2	kahA	VM	<fs af='kaha,v,m,sg,3,,yA_hE,yA' stype='declarative' posn='20' voicetype='active' vpos='tam_2' name='kahA' chunkId='VGF' chunkType='head:VGF'>
3	hE	VAUX	<fs af='hE,v,any,sg,3,,hE,hE' posn='30' drel='lwg__vaux:kahA' chunkType='child:VGF' name='hE'>
4	ki	CC	<fs af='ki,avy,,,,,,' drel='k2:kahA' posn='40' name='ki' chunkId='CCP' chunkType='head:CCP'>
5	pArtI	NNC	<fs af='pArtI,n,f,sg,3,d,0,0' posn='50' drel='pof__cn:aXyakRa' chunkType='child:NP2' name='pArtI'>
6	aXyakRa	NN	<fs af='aXyakRa,n,m,sg,3,d,0,0' posn='60' drel='nmod:AdavANI' chunkType='child:NP2' name='aXyakRa'>
7	lAlakqRNa	NNPC	<fs af='lAlakqRNa,n,m,sg,3,d,0,0' posn='70' drel='pof__cn:AdavANI' chunkType='child:NP2' name='lAlakqRNa'>
8	AdavANI	NNP	<fs af='AdavANI,n,any,sg,3,o,0_ke_KilAPa,0' drel='vmod:baDZa' posn='80' vpos='vib_vib_5_6' name='AdavANI' chunkId='NP2' chunkType='head:NP2'>
9	ke	PSP	<fs af='ke,psp,,,,,,' posn='90' drel='lwg__psp:AdavANI' chunkType='child:NP2' name='ke'>
10	KilAPa	PSP	<fs af='KilAPa,adj,,,,,,' posn='100' drel='lwg__psp:AdavANI' chunkType='child:NP2' name='KilAPa'>
11	pArtI	NN	<fs af='pArtI,n,f,sg,3,o,0_meM,0' drel='k7:baDZa' posn='110' vpos='vib_2' name='pArtI2' chunkId='NP3' chunkType='head:NP3'>
12	meM	PSP	<fs af='meM,psp,,,,,,' posn='120' drel='lwg__psp:pArtI2' chunkType='child:NP3' name='meM'>
13	baDZa	VM	<fs af='baDZa,v,any,sg,any,,0_raha+yA,0' drel='nmod__k1inv:viroXa' posn='130' vpos='tam_2' name='baDZa' chunkId='VGNF' chunkType='head:VGNF'>
14	rahe	VAUX	<fs af='raha,v,m,sg,any,,yA,yA' posn='140' drel='lwg__vaux:baDZa' chunkType='child:VGNF' name='rahe'>
15	viroXa	NN	<fs af='viroXa,n,m,sg,3,o,0_ke_calawe,0' drel='rh:pahuMca' posn='150' vpos='vib_2_3' name='viroXa' chunkId='NP4' chunkType='head:NP4'>
16	ke	PSP	<fs af='ke,psp,,,,,,' posn='160' drel='lwg__psp:viroXa' chunkType='child:NP4' name='ke2'>
17	calawe	PSP	<fs af='calawe,psp,,,,,,' posn='170' drel='lwg__psp:viroXa' chunkType='child:NP4' name='calawe'>
18	BAjapA	NNP	<fs af='BAjapA,n,f,sg,3,d,0,0' drel='k1:pahuMca' posn='180' name='BAjapA' chunkId='NP5' chunkType='head:NP5'>
19	viBAjana	NN	<fs af='viBAjana,n,m,sg,3,o,0_ke_karIba,0' drel='k7:pahuMca' posn='190' vpos='vib_2_3' name='viBAjana' chunkId='NP6' chunkType='head:NP6'>
20	ke	PSP	<fs af='ke,psp,,,,,,' posn='200' drel='lwg__psp:viBAjana' chunkType='child:NP6' name='ke3'>
21	karIba	NST	<fs af='karIba,nst,m,sg,3,d,,' posn='210' drel='lwg__psp:viBAjana' chunkType='child:NP6' name='karIba'>
22	pahuMca	VM	<fs af='pahuMca,v,f,sg,3,,0_jA+yA1_hE,0' drel='ccof:ki' stype='declarative' posn='220' voicetype='active' vpos='tam_2_3' name='pahuMca' chunkId='VGF2' chunkType='head:VGF2'>
23	gaI	VAUX	<fs af='jA,v,f,sg,any,,yA1,yA1' posn='230' drel='lwg__vaux:pahuMca' chunkType='child:VGF2' name='gaI'>
24	hE	VAUX	<fs af='hE,v,any,sg,3,,hE,hE' posn='240' drel='lwg__vaux:pahuMca' chunkType='child:VGF2' name='hE2'>
25	.	SYM	<fs af='.,punc,,,,,,' drel='rsym:kahA' posn='250' name='.' chunkId='BLK' chunkType='head:BLK'>
</Sentence>


<Sentence id="4">
1	unhoMne	PRP	<fs af='vaha,pn,any,sg,3h,o,ne,ne' drel='k1:kahA' posn='10' name='unhoMne' chunkId='NP' chunkType='head:NP'>
2	kahA	VM	<fs af='kaha,v,m,sg,any,,yA,yA' stype='declarative' posn='20' voicetype='active' name='kahA' chunkId='VGF' chunkType='head:VGF'>
3	ki	CC	<fs af='ki,avy,,,,,,' drel='k2:kahA' posn='30' name='ki' chunkId='CCP' chunkType='head:CCP'>
4	gujarAwa	NNP	<fs af='gujarAwa,n,m,sg,3,o,0_kA,0' drel='r6:muKyamaMwrI' posn='40' vpos='vib_2' name='gujarAwa' chunkId='NP2' chunkType='head:NP2'>
5	ke	PSP	<fs af='kA,psp,m,sg,,o,,' posn='50' drel='lwg__psp:gujarAwa' chunkType='child:NP2' name='ke'>
6	pUrva	JJ	<fs af='pUrva,adj,any,any,,o,,' posn='60' drel='nmod__adj:muKyamaMwrI' chunkType='child:NP3' name='pUrva'>
7	muKyamaMwrI	NNP	<fs af='muKyamaMwrI,n,m,sg,3,o,0,0' drel='nmod:patela' posn='70' name='muKyamaMwrI' chunkId='NP3' chunkType='head:NP3'>
8	keSuBAI	NNPC	<fs af='keSuBAI,n,m,sg,3,d,0,0' posn='80' drel='pof__cn:patela' chunkType='child:NP4' name='keSuBAI'>
9	patela	NNP	<fs af='patela,n,any,sg,3,o,0_ne,0' drel='k1:kahA2' posn='90' vpos='vib_3' name='patela' chunkId='NP4' chunkType='head:NP4'>
10	ne	PSP	<fs af='ne,psp,,,,,,' posn='100' drel='lwg__psp:patela' chunkType='child:NP4' name='ne'>
11	muJe	PRP	<fs af='mEM,pn,any,sg,1,o,ko,ko' drel='k2:kahA2' posn='110' name='muJe' chunkId='NP5' chunkType='head:NP5'>
12	pArtI	NN	<fs af='pArtI,n,f,sg,3,o,0_kA,0' drel='r6-k2:newqwva' posn='120' vpos='vib_2' name='pArtI' chunkId='NP6' chunkType='head:NP6'>
13	kA	PSP	<fs af='kA,psp,m,sg,,d,,' posn='130' drel='lwg__psp:pArtI' chunkType='child:NP6' name='kA'>
14	newqwva	NN	<fs af='newqwva,n,m,sg,3,d,0,0' drel='pof:karane' posn='140' name='newqwva' chunkId='NP7' chunkType='head:NP7'>
15	karane	VM	<fs af='kara,v,any,any,any,o,nA_ke_lie,nA' drel='rt:kahA2' posn='150' vpos='tam_2_3' name='karane' chunkId='VGNN' chunkType='head:VGNN'>
16	ke	PSP	<fs af='ke,psp,,,,,,' posn='160' drel='lwg__psp:karane' chunkType='child:VGNN' name='ke2'>
17	lie	PSP	<fs af='lie,psp,,,,,,' posn='170' drel='lwg__psp:karane' chunkType='child:VGNN' name='lie'>
18	kahA	VM	<fs af='kaha,v,m,sg,3,,yA_hE,yA' drel='ccof:ki' stype='declarative' posn='180' voicetype='active' vpos='tam_2' name='kahA2' chunkId='VGF2' chunkType='head:VGF2'>
19	hE	VAUX	<fs af='hE,v,any,sg,3,,hE,hE' posn='190' drel='lwg__vaux:kahA2' chunkType='child:VGF2' name='hE'>
20	.	SYM	<fs af='.,punc,,,,,,' drel='rsym:kahA' posn='200' name='.' chunkId='BLK' chunkType='head:BLK'>
</Sentence>


<Sentence id="5">
1	KurAnA	NNP	<fs af='KurAnA,n,any,sg,3,o,0_ne,0' drel='k1:kahA' posn='10' vpos='vib_2' name='KurAnA' chunkId='NP' chunkType='head:NP'>
2	ne	PSP	<fs af='ne,psp,,,,,,' posn='20' drel='lwg__psp:KurAnA' chunkType='child:NP' name='ne'>
3	kahA	VM	<fs af='kaha,v,m,sg,any,,yA,yA' stype='declarative' posn='30' voicetype='active' name='kahA' chunkId='VGF' chunkType='head:VGF'>
4	ki	CC	<fs af='ki,avy,,,,,,' drel='k2:kahA' posn='40' name='ki' chunkId='CCP' chunkType='head:CCP'>
5	gujarAwa	NNP	<fs af='gujarAwa,n,m,sg,3,o,0,0' drel='ccof:va' posn='50' name='gujarAwa' chunkId='NP2' chunkType='head:NP2'>
6	,	SYM	<fs af='COMMA,punc,,,,,,' posn='60' drel='rsym:gujarAwa' chunkType='child:NP2' name=','>
7	bihAra	NNP	<fs af='bihAra,n,m,sg,3,o,0,0' drel='ccof:va' posn='70' name='bihAra' chunkId='NP3' chunkType='head:NP3'>
8	va	CC	<fs af='va,avy,,,,,,' drel='r6:newA' posn='80' name='va' chunkId='CCP2' chunkType='head:CCP2'>
9	JAraKaMda	NNP	<fs af='JAraKaMda,n,m,sg,3,o,0_kA,0' drel='ccof:va' posn='90' vpos='vib_2' name='JAraKaMda' chunkId='NP4' chunkType='head:NP4'>
10	ke	PSP	<fs af='kA,psp,m,pl,,d,,' posn='100' drel='lwg__psp:JAraKaMda' chunkType='child:NP4' name='ke'>
11	variRTa	JJ	<fs af='variRTa,adj,any,any,,d,,' posn='110' drel='nmod__adj:newA' chunkType='child:NP5' name='variRTa'>
12	BAjapA	NNP	<fs af='BAjapA,n,f,sg,3,d,0,0' posn='120' drel='nmod__adj:newA' chunkType='child:NP5' name='BAjapA'>
13	newA	NN	<fs af='newA,n,m,pl,3,d,0,0' drel='k1:hEM' posn='130' name='newA' chunkId='NP5' chunkType='head:NP5'>
14	pArtI	NNC	<fs af='pArtI,n,f,sg,3,d,0,0' posn='140' drel='pof__cn:newqwva' chunkType='child:NP6' name='pArtI'>
15	newqwva	NN	<fs af='newqwva,n,m,sg,3,o,0_xvArA,0' drel='k3:hEM' posn='150' vpos='vib_3' name='newqwva' chunkId='NP6' chunkType='head:NP6'>
16	xvArA	PSP	<fs af='xvArA,psp,,,,,,' posn='160' drel='lwg__psp:newqwva' chunkType='child:NP6' name='xvArA'>
17	apanI	PRP	<fs af='apanA,pn,f,any,any,o,0,0' drel='r6:upekRA' posn='170' name='apanI' chunkId='NP7' chunkType='head:NP7'>
18	upekRA	NN	<fs af='upekRA,n,f,sg,3,o,0_se,0' drel='rh:hEM' posn='180' vpos='vib_2' name='upekRA' chunkId='NP8' chunkType='head:NP8'>
19	se	PSP	<fs af='se,psp,,,,,,' posn='190' drel='lwg__psp:upekRA' chunkType='child:NP8' name='se'>
20	xuKI	JJ	<fs af='xuKI,adj,any,any,,,,' drel='k1s:hEM' posn='200' name='xuKI' chunkId='JJP' chunkType='head:JJP'>
21	hEM	VM	<fs af='hE,v,any,pl,3,,hE,hE' drel='ccof:ki' stype='declarative' posn='210' voicetype='active' name='hEM' chunkId='VGF2' chunkType='head:VGF2'>
22	.	SYM	<fs af='.,punc,,,,,,' drel='rsym:kahA' posn='220' name='.' chunkId='BLK' chunkType='head:BLK'>
</Sentence>


<Sentence id="6">
1	unhoMne	PRP	<fs af='vaha,pn,any,sg,3h,o,ne,ne' drel='k1:kahA' posn='10' name='unhoMne' chunkId='NP' chunkType='head:NP'>
2	kahA	VM	<fs af='kaha,v,m,sg,any,,yA,yA' stype='declarative' posn='20' voicetype='active' name='kahA' chunkId='VGF' chunkType='head:VGF'>
3	ki	CC	<fs af='ki,avy,,,,,,' drel='k2:kahA' posn='30' name='ki' chunkId='CCP' chunkType='head:CCP'>
4	sWiwi	NN	<fs af='sWiwi,n,f,sg,3,d,0,0' drel='k1:bigadZa' posn='40' name='sWiwi' chunkId='NP2' chunkType='head:NP2'>
5	iwanI	QF	<fs af='iwanA,adj,f,sg,,,,' drel='k1s:bigadZa' posn='50' name='iwanI' chunkId='JJP' chunkType='head:JJP'>
6	bigadZa	VM	<fs af='bigada,v,f,sg,3,,0_cuka+yA_hE,0' drel='ccof:ki' stype='declarative' posn='60' voicetype='active' vpos='tam_2_3' name='bigadZa' chunkId='VGF2' chunkType='head:VGF2'>
7	cukI	VAUX	<fs af='cuka,v,f,sg,any,,yA,yA' posn='70' drel='lwg__vaux:bigadZa' chunkType='child:VGF2' name='cukI'>
8	hE	VAUX	<fs af='hE,v,any,sg,3,,hE,hE' posn='80' drel='lwg__vaux:bigadZa' chunkType='child:VGF2' name='hE'>
9	ki	CC	<fs af='ki,avy,,,,,,' drel='rs:iwanI' posn='90' name='ki2' chunkId='CCP2' chunkType='head:CCP2'>
10	pArtI	NNC	<fs af='pArtI,n,f,sg,3,d,0,0' posn='100' drel='pof__cn:newqwva' chunkType='child:NP3' name='pArtI'>
11	newqwva	NN	<fs af='newqwva,n,m,sg,3,o,0_ke_KilAPa,0' drel='vmod:hogA' posn='110' vpos='vib_3_4' name='newqwva' chunkId='NP3' chunkType='head:NP3'>
12	ke	PSP	<fs af='ke,psp,,,,,,' posn='120' drel='lwg__psp:newqwva' chunkType='child:NP3' name='ke'>
13	KilAPa	PSP	<fs af='KilAPa,adj,,,,,,' posn='130' drel='lwg__psp:newqwva' chunkType='child:NP3' name='KilAPa'>
14	jalxa	RB	<fs af='jalxa,adv,,,,,,' drel='adv:hogA' posn='140' name='jalxa' chunkId='RBP' chunkType='head:RBP'>
15	vixroha	NN	<fs af='vixroha,n,m,sg,3,d,0,0' drel='pof:hogA' posn='150' name='vixroha' chunkId='NP4' chunkType='head:NP4'>
16	hogA	VM	<fs af='ho,v,m,sg,3,,gA,gA' drel='ccof:ki2' stype='declarative' posn='160' voicetype='active' name='hogA' chunkId='VGF3' chunkType='head:VGF3'>
17	.	SYM	<fs af='.,punc,,,,,,' drel='rsym:kahA' posn='170' name='.' chunkId='BLK' chunkType='head:BLK'>
</Sentence>


<Sentence id="7">
1	kisI	PRP	<fs af='koI,pn,any,sg,3,o,0_kA,0' drel='r6:nAma' posn='10' vpos='vib_2' name='kisI' chunkId='NP' chunkType='head:NP'>
2	kA	PSP	<fs af='kA,psp,m,sg,,d,,' posn='20' drel='lwg__psp:kisI' chunkType='child:NP' name='kA'>
3	nAma	NN	<fs af='nAma,n,m,sg,3,d,0,0' drel='k1:bawAe' posn='30' name='nAma' chunkId='NP2' chunkType='head:NP2'>
4	bawAe	VM	<fs af='bawA,v,m,sg,any,,yA,yA' drel='ras-NEG:kahA' posn='40' name='bawAe' chunkId='VGNF' chunkType='head:VGNF'>
5	bagEra	NEG	<fs af='bagEra,avy,,,,,,' posn='50' drel='lwg__neg:bawAe' chunkType='child:VGNF' name='bagEra'>
6	KurAnA	NNP	<fs af='KurAnA,n,any,sg,3,o,0_ne,0' drel='k1:kahA' posn='60' vpos='vib_2' name='KurAnA' chunkId='NP3' chunkType='head:NP3'>
7	ne	PSP	<fs af='ne,psp,,,,,,' posn='70' drel='lwg__psp:KurAnA' chunkType='child:NP3' name='ne'>
8	kahA	VM	<fs af='kaha,v,m,sg,any,,yA,yA' stype='declarative' posn='80' voicetype='active' name='kahA' chunkId='VGF' chunkType='head:VGF'>
9	ki	CC	<fs af='ki,avy,,,,,,' drel='k2:kahA' posn='90' name='ki' chunkId='CCP' chunkType='head:CCP'>
10	mEM	PRP	<fs af='mEM,pn,any,sg,1,d,0,0' drel='k1:kara' posn='100' name='mEM' chunkId='NP4' chunkType='head:NP4'>
11	AdavANI	NNP	<fs af='AdavANI,n,any,sg,3,o,0_ke_karIba,0' drel='k7:rahane' posn='110' vpos='vib_2_3' name='AdavANI' chunkId='NP5' chunkType='head:NP5'>
12	ke	PSP	<fs af='ke,psp,,,,,,' posn='120' drel='lwg__psp:AdavANI' chunkType='child:NP5' name='ke'>
13	karIba	NST	<fs af='karIba,nst,m,sg,3,d,,' posn='130' drel='lwg__psp:AdavANI' chunkType='child:NP5' name='karIba'>
14	rahane	VM	<fs af='raha,v,any,pl,any,o,nA_vAlA,nA' drel='nmod:logoM' posn='140' vpos='tam_2' name='rahane' chunkId='VGNN' chunkType='head:VGNN'>
15	vAle	PSP	<fs af='vAlA,psp,m,pl,,o,,' posn='150' drel='lwg__psp:rahane' chunkType='child:VGNN' name='vAle'>
16	logoM	NN	<fs af='loga,n,m,pl,3,o,0_ke_aMwargawa,0' drel='k7a:kara' posn='160' vpos='vib_2_3' name='logoM' chunkId='NP6' chunkType='head:NP6'>
17	ke	PSP	<fs af='ke,psp,,,,,,' posn='170' drel='lwg__psp:logoM' chunkType='child:NP6' name='ke2'>
18	aMwargawa	PSP	<fs af='aMwargawa,psp,,,,,,' posn='180' drel='lwg__psp:logoM' chunkType='child:NP6' name='aMwargawa'>
19	kAma	NN	<fs af='kAma,n,m,sg,3,d,0,0' drel='k2:kara' posn='190' name='kAma' chunkId='NP7' chunkType='head:NP7'>
20	nahIM	NEG	<fs af='nahIM,avy,,,,,,' posn='200' drel='lwg__neg:kara' chunkType='child:VGF2' name='nahIM'>
21	kara	VM	<fs af='kara,v,m,sg,1,,0_saka+wA_hE,0' drel='ccof:ki' stype='declarative' posn='210' voicetype='active' vpos='tam_3_4' name='kara' chunkId='VGF2' chunkType='head:VGF2'>
22	sakawA	VAUX	<fs af='saka,v,m,sg,any,,wA,wA' posn='220' drel='lwg__vaux:kara' chunkType='child:VGF2' name='sakawA'>
23	hUM	VAUX	<fs af='hE,v,any,sg,1,,hE,hE' posn='230' drel='lwg__vaux:kara' chunkType='child:VGF2' name='hUM'>
24	.	SYM	<fs af='.,punc,,,,,,' drel='rsym:kahA' posn='240' name='.' chunkId='BLK' chunkType='head:BLK'>
</Sentence>


<Sentence id="8">
1	ye	DEM	<fs af='yaha,pn,any,pl,3,d,,' posn='10' drel='nmod__adj:loga' chunkType='child:NP' name='ye'>
2	loga	NN	<fs af='loga,n,m,pl,3,d,0,0' drel='k1:karawe' posn='20' name='loga' chunkId='NP' chunkType='head:NP'>
3	eyarakaMdISana	JJ	<fs af='eyarakaMdISana,adj,any,any,,o,,' posn='170' drel='nmod__adj:kamaroM' chunkType='child:NP2' name='eyarakaMdISana'>
4	kamaroM	NN	<fs af='kamarA,n,m,pl,3,o,0_meM,0' drel='k7p:bETa' posn='40' vpos='vib_3' name='kamaroM' chunkId='NP2' chunkType='head:NP2'>
5	meM	PSP	<fs af='meM,psp,,,,,,' posn='50' drel='lwg__psp:kamaroM' chunkType='child:NP2' name='meM'>
6	bETa	VM	<fs af='bETa,v,any,any,any,,0,0' drel='vmod:karawe' posn='60' name='bETa' chunkId='VGNF' chunkType='head:VGNF'>
7	pArtI	NNC	<fs af='pArtI,n,f,sg,3,d,0,0' posn='70' drel='pof__cn:aXyakRa' chunkType='child:NP3' name='pArtI'>
8	aXyakRa	NN	<fs af='aXyakRa,n,m,sg,3,o,0_kA,0' drel='r6:PEsaloM' posn='80' vpos='vib_3' name='aXyakRa' chunkId='NP3' chunkType='head:NP3'>
9	ke	PSP	<fs af='kA,psp,m,pl,,o,,' posn='90' drel='lwg__psp:aXyakRa' chunkType='child:NP3' name='ke'>
10	PEsaloM	NN	<fs af='PEsalA,n,m,pl,3,o,0_ko,0' drel='k2:karawe' posn='100' vpos='vib_2' name='PEsaloM' chunkId='NP4' chunkType='head:NP4'>
11	ko	PSP	<fs af='ko,psp,,,,,,' posn='110' drel='lwg__psp:PEsaloM' chunkType='child:NP4' name='ko'>
12	praBAviwa	JJ	<fs af='praBAviwa,adj,any,any,,,,' drel='pof:karawe' posn='120' name='praBAviwa' chunkId='JJP' chunkType='head:JJP'>
13	karawe	VM	<fs af='kara,v,m,pl,3,,wA_hE,wA' stype='declarative' posn='130' voicetype='active' vpos='tam_2' name='karawe' chunkId='VGF' chunkType='head:VGF'>
14	hEM	VAUX	<fs af='hE,v,any,pl,3,,hE,hE' posn='140' drel='lwg__vaux:karawe' chunkType='child:VGF' name='hEM'>
15	.	SYM	<fs af='.,punc,,,,,,' drel='rsym:karawe' posn='150' name='.' chunkId='BLK' chunkType='head:BLK'>
</Sentence>


<Sentence id="9">
1	yaha	PRP	<fs af='yaha,pn,any,sg,3,d,0,0' drel='k1:pUCe' posn='10' name='yaha' chunkId='NP' chunkType='head:NP'>
2	pUCe	VM	<fs af='pUCa,v,any,sg,any,,yA_jA+nA_para,yA' drel='k7:kahA' posn='20' vpos='tam_2_3' name='pUCe' chunkId='VGNN' chunkType='head:VGNN'>
3	jAne	VAUX	<fs af='jA,v,any,any,any,o,nA,nA' posn='30' drel='lwg__vaux:pUCe' chunkType='child:VGNN' name='jAne'>
4	para	PSP	<fs af='para,psp,,,,,,' posn='40' drel='lwg__psp:pUCe' chunkType='child:VGNN' name='para'>
5	ki	CC	<fs af='ki,avy,,,,,,' drel='rs:yaha' posn='50' name='ki' chunkId='CCP' chunkType='head:CCP'>
6	kyA	WQ	<fs af='kyA,pn,,,,,,' drel='adv:CodZeMge' posn='60' name='kyA' chunkId='RBP' chunkType='head:RBP'>
7	ve	PRP	<fs af='vaha,pn,any,sg,3h,d,0,0' drel='k1:CodZeMge' posn='70' name='ve' chunkId='NP2' chunkType='head:NP2'>
8	pArtI	NN	<fs af='pArtI,n,f,sg,3,o,0_ko,0' drel='k2:CodZeMge' posn='80' vpos='vib_2' name='pArtI' chunkId='NP3' chunkType='head:NP3'>
9	ko	PSP	<fs af='ko,psp,,,,,,' posn='90' drel='lwg__psp:pArtI' chunkType='child:NP3' name='ko'>
10	CodZeMge	VM	<fs af='CodZa,v,m,sg,3h,,gA,gA' drel='ccof:ki' stype='interrogative' posn='100' voicetype='active' name='CodZeMge' chunkId='VGF' chunkType='head:VGF'>
11	,	SYM	<fs af='COMMA,punc,,,,,,' posn='110' drel='rsym:CodZeMge' chunkType='child:VGF' name=','>
12	unhoMne	PRP	<fs af='vaha,pn,any,sg,3h,o,ne,ne' drel='k1:kahA' posn='120' name='unhoMne' chunkId='NP4' chunkType='head:NP4'>
13	kahA	VM	<fs af='kaha,v,m,sg,any,,yA,yA' stype='declarative' posn='130' voicetype='active' name='kahA' chunkId='VGF2' chunkType='head:VGF2'>
14	ki	CC	<fs af='ki,avy,,,,,,' drel='k2:kahA' posn='140' name='ki2' chunkId='CCP2' chunkType='head:CCP2'>
15	ve	PRP	<fs af='vaha,pn,any,sg,3h,d,0,0' drel='k1:milane' posn='150' name='ve2' chunkId='NP5' chunkType='head:NP5'>
16	apanI	PRP	<fs af='apanA,pn,f,any,any,o,0,0' drel='r6:yojanAoM' posn='160' name='apanI' chunkId='NP6' chunkType='head:NP6'>
17	BAvI	JJ	<fs af='BAvI,adj,any,any,,o,,' posn='170' drel='nmod__adj:yojanAoM' chunkType='child:NP7' name='BAvI'>
18	yojanAoM	NN	<fs af='yojanA,n,f,pl,3,o,0_ke_bAre_meM,0' drel='k7:lene' posn='180' vpos='vib_3_4_5' name='yojanAoM' chunkId='NP7' chunkType='head:NP7'>
19	ke	PSP	<fs af='ke,psp,,,,,,' posn='190' drel='lwg__psp:yojanAoM' chunkType='child:NP7' name='ke'>
20	bAre	PSP	<fs af='bAre,psp,,,,,,' posn='200' drel='lwg__psp:yojanAoM' chunkType='child:NP7' name='bAre'>
21	meM	PSP	<fs af='meM,psp,,,,,,' posn='210' drel='lwg__psp:yojanAoM' chunkType='child:NP7' name='meM'>
22	nirNaya	NN	<fs af='nirNaya,n,m,sg,3,d,0,0' drel='k2:lene' posn='220' name='nirNaya' chunkId='NP8' chunkType='head:NP8'>
23	lene	VM	<fs af='le,v,any,any,any,o,nA_ke_lie,nA' drel='rt:milane' posn='230' vpos='tam_2_3' name='lene' chunkId='VGNN2' chunkType='head:VGNN2'>
24	ke	PSP	<fs af='ke,psp,,,,,,' posn='240' drel='lwg__psp:lene' chunkType='child:VGNN2' name='ke2'>
25	lie	PSP	<fs af='lie,psp,,,,,,' posn='250' drel='lwg__psp:lene' chunkType='child:VGNN2' name='lie'>
26	Araesaesa	NNP	<fs af='Araesaesa,n,m,sg,3,d,0,0' posn='260' drel='nmod__adj:newqwva' chunkType='child:NP9' name='Araesaesa'>
27	newqwva	NN	<fs af='newqwva,n,m,sg,3,o,0_se,0' drel='k2:milane' posn='270' vpos='vib_vib_3' name='newqwva' chunkId='NP9' chunkType='head:NP9'>
28	se	PSP	<fs af='se,psp,,,,,,' posn='280' drel='lwg__psp:newqwva' chunkType='child:NP9' name='se'>
29	milane	VM	<fs af='mila,v,m,sg,3h,,nA_jA_raha+yA_hE,nA' drel='ccof:ki2' stype='declarative' posn='290' voicetype='active' vpos='tam_2_3_4' name='milane' chunkId='VGF3' chunkType='head:VGF3'>
30	jA	VAUX	<fs af='jA,v,any,any,any,,0,0' posn='300' drel='lwg__vaux:milane' chunkType='child:VGF3' name='jA'>
31	rahe	VAUX	<fs af='raha,v,m,sg,3h,,yA,yA' posn='310' drel='lwg__vaux:milane' chunkType='child:VGF3' name='rahe'>
32	hEM	VAUX	<fs af='hE,v,any,sg,3h,,hE,hE' posn='320' drel='lwg__vaux:milane' chunkType='child:VGF3' name='hEM'>
33	.	SYM	<fs af='.,punc,,,,,,' drel='rsym:kahA' posn='330' name='.' chunkId='BLK' chunkType='head:BLK'>
</Sentence>


<Sentence id="10">
1	KurAnA	NNP	<fs af='KurAnA,n,any,sg,3,o,0_ne,0' drel='k1:kahA' posn='10' vpos='vib_2' name='KurAnA' chunkId='NP' chunkType='head:NP'>
2	ne	PSP	<fs af='ne,psp,,,,,,' posn='20' drel='lwg__psp:KurAnA' chunkType='child:NP' name='ne'>
3	kahA	VM	<fs af='kaha,v,m,sg,any,,yA,yA' stype='declarative' posn='30' voicetype='active' name='kahA' chunkId='VGF' chunkType='head:VGF'>
4	ki	CC	<fs af='ki,avy,,,,,,' drel='k2:kahA' posn='40' name='ki' chunkId='CCP' chunkType='head:CCP'>
5	bihAra	NNP	<fs af='bihAra,n,m,sg,3,o,0,0' drel='ccof:va' posn='50' name='bihAra' chunkId='NP2' chunkType='head:NP2'>
6	va	CC	<fs af='va,avy,,,,,,' drel='k7p:ho' posn='60' name='va' chunkId='CCP2' chunkType='head:CCP2'>
7	JAraKaMda	NNP	<fs af='JAraKaMda,n,m,sg,3,o,0_meM,0' drel='ccof:va' posn='70' vpos='vib_2' name='JAraKaMda' chunkId='NP3' chunkType='head:NP3'>
8	meM	PSP	<fs af='meM,psp,,,,,,' posn='80' drel='lwg__psp:JAraKaMda' chunkType='child:NP3' name='meM'>
9	pArtI	NN	<fs af='pArtI,n,f,sg,3,o,0_kA,0' drel='r6:sWiwi' posn='90' vpos='vib_2' name='pArtI' chunkId='NP4' chunkType='head:NP4'>
10	kI	PSP	<fs af='kA,psp,f,sg,,d,,' posn='100' drel='lwg__psp:pArtI' chunkType='child:NP4' name='kI'>
11	sWiwi	NN	<fs af='sWiwi,n,f,sg,3,d,0,0' drel='k1:ho' posn='110' name='sWiwi' chunkId='NP5' chunkType='head:NP5'>
12	baxawara	JJ	<fs af='baxawara,adj,any,any,,,,' drel='pof:ho' posn='120' name='baxawara' chunkId='JJP' chunkType='head:JJP'>
13	ho	VM	<fs af='ho,v,f,sg,3,,0_cuka+yA_hE,0' drel='ccof:ki' stype='declarative' posn='130' voicetype='active' vpos='tam_2_3' name='ho' chunkId='VGF2' chunkType='head:VGF2'>
14	cukI	VAUX	<fs af='cuka,v,f,sg,any,,yA,yA' posn='140' drel='lwg__vaux:ho' chunkType='child:VGF2' name='cukI'>
15	hE	VAUX	<fs af='hE,v,any,sg,3,,hE,hE' posn='150' drel='lwg__vaux:ho' chunkType='child:VGF2' name='hE'>
16	.	SYM	<fs af='.,punc,,,,,,' drel='rsym:kahA' posn='160' name='.' chunkId='BLK' chunkType='head:BLK'>
</Sentence>


<Sentence id="11">
1	SawruGna	NNPC	<fs af='SawruGna,n,m,sg,3,d,0,0' posn='10' drel='pof__cn:sinhA' chunkType='child:NP' name='SawruGna'>
2	sinhA	NNP	<fs af='sinhA,n,any,sg,3,o,0,0' drel='ccof:va' posn='20' name='sinhA' chunkId='NP' chunkType='head:NP'>
3	,	SYM	<fs af='COMMA,punc,,,,,,' posn='30' drel='rsym:sinhA' chunkType='child:NP' name=','>
4	yaSavaMwa	NNPC	<fs af='yaSavaMwa,n,m,sg,3,d,0,0' posn='40' drel='pof__cn:sinhA2' chunkType='child:NP2' name='yaSavaMwa'>
5	sinhA	NNP	<fs af='sinhA,n,any,sg,3,o,0,0' drel='ccof:va' posn='50' name='sinhA2' chunkId='NP2' chunkType='head:NP2'>
6	,	SYM	<fs af='COMMA,punc,,,,,,' posn='60' drel='rsym:sinhA2' chunkType='child:NP2' name=',2'>
7	bAbUlAla	NNPC	<fs af='bAbUlAla,n,m,sg,3,d,0,0' posn='70' drel='pof__cn:marAMdI' chunkType='child:NP3' name='bAbUlAla'>
8	marAMdI	NNP	<fs af='marAMdI,n,any,sg,3,o,0,0' drel='ccof:va' posn='80' name='marAMdI' chunkId='NP3' chunkType='head:NP3'>
9	va	CC	<fs af='va,avy,,,,,,' drel='nmod:newAoM' posn='90' name='va' chunkId='CCP' chunkType='head:CCP'>
10	rAmatahala	NNPC	<fs af='rAmatahala,n,m,sg,3,d,0,0' posn='100' drel='pof__cn:cOXarI' chunkType='child:NP4' name='rAmatahala'>
11	cOXarI	NNP	<fs af='cOXarI,n,m,sg,3,o,0_jEsA,0' drel='ccof:va' posn='110' vpos='vib_3' name='cOXarI' chunkId='NP4' chunkType='head:NP4'>
12	jEse	PSP	<fs af='jEsA,psp,m,pl,,o,,' posn='120' drel='lwg__psp:cOXarI' chunkType='child:NP4' name='jEse'>
13	newAoM	NN	<fs af='newA,n,m,pl,3,o,0_kA,0' drel='r6:XErya' posn='130' vpos='vib_2' name='newAoM' chunkId='NP5' chunkType='head:NP5'>
14	kA	PSP	<fs af='kA,psp,m,sg,,d,,' posn='140' drel='lwg__psp:newAoM' chunkType='child:NP5' name='kA'>
15	XErya	NN	<fs af='XErya,n,m,sg,3,d,0,0' drel='k1:cUka' posn='150' name='XErya' chunkId='NP6' chunkType='head:NP6'>
16	cUka	VM	<fs af='cUka,v,m,sg,3,,0_jA+yA1_hE,0' stype='declarative' posn='160' voicetype='active' vpos='tam_2_3' name='cUka' chunkId='VGF' chunkType='head:VGF'>
17	gayA	VAUX	<fs af='jA,v,m,sg,any,,yA1,yA1' posn='170' drel='lwg__vaux:cUka' chunkType='child:VGF' name='gayA'>
18	hE	VAUX	<fs af='hE,v,any,sg,3,,hE,hE' posn='180' drel='lwg__vaux:cUka' chunkType='child:VGF' name='hE'>
19	.	SYM	<fs af='.,punc,,,,,,' drel='rsym:cUka' posn='190' name='.' chunkId='BLK' chunkType='head:BLK'>
</Sentence>


<Sentence id="12">
1	13	NNPC	<fs af='13,n,any,sg,3,d,0,0' posn='10' drel='pof__cn:agaswa' chunkType='child:NP' name='13'>
2	agaswa	NNP	<fs af='agaswa,n,m,sg,3,o,0_ko,0' drel='k7t:huI' posn='20' vpos='vib_3' name='agaswa' chunkId='NP' chunkType='head:NP'>
3	ko	PSP	<fs af='ko,psp,,,,,,' posn='30' drel='lwg__psp:agaswa' chunkType='child:NP' name='ko'>
4	marAMdI	NNP	<fs af='marAMdI,n,m,sg,3,o,0,0' drel='ccof:va' posn='40' name='marAMdI' chunkId='NP2' chunkType='head:NP2'>
5	,	SYM	<fs af='COMMA,punc,,,,,,' posn='50' drel='rsym:marAMdI' chunkType='child:NP2' name=','>
6	muMdA	NNP	<fs af='muMdA,n,m,sg,3,o,0,0' drel='ccof:va' posn='60' name='muMdA' chunkId='NP3' chunkType='head:NP3'>
7	,	SYM	<fs af='COMMA,punc,,,,,,' posn='70' drel='rsym:muMdA' chunkType='child:NP3' name=',2'>
8	cOXarI	NNP	<fs af='cOXarI,n,m,sg,3,o,0,0' drel='ccof:va' posn='80' name='cOXarI' chunkId='NP4' chunkType='head:NP4'>
9	,	SYM	<fs af='COMMA,punc,,,,,,' posn='90' drel='rsym:cOXarI' chunkType='child:NP4' name=',3'>
10	yaSavaMwa	NNPC	<fs af='yaSavaMwa,n,m,sg,3,d,0,0' posn='100' drel='pof__cn:sinhA' chunkType='child:NP5' name='yaSavaMwa'>
11	sinhA	NNP	<fs af='sinhA,n,any,sg,3,o,0,0' drel='ccof:va' posn='110' name='sinhA' chunkId='NP5' chunkType='head:NP5'>
12	va	CC	<fs af='va,avy,,,,,,' drel='r6:bETaka' posn='120' name='va' chunkId='CCP' chunkType='head:CCP'>
13	20	QC	<fs af='20,num,any,any,,any,,' posn='130' drel='nmod__adj:newAoM' chunkType='child:NP6' name='20'>
14	anya	JJ	<fs af='anya,adj,any,any,,o,,' posn='140' drel='nmod__adj:newAoM' chunkType='child:NP6' name='anya'>
15	newAoM	NN	<fs af='newA,n,m,pl,3,o,0_kA,0' drel='ccof:va' posn='150' vpos='vib_4' name='newAoM' chunkId='NP6' chunkType='head:NP6'>
16	kI	PSP	<fs af='kA,psp,f,sg,,d,,' posn='160' drel='lwg__psp:newAoM' chunkType='child:NP6' name='kI'>
17	bETaka	NN	<fs af='bETaka,n,f,sg,3,d,0,0' drel='k1:huI' posn='170' name='bETaka' chunkId='NP7' chunkType='head:NP7'>
18	rAMcI	NNP	<fs af='rAMcI,n,m,sg,3,o,0_meM,0' drel='k7p:huI' posn='180' vpos='vib_2' name='rAMcI' chunkId='NP8' chunkType='head:NP8'>
19	meM	PSP	<fs af='meM,psp,,,,,,' posn='190' drel='lwg__psp:rAMcI' chunkType='child:NP8' name='meM'>
20	huI	VM	<fs af='ho,v,f,sg,any,,yA_WA,yA' stype='declarative' posn='200' voicetype='active' vpos='tam_2' name='huI' chunkId='VGF' chunkType='head:VGF'>
21	WI	VAUX	<fs af='WA,v,f,sg,any,,WA,WA' posn='210' drel='lwg__vaux:huI' chunkType='child:VGF' name='WI'>
22	.	SYM	<fs af='.,punc,,,,,,' drel='rsym:huI' posn='220' name='.' chunkId='BLK' chunkType='head:BLK'>
</Sentence>


<Sentence id="13">
1	ina	DEM	<fs af='yaha,pn,any,pl,3,o,,' posn='10' drel='nmod__adj:newAoM' chunkType='child:NP' name='ina'>
2	newAoM	NN	<fs af='newA,n,m,pl,3,o,0_kA,0' drel='r6:XErya' posn='20' vpos='vib_3' name='newAoM' chunkId='NP' chunkType='head:NP'>
3	kA	PSP	<fs af='kA,psp,m,sg,,d,,' posn='30' drel='lwg__psp:newAoM' chunkType='child:NP' name='kA'>
4	XErya	NN	<fs af='XErya,n,m,sg,3,d,0,0' drel='k1:kara' posn='40' name='XErya' chunkId='NP2' chunkType='head:NP2'>
5	sImA	NN	<fs af='sImA,n,f,sg,3,d,0,0' drel='k2:kara' posn='50' name='sImA' chunkId='NP3' chunkType='head:NP3'>
6	pAra	NN	<fs af='pAra,n,m,sg,3,d,0,0' drel='pof:kara' posn='60' name='pAra' chunkId='NP4' chunkType='head:NP4'>
7	kara	VM	<fs af='kara,v,m,sg,3,,0_cuka+yA_hE,0' stype='declarative' posn='70' voicetype='active' vpos='tam_2_3' name='kara' chunkId='VGF' chunkType='head:VGF'>
8	cukA	VAUX	<fs af='cuka,v,m,sg,any,,yA,yA' posn='80' drel='lwg__vaux:kara' chunkType='child:VGF' name='cukA'>
9	hE	VAUX	<fs af='hE,v,any,sg,3,,hE,hE' posn='90' drel='lwg__vaux:kara' chunkType='child:VGF' name='hE'>
10	.	SYM	<fs af='.,punc,,,,,,' drel='rsym:kara' posn='100' name='.' chunkId='BLK' chunkType='head:BLK'>
</Sentence>


<Sentence id="14">
1	KurAnA	NNP	<fs af='KurAnA,n,any,sg,3,o,0_ne,0' drel='k1:kahA' posn='10' vpos='vib_2' name='KurAnA' chunkId='NP' chunkType='head:NP'>
2	ne	PSP	<fs af='ne,psp,,,,,,' posn='20' drel='lwg__psp:KurAnA' chunkType='child:NP' name='ne'>
3	kahA	VM	<fs af='kaha,v,m,sg,any,,yA,yA' stype='declarative' posn='30' voicetype='active' name='kahA' chunkId='VGF' chunkType='head:VGF'>
4	ki	CC	<fs af='ki,avy,,,,,,' drel='k2:kahA' posn='40' name='ki' chunkId='CCP' chunkType='head:CCP'>
5	SawruGna	NNPC	<fs af='SawruGna,n,m,sg,3,d,0,0' posn='50' drel='pof__cn:sinhA' chunkType='child:NP2' name='SawruGna'>
6	sinhA	NNP	<fs af='sinhA,n,any,sg,3,o,0_ne,0' drel='k1:kara' posn='60' vpos='vib_3' name='sinhA' chunkId='NP2' chunkType='head:NP2'>
7	ne	PSP	<fs af='ne,psp,,,,,,' posn='70' drel='lwg__psp:sinhA' chunkType='child:NP2' name='ne2'>
8	niwISa	NNPC	<fs af='niwISa,n,m,sg,3,d,0,0' posn='80' drel='pof__cn:kumAra' chunkType='child:NP3' name='niwISa'>
9	kumAra	NNP	<fs af='kumAra,n,m,sg,3,o,0_kA,0' drel='r6:newqwva' posn='90' vpos='vib_3' name='kumAra' chunkId='NP3' chunkType='head:NP3'>
10	ke	PSP	<fs af='kA,psp,m,sg,,o,,' posn='100' drel='lwg__psp:kumAra' chunkType='child:NP3' name='ke'>
11	newqwva	NN	<fs af='newqwva,n,m,sg,3,o,0_meM,0' drel='k7:karane' posn='110' vpos='vib_2' name='newqwva' chunkId='NP4' chunkType='head:NP4'>
12	meM	PSP	<fs af='meM,psp,,,,,,' posn='120' drel='lwg__psp:newqwva' chunkType='child:NP4' name='meM'>
13	kAma	NN	<fs af='kAma,n,m,sg,3,d,0,0' drel='k2:karane' posn='130' name='kAma' chunkId='NP5' chunkType='head:NP5'>
14	karane	VM	<fs af='kara,v,any,any,any,o,nA_se,nA' drel='rt:kara' posn='140' vpos='tam_2' name='karane' chunkId='VGNN' chunkType='head:VGNN'>
15	se	PSP	<fs af='se,psp,,,,,,' posn='150' drel='lwg__psp:karane' chunkType='child:VGNN' name='se'>
16	inakAra	NN	<fs af='inakAra,n,m,sg,3,d,0,0' drel='pof:kara' posn='160' name='inakAra' chunkId='NP6' chunkType='head:NP6'>
17	kara	VM	<fs af='kara,v,m,sg,3,,0_xe+yA_hE,0' drel='ccof:ki' stype='declarative' posn='170' voicetype='active' vpos='tam_2_3' name='kara' chunkId='VGF2' chunkType='head:VGF2'>
18	xiyA	VAUX	<fs af='xe,v,m,sg,any,,yA,yA' posn='180' drel='lwg__vaux:kara' chunkType='child:VGF2' name='xiyA'>
19	hE	VAUX	<fs af='hE,v,any,sg,3,,hE,hE' posn='190' drel='lwg__vaux:kara' chunkType='child:VGF2' name='hE'>
20	.	SYM	<fs af='.,punc,,,,,,' drel='rsym:kahA' posn='200' name='.' chunkId='BLK' chunkType='head:BLK'>
</Sentence>


<Sentence id="15">
1	KurAnA	NNP	<fs af='KurAnA,n,any,sg,3,o,0_ne,0' drel='k1:kahA' posn='10' vpos='vib_2' name='KurAnA' chunkId='NP' chunkType='head:NP'>
2	ne	PSP	<fs af='ne,psp,,,,,,' posn='20' drel='lwg__psp:KurAnA' chunkType='child:NP' name='ne'>
3	kahA	VM	<fs af='kaha,v,m,sg,any,,yA,yA' stype='declarative' posn='30' voicetype='active' name='kahA' chunkId='VGF' chunkType='head:VGF'>
4	ki	CC	<fs af='ki,avy,,,,,,' drel='k2:kahA' posn='40' name='ki' chunkId='CCP' chunkType='head:CCP'>
5	AdavANI	NNP	<fs af='AdavANI,n,any,sg,3,o,0_ke_sAWa,0' drel='ras-k1:rahane' posn='50' vpos='vib_2_3' name='AdavANI' chunkId='NP2' chunkType='head:NP2'>
6	ke	PSP	<fs af='ke,psp,,,,,,' posn='60' drel='lwg__psp:AdavANI' chunkType='child:NP2' name='ke'>
7	sAWa	NST	<fs af='sAWa,nst,m,sg,3,d,,' posn='70' drel='lwg__psp:AdavANI' chunkType='child:NP2' name='sAWa'>
8	rahane	VM	<fs af='raha,v,any,pl,any,o,nA_vAlA,nA' drel='nmod:loga' posn='80' vpos='tam_2' name='rahane' chunkId='VGNN' chunkType='head:VGNN'>
9	vAle	PSP	<fs af='vAlA,psp,m,pl,,d,,' posn='90' drel='lwg__psp:rahane' chunkType='child:VGNN' name='vAle'>
10	loga	NN	<fs af='loga,n,m,pl,3,d,0,0' drel='k1:pahuMcA' posn='100' name='loga' chunkId='NP3' chunkType='head:NP3'>
11	pArtI	NN	<fs af='pArtI,n,f,sg,3,o,0_ko,0' drel='k2:pahuMcA' posn='110' vpos='vib_2' name='pArtI' chunkId='NP4' chunkType='head:NP4'>
12	ko	PSP	<fs af='ko,psp,,,,,,' posn='120' drel='lwg__psp:pArtI' chunkType='child:NP4' name='ko'>
13	garwa	NN	<fs af='garwa,n,m,sg,3,o,0_meM,0' drel='k7:pahuMcA' posn='130' vpos='vib_2' name='garwa' chunkId='NP5' chunkType='head:NP5'>
14	meM	PSP	<fs af='meM,psp,,,,,,' posn='140' drel='lwg__psp:garwa' chunkType='child:NP5' name='meM'>
15	pahuMcA	VM	<fs af='pahuMcA,v,m,pl,3,,0_raha+yA_hE,0' drel='ccof:ki' stype='declarative' posn='150' voicetype='active' vpos='tam_2_3' name='pahuMcA' chunkId='VGF2' chunkType='head:VGF2'>
16	rahe	VAUX	<fs af='raha,v,m,pl,3,,yA,yA' posn='160' drel='lwg__vaux:pahuMcA' chunkType='child:VGF2' name='rahe'>
17	hEM	VAUX	<fs af='hE,v,any,pl,3,,hE,hE' posn='170' drel='lwg__vaux:pahuMcA' chunkType='child:VGF2' name='hEM'>
18	.	SYM	<fs af='.,punc,,,,,,' drel='rsym:kahA' posn='180' name='.' chunkId='BLK' chunkType='head:BLK'>
</Sentence>


<Sentence id="16">
1	unhoMne	PRP	<fs af='vaha,pn,any,sg,3h,o,ne,ne' drel='k1:kahA' posn='10' name='unhoMne' chunkId='NP' chunkType='head:NP'>
2	kahA	VM	<fs af='kaha,v,m,sg,any,,yA,yA' stype='declarative' posn='20' voicetype='active' name='kahA' chunkId='VGF' chunkType='head:VGF'>
3	ki	CC	<fs af='ki,avy,,,,,,' drel='k2:kahA' posn='30' name='ki' chunkId='CCP' chunkType='head:CCP'>
4	hamane	PRP	<fs af='hama,pn,any,sg,1,o,ne,ne' drel='k1:kie' posn='40' name='hamane' chunkId='NP2' chunkType='head:NP2'>
5	apanI	PRP	<fs af='apanA,pn,f,any,any,d,0,0' drel='r6:jiMxagI' posn='50' name='apanI' chunkId='NP3' chunkType='head:NP3'>
6	pUrI	JJ	<fs af='pUrA,adj,f,sg,,d,,' posn='60' drel='nmod__adj:jiMxagI' chunkType='child:NP4' name='pUrI'>
7	jiMxagI	NN	<fs af='jiMxagI,n,f,sg,3,d,0,0' drel='k7t:kie' posn='70' name='jiMxagI' chunkId='NP4' chunkType='head:NP4'>
8	pArtI	NN	<fs af='pArtI,n,f,sg,3,o,0_ko,0' drel='k2:banAne' posn='80' vpos='vib_2' name='pArtI' chunkId='NP5' chunkType='head:NP5'>
9	ko	PSP	<fs af='ko,psp,,,,,,' posn='90' drel='lwg__psp:pArtI' chunkType='child:NP5' name='ko'>
10	majabUwa	JJ	<fs af='majabUwa,adj,any,any,,,,' drel='pof:banAne' posn='100' name='majabUwa' chunkId='JJP' chunkType='head:JJP'>
11	banAne	VM	<fs af='banA,v,any,pl,any,o,nA_kA,nA' drel='r6-k2:prayAsa' posn='110' vpos='tam_2' name='banAne' chunkId='VGNN' chunkType='head:VGNN'>
12	ke	PSP	<fs af='kA,psp,m,pl,,d,,' posn='120' drel='lwg__psp:banAne' chunkType='child:VGNN' name='ke'>
13	prayAsa	NN	<fs af='prayAsa,n,m,pl,3,d,0,0' drel='pof:kie' posn='130' name='prayAsa' chunkId='NP6' chunkType='head:NP6'>
14	kie	VM	<fs af='kara,v,m,pl,3,,yA_hE,yA' drel='ccof:ki' stype='declarative' posn='140' voicetype='active' vpos='tam_2' name='kie' chunkId='VGF2' chunkType='head:VGF2'>
15	hEM	VAUX	<fs af='hE,v,any,pl,3,,hE,hE' posn='150' drel='lwg__vaux:kie' chunkType='child:VGF2' name='hEM'>
16	.	SYM	<fs af='.,punc,,,,,,' drel='rsym:kahA' posn='160' name='.' chunkId='BLK' chunkType='head:BLK'>
</Sentence>


<Sentence id="17">
1	pArtI	NN	<fs af='pArtI,n,f,sg,3,o,0_kA,0' drel='r6:avanawi' posn='10' vpos='vib_2' name='pArtI' chunkId='NP' chunkType='head:NP'>
2	kI	PSP	<fs af='kA,psp,f,sg,,d,,' posn='20' drel='lwg__psp:pArtI' chunkType='child:NP' name='kI'>
3	avanawi	NN	<fs af='avanawi,n,f,sg,3,d,0,0' drel='k2:xeKa' posn='30' name='avanawi' chunkId='NP2' chunkType='head:NP2'>
4	xeKa	VM	<fs af='xeKa,v,any,any,any,,0,0' drel='vmod:hUM' posn='40' name='xeKa' chunkId='VGNF' chunkType='head:VGNF'>
5	mEM	PRP	<fs af='mEM,pn,any,sg,1,d,0,0' drel='k1:hUM' posn='50' name='mEM' chunkId='NP3' chunkType='head:NP3'>
6	kAPI	QF	<fs af='kAPI,avy,,,,,,' drel='k1s:hUM' posn='60' name='kAPI' chunkId='NP4' chunkType='head:NP4'>
7	xuKI	JJ	<fs af='xuKI,adj,any,any,,,,' posn='70' drel='nmod__adj:kAPI' chunkType='child:NP4' name='xuKI'>
8	hUM	VM	<fs af='hE,v,any,sg,1,,hE,hE' stype='declarative' posn='80' voicetype='active' name='hUM' chunkId='VGF' chunkType='head:VGF'>
9	.	SYM	<fs af='.,punc,,,,,,' drel='rsym:hUM' posn='90' name='.' chunkId='BLK' chunkType='head:BLK'>
</Sentence>


<Sentence id="18">
1	piCale	JJ	<fs af='piCalA,adj,m,sg,,o,,' posn='10' drel='nmod__adj:varRa' chunkType='child:NP' name='piCale'>
2	varRa	NN	<fs af='varRa,n,m,sg,3,o,0_kA,0' drel='r6:aMwa' posn='20' vpos='vib_3' name='varRa' chunkId='NP' chunkType='head:NP'>
3	ke	PSP	<fs af='kA,psp,m,sg,,o,,' posn='30' drel='lwg__psp:varRa' chunkType='child:NP' name='ke'>
4	aMwa	NN	<fs af='aMwa,n,m,sg,3,o,0_meM,0' drel='k7t:lOta' posn='40' vpos='vib_2' name='aMwa' chunkId='NP2' chunkType='head:NP2'>
5	meM	PSP	<fs af='meM,psp,,,,,,' posn='50' drel='lwg__psp:aMwa' chunkType='child:NP2' name='meM'>
6	KurAnA	NNP	<fs af='KurAnA,n,any,sg,3,d,0,0' drel='k1:lOta' posn='60' name='KurAnA' chunkId='NP3' chunkType='head:NP3'>
7	rAjasWAna	NNP	<fs af='rAjasWAna,n,m,sg,3,o,0_kA,0' drel='r6:paxa' posn='70' vpos='vib_2' name='rAjasWAna' chunkId='NP4' chunkType='head:NP4'>
8	ke	PSP	<fs af='kA,psp,m,sg,,o,,' posn='80' drel='lwg__psp:rAjasWAna' chunkType='child:NP4' name='ke2'>
9	rAjyapAla	NNC	<fs af='rAjyapAla,n,m,sg,3,d,0,0' posn='90' drel='pof__cn:paxa' chunkType='child:NP5' name='rAjyapAla'>
10	paxa	NN	<fs af='paxa,n,m,sg,3,o,0_se,0' drel='k5:xe' posn='100' vpos='vib_3' name='paxa' chunkId='NP5' chunkType='head:NP5'>
11	se	PSP	<fs af='se,psp,,,,,,' posn='110' drel='lwg__psp:paxa' chunkType='child:NP5' name='se'>
12	iswIPA	NN	<fs af='iswIPA,n,m,sg,3,d,0,0' drel='pof:xe' posn='120' name='iswIPA' chunkId='NP6' chunkType='head:NP6'>
13	xe	VM	<fs af='xe,v,any,any,any,,0_kara,0' drel='vmod:lOta' posn='130' vpos='tam_2' name='xe' chunkId='VGNF' chunkType='head:VGNF'>
14	kara	VAUX	<fs af='kara,v,any,any,any,,0,0' posn='140' drel='lwg__vaux:xe' chunkType='child:VGNF' name='kara'>
15	sakriya	JJ	<fs af='sakriya,adj,any,any,,o,,' posn='150' drel='nmod__adj:rAjanIwi' chunkType='child:NP7' name='sakriya'>
16	rAjanIwi	NN	<fs af='rAjanIwi,n,f,sg,3,o,0_meM,0' drel='k7:lene' posn='160' vpos='vib_3' name='rAjanIwi' chunkId='NP7' chunkType='head:NP7'>
17	meM	PSP	<fs af='meM,psp,,,,,,' posn='170' drel='lwg__psp:rAjanIwi' chunkType='child:NP7' name='meM2'>
18	hissA	NN	<fs af='hissA,n,m,sg,3,d,0,0' drel='k2:lene' posn='180' name='hissA' chunkId='NP8' chunkType='head:NP8'>
19	lene	VM	<fs af='le,v,any,any,any,o,nA_ke_lie,nA' drel='rt:lOta' posn='190' vpos='tam_2_3' name='lene' chunkId='VGNN' chunkType='head:VGNN'>
20	ke	PSP	<fs af='ke,psp,,,,,,' posn='200' drel='lwg__psp:lene' chunkType='child:VGNN' name='ke3'>
21	lie	PSP	<fs af='lie,psp,,,,,,' posn='210' drel='lwg__psp:lene' chunkType='child:VGNN' name='lie'>
22	xillI	NNP	<fs af='xillI,n,f,sg,3,d,0,0' drel='k2p:lOta' posn='220' name='xillI' chunkId='NP9' chunkType='head:NP9'>
23	lOta	VM	<fs af='lOta,v,m,sg,3h,,0_A+yA_WA,0' stype='declarative' posn='230' voicetype='active' vpos='tam_2_3' name='lOta' chunkId='VGF' chunkType='head:VGF'>
24	Ae	VAUX	<fs af='A,v,m,sg,3h,,yA,yA' posn='240' drel='lwg__vaux:lOta' chunkType='child:VGF' name='Ae'>
25	We	VAUX	<fs af='WA,v,m,sg,3h,,WA,WA' posn='250' drel='lwg__vaux:lOta' chunkType='child:VGF' name='We'>
26	.	SYM	<fs af='.,punc,,,,,,' drel='rsym:lOta' posn='260' name='.' chunkId='BLK' chunkType='head:BLK'>
</Sentence>


<Sentence id="19">
1	NULL	PRP	<fs mtype='gap' troot='yaha' dmrel='k1:hE' name='NULL' chunkId='NULL__NP' chunkType='head:NULL__NP'>
2	gOrawalaba	JJ	<fs af='gOrawalaba,adj,any,any,,,,' drel='k1s:hE' posn='10' name='gOrawalaba' chunkId='JJP' chunkType='head:JJP'>
3	hE	VM	<fs af='hE,v,any,sg,3,,hE,hE' stype='declarative' posn='20' voicetype='active' name='hE' chunkId='VGF' chunkType='head:VGF'>
4	ki	CC	<fs af='ki,avy,,,,,,' drel='rs:NULL' posn='30' name='ki' chunkId='CCP' chunkType='head:CCP'>
5	KurAnA	NNP	<fs af='KurAnA,n,any,sg,3,o,0_ne,0' drel='k1:kI2' posn='40' vpos='vib_2' name='KurAnA' chunkId='NP' chunkType='head:NP'>
6	ne	PSP	<fs af='ne,psp,,,,,,' posn='50' drel='lwg__psp:KurAnA' chunkType='child:NP' name='ne'>
7	sirPa	RP	<fs af='sirPa,avy,,,,,,' posn='60' drel='lwg__rp:mAha' chunkType='child:NP2' name='sirPa'>
8	eka	QC	<fs af='eka,num,any,any,,any,,' posn='70' drel='nmod__adj:mAha' chunkType='child:NP2' name='eka'>
9	mAha	NN	<fs af='mAha,n,m,sg,3,d,0_pahale,0' drel='k7t:kI2' posn='80' vpos='vib_4' name='mAha' chunkId='NP2' chunkType='head:NP2'>
10	pahale	NST	<fs af='pahale,nst,m,sg,3,d,,' posn='90' drel='lwg__psp:mAha' chunkType='child:NP2' name='pahale'>
11	AdavANI	NNP	<fs af='AdavANI,n,any,sg,3,o,0_se,0' drel='k4:kI2' posn='100' vpos='vib_2' name='AdavANI' chunkId='NP3' chunkType='head:NP3'>
12	se	PSP	<fs af='se,psp,,,,,,' posn='110' drel='lwg__psp:AdavANI' chunkType='child:NP3' name='se'>
13	iswIPe	NN	<fs af='iswIPA,n,m,sg,3,o,0_kA,0' drel='r6-k2:mAMga' posn='120' vpos='vib_2' name='iswIPe' chunkId='NP4' chunkType='head:NP4'>
14	kI	PSP	<fs af='kA,psp,f,sg,,d,,' posn='130' drel='lwg__psp:iswIPe' chunkType='child:NP4' name='kI'>
15	mAMga	NN	<fs af='mAMga,n,f,sg,3,d,0,0' drel='pof:kI2' posn='140' name='mAMga' chunkId='NP5' chunkType='head:NP5'>
16	kI	VM	<fs af='kara,v,f,sg,any,,yA_WA,yA' drel='ccof:ki' stype='declarative' posn='150' voicetype='active' vpos='tam_2' name='kI2' chunkId='VGF2' chunkType='head:VGF2'>
17	WI	VAUX	<fs af='WA,v,f,sg,any,,WA,WA' posn='160' drel='lwg__vaux:kI2' chunkType='child:VGF2' name='WI'>
18	.	SYM	<fs af='.,punc,,,,,,' drel='rsym:hE' posn='170' name='.' chunkId='BLK' chunkType='head:BLK'>
</Sentence>


<Sentence id="20">
1	unhoMne	PRP	<fs af='vaha,pn,any,sg,3h,o,ne,ne' drel='k1:kahA' posn='10' name='unhoMne' chunkId='NP' chunkType='head:NP'>
2	kahA	VM	<fs af='kaha,v,m,sg,any,,yA_WA,yA' stype='declarative' posn='20' voicetype='active' vpos='tam_2' name='kahA' chunkId='VGF' chunkType='head:VGF'>
3	WA	VAUX	<fs af='WA,v,m,sg,any,,WA,WA' posn='30' drel='lwg__vaux:kahA' chunkType='child:VGF' name='WA'>
4	ki	CC	<fs af='ki,avy,,,,,,' drel='k2:kahA' posn='40' name='ki' chunkId='CCP' chunkType='head:CCP'>
5	pArtI	NN	<fs af='pArtI,n,f,sg,3,d,0,0' drel='k1:Bataka' posn='50' name='pArtI' chunkId='NP2' chunkType='head:NP2'>
6	apane	PRP	<fs af='apanA,pn,m,any,any,o,0,0' drel='r6:sixGAMwoM' posn='60' name='apane' chunkId='NP3' chunkType='head:NP3'>
7	sixGAMwoM	NN	<fs af='sixGAMwa,n,m,pl,3,o,0_se,0' drel='k5:Bataka' posn='70' vpos='vib_2' name='sixGAMwoM' chunkId='NP4' chunkType='head:NP4'>
8	se	PSP	<fs af='se,psp,,,,,,' posn='80' drel='lwg__psp:sixGAMwoM' chunkType='child:NP4' name='se'>
9	Bataka	VM	<fs af='Bataka,v,f,sg,3,,0_jA+yA1_hE,0' drel='ccof:va' stype='declarative' posn='90' voicetype='active' vpos='tam_2_3' name='Bataka' chunkId='VGF2' chunkType='head:VGF2'>
10	gaI	VAUX	<fs af='jA,v,f,sg,any,,yA1,yA1' posn='100' drel='lwg__vaux:Bataka' chunkType='child:VGF2' name='gaI'>
11	hE	VAUX	<fs af='hE,v,any,sg,3,,hE,hE' posn='110' drel='lwg__vaux:Bataka' chunkType='child:VGF2' name='hE'>
12	va	CC	<fs af='va,avy,,,,,,' drel='ccof:ki' posn='120' name='va' chunkId='CCP2' chunkType='head:CCP2'>
13	ise	PRP	<fs af='yaha,pn,any,sg,3,o,ko,ko' drel='k2:calAyA' posn='130' name='ise' chunkId='NP5' chunkType='head:NP5'>
14	nijI	NNC	<fs af='nijI,adj,any,any,,o,,' posn='140' drel='pof__cn:kaMpanI' chunkType='child:NP6' name='nijI'>
15	limiteda	NNC	<fs af='limiteda,adj,any,any,,o,,' posn='150' drel='pof__cn:kaMpanI' chunkType='child:NP6' name='limiteda'>
16	kaMpanI	NN	<fs af='kaMpanI,n,f,sg,3,o,0_kA_waraha,0' drel='k2u:calAyA' posn='160' vpos='vib_4_5' name='kaMpanI' chunkId='NP6' chunkType='head:NP6'>
17	kI	PSP	<fs af='kA,psp,f,,,o,,' posn='170' drel='lwg__psp:kaMpanI' chunkType='child:NP6' name='kI'>
18	waraha	PSP	<fs af='waraha,n,f,,,o,,' posn='180' drel='lwg__psp:kaMpanI' chunkType='child:NP6' name='waraha'>
19	calAyA	VM	<fs af='calA,v,m,sg,3,,yA_jA_raha+yA_hE,yA' drel='ccof:va' stype='declarative' posn='190' voicetype='passive' vpos='tam_2_3_4' name='calAyA' chunkId='VGF3' chunkType='head:VGF3'>
20	jA	VAUX	<fs af='jA,v,any,any,any,,0,0' posn='200' drel='lwg__vaux:calAyA' chunkType='child:VGF3' name='jA'>
21	rahA	VAUX	<fs af='raha,v,m,sg,any,,yA,yA' posn='210' drel='lwg__vaux:calAyA' chunkType='child:VGF3' name='rahA'>
22	hE	VAUX	<fs af='hE,v,any,sg,3,,hE,hE' posn='220' drel='lwg__vaux:calAyA' chunkType='child:VGF3' name='hE2'>
23	.	SYM	<fs af='.,punc,,,,,,' drel='rsym:kahA' posn='230' name='.' chunkId='BLK' chunkType='head:BLK'>
</Sentence>


</text>
</tb>
</body>
</document>
