<document id="2477213">
<head>
<title>  </title>			
<author>			
<firstname>  </firstname>			
<middlename>    </middlename>			
<lastname></lastname>			
</author>			
<availability format="electronic" ></availability>			
<bibl>			
</bibl>			
<bytecount>12K</bytecount>			
<domain name="general" ></domain>			
<creation creationdate="19/06/2007" institutename="IIIT Hyderabad">			
<creatorname>			
<lastname>Dipti</lastname>			
<middlename>			
</middlename>			
<firstname>Sharma</firstname>			
</creatorname>			
</creation>			
<distributor>CLIA Consortia, DIT</distributor>			
<edition number="1.0" ></edition>			
<encodingdesc>			
<newencoding>Unicode(UTF-8)</newencoding>			
<originalencoding>UTF-8</originalencoding>			
</encodingdesc>			
<sentencemarker marker=".">Specify Marker</sentencemarker>			
<language name="hi" writingsystem="LTR" script="Devanagari" ></language>			
<normalization normalized="no">			
<utilityname>xxx.exe</utilityname>			
</normalization>			
<projectdesc name="ILMT" ></projectdesc>			
<pubaddress addresstype="web">			
</pubaddress>			
<pubdate>			
<dateofpublication></dateofpublication>			
</pubdate>			
<publicationstmt type="copyrightfree">			
</publicationstmt>			
<publisher>			
<name></name>			
<url>xxx.com</url>			
</publisher>			
<pubplace place="books" ></pubplace>			
<wordcount>12  </wordcount>			
<caption>aparAXa kA addA bana gae hEM jela goviMxa siMha naI xillI. </caption>			
			

</head>
<body>
<tb number="1" segment="no" bullet="no">
<foreign language="select" writingsystem="LTR"></foreign>
<text>
<Sentence id="1">
1	AgarA	NNP	<fs af='AgarA,n,m,sg,3,o,0_meM,0' drel='k7p:kI' posn='10' vpos='vib_2' name='AgarA' chunkId='NP' chunkType='head:NP'>
2	meM	PSP	<fs af='meM,psp,,,,,,' posn='20' drel='lwg__psp:AgarA' chunkType='child:NP' name='meM'>
3	jisa	DEM	<fs af='jo,pn,any,sg,3,o,,' posn='30' drel='nmod__adj:waraha' chunkType='child:NP2' name='jisa'>
4	waraha	NN	<fs af='waraha,n,f,sg,3,o,0_se,0' drel='adv:kI' posn='40' coref='xurxaSA' vpos='vib_3' name='waraha' chunkId='NP2' chunkType='head:NP2'>
5	se	PSP	<fs af='se,psp,,,,,,' posn='50' drel='lwg__psp:waraha' chunkType='child:NP2' name='se'>
6	eka	QC	<fs af='eka,num,any,any,,any,,' posn='60' drel='nmod__adj:kExI' chunkType='child:NP3' name='eka'>
7	vicArAXIna	JJ	<fs af='vicArAXIna,adj,any,any,,o,,' posn='70' drel='nmod__adj:kExI' chunkType='child:NP3' name='vicArAXIna'>
8	kExI	NN	<fs af='kExI,n,m,sg,3,o,0_ne,0' drel='k1:kI' posn='80' vpos='vib_4' name='kExI' chunkId='NP3' chunkType='head:NP3'>
9	ne	PSP	<fs af='ne,psp,,,,,,' posn='90' drel='lwg__psp:kExI' chunkType='child:NP3' name='ne'>
10	AwmahawyA	NN	<fs af='AwmahawyA,n,f,sg,3,d,0,0' drel='pof:kI' posn='100' name='AwmahawyA' chunkId='NP4' chunkType='head:NP4'>
11	kI	VM	<fs af='kara,v,f,sg,3,,yA_hE,yA' drel='ccof:Ora' stype='declarative' posn='110' voicetype='active' vpos='tam_2' name='kI' chunkId='VGF' chunkType='head:VGF'>
12	hE	VAUX	<fs af='hE,v,any,sg,3,,hE,hE' posn='120' drel='lwg__vaux:kI' chunkType='child:VGF' name='hE'>
13	Ora	CC	<fs af='Ora,avy,,,,,,' drel='nmod__relc:xurxaSA' posn='130' name='Ora' chunkId='CCP' chunkType='head:CCP'>
14	xUsarA	NN	<fs af='xUsarA,n,m,sg,3,d,0,0' drel='k1:mara' posn='140' name='xUsarA' chunkId='NP5' chunkType='head:NP5'>
15	hArta	NNC	<fs af='hArta,n,m,sg,3,d,0,0' posn='150' drel='pof__cn:atEka' chunkType='child:NP6' name='hArta'>
16	atEka	NN	<fs af='atEka,n,m,sg,3,o,0_se,0' drel='k3:mara' posn='160' vpos='vib_3' name='atEka' chunkId='NP6' chunkType='head:NP6'>
17	se	PSP	<fs af='se,psp,,,,,,' posn='170' drel='lwg__psp:atEka' chunkType='child:NP6' name='se2'>
18	mara	VM	<fs af='mara,v,any,sg,3,,0_jA+yA1,0' drel='ccof:Ora' stype='declarative' posn='180' voicetype='active' vpos='tam_2' name='mara' chunkId='VGF2' chunkType='head:VGF2'>
19	gayA	VAUX	<fs af='jA,v,m,sg,3,,yA1,yA1' posn='190' drel='lwg__vaux:mara' chunkType='child:VGF2' name='gayA'>
20	,	SYM	<fs af='COMMA,punc,,,,,,' posn='200' drel='rsym:mara' chunkType='child:VGF2' name=','>
21	usane	PRP	<fs af='vaha,pn,any,sg,3,o,ne,ne' drel='k1:raKa' posn='210' name='usane' chunkId='NP7' chunkType='head:NP7'>
22	eka	QC	<fs af='eka,num,any,any,,any,,' posn='220' drel='nmod__adj:bAra' chunkType='child:NP8' name='eka2'>
23	bAra	NN	<fs af='bAra,n,f,sg,3,d,0,0' drel='rbmod__relc:Pira' posn='230' name='bAra' chunkId='NP8' chunkType='head:NP8'>
24	Pira	RB	<fs af='Pira,adv,,,,,,' drel='adv:raKa' posn='240' name='Pira' chunkId='RBP' chunkType='head:RBP'>
25	BArawIya	JJ	<fs af='BArawIya,adj,any,any,,o,,' posn='250' drel='nmod__adj:jeloM' chunkType='child:NP9' name='BArawIya'>
26	jeloM	NN	<fs af='jela,n,f,pl,3,o,0_kA,0' drel='r6:xurxaSA' posn='260' vpos='vib_3' name='jeloM' chunkId='NP9' chunkType='head:NP9'>
27	kI	PSP	<fs af='kA,psp,f,sg,,o,,' posn='270' drel='lwg__psp:jeloM' chunkType='child:NP9' name='kI2'>
28	xurxaSA	NN	<fs af='xurxaSA,n,f,sg,3,o,0_ko,0' drel='k2:uGAdZa' posn='280' vpos='vib_2' name='xurxaSA' chunkId='NP10' chunkType='head:NP10'>
29	ko	PSP	<fs af='ko,psp,,,,,,' posn='290' drel='lwg__psp:xurxaSA' chunkType='child:NP10' name='ko'>
30	uGAdZa	VM	<fs af='uGAda,v,any,any,any,,0_kara,0' drel='vmod:raKa' posn='300' vpos='tam_2' name='uGAdZa' chunkId='VGNF' chunkType='head:VGNF'>
31	kara	VAUX	<fs af='kara,v,any,any,any,,0,0' posn='310' drel='lwg__vaux:uGAdZa' chunkType='child:VGNF' name='kara'>
32	raKa	VM	<fs af='raKa,v,m,sg,3,,0_xe+yA_hE,0' stype='declarative' posn='320' voicetype='active' vpos='tam_2_3' name='raKa' chunkId='VGF3' chunkType='head:VGF3'>
33	xiyA	VAUX	<fs af='xe,v,m,sg,3,,yA,yA' posn='330' drel='lwg__vaux:raKa' chunkType='child:VGF3' name='xiyA'>
34	hE	VAUX	<fs af='hE,v,any,sg,3,,hE,hE' posn='340' drel='lwg__vaux:raKa' chunkType='child:VGF3' name='hE2'>
35	.	SYM	<fs af='.,punc,,,,,,' drel='rsym:raKa' posn='350' name='.' chunkId='BLK' chunkType='head:BLK'>
</Sentence>


<Sentence id="2">
1	xeSa	NN	<fs af='xeSa,n,m,sg,3,o,0_meM,0' drel='k7p:hEM' posn='10' vpos='vib_2' name='xeSa' chunkId='NP' chunkType='head:NP'>
2	meM	PSP	<fs af='meM,psp,,,,,,' posn='20' drel='lwg__psp:xeSa' chunkType='child:NP' name='meM'>
3	1200	QC	<fs af='1200,num,any,pl,,o,0_se,' drel='jjmod:jyAxA' posn='30' vpos='2' name='1200' chunkId='NP2' chunkType='head:NP2'>
4	se	PSP	<fs af='se,psp,,,,,,' posn='40' drel='lwg__psp:1200' chunkType='child:NP2' name='se'>
5	jyAxA	QF	<fs af='jyAxA,avy,,,,,,' drel='nmod:jeleM' posn='50' name='jyAxA' chunkId='JJP' chunkType='head:JJP'>
6	jeleM	NN	<fs af='jela,n,f,pl,3,d,0,0' drel='k1:hEM' posn='60' name='jeleM' chunkId='NP3' chunkType='head:NP3'>
7	hEM	VM	<fs af='hE,v,any,pl,3,,hE,hE' stype='declarative' posn='70' voicetype='active' name='hEM' chunkId='VGF' chunkType='head:VGF'>
8	.	SYM	<fs af='.,punc,,,,,,' drel='rsym:hEM' posn='80' name='.' chunkId='BLK' chunkType='head:BLK'>
</Sentence>


<Sentence id="3">
1	Ora	CC	<fs af='Ora,avy,,,,,,' posn='10' name='Ora' chunkId='CCP' chunkType='head:CCP'>
2	SAyaxa	RB	<fs af='SAyaxa,adv,,,,,,' drel='adv:ho' posn='20' name='SAyaxa' chunkId='RBP' chunkType='head:RBP'>
3	hI	RP	<fs af='hI,avy,,,,,,' posn='30' drel='lwg__rp:SAyaxa' chunkType='child:RBP' name='hI'>
4	koI	PRP	<fs af='koI,pn,any,sg,3,d,0,0' posn='40' drel='nmod__adj:jela' chunkType='child:NP' name='koI'>
5	jela	NN	<fs af='jela,n,f,sg,3,d,0,0' drel='k1:ho' posn='50' name='jela' chunkId='NP' chunkType='head:NP'>
6	ho	VM	<fs af='ho,v,any,any,any,,0,0' drel='ccof:Ora' stype='declarative' posn='60' voicetype='active' name='ho' chunkId='VGF' chunkType='head:VGF'>
7	jahAM	PRP	<fs af='jahAz,pn,,,,d,,' drel='k7p:marawe' posn='70' coref='jela' name='jahAM' chunkId='NP2' chunkType='head:NP2'>
8	hara	QF	<fs af='hara,avy,,,,,,' posn='80' drel='nmod__adj:sAla' chunkType='child:NP3' name='hara'>
9	sAla	NN	<fs af='sAla,n,m,sg,3,d,0,0' drel='k7t:marawe' posn='90' name='sAla' chunkId='NP3' chunkType='head:NP3'>
10	xasiyoM	QC	<fs af='xasa,num,any,pl,,d,,' posn='100' drel='nmod__adj:kExI' chunkType='child:NP4' name='xasiyoM'>
11	kExI	NN	<fs af='kExI,n,m,pl,3,d,0,0' drel='k1:marawe' posn='110' name='kExI' chunkId='NP4' chunkType='head:NP4'>
12	na	NEG	<fs af='na,avy,,,,,,' posn='120' drel='lwg__neg:marawe' chunkType='child:VGF2' name='na'>
13	marawe	VM	<fs af='mara,v,m,pl,3,,wA_ho,wA' drel='nmod__relc:jela' stype='declarative' posn='130' voicetype='active' vpos='tam_3' name='marawe' chunkId='VGF2' chunkType='head:VGF2'>
14	hoM	VAUX	<fs af='ho,v,m,pl,3,,0,0' posn='140' drel='lwg__vaux:marawe' chunkType='child:VGF2' name='hoM'>
15	.	SYM	<fs af='.,punc,,,,,,' drel='rsym:Ora' posn='150' name='.' chunkId='BLK' chunkType='head:BLK'>
</Sentence>


<Sentence id="4">
1	kaBI	PRP	<fs af='kaBI,pn,,,,,,' drel='k7t:marawe' posn='10' name='kaBI' chunkId='NP' chunkType='head:NP'>
2	ve	PRP	<fs af='vaha,pn,any,pl,3,o,0,0' drel='k1:marawe' posn='20' name='ve' chunkId='NP2' chunkType='head:NP2'>
3	jelakarmiyoM	NN	<fs af='jelakarmI,n,m,pl,3,o,0_kA,0' drel='r6:pitAI' posn='30' vpos='vib_2' name='jelakarmiyoM' chunkId='NP3' chunkType='head:NP3'>
4	kI	PSP	<fs af='kA,psp,f,sg,,o,,' posn='40' drel='lwg__psp:jelakarmiyoM' chunkType='child:NP3' name='kI'>
5	pitAI	NN	<fs af='pitAI,n,f,sg,3,o,0_se,0' drel='rh:marawe' posn='50' vpos='vib_2' name='pitAI' chunkId='NP4' chunkType='head:NP4'>
6	se	PSP	<fs af='se,psp,,,,,,' posn='60' drel='lwg__psp:pitAI' chunkType='child:NP4' name='se'>
7	marawe	VM	<fs af='mara,v,m,pl,3,,wA_hE,wA' drel='ccof:wo' stype='declarative' posn='70' voicetype='active' vpos='tam_2' name='marawe' chunkId='VGF' chunkType='head:VGF'>
8	hEM	VAUX	<fs af='hE,v,any,pl,3,,hE,hE' posn='80' drel='lwg__vaux:marawe' chunkType='child:VGF' name='hEM'>
9	wo	CC	<fs af='wo,avy,,,,,,' posn='90' name='wo' chunkId='CCP' chunkType='head:CCP'>
10	kaBI	PRP	<fs af='kaBI,pn,,,,,,' drel='k7t:karawe' posn='100' name='kaBI2' chunkId='NP5' chunkType='head:NP5'>
11	jela	NN	<fs af='jela,n,m,sg,3,o,0_kA,0' drel='r6:yAwanAoM' posn='110' vpos='vib_2' name='jela' chunkId='NP6' chunkType='head:NP6'>
12	kI	PSP	<fs af='kA,psp,f,pl,,o,,' posn='120' drel='lwg__psp:jela' chunkType='child:NP6' name='kI2'>
13	yAwanAoM	NN	<fs af='yAwanA,n,f,pl,3,o,0,0' drel='ccof:Ora' posn='130' name='yAwanAoM' chunkId='NP7' chunkType='head:NP7'>
14	Ora	CC	<fs af='Ora,avy,,,,,,' drel='rh:hokara' posn='140' name='Ora' chunkId='CCP2' chunkType='head:CCP2'>
15	apamAna	NN	<fs af='apamAna,n,m,sg,3,o,0_ke_kAraNa,0' drel='ccof:Ora' posn='150' vpos='vib_2_3' name='apamAna' chunkId='NP8' chunkType='head:NP8'>
16	ke	PSP	<fs af='ke,psp,m,,,o,,' posn='160' drel='lwg__psp:apamAna' chunkType='child:NP8' name='ke'>
17	kAraNa	PSP	<fs af='kAraNa,n,m,,,o,,' posn='160' drel='lwg__psp:apamAna' chunkType='child:NP8' name='kAraNa'>
18	SarmasAra	JJ	<fs af='SarmasAra,adj,any,any,,,,' drel='pof:hokara' posn='180' name='SarmasAra' chunkId='JJP' chunkType='head:JJP'>
19	hokara	VM	<fs af='ho,v,any,any,any,,kara,kara' drel='vmod:karawe' posn='190' name='hokara' chunkId='VGNF' chunkType='head:VGNF'>
20	AwmahawyA	NN	<fs af='AwmahawyA,n,f,sg,3,d,0,0' drel='pof:karawe' posn='200' name='AwmahawyA' chunkId='NP9' chunkType='head:NP9'>
21	karawe	VM	<fs af='kara,v,m,pl,3,,wA_hE,wA' drel='ccof:wo' stype='declarative' posn='210' voicetype='active' vpos='tam_2' name='karawe' chunkId='VGF2' chunkType='head:VGF2'>
22	hEM	VAUX	<fs af='hE,v,any,pl,3,,hE,hE' posn='220' drel='lwg__vaux:karawe' chunkType='child:VGF2' name='hEM2'>
23	.	SYM	<fs af='.,punc,,,,,,' drel='rsym:wo' posn='230' name='.' chunkId='BLK' chunkType='head:BLK'>
</Sentence>


<Sentence id="5">
1	Ora	CC	<fs af='Ora,avy,,,,,,' posn='10' name='Ora' chunkId='CCP' chunkType='head:CCP'>
2	una	DEM	<fs af='vaha,pn,any,pl,3,o,,' posn='20' drel='nmod__adj:kExiyoM' chunkType='child:NP' name='una'>
3	kExiyoM	NN	<fs af='kExI,n,m,pl,3,o,0_kA,0' drel='r6:bAwa' posn='30' vpos='vib_3_RP' name='kExiyoM' chunkId='NP' chunkType='head:NP'>
4	kI	PSP	<fs af='kA,psp,f,sg,,d,,' posn='40' drel='lwg__psp:kExiyoM' chunkType='child:NP' name='kI'>
5	wo	RP	<fs af='wo,avy,,,,,,' posn='50' drel='lwg__rp:kExiyoM' chunkType='child:NP' name='wo'>
6	bAwa	NN	<fs af='bAwa,n,f,sg,3,d,0,0' drel='pof:kIjie' posn='60' name='bAwa' chunkId='NP2' chunkType='head:NP2'>
7	hI	RP	<fs af='hI,avy,,,,,,' posn='70' drel='lwg__rp:bAwa' chunkType='child:NP2' name='hI'>
8	mawa	NEG	<fs af='mawa,avy,,,,,,' posn='80' drel='lwg__neg:kIjie' chunkType='child:VGF' name='mawa'>
9	kIjie	VM	<fs af='kara,v,any,sg,2h,,eM,eM' drel='ccof:Ora' stype='declarative' posn='90' voicetype='active' name='kIjie' chunkId='VGF' chunkType='head:VGF'>
10	jo	PRP	<fs af='jo,pn,any,pl,3,d,0,0' drel='k1:wodZa' posn='100' coref='kExiyoM' name='jo' chunkId='NP3' chunkType='head:NP3'>
11	jeloM	NN	<fs af='jela,n,f,pl,3,o,0_kA,0' drel='r6:baxahAlI' posn='110' vpos='vib_2' name='jeloM' chunkId='NP4' chunkType='head:NP4'>
12	kI	PSP	<fs af='kA,psp,f,sg,,o,,' posn='120' drel='lwg__psp:jeloM' chunkType='child:NP4' name='kI2'>
13	baxahAlI	NN	<fs af='baxahAlI,n,f,sg,3,o,0_se,0' drel='rh:honevAlI' posn='130' vpos='vib_2' name='baxahAlI' chunkId='NP5' chunkType='head:NP5'>
14	se	PSP	<fs af='se,psp,,,,,,' posn='140' drel='lwg__psp:baxahAlI' chunkType='child:NP5' name='se'>
15	honevAlI	VM	<fs af='ho,v,f,any,3,o,nA_vAlA,nA_vAlA' drel='nmod:bImAriyoM' posn='150' name='honevAlI' chunkId='VGNN' chunkType='head:VGNN'>
16	bImAriyoM	NN	<fs af='bImArI,n,f,pl,3,o,0,0' drel='ccof:Ora2' posn='160' name='bImAriyoM' chunkId='NP6' chunkType='head:NP6'>
17	Ora	CC	<fs af='Ora,avy,,,,,,' drel='rh:wodZa' posn='170' name='Ora2' chunkId='CCP2' chunkType='head:CCP2'>
18	ilAja	NN	<fs af='ilAja,n,m,sg,3,d,0,0' drel='k1:milane' posn='180' name='ilAja' chunkId='NP7' chunkType='head:NP7'>
19	na	NEG	<fs af='na,avy,,,,,,' posn='190' drel='lwg__neg:milane' chunkType='child:VGNN2' name='na'>
20	milane	VM	<fs af='mila,v,m,any,any,o,nA_ke_kAraNa,nA' drel='ccof:Ora2' posn='200' vpos='tam_3_4' name='milane' chunkId='VGNN2' chunkType='head:VGNN2'>
21	ke	PSP	<fs af='ke,psp,m,,,o,,' posn='210' drel='lwg__psp:milane' chunkType='child:VGNN2' name='ke'>
22	kAraNa	PSP	<fs af='kAraNa,n,m,,,o,,' posn='210' drel='lwg__psp:milane' chunkType='child:VGNN2' name='kAraNa'>
23	xama	NN	<fs af='xama,n,m,sg,3,d,0,0' drel='pof:wodZa' posn='230' name='xama' chunkId='NP8' chunkType='head:NP8'>
24	wodZa	VM	<fs af='woda,v,m,pl,3,,0_bETa+wA_hE,0' drel='nmod__relc:kExiyoM' stype='declarative' posn='240' voicetype='active' vpos='tam_2_3' name='wodZa' chunkId='VGF2' chunkType='head:VGF2'>
25	bETawe	VAUX	<fs af='bETa,v,m,pl,any,,wA,wA' posn='250' drel='lwg__vaux:wodZa' chunkType='child:VGF2' name='bETawe'>
26	hEM	VAUX	<fs af='hE,v,any,pl,3,,hE,hE' posn='260' drel='lwg__vaux:wodZa' chunkType='child:VGF2' name='hEM'>
27	.	SYM	<fs af='.,punc,,,,,,' drel='rsym:Ora' posn='270' name='.' chunkId='BLK' chunkType='head:BLK'>
</Sentence>


<Sentence id="6">
1	xaraasala	RB	<fs af='xaraasala,adv,,,,,,' drel='sent-adv:banawe' posn='10' name='xaraasala' chunkId='RBP' chunkType='head:RBP'>
2	jela	NN	<fs af='jela,n,f,pl,3,d,0,0' drel='k1:banawe' posn='20' name='jela' chunkId='NP' chunkType='head:NP'>
3	Aja	NN	<fs af='Aja,n,m,sg,3,d,0,0' drel='k7t:banawe' posn='30' name='Aja' chunkId='NP2' chunkType='head:NP2'>
4	aparAXa	NN	<fs af='aparAXa,n,m,sg,3,o,0_kA,0' drel='r6:adde' posn='40' vpos='vib_2' name='aparAXa' chunkId='NP3' chunkType='head:NP3'>
5	ke	PSP	<fs af='kA,psp,m,pl,,d,,' posn='50' drel='lwg__psp:aparAXa' chunkType='child:NP3' name='ke'>
6	adde	NN	<fs af='addA,n,m,pl,3,d,0,0' drel='k2:banawe' posn='60' name='adde' chunkId='NP4' chunkType='head:NP4'>
7	banawe	VM	<fs af='bana,v,any,pl,3,,wA_jA_raha+yA_hE,wA' stype='declarative' posn='70' voicetype='active' vpos='tam_2_3_4' name='banawe' chunkId='VGF' chunkType='head:VGF'>
8	jA	VAUX	<fs af='jA,v,any,any,any,,0,0' posn='80' drel='lwg__vaux:banawe' chunkType='child:VGF' name='jA'>
9	rahe	VAUX	<fs af='raha,v,any,pl,3,,yA,yA' posn='90' drel='lwg__vaux:banawe' chunkType='child:VGF' name='rahe'>
10	hEM	VAUX	<fs af='hE,v,any,pl,3,,hE,hE' posn='100' drel='lwg__vaux:banawe' chunkType='child:VGF' name='hEM'>
11	.	SYM	<fs af='.,punc,,,,,,' drel='rsym:banawe' posn='110' name='.' chunkId='BLK' chunkType='head:BLK'>
</Sentence>


<Sentence id="7">
1	isameM	PRP	<fs af='yaha,pn,any,sg,3,o,meM,meM' drel='k7:howI' posn='10' name='isameM' chunkId='NP' chunkType='head:NP'>
2	rAjanewA	NN	<fs af='rAjanewA,n,m,sg,3,o,0,0' drel='ccof:Ora' posn='20' name='rAjanewA' chunkId='NP2' chunkType='head:NP2'>
3	,	SYM	<fs af='COMMA,punc,,,,,,' posn='30' drel='rsym:rAjanewA' chunkType='child:NP2' name=','>
4	pulisa	NN	<fs af='pulisa,n,f,sg,3,o,0,0' drel='ccof:Ora' posn='40' name='pulisa' chunkId='NP3' chunkType='head:NP3'>
5	Ora	CC	<fs af='Ora,avy,,,,,,' drel='r6-k1:sAMTagAMTa' posn='50' name='Ora' chunkId='CCP' chunkType='head:CCP'>
6	aparAXiyoM	NN	<fs af='aparAXI,n,m,pl,3,o,0_kA,0' drel='ccof:Ora' posn='60' vpos='vib_2' name='aparAXiyoM' chunkId='NP4' chunkType='head:NP4'>
7	kI	PSP	<fs af='kA,psp,f,sg,,d,,' posn='70' drel='lwg__psp:aparAXiyoM' chunkType='child:NP4' name='kI'>
8	sAMTagAMTa	NN	<fs af='sAMTagAMTa,n,f,sg,3,d,0,0' drel='pof:howI' posn='80' name='sAMTagAMTa' chunkId='NP5' chunkType='head:NP5'>
9	howI	VM	<fs af='ho,v,f,sg,3,,wA_hE,wA' stype='declarative' posn='90' voicetype='active' vpos='tam_2' name='howI' chunkId='VGF' chunkType='head:VGF'>
10	hE	VAUX	<fs af='hE,v,any,sg,3,,hE,hE' posn='100' drel='lwg__vaux:howI' chunkType='child:VGF' name='hE'>
11	.	SYM	<fs af='.,punc,,,,,,' drel='rsym:howI' posn='110' name='.' chunkId='BLK' chunkType='head:BLK'>
</Sentence>


<Sentence id="8">
1	jela	NNC	<fs af='jela,n,f,sg,3,d,0,0' posn='10' drel='pof__cn:suXAra' chunkType='child:NP' name='jela'>
2	suXAra	NN	<fs af='suXAra,n,m,sg,3,o,0_ke_lie,0' drel='rt:huA' posn='20' vpos='vib_3_4' name='suXAra' chunkId='NP' chunkType='head:NP'>
3	ke	PSP	<fs af='ke,psp,,,,,,' posn='30' drel='lwg__psp:suXAra' chunkType='child:NP' name='ke'>
4	lie	PSP	<fs af='lie,psp,,,,,,' posn='40' drel='lwg__psp:suXAra' chunkType='child:NP' name='lie'>
5	aneka	QF	<fs af='aneka,avy,,,,,,' posn='50' drel='nmod__adj:bAra' chunkType='child:NP2' name='aneka'>
6	bAra	NN	<fs af='bAra,n,f,sg,3,d,0,0' drel='k7:huA' posn='60' name='bAra' chunkId='NP2' chunkType='head:NP2'>
7	samiwiyoM	NN	<fs af='samiwi,n,f,pl,3,o,0_kA,0' drel='r6-k1:gaTana' posn='70' vpos='vib_2' name='samiwiyoM' chunkId='NP3' chunkType='head:NP3'>
8	kA	PSP	<fs af='kA,psp,m,sg,,d,,' posn='80' drel='lwg__psp:samiwiyoM' chunkType='child:NP3' name='kA'>
9	gaTana	NN	<fs af='gaTana,n,m,sg,3,d,0,0' drel='pof:huA' posn='90' name='gaTana' chunkId='NP4' chunkType='head:NP4'>
10	huA	VM	<fs af='ho,v,m,sg,3,,yA_hE,yA' drel='ccof:lekina' stype='declarative' posn='100' voicetype='active' vpos='tam_2' name='huA' chunkId='VGF' chunkType='head:VGF'>
11	hE	VAUX	<fs af='hE,v,any,sg,3,,hE,hE' posn='110' drel='lwg__vaux:huA' chunkType='child:VGF' name='hE'>
12	lekina	CC	<fs af='lekina,avy,,,,,,' posn='120' name='lekina' chunkId='CCP' chunkType='head:CCP'>
13	unakI	PRP	<fs af='vaha,pn,any,pl,3,o,kA,kA' drel='r6:siPAriSoM' posn='130' name='unakI' chunkId='NP5' chunkType='head:NP5'>
14	siPAriSoM	NN	<fs af='siPAriSa,n,f,pl,3,o,0_para,0' drel='k7:huA2' posn='140' vpos='vib_2' name='siPAriSoM' chunkId='NP6' chunkType='head:NP6'>
15	para	PSP	<fs af='para,psp,,,,,,' posn='150' drel='lwg__psp:siPAriSoM' chunkType='child:NP6' name='para'>
16	kaBI	PRP	<fs af='kaBI,pn,,,,,,' drel='k7t:huA2' posn='160' name='kaBI' chunkId='NP7' chunkType='head:NP7'>
17	amala	NN	<fs af='amala,n,m,sg,3,d,0,0' drel='pof:huA2' posn='170' name='amala' chunkId='NP8' chunkType='head:NP8'>
18	nahIM	NEG	<fs af='nahIM,avy,,,,,,' posn='180' drel='lwg__neg:huA2' chunkType='child:VGF2' name='nahIM'>
19	huA	VM	<fs af='ho,v,m,sg,3,,yA,yA' drel='ccof:lekina' stype='declarative' posn='190' voicetype='active' name='huA2' chunkId='VGF2' chunkType='head:VGF2'>
20	.	SYM	<fs af='.,punc,,,,,,' drel='rsym:lekina' posn='200' name='.' chunkId='BLK' chunkType='head:BLK'>
</Sentence>


<Sentence id="9">
1	rAjaXAnI	NN	<fs af='rAjaXAnI,n,f,sg,3,d,0,0' posn='10' drel='nmod:xillI' chunkType='child:NP' name='rAjaXAnI'>
2	xillI	NNP	<fs af='xillI,n,f,sg,3,o,0_kA,0' drel='r6:jela' posn='20' vpos='vib_vib_3' name='xillI' chunkId='NP' chunkType='head:NP'>
3	kI	PSP	<fs af='kA,psp,f,sg,,d,,' posn='30' drel='lwg__psp:xillI' chunkType='child:NP' name='kI'>
4	maSahUra	JJ	<fs af='maSahUra,adj,any,any,,d,,' posn='40' drel='nmod__adj:jela' chunkType='child:NP2' name='maSahUra'>
5	wihAdZa	NNPC	<fs af='wihAdZa,n,f,sg,3,d,0,0' posn='50' drel='pof__cn:jela' chunkType='child:NP2' name='wihAdZa'>
6	jela	NNP	<fs af='jela,n,f,sg,3,d,0,0' drel='k1:bacI' posn='60' name='jela' chunkId='NP2' chunkType='head:NP2'>
7	BI	RP	<fs af='BI,avy,,,,,,' posn='70' drel='lwg__rp:jela' chunkType='child:NP2' name='BI'>
8	isa	DEM	<fs af='yaha,pn,any,sg,3,o,,' posn='80' drel='nmod__adj:waraha' chunkType='child:NP3' name='isa'>
9	waraha	NN	<fs af='waraha,n,f,sg,3,o,0_kA,0' drel='r6:hAxasoM' posn='90' vpos='vib_3' name='waraha' chunkId='NP3' chunkType='head:NP3'>
10	ke	PSP	<fs af='kA,psp,m,pl,,o,,' posn='100' drel='lwg__psp:waraha' chunkType='child:NP3' name='ke'>
11	hAxasoM	NN	<fs af='hAxasA,n,m,pl,3,o,0_se,0' drel='k5:bacI' posn='110' vpos='vib_2' name='hAxasoM' chunkId='NP4' chunkType='head:NP4'>
12	se	PSP	<fs af='se,psp,,,,,,' posn='120' drel='lwg__psp:hAxasoM' chunkType='child:NP4' name='se'>
13	bacI	VM	<fs af='baca,v,f,sg,any,,yA,yA' drel='vmod:hE' posn='130' name='bacI' chunkId='VGNF' chunkType='head:VGNF'>
14	nahIM	NEG	<fs af='nahIM,avy,,,,,,' posn='140' drel='lwg__neg:hE' chunkType='child:VGF' name='nahIM'>
15	hE	VM	<fs af='hE,v,any,sg,3,,hE,hE' stype='declarative' posn='150' voicetype='active' name='hE' chunkId='VGF' chunkType='head:VGF'>
16	.	SYM	<fs af='.,punc,,,,,,' drel='rsym:hE' posn='160' name='.' chunkId='BLK' chunkType='head:BLK'>
</Sentence>


<Sentence id="10">
1	wihAdZa	NNP	<fs af='wihAdZa,n,f,sg,3,o,0_meM,0' drel='k7p:ho' posn='10' vpos='vib_2' name='wihAdZa' chunkId='NP' chunkType='head:NP'>
2	meM	PSP	<fs af='meM,psp,,,,,,' posn='20' drel='lwg__psp:wihAdZa' chunkType='child:NP' name='meM'>
3	5	QC	<fs af='5,num,any,any,,any,,' posn='30' drel='nmod__adj:sAla' chunkType='child:NP2' name='5'>
4	sAla	NN	<fs af='sAla,n,m,sg,3,o,0_meM,0' drel='k7t:ho' posn='40' vpos='vib_3' name='sAla' chunkId='NP2' chunkType='head:NP2'>
5	meM	PSP	<fs af='meM,psp,,,,,,' posn='50' drel='lwg__psp:sAla' chunkType='child:NP2' name='meM2'>
6	116	QC	<fs af='116,num,any,any,,any,,' posn='60' drel='nmod__adj:mOweM' chunkType='child:NP3' name='116'>
7	mOweM	NN	<fs af='mOwa,n,f,pl,3,d,0,0' drel='pof:ho' posn='70' name='mOweM' chunkId='NP3' chunkType='head:NP3'>
8	ho	VM	<fs af='ho,v,f,pl,3,,0_cuka+yA_hE,0' stype='declarative' posn='80' voicetype='active' vpos='tam_2_3' name='ho' chunkId='VGF' chunkType='head:VGF'>
9	cukI	VAUX	<fs af='cuka,v,f,pl,3,,yA,yA' posn='90' drel='lwg__vaux:ho' chunkType='child:VGF' name='cukI'>
10	hEM	VAUX	<fs af='hE,v,any,pl,3,,hE,hE' posn='100' drel='lwg__vaux:ho' chunkType='child:VGF' name='hEM'>
11	.	SYM	<fs af='.,punc,,,,,,' drel='rsym:ho' posn='110' name='.' chunkId='BLK' chunkType='head:BLK'>
</Sentence>


<Sentence id="11">
1	aBI	PRP	<fs af='aBI,pn,,,,d,,' drel='k7t:ho' posn='10' name='aBI' chunkId='NP' chunkType='head:NP'>
2	gawa	JJ	<fs af='gawa,adj,any,any,,o,,' posn='20' drel='nmod__adj:aprEla' chunkType='child:NP2' name='gawa'>
3	aprEla	NNP	<fs af='aprEla,n,m,sg,3,o,0_meM,0' drel='k7t:ho' posn='30' vpos='vib_3_RP' name='aprEla' chunkId='NP2' chunkType='head:NP2'>
4	meM	PSP	<fs af='meM,psp,,,,,,' posn='40' drel='lwg__psp:aprEla' chunkType='child:NP2' name='meM'>
5	hI	RP	<fs af='hI,avy,,,,,,' posn='50' drel='lwg__rp:aprEla' chunkType='child:NP2' name='hI'>
6	vahAM	PRP	<fs af='vahAz,pn,,,,d,,' drel='k7p:ho' posn='60' name='vahAM' chunkId='NP3' chunkType='head:NP3'>
7	32	QC	<fs af='32,num,any,any,,any,,' posn='70' drel='nmod__adj:sAla' chunkType='child:NP4' name='32'>
8	sAla	NN	<fs af='sAla,n,m,sg,3,o,0_kA,0' drel='r6:nAma' posn='80' vpos='vib_3' name='sAla' chunkId='NP4' chunkType='head:NP4'>
9	ke	PSP	<fs af='kA,psp,m,sg,,o,,' posn='90' drel='lwg__psp:sAla' chunkType='child:NP4' name='ke'>
10	caMxraBAna	NNP	<fs af='caMxraBAna,n,m,sg,3,d,0,0' posn='100' drel='nmod__adj:nAma' chunkType='child:NP5' name='caMxraBAna'>
11	nAma	NN	<fs af='nAma,n,m,sg,3,o,0_kA,0' drel='r6:kExI' posn='110' vpos='vib_vib_3' name='nAma' chunkId='NP5' chunkType='head:NP5'>
12	ke	PSP	<fs af='kA,psp,m,sg,,o,,' posn='120' drel='lwg__psp:nAma' chunkType='child:NP5' name='ke2'>
13	kExI	NN	<fs af='kExI,n,m,sg,3,o,0_kA,0' drel='r6-k1:mOwa' posn='130' vpos='vib_2' name='kExI' chunkId='NP6' chunkType='head:NP6'>
14	kI	PSP	<fs af='kA,psp,f,sg,,o,,' posn='140' drel='lwg__psp:kExI' chunkType='child:NP6' name='kI'>
15	rahasyamaya	JJ	<fs af='rahasyamaya,adj,any,any,,o,,' posn='150' drel='nmod__adj:parisWiwiyoM' chunkType='child:NP7' name='rahasyamaya'>
16	parisWiwiyoM	NN	<fs af='parisWiwi,n,f,pl,3,o,0_meM,0' drel='k7:ho' posn='160' vpos='vib_3' name='parisWiwiyoM' chunkId='NP7' chunkType='head:NP7'>
17	meM	PSP	<fs af='meM,psp,,,,,,' posn='170' drel='lwg__psp:parisWiwiyoM' chunkType='child:NP7' name='meM2'>
18	mOwa	NN	<fs af='mOwa,n,f,sg,3,d,0,0' drel='pof:ho' posn='180' name='mOwa' chunkId='NP8' chunkType='head:NP8'>
19	ho	VM	<fs af='ho,v,f,sg,3,,0_jA+yA1_WA,0' stype='declarative' posn='190' voicetype='active' vpos='tam_2_3' name='ho' chunkId='VGF' chunkType='head:VGF'>
20	gaI	VAUX	<fs af='jA,v,f,sg,3,,yA1,yA1' posn='200' drel='lwg__vaux:ho' chunkType='child:VGF' name='gaI'>
21	WI	VAUX	<fs af='WA,v,f,sg,3,,WA,WA' posn='210' drel='lwg__vaux:ho' chunkType='child:VGF' name='WI'>
22	.	SYM	<fs af='.,punc,,,,,,' drel='rsym:ho' posn='220' name='.' chunkId='BLK' chunkType='head:BLK'>
</Sentence>


<Sentence id="12">
1	isase	PRP	<fs af='yaha,pn,any,sg,3,o,0_pahale,se' drel='k7t:kara' posn='10' vpos='vib_2' name='isase' chunkId='NP' chunkType='head:NP'>
2	pahale	NST	<fs af='pahale,nst,m,sg,3,d,,' posn='20' drel='lwg__psp:isase' chunkType='child:NP' name='pahale'>
3	20	NNPC	<fs af='20,n,any,sg,3,d,0,0' posn='30' drel='pof__cn:mArca' chunkType='child:NP2' name='20'>
4	mArca	NNP	<fs af='mArca,n,m,sg,3,o,0_ko,0' drel='k7t:kara' posn='40' vpos='vib_3' name='mArca' chunkId='NP2' chunkType='head:NP2'>
5	ko	PSP	<fs af='ko,psp,,,,,,' posn='50' drel='lwg__psp:mArca' chunkType='child:NP2' name='ko'>
6	rAjeSa	NNPC	<fs af='rAjeSa,n,m,sg,3,d,0,0' posn='60' drel='pof__cn:kumAra' chunkType='child:NP3' name='rAjeSa'>
7	kumAra	NNP	<fs af='kumAra,n,m,sg,3,d,0,0' posn='70' drel='nmod__adj:nAma' chunkType='child:NP3' name='kumAra'>
8	nAma	NN	<fs af='nAma,n,m,sg,3,o,0_kA,0' drel='r6:kExI' posn='80' vpos='vib_vib_4' name='nAma' chunkId='NP3' chunkType='head:NP3'>
9	ke	PSP	<fs af='kA,psp,m,sg,,o,,' posn='90' drel='lwg__psp:nAma' chunkType='child:NP3' name='ke'>
10	eka	QC	<fs af='eka,num,any,any,,any,,' posn='100' drel='nmod__adj:kExI' chunkType='child:NP4' name='eka'>
11	Ora	QF	<fs af='Ora,avy,,,,,,' posn='110' drel='nmod__adj:kExI' chunkType='child:NP4' name='Ora'>
12	kExI	NN	<fs af='kExI,n,m,sg,3,o,0_ne,0' drel='k1:kara' posn='120' vpos='vib_4' name='kExI' chunkId='NP4' chunkType='head:NP4'>
13	ne	PSP	<fs af='ne,psp,,,,,,' posn='130' drel='lwg__psp:kExI' chunkType='child:NP4' name='ne'>
14	jela	NNC	<fs af='jela,n,f,sg,3,d,0,0' posn='140' drel='pof__cn:parisara' chunkType='child:NP5' name='jela'>
15	parisara	NN	<fs af='parisara,n,m,sg,3,o,0_kA,0' drel='r6:SOcAlaya' posn='150' vpos='vib_3' name='parisara' chunkId='NP5' chunkType='head:NP5'>
16	ke	PSP	<fs af='kA,psp,m,sg,,o,,' posn='160' drel='lwg__psp:parisara' chunkType='child:NP5' name='ke2'>
17	SOcAlaya	NN	<fs af='SOcAlaya,n,m,sg,3,o,0_meM,0' drel='k7p:kara' posn='170' vpos='vib_2' name='SOcAlaya' chunkId='NP6' chunkType='head:NP6'>
18	meM	PSP	<fs af='meM,psp,,,,,,' posn='180' drel='lwg__psp:SOcAlaya' chunkType='child:NP6' name='meM'>
19	PAMsI	NN	<fs af='PAzsI,n,f,sg,3,d,0,0' drel='pof:lagAkara' posn='190' name='PAMsI' chunkId='NP7' chunkType='head:NP7'>
20	lagAkara	VM	<fs af='lagA,v,any,any,any,,kara,kara' drel='vmod:kara' posn='200' name='lagAkara' chunkId='VGNF' chunkType='head:VGNF'>
21	AwmahawyA	NN	<fs af='AwmahawyA,n,f,sg,3,d,0,0' drel='pof:kara' posn='210' name='AwmahawyA' chunkId='NP8' chunkType='head:NP8'>
22	kara	VM	<fs af='kara,v,f,sg,3,,0_le+yA_WA,0' stype='declarative' posn='220' voicetype='active' vpos='tam_2_3' name='kara' chunkId='VGF' chunkType='head:VGF'>
23	lI	VAUX	<fs af='le,v,f,sg,3,,yA,yA' posn='230' drel='lwg__vaux:kara' chunkType='child:VGF' name='lI'>
24	WI	VAUX	<fs af='WA,v,f,sg,3,,WA,WA' posn='240' drel='lwg__vaux:kara' chunkType='child:VGF' name='WI'>
25	.	SYM	<fs af='.,punc,,,,,,' drel='rsym:kara' posn='250' name='.' chunkId='BLK' chunkType='head:BLK'>
</Sentence>


<Sentence id="13">
1	gAjiyAbAxa	NNP	<fs af='gAjiyAbAxa,n,m,sg,3,o,0_kA,0' drel='r6:jela' posn='10' vpos='vib_2' name='gAjiyAbAxa' chunkId='NP' chunkType='head:NP'>
2	kI	PSP	<fs af='kA,psp,f,sg,,o,,' posn='20' drel='lwg__psp:gAjiyAbAxa' chunkType='child:NP' name='kI'>
3	dAsanA	NNPC	<fs af='dAsanA,n,f,sg,3,d,0,0' posn='30' drel='pof__cn:jela' chunkType='child:NP2' name='dAsanA'>
4	jela	NNP	<fs af='jela,n,f,sg,3,o,0_meM,0' drel='k7p:ho' posn='40' vpos='vib_3' name='jela' chunkId='NP2' chunkType='head:NP2'>
5	meM	PSP	<fs af='meM,psp,,,,,,' posn='50' drel='lwg__psp:jela' chunkType='child:NP2' name='meM'>
6	aba	PRP	<fs af='aba,pn,,,,o,0_waka,' drel='k7t:ho' posn='60' vpos='vib_2' name='aba' chunkId='NP3' chunkType='head:NP3'>
7	waka	PSP	<fs af='waka,psp,,,,,,' posn='70' drel='lwg__psp:aba' chunkType='child:NP3' name='waka'>
8	48	QC	<fs af='48,num,any,any,,any,,' posn='80' drel='nmod__adj:kExiyoM' chunkType='child:NP4' name='48'>
9	kExiyoM	NN	<fs af='kExI,n,m,pl,3,o,0_kA,0' drel='r6-k1:mOwa' posn='90' vpos='vib_3' name='kExiyoM' chunkId='NP4' chunkType='head:NP4'>
10	kI	PSP	<fs af='kA,psp,f,sg,,d,,' posn='100' drel='lwg__psp:kExiyoM' chunkType='child:NP4' name='kI2'>
11	mOwa	NN	<fs af='mOwa,n,f,sg,3,d,0,0' drel='pof:ho' posn='110' name='mOwa' chunkId='NP5' chunkType='head:NP5'>
12	ho	VM	<fs af='ho,v,f,sg,3,,0_cuka+yA_hE,0' stype='declarative' posn='120' voicetype='active' vpos='tam_2_3' name='ho' chunkId='VGF' chunkType='head:VGF'>
13	cukI	VAUX	<fs af='cuka,v,f,sg,3,,yA,yA' posn='130' drel='lwg__vaux:ho' chunkType='child:VGF' name='cukI'>
14	hE	VAUX	<fs af='hE,v,any,sg,3,,hE,hE' posn='140' drel='lwg__vaux:ho' chunkType='child:VGF' name='hE'>
15	.	SYM	<fs af='.,punc,,,,,,' drel='rsym:ho' posn='150' name='.' chunkId='BLK' chunkType='head:BLK'>
</Sentence>


<Sentence id="14">
1	vahAM	PRP	<fs af='vahAz,pn,,,,d,,' drel='k7p:uwAra' posn='10' name='vahAM' chunkId='NP' chunkType='head:NP'>
2	kamaruxxIna	NNP	<fs af='kamaruxxIna,n,m,sg,3,d,0,0' posn='20' drel='nmod__adj:nAma' chunkType='child:NP2' name='kamaruxxIna'>
3	nAma	NN	<fs af='nAma,n,m,sg,3,o,0_kA,0' drel='r6:kExI' posn='30' vpos='vib_vib_3' name='nAma' chunkId='NP2' chunkType='head:NP2'>
4	ke	PSP	<fs af='kA,psp,m,sg,,o,,' posn='40' drel='lwg__psp:nAma' chunkType='child:NP2' name='ke'>
5	eka	QC	<fs af='eka,num,any,any,,any,,' posn='50' drel='nmod__adj:kExI' chunkType='child:NP3' name='eka'>
6	kExI	NN	<fs af='kExI,n,m,sg,3,o,0_kA,0' drel='r6:mOwa' posn='60' vpos='vib_3' name='kExI' chunkId='NP3' chunkType='head:NP3'>
7	kI	PSP	<fs af='kA,psp,f,sg,,o,,' posn='70' drel='lwg__psp:kExI' chunkType='child:NP3' name='kI'>
8	rahasyamaya	JJ	<fs af='rahasyamaya,adj,any,any,,o,,' posn='80' drel='nmod__adj:mOwa' chunkType='child:NP4' name='rahasyamaya'>
9	mOwa	NN	<fs af='mOwa,n,f,sg,3,o,0_ke_bAxa,0' drel='k7t:uwAra' posn='90' vpos='vib_3_4' name='mOwa' chunkId='NP4' chunkType='head:NP4'>
10	ke	PSP	<fs af='ke,psp,,,,,,' posn='100' drel='lwg__psp:mOwa' chunkType='child:NP4' name='ke2'>
11	bAxa	NST	<fs af='bAxa,nst,m,sg,3,d,,' posn='110' drel='lwg__psp:mOwa' chunkType='child:NP4' name='bAxa'>
12	eka	QC	<fs af='eka,num,any,any,,any,,' posn='120' drel='nmod__adj:kExI2' chunkType='child:NP5' name='eka2'>
13	anya	JJ	<fs af='anya,adj,any,any,,o,,' posn='130' drel='nmod__adj:kExI2' chunkType='child:NP5' name='anya'>
14	kExI	NN	<fs af='kExI,n,m,sg,3,o,0_ko,0' drel='k2:karane' posn='140' vpos='vib_4' name='kExI2' chunkId='NP5' chunkType='head:NP5'>
15	ko	PSP	<fs af='ko,psp,,,,,,' posn='150' drel='lwg__psp:kExI2' chunkType='child:NP5' name='ko'>
16	prawAdZiwa	JJ	<fs af='prawAdiwa,adj,any,any,,,,' drel='pof:karane' posn='160' name='prawAdZiwa' chunkId='JJP' chunkType='head:JJP'>
17	karane	VM	<fs af='kara,v,any,any,any,o,nA_ke_lie,nA' drel='rt:uwAra' posn='170' vpos='tam_2_3' name='karane' chunkId='VGNN' chunkType='head:VGNN'>
18	ke	PSP	<fs af='ke,psp,,,,,,' posn='180' drel='lwg__psp:karane' chunkType='child:VGNN' name='ke3'>
19	lie	PSP	<fs af='lie,psp,,,,,,' posn='190' drel='lwg__psp:karane' chunkType='child:VGNN' name='lie'>
20	jela	NNC	<fs af='jela,n,f,sg,3,d,0,0' posn='200' drel='pof__cn:aXikArI' chunkType='child:NP6' name='jela'>
21	aXikArI	NN	<fs af='aXikArI,n,m,sg,3,o,0_ne,0' drel='k1:uwAra' posn='210' vpos='vib_3' name='aXikArI' chunkId='NP6' chunkType='head:NP6'>
22	ne	PSP	<fs af='ne,psp,,,,,,' posn='220' drel='lwg__psp:aXikArI' chunkType='child:NP6' name='ne'>
23	usake	PRP	<fs af='vaha,pn,m,sg,3,o,kA,kA' drel='r6:pAle' posn='230' name='usake' chunkId='NP7' chunkType='head:NP7'>
24	pAle	VM	<fs af='pAla,v,any,pl,3,,yA,yA' drel='nmod__k1inv:kabUwaroM' posn='240' name='pAle' chunkId='VGNF' chunkType='head:VGNF'>
25	100	QC	<fs af='100,num,any,any,,any,,' posn='250' drel='nmod__adj:kabUwaroM' chunkType='child:NP8' name='100'>
26	kabUwaroM	NN	<fs af='kabUwara,n,m,pl,3,o,0_ko,0' drel='k2:uwAra' posn='260' vpos='vib_3_RP' name='kabUwaroM' chunkId='NP8' chunkType='head:NP8'>
27	ko	PSP	<fs af='ko,psp,,,,,,' posn='270' drel='lwg__psp:kabUwaroM' chunkType='child:NP8' name='ko2'>
28	hI	RP	<fs af='hI,avy,,,,,,' posn='280' drel='lwg__rp:kabUwaroM' chunkType='child:NP8' name='hI'>
29	mOwa	NN	<fs af='mOwa,n,f,sg,3,o,0_kA,0' drel='r6-k1:GAta' posn='290' vpos='vib_2' name='mOwa2' chunkId='NP9' chunkType='head:NP9'>
30	ke	PSP	<fs af='kA,psp,m,sg,,o,,' posn='300' drel='lwg__psp:mOwa2' chunkType='child:NP9' name='ke4'>
31	GAta	NN	<fs af='GAta,n,m,sg,3,o,0,0' drel='pof:uwAra' posn='310' name='GAta' chunkId='NP10' chunkType='head:NP10'>
32	uwAra	VM	<fs af='uwAra,v,m,sg,any,,0_xe+yA_WA,0' stype='declarative' posn='320' voicetype='active' vpos='tam_2_3' name='uwAra' chunkId='VGF' chunkType='head:VGF'>
33	xiyA	VAUX	<fs af='xe,v,m,sg,any,,yA,yA' posn='330' drel='lwg__vaux:uwAra' chunkType='child:VGF' name='xiyA'>
34	WA	VAUX	<fs af='WA,v,m,sg,any,,WA,WA' posn='340' drel='lwg__vaux:uwAra' chunkType='child:VGF' name='WA'>
35	.	SYM	<fs af='.,punc,,,,,,' drel='rsym:uwAra' posn='350' name='.' chunkId='BLK' chunkType='head:BLK'>
</Sentence>


<Sentence id="15">
1	gawa	JJ	<fs af='gawa,adj,any,any,,o,,' posn='10' drel='nmod__adj:mahIne' chunkType='child:NP' name='gawa'>
2	maI	NNP	<fs af='maI,n,f,sg,3,d,0,0' posn='20' drel='nmod__adj:mahIne' chunkType='child:NP' name='maI'>
3	mahIne	NN	<fs af='mahInA,n,m,sg,3,o,0_meM,0' drel='k7t:mAra' posn='30' vpos='vib_vib_4' name='mahIne' chunkId='NP' chunkType='head:NP'>
4	meM	PSP	<fs af='meM,psp,,,,,,' posn='40' drel='lwg__psp:mahIne' chunkType='child:NP' name='meM'>
5	vArANasI	NNP	<fs af='vArANasI,n,m,sg,3,o,0_meM,0' drel='k7p:mAra' posn='50' vpos='vib_2' name='vArANasI' chunkId='NP2' chunkType='head:NP2'>
6	meM	PSP	<fs af='meM,psp,,,,,,' posn='60' drel='lwg__psp:vArANasI' chunkType='child:NP2' name='meM2'>
7	eka	QC	<fs af='eka,num,any,any,,any,,' posn='70' drel='nmod__adj:gEMgavAra' chunkType='child:NP3' name='eka'>
8	gEMgavAra	NN	<fs af='gEMgavAra,n,m,sg,3,o,0_meM,0' drel='k7:mAra' posn='80' vpos='vib_3' name='gEMgavAra' chunkId='NP3' chunkType='head:NP3'>
9	meM	PSP	<fs af='meM,psp,,,,,,' posn='90' drel='lwg__psp:gEMgavAra' chunkType='child:NP3' name='meM3'>
10	saMwoRa	NNPC	<fs af='saMwoRa,n,any,sg,3,d,0,0' posn='100' drel='pof__cn:gupwA' chunkType='child:NP4' name='saMwoRa'>
11	gupwA	NNP	<fs af='gupwA,n,any,sg,3,o,0_ne,0' drel='k1:mAra' posn='110' vpos='vib_3' name='gupwA' chunkId='NP4' chunkType='head:NP4'>
12	ne	PSP	<fs af='ne,psp,,,,,,' posn='120' drel='lwg__psp:gupwA' chunkType='child:NP4' name='ne'>
13	annU	NNPC	<fs af='annU,n,any,sg,3,d,0,0' posn='130' drel='pof__cn:wripATI' chunkType='child:NP5' name='annU'>
14	wripATI	NNP	<fs af='wripATI,n,any,sg,3,d,0,0' posn='140' drel='nmod__adj:nAma' chunkType='child:NP5' name='wripATI'>
15	nAma	NN	<fs af='nAma,n,m,sg,3,o,0_kA,0' drel='r6:kExI' posn='150' vpos='vib_vib_4' name='nAma' chunkId='NP5' chunkType='head:NP5'>
16	ke	PSP	<fs af='kA,psp,m,sg,,o,,' posn='160' drel='lwg__psp:nAma' chunkType='child:NP5' name='ke'>
17	kExI	NN	<fs af='kExI,n,m,sg,3,o,0_ko,0' drel='k2:mAra' posn='170' vpos='vib_2' name='kExI' chunkId='NP6' chunkType='head:NP6'>
18	ko	PSP	<fs af='ko,psp,,,,,,' posn='180' drel='lwg__psp:kExI' chunkType='child:NP6' name='ko'>
19	mAra	VM	<fs af='mAra,v,m,sg,any,,0_dAla+yA_WA,0' stype='declarative' posn='190' voicetype='active' vpos='tam_2_3' name='mAra' chunkId='VGF' chunkType='head:VGF'>
20	dAlA	VAUX	<fs af='dAla,v,m,sg,any,,yA,yA' posn='200' drel='lwg__vaux:mAra' chunkType='child:VGF' name='dAlA'>
21	WA	VAUX	<fs af='WA,v,m,sg,any,,WA,WA' posn='210' drel='lwg__vaux:mAra' chunkType='child:VGF' name='WA'>
22	.	SYM	<fs af='.,punc,,,,,,' drel='rsym:mAra' posn='220' name='.' chunkId='BLK' chunkType='head:BLK'>
</Sentence>


<Sentence id="16">
1	paScima	NNPC	<fs af='paScima,n,m,sg,3,d,0,0' posn='10' drel='pof__cn:baMgAla' chunkType='child:NP' name='paScima'>
2	baMgAla	NNP	<fs af='baMgAla,n,m,sg,3,o,0_kA,0' drel='r6:jalapAIgudZI' posn='20' vpos='vib_3' name='baMgAla' chunkId='NP' chunkType='head:NP'>
3	ke	PSP	<fs af='kA,psp,m,sg,,o,,' posn='30' drel='lwg__psp:baMgAla' chunkType='child:NP' name='ke'>
4	jalapAIgudZI	NNP	<fs af='jalapAIgudZI,n,m,sg,3,o,0_kA,0' drel='r6:jela' posn='40' vpos='vib_2' name='jalapAIgudZI' chunkId='NP2' chunkType='head:NP2'>
5	ke	PSP	<fs af='kA,psp,m,sg,,o,,' posn='50' drel='lwg__psp:jalapAIgudZI' chunkType='child:NP2' name='ke2'>
6	alIpuraxvAra	NNPC	<fs af='alIpuraxvAra,n,m,sg,3,d,0,0' posn='60' drel='pof__cn:jela' chunkType='child:NP3' name='alIpuraxvAra'>
7	jela	NNP	<fs af='jela,n,f,sg,3,o,0_meM,0' drel='k7p:ho' posn='70' vpos='vib_3' name='jela' chunkId='NP3' chunkType='head:NP3'>
8	meM	PSP	<fs af='meM,psp,,,,,,' posn='80' drel='lwg__psp:jela' chunkType='child:NP3' name='meM'>
9	mArca	NNP	<fs af='mArca,n,m,sg,3,d,0,0' posn='90' drel='nmod__adj:mahIne' chunkType='child:NP4' name='mArca'>
10	mahIne	NN	<fs af='mahInA,n,m,sg,3,d,0_pahale,0' drel='k7t:ho' posn='100' vpos='vib_vib_3' name='mahIne' chunkId='NP4' chunkType='head:NP4'>
11	pahale	NST	<fs af='pahale,nst,m,sg,3,d,,' posn='110' drel='lwg__psp:mahIne' chunkType='child:NP4' name='pahale'>
12	prAjiwa	NNPC	<fs af='prAjiwa,n,m,sg,3,d,0,0' posn='120' drel='pof__cn:xAsa' chunkType='child:NP5' name='prAjiwa'>
13	xAsa	NNP	<fs af='xAsa,n,m,sg,3,d,0,0' posn='130' drel='nmod__adj:nAma' chunkType='child:NP5' name='xAsa'>
14	nAma	NN	<fs af='nAma,n,m,sg,3,o,0_kA,0' drel='r6:kExI' posn='140' vpos='vib_vib_4' name='nAma' chunkId='NP5' chunkType='head:NP5'>
15	ke	PSP	<fs af='kA,psp,m,sg,,o,,' posn='150' drel='lwg__psp:nAma' chunkType='child:NP5' name='ke3'>
16	eka	QC	<fs af='eka,num,any,any,,any,,' posn='160' drel='nmod__adj:kExI' chunkType='child:NP6' name='eka'>
17	yuvA	JJ	<fs af='yuvA,adj,any,any,,o,,' posn='170' drel='nmod__adj:kExI' chunkType='child:NP6' name='yuvA'>
18	kExI	NN	<fs af='kExI,n,m,sg,3,o,0_kA,0' drel='r6-k1:mOwa' posn='180' vpos='vib_4' name='kExI' chunkId='NP6' chunkType='head:NP6'>
19	kI	PSP	<fs af='kA,psp,f,sg,,o,,' posn='190' drel='lwg__psp:kExI' chunkType='child:NP6' name='kI'>
20	rahasyamaya	JJ	<fs af='rahasyamaya,adj,any,any,,o,,' posn='200' drel='nmod__adj:parisWiwiyoM' chunkType='child:NP7' name='rahasyamaya'>
21	parisWiwiyoM	NN	<fs af='parisWiwi,n,f,pl,3,o,0_meM,0' drel='k7:ho' posn='210' vpos='vib_3' name='parisWiwiyoM' chunkId='NP7' chunkType='head:NP7'>
22	meM	PSP	<fs af='meM,psp,,,,,,' posn='220' drel='lwg__psp:parisWiwiyoM' chunkType='child:NP7' name='meM2'>
23	mOwa	NN	<fs af='mOwa,n,f,sg,3,d,0,0' drel='pof:ho' posn='230' name='mOwa' chunkId='NP8' chunkType='head:NP8'>
24	ho	VM	<fs af='ho,v,f,sg,3,,0_jA+yA1_WA,0' stype='declarative' posn='240' voicetype='active' vpos='tam_2_3' name='ho' chunkId='VGF' chunkType='head:VGF'>
25	gaI	VAUX	<fs af='jA,v,f,sg,3,,yA1,yA1' posn='250' drel='lwg__vaux:ho' chunkType='child:VGF' name='gaI'>
26	WI	VAUX	<fs af='WA,v,f,sg,3,,WA,WA' posn='260' drel='lwg__vaux:ho' chunkType='child:VGF' name='WI'>
27	.	SYM	<fs af='.,punc,,,,,,' drel='rsym:ho' posn='270' name='.' chunkId='BLK' chunkType='head:BLK'>
</Sentence>


<Sentence id="17">
1	vaha	PRP	<fs af='vaha,pn,any,sg,3,d,0,0' drel='k1:WA' posn='10' name='vaha' chunkId='NP' chunkType='head:NP'>
2	pqWaka	JJ	<fs af='pqWaka,adj,any,any,,o,,' posn='20' drel='nmod__adj:kAmawApura' chunkType='child:NP2' name='pqWaka'>
3	kAmawApura	NNP	<fs af='kAmawApura,n,m,sg,3,o,0_kA,0' drel='r6-k2:mAMga' posn='30' vpos='vib_3' name='kAmawApura' chunkId='NP2' chunkType='head:NP2'>
4	kI	PSP	<fs af='kA,psp,f,sg,,d,,' posn='40' drel='lwg__psp:kAmawApura' chunkType='child:NP2' name='kI'>
5	mAMga	NN	<fs af='mAMga,n,f,sg,3,d,0,0' drel='pof:karane' posn='50' name='mAMga' chunkId='NP3' chunkType='head:NP3'>
6	karane	VM	<fs af='kara,v,any,sg,any,o,nA_vAlA,nA' drel='nmod:xala' posn='60' vpos='tam_2' name='karane' chunkId='VGNN' chunkType='head:VGNN'>
7	vAle	PSP	<fs af='vAlA,psp,m,sg,,d,,' posn='70' drel='lwg__psp:karane' chunkType='child:VGNN' name='vAle'>
8	rAjanIwika	JJ	<fs af='rAjanIwika,adj,any,any,,o,,' posn='80' drel='nmod__adj:xala' chunkType='child:NP4' name='rAjanIwika'>
9	xala	NN	<fs af='xala,n,m,sg,3,o,0_kA,0' drel='r6-k1:kAryakarwA' posn='90' vpos='vib_3' name='xala' chunkId='NP4' chunkType='head:NP4'>
10	kA	PSP	<fs af='kA,psp,m,sg,,d,,' posn='100' drel='lwg__psp:xala' chunkType='child:NP4' name='kA'>
11	kAryakarwA	NN	<fs af='kAryakarwA,n,m,sg,3,d,0,0' drel='k1s:WA' posn='110' name='kAryakarwA' chunkId='NP5' chunkType='head:NP5'>
12	WA	VM	<fs af='WA,v,m,sg,3,,WA,WA' stype='declarative' posn='120' voicetype='active' name='WA' chunkId='VGF' chunkType='head:VGF'>
13	.	SYM	<fs af='.,punc,,,,,,' drel='rsym:WA' posn='130' name='.' chunkId='BLK' chunkType='head:BLK'>
</Sentence>


<Sentence id="18">
1	yahAz	PRP	<fs af='yahAz,pn,,,,d,,' drel='k7:hEM' posn='10' name='yahAz' chunkId='NP' chunkType='head:NP'>
2	kuCa	QF	<fs af='kuCa,avy,,,,,,' posn='20' drel='nmod__adj:uxAharaNa' chunkType='child:NP2' name='kuCa'>
3	Ese	DEM	<fs af='EsA,pn,m,any,any,d,,' posn='30' drel='nmod__adj:uxAharaNa' chunkType='child:NP2' name='Ese'>
4	uxAharaNa	NN	<fs af='uxAharaNa,n,m,pl,3,d,0,0' drel='k1:hEM' posn='40' name='uxAharaNa' chunkId='NP2' chunkType='head:NP2'>
5	hEM	VM	<fs af='hE,v,any,pl,3,,hE,hE' stype='declarative' posn='50' voicetype='active' name='hEM' chunkId='VGF' chunkType='head:VGF'>
6	jo	PRP	<fs af='jo,pn,any,pl,3,d,0,0' drel='k1:karawe' posn='60' coref='uxAharaNa' name='jo' chunkId='NP3' chunkType='head:NP3'>
7	jeloM	NN	<fs af='jela,n,f,pl,3,o,0_kA,0' drel='r6:xurxaSA' posn='70' vpos='vib_2' name='jeloM' chunkId='NP4' chunkType='head:NP4'>
8	kI	PSP	<fs af='kA,psp,f,sg,,o,,' posn='80' drel='lwg__psp:jeloM' chunkType='child:NP4' name='kI'>
9	xurxaSA	NN	<fs af='xurxaSA,n,f,sg,3,o,0,0' drel='ccof:Ora' posn='90' name='xurxaSA' chunkId='NP5' chunkType='head:NP5'>
10	Ora	CC	<fs af='Ora,avy,,,,,,' drel='k2:karawe' posn='100' name='Ora' chunkId='CCP' chunkType='head:CCP'>
11	vahAM	PRP	<fs af='vahAz,pn,,,,d,,' drel='k7:arAjakawA' posn='110' name='vahAM' chunkId='NP6' chunkType='head:NP6'>
12	vyApwa	JJ	<fs af='vyApwa,adj,any,any,,o,,' posn='120' drel='nmod__adj:arAjakawA' chunkType='child:NP7' name='vyApwa'>
13	arAjakawA	NN	<fs af='arAjakawA,n,f,sg,3,o,0_ko,0' drel='ccof:Ora' posn='130' vpos='vib_3' name='arAjakawA' chunkId='NP7' chunkType='head:NP7'>
14	ko	PSP	<fs af='ko,psp,,,,,,' posn='140' drel='lwg__psp:arAjakawA' chunkType='child:NP7' name='ko'>
15	bayAna	NN	<fs af='bayAna,n,m,sg,3,d,0,0' drel='pof:karawe' posn='150' name='bayAna' chunkId='NP8' chunkType='head:NP8'>
16	karawe	VM	<fs af='kara,v,m,pl,3,,wA_hE,wA' drel='nmod__relc:uxAharaNa' stype='declarative' posn='160' voicetype='active' vpos='tam_2' name='karawe' chunkId='VGF2' chunkType='head:VGF2'>
17	hEM	VAUX	<fs af='hE,v,any,pl,3,,hE,hE' posn='170' drel='lwg__vaux:karawe' chunkType='child:VGF2' name='hEM2'>
18	.	SYM	<fs af='.,punc,,,,,,' drel='rsym:hEM' posn='180' name='.' chunkId='BLK' chunkType='head:BLK'>
</Sentence>


<Sentence id="19">
1	kyoM	WQ	<fs af='kyoM,pn,,,,,,' drel='adv:hE' posn='10' name='kyoM' chunkId='RBP' chunkType='head:RBP'>
2	hE	VM	<fs af='hE,v,any,sg,3,,hE,hE' stype='interrogative' posn='20' voicetype='active' name='hE' chunkId='VGF' chunkType='head:VGF'>
3	hamAre	PRP	<fs af='hama,pn,m,pl,1,o,kA,kA' drel='r6:yahAM' posn='30' name='hamAre' chunkId='NP' chunkType='head:NP'>
4	yahAM	PRP	<fs af='yahAz,pn,,,,d,,' drel='k7:hE' posn='40' name='yahAM' chunkId='NP2' chunkType='head:NP2'>
5	jeloM	NN	<fs af='jela,n,f,pl,3,o,0_kA,0' drel='r6:xurxaSA' posn='50' vpos='vib_2' name='jeloM' chunkId='NP3' chunkType='head:NP3'>
6	kI	PSP	<fs af='kA,psp,f,sg,,d,,' posn='60' drel='lwg__psp:jeloM' chunkType='child:NP3' name='kI'>
7	yaha	DEM	<fs af='yaha,pn,any,sg,3,d,,' posn='70' drel='nmod__adj:xurxaSA' chunkType='child:NP4' name='yaha'>
8	xurxaSA	NN	<fs af='xurxaSA,n,f,sg,3,d,0,0' drel='k1:hE' posn='80' name='xurxaSA' chunkId='NP4' chunkType='head:NP4'>
9	?	SYM	<fs af='?,punc,,,,,,' drel='rsym:hE' posn='90' name='?' chunkId='BLK' chunkType='head:BLK'>
</Sentence>


<Sentence id="20">
1	isakA	PRP	<fs af='yaha,pn,m,sg,3,o,kA,kA' drel='r6-k1:kAraNa' posn='10' name='isakA' chunkId='NP' chunkType='head:NP'>
2	sabase	INTF	<fs af='sabase,avy,,,,,,' posn='20' drel='jjmod__intf:badZA' chunkType='child:NP2' name='sabase'>
3	badZA	JJ	<fs af='badA,adj,m,sg,,d,,' posn='30' drel='nmod__adj:kAraNa' chunkType='child:NP2' name='badZA'>
4	kAraNa	NN	<fs af='kAraNa,n,m,sg,3,d,0,0' drel='k1:hE' posn='40' name='kAraNa' chunkId='NP2' chunkType='head:NP2'>
5	hE	VM	<fs af='hE,v,any,sg,3,,hE,hE' stype='declarative' posn='50' voicetype='active' name='hE' chunkId='VGF' chunkType='head:VGF'>
6	hamArI	PRP	<fs af='hama,pn,f,pl,1,o,kA,kA' drel='r6:praNAlI' posn='60' name='hamArI' chunkId='NP3' chunkType='head:NP3'>
7	DIlI	JJ	<fs af='DIlA,adj,f,sg,,d,,' posn='70' drel='nmod__adj:praNAlI' chunkType='child:NP4' name='DIlI'>
8	nyAya	NNC	<fs af='nyAya,n,m,sg,3,d,0,0' posn='80' drel='pof__cn:praNAlI' chunkType='child:NP4' name='nyAya'>
9	praNAlI	NN	<fs af='praNAlI,n,f,sg,3,d,0,0' drel='ccof:Ora' posn='90' name='praNAlI' chunkId='NP4' chunkType='head:NP4'>
10	Ora	CC	<fs af='Ora,avy,,,,,,' drel='k1s:hE' posn='100' name='Ora' chunkId='CCP' chunkType='head:CCP'>
11	lAparavAha	JJ	<fs af='lAparavAha,adj,any,any,,d,,' posn='110' drel='nmod__adj:maSInarI' chunkType='child:NP5' name='lAparavAha'>
12	sarakArI	JJ	<fs af='sarakArI,adj,any,any,,d,,' posn='120' drel='nmod__adj:maSInarI' chunkType='child:NP5' name='sarakArI'>
13	maSInarI	NN	<fs af='maSInarI,n,f,sg,3,d,0,0' drel='ccof:Ora' posn='130' name='maSInarI' chunkId='NP5' chunkType='head:NP5'>
14	.	SYM	<fs af='.,punc,,,,,,' drel='rsym:hE' posn='140' name='.' chunkId='BLK' chunkType='head:BLK'>
</Sentence>


<Sentence id="21">
1	rARtrIya	NNPC	<fs af='rARtrIya,adj,any,any,,o,,' posn='10' drel='pof__cn:Ayoga' chunkType='child:NP' name='rARtrIya'>
2	mAnavAXikAra	NNPC	<fs af='mAnavAXikAra,n,m,sg,3,d,0,0' posn='20' drel='pof__cn:Ayoga' chunkType='child:NP' name='mAnavAXikAra'>
3	Ayoga	NNP	<fs af='Ayoga,n,m,sg,3,o,0_kA,0' drel='r6:AMkadZoM' posn='30' vpos='vib_4' name='Ayoga' chunkId='NP' chunkType='head:NP'>
4	ke	PSP	<fs af='kA,psp,m,pl,,o,,' posn='40' drel='lwg__psp:Ayoga' chunkType='child:NP' name='ke'>
5	AMkadZoM	NN	<fs af='AMkadZA,n,m,pl,3,o,0_ke_muwAbika,0' drel='k7a:We' posn='50' vpos='vib_2_3' name='AMkadZoM' chunkId='NP2' chunkType='head:NP2'>
6	ke	PSP	<fs af='ke,psp,,,,,,' posn='60' drel='lwg__psp:AMkadZoM' chunkType='child:NP2' name='ke2'>
7	muwAbika	PSP	<fs af='muwAbika,psp,,,,,,' posn='70' drel='lwg__psp:AMkadZoM' chunkType='child:NP2' name='muwAbika'>
8	xeSa	NN	<fs af='xeSa,n,m,sg,3,o,0_kA,0' drel='r6:jeloM' posn='80' vpos='vib_2' name='xeSa' chunkId='NP3' chunkType='head:NP3'>
9	ke	PSP	<fs af='kA,psp,m,pl,,o,,' posn='90' drel='lwg__psp:xeSa' chunkType='child:NP3' name='ke3'>
10	jeloM	NN	<fs af='jela,n,m,pl,3,o,0_meM,0' drel='k7p:We' posn='100' vpos='vib_2' name='jeloM' chunkId='NP4' chunkType='head:NP4'>
11	meM	PSP	<fs af='meM,psp,,,,,,' posn='110' drel='lwg__psp:jeloM' chunkType='child:NP4' name='meM'>
12	sana	NN	<fs af='sana,n,m,sg,3,d,0,0' posn='120' drel='nmod:2004' chunkType='child:NP5' name='sana'>
13	2004	NNP	<fs af='2004,n,any,sg,3,o,0_meM,0' drel='k7t:We' posn='130' vpos='vib_vib_3' name='2004' chunkId='NP5' chunkType='head:NP5'>
14	meM	PSP	<fs af='meM,psp,,,,,,' posn='140' drel='lwg__psp:2004' chunkType='child:NP5' name='meM2'>
15	kula	QF	<fs af='kula,avy,,,,,,' posn='150' drel='nmod__adj:kExI' chunkType='child:NP6' name='kula'>
16	336152	QC	<fs af='336152,num,any,any,,any,,' posn='160' drel='nmod__adj:kExI' chunkType='child:NP6' name='336152'>
17	kExI	NN	<fs af='kExI,n,m,pl,3,d,0,0' drel='k1:We' posn='170' name='kExI' chunkId='NP6' chunkType='head:NP6'>
18	We	VM	<fs af='WA,v,m,pl,any,,WA,WA' stype='declarative' posn='180' voicetype='active' name='We' chunkId='VGF' chunkType='head:VGF'>
19	.	SYM	<fs af='.,punc,,,,,,' drel='rsym:We' posn='190' name='.' chunkId='BLK' chunkType='head:BLK'>
</Sentence>


<Sentence id="22">
1	jabaki	CC	<fs af='jabaki,avy,,,,,,' posn='10' name='jabaki' chunkId='CCP' chunkType='head:CCP'>
2	samaswa	QF	<fs af='samaswa,avy,,,,,,' posn='20' drel='nmod__adj:jeloM' chunkType='child:NP' name='samaswa'>
3	jeloM	NN	<fs af='jela,n,f,pl,3,o,0_meM,0' drel='k7p:raKA' posn='30' vpos='vib_3' name='jeloM' chunkId='NP' chunkType='head:NP'>
4	meM	PSP	<fs af='meM,psp,,,,,,' posn='40' drel='lwg__psp:jeloM' chunkType='child:NP' name='meM'>
5	sirPa	RP	<fs af='sirPa,avy,,,,,,' posn='50' drel='lwg__rp:kExiyoM' chunkType='child:NP2' name='sirPa'>
6	237617	QC	<fs af='237617,num,any,any,,any,,' posn='60' drel='nmod__adj:kExiyoM' chunkType='child:NP2' name='237617'>
7	kExiyoM	NN	<fs af='kExI,n,m,pl,3,o,0_ko,0' drel='k2:raKA' posn='70' vpos='vib_4_RP' name='kExiyoM' chunkId='NP2' chunkType='head:NP2'>
8	ko	PSP	<fs af='ko,psp,,,,,,' posn='80' drel='lwg__psp:kExiyoM' chunkType='child:NP2' name='ko'>
9	hI	RP	<fs af='hI,avy,,,,,,' posn='90' drel='lwg__rp:kExiyoM' chunkType='child:NP2' name='hI'>
10	raKA	VM	<fs af='raKa,v,m,sg,3,,yA_jA_saka+wA_hE,yA' drel='ccof:jabaki' stype='declarative' posn='100' voicetype='passive' vpos='tam_2_3_4' name='raKA' chunkId='VGF' chunkType='head:VGF'>
11	jA	VAUX	<fs af='jA,v,any,any,any,,0,0' posn='110' drel='lwg__vaux:raKA' chunkType='child:VGF' name='jA'>
12	sakawA	VAUX	<fs af='saka,v,m,sg,any,,wA,wA' posn='120' drel='lwg__vaux:raKA' chunkType='child:VGF' name='sakawA'>
13	hE	VAUX	<fs af='hE,v,any,sg,3,,hE,hE' posn='130' drel='lwg__vaux:raKA' chunkType='child:VGF' name='hE'>
14	.	SYM	<fs af='.,punc,,,,,,' drel='rsym:jabaki' posn='140' name='.' chunkId='BLK' chunkType='head:BLK'>
</Sentence>


<Sentence id="23">
1	inameM	PRP	<fs af='yaha,pn,any,pl,3,o,0_se,meM' drel='k5:We' posn='10' vpos='vib_2_RP' name='inameM' chunkId='NP' chunkType='head:NP'>
2	se	PSP	<fs af='se,psp,,,,,,' posn='20' drel='lwg__psp:inameM' chunkType='child:NP' name='se'>
3	BI	RP	<fs af='BI,avy,,,,,,' posn='30' drel='lwg__rp:inameM' chunkType='child:NP' name='BI'>
4	sirPa	RP	<fs af='sirPa,avy,,,,,,' posn='40' drel='lwg__rp:kExI' chunkType='child:NP2' name='sirPa'>
5	20	QCC	<fs af='20,num,any,any,,any,,' posn='50' drel='mod:kExI' chunkType='child:NP2' name='20'>
6	-	SYM	<fs af='-,punc,,,,,,' posn='60' drel='rsym:kExI' chunkType='child:NP2' name='-'>
7	25	QC	<fs af='25,num,any,any,,any,,' posn='70' drel='nmod__adj:kExI' chunkType='child:NP2' name='25'>
8	prawiSawa	NN	<fs af='prawiSawa,n,m,sg,3,d,0,0' posn='80' drel='nmod:kExI' chunkType='child:NP2' name='prawiSawa'>
9	kExI	NN	<fs af='kExI,n,m,pl,3,d,0,0' drel='k1:We' posn='90' name='kExI' chunkId='NP2' chunkType='head:NP2'>
10	hI	RP	<fs af='hI,avy,,,,,,' posn='100' drel='lwg__rp:kExI' chunkType='child:NP2' name='hI'>
11	sajAyAPwA	JJ	<fs af='sajAyAPwA,adj,any,any,,,,' drel='k1s:We' posn='110' name='sajAyAPwA' chunkId='JJP' chunkType='head:JJP'>
12	We	VM	<fs af='WA,v,m,pl,any,,WA,WA' stype='declarative' posn='120' voicetype='active' name='We' chunkId='VGF' chunkType='head:VGF'>
13	.	SYM	<fs af='.,punc,,,,,,' drel='rsym:We' posn='130' name='.' chunkId='BLK' chunkType='head:BLK'>
</Sentence>


<Sentence id="24">
1	75	QC	<fs af='75,num,any,pl,,o,0_se,' drel='rsp:prawiSawa' posn='10' vpos='2' name='75' chunkId='NP' chunkType='head:NP'>
2	se	PSP	<fs af='se,psp,,,,,,' posn='20' drel='lwg__psp:75' chunkType='child:NP' name='se'>
3	80	QC	<fs af='80,num,any,any,,any,,' posn='30' drel='nmod__adj:prawiSawa' chunkType='child:NP2' name='80'>
4	prawiSawa	NN	<fs af='prawiSawa,n,m,sg,3,o,0_waka,0' drel='k7:NULL' posn='40' vpos='vib_3' name='prawiSawa' chunkId='NP2' chunkType='head:NP2'>
5	waka	PSP	<fs af='waka,psp,,,,,,' posn='50' drel='lwg__psp:prawiSawa' chunkType='child:NP2' name='waka'>
6	vicArAXIna	JJ	<fs af='vicArAXIna,adj,any,any,,d,,' posn='60' drel='nmod__adj:kExI' chunkType='child:NP3' name='vicArAXIna'>
7	kExI	NN	<fs af='kExI,n,m,pl,3,d,0,0' drel='k1:NULL' posn='70' name='kExI' chunkId='NP3' chunkType='head:NP3'>
8	NULL	VM	<fs mtype='gap' troot='We' stype='declarative' voicetype='active' name='NULL' chunkId='NULL__VGF' chunkType='head:NULL__VGF'>
9	.	SYM	<fs af='.,punc,,,,,,' drel='rsym:NULL' posn='80' name='.' chunkId='BLK' chunkType='head:BLK'>
</Sentence>


<Sentence id="25">
1	ye	DEM	<fs af='yaha,pn,any,pl,3,d,,' posn='10' drel='nmod__adj:kExI' chunkType='child:NP' name='ye'>
2	kExI	NN	<fs af='kExI,n,m,pl,3,d,0,0' drel='k1:karawe' posn='20' name='kExI' chunkId='NP' chunkType='head:NP'>
3	apane	PRP	<fs af='apanA,pn,m,any,any,o,0_KilAPa,0' drel='k7a:karawe' posn='30' vpos='vib_2' name='apane' chunkId='NP2' chunkType='head:NP2'>
4	KilAPa	PSP	<fs af='KilAPa,psp,,,,,,' posn='40' drel='lwg__psp:apane' chunkType='child:NP2' name='KilAPa'>
5	mukaxamA	NN	<fs af='mukaxamA,n,m,sg,3,d,0,0' drel='pof:calane' posn='50' name='mukaxamA' chunkId='NP3' chunkType='head:NP3'>
6	calane	VM	<fs af='cala,v,any,sg,any,o,nA_kA,nA' drel='r6-k2:iMwajAra' posn='60' vpos='tam_2' name='calane' chunkId='VGNN' chunkType='head:VGNN'>
7	kA	PSP	<fs af='kA,psp,m,sg,,d,,' posn='70' drel='lwg__psp:calane' chunkType='child:VGNN' name='kA'>
8	iMwajAra	NN	<fs af='iMwajAra,n,m,sg,3,d,0,0' drel='pof:karawe' posn='80' name='iMwajAra' chunkId='NP4' chunkType='head:NP4'>
9	karawe	VM	<fs af='kara,v,m,pl,3,,wA_raha+wA_hE,wA' stype='declarative' posn='90' voicetype='active' vpos='tam_2_3' name='karawe' chunkId='VGF' chunkType='head:VGF'>
10	rahawe	VAUX	<fs af='raha,v,m,pl,any,,wA,wA' posn='100' drel='lwg__vaux:karawe' chunkType='child:VGF' name='rahawe'>
11	hEM	VAUX	<fs af='hE,v,any,pl,3,,hE,hE' posn='110' drel='lwg__vaux:karawe' chunkType='child:VGF' name='hEM'>
12	.	SYM	<fs af='.,punc,,,,,,' drel='rsym:karawe' posn='120' name='.' chunkId='BLK' chunkType='head:BLK'>
</Sentence>


<Sentence id="26">
1	vicArAXIna	JJ	<fs af='vicArAXIna,adj,any,any,,o,,' posn='10' drel='nmod__adj:kExiyoM' chunkType='child:NP' name='vicArAXIna'>
2	kExiyoM	NN	<fs af='kExI,n,m,pl,3,o,0_kA,0' drel='r6:xAswAna' posn='20' vpos='vib_3' name='kExiyoM' chunkId='NP' chunkType='head:NP'>
3	kI	PSP	<fs af='kA,psp,f,sg,,d,,' posn='30' drel='lwg__psp:kExiyoM' chunkType='child:NP' name='kI'>
4	eka	QC	<fs af='eka,num,any,any,,any,,' posn='40' drel='nmod__adj:xAswAna' chunkType='child:NP2' name='eka'>
5	ajIba	JJ	<fs af='ajIba,adj,any,any,,d,,' posn='50' drel='nmod__adj:xAswAna' chunkType='child:NP2' name='ajIba'>
6	xAswAna	NN	<fs af='xAswAna,n,f,sg,3,d,0,0' drel='k1:AI' posn='60' name='xAswAna' chunkId='NP2' chunkType='head:NP2'>
7	piCale	JJ	<fs af='piCalA,adj,m,sg,,o,,' posn='70' drel='nmod__adj:sAla' chunkType='child:NP3' name='piCale'>
8	sAla	NN	<fs af='sAla,n,m,sg,3,o,0,0' drel='k7t:AI' posn='80' name='sAla' chunkId='NP3' chunkType='head:NP3'>
9	mAnavAXikAra	NNPC	<fs af='mAnavAXikAra,n,m,sg,3,d,0,0' posn='90' drel='pof__cn:Ayoga' chunkType='child:NP4' name='mAnavAXikAra'>
10	Ayoga	NNP	<fs af='Ayoga,n,m,sg,3,o,0_kA,0' drel='r6:riporta' posn='100' vpos='vib_3_RP' name='Ayoga' chunkId='NP4' chunkType='head:NP4'>
11	kI	PSP	<fs af='kA,psp,f,sg,,o,,' posn='110' drel='lwg__psp:Ayoga' chunkType='child:NP4' name='kI2'>
12	hI	RP	<fs af='hI,avy,,,,,,' posn='120' drel='lwg__rp:Ayoga' chunkType='child:NP4' name='hI'>
13	eka	QC	<fs af='eka,num,any,any,,any,,' posn='130' drel='nmod__adj:riporta' chunkType='child:NP5' name='eka2'>
14	Ora	QF	<fs af='Ora,avy,,,,,,' posn='140' drel='nmod__adj:riporta' chunkType='child:NP5' name='Ora'>
15	riporta	NN	<fs af='riporta,n,f,sg,3,o,0_meM,0' drel='k7:AI' posn='150' vpos='vib_4' name='riporta' chunkId='NP5' chunkType='head:NP5'>
16	meM	PSP	<fs af='meM,psp,,,,,,' posn='160' drel='lwg__psp:riporta' chunkType='child:NP5' name='meM'>
17	sAmane	NST	<fs af='sAmane,nst,m,sg,3,d,,' drel='pof:AI' posn='170' name='sAmane' chunkId='NP6' chunkType='head:NP6'>
18	AI	VM	<fs af='A,v,f,sg,any,,yA_WA,yA' stype='declarative' posn='180' voicetype='active' vpos='tam_2' name='AI' chunkId='VGF' chunkType='head:VGF'>
19	WI	VAUX	<fs af='WA,v,f,sg,any,,WA,WA' posn='190' drel='lwg__vaux:AI' chunkType='child:VGF' name='WI'>
20	.	SYM	<fs af='.,punc,,,,,,' drel='rsym:AI' posn='200' name='.' chunkId='BLK' chunkType='head:BLK'>
</Sentence>


<Sentence id="27">
1	asama	NNP	<fs af='asama,n,m,sg,3,o,0_kA,0' drel='r6:wejapura' posn='10' vpos='vib_2' name='asama' chunkId='NP' chunkType='head:NP'>
2	ke	PSP	<fs af='kA,psp,m,sg,,o,,' posn='20' drel='lwg__psp:asama' chunkType='child:NP' name='ke'>
3	wejapura	NNP	<fs af='wejapura,n,m,sg,3,o,0_meM,0' drel='k7p:mile' posn='30' vpos='vib_2' name='wejapura' chunkId='NP2' chunkType='head:NP2'>
4	meM	PSP	<fs af='meM,psp,,,,,,' posn='40' drel='lwg__psp:wejapura' chunkType='child:NP2' name='meM'>
5	pAMca	QC	<fs af='pAMca,num,any,any,,any,,' posn='50' drel='nmod__adj:kExI' chunkType='child:NP3' name='pAMca'>
6	Ese	DEM	<fs af='EsA,pn,m,any,any,d,,' posn='60' drel='nmod__adj:kExI' chunkType='child:NP3' name='Ese'>
7	kExI	NN	<fs af='kExI,n,m,pl,3,d,0,0' drel='k1:mile' posn='70' name='kExI' chunkId='NP3' chunkType='head:NP3'>
8	mile	VM	<fs af='mila,v,m,pl,any,,yA,yA' stype='declarative' posn='80' voicetype='active' name='mile' chunkId='VGF' chunkType='head:VGF'>
9	jo	PRP	<fs af='jo,pn,any,sg,3,d,0,0' drel='k1:sadZa' posn='90' coref='kExI' name='jo' chunkId='NP4' chunkType='head:NP4'>
10	30	QC	<fs af='30,num,any,pl,,o,0_se,' drel='jjmod:jyAxA' posn='100' vpos='2_RP' name='30' chunkId='NP5' chunkType='head:NP5'>
11	se	PSP	<fs af='se,psp,,,,,,' posn='110' drel='lwg__psp:30' chunkType='child:NP5' name='se'>
12	BI	RP	<fs af='BI,avy,,,,,,' posn='120' drel='lwg__rp:30' chunkType='child:NP5' name='BI'>
13	jyAxA	QF	<fs af='jyAxA,avy,,,,,,' drel='nmod:varRo' posn='130' name='jyAxA' chunkId='JJP' chunkType='head:JJP'>
14	varRo	NN	<fs af='varRa,n,m,pl,3,o,0_se,0' drel='k5:sadZa' posn='140' vpos='vib_2' name='varRo' chunkId='NP6' chunkType='head:NP6'>
15	se	PSP	<fs af='se,psp,,,,,,' posn='150' drel='lwg__psp:varRo' chunkType='child:NP6' name='se2'>
16	jela	NN	<fs af='jela,n,f,sg,3,o,0_meM,0' drel='k7p:sadZa' posn='160' vpos='vib_2' name='jela' chunkId='NP7' chunkType='head:NP7'>
17	meM	PSP	<fs af='meM,psp,,,,,,' posn='170' drel='lwg__psp:jela' chunkType='child:NP7' name='meM2'>
18	sadZa	VM	<fs af='sada,v,m,pl,any,,0_raha+yA_WA,0' drel='nmod__relc:kExI' stype='declarative' posn='180' voicetype='active' vpos='tam_2_3' name='sadZa' chunkId='VGF2' chunkType='head:VGF2'>
19	rahe	VAUX	<fs af='raha,v,m,pl,any,,yA,yA' posn='190' drel='lwg__vaux:sadZa' chunkType='child:VGF2' name='rahe'>
20	We	VAUX	<fs af='WA,v,m,pl,any,,WA,WA' posn='200' drel='lwg__vaux:sadZa' chunkType='child:VGF2' name='We'>
21	binA	RP	<fs af='binA,avy,,,,,,' posn='210' drel='lwg__rp:mukaxame' chunkType='child:NP8' name='binA'>
22	kisI	PRP	<fs af='koI,pn,any,sg,3,d,0,0' posn='220' drel='nmod__adj:mukaxame' chunkType='child:NP8' name='kisI'>
23	mukaxame	NN	<fs af='mukaxamA,n,m,sg,3,o,0_kA,0' drel='ras-NEG:sadZa' posn='230' vpos='vib_vib_4' name='mukaxame' chunkId='NP8' chunkType='head:NP8'>
24	ke	PSP	<fs af='kA,psp,m,sg,,o,,' posn='240' drel='lwg__psp:mukaxame' chunkType='child:NP8' name='ke2'>
25	.	SYM	<fs af='.,punc,,,,,,' drel='rsym:mile' posn='250' name='.' chunkId='BLK' chunkType='head:BLK'>
</Sentence>


<Sentence id="28">
1	inameM	PRP	<fs af='yaha,pn,any,pl,3,o,0_se,meM' drel='k5:hE' posn='10' vpos='vib_2' name='inameM' chunkId='NP' chunkType='head:NP'>
2	se	PSP	<fs af='se,psp,,,,,,' posn='20' drel='lwg__psp:inameM' chunkType='child:NP' name='se'>
3	eka	NN	<fs af='eka,n,m,sg,3,o,0,0' drel='nmod:lAluMga' posn='30' name='eka' chunkId='NP2' chunkType='head:NP2'>
4	macAMga	NNPC	<fs af='macAMga,n,m,sg,3,d,0,0' posn='40' drel='pof__cn:lAluMga' chunkType='child:NP3' name='macAMga'>
5	lAluMga	NNP	<fs af='lAluMga,n,m,sg,3,o,0_kA,0' drel='r6:umra' posn='50' vpos='vib_3' name='lAluMga' chunkId='NP3' chunkType='head:NP3'>
6	kI	PSP	<fs af='kA,psp,f,sg,,d,,' posn='60' drel='lwg__psp:lAluMga' chunkType='child:NP3' name='kI'>
7	umra	NN	<fs af='umra,n,f,sg,3,d,0,0' drel='k1:hE' posn='70' name='umra' chunkId='NP4' chunkType='head:NP4'>
8	aba	PRP	<fs af='aba,pn,,,,d,,' drel='k7t:hE' posn='80' name='aba' chunkId='NP5' chunkType='head:NP5'>
9	77	QC	<fs af='77,num,any,any,,any,,' posn='90' drel='nmod__adj:sAla' chunkType='child:NP6' name='77'>
10	sAla	NN	<fs af='sAla,n,m,sg,3,d,0,0' drel='k1s:hE' posn='100' name='sAla' chunkId='NP6' chunkType='head:NP6'>
11	hE	VM	<fs af='hE,v,any,sg,3,,hE,hE' stype='declarative' posn='110' voicetype='active' name='hE' chunkId='VGF' chunkType='head:VGF'>
12	.	SYM	<fs af='.,punc,,,,,,' drel='rsym:hE' posn='120' name='.' chunkId='BLK' chunkType='head:BLK'>
</Sentence>


<Sentence id="29">
1	jo	PRP	<fs af='jo,pn,any,sg,3,d,0,0' drel='k1:pIsa' posn='10' name='jo' chunkId='NP' chunkType='head:NP'>
2	piCale	JJ	<fs af='piCalA,adj,m,sg,,o,,' posn='20' drel='nmod__adj:varRo' chunkType='child:NP2' name='piCale'>
3	55	QC	<fs af='55,num,any,any,,any,,' posn='30' drel='nmod__adj:varRo' chunkType='child:NP2' name='55'>
4	varRo	NN	<fs af='varRa,n,m,pl,3,o,0_se,0' drel='k7t:pIsa' posn='40' vpos='vib_4' name='varRo' chunkId='NP2' chunkType='head:NP2'>
5	se	PSP	<fs af='se,psp,,,,,,' posn='50' drel='lwg__psp:varRo' chunkType='child:NP2' name='se'>
6	jela	NN	<fs af='jela,n,f,sg,3,o,0_kA,0' drel='r6-k1:cakkI' posn='60' vpos='vib_2' name='jela' chunkId='NP3' chunkType='head:NP3'>
7	kI	PSP	<fs af='kA,psp,f,sg,,d,,' posn='70' drel='lwg__psp:jela' chunkType='child:NP3' name='kI'>
8	cakkI	NN	<fs af='cakkI,n,f,sg,3,d,0,0' drel='pof:pIsa' posn='80' name='cakkI' chunkId='NP4' chunkType='head:NP4'>
9	pIsa	VM	<fs af='pIsa,v,m,sg,any,,0_raha+yA_WA,0' stype='declarative' posn='90' voicetype='active' vpos='tam_2_3' name='pIsa' chunkId='VGF' chunkType='head:VGF'>
10	rahA	VAUX	<fs af='raha,v,m,sg,any,,yA,yA' posn='100' drel='lwg__vaux:pIsa' chunkType='child:VGF' name='rahA'>
11	WA	VAUX	<fs af='WA,v,m,sg,any,,WA,WA' posn='110' drel='lwg__vaux:pIsa' chunkType='child:VGF' name='WA'>
12	.	SYM	<fs af='.,punc,,,,,,' drel='rsym:pIsa' posn='120' name='.' chunkId='BLK' chunkType='head:BLK'>
</Sentence>


<Sentence id="30">
1	ye	DEM	<fs af='yaha,pn,any,pl,3,d,,' posn='10' drel='nmod__adj:kExI' chunkType='child:NP' name='ye'>
2	pAMcoM	QC	<fs af='pAMca,num,any,pl,,any,,' posn='20' drel='nmod__adj:kExI' chunkType='child:NP' name='pAMcoM'>
3	kExI	NN	<fs af='kExI,n,m,pl,3,d,0,0' drel='k1:hEM' posn='30' name='kExI' chunkId='NP' chunkType='head:NP'>
4	aba	PRP	<fs af='aba,pn,,,,d,,' drel='k7t:hEM' posn='40' name='aba' chunkId='NP2' chunkType='head:NP2'>
5	manorogI	NN	<fs af='manorogI,n,m,pl,3,d,0,0' drel='k1s:hEM' posn='50' name='manorogI' chunkId='NP3' chunkType='head:NP3'>
6	hEM	VM	<fs af='hE,v,any,pl,3,,hE,hE' drel='ccof:Ora' stype='declarative' posn='60' voicetype='active' name='hEM' chunkId='VGF' chunkType='head:VGF'>
7	Ora	CC	<fs af='Ora,avy,,,,,,' posn='70' name='Ora' chunkId='CCP' chunkType='head:CCP'>
8	vahAM	PRP	<fs af='vahAz,pn,,,,o,0_kA,' drel='r6:hOYspitala' posn='80' vpos='vib_2' name='vahAM' chunkId='NP4' chunkType='head:NP4'>
9	ke	PSP	<fs af='kA,psp,m,sg,,o,,' posn='90' drel='lwg__psp:vahAM' chunkType='child:NP4' name='ke'>
10	meMtala	NNC	<fs af='meMtala,n,m,sg,3,d,0,0' posn='100' drel='pof__cn:hOYspitala' chunkType='child:NP5' name='meMtala'>
11	hOYspitala	NN	<fs af='hOYspitala,n,m,sg,3,o,0_meM,0' drel='k7p:hEM2' posn='110' vpos='vib_3' name='hOYspitala' chunkId='NP5' chunkType='head:NP5'>
12	meM	PSP	<fs af='meM,psp,,,,,,' posn='120' drel='lwg__psp:hOYspitala' chunkType='child:NP5' name='meM'>
13	hEM	VM	<fs af='hE,v,any,pl,3,,hE,hE' drel='ccof:Ora' stype='declarative' posn='130' voicetype='active' name='hEM2' chunkId='VGF2' chunkType='head:VGF2'>
14	.	SYM	<fs af='.,punc,,,,,,' drel='rsym:Ora' posn='140' name='.' chunkId='BLK' chunkType='head:BLK'>
</Sentence>


<Sentence id="31">
1	lAluMga	NNP	<fs af='lAluMga,n,m,sg,3,d,0,0' drel='k1:huA' posn='10' name='lAluMga' chunkId='NP' chunkType='head:NP'>
2	9	NNPC	<fs af='9,n,any,sg,3,d,0,0' posn='20' drel='pof__cn:1967' chunkType='child:NP2' name='9'>
3	agaswa	NNPC	<fs af='agaswa,n,m,sg,3,d,0,0' posn='30' drel='pof__cn:1967' chunkType='child:NP2' name='agaswa'>
4	,	SYM	<fs af='COMMA,punc,,,,,,' posn='40' drel='rsym:1967' chunkType='child:NP2' name=','>
5	1967	NNP	<fs af='1967,n,any,sg,3,o,0_ko,0' drel='k7t:huA' posn='50' vpos='vib_5' name='1967' chunkId='NP2' chunkType='head:NP2'>
6	ko	PSP	<fs af='ko,psp,,,,,,' posn='60' drel='lwg__psp:1967' chunkType='child:NP2' name='ko'>
7	aMwima	JJ	<fs af='aMwima,adj,any,any,,d,,' posn='70' drel='nmod__adj:bAra' chunkType='child:NP3' name='aMwima'>
8	bAra	NN	<fs af='bAra,n,f,sg,3,d,0,0' drel='k7:huA' posn='80' name='bAra' chunkId='NP3' chunkType='head:NP3'>
9	korta	NN	<fs af='korta,n,f,sg,3,o,0_meM,0' drel='k7p:huA' posn='90' vpos='vib_2' name='korta' chunkId='NP4' chunkType='head:NP4'>
10	meM	PSP	<fs af='meM,psp,,,,,,' posn='100' drel='lwg__psp:korta' chunkType='child:NP4' name='meM'>
11	hAjira	JJ	<fs af='hAjira,adj,any,any,,,,' drel='pof:huA' posn='110' name='hAjira' chunkId='JJP' chunkType='head:JJP'>
12	huA	VM	<fs af='ho,v,m,sg,any,,yA_WA,yA' stype='declarative' posn='120' voicetype='active' vpos='tam_2' name='huA' chunkId='VGF' chunkType='head:VGF'>
13	WA	VAUX	<fs af='WA,v,m,sg,any,,WA,WA' posn='130' drel='lwg__vaux:huA' chunkType='child:VGF' name='WA'>
14	.	SYM	<fs af='.,punc,,,,,,' drel='rsym:huA' posn='140' name='.' chunkId='BLK' chunkType='head:BLK'>
</Sentence>


<Sentence id="32">
1	vaha	PRP	<fs af='vaha,pn,any,sg,3,d,0,0' drel='k1:bolawA' posn='10' name='vaha' chunkId='NP' chunkType='head:NP'>
2	aba	PRP	<fs af='aba,pn,,,,d,,' drel='k7t:bolawA' posn='20' name='aba' chunkId='NP2' chunkType='head:NP2'>
3	kuCa	PRP	<fs af='kuCa,pn,any,any,3,d,0,0' drel='k2:bolawA' posn='30' name='kuCa' chunkId='NP3' chunkType='head:NP3'>
4	BI	RP	<fs af='BI,avy,,,,,,' posn='40' drel='lwg__rp:kuCa' chunkType='child:NP3' name='BI'>
5	nahIM	NEG	<fs af='nahIM,avy,,,,,,' posn='50' drel='lwg__neg:bolawA' chunkType='child:VGF' name='nahIM'>
6	bolawA	VM	<fs af='bola,v,m,sg,any,,wA,wA' stype='declarative' posn='60' voicetype='active' name='bolawA' chunkId='VGF' chunkType='head:VGF'>
7	.	SYM	<fs af='.,punc,,,,,,' drel='rsym:bolawA' posn='70' name='.' chunkId='BLK' chunkType='head:BLK'>
</Sentence>


<Sentence id="33">
1	jeloM	NN	<fs af='jela,n,f,pl,3,o,0_kA,0' drel='r6:hAlawa' posn='10' vpos='vib_2' name='jeloM' chunkId='NP' chunkType='head:NP'>
2	kI	PSP	<fs af='kA,psp,f,sg,,d,,' posn='20' drel='lwg__psp:jeloM' chunkType='child:NP' name='kI'>
3	jo	DEM	<fs af='jo,pn,any,sg,3,d,,' posn='30' drel='nmod__adj:hAlawa' chunkType='child:NP2' name='jo'>
4	hAlawa	NN	<fs af='hAlawa,n,f,sg,3,d,0,0' drel='k1:hE' posn='40' coref='usameM' name='hAlawa' chunkId='NP2' chunkType='head:NP2'>
5	hE	VM	<fs af='hE,v,any,sg,3,,hE,hE' drel='nmod__relc:usameM' stype='declarative' posn='50' voicetype='active' name='hE' chunkId='VGF' chunkType='head:VGF'>
6	,	SYM	<fs af='COMMA,punc,,,,,,' posn='60' drel='rsym:hE' chunkType='child:VGF' name=','>
7	usameM	PRP	<fs af='vaha,pn,any,sg,3,o,meM,meM' drel='k7:ho' posn='70' name='usameM' chunkId='NP3' chunkType='head:NP3'>
8	kisI	PRP	<fs af='koI,pn,any,sg,3,o,0,0' posn='80' drel='nmod__adj:kExI' chunkType='child:NP4' name='kisI'>
9	kExI	NN	<fs af='kExI,n,m,sg,3,o,0_kA,0' drel='r6-k1:pAgala' posn='90' vpos='vib_vib_3' name='kExI' chunkId='NP4' chunkType='head:NP4'>
10	kA	PSP	<fs af='kA,psp,m,sg,,d,,' posn='100' drel='lwg__psp:kExI' chunkType='child:NP4' name='kA'>
11	pAgala	JJ	<fs af='pAgala,adj,any,any,,,,' drel='pof:ho' posn='110' name='pAgala' chunkId='JJP' chunkType='head:JJP'>
12	ho	VM	<fs af='ho,v,any,any,any,,0_jA+nA,0' drel='vmod:hE2' posn='120' vpos='tam_2' name='ho' chunkId='VGNN' chunkType='head:VGNN'>
13	jAnA	VAUX	<fs af='jA,v,any,any,any,d,nA,nA' posn='130' drel='lwg__vaux:ho' chunkType='child:VGNN' name='jAnA'>
14	mAmUlI	JJ	<fs af='mAmUlI,adj,any,any,,d,,' posn='140' drel='nmod__adj:bAwa' chunkType='child:NP5' name='mAmUlI'>
15	bAwa	NN	<fs af='bAwa,n,f,sg,3,d,0,0' drel='k1:hE2' posn='150' name='bAwa' chunkId='NP5' chunkType='head:NP5'>
16	hE	VM	<fs af='hE,v,any,sg,3,,hE,hE' stype='declarative' posn='160' voicetype='active' name='hE2' chunkId='VGF2' chunkType='head:VGF2'>
17	.	SYM	<fs af='.,punc,,,,,,' drel='rsym:hE2' posn='170' name='.' chunkId='BLK' chunkType='head:BLK'>
</Sentence>


<Sentence id="34">
1	varRo	NN	<fs af='varRa,n,m,pl,3,o,0_waka,0' drel='k7t:kara' posn='10' vpos='vib_2' name='varRo' chunkId='NP' chunkType='head:NP'>
2	waka	PSP	<fs af='waka,psp,,,,,,' posn='20' drel='lwg__psp:varRo' chunkType='child:NP' name='waka'>
3	mukaxameM	NN	<fs af='mukaxamA,n,m,sg,3,o,0_kA,0' drel='r6:iMwajAra' posn='30' vpos='vib_2' name='mukaxameM' chunkId='NP2' chunkType='head:NP2'>
4	kA	PSP	<fs af='kA,psp,m,sg,,d,,' posn='40' drel='lwg__psp:mukaxameM' chunkType='child:NP2' name='kA'>
5	iMwajAra	NN	<fs af='iMwajAra,n,m,sg,3,d,0,0' drel='k1:kara' posn='50' name='iMwajAra' chunkId='NP3' chunkType='head:NP3'>
6	jeloM	NN	<fs af='jela,n,f,pl,3,o,0_meM,0' drel='k7p:sadZawe' posn='60' vpos='vib_2' name='jeloM' chunkId='NP4' chunkType='head:NP4'>
7	meM	PSP	<fs af='meM,psp,,,,,,' posn='70' drel='lwg__psp:jeloM' chunkType='child:NP4' name='meM'>
8	sadZawe	VM	<fs af='sada,v,m,pl,any,,wA,wA' drel='nmod__k1inv:kExiyoM' posn='80' name='sadZawe' chunkId='VGNF' chunkType='head:VGNF'>
9	ina	DEM	<fs af='yaha,pn,any,pl,3,o,,' posn='90' drel='nmod__adj:kExiyoM' chunkType='child:NP5' name='ina'>
10	vicArAXIna	JJ	<fs af='vicArAXIna,adj,any,any,,o,,' posn='100' drel='nmod__adj:kExiyoM' chunkType='child:NP5' name='vicArAXIna'>
11	kExiyoM	NN	<fs af='kExI,n,m,pl,3,o,0_ko,0' drel='k2:jAne' posn='110' vpos='vib_4' name='kExiyoM' chunkId='NP5' chunkType='head:NP5'>
12	ko	PSP	<fs af='ko,psp,,,,,,' posn='120' drel='lwg__psp:kExiyoM' chunkType='child:NP5' name='ko'>
13	avasAxa	NN	<fs af='avasAxa,n,m,sg,3,o,0_meM,0' drel='k7:jAne' posn='130' vpos='vib_2' name='avasAxa' chunkId='NP6' chunkType='head:NP6'>
14	meM	PSP	<fs af='meM,psp,,,,,,' posn='140' drel='lwg__psp:avasAxa' chunkType='child:NP6' name='meM2'>
15	jAne	VM	<fs af='jA,v,any,any,any,o,nA_ko,nA' drel='k2:kara' posn='150' vpos='tam_2' name='jAne' chunkId='VGNN' chunkType='head:VGNN'>
16	ko	PSP	<fs af='ko,psp,,,,,,' posn='160' drel='lwg__psp:jAne' chunkType='child:VGNN' name='ko2'>
17	vivaSa	JJ	<fs af='vivaSa,adj,any,any,,,,' drel='pof:kara' posn='170' name='vivaSa' chunkId='JJP' chunkType='head:JJP'>
18	kara	VM	<fs af='kara,v,f,sg,3,,0_xe+wA_hE,0' stype='declarative' posn='180' voicetype='active' vpos='tam_2_3' name='kara' chunkId='VGF' chunkType='head:VGF'>
19	xewI	VAUX	<fs af='xe,v,f,sg,3,,wA,wA' posn='190' drel='lwg__vaux:kara' chunkType='child:VGF' name='xewI'>
20	hE	VAUX	<fs af='hE,v,any,sg,3,,hE,hE' posn='200' drel='lwg__vaux:kara' chunkType='child:VGF' name='hE'>
21	.	SYM	<fs af='.,punc,,,,,,' drel='rsym:kara' posn='210' name='.' chunkId='BLK' chunkType='head:BLK'>
</Sentence>


<Sentence id="35">
1	unhoMne	PRP	<fs af='vaha,pn,any,pl,3,o,ne,ne' drel='k1:kie' posn='10' name='unhoMne' chunkId='NP' chunkType='head:NP'>
2	aparAXa	NN	<fs af='aparAXa,n,m,pl,3,d,0,0' drel='pof:kie' posn='20' name='aparAXa' chunkId='NP2' chunkType='head:NP2'>
3	kie	VM	<fs af='kara,v,m,pl,any,,yA_ho,yA' drel='ccof:yA' stype='declarative' posn='30' voicetype='active' vpos='tam_2' name='kie' chunkId='VGF' chunkType='head:VGF'>
4	hoM	VAUX	<fs af='ho,v,any,pl,any,,0,0' posn='40' drel='lwg__vaux:kie' chunkType='child:VGF' name='hoM'>
5	yA	CC	<fs af='yA,avy,,,,,,' drel='ccof:NULL2' posn='50' name='yA' chunkId='CCP' chunkType='head:CCP'>
6	nahIM	NEG	<fs af='nahIM,avy,,,,,,' drel='vmod:,' posn='60' name='nahIM' chunkId='NEGP' chunkType='head:NEGP'>
7	NULL	VM	<fs drel='lwg__vm:,' chunkType='child:NULL__VGF' name='NULL'>
8	,	SYM	<fs mtype='gap' troot='kara' dmrel='ccof:yA' voicetype='active' stype='declarative' name=',' chunkId='NULL__VGF' chunkType='head:NULL__VGF'>
9	NULL	CC	<fs mtype='gap' troot='Ora' name='NULL2' chunkId='NULL__CCP' chunkType='head:NULL__CCP'>
10	unheM	PRP	<fs af='vaha,pn,any,pl,3,o,ko,ko' drel='k2:samaJa' posn='80' name='unheM' chunkId='NP3' chunkType='head:NP3'>
11	amUmana	RB	<fs af='amUmana,adv,,,,,,' drel='adv:samaJa' posn='90' name='amUmana' chunkId='RBP' chunkType='head:RBP'>
12	aparAXI	NN	<fs af='aparAXI,n,m,sg,3,d,0,0' drel='k2s:samaJa' posn='100' name='aparAXI' chunkId='NP4' chunkType='head:NP4'>
13	samaJa	VM	<fs af='samaJa,v,m,sg,3,,0_le+yA_jA+wA_hE,0' drel='ccof:NULL2' stype='declarative' posn='110' voicetype='passive' vpos='tam_2_3_4' name='samaJa' chunkId='VGF2' chunkType='head:VGF2'>
14	liyA	VAUX	<fs af='le,v,m,sg,3,,yA,yA' posn='120' drel='lwg__vaux:samaJa' chunkType='child:VGF2' name='liyA'>
15	jAwA	VAUX	<fs af='jA,v,m,sg,3,,wA,wA' posn='130' drel='lwg__vaux:samaJa' chunkType='child:VGF2' name='jAwA'>
16	hE	VAUX	<fs af='hE,v,any,sg,3,,hE,hE' posn='140' drel='lwg__vaux:samaJa' chunkType='child:VGF2' name='hE'>
17	.	SYM	<fs af='.,punc,,,,,,' drel='rsym:NULL2' posn='150' name='.' chunkId='BLK' chunkType='head:BLK'>
</Sentence>


<Sentence id="36">
1	Ora	CC	<fs af='Ora,avy,,,,,,' drel='ccof:NULL2' posn='10' name='Ora' chunkId='CCP' chunkType='head:CCP'>
2	jela	NN	<fs af='jela,n,f,sg,3,o,0_kA,0' drel='r6:loga' posn='20' vpos='vib_2' name='jela' chunkId='NP' chunkType='head:NP'>
3	ke	PSP	<fs af='kA,psp,m,pl,,d,,' posn='30' drel='lwg__psp:jela' chunkType='child:NP' name='ke'>
4	loga	NN	<fs af='loga,n,m,pl,3,d,0,0' drel='k1:hoM' posn='40' name='loga' chunkId='NP2' chunkType='head:NP2'>
5	hoM	VM	<fs af='ho,v,m,pl,3,,0,0' drel='ccof:yA' stype='declarative' posn='50' voicetype='active' name='hoM' chunkId='VGF' chunkType='head:VGF'>
6	yA	CC	<fs af='yA,avy,,,,,,' drel='ccof:Ora' posn='60' name='yA' chunkId='CCP2' chunkType='head:CCP2'>
7	pulisa	NN	<fs af='pulisa,n,f,sg,3,d,0,0' drel='k1:,' posn='70' name='pulisa' chunkId='NP3' chunkType='head:NP3'>
8	NULL	VM	<fs drel='lwg__vm:,' chunkType='child:NULL__VGF' name='NULL'>
9	,	SYM	<fs dmrel='ccof:yA' mtype='gap' troot='ho' voicetype='active' stype='declarative' name=',' chunkId='NULL__VGF' chunkType='head:NULL__VGF'>
10	NULL	CC	<fs mtype='gap' troot='Ora' name='NULL2' chunkId='NULL__CCP' chunkType='head:NULL__CCP'>
11	unake	PRP	<fs af='vaha,pn,m,pl,3,o,0_sAWa,ke' drel='k2:karawI' posn='90' vpos='vib_2' name='unake' chunkId='NP4' chunkType='head:NP4'>
12	sAWa	NST	<fs af='sAWa,nst,m,sg,3,d,,' posn='100' drel='lwg__psp:unake' chunkType='child:NP4' name='sAWa'>
13	aparAXI	NN	<fs af='aparAXI,n,m,sg,3,o,0_kA_waraha,0' drel='adv:karawI' posn='110' vpos='vib_2_3_RP' name='aparAXI' chunkId='NP5' chunkType='head:NP5'>
14	kI	PSP	<fs af='kA,psp,f,,,o,,' posn='120' drel='lwg__psp:aparAXI' chunkType='child:NP5' name='kI'>
15	waraha	PSP	<fs af='waraha,n,f,,,o,,' posn='130' drel='lwg__psp:aparAXI' chunkType='child:NP5' name='waraha'>
16	hI	RP	<fs af='hI,avy,,,,,,' posn='140' drel='lwg__rp:aparAXI' chunkType='child:NP5' name='hI'>
17	barawAva	NN	<fs af='barawAva,n,m,sg,3,d,0,0' drel='pof:karawI' posn='150' name='barawAva' chunkId='NP6' chunkType='head:NP6'>
18	karawI	VM	<fs af='kara,v,f,sg,3,,wA_hE,wA' drel='ccof:NULL2' stype='declarative' posn='160' voicetype='active' vpos='tam_2' name='karawI' chunkId='VGF2' chunkType='head:VGF2'>
19	hE	VAUX	<fs af='hE,v,any,sg,3,,hE,hE' posn='170' drel='lwg__vaux:karawI' chunkType='child:VGF2' name='hE'>
20	.	SYM	<fs af='.,punc,,,,,,' drel='rsym:NULL2' posn='180' name='.' chunkId='BLK' chunkType='head:BLK'>
</Sentence>


<Sentence id="37">
1	aparAXa	NN	<fs af='aparAXa,n,m,sg,3,d,0,0' drel='k2:kabUlane' posn='10' name='aparAXa' chunkId='NP' chunkType='head:NP'>
2	kabUlane	VM	<fs af='kabUla,v,any,any,any,o,nA_ke_lie,nA' drel='rt:xI' posn='20' vpos='tam_2_3' name='kabUlane' chunkId='VGNN' chunkType='head:VGNN'>
3	ke	PSP	<fs af='ke,psp,,,,,,' posn='30' drel='lwg__psp:kabUlane' chunkType='child:VGNN' name='ke'>
4	lie	PSP	<fs af='lie,psp,,,,,,' posn='40' drel='lwg__psp:kabUlane' chunkType='child:VGNN' name='lie'>
5	unheM	PRP	<fs af='vaha,pn,any,pl,3,o,ko,ko' drel='k4:xI' posn='50' name='unheM' chunkId='NP2' chunkType='head:NP2'>
6	waraha	NN	<fs af='waraha,n,f,sg,3,d,0_kA,0' drel='r6-k1:yAwanAeM' posn='60' vpos='vib_4' name='waraha' chunkId='NP3' chunkType='head:NP3'>
7	-	SYM	<fs af='-,punc,,,,,,' posn='70' drel='rsym:waraha' chunkType='child:NP3' name='-'>
8	waraha	RDP	<fs af='waraha,n,f,sg,3,o,0,0' posn='80' drel='pof__redup:-' chunkType='child:NP3' name='waraha2'>
9	kI	PSP	<fs af='kA,psp,f,pl,,d,,' posn='90' drel='lwg__psp:waraha' chunkType='child:NP3' name='kI'>
10	yAwanAeM	NN	<fs af='yAwanA,n,f,pl,3,d,0,0' drel='pof:xI' posn='100' name='yAwanAeM' chunkId='NP4' chunkType='head:NP4'>
11	xI	VM	<fs af='xe,v,f,pl,3,,yA_jA+wA_hE,yA' stype='declarative' posn='110' voicetype='passive' vpos='tam_2_3' name='xI' chunkId='VGF' chunkType='head:VGF'>
12	jAwI	VAUX	<fs af='jA,v,f,pl,3,,wA,wA' posn='120' drel='lwg__vaux:xI' chunkType='child:VGF' name='jAwI'>
13	hEM	VAUX	<fs af='hE,v,any,pl,3,,hE,hE' posn='130' drel='lwg__vaux:xI' chunkType='child:VGF' name='hEM'>
14	.	SYM	<fs af='.,punc,,,,,,' drel='rsym:xI' posn='140' name='.' chunkId='BLK' chunkType='head:BLK'>
</Sentence>


<Sentence id="38">
1	Ama	JJ	<fs af='Ama,adj,any,any,,o,,' posn='10' drel='nmod__adj:kExI' chunkType='child:NP' name='Ama'>
2	kExI	NN	<fs af='kExI,n,m,sg,3,o,0_ko,0' drel='k2:karanA' posn='20' vpos='vib_3' name='kExI' chunkId='NP' chunkType='head:NP'>
3	ko	PSP	<fs af='ko,psp,,,,,,' posn='30' drel='lwg__psp:kExI' chunkType='child:NP' name='ko'>
4	vahAM	PRP	<fs af='vahAz,pn,,,,d,,' drel='k7p:karanA' posn='40' name='vahAM' chunkId='NP2' chunkType='head:NP2'>
5	kaxama	NN	<fs af='kaxama,n,m,sg,3,d,0_para,0' drel='k7:karanA' posn='50' vpos='vib_4' name='kaxama' chunkId='NP3' chunkType='head:NP3'>
6	-	SYM	<fs af='-,punc,,,,,,' posn='60' drel='rsym:kaxama' chunkType='child:NP3' name='-'>
7	kaxama	RDP	<fs af='kaxama,n,m,sg,3,o,0,0' posn='70' drel='pof__redup:-' chunkType='child:NP3' name='kaxama2'>
8	para	PSP	<fs af='para,psp,,,,,,' posn='80' drel='lwg__psp:kaxama' chunkType='child:NP3' name='para'>
9	BraRtAcAra	NN	<fs af='BraRtAcAra,n,m,sg,3,o,0_kA,0' drel='r6-k1:sAmanA' posn='90' vpos='vib_2' name='BraRtAcAra' chunkId='NP4' chunkType='head:NP4'>
10	kA	PSP	<fs af='kA,psp,m,sg,,d,,' posn='100' drel='lwg__psp:BraRtAcAra' chunkType='child:NP4' name='kA'>
11	sAmanA	NN	<fs af='sAmanA,n,m,sg,3,d,0,0' drel='pof:karanA' posn='110' name='sAmanA' chunkId='NP5' chunkType='head:NP5'>
12	karanA	VM	<fs af='kara,v,m,sg,3,,nA_pada+wA_hE,nA' stype='declarative' posn='120' voicetype='active' vpos='tam_2_3' name='karanA' chunkId='VGF' chunkType='head:VGF'>
13	padZawA	VAUX	<fs af='pada,v,m,sg,3,,wA,wA' posn='130' drel='lwg__vaux:karanA' chunkType='child:VGF' name='padZawA'>
14	hE	VAUX	<fs af='hE,v,any,sg,3,,hE,hE' posn='140' drel='lwg__vaux:karanA' chunkType='child:VGF' name='hE'>
15	.	SYM	<fs af='.,punc,,,,,,' drel='rsym:karanA' posn='150' name='.' chunkId='BLK' chunkType='head:BLK'>
</Sentence>


<Sentence id="39">
1	apane	PRP	<fs af='apanA,pn,m,any,any,o,0,0' drel='r6:parijanoM' posn='10' name='apane' chunkId='NP' chunkType='head:NP'>
2	parijanoM	NN	<fs af='parijana,n,m,pl,3,o,0_se,0' drel='k2:milane' posn='20' vpos='vib_2' name='parijanoM' chunkId='NP2' chunkType='head:NP2'>
3	se	PSP	<fs af='se,psp,,,,,,' posn='30' drel='lwg__psp:parijanoM' chunkType='child:NP2' name='se'>
4	milane	VM	<fs af='mila,v,any,any,any,o,nA_ke_lie,nA' drel='rt:xenI' posn='40' vpos='tam_2_3' name='milane' chunkId='VGNN' chunkType='head:VGNN'>
5	ke	PSP	<fs af='ke,psp,,,,,,' posn='50' drel='lwg__psp:milane' chunkType='child:VGNN' name='ke'>
6	lie	PSP	<fs af='lie,psp,,,,,,' posn='60' drel='lwg__psp:milane' chunkType='child:VGNN' name='lie'>
7	BI	RP	<fs af='BI,avy,,,,,,' posn='70' drel='lwg__rp:milane' chunkType='child:VGNN' name='BI'>
8	jelakarmiyoM	NN	<fs af='jelakarmI,n,m,pl,3,o,0_ko,0' drel='k4:xenI' posn='80' vpos='vib_2' name='jelakarmiyoM' chunkId='NP3' chunkType='head:NP3'>
9	ko	PSP	<fs af='ko,psp,,,,,,' posn='90' drel='lwg__psp:jelakarmiyoM' chunkType='child:NP3' name='ko'>
10	GUsa	NN	<fs af='GUsa,n,f,sg,3,d,0,0' drel='k2:xenI' posn='100' name='GUsa' chunkId='NP4' chunkType='head:NP4'>
11	xenI	VM	<fs af='xe,v,f,sg,3,,nA_pada+wA_hE,nA' stype='declarative' posn='110' voicetype='active' vpos='tam_2_3' name='xenI' chunkId='VGF' chunkType='head:VGF'>
12	padZawI	VAUX	<fs af='pada,v,f,sg,3,,wA,wA' posn='120' drel='lwg__vaux:xenI' chunkType='child:VGF' name='padZawI'>
13	hE	VAUX	<fs af='hE,v,any,sg,3,,hE,hE' posn='130' drel='lwg__vaux:xenI' chunkType='child:VGF' name='hE'>
14	.	SYM	<fs af='.,punc,,,,,,' drel='rsym:xenI' posn='140' name='.' chunkId='BLK' chunkType='head:BLK'>
</Sentence>


<Sentence id="40">
1	kuCa	QF	<fs af='kuCa,avy,,,,,,' posn='10' drel='nmod__adj:kExI' chunkType='child:NP' name='kuCa'>
2	kExI	NN	<fs af='kExI,n,m,pl,3,d,0,0' drel='k1:bawAwe' posn='20' name='kExI' chunkId='NP' chunkType='head:NP'>
3	bawAwe	VM	<fs af='bawA,v,m,pl,3,,wA_hE,wA' stype='declarative' posn='30' voicetype='active' vpos='tam_2' name='bawAwe' chunkId='VGF' chunkType='head:VGF'>
4	hEM	VAUX	<fs af='hE,v,any,pl,3,,hE,hE' posn='40' drel='lwg__vaux:bawAwe' chunkType='child:VGF' name='hEM'>
5	ki	CC	<fs af='ki,avy,,,,,,' drel='k2:bawAwe' posn='50' name='ki' chunkId='CCP' chunkType='head:CCP'>
6	SArIrika	JJ	<fs af='SArIrika,adj,any,any,,d,,' posn='60' drel='nmod__adj:yAwanA' chunkType='child:NP2' name='SArIrika'>
7	yAwanA	NN	<fs af='yAwanA,n,f,sg,3,d,0,0' drel='k2:kI' posn='70' name='yAwanA' chunkId='NP2' chunkType='head:NP2'>
8	wo	RP	<fs af='wo,avy,,,,,,' posn='80' drel='lwg__rp:yAwanA' chunkType='child:NP2' name='wo'>
9	Pira	RB	<fs af='Pira,adv,,,,,,' drel='adv:kI' posn='90' name='Pira' chunkId='RBP' chunkType='head:RBP'>
10	BI	RP	<fs af='BI,avy,,,,,,' posn='100' drel='lwg__rp:Pira' chunkType='child:RBP' name='BI'>
11	sahana	NN	<fs af='sahana,n,m,sg,3,d,0,0' drel='pof:kI' posn='110' name='sahana' chunkId='NP3' chunkType='head:NP3'>
12	kI	VM	<fs af='kara,v,f,sg,3,,yA_jA_saka+wA_hE,yA' drel='ccof:lekina' stype='declarative' posn='120' voicetype='passive' vpos='tam_2_3_4' name='kI' chunkId='VGF2' chunkType='head:VGF2'>
13	jA	VAUX	<fs af='jA,v,any,any,any,,0,0' posn='130' drel='lwg__vaux:kI' chunkType='child:VGF2' name='jA'>
14	sakawI	VAUX	<fs af='saka,v,f,sg,any,,wA,wA' posn='140' drel='lwg__vaux:kI' chunkType='child:VGF2' name='sakawI'>
15	hE	VAUX	<fs af='hE,v,any,sg,3,,hE,hE' posn='150' drel='lwg__vaux:kI' chunkType='child:VGF2' name='hE'>
16	lekina	CC	<fs af='lekina,avy,,,,,,' drel='ccof:ki' posn='160' name='lekina' chunkId='CCP2' chunkType='head:CCP2'>
17	jisa	DEM	<fs af='jo,pn,any,sg,3,o,,' posn='170' drel='nmod__adj:waraha' chunkType='child:NP4' name='jisa'>
18	waraha	NN	<fs af='waraha,n,f,sg,3,o,0_kA,0' drel='r6:galOja' posn='180' coref='vaha' vpos='vib_3' name='waraha' chunkId='NP4' chunkType='head:NP4'>
19	kI	PSP	<fs af='kA,psp,f,sg,,o,,' posn='190' drel='lwg__psp:waraha' chunkType='child:NP4' name='kI2'>
20	gAlI	NNC	<fs af='gAlI,n,f,sg,3,d,0,0' posn='200' drel='pof__cn:galOja' chunkType='child:NP5' name='gAlI'>
21	-	SYM	<fs af='-,punc,,,,,,' posn='210' drel='pof__cn:galOja' chunkType='child:NP5' name='-'>
22	galOja	NN	<fs af='galOja,n,f,sg,3,o,0,0' drel='ccof:Ora' posn='220' name='galOja' chunkId='NP5' chunkType='head:NP5'>
23	Ora	CC	<fs af='Ora,avy,,,,,,' drel='adv:Awe' posn='230' name='Ora' chunkId='CCP3' chunkType='head:CCP3'>
24	baxawamIjI	NN	<fs af='baxawamIjI,n,f,sg,3,o,0_se,0' drel='ccof:Ora' posn='240' vpos='vib_2' name='baxawamIjI' chunkId='NP6' chunkType='head:NP6'>
25	se	PSP	<fs af='se,psp,,,,,,' posn='250' drel='lwg__psp:baxawamIjI' chunkType='child:NP6' name='se'>
26	jela	NN	<fs af='jela,n,f,sg,3,o,0_kA,0' drel='r6:loga' posn='260' vpos='vib_2' name='jela' chunkId='NP7' chunkType='head:NP7'>
27	ke	PSP	<fs af='kA,psp,m,pl,,d,,' posn='270' drel='lwg__psp:jela' chunkType='child:NP7' name='ke'>
28	loga	NN	<fs af='loga,n,m,pl,3,d,0,0' drel='k1:Awe' posn='280' name='loga' chunkId='NP8' chunkType='head:NP8'>
29	peSa	JJ	<fs af='peSa,adj,any,any,,,,' drel='pof:Awe' posn='290' name='peSa' chunkId='JJP' chunkType='head:JJP'>
30	Awe	VM	<fs af='A,v,m,pl,3,,wA_hE,wA' drel='nmod__relc:vaha' stype='declarative' posn='300' voicetype='active' vpos='tam_2' name='Awe' chunkId='VGF3' chunkType='head:VGF3'>
31	hEM	VAUX	<fs af='hE,v,any,pl,3,,hE,hE' posn='310' drel='lwg__vaux:Awe' chunkType='child:VGF3' name='hEM2'>
32	,	SYM	<fs af='COMMA,punc,,,,,,' posn='320' drel='rsym:Awe' chunkType='child:VGF3' name=','>
33	vaha	PRP	<fs af='vaha,pn,any,sg,3,d,0,0' drel='k1:howA' posn='330' name='vaha' chunkId='NP9' chunkType='head:NP9'>
34	asahya	JJ	<fs af='asahya,adj,any,any,,,,' drel='pof:howA' posn='340' name='asahya' chunkId='JJP2' chunkType='head:JJP2'>
35	howA	VM	<fs af='ho,v,m,sg,3,,wA_hE,wA' drel='ccof:lekina' stype='declarative' posn='350' voicetype='active' vpos='tam_2' name='howA' chunkId='VGF4' chunkType='head:VGF4'>
36	hE	VAUX	<fs af='hE,v,any,sg,3,,hE,hE' posn='360' drel='lwg__vaux:howA' chunkType='child:VGF4' name='hE2'>
37	.	SYM	<fs af='.,punc,,,,,,' drel='rsym:bawAwe' posn='370' name='.' chunkId='BLK' chunkType='head:BLK'>
</Sentence>


<Sentence id="41">
1	lekina	CC	<fs af='lekina,avy,,,,,,' posn='10' name='lekina' chunkId='CCP' chunkType='head:CCP'>
2	xUsarI	QO	<fs af='xUsarA,num,f,sg,,d,,' drel='sent-adv:karawe' posn='20' name='xUsarI' chunkId='NP' chunkType='head:NP'>
3	waraPa	NST	<fs af='waraPa,nst,f,sg,3,d,,' posn='30' drel='lwg__psp:xUsarI' chunkType='child:NP' name='waraPa'>
4	bAhubalI	JJ	<fs af='bAhubalI,adj,any,any,,o,,' posn='40' drel='nmod__adj:kisma' chunkType='child:NP2' name='bAhubalI'>
5	kisma	NN	<fs af='kisma,n,f,sg,3,o,0_kA,0' drel='r6:kExI' posn='50' vpos='vib_3' name='kisma' chunkId='NP2' chunkType='head:NP2'>
6	ke	PSP	<fs af='kA,psp,m,pl,,d,,' posn='60' drel='lwg__psp:kisma' chunkType='child:NP2' name='ke'>
7	kExI	NN	<fs af='kExI,n,m,pl,3,d,0,0' drel='k1:karawe' posn='70' name='kExI' chunkId='NP3' chunkType='head:NP3'>
8	jela	NN	<fs af='jela,n,f,sg,3,o,0_ko,0' drel='k2:karawe' posn='80' vpos='vib_2' name='jela' chunkId='NP4' chunkType='head:NP4'>
9	ko	PSP	<fs af='ko,psp,,,,,,' posn='90' drel='lwg__psp:jela' chunkType='child:NP4' name='ko'>
10	apanI	PRP	<fs af='apanA,pn,f,any,any,o,0,0' drel='r6:EyyASI' posn='100' name='apanI' chunkId='NP5' chunkType='head:NP5'>
11	EyyASI	NN	<fs af='EyyASI,n,f,sg,3,o,0_kA,0' drel='r6:adde' posn='110' vpos='vib_2' name='EyyASI' chunkId='NP6' chunkType='head:NP6'>
12	ke	PSP	<fs af='kA,psp,m,sg,,o,,' posn='120' drel='lwg__psp:EyyASI' chunkType='child:NP6' name='ke2'>
13	adde	NN	<fs af='addA,n,m,sg,3,o,0_ke_rUpa_meM,0' drel='k7:karawe' posn='130' vpos='vib_2_3_4' name='adde' chunkId='NP7' chunkType='head:NP7'>
14	ke	PSP	<fs af='ke,psp,m,,,o,,' posn='140' drel='lwg__psp:adde' chunkType='child:NP7' name='ke3'>
15	rUpa	PSP	<fs af='rUpa,n,m,,,o,,' posn='140' drel='lwg__psp:adde' chunkType='child:NP7' name='rUpa'>
16	meM	PSP	<fs af='meM,psp,,,,,,' posn='160' drel='lwg__psp:adde' chunkType='child:NP7' name='meM'>
17	iswemAla	NN	<fs af='iswemAla,n,m,sg,3,d,0,0' drel='pof:karawe' posn='170' name='iswemAla' chunkId='NP8' chunkType='head:NP8'>
18	karawe	VM	<fs af='kara,v,m,pl,3,,wA_hE,wA' drel='ccof:lekina' stype='declarative' posn='180' voicetype='active' vpos='tam_2' name='karawe' chunkId='VGF' chunkType='head:VGF'>
19	hEM	VAUX	<fs af='hE,v,any,pl,3,,hE,hE' posn='190' drel='lwg__vaux:karawe' chunkType='child:VGF' name='hEM'>
20	.	SYM	<fs af='.,punc,,,,,,' drel='rsym:lekina' posn='200' name='.' chunkId='BLK' chunkType='head:BLK'>
</Sentence>


<Sentence id="42">
1	kaI	QF	<fs af='kaI,avy,,,,,,' posn='10' drel='nmod__adj:saraganA' chunkType='child:NP' name='kaI'>
2	badZe	JJ	<fs af='badA,adj,m,pl,,d,,' posn='20' drel='nmod__adj:saraganA' chunkType='child:NP' name='badZe'>
3	aparAXa	NNC	<fs af='aparAXa,n,m,sg,3,d,0,0' posn='30' drel='pof__cn:saraganA' chunkType='child:NP' name='aparAXa'>
4	saraganA	NN	<fs af='saraganA,n,m,pl,3,d,0,0' drel='k1:karawe' posn='40' name='saraganA' chunkId='NP' chunkType='head:NP'>
5	wo	RP	<fs af='wo,avy,,,,,,' posn='50' drel='lwg__rp:saraganA' chunkType='child:NP' name='wo'>
6	yahIM	PRP	<fs af='yahIM,pn,,,,o,0_se,' drel='k5:karawe' posn='60' vpos='vib_2' name='yahIM' chunkId='NP2' chunkType='head:NP2'>
7	se	PSP	<fs af='se,psp,,,,,,' posn='70' drel='lwg__psp:yahIM' chunkType='child:NP2' name='se'>
8	apane	PRP	<fs af='apanA,pn,m,any,any,o,0,0' drel='r6:gEMga' posn='80' name='apane' chunkId='NP3' chunkType='head:NP3'>
9	gEMga	NN	<fs af='gEMga,n,m,sg,3,o,0_kA,0' drel='r6-k2:saMcAlana' posn='90' vpos='vib_2' name='gEMga' chunkId='NP4' chunkType='head:NP4'>
10	kA	PSP	<fs af='kA,psp,m,sg,,d,,' posn='100' drel='lwg__psp:gEMga' chunkType='child:NP4' name='kA'>
11	saMcAlana	NN	<fs af='saMcAlana,n,m,sg,3,d,0,0' drel='pof:karawe' posn='110' name='saMcAlana' chunkId='NP5' chunkType='head:NP5'>
12	BI	RP	<fs af='BI,avy,,,,,,' posn='120' drel='lwg__rp:saMcAlana' chunkType='child:NP5' name='BI'>
13	karawe	VM	<fs af='kara,v,m,pl,3,,wA_hE,wA' drel='ccof:Ora' stype='declarative' posn='130' voicetype='active' vpos='tam_2' name='karawe' chunkId='VGF' chunkType='head:VGF'>
14	hEM	VAUX	<fs af='hE,v,any,pl,3,,hE,hE' posn='140' drel='lwg__vaux:karawe' chunkType='child:VGF' name='hEM'>
15	Ora	CC	<fs af='Ora,avy,,,,,,' posn='150' name='Ora' chunkId='CCP' chunkType='head:CCP'>
16	yaha	DEM	<fs af='yaha,pn,any,sg,3,d,,' posn='160' drel='nmod__adj:saba' chunkType='child:NP6' name='yaha'>
17	saba	PRP	<fs af='saba,pn,any,pl,any,d,0,0' drel='k1:howA' posn='120' name='saba' chunkId='NP6' chunkType='head:NP6'>
18	howA	VM	<fs af='ho,v,m,sg,3,,wA_hE,wA' drel='ccof:Ora' stype='declarative' posn='180' voicetype='active' vpos='tam_2' name='howA' chunkId='VGF2' chunkType='head:VGF2'>
19	hE	VAUX	<fs af='hE,v,any,sg,3,,hE,hE' posn='190' drel='lwg__vaux:howA' chunkType='child:VGF2' name='hE'>
20	jelakarmiyoM	NN	<fs af='jelakarmI,n,m,sg,3,o,0_kA,0' drel='r6:milIBagawa' posn='200' vpos='vib_2' name='jelakarmiyoM' chunkId='NP7' chunkType='head:NP7'>
21	kI	PSP	<fs af='kA,psp,f,sg,,o,,' posn='210' drel='lwg__psp:jelakarmiyoM' chunkType='child:NP7' name='kI'>
22	milIBagawa	NN	<fs af='milIBagawa,n,f,sg,3,o,0_se,0' drel='rh:howA' posn='220' vpos='vib_2' name='milIBagawa' chunkId='NP8' chunkType='head:NP8'>
23	se	PSP	<fs af='se,psp,,,,,,' posn='230' drel='lwg__psp:milIBagawa' chunkType='child:NP8' name='se2'>
24	.	SYM	<fs af='.,punc,,,,,,' drel='rsym:Ora' posn='240' name='.' chunkId='BLK' chunkType='head:BLK'>
</Sentence>


</text>
</tb>
</body>
</document>
