<document id="2571127">
<head>
<title></title>			
<caption>aMdamAna kI BOgolika sWiwi para sarve hogA        sunAmI ke kahara se paryAvaraNa ko nukasAna  ejeMsiyAM   : kolakAwA/ porta bleyara</caption>			
<language>Hindi </language>			
<author>			
<firstname></firstname>			
<middlename></middlename>			
<lastname></lastname>			
</author>			
<creation>			
<raw_corpus creation_date="" institute_name=""></raw_corpus>			
<annotated_corpus creation_date="07/25/2009" institute_name="IIIT-Hyderabad"></annotated_corpus>			
</creation>			
<domain_name>News Articles </domain_name>			
<distributor>LTRC, IIIT Hyderabad</distributor>			
<source>ISI, Kolkata</source>			
<publication>			
<place>New Delhi</place>			
<date>4/7/2004</date>			
<address>Connaught Place, New Delhi</address>			
<type>Newspaper</type>			
<publisher>			
<name>Amar Ujala</name>			
<url>http://www.amarujala.com</url>			
</publisher>			
</publication>			
<project_description>NSF Hindi/Urdu Dependency Treebanking Project</project_description>			
<availability>			
<format>CML/SSF</format>			
</availability>			
<byte_count>13378</byte_count>			
<word_count>567</word_count>			
<edition_number>1.0</edition_number>			
<encoding_description>			
<original_encoding>ISO 8859</original_encoding>			
<new_encoding>Unicode UTF8</new_encoding>			
</encoding_description>			
<bibliography></bibliography>			
<sentence_marker>.</sentence_marker>			
<normalization>No</normalization>			
<utility_name>cml_tags</utility_name>			

</head>
<body>
<tb number="1" segment="no" bullet="no">
<foreign language="select" writingsystem="LTR"> </foreign>			
<text>
<Sentence id="1">
1	sunAmI	NN	<fs af='sunAmI,n,m,sg,3,d,0_se,0' drel='rh:huI' posn='10' vpos='vib_2' name='sunAmI' chunkId='NP' chunkType='head:NP'>
2	se	PSP	<fs af='se,psp,,,,,,' posn='20' drel='lwg__psp:sunAmI' chunkType='child:NP' name='se'>
3	huI	VM	<fs af='ho,v,f,sg,any,,yA,yA' drel='nmod__k1inv:wabAhI' posn='30' name='huI' chunkId='VGNF' chunkType='head:VGNF'>
4	wabAhI	NN	<fs af='wabAhI,n,f,sg,3,o,0,0' drel='ccof:Ora' posn='40' name='wabAhI' chunkId='NP2' chunkType='head:NP2'>
5	Ora	CC	<fs af='Ora,avy,,,,,,' drel='r6:Akalana' posn='50' name='Ora' chunkId='CCP' chunkType='head:CCP'>
6	mOwoM	NN	<fs af='mOwa,n,f,pl,3,o,0_kA,0' drel='ccof:Ora' posn='60' vpos='vib_2' name='mOwoM' chunkId='NP3' chunkType='head:NP3'>
7	ke	PSP	<fs af='kA,psp,m,sg,,o,,' posn='70' drel='lwg__psp:mOwoM' chunkType='child:NP3' name='ke'>
8	Akalana	NN	<fs af='Akalana,n,m,sg,3,o,0_ke_bIca,0' drel='k7:ho' posn='80' vpos='vib_2_3' name='Akalana' chunkId='NP4' chunkType='head:NP4'>
9	ke	PSP	<fs af='ke,psp,,,,,,' posn='90' drel='lwg__psp:Akalana' chunkType='child:NP4' name='ke2'>
10	bIca	NST	<fs af='bIca,nst,m,sg,3,d,,' posn='100' drel='lwg__psp:Akalana' chunkType='child:NP4' name='bIca'>
11	aba	PRP	<fs af='aba,pn,,,,,,' drel='k7t:ho' posn='110' name='aba' chunkId='NP5' chunkType='head:NP5'>
12	aMdamAna	NNPC	<fs af='aMdamAna,n,m,sg,3,d,0,0' posn='120' drel='pof__cn:samUha' chunkType='child:NP6' name='aMdamAna'>
13	nikobAra	NNPC	<fs af='nikobAra,n,m,sg,3,d,0,0' posn='130' drel='pof__cn:samUha' chunkType='child:NP6' name='nikobAra'>
14	xvIpa	NNPC	<fs af='xvIpa,n,m,sg,3,d,0,0' posn='140' drel='pof__cn:samUha' chunkType='child:NP6' name='xvIpa'>
15	samUha	NNP	<fs af='samUha,n,m,sg,3,o,0_kA,0' drel='r6:sWiwi' posn='150' vpos='vib_5' name='samUha' chunkId='NP6' chunkType='head:NP6'>
16	kI	PSP	<fs af='kA,psp,f,sg,,o,,' posn='160' drel='lwg__psp:samUha' chunkType='child:NP6' name='kI'>
17	BOgolika	JJ	<fs af='BOgolika,adj,any,any,,o,,' posn='170' drel='nmod__adj:sWiwi' chunkType='child:NP7' name='BOgolika'>
18	sWiwi	NN	<fs af='sWiwi,n,f,sg,3,o,0,0' drel='ccof:Ora2' posn='180' name='sWiwi' chunkId='NP7' chunkType='head:NP7'>
19	Ora	CC	<fs af='Ora,avy,,,,,,' drel='r6:viSleRaNa' posn='190' name='Ora2' chunkId='CCP2' chunkType='head:CCP2'>
20	paryAvaraNa	NN	<fs af='paryAvaraNa,n,m,sg,3,o,0_ko,0' drel='k4a:hue' posn='200' vpos='vib_2' name='paryAvaraNa' chunkId='NP8' chunkType='head:NP8'>
21	ko	PSP	<fs af='ko,psp,,,,,,' posn='210' drel='lwg__psp:paryAvaraNa' chunkType='child:NP8' name='ko'>
22	hue	VM	<fs af='ho,v,m,sg,any,,yA,yA' drel='nmod__k1inv:nukasAna' posn='220' name='hue' chunkId='VGNF2' chunkType='head:VGNF2'>
23	nukasAna	NN	<fs af='nukasAna,n,m,sg,3,o,0_kA,0' drel='ccof:Ora2' posn='230' vpos='vib_2' name='nukasAna' chunkId='NP9' chunkType='head:NP9'>
24	kA	PSP	<fs af='kA,psp,m,sg,,d,,' posn='240' drel='lwg__psp:nukasAna' chunkType='child:NP9' name='kA'>
25	viSleRaNa	NN	<fs af='viSleRaNa,n,m,sg,3,d,0,0' drel='k1:ho' posn='250' name='viSleRaNa' chunkId='NP10' chunkType='head:NP10'>
26	BI	RP	<fs af='BI,avy,,,,,,' posn='260' drel='lwg__rp:viSleRaNa' chunkType='child:NP10' name='BI'>
27	SurU	NN	<fs af='SurU,n,m,sg,3,d,0,0' drel='pof:ho' posn='270' name='SurU' chunkId='NP11' chunkType='head:NP11'>
28	ho	VM	<fs af='ho,v,m,sg,3,,0_jA+yA1_hE,0' stype='declarative' posn='280' voicetype='active' vpos='tam_2_3' name='ho' chunkId='VGF' chunkType='head:VGF'>
29	gayA	VAUX	<fs af='jA,v,m,sg,any,,yA1,yA1' posn='290' drel='lwg__vaux:ho' chunkType='child:VGF' name='gayA'>
30	hE	VAUX	<fs af='hE,v,any,sg,3,,hE,hE' posn='300' drel='lwg__vaux:ho' chunkType='child:VGF' name='hE'>
31	.	SYM	<fs af='.,punc,,,,,,' drel='rsym:ho' posn='310' name='.' chunkId='BLK' chunkType='head:BLK'>
</Sentence>


<Sentence id="2">
1	sarveyaroM	NN	<fs af='sarveyara,n,m,pl,3,o,0,0' drel='ccof:Ora' posn='10' name='sarveyaroM' chunkId='NP' chunkType='head:NP'>
2	Ora	CC	<fs af='Ora,avy,,,,,,' drel='r6:xala' posn='20' name='Ora' chunkId='CCP' chunkType='head:CCP'>
3	samuxra	NNC	<fs af='samuxra,n,m,sg,3,d,0,0' posn='30' drel='pof__cn:viSeRajFoM' chunkType='child:NP2' name='samuxra'>
4	aXyayana	NNC	<fs af='aXyayana,n,m,sg,3,d,0,0' posn='40' drel='pof__cn:viSeRajFoM' chunkType='child:NP2' name='aXyayana'>
5	viSeRajFoM	NN	<fs af='viSeRajFa,n,m,pl,3,o,0_kA,0' drel='ccof:Ora' posn='50' vpos='vib_4' name='viSeRajFoM' chunkId='NP2' chunkType='head:NP2'>
6	kA	PSP	<fs af='kA,psp,m,sg,,d,,' posn='60' drel='lwg__psp:viSeRajFoM' chunkType='child:NP2' name='kA'>
7	eka	QC	<fs af='eka,num,any,any,,any,,' posn='70' drel='nmod__adj:xala' chunkType='child:NP3' name='eka'>
8	xala	NN	<fs af='xala,n,m,sg,3,d,0,0' drel='k1:kara' posn='80' name='xala' chunkId='NP3' chunkType='head:NP3'>
9	10	NNPC	<fs af='10,n,f,sg,3,d,0,0' posn='90' drel='pof__cn:janavarI' chunkType='child:NP4' name='10'>
10	janavarI	NNP	<fs af='janavarI,n,f,sg,3,o,0_se,0' drel='k7t:kara' posn='100' vpos='vib_3' name='janavarI' chunkId='NP4' chunkType='head:NP4'>
11	se	PSP	<fs af='se,psp,,,,,,' posn='110' drel='lwg__psp:janavarI' chunkType='child:NP4' name='se'>
12	isa	DEM	<fs af='yaha,pn,any,sg,3,o,,' posn='120' drel='nmod__adj:praxeSa' chunkType='child:NP5' name='isa'>
13	keMxra	JJC	<fs af='keMxra,n,m,sg,3,d,0,0' posn='130' drel='mod:praxeSa' chunkType='child:NP5' name='keMxra'>
14	SAsiwa	JJ	<fs af='SAsiwa,adj,any,any,,o,,' posn='140' drel='nmod__adj:praxeSa' chunkType='child:NP5' name='SAsiwa'>
15	praxeSa	NN	<fs af='praxeSa,n,m,sg,3,o,0_kA,0' drel='r6:sarve' posn='150' vpos='vib_5' name='praxeSa' chunkId='NP5' chunkType='head:NP5'>
16	kA	PSP	<fs af='kA,psp,m,sg,,d,,' posn='160' drel='lwg__psp:praxeSa' chunkType='child:NP5' name='kA2'>
17	vyApaka	JJ	<fs af='vyApaka,adj,any,any,,d,,' posn='170' drel='nmod__adj:sarve' chunkType='child:NP6' name='vyApaka'>
18	sarve	NN	<fs af='sarve,n,m,sg,3,d,0,0' drel='k2:kara' posn='180' name='sarve' chunkId='NP6' chunkType='head:NP6'>
19	SurU	NN	<fs af='SurU,n,m,sg,3,d,0,0' drel='pof:kara' posn='190' name='SurU' chunkId='NP7' chunkType='head:NP7'>
20	kara	VM	<fs af='kara,v,m,sg,3,,0_raha+yA_hE,0' stype='declarative' posn='200' voicetype='active' vpos='tam_2_3' name='kara' chunkId='VGF' chunkType='head:VGF'>
21	rahA	VAUX	<fs af='raha,v,m,sg,any,,yA,yA' posn='210' drel='lwg__vaux:kara' chunkType='child:VGF' name='rahA'>
22	hE	VAUX	<fs af='hE,v,any,sg,3,,hE,hE' posn='220' drel='lwg__vaux:kara' chunkType='child:VGF' name='hE'>
23	.	SYM	<fs af='.,punc,,,,,,' drel='rsym:kara' posn='230' name='.' chunkId='BLK' chunkType='head:BLK'>
</Sentence>


<Sentence id="3">
1	ye	DEM	<fs af='yaha,pn,any,pl,3,d,,' posn='10' drel='nmod__adj:viSeRajFa' chunkType='child:NP' name='ye'>
2	viSeRajFa	NN	<fs af='viSeRajFa,n,m,pl,3,d,0,0' drel='k1:lagAeMge' posn='20' name='viSeRajFa' chunkId='NP' chunkType='head:NP'>
3	isa	DEM	<fs af='yaha,pn,any,sg,3,o,,' posn='30' drel='nmod__adj:bAwa' chunkType='child:NP2' name='isa'>
4	bAwa	NN	<fs af='bAwa,n,f,sg,3,o,0_kA,0' drel='r6-k2:pawA' posn='40' vpos='vib_3' name='bAwa' chunkId='NP2' chunkType='head:NP2'>
5	kA	PSP	<fs af='kA,psp,m,sg,,d,,' posn='50' drel='lwg__psp:bAwa' chunkType='child:NP2' name='kA'>
6	pawA	NN	<fs af='pawA,n,m,sg,3,d,0,0' drel='pof:lagAeMge' posn='60' name='pawA' chunkId='NP3' chunkType='head:NP3'>
7	lagAeMge	VM	<fs af='lagA,v,m,pl,3,,gA,gA' stype='declarative' posn='70' voicetype='active' name='lagAeMge' chunkId='VGF' chunkType='head:VGF'>
8	ki	CC	<fs af='ki,avy,,,,,,' drel='k2:lagAeMge' posn='80' name='ki' chunkId='CCP' chunkType='head:CCP'>
9	26	NNPC	<fs af='26,n,f,sg,3,d,0,0' posn='90' drel='pof__cn:xisaMbara' chunkType='child:NP4' name='26'>
10	xisaMbara	NNP	<fs af='xisaMbara,n,m,sg,3,o,0_ko,0' drel='k7t:AI' posn='100' vpos='vib_3' name='xisaMbara' chunkId='NP4' chunkType='head:NP4'>
11	ko	PSP	<fs af='ko,psp,,,,,,' posn='110' drel='lwg__psp:xisaMbara' chunkType='child:NP4' name='ko'>
12	AI	VM	<fs af='A,v,f,sg,any,,yA,yA' drel='nmod__k1inv:laharoM' posn='120' name='AI' chunkId='VGNF' chunkType='head:VGNF'>
13	pralayaMkArI	JJ	<fs af='pralayaMkArI,adj,any,any,,o,,' posn='130' drel='nmod__adj:laharoM' chunkType='child:NP5' name='pralayaMkArI'>
14	laharoM	NN	<fs af='lahara,n,f,pl,3,o,0_se,0' drel='rh:padZA' posn='140' vpos='vib_3' name='laharoM' chunkId='NP5' chunkType='head:NP5'>
15	se	PSP	<fs af='se,psp,,,,,,' posn='150' drel='lwg__psp:laharoM' chunkType='child:NP5' name='se'>
16	isa	DEM	<fs af='yaha,pn,any,sg,3,o,,' posn='160' drel='nmod__adj:xvIpa' chunkType='child:NP6' name='isa2'>
17	KUbasUrawa	JJ	<fs af='KUbasUrawa,adj,any,any,,o,,' posn='170' drel='nmod__adj:xvIpa' chunkType='child:NP6' name='KUbasUrawa'>
18	xvIpa	NN	<fs af='xvIpa,n,m,sg,3,o,0_kA,0' drel='r6:BUgola' posn='180' vpos='vib_4' name='xvIpa' chunkId='NP6' chunkType='head:NP6'>
19	ke	PSP	<fs af='kA,psp,m,sg,,o,,' posn='190' drel='lwg__psp:xvIpa' chunkType='child:NP6' name='ke'>
20	BUgola	NN	<fs af='BUgola,n,m,sg,3,o,0_para,0' drel='k7:padZA' posn='200' vpos='vib_2' name='BUgola' chunkId='NP7' chunkType='head:NP7'>
21	para	PSP	<fs af='para,psp,,,,,,' posn='210' drel='lwg__psp:BUgola' chunkType='child:NP7' name='para'>
22	kisa	WQ	<fs af='kOna,pn,any,sg,3,o,,' posn='220' drel='mod__wq:waraha' chunkType='child:NP8' name='kisa'>
23	waraha	NN	<fs af='waraha,n,f,sg,3,o,0_kA,0' drel='r6:asara' posn='230' vpos='vib_3' name='waraha' chunkId='NP8' chunkType='head:NP8'>
24	kA	PSP	<fs af='kA,psp,m,sg,,d,,' posn='240' drel='lwg__psp:waraha' chunkType='child:NP8' name='kA2'>
25	asara	NN	<fs af='asara,n,m,sg,3,d,0,0' drel='k1:padZA' posn='250' name='asara' chunkId='NP9' chunkType='head:NP9'>
26	padZA	VM	<fs af='padZa,v,m,sg,any,,yA,yA' drel='ccof:ki' stype='interrogative' posn='260' voicetype='active' name='padZA' chunkId='VGF2' chunkType='head:VGF2'>
27	?	SYM	<fs af='?,punc,,,,,,' drel='rsym:lagAeMge' posn='270' name='?' chunkId='BLK' chunkType='head:BLK'>
</Sentence>


<Sentence id="4">
1	unakA	PRP	<fs af='vaha,pn,m,pl,3,o,kA,kA' drel='r6-k1:jora' posn='10' name='unakA' chunkId='NP' chunkType='head:NP'>
2	jora	NN	<fs af='jora,n,m,sg,3,d,0,0' drel='pof:hogA' posn='20' name='jora' chunkId='NP2' chunkType='head:NP2'>
3	isa	DEM	<fs af='yaha,pn,any,sg,3,o,,' posn='30' drel='nmod__adj:bAwa' chunkType='child:NP3' name='isa'>
4	bAwa	NN	<fs af='bAwa,n,f,sg,3,o,0_para,0' drel='k7:hogA' posn='40' vpos='vib_3' name='bAwa' chunkId='NP3' chunkType='head:NP3'>
5	para	PSP	<fs af='para,psp,,,,,,' posn='50' drel='lwg__psp:bAwa' chunkType='child:NP3' name='para'>
6	hogA	VM	<fs af='ho,v,m,sg,3,,gA,gA' stype='declarative' posn='60' voicetype='active' name='hogA' chunkId='VGF' chunkType='head:VGF'>
7	ki	CC	<fs af='ki,avy,,,,,,' drel='rs:bAwa' posn='70' name='ki' chunkId='CCP' chunkType='head:CCP'>
8	kyA	WQ	<fs af='kyA,pn,,,,,,' drel='adv:baxala' posn='80' name='kyA' chunkId='RBP' chunkType='head:RBP'>
9	isa	DEM	<fs af='yaha,pn,any,sg,3,o,,' posn='90' drel='nmod__adj:samUha' chunkType='child:NP4' name='isa2'>
10	xvIpa	NNC	<fs af='xvIpa,n,m,sg,3,d,0,0' posn='100' drel='pof__cn:samUha' chunkType='child:NP4' name='xvIpa'>
11	samUha	NN	<fs af='samUha,n,m,sg,3,o,0_kA,0' drel='r6:nakSA' posn='110' vpos='vib_4' name='samUha' chunkId='NP4' chunkType='head:NP4'>
12	kA	PSP	<fs af='kA,psp,m,sg,,d,,' posn='120' drel='lwg__psp:samUha' chunkType='child:NP4' name='kA'>
13	nakSA	NN	<fs af='nakSA,n,m,sg,3,d,0,0' drel='k1:baxala' posn='130' name='nakSA' chunkId='NP5' chunkType='head:NP5'>
14	wo	RP	<fs af='wo,avy,,,,,,' posn='140' drel='lwg__rp:nakSA' chunkType='child:NP5' name='wo'>
15	nahIM	NEG	<fs af='nahIM,avy,,,,,,' posn='150' drel='lwg__neg:baxala' chunkType='child:VGF2' name='nahIM'>
16	baxala	VM	<fs af='baxala,v,any,sg,any,,0_jA+yA1,0' drel='ccof:ki' stype='interrogative' posn='160' voicetype='active' vpos='tam_3' name='baxala' chunkId='VGF2' chunkType='head:VGF2'>
17	gayA	VAUX	<fs af='jA,v,m,sg,any,,yA1,yA1' posn='170' drel='lwg__vaux:baxala' chunkType='child:VGF2' name='gayA'>
18	?	SYM	<fs af='?,punc,,,,,,' drel='rsym:hogA' posn='180' name='?' chunkId='BLK' chunkType='head:BLK'>
</Sentence>


<Sentence id="5">
1	uXara	NST	<fs af='uXara,nst,m,sg,3,d,,' drel='sent-adv:jawAI' posn='10' name='uXara' chunkId='NP' chunkType='head:NP'>
2	,	SYM	<fs af='COMMA,punc,,,,,,' posn='20' drel='rsym:uXara' chunkType='child:NP' name=','>
3	paryAvaraNavixoM	NN	<fs af='paryAvaraNavixa,n,m,pl,3,o,0_ne,0' drel='k1:jawAI' posn='30' vpos='vib_2' name='paryAvaraNavixoM' chunkId='NP2' chunkType='head:NP2'>
4	ne	PSP	<fs af='ne,psp,,,,,,' posn='40' drel='lwg__psp:paryAvaraNavixoM' chunkType='child:NP2' name='ne'>
5	aMdamAna	NNPC	<fs af='aMdamAna,n,m,sg,3,d,0,0' posn='50' drel='pof__cn:nikobAra' chunkType='child:NP3' name='aMdamAna'>
6	nikobAra	NNP	<fs af='nikobAra,n,m,sg,3,o,0_kA,0' drel='r6:paryAvaraNa' posn='60' vpos='vib_3' name='nikobAra' chunkId='NP3' chunkType='head:NP3'>
7	ke	PSP	<fs af='kA,psp,m,sg,,o,,' posn='70' drel='lwg__psp:nikobAra' chunkType='child:NP3' name='ke'>
8	paryAvaraNa	NN	<fs af='paryAvaraNa,n,m,sg,3,o,0_ko,0' drel='k4:pahuMcane' posn='80' vpos='vib_2' name='paryAvaraNa' chunkId='NP4' chunkType='head:NP4'>
9	ko	PSP	<fs af='ko,psp,,,,,,' posn='90' drel='lwg__psp:paryAvaraNa' chunkType='child:NP4' name='ko'>
10	BArI	JJ	<fs af='BArI,adj,any,any,,d,,' posn='100' drel='nmod__adj:nukasAna' chunkType='child:NP5' name='BArI'>
11	nukasAna	NN	<fs af='nukasAna,n,m,sg,3,d,0,0' drel='k2:pahuMcane' posn='110' name='nukasAna' chunkId='NP5' chunkType='head:NP5'>
12	pahuMcane	VM	<fs af='pahuMca,v,any,sg,any,o,nA_kA,nA' drel='r6-k2:ASaMkA' posn='120' vpos='tam_2' name='pahuMcane' chunkId='VGNN' chunkType='head:VGNN'>
13	kI	PSP	<fs af='kA,psp,f,sg,,d,,' posn='130' drel='lwg__psp:pahuMcane' chunkType='child:VGNN' name='kI'>
14	ASaMkA	NN	<fs af='ASaMkA,n,f,sg,3,d,0,0' drel='pof:jawAI' posn='140' name='ASaMkA' chunkId='NP6' chunkType='head:NP6'>
15	jawAI	VM	<fs af='jawA,v,f,sg,3,,yA_hE,yA' stype='declarative' posn='150' voicetype='active' vpos='tam_2' name='jawAI' chunkId='VGF' chunkType='head:VGF'>
16	hE	VAUX	<fs af='hE,v,any,sg,3,,hE,hE' posn='160' drel='lwg__vaux:jawAI' chunkType='child:VGF' name='hE'>
17	.	SYM	<fs af='.,punc,,,,,,' drel='rsym:jawAI' posn='170' name='.' chunkId='BLK' chunkType='head:BLK'>
</Sentence>


<Sentence id="6">
1	isa	DEM	<fs af='yaha,pn,any,sg,3,o,,' drel='sent-adv:kara' posn='10' name='isa' chunkId='NP' chunkType='head:NP'>
2	bIca	NST	<fs af='bIca,nst,m,sg,3,d,,' posn='20' drel='lwg__psp:isa' chunkType='child:NP' name='bIca'>
3	,	SYM	<fs af='COMMA,punc,,,,,,' posn='30' drel='rsym:isa' chunkType='child:NP' name=','>
4	BArawIya	NNPC	<fs af='BArawIya,adj,any,any,,o,,' posn='40' drel='pof__cn:nOsenA' chunkType='child:NP2' name='BArawIya'>
5	nOsenA	NNP	<fs af='nOsenA,n,f,sg,3,o,0_kA,0' drel='r6:powa' posn='50' vpos='vib_3' name='nOsenA' chunkId='NP2' chunkType='head:NP2'>
6	ke	PSP	<fs af='kA,psp,m,sg,,o,,' posn='60' drel='lwg__psp:nOsenA' chunkType='child:NP2' name='ke'>
7	viSAla	JJ	<fs af='viSAla,adj,any,any,,o,,' posn='70' drel='nmod__adj:powa' chunkType='child:NP3' name='viSAla'>
8	hAidrogrAPika	JJ	<fs af='hAidrogrAPika,adj,any,any,,o,,' posn='80' drel='nmod__adj:powa' chunkType='child:NP3' name='hAidrogrAPika'>
9	sarve	NNC	<fs af='sarve,n,m,sg,3,d,0,0' posn='90' drel='pof__cn:powa' chunkType='child:NP3' name='sarve'>
10	powa	NN	<fs af='powa,n,m,sg,3,o,0,0' drel='nmod:xaSaka' posn='100' name='powa' chunkId='NP3' chunkType='head:NP3'>
11	'	SYM	<fs af='SINGLE_QUOTE,punc,,,,,,' ' posn='110' drel='rsym:xaSaka' chunkType='child:NP4' name=''>
12	AIenaesa	NNPC	<fs af='AIenaesa,n,m,sg,3,d,0,0' posn='120' drel='pof__cn:xaSaka' chunkType='child:NP4' name='AIenaesa'>
13	xaSaka	NNP	<fs af='xaSaka,n,m,sg,3,o,0_ko,0' drel='k2:kara' posn='130' vpos='vib_5' name='xaSaka' chunkId='NP4' chunkType='head:NP4'>
14	'	SYM	<fs af='SINGLE_QUOTE,punc,,,,,,' 2' posn='140' drel='rsym:xaSaka' chunkType='child:NP4' name=''>
15	ko	PSP	<fs af='ko,psp,,,,,,' posn='150' drel='lwg__psp:xaSaka' chunkType='child:NP4' name='ko'>
16	Aja	NN	<fs af='Aja,n,m,sg,3,d,0,0' drel='k7t:kara' posn='160' name='Aja' chunkId='NP5' chunkType='head:NP5'>
17	aMdamAna	NNPC	<fs af='aMdamAna,n,m,sg,3,d,0,0' posn='170' drel='pof__cn:samUha' chunkType='child:NP6' name='aMdamAna'>
18	nikobAra	NNPC	<fs af='nikobAra,n,m,sg,3,d,0,0' posn='180' drel='pof__cn:samUha' chunkType='child:NP6' name='nikobAra'>
19	xvIpa	NNPC	<fs af='xvIpa,n,m,sg,3,d,0,0' posn='190' drel='pof__cn:samUha' chunkType='child:NP6' name='xvIpa'>
20	samUha	NNP	<fs af='samUha,n,m,sg,3,o,0_kA,0' drel='r6:sarve2' posn='200' vpos='vib_5' name='samUha' chunkId='NP6' chunkType='head:NP6'>
21	ke	PSP	<fs af='kA,psp,m,sg,,o,,' posn='210' drel='lwg__psp:samUha' chunkType='child:NP6' name='ke2'>
22	hAidrogrAPika	JJ	<fs af='hAidrogrAPika,adj,any,any,,o,,' posn='220' drel='nmod__adj:sarve2' chunkType='child:NP7' name='hAidrogrAPika2'>
23	sarve	NN	<fs af='sarve,n,m,sg,3,o,0_ke_lie,0' drel='rt:kara' posn='230' vpos='vib_3_4' name='sarve2' chunkId='NP7' chunkType='head:NP7'>
24	ke	PSP	<fs af='ke,psp,,,,,,' posn='240' drel='lwg__psp:sarve2' chunkType='child:NP7' name='ke3'>
25	lie	PSP	<fs af='lie,psp,,,,,,' posn='250' drel='lwg__psp:sarve2' chunkType='child:NP7' name='lie'>
26	wEnAwa	JJ	<fs af='wEnAwa,adj,any,any,,,,' drel='pof:kara' posn='260' name='wEnAwa' chunkId='JJP' chunkType='head:JJP'>
27	kara	VM	<fs af='kara,v,m,sg,any,,0_xe+yA_jA+yA1,0' stype='declarative' posn='270' voicetype='passive' vpos='tam_2_3' name='kara' chunkId='VGF' chunkType='head:VGF'>
28	xiyA	VAUX	<fs af='xe,v,m,sg,any,,yA,yA' posn='280' drel='lwg__vaux:kara' chunkType='child:VGF' name='xiyA'>
29	gayA	VAUX	<fs af='jA,v,m,sg,any,,yA1,yA1' posn='290' drel='lwg__vaux:kara' chunkType='child:VGF' name='gayA'>
30	.	SYM	<fs af='.,punc,,,,,,' drel='rsym:kara' posn='300' name='.' chunkId='BLK' chunkType='head:BLK'>
</Sentence>


<Sentence id="7">
1	yaha	DEM	<fs af='yaha,pn,any,sg,3,d,,' posn='10' drel='nmod__adj:powa' chunkType='child:NP' name='yaha'>
2	powa	NN	<fs af='powa,n,m,sg,3,d,0,0' drel='k1:uwAregA' posn='20' name='powa' chunkId='NP' chunkType='head:NP'>
3	kAra	NNPC	<fs af='kAra,n,m,sg,3,d,0,0' posn='30' drel='pof__cn:nikobAra' chunkType='child:NP2' name='kAra'>
4	nikobAra	NNP	<fs af='nikobAra,n,m,sg,3,o,0_jEsA,0' drel='k7pu:uwAregA' posn='40' vpos='vib_3' name='nikobAra' chunkId='NP2' chunkType='head:NP2'>
5	jEse	PSP	<fs af='jEsA,psp,m,pl,,o,,' posn='50' drel='lwg__psp:nikobAra' chunkType='child:NP2' name='jEse'>
6	burI	JJ	<fs af='burA,adj,f,sg,,d,,' posn='60' drel='nmod__adj:waraha' chunkType='child:NP3' name='burI'>
7	waraha	NN	<fs af='waraha,n,f,sg,3,d,0,0' drel='jjmod:praBAviwa' posn='70' name='waraha' chunkId='NP3' chunkType='head:NP3'>
8	praBAviwa	JJ	<fs af='praBAviwa,adj,any,any,,o,,' drel='nmod:ilAkoM' posn='80' name='praBAviwa' chunkId='JJP' chunkType='head:JJP'>
9	ilAkoM	NN	<fs af='ilAkA,n,m,pl,3,o,0_meM,0' drel='k7p:uwAregA' posn='90' vpos='vib_2' name='ilAkoM' chunkId='NP4' chunkType='head:NP4'>
10	meM	PSP	<fs af='meM,psp,,,,,,' posn='100' drel='lwg__psp:ilAkoM' chunkType='child:NP4' name='meM'>
11	pAnI	NN	<fs af='pAnI,n,m,sg,3,o,0_ke_BIwara_kA,0' drel='r6:wasvIreM' posn='110' vpos='vib_2_3_4' name='pAnI' chunkId='NP5' chunkType='head:NP5'>
12	ke	PSP	<fs af='ke,psp,,,,,,' posn='120' drel='lwg__psp:pAnI' chunkType='child:NP5' name='ke'>
13	BIwara	NST	<fs af='BIwara,nst,m,sg,3,o,,' posn='130' drel='lwg__psp:pAnI' chunkType='child:NP5' name='BIwara'>
14	kI	PSP	<fs af='kA,psp,f,pl,,d,,' posn='140' drel='lwg__psp:pAnI' chunkType='child:NP5' name='kI'>
15	wasvIreM	NN	<fs af='wasvIra,n,f,pl,3,d,0,0' drel='k2:uwAregA' posn='150' name='wasvIreM' chunkId='NP6' chunkType='head:NP6'>
16	uwAregA	VM	<fs af='uwAra,v,m,sg,3,,gA,gA' stype='declarative' posn='160' voicetype='active' name='uwAregA' chunkId='VGF' chunkType='head:VGF'>
17	.	SYM	<fs af='.,punc,,,,,,' drel='rsym:uwAregA' posn='170' name='.' chunkId='BLK' chunkType='head:BLK'>
</Sentence>


<Sentence id="8">
1	sarveyara	NNPC	<fs af='sarveyara,n,m,sg,3,d,0,0' posn='10' drel='pof__cn:iMdiyA' chunkType='child:NP' name='sarveyara'>
2	janarala	NNPC	<fs af='janarala,adj,any,any,,o,,' posn='20' drel='pof__cn:iMdiyA' chunkType='child:NP' name='janarala'>
3	OYPa	NNPC	<fs af='OYPa,unk,,,,,,' posn='30' drel='pof__cn:iMdiyA' chunkType='child:NP' name='OYPa'>
4	iMdiyA	NNP	<fs af='iMdiyA,n,f,sg,3,o,0,0' drel='nmod:nAga' posn='40' name='iMdiyA' chunkId='NP' chunkType='head:NP'>
5	dOY	NNC	<fs af='dOY,n,m,sg,3,d,0,0' posn='50' drel='pof__cn:pqWvIsa' chunkType='child:NP2' name='dOY'>
6	pqWvIsa	NNPC	<fs af='pqWvIsa,n,m,sg,3,d,0,0' posn='60' drel='pof__cn:nAga' chunkType='child:NP2' name='pqWvIsa'>
7	nAga	NNP	<fs af='nAga,n,m,sg,3,o,0_ne,0' drel='k1:bawAyA' posn='70' vpos='vib_4' name='nAga' chunkId='NP2' chunkType='head:NP2'>
8	ne	PSP	<fs af='ne,psp,,,,,,' posn='80' drel='lwg__psp:nAga' chunkType='child:NP2' name='ne'>
9	maMgalavAra	NNP	<fs af='maMgalavAra,n,m,sg,3,o,0_ko,0' drel='k7t:bawAyA' posn='90' vpos='vib_2' name='maMgalavAra' chunkId='NP3' chunkType='head:NP3'>
10	ko	PSP	<fs af='ko,psp,,,,,,' posn='100' drel='lwg__psp:maMgalavAra' chunkType='child:NP3' name='ko'>
11	telIPona	NN	<fs af='telIPona,n,m,sg,3,o,0_se,0' drel='k3:bawAyA' posn='110' vpos='vib_2' name='telIPona' chunkId='NP4' chunkType='head:NP4'>
12	se	PSP	<fs af='se,psp,,,,,,' posn='120' drel='lwg__psp:telIPona' chunkType='child:NP4' name='se'>
13	bawAyA	VM	<fs af='bawA,v,m,sg,any,,yA,yA' stype='declarative' posn='130' voicetype='active' name='bawAyA' chunkId='VGF' chunkType='head:VGF'>
14	ki	CC	<fs af='ki,avy,,,,,,' drel='k2:bawAyA' posn='140' name='ki' chunkId='CCP' chunkType='head:CCP'>
15	aba	PRP	<fs af='aba,pn,,,,o,0_waka,' drel='k7t:milawI' posn='150' vpos='vib_2' name='aba' chunkId='NP5' chunkType='head:NP5'>
16	waka	PSP	<fs af='waka,psp,,,,,,' posn='160' drel='lwg__psp:aba' chunkType='child:NP5' name='waka'>
17	upagraha	NN	<fs af='upagraha,n,m,sg,3,o,0_se,0' drel='k3:milI' posn='170' vpos='vib_2' name='upagraha' chunkId='NP6' chunkType='head:NP6'>
18	se	PSP	<fs af='se,psp,,,,,,' posn='180' drel='lwg__psp:upagraha' chunkType='child:NP6' name='se2'>
19	milI	VM	<fs af='mila,v,f,pl,any,,yA,yA' drel='nmod__k1inv:wasvIroM' posn='190' name='milI' chunkId='VGNF' chunkType='head:VGNF'>
20	wasvIroM	NN	<fs af='wasvIra,n,f,pl,3,o,0_se,0' drel='k5:milawI' posn='200' vpos='vib_2' name='wasvIroM' chunkId='NP7' chunkType='head:NP7'>
21	se	PSP	<fs af='se,psp,,,,,,' posn='210' drel='lwg__psp:wasvIroM' chunkType='child:NP7' name='se3'>
22	xvIpoM	NN	<fs af='xvIpa,n,m,pl,3,o,0_kA,0' drel='r6:ilAkoM' posn='220' vpos='vib_2' name='xvIpoM' chunkId='NP8' chunkType='head:NP8'>
23	ke	PSP	<fs af='kA,psp,m,sg,,o,,' posn='230' drel='lwg__psp:xvIpoM' chunkType='child:NP8' name='ke'>
24	AbAxI	NN	<fs af='AbAxI,n,f,sg,3,o,0_vAlA,0' drel='nmod:ilAkoM' posn='240' vpos='vib_2' name='AbAxI' chunkId='NP9' chunkType='head:NP9'>
25	vAle	PSP	<fs af='vAlA,psp,m,pl,,o,,' posn='250' drel='lwg__psp:AbAxI' chunkType='child:NP9' name='vAle'>
26	ilAkoM	NN	<fs af='ilAkA,n,m,pl,3,o,0_kA,0' drel='r6:nukasAna' posn='260' vpos='vib_2' name='ilAkoM' chunkId='NP10' chunkType='head:NP10'>
27	ke	PSP	<fs af='kA,psp,m,sg,,o,,' posn='270' drel='lwg__psp:ilAkoM' chunkType='child:NP10' name='ke2'>
28	nukasAna	NN	<fs af='nukasAna,n,m,sg,3,o,0_kA,0' drel='r6:jAnakArI' posn='280' vpos='vib_2_RP' name='nukasAna' chunkId='NP11' chunkType='head:NP11'>
29	kI	PSP	<fs af='kA,psp,f,sg,,d,,' posn='290' drel='lwg__psp:nukasAna' chunkType='child:NP11' name='kI'>
30	hI	RP	<fs af='hI,avy,,,,,,' posn='300' drel='lwg__rp:nukasAna' chunkType='child:NP11' name='hI'>
31	jAnakArI	NN	<fs af='jAnakArI,n,f,sg,3,d,0,0' drel='k1:milawI' posn='310' name='jAnakArI' chunkId='NP12' chunkType='head:NP12'>
32	milawI	VM	<fs af='mila,v,f,sg,3,,wA_hE,wA' drel='ccof:ki' stype='declarative' posn='320' voicetype='active' vpos='tam_2' name='milawI' chunkId='VGF2' chunkType='head:VGF2'>
33	hE	VAUX	<fs af='hE,v,any,sg,3,,hE,hE' posn='330' drel='lwg__vaux:milawI' chunkType='child:VGF2' name='hE'>
34	.	SYM	<fs af='.,punc,,,,,,' drel='rsym:bawAyA' posn='340' name='.' chunkId='BLK' chunkType='head:BLK'>
</Sentence>


<Sentence id="9">
1	lekina	CC	<fs af='lekina,avy,,,,,,' posn='10' name='lekina' chunkId='CCP' chunkType='head:CCP'>
2	,	SYM	<fs af='COMMA,punc,,,,,,' posn='20' drel='rsym:lekina' chunkType='child:CCP' name=','>
3	isase	PRP	<fs af='yaha,pn,any,sg,3,o,se,se' drel='k5:calawA' posn='30' name='isase' chunkId='NP' chunkType='head:NP'>
4	yaha	PRP	<fs af='yaha,pn,any,sg,3,d,0,0' drel='k2:calawA' posn='40' name='yaha' chunkId='NP2' chunkType='head:NP2'>
5	pawA	NN	<fs af='pawA,n,m,sg,3,d,0,0' drel='pof:calawA' posn='50' name='pawA' chunkId='NP3' chunkType='head:NP3'>
6	nahIM	NEG	<fs af='nahIM,avy,,,,,,' posn='60' drel='lwg__neg:calawA' chunkType='child:VGF' name='nahIM'>
7	calawA	VM	<fs af='cala,v,m,sg,any,,wA,wA' drel='ccof:lekina' stype='declarative' posn='70' voicetype='active' name='calawA' chunkId='VGF' chunkType='head:VGF'>
8	ki	CC	<fs af='ki,avy,,,,,,' drel='rs:yaha' posn='80' name='ki' chunkId='CCP2' chunkType='head:CCP2'>
9	kyA	WQ	<fs af='kyA,pn,,,,,,' drel='adv:Kisaka' posn='90' name='kyA' chunkId='RBP' chunkType='head:RBP'>
10	xvIpa	NN	<fs af='xvIpa,n,m,pl,3,d,0,0' drel='k1:Kisaka' posn='100' name='xvIpa' chunkId='NP4' chunkType='head:NP4'>
11	Kisaka	VM	<fs af='Kisaka,v,any,pl,any,,0_jA+yA1,0' drel='ccof:yA' stype='interrogative' posn='110' voicetype='active' vpos='tam_2' name='Kisaka' chunkId='VGF2' chunkType='head:VGF2'>
12	gae	VAUX	<fs af='jA,v,m,pl,any,,yA1,yA1' posn='120' drel='lwg__vaux:Kisaka' chunkType='child:VGF2' name='gae'>
13	yA	CC	<fs af='yA,avy,,,,,,' drel='ccof:ki' posn='130' name='yA' chunkId='CCP3' chunkType='head:CCP3'>
14	unameM	PRP	<fs af='vaha,pn,any,pl,3,o,meM,meM' drel='k7:huA' posn='140' name='unameM' chunkId='NP5' chunkType='head:NP5'>
15	kisI	PRP	<fs af='koI,pn,any,sg,3,o,0,0' posn='150' drel='nmod__adj:waraha' chunkType='child:NP6' name='kisI'>
16	waraha	NN	<fs af='waraha,n,f,sg,3,o,0_kA,0' drel='r6-k1:JukAva' posn='160' vpos='vib_vib_3' name='waraha' chunkId='NP6' chunkType='head:NP6'>
17	kA	PSP	<fs af='kA,psp,m,sg,,d,,' posn='170' drel='lwg__psp:waraha' chunkType='child:NP6' name='kA'>
18	JukAva	NN	<fs af='JukAva,n,m,sg,3,d,0,0' drel='pof:huA' posn='180' name='JukAva' chunkId='NP7' chunkType='head:NP7'>
19	huA	VM	<fs af='ho,v,m,sg,any,,yA,yA' drel='ccof:yA' stype='declarative' posn='190' voicetype='active' name='huA' chunkId='VGF3' chunkType='head:VGF3'>
20	?	SYM	<fs af='.,punc,,,,,,' drel='rsym:lekina' posn='200' name='?' chunkId='BLK' chunkType='head:BLK'>
</Sentence>


<Sentence id="10">
1	nAga	NNP	<fs af='nAga,n,m,sg,3,o,0_ne,0' drel='k1:kahA' posn='10' vpos='vib_2' name='nAga' chunkId='NP' chunkType='head:NP'>
2	ne	PSP	<fs af='ne,psp,,,,,,' posn='20' drel='lwg__psp:nAga' chunkType='child:NP' name='ne'>
3	kahA	VM	<fs af='kaha,v,m,sg,any,,yA,yA' stype='declarative' posn='30' voicetype='active' name='kahA' chunkId='VGF' chunkType='head:VGF'>
4	,	SYM	<fs af='COMMA,punc,,,,,,' posn='40' drel='rsym:kahA' chunkType='child:VGF' name=','>
5	upagraha	NN	<fs af='upagraha,n,m,sg,3,o,0_se,0' drel='k5:milI' posn='50' vpos='vib_2' name='upagraha' chunkId='NP2' chunkType='head:NP2'>
6	se	PSP	<fs af='se,psp,,,,,,' posn='60' drel='lwg__psp:upagraha' chunkType='child:NP2' name='se'>
7	milI	VM	<fs af='mila,v,f,pl,any,,yA,yA' drel='nmod__k1inv:wasvIreM' posn='70' name='milI' chunkId='VGNF' chunkType='head:VGNF'>
8	wasvIreM	NN	<fs af='wasvIra,n,f,pl,3,d,0,0' drel='k1:xiKA' posn='80' name='wasvIreM' chunkId='NP3' chunkType='head:NP3'>
9	xiKA	VM	<fs af='xiKA,v,f,pl,3,,0_raha+yA_hE,0' drel='k2:kahA' stype='declarative' posn='90' voicetype='active' vpos='tam_2_3' name='xiKA' chunkId='VGF2' chunkType='head:VGF2'>
10	rahI	VAUX	<fs af='raha,v,f,pl,any,,yA,yA' posn='100' drel='lwg__vaux:xiKA' chunkType='child:VGF2' name='rahI'>
11	hEM	VAUX	<fs af='hE,v,any,pl,3,,hE,hE' posn='110' drel='lwg__vaux:xiKA' chunkType='child:VGF2' name='hEM'>
12	ki	CC	<fs af='ki,avy,,,,,,' drel='k2:xiKA' posn='120' name='ki' chunkId='CCP' chunkType='head:CCP'>
13	samuxrI	JJ	<fs af='samuxrI,adj,any,any,,o,,' posn='130' drel='nmod__adj:laharoM' chunkType='child:NP4' name='samuxrI'>
14	laharoM	NN	<fs af='lahara,n,f,pl,3,o,0_ne,0' drel='k1:macAI' posn='140' vpos='vib_3' name='laharoM' chunkId='NP4' chunkType='head:NP4'>
15	ne	PSP	<fs af='ne,psp,,,,,,' posn='150' drel='lwg__psp:laharoM' chunkType='child:NP4' name='ne2'>
16	AbAxI	NN	<fs af='AbAxI,n,f,sg,3,o,0_vAlA,0' drel='nmod:ilAkoM' posn='160' vpos='vib_2' name='AbAxI' chunkId='NP5' chunkType='head:NP5'>
17	vAle	PSP	<fs af='vAlA,psp,m,pl,,o,,' posn='170' drel='lwg__psp:AbAxI' chunkType='child:NP5' name='vAle'>
18	ilAkoM	NN	<fs af='ilAkA,n,m,pl,3,o,0_meM,0' drel='k7p:macAI' posn='180' vpos='vib_2' name='ilAkoM' chunkId='NP6' chunkType='head:NP6'>
19	meM	PSP	<fs af='meM,psp,,,,,,' posn='190' drel='lwg__psp:ilAkoM' chunkType='child:NP6' name='meM'>
20	kisa	WQ	<fs af='kOna,pn,,,,,,' posn='200' drel='mod__wq:waraha' chunkType='child:NP7' name='kisa'>
21	waraha	NN	<fs af='waraha,n,f,sg,3,d,0,0' drel='adv:macAI' posn='210' name='waraha' chunkId='NP7' chunkType='head:NP7'>
22	wabAhI	NN	<fs af='wabAhI,n,f,sg,3,d,0,0' drel='pof:macAI' posn='220' name='wabAhI' chunkId='NP8' chunkType='head:NP8'>
23	macAI	VM	<fs af='macA,v,f,sg,any,,yA,yA' drel='ccof:ki' stype='declarative' posn='230' voicetype='active' name='macAI' chunkId='VGF3' chunkType='head:VGF3'>
24	.	SYM	<fs af='.,punc,,,,,,' drel='rsym:kahA' posn='240' name='.' chunkId='BLK' chunkType='head:BLK'>
</Sentence>


<Sentence id="11">
1	sarve	NNPC	<fs af='sarve,n,m,sg,3,d,0,0' posn='10' drel='pof__cn:iMdiyA' chunkType='child:NP' name='sarve'>
2	OYPa	NNPC	<fs af='OYPa,unk,,,,,,' posn='20' drel='pof__cn:iMdiyA' chunkType='child:NP' name='OYPa'>
3	iMdiyA	NNP	<fs af='iMdiyA,n,f,sg,3,o,0_ne,0' drel='k1:BejA' posn='30' vpos='vib_4' name='iMdiyA' chunkId='NP' chunkType='head:NP'>
4	ne	PSP	<fs af='ne,psp,,,,,,' posn='40' drel='lwg__psp:iMdiyA' chunkType='child:NP' name='ne'>
5	eka	QC	<fs af='eka,num,any,any,,any,,' posn='50' drel='nmod__adj:SoXakarwA' chunkType='child:NP2' name='eka'>
6	SoXakarwA	NN	<fs af='SoXakarwA,n,m,sg,3,o,0_ko,0' drel='k2:BejA' posn='60' vpos='vib_3' name='SoXakarwA' chunkId='NP2' chunkType='head:NP2'>
7	ko	PSP	<fs af='ko,psp,,,,,,' posn='70' drel='lwg__psp:SoXakarwA' chunkType='child:NP2' name='ko'>
8	pahale	NST	<fs af='pahale,nst,m,sg,3,d,,' drel='k7t:BejA' posn='80' name='pahale' chunkId='NP3' chunkType='head:NP3'>
9	hI	RP	<fs af='hI,avy,,,,,,' posn='90' drel='lwg__rp:pahale' chunkType='child:NP3' name='hI'>
10	prAraMBika	JJ	<fs af='prAraMBika,adj,any,any,,o,,' posn='100' drel='nmod__adj:aXyayana' chunkType='child:NP4' name='prAraMBika'>
11	aXyayana	NN	<fs af='aXyayana,n,m,sg,3,o,0_ke_lie,0' drel='rt:BejA' posn='110' vpos='vib_3_4' name='aXyayana' chunkId='NP4' chunkType='head:NP4'>
12	ke	PSP	<fs af='ke,psp,,,,,,' posn='120' drel='lwg__psp:aXyayana' chunkType='child:NP4' name='ke'>
13	lie	PSP	<fs af='lie,psp,,,,,,' posn='130' drel='lwg__psp:aXyayana' chunkType='child:NP4' name='lie'>
14	vahAM	PRP	<fs af='vahAz,pn,,,,,,' drel='k2p:BejA' posn='140' name='vahAM' chunkId='NP5' chunkType='head:NP5'>
15	BejA	VM	<fs af='Beja,v,m,sg,3,,yA_hE,yA' stype='declarative' posn='150' voicetype='active' vpos='tam_2' name='BejA' chunkId='VGF' chunkType='head:VGF'>
16	hE	VAUX	<fs af='hE,v,any,sg,3,,hE,hE' posn='160' drel='lwg__vaux:BejA' chunkType='child:VGF' name='hE'>
17	.	SYM	<fs af='.,punc,,,,,,' drel='rsym:BejA' posn='170' name='.' chunkId='BLK' chunkType='head:BLK'>
</Sentence>


<Sentence id="12">
1	nAga	NNP	<fs af='nAga,n,m,sg,3,o,0_ne,0' drel='k1:bawAyA' posn='10' vpos='vib_2' name='nAga' chunkId='NP' chunkType='head:NP'>
2	ne	PSP	<fs af='ne,psp,,,,,,' posn='20' drel='lwg__psp:nAga' chunkType='child:NP' name='ne'>
3	bawAyA	VM	<fs af='bawA,v,m,sg,any,,yA,yA' stype='declarative' posn='30' voicetype='active' name='bawAyA' chunkId='VGF' chunkType='head:VGF'>
4	ki	CC	<fs af='ki,avy,,,,,,' drel='k2:bawAyA' posn='40' name='ki' chunkId='CCP' chunkType='head:CCP'>
5	xvIpa	NNC	<fs af='xvIpa,n,m,sg,3,d,0,0' posn='50' drel='pof__cn:samUha' chunkType='child:NP2' name='xvIpa'>
6	samUha	NN	<fs af='samUha,n,m,sg,3,o,0_kA,0' drel='r6:pOYiMta' posn='60' vpos='vib_3' name='samUha' chunkId='NP2' chunkType='head:NP2'>
7	ke	PSP	<fs af='kA,psp,m,sg,,o,,' posn='70' drel='lwg__psp:samUha' chunkType='child:NP2' name='ke'>
8	20	QC	<fs af='20,num,any,any,,any,,' posn='80' drel='nmod__adj:pOYiMta' chunkType='child:NP3' name='20'>
9	kaMtrola	NNC	<fs af='kaMtrola,n,m,sg,3,d,0,0' posn='90' drel='pof__cn:pOYiMta' chunkType='child:NP3' name='kaMtrola'>
10	pOYiMta	NN	<fs af='pOYiMta,n,m,sg,3,o,0_kA,0' drel='r6:AXAra' posn='100' vpos='vib_4' name='pOYiMta' chunkId='NP3' chunkType='head:NP3'>
11	ke	PSP	<fs af='kA,psp,m,sg,,o,,' posn='110' drel='lwg__psp:pOYiMta' chunkType='child:NP3' name='ke2'>
12	AXAra	NN	<fs af='AXAra,n,m,sg,3,o,0_para,0' drel='k7:kiyA' posn='120' vpos='vib_2' name='AXAra' chunkId='NP4' chunkType='head:NP4'>
13	para	PSP	<fs af='para,psp,,,,,,' posn='130' drel='lwg__psp:AXAra' chunkType='child:NP4' name='para'>
14	akRAMsa	NN	<fs af='akRAMsa,n,m,sg,3,o,0,0' drel='ccof:Ora' posn='140' name='akRAMsa' chunkId='NP5' chunkType='head:NP5'>
15	Ora	CC	<fs af='Ora,avy,,,,,,' drel='k7:hue' posn='150' name='Ora' chunkId='CCP2' chunkType='head:CCP2'>
16	xeSAMwara	NN	<fs af='xeSAMwara,n,m,sg,3,o,0_meM,0' drel='ccof:Ora' posn='160' vpos='vib_2' name='xeSAMwara' chunkId='NP6' chunkType='head:NP6'>
17	meM	PSP	<fs af='meM,psp,,,,,,' posn='170' drel='lwg__psp:xeSAMwara' chunkType='child:NP6' name='meM'>
18	hue	VM	<fs af='ho,v,m,sg,any,,yA,yA' drel='nmod__k1inv:parivarwana' posn='180' name='hue' chunkId='VGNF' chunkType='head:VGNF'>
19	parivarwana	NN	<fs af='parivarwana,n,m,sg,3,o,0_kA,0' drel='r6-k2:aXyayana' posn='190' vpos='vib_2' name='parivarwana' chunkId='NP7' chunkType='head:NP7'>
20	kA	PSP	<fs af='kA,psp,m,sg,,d,,' posn='200' drel='lwg__psp:parivarwana' chunkType='child:NP7' name='kA'>
21	aXyayana	NN	<fs af='aXyayana,n,m,sg,3,d,0,0' drel='pof:kiyA' posn='210' name='aXyayana' chunkId='NP8' chunkType='head:NP8'>
22	kiyA	VM	<fs af='kara,v,m,sg,3,,yA_jA+gA,yA' drel='ccof:ki' stype='declarative' posn='220' voicetype='passive' vpos='tam_2' name='kiyA' chunkId='VGF2' chunkType='head:VGF2'>
23	jAegA	VAUX	<fs af='jA,v,m,sg,3,,gA,gA' posn='230' drel='lwg__vaux:kiyA' chunkType='child:VGF2' name='jAegA'>
24	.	SYM	<fs af='.,punc,,,,,,' drel='rsym:bawAyA' posn='240' name='.' chunkId='BLK' chunkType='head:BLK'>
</Sentence>


<Sentence id="13">
1	nAga	NNP	<fs af='nAga,n,m,sg,3,o,0_kA,0' drel='r6:newqwva' posn='10' vpos='vib_2' name='nAga' chunkId='NP' chunkType='head:NP'>
2	ke	PSP	<fs af='kA,psp,m,sg,,o,,' posn='20' drel='lwg__psp:nAga' chunkType='child:NP' name='ke'>
3	newqwva	NN	<fs af='newqwva,n,m,sg,3,o,0_meM,0' drel='k7:jA' posn='30' vpos='vib_2' name='newqwva' chunkId='NP2' chunkType='head:NP2'>
4	meM	PSP	<fs af='meM,psp,,,,,,' posn='40' drel='lwg__psp:newqwva' chunkType='child:NP2' name='meM'>
5	ATa	QC	<fs af='ATa,num,any,any,,any,,' posn='50' drel='nmod__adj:xala' chunkType='child:NP3' name='ATa'>
6	saxasyIya	JJ	<fs af='saxasyIya,adj,any,any,,d,,' posn='60' drel='nmod__adj:xala' chunkType='child:NP3' name='saxasyIya'>
7	xala	NN	<fs af='xala,n,m,sg,3,d,0,0' drel='k1:jA' posn='70' name='xala' chunkId='NP3' chunkType='head:NP3'>
8	vahAM	PRP	<fs af='vahAz,pn,,,,,,' drel='k2p:jA' posn='80' name='vahAM' chunkId='NP4' chunkType='head:NP4'>
9	jA	VM	<fs af='jA,v,m,sg,3,,0_raha+yA_hE,0' stype='declarative' posn='90' voicetype='active' vpos='tam_2_3' name='jA' chunkId='VGF' chunkType='head:VGF'>
10	rahA	VAUX	<fs af='raha,v,m,sg,any,,yA,yA' posn='100' drel='lwg__vaux:jA' chunkType='child:VGF' name='rahA'>
11	hE	VAUX	<fs af='hE,v,any,sg,3,,hE,hE' posn='110' drel='lwg__vaux:jA' chunkType='child:VGF' name='hE'>
12	.	SYM	<fs af='.,punc,,,,,,' drel='rsym:jA' posn='120' name='.' chunkId='BLK' chunkType='head:BLK'>
</Sentence>


<Sentence id="14">
1	yaha	DEM	<fs af='yaha,pn,any,sg,3,d,,' posn='10' drel='nmod__adj:xala' chunkType='child:NP' name='yaha'>
2	xala	NN	<fs af='xala,n,m,sg,3,d,0,0' drel='k1:karegA' posn='20' name='xala' chunkId='NP' chunkType='head:NP'>
3	nevI	NN	<fs af='nevI,n,f,sg,3,o,0_kA,0' drel='r6:APisa' posn='30' vpos='vib_2' name='nevI' chunkId='NP2' chunkType='head:NP2'>
4	ke	PSP	<fs af='kA,psp,m,sg,,o,,' posn='40' drel='lwg__psp:nevI' chunkType='child:NP2' name='ke'>
5	neSanala	NNPC	<fs af='neSanala,adj,any,any,,o,,' posn='50' drel='pof__cn:APisa' chunkType='child:NP3' name='neSanala'>
6	hAidrogrAPI	NNPC	<fs af='hAidrogrAPI,n,f,sg,3,d,0,0' posn='60' drel='pof__cn:APisa' chunkType='child:NP3' name='hAidrogrAPI'>
7	APisa	NNP	<fs af='APisa,n,m,sg,3,o,0_kA,0' drel='r6:Sipa' posn='70' vpos='vib_4' name='APisa' chunkId='NP3' chunkType='head:NP3'>
8	ke	PSP	<fs af='kA,psp,m,sg,,o,,' posn='80' drel='lwg__psp:APisa' chunkType='child:NP3' name='ke2'>
9	sarve	NNC	<fs af='sarve,n,m,sg,3,d,0,0' posn='90' drel='pof__cn:Sipa' chunkType='child:NP4' name='sarve'>
10	Sipa	NN	<fs af='Sipa,n,m,sg,3,o,0_kA,0' drel='r6-k2:iswemAla' posn='100' vpos='vib_3' name='Sipa' chunkId='NP4' chunkType='head:NP4'>
11	kA	PSP	<fs af='kA,psp,m,sg,,d,,' posn='110' drel='lwg__psp:Sipa' chunkType='child:NP4' name='kA'>
12	iswemAla	NN	<fs af='iswemAla,n,m,sg,3,d,0,0' drel='pof:karegA' posn='120' name='iswemAla' chunkId='NP5' chunkType='head:NP5'>
13	karegA	VM	<fs af='kara,v,m,sg,3,,gA,gA' drel='ccof:Ora' stype='declarative' posn='130' voicetype='active' name='karegA' chunkId='VGF' chunkType='head:VGF'>
14	Ora	CC	<fs af='Ora,avy,,,,,,' posn='140' name='Ora' chunkId='CCP' chunkType='head:CCP'>
15	neSanala	NNPC	<fs af='neSanala,adj,any,any,,o,,' posn='150' drel='pof__cn:osiyanagrAPI' chunkType='child:NP6' name='neSanala2'>
16	iMstItyUta	NNPC	<fs af='iMstItyUta,n,m,sg,3,d,0,0' posn='160' drel='pof__cn:osiyanagrAPI' chunkType='child:NP6' name='iMstItyUta'>
17	OYPa	NNPC	<fs af='OYPa,unk,,,,,,' posn='170' drel='pof__cn:osiyanagrAPI' chunkType='child:NP6' name='OYPa'>
18	osiyanagrAPI	NNP	<fs af='osiyanagrAPI,n,f,sg,3,o,0,0' drel='ras-k1:karegA2' posn='180' name='osiyanagrAPI' chunkId='NP6' chunkType='head:NP6'>
19	(	SYM	<fs af=',punc,,,,,,' posn='190' drel='rsym:enaAIo' chunkType='child:NP7' name='('>
20	enaAIo	NNP	<fs af='enaAIo,n,m,sg,3,o,0,0' drel='rs:osiyanagrAPI' posn='200' name='enaAIo' chunkId='NP7' chunkType='head:NP7'>
21	)	SYM	<fs af=',punc,,,,,,' posn='210' drel='rsym:enaAIo' chunkType='child:NP7' name=')'>
22	ke	PSP	<fs af='ke,psp,,,,,,' posn='220' drel='mod:sAWa' chunkType='child:FRAGP' name='ke3'>
23	sAWa	NST	<fs drel='fragof:osiyanagrAPI' name='sAWa' chunkId='FRAGP' chunkType='head:FRAGP'>
24	wAlamela	NN	<fs af='wAlamela,n,f,sg,3,d,0,0' drel='pof:karegA2' posn='240' name='wAlamela' chunkId='NP8' chunkType='head:NP8'>
25	karegA	VM	<fs af='kara,v,m,sg,3,,gA,gA' drel='ccof:Ora' stype='declarative' posn='250' voicetype='active' name='karegA2' chunkId='VGF2' chunkType='head:VGF2'>
26	.	SYM	<fs af='.,punc,,,,,,' drel='rsym:Ora' posn='260' name='.' chunkId='BLK' chunkType='head:BLK'>
</Sentence>


<Sentence id="15">
1	nAga	NNP	<fs af='nAga,n,m,sg,3,o,0_ne,0' drel='k1:bawAyA' posn='10' vpos='vib_2' name='nAga' chunkId='NP' chunkType='head:NP'>
2	ne	PSP	<fs af='ne,psp,,,,,,' posn='20' drel='lwg__psp:nAga' chunkType='child:NP' name='ne'>
3	bawAyA	VM	<fs af='bawA,v,m,sg,any,,yA,yA' stype='declarative' posn='30' voicetype='active' name='bawAyA' chunkId='VGF' chunkType='head:VGF'>
4	ki	CC	<fs af='ki,avy,,,,,,' drel='k2:bawAyA' posn='40' name='ki' chunkId='CCP' chunkType='head:CCP'>
5	NULL	PRP	<fs mtype='gap' troot='jahAz' dmrel='sent-adv:karegA' coref=':RBP' name='NULL' chunkId='NULL__NP' chunkType='head:NULL__NP'>
6	unakA	PRP	<fs af='vaha,pn,m,sg,3h,o,kA,kA' drel='r6:xala' posn='50' name='unakA' chunkId='NP2' chunkType='head:NP2'>
7	xala	NN	<fs af='xala,n,m,sg,3,d,0,0' drel='k1:karegA' posn='60' name='xala' chunkId='NP3' chunkType='head:NP3'>
8	jamIna	NN	<fs af='jamIna,n,f,sg,3,o,0_kA,0' drel='r6-k2:sarve' posn='70' vpos='vib_2' name='jamIna' chunkId='NP4' chunkType='head:NP4'>
9	kA	PSP	<fs af='kA,psp,m,sg,,d,,' posn='80' drel='lwg__psp:jamIna' chunkType='child:NP4' name='kA'>
10	sarve	NN	<fs af='sarve,n,m,sg,3,d,0,0' drel='pof:karegA' posn='90' name='sarve' chunkId='NP5' chunkType='head:NP5'>
11	karegA	VM	<fs af='kara,v,m,sg,3,,gA,gA' drel='rbmod__relc:vahIM' stype='declarative' posn='100' voicetype='active' name='karegA' chunkId='VGF2' chunkType='head:VGF2'>
12	vahIM	RB	<fs af='vahIM,adv,,,,,,' drel='sent-adv:karegI' posn='110' name='vahIM' chunkId='RBP' chunkType='head:RBP'>
13	enaAIo	NNP	<fs af='enaAIo,n,m,sg,3,o,0_kA,0' drel='r6:tIma' posn='120' vpos='vib_2' name='enaAIo' chunkId='NP6' chunkType='head:NP6'>
14	kI	PSP	<fs af='kA,psp,f,sg,,d,,' posn='130' drel='lwg__psp:enaAIo' chunkType='child:NP6' name='kI'>
15	tIma	NN	<fs af='tIma,n,f,sg,3,d,0,0' drel='k1:karegI' posn='140' name='tIma' chunkId='NP7' chunkType='head:NP7'>
16	samuxra	NN	<fs af='samuxra,n,m,sg,3,o,0_kA,0' drel='r6-k2:sarve2' posn='150' vpos='vib_2' name='samuxra' chunkId='NP8' chunkType='head:NP8'>
17	kA	PSP	<fs af='kA,psp,m,sg,,d,,' posn='160' drel='lwg__psp:samuxra' chunkType='child:NP8' name='kA2'>
18	sarve	NN	<fs af='sarve,n,m,sg,3,d,0,0' drel='pof:kara' posn='170' name='sarve2' chunkId='NP9' chunkType='head:NP9'>
19	kara	VM	<fs af='kara,v,any,any,any,,0,0' drel='vmod:karegI' posn='180' name='kara' chunkId='VGNF' chunkType='head:VGNF'>
20	sI	NNC	<fs af='sI,n,m,sg,3,d,0,0' posn='190' drel='pof__cn:beda' chunkType='child:NP10' name='sI'>
21	-	SYM	<fs af='-,punc,,,,,,' posn='200' drel='pof__cn:beda' chunkType='child:NP10' name='-'>
22	beda	NN	<fs af='beda,n,m,sg,3,o,0_meM,0' drel='k7p:karegI' posn='210' vpos='vib_4' name='beda' chunkId='NP10' chunkType='head:NP10'>
23	meM	PSP	<fs af='meM,psp,,,,,,' posn='220' drel='lwg__psp:beda' chunkType='child:NP10' name='meM'>
24	laharoM	NN	<fs af='lahara,n,f,pl,3,o,0_kA,0' drel='r6:sWirawA' posn='230' vpos='vib_2' name='laharoM' chunkId='NP11' chunkType='head:NP11'>
25	kI	PSP	<fs af='kA,psp,f,sg,,o,,' posn='240' drel='lwg__psp:laharoM' chunkType='child:NP11' name='kI2'>
26	sWirawA	NN	<fs af='sWirawA,n,f,sg,3,o,0,0' drel='ccof:Ora' posn='250' name='sWirawA' chunkId='NP12' chunkType='head:NP12'>
27	Ora	CC	<fs af='Ora,avy,,,,,,' drel='r6-k2:aXyayana' posn='260' name='Ora' chunkId='CCP2' chunkType='head:CCP2'>
28	xiSA	NN	<fs af='xiSA,n,f,sg,3,o,0_kA,0' drel='ccof:Ora' posn='270' vpos='vib_2' name='xiSA' chunkId='NP13' chunkType='head:NP13'>
29	kA	PSP	<fs af='kA,psp,m,sg,,d,,' posn='280' drel='lwg__psp:xiSA' chunkType='child:NP13' name='kA3'>
30	aXyayana	NN	<fs af='aXyayana,n,m,sg,3,d,0,0' drel='pof:karegI' posn='290' name='aXyayana' chunkId='NP14' chunkType='head:NP14'>
31	karegI	VM	<fs af='kara,v,f,sg,3,,gA,gA' drel='ccof:ki' stype='declarative' posn='300' voicetype='active' name='karegI' chunkId='VGF3' chunkType='head:VGF3'>
32	.	SYM	<fs af='.,punc,,,,,,' drel='rsym:bawAyA' posn='310' name='.' chunkId='BLK' chunkType='head:BLK'>
</Sentence>


<Sentence id="16">
1	isa	DEM	<fs af='yaha,pn,any,sg,3,o,,' drel='k7t:kahA' posn='10' name='isa' chunkId='NP' chunkType='head:NP'>
2	bIca	NST	<fs af='bIca,nst,m,sg,3,d,,' posn='20' drel='lwg__psp:isa' chunkType='child:NP' name='bIca'>
3	,	SYM	<fs af='COMMA,punc,,,,,,' posn='30' drel='rsym:isa' chunkType='child:NP' name=','>
4	porta	NNPC	<fs af='porta,n,m,sg,3,d,0,0' posn='40' drel='pof__cn:bleyara' chunkType='child:NP2' name='porta'>
5	bleyara	NNP	<fs af='bleyara,n,m,sg,3,o,0_meM,0' drel='k7p:kahA' posn='50' vpos='vib_3' name='bleyara' chunkId='NP2' chunkType='head:NP2'>
6	meM	PSP	<fs af='meM,psp,,,,,,' posn='60' drel='lwg__psp:bleyara' chunkType='child:NP2' name='meM'>
7	viyenA	NNP	<fs af='viyenA,n,m,sg,3,o,0_kA,0' drel='r6:ikolajI' posn='70' vpos='vib_2' name='viyenA' chunkId='NP3' chunkType='head:NP3'>
8	kI	PSP	<fs af='kA,psp,f,sg,,o,,' posn='80' drel='lwg__psp:viyenA' chunkType='child:NP3' name='kI'>
9	yUnivarsitI	NNPC	<fs af='yUnivarsitI,n,f,sg,3,d,0,0' posn='90' drel='pof__cn:ikolajI' chunkType='child:NP4' name='yUnivarsitI'>
10	OYPa	NNPC	<fs af='OYPa,unk,,,,,,' posn='100' drel='pof__cn:ikolajI' chunkType='child:NP4' name='OYPa'>
11	soSala	NNPC	<fs af='soSala,n,m,sg,3,d,0,0' posn='110' drel='pof__cn:ikolajI' chunkType='child:NP4' name='soSala'>
12	ikolajI	NNP	<fs af='ikolajI,n,f,sg,3,o,0_kA,0' drel='r6:vEjFAnika' posn='120' vpos='vib_5' name='ikolajI' chunkId='NP4' chunkType='head:NP4'>
13	ke	PSP	<fs af='kA,psp,m,sg,,o,,' posn='130' drel='lwg__psp:ikolajI' chunkType='child:NP4' name='ke'>
14	vEjFAnika	NN	<fs af='vEjFAnika,n,m,sg,3,o,0,0' drel='nmod:siMha' posn='140' name='vEjFAnika' chunkId='NP5' chunkType='head:NP5'>
15	dOY.	NNC	<fs af='dOY.,n,m,sg,3,d,0,0' posn='150' drel='pof__cn:simaranajIwa' chunkType='child:NP6' name='dOY.'>
16	simaranajIwa	NNPC	<fs af='simaranajIwa,n,m,sg,3,d,0,0' posn='160' drel='pof__cn:siMha' chunkType='child:NP6' name='simaranajIwa'>
17	siMha	NNP	<fs af='siMha,n,m,sg,3,o,0_ne,0' drel='k1:kahA' posn='170' vpos='vib_4' name='siMha' chunkId='NP6' chunkType='head:NP6'>
18	ne	PSP	<fs af='ne,psp,,,,,,' posn='180' drel='lwg__psp:siMha' chunkType='child:NP6' name='ne'>
19	kahA	VM	<fs af='kaha,v,m,sg,any,,yA,yA' stype='declarative' posn='190' voicetype='active' name='kahA' chunkId='VGF' chunkType='head:VGF'>
20	ki	CC	<fs af='ki,avy,,,,,,' drel='k2:kahA' posn='200' name='ki' chunkId='CCP' chunkType='head:CCP'>
21	sunAmI	NNP	<fs af='sunAmI,n,f,sg,3,o,0_se,0' drel='rh:ho' posn='210' vpos='vib_2' name='sunAmI' chunkId='NP7' chunkType='head:NP7'>
22	se	PSP	<fs af='se,psp,,,,,,' posn='220' drel='lwg__psp:sunAmI' chunkType='child:NP7' name='se'>
23	aMdamAna	NNPC	<fs af='aMdamAna,n,m,sg,3,d,0,0' posn='230' drel='pof__cn:nikobAra' chunkType='child:NP8' name='aMdamAna'>
24	nikobAra	NNP	<fs af='nikobAra,n,m,sg,3,o,0_kA,0' drel='r6:xvIpoM' posn='240' vpos='vib_3' name='nikobAra' chunkId='NP8' chunkType='head:NP8'>
25	ke	PSP	<fs af='kA,psp,m,sg,,o,,' posn='250' drel='lwg__psp:nikobAra' chunkType='child:NP8' name='ke2'>
26	xvIpoM	NN	<fs af='xvIpa,n,m,pl,3,o,0_kA,0' drel='r6:jaMwuoM' posn='260' vpos='vib_2' name='xvIpoM' chunkId='NP9' chunkType='head:NP9'>
27	ke	PSP	<fs af='kA,psp,m,sg,,o,,' posn='270' drel='lwg__psp:xvIpoM' chunkType='child:NP9' name='ke3'>
28	jIva	NNC	<fs af='jIva,n,m,pl,3,d,0,0' posn='280' drel='pof__cn:jaMwuoM' chunkType='child:NP10' name='jIva'>
29	jaMwuoM	NN	<fs af='jaMwu,n,m,pl,3,o,0,0' drel='ccof:Ora' posn='290' name='jaMwuoM' chunkId='NP10' chunkType='head:NP10'>
30	Ora	CC	<fs af='Ora,avy,,,,,,' drel='k4a:ho' posn='300' name='Ora' chunkId='CCP2' chunkType='head:CCP2'>
31	vanaspawi	NN	<fs af='vanaspawi,n,f,sg,3,o,0_ko,0' drel='ccof:Ora' posn='310' vpos='vib_2_RP' name='vanaspawi' chunkId='NP11' chunkType='head:NP11'>
32	ko	PSP	<fs af='ko,psp,,,,,,' posn='320' drel='lwg__psp:vanaspawi' chunkType='child:NP11' name='ko'>
33	BI	RP	<fs af='BI,avy,,,,,,' posn='330' drel='lwg__rp:vanaspawi' chunkType='child:NP11' name='BI'>
34	BArI	JJ	<fs af='BArI,adj,any,any,,d,,' posn='340' drel='nmod__adj:nukasAna' chunkType='child:NP12' name='BArI'>
35	nukasAna	NN	<fs af='nukasAna,n,m,sg,3,d,0,0' drel='pof:ho' posn='350' name='nukasAna' chunkId='NP12' chunkType='head:NP12'>
36	ho	VM	<fs af='ho,v,m,sg,3,,0_saka+wA_hE,0' drel='ccof:ki' stype='declarative' posn='360' voicetype='active' vpos='tam_2_3' name='ho' chunkId='VGF2' chunkType='head:VGF2'>
37	sakawA	VAUX	<fs af='saka,v,m,sg,any,,wA,wA' posn='370' drel='lwg__vaux:ho' chunkType='child:VGF2' name='sakawA'>
38	hE	VAUX	<fs af='hE,v,any,sg,3,,hE,hE' posn='380' drel='lwg__vaux:ho' chunkType='child:VGF2' name='hE'>
39	.	SYM	<fs af='.,punc,,,,,,' drel='rsym:kahA' posn='390' name='.' chunkId='BLK' chunkType='head:BLK'>
</Sentence>


<Sentence id="17">
1	hAlAMki	CC	<fs af='hAlAMki,avy,,,,,,' posn='10' name='hAlAMki' chunkId='CCP' chunkType='head:CCP'>
2	isa	PRP	<fs af='yaha,pn,any,sg,3,o,0_bAre_meM,' drel='k7:kahanA' posn='20' vpos='vib_2_3' name='isa' chunkId='NP' chunkType='head:NP'>
3	bAre	PSP	<fs af='bAre,psp,,,,,,' posn='30' drel='lwg__psp:isa' chunkType='child:NP' name='bAre'>
4	meM	PSP	<fs af='meM,psp,,,,,,' posn='40' drel='lwg__psp:isa' chunkType='child:NP' name='meM'>
5	aBI	PRP	<fs af='aBI,pn,,,,,,' drel='k2:kahanA' posn='50' name='aBI' chunkId='NP2' chunkType='head:NP2'>
6	kuCa	QF	<fs af='kuCa,avy,,,,,,' posn='60' drel='nmod__adj:aBI' chunkType='child:NP2' name='kuCa'>
7	BI	RP	<fs af='BI,avy,,,,,,' posn='70' drel='lwg__rp:aBI' chunkType='child:NP2' name='BI'>
8	kahanA	VM	<fs af='kaha,v,any,any,any,d,nA,nA' drel='k1:hogI' posn='80' name='kahanA' chunkId='VGNN' chunkType='head:VGNN'>
9	jalxabAjI	NN	<fs af='jalxabAjI,n,f,sg,3,d,0,0' drel='k1s:hogI' posn='90' name='jalxabAjI' chunkId='NP3' chunkType='head:NP3'>
10	hogI	VM	<fs af='ho,v,f,sg,3,,gA,gA' drel='ccof:hAlAMki' stype='declarative' posn='100' voicetype='active' name='hogI' chunkId='VGF' chunkType='head:VGF'>
11	.	SYM	<fs af='.,punc,,,,,,' drel='rsym:hAlAMki' posn='110' name='.' chunkId='BLK' chunkType='head:BLK'>
</Sentence>


<Sentence id="18">
1	unhoMne	PRP	<fs af='vaha,pn,any,sg,3h,o,ne,ne' drel='k1:kahA' posn='10' name='unhoMne' chunkId='NP' chunkType='head:NP'>
2	kahA	VM	<fs af='kaha,v,m,sg,any,,yA,yA' stype='declarative' posn='20' voicetype='active' name='kahA' chunkId='VGF' chunkType='head:VGF'>
3	ki	CC	<fs af='ki,avy,,,,,,' drel='k2:kahA' posn='30' name='ki' chunkId='CCP' chunkType='head:CCP'>
4	hamArA	PRP	<fs af='hama,pn,m,pl,1,o,kA,kA' drel='r6:AMkalana' posn='40' name='hamArA' chunkId='NP2' chunkType='head:NP2'>
5	prAraMBika	JJ	<fs af='prAraMBika,adj,any,any,,d,,' posn='50' drel='nmod__adj:AMkalana' chunkType='child:NP3' name='prAraMBika'>
6	AMkalana	NN	<fs af='AMkalana,n,m,sg,3,d,0,0' drel='k1:hE' posn='60' name='AMkalana' chunkId='NP3' chunkType='head:NP3'>
7	hE	VM	<fs af='hE,v,any,sg,3,,hE,hE' drel='ccof:ki' stype='declarative' posn='70' voicetype='active' name='hE' chunkId='VGF2' chunkType='head:VGF2'>
8	ki	CC	<fs af='ki,avy,,,,,,' drel='rs:AMkalana' posn='80' name='ki2' chunkId='CCP2' chunkType='head:CCP2'>
9	xAnavI	JJ	<fs af='xAnavI,adj,any,any,,o,,' posn='90' drel='nmod__adj:laharoM' chunkType='child:NP4' name='xAnavI'>
10	laharoM	NN	<fs af='lahara,n,f,pl,3,o,0_ke_kAraNa,0' drel='rh:ho' posn='100' vpos='vib_3_4' name='laharoM' chunkId='NP4' chunkType='head:NP4'>
11	ke	PSP	<fs af='ke,psp,m,,,o,,' posn='110' drel='lwg__psp:laharoM' chunkType='child:NP4' name='ke'>
12	kAraNa	PSP	<fs af='kAraNa,n,m,,,o,,' posn='120' drel='lwg__psp:laharoM' chunkType='child:NP4' name='kAraNa'>
13	aMdamAna	NNP	<fs af='aMdamAna,n,m,sg,3,o,0_kA,0' drel='r6:wata' posn='130' vpos='vib_2' name='aMdamAna' chunkId='NP5' chunkType='head:NP5'>
14	ke	PSP	<fs af='kA,psp,m,sg,,o,,' posn='140' drel='lwg__psp:aMdamAna' chunkType='child:NP5' name='ke2'>
15	paScimI	JJ	<fs af='paScimI,adj,any,any,,o,,' posn='150' drel='nmod__adj:wata' chunkType='child:NP6' name='paScimI'>
16	wata	NN	<fs af='wata,n,m,sg,3,o,0_para,0' drel='k7p:ho' posn='160' vpos='vib_3' name='wata' chunkId='NP6' chunkType='head:NP6'>
17	para	PSP	<fs af='para,psp,,,,,,' posn='170' drel='lwg__psp:wata' chunkType='child:NP6' name='para'>
18	watIya	JJ	<fs af='watIya,adj,any,any,,d,,' posn='180' drel='nmod__adj:vanaspawi' chunkType='child:NP7' name='watIya'>
19	vanaspawi	NN	<fs af='vanaspawi,n,f,sg,3,d,0,0' drel='k1:ho' posn='190' name='vanaspawi' chunkId='NP7' chunkType='head:NP7'>
20	pUrI	JJ	<fs af='pUrA,adj,f,sg,,o,,' posn='200' drel='nmod__adj:waraha' chunkType='child:NP8' name='pUrI'>
21	waraha	NN	<fs af='waraha,n,f,sg,3,d,0,0' drel='adv:ho' posn='210' name='waraha' chunkId='NP8' chunkType='head:NP8'>
22	barbAxa	JJ	<fs af='barbAxa,adj,any,any,,,,' drel='pof:ho' posn='220' name='barbAxa' chunkId='JJP' chunkType='head:JJP'>
23	ho	VM	<fs af='ho,v,any,sg,any,,0_jA+yA1,0' drel='ccof:ki2' stype='declarative' posn='230' voicetype='active' vpos='tam_2' name='ho' chunkId='VGF3' chunkType='head:VGF3'>
24	gaI	VAUX	<fs af='jA,v,f,sg,any,,yA1,yA1' posn='240' drel='lwg__vaux:ho' chunkType='child:VGF3' name='gaI'>
25	.	SYM	<fs af='.,punc,,,,,,' drel='rsym:kahA' posn='250' name='.' chunkId='BLK' chunkType='head:BLK'>
</Sentence>


<Sentence id="19">
1	isake	PRP	<fs af='yaha,pn,m,sg,3,o,0_alAvA,ke' drel='vmod:huA' posn='10' vpos='vib_2' name='isake' chunkId='NP' chunkType='head:NP'>
2	alAvA	PSP	<fs af='alAvA,psp,,,,,,' posn='20' drel='lwg__psp:isake' chunkType='child:NP' name='alAvA'>
3	mUMge	NN	<fs af='mUMgA,n,m,sg,3,o,0_kA,0' drel='r6:cattAnoM' posn='30' vpos='vib_2' name='mUMge' chunkId='NP2' chunkType='head:NP2'>
4	kI	PSP	<fs af='kA,psp,f,sg,,o,,' posn='40' drel='lwg__psp:mUMge' chunkType='child:NP2' name='kI'>
5	cattAnoM	NN	<fs af='cattAna,n,f,pl,3,o,0_ko,0' drel='k4a:huA' posn='50' vpos='vib_2_RP' name='cattAnoM' chunkId='NP3' chunkType='head:NP3'>
6	ko	PSP	<fs af='ko,psp,,,,,,' posn='60' drel='lwg__psp:cattAnoM' chunkType='child:NP3' name='ko'>
7	BI	RP	<fs af='BI,avy,,,,,,' posn='70' drel='lwg__rp:cattAnoM' chunkType='child:NP3' name='BI'>
8	nukasAna	NN	<fs af='nukasAna,n,m,sg,3,d,0,0' drel='pof:huA' posn='80' name='nukasAna' chunkId='NP4' chunkType='head:NP4'>
9	huA	VM	<fs af='ho,v,m,sg,3,,yA_hE,yA' stype='declarative' posn='90' voicetype='active' vpos='tam_2' name='huA' chunkId='VGF' chunkType='head:VGF'>
10	hE	VAUX	<fs af='hE,v,any,sg,3,,hE,hE' posn='100' drel='lwg__vaux:huA' chunkType='child:VGF' name='hE'>
11	.	SYM	<fs af='.,punc,,,,,,' drel='rsym:huA' posn='110' name='.' chunkId='BLK' chunkType='head:BLK'>
</Sentence>


<Sentence id="20">
1	lekina	CC	<fs af='lekina,avy,,,,,,' posn='10' name='lekina' chunkId='CCP' chunkType='head:CCP'>
2	,	SYM	<fs af='COMMA,punc,,,,,,' posn='20' drel='rsym:lekina' chunkType='child:CCP' name=','>
3	hameM	PRP	<fs af='hama,pn,any,pl,1,o,ko,ko' drel='k4a:hE' posn='30' name='hameM' chunkId='NP' chunkType='head:NP'>
4	isase	PRP	<fs af='yaha,pn,any,sg,3,o,se,se' drel='k1u:hE' posn='40' name='isase' chunkId='NP2' chunkType='head:NP2'>
5	BI	RP	<fs af='BI,avy,,,,,,' posn='50' drel='lwg__rp:isase' chunkType='child:NP2' name='BI'>
6	badZA	JJ	<fs af='badZA,adj,m,sg,,d,,' posn='60' drel='nmod__adj:aMxeSA' chunkType='child:NP3' name='badZA'>
7	aMxeSA	NN	<fs af='aMxeSA,n,m,sg,3,d,0,0' drel='k1:hE' posn='70' name='aMxeSA' chunkId='NP3' chunkType='head:NP3'>
8	watIya	JJ	<fs af='watIya,adj,any,any,,o,,' posn='80' drel='nmod__adj:ilAkoM' chunkType='child:NP4' name='watIya'>
9	ilAkoM	NN	<fs af='ilAkA,n,m,pl,3,o,0_kA,0' drel='r6:uvarrawA' posn='90' vpos='vib_3' name='ilAkoM' chunkId='NP4' chunkType='head:NP4'>
10	kI	PSP	<fs af='kA,psp,f,sg,,o,,' posn='100' drel='lwg__psp:ilAkoM' chunkType='child:NP4' name='kI'>
11	uvarrawA	NN	<fs af='uvarrawA,n,f,sg,3,o,0_ko,0' drel='k2:lekara' posn='110' vpos='vib_2' name='uvarrawA' chunkId='NP5' chunkType='head:NP5'>
12	ko	PSP	<fs af='ko,psp,,,,,,' posn='120' drel='lwg__psp:uvarrawA' chunkType='child:NP5' name='ko'>
13	lekara	VM	<fs af='le,v,any,any,any,,kara,kara' drel='vmod:hE' posn='130' name='lekara' chunkId='VGNF' chunkType='head:VGNF'>
14	hE	VM	<fs af='hE,v,any,sg,3,,hE,hE' drel='ccof:lekina' stype='declarative' posn='140' voicetype='active' name='hE' chunkId='VGF' chunkType='head:VGF'>
15	.	SYM	<fs af='.,punc,,,,,,' drel='rsym:lekina' posn='150' name='.' chunkId='BLK' chunkType='head:BLK'>
</Sentence>


<Sentence id="21">
1	hameM	PRP	<fs af='hama,pn,any,pl,1,o,ko,ko' drel='k4a:lagawA' posn='10' name='hameM' chunkId='NP' chunkType='head:NP'>
2	NULL	PRP	<fs mtype='gap' troot='yaha' dmrel='k1:lagawA' name='NULL' chunkId='NULL__NP' chunkType='head:NULL__NP'>
3	lagawA	VM	<fs af='laga,v,m,sg,3,,wA_hE,wA' stype='declarative' posn='20' voicetype='active' vpos='tam_2' name='lagawA' chunkId='VGF' chunkType='head:VGF'>
4	hE	VAUX	<fs af='hE,v,any,sg,3,,hE,hE' posn='30' drel='lwg__vaux:lagawA' chunkType='child:VGF' name='hE'>
5	ki	CC	<fs af='ki,avy,,,,,,' drel='rs:NULL' posn='40' name='ki' chunkId='CCP' chunkType='head:CCP'>
6	watIya	JJ	<fs af='watIya,adj,any,any,,o,,' posn='50' drel='nmod__adj:ilAkoM' chunkType='child:NP2' name='watIya'>
7	ilAkoM	NN	<fs af='ilAkA,n,m,pl,3,o,0_kA,0' drel='r6:mittI' posn='60' vpos='vib_3' name='ilAkoM' chunkId='NP2' chunkType='head:NP2'>
8	kI	PSP	<fs af='kA,psp,f,sg,,o,,' posn='70' drel='lwg__psp:ilAkoM' chunkType='child:NP2' name='kI'>
9	mittI	NN	<fs af='mittI,n,f,sg,3,o,0_ko,0' drel='k4a:huA' posn='80' vpos='vib_2' name='mittI' chunkId='NP3' chunkType='head:NP3'>
10	ko	PSP	<fs af='ko,psp,,,,,,' posn='90' drel='lwg__psp:mittI' chunkType='child:NP3' name='ko'>
11	samuxra	NN	<fs af='samuxra,n,m,sg,3,o,0_kA,0' drel='r6:pAnI' posn='100' vpos='vib_2' name='samuxra' chunkId='NP4' chunkType='head:NP4'>
12	ke	PSP	<fs af='kA,psp,m,sg,,o,,' posn='110' drel='lwg__psp:samuxra' chunkType='child:NP4' name='ke'>
13	KAre	JJ	<fs af='KArA,adj,m,sg,,o,,' posn='120' drel='nmod__adj:pAnI' chunkType='child:NP5' name='KAre'>
14	pAnI	NN	<fs af='pAnI,n,m,sg,3,o,0_se,0' drel='rh:huA' posn='130' vpos='vib_3' name='pAnI' chunkId='NP5' chunkType='head:NP5'>
15	se	PSP	<fs af='se,psp,,,,,,' posn='140' drel='lwg__psp:pAnI' chunkType='child:NP5' name='se'>
16	BArI	JJ	<fs af='BArI,adj,any,any,,d,,' posn='150' drel='nmod__adj:nukasAna' chunkType='child:NP6' name='BArI'>
17	nukasAna	NN	<fs af='nukasAna,n,m,sg,3,d,0,0' drel='pof:huA' posn='160' name='nukasAna' chunkId='NP6' chunkType='head:NP6'>
18	huA	VM	<fs af='ho,v,m,sg,3,,yA_hE,yA' drel='ccof:Ora' stype='declarative' posn='170' voicetype='active' vpos='tam_2' name='huA' chunkId='VGF2' chunkType='head:VGF2'>
19	hE	VAUX	<fs af='hE,v,any,sg,3,,hE,hE' posn='180' drel='lwg__vaux:huA' chunkType='child:VGF2' name='hE2'>
20	Ora	CC	<fs af='Ora,avy,,,,,,' drel='ccof:ki' posn='190' name='Ora' chunkId='CCP2' chunkType='head:CCP2'>
21	isa	DEM	<fs af='yaha,pn,any,sg,3,o,,' posn='200' drel='nmod__adj:vajaha' chunkType='child:NP7' name='isa'>
22	vajaha	NN	<fs af='vajaha,n,f,sg,3,o,0_se,0' drel='rh:honA' posn='210' vpos='vib_3' name='vajaha' chunkId='NP7' chunkType='head:NP7'>
23	se	PSP	<fs af='se,psp,,,,,,' posn='220' drel='lwg__psp:vajaha' chunkType='child:NP7' name='se2'>
24	yahAM	PRP	<fs af='yahAz,pn,,,,,,' drel='k7p:honA' posn='230' name='yahAM' chunkId='NP8' chunkType='head:NP8'>
25	xobArA	RB	<fs af='xobArA,adv,,,,,,' drel='adv:honA' posn='240' name='xobArA' chunkId='RBP' chunkType='head:RBP'>
26	vanaspawi	NN	<fs af='vanaspawi,n,f,sg,3,d,0,0' drel='k1:honA' posn='250' name='vanaspawi' chunkId='NP9' chunkType='head:NP9'>
27	pExA	JJ	<fs af='pExA,adj,any,any,,,,' drel='pof:honA' posn='260' name='pExA' chunkId='JJP' chunkType='head:JJP'>
28	honA	VM	<fs af='ho,v,any,any,any,d,nA,nA' drel='k1:hE3' posn='270' name='honA' chunkId='VGNN' chunkType='head:VGNN'>
29	muSkila	JJ	<fs af='muSkila,adj,any,any,,,,' drel='k1s:hE3' posn='280' name='muSkila' chunkId='JJP2' chunkType='head:JJP2'>
30	hE	VM	<fs af='hE,v,any,sg,3,,hE,hE' drel='ccof:Ora' stype='declarative' posn='290' voicetype='active' name='hE3' chunkId='VGF3' chunkType='head:VGF3'>
31	.	SYM	<fs af='.,punc,,,,,,' drel='rsym:lagawA' posn='300' name='.' chunkId='BLK' chunkType='head:BLK'>
</Sentence>


<Sentence id="22">
1	sosAyatI	NNPC	<fs af='sosAyatI,n,f,sg,3,d,0,0' posn='10' drel='pof__cn:ikolOYjI' chunkType='child:NP' name='sosAyatI'>
2	POYra	NNPC	<fs af='POYra,unk,,,,,,' posn='20' drel='pof__cn:ikolOYjI' chunkType='child:NP' name='POYra'>
3	aMdamAna	NNPC	<fs af='aMdamAna,n,m,sg,3,d,0,0' posn='30' drel='pof__cn:ikolOYjI' chunkType='child:NP' name='aMdamAna'>
4	nikobAra	NNPC	<fs af='nikobAra,n,m,sg,3,d,0,0' posn='40' drel='pof__cn:ikolOYjI' chunkType='child:NP' name='nikobAra'>
5	ikolOYjI	NNP	<fs af='ikolOYjI,n,f,sg,3,d,0,0' posn='50' drel='nmod__adj:sekretrI' chunkType='child:NP' name='ikolOYjI'>
6	sekretrI	NN	<fs af='sekretrI,n,m,sg,3,d,0,0' drel='nmod:AcArya' posn='60' name='sekretrI' chunkId='NP' chunkType='head:NP'>
7	samIra	NNPC	<fs af='samIra,n,m,sg,3,d,0,0' posn='70' drel='pof__cn:AcArya' chunkType='child:NP2' name='samIra'>
8	AcArya	NNP	<fs af='AcArya,n,m,sg,3,d,0,0' drel='k1:raKawe' posn='80' name='AcArya' chunkId='NP2' chunkType='head:NP2'>
9	BI	RP	<fs af='BI,avy,,,,,,' posn='90' drel='lwg__rp:AcArya' chunkType='child:NP2' name='BI'>
10	dOY.	NNC	<fs af='dOY.,n,m,sg,3,d,0,0' posn='100' drel='pof__cn:simaranajIwa' chunkType='child:NP3' name='dOY.'>
11	simaranajIwa	NNPC	<fs af='simaranajIwa,n,m,sg,3,d,0,0' posn='110' drel='pof__cn:siMha' chunkType='child:NP3' name='simaranajIwa'>
12	siMha	NNP	<fs af='siMha,n,m,sg,3,o,0_kA,0' drel='r6:ciMwAoM' posn='120' vpos='vib_4' name='siMha' chunkId='NP3' chunkType='head:NP3'>
13	kI	PSP	<fs af='kA,psp,f,pl,,o,,' posn='130' drel='lwg__psp:siMha' chunkType='child:NP3' name='kI'>
14	ciMwAoM	NN	<fs af='ciMwA,n,f,pl,3,o,0_se,0' drel='ras-k1:raKawe' posn='140' vpos='vib_2' name='ciMwAoM' chunkId='NP4' chunkType='head:NP4'>
15	se	PSP	<fs af='se,psp,,,,,,' posn='150' drel='lwg__psp:ciMwAoM' chunkType='child:NP4' name='se'>
16	iwwaPAka	NN	<fs af='iwwaPAka,n,m,sg,3,d,0,0' drel='pof:raKawe' posn='160' name='iwwaPAka' chunkId='NP5' chunkType='head:NP5'>
17	raKawe	VM	<fs af='raKa,v,m,sg,3h,,wA_hE,wA' stype='declarative' posn='170' voicetype='active' vpos='tam_2' name='raKawe' chunkId='VGF' chunkType='head:VGF'>
18	hEM	VAUX	<fs af='hE,v,any,sg,3h,,hE,hE' posn='180' drel='lwg__vaux:raKawe' chunkType='child:VGF' name='hEM'>
19	.	SYM	<fs af='.,punc,,,,,,' drel='rsym:raKawe' posn='190' name='.' chunkId='BLK' chunkType='head:BLK'>
</Sentence>


<Sentence id="23">
1	unhoMne	PRP	<fs af='vaha,pn,any,sg,3h,o,ne,ne' drel='k1:kahA' posn='10' name='unhoMne' chunkId='NP' chunkType='head:NP'>
2	kahA	VM	<fs af='kaha,v,m,sg,any,,yA,yA' stype='declarative' posn='20' voicetype='active' name='kahA' chunkId='VGF' chunkType='head:VGF'>
3	ki	CC	<fs af='ki,avy,,,,,,' drel='k2:kahA' posn='30' name='ki' chunkId='CCP' chunkType='head:CCP'>
4	yaxi	CC	<fs af='yaxi,avy,,,,,,' drel='vmod:ho' posn='40' name='yaxi' chunkId='CCP2' chunkType='head:CCP2'>
5	samuxrI	JJ	<fs af='samuxrI,adj,any,any,,d,,' posn='50' drel='nmod__adj:pAnI' chunkType='child:NP2' name='samuxrI'>
6	pAnI	NN	<fs af='pAnI,n,m,sg,3,d,0,0' drel='k1:Gusa' posn='60' name='pAnI' chunkId='NP2' chunkType='head:NP2'>
7	gahare	NN	<fs af='gaharA,n,m,sg,3,o,0_waka,0' drel='k7:Gusa' posn='70' vpos='vib_2' name='gahare' chunkId='NP3' chunkType='head:NP3'>
8	waka	PSP	<fs af='waka,psp,,,,,,' posn='80' drel='lwg__psp:gahare' chunkType='child:NP3' name='waka'>
9	watoM	NN	<fs af='wata,n,m,pl,3,o,0_kA,0' drel='r6:mittI' posn='90' vpos='vib_2' name='watoM' chunkId='NP4' chunkType='head:NP4'>
10	kI	PSP	<fs af='kA,psp,f,sg,,o,,' posn='100' drel='lwg__psp:watoM' chunkType='child:NP4' name='kI'>
11	mittI	NN	<fs af='mittI,n,f,sg,3,o,0_meM,0' drel='k7p:Gusa' posn='110' vpos='vib_2' name='mittI' chunkId='NP5' chunkType='head:NP5'>
12	meM	PSP	<fs af='meM,psp,,,,,,' posn='120' drel='lwg__psp:mittI' chunkType='child:NP5' name='meM'>
13	Gusa	VM	<fs af='Gusa,v,m,sg,3,,0_jA+yA1_ho+gA,0' drel='ccof:yaxi' stype='declarative' posn='130' voicetype='active' vpos='tam_2_3' name='Gusa' chunkId='VGF2' chunkType='head:VGF2'>
14	gayA	VAUX	<fs af='jA,v,m,sg,any,,yA1,yA1' posn='140' drel='lwg__vaux:Gusa' chunkType='child:VGF2' name='gayA'>
15	hogA	VAUX	<fs af='ho,v,m,sg,3,,gA,gA' posn='150' drel='lwg__vaux:Gusa' chunkType='child:VGF2' name='hogA'>
16	wo	CC	<fs af='wo,avy,,,,,,' drel='ccof:ki' posn='160' name='wo' chunkId='CCP3' chunkType='head:CCP3'>
17	vAkaI	RB	<fs af='vAkaI,adv,,,,,,' drel='adv:ho' posn='170' name='vAkaI' chunkId='RBP' chunkType='head:RBP'>
18	isase	PRP	<fs af='yaha,pn,any,sg,3,o,se,se' drel='rh:ho' posn='180' name='isase' chunkId='NP6' chunkType='head:NP6'>
19	paryAvaraNa	NN	<fs af='paryAvaraNa,n,m,sg,3,o,0_ko,0' drel='k4a:ho' posn='190' vpos='vib_2' name='paryAvaraNa' chunkId='NP7' chunkType='head:NP7'>
20	ko	PSP	<fs af='ko,psp,,,,,,' posn='200' drel='lwg__psp:paryAvaraNa' chunkType='child:NP7' name='ko'>
21	BArI	JJ	<fs af='BArI,adj,any,any,,d,,' posn='210' drel='nmod__adj:nukasAna' chunkType='child:NP8' name='BArI'>
22	nukasAna	NN	<fs af='nukasAna,n,m,sg,3,d,0,0' drel='pof:ho' posn='220' name='nukasAna' chunkId='NP8' chunkType='head:NP8'>
23	ho	VM	<fs af='ho,v,m,sg,3,,0_saka+wA_hE,0' drel='ccof:wo' stype='declarative' posn='230' voicetype='active' vpos='tam_2_3' name='ho' chunkId='VGF3' chunkType='head:VGF3'>
24	sakawA	VAUX	<fs af='saka,v,m,sg,any,,wA,wA' posn='240' drel='lwg__vaux:ho' chunkType='child:VGF3' name='sakawA'>
25	hE	VAUX	<fs af='hE,v,any,sg,3,,hE,hE' posn='250' drel='lwg__vaux:ho' chunkType='child:VGF3' name='hE'>
26	.	SYM	<fs af='.,punc,,,,,,' drel='rsym:kahA' posn='260' name='.' chunkId='BLK' chunkType='head:BLK'>
</Sentence>


<Sentence id="24">
1	isase	PRP	<fs af='yaha,pn,any,sg,3,o,se,se' drel='rh:NULL' posn='10' name='isase' chunkId='NP' chunkType='head:NP'>
2	na	NEG	<fs af='na,avy,,,,,,' drel='vmod:NULL' posn='20' name='na' chunkId='NEGP' chunkType='head:NEGP'>
3	kevala	RP	<fs af='kevala,avy,,,,,,' posn='30' drel='lwg__rp:na' chunkType='child:NEGP' name='kevala'>
4	vanaspawi	NN	<fs af='vanaspawi,n,f,sg,3,o,0,0' drel='k4a:NULL' posn='40' name='vanaspawi' chunkId='NP2' chunkType='head:NP2'>
5	NULL	VM	<fs mtype='gap' troot='ho' dmrel='ccof:balki' name='NULL' chunkId='NULL__VGF' chunkType='head:NULL__VGF'>
6	balki	CC	<fs af='balki,avy,,,,,,' posn='50' name='balki' chunkId='CCP' chunkType='head:CCP'>
7	watoM	NN	<fs af='wata,n,m,pl,3,o,0_para,0' drel='k7p:rahane' posn='60' vpos='vib_2' name='watoM' chunkId='NP3' chunkType='head:NP3'>
8	para	PSP	<fs af='para,psp,,,,,,' posn='70' drel='lwg__psp:watoM' chunkType='child:NP3' name='para'>
9	rahane	VM	<fs af='raha,v,any,pl,any,o,nA_vAlA,nA' drel='nmod:jaMwuoM' posn='80' vpos='tam_2' name='rahane' chunkId='VGNN' chunkType='head:VGNN'>
10	vAle	PSP	<fs af='vAlA,psp,m,pl,,o,,' posn='90' drel='lwg__psp:rahane' chunkType='child:VGNN' name='vAle'>
11	jIva	NNC	<fs af='jIva,n,m,pl,3,d,0,0' posn='100' drel='pof__cn:jaMwuoM' chunkType='child:NP4' name='jIva'>
12	jaMwuoM	NN	<fs af='jaMwu,n,m,pl,3,o,0_ko,0' drel='k4a:hogA' posn='110' vpos='vib_3_RP' name='jaMwuoM' chunkId='NP4' chunkType='head:NP4'>
13	ko	PSP	<fs af='ko,psp,,,,,,' posn='120' drel='lwg__psp:jaMwuoM' chunkType='child:NP4' name='ko'>
14	BI	RP	<fs af='BI,avy,,,,,,' posn='130' drel='lwg__rp:jaMwuoM' chunkType='child:NP4' name='BI'>
15	nukasAna	NN	<fs af='nukasAna,n,m,sg,3,d,0,0' drel='pof:hogA' posn='140' name='nukasAna' chunkId='NP5' chunkType='head:NP5'>
16	hogA	VM	<fs af='ho,v,m,sg,3,,gA,gA' drel='ccof:balki' stype='declarative' posn='150' voicetype='active' name='hogA' chunkId='VGF' chunkType='head:VGF'>
17	.	SYM	<fs af='.,punc,,,,,,' drel='rsym:balki' posn='160' name='.' chunkId='BLK' chunkType='head:BLK'>
</Sentence>


<Sentence id="25">
1	unhoMne	PRP	<fs af='vaha,pn,any,sg,3h,o,ne,ne' drel='k1:kahA' posn='10' name='unhoMne' chunkId='NP' chunkType='head:NP'>
2	kahA	VM	<fs af='kaha,v,m,sg,any,,yA,yA' stype='declarative' posn='20' voicetype='active' name='kahA' chunkId='VGF' chunkType='head:VGF'>
3	ki	CC	<fs af='ki,avy,,,,,,' drel='k2:kahA' posn='30' name='ki' chunkId='CCP' chunkType='head:CCP'>
4	isase	PRP	<fs af='yaha,pn,any,sg,3,o,se,se' drel='rh:padZa' posn='40' name='isase' chunkId='NP2' chunkType='head:NP2'>
5	wata	NN	<fs af='wata,n,m,sg,3,o,0_para,0' drel='k7p:Akara' posn='50' vpos='vib_2' name='wata' chunkId='NP3' chunkType='head:NP3'>
6	para	PSP	<fs af='para,psp,,,,,,' posn='60' drel='lwg__psp:wata' chunkType='child:NP3' name='para'>
7	Akara	VM	<fs af='A,v,any,any,any,,kara,kara' drel='nmod:banAne' posn='70' name='Akara' chunkId='VGNF' chunkType='head:VGNF'>
8	GarOMxA	NN	<fs af='GarOMxA,n,m,sg,3,d,0,0' drel='k2:banAne' posn='80' name='GarOMxA' chunkId='NP4' chunkType='head:NP4'>
9	banAne	VM	<fs af='banA,v,any,pl,any,o,nA_vAlA,nA' drel='nmod:kaCuoM' posn='90' vpos='tam_2' name='banAne' chunkId='VGNN' chunkType='head:VGNN'>
10	vAle	PSP	<fs af='vAlA,psp,m,pl,,o,,' posn='100' drel='lwg__psp:banAne' chunkType='child:VGNN' name='vAle'>
11	kaCuoM	NN	<fs af='kaCuA,n,m,pl,3,o,0,0' drel='ccof:Ora' posn='110' name='kaCuoM' chunkId='NP5' chunkType='head:NP5'>
12	Ora	CC	<fs af='Ora,avy,,,,,,' drel='r6:jiMxagI' posn='120' name='Ora' chunkId='CCP2' chunkType='head:CCP2'>
13	magaramacCoM	NN	<fs af='magaramacCa,n,m,pl,3,o,0_kA,0' drel='ccof:Ora' posn='130' vpos='vib_2' name='magaramacCoM' chunkId='NP6' chunkType='head:NP6'>
14	kI	PSP	<fs af='kA,psp,f,sg,,d,,' posn='140' drel='lwg__psp:magaramacCoM' chunkType='child:NP6' name='kI'>
15	jiMxagI	NN	<fs af='jiMxagI,n,f,sg,3,d,0,0' drel='k1:padZa' posn='150' name='jiMxagI' chunkId='NP7' chunkType='head:NP7'>
16	Kaware	NN	<fs af='KawarA,n,m,sg,3,o,0_meM,0' drel='k7:padZa' posn='160' vpos='vib_2' name='Kaware' chunkId='NP8' chunkType='head:NP8'>
17	meM	PSP	<fs af='meM,psp,,,,,,' posn='170' drel='lwg__psp:Kaware' chunkType='child:NP8' name='meM'>
18	padZa	VM	<fs af='padZa,v,f,sg,3,,0_saka+wA_hE,0' drel='ccof:ki' stype='declarative' posn='180' voicetype='active' vpos='tam_2_3' name='padZa' chunkId='VGF2' chunkType='head:VGF2'>
19	sakawI	VAUX	<fs af='saka,v,f,sg,any,,wA,wA' posn='190' drel='lwg__vaux:padZa' chunkType='child:VGF2' name='sakawI'>
20	hE	VAUX	<fs af='hE,v,any,sg,3,,hE,hE' posn='200' drel='lwg__vaux:padZa' chunkType='child:VGF2' name='hE'>
21	.	SYM	<fs af='.,punc,,,,,,' drel='rsym:kahA' posn='210' name='.' chunkId='BLK' chunkType='head:BLK'>
</Sentence>


</text>
</tb>
</body>
</document>
