<document id="2573519">
<head>
<title></title>			
<caption>sawwA ne BAjapA ko vicAraXArA se xUra kiyA        yUpIe ke AMwarika mawaBexoM meM BAjapA ko saMBAvanA najara A rahI hE  praxIpa siMha   : naI xillI</caption>			
<language>Hindi </language>			
<author>			
<firstname></firstname>			
<middlename></middlename>			
<lastname></lastname>			
</author>			
<creation>			
<raw_corpus creation_date="" institute_name=""></raw_corpus>			
<annotated_corpus creation_date="07/25/2009" institute_name="IIIT-Hyderabad"></annotated_corpus>			
</creation>			
<domain_name>News Articles </domain_name>			
<distributor>LTRC, IIIT Hyderabad</distributor>			
<source>ISI, Kolkata</source>			
<publication>			
<place>New Delhi</place>			
<date>6/7/2004</date>			
<address>Connaught Place, New Delhi</address>			
<type>Newspaper</type>			
<publisher>			
<name>Amar Ujala</name>			
<url>http://www.amarujala.com</url>			
</publisher>			
</publication>			
<project_description>NSF Hindi/Urdu Dependency Treebanking Project</project_description>			
<availability>			
<format>CML/SSF</format>			
</availability>			
<byte_count>12929</byte_count>			
<word_count>532</word_count>			
<edition_number>1.0</edition_number>			
<encoding_description>			
<original_encoding>ISO 8859</original_encoding>			
<new_encoding>Unicode UTF8</new_encoding>			
</encoding_description>			
<bibliography></bibliography>			
<sentence_marker>.</sentence_marker>			
<normalization>No</normalization>			
<utility_name>cml_tags</utility_name>			

</head>
<body>
<tb number="1" segment="no" bullet="no">
<foreign language="select" writingsystem="LTR"> </foreign>			
<text>
<Sentence id="1">
1	PilmoM	NN	<fs af='Pilma,n,f,pl,3,o,0,0' drel='ccof:Ora' posn='10' name='PilmoM' chunkId='NP' chunkType='head:NP'>
2	Ora	CC	<fs af='Ora,avy,,,,,,' drel='k7:xeKA' posn='20' name='Ora' chunkId='CCP' chunkType='head:CCP'>
3	tIvI	NNC	<fs af='tIvI,n,m,sg,3,d,0,0' posn='30' drel='pof__cn:sIriyaloM' chunkType='child:NP2' name='tIvI'>
4	sIriyaloM	NN	<fs af='sIriyala,n,m,pl,3,o,0_meM,0' drel='ccof:Ora' posn='40' vpos='vib_3' name='sIriyaloM' chunkId='NP2' chunkType='head:NP2'>
5	meM	PSP	<fs af='meM,psp,,,,,,' posn='50' drel='lwg__psp:sIriyaloM' chunkType='child:NP2' name='meM'>
6	Apane	PRP	<fs af='Apa,pn,any,sg,2h,o,ne,ne' drel='k1:xeKA' posn='60' name='Apane' chunkId='NP3' chunkType='head:NP3'>
7	aksara	RB	<fs af='aksara,adv,,,,,,' drel='adv:xeKA' posn='70' name='aksara' chunkId='RBP' chunkType='head:RBP'>
8	xeKA	VM	<fs af='xeKa,v,m,sg,3,,yA_ho+gA,yA' stype='declarative' posn='80' voicetype='active' vpos='tam_2' name='xeKA' chunkId='VGF' chunkType='head:VGF'>
9	hogA	VAUX	<fs af='ho,v,m,sg,3,,gA,gA' posn='90' drel='lwg__vaux:xeKA' chunkType='child:VGF' name='hogA'>
10	ki	CC	<fs af='ki,avy,,,,,,' drel='k2:xeKA' posn='100' name='ki' chunkId='CCP2' chunkType='head:CCP2'>
11	kisI	PRP	<fs af='koI,pn,any,sg,3,o,0,0' drel='rbmod:xurGatanAvaSa' posn='110' name='kisI' chunkId='NP4' chunkType='head:NP4'>
12	xurGatanAvaSa	RB	<fs af='xurGatanAvaSa,adv,,,,,,' drel='adv:calI' posn='120' name='xurGatanAvaSa' chunkId='RBP2' chunkType='head:RBP2'>
13	kisI	PRP	<fs af='koI,pn,any,sg,3,o,0,0' posn='130' drel='nmod__adj:pAwra' chunkType='child:NP5' name='kisI2'>
14	pAwra	NN	<fs af='pAwra,n,m,sg,3,o,0_kA,0' drel='r6:yAxxASwa' posn='140' vpos='vib_vib_3' name='pAwra' chunkId='NP5' chunkType='head:NP5'>
15	kI	PSP	<fs af='kA,psp,f,sg,,d,,' posn='150' drel='lwg__psp:pAwra' chunkType='child:NP5' name='kI'>
16	yAxxASwa	NN	<fs af='yAxxASwa,n,f,sg,3,d,0,0' drel='k1:calI' posn='160' name='yAxxASwa' chunkId='NP6' chunkType='head:NP6'>
17	calI	VM	<fs af='cala,v,f,sg,3,,yA_jA+wA_hE,yA' drel='ccof:ki' stype='declarative' posn='170' voicetype='active' vpos='tam_2_3' name='calI' chunkId='VGF2' chunkType='head:VGF2'>
18	jAwI	VAUX	<fs af='jA,v,f,sg,any,,wA,wA' posn='180' drel='lwg__vaux:calI' chunkType='child:VGF2' name='jAwI'>
19	hE	VAUX	<fs af='hE,v,any,sg,3,,hE,hE' posn='190' drel='lwg__vaux:calI' chunkType='child:VGF2' name='hE'>
20	.	SYM	<fs af='.,punc,,,,,,' drel='rsym:xeKA' posn='200' name='.' chunkId='BLK' chunkType='head:BLK'>
</Sentence>


<Sentence id="2">
1	BArawIya	NNPC	<fs af='BArawIya,adj,any,any,,o,,' posn='10' drel='pof__cn:pArtI' chunkType='child:NP' name='BArawIya'>
2	janawA	NNPC	<fs af='janawA,n,f,sg,3,d,0,0' posn='20' drel='pof__cn:pArtI' chunkType='child:NP' name='janawA'>
3	pArtI	NNP	<fs af='pArtI,n,f,sg,3,o,0_ke_sAWa,0' drel='vmod:ho' posn='30' vpos='vib_4_5_RP' name='pArtI' chunkId='NP' chunkType='head:NP'>
4	ke	PSP	<fs af='ke,psp,,,,,,' posn='40' drel='lwg__psp:pArtI' chunkType='child:NP' name='ke'>
5	sAWa	NST	<fs af='sAWa,nst,m,sg,3,d,,' posn='50' drel='lwg__psp:pArtI' chunkType='child:NP' name='sAWa'>
6	BI	RP	<fs af='BI,avy,,,,,,' posn='60' drel='lwg__rp:pArtI' chunkType='child:NP' name='BI'>
7	lagawA	VM	<fs af='laga,v,m,sg,3,,wA_hE,wA' drel='vmod:ho' stype='declarative' posn='70' voicetype='active' vpos='tam_2' name='lagawA' chunkId='VGF' chunkType='head:VGF'>
8	hE	VAUX	<fs af='hE,v,any,sg,3,,hE,hE' posn='80' drel='lwg__vaux:lagawA' chunkType='child:VGF' name='hE'>
9	,	SYM	<fs af='COMMA,punc,,,,,,' posn='90' drel='rsym:lagawA' chunkType='child:VGF' name=','>
10	kuCa	QF	<fs af='kuCa,avy,,,,,,' posn='100' drel='nmod__adj:EsA' chunkType='child:NP2' name='kuCa'>
11	EsA	PRP	<fs af='EsA,pn,m,sg,any,d,0,0' drel='k1:ho' posn='110' name='EsA' chunkId='NP2' chunkType='head:NP2'>
12	hI	RP	<fs af='hI,avy,,,,,,' posn='120' drel='lwg__rp:EsA' chunkType='child:NP2' name='hI'>
13	ho	VM	<fs af='ho,v,m,sg,3,,0_raha+yA_hE,0' stype='declarative' posn='130' voicetype='active' vpos='tam_2_3' name='ho' chunkId='VGF2' chunkType='head:VGF2'>
14	rahA	VAUX	<fs af='raha,v,m,sg,any,,yA,yA' posn='140' drel='lwg__vaux:ho' chunkType='child:VGF2' name='rahA'>
15	hE	VAUX	<fs af='hE,v,any,sg,3,,hE,hE' posn='150' drel='lwg__vaux:ho' chunkType='child:VGF2' name='hE2'>
16	.	SYM	<fs af='.,punc,,,,,,' drel='rsym:ho' posn='160' name='.' chunkId='BLK' chunkType='head:BLK'>
</Sentence>


<Sentence id="3">
1	pArtI	NN	<fs af='pArtI,n,f,sg,3,o,0_kA,0' drel='r6:kAryakAriNI' posn='10' vpos='vib_2' name='pArtI' chunkId='NP' chunkType='head:NP'>
2	kI	PSP	<fs af='kA,psp,f,sg,,d,,' posn='20' drel='lwg__psp:pArtI' chunkType='child:NP' name='kI'>
3	rARtrIya	JJ	<fs af='rARtrIya,adj,any,any,,d,,' posn='30' drel='nmod__adj:kAryakAriNI' chunkType='child:NP2' name='rARtrIya'>
4	kAryakAriNI	NN	<fs af='kAryakAriNI,n,f,sg,3,d,0,0' drel='k1:milI' posn='40' name='kAryakAriNI' chunkId='NP2' chunkType='head:NP2'>
5	apanI	PRP	<fs af='apanA,pn,f,any,any,o,0,0' drel='r6:jayaMwI' posn='50' name='apanI' chunkId='NP3' chunkType='head:NP3'>
6	sWApanA	NN	<fs af='sWApanA,n,f,sg,3,o,0_kA,0' drel='r6:jayaMwI' posn='60' vpos='vib_2' name='sWApanA' chunkId='NP4' chunkType='head:NP4'>
7	kI	PSP	<fs af='kA,psp,f,sg,,d,,' posn='70' drel='lwg__psp:sWApanA' chunkType='child:NP4' name='kI2'>
8	svarNa	NNC	<fs af='svarNa,n,m,sg,3,d,0,0' posn='80' drel='pof__cn:jayaMwI' chunkType='child:NP5' name='svarNa'>
9	jayaMwI	NN	<fs af='jayaMwI,n,f,sg,3,d,0,0' drel='k2:manAne' posn='90' name='jayaMwI' chunkId='NP5' chunkType='head:NP5'>
10	manAne	VM	<fs af='manA,v,any,any,any,o,nA_ke_lie,nA' drel='rt:milI' posn='100' vpos='tam_2_3' name='manAne' chunkId='VGNN' chunkType='head:VGNN'>
11	ke	PSP	<fs af='ke,psp,,,,,,' posn='110' drel='lwg__psp:manAne' chunkType='child:VGNN' name='ke'>
12	lie	PSP	<fs af='lie,psp,,,,,,' posn='120' drel='lwg__psp:manAne' chunkType='child:VGNN' name='lie'>
13	Aja	NN	<fs af='Aja,n,m,sg,3,d,0,0' drel='k7t:milI' posn='130' name='Aja' chunkId='NP6' chunkType='head:NP6'>
14	xillI	NNP	<fs af='xillI,n,f,sg,3,o,0_kA,0' drel='r6:stediyama' posn='140' vpos='vib_2' name='xillI' chunkId='NP7' chunkType='head:NP7'>
15	ke	PSP	<fs af='kA,psp,m,sg,,o,,' posn='150' drel='lwg__psp:xillI' chunkType='child:NP7' name='ke2'>
16	ambedakara	NNPC	<fs af='ambedakara,n,m,sg,3,d,0,0' posn='160' drel='pof__cn:stediyama' chunkType='child:NP8' name='ambedakara'>
17	stediyama	NNP	<fs af='stediyama,n,m,sg,3,o,0_kA,0' drel='r6:nagara' posn='170' vpos='vib_3' name='stediyama' chunkId='NP8' chunkType='head:NP8'>
18	ke	PSP	<fs af='kA,psp,m,sg,,o,,' posn='180' drel='lwg__psp:stediyama' chunkType='child:NP8' name='ke3'>
19	'	SYM	<fs af='SINGLE_QUOTE,punc,,,,,,' ' posn='190' drel='rsym:nagara' chunkType='child:NP9' name=''>
20	xIna	NNPC	<fs af='xIna,adj,any,any,,o,,' posn='200' drel='pof__cn:nagara' chunkType='child:NP9' name='xIna'>
21	xayAla	NNPC	<fs af='xayAla,n,m,sg,3,d,0,0' posn='210' drel='pof__cn:nagara' chunkType='child:NP9' name='xayAla'>
22	nagara	NNP	<fs af='nagara,n,m,sg,3,o,0_meM,0' drel='k7p:milI' posn='220' vpos='vib_6' name='nagara' chunkId='NP9' chunkType='head:NP9'>
23	'	SYM	<fs af='SINGLE_QUOTE,punc,,,,,,' 2' posn='230' drel='rsym:nagara' chunkType='child:NP9' name=''>
24	meM	PSP	<fs af='meM,psp,,,,,,' posn='240' drel='lwg__psp:nagara' chunkType='child:NP9' name='meM'>
25	milI	VM	<fs af='mila,v,f,sg,any,,yA,yA' stype='declarative' posn='250' voicetype='active' name='milI' chunkId='VGF' chunkType='head:VGF'>
26	.	SYM	<fs af='.,punc,,,,,,' drel='rsym:milI' posn='260' name='.' chunkId='BLK' chunkType='head:BLK'>
</Sentence>


<Sentence id="4">
1	lekina	CC	<fs af='lekina,avy,,,,,,' posn='10' name='lekina' chunkId='CCP' chunkType='head:CCP'>
2	,	SYM	<fs af='COMMA,punc,,,,,,' posn='20' drel='rsym:lekina' chunkType='child:CCP' name=','>
3	use	PRP	<fs af='vaha,pn,any,sg,3,o,ko,ko' drel='k2:BUla' posn='30' name='use' chunkId='NP' chunkType='head:NP'>
4	lokasaBA	NNC	<fs af='lokasaBA,n,f,sg,3,d,0,0' posn='40' drel='pof__cn:cunAvoM' chunkType='child:NP2' name='lokasaBA'>
5	cunAvoM	NN	<fs af='cunAva,n,m,pl,3,o,0_kA,0' drel='r6:hAra' posn='50' vpos='vib_3' name='cunAvoM' chunkId='NP2' chunkType='head:NP2'>
6	kI	PSP	<fs af='kA,psp,f,sg,,o,,' posn='60' drel='lwg__psp:cunAvoM' chunkType='child:NP2' name='kI'>
7	hAra	NN	<fs af='hAra,n,f,sg,3,o,0_se,0' drel='nmod:pahale' posn='70' vpos='vib_2' name='hAra' chunkId='NP3' chunkType='head:NP3'>
8	se	PSP	<fs af='se,psp,,,,,,' posn='80' drel='lwg__psp:hAra' chunkType='child:NP3' name='se'>
9	pahale	NST	<fs af='pahale,nst,m,sg,3,o,0_kA,' drel='r6:iwihAsa' posn='90' vpos='2' name='pahale' chunkId='NP4' chunkType='head:NP4'>
10	kA	PSP	<fs af='kA,psp,m,sg,,d,,' posn='100' drel='lwg__psp:pahale' chunkType='child:NP4' name='kA'>
11	sArA	QF	<fs af='sArA,adj,m,sg,,d,,' posn='110' drel='nmod__adj:iwihAsa' chunkType='child:NP5' name='sArA'>
12	iwihAsa	NN	<fs af='iwihAsa,n,m,sg,3,d,0,0' drel='k1:BUla' posn='120' name='iwihAsa' chunkId='NP5' chunkType='head:NP5'>
13	SAyaxa	RB	<fs af='SAyaxa,adv,,,,,,' drel='adv:BUla' posn='130' name='SAyaxa' chunkId='RBP' chunkType='head:RBP'>
14	BUla	VM	<fs af='BUla,v,m,sg,3,,0_jA+yA1_hE,0' drel='ccof:lekina' stype='declarative' posn='140' voicetype='active' vpos='tam_2_3' name='BUla' chunkId='VGF' chunkType='head:VGF'>
15	gayA	VAUX	<fs af='jA,v,m,sg,any,,yA1,yA1' posn='150' drel='lwg__vaux:BUla' chunkType='child:VGF' name='gayA'>
16	hE	VAUX	<fs af='hE,v,any,sg,3,,hE,hE' posn='160' drel='lwg__vaux:BUla' chunkType='child:VGF' name='hE'>
17	.	SYM	<fs af='.,punc,,,,,,' drel='rsym:lekina' posn='170' name='.' chunkId='BLK' chunkType='head:BLK'>
</Sentence>


<Sentence id="5">
1	kAryakAriNI	NN	<fs af='kAryakAriNI,n,f,sg,3,o,0_meM,0' drel='k7:milawA' posn='10' vpos='vib_2' name='kAryakAriNI' chunkId='NP' chunkType='head:NP'>
2	meM	PSP	<fs af='meM,psp,,,,,,' posn='20' drel='lwg__psp:kAryakAriNI' chunkType='child:NP' name='meM'>
3	Aja	NN	<fs af='Aja,n,m,sg,3,d,0,0' drel='k7t:milawA' posn='30' name='Aja' chunkId='NP2' chunkType='head:NP2'>
4	pAsa	UNK	<fs af='pAsa,unk,,,,,,' drel='nmod:praswAvoM' posn='40' name='pAsa' chunkId='BLK' chunkType='head:BLK'>
5	praswAvoM	NN	<fs af='praswAva,n,m,pl,3,o,0_se,0' drel='k2:milawA' posn='50' vpos='vib_2_RP' name='praswAvoM' chunkId='NP3' chunkType='head:NP3'>
6	se	PSP	<fs af='se,psp,,,,,,' posn='60' drel='lwg__psp:praswAvoM' chunkType='child:NP3' name='se'>
7	wo	RP	<fs af='wo,avy,,,,,,' posn='70' drel='lwg__rp:praswAvoM' chunkType='child:NP3' name='wo'>
8	yahI	DEM	<fs af='yahI,pn,,,,,,' posn='80' drel='nmod__adj:ABAsa' chunkType='child:NP4' name='yahI'>
9	ABAsa	NN	<fs af='ABAsa,n,m,sg,3,d,0,0' drel='k1:milawA' posn='90' name='ABAsa' chunkId='NP4' chunkType='head:NP4'>
10	milawA	VM	<fs af='mila,v,m,sg,3,,wA_hE,wA' stype='declarative' posn='100' voicetype='active' vpos='tam_2' name='milawA' chunkId='VGF' chunkType='head:VGF'>
11	hE	VAUX	<fs af='hE,v,any,sg,3,,hE,hE' posn='110' drel='lwg__vaux:milawA' chunkType='child:VGF' name='hE'>
12	.	SYM	<fs af='.,punc,,,,,,' drel='rsym:milawA' posn='120' name='.' chunkId='BLK2' chunkType='head:BLK2'>
</Sentence>


<Sentence id="6">
1	isameM	PRP	<fs af='yaha,pn,any,sg,3,o,meM,meM' drel='k7:hE' posn='10' name='isameM' chunkId='NP' chunkType='head:NP'>
2	vicAraXArA	NN	<fs af='vicAraXArA,n,f,sg,3,o,0_se,0' drel='k1s:judZe' posn='20' vpos='vib_2' name='vicAraXArA' chunkId='NP2' chunkType='head:NP2'>
3	se	PSP	<fs af='se,psp,,,,,,' posn='30' drel='lwg__psp:vicAraXArA' chunkType='child:NP2' name='se'>
4	judZe	VM	<fs af='judZa,v,m,pl,any,,yA,yA' drel='nmod__k1inv:muxxoM' posn='40' name='judZe' chunkId='VGNF' chunkType='head:VGNF'>
5	muxxoM	NN	<fs af='muxxA,n,m,pl,3,o,0_kA,0' drel='r6:jikra' posn='50' vpos='vib_2' name='muxxoM' chunkId='NP3' chunkType='head:NP3'>
6	kA	PSP	<fs af='kA,psp,m,sg,,d,,' posn='60' drel='lwg__psp:muxxoM' chunkType='child:NP3' name='kA'>
7	koI	PRP	<fs af='koI,pn,any,sg,3,d,0,0' posn='70' drel='nmod__adj:jikra' chunkType='child:NP4' name='koI'>
8	jikra	NN	<fs af='jikra,n,m,sg,3,d,0,0' drel='k1:hE' posn='80' name='jikra' chunkId='NP4' chunkType='head:NP4'>
9	nahIM	NEG	<fs af='nahIM,avy,,,,,,' posn='90' drel='lwg__neg:hE' chunkType='child:VGF' name='nahIM'>
10	hE	VM	<fs af='hE,v,any,sg,3,,hE,hE' stype='declarative' posn='100' voicetype='active' name='hE' chunkId='VGF' chunkType='head:VGF'>
11	.	SYM	<fs af='.,punc,,,,,,' drel='rsym:hE' posn='110' name='.' chunkId='BLK' chunkType='head:BLK'>
</Sentence>


<Sentence id="7">
1	pArtI	NNC	<fs af='pArtI,n,f,sg,3,d,0,0' posn='10' drel='pof__cn:aXyakRa' chunkType='child:NP' name='pArtI'>
2	aXyakRa	NN	<fs af='aXyakRa,n,m,sg,3,d,0,0' posn='20' drel='nmod:AdavANI' chunkType='child:NP' name='aXyakRa'>
3	lAlakqRNa	NNPC	<fs af='lAlakqRNa,n,m,sg,3,d,0,0' posn='30' drel='pof__cn:AdavANI' chunkType='child:NP' name='lAlakqRNa'>
4	AdavANI	NNP	<fs af='AdavANI,n,m,sg,3,o,0_kA,0' drel='r6:kAryakAriNI' posn='40' vpos='vib_vib_5' name='AdavANI' chunkId='NP' chunkType='head:NP'>
5	ke	PSP	<fs af='kA,psp,m,sg,,o,,' posn='50' drel='lwg__psp:AdavANI' chunkType='child:NP' name='ke'>
6	kAryakAriNI	NN	<fs af='kAryakAriNI,n,f,sg,3,o,0_se,0' drel='nmod:xina' posn='60' vpos='vib_2' name='kAryakAriNI' chunkId='NP2' chunkType='head:NP2'>
7	se	PSP	<fs af='se,psp,,,,,,' posn='70' drel='lwg__psp:kAryakAriNI' chunkType='child:NP2' name='se'>
8	eka	QC	<fs af='eka,num,any,any,,any,,' posn='80' drel='nmod__adj:xina' chunkType='child:NP3' name='eka'>
9	xina	NN	<fs af='xina,n,m,sg,3,d,0_pahale,0' drel='k7t:xie' posn='90' vpos='vib_3' name='xina' chunkId='NP3' chunkType='head:NP3'>
10	pahale	NST	<fs af='pahale,nst,m,sg,3,d,,' posn='100' drel='lwg__psp:xina' chunkType='child:NP3' name='pahale'>
11	tIvI	NNC	<fs af='tIvI,n,m,sg,3,d,0,0' posn='110' drel='pof__cn:cEnaloM' chunkType='child:NP4' name='tIvI'>
12	cEnaloM	NN	<fs af='cEnala,n,m,pl,3,o,0_ko,0' drel='k4:xie' posn='120' vpos='vib_3' name='cEnaloM' chunkId='NP4' chunkType='head:NP4'>
13	ko	PSP	<fs af='ko,psp,,,,,,' posn='130' drel='lwg__psp:cEnaloM' chunkType='child:NP4' name='ko'>
14	xie	VM	<fs af='xe,v,m,pl,any,,yA_jA+yA1,yA' drel='vmod:xeKeM' posn='140' vpos='tam_2' name='xie' chunkId='VGNF' chunkType='head:VGNF'>
15	gae	VAUX	<fs af='jA,v,m,pl,any,,yA1,yA1' posn='150' drel='lwg__vaux:xie' chunkType='child:VGNF' name='gae'>
16	sAkRAwkAroM	NN	<fs af='sAkRAwkAra,n,m,pl,3,o,0_ko,0' drel='k4:xeKeM' posn='160' vpos='vib_2' name='sAkRAwkAroM' chunkId='NP5' chunkType='head:NP5'>
17	ko	PSP	<fs af='ko,psp,,,,,,' posn='170' drel='lwg__psp:sAkRAwkAroM' chunkType='child:NP5' name='ko2'>
18	xeKeM	VM	<fs af='xeKa,v,any,any,any,,eM,eM' drel='ccof:wo' stype='declarative' posn='180' voicetype='active' name='xeKeM' chunkId='VGF' chunkType='head:VGF'>
19	wo	CC	<fs af='wo,avy,,,,,,' posn='190' name='wo' chunkId='CCP' chunkType='head:CCP'>
20	isa	DEM	<fs af='yaha,pn,any,sg,3,o,,' posn='200' drel='nmod__adj:samaya' chunkType='child:NP6' name='isa'>
21	samaya	NN	<fs af='samaya,n,m,sg,3,d,0,0' drel='k7t:,' posn='210' name='samaya' chunkId='NP6' chunkType='head:NP6'>
22	pArtI	NN	<fs af='pArtI,n,f,sg,3,o,0_meM,0' drel='k7:,' posn='220' vpos='vib_2' name='pArtI2' chunkId='NP7' chunkType='head:NP7'>
23	meM	PSP	<fs af='meM,psp,,,,,,' posn='230' drel='lwg__psp:pArtI2' chunkType='child:NP7' name='meM'>
24	carcA	NN	<fs af='carcA,n,f,sg,3,d,0,0' drel='k1:,' posn='240' name='carcA' chunkId='NP8' chunkType='head:NP8'>
25	vicAraXArA	NN	<fs af='vicAraXArA,n,f,sg,3,o,0_kA,0' drel='r6v:,' posn='250' vpos='vib_2' name='vicAraXArA' chunkId='NP9' chunkType='head:NP9'>
26	kI	PSP	<fs af='kA,psp,f,sg,,d,,' posn='260' drel='lwg__psp:vicAraXArA' chunkType='child:NP9' name='kI'>
27	nahIM	NEG	<fs af='nahIM,avy,,,,,,' drel='vmod:,' posn='270' name='nahIM' chunkId='NEGP' chunkType='head:NEGP'>
28	NULL	VM	<fs drel='lwg__vm:,' chunkType='child:NULL__VGF' name='NULL'>
29	,	SYM	<fs mtype='gap' troot='hE' dmrel='ccof:NULL2' name=',' chunkId='NULL__VGF' chunkType='head:NULL__VGF'>
30	NULL	CC	<fs mtype='gap' troot='Ora' drel='ccof:wo' name='NULL2' chunkId='NULL__CCP' chunkType='head:NULL__CCP'>
31	paMcawArA	NNC	<fs af='paMcawArA,n,m,sg,3,d,0,0' posn='290' drel='pof__cn:saMskqwi' chunkType='child:NP10' name='paMcawArA'>
32	saMskqwi	NN	<fs af='saMskqwi,n,f,sg,3,o,0,0' drel='ccof:Ora' posn='300' name='saMskqwi' chunkId='NP10' chunkType='head:NP10'>
33	Ora	CC	<fs af='Ora,avy,,,,,,' drel='k1:hE' posn='310' name='Ora' chunkId='CCP2' chunkType='head:CCP2'>
34	sawwA	NN	<fs af='sawwA,n,f,sg,3,o,0_kA,0' drel='ccof:Ora' posn='320' vpos='vib_2' name='sawwA' chunkId='NP11' chunkType='head:NP11'>
35	kI	PSP	<fs af='kA,psp,f,sg,,d,,' posn='330' drel='lwg__psp:sawwA' chunkType='child:NP11' name='kI2'>
36	hE	VM	<fs af='hE,v,any,sg,3,,hE,hE' drel='ccof:NULL2' stype='declarative' posn='340' voicetype='active' name='hE' chunkId='VGF2' chunkType='head:VGF2'>
37	.	SYM	<fs af='.,punc,,,,,,' drel='rsym:wo' posn='350' name='.' chunkId='BLK' chunkType='head:BLK'>
</Sentence>


<Sentence id="8">
1	pArtI	NN	<fs af='pArtI,n,f,sg,3,o,0_kA,0' drel='r6:XyAna' posn='10' vpos='vib_2' name='pArtI' chunkId='NP' chunkType='head:NP'>
2	kA	PSP	<fs af='kA,psp,m,sg,,d,,' posn='20' drel='lwg__psp:pArtI' chunkType='child:NP' name='kA'>
3	sArA	QF	<fs af='sArA,adj,m,sg,,d,,' posn='30' drel='nmod__adj:XyAna' chunkType='child:NP2' name='sArA'>
4	XyAna	NN	<fs af='XyAna,n,m,sg,3,d,0,0' drel='k1:hE' posn='40' name='XyAna' chunkId='NP2' chunkType='head:NP2'>
5	SAsana	NN	<fs af='SAsana,n,m,sg,3,o,0_se,0' drel='k2:judZe' posn='50' vpos='vib_2' name='SAsana' chunkId='NP3' chunkType='head:NP3'>
6	se	PSP	<fs af='se,psp,,,,,,' posn='60' drel='lwg__psp:SAsana' chunkType='child:NP3' name='se'>
7	judZe	VM	<fs af='judZa,v,m,pl,any,,yA,yA' drel='nmod__k1inv:muxxoM' posn='70' name='judZe' chunkId='VGNF' chunkType='head:VGNF'>
8	muxxoM	NN	<fs af='muxxA,n,m,pl,3,o,0_para,0' drel='k7:hE' posn='80' vpos='vib_2' name='muxxoM' chunkId='NP4' chunkType='head:NP4'>
9	para	PSP	<fs af='para,psp,,,,,,' posn='90' drel='lwg__psp:muxxoM' chunkType='child:NP4' name='para'>
10	hE	VM	<fs af='hE,v,any,sg,3,,hE,hE' stype='declarative' posn='100' voicetype='active' name='hE' chunkId='VGF' chunkType='head:VGF'>
11	.	SYM	<fs af='.,punc,,,,,,' drel='rsym:hE' posn='110' name='.' chunkId='BLK' chunkType='head:BLK'>
</Sentence>


<Sentence id="9">
1	yUpIe	NNP	<fs af='yUpIe,n,m,sg,3,o,0_kA,0' drel='r6:mawaBexoM' posn='10' vpos='vib_2' name='yUpIe' chunkId='NP' chunkType='head:NP'>
2	ke	PSP	<fs af='kA,psp,m,pl,,o,,' posn='20' drel='lwg__psp:yUpIe' chunkType='child:NP' name='ke'>
3	AMwarika	JJ	<fs af='AMwarika,adj,any,any,,o,,' posn='30' drel='nmod__adj:mawaBexoM' chunkType='child:NP2' name='AMwarika'>
4	mawaBexoM	NN	<fs af='mawaBexa,n,m,pl,3,o,0_meM,0' drel='k7:walASa' posn='40' vpos='vib_3' name='mawaBexoM' chunkId='NP2' chunkType='head:NP2'>
5	meM	PSP	<fs af='meM,psp,,,,,,' posn='50' drel='lwg__psp:mawaBexoM' chunkType='child:NP2' name='meM'>
6	BAjapA	NNP	<fs af='BAjapA,n,f,sg,3,d,0,0' drel='k1:walASa' posn='60' name='BAjapA' chunkId='NP3' chunkType='head:NP3'>
7	saMBAvanAeM	NN	<fs af='saMBAvanA,n,f,pl,3,d,0,0' drel='k2:walASa' posn='70' name='saMBAvanAeM' chunkId='NP4' chunkType='head:NP4'>
8	walASa	VM	<fs af='walASa,v,f,sg,3,,0_raha+yA_hE,0' stype='declarative' posn='80' voicetype='active' vpos='tam_2_3' name='walASa' chunkId='VGF' chunkType='head:VGF'>
9	rahI	VAUX	<fs af='raha,v,f,sg,any,,yA,yA' posn='90' drel='lwg__vaux:walASa' chunkType='child:VGF' name='rahI'>
10	hE	VAUX	<fs af='hE,v,any,sg,3,,hE,hE' posn='100' drel='lwg__vaux:walASa' chunkType='child:VGF' name='hE'>
11	.	SYM	<fs af='.,punc,,,,,,' drel='rsym:walASa' posn='110' name='.' chunkId='BLK' chunkType='head:BLK'>
</Sentence>


<Sentence id="10">
1	apane	PRP	<fs af='apanA,pn,m,any,any,o,0,0' drel='r6:sAla' posn='10' name='apane' chunkId='NP' chunkType='head:NP'>
2	paccIsa	QC	<fs af='paccIsa,num,any,any,,any,,' posn='20' drel='nmod__adj:sAla' chunkType='child:NP2' name='paccIsa'>
3	sAla	NN	<fs af='sAla,n,m,sg,3,o,0_kA,0' drel='r6:jaSna' posn='30' vpos='vib_3' name='sAla' chunkId='NP2' chunkType='head:NP2'>
4	ke	PSP	<fs af='kA,psp,m,sg,,o,,' posn='40' drel='lwg__psp:sAla' chunkType='child:NP2' name='ke'>
5	jaSna	NN	<fs af='jaSna,n,m,sg,3,o,0_para,0' drel='k7:samaJI' posn='50' vpos='vib_2' name='jaSna' chunkId='NP3' chunkType='head:NP3'>
6	para	PSP	<fs af='para,psp,,,,,,' posn='60' drel='lwg__psp:jaSna' chunkType='child:NP3' name='para'>
7	pArtI	NN	<fs af='pArtI,n,f,sg,3,o,0_ne,0' drel='k1:samaJI' posn='70' vpos='vib_2' name='pArtI' chunkId='NP4' chunkType='head:NP4'>
8	ne	PSP	<fs af='ne,psp,,,,,,' posn='80' drel='lwg__psp:pArtI' chunkType='child:NP4' name='ne'>
9	pICe	NST	<fs af='pICe,nst,m,sg,3,d,,' drel='k7:mudZakara' posn='90' name='pICe' chunkId='NP5' chunkType='head:NP5'>
10	mudZakara	VM	<fs af='mudZa,v,any,any,any,,kara,kara' drel='vmod:xeKane' posn='100' name='mudZakara' chunkId='VGNF' chunkType='head:VGNF'>
11	xeKane	VM	<fs af='xeKa,v,any,sg,any,o,nA_kA,nA' drel='r6:jarUrawa' posn='110' vpos='tam_2' name='xeKane' chunkId='VGNN' chunkType='head:VGNN'>
12	kI	PSP	<fs af='kA,psp,f,sg,,d,,' posn='120' drel='lwg__psp:xeKane' chunkType='child:VGNN' name='kI'>
13	jarUrawa	NN	<fs af='jarUrawa,n,f,sg,3,d,0,0' drel='k2:samaJI' posn='130' name='jarUrawa' chunkId='NP6' chunkType='head:NP6'>
14	nahIM	NEG	<fs af='nahIM,avy,,,,,,' posn='140' drel='lwg__neg:samaJI' chunkType='child:VGF' name='nahIM'>
15	samaJI	VM	<fs af='samaJa,v,f,sg,any,,yA,yA' stype='declarative' posn='150' voicetype='active' name='samaJI' chunkId='VGF' chunkType='head:VGF'>
16	.	SYM	<fs af='.,punc,,,,,,' drel='rsym:samaJI' posn='160' name='.' chunkId='BLK' chunkType='head:BLK'>
</Sentence>


<Sentence id="11">
1	Caha	QC	<fs af='Caha,num,any,any,,any,,' posn='10' drel='nmod__adj:sAla' chunkType='child:NP' name='Caha'>
2	sAla	NN	<fs af='sAla,n,m,sg,3,o,0_kA,0' drel='r6:sawwA' posn='20' vpos='vib_3' name='sAla' chunkId='NP' chunkType='head:NP'>
3	kI	PSP	<fs af='kA,psp,f,sg,,o,,' posn='30' drel='lwg__psp:sAla' chunkType='child:NP' name='kI'>
4	sawwA	NN	<fs af='sawwA,n,f,sg,3,o,0_kA,0' drel='r6:vyAmoha' posn='40' vpos='vib_2' name='sawwA' chunkId='NP2' chunkType='head:NP2'>
5	ke	PSP	<fs af='kA,psp,m,sg,,o,,' posn='50' drel='lwg__psp:sawwA' chunkType='child:NP2' name='ke'>
6	vyAmoha	NN	<fs af='vyAmoha,n,m,sg,3,o,0_se,0' drel='k5:xiKawA' posn='60' vpos='vib_2' name='vyAmoha' chunkId='NP3' chunkType='head:NP3'>
7	se	PSP	<fs af='se,psp,,,,,,' posn='70' drel='lwg__psp:vyAmoha' chunkType='child:NP3' name='se'>
8	pArtI	NNC	<fs af='pArtI,n,f,sg,3,d,0,0' posn='80' drel='pof__cn:newqwva' chunkType='child:NP4' name='pArtI'>
9	newqwva	NN	<fs af='newqwva,n,m,sg,3,d,0,0' drel='k1:xiKawA' posn='90' name='newqwva' chunkId='NP4' chunkType='head:NP4'>
10	nikalane	VM	<fs af='nikala,v,any,any,any,o,nA_ko,nA' drel='rt:xiKawA' posn='100' vpos='tam_2' name='nikalane' chunkId='VGNN' chunkType='head:VGNN'>
11	ko	PSP	<fs af='ko,psp,,,,,,' posn='110' drel='lwg__psp:nikalane' chunkType='child:VGNN' name='ko'>
12	wEyAra	JJ	<fs af='wEyAra,adj,any,any,,,,' drel='k1s:xiKawA' posn='120' name='wEyAra' chunkId='JJP' chunkType='head:JJP'>
13	nahIM	NEG	<fs af='nahIM,avy,,,,,,' posn='130' drel='lwg__neg:xiKawA' chunkType='child:VGF' name='nahIM'>
14	xiKawA	VM	<fs af='xiKa,v,m,sg,any,,wA,wA' stype='declarative' posn='140' voicetype='active' name='xiKawA' chunkId='VGF' chunkType='head:VGF'>
15	.	SYM	<fs af='.,punc,,,,,,' drel='rsym:xiKawA' posn='150' name='.' chunkId='BLK' chunkType='head:BLK'>
</Sentence>


<Sentence id="12">
1	sawwA	NN	<fs af='sawwA,n,f,sg,3,o,0_meM,0' drel='k7:rahawe' posn='10' vpos='vib_2' name='sawwA' chunkId='NP' chunkType='head:NP'>
2	meM	PSP	<fs af='meM,psp,,,,,,' posn='20' drel='lwg__psp:sawwA' chunkType='child:NP' name='meM'>
3	rahawe	VM	<fs af='raha,v,m,sg,any,,wA_ho+yA,wA' drel='vmod:baDZawI' posn='30' vpos='tam_2' name='rahawe' chunkId='VGNF' chunkType='head:VGNF'>
4	hue	VAUX	<fs af='ho,v,m,sg,any,,yA,yA' posn='40' drel='lwg__vaux:rahawe' chunkType='child:VGNF' name='hue'>
5	usake	PRP	<fs af='vaha,pn,m,sg,3,o,kA,kA' drel='r6:parivAra' posn='50' name='usake' chunkId='NP2' chunkType='head:NP2'>
6	apane	PRP	<fs af='apanA,pn,m,any,any,o,0,0' drel='r6:parivAra' posn='60' name='apane' chunkId='NP3' chunkType='head:NP3'>
7	vEcArika	JJ	<fs af='vEcArika,adj,any,any,,o,,' posn='70' drel='nmod__adj:parivAra' chunkType='child:NP4' name='vEcArika'>
8	parivAra	NN	<fs af='parivAra,n,m,sg,3,o,0_kA,0' drel='r6:saMgaTanoM' posn='80' vpos='vib_3' name='parivAra' chunkId='NP4' chunkType='head:NP4'>
9	ke	PSP	<fs af='kA,psp,m,pl,,o,,' posn='90' drel='lwg__psp:parivAra' chunkType='child:NP4' name='ke'>
10	saMgaTanoM	NN	<fs af='saMgaTana,n,m,pl,3,o,0_se,0' drel='k3:baDZawI' posn='100' vpos='vib_2' name='saMgaTanoM' chunkId='NP5' chunkType='head:NP5'>
11	se	PSP	<fs af='se,psp,,,,,,' posn='110' drel='lwg__psp:saMgaTanoM' chunkType='child:NP5' name='se'>
12	xUrI	NN	<fs af='xUrI,n,f,sg,3,d,0,0' drel='k1:baDZawI' posn='120' name='xUrI' chunkId='NP6' chunkType='head:NP6'>
13	lagAwAra	RB	<fs af='lagAwAra,adv,,,,,,' drel='adv:baDZawI' posn='130' name='lagAwAra' chunkId='RBP' chunkType='head:RBP'>
14	baDZawI	VM	<fs af='baDZa,v,f,sg,any,,wA_jA+yA1,wA' stype='declarative' posn='140' voicetype='active' vpos='tam_2' name='baDZawI' chunkId='VGF' chunkType='head:VGF'>
15	gaI	VAUX	<fs af='jA,v,f,sg,any,,yA1,yA1' posn='150' drel='lwg__vaux:baDZawI' chunkType='child:VGF' name='gaI'>
16	.	SYM	<fs af='.,punc,,,,,,' drel='rsym:baDZawI' posn='160' name='.' chunkId='BLK' chunkType='head:BLK'>
</Sentence>


<Sentence id="13">
1	pArtI	NNC	<fs af='pArtI,n,f,sg,3,d,0,0' posn='10' drel='pof__cn:karwA' chunkType='child:NP' name='pArtI'>
2	kArya	NNC	<fs af='kArya,n,m,sg,3,d,0,0' posn='20' drel='pof__cn:karwA' chunkType='child:NP' name='kArya'>
3	-	SYM	<fs af='-,punc,,,,,,' posn='30' drel='pof__cn:karwA' chunkType='child:NP' name='-'>
4	karwA	NN	<fs af='karwA,n,m,sg,3,o,0_kA,0' drel='r6:SikAyawa' posn='40' vpos='vib_5' name='karwA' chunkId='NP' chunkType='head:NP'>
5	kI	PSP	<fs af='kA,psp,f,sg,,d,,' posn='50' drel='lwg__psp:karwA' chunkType='child:NP' name='kI'>
6	SikAyawa	NN	<fs af='SikAyawa,n,f,sg,3,d,0,0' drel='k1:WI' posn='60' name='SikAyawa' chunkId='NP2' chunkType='head:NP2'>
7	WI	VM	<fs af='WA,v,f,sg,any,,WA,WA' stype='declarative' posn='70' voicetype='active' name='WI' chunkId='VGF' chunkType='head:VGF'>
8	ki	CC	<fs af='ki,avy,,,,,,' drel='rs:SikAyawa' posn='80' name='ki' chunkId='CCP' chunkType='head:CCP'>
9	sawwA	NN	<fs af='sawwA,n,f,sg,3,o,0_meM,0' drel='k7:Ane' posn='90' vpos='vib_2' name='sawwA' chunkId='NP3' chunkType='head:NP3'>
10	meM	PSP	<fs af='meM,psp,,,,,,' posn='100' drel='lwg__psp:sawwA' chunkType='child:NP3' name='meM'>
11	Ane	VM	<fs af='A,v,any,sg,3,o,nA_ke_bAxa,nA' drel='k7t:ho' posn='110' vpos='tam_2_3' name='Ane' chunkId='VGNN' chunkType='head:VGNN'>
12	ke	PSP	<fs af='ke,psp,,,,,,' posn='120' drel='lwg__psp:Ane' chunkType='child:VGNN' name='ke'>
13	bAxa	NST	<fs af='bAxa,nst,m,sg,3,d,,' posn='130' drel='lwg__nst:Ane' chunkType='child:VGNN' name='bAxa'>
14	pArtI	NN	<fs af='pArtI,n,f,sg,3,d,0,0' drel='k1:ho' posn='140' name='pArtI2' chunkId='NP4' chunkType='head:NP4'>
15	apanI	PRP	<fs af='apanA,pn,f,any,any,o,0,0' drel='r6:vicAraXArA' posn='150' name='apanI' chunkId='NP5' chunkType='head:NP5'>
16	mUla	JJ	<fs af='mUla,adj,any,any,,o,,' posn='160' drel='nmod__adj:vicAraXArA' chunkType='child:NP6' name='mUla'>
17	vicAraXArA	NN	<fs af='vicAraXArA,n,f,sg,3,o,0_se,0' drel='k5:ho' posn='170' vpos='vib_3_RP' name='vicAraXArA' chunkId='NP6' chunkType='head:NP6'>
18	se	PSP	<fs af='se,psp,,,,,,' posn='180' drel='lwg__psp:vicAraXArA' chunkType='child:NP6' name='se'>
19	hI	RP	<fs af='hI,avy,,,,,,' posn='190' drel='lwg__rp:vicAraXArA' chunkType='child:NP6' name='hI'>
20	alaga	JJ	<fs af='alaga,adj,any,any,,,,' drel='k1s:ho' posn='200' name='alaga' chunkId='JJP' chunkType='head:JJP'>
21	ho	VM	<fs af='ho,v,any,sg,any,,0_jA+yA1,0' drel='ccof:ki' stype='declarative' posn='210' voicetype='active' vpos='tam_2' name='ho' chunkId='VGF2' chunkType='head:VGF2'>
22	gaI	VAUX	<fs af='jA,v,f,sg,any,,yA1,yA1' posn='220' drel='lwg__vaux:ho' chunkType='child:VGF2' name='gaI'>
23	.	SYM	<fs af='.,punc,,,,,,' drel='rsym:WI' posn='230' name='.' chunkId='BLK' chunkType='head:BLK'>
</Sentence>


<Sentence id="14">
1	vicAraXArA	NN	<fs af='vicAraXArA,n,f,sg,3,o,0_kA,0' drel='r6:muxxe' posn='10' vpos='vib_2' name='vicAraXArA' chunkId='NP' chunkType='head:NP'>
2	ke	PSP	<fs af='kA,psp,m,pl,,o,,' posn='20' drel='lwg__psp:vicAraXArA' chunkType='child:NP' name='ke'>
3	jo	DEM	<fs af='jo,pn,any,sg,3,d,,' posn='30' drel='nmod__adj:muxxe' chunkType='child:NP2' name='jo'>
4	muxxe	NN	<fs af='muxxA,n,m,pl,3,d,0,0' drel='k1:karawe' posn='40' coref=':NP6' name='muxxe' chunkId='NP2' chunkType='head:NP2'>
5	use	PRP	<fs af='vaha,pn,any,sg,3,o,ko,ko' drel='k2:karawe' posn='50' name='use' chunkId='NP3' chunkType='head:NP3'>
6	pArtI	NN	<fs af='pArtI,n,f,sg,3,o,0_ke_lie,0' drel='rt:karane' posn='60' vpos='vib_2_3' name='pArtI' chunkId='NP4' chunkType='head:NP4'>
7	ke	PSP	<fs af='ke,psp,,,,,,' posn='70' drel='lwg__psp:pArtI' chunkType='child:NP4' name='ke2'>
8	lie	PSP	<fs af='lie,psp,,,,,,' posn='80' drel='lwg__psp:pArtI' chunkType='child:NP4' name='lie'>
9	kAma	NN	<fs af='kAma,n,m,sg,3,d,0,0' drel='k2:karane' posn='90' name='kAma' chunkId='NP5' chunkType='head:NP5'>
10	karane	VM	<fs af='kara,v,any,any,any,o,nA_ke_lie,nA' drel='rt:karawe' posn='100' vpos='tam_2_3' name='karane' chunkId='VGNN' chunkType='head:VGNN'>
11	ke	PSP	<fs af='ke,psp,,,,,,' posn='110' drel='lwg__psp:karane' chunkType='child:VGNN' name='ke3'>
12	lie	PSP	<fs af='lie,psp,,,,,,' posn='120' drel='lwg__psp:karane' chunkType='child:VGNN' name='lie2'>
13	preriwa	JJ	<fs af='preriwa,adj,any,any,,,,' drel='pof:karawe' posn='130' name='preriwa' chunkId='JJP' chunkType='head:JJP'>
14	karawe	VM	<fs af='kara,v,m,pl,any,,wA_WA,wA' drel='nmod:ve' stype='declarative' posn='140' voicetype='active' vpos='tam_2' name='karawe' chunkId='VGF' chunkType='head:VGF'>
15	We	VAUX	<fs af='WA,v,m,pl,any,,WA,WA' posn='150' drel='lwg__vaux:karawe' chunkType='child:VGF' name='We'>
16	ve	PRP	<fs af='vaha,pn,any,pl,3,d,0,0' drel='k1:rahe' posn='160' name='ve' chunkId='NP6' chunkType='head:NP6'>
17	wo	RP	<fs af='wo,avy,,,,,,' posn='170' drel='lwg__rp:ve' chunkType='child:NP6' name='wo'>
18	rahe	VM	<fs af='raha,v,m,pl,any,,yA,yA' drel='ccof:Ora' stype='declarative' posn='180' voicetype='active' name='rahe' chunkId='VGF2' chunkType='head:VGF2'>
19	nahIM	NEG	<fs af='nahIM,avy,,,,,,' posn='190' drel='lwg__neg:rahe' chunkType='child:VGF2' name='nahIM'>
20	Ora	CC	<fs af='Ora,avy,,,,,,' posn='200' name='Ora' chunkId='CCP' chunkType='head:CCP'>
21	sawwA	NN	<fs af='sawwA,n,f,sg,3,o,0_meM,0' drel='k7:milI' posn='210' vpos='vib_2' name='sawwA' chunkId='NP7' chunkType='head:NP7'>
22	meM	PSP	<fs af='meM,psp,,,,,,' posn='220' drel='lwg__psp:sawwA' chunkType='child:NP7' name='meM'>
23	use	PRP	<fs af='vaha,pn,any,sg,3,o,ko,ko' drel='k4a:milI' posn='230' name='use2' chunkId='NP8' chunkType='head:NP8'>
24	kAMgresa	NNP	<fs af='kAMgresa,n,f,sg,3,o,0_sarIKA,0' drel='nmod:BAgIxArI' posn='240' vpos='vib_2' name='kAMgresa' chunkId='NP9' chunkType='head:NP9'>
25	sarIKI	PSP	<fs af='sarIKA,psp,f,sg,,d,,' posn='250' drel='lwg__psp:kAMgresa' chunkType='child:NP9' name='sarIKI'>
26	BAgIxArI	NN	<fs af='BAgIxArI,n,f,sg,3,d,0,0' drel='k1:milI' posn='260' name='BAgIxArI' chunkId='NP10' chunkType='head:NP10'>
27	BI	RP	<fs af='BI,avy,,,,,,' posn='270' drel='lwg__rp:BAgIxArI' chunkType='child:NP10' name='BI'>
28	nahIM	NEG	<fs af='nahIM,avy,,,,,,' posn='280' drel='lwg__neg:milI' chunkType='child:VGF3' name='nahIM2'>
29	milI	VM	<fs af='mila,v,f,sg,any,,yA,yA' drel='ccof:Ora' stype='declarative' posn='290' voicetype='active' name='milI' chunkId='VGF3' chunkType='head:VGF3'>
30	.	SYM	<fs af='.,punc,,,,,,' drel='rsym:Ora' posn='300' name='.' chunkId='BLK' chunkType='head:BLK'>
</Sentence>


<Sentence id="15">
1	unheM	PRP	<fs af='vaha,pn,any,sg,3h,o,ko,ko' drel='k4a:WI' posn='10' name='unheM' chunkId='NP' chunkType='head:NP'>
2	ummIxa	NN	<fs af='ummIxa,n,f,sg,3,d,0,0' drel='k1:WI' posn='20' name='ummIxa' chunkId='NP2' chunkType='head:NP2'>
3	WI	VM	<fs af='WA,v,f,sg,any,,WA,WA' stype='declarative' posn='30' voicetype='active' name='WI' chunkId='VGF' chunkType='head:VGF'>
4	ki	CC	<fs af='ki,avy,,,,,,' drel='rs:ummIxa' posn='40' name='ki' chunkId='CCP' chunkType='head:CCP'>
5	isa	DEM	<fs af='yaha,pn,any,sg,3,o,,' posn='50' drel='nmod__adj:bETaka' chunkType='child:NP3' name='isa'>
6	bETaka	NN	<fs af='bETaka,n,f,sg,3,o,0_meM,0' drel='k7:xegA' posn='60' vpos='vib_3' name='bETaka' chunkId='NP3' chunkType='head:NP3'>
7	meM	PSP	<fs af='meM,psp,,,,,,' posn='70' drel='lwg__psp:bETaka' chunkType='child:NP3' name='meM'>
8	pArtI	NN	<fs af='pArtI,n,f,sg,3,o,0_kA,0' drel='r6:newqwva' posn='80' vpos='vib_2' name='pArtI' chunkId='NP4' chunkType='head:NP4'>
9	kA	PSP	<fs af='kA,psp,m,sg,,d,,' posn='90' drel='lwg__psp:pArtI' chunkType='child:NP4' name='kA'>
10	SIrRa	JJ	<fs af='SIrRa,adj,any,any,,d,,' posn='100' drel='nmod__adj:newqwva' chunkType='child:NP5' name='SIrRa'>
11	newqwva	NN	<fs af='newqwva,n,m,sg,3,d,0,0' drel='k1:xegA' posn='110' name='newqwva' chunkId='NP5' chunkType='head:NP5'>
12	unheM	PRP	<fs af='vaha,pn,any,sg,3h,o,ko,ko' drel='k4:xegA' posn='120' name='unheM2' chunkId='NP6' chunkType='head:NP6'>
13	koI	PRP	<fs af='koI,pn,any,sg,3,d,0,0' posn='130' drel='nmod__adj:xiSA' chunkType='child:NP7' name='koI'>
14	xiSA	NN	<fs af='xiSA,n,f,sg,3,d,0,0' drel='k2:xegA' posn='140' name='xiSA' chunkId='NP7' chunkType='head:NP7'>
15	xegA	VM	<fs af='xe,v,m,sg,3,,gA,gA' drel='ccof:Ora' stype='declarative' posn='150' voicetype='active' name='xegA' chunkId='VGF2' chunkType='head:VGF2'>
16	Ora	CC	<fs af='Ora,avy,,,,,,' drel='ccof:ki' posn='160' name='Ora' chunkId='CCP2' chunkType='head:CCP2'>
17	vicAraXArA	NN	<fs af='vicAraXArA,n,f,sg,3,o,0_kA,0' drel='r6:swara' posn='170' vpos='vib_2' name='vicAraXArA' chunkId='NP8' chunkType='head:NP8'>
18	ke	PSP	<fs af='kA,psp,m,sg,,o,,' posn='180' drel='lwg__psp:vicAraXArA' chunkType='child:NP8' name='ke'>
19	swara	NN	<fs af='swara,n,m,sg,3,o,0_para,0' drel='k7:karegA' posn='190' vpos='vib_2' name='swara' chunkId='NP9' chunkType='head:NP9'>
20	para	PSP	<fs af='para,psp,,,,,,' posn='200' drel='lwg__psp:swara' chunkType='child:NP9' name='para'>
21	Caha	QC	<fs af='Caha,num,any,any,,any,,' posn='210' drel='nmod__adj:sAla' chunkType='child:NP10' name='Caha'>
22	sAla	NN	<fs af='sAla,n,m,sg,3,o,0_kA,0' drel='r6:kuhAse' posn='220' vpos='vib_3' name='sAla' chunkId='NP10' chunkType='head:NP10'>
23	ke	PSP	<fs af='kA,psp,m,sg,,o,,' posn='230' drel='lwg__psp:sAla' chunkType='child:NP10' name='ke2'>
24	kuhAse	NN	<fs af='kuhAsA,n,m,sg,3,o,0_ko,0' drel='k2:CAMtane' posn='240' vpos='vib_2' name='kuhAse' chunkId='NP11' chunkType='head:NP11'>
25	ko	PSP	<fs af='ko,psp,,,,,,' posn='250' drel='lwg__psp:kuhAse' chunkType='child:NP11' name='ko'>
26	CAMtane	VM	<fs af='CAMtane,v,any,sg,any,o,nA_kA,nA' drel='r6-k2:prayAsa' posn='260' vpos='tam_2' name='CAMtane' chunkId='VGNN' chunkType='head:VGNN'>
27	kA	PSP	<fs af='kA,psp,m,sg,,d,,' posn='270' drel='lwg__psp:CAMtane' chunkType='child:VGNN' name='kA2'>
28	prayAsa	NN	<fs af='prayAsa,n,m,sg,3,d,0,0' drel='pof:karegA' posn='280' name='prayAsa' chunkId='NP12' chunkType='head:NP12'>
29	karegA	VM	<fs af='kara,v,m,sg,3,,gA,gA' drel='ccof:Ora' stype='declarative' posn='290' voicetype='active' name='karegA' chunkId='VGF3' chunkType='head:VGF3'>
30	.	SYM	<fs af='.,punc,,,,,,' drel='rsym:WI' posn='300' name='.' chunkId='BLK' chunkType='head:BLK'>
</Sentence>


<Sentence id="16">
1	Ese	DEM	<fs af='EsA,pn,m,pl,any,o,,' posn='10' drel='nmod__adj:logoM' chunkType='child:NP' name='Ese'>
2	saBI	QF	<fs af='saBI,avy,,,,,,' posn='20' drel='nmod__adj:logoM' chunkType='child:NP' name='saBI'>
3	logoM	NN	<fs af='loga,n,m,pl,3,o,0_ko,0' drel='k4a:hE' posn='30' vpos='vib_4' name='logoM' chunkId='NP' chunkType='head:NP'>
4	ko	PSP	<fs af='ko,psp,,,,,,' posn='40' drel='lwg__psp:logoM' chunkType='child:NP' name='ko'>
5	Aja	NN	<fs af='Aja,n,m,sg,3,o,0_kA,0' drel='r6:praswAvoM' posn='50' vpos='vib_2' name='Aja' chunkId='NP2' chunkType='head:NP2'>
6	ke	PSP	<fs af='kA,psp,m,pl,,o,,' posn='60' drel='lwg__psp:Aja' chunkType='child:NP2' name='ke'>
7	praswAvoM	NN	<fs af='praswAva,n,m,pl,3,o,0_se,0' drel='k5:honA' posn='70' vpos='vib_2' name='praswAvoM' chunkId='NP3' chunkType='head:NP3'>
8	se	PSP	<fs af='se,psp,,,,,,' posn='80' drel='lwg__psp:praswAvoM' chunkType='child:NP3' name='se'>
9	nirASa	JJ	<fs af='nirASa,adj,any,any,,,,' drel='k2:honA' posn='90' name='nirASa' chunkId='JJP' chunkType='head:JJP'>
10	honA	VM	<fs af='ho,v,any,any,any,d,nA,nA' drel='k1:hE' posn='100' name='honA' chunkId='VGNN' chunkType='head:VGNN'>
11	svABAvika	JJ	<fs af='svABAvika,adj,any,any,,,,' drel='k1s:hE' posn='110' name='svABAvika' chunkId='JJP2' chunkType='head:JJP2'>
12	hE	VM	<fs af='hE,v,any,sg,3,,hE,hE' stype='declarative' posn='120' voicetype='active' name='hE' chunkId='VGF' chunkType='head:VGF'>
13	.	SYM	<fs af='.,punc,,,,,,' drel='rsym:hE' posn='130' name='.' chunkId='BLK' chunkType='head:BLK'>
</Sentence>


<Sentence id="17">
1	Caha	QC	<fs af='Caha,num,any,any,,any,,' posn='10' drel='nmod__adj:sAla' chunkType='child:NP' name='Caha'>
2	sAla	NN	<fs af='sAla,n,m,sg,3,o,0_kA,0' drel='r6:sawwA' posn='20' vpos='vib_3' name='sAla' chunkId='NP' chunkType='head:NP'>
3	kI	PSP	<fs af='kA,psp,f,sg,,o,,' posn='30' drel='lwg__psp:sAla' chunkType='child:NP' name='kI'>
4	sawwA	NN	<fs af='sawwA,n,f,sg,3,o,0_ke_xOrAna,0' drel='k7t:ho' posn='40' vpos='vib_2_3' name='sawwA' chunkId='NP2' chunkType='head:NP2'>
5	ke	PSP	<fs af='ke,psp,,,,,,' posn='50' drel='lwg__psp:sawwA' chunkType='child:NP2' name='ke'>
6	xOrAna	NST	<fs af='xOrAna,nst,m,sg,3,d,,' posn='60' drel='lwg__psp:sawwA' chunkType='child:NP2' name='xOrAna'>
7	kArya	NNC	<fs af='kArya,n,m,sg,3,d,0,0' posn='70' drel='pof__cn:karwA' chunkType='child:NP3' name='kArya'>
8	-	SYM	<fs af='-,punc,,,,,,' posn='80' drel='pof__cn:karwA' chunkType='child:NP3' name='-'>
9	karwA	NN	<fs af='karwA,n,m,pl,3,d,0,0' drel='k1:ho' posn='90' name='karwA' chunkId='NP3' chunkType='head:NP3'>
10	apane	PRP	<fs af='apanA,pn,m,any,any,o,0,0' drel='r6:newAoM' posn='100' name='apane' chunkId='NP4' chunkType='head:NP4'>
11	newAoM	NN	<fs af='newA,n,m,pl,3,o,0_kA,0' drel='r6:saMskqwi' posn='110' vpos='vib_2' name='newAoM' chunkId='NP5' chunkType='head:NP5'>
12	kI	PSP	<fs af='kA,psp,f,sg,,o,,' posn='120' drel='lwg__psp:newAoM' chunkType='child:NP5' name='kI2'>
13	paMcawArA	NNC	<fs af='paMcawArA,n,m,sg,3,d,0,0' posn='130' drel='pof__cn:saMskqwi' chunkType='child:NP6' name='paMcawArA'>
14	saMskqwi	NN	<fs af='saMskqwi,n,f,sg,3,o,0_ke_prawi,0' drel='rd:ho' posn='140' vpos='vib_3_4' name='saMskqwi' chunkId='NP6' chunkType='head:NP6'>
15	ke	PSP	<fs af='ke,psp,,,,,,' posn='150' drel='lwg__psp:saMskqwi' chunkType='child:NP6' name='ke2'>
16	prawi	PSP	<fs af='prawi,psp,,,,,,' posn='160' drel='lwg__psp:saMskqwi' chunkType='child:NP6' name='prawi'>
17	prema	NN	<fs af='prema,n,m,sg,3,o,0_se,0' drel='rh:ho' posn='170' vpos='vib_2' name='prema' chunkId='NP7' chunkType='head:NP7'>
18	se	PSP	<fs af='se,psp,,,,,,' posn='180' drel='lwg__psp:prema' chunkType='child:NP7' name='se'>
19	hawASa	JJ	<fs af='hawASa,adj,any,any,,,,' drel='pof:ho' posn='190' name='hawASa' chunkId='JJP' chunkType='head:JJP'>
20	ho	VM	<fs af='ho,v,m,pl,any,,0_jA+yA1_WA,0' stype='declarative' posn='200' voicetype='active' vpos='tam_2_3' name='ho' chunkId='VGF' chunkType='head:VGF'>
21	gae	VAUX	<fs af='jA,v,m,pl,any,,yA1,yA1' posn='210' drel='lwg__vaux:ho' chunkType='child:VGF' name='gae'>
22	We	VAUX	<fs af='WA,v,m,pl,any,,WA,WA' posn='220' drel='lwg__vaux:ho' chunkType='child:VGF' name='We'>
23	.	SYM	<fs af='.,punc,,,,,,' drel='rsym:ho' posn='230' name='.' chunkId='BLK' chunkType='head:BLK'>
</Sentence>


<Sentence id="18">
1	para	CC	<fs af='para,avy,,,,,,' posn='10' name='para' chunkId='CCP' chunkType='head:CCP'>
2	aba	PRP	<fs af='aba,pn,,,,o,,' drel='k7t:kaha' posn='20' name='aba' chunkId='NP' chunkType='head:NP'>
3	wo	RP	<fs af='wo,avy,,,,,,' posn='30' drel='lwg__rp:aba' chunkType='child:NP' name='wo'>
4	pArtI	NNC	<fs af='pArtI,n,f,sg,3,d,0,0' posn='40' drel='pof__cn:aXyakRa' chunkType='child:NP2' name='pArtI'>
5	aXyakRa	NN	<fs af='aXyakRa,n,m,sg,3,d,0,0' drel='k1:kaha' posn='50' name='aXyakRa' chunkId='NP2' chunkType='head:NP2'>
6	hI	RP	<fs af='hI,avy,,,,,,' posn='60' drel='lwg__rp:aXyakRa' chunkType='child:NP2' name='hI'>
7	kaha	VM	<fs af='kaha,v,m,sg,3h,,0_raha+yA_hE,0' drel='ccof:para' stype='declarative' posn='70' voicetype='active' vpos='tam_2_3' name='kaha' chunkId='VGF' chunkType='head:VGF'>
8	rahe	VAUX	<fs af='raha,v,m,sg,3h,,yA,yA' posn='80' drel='lwg__vaux:kaha' chunkType='child:VGF' name='rahe'>
9	hEM	VAUX	<fs af='hE,v,any,sg,3h,,hE,hE' posn='90' drel='lwg__vaux:kaha' chunkType='child:VGF' name='hEM'>
10	ki	CC	<fs af='ki,avy,,,,,,' drel='k2:kaha' posn='100' name='ki' chunkId='CCP2' chunkType='head:CCP2'>
11	paMcawArA	NNC	<fs af='paMcawArA,n,m,sg,3,d,0,0' posn='110' drel='pof__cn:saMskqwi' chunkType='child:NP3' name='paMcawArA'>
12	saMskqwi	NN	<fs af='saMskqwi,n,f,sg,3,o,0_meM,0' drel='k7:hE' posn='120' vpos='vib_3' name='saMskqwi' chunkId='NP3' chunkType='head:NP3'>
13	meM	PSP	<fs af='meM,psp,,,,,,' posn='130' drel='lwg__psp:saMskqwi' chunkType='child:NP3' name='meM'>
14	koI	PRP	<fs af='koI,pn,any,sg,3,d,0,0' posn='140' drel='nmod__adj:harja' chunkType='child:NP4' name='koI'>
15	harja	NN	<fs af='harja,n,m,sg,3,d,0,0' drel='k1:hE' posn='150' name='harja' chunkId='NP4' chunkType='head:NP4'>
16	nahIM	NEG	<fs af='nahIM,avy,,,,,,' posn='160' drel='lwg__neg:hE' chunkType='child:VGF2' name='nahIM'>
17	hE	VM	<fs af='hE,v,any,sg,3,,hE,hE' drel='ccof:ki' stype='declarative' posn='170' voicetype='active' name='hE' chunkId='VGF2' chunkType='head:VGF2'>
18	.	SYM	<fs af='.,punc,,,,,,' drel='rsym:para' posn='180' name='.' chunkId='BLK' chunkType='head:BLK'>
</Sentence>


<Sentence id="19">
1	pArtI	NN	<fs af='pArtI,n,f,sg,3,o,0_kA,0' drel='r6:jayaMwI' posn='10' vpos='vib_2' name='pArtI' chunkId='NP' chunkType='head:NP'>
2	kI	PSP	<fs af='kA,psp,f,sg,,d,,' posn='20' drel='lwg__psp:pArtI' chunkType='child:NP' name='kI'>
3	rajawa	NNC	<fs af='rajawa,n,m,sg,3,d,0,0' posn='30' drel='pof__cn:jayaMwI' chunkType='child:NP2' name='rajawa'>
4	jayaMwI	NN	<fs af='jayaMwI,n,f,sg,3,d,0,0' drel='k2:manAne' posn='40' name='jayaMwI' chunkId='NP2' chunkType='head:NP2'>
5	manAne	VM	<fs af='manA,v,any,sg,any,o,nA_kA,nA' drel='r6:praswAva' posn='50' vpos='tam_2' name='manAne' chunkId='VGNN' chunkType='head:VGNN'>
6	ke	PSP	<fs af='kA,psp,m,sg,,o,,' posn='60' drel='lwg__psp:manAne' chunkType='child:VGNN' name='ke'>
7	praswAva	NN	<fs af='praswAva,n,m,sg,3,o,0_meM,0' drel='k7:hE' posn='70' vpos='vib_2' name='praswAva' chunkId='NP3' chunkType='head:NP3'>
8	meM	PSP	<fs af='meM,psp,,,,,,' posn='80' drel='lwg__psp:praswAva' chunkType='child:NP3' name='meM'>
9	isa	DEM	<fs af='yaha,pn,any,sg,3,o,,' posn='90' drel='nmod__adj:bAwa' chunkType='child:NP4' name='isa'>
10	bAwa	NN	<fs af='bAwa,n,f,sg,3,o,0_kA,0' drel='r6:jikra' posn='100' vpos='vib_3' name='bAwa' chunkId='NP4' chunkType='head:NP4'>
11	kA	PSP	<fs af='kA,psp,m,sg,,d,,' posn='110' drel='lwg__psp:bAwa' chunkType='child:NP4' name='kA'>
12	jikra	NN	<fs af='jikra,n,m,sg,3,d,0,0' drel='k1:hE' posn='120' name='jikra' chunkId='NP5' chunkType='head:NP5'>
13	hE	VM	<fs af='hE,v,any,sg,3,,hE,hE' stype='declarative' posn='130' voicetype='active' name='hE' chunkId='VGF' chunkType='head:VGF'>
14	ki	CC	<fs af='ki,avy,,,,,,' drel='rs:bAwa' posn='140' name='ki' chunkId='CCP' chunkType='head:CCP'>
15	xeSa	NN	<fs af='xeSa,n,m,sg,3,o,0_kA,0' drel='r6:rAjanIwi' posn='150' vpos='vib_2' name='xeSa' chunkId='NP6' chunkType='head:NP6'>
16	kI	PSP	<fs af='kA,psp,f,sg,,o,,' posn='160' drel='lwg__psp:xeSa' chunkType='child:NP6' name='kI2'>
17	rAjanIwi	NN	<fs af='rAjanIwi,n,f,sg,3,o,0_meM,0' drel='k7:rahI' posn='170' vpos='vib_2' name='rAjanIwi' chunkId='NP7' chunkType='head:NP7'>
18	meM	PSP	<fs af='meM,psp,,,,,,' posn='180' drel='lwg__psp:rAjanIwi' chunkType='child:NP7' name='meM2'>
19	BAjapA	NNP	<fs af='BAjapA,n,f,sg,3,d,0,0' drel='k1:rahI' posn='190' name='BAjapA' chunkId='NP8' chunkType='head:NP8'>
20	eka	QC	<fs af='eka,num,any,any,,any,,' posn='200' drel='nmod__adj:Xruva' chunkType='child:NP9' name='eka'>
21	viSiRta	JJ	<fs af='viSiRta,adj,any,any,,o,,' posn='210' drel='nmod__adj:Xruva' chunkType='child:NP9' name='viSiRta'>
22	vEcArika	JJ	<fs af='vEcArika,adj,any,any,,o,,' posn='220' drel='nmod__adj:Xruva' chunkType='child:NP9' name='vEcArika'>
23	Xruva	NN	<fs af='Xruva,n,m,sg,3,o,0_ke_rUpa_meM,0' drel='k7:rahI' posn='230' vpos='vib_5_6_7' name='Xruva' chunkId='NP9' chunkType='head:NP9'>
24	ke	PSP	<fs af='ke,psp,m,,,o,,' posn='240' drel='lwg__psp:Xruva' chunkType='child:NP9' name='ke2'>
25	rUpa	PSP	<fs af='rUpa,n,m,,,o,,' posn='250' drel='lwg__psp:Xruva' chunkType='child:NP9' name='rUpa'>
26	meM	PSP	<fs af='meM,psp,,,,,,' posn='260' drel='lwg__psp:Xruva' chunkType='child:NP9' name='meM3'>
27	KadZI	JJ	<fs af='KadZA,adj,f,sg,,,,' drel='k1s:rahI' posn='270' name='KadZI' chunkId='JJP' chunkType='head:JJP'>
28	rahI	VM	<fs af='raha,v,f,sg,any,,yA,yA' drel='ccof:ki' stype='declarative' posn='280' voicetype='active' name='rahI' chunkId='VGF2' chunkType='head:VGF2'>
29	.	SYM	<fs af='.,punc,,,,,,' drel='rsym:hE' posn='290' name='.' chunkId='BLK' chunkType='head:BLK'>
</Sentence>


<Sentence id="20">
1	sAWa	NST	<fs af='sAWa,nst,m,sg,3,d,,' drel='sent-adv:kahA' posn='10' name='sAWa' chunkId='NP' chunkType='head:NP'>
2	hI	RP	<fs af='hI,avy,,,,,,' posn='20' drel='lwg__rp:sAWa' chunkType='child:NP' name='hI'>
3	yaha	PRP	<fs af='yaha,pn,any,sg,3,d,0,0' drel='k2:kahA' posn='30' name='yaha' chunkId='NP2' chunkType='head:NP2'>
4	BI	RP	<fs af='BI,avy,,,,,,' posn='40' drel='lwg__rp:yaha' chunkType='child:NP2' name='BI'>
5	kahA	VM	<fs af='kaha,v,m,sg,3,,yA_jA+yA1_hE,yA' stype='declarative' posn='50' voicetype='passive' vpos='tam_2_3' name='kahA' chunkId='VGF' chunkType='head:VGF'>
6	gayA	VAUX	<fs af='jA,v,m,sg,any,,yA1,yA1' posn='60' drel='lwg__vaux:kahA' chunkType='child:VGF' name='gayA'>
7	hE	VAUX	<fs af='hE,v,any,sg,3,,hE,hE' posn='70' drel='lwg__vaux:kahA' chunkType='child:VGF' name='hE'>
8	ki	CC	<fs af='ki,avy,,,,,,' drel='k2s:kahA' posn='80' name='ki' chunkId='CCP' chunkType='head:CCP'>
9	pArtI	NN	<fs af='pArtI,n,f,sg,3,o,0_ne,0' drel='k1:kiyA' posn='90' vpos='vib_2' name='pArtI' chunkId='NP3' chunkType='head:NP3'>
10	ne	PSP	<fs af='ne,psp,,,,,,' posn='100' drel='lwg__psp:pArtI' chunkType='child:NP3' name='ne'>
11	piCale	JJ	<fs af='piCalA,adj,m,sg,,o,,' posn='110' drel='nmod__adj:sAloM' chunkType='child:NP4' name='piCale'>
12	paccIsa	QC	<fs af='paccIsa,num,any,any,,any,,' posn='120' drel='nmod__adj:sAloM' chunkType='child:NP4' name='paccIsa'>
13	sAloM	NN	<fs af='sAla,n,m,pl,3,o,0_meM,0' drel='k7t:kiyA' posn='130' vpos='vib_4' name='sAloM' chunkId='NP4' chunkType='head:NP4'>
14	meM	PSP	<fs af='meM,psp,,,,,,' posn='140' drel='lwg__psp:sAloM' chunkType='child:NP4' name='meM'>
15	xeSa	NN	<fs af='xeSa,n,m,sg,3,o,0_kA,0' drel='r6:ejeMdA' posn='150' vpos='vib_2' name='xeSa' chunkId='NP5' chunkType='head:NP5'>
16	kA	PSP	<fs af='kA,psp,m,sg,,d,,' posn='160' drel='lwg__psp:xeSa' chunkType='child:NP5' name='kA'>
17	vEcArika	JJ	<fs af='vEcArika,adj,any,any,,d,,' posn='170' drel='nmod__adj:ejeMdA' chunkType='child:NP6' name='vEcArika'>
18	ejeMdA	NN	<fs af='ejeMdA,n,m,sg,3,d,0,0' drel='k2:kiyA' posn='180' name='ejeMdA' chunkId='NP6' chunkType='head:NP6'>
19	waya	JJ	<fs af='waya,adj,any,any,,,,' drel='pof:kiyA' posn='190' name='waya' chunkId='JJP' chunkType='head:JJP'>
20	kiyA	VM	<fs af='kara,v,m,sg,3,,yA_hE,yA' drel='ccof:ki' stype='declarative' posn='200' voicetype='active' vpos='tam_2' name='kiyA' chunkId='VGF2' chunkType='head:VGF2'>
21	hE	VAUX	<fs af='hE,v,any,sg,3,,hE,hE' posn='210' drel='lwg__vaux:kiyA' chunkType='child:VGF2' name='hE2'>
22	.	SYM	<fs af='.,punc,,,,,,' drel='rsym:kahA' posn='220' name='.' chunkId='BLK' chunkType='head:BLK'>
</Sentence>


<Sentence id="21">
1	yaha	PRP	<fs af='yaha,pn,any,sg,3,d,0,0' drel='k2:kahA' posn='10' name='yaha' chunkId='NP' chunkType='head:NP'>
2	BI	RP	<fs af='BI,avy,,,,,,' posn='20' drel='lwg__rp:yaha' chunkType='child:NP' name='BI'>
3	kahA	VM	<fs af='kaha,v,m,sg,3,,yA_jA+yA1_hE,yA' stype='declarative' posn='30' voicetype='passive' vpos='tam_2_3' name='kahA' chunkId='VGF' chunkType='head:VGF'>
4	gayA	VAUX	<fs af='jA,v,m,sg,any,,yA1,yA1' posn='40' drel='lwg__vaux:kahA' chunkType='child:VGF' name='gayA'>
5	hE	VAUX	<fs af='hE,v,any,sg,3,,hE,hE' posn='50' drel='lwg__vaux:kahA' chunkType='child:VGF' name='hE'>
6	ki	CC	<fs af='ki,avy,,,,,,' drel='rs:yaha' posn='60' name='ki' chunkId='CCP' chunkType='head:CCP'>
7	rajawa	NNC	<fs af='rajawa,n,m,sg,3,d,0,0' posn='70' drel='pof__cn:jayaMwI' chunkType='child:NP2' name='rajawa'>
8	jayaMwI	NN	<fs af='jayaMwI,n,f,sg,3,d,0,0' drel='k7t:karawI' posn='80' name='jayaMwI' chunkId='NP2' chunkType='head:NP2'>
9	hameM	PRP	<fs af='hama,pn,any,pl,1,o,ko,ko' drel='k1:karawI' posn='90' name='hameM' chunkId='NP3' chunkType='head:NP3'>
10	avasara	NN	<fs af='avasara,n,m,sg,3,d,0,0' drel='k2:karawI' posn='100' name='avasara' chunkId='NP4' chunkType='head:NP4'>
11	praxAna	NN	<fs af='praxAna,n,m,sg,3,d,0,0' drel='pof:karawI' posn='110' name='praxAna' chunkId='NP5' chunkType='head:NP5'>
12	karawI	VM	<fs af='kara,v,f,sg,3,,wA_hE,wA' drel='ccof:ki' stype='declarative' posn='120' voicetype='active' vpos='tam_2' name='karawI' chunkId='VGF2' chunkType='head:VGF2'>
13	hE	VAUX	<fs af='hE,v,any,sg,3,,hE,hE' posn='130' drel='lwg__vaux:karawI' chunkType='child:VGF2' name='hE2'>
14	ki	CC	<fs af='ki,avy,,,,,,' drel='rs:avasara' posn='140' name='ki2' chunkId='CCP2' chunkType='head:CCP2'>
15	Caha	NNPC	<fs af='Caha,n,any,sg,3,d,0,0' posn='150' drel='pof__cn:1980' chunkType='child:NP6' name='Caha'>
16	aprEla	NNPC	<fs af='aprEla,n,m,sg,3,d,0,0' posn='160' drel='pof__cn:1980' chunkType='child:NP6' name='aprEla'>
17	1980	NNP	<fs af='1980,n,any,sg,3,o,0_ko,0' drel='k7t:kie' posn='170' vpos='vib_4' name='1980' chunkId='NP6' chunkType='head:NP6'>
18	ko	PSP	<fs af='ko,psp,,,,,,' posn='180' drel='lwg__psp:1980' chunkType='child:NP6' name='ko'>
19	hamane	PRP	<fs af='hama,pn,any,pl,1,o,ne,ne' drel='k1:kie' posn='190' name='hamane' chunkId='NP7' chunkType='head:NP7'>
20	apane	PRP	<fs af='apanA,pn,m,any,any,o,0_lie,0' drel='rt:kie' posn='200' vpos='vib_2' name='apane' chunkId='NP8' chunkType='head:NP8'>
21	lie	PSP	<fs af='lie,psp,,,,,,' posn='210' drel='lwg__psp:apane' chunkType='child:NP8' name='lie'>
22	jo	DEM	<fs af='jo,pn,any,sg,3,d,,' posn='220' drel='nmod__adj:AxarSa' chunkType='child:NP9' name='jo'>
23	AxarSa	NN	<fs af='AxarSa,n,m,pl,3,d,0,0' drel='ccof:Ora' posn='230' name='AxarSa' chunkId='NP9' chunkType='head:NP9'>
24	Ora	CC	<fs af='Ora,avy,,,,,,' drel='k2:kie' posn='240' name='Ora' chunkId='CCP3' chunkType='head:CCP3'>
25	lakRya	NN	<fs af='lakRya,n,m,pl,3,d,0,0' drel='ccof:Ora' posn='250' name='lakRya' chunkId='NP10' chunkType='head:NP10'>
26	waya	JJ	<fs af='waya,adj,any,any,,,,' drel='pof:kie' posn='260' name='waya' chunkId='JJP' chunkType='head:JJP'>
27	kie	VM	<fs af='kara,v,m,pl,any,,yA_WA,yA' drel='nmod:unake' stype='declarative' posn='270' voicetype='active' vpos='tam_2' name='kie' chunkId='VGF3' chunkType='head:VGF3'>
28	We	VAUX	<fs af='WA,v,m,pl,any,,WA,WA' posn='280' drel='lwg__vaux:kie' chunkType='child:VGF3' name='We'>
29	unake	PRP	<fs af='vaha,pn,any,pl,3,o,0_prawi,ke' drel='k3:xiKAeM' posn='290' vpos='vib_2' name='unake' chunkId='NP11' chunkType='head:NP11'>
30	prawi	PSP	<fs af='prawi,psp,,,,,,' posn='300' drel='lwg__psp:unake' chunkType='child:NP11' name='prawi'>
31	Pira	RB	<fs af='Pira,adv,,,,,,' drel='adv:xiKAeM' posn='310' name='Pira' chunkId='RBP' chunkType='head:RBP'>
32	se	RP	<fs af='se,avy,,,,,,' posn='320' drel='lwg__rp:Pira' chunkType='child:RBP' name='se'>
33	samarpaNa	NN	<fs af='samarpaNa,n,m,sg,3,d,0,0' drel='k2:xiKAeM' posn='330' name='samarpaNa' chunkId='NP12' chunkType='head:NP12'>
34	xiKAeM	VM	<fs af='xiKA,v,any,pl,3,,eM,eM' drel='ccof:ki2' stype='declarative' posn='340' voicetype='active' name='xiKAeM' chunkId='VGF4' chunkType='head:VGF4'>
35	.	SYM	<fs af='.,punc,,,,,,' drel='rsym:kahA' posn='350' name='.' chunkId='BLK' chunkType='head:BLK'>
</Sentence>


<Sentence id="22">
1	rajawa	NNC	<fs af='rajawa,n,m,sg,3,d,0,0' posn='10' drel='pof__cn:jayaMwI' chunkType='child:NP' name='rajawa'>
2	jayaMwI	NN	<fs af='jayaMwI,n,f,sg,3,d,0,0' drel='k2:manAne' posn='20' name='jayaMwI' chunkId='NP' chunkType='head:NP'>
3	manAne	VM	<fs af='manA,v,any,sg,any,o,nA_vAlA,nA' drel='ccof:Ora' posn='30' vpos='tam_2' name='manAne' chunkId='VGNN' chunkType='head:VGNN'>
4	vAle	PSP	<fs af='vAlA,psp,m,sg,,o,,' posn='40' drel='lwg__psp:manAne' chunkType='child:VGNN' name='vAle'>
5	Ora	CC	<fs af='Ora,avy,,,,,,' drel='k7:hE' posn='50' name='Ora' chunkId='CCP' chunkType='head:CCP'>
6	rAjanIwika	JJ	<fs af='rAjanIwika,adj,any,any,,o,,' posn='60' drel='nmod__adj:praswAva' chunkType='child:NP2' name='rAjanIwika'>
7	praswAva	NN	<fs af='praswAva,n,m,sg,3,o,0_meM,0' drel='ccof:Ora' posn='70' vpos='vib_3' name='praswAva' chunkId='NP2' chunkType='head:NP2'>
8	meM	PSP	<fs af='meM,psp,,,,,,' posn='80' drel='lwg__psp:praswAva' chunkType='child:NP2' name='meM'>
9	isa	DEM	<fs af='yaha,pn,any,sg,3,o,,' posn='90' drel='nmod__adj:bAwa' chunkType='child:NP3' name='isa'>
10	bAwa	NN	<fs af='bAwa,n,f,sg,3,o,0_kA,0' drel='r6:jikra' posn='100' vpos='vib_3' name='bAwa' chunkId='NP3' chunkType='head:NP3'>
11	kA	PSP	<fs af='kA,psp,m,sg,,d,,' posn='110' drel='lwg__psp:bAwa' chunkType='child:NP3' name='kA'>
12	koI	PRP	<fs af='koI,pn,any,sg,3,d,0,0' posn='120' drel='nmod__adj:jikra' chunkType='child:NP4' name='koI'>
13	jikra	NN	<fs af='jikra,n,m,sg,3,d,0,0' drel='k1:hE' posn='130' name='jikra' chunkId='NP4' chunkType='head:NP4'>
14	nahIM	NEG	<fs af='nahIM,avy,,,,,,' posn='140' drel='lwg__neg:hE' chunkType='child:VGF' name='nahIM'>
15	hE	VM	<fs af='hE,v,any,sg,3,,hE,hE' stype='declarative' posn='150' voicetype='active' name='hE' chunkId='VGF' chunkType='head:VGF'>
16	ki	CC	<fs af='ki,avy,,,,,,' drel='rs:bAwa' posn='160' name='ki' chunkId='CCP2' chunkType='head:CCP2'>
17	pArtI	NN	<fs af='pArtI,n,f,sg,3,o,0_ne,0' drel='k1:liyA' posn='170' vpos='vib_2' name='pArtI' chunkId='NP5' chunkType='head:NP5'>
18	ne	PSP	<fs af='ne,psp,,,,,,' posn='180' drel='lwg__psp:pArtI' chunkType='child:NP5' name='ne'>
19	paccIsa	QC	<fs af='paccIsa,num,any,any,,any,,' posn='190' drel='nmod__adj:sAla' chunkType='child:NP6' name='paccIsa'>
20	sAla	NN	<fs af='sAla,n,m,sg,3,d,0_pahale,0' drel='k7t:calane' posn='200' vpos='vib_3' name='sAla' chunkId='NP6' chunkType='head:NP6'>
21	pahale	NST	<fs af='pahale,nst,m,sg,3,d,,' posn='210' drel='lwg__psp:sAla' chunkType='child:NP6' name='pahale'>
22	jisa	DEM	<fs af='jo,pn,any,sg,3,o,,' posn='220' drel='nmod__adj:rAswe' chunkType='child:NP7' name='jisa'>
23	rAswe	NN	<fs af='rAswA,n,m,sg,3,o,0_para,0' drel='k7:calane' posn='230' coref=':NP9' vpos='vib_3' name='rAswe' chunkId='NP7' chunkType='head:NP7'>
24	para	PSP	<fs af='para,psp,,,,,,' posn='240' drel='lwg__psp:rAswe' chunkType='child:NP7' name='para'>
25	calane	VM	<fs af='cala,v,any,sg,any,o,nA_kA,nA' drel='r6:saMkalpa' posn='250' vpos='tam_2' name='calane' chunkId='VGNN2' chunkType='head:VGNN2'>
26	kA	PSP	<fs af='kA,psp,m,sg,,d,,' posn='260' drel='lwg__psp:calane' chunkType='child:VGNN2' name='kA2'>
27	saMkalpa	NN	<fs af='saMkalpa,n,m,sg,3,d,0,0' drel='k2:liyA' posn='270' name='saMkalpa' chunkId='NP8' chunkType='head:NP8'>
28	liyA	VM	<fs af='le,v,m,sg,any,,yA_WA,yA' drel='nmod__relc:rAswA' stype='declarative' posn='280' voicetype='active' vpos='tam_2' name='liyA' chunkId='VGF2' chunkType='head:VGF2'>
29	WA	VAUX	<fs af='WA,v,m,sg,any,,WA,WA' posn='290' drel='lwg__vaux:liyA' chunkType='child:VGF2' name='WA'>
30	,	SYM	<fs af='COMMA,punc,,,,,,' posn='300' drel='rsym:liyA' chunkType='child:VGF2' name=','>
31	vaha	DEM	<fs af='vaha,pn,any,sg,3,d,,' posn='310' drel='nmod__adj:rAswA' chunkType='child:NP9' name='vaha'>
32	rAswA	NN	<fs af='rAswA,n,m,sg,3,d,0,0' drel='k1:hE2' posn='320' name='rAswA' chunkId='NP9' chunkType='head:NP9'>
33	kyA	WQ	<fs af='kyA,pn,,,,,,' drel='adv:hE2' posn='330' name='kyA' chunkId='RBP' chunkType='head:RBP'>
34	vahI	PRP	<fs af='vaha,pn,m,sg,3,d,0,0' drel='k1s:hE2' posn='340' name='vahI' chunkId='NP10' chunkType='head:NP10'>
35	hE	VM	<fs af='hE,v,any,sg,3,,hE,hE' drel='ccof:ki' stype='declarative' posn='350' voicetype='active' name='hE2' chunkId='VGF3' chunkType='head:VGF3'>
36	jisa	PRP	<fs af='jo,pn,any,sg,3,o,0_para,0' drel='k7p:hE3' posn='360' coref=':NP10' vpos='vib_2' name='jisa2' chunkId='NP11' chunkType='head:NP11'>
37	para	PSP	<fs af='para,psp,,,,,,' posn='370' drel='lwg__psp:jisa2' chunkType='child:NP11' name='para2'>
38	vaha	PRP	<fs af='vaha,pn,any,sg,3,d,0,0' drel='k1:hE3' posn='380' name='vaha2' chunkId='NP12' chunkType='head:NP12'>
39	Aja	NN	<fs af='Aja,n,m,sg,3,d,0,0' drel='k7t:hE3' posn='390' name='Aja' chunkId='NP13' chunkType='head:NP13'>
40	KadZI	JJ	<fs af='KadZA,adj,f,sg,,,,' drel='k1s:hE3' posn='400' name='KadZI' chunkId='JJP' chunkType='head:JJP'>
41	hE	VM	<fs af='hE,v,any,sg,3,,hE,hE' drel='nmod__relc:vahI' stype='declarative' posn='410' voicetype='active' name='hE3' chunkId='VGF4' chunkType='head:VGF4'>
42	.	SYM	<fs af='.,punc,,,,,,' drel='rsym:hE' posn='420' name='.' chunkId='BLK' chunkType='head:BLK'>
</Sentence>


<Sentence id="23">
1	kyA	WQ	<fs af='kyA,pn,,,,,,' drel='adv:mAnawI' posn='10' name='kyA' chunkId='RBP' chunkType='head:RBP'>
2	pArtI	NN	<fs af='pArtI,n,f,sg,3,d,0,0' drel='k1:mAnawI' posn='20' name='pArtI' chunkId='NP' chunkType='head:NP'>
3	usa	DEM	<fs af='vaha,pn,any,sg,3,d,,' posn='30' drel='nmod__adj:samaya' chunkType='child:NP2' name='usa'>
4	samaya	NN	<fs af='samaya,n,m,sg,3,d,0,0' drel='k7t:mAnawI' posn='40' name='samaya' chunkId='NP2' chunkType='head:NP2'>
5	BI	RP	<fs af='BI,avy,,,,,,' posn='50' drel='lwg__rp:samaya' chunkType='child:NP2' name='BI'>
6	mAnawI	VM	<fs af='mAna,v,f,sg,any,,wA_WA,wA' stype='declarative' posn='60' voicetype='active' vpos='tam_2' name='mAnawI' chunkId='VGF' chunkType='head:VGF'>
7	WI	VAUX	<fs af='WA,v,f,sg,any,,WA,WA' posn='70' drel='lwg__vaux:mAnawI' chunkType='child:VGF' name='WI'>
8	ki	CC	<fs af='ki,avy,,,,,,' drel='k2:mAnawI' posn='80' name='ki' chunkId='CCP' chunkType='head:CCP'>
9	vicAraXArA	NN	<fs af='vicAraXArA,n,f,sg,3,o,0_para,0' drel='jjmod:AXAriwa' posn='90' vpos='vib_2' name='vicAraXArA' chunkId='NP3' chunkType='head:NP3'>
10	para	PSP	<fs af='para,psp,,,,,,' posn='100' drel='lwg__psp:vicAraXArA' chunkType='child:NP3' name='para'>
11	AXAriwa	JJ	<fs af='AXAriwa,adj,any,any,,o,,' drel='nmod:saMgaTana' posn='110' name='AXAriwa' chunkId='JJP' chunkType='head:JJP'>
12	saMgaTana	NN	<fs af='saMgaTana,n,m,sg,3,o,0_kA,0' drel='r6:vikAsa' posn='120' vpos='vib_2' name='saMgaTana' chunkId='NP4' chunkType='head:NP4'>
13	ke	PSP	<fs af='kA,psp,m,sg,,o,,' posn='130' drel='lwg__psp:saMgaTana' chunkType='child:NP4' name='ke'>
14	vikAsa	NN	<fs af='vikAsa,n,m,sg,3,o,0_kA,0' drel='r6:sImAeM' posn='140' vpos='vib_2' name='vikAsa' chunkId='NP5' chunkType='head:NP5'>
15	kI	PSP	<fs af='kA,psp,f,pl,,d,,' posn='150' drel='lwg__psp:vikAsa' chunkType='child:NP5' name='kI'>
16	apanI	PRP	<fs af='apanA,pn,f,any,any,d,0,0' drel='r6:sImAeM' posn='160' name='apanI' chunkId='NP6' chunkType='head:NP6'>
17	sImAeM	NN	<fs af='sImA,n,f,pl,3,d,0,0' drel='k1:hEM' posn='170' name='sImAeM' chunkId='NP7' chunkType='head:NP7'>
18	hEM	VM	<fs af='hE,v,any,pl,3,,hE,hE' drel='ccof:ki' stype='declarative' posn='180' voicetype='active' name='hEM' chunkId='VGF2' chunkType='head:VGF2'>
19	.	SYM	<fs af='.,punc,,,,,,' drel='rsym:mAnawI' posn='190' name='.' chunkId='BLK' chunkType='head:BLK'>
</Sentence>


<Sentence id="24">
1	Ora	CC	<fs af='Ora,avy,,,,,,' posn='10' name='Ora' chunkId='CCP' chunkType='head:CCP'>
2	kyA	WQ	<fs af='kyA,pn,,,,,,' drel='adv:hE' posn='20' name='kyA' chunkId='RBP' chunkType='head:RBP'>
3	sawwA	NN	<fs af='sawwA,n,f,sg,3,o,0_ke_lie,0' drel='rt:hE' posn='30' vpos='vib_2_3' name='sawwA' chunkId='NP' chunkType='head:NP'>
4	ke	PSP	<fs af='ke,psp,,,,,,' posn='40' drel='lwg__psp:sawwA' chunkType='child:NP' name='ke'>
5	lie	PSP	<fs af='lie,psp,,,,,,' posn='50' drel='lwg__psp:sawwA' chunkType='child:NP' name='lie'>
6	vicAraXArA	NN	<fs af='vicAraXArA,n,f,sg,3,o,0_se,0' drel='k5:hE' posn='60' vpos='vib_2' name='vicAraXArA' chunkId='NP2' chunkType='head:NP2'>
7	se	PSP	<fs af='se,psp,,,,,,' posn='70' drel='lwg__psp:vicAraXArA' chunkType='child:NP2' name='se'>
8	vicalana	NN	<fs af='vicalana,n,m,sg,3,d,0,0' drel='k1:hE' posn='80' name='vicalana' chunkId='NP3' chunkType='head:NP3'>
9	AvaSyaka	JJ	<fs af='AvaSyaka,adj,any,any,,,,' drel='k1s:hE' posn='90' name='AvaSyaka' chunkId='JJP' chunkType='head:JJP'>
10	hE	VM	<fs af='hE,v,any,sg,3,,hE,hE' drel='ccof:Ora' stype='declarative' posn='100' voicetype='active' name='hE' chunkId='VGF' chunkType='head:VGF'>
11	.	SYM	<fs af='.,punc,,,,,,' drel='rsym:Ora' posn='110' name='.' chunkId='BLK' chunkType='head:BLK'>
</Sentence>


<Sentence id="25">
1	jisa	DEM	<fs af='jo,pn,any,sg,3,o,,' posn='10' drel='nmod__adj:vicAraXArA' chunkType='child:NP' name='jisa'>
2	vicAraXArA	NN	<fs af='vicAraXArA,n,f,sg,3,o,0_para,0' drel='k7:karane' posn='20' coref=':NP5' vpos='vib_3' name='vicAraXArA' chunkId='NP' chunkType='head:NP'>
3	para	PSP	<fs af='para,psp,,,,,,' posn='30' drel='lwg__psp:vicAraXArA' chunkType='child:NP' name='para'>
4	pArtI	NN	<fs af='pArtI,n,f,sg,3,d,0,0' drel='k1:karane' posn='40' name='pArtI' chunkId='NP2' chunkType='head:NP2'>
5	garva	NN	<fs af='garva,n,m,sg,3,d,0,0' drel='pof:karane' posn='50' name='garva' chunkId='NP3' chunkType='head:NP3'>
6	karane	VM	<fs af='kara,v,any,sg,any,o,nA_kA,nA' drel='r6-k2:bAwa' posn='60' vpos='tam_2' name='karane' chunkId='VGNN' chunkType='head:VGNN'>
7	kI	PSP	<fs af='kA,psp,f,sg,,d,,' posn='70' drel='lwg__psp:karane' chunkType='child:VGNN' name='kI'>
8	bAwa	NN	<fs af='bAwa,n,f,sg,3,d,0,0' drel='pof:kara' posn='80' name='bAwa' chunkId='NP4' chunkType='head:NP4'>
9	kara	VM	<fs af='kara,v,f,sg,3,,0_raha+yA_hE,0' drel='nmod__relc:usa' stype='declarative' posn='90' voicetype='active' vpos='tam_2_3' name='kara' chunkId='VGF' chunkType='head:VGF'>
10	rahI	VAUX	<fs af='raha,v,f,sg,any,,yA,yA' posn='100' drel='lwg__vaux:kara' chunkType='child:VGF' name='rahI'>
11	hE	VAUX	<fs af='hE,v,any,sg,3,,hE,hE' posn='110' drel='lwg__vaux:kara' chunkType='child:VGF' name='hE'>
12	usa	PRP	<fs af='vaha,pn,any,sg,3,o,0_para,0' drel='k7:hE2' posn='120' vpos='vib_2' name='usa' chunkId='NP5' chunkType='head:NP5'>
13	para	PSP	<fs af='para,psp,,,,,,' posn='130' drel='lwg__psp:usa' chunkType='child:NP5' name='para2'>
14	vaha	PRP	<fs af='vaha,pn,any,sg,3,d,0,0' drel='k1:hE2' posn='140' name='vaha' chunkId='NP6' chunkType='head:NP6'>
15	Aja	NN	<fs af='Aja,n,m,sg,3,d,0,0' drel='k7t:hE2' posn='150' name='Aja' chunkId='NP7' chunkType='head:NP7'>
16	kahAz	WQ	<fs af='kahAz,pn,,,,,,' drel='vmod:hE2' posn='160' name='kahAz' chunkId='NP8' chunkType='head:NP8'>
17	KadZI	JJ	<fs af='KadZA,adj,f,sg,,,,' drel='pof:hE2' posn='170' name='KadZI' chunkId='JJP' chunkType='head:JJP'>
18	hE	VM	<fs af='hE,v,any,sg,3,,hE,hE' stype='interrogative' posn='180' voicetype='active' name='hE2' chunkId='VGF2' chunkType='head:VGF2'>
19	?	SYM	<fs af='?,punc,,,,,,' drel='rsym:hE2' posn='190' name='?' chunkId='BLK' chunkType='head:BLK'>
</Sentence>


<Sentence id="26">
1	pArtI	NN	<fs af='pArtI,n,f,sg,3,o,0_kA,0' drel='r6:saMskqwi' posn='10' vpos='vib_2' name='pArtI' chunkId='NP' chunkType='head:NP'>
2	kI	PSP	<fs af='kA,psp,f,sg,,o,,' posn='20' drel='lwg__psp:pArtI' chunkType='child:NP' name='kI'>
3	paMcawArA	NNC	<fs af='paMcawArA,n,m,sg,3,d,0,0' posn='30' drel='pof__cn:saMskqwi' chunkType='child:NP2' name='paMcawArA'>
4	saMskqwi	NN	<fs af='saMskqwi,n,f,sg,3,o,0_meM,0' drel='k7:hE' posn='40' vpos='vib_3' name='saMskqwi' chunkId='NP2' chunkType='head:NP2'>
5	meM	PSP	<fs af='meM,psp,,,,,,' posn='50' drel='lwg__psp:saMskqwi' chunkType='child:NP2' name='meM'>
6	xeSa	NN	<fs af='xeSa,n,m,sg,3,o,0_kA,0' drel='r6:AxamI' posn='60' vpos='vib_2' name='xeSa' chunkId='NP3' chunkType='head:NP3'>
7	ke	PSP	<fs af='kA,psp,m,sg,,o,,' posn='70' drel='lwg__psp:xeSa' chunkType='child:NP3' name='ke'>
8	Ama	JJ	<fs af='Ama,adj,any,any,,o,,' posn='80' drel='nmod__adj:AxamI' chunkType='child:NP4' name='Ama'>
9	AxamI	NN	<fs af='AxamI,n,m,sg,3,o,0,0' drel='ccof:Ora' posn='90' name='AxamI' chunkId='NP4' chunkType='head:NP4'>
10	Ora	CC	<fs af='Ora,avy,,,,,,' drel='r6:jagaha' posn='100' name='Ora' chunkId='CCP' chunkType='head:CCP'>
11	Ama	JJ	<fs af='Ama,adj,any,any,,o,,' posn='110' drel='nmod__adj:karwA' chunkType='child:NP5' name='Ama2'>
12	kArya	NNC	<fs af='kArya,n,m,sg,3,d,0,0' posn='120' drel='pof__cn:karwA' chunkType='child:NP5' name='kArya'>
13	-	SYM	<fs af='-,punc,,,,,,' posn='130' drel='pof__cn:karwA' chunkType='child:NP5' name='-'>
14	karwA	NN	<fs af='karwA,n,m,sg,3,o,0_kA,0' drel='ccof:Ora' posn='140' vpos='vib_5' name='karwA' chunkId='NP5' chunkType='head:NP5'>
15	kI	PSP	<fs af='kA,psp,f,sg,,d,,' posn='150' drel='lwg__psp:karwA' chunkType='child:NP5' name='kI2'>
16	jagaha	NN	<fs af='jagaha,n,f,sg,3,d,0,0' drel='k1:hE' posn='160' name='jagaha' chunkId='NP6' chunkType='head:NP6'>
17	kahAz	WQ	<fs af='kahAz,pn,,,,,,' drel='k7:hE' posn='170' name='kahAz' chunkId='NP7' chunkType='head:NP7'>
18	hE	VM	<fs af='hE,v,any,sg,3,,hE,hE' stype='declarative' posn='180' voicetype='active' name='hE' chunkId='VGF' chunkType='head:VGF'>
19	?	SYM	<fs af='?,punc,,,,,,' drel='rsym:hE' posn='190' name='?' chunkId='BLK' chunkType='head:BLK'>
</Sentence>


</text>
</tb>
</body>
</document>
