<document id="2481940">
<head>
<title>  </title>			
<author>			
<firstname>  </firstname>			
<middlename>    </middlename>			
<lastname></lastname>			
</author>			
<availability format="electronic" ></availability>			
<bibl>			
</bibl>			
<bytecount>4.0K</bytecount>			
<domain name="general" ></domain>			
<creation creationdate="19/06/2007" institutename="IIIT Hyderabad">			
<creatorname>			
<lastname>Dipti</lastname>			
<middlename>			
</middlename>			
<firstname>Sharma</firstname>			
</creatorname>			
</creation>			
<distributor>CLIA Consortia, DIT</distributor>			
<edition number="1.0" ></edition>			
<encodingdesc>			
<newencoding>Unicode(UTF-8)</newencoding>			
<originalencoding>UTF-8</originalencoding>			
</encodingdesc>			
<sentencemarker marker=".">Specify Marker</sentencemarker>			
<language name="hi" writingsystem="LTR" script="Devanagari" ></language>			
<normalization normalized="no">			
<utilityname>xxx.exe</utilityname>			
</normalization>			
<projectdesc name="ILMT" ></projectdesc>			
<pubaddress addresstype="web">			
</pubaddress>			
<pubdate>			
<dateofpublication></dateofpublication>			
</pubdate>			
<publicationstmt type="copyrightfree">			
</publicationstmt>			
<publisher>			
<name></name>			
<url>xxx.com</url>			
</publisher>			
<pubplace place="books" ></pubplace>			
<wordcount>1  </wordcount>			
<caption>pIsIbI kA sIIo paxa CodZA isalAmAbAxa. </caption>			
			

</head>
<body>
<tb number="1" segment="no" bullet="no">
<foreign language="select" writingsystem="LTR"> </foreign>			
<text>
<Sentence id="1">
1	pAkiswAna	NNPC	<fs af='pAkiswAna,n,m,sg,3,d,0,0' posn='10' drel='pof__cn:borda' chunkType='child:NP' name='pAkiswAna'>
2	kriketa	NNPC	<fs af='kriketa,n,m,sg,3,d,0,0' posn='20' drel='pof__cn:borda' chunkType='child:NP' name='kriketa'>
3	borda	NNP	<fs af='borda,n,m,sg,3,o,0_kA,0' drel='r6:aXikArI' posn='30' vpos='vib_4' name='borda' chunkId='NP' chunkType='head:NP'>
4	ke	PSP	<fs af='kA,psp,m,sg,,o,,' posn='40' drel='lwg__psp:borda' chunkType='child:NP' name='ke'>
5	muKya	NNC	<fs af='muKya,adj,any,any,,o,,' posn='50' drel='pof__cn:aXikArI' chunkType='child:NP2' name='muKya'>
6	kAryakArI	NNC	<fs af='kAryakArI,n,m,sg,3,d,0,0' posn='60' drel='pof__cn:aXikArI' chunkType='child:NP2' name='kAryakArI'>
7	aXikArI	NN	<fs af='aXikArI,n,m,sg,3,d,0,0' drel='nmod:rAjA' posn='70' name='aXikArI' chunkId='NP2' chunkType='head:NP2'>
8	ramIja	NNPC	<fs af='ramIja,n,m,sg,3,d,0,0' posn='80' drel='pof__cn:rAjA' chunkType='child:NP3' name='ramIja'>
9	rAjA	NNP	<fs af='rAjA,n,m,sg,3,o,0_ne,0' drel='k1:xe' posn='90' vpos='vib_3' name='rAjA' chunkId='NP3' chunkType='head:NP3'>
10	ne	PSP	<fs af='ne,psp,,,,,,' posn='100' drel='lwg__psp:rAjA' chunkType='child:NP3' name='ne'>
11	apane	PRP	<fs af='apanA,pn,m,any,any,o,0,0' drel='r6:paxa' posn='110' name='apane' chunkId='NP4' chunkType='head:NP4'>
12	paxa	NN	<fs af='paxa,n,m,sg,3,o,0_se,0' drel='k5:xe' posn='120' vpos='vib_2' name='paxa' chunkId='NP5' chunkType='head:NP5'>
13	se	PSP	<fs af='se,psp,,,,,,' posn='130' drel='lwg__psp:paxa' chunkType='child:NP5' name='se'>
14	iswIPZA	NN	<fs af='iswIPA,n,m,sg,3,d,0,0' drel='pof:xe' posn='140' name='iswIPZA' chunkId='NP6' chunkType='head:NP6'>
15	xe	VM	<fs af='xe,v,m,sg,3,,0_xe+yA_hE,0' stype='declarative' posn='150' voicetype='active' vpos='tam_2_3' name='xe' chunkId='VGF' chunkType='head:VGF'>
16	xiyA	VAUX	<fs af='xe,v,m,sg,any,,yA,yA' posn='160' drel='lwg__vaux:xe' chunkType='child:VGF' name='xiyA'>
17	hE	VAUX	<fs af='hE,v,any,sg,3,,hE,hE' posn='170' drel='lwg__vaux:xe' chunkType='child:VGF' name='hE'>
18	.	SYM	<fs af='.,punc,,,,,,' drel='rsym:xe' posn='180' name='.' chunkId='BLK' chunkType='head:BLK'>
</Sentence>


<Sentence id="2">
1	pUrva	JJ	<fs af='pUrva,adj,any,any,,o,,' posn='10' drel='nmod__adj:ballebAja' chunkType='child:NP' name='pUrva'>
2	salAmI	JJ	<fs af='salAmI,adj,any,any,,o,,' posn='10' drel='nmod__adj:ballebAja' chunkType='child:NP' name='salAmI'>
3	ballebAja	NN	<fs af='ballebAja,n,m,sg,3,o,0,0' drel='nmod:ramIja' posn='30' name='ballebAja' chunkId='NP' chunkType='head:NP'>
4	ramIja	NNP	<fs af='ramIja,n,m,sg,3,o,0_kA,0' drel='r6:borda' posn='40' vpos='vib_2' name='ramIja' chunkId='NP2' chunkType='head:NP2'>
5	kA	PSP	<fs af='kA,psp,f,sg,,o,,' posn='50' drel='lwg__psp:ramIja' chunkType='child:NP2' name='kA'>
6	borda	NN	<fs af='borda,n,m,sg,3,o,0_meM,0' drel='k7:rahawe' posn='60' vpos='vib_2' name='borda' chunkId='NP3' chunkType='head:NP3'>
7	meM	PSP	<fs af='meM,psp,,,,,,' posn='70' drel='lwg__psp:borda' chunkType='child:NP3' name='meM'>
8	sIIo	NN	<fs af='sIIo,n,m,sg,3,d,0,0' drel='nmod__k1inv:rahawe' posn='80' name='sIIo' chunkId='NP4' chunkType='head:NP4'>
9	rahawe	VM	<fs af='raha,v,m,sg,3,,wA_ho+yA,wA' drel='vmod:ho' posn='90' vpos='tam_2' name='rahawe' chunkId='VGNF' chunkType='head:VGNF'>
10	hue	VAUX	<fs af='ho,v,m,sg,3,,yA,yA' posn='100' drel='lwg__vaux:rahawe' chunkType='child:VGNF' name='hue'>
11	tIvI	NNC	<fs af='tIvI,n,m,sg,3,d,0,0' posn='110' drel='pof__cn:kameMtarI' chunkType='child:NP5' name='tIvI'>
12	kameMtarI	NN	<fs af='kameMtarI,n,f,sg,3,d,0,0' drel='k2:karane' posn='120' name='kameMtarI' chunkId='NP5' chunkType='head:NP5'>
13	karane	VM	<fs af='kara,v,any,sg,any,o,nA_kA,nA' drel='r6-k1:AlocanA' posn='130' vpos='tam_2' name='karane' chunkId='VGNN' chunkType='head:VGNN'>
14	kI	PSP	<fs af='kA,psp,f,sg,,d,,' posn='140' drel='lwg__psp:karane' chunkType='child:VGNN' name='kI'>
15	kAPZI	QF	<fs af='kAPI,avy,,,,,,' posn='150' drel='nmod__adj:AlocanA' chunkType='child:NP6' name='kAPZI'>
16	AlocanA	NN	<fs af='AlocanA,n,f,sg,3,d,0,0' drel='pof:ho' posn='160' name='AlocanA' chunkId='NP6' chunkType='head:NP6'>
17	ho	VM	<fs af='ho,v,f,sg,3,,0_raha+yA_WA,0' stype='declarative' posn='170' voicetype='active' vpos='tam_2_3' name='ho' chunkId='VGF' chunkType='head:VGF'>
18	rahI	VAUX	<fs af='raha,v,f,sg,3,,yA,yA' posn='180' drel='lwg__vaux:ho' chunkType='child:VGF' name='rahI'>
19	WI	VAUX	<fs af='WA,v,f,sg,3,,WA,WA' posn='190' drel='lwg__vaux:ho' chunkType='child:VGF' name='WI'>
20	.	SYM	<fs af='.,punc,,,,,,' drel='rsym:ho' posn='200' name='.' chunkId='BLK' chunkType='head:BLK'>
</Sentence>


<Sentence id="3">
1	ramIja	NNP	<fs af='ramIja,n,m,sg,3,o,0_ne,0' drel='k1:kahA' posn='10' vpos='vib_2' name='ramIja' chunkId='NP' chunkType='head:NP'>
2	ne	PSP	<fs af='ne,psp,,,,,,' posn='20' drel='lwg__psp:ramIja' chunkType='child:NP' name='ne'>
3	kahA	VM	<fs af='kaha,v,m,sg,any,,yA,yA' stype='declarative' posn='30' voicetype='active' name='kahA' chunkId='VGF' chunkType='head:VGF'>
4	ki	CC	<fs af='ki,avy,,,,,,' drel='k2:kahA' posn='40' name='ki' chunkId='CCP' chunkType='head:CCP'>
5	unake	PRP	<fs af='vaha,pn,any,sg,3h,o,0_lie,ke' drel='rt:CodZane' posn='50' vpos='vib_2' name='unake' chunkId='NP2' chunkType='head:NP2'>
6	lie	PSP	<fs af='lie,psp,,,,,,' posn='60' drel='lwg__psp:unake' chunkType='child:NP2' name='lie'>
7	pIsIbI	NNC	<fs af='pIsIbI,n,m,sg,3,d,0,0' posn='70' drel='pof__cn:paxa' chunkType='child:NP3' name='pIsIbI'>
8	sIIo	NNC	<fs af='sIIo,n,m,sg,3,d,0,0' posn='80' drel='pof__cn:paxa' chunkType='child:NP3' name='sIIo'>
9	paxa	NN	<fs af='paxa,n,m,sg,3,d,0,0' drel='k2:CodZane' posn='90' name='paxa' chunkId='NP3' chunkType='head:NP3'>
10	CodZane	VM	<fs af='Coda,v,any,sg,any,o,nA_kA,nA' drel='r6:samaya' posn='100' vpos='tam_2' name='CodZane' chunkId='VGNN' chunkType='head:VGNN'>
11	kA	PSP	<fs af='kA,psp,m,sg,,d,,' posn='110' drel='lwg__psp:CodZane' chunkType='child:VGNN' name='kA'>
12	yaha	DEM	<fs af='yaha,pn,any,sg,3,d,,' posn='120' drel='nmod__adj:samaya' chunkType='child:NP4' name='yaha'>
13	uciwa	JJ	<fs af='uciwa,adj,any,any,,d,,' posn='130' drel='nmod__adj:samaya' chunkType='child:NP4' name='uciwa'>
14	samaya	NN	<fs af='samaya,n,m,sg,3,d,0,0' drel='k1:hE' posn='140' name='samaya' chunkId='NP4' chunkType='head:NP4'>
15	hE	VM	<fs af='hE,v,any,sg,3,,hE,hE' drel='ccof:ki' stype='declarative' posn='150' voicetype='active' name='hE' chunkId='VGF2' chunkType='head:VGF2'>
16	.	SYM	<fs af='.,punc,,,,,,' drel='rsym:kahA' posn='160' name='.' chunkId='BLK' chunkType='head:BLK'>
</Sentence>


<Sentence id="4">
1	ramIja	NNP	<fs af='ramIja,n,m,sg,3,o,0_ne,0' drel='k1:kahA' posn='10' vpos='vib_2' name='ramIja' chunkId='NP' chunkType='head:NP'>
2	ne	PSP	<fs af='ne,psp,,,,,,' posn='20' drel='lwg__psp:ramIja' chunkType='child:NP' name='ne'>
3	kahA	VM	<fs af='kaha,v,m,sg,any,,yA,yA' stype='declarative' posn='30' voicetype='active' name='kahA' chunkId='VGF' chunkType='head:VGF'>
4	ki	CC	<fs af='ki,avy,,,,,,' drel='k2:kahA' posn='40' name='ki' chunkId='CCP' chunkType='head:CCP'>
5	unhoMne	PRP	<fs af='vaha,pn,any,sg,3h,o,ne,ne' drel='k1:kara' posn='50' name='unhoMne' chunkId='NP2' chunkType='head:NP2'>
6	borda	NN	<fs af='borda,n,m,sg,3,o,0_ko,0' drel='k4:kara' posn='60' vpos='vib_2' name='borda' chunkId='NP3' chunkType='head:NP3'>
7	ko	PSP	<fs af='ko,psp,,,,,,' posn='70' drel='lwg__psp:borda' chunkType='child:NP3' name='ko'>
8	NULL	PRP	<fs mtype='gap' troot='yaha' drel='k2:kara' name='NULL' chunkId='NULL__NP' chunkType='head:NULL__NP'>
9	sAPZa	JJ	<fs af='sAPa,adj,any,any,,,,' drel='pof:kara' posn='80' name='sAPZa' chunkId='JJP' chunkType='head:JJP'>
10	kara	VM	<fs af='kara,v,m,sg,3,,0_xe+yA_hE,0' drel='ccof:ki' stype='declarative' posn='90' voicetype='active' vpos='tam_2_3' name='kara' chunkId='VGF2' chunkType='head:VGF2'>
11	xiyA	VAUX	<fs af='xe,v,m,sg,any,,yA,yA' posn='100' drel='lwg__vaux:kara' chunkType='child:VGF2' name='xiyA'>
12	hE	VAUX	<fs af='hE,v,any,sg,3,,hE,hE' posn='110' drel='lwg__vaux:kara' chunkType='child:VGF2' name='hE'>
13	ki	CC	<fs af='ki,avy,,,,,,' drel='rs:NULL' posn='120' name='ki2' chunkId='CCP2' chunkType='head:CCP2'>
14	unake	PRP	<fs af='vaha,pn,any,sg,3h,o,0_lie,ke' drel='rt:hE2' posn='130' vpos='vib_2' name='unake' chunkId='NP4' chunkType='head:NP4'>
15	lie	PSP	<fs af='lie,psp,,,,,,' posn='140' drel='lwg__psp:unake' chunkType='child:NP4' name='lie'>
16	mIdiyA	NNC	<fs af='mIdiyA,n,m,sg,3,d,0,0' posn='160' drel='pof__cn:kRewra' chunkType='child:NP5' name='mIdiyA'>
17	kRewra	NN	<fs af='kRewra,n,m,sg,3,d,0,0' drel='k1:hE2' posn='160' name='kRewra' chunkId='NP5' chunkType='head:NP5'>
18	behaxa	INTF	<fs af='behaxa,avy,,,,,,' posn='170' drel='jjmod__intf:mahawvapUrNa' chunkType='child:JJP2' name='behaxa'>
19	mahawvapUrNa	JJ	<fs af='mahawvapUrNa,adj,any,any,,,,' drel='k1s:hE2' posn='180' name='mahawvapUrNa' chunkId='JJP2' chunkType='head:JJP2'>
20	hE	VM	<fs af='hE,v,any,sg,3,,hE,hE' drel='ccof:ki2' stype='declarative' posn='190' voicetype='active' name='hE2' chunkId='VGF3' chunkType='head:VGF3'>
21	.	SYM	<fs af='.,punc,,,,,,' drel='rsym:kahA' posn='200' name='.' chunkId='BLK' chunkType='head:BLK'>
</Sentence>


<Sentence id="5">
1	hAlAMki	CC	<fs af='hAlAMki,avy,,,,,,' posn='10' name='hAlAMki' chunkId='CCP' chunkType='head:CCP'>
2	unhoMne	PRP	<fs af='vaha,pn,any,sg,3h,o,ne,ne' drel='k1:kiyA' posn='20' name='unhoMne' chunkId='NP' chunkType='head:NP'>
3	isa	DEM	<fs af='yaha,pn,any,sg,3,o,,' posn='30' drel='nmod__adj:bAwa' chunkType='child:NP2' name='isa'>
4	bAwa	NN	<fs af='bAwa,n,f,sg,3,o,0_se,0' drel='k2:kiyA' posn='40' vpos='vib_3' name='bAwa' chunkId='NP2' chunkType='head:NP2'>
5	se	PSP	<fs af='se,psp,,,,,,' posn='50' drel='lwg__psp:bAwa' chunkType='child:NP2' name='se'>
6	inakAra	NN	<fs af='inakAra,n,m,sg,3,d,0,0' drel='pof:kiyA' posn='60' name='inakAra' chunkId='NP3' chunkType='head:NP3'>
7	kiyA	VM	<fs af='kara,v,m,sg,any,,yA,yA' drel='ccof:hAlAMki' stype='declarative' posn='70' voicetype='active' name='kiyA' chunkId='VGF' chunkType='head:VGF'>
8	ki	CC	<fs af='ki,avy,,,,,,' drel='rs:bAwa' posn='80' name='ki' chunkId='CCP2' chunkType='head:CCP2'>
9	unhoMne	PRP	<fs af='vaha,pn,any,sg,3h,o,ne,ne' drel='k1:xiyA' posn='90' name='unhoMne2' chunkId='NP4' chunkType='head:NP4'>
10	iswIPZA	NN	<fs af='iswIPA,n,m,sg,3,d,0,0' drel='k2:xiyA' posn='100' name='iswIPZA' chunkId='NP5' chunkType='head:NP5'>
11	AlocanAoM	NN	<fs af='AlocanA,n,f,pl,3,o,0_kA_vajaha_se,0' drel='rh:xiyA' posn='110' vpos='vib_2_3_4' name='AlocanAoM' chunkId='NP6' chunkType='head:NP6'>
12	kI	PSP	<fs af='kA,psp,f,,,o,,' posn='120' drel='lwg__psp:AlocanAoM' chunkType='child:NP6' name='kI'>
13	vajaha	PSP	<fs af='vajaha,n,f,,,o,,' posn='120' drel='lwg__psp:AlocanAoM' chunkType='child:NP6' name='vajaha'>
14	se	PSP	<fs af='se,psp,,,,,,' posn='140' drel='lwg__psp:AlocanAoM' chunkType='child:NP6' name='se2'>
15	xiyA	VM	<fs af='xe,v,m,sg,any,,yA,yA' drel='ccof:ki' stype='declarative' posn='150' voicetype='active' name='xiyA' chunkId='VGF2' chunkType='head:VGF2'>
16	.	SYM	<fs af='.,punc,,,,,,' drel='rsym:hAlAMki' posn='160' name='.' chunkId='BLK' chunkType='head:BLK'>
</Sentence>


<Sentence id="6">
1	rAjA	NNP	<fs af='rAjA,n,m,sg,3,o,0_ne,0' drel='k1:kahA' posn='10' vpos='vib_2' name='rAjA' chunkId='NP' chunkType='head:NP'>
2	ne	PSP	<fs af='ne,psp,,,,,,' posn='20' drel='lwg__psp:rAjA' chunkType='child:NP' name='ne'>
3	kahA	VM	<fs af='kaha,v,m,sg,any,,yA,yA' stype='declarative' posn='30' voicetype='active' name='kahA' chunkId='VGF' chunkType='head:VGF'>
4	ki	CC	<fs af='ki,avy,,,,,,' drel='k2:kahA' posn='40' name='ki' chunkId='CCP' chunkType='head:CCP'>
5	unhoMne	PRP	<fs af='vaha,pn,any,sg,3h,o,ne,ne' drel='k1:Barane' posn='50' name='unhoMne' chunkId='NP2' chunkType='head:NP2'>
6	borda	NN	<fs af='borda,n,m,sg,3,o,0_ko,0' drel='k4:Barane' posn='60' vpos='vib_2' name='borda' chunkId='NP3' chunkType='head:NP3'>
7	ko	PSP	<fs af='ko,psp,,,,,,' posn='70' drel='lwg__psp:borda' chunkType='child:NP3' name='ko'>
8	isa	DEM	<fs af='yaha,pn,any,sg,3,o,,' posn='80' drel='nmod__adj:paxa' chunkType='child:NP4' name='isa'>
9	paxa	NN	<fs af='paxa,n,m,sg,3,o,0_ko,0' drel='k2:Barane' posn='90' vpos='vib_3' name='paxa' chunkId='NP4' chunkType='head:NP4'>
10	ko	PSP	<fs af='ko,psp,,,,,,' posn='100' drel='lwg__psp:paxa' chunkType='child:NP4' name='ko2'>
11	Barane	VM	<fs af='Bara,v,any,any,any,o,nA_ke_lie,nA' drel='rt:DUDane' posn='110' vpos='tam_2_3' name='Barane' chunkId='VGNN' chunkType='head:VGNN'>
12	ke	PSP	<fs af='ke,psp,,,,,,' posn='120' drel='lwg__psp:Barane' chunkType='child:VGNN' name='ke'>
13	lie	PSP	<fs af='lie,psp,,,,,,' posn='130' drel='lwg__psp:Barane' chunkType='child:VGNN' name='lie'>
14	kisI	PRP	<fs af='koI,pn,any,sg,3,o,0,0' posn='140' drel='nmod__adj:anya' chunkType='child:NP5' name='kisI'>
15	anya	NN	<fs af='anya,n,m,sg,3,o,0_ko,0' drel='k2:DUDane' posn='150' vpos='vib_vib_3' name='anya' chunkId='NP5' chunkType='head:NP5'>
16	ko	PSP	<fs af='ko,psp,,,,,,' posn='160' drel='lwg__psp:anya' chunkType='child:NP5' name='ko3'>
17	DUDane	VM	<fs af='DUDa,v,any,sg,any,o,nA_kA,nA' drel='r6-k2:salAha' posn='170' vpos='tam_2' name='DUDane' chunkId='VGNN2' chunkType='head:VGNN2'>
18	kI	PSP	<fs af='kA,psp,f,sg,,d,,' posn='180' drel='lwg__psp:DUDane' chunkType='child:VGNN2' name='kI'>
19	salAha	NN	<fs af='salAha,n,f,sg,3,d,0,0' drel='pof:xI' posn='190' name='salAha' chunkId='NP6' chunkType='head:NP6'>
20	xI	VM	<fs af='xe,v,f,sg,3,,yA_hE,yA' drel='ccof:Ora' stype='declarative' posn='200' voicetype='active' vpos='tam_2' name='xI' chunkId='VGF2' chunkType='head:VGF2'>
21	hE	VAUX	<fs af='hE,v,any,sg,3,,hE,hE' posn='210' drel='lwg__vaux:xI' chunkType='child:VGF2' name='hE'>
22	Ora	CC	<fs af='Ora,avy,,,,,,' drel='ccof:ki' posn='220' name='Ora' chunkId='CCP2' chunkType='head:CCP2'>
23	unake	PRP	<fs af='vaha,pn,m,sg,3h,o,kA,kA' drel='r6:PEsale' posn='230' name='unake' chunkId='NP7' chunkType='head:NP7'>
24	PEsale	NN	<fs af='PEsalA,n,m,sg,3,o,0_ko,0' drel='k2:kara' posn='240' vpos='vib_2' name='PEsale' chunkId='NP8' chunkType='head:NP8'>
25	ko	PSP	<fs af='ko,psp,,,,,,' posn='250' drel='lwg__psp:PEsale' chunkType='child:NP8' name='ko4'>
26	svIkAra	NN	<fs af='svIkAra,n,m,sg,3,d,0,0' drel='pof:kara' posn='260' name='svIkAra' chunkId='NP9' chunkType='head:NP9'>
27	kara	VM	<fs af='kara,v,m,sg,3,,0_le+yA_jA+yA1_hE,0' drel='ccof:Ora' stype='declarative' posn='270' voicetype='passive' vpos='tam_2_3_4' name='kara' chunkId='VGF3' chunkType='head:VGF3'>
28	liyA	VAUX	<fs af='le,v,m,sg,any,,yA,yA' posn='280' drel='lwg__vaux:kara' chunkType='child:VGF3' name='liyA'>
29	gayA	VAUX	<fs af='jA,v,m,sg,any,,yA1,yA1' posn='290' drel='lwg__vaux:kara' chunkType='child:VGF3' name='gayA'>
30	hE	VAUX	<fs af='hE,v,any,sg,3,,hE,hE' posn='300' drel='lwg__vaux:kara' chunkType='child:VGF3' name='hE2'>
31	.	SYM	<fs af='.,punc,,,,,,' drel='rsym:kahA' posn='310' name='.' chunkId='BLK' chunkType='head:BLK'>
</Sentence>


<Sentence id="7">
1	ramIja	NNP	<fs af='ramIja,n,m,sg,3,o,0_ne,0' drel='k1:kahA' posn='10' vpos='vib_2' name='ramIja' chunkId='NP' chunkType='head:NP'>
2	ne	PSP	<fs af='ne,psp,,,,,,' posn='20' drel='lwg__psp:ramIja' chunkType='child:NP' name='ne'>
3	kahA	VM	<fs af='kaha,v,m,sg,3,,yA,yA' stype='declarative' posn='30' voicetype='active' name='kahA' chunkId='VGF' chunkType='head:VGF'>
4	ki	CC	<fs af='ki,avy,,,,,,' drel='k2:kahA' posn='40' name='ki' chunkId='CCP' chunkType='head:CCP'>
5	unhoMne	PRP	<fs af='vaha,pn,any,sg,3h,o,ne,ne' drel='k1:kI' posn='50' name='unhoMne' chunkId='NP2' chunkType='head:NP2'>
6	apane	PRP	<fs af='apanA,pn,m,any,any,o,0,0' drel='r6:iswIPZe' posn='60' name='apane' chunkId='NP3' chunkType='head:NP3'>
7	iswIPZe	NN	<fs af='iswIPA,n,m,sg,3,o,0_kA,0' drel='r6:silasile' posn='70' vpos='vib_2' name='iswIPZe' chunkId='NP4' chunkType='head:NP4'>
8	ke	PSP	<fs af='kA,psp,m,sg,,o,,' posn='80' drel='lwg__psp:iswIPZe' chunkType='child:NP4' name='ke'>
9	silasile	NN	<fs af='silasilA,n,m,sg,3,o,0_meM,0' drel='k7:kI' posn='90' vpos='vib_2' name='silasile' chunkId='NP5' chunkType='head:NP5'>
10	meM	PSP	<fs af='meM,psp,,,,,,' posn='100' drel='lwg__psp:silasile' chunkType='child:NP5' name='meM'>
11	borda	NNC	<fs af='borda,n,m,sg,3,d,0,0' posn='110' drel='pof__cn:aXyakRa' chunkType='child:NP6' name='borda'>
12	aXyakRa	NN	<fs af='aXyakRa,n,m,sg,3,d,0,0' posn='120' drel='nmod:KAna' chunkType='child:NP6' name='aXyakRa'>
13	SaharayAra	NNPC	<fs af='SaharayAra,n,m,sg,3,d,0,0' posn='130' drel='pof__cn:KAna' chunkType='child:NP6' name='SaharayAra'>
14	KAna	NNP	<fs af='KAna,n,m,sg,3,o,0_se,0' drel='k2:kI' posn='140' vpos='vib_vib_5_RP' name='KAna' chunkId='NP6' chunkType='head:NP6'>
15	se	PSP	<fs af='se,psp,,,,,,' posn='150' drel='lwg__psp:KAna' chunkType='child:NP6' name='se'>
16	BI	RP	<fs af='BI,avy,,,,,,' posn='160' drel='lwg__rp:KAna' chunkType='child:NP6' name='BI'>
17	bAwa	NN	<fs af='bAwa,n,f,sg,3,d,0,0' drel='pof:kI' posn='170' name='bAwa' chunkId='NP7' chunkType='head:NP7'>
18	kI	VM	<fs af='kara,v,f,sg,any,,yA,yA' drel='ccof:ki' stype='declarative' posn='180' voicetype='active' name='kI' chunkId='VGF2' chunkType='head:VGF2'>
19	.	SYM	<fs af='.,punc,,,,,,' drel='rsym:kahA' posn='190' name='.' chunkId='BLK' chunkType='head:BLK'>
</Sentence>


<Sentence id="8">
1	unhoMne	PRP	<fs af='vaha,pn,any,sg,3h,o,ne,ne' drel='k1:bawAyA' posn='10' name='unhoMne' chunkId='NP' chunkType='head:NP'>
2	bawAyA	VM	<fs af='bawA,v,m,sg,any,,yA,yA' stype='declarative' posn='20' voicetype='active' name='bawAyA' chunkId='VGF' chunkType='head:VGF'>
3	ki	CC	<fs af='ki,avy,,,,,,' drel='k2:bawAyA' posn='30' name='ki' chunkId='CCP' chunkType='head:CCP'>
4	ve	PRP	<fs af='vaha,pn,any,sg,3h,d,0,0' drel='k1:raheMge' posn='40' name='ve' chunkId='NP2' chunkType='head:NP2'>
5	aktUbara	NNP	<fs af='aktUbara,n,m,sg,3,o,0_waka,0' drel='k7t:raheMge' posn='50' vpos='vib_2' name='aktUbara' chunkId='NP3' chunkType='head:NP3'>
6	waka	PSP	<fs af='waka,psp,,,,,,' posn='60' drel='lwg__psp:aktUbara' chunkType='child:NP3' name='waka'>
7	mIdiyA	NNC	<fs af='mIdiyA,n,m,sg,3,d,0,0' posn='80' drel='pof__cn:kArya' chunkType='child:NP4' name='mIdiyA'>
8	kArya	NN	<fs af='kArya,n,m,sg,3,o,0_meM,0' drel='k7:raheMge' posn='80' vpos='vib_3' name='kArya' chunkId='NP4' chunkType='head:NP4'>
9	meM	PSP	<fs af='meM,psp,,,,,,' posn='90' drel='lwg__psp:kArya' chunkType='child:NP4' name='meM'>
10	vyaswa	JJ	<fs af='vyaswa,adj,any,any,,,,' drel='pof:raheMge' posn='100' name='vyaswa' chunkId='JJP' chunkType='head:JJP'>
11	raheMge	VM	<fs af='raha,v,m,sg,3h,,gA,gA' drel='ccof:ki' stype='declarative' posn='110' voicetype='active' name='raheMge' chunkId='VGF2' chunkType='head:VGF2'>
12	.	SYM	<fs af='.,punc,,,,,,' drel='rsym:bawAyA' posn='120' name='.' chunkId='BLK' chunkType='head:BLK'>
</Sentence>


<Sentence id="9">
1	isalie	PRP	<fs af='isaliye,pn,,,,,,' drel='rh:xe' posn='10' name='isalie' chunkId='NP' chunkType='head:NP'>
2	xonoM	QC	<fs af='xo,num,any,any,,any,,' drel='rd:xe' posn='20' name='xonoM' chunkId='NP2' chunkType='head:NP2'>
3	ora	NST	<fs af='ora,nst,f,sg,3,d,,' posn='30' drel='lwg__psp:xonoM' chunkType='child:NP2' name='ora'>
4	paryApwa	JJ	<fs af='paryApwa,adj,any,any,,d,,' posn='40' drel='nmod__adj:XyAna' chunkType='child:NP3' name='paryApwa'>
5	XyAna	NN	<fs af='XyAna,n,m,sg,3,d,0,0' drel='pof:xe' posn='50' name='XyAna' chunkId='NP3' chunkType='head:NP3'>
6	nahIM	NEG	<fs af='nahIM,avy,,,,,,' posn='60' drel='lwg__neg:xe' chunkType='child:VGF' name='nahIM'>
7	xe	VM	<fs af='xe,v,any,sg,3h,,0_pA+gA,0' stype='declarative' posn='70' voicetype='active' vpos='tam_3' name='xe' chunkId='VGF' chunkType='head:VGF'>
8	pAeMge	VAUX	<fs af='pA,v,m,sg,3h,,gA,gA' posn='80' drel='lwg__vaux:xe' chunkType='child:VGF' name='pAeMge'>
9	.	SYM	<fs af='.,punc,,,,,,' drel='rsym:xe' posn='90' name='.' chunkId='BLK' chunkType='head:BLK'>
</Sentence>


<Sentence id="10">
1	ramIja	NNP	<fs af='ramIja,n,m,sg,3,o,0_ne,0' drel='k1:kahA' posn='10' vpos='vib_2' name='ramIja' chunkId='NP' chunkType='head:NP'>
2	ne	PSP	<fs af='ne,psp,,,,,,' posn='20' drel='lwg__psp:ramIja' chunkType='child:NP' name='ne'>
3	kahA	VM	<fs af='kaha,v,m,sg,any,,yA,yA' stype='declarative' posn='30' voicetype='active' name='kahA' chunkId='VGF' chunkType='head:VGF'>
4	ki	CC	<fs af='ki,avy,,,,,,' drel='k2:kahA' posn='40' name='ki' chunkId='CCP' chunkType='head:CCP'>
5	unhoMne	PRP	<fs af='vaha,pn,any,sg,3h,o,ne,ne' drel='k1:kiyA' posn='50' name='unhoMne' chunkId='NP2' chunkType='head:NP2'>
6	isa	DEM	<fs af='yaha,pn,any,sg,3,o,,' posn='60' drel='nmod__adj:paxa' chunkType='child:NP3' name='isa'>
7	paxa	NN	<fs af='paxa,n,m,sg,3,o,0_para,0' drel='k7:kiyA' posn='70' vpos='vib_3' name='paxa' chunkId='NP3' chunkType='head:NP3'>
8	para	PSP	<fs af='para,psp,,,,,,' posn='80' drel='lwg__psp:paxa' chunkType='child:NP3' name='para'>
9	behaxa	JJ	<fs af='behaxa,adj,any,any,,o,,' posn='90' drel='nmod__adj:uwsAha' chunkType='child:NP4' name='behaxa'>
10	uwsAha	NN	<fs af='uwsAha,n,m,sg,3,o,0_se,0' drel='adv:kiyA' posn='100' vpos='vib_3' name='uwsAha' chunkId='NP4' chunkType='head:NP4'>
11	se	PSP	<fs af='se,psp,,,,,,' posn='110' drel='lwg__psp:uwsAha' chunkType='child:NP4' name='se'>
12	kAma	NN	<fs af='kAma,n,m,sg,3,d,0,0' drel='k2:kiyA' posn='120' name='kAma' chunkId='NP5' chunkType='head:NP5'>
13	kiyA	VM	<fs af='kara,v,m,sg,any,,yA,yA' drel='ccof:Ora' stype='declarative' posn='130' voicetype='active' name='kiyA' chunkId='VGF2' chunkType='head:VGF2'>
14	Ora	CC	<fs af='Ora,avy,,,,,,' drel='ccof:ki' posn='140' name='Ora' chunkId='CCP2' chunkType='head:CCP2'>
15	paxa	NN	<fs af='paxa,n,m,sg,3,d,0,0' drel='k2:CodZawe' posn='150' name='paxa2' chunkId='NP6' chunkType='head:NP6'>
16	CodZawe	VM	<fs af='Coda,v,m,sg,any,,wA_ho+yA,wA' drel='vmod:huA' posn='160' vpos='tam_2' name='CodZawe' chunkId='VGNF' chunkType='head:VGNF'>
17	hue	VAUX	<fs af='ho,v,m,sg,any,,yA,yA' posn='170' drel='lwg__vaux:CodZawe' chunkType='child:VGNF' name='hue'>
18	aPZasosa	NN	<fs af='aPasosa,n,m,sg,3,d,0,0' drel='pof:huA' posn='180' name='aPZasosa' chunkId='NP7' chunkType='head:NP7'>
19	huA	VM	<fs af='ho,v,m,sg,any,,yA,yA' drel='ccof:Ora' stype='declarative' posn='190' voicetype='active' name='huA' chunkId='VGF3' chunkType='head:VGF3'>
20	.	SYM	<fs af='.,punc,,,,,,' drel='rsym:kahA' posn='200' name='.' chunkId='BLK' chunkType='head:BLK'>
</Sentence>


<Sentence id="11">
1	rAjA	NNP	<fs af='rAjA,n,m,sg,3,o,0_ne,0' drel='k1:saMBAlA' posn='10' vpos='vib_2' name='rAjA' chunkId='NP' chunkType='head:NP'>
2	ne	PSP	<fs af='ne,psp,,,,,,' posn='20' drel='lwg__psp:rAjA' chunkType='child:NP' name='ne'>
3	1999	NNP	<fs af='1999,n,m,sg,3,d,0,0' posn='30' drel='nmod__adj:2000' chunkType='child:NP2' name='1999'>
4	-JOIN	SYM	<fs af='-,punc,,,,,,' posn='40' drel='rsym:2000' chunkType='child:NP2' name='-JOIN'>
5	2000	NNP	<fs af='2000,n,m,sg,3,o,0_meM,0' drel='k7t:saMBAlA' posn='50' vpos='vib_vib_4' name='2000' chunkId='NP2' chunkType='head:NP2'>
6	meM	PSP	<fs af='meM,psp,,,,,,' posn='60' drel='lwg__psp:2000' chunkType='child:NP2' name='meM'>
7	muKya	JJ	<fs af='muKya,adj,any,any,,o,,' posn='70' drel='nmod__adj:kAryakArI' chunkType='child:NP3' name='muKya'>
8	kAryakArI	NN	<fs af='kAryakArI,n,m,sg,3,o,0_kA,0' drel='r6:paxa' posn='80' vpos='vib_3' name='kAryakArI' chunkId='NP3' chunkType='head:NP3'>
9	kA	PSP	<fs af='kA,psp,m,sg,,d,,' posn='90' drel='lwg__psp:kAryakArI' chunkType='child:NP3' name='kA'>
10	paxa	NN	<fs af='paxa,n,m,sg,3,d,0,0' drel='k2:saMBAlA' posn='100' name='paxa' chunkId='NP4' chunkType='head:NP4'>
11	saMBAlA	VM	<fs af='saMBAla,v,m,sg,any,,yA_WA,yA' stype='declarative' posn='110' voicetype='active' vpos='tam_2' name='saMBAlA' chunkId='VGF' chunkType='head:VGF'>
12	WA	VAUX	<fs af='WA,v,m,sg,any,,WA,WA' posn='120' drel='lwg__vaux:saMBAlA' chunkType='child:VGF' name='WA'>
13	.	SYM	<fs af='.,punc,,,,,,' drel='rsym:saMBAlA' posn='130' name='.' chunkId='BLK' chunkType='head:BLK'>
</Sentence>




</text>
</tb>
</body>
</document>
