<document id="2501719">
<head>
<title></title>			
<caption>racanAwmakawA kuMTiwa karawA hE seMsara borda        AIeenaesa   : jI</caption>			
<language>Hindi </language>			
<author>			
<firstname></firstname>			
<middlename></middlename>			
<lastname></lastname>			
</author>			
<creation>			
<raw_corpus creation_date="" institute_name=""></raw_corpus>			
<annotated_corpus creation_date="07/25/2009" institute_name="IIIT-Hyderabad"></annotated_corpus>			
</creation>			
<domain_name>News Articles </domain_name>			
<distributor>LTRC, IIIT Hyderabad</distributor>			
<source>ISI, Kolkata</source>			
<publication>			
<place>New Delhi</place>			
<date>4/6/2004</date>			
<address>Connaught Place, New Delhi</address>			
<type>Newspaper</type>			
<publisher>			
<name>Amar Ujala</name>			
<url>http://www.amarujala.com</url>			
</publisher>			
</publication>			
<project_description>NSF Hindi/Urdu Dependency Treebanking Project</project_description>			
<availability>			
<format>CML/SSF</format>			
</availability>			
<byte_count>8812</byte_count>			
<word_count>337</word_count>			
<edition_number>1.0</edition_number>			
<encoding_description>			
<original_encoding>ISO 8859</original_encoding>			
<new_encoding>Unicode UTF8</new_encoding>			
</encoding_description>			
<bibliography></bibliography>			
<sentence_marker>.</sentence_marker>			
<normalization>No</normalization>			
<utility_name>cml_tags</utility_name>			

</head>
<body>
<tb number="1" segment="no" bullet="no">
<foreign language="select" writingsystem="LTR"> </foreign>			
<text>
<Sentence id="1">
1	BArawIya	JJ	<fs af='BArawIya,adj,any,any,,d,,' posn='10' drel='nmod__adj:Pilma' chunkType='child:NP' name='BArawIya'>
2	Pilma	NN	<fs af='Pilma,n,f,sg,3,d,0,0' drel='fragof:Ora' posn='20' name='Pilma' chunkId='NP' chunkType='head:NP'>
3	nirmAwAoM	NN	<fs af='nirmAwA,n,m,pl,3,o,0,0' drel='ccof:Ora' posn='30' name='nirmAwAoM' chunkId='NP2' chunkType='head:NP2'>
4	Ora	CC	<fs af='Ora,avy,,,,,,' drel='k1:kahanA' posn='40' name='Ora' chunkId='CCP' chunkType='head:CCP'>
5	nirxeSakoM	NN	<fs af='nirxeSaka,n,m,pl,3,o,0_kA,0' drel='ccof:Ora' posn='50' vpos='vib_2' name='nirxeSakoM' chunkId='NP3' chunkType='head:NP3'>
6	kA	PSP	<fs af='kA,psp,m,sg,,d,,' posn='60' drel='lwg__psp:nirxeSakoM' chunkType='child:NP3' name='kA'>
7	kahanA	VM	<fs af='kaha,v,any,any,any,d,nA,nA' drel='k1:hE' posn='70' name='kahanA' chunkId='VGNN' chunkType='head:VGNN'>
8	hE	VM	<fs af='hE,v,any,sg,3,,hE,hE' stype='declarative' posn='80' voicetype='active' name='hE' chunkId='VGF' chunkType='head:VGF'>
9	ki	CC	<fs af='ki,avy,,,,,,' drel='k2:kahanA' posn='90' name='ki' chunkId='CCP2' chunkType='head:CCP2'>
10	keMxrIya	NNPC	<fs af='keMxrIya,adj,any,any,,d,,' posn='100' drel='pof__cn:borda' chunkType='child:NP4' name='keMxrIya'>
11	Pilma	NNPC	<fs af='Pilma,n,f,sg,3,d,0,0' posn='110' drel='pof__cn:borda' chunkType='child:NP4' name='Pilma2'>
12	pramANana	NNPC	<fs af='pramANana,n,m,sg,3,d,0,0' posn='120' drel='pof__cn:borda' chunkType='child:NP4' name='pramANana'>
13	borda	NNP	<fs af='borda,n,m,sg,3,d,0,0' drel='k1:lagA' posn='130' name='borda' chunkId='NP4' chunkType='head:NP4'>
14	unakI	PRP	<fs af='vaha,pn,f,sg,3h,o,kA,kA' drel='r6:racanAwmakawA' posn='140' name='unakI' chunkId='NP5' chunkType='head:NP5'>
15	racanAwmakawA	NN	<fs af='racanAwmakawA,n,f,sg,3,o,0_ko,0' drel='k2:karane' posn='150' vpos='vib_2' name='racanAwmakawA' chunkId='NP6' chunkType='head:NP6'>
16	ko	PSP	<fs af='ko,psp,,,,,,' posn='160' drel='lwg__psp:racanAwmakawA' chunkType='child:NP6' name='ko'>
17	kuMTiwa	JJ	<fs af='kuMTiwa,adj,any,any,,,,' drel='pof:karane' posn='170' name='kuMTiwa' chunkId='JJP' chunkType='head:JJP'>
18	karane	VM	<fs af='kara,v,any,any,any,o,nA_meM,nA' drel='k7:lagA' posn='180' vpos='tam_2' name='karane' chunkId='VGNN2' chunkType='head:VGNN2'>
19	meM	PSP	<fs af='meM,psp,,,,,,' posn='190' drel='lwg__psp:karane' chunkType='child:VGNN2' name='meM'>
20	lagA	VM	<fs af='laga,v,m,sg,3,,yA_ho+yA_hE,yA' drel='ccof:ki' stype='declarative' posn='200' voicetype='active' vpos='tam_2_3' name='lagA' chunkId='VGF2' chunkType='head:VGF2'>
21	huA	VAUX	<fs af='ho,v,m,sg,any,,yA,yA' posn='210' drel='lwg__vaux:lagA' chunkType='child:VGF2' name='huA'>
22	hE	VAUX	<fs af='hE,v,any,sg,3,,hE,hE' posn='220' drel='lwg__vaux:lagA' chunkType='child:VGF2' name='hE2'>
23	.	SYM	<fs af='.,punc,,,,,,' drel='rsym:hE' posn='230' name='.' chunkId='BLK' chunkType='head:BLK'>
</Sentence>


<Sentence id="2">
1	yUM	RP	<fs af='yUz,avy,,,,,,' drel='sent-adv:hE' posn='10' name='yUM' chunkId='RBP' chunkType='head:RBP'>
2	wo	RP	<fs af='wo,avy,,,,,,' posn='20' drel='lwg__rp:yUM' chunkType='child:RBP' name='wo'>
3	BArawa	NNP	<fs af='BArawa,n,m,sg,3,o,0_meM,0' drel='k7p:hE' posn='30' vpos='vib_2' name='BArawa' chunkId='NP' chunkType='head:NP'>
4	meM	PSP	<fs af='meM,psp,,,,,,' posn='40' drel='lwg__psp:BArawa' chunkType='child:NP' name='meM'>
5	seMsara	NNC	<fs af='seMsara,n,m,sg,3,d,0,0' posn='50' drel='pof__cn:borda' chunkType='child:NP2' name='seMsara'>
6	borda	NN	<fs af='borda,n,m,sg,3,d,0,0' drel='k1:hE' posn='60' name='borda' chunkId='NP2' chunkType='head:NP2'>
7	nahIM	NEG	<fs af='nahIM,avy,,,,,,' posn='70' drel='lwg__neg:hE' chunkType='child:VGF' name='nahIM'>
8	hE	VM	<fs af='hE,v,any,sg,3,,hE,hE' drel='ccof:lekina' stype='declarative' posn='80' voicetype='active' name='hE' chunkId='VGF' chunkType='head:VGF'>
9	,	SYM	<fs af='COMMA,punc,,,,,,' posn='90' drel='rsym:hE' chunkType='child:VGF' name=','>
10	lekina	CC	<fs af='lekina,avy,,,,,,' posn='100' name='lekina' chunkId='CCP' chunkType='head:CCP'>
11	yahI	DEM	<fs af='yaha,pn,m,sg,3,o,,' posn='110' drel='nmod__adj:borda2' chunkType='child:NP3' name='yahI'>
12	pramANana	NNC	<fs af='pramANana,n,m,sg,3,d,0,0' posn='120' drel='pof__cn:borda2' chunkType='child:NP3' name='pramANana'>
13	borda	NN	<fs af='borda,n,m,sg,3,d,0,0' drel='k1:hE2' posn='130' name='borda2' chunkId='NP3' chunkType='head:NP3'>
14	hI	RP	<fs af='hI,avy,,,,,,' posn='140' drel='lwg__rp:borda2' chunkType='child:NP3' name='hI'>
15	isakI	PRP	<fs af='yaha,pn,f,sg,3,o,kA,kA' drel='r6:BUmikA' posn='150' name='isakI' chunkId='NP4' chunkType='head:NP4'>
16	BUmikA	NN	<fs af='BUmikA,n,f,sg,3,o,0_meM,0' drel='k7:hE2' posn='160' vpos='vib_2' name='BUmikA' chunkId='NP5' chunkType='head:NP5'>
17	meM	PSP	<fs af='meM,psp,,,,,,' posn='170' drel='lwg__psp:BUmikA' chunkType='child:NP5' name='meM2'>
18	hE	VM	<fs af='hE,v,any,sg,3,,hE,hE' drel='k1:lekina' stype='declarative' posn='180' voicetype='active' name='hE2' chunkId='VGF2' chunkType='head:VGF2'>
19	.	SYM	<fs af='.,punc,,,,,,' drel='rsym:lekina' posn='190' name='.' chunkId='BLK' chunkType='head:BLK'>
</Sentence>


<Sentence id="3">
1	nirxeSakoM	NN	<fs af='nirxeSaka,n,m,pl,3,o,0_kA,0' drel='k1:kahanA' posn='10' vpos='vib_2' name='nirxeSakoM' chunkId='NP' chunkType='head:NP'>
2	kA	PSP	<fs af='kA,psp,m,sg,,d,,' posn='20' drel='lwg__psp:nirxeSakoM' chunkType='child:NP' name='kA'>
3	kahanA	VM	<fs af='kaha,v,any,any,any,d,nA,nA' drel='k1:hE' posn='30' name='kahanA' chunkId='VGNN' chunkType='head:VGNN'>
4	hE	VM	<fs af='hE,v,any,sg,3,,hE,hE' stype='declarative' posn='40' voicetype='active' name='hE' chunkId='VGF' chunkType='head:VGF'>
5	ki	CC	<fs af='ki,avy,,,,,,' drel='k2:kahanA' posn='50' name='ki' chunkId='CCP' chunkType='head:CCP'>
6	pramANana	NNC	<fs af='pramANana,n,m,sg,3,d,0,0' posn='60' drel='pof__cn:borda' chunkType='child:NP2' name='pramANana'>
7	borda	NN	<fs af='borda,n,m,sg,3,o,0_ko,0' drel='k2:ho' posn='70' vpos='vib_3' name='borda' chunkId='NP2' chunkType='head:NP2'>
8	ko	PSP	<fs af='ko,psp,,,,,,' posn='80' drel='lwg__psp:borda' chunkType='child:NP2' name='ko'>
9	adZMgA	NN	<fs af='adaMgA,n,m,sg,3,d,0,0' drel='k2:lagAne' posn='90' name='adZMgA' chunkId='NP3' chunkType='head:NP3'>
10	lagAne	VM	<fs af='lagA,v,any,sg,any,o,nA_kA,nA' drel='r6:Axawa' posn='100' vpos='tam_2' name='lagAne' chunkId='VGNN2' chunkType='head:VGNN2'>
11	kI	PSP	<fs af='kA,psp,f,sg,,d,,' posn='110' drel='lwg__psp:lagAne' chunkType='child:VGNN2' name='kI'>
12	Axawa	NN	<fs af='Axawa,n,f,sg,3,d,0,0' drel='pof:ho' posn='120' name='Axawa' chunkId='NP4' chunkType='head:NP4'>
13	ho	VM	<fs af='ho,v,f,sg,3,,0_jA+yA1_hE,0' drel='ccof:ki' stype='declarative' posn='130' voicetype='active' vpos='tam_2_3' name='ho' chunkId='VGF2' chunkType='head:VGF2'>
14	gaI	VAUX	<fs af='jA,v,f,sg,any,,yA1,yA1' posn='140' drel='lwg__vaux:ho' chunkType='child:VGF2' name='gaI'>
15	hE	VAUX	<fs af='hE,v,any,sg,3,,hE,hE' posn='150' drel='lwg__vaux:ho' chunkType='child:VGF2' name='hE2'>
16	.	SYM	<fs af='.,punc,,,,,,' drel='rsym:hE' posn='160' name='.' chunkId='BLK' chunkType='head:BLK'>
</Sentence>


<Sentence id="4">
1	yUM	RB	<fs af='yUz,avy,,,,,,' drel='sent-adv:hE' posn='10' name='yUM' chunkId='RBP' chunkType='head:RBP'>
2	wo	RP	<fs af='wo,avy,,,,,,' posn='20' drel='lwg__rp:yUM' chunkType='child:RBP' name='wo'>
3	BArawa	NNP	<fs af='BArawa,n,m,sg,3,o,0_meM,0' drel='k7p:hE' posn='30' vpos='vib_2' name='BArawa' chunkId='NP' chunkType='head:NP'>
4	meM	PSP	<fs af='meM,psp,,,,,,' posn='40' drel='lwg__psp:BArawa' chunkType='child:NP' name='meM'>
5	koI	PRP	<fs af='koI,pn,any,sg,3,d,0,0' posn='50' drel='nmod__adj:borda' chunkType='child:NP2' name='koI'>
6	seMsara	NNC	<fs af='seMsara,n,m,sg,3,d,0,0' posn='60' drel='pof__cn:borda' chunkType='child:NP2' name='seMsara'>
7	borda	NN	<fs af='borda,n,m,sg,3,d,0,0' drel='k1:hE' posn='70' name='borda' chunkId='NP2' chunkType='head:NP2'>
8	nahIM	NEG	<fs af='nahIM,avy,,,,,,' posn='80' drel='lwg__neg:hE' chunkType='child:VGF' name='nahIM'>
9	hE	VM	<fs af='hE,v,any,sg,3,,hE,hE' drel='ccof:lekina' stype='declarative' posn='90' voicetype='active' name='hE' chunkId='VGF' chunkType='head:VGF'>
10	,	SYM	<fs af='COMMA,punc,,,,,,' posn='100' drel='rsym:hE' chunkType='child:VGF' name=','>
11	lekina	CC	<fs af='lekina,avy,,,,,,' posn='110' name='lekina' chunkId='CCP' chunkType='head:CCP'>
12	pramANana	NNC	<fs af='pramANana,n,m,sg,3,d,0,0' posn='120' drel='pof__cn:borda2' chunkType='child:NP3' name='pramANana'>
13	borda	NN	<fs af='borda,n,m,sg,3,d,0,0' drel='k1:niBAwA' posn='130' name='borda2' chunkId='NP3' chunkType='head:NP3'>
14	hI	RP	<fs af='hI,avy,,,,,,' posn='140' drel='lwg__rp:borda2' chunkType='child:NP3' name='hI'>
15	yaha	DEM	<fs af='yaha,pn,any,sg,3,d,,' posn='150' drel='nmod__adj:BUmikA' chunkType='child:NP4' name='yaha'>
16	BUmikA	NN	<fs af='BUmikA,n,f,sg,3,d,0,0' drel='pof:niBAwA' posn='160' name='BUmikA' chunkId='NP4' chunkType='head:NP4'>
17	niBAwA	VM	<fs af='niBA,v,m,sg,3,,wA_raha+yA_hE,wA' drel='ccof:lekina' stype='declarative' posn='170' voicetype='active' vpos='tam_2_3' name='niBAwA' chunkId='VGF2' chunkType='head:VGF2'>
18	rahA	VAUX	<fs af='raha,v,m,sg,any,,yA,yA' posn='180' drel='lwg__vaux:niBAwA' chunkType='child:VGF2' name='rahA'>
19	hE	VAUX	<fs af='hE,v,any,sg,3,,hE,hE' posn='190' drel='lwg__vaux:niBAwA' chunkType='child:VGF2' name='hE2'>
20	.	SYM	<fs af='.,punc,,,,,,' drel='rsym:lekina' posn='200' name='.' chunkId='BLK' chunkType='head:BLK'>
</Sentence>


<Sentence id="5">
1	isakI	PRP	<fs af='yaha,pn,f,sg,3,o,kA,kA' drel='r6:anumawi' posn='10' name='isakI' chunkId='NP' chunkType='head:NP'>
2	anumawi	NN	<fs af='anumawi,n,f,sg,3,o,0_ke,0' drel='ras-NEG:xiKAI' posn='20' vpos='vib_2_RP' name='anumawi' chunkId='NP2' chunkType='head:NP2'>
3	ke	PSP	<fs af='ke,psp,,,,,,' posn='30' drel='lwg__psp:anumawi' chunkType='child:NP2' name='ke'>
4	bagEra	RP	<fs af='bagEra,avy,,,,,,' posn='40' drel='lwg__rp:anumawi' chunkType='child:NP2' name='bagEra'>
5	PilmeM	NN	<fs af='Pilma,n,f,pl,3,d,0,0' drel='k2:xiKAI' posn='50' name='PilmeM' chunkId='NP3' chunkType='head:NP3'>
6	nahIM	NEG	<fs af='nahIM,avy,,,,,,' posn='60' drel='lwg__neg:xiKAI' chunkType='child:VGF' name='nahIM'>
7	xiKAI	VM	<fs af='xiKA,v,any,pl,any,,yA_jA_saka+wA,yA' stype='declarative' posn='70' voicetype='active' vpos='tam_3_4' name='xiKAI' chunkId='VGF' chunkType='head:VGF'>
8	jA	VAUX	<fs af='jA,v,any,any,any,,0,0' posn='80' drel='lwg__vaux:xiKAI' chunkType='child:VGF' name='jA'>
9	sakawI	VAUX	<fs af='saka,v,f,pl,any,,wA,wA' posn='90' drel='lwg__vaux:xiKAI' chunkType='child:VGF' name='sakawI'>
10	.	SYM	<fs af='.,punc,,,,,,' drel='rsym:xiKAI' posn='100' name='.' chunkId='BLK' chunkType='head:BLK'>
</Sentence>


<Sentence id="6">
1	Ae	NNC	<fs af='Ae,n,m,sg,3,d,0,0' posn='10' drel='pof__cn:xina' chunkType='child:NP' name='Ae'>
2	xina	NN	<fs af='xina,n,m,sg,3,d,0,0' drel='k7t:calawI' posn='20' name='xina' chunkId='NP' chunkType='head:NP'>
3	PIcara	JJ	<fs af='PIcara,adj,any,any,,o,,' drel='ccof:Ora' posn='50' name='PIcara' chunkId='JJP' chunkType='head:JJP'>
4	Ora	CC	<fs af='Ora,avy,,,,,,' drel='nmod:PilmoM' posn='40' name='Ora' chunkId='CCP' chunkType='head:CCP'>
5	gEra	JJC	<fs af='gEra,adj,any,any,,,,' posn='50' drel='mod:PIcara2' chunkType='child:JJP2' name='gEra'>
6	PIcara	JJ	<fs af='PIcara,adj,any,any,,o,,' drel='ccof:Ora' posn='50' name='PIcara2' chunkId='JJP2' chunkType='head:JJP2'>
7	PilmoM	NN	<fs af='Pilma,n,f,pl,3,o,0_para,0' drel='k7:calawI' posn='70' vpos='vib_2' name='PilmoM' chunkId='NP2' chunkType='head:NP2'>
8	para	PSP	<fs af='para,psp,,,,,,' posn='80' drel='lwg__psp:PilmoM' chunkType='child:NP2' name='para'>
9	seMsara	NN	<fs af='seMsara,n,m,sg,3,o,0_kA,0' drel='r6-k2:kEMcI' posn='90' vpos='vib_2' name='seMsara' chunkId='NP3' chunkType='head:NP3'>
10	kI	PSP	<fs af='kA,psp,f,sg,,d,,' posn='100' drel='lwg__psp:seMsara' chunkType='child:NP3' name='kI'>
11	kEMcI	NN	<fs af='kEMcI,n,f,sg,3,d,0,0' drel='pof:calawI' posn='110' name='kEMcI' chunkId='NP4' chunkType='head:NP4'>
12	calawI	VM	<fs af='cala,v,f,sg,3,,wA_raha+wA_hE,wA' stype='declarative' posn='120' voicetype='active' vpos='tam_2_3' name='calawI' chunkId='VGF' chunkType='head:VGF'>
13	rahawI	VAUX	<fs af='raha,v,f,sg,any,,wA,wA' posn='130' drel='lwg__vaux:calawI' chunkType='child:VGF' name='rahawI'>
14	hE	VAUX	<fs af='hE,v,any,sg,3,,hE,hE' posn='140' drel='lwg__vaux:calawI' chunkType='child:VGF' name='hE'>
15	.	SYM	<fs af='.,punc,,,,,,' drel='rsym:calawI' posn='150' name='.' chunkId='BLK' chunkType='head:BLK'>
</Sentence>


<Sentence id="7">
1	prodyUsara	NN	<fs af='prodyUsara,n,m,sg,3,d,0,0' posn='10' drel='nmod:nirxeSaka' chunkType='child:NP' name='prodyUsara'>
2	-	SYM	<fs af='-,punc,,,,,,' posn='20' drel='rsym:leKaka' chunkType='child:NP' name='-'>
3	nirxeSaka	NN	<fs af='nirxeSaka,n,m,sg,3,d,0,0' posn='30' drel='nmod:leKaka' chunkType='child:NP' name='nirxeSaka'>
4	-	SYM	<fs af='-,punc,,,,,,' posn='40' drel='rsym:leKaka' chunkType='child:NP' name='-2'>
5	patakaWA	NNC	<fs af='patakaWA,n,f,sg,3,d,0,0' posn='50' drel='pof__cn:leKaka' chunkType='child:NP' name='patakaWA'>
6	leKaka	NN	<fs af='leKaka,n,m,sg,3,o,0,0' drel='nmod:revAla' posn='60' name='leKaka' chunkId='NP' chunkType='head:NP'>
7	manu	NNPC	<fs af='manu,n,m,sg,3,d,0,0' posn='70' drel='pof__cn:revAla' chunkType='child:NP2' name='manu'>
8	revAla	NNP	<fs af='revAla,n,any,sg,3,o,0_kA,0' drel='r6:Pilma' posn='80' vpos='vib_3' name='revAla' chunkId='NP2' chunkType='head:NP2'>
9	kI	PSP	<fs af='kA,psp,f,sg,,o,,' posn='90' drel='lwg__psp:revAla' chunkType='child:NP2' name='kI'>
10	Cote	JJ	<fs af='CotA,adj,m,sg,,o,,' posn='100' drel='nmod__adj:bajata' chunkType='child:NP3' name='Cote'>
11	bajata	NN	<fs af='bajata,n,m,sg,3,o,0_kA,0' drel='r6:Pilma' posn='110' vpos='vib_3' name='bajata' chunkId='NP3' chunkType='head:NP3'>
12	kI	PSP	<fs af='kA,psp,f,sg,,o,,' posn='120' drel='lwg__psp:bajata' chunkType='child:NP3' name='kI2'>
13	Pilma	NN	<fs af='Pilma,n,f,sg,3,o,0,0' drel='k4a:JelanI' posn='130' name='Pilma' chunkId='NP4' chunkType='head:NP4'>
14	(	SYM	<fs af='(,punc,,,,,,' posn='140' drel='rsym:ItIsI' chunkType='child:NP5' name='('>
15	cAya	NNPC	<fs af='cAya,n,f,sg,3,d,0,0' posn='150' drel='pof__cn:ItIsI' chunkType='child:NP5' name='cAya'>
16	-	SYM	<fs af='-,punc,,,,,,' posn='160' drel='rsym:ItIsI' chunkType='child:NP5' name='-3'>
17	pAnI	NNPC	<fs af='pAnI,n,m,sg,3,d,0,0' posn='170' drel='nmod__adj:ItIsI' chunkType='child:NP5' name='pAnI'>
18	ItIsI	NNP	<fs af='ItIsI,n,f,sg,3,o,0,0' drel='nmod:Pilma' posn='180' name='ItIsI' chunkId='NP5' chunkType='head:NP5'>
19	)	SYM	<fs af='),punc,,,,,,' posn='190' drel='rsym:ItIsI' chunkType='child:NP5' name=')'>
20	ko	PSP	<fs drel='fragof:Pilma' name='ko' chunkId='FRAGP' chunkType='head:FRAGP'>
21	pramANana	NNC	<fs af='pramANana,n,m,sg,3,d,0,0' posn='210' drel='pof__cn:borda' chunkType='child:NP6' name='pramANana'>
22	borda	NN	<fs af='borda,n,m,sg,3,o,0_ke_kAraNa,0' drel='rh:JelanI' posn='220' vpos='vib_3_4' name='borda' chunkId='NP6' chunkType='head:NP6'>
23	ke	PSP	<fs af='ke,psp,m,,,o,,' posn='230' drel='lwg__psp:borda' chunkType='child:NP6' name='ke'>
24	kAraNa	PSP	<fs af='kAraNa,n,m,,,o,,' posn='230' drel='lwg__psp:borda' chunkType='child:NP6' name='kAraNa'>
25	pareSAnI	NN	<fs af='pareSAnI,n,f,sg,3,d,0,0' drel='pof:JelanI' posn='250' name='pareSAnI' chunkId='NP7' chunkType='head:NP7'>
26	JelanI	VM	<fs af='Jela,v,f,sg,any,,nA_pada+yA,nA' stype='declarative' posn='260' voicetype='active' vpos='tam_2' name='JelanI' chunkId='VGF' chunkType='head:VGF'>
27	padZI	VAUX	<fs af='pada,v,f,sg,any,,yA,yA' posn='270' drel='lwg__vaux:JelanI' chunkType='child:VGF' name='padZI'>
28	.	SYM	<fs af='.,punc,,,,,,' drel='rsym:JelanI' posn='280' name='.' chunkId='BLK' chunkType='head:BLK'>
</Sentence>


<Sentence id="8">
1	seMsara	NNC	<fs af='seMsara,n,m,sg,3,d,0,0' posn='10' drel='pof__cn:borda' chunkType='child:NP' name='seMsara'>
2	borda	NN	<fs af='borda,n,m,sg,3,o,0_ne,0' drel='k1:jawAI' posn='20' vpos='vib_3' name='borda' chunkId='NP' chunkType='head:NP'>
3	ne	PSP	<fs af='ne,psp,,,,,,' posn='30' drel='lwg__psp:borda' chunkType='child:NP' name='ne'>
4	Pilma	NN	<fs af='Pilma,n,f,sg,3,o,0_kA,0' drel='r6:xqSyoM' posn='40' vpos='vib_2' name='Pilma' chunkId='NP2' chunkType='head:NP2'>
5	ke	PSP	<fs af='kA,psp,m,pl,,o,,' posn='50' drel='lwg__psp:Pilma' chunkType='child:NP2' name='ke'>
6	kaI	QF	<fs af='kaI,avy,,,,,,' posn='60' drel='nmod__adj:xqSyoM' chunkType='child:NP3' name='kaI'>
7	xqSyoM	NN	<fs af='xqSya,n,m,pl,3,o,0_para,0' drel='k7:jawAI' posn='70' vpos='vib_3' name='xqSyoM' chunkId='NP3' chunkType='head:NP3'>
8	para	PSP	<fs af='para,psp,,,,,,' posn='80' drel='lwg__psp:xqSyoM' chunkType='child:NP3' name='para'>
9	Apawwi	NN	<fs af='Apawwi,n,f,sg,3,d,0,0' drel='pof:jawAI' posn='90' name='Apawwi' chunkId='NP4' chunkType='head:NP4'>
10	jawAI	VM	<fs af='jawA,v,f,sg,any,,yA,yA' stype='declarative' posn='100' voicetype='active' name='jawAI' chunkId='VGF' chunkType='head:VGF'>
11	.	SYM	<fs af='.,punc,,,,,,' drel='rsym:jawAI' posn='110' name='.' chunkId='BLK' chunkType='head:BLK'>
</Sentence>


<Sentence id="9">
1	aba	PRP	<fs af='aba,pn,,,,d,,' drel='k7t:hE' posn='10' name='aba' chunkId='NP' chunkType='head:NP'>
2	yaha	DEM	<fs af='yaha,pn,any,sg,3,d,,' posn='20' drel='nmod__adj:Pilma' chunkType='child:NP2' name='yaha'>
3	Pilma	NN	<fs af='Pilma,n,f,sg,3,d,0,0' drel='k1:hE' posn='30' name='Pilma' chunkId='NP2' chunkType='head:NP2'>
4	aMwarrARtrIya	NNPC	<fs af='aMwarrARtrIya,adj,any,any,,d,,' posn='40' drel='pof__cn:mahowsava' chunkType='child:NP3' name='aMwarrARtrIya'>
5	Pilma	NNPC	<fs af='Pilma,n,f,sg,3,d,0,0' posn='50' drel='pof__cn:mahowsava' chunkType='child:NP3' name='Pilma2'>
6	mahowsava	NNP	<fs af='mahowsava,n,m,sg,3,o,0_meM,0' drel='k7:hE' posn='60' vpos='vib_4' name='mahowsava' chunkId='NP3' chunkType='head:NP3'>
7	meM	PSP	<fs af='meM,psp,,,,,,' posn='70' drel='lwg__psp:mahowsava' chunkType='child:NP3' name='meM'>
8	xiKAI	VM	<fs af='xiKA,v,any,pl,any,,yA_jA+nA_vAlA,yA' drel='nmod:PilmoM' posn='80' vpos='tam_2_3' name='xiKAI' chunkId='VGNN' chunkType='head:VGNN'>
9	jAne	VAUX	<fs af='jA,v,any,any,any,o,nA,nA' posn='90' drel='lwg__vaux:xiKAI' chunkType='child:VGNN' name='jAne'>
10	vAlI	PSP	<fs af='vAlA,psp,f,pl,,o,,' posn='100' drel='lwg__psp:xiKAI' chunkType='child:VGNN' name='vAlI'>
11	PilmoM	NN	<fs af='Pilma,n,f,pl,3,o,0_kA,0' drel='r6:sUcI' posn='110' vpos='vib_2' name='PilmoM' chunkId='NP4' chunkType='head:NP4'>
12	kI	PSP	<fs af='kA,psp,f,sg,,o,,' posn='120' drel='lwg__psp:PilmoM' chunkType='child:NP4' name='kI'>
13	sUcI	NN	<fs af='sUcI,n,f,sg,3,o,0_meM,0' drel='k7:hE' posn='130' vpos='vib_2' name='sUcI' chunkId='NP5' chunkType='head:NP5'>
14	meM	PSP	<fs af='meM,psp,,,,,,' posn='140' drel='lwg__psp:sUcI' chunkType='child:NP5' name='meM2'>
15	SAmila	JJ	<fs af='SAmila,adj,any,any,,,,' drel='k1s:hE' posn='150' name='SAmila' chunkId='JJP' chunkType='head:JJP'>
16	hE	VM	<fs af='hE,v,any,sg,3,,hE,hE' stype='declarative' posn='160' voicetype='active' name='hE' chunkId='VGF' chunkType='head:VGF'>
17	.	SYM	<fs af='.,punc,,,,,,' drel='rsym:hE' posn='170' name='.' chunkId='BLK' chunkType='head:BLK'>
</Sentence>


<Sentence id="10">
1	isI	DEM	<fs af='yaha,pn,f,sg,3,d,,' posn='10' drel='nmod__adj:waraha' chunkType='child:NP' name='isI'>
2	waraha	NN	<fs af='waraha,n,f,sg,3,d,0,0' drel='adv:JelanI' posn='20' name='waraha' chunkId='NP' chunkType='head:NP'>
3	sarvoxaya	NNC	<fs af='sarvoxaya,n,m,sg,3,d,0,0' posn='30' drel='pof__cn:newA' chunkType='child:NP2' name='sarvoxaya'>
4	newA	NN	<fs af='newA,n,m,sg,3,o,0,0' drel='nmod:nArAyaNa' posn='40' name='newA' chunkId='NP2' chunkType='head:NP2'>
5	jayaprakASa	NNPC	<fs af='jayaprakASa,n,m,sg,3,d,0,0' posn='50' drel='pof__cn:nArAyaNa' chunkType='child:NP3' name='jayaprakASa'>
6	nArAyaNa	NNP	<fs af='nArAyaNa,n,m,sg,3,o,0_para,0' drel='jjmod:AXAriwa' posn='60' vpos='vib_3' name='nArAyaNa' chunkId='NP3' chunkType='head:NP3'>
7	para	PSP	<fs af='para,psp,,,,,,' posn='70' drel='lwg__psp:nArAyaNa' chunkType='child:NP3' name='para'>
8	AXAriwa	JJ	<fs af='AXAriwa,adj,any,any,,o,,' drel='nmod:Pilma' posn='80' name='AXAriwa' chunkId='JJP' chunkType='head:JJP'>
9	eka	QC	<fs af='eka,num,any,any,,any,,' posn='90' drel='nmod__adj:Pilma' chunkType='child:NP4' name='eka'>
10	Pilma	NN	<fs af='Pilma,n,f,sg,3,o,0_ko,0' drel='k1:JelanI' posn='100' vpos='vib_3_RP' name='Pilma' chunkId='NP4' chunkType='head:NP4'>
11	ko	PSP	<fs af='ko,psp,,,,,,' posn='110' drel='lwg__psp:Pilma' chunkType='child:NP4' name='ko'>
12	BI	RP	<fs af='BI,avy,,,,,,' posn='120' drel='lwg__rp:Pilma' chunkType='child:NP4' name='BI'>
13	seMsara	NN	<fs af='seMsara,n,m,sg,3,o,0_kA,0' drel='r6-k2:kEMcI' posn='130' vpos='vib_2' name='seMsara' chunkId='NP5' chunkType='head:NP5'>
14	kI	PSP	<fs af='kA,psp,f,sg,,d,,' posn='140' drel='lwg__psp:seMsara' chunkType='child:NP5' name='kI'>
15	kEMcI	NN	<fs af='kEMcI,n,f,sg,3,d,0,0' drel='pof:JelanI' posn='150' name='kEMcI' chunkId='NP6' chunkType='head:NP6'>
16	JelanI	VM	<fs af='Jela,v,f,sg,any,,nA_pada+yA,nA' stype='declarative' posn='160' voicetype='active' vpos='tam_2' name='JelanI' chunkId='VGF' chunkType='head:VGF'>
17	padZI	VAUX	<fs af='pada,v,f,sg,any,,yA,yA' posn='170' drel='lwg__vaux:JelanI' chunkType='child:VGF' name='padZI'>
18	.	SYM	<fs af='.,punc,,,,,,' drel='rsym:JelanI' posn='180' name='.' chunkId='BLK' chunkType='head:BLK'>
</Sentence>


<Sentence id="11">
1	isa	DEM	<fs af='yaha,pn,any,sg,3,o,,' posn='10' drel='nmod__adj:Pilma' chunkType='child:NP' name='isa'>
2	Pilma	NN	<fs af='Pilma,n,f,sg,3,o,0_ko,0' drel='k2:xiKAe' posn='20' vpos='vib_3' name='Pilma' chunkId='NP' chunkType='head:NP'>
3	ko	PSP	<fs af='ko,psp,,,,,,' posn='30' drel='lwg__psp:Pilma' chunkType='child:NP' name='ko'>
4	xUraxarSana	NN	<fs af='xUraxarSana,n,m,sg,3,o,0_para,0' drel='k7:xiKAe' posn='40' vpos='vib_2' name='xUraxarSana' chunkId='NP2' chunkType='head:NP2'>
5	para	PSP	<fs af='para,psp,,,,,,' posn='50' drel='lwg__psp:xUraxarSana' chunkType='child:NP2' name='para'>
6	xiKAe	VM	<fs af='xiKA,v,any,sg,any,,yA_jA+nA_kA,yA' drel='r6:yojanA' posn='60' vpos='tam_2_3' name='xiKAe' chunkId='VGNN' chunkType='head:VGNN'>
7	jAne	VAUX	<fs af='jA,v,any,any,any,o,nA,nA' posn='70' drel='lwg__vaux:xiKAe' chunkType='child:VGNN' name='jAne'>
8	kI	PSP	<fs af='kA,psp,f,sg,,o,,' posn='80' drel='lwg__psp:xiKAe' chunkType='child:VGNN' name='kI'>
9	yojanA	NN	<fs af='yojanA,n,f,sg,3,o,0_para,0' drel='k7:Pera' posn='90' vpos='vib_2' name='yojanA' chunkId='NP3' chunkType='head:NP3'>
10	para	PSP	<fs af='para,psp,,,,,,' posn='100' drel='lwg__psp:yojanA' chunkType='child:NP3' name='para2'>
11	pramANana	NNC	<fs af='pramANana,n,m,sg,3,d,0,0' posn='110' drel='pof__cn:borda' chunkType='child:NP4' name='pramANana'>
12	borda	NN	<fs af='borda,n,m,sg,3,o,0_ne,0' drel='k1:Pera' posn='120' vpos='vib_3' name='borda' chunkId='NP4' chunkType='head:NP4'>
13	ne	PSP	<fs af='ne,psp,,,,,,' posn='130' drel='lwg__psp:borda' chunkType='child:NP4' name='ne'>
14	pAnI	NN	<fs af='pAnI,n,m,sg,3,d,0,0' drel='k2:Pera' posn='140' name='pAnI' chunkId='NP5' chunkType='head:NP5'>
15	Pera	VM	<fs af='Pera,v,any,sg,any,,0_xe+yA,0' stype='declarative' posn='150' voicetype='active' vpos='tam_2' name='Pera' chunkId='VGF' chunkType='head:VGF'>
16	xiyA	VAUX	<fs af='xe,v,m,sg,any,,yA,yA' posn='160' drel='lwg__vaux:Pera' chunkType='child:VGF' name='xiyA'>
17	.	SYM	<fs af='.,punc,,,,,,' drel='rsym:Pera' posn='170' name='.' chunkId='BLK' chunkType='head:BLK'>
</Sentence>


<Sentence id="12">
1	jAne	JJC	<fs af='jAna,adj,m,sg,,,,' posn='10' drel='mod:nirmAwA' chunkType='child:NP' name='jAne'>
2	-	SYM	<fs af='-,punc,,,,,,' posn='20' drel='rsym:nirmAwA' chunkType='child:NP' name='-'>
3	mAne	JJ	<fs af='mAna,adj,m,sg,,o,,' posn='10' drel='nmod__adj:nirmAwA' chunkType='child:NP' name='mAne'>
4	Pilma	NNC	<fs af='Pilma,n,f,sg,3,d,0,0' posn='40' drel='pof__cn:nirmAwA' chunkType='child:NP' name='Pilma'>
5	nirmAwA	NN	<fs af='nirmAwA,n,m,sg,3,o,0,0' drel='nmod:patavarxXana' posn='50' name='nirmAwA' chunkId='NP' chunkType='head:NP'>
6	AnaMxa	NNPC	<fs af='AnaMxa,n,m,sg,3,d,0,0' posn='60' drel='pof__cn:patavarxXana' chunkType='child:NP2' name='AnaMxa'>
7	patavarxXana	NNP	<fs af='patavarxXana,n,any,sg,3,o,0_kA,0' drel='r6:Pilma2' posn='70' vpos='vib_3' name='patavarxXana' chunkId='NP2' chunkType='head:NP2'>
8	kI	PSP	<fs af='kA,psp,f,sg,,o,,' posn='80' drel='lwg__psp:patavarxXana' chunkType='child:NP2' name='kI'>
9	Pilma	NN	<fs af='Pilma,n,f,sg,3,o,0,0' drel='k7:jawAI' posn='90' name='Pilma2' chunkId='NP3' chunkType='head:NP3'>
10	(	SYM	<fs af='(,punc,,,,,,' posn='100' drel='rsym:pIsa' chunkType='child:NP4' name='('>
11	vAra	NNPC	<fs af='vAra,n,m,sg,3,d,0,0' posn='110' drel='pof__cn:pIsa' chunkType='child:NP4' name='vAra'>
12	eMda	NNPC	<fs af='eMda,avy,,,,,,' posn='120' drel='pof__cn:pIsa' chunkType='child:NP4' name='eMda'>
13	pIsa	NNP	<fs af='pIsa,n,f,sg,3,o,0,0' drel='nmod:Pilma2' posn='130' name='pIsa' chunkId='NP4' chunkType='head:NP4'>
14	)	SYM	<fs af='),punc,,,,,,' posn='140' drel='rsym:pIsa' chunkType='child:NP4' name=')'>
15	para	PSP	<fs af='para,psp,,,,,,' posn='150' drel='mod:BI' chunkType='child:FRAGP' name='para'>
16	BI	RP	<fs drel='fragof:Pilma2' name='BI' chunkId='FRAGP' chunkType='head:FRAGP'>
17	seMsara	NNC	<fs af='seMsara,n,m,sg,3,d,0,0' posn='170' drel='pof__cn:borda' chunkType='child:NP5' name='seMsara'>
18	borda	NN	<fs af='borda,n,m,sg,3,o,0_ne,0' drel='k1:jawAI' posn='180' vpos='vib_3' name='borda' chunkId='NP5' chunkType='head:NP5'>
19	ne	PSP	<fs af='ne,psp,,,,,,' posn='190' drel='lwg__psp:borda' chunkType='child:NP5' name='ne'>
20	Apawwi	NN	<fs af='Apawwi,n,f,sg,3,d,0,0' drel='pof:jawAI' posn='200' name='Apawwi' chunkId='NP6' chunkType='head:NP6'>
21	jawAI	VM	<fs af='jawA,v,f,sg,any,,yA,yA' stype='declarative' posn='210' voicetype='active' name='jawAI' chunkId='VGF' chunkType='head:VGF'>
22	.	SYM	<fs af='.,punc,,,,,,' drel='rsym:jawAI' posn='220' name='.' chunkId='BLK' chunkType='head:BLK'>
</Sentence>


<Sentence id="13">
1	aba	PRP	<fs af='aba,pn,,,,d,,' drel='k7t:xiKAI' posn='10' name='aba' chunkId='NP' chunkType='head:NP'>
2	yaha	PRP	<fs af='yaha,pn,any,sg,3,d,0,0' drel='k2:xiKAI' posn='20' name='yaha' chunkId='NP2' chunkType='head:NP2'>
3	Pilma	NNC	<fs af='Pilma,n,f,sg,3,d,0,0' posn='30' drel='pof__cn:mahowsava' chunkType='child:NP3' name='Pilma'>
4	mahowsava	NN	<fs af='mahowsava,n,m,sg,3,o,0_meM,0' drel='k7:xiKAI' posn='40' vpos='vib_3' name='mahowsava' chunkId='NP3' chunkType='head:NP3'>
5	meM	PSP	<fs af='meM,psp,,,,,,' posn='50' drel='lwg__psp:mahowsava' chunkType='child:NP3' name='meM'>
6	xiKAI	VM	<fs af='xiKA,v,f,sg,3,,yA_jA_raha+yA_hE,yA' stype='declarative' posn='60' voicetype='passive' vpos='tam_2_3_4' name='xiKAI' chunkId='VGF' chunkType='head:VGF'>
7	jA	VAUX	<fs af='jA,v,any,any,any,,0,0' posn='70' drel='lwg__vaux:xiKAI' chunkType='child:VGF' name='jA'>
8	rahI	VAUX	<fs af='raha,v,f,sg,any,,yA,yA' posn='80' drel='lwg__vaux:xiKAI' chunkType='child:VGF' name='rahI'>
9	hE	VAUX	<fs af='hE,v,any,sg,3,,hE,hE' posn='90' drel='lwg__vaux:xiKAI' chunkType='child:VGF' name='hE'>
10	.	SYM	<fs af='.,punc,,,,,,' drel='rsym:xiKAI' posn='100' name='.' chunkId='BLK' chunkType='head:BLK'>
</Sentence>


<Sentence id="14">
1	patavarxXana	NNP	<fs af='patavarxXana,n,m,sg,3,o,0_ne,0' drel='k1:kahA' posn='10' vpos='vib_2' name='patavarxXana' chunkId='NP' chunkType='head:NP'>
2	ne	PSP	<fs af='ne,psp,,,,,,' posn='20' drel='lwg__psp:patavarxXana' chunkType='child:NP' name='ne'>
3	neSanala	NNPC	<fs af='neSanala,adj,any,any,,d,,' posn='30' drel='pof__cn:kAuMsila' chunkType='child:NP2' name='neSanala'>
4	Pilma	NNPC	<fs af='Pilma,n,f,sg,3,d,0,0' posn='40' drel='pof__cn:kAuMsila' chunkType='child:NP2' name='Pilma'>
5	davalapameMta	NNPC	<fs af='davalapameMta,n,m,sg,3,d,0,0' posn='50' drel='pof__cn:kAuMsila' chunkType='child:NP2' name='davalapameMta'>
6	kAuMsila	NNP	<fs af='kAuMsila,n,f,sg,3,o,0_kA,0' drel='r6:pawrikA' posn='60' vpos='vib_5' name='kAuMsila' chunkId='NP2' chunkType='head:NP2'>
7	kI	PSP	<fs af='kA,psp,f,sg,,o,,' posn='70' drel='lwg__psp:kAuMsila' chunkType='child:NP2' name='kI'>
8	pawrikA	NN	<fs af='pawrikA,n,f,sg,3,o,0,0' drel='ras-k1:kahA' posn='80' name='pawrikA' chunkId='NP3' chunkType='head:NP3'>
9	(	SYM	<fs af='(,punc,f,sg,,d,,' posn='90' drel='rsym:iMdiyA' chunkType='child:NP4' name='('>
10	sinemA	NNPC	<fs af='sinemA,n,m,sg,3,d,0,0' posn='100' drel='pof__cn:iMdiyA' chunkType='child:NP4' name='sinemA'>
11	ina	NNPC	<fs af='ina,psp,,,,,,' posn='110' drel='pof__cn:iMdiyA' chunkType='child:NP4' name='ina'>
12	iMdiyA	NNP	<fs af='iMdiyA,n,m,sg,3,o,0,0' drel='rs:pawrikA' posn='120' name='iMdiyA' chunkId='NP4' chunkType='head:NP4'>
13	)	SYM	<fs af='),punc,,,,,,' posn='130' drel='rsym:iMdiyA' chunkType='child:NP4' name=')'>
14	ke	PSP	<fs af='ke,psp,,,,,,' posn='140' drel='mod:sAWa' chunkType='child:FRAGP' name='ke'>
15	sAWa	NST	<fs drel='fragof:pawrikA' name='sAWa' chunkId='FRAGP' chunkType='head:FRAGP'>
16	sAkRAwkAra	NN	<fs af='sAkRAwkAra,n,m,sg,3,o,0_meM,0' drel='k7:kahA' posn='160' vpos='vib_2' name='sAkRAwkAra' chunkId='NP5' chunkType='head:NP5'>
17	meM	PSP	<fs af='meM,psp,,,,,,' posn='170' drel='lwg__psp:sAkRAwkAra' chunkType='child:NP5' name='meM'>
18	kahA	VM	<fs af='kaha,v,m,sg,any,,yA,yA' drel='nmod__relc:Pilma3' stype='declarative' posn='180' voicetype='active' name='kahA' chunkId='VGF' chunkType='head:VGF'>
19	ki	CC	<fs af='ki,avy,,,,,,' drel='k2:kahA' posn='190' name='ki' chunkId='CCP' chunkType='head:CCP'>
20	jisa	DEM	<fs af='jo,pn,any,sg,3,o,,' posn='200' drel='nmod__adj:Pilma2' chunkType='child:NP6' name='jisa'>
21	Pilma	NN	<fs af='Pilma,n,f,sg,3,o,0_para,0' drel='k7:jawAI' posn='210' coref=':NP8' vpos='vib_3' name='Pilma2' chunkId='NP6' chunkType='head:NP6'>
22	para	PSP	<fs af='para,psp,,,,,,' posn='220' drel='lwg__psp:Pilma2' chunkType='child:NP6' name='para'>
23	Gora	JJ	<fs af='Gora,adj,any,any,,d,,' posn='230' drel='nmod__adj:Apawwi' chunkType='child:NP7' name='Gora'>
24	Apawwi	NN	<fs af='Apawwi,n,f,sg,3,d,0,0' drel='pof:jawAI' posn='240' name='Apawwi' chunkId='NP7' chunkType='head:NP7'>
25	jawAI	VM	<fs af='jawA,v,f,sg,any,,yA_jA+yA1_WA,yA' drel='ccof:ki' stype='declarative' posn='250' voicetype='active' vpos='tam_2_3' name='jawAI' chunkId='VGF2' chunkType='head:VGF2'>
26	gaI	VAUX	<fs af='jA,v,f,sg,any,,yA1,yA1' posn='260' drel='lwg__vaux:jawAI' chunkType='child:VGF2' name='gaI'>
27	WI	VAUX	<fs af='WA,v,f,sg,any,,WA,WA' posn='270' drel='lwg__vaux:jawAI' chunkType='child:VGF2' name='WI'>
28	,	SYM	<fs af='COMMA,punc,,,,,,' posn='280' drel='rsym:jawAI' chunkType='child:VGF2' name=','>
29	usa	DEM	<fs af='vaha,pn,any,sg,3,o,,' posn='290' drel='nmod__adj:Pilma3' chunkType='child:NP8' name='usa'>
30	Pilma	NN	<fs af='Pilma,n,f,sg,3,o,0_ne,0' drel='k1:jIwA' posn='300' vpos='vib_3' name='Pilma3' chunkId='NP8' chunkType='head:NP8'>
31	ne	PSP	<fs af='ne,psp,,,,,,' posn='310' drel='lwg__psp:Pilma3' chunkType='child:NP8' name='ne2'>
32	piCale	JJ	<fs af='piCalA,adj,m,sg,,o,,' posn='320' drel='nmod__adj:sAla' chunkType='child:NP9' name='piCale'>
33	sAla	NN	<fs af='sAla,n,m,sg,3,o,0,0' drel='k7t:jIwA' posn='330' name='sAla' chunkId='NP9' chunkType='head:NP9'>
34	sarvaSreRTa	JJ	<fs af='sarvaSreRTa,adj,any,any,,o,,' posn='340' drel='nmod__adj:Pilma4' chunkType='child:NP10' name='sarvaSreRTa'>
35	nAna	NNC	<fs af='nAna,adj,any,any,,d,,' posn='350' drel='pof__cn:Pilma4' chunkType='child:NP10' name='nAna'>
36	-	SYM	<fs af='-,punc,,,,,,' posn='360' drel='pof__cn:Pilma4' chunkType='child:NP10' name='-'>
37	PikSana	NNC	<fs af='PikSana,n,f,sg,3,d,0,0' posn='370' drel='pof__cn:Pilma4' chunkType='child:NP10' name='PikSana'>
38	Pilma	NN	<fs af='Pilma,n,f,sg,3,o,0_kA,0' drel='r6-k2:puraskAra' posn='380' vpos='vib_6' name='Pilma4' chunkId='NP10' chunkType='head:NP10'>
39	kA	PSP	<fs af='kA,psp,m,sg,,d,,' posn='390' drel='lwg__psp:Pilma4' chunkType='child:NP10' name='kA'>
40	puraskAra	NN	<fs af='puraskAra,n,m,sg,3,d,0,0' drel='pof:jIwA' posn='400' name='puraskAra' chunkId='NP11' chunkType='head:NP11'>
41	jIwA	VM	<fs af='jIwa,v,m,sg,any,,yA,yA' stype='declarative' posn='410' voicetype='active' name='jIwA' chunkId='VGF3' chunkType='head:VGF3'>
42	.	SYM	<fs af='.,punc,,,,,,' drel='rsym:jIwA' posn='420' name='.' chunkId='BLK' chunkType='head:BLK'>
</Sentence>


<Sentence id="15">
1	unhoMne	PRP	<fs af='vaha,pn,any,sg,3h,o,ne,ne' drel='k1:kahA' posn='10' name='unhoMne' chunkId='NP' chunkType='head:NP'>
2	kahA	VM	<fs af='kaha,v,m,sg,any,,yA,yA' stype='declarative' posn='20' voicetype='active' name='kahA' chunkId='VGF' chunkType='head:VGF'>
3	ki	CC	<fs af='ki,avy,,,,,,' drel='k2:kahA' posn='30' name='ki' chunkId='CCP' chunkType='head:CCP'>
4	seMsara	NNC	<fs af='seMsara,n,m,sg,3,d,0,0' posn='40' drel='pof__cn:borda' chunkType='child:NP2' name='seMsara'>
5	borda	NN	<fs af='borda,n,m,sg,3,d,0,0' drel='k1:karawA' posn='50' name='borda' chunkId='NP2' chunkType='head:NP2'>
6	Pilma	NNC	<fs af='Pilma,n,f,sg,3,d,0,0' posn='60' drel='pof__cn:nirmAwAoM' chunkType='child:NP3' name='Pilma'>
7	nirmAwAoM	NN	<fs af='nirmAwA,n,m,pl,3,o,0_kA,0' drel='r6:racanAwmakawA' posn='70' vpos='vib_3' name='nirmAwAoM' chunkId='NP3' chunkType='head:NP3'>
8	kI	PSP	<fs af='kA,psp,f,sg,,o,,' posn='80' drel='lwg__psp:nirmAwAoM' chunkType='child:NP3' name='kI'>
9	racanAwmakawA	NN	<fs af='racanAwmakawA,n,f,sg,3,o,0_ko,0' drel='k2:karawA' posn='90' vpos='vib_2' name='racanAwmakawA' chunkId='NP4' chunkType='head:NP4'>
10	ko	PSP	<fs af='ko,psp,,,,,,' posn='100' drel='lwg__psp:racanAwmakawA' chunkType='child:NP4' name='ko'>
11	kuMTiwa	JJ	<fs af='kuMTiwa,adj,any,any,,,,' drel='pof:karawA' posn='110' name='kuMTiwa' chunkId='JJP' chunkType='head:JJP'>
12	karawA	VM	<fs af='kara,v,m,sg,3,,wA_raha+yA_hE,wA' drel='ccof:ki' stype='declarative' posn='120' voicetype='active' vpos='tam_2_3' name='karawA' chunkId='VGF2' chunkType='head:VGF2'>
13	rahA	VAUX	<fs af='raha,v,m,sg,any,,yA,yA' posn='130' drel='lwg__vaux:karawA' chunkType='child:VGF2' name='rahA'>
14	hE	VAUX	<fs af='hE,v,any,sg,3,,hE,hE' posn='140' drel='lwg__vaux:karawA' chunkType='child:VGF2' name='hE'>
15	.	SYM	<fs af='.,punc,,,,,,' drel='rsym:kahA' posn='150' name='.' chunkId='BLK' chunkType='head:BLK'>
</Sentence>


<Sentence id="16">
1	patavarxXana	NNP	<fs af='patavarxXana,n,m,sg,3,o,0_ko,0' drel='k4:kahA' posn='10' vpos='vib_2' name='patavarxXana' chunkId='NP' chunkType='head:NP'>
2	ko	PSP	<fs af='ko,psp,,,,,,' posn='20' drel='lwg__psp:patavarxXana' chunkType='child:NP' name='ko'>
3	apanI	PRP	<fs af='apanA,pn,f,any,any,o,0,0' drel='r6:Pilma' posn='30' name='apanI' chunkId='NP2' chunkType='head:NP2'>
4	Pilma	NN	<fs af='Pilma,n,f,sg,3,o,0_meM,0' drel='k7:kahA' posn='40' vpos='vib_2' name='Pilma' chunkId='NP3' chunkType='head:NP3'>
5	meM	PSP	<fs af='meM,psp,,,,,,' posn='50' drel='lwg__psp:Pilma' chunkType='child:NP3' name='meM'>
6	21	QC	<fs af='21,num,any,any,,any,,' posn='60' drel='nmod__adj:xqSyoM' chunkType='child:NP4' name='21'>
7	xqSyoM	NN	<fs af='xqSya,n,m,pl,3,o,0_kA,0' drel='r6-k2:katOwI' posn='70' vpos='vib_3' name='xqSyoM' chunkId='NP4' chunkType='head:NP4'>
8	kI	PSP	<fs af='kA,psp,f,sg,,d,,' posn='80' drel='lwg__psp:xqSyoM' chunkType='child:NP4' name='kI'>
9	katOwI	NN	<fs af='katOwI,n,f,sg,3,d,0,0' drel='pof:karane' posn='90' name='katOwI' chunkId='NP5' chunkType='head:NP5'>
10	karane	VM	<fs af='kara,v,any,any,any,o,nA_ko,nA' drel='rt:kahA' posn='100' vpos='tam_2' name='karane' chunkId='VGNN' chunkType='head:VGNN'>
11	ko	PSP	<fs af='ko,psp,,,,,,' posn='110' drel='lwg__psp:karane' chunkType='child:VGNN' name='ko2'>
12	kahA	VM	<fs af='kaha,v,m,sg,any,,yA_jA+yA1_WA,yA' stype='declarative' posn='120' voicetype='passive' vpos='tam_2_3' name='kahA' chunkId='VGF' chunkType='head:VGF'>
13	gayA	VAUX	<fs af='jA,v,m,sg,any,,yA1,yA1' posn='130' drel='lwg__vaux:kahA' chunkType='child:VGF' name='gayA'>
14	WA	VAUX	<fs af='WA,v,m,sg,any,,WA,WA' posn='140' drel='lwg__vaux:kahA' chunkType='child:VGF' name='WA'>
15	,	SYM	<fs af='COMMA,punc,,,,,,' posn='150' drel='rsym:kahA' chunkType='child:VGF' name=','>
16	jisase	PRP	<fs af='jo,pn,any,sg,3,o,se,se' drel='k2:kara' posn='160' coref=':NP5' name='jisase' chunkId='NP6' chunkType='head:NP6'>
17	unhoMne	PRP	<fs af='vaha,pn,any,sg,3h,o,ne,ne' drel='k1:kara' posn='170' name='unhoMne' chunkId='NP7' chunkType='head:NP7'>
18	iMkAra	NN	<fs af='iMkAra,n,m,sg,3,d,0,0' drel='pof:kara' posn='180' name='iMkAra' chunkId='NP8' chunkType='head:NP8'>
19	kara	VM	<fs af='kara,v,any,sg,any,,0_xe+yA,0' drel='nmod__relc:katOwI' stype='declarative' posn='190' voicetype='active' vpos='tam_2' name='kara' chunkId='VGF2' chunkType='head:VGF2'>
20	xiyA	VAUX	<fs af='xe,v,m,sg,any,,yA,yA' posn='200' drel='lwg__vaux:kara' chunkType='child:VGF2' name='xiyA'>
21	.	SYM	<fs af='.,punc,,,,,,' drel='rsym:kahA' posn='210' name='.' chunkId='BLK' chunkType='head:BLK'>
</Sentence>


<Sentence id="17">
1	xUsare	QO	<fs af='xUsarA,adj,m,pl,,o,,' posn='10' drel='nmod__adj:nirmAwAoM' chunkType='child:NP' name='xUsare'>
2	kaI	QF	<fs af='kaI,avy,,,,,,' posn='20' drel='nmod__adj:nirmAwAoM' chunkType='child:NP' name='kaI'>
3	Pilma	NNC	<fs af='Pilma,n,f,sg,3,d,0,0' posn='30' drel='pof__cn:nirmAwAoM' chunkType='child:NP' name='Pilma'>
4	nirmAwAoM	NN	<fs af='nirmAwA,n,m,pl,3,o,0_kA,0' drel='k1:kahanA' posn='40' vpos='vib_5' name='nirmAwAoM' chunkId='NP' chunkType='head:NP'>
5	kA	PSP	<fs af='kA,psp,m,sg,,d,,' posn='50' drel='lwg__psp:nirmAwAoM' chunkType='child:NP' name='kA'>
6	kahanA	VM	<fs af='kaha,v,any,any,any,d,nA,nA' drel='k1:hE' posn='60' name='kahanA' chunkId='VGNN' chunkType='head:VGNN'>
7	hE	VM	<fs af='hE,v,any,sg,3,,hE,hE' stype='declarative' posn='70' voicetype='active' name='hE' chunkId='VGF' chunkType='head:VGF'>
8	ki	CC	<fs af='ki,avy,,,,,,' drel='k2:kahanA' posn='80' name='ki' chunkId='CCP' chunkType='head:CCP'>
9	seMsara	NNC	<fs af='seMsara,n,m,sg,3,d,0,0' posn='90' drel='pof__cn:borda' chunkType='child:NP2' name='seMsara'>
10	borda	NN	<fs af='borda,n,m,sg,3,o,0_ko,0' drel='k4a:ho' posn='100' vpos='vib_3' name='borda' chunkId='NP2' chunkType='head:NP2'>
11	ko	PSP	<fs af='ko,psp,,,,,,' posn='110' drel='lwg__psp:borda' chunkType='child:NP2' name='ko'>
12	binA	RP	<fs af='binA,avy,,,,,,' posn='120' drel='lwg__rp:vajaha' chunkType='child:NP3' name='binA'>
13	vajaha	NN	<fs af='vajaha,n,f,sg,3,d,0,0' drel='ras-NEG:karane' posn='130' name='vajaha' chunkId='NP3' chunkType='head:NP3'>
14	nukwAcInI	NN	<fs af='nukwAcInI,n,f,sg,3,d,0,0' drel='pof:karane' posn='140' name='nukwAcInI' chunkId='NP4' chunkType='head:NP4'>
15	karane	VM	<fs af='kara,v,any,sg,any,o,nA_kA,nA' drel='r6-k2:Axawa' posn='150' vpos='tam_2' name='karane' chunkId='VGNN2' chunkType='head:VGNN2'>
16	kI	PSP	<fs af='kA,psp,f,sg,,d,,' posn='160' drel='lwg__psp:karane' chunkType='child:VGNN2' name='kI'>
17	Axawa	NN	<fs af='Axawa,n,f,sg,3,d,0,0' drel='pof:ho' posn='170' name='Axawa' chunkId='NP5' chunkType='head:NP5'>
18	ho	VM	<fs af='ho,v,f,sg,3,,0_jA+yA1_hE,0' drel='ccof:ki' stype='declarative' posn='180' voicetype='active' vpos='tam_2_3' name='ho' chunkId='VGF2' chunkType='head:VGF2'>
19	gaI	VAUX	<fs af='jA,v,f,sg,any,,yA1,yA1' posn='190' drel='lwg__vaux:ho' chunkType='child:VGF2' name='gaI'>
20	hE	VAUX	<fs af='hE,v,any,sg,3,,hE,hE' posn='200' drel='lwg__vaux:ho' chunkType='child:VGF2' name='hE2'>
21	.	SYM	<fs af='.,punc,,,,,,' drel='rsym:hE' posn='210' name='.' chunkId='BLK' chunkType='head:BLK'>
</Sentence>


<Sentence id="18">
1	PilmoM	NN	<fs af='Pilma,n,f,pl,3,o,0_kA,0' drel='r6:praxarSana' posn='10' vpos='vib_2' name='PilmoM' chunkId='NP' chunkType='head:NP'>
2	ke	PSP	<fs af='kA,psp,m,sg,,o,,' posn='20' drel='lwg__psp:PilmoM' chunkType='child:NP' name='ke'>
3	praxarSana	NN	<fs af='praxarSana,n,m,sg,3,o,0_meM,0' drel='k7:bana' posn='30' vpos='vib_2' name='praxarSana' chunkId='NP2' chunkType='head:NP2'>
4	meM	PSP	<fs af='meM,psp,,,,,,' posn='40' drel='lwg__psp:praxarSana' chunkType='child:NP2' name='meM'>
5	adZMgA	NN	<fs af='adaMgA,n,m,sg,3,d,0,0' drel='pof:lagAnA' posn='50' name='adZMgA' chunkId='NP3' chunkType='head:NP3'>
6	lagAnA	VM	<fs af='lagA,v,any,any,any,d,nA,nA' drel='k1:bana' posn='60' name='lagAnA' chunkId='VGNN' chunkType='head:VGNN'>
7	usakI	PRP	<fs af='vaha,pn,f,sg,3,o,kA,kA' drel='r6:Axawa' posn='70' name='usakI' chunkId='NP4' chunkType='head:NP4'>
8	Axawa	NN	<fs af='Axawa,n,f,sg,3,d,0,0' drel='k1s:bana' posn='80' name='Axawa' chunkId='NP5' chunkType='head:NP5'>
9	bana	VM	<fs af='bana,v,f,sg,3,,0_jA+yA1_hE,0' stype='declarative' posn='90' voicetype='active' vpos='tam_2_3' name='bana' chunkId='VGF' chunkType='head:VGF'>
10	gaI	VAUX	<fs af='jA,v,f,sg,any,,yA1,yA1' posn='100' drel='lwg__vaux:bana' chunkType='child:VGF' name='gaI'>
11	hE	VAUX	<fs af='hE,v,any,sg,3,,hE,hE' posn='110' drel='lwg__vaux:bana' chunkType='child:VGF' name='hE'>
12	.	SYM	<fs af='.,punc,,,,,,' drel='rsym:bana' posn='120' name='.' chunkId='BLK' chunkType='head:BLK'>
</Sentence>


</text>
</tb>
</body>
</document>
