<document id="2545607">
<head>
<title></title>			
<caption>pUvarwwara meM logoM ko pahacAna  SIGra mileMge  pAtila        AIemadItI ekta para suprIma korta kA PEsalA mAnegI sarakAra  amara ujAlA byUro   : naI xillI</caption>			
<language>Hindi </language>			
<author>			
<firstname></firstname>			
<middlename></middlename>			
<lastname></lastname>			
</author>			
<creation>			
<raw_corpus creation_date="" institute_name=""></raw_corpus>			
<annotated_corpus creation_date="07/25/2009" institute_name="IIIT-Hyderabad"></annotated_corpus>			
</creation>			
<domain_name>News Articles </domain_name>			
<distributor>LTRC, IIIT Hyderabad</distributor>			
<source>ISI, Kolkata</source>			
<publication>			
<place>New Delhi</place>			
<date>23/6/2004</date>			
<address>Connaught Place, New Delhi</address>			
<type>Newspaper</type>			
<publisher>			
<name>Amar Ujala</name>			
<url>http://www.amarujala.com</url>			
</publisher>			
</publication>			
<project_description>NSF Hindi/Urdu Dependency Treebanking Project</project_description>			
<availability>			
<format>CML/SSF</format>			
</availability>			
<byte_count>9430</byte_count>			
<word_count>356</word_count>			
<edition_number>1.0</edition_number>			
<encoding_description>			
<original_encoding>ISO 8859</original_encoding>			
<new_encoding>Unicode UTF8</new_encoding>			
</encoding_description>			
<bibliography></bibliography>			
<sentence_marker>.</sentence_marker>			
<normalization>No</normalization>			
<utility_name>cml_tags</utility_name>			

</head>
<body>
<tb number="1" segment="no" bullet="no">
<foreign language="select" writingsystem="LTR"> </foreign>			
<text>
<Sentence id="1">
1	keMxrIya	NNPC	<fs af='keMxrIya,adj,any,any,,o,,' posn='10' drel='pof__cn:gqhamaMwrI' chunkType='child:NP' name='keMxrIya'>
2	gqhamaMwrI	NNP	<fs af='gqhamaMwrI,n,m,sg,3,d,0,0' posn='20' drel='nmod__adj:pAtila' chunkType='child:NP' name='gqhamaMwrI'>
3	SivarAja	NNPC	<fs af='SivarAja,n,m,sg,3,d,0,0' posn='30' drel='pof__cn:pAtila' chunkType='child:NP' name='SivarAja'>
4	pAtila	NNP	<fs af='pAtila,n,any,sg,3,o,0_ne,0' drel='k1:kahA' posn='40' vpos='vib_vib_5' name='pAtila' chunkId='NP' chunkType='head:NP'>
5	ne	PSP	<fs af='ne,psp,,,,,,' posn='50' drel='lwg__psp:pAtila' chunkType='child:NP' name='ne'>
6	kahA	VM	<fs af='kaha,v,m,sg,any,,yA,yA' stype='declarative' posn='60' voicetype='active' name='kahA' chunkId='VGF' chunkType='head:VGF'>
7	ki	CC	<fs af='ki,avy,,,,,,' drel='k2:kahA' posn='70' name='ki' chunkId='CCP' chunkType='head:CCP'>
8	pUrvowwara	NN	<fs af='pUrvowwara,n,m,sg,3,o,0_kA,0' drel='r6:rAjyoM' posn='80' vpos='vib_2' name='pUrvowwara' chunkId='NP2' chunkType='head:NP2'>
9	ke	PSP	<fs af='kA,psp,m,pl,,o,,' posn='90' drel='lwg__psp:pUrvowwara' chunkType='child:NP2' name='ke'>
10	sImAvarwI	JJ	<fs af='sImAvarwI,adj,any,any,,o,,' posn='100' drel='nmod__adj:rAjyoM' chunkType='child:NP3' name='sImAvarwI'>
11	rAjyoM	NN	<fs af='rAjya,n,m,pl,3,o,0_meM,0' drel='k7p:rokane' posn='110' vpos='vib_3' name='rAjyoM' chunkId='NP3' chunkType='head:NP3'>
12	meM	PSP	<fs af='meM,psp,,,,,,' posn='120' drel='lwg__psp:rAjyoM' chunkType='child:NP3' name='meM'>
13	GusapETa	NN	<fs af='GusapETa,n,f,sg,3,d,0,0' drel='k2:rokane' posn='130' name='GusapETa' chunkId='NP4' chunkType='head:NP4'>
14	rokane	VM	<fs af='roka,v,any,any,any,o,nA_ke_lie,nA' drel='rt:karegI' posn='140' vpos='tam_2_3' name='rokane' chunkId='VGNN' chunkType='head:VGNN'>
15	ke	PSP	<fs af='ke,psp,,,,,,' posn='150' drel='lwg__psp:rokane' chunkType='child:VGNN' name='ke2'>
16	lie	PSP	<fs af='lie,psp,,,,,,' posn='160' drel='lwg__psp:rokane' chunkType='child:VGNN' name='lie'>
17	sarakAra	NN	<fs af='sarakAra,n,f,sg,3,d,0,0' drel='k1:karegI' posn='170' name='sarakAra' chunkId='NP5' chunkType='head:NP5'>
18	logoM	NN	<fs af='loga,n,m,pl,3,o,0_ko,0' drel='k4:xene' posn='180' vpos='vib_2' name='logoM' chunkId='NP6' chunkType='head:NP6'>
19	ko	PSP	<fs af='ko,psp,,,,,,' posn='190' drel='lwg__psp:logoM' chunkType='child:NP6' name='ko'>
20	pahacAna	NN	<fs af='pahacAna,n,f,sg,3,d,0,0' drel='k2:xene' posn='200' name='pahacAna' chunkId='NP7' chunkType='head:NP7'>
21	xene	VM	<fs af='xe,v,any,sg,any,o,nA_kA,nA' drel='r6:kArya' posn='210' vpos='tam_2' name='xene' chunkId='VGNN2' chunkType='head:VGNN2'>
22	kA	PSP	<fs af='kA,psp,m,sg,,d,,' posn='220' drel='lwg__psp:xene' chunkType='child:VGNN2' name='kA'>
23	kArya	NN	<fs af='kArya,n,m,sg,3,d,0,0' drel='k2:karegI' posn='230' name='kArya' chunkId='NP8' chunkType='head:NP8'>
24	SIGra	RB	<fs af='SIGra,adv,,,,,,' drel='adv:karegI' posn='240' name='SIGra' chunkId='RBP' chunkType='head:RBP'>
25	SurU	NN	<fs af='SurU,n,m,sg,3,d,0,0' drel='pof:karegI' posn='250' name='SurU' chunkId='NP9' chunkType='head:NP9'>
26	karegI	VM	<fs af='kara,v,f,sg,3,,gA,gA' drel='ccof:ki' stype='declarative' posn='260' voicetype='active' name='karegI' chunkId='VGF2' chunkType='head:VGF2'>
27	.	SYM	<fs af='.,punc,,,,,,' drel='rsym:kahA' posn='270' name='.' chunkId='BLK' chunkType='head:BLK'>
</Sentence>


<Sentence id="2">
1	kuCa	QF	<fs af='kuCa,avy,,,,,,' posn='10' drel='nmod__adj:ilAkoM' chunkType='child:NP' name='kuCa'>
2	ilAkoM	NN	<fs af='ilAkA,n,m,pl,3,o,0_meM,0' drel='k7p:kara' posn='20' vpos='vib_3' name='ilAkoM' chunkId='NP' chunkType='head:NP'>
3	meM	PSP	<fs af='meM,psp,,,,,,' posn='30' drel='lwg__psp:ilAkoM' chunkType='child:NP' name='meM'>
4	gqha	NNPC	<fs af='gqha,n,m,sg,3,d,0,0' posn='40' drel='pof__cn:maMwrAlaya' chunkType='child:NP2' name='gqha'>
5	maMwrAlaya	NNP	<fs af='maMwrAlaya,n,m,sg,3,o,0_ne,0' drel='k1:kara' posn='50' vpos='vib_3' name='maMwrAlaya' chunkId='NP2' chunkType='head:NP2'>
6	ne	PSP	<fs af='ne,psp,,,,,,' posn='60' drel='lwg__psp:maMwrAlaya' chunkType='child:NP2' name='ne'>
7	prAyogika	JJ	<fs af='prAyogika,adj,any,any,,o,,' posn='70' drel='nmod__adj:wOra' chunkType='child:NP3' name='prAyogika'>
8	wOra	NN	<fs af='wOra,n,m,sg,3,o,0_para,0' drel='k7:kara' posn='80' vpos='vib_3' name='wOra' chunkId='NP3' chunkType='head:NP3'>
9	para	PSP	<fs af='para,psp,,,,,,' posn='90' drel='lwg__psp:wOra' chunkType='child:NP3' name='para'>
10	yojanA	NN	<fs af='yojanA,n,f,sg,3,d,0,0' drel='k2:kara' posn='100' name='yojanA' chunkId='NP4' chunkType='head:NP4'>
11	pahale	NST	<fs af='pahale,nst,m,sg,3,d,,' drel='k7t:kara' posn='110' name='pahale' chunkId='NP5' chunkType='head:NP5'>
12	hI	RP	<fs af='hI,avy,,,,,,' posn='120' drel='lwg__rp:pahale' chunkType='child:NP5' name='hI'>
13	SurU	NN	<fs af='SurU,n,m,sg,3,d,0,0' drel='pof:kara' posn='130' name='SurU' chunkId='NP6' chunkType='head:NP6'>
14	kara	VM	<fs af='kara,v,f,sg,3,,0_raKa+yA_hE,0' stype='declarative' posn='140' voicetype='active' vpos='tam_2_3' name='kara' chunkId='VGF' chunkType='head:VGF'>
15	raKI	VAUX	<fs af='raKa,v,f,sg,any,,yA,yA' posn='150' drel='lwg__vaux:kara' chunkType='child:VGF' name='raKI'>
16	hE	VAUX	<fs af='hE,v,any,sg,3,,hE,hE' posn='160' drel='lwg__vaux:kara' chunkType='child:VGF' name='hE'>
17	jisake	PRP	<fs af='jo,pn,m,sg,3,o,kA,kA' drel='r6:pariNAma' posn='170' coref=':NP4' name='jisake' chunkId='NP7' chunkType='head:NP7'>
18	acCe	JJ	<fs af='acCA,adj,m,pl,,d,,' posn='180' drel='nmod__adj:pariNAma' chunkType='child:NP8' name='acCe'>
19	pariNAma	NN	<fs af='pariNAma,n,m,pl,3,d,0,0' drel='k1:Ae' posn='190' name='pariNAma' chunkId='NP8' chunkType='head:NP8'>
20	Ae	VM	<fs af='A,v,m,pl,3,,yA_hE,yA' drel='nmod__relc:yojanA' stype='declarative' posn='200' voicetype='active' vpos='tam_2' name='Ae' chunkId='VGF2' chunkType='head:VGF2'>
21	hEM	VAUX	<fs af='hE,v,any,pl,3,,hE,hE' posn='210' drel='lwg__vaux:Ae' chunkType='child:VGF2' name='hEM'>
22	.	SYM	<fs af='.,punc,,,,,,' drel='rsym:kara' posn='220' name='.' chunkId='BLK' chunkType='head:BLK'>
</Sentence>


<Sentence id="3">
1	unhoMne	PRP	<fs af='vaha,pn,any,sg,3h,o,ne,ne' drel='k1:kahI' posn='10' name='unhoMne' chunkId='NP' chunkType='head:NP'>
2	rAjyasaBA	NN	<fs af='rAjyasaBA,n,f,sg,3,o,0_meM,0' drel='k7p:kahI' posn='20' vpos='vib_2' name='rAjyasaBA' chunkId='NP2' chunkType='head:NP2'>
3	meM	PSP	<fs af='meM,psp,,,,,,' posn='30' drel='lwg__psp:rAjyasaBA' chunkType='child:NP2' name='meM'>
4	AIemadItI	NNPC	<fs af='AIemadItI,n,m,sg,3,d,0,0' posn='40' drel='pof__cn:ekta' chunkType='child:NP3' name='AIemadItI'>
5	ekta	NNP	<fs af='ekta,n,m,sg,3,o,0_para,0' drel='k7:kahI' posn='50' vpos='vib_3' name='ekta' chunkId='NP3' chunkType='head:NP3'>
6	para	PSP	<fs af='para,psp,,,,,,' posn='60' drel='lwg__psp:ekta' chunkType='child:NP3' name='para'>
7	suprIma	NNPC	<fs af='suprIma,n,m,sg,3,d,0,0' posn='70' drel='pof__cn:korta' chunkType='child:NP4' name='suprIma'>
8	korta	NNP	<fs af='korta,n,m,sg,3,o,0_kA,0' drel='r6:PEsale' posn='80' vpos='vib_3' name='korta' chunkId='NP4' chunkType='head:NP4'>
9	ke	PSP	<fs af='kA,psp,m,sg,,o,,' posn='90' drel='lwg__psp:korta' chunkType='child:NP4' name='ke'>
10	PEsale	NN	<fs af='PEsalA,n,m,sg,3,o,0_se,0' drel='jjmod:uwpanna' posn='100' vpos='vib_2' name='PEsale' chunkId='NP5' chunkType='head:NP5'>
11	se	PSP	<fs af='se,psp,,,,,,' posn='110' drel='lwg__psp:PEsale' chunkType='child:NP5' name='se'>
12	uwpanna	JJ	<fs af='uwpanna,adj,any,any,,o,,' drel='nmod:sWiwi' posn='120' name='uwpanna' chunkId='JJP' chunkType='head:JJP'>
13	sWiwi	NN	<fs af='sWiwi,n,f,sg,3,o,0_para,0' drel='k7:calI' posn='130' vpos='vib_2' name='sWiwi' chunkId='NP6' chunkType='head:NP6'>
14	para	PSP	<fs af='para,psp,,,,,,' posn='140' drel='lwg__psp:sWiwi' chunkType='child:NP6' name='para2'>
15	kala	NN	<fs af='kala,n,m,sg,3,d,0,0' drel='ccof:Ora' posn='150' name='kala' chunkId='NP7' chunkType='head:NP7'>
16	Ora	CC	<fs af='Ora,avy,,,,,,' drel='k7t:calI' posn='160' name='Ora' chunkId='CCP' chunkType='head:CCP'>
17	Aja	NN	<fs af='Aja,n,m,sg,3,d,0,0' drel='ccof:Ora' posn='170' name='Aja' chunkId='NP8' chunkType='head:NP8'>
18	calI	VM	<fs af='cala,v,f,sg,any,,yA,yA' drel='nmod__k1inv:carcA' posn='180' name='calI' chunkId='VGNF' chunkType='head:VGNF'>
19	carcA	NN	<fs af='carcA,n,f,sg,3,o,0_ke_bAxa,0' drel='k7t:pUCe' posn='190' vpos='vib_2_3' name='carcA' chunkId='NP9' chunkType='head:NP9'>
20	ke	PSP	<fs af='ke,psp,,,,,,' posn='200' drel='lwg__psp:carcA' chunkType='child:NP9' name='ke2'>
21	bAxa	NST	<fs af='bAxa,nst,m,sg,3,d,,' posn='210' drel='lwg__psp:carcA' chunkType='child:NP9' name='bAxa'>
22	saxasyoM	NN	<fs af='saxasya,n,m,pl,3,o,0_xvArA,0' drel='k1:pUCe' posn='220' vpos='vib_2' name='saxasyoM' chunkId='NP10' chunkType='head:NP10'>
23	xvArA	PSP	<fs af='xvArA,psp,,,,,,' posn='230' drel='lwg__psp:saxasyoM' chunkType='child:NP10' name='xvArA'>
24	pUCe	VM	<fs af='pUCa,v,m,pl,any,,yA_jA+yA1,yA' drel='nmod__k1inv:praSnoM' posn='240' vpos='tam_2' name='pUCe' chunkId='VGNF2' chunkType='head:VGNF2'>
25	gaye	VAUX	<fs af='jA,v,m,pl,any,,yA1,yA1' posn='250' drel='lwg__vaux:pUCe' chunkType='child:VGNF2' name='gaye'>
26	praSnoM	NN	<fs af='praSna,n,m,pl,3,o,0_kA,0' drel='r6:javAba' posn='260' vpos='vib_2' name='praSnoM' chunkId='NP11' chunkType='head:NP11'>
27	ke	PSP	<fs af='kA,psp,m,sg,,o,,' posn='270' drel='lwg__psp:praSnoM' chunkType='child:NP11' name='ke3'>
28	javAba	NN	<fs af='javAba,n,m,sg,3,o,0_meM,0' drel='k7:kahI' posn='280' vpos='vib_2' name='javAba' chunkId='NP12' chunkType='head:NP12'>
29	meM	PSP	<fs af='meM,psp,,,,,,' posn='290' drel='lwg__psp:javAba' chunkType='child:NP12' name='meM2'>
30	yaha	DEM	<fs af='yaha,pn,any,sg,3,d,,' posn='300' drel='nmod__adj:bAwa' chunkType='child:NP13' name='yaha'>
31	bAwa	NN	<fs af='bAwa,n,f,sg,3,d,0,0' drel='k2:kahI' posn='310' name='bAwa' chunkId='NP13' chunkType='head:NP13'>
32	kahI	VM	<fs af='kaha,v,f,sg,any,,yA,yA' stype='declarative' posn='320' voicetype='active' name='kahI' chunkId='VGF' chunkType='head:VGF'>
33	.	SYM	<fs af='.,punc,,,,,,' drel='rsym:kahI' posn='330' name='.' chunkId='BLK' chunkType='head:BLK'>
</Sentence>


<Sentence id="4">
1	pAtila	NNP	<fs af='pAtila,n,any,sg,3,o,0_ne,0' drel='k1:kahA' posn='10' vpos='vib_2' name='pAtila' chunkId='NP' chunkType='head:NP'>
2	ne	PSP	<fs af='ne,psp,,,,,,' posn='20' drel='lwg__psp:pAtila' chunkType='child:NP' name='ne'>
3	kahA	VM	<fs af='kaha,v,m,sg,any,,yA,yA' stype='declarative' posn='30' voicetype='active' name='kahA' chunkId='VGF' chunkType='head:VGF'>
4	ki	CC	<fs af='ki,avy,,,,,,' drel='k2:kahA' posn='40' name='ki' chunkId='CCP' chunkType='head:CCP'>
5	AIemadItI	NNPC	<fs af='AIemadItI,n,m,sg,3,d,0,0' posn='50' drel='pof__cn:ekta' chunkType='child:NP2' name='AIemadItI'>
6	ekta	NNP	<fs af='ekta,n,m,sg,3,o,0_ko,0' drel='k2:kie' posn='60' vpos='vib_3' name='ekta' chunkId='NP2' chunkType='head:NP2'>
7	ko	PSP	<fs af='ko,psp,,,,,,' posn='70' drel='lwg__psp:ekta' chunkType='child:NP2' name='ko'>
8	samApwa	JJ	<fs af='samApwa,adj,any,any,,,,' drel='pof:kie' posn='80' name='samApwa' chunkId='JJP' chunkType='head:JJP'>
9	kie	VM	<fs af='kara,v,m,any,any,,yA_jA+nA,yA' drel='jjmod:saMbaMXI' posn='90' vpos='tam_2' name='kie' chunkId='VGNN' chunkType='head:VGNN'>
10	jAne	VAUX	<fs af='jA,v,any,any,any,o,nA,nA' posn='100' drel='lwg__vaux:kie' chunkType='child:VGNN' name='jAne'>
11	saMbaMXI	JJ	<fs af='saMbaMXI,adj,any,any,,o,,' drel='nmod:korta' posn='110' name='saMbaMXI' chunkId='JJP2' chunkType='head:JJP2'>
12	suprIma	NNPC	<fs af='suprIma,n,m,sg,3,d,0,0' posn='120' drel='pof__cn:korta' chunkType='child:NP3' name='suprIma'>
13	korta	NNP	<fs af='korta,n,m,sg,3,o,0_kA,0' drel='r6:PEsale' posn='130' vpos='vib_3' name='korta' chunkId='NP3' chunkType='head:NP3'>
14	ke	PSP	<fs af='kA,psp,m,sg,,o,,' posn='140' drel='lwg__psp:korta' chunkType='child:NP3' name='ke'>
15	PEsale	NN	<fs af='PEsalA,n,m,sg,3,o,0_para,0' drel='k7:karane' posn='150' vpos='vib_2' name='PEsale' chunkId='NP4' chunkType='head:NP4'>
16	para	PSP	<fs af='para,psp,,,,,,' posn='160' drel='lwg__psp:PEsale' chunkType='child:NP4' name='para'>
17	punarvicAra	NNC	<fs af='punarvicAra,n,m,sg,3,d,0,0' posn='170' drel='pof__cn:apIla' chunkType='child:NP5' name='punarvicAra'>
18	apIla	NN	<fs af='apIla,n,f,sg,3,d,0,0' drel='k2:karane' posn='180' name='apIla' chunkId='NP5' chunkType='head:NP5'>
19	xAyara	JJ	<fs af='xAyara,adj,any,any,,,,' drel='pof:karane' posn='190' name='xAyara' chunkId='JJP3' chunkType='head:JJP3'>
20	karane	VM	<fs af='kara,v,any,sg,any,o,nA_kA,nA' drel='r6:sarakAra' posn='200' vpos='tam_2' name='karane' chunkId='VGNN2' chunkType='head:VGNN2'>
21	kI	PSP	<fs af='kA,psp,f,sg,,o,,' posn='210' drel='lwg__psp:karane' chunkType='child:VGNN2' name='kI'>
22	sarakAra	NN	<fs af='sarakAra,n,f,sg,3,o,0_kA,0' drel='r6:maMSA' posn='220' vpos='vib_2' name='sarakAra' chunkId='NP6' chunkType='head:NP6'>
23	kI	PSP	<fs af='kA,psp,f,sg,,d,,' posn='230' drel='lwg__psp:sarakAra' chunkType='child:NP6' name='kI2'>
24	koI	PRP	<fs af='koI,pn,any,sg,3,d,0,' posn='240' drel='nmod__adj:maMSA' chunkType='child:NP7' name='koI'>
25	maMSA	NN	<fs af='maMSA,n,f,sg,3,d,0,0' drel='k1:hE' posn='250' name='maMSA' chunkId='NP7' chunkType='head:NP7'>
26	nahIM	NEG	<fs af='nahIM,avy,,,,,,' posn='260' drel='lwg__neg:hE' chunkType='child:VGF2' name='nahIM'>
27	hE	VM	<fs af='hE,v,any,sg,3,,hE,hE' drel='ccof:ki' stype='declarative' posn='270' voicetype='active' name='hE' chunkId='VGF2' chunkType='head:VGF2'>
28	.	SYM	<fs af='.,punc,,,,,,' drel='rsym:kahA' posn='280' name='.' chunkId='BLK' chunkType='head:BLK'>
</Sentence>


<Sentence id="5">
1	isa	DEM	<fs af='yaha,pn,any,sg,3,o,,' posn='10' drel='nmod__adj:kAnUna' chunkType='child:NP' name='isa'>
2	kAnUna	NN	<fs af='kAnUna,n,m,sg,3,o,0_kA,0' drel='r6:sWAna' posn='20' vpos='vib_3' name='kAnUna' chunkId='NP' chunkType='head:NP'>
3	ke	PSP	<fs af='kA,psp,m,sg,,o,,' posn='30' drel='lwg__psp:kAnUna' chunkType='child:NP' name='ke'>
4	sWAna	NN	<fs af='sWAna,n,m,sg,3,o,0_para,0' drel='k7:kI' posn='40' vpos='vib_2' name='sWAna' chunkId='NP2' chunkType='head:NP2'>
5	para	PSP	<fs af='para,psp,,,,,,' posn='50' drel='lwg__psp:sWAna' chunkType='child:NP2' name='para'>
6	kyA	WQ	<fs af='kyA,pn,,,,,,' posn='60' drel='mod__wq:vyavasWA' chunkType='child:NP3' name='kyA'>
7	vyavasWA	NN	<fs af='vyavasWA,n,f,sg,3,d,0,0' drel='pof:kI' posn='70' name='vyavasWA' chunkId='NP3' chunkType='head:NP3'>
8	kI	VM	<fs af='kara,v,f,sg,3,,yA_jA+gA,yA' drel='rs:isa2' stype='declarative' posn='80' voicetype='active' vpos='tam_2' name='kI' chunkId='VGF' chunkType='head:VGF'>
9	jAegI	VAUX	<fs af='jA,v,f,sg,3,,gA,gA' posn='90' drel='lwg__vaux:kI' chunkType='child:VGF' name='jAegI'>
10	,	SYM	<fs af='COMMA,punc,,,,,,' posn='100' drel='rsym:kI' chunkType='child:VGF' name=','>
11	isa	PRP	<fs af='yaha,pn,any,sg,3,o,0_para,0' drel='k7:Ae' posn='110' vpos='vib_2' name='isa2' chunkId='NP4' chunkType='head:NP4'>
12	para	PSP	<fs af='para,psp,,,,,,' posn='120' drel='lwg__psp:isa2' chunkType='child:NP4' name='para2'>
13	hAlAMki	CC	<fs af='hAlAMki,avy,,,,,,' posn='130' name='hAlAMki' chunkId='CCP' chunkType='head:CCP'>
14	aneka	QF	<fs af='aneka,avy,,,,,,' posn='140' drel='nmod__adj:suJAva' chunkType='child:NP5' name='aneka'>
15	suJAva	NN	<fs af='suJAva,n,m,pl,3,d,0,0' drel='k1:Ae' posn='150' name='suJAva' chunkId='NP5' chunkType='head:NP5'>
16	Ae	VM	<fs af='A,v,m,pl,3,,yA_hE,yA' drel='ccof:lekina' stype='declarative' posn='160' voicetype='active' vpos='tam_2' name='Ae' chunkId='VGF2' chunkType='head:VGF2'>
17	hEM	VAUX	<fs af='hE,v,any,pl,3,,hE,hE' posn='170' drel='lwg__vaux:Ae' chunkType='child:VGF2' name='hEM'>
18	lekina	CC	<fs af='lekina,avy,,,,,,' drel='ccof:hAlAMki' posn='180' name='lekina' chunkId='CCP2' chunkType='head:CCP2'>
19	grupa	NNC	<fs af='grupa,n,m,sg,3,d,0,0' posn='190' drel='pof__cn:ministara' chunkType='child:NP6' name='grupa'>
20	OYPa	NNC	<fs af='OYPa,unk,,,,,,' posn='200' drel='pof__cn:ministara' chunkType='child:NP6' name='OYPa'>
21	ministara	NN	<fs af='ministara,n,m,sg,3,o,0_ko,0' drel='k1:lenA' posn='210' vpos='vib_4' name='ministara' chunkId='NP6' chunkType='head:NP6'>
22	ko	PSP	<fs af='ko,psp,,,,,,' posn='220' drel='lwg__psp:ministara' chunkType='child:NP6' name='ko'>
23	isa	PRP	<fs af='yaha,pn,any,sg,3,o,0_para,0' drel='k7:lenA' posn='230' vpos='vib_2' name='isa3' chunkId='NP7' chunkType='head:NP7'>
24	para	PSP	<fs af='para,psp,,,,,,' posn='240' drel='lwg__psp:isa3' chunkType='child:NP7' name='para3'>
25	aMwima	JJ	<fs af='aMwima,adj,any,any,,d,,' posn='250' drel='nmod__adj:PEsalA' chunkType='child:NP8' name='aMwima'>
26	PEsalA	NN	<fs af='PEsalA,n,m,sg,3,d,0,0' drel='k2:lenA' posn='260' name='PEsalA' chunkId='NP8' chunkType='head:NP8'>
27	lenA	VM	<fs af='le,v,m,sg,3,,nA_hE,nA' drel='ccof:lekina' stype='declarative' posn='270' voicetype='active' vpos='tam_2' name='lenA' chunkId='VGF3' chunkType='head:VGF3'>
28	hE	VAUX	<fs af='hE,v,any,sg,3,,hE,hE' posn='280' drel='lwg__vaux:lenA' chunkType='child:VGF3' name='hE'>
29	.	SYM	<fs af='.,punc,,,,,,' drel='rsym:hAlAMki' posn='290' name='.' chunkId='BLK' chunkType='head:BLK'>
</Sentence>


<Sentence id="6">
1	unhoMne	PRP	<fs af='vaha,pn,any,sg,3h,o,ne,ne' drel='k1:kahA' posn='10' name='unhoMne' chunkId='NP' chunkType='head:NP'>
2	kahA	VM	<fs af='kaha,v,m,sg,any,,yA,yA' stype='declarative' posn='20' voicetype='active' name='kahA' chunkId='VGF' chunkType='head:VGF'>
3	ki	CC	<fs af='ki,avy,,,,,,' drel='k2:kahA' posn='30' name='ki' chunkId='CCP' chunkType='head:CCP'>
4	PArenara	NNPC	<fs af='PArenara,n,m,sg,3,d,0,0' posn='40' drel='pof__cn:ekta' chunkType='child:NP2' name='PArenara'>
5	ekta	NNP	<fs af='ekta,n,m,sg,3,o,0_ke_wahawa,0' drel='k7a:karane' posn='50' vpos='vib_3_4' name='ekta' chunkId='NP2' chunkType='head:NP2'>
6	ke	PSP	<fs af='ke,psp,,,,,,' posn='60' drel='lwg__psp:ekta' chunkType='child:NP2' name='ke'>
7	wahawa	PSP	<fs af='wahawa,psp,,,,,,' posn='70' drel='lwg__psp:ekta' chunkType='child:NP2' name='wahawa'>
8	21	QC	<fs af='21,num,any,any,,any,,' posn='80' drel='nmod__adj:tribyUnala' chunkType='child:NP3' name='21'>
9	tribyUnala	NN	<fs af='tribyUnala,n,m,pl,3,d,0,0' drel='k2:karane' posn='90' name='tribyUnala' chunkId='NP3' chunkType='head:NP3'>
10	gaTiwa	JJ	<fs af='gaTiwa,adj,any,any,,,,' drel='pof:karane' posn='100' name='gaTiwa' chunkId='JJP' chunkType='head:JJP'>
11	karane	VM	<fs af='kara,v,any,sg,any,o,nA_kA,nA' drel='r6:suJAva' posn='110' vpos='tam_2' name='karane' chunkId='VGNN' chunkType='head:VGNN'>
12	kA	PSP	<fs af='kA,psp,m,sg,,d,,' posn='120' drel='lwg__psp:karane' chunkType='child:VGNN' name='kA'>
13	suJAva	NN	<fs af='suJAva,n,m,sg,3,d,0,0' drel='k1:milA' posn='130' name='suJAva' chunkId='NP4' chunkType='head:NP4'>
14	asama	NNPC	<fs af='asama,n,m,sg,3,d,0,0' posn='140' drel='pof__cn:sarakAra' chunkType='child:NP5' name='asama'>
15	sarakAra	NNP	<fs af='sarakAra,n,f,sg,3,o,0_se,0' drel='k5:milA' posn='150' vpos='vib_3' name='sarakAra' chunkId='NP5' chunkType='head:NP5'>
16	se	PSP	<fs af='se,psp,,,,,,' posn='160' drel='lwg__psp:sarakAra' chunkType='child:NP5' name='se'>
17	milA	VM	<fs af='mila,v,m,sg,3,,yA_hE,yA' drel='ccof:NULL' stype='declarative' posn='170' voicetype='active' vpos='tam_2' name='milA' chunkId='VGF2' chunkType='head:VGF2'>
18	hE	VAUX	<fs af='hE,v,any,sg,3,,hE,hE' posn='180' drel='lwg__vaux:milA' chunkType='child:VGF2' name='hE'>
19	,	SYM	<fs af='COMMA,punc,,,,,,' posn='190' drel='rsym:milA' chunkType='child:VGF2' name=','>
20	NULL	CC	<fs mtype='gap' troot='Ora' dmrel='ccof:ki' name='NULL' chunkId='NULL__CCP' chunkType='head:NULL__CCP'>
21	isa	PRP	<fs af='yaha,pn,any,sg,3,o,0_para,0' drel='k7:kiyA' posn='200' vpos='vib_2_RP' name='isa' chunkId='NP6' chunkType='head:NP6'>
22	para	PSP	<fs af='para,psp,,,,,,' posn='210' drel='lwg__psp:isa' chunkType='child:NP6' name='para'>
23	BI	RP	<fs af='BI,avy,,,,,,' posn='220' drel='lwg__rp:isa' chunkType='child:NP6' name='BI'>
24	vicAra	NN	<fs af='vicAra,n,m,sg,3,d,0,0' drel='pof:kiyA' posn='230' name='vicAra' chunkId='NP7' chunkType='head:NP7'>
25	kiyA	VM	<fs af='kara,v,m,sg,3,,yA_jA_raha+yA_hE,yA' drel='ccof:NULL' stype='declarative' posn='240' voicetype='passive' vpos='tam_2_3_4' name='kiyA' chunkId='VGF3' chunkType='head:VGF3'>
26	jA	VAUX	<fs af='jA,v,any,any,any,,0,0' posn='250' drel='lwg__vaux:kiyA' chunkType='child:VGF3' name='jA'>
27	rahA	VAUX	<fs af='raha,v,m,sg,any,,yA,yA' posn='260' drel='lwg__vaux:kiyA' chunkType='child:VGF3' name='rahA'>
28	hE	VAUX	<fs af='hE,v,any,sg,3,,hE,hE' posn='270' drel='lwg__vaux:kiyA' chunkType='child:VGF3' name='hE2'>
29	.	SYM	<fs af='.,punc,,,,,,' drel='rsym:kahA' posn='280' name='.' chunkId='BLK' chunkType='head:BLK'>
</Sentence>


<Sentence id="7">
1	unhoMne	PRP	<fs af='vaha,pn,any,sg,3h,o,ne,ne' drel='k1:kahA' posn='10' name='unhoMne' chunkId='NP' chunkType='head:NP'>
2	kahA	VM	<fs af='kaha,v,m,sg,any,,yA,yA' stype='declarative' posn='20' voicetype='active' name='kahA' chunkId='VGF' chunkType='head:VGF'>
3	ki	CC	<fs af='ki,avy,,,,,,' drel='k2:kahA' posn='30' name='ki' chunkId='CCP' chunkType='head:CCP'>
4	pUrvowwara	NN	<fs af='pUrvowwara,n,m,sg,3,o,0_kA,0' drel='r6:sImA' posn='40' vpos='vib_2' name='pUrvowwara' chunkId='NP2' chunkType='head:NP2'>
5	kI	PSP	<fs af='kA,psp,f,sg,,o,,' posn='50' drel='lwg__psp:pUrvowwara' chunkType='child:NP2' name='kI'>
6	sImA	NN	<fs af='sImA,n,f,sg,3,o,0_para,0' drel='k7p:karane' posn='60' vpos='vib_2' name='sImA' chunkId='NP3' chunkType='head:NP3'>
7	para	PSP	<fs af='para,psp,,,,,,' posn='70' drel='lwg__psp:sImA' chunkType='child:NP3' name='para'>
8	wArabaMxI	NN	<fs af='wArabaMxI,n,f,sg,3,d,0,0' drel='pof:karane' posn='80' name='wArabaMxI' chunkId='NP4' chunkType='head:NP4'>
9	karane	VM	<fs af='kara,v,any,sg,any,o,nA_kA,nA' drel='r6:kArya' posn='90' vpos='tam_2' name='karane' chunkId='VGNN' chunkType='head:VGNN'>
10	kA	PSP	<fs af='kA,psp,m,sg,,d,,' posn='100' drel='lwg__psp:karane' chunkType='child:VGNN' name='kA'>
11	kArya	NN	<fs af='kArya,n,m,sg,3,d,0,0' drel='k1:hE' posn='110' name='kArya' chunkId='NP5' chunkType='head:NP5'>
12	pragawi	NN	<fs af='pragawi,n,f,sg,3,o,0_para,0' drel='k7:hE' posn='120' vpos='vib_2' name='pragawi' chunkId='NP6' chunkType='head:NP6'>
13	para	PSP	<fs af='para,psp,,,,,,' posn='130' drel='lwg__psp:pragawi' chunkType='child:NP6' name='para2'>
14	hE	VM	<fs af='hE,v,any,sg,3,,hE,hE' drel='ccof:ki' stype='declarative' posn='140' voicetype='active' name='hE' chunkId='VGF2' chunkType='head:VGF2'>
15	.	SYM	<fs af='.,punc,,,,,,' drel='rsym:kahA' posn='150' name='.' chunkId='BLK' chunkType='head:BLK'>
</Sentence>


<Sentence id="8">
1	AXI	QF	<fs af='AXA,adj,f,sg,,o,,' posn='10' drel='nmod__adj:sImA' chunkType='child:NP' name='AXI'>
2	sImA	NN	<fs af='sImA,n,f,sg,3,o,0_para,0' drel='k7p:hE' posn='20' vpos='vib_3' name='sImA' chunkId='NP' chunkType='head:NP'>
3	para	PSP	<fs af='para,psp,,,,,,' posn='30' drel='lwg__psp:sImA' chunkType='child:NP' name='para'>
4	aBI	PRP	<fs af='aBI,pn,,,,d,,' drel='k7t:hE' posn='40' name='aBI' chunkId='NP2' chunkType='head:NP2'>
5	bAdZa	NN	<fs af='bAdZa,n,f,sg,3,d,0,0' drel='k1:hE' posn='50' name='bAdZa' chunkId='NP3' chunkType='head:NP3'>
6	nahIM	NEG	<fs af='nahIM,avy,,,,,,' posn='60' drel='lwg__neg:hE' chunkType='child:VGF' name='nahIM'>
7	hE	VM	<fs af='hE,v,any,sg,3,,hE,hE' stype='declarative' posn='70' voicetype='active' name='hE' chunkId='VGF' chunkType='head:VGF'>
8	.	SYM	<fs af='.,punc,,,,,,' drel='rsym:hE' posn='80' name='.' chunkId='BLK' chunkType='head:BLK'>
</Sentence>


<Sentence id="9">
1	isa	DEM	<fs af='yaha,pn,any,sg,3,o,,' posn='10' drel='nmod__adj:kArya' chunkType='child:NP' name='isa'>
2	kArya	NN	<fs af='kArya,n,m,sg,3,o,0_ko,0' drel='k2:kiyA' posn='20' vpos='vib_3' name='kArya' chunkId='NP' chunkType='head:NP'>
3	ko	PSP	<fs af='ko,psp,,,,,,' posn='30' drel='lwg__psp:kArya' chunkType='child:NP' name='ko'>
4	deDZa	QC	<fs af='deDZa,num,any,any,,any,,' posn='60' drel='nmod__adj:sAla' chunkType='child:NP2' name='deDZa'>
5	-	SYM	<fs af='-,punc,,,,,,' posn='50' drel='rsym:sAla' chunkType='child:NP2' name='-'>
6	xo	QC	<fs af='xo,num,any,any,,any,,' posn='60' drel='nmod__adj:sAla' chunkType='child:NP2' name='xo'>
7	sAla	NN	<fs af='sAla,n,m,sg,3,o,0_ke_aMxara,0' drel='k7t:kiyA' posn='70' vpos='vib_5_6' name='sAla' chunkId='NP2' chunkType='head:NP2'>
8	ke	PSP	<fs af='ke,psp,,,,,,' posn='80' drel='lwg__psp:sAla' chunkType='child:NP2' name='ke'>
9	aMxara	NST	<fs af='aMxara,nst,m,sg,3,d,,' posn='90' drel='lwg__psp:sAla' chunkType='child:NP2' name='aMxara'>
10	pUrA	JJ	<fs af='pUrA,adj,m,sg,,,,' drel='pof:kiyA' posn='100' name='pUrA' chunkId='JJP' chunkType='head:JJP'>
11	kiyA	VM	<fs af='kara,v,m,sg,3,,yA_jA+gA,yA' stype='declarative' posn='110' voicetype='passive' vpos='tam_2' name='kiyA' chunkId='VGF' chunkType='head:VGF'>
12	jAegA	VAUX	<fs af='jA,v,m,sg,3,,gA,gA' posn='120' drel='lwg__vaux:kiyA' chunkType='child:VGF' name='jAegA'>
13	.	SYM	<fs af='.,punc,,,,,,' drel='rsym:kiyA' posn='130' name='.' chunkId='BLK' chunkType='head:BLK'>
</Sentence>


<Sentence id="10">
1	purAnI	JJ	<fs af='purAnA,adj,f,sg,,o,,' posn='10' drel='nmod__adj:wArabaMxI' chunkType='child:NP' name='purAnI'>
2	wArabaMxI	NN	<fs af='wArabaMxI,n,f,sg,3,o,0_para,0' drel='k7:lagAe' posn='20' vpos='vib_3_RP' name='wArabaMxI' chunkId='NP' chunkType='head:NP'>
3	para	PSP	<fs af='para,psp,,,,,,' posn='30' drel='lwg__psp:wArabaMxI' chunkType='child:NP' name='para'>
4	BI	RP	<fs af='BI,avy,,,,,,' posn='40' drel='lwg__rp:wArabaMxI' chunkType='child:NP' name='BI'>
5	PlaSa	NNC	<fs af='PlaSa,n,m,sg,3,d,0,0' posn='50' drel='pof__cn:lAita' chunkType='child:NP2' name='PlaSa'>
6	lAita	NN	<fs af='lAita,n,f,pl,3,d,0,0' drel='ccof:Ora' posn='60' name='lAita' chunkId='NP2' chunkType='head:NP2'>
7	Ora	CC	<fs af='Ora,avy,,,,,,' drel='k2:lagAe' posn='70' name='Ora' chunkId='CCP' chunkType='head:CCP'>
8	seMsara	NN	<fs af='seMsara,n,m,pl,3,d,0,0' drel='ccof:Ora' posn='80' name='seMsara' chunkId='NP3' chunkType='head:NP3'>
9	lagAe	VM	<fs af='lagA,v,m,pl,3,,yA_jA+gA,yA' stype='declarative' posn='90' voicetype='passive' vpos='tam_2' name='lagAe' chunkId='VGF' chunkType='head:VGF'>
10	jAeMge	VAUX	<fs af='jA,v,m,pl,3,,gA,gA' posn='100' drel='lwg__vaux:lagAe' chunkType='child:VGF' name='jAeMge'>
11	.	SYM	<fs af='.,punc,,,,,,' drel='rsym:lagAe' posn='110' name='.' chunkId='BLK' chunkType='head:BLK'>
</Sentence>


<Sentence id="11">
1	sImA	NNC	<fs af='sImA,n,f,sg,3,d,0,0' posn='10' drel='pof__cn:kRewra' chunkType='child:NP' name='sImA'>
2	kRewra	NN	<fs af='kRewra,n,m,sg,3,o,0_meM,0' drel='k7p:hone' posn='20' vpos='vib_3' name='kRewra' chunkId='NP' chunkType='head:NP'>
3	meM	PSP	<fs af='meM,psp,,,,,,' posn='30' drel='lwg__psp:kRewra' chunkType='child:NP' name='meM'>
4	aneka	QF	<fs af='aneka,avy,,,,,,' posn='40' drel='nmod__adj:naxiyAM' chunkType='child:NP2' name='aneka'>
5	naxiyAM	NN	<fs af='naxI,n,f,pl,3,d,0,0' drel='k1:hone' posn='50' name='naxiyAM' chunkId='NP2' chunkType='head:NP2'>
6	hone	VM	<fs af='ho,v,m,any,any,o,nA_ke_kAraNa,nA' drel='rh:karawe' posn='60' vpos='tam_2_3' name='hone' chunkId='VGNN' chunkType='head:VGNN'>
7	ke	PSP	<fs af='ke,psp,m,,,o,,' posn='70' drel='lwg__psp:hone' chunkType='child:VGNN' name='ke'>
8	kAraNa	PSP	<fs af='kAraNa,n,m,,,o,,' posn='80' drel='lwg__psp:hone' chunkType='child:VGNN' name='kAraNa'>
9	loga	NN	<fs af='loga,n,m,pl,3,d,0,0' drel='k1:karawe' posn='90' name='loga' chunkId='NP3' chunkType='head:NP3'>
10	naxI	NNC	<fs af='naxI,n,f,sg,3,d,0,0' posn='100' drel='pof__cn:mArga' chunkType='child:NP4' name='naxI'>
11	mArga	NN	<fs af='mArga,n,m,sg,3,o,0_se,0' drel='k3:karawe' posn='110' vpos='vib_3_RP' name='mArga' chunkId='NP4' chunkType='head:NP4'>
12	se	PSP	<fs af='se,psp,,,,,,' posn='120' drel='lwg__psp:mArga' chunkType='child:NP4' name='se'>
13	BI	RP	<fs af='BI,avy,,,,,,' posn='130' drel='lwg__rp:mArga' chunkType='child:NP4' name='BI'>
14	GusapETa	NN	<fs af='GusapETa,n,f,sg,3,d,0,0' drel='pof:karawe' posn='140' name='GusapETa' chunkId='NP5' chunkType='head:NP5'>
15	karawe	VM	<fs af='kara,v,m,pl,3,,wA_hE,wA' stype='declarative' posn='150' voicetype='active' vpos='tam_2' name='karawe' chunkId='VGF' chunkType='head:VGF'>
16	hEM	VAUX	<fs af='hE,v,any,pl,3,,hE,hE' posn='160' drel='lwg__vaux:karawe' chunkType='child:VGF' name='hEM'>
17	,	SYM	<fs af='COMMA,punc,,,,,,' posn='170' drel='rsym:karawe' chunkType='child:VGF' name=','>
18	isa	PRP	<fs af='yaha,pn,any,sg,3,o,0_para,0' drel='k7:raKane' posn='180' vpos='vib_2_RP' name='isa' chunkId='NP6' chunkType='head:NP6'>
19	para	PSP	<fs af='para,psp,,,,,,' posn='190' drel='lwg__psp:isa' chunkType='child:NP6' name='para'>
20	BI	RP	<fs af='BI,avy,,,,,,' posn='200' drel='lwg__rp:isa' chunkType='child:NP6' name='BI2'>
21	najara	NN	<fs af='najara,n,f,sg,3,d,0,0' drel='pof:raKane' posn='210' name='najara' chunkId='NP7' chunkType='head:NP7'>
22	raKane	VM	<fs af='raKa,v,any,pl,any,o,nA_kA,nA' drel='r6-k2:iMwajAma' posn='220' vpos='tam_2' name='raKane' chunkId='VGNN2' chunkType='head:VGNN2'>
23	ke	PSP	<fs af='kA,psp,m,pl,,d,,' posn='230' drel='lwg__psp:raKane' chunkType='child:VGNN2' name='ke2'>
24	iMwajAma	NN	<fs af='iMwajAma,n,m,pl,3,d,0,0' drel='pof:kie' posn='240' name='iMwajAma' chunkId='NP8' chunkType='head:NP8'>
25	kie	VM	<fs af='kara,v,m,pl,3,,yA_jA_raha+yA_hE,yA' drel='rs:GusapETa' stype='declarative' posn='250' voicetype='passive' vpos='tam_2_3_4' name='kie' chunkId='VGF2' chunkType='head:VGF2'>
26	jA	VAUX	<fs af='jA,v,any,any,any,,0,0' posn='260' drel='lwg__vaux:kie' chunkType='child:VGF2' name='jA'>
27	rahe	VAUX	<fs af='raha,v,m,pl,any,,yA,yA' posn='270' drel='lwg__vaux:kie' chunkType='child:VGF2' name='rahe'>
28	hEM	VAUX	<fs af='hE,v,any,pl,3,,hE,hE' posn='280' drel='lwg__vaux:kie' chunkType='child:VGF2' name='hEM2'>
29	.	SYM	<fs af='.,punc,,,,,,' drel='rsym:karawe' posn='290' name='.' chunkId='BLK' chunkType='head:BLK'>
</Sentence>


<Sentence id="12">
1	sImA	NN	<fs af='sImA,n,f,sg,3,o,0_para,0' drel='k7p:karane' posn='10' vpos='vib_2' name='sImA' chunkId='NP' chunkType='head:NP'>
2	para	PSP	<fs af='para,psp,,,,,,' posn='20' drel='lwg__psp:sImA' chunkType='child:NP' name='para'>
3	bIesaePa	NNP	<fs af='bIesaePa,n,f,sg,3,o,0_kA,0' drel='r6:tukadZiyAM' posn='30' vpos='vib_2' name='bIesaePa' chunkId='NP2' chunkType='head:NP2'>
4	kI	PSP	<fs af='kA,psp,f,pl,,d,,' posn='40' drel='lwg__psp:bIesaePa' chunkType='child:NP2' name='kI'>
5	awirikwa	JJ	<fs af='awirikwa,adj,any,any,,d,,' posn='50' drel='nmod__adj:tukadZiyAM' chunkType='child:NP3' name='awirikwa'>
6	tukadZiyAM	NN	<fs af='tukadZI,n,f,pl,3,d,0,0' drel='k2:karane' posn='60' name='tukadZiyAM' chunkId='NP3' chunkType='head:NP3'>
7	wEnAwa	JJ	<fs af='wEnAwa,adj,any,any,,,,' drel='pof:karane' posn='70' name='wEnAwa' chunkId='JJP' chunkType='head:JJP'>
8	karane	VM	<fs af='kara,v,any,any,any,o,nA_ke_lie,nA' drel='rt:hE' posn='80' vpos='tam_2_3' name='karane' chunkId='VGNN' chunkType='head:VGNN'>
9	ke	PSP	<fs af='ke,psp,,,,,,' posn='90' drel='lwg__psp:karane' chunkType='child:VGNN' name='ke'>
10	lie	PSP	<fs af='lie,psp,,,,,,' posn='100' drel='lwg__psp:karane' chunkType='child:VGNN' name='lie'>
11	BI	RP	<fs af='BI,avy,,,,,,' posn='110' drel='lwg__rp:karane' chunkType='child:VGNN' name='BI'>
12	sarakAra	NN	<fs af='sarakAra,n,f,sg,3,d,0,0' drel='k1:hE' posn='120' name='sarakAra' chunkId='NP4' chunkType='head:NP4'>
13	prayAsarawa	JJ	<fs af='prayAsarawa,adj,any,any,,,,' drel='k1s:hE' posn='130' name='prayAsarawa' chunkId='JJP2' chunkType='head:JJP2'>
14	hE	VM	<fs af='hE,v,any,sg,3,,hE,hE' stype='declarative' posn='140' voicetype='active' name='hE' chunkId='VGF' chunkType='head:VGF'>
15	.	SYM	<fs af='.,punc,,,,,,' drel='rsym:hE' posn='150' name='.' chunkId='BLK' chunkType='head:BLK'>
</Sentence>


<Sentence id="13">
1	unhoMne	PRP	<fs af='vaha,pn,any,sg,3h,o,ne,ne' drel='k1:kara' posn='10' name='unhoMne' chunkId='NP' chunkType='head:NP'>
2	vipakRa	NN	<fs af='vipakRa,n,m,sg,3,o,0_kA,0' drel='r6:mAMga' posn='20' vpos='vib_2' name='vipakRa' chunkId='NP2' chunkType='head:NP2'>
3	kI	PSP	<fs af='kA,psp,f,sg,,o,,' posn='30' drel='lwg__psp:vipakRa' chunkType='child:NP2' name='kI'>
4	isa	DEM	<fs af='yaha,pn,any,sg,3,o,,' posn='40' drel='nmod__adj:mAMga' chunkType='child:NP3' name='isa'>
5	mAMga	NN	<fs af='mAMga,n,f,sg,3,o,0_ko,0' drel='k2:kara' posn='50' vpos='vib_3' name='mAMga' chunkId='NP3' chunkType='head:NP3'>
6	ko	PSP	<fs af='ko,psp,,,,,,' posn='60' drel='lwg__psp:mAMga' chunkType='child:NP3' name='ko'>
7	KArija	JJ	<fs af='KArija,adj,any,any,,,,' drel='pof:kara' posn='70' name='KArija' chunkId='JJP' chunkType='head:JJP'>
8	kara	VM	<fs af='kara,v,any,sg,any,,0_xe+yA,0' stype='declarative' posn='80' voicetype='active' vpos='tam_2' name='kara' chunkId='VGF' chunkType='head:VGF'>
9	xiyA	VAUX	<fs af='xe,v,m,sg,any,,yA,yA' posn='90' drel='lwg__vaux:kara' chunkType='child:VGF' name='xiyA'>
10	ki	CC	<fs af='ki,avy,,,,,,' drel='rs:mAMga' posn='100' name='ki' chunkId='CCP' chunkType='head:CCP'>
11	agara	CC	<fs af='agara,avy,,,,,,' drel='vmod:Beja' posn='110' name='agara' chunkId='CCP2' chunkType='head:CCP2'>
12	muslima	NN	<fs af='muslima,n,m,pl,3,d,0,0' drel='k1:karawe' posn='120' name='muslima' chunkId='NP4' chunkType='head:NP4'>
13	vahAM	PRP	<fs af='vahAz,pn,,,,o,0_se,' drel='k5:karawe' posn='130' vpos='vib_2' name='vahAM' chunkId='NP5' chunkType='head:NP5'>
14	se	PSP	<fs af='se,psp,,,,,,' posn='140' drel='lwg__psp:vahAM' chunkType='child:NP5' name='se'>
15	GusapETa	NN	<fs af='GusapETa,n,f,sg,3,d,0,0' drel='pof:karawe' posn='150' name='GusapETa' chunkId='NP6' chunkType='head:NP6'>
16	karawe	VM	<fs af='kara,v,m,pl,3,,wA_hE,wA' drel='ccof:agara' stype='declarative' posn='160' voicetype='active' vpos='tam_2' name='karawe' chunkId='VGF2' chunkType='head:VGF2'>
17	hEM	VAUX	<fs af='hE,v,any,pl,3,,hE,hE' posn='170' drel='lwg__vaux:karawe' chunkType='child:VGF2' name='hEM'>
18	wo	CC	<fs af='wo,avy,,,,,,' drel='ccof:Ora' posn='180' name='wo' chunkId='CCP3' chunkType='head:CCP3'>
19	unheM	PRP	<fs af='vaha,pn,any,pl,3,o,ko,ko' drel='k2:Beja' posn='190' name='unheM' chunkId='NP7' chunkType='head:NP7'>
20	vApasa	JJ	<fs af='vApasa,adj,any,any,,,,' drel='pof:Beja' posn='200' name='vApasa' chunkId='JJP2' chunkType='head:JJP2'>
21	Beja	VM	<fs af='Beja,v,m,sg,3,,0_xe+yA_jA+eM,0' drel='ccof:wo' stype='declarative' posn='210' voicetype='active' vpos='tam_2_3' name='Beja' chunkId='VGF3' chunkType='head:VGF3'>
22	xiyA	VAUX	<fs af='xe,v,m,sg,any,,yA,yA' posn='220' drel='lwg__vaux:Beja' chunkType='child:VGF3' name='xiyA2'>
23	jAe	VAUX	<fs af='jA,v,any,sg,3,,eM,eM' posn='230' drel='lwg__vaux:Beja' chunkType='child:VGF3' name='jAe'>
24	Ora	CC	<fs af='Ora,avy,,,,,,' drel='ccof:ki' posn='240' name='Ora' chunkId='CCP4' chunkType='head:CCP4'>
25	agara	CC	<fs af='agara,avy,,,,,,' drel='vmod:mAnA' posn='250' name='agara2' chunkId='CCP5' chunkType='head:CCP5'>
26	koI	PRP	<fs af='koI,pn,any,sg,3,d,0,0' posn='260' drel='nmod__adj:hinxU' chunkType='child:NP8' name='koI'>
27	pIdZiwa	JJ	<fs af='pIdZiwa,adj,any,any,,d,,' posn='270' drel='nmod__adj:hinxU' chunkType='child:NP8' name='pIdZiwa'>
28	hinxU	NN	<fs af='hiMxU,n,m,sg,3,d,0,0' drel='k1:karawA' posn='280' name='hinxU' chunkId='NP8' chunkType='head:NP8'>
29	GusapETa	NN	<fs af='GusapETa,n,f,sg,3,d,0,0' drel='pof:karawA' posn='290' name='GusapETa2' chunkId='NP9' chunkType='head:NP9'>
30	karawA	VM	<fs af='kara,v,m,sg,3,,wA_hE,wA' drel='ccof:agara2' stype='declarative' posn='300' voicetype='active' vpos='tam_2' name='karawA' chunkId='VGF4' chunkType='head:VGF4'>
31	hE	VAUX	<fs af='hE,v,any,sg,3,,hE,hE' posn='310' drel='lwg__vaux:karawA' chunkType='child:VGF4' name='hE'>
32	wo	CC	<fs af='wo,avy,,,,,,' drel='ccof:Ora' posn='320' name='wo2' chunkId='CCP6' chunkType='head:CCP6'>
33	use	PRP	<fs af='vaha,pn,any,sg,3,o,ko,ko' drel='k2:mAnA' posn='330' name='use' chunkId='NP10' chunkType='head:NP10'>
34	SaraNArWI	NN	<fs af='SaraNArWI,n,m,sg,3,d,0,0' drel='k2s:mAnA' posn='340' name='SaraNArWI' chunkId='NP11' chunkType='head:NP11'>
35	mAnA	VM	<fs af='mAna,v,m,sg,3,,yA_jA+eM,yA' drel='ccof:wo2' stype='declarative' posn='350' voicetype='passive' vpos='tam_2' name='mAnA' chunkId='VGF5' chunkType='head:VGF5'>
36	jAe	VAUX	<fs af='jA,v,any,sg,3,,eM,eM' posn='360' drel='lwg__vaux:mAnA' chunkType='child:VGF5' name='jAe2'>
37	.	SYM	<fs af='.,punc,,,,,,' drel='rsym:kara' posn='370' name='.' chunkId='BLK' chunkType='head:BLK'>
</Sentence>


<Sentence id="14">
1	unhoMne	PRP	<fs af='vaha,pn,any,sg,3h,o,ne,ne' drel='k1:kahA' posn='10' name='unhoMne' chunkId='NP' chunkType='head:NP'>
2	kahA	VM	<fs af='kaha,v,m,sg,any,,yA,yA' stype='declarative' posn='20' voicetype='active' name='kahA' chunkId='VGF' chunkType='head:VGF'>
3	ki	CC	<fs af='ki,avy,,,,,,' drel='k2:kahA' posn='30' name='ki' chunkId='CCP' chunkType='head:CCP'>
4	Xarma	NN	<fs af='Xarma,n,m,sg,3,o,0,0' drel='ccof:yA' posn='40' name='Xarma' chunkId='NP2' chunkType='head:NP2'>
5	yA	CC	<fs af='yA,avy,,,,,,' drel='r6:AXAra' posn='50' name='yA' chunkId='CCP2' chunkType='head:CCP2'>
6	BARA	NN	<fs af='BARA,n,f,sg,3,o,0_kA,0' drel='ccof:yA' posn='60' vpos='vib_2' name='BARA' chunkId='NP3' chunkType='head:NP3'>
7	ke	PSP	<fs af='kA,psp,m,sg,,o,,' posn='70' drel='lwg__psp:BARA' chunkType='child:NP3' name='ke'>
8	AXAra	NN	<fs af='AXAra,n,m,sg,3,o,0_para,0' drel='k7:kara' posn='80' vpos='vib_2' name='AXAra' chunkId='NP4' chunkType='head:NP4'>
9	para	PSP	<fs af='para,psp,,,,,,' posn='90' drel='lwg__psp:AXAra' chunkType='child:NP4' name='para'>
10	kAnUna	NN	<fs af='kAnUna,n,m,sg,3,o,0_meM,0' drel='k7:kara' posn='100' vpos='vib_2' name='kAnUna' chunkId='NP5' chunkType='head:NP5'>
11	meM	PSP	<fs af='meM,psp,,,,,,' posn='110' drel='lwg__psp:kAnUna' chunkType='child:NP5' name='meM'>
12	EsA	DEM	<fs af='EsA,pn,m,sg,any,d,,' posn='120' drel='nmod__adj:prAvaXAna' chunkType='child:NP6' name='EsA'>
13	prAvaXAna	NN	<fs af='prAvaXAna,n,m,sg,3,d,0,0' drel='pof:kara' posn='130' name='prAvaXAna' chunkId='NP6' chunkType='head:NP6'>
14	kara	VM	<fs af='kara,v,any,any,any,,0_pA+nA,0' drel='k1:hogA' posn='140' vpos='tam_2' name='kara' chunkId='VGNN' chunkType='head:VGNN'>
15	pAnA	VAUX	<fs af='pA,v,any,any,any,o,nA,nA' posn='150' drel='lwg__vaux:kara' chunkType='child:VGNN' name='pAnA'>
16	sarakAra	NN	<fs af='sarakAra,n,f,sg,3,o,0_ke_lie,0' drel='rt:hogA' posn='160' vpos='vib_2_3' name='sarakAra' chunkId='NP7' chunkType='head:NP7'>
17	ke	PSP	<fs af='ke,psp,,,,,,' posn='170' drel='lwg__psp:sarakAra' chunkType='child:NP7' name='ke2'>
18	lie	PSP	<fs af='lie,psp,,,,,,' posn='180' drel='lwg__psp:sarakAra' chunkType='child:NP7' name='lie'>
19	saMBava	JJ	<fs af='saMBava,adj,any,any,,,,' drel='pof:hogA' posn='190' name='saMBava' chunkId='JJP' chunkType='head:JJP'>
20	nahIM	NEG	<fs af='nahIM,avy,,,,,,' posn='200' drel='lwg__neg:hogA' chunkType='child:VGF2' name='nahIM'>
21	hogA	VM	<fs af='ho,v,m,sg,3,,gA,gA' drel='ccof:ki' stype='declarative' posn='210' voicetype='active' name='hogA' chunkId='VGF2' chunkType='head:VGF2'>
22	.	SYM	<fs af='.,punc,,,,,,' drel='rsym:kahA' posn='220' name='.' chunkId='BLK' chunkType='head:BLK'>
</Sentence>


<Sentence id="15">
1	isase	PRP	<fs af='yaha,pn,any,sg,3,o,0_pUrva,se' drel='k7t:lewe' posn='10' vpos='vib_2' name='isase' chunkId='NP' chunkType='head:NP'>
2	pUrva	NST	<fs af='pUrva,nst,m,sg,3,d,,' posn='20' drel='lwg__psp:isase' chunkType='child:NP' name='pUrva'>
3	carcA	NN	<fs af='carcA,n,f,sg,3,o,0_meM,0' drel='k7:lewe' posn='30' vpos='vib_2' name='carcA' chunkId='NP2' chunkType='head:NP2'>
4	meM	PSP	<fs af='meM,psp,,,,,,' posn='40' drel='lwg__psp:carcA' chunkType='child:NP2' name='meM'>
5	BAga	NN	<fs af='BAga,n,m,sg,3,d,0,0' drel='pof:lewe' posn='50' name='BAga' chunkId='NP3' chunkType='head:NP3'>
6	lewe	VM	<fs af='le,v,m,sg,any,,wA_ho+yA,wA' drel='vmod:kahA' posn='60' vpos='tam_2' name='lewe' chunkId='VGNF' chunkType='head:VGNF'>
7	hue	VAUX	<fs af='ho,v,m,sg,any,,yA,yA' posn='70' drel='lwg__vaux:lewe' chunkType='child:VGNF' name='hue'>
8	kalarAja	NNPC	<fs af='kalarAja,n,m,sg,3,d,0,0' posn='80' drel='pof__cn:miSra' chunkType='child:NP4' name='kalarAja'>
9	miSra	NNP	<fs af='miSra,n,m,sg,3,o,0_ne,0' drel='k1:kahA' posn='90' vpos='vib_3' name='miSra' chunkId='NP4' chunkType='head:NP4'>
10	ne	PSP	<fs af='ne,psp,,,,,,' posn='100' drel='lwg__psp:miSra' chunkType='child:NP4' name='ne'>
11	kahA	VM	<fs af='kaha,v,m,sg,any,,yA,yA' stype='declarative' posn='110' voicetype='active' name='kahA' chunkId='VGF' chunkType='head:VGF'>
12	ki	CC	<fs af='ki,avy,,,,,,' drel='k2:kahA' posn='120' name='ki' chunkId='CCP' chunkType='head:CCP'>
13	GusapETiyoM	NN	<fs af='GusapETa,n,m,pl,3,o,0_kA,0' drel='r6:baDZawI' posn='130' vpos='vib_2' name='GusapETiyoM' chunkId='NP5' chunkType='head:NP5'>
14	kI	PSP	<fs af='kA,psp,f,sg,,d,,' posn='140' drel='lwg__psp:GusapETiyoM' chunkType='child:NP5' name='kI'>
15	baDZawI	VM	<fs af='baDZa,v,f,sg,any,,wA,wA' drel='nmod__k1inv:saMKyA' posn='150' name='baDZawI' chunkId='VGNF2' chunkType='head:VGNF2'>
16	saMKyA	NN	<fs af='saMKyA,n,f,sg,3,d,0,0' drel='k1:bana' posn='160' name='saMKyA' chunkId='NP6' chunkType='head:NP6'>
17	xeSa	NN	<fs af='xeSa,n,m,sg,3,o,0_kA,0' drel='r6:surakRA' posn='170' vpos='vib_2' name='xeSa' chunkId='NP7' chunkType='head:NP7'>
18	kI	PSP	<fs af='kA,psp,f,sg,,d,,' posn='180' drel='lwg__psp:xeSa' chunkType='child:NP7' name='kI2'>
19	AMwarika	JJ	<fs af='AMwarika,adj,any,any,,o,,' posn='190' drel='nmod__adj:surakRA' chunkType='child:NP8' name='AMwarika'>
20	surakRA	NN	<fs af='surakRA,n,f,sg,3,o,0_ke_lie,0' drel='rt:bana' posn='200' vpos='vib_3_4' name='surakRA' chunkId='NP8' chunkType='head:NP8'>
21	ke	PSP	<fs af='ke,psp,,,,,,' posn='210' drel='lwg__psp:surakRA' chunkType='child:NP8' name='ke'>
22	lie	PSP	<fs af='lie,psp,,,,,,' posn='220' drel='lwg__psp:surakRA' chunkType='child:NP8' name='lie'>
23	gaMBIra	JJ	<fs af='gaMBIra,adj,any,any,,d,,' posn='230' drel='nmod__adj:KawarA' chunkType='child:NP9' name='gaMBIra'>
24	KawarA	NN	<fs af='KawarA,n,m,sg,3,d,0,0' drel='pof:bana' posn='240' name='KawarA' chunkId='NP9' chunkType='head:NP9'>
25	bana	VM	<fs af='bana,v,f,sg,3,,0_cuka+yA_hE,0' drel='ccof:ki' stype='declarative' posn='250' voicetype='active' vpos='tam_2_3' name='bana' chunkId='VGF2' chunkType='head:VGF2'>
26	cukI	VAUX	<fs af='cuka,v,f,sg,any,,yA,yA' posn='260' drel='lwg__vaux:bana' chunkType='child:VGF2' name='cukI'>
27	hE	VAUX	<fs af='hE,v,any,sg,3,,hE,hE' posn='270' drel='lwg__vaux:bana' chunkType='child:VGF2' name='hE'>
28	.	SYM	<fs af='.,punc,,,,,,' drel='rsym:kahA' posn='280' name='.' chunkId='BLK' chunkType='head:BLK'>
</Sentence>


<Sentence id="16">
1	isalie	PRP	<fs af='isalie,pn,,,,,,' drel='rh:kare' posn='10' name='isalie' chunkId='NP' chunkType='head:NP'>
2	sarakAra	NN	<fs af='sarakAra,n,f,sg,3,d,0,0' drel='k1:kare' posn='20' name='sarakAra' chunkId='NP2' chunkType='head:NP2'>
3	suprIma	NNPC	<fs af='suprIma,n,m,sg,3,d,0,0' posn='30' drel='pof__cn:korta' chunkType='child:NP3' name='suprIma'>
4	korta	NNP	<fs af='korta,n,m,sg,3,o,0_kA,0' drel='r6:PEsale' posn='40' vpos='vib_3' name='korta' chunkId='NP3' chunkType='head:NP3'>
5	ke	PSP	<fs af='kA,psp,m,sg,,o,,' posn='50' drel='lwg__psp:korta' chunkType='child:NP3' name='ke'>
6	PEsale	NN	<fs af='PEsalA,n,m,sg,3,o,0_para,0' drel='k7:kare' posn='60' vpos='vib_2' name='PEsale' chunkId='NP4' chunkType='head:NP4'>
7	para	PSP	<fs af='para,psp,,,,,,' posn='70' drel='lwg__psp:PEsale' chunkType='child:NP4' name='para'>
8	wawkAla	RB	<fs af='wawkAla,adv,,,,,,' drel='adv:kare' posn='80' name='wawkAla' chunkId='RBP' chunkType='head:RBP'>
9	amala	NN	<fs af='amala,n,m,sg,3,d,0,0' drel='pof:kare' posn='90' name='amala' chunkId='NP5' chunkType='head:NP5'>
10	kare	VM	<fs af='kara,v,any,sg,3,,eM,eM' stype='declarative' posn='100' voicetype='active' name='kare' chunkId='VGF' chunkType='head:VGF'>
11	.	SYM	<fs af='.,punc,,,,,,' drel='rsym:kare' posn='110' name='.' chunkId='BLK' chunkType='head:BLK'>
</Sentence>


</text>
</tb>
</body>
</document>
