1	oralEMdo	oralEMdo	n	NNP	lex-oralEMdo|cat-n|gen-m|num-sg|pers-3|case-o|vib-0_se|tam-0|chunkId-NP|stype-|voicetype-	5	k5	_	_
2	kilomItara	kilomItara	n	NN	lex-kilomItara|cat-n|gen-m|num-sg|pers-3|case-o|vib-0_kA|tam-0|chunkId-NP2|stype-|voicetype-	3	r6	_	_
3	xUrI	xUrI	n	NN	lex-xUrI|cat-n|gen-f|num-sg|pers-3|case-o|vib-0_para|tam-0|chunkId-NP3|stype-|voicetype-	5	k7p	_	_
4	sWiwa	sWiwa	adj	JJ	lex-sWiwa|cat-adj|gen-any|num-any|pers-|case-|vib-|tam-|chunkId-JJP|stype-|voicetype-	5	k1s	_	_
5	hE	hE	v	VM	lex-hE|cat-v|gen-any|num-sg|pers-3|case-|vib-hE|tam-hE|chunkId-VGF|stype-declarative|voicetype-active	0	main	_	_
6	nAsA	nAsA	n	NNP	lex-nAsA|cat-n|gen-f|num-sg|pers-3|case-o|vib-0_kA|tam-0|chunkId-NP4|stype-|voicetype-	7	r6	_	_
7	seMtara	seMtara	n	NNP	lex-seMtara|cat-n|gen-m|num-sg|pers-3|case-d|vib-0|tam-0|chunkId-NP5|stype-|voicetype-	5	k1	_	_
8	.	.	punc	SYM	lex-.|cat-punc|gen-|num-|pers-|case-|vib-|tam-|chunkId-BLK|stype-|voicetype-	5	rsym	_	_

1	Apa	Apa	pn	PRP	lex-Apa|cat-pn|gen-any|num-sg|pers-2h|case-d|vib-0|tam-0|chunkId-NP|stype-|voicetype-	6	k1	_	_
2	ijAjawa	ijAjawa	n	NN	lex-ijAjawa|cat-n|gen-f|num-sg|pers-3|case-d|vib-0|tam-0|chunkId-NP2|stype-|voicetype-	3	pof	_	_
3	lekara	le	v	VM	lex-le|cat-v|gen-any|num-any|pers-any|case-|vib-kara|tam-kara|chunkId-VGNF|stype-|voicetype-	6	vmod	_	_
4	vijFAna	vijFAna	n	NN	lex-vijFAna|cat-n|gen-m|num-sg|pers-3|case-o|vib-0_kA|tam-0|chunkId-NP3|stype-|voicetype-	5	r6	_	_
5	xuniyA	xuniyA	n	NN	lex-xuniyA|cat-n|gen-f|num-sg|pers-3|case-o|vib-0_ko|tam-0|chunkId-NP4|stype-|voicetype-	6	k2	_	_
6	jAna	jAna	v	VMC	lex-jAna|cat-v|gen-m|num-sg|pers-2h|case-|vib-0_saka+wA_hE|tam-0|chunkId-VGF|stype-declarative|voicetype-active	0	main	_	_
7	.	.	punc	SYM	lex-.|cat-punc|gen-|num-|pers-|case-|vib-|tam-|chunkId-BLK|stype-|voicetype-	6	rsym	_	_

1	de	de	n	NNP	lex-de|cat-n|gen-m|num-sg|pers-3|case-d|vib-0|tam-0|chunkId-NP|stype-|voicetype-	0	main	_	_
2	-	-	punc	SYM	lex--|cat-punc|gen-|num-|pers-|case-|vib-|tam-|chunkId-BLK|stype-|voicetype-	1	rsym	_	_

1	oralEMdo	oralEMdo	n	NNP	lex-oralEMdo|cat-n|gen-m|num-sg|pers-3|case-o|vib-0_meM|tam-0|chunkId-NP|stype-|voicetype-	8	k7p	_	_
2	Iva	Iva	n	NNP	lex-Iva|cat-n|gen-f|num-sg|pers-3|case-o|vib-0|tam-0|chunkId-NP2|stype-|voicetype-	3	ccof	_	_
3	Ora	Ora	avy	CC	lex-Ora|cat-avy|gen-|num-|pers-|case-|vib-|tam-|chunkId-CCP|stype-|voicetype-	5	r6	_	_
4	xivasa	xivasa	n	NNP	lex-xivasa|cat-n|gen-m|num-sg|pers-3|case-o|vib-0_kA|tam-0|chunkId-NP3|stype-|voicetype-	3	ccof	_	_
5	xina	xina	n	NN	lex-xina|cat-n|gen-m|num-sg|pers-3|case-o|vib-0|tam-0|chunkId-NP4|stype-|voicetype-	8	k2	_	_
6	KAsawOra	KAsawOra	n	NN	lex-KAsawOra|cat-n|gen-m|num-sg|pers-3|case-o|vib-0_para|tam-0|chunkId-NP5|stype-|voicetype-	8	adv	_	_
7	de	de	n	NNP	lex-de|cat-n|gen-m|num-sg|pers-3|case-d|vib-0|tam-0|chunkId-NP6|stype-|voicetype-	8	k2s	_	_
8	manAyA	manA	v	VM	lex-manA|cat-v|gen-m|num-sg|pers-3|case-|vib-yA_jA+wA_hE|tam-yA|chunkId-VGF|stype-declarative|voicetype-passive	0	main	_	_
9	.	.	punc	SYM	lex-.|cat-punc|gen-|num-|pers-|case-|vib-|tam-|chunkId-BLK|stype-|voicetype-	8	rsym	_	_

1	xina	xina	n	NN	lex-xina|cat-n|gen-m|num-sg|pers-3|case-d|vib-0|tam-0|chunkId-NP|stype-|voicetype-	6	k7t	_	_
2	oralEMdovAsI	oralEMdovAsI	n	NNP	lex-oralEMdovAsI|cat-n|gen-m|num-pl|pers-3|case-d|vib-0|tam-0|chunkId-NP2|stype-|voicetype-	6	k1	_	_
3	xIvAlI	xIvAlI	n	NNP	lex-xIvAlI|cat-n|gen-f|num-sg|pers-3|case-o|vib-0_kA_waraha|tam-0|chunkId-NP3|stype-|voicetype-	6	k2u	_	_
4	rAwa	rAwa	n	NN	lex-rAwa|cat-n|gen-f|num-sg|pers-3|case-o|vib-0_kA|tam-0|chunkId-NP4|stype-|voicetype-	5	r6-k2	_	_
5	jaSna	jaSna	n	NN	lex-jaSna|cat-n|gen-m|num-sg|pers-3|case-d|vib-0|tam-0|chunkId-NP5|stype-|voicetype-	6	pof	_	_
6	manAwe	manA	v	VM	lex-manA|cat-v|gen-m|num-pl|pers-3|case-|vib-wA_hE|tam-wA|chunkId-VGF|stype-declarative|voicetype-active	0	main	_	_
7	.	.	punc	SYM	lex-.|cat-punc|gen-|num-|pers-|case-|vib-|tam-|chunkId-BLK|stype-|voicetype-	6	rsym	_	_

1	sarakAra	sarakAra	n	NN	lex-sarakAra|cat-n|gen-f|num-sg|pers-3|case-o|vib-0_kA_waraPa_se|tam-0|chunkId-NP|stype-|voicetype-	3	rd	_	_
2	Ayojana	Ayojana	n	NN	lex-Ayojana|cat-n|gen-m|num-pl|pers-3|case-d|vib-0|tam-0|chunkId-NP2|stype-|voicetype-	3	pof	_	_
3	kie	kara	v	VM	lex-kara|cat-v|gen-m|num-pl|pers-3|case-|vib-yA_jA+wA_hE|tam-yA|chunkId-VGF|stype-declarative|voicetype-active	0	main	_	_
4	jinheM	jo	pn	PRP	lex-jo|cat-pn|gen-any|num-pl|pers-3|case-o|vib-ko|tam-ko|chunkId-NP3|stype-|voicetype-	5	k2	_	_
5	xeKane	xeKa	v	VM	lex-xeKa|cat-v|gen-any|num-any|pers-any|case-o|vib-nA|tam-nA|chunkId-VGNN|stype-|voicetype-	8	rt	_	_
6	xUra	xUra	nst	RDP	lex-xUra|cat-nst|gen-m|num-sg|pers-3|case-o|vib-0_se|tam-|chunkId-NP4|stype-|voicetype-	8	k5	_	_
7	loga	loga	n	NN	lex-loga|cat-n|gen-m|num-pl|pers-3|case-d|vib-0|tam-0|chunkId-NP5|stype-|voicetype-	8	k1	_	_
8	Awe	A	v	VM	lex-A|cat-v|gen-m|num-pl|pers-3|case-|vib-wA_hE|tam-wA|chunkId-VGF2|stype-declarative|voicetype-active	2	nmod__relc	_	_
9	.	.	punc	SYM	lex-.|cat-punc|gen-|num-|pers-|case-|vib-|tam-|chunkId-BLK|stype-|voicetype-	3	rsym	_	_

1	kaba	kaba	pn	WQ	lex-kaba|cat-pn|gen-|num-|pers-|case-d|vib-|tam-|chunkId-NP|stype-|voicetype-	2	k7t	_	_
2	jAez	jA	v	VM	lex-jA|cat-v|gen-any|num-any|pers-any|case-|vib-eM|tam-eM|chunkId-VGF|stype-declarative|voicetype-active	0	main	_	_
3	-	-	punc	SYM	lex--|cat-punc|gen-|num-|pers-|case-|vib-|tam-|chunkId-BLK|stype-|voicetype-	2	rsym	_	_

1	oralEMdo	oralEMdo	n	NNP	lex-oralEMdo|cat-n|gen-m|num-sg|pers-3|case-d|vib-0|tam-0|chunkId-NP|stype-|voicetype-	2	k2p	_	_
2	jAne	jA	v	VM	lex-jA|cat-v|gen-any|num-any|pers-any|case-o|vib-nA_ke_lie|tam-nA|chunkId-VGNN|stype-|voicetype-	6	rt	_	_
3	agaswa	agaswa	n	NNP	lex-agaswa|cat-n|gen-m|num-sg|pers-3|case-o|vib-0_kA|tam-0|chunkId-NP2|stype-|voicetype-	4	r6	_	_
4	mOsama	mOsama	n	NN	lex-mOsama|cat-n|gen-m|num-sg|pers-3|case-d|vib-0|tam-0|chunkId-NP3|stype-|voicetype-	6	k1	_	_
5	acCA	acCA	adj	JJ	lex-acCA|cat-adj|gen-m|num-sg|pers-|case-|vib-|tam-|chunkId-JJP|stype-|voicetype-	6	k1s	_	_
6	hE	hE	v	VM	lex-hE|cat-v|gen-any|num-sg|pers-3|case-|vib-hE|tam-hE|chunkId-VGF|stype-declarative|voicetype-active	0	main	_	_
7	.	.	punc	SYM	lex-.|cat-punc|gen-|num-|pers-|case-|vib-|tam-|chunkId-BLK|stype-|voicetype-	6	rsym	_	_

1	samara	samara	n	NN	lex-samara|cat-n|gen-m|num-sg|pers-3|case-d|vib-0|tam-0|chunkId-NP|stype-|voicetype-	4	k1	_	_
2	yahAz	yahAz	pn	PRP	lex-yahAz|cat-pn|gen-|num-|pers-|case-o|vib-0_kA|tam-|chunkId-NP2|stype-|voicetype-	3	r6	_	_
3	mOsama	mOsama	n	NN	lex-mOsama|cat-n|gen-m|num-sg|pers-3|case-d|vib-0|tam-0|chunkId-NP3|stype-|voicetype-	4	k1s	_	_
4	hE	hE	v	VM	lex-hE|cat-v|gen-any|num-sg|pers-3|case-|vib-hE|tam-hE|chunkId-VGF|stype-declarative|voicetype-active	0	main	_	_
5	.	.	punc	SYM	lex-.|cat-punc|gen-|num-|pers-|case-|vib-|tam-|chunkId-BLK|stype-|voicetype-	4	rsym	_	_

1	samaya	samaya	n	NN	lex-samaya|cat-n|gen-m|num-sg|pers-3|case-d|vib-0|tam-0|chunkId-NP|stype-|voicetype-	5	k7t	_	_
2	paryatakoM	paryataka	n	NN	lex-paryataka|cat-n|gen-m|num-pl|pers-3|case-o|vib-0_kA|tam-0|chunkId-NP2|stype-|voicetype-	3	r6	_	_
3	BIdZa	BIdZa	n	NN	lex-BIdZa|cat-n|gen-f|num-sg|pers-3|case-d|vib-0|tam-0|chunkId-NP3|stype-|voicetype-	5	k1	_	_
4	Sahara	Sahara	n	NN	lex-Sahara|cat-n|gen-m|num-sg|pers-3|case-o|vib-0_ko|tam-0|chunkId-NP4|stype-|voicetype-	5	k2	_	_
5	Gera	Gera	v	VM	lex-Gera|cat-v|gen-f|num-sg|pers-3|case-|vib-0_le+wA_hE|tam-0|chunkId-VGF|stype-declarative|voicetype-active	0	main	_	_
6	.	.	punc	SYM	lex-.|cat-punc|gen-|num-|pers-|case-|vib-|tam-|chunkId-BLK|stype-|voicetype-	5	rsym	_	_

1	julAI	julAI	n	NNP	lex-julAI|cat-n|gen-f|num-sg|pers-3|case-o|vib-0_kA|tam-0|chunkId-NP|stype-|voicetype-	2	r6	_	_
2	xina	xina	n	NN	lex-xina|cat-n|gen-m|num-sg|pers-3|case-o|vib-0|tam-0|chunkId-NP2|stype-|voicetype-	5	k2	_	_
3	yahAz	yahAz	pn	PRP	lex-yahAz|cat-pn|gen-|num-|pers-|case-d|vib-|tam-|chunkId-NP3|stype-|voicetype-	5	k7p	_	_
4	xivasa	xivasa	n	NNP	lex-xivasa|cat-n|gen-m|num-sg|pers-3|case-d|vib-0|tam-0|chunkId-NP4|stype-|voicetype-	5	k2s	_	_
5	manAyA	manA	v	VM	lex-manA|cat-v|gen-m|num-sg|pers-3|case-|vib-yA_jA+wA_hE|tam-yA|chunkId-VGF|stype-declarative|voicetype-passive	0	main	_	_
6	.	.	punc	SYM	lex-.|cat-punc|gen-|num-|pers-|case-|vib-|tam-|chunkId-BLK|stype-|voicetype-	5	rsym	_	_

1	samaya	samaya	n	NN	lex-samaya|cat-n|gen-m|num-sg|pers-3|case-d|vib-0|tam-0|chunkId-NP|stype-|voicetype-	12	k7t	_	_
2	Apa	Apa	pn	PRP	lex-Apa|cat-pn|gen-any|num-sg|pers-2h|case-d|vib-0|tam-0|chunkId-NP2|stype-|voicetype-	12	k1	_	_
3	yahAz	yahAz	pn	PRP	lex-yahAz|cat-pn|gen-|num-|pers-|case-d|vib-|tam-|chunkId-NP3|stype-|voicetype-	12	k7p	_	_
4	amerikA	amerikA	n	NNP	lex-amerikA|cat-n|gen-m|num-sg|pers-3|case-o|vib-0_ko|tam-0|chunkId-NP4|stype-|voicetype-	12	k2	_	_
5	oralEMdoM	oralEMdoM	n	NNP	lex-oralEMdoM|cat-n|gen-m|num-sg|pers-3|case-o|vib-0_kA|tam-0|chunkId-NP5|stype-|voicetype-	6	r6	_	_
6	najara	najara	n	NN	lex-najara|cat-n|gen-f|num-sg|pers-3|case-o|vib-0_se|tam-0|chunkId-NP6|stype-|voicetype-	12	k3	_	_
7	KUbasUrawa	KUbasUrawa	adj	JJ	lex-KUbasUrawa|cat-adj|gen-any|num-any|pers-|case-o|vib-|tam-|chunkId-JJP|stype-|voicetype-	11	nmod	_	_
8	nIle	nIlA	adj	JJ	lex-nIlA|cat-adj|gen-m|num-sg|pers-|case-o|vib-|tam-|chunkId-JJP2|stype-|voicetype-	9	ccof	_	_
9	OrYa	OrYa	avy	CC	lex-OrYa|cat-avy|gen-|num-|pers-|case-|vib-|tam-|chunkId-CCP|stype-|voicetype-	11	nmod	_	_
10	saPexa	saPexa	adj	JJ	lex-saPexa|cat-adj|gen-any|num-any|pers-|case-o|vib-|tam-|chunkId-JJP3|stype-|voicetype-	9	ccof	_	_
11	raMga	raMga	n	NN	lex-raMga|cat-n|gen-m|num-sg|pers-3|case-o|vib-0_meM|tam-0|chunkId-NP7|stype-|voicetype-	12	k7	_	_
12	nihAra	nihAra	v	VM	lex-nihAra|cat-v|gen-m|num-sg|pers-2h|case-|vib-0_saka+wA_hE|tam-0|chunkId-VGF|stype-declarative|voicetype-active	0	main	_	_
13	.	.	punc	SYM	lex-.|cat-punc|gen-|num-|pers-|case-|vib-|tam-|chunkId-BLK|stype-|voicetype-	12	rsym	_	_

1	kEse	kEse	pn	WQ	lex-kEse|cat-pn|gen-|num-|pers-|case-|vib-|tam-|chunkId-RBP|stype-|voicetype-	2	adv	_	_
2	jAez	jA	v	VM	lex-jA|cat-v|gen-any|num-any|pers-any|case-|vib-eM|tam-eM|chunkId-VGF|stype-declarative|voicetype-active	0	main	_	_
3	-	-	punc	SYM	lex--|cat-punc|gen-|num-|pers-|case-|vib-|tam-|chunkId-BLK|stype-|voicetype-	2	rsym	_	_

1	Apa	Apa	pn	PRP	lex-Apa|cat-pn|gen-any|num-sg|pers-2h|case-d|vib-0|tam-0|chunkId-NP|stype-|voicetype-	7	k1	_	_
2	amerikA	amerikA	n	NNP	lex-amerikA|cat-n|gen-m|num-sg|pers-3|case-o|vib-0_ke_lie|tam-0|chunkId-NP2|stype-|voicetype-	7	rt	_	_
3	xillI	xillI	n	NNP	lex-xillI|cat-n|gen-f|num-sg|pers-3|case-o|vib-0|tam-0|chunkId-NP3|stype-|voicetype-	4	ccof	_	_
4	yA	yA	avy	CC	lex-yA|cat-avy|gen-|num-|pers-|case-|vib-|tam-|chunkId-CCP|stype-|voicetype-	7	k5	_	_
5	muMbaI	muMbaI	n	NNP	lex-muMbaI|cat-n|gen-f|num-sg|pers-3|case-o|vib-0_se|tam-0|chunkId-NP4|stype-|voicetype-	4	ccof	_	_
6	PlAita	PlAita	n	NN	lex-PlAita|cat-n|gen-f|num-sg|pers-3|case-d|vib-0|tam-0|chunkId-NP5|stype-|voicetype-	7	k2	_	_
7	le	le	v	VM	lex-le|cat-v|gen-m|num-sg|pers-2h|case-|vib-0_saka+wA_hE|tam-0|chunkId-VGF|stype-declarative|voicetype-active	0	main	_	_
8	.	.	punc	SYM	lex-.|cat-punc|gen-|num-|pers-|case-|vib-|tam-|chunkId-BLK|stype-|voicetype-	7	rsym	_	_

1	Sahara	Sahara	n	NN	lex-Sahara|cat-n|gen-m|num-sg|pers-3|case-o|vib-0_meM|tam-0|chunkId-NP|stype-|voicetype-	4	k7p	_	_
2	yAwrA	yAwrA	n	NN	lex-yAwrA|cat-n|gen-f|num-sg|pers-3|case-o|vib-0_kA|tam-0|chunkId-NP2|stype-|voicetype-	3	r6	_	_
3	jAla	jAla	n	NN	lex-jAla|cat-n|gen-m|num-sg|pers-3|case-d|vib-0|tam-0|chunkId-NP3|stype-|voicetype-	4	k1	_	_
4	biCA	biCa	v	VM	lex-biCa|cat-v|gen-m|num-sg|pers-3|case-|vib-yA_ho+yA_hE|tam-yA|chunkId-VGF|stype-declarative|voicetype-active	0	main	_	_
5	.	.	punc	SYM	lex-.|cat-punc|gen-|num-|pers-|case-|vib-|tam-|chunkId-BLK|stype-|voicetype-	4	rsym	_	_

1	yahAz	yahAz	pn	PRP	lex-yahAz|cat-pn|gen-|num-|pers-|case-o|vib-0_kA|tam-|chunkId-NP|stype-|voicetype-	2	r6	_	_
2	eyaraporta	eyaraporta	n	NNP	lex-eyaraporta|cat-n|gen-m|num-sg|pers-3|case-d|vib-0|tam-0|chunkId-NP2|stype-|voicetype-	3	ccof	_	_
3	OrYa	OrYa	avy	CC	lex-OrYa|cat-avy|gen-|num-|pers-|case-|vib-|tam-|chunkId-CCP|stype-|voicetype-	7	k1	_	_
4	eyaraporta	eyaraporta	n	NNP	lex-eyaraporta|cat-n|gen-m|num-sg|pers-3|case-d|vib-0|tam-0|chunkId-NP3|stype-|voicetype-	3	ccof	_	_
5	vixeSa	vixeSa	n	NN	lex-vixeSa|cat-n|gen-m|num-sg|pers-3|case-o|vib-0_kA|tam-0|chunkId-NP4|stype-|voicetype-	6	r6	_	_
6	eyaralAiMsa	eyaralAina	n	NN	lex-eyaralAina|cat-n|gen-f|num-pl|pers-3|case-o|vib-0_se|tam-0|chunkId-NP5|stype-|voicetype-	7	ras-k1	_	_
7	judZA	judZa	v	VM	lex-judZa|cat-v|gen-m|num-sg|pers-3|case-|vib-yA_ho+yA_hE|tam-yA|chunkId-VGF|stype-declarative|voicetype-active	0	main	_	_
8	.	.	punc	SYM	lex-.|cat-punc|gen-|num-|pers-|case-|vib-|tam-|chunkId-BLK|stype-|voicetype-	7	rsym	_	_

1	isake	yaha	pn	PRP	lex-yaha|cat-pn|gen-any|num-sg|pers-3|case-o|vib-ke_alAvA|tam-ke|chunkId-NP|stype-|voicetype-	8	vmod	_	_
2	Sahara	Sahara	n	NN	lex-Sahara|cat-n|gen-m|num-sg|pers-3|case-o|vib-0_meM|tam-0|chunkId-NP2|stype-|voicetype-	8	k7p	_	_
3	basa	basa	n	NN	lex-basa|cat-n|gen-f|num-sg|pers-3|case-o|vib-0|tam-0|chunkId-NP3|stype-|voicetype-	5	ccof	_	_
4	tEksI	tEksI	n	NN	lex-tEksI|cat-n|gen-f|num-sg|pers-3|case-o|vib-0|tam-0|chunkId-NP4|stype-|voicetype-	5	ccof	_	_
5	Ora	Ora	avy	CC	lex-Ora|cat-avy|gen-|num-|pers-|case-|vib-|tam-|chunkId-CCP|stype-|voicetype-	7	r6	_	_
6	trena	trena	n	NN	lex-trena|cat-n|gen-f|num-sg|pers-3|case-o|vib-0_kA|tam-0|chunkId-NP5|stype-|voicetype-	5	ccof	_	_
7	jaMkSana	jaMkSana	n	NN	lex-jaMkSana|cat-n|gen-m|num-sg|pers-3|case-d|vib-0|tam-0|chunkId-NP6|stype-|voicetype-	8	k1	_	_
8	hE	hE	v	VM	lex-hE|cat-v|gen-any|num-sg|pers-3|case-|vib-hE|tam-hE|chunkId-VGF|stype-declarative|voicetype-active	0	main	_	_
9	jinheM	jo	pn	PRP	lex-jo|cat-pn|gen-any|num-pl|pers-3|case-o|vib-ko|tam-ko|chunkId-NP7|stype-|voicetype-	13	k2	_	_
10	Apa	Apa	pn	PRP	lex-Apa|cat-pn|gen-any|num-sg|pers-2h|case-d|vib-0|tam-0|chunkId-NP8|stype-|voicetype-	13	k1	_	_
11	apane	apanA	pn	PRP	lex-apanA|cat-pn|gen-m|num-any|pers-any|case-o|vib-0|tam-0|chunkId-NP9|stype-|voicetype-	12	r6	_	_
12	bajata	bajata	n	NN	lex-bajata|cat-n|gen-m|num-sg|pers-3|case-o|vib-0_ke_anusAra|tam-0|chunkId-NP10|stype-|voicetype-	13	k7a	_	_
13	cuna	cuna	v	VM	lex-cuna|cat-v|gen-m|num-sg|pers-2h|case-|vib-0_saka+wA_hE|tam-0|chunkId-VGF2|stype-declarative|voicetype-active	7	nmod__relc	_	_
14	.	.	punc	SYM	lex-.|cat-punc|gen-|num-|pers-|case-|vib-|tam-|chunkId-BLK|stype-|voicetype-	8	rsym	_	_

1	kahAz	kahAz	pn	WQ	lex-kahAz|cat-pn|gen-|num-|pers-|case-|vib-|tam-|chunkId-NP|stype-|voicetype-	2	k7p	_	_
2	Tahare	Tahara	v	VM	lex-Tahara|cat-v|gen-any|num-any|pers-any|case-|vib-eM|tam-eM|chunkId-VGF|stype-declarative|voicetype-active	0	main	_	_
3	-	-	punc	SYM	lex--|cat-punc|gen-|num-|pers-|case-|vib-|tam-|chunkId-BLK|stype-|voicetype-	2	rsym	_	_

1	hotaloM	hotala	n	NN	lex-hotala|cat-n|gen-m|num-pl|pers-3|case-o|vib-0_kA|tam-0|chunkId-NP|stype-|voicetype-	2	r6	_	_
2	xqRti	xqRti	n	NN	lex-xqRti|cat-n|gen-f|num-sg|pers-3|case-o|vib-0_se|tam-0|chunkId-NP2|stype-|voicetype-	6	k7a	_	_
3	oralEMdo	oralEMdo	n	NNP	lex-oralEMdo|cat-n|gen-m|num-sg|pers-3|case-d|vib-0|tam-0|chunkId-NP3|stype-|voicetype-	6	k1	_	_
4	amerikA	amerikA	n	NNP	lex-amerikA|cat-n|gen-m|num-sg|pers-3|case-o|vib-0_kA|tam-0|chunkId-NP4|stype-|voicetype-	5	r6	_	_
5	Sahara	Sahara	n	NN	lex-Sahara|cat-n|gen-m|num-sg|pers-3|case-d|vib-0|tam-0|chunkId-NP5|stype-|voicetype-	6	k1s	_	_
6	hE	hE	v	VM	lex-hE|cat-v|gen-any|num-sg|pers-3|case-|vib-hE|tam-hE|chunkId-VGF|stype-declarative|voicetype-active	0	main	_	_
7	.	.	punc	SYM	lex-.|cat-punc|gen-|num-|pers-|case-|vib-|tam-|chunkId-BLK|stype-|voicetype-	6	rsym	_	_

1	yahAz	yahAz	pn	PRP	lex-yahAz|cat-pn|gen-|num-|pers-|case-d|vib-|tam-|chunkId-NP|stype-|voicetype-	4	k7p	_	_
2	hAusa	hAusa	n	NN	lex-hAusa|cat-n|gen-m|num-sg|pers-3|case-o|vib-0_se_lekara|tam-0|chunkId-NP2|stype-|voicetype-	4	vmod	_	_
3	hotala	hotala	n	NN	lex-hotala|cat-n|gen-m|num-pl|pers-3|case-d|vib-0|tam-0|chunkId-NP3|stype-|voicetype-	4	k1	_	_
4	hEM	hE	v	VM	lex-hE|cat-v|gen-any|num-pl|pers-3|case-|vib-hE|tam-hE|chunkId-VGF|stype-declarative|voicetype-active	0	main	_	_
5	.	.	punc	SYM	lex-.|cat-punc|gen-|num-|pers-|case-|vib-|tam-|chunkId-BLK|stype-|voicetype-	4	rsym	_	_

1	Apa	Apa	pn	PRP	lex-Apa|cat-pn|gen-any|num-sg|pers-2h|case-d|vib-0|tam-0|chunkId-NP|stype-|voicetype-	6	k1	_	_
2	yahAz	yahAz	pn	PRP	lex-yahAz|cat-pn|gen-|num-|pers-|case-d|vib-|tam-|chunkId-NP2|stype-|voicetype-	3	k2p	_	_
3	jAne	jA	v	VM	lex-jA|cat-v|gen-any|num-sg|pers-3|case-o|vib-nA_se_pahale|tam-nA|chunkId-VGNN|stype-|voicetype-	6	k7t	_	_
4	hotala	hotala	n	NN	lex-hotala|cat-n|gen-m|num-sg|pers-3|case-o|vib-0_kA|tam-0|chunkId-NP3|stype-|voicetype-	5	r6-k2	_	_
5	bukiMga	bukiMga	n	NN	lex-bukiMga|cat-n|gen-f|num-sg|pers-3|case-d|vib-0|tam-0|chunkId-NP4|stype-|voicetype-	6	pof	_	_
6	kara	kara	v	VM	lex-kara|cat-v|gen-any|num-sg|pers-2h|case-|vib-0_le+eM|tam-0|chunkId-VGF|stype-declarative|voicetype-active	9	vmod	_	_
7	wo	wo	avy	CC	lex-wo|cat-avy|gen-|num-|pers-|case-|vib-|tam-|chunkId-CCP|stype-|voicetype-	0	main	_	_
8	behawara	behawara	adj	JJ	lex-behawara|cat-adj|gen-any|num-any|pers-|case-|vib-|tam-|chunkId-JJP|stype-|voicetype-	9	pof	_	_
9	hogA	ho	v	VM	lex-ho|cat-v|gen-m|num-sg|pers-3|case-|vib-gA|tam-gA|chunkId-VGF2|stype-declarative|voicetype-active	7	ccof	_	_
10	.	.	punc	SYM	lex-.|cat-punc|gen-|num-|pers-|case-|vib-|tam-|chunkId-BLK|stype-|voicetype-	7	rsym	_	_

1	yaxi	yaxi	avy	CC	lex-yaxi|cat-avy|gen-|num-|pers-|case-|vib-|tam-|chunkId-CCP|stype-|voicetype-	9	vmod	_	_
2	ApakA	Apa	pn	PRP	lex-Apa|cat-pn|gen-m|num-sg|pers-2h|case-o|vib-kA|tam-kA|chunkId-NP|stype-|voicetype-	3	r6	_	_
3	kAryakrama	kAryakrama	n	NN	lex-kAryakrama|cat-n|gen-m|num-sg|pers-3|case-d|vib-0|tam-0|chunkId-NP2|stype-|voicetype-	5	k1	_	_
4	waya	waya	adj	JJ	lex-waya|cat-adj|gen-any|num-any|pers-|case-|vib-|tam-|chunkId-JJP|stype-|voicetype-	5	k1s	_	_
5	hE	hE	v	VM	lex-hE|cat-v|gen-any|num-sg|pers-3|case-|vib-hE|tam-hE|chunkId-VGF|stype-declarative|voicetype-active	1	ccof	_	_
6	wo	wo	avy	CC	lex-wo|cat-avy|gen-|num-|pers-|case-|vib-|tam-|chunkId-CCP2|stype-|voicetype-	0	main	_	_
7	pahale	pahale	nst	NST	lex-pahale|cat-nst|gen-m|num-sg|pers-3|case-d|vib-|tam-|chunkId-NP3|stype-|voicetype-	9	k7t	_	_
8	bukiMga	bukiMga	n	NN	lex-bukiMga|cat-n|gen-f|num-sg|pers-3|case-d|vib-0|tam-0|chunkId-NP4|stype-|voicetype-	9	pof	_	_
9	kareM	kara	v	VM	lex-kara|cat-v|gen-any|num-sg|pers-2h|case-|vib-eM|tam-eM|chunkId-VGF2|stype-declarative|voicetype-active	6	ccof	_	_
10	.	.	punc	SYM	lex-.|cat-punc|gen-|num-|pers-|case-|vib-|tam-|chunkId-BLK|stype-|voicetype-	6	rsym	_	_

1	deja	de	n	NN	lex-de|cat-n|gen-m|num-pl|pers-3|case-o|vib-0_meM|tam-0|chunkId-NP|stype-|voicetype-	4	k7t	_	_
2	bukiMga	bukiMga	n	NN	lex-bukiMga|cat-n|gen-f|num-sg|pers-3|case-d|vib-0|tam-0|chunkId-NP2|stype-|voicetype-	4	k1	_	_
3	mazhagI	mazhagA	adj	JJ	lex-mazhagA|cat-adj|gen-f|num-sg|pers-|case-|vib-|tam-|chunkId-JJP|stype-|voicetype-	4	pof	_	_
4	ho	ho	v	VM	lex-ho|cat-v|gen-f|num-sg|pers-3|case-|vib-0_jA+wA_hE|tam-0|chunkId-VGF|stype-declarative|voicetype-active	0	main	_	_
5	.	.	punc	SYM	lex-.|cat-punc|gen-|num-|pers-|case-|vib-|tam-|chunkId-BLK|stype-|voicetype-	4	rsym	_	_

1	isake	yaha	pn	PRP	lex-yaha|cat-pn|gen-m|num-sg|pers-3|case-o|vib-ke_sAWa|tam-ke|chunkId-NP|stype-|voicetype-	7	sent-adv	_	_
2	dijanI	dijanI	n	NNP	lex-dijanI|cat-n|gen-m|num-sg|pers-3|case-o|vib-0_kA|tam-0|chunkId-NP2|stype-|voicetype-	3	r6	_	_
3	risOYrta	risOYrta	n	NN	lex-risOYrta|cat-n|gen-m|num-sg|pers-3|case-o|vib-0_meM|tam-0|chunkId-NP3|stype-|voicetype-	7	k7p	_	_
4	Taharane	Tahara	v	VM	lex-Tahara|cat-v|gen-any|num-sg|pers-any|case-o|vib-nA_kA|tam-nA|chunkId-VGNN|stype-|voicetype-	5	r6	_	_
5	anuBava	anuBava	n	NN	lex-anuBava|cat-n|gen-m|num-sg|pers-3|case-d|vib-0|tam-0|chunkId-NP4|stype-|voicetype-	7	k1	_	_
6	anUTA	anUTA	adj	JJ	lex-anUTA|cat-adj|gen-m|num-sg|pers-|case-|vib-|tam-|chunkId-JJP|stype-|voicetype-	7	k1s	_	_
7	hE	hE	v	VM	lex-hE|cat-v|gen-any|num-sg|pers-3|case-|vib-hE|tam-hE|chunkId-VGF|stype-declarative|voicetype-active	0	main	_	_
8	.	.	punc	SYM	lex-.|cat-punc|gen-|num-|pers-|case-|vib-|tam-|chunkId-BLK|stype-|voicetype-	7	rsym	_	_

1	yaxi	yaxi	avy	CC	lex-yaxi|cat-avy|gen-|num-|pers-|case-|vib-|tam-|chunkId-CCP|stype-|voicetype-	10	vmod	_	_
2	yaha	yaha	pn	PRP	lex-yaha|cat-pn|gen-any|num-sg|pers-3|case-d|vib-0|tam-0|chunkId-NP|stype-|voicetype-	6	k1	_	_
3	Apake	Apa	pn	PRP	lex-Apa|cat-pn|gen-any|num-sg|pers-2h|case-o|vib-kA|tam-kA|chunkId-NP2|stype-|voicetype-	4	r6	_	_
4	bajata	bajata	n	NN	lex-bajata|cat-n|gen-m|num-sg|pers-3|case-o|vib-0_ko|tam-0|chunkId-NP3|stype-|voicetype-	6	k2	_	_
5	sUta	sUta	unk	UNK	lex-sUta|cat-unk|gen-|num-|pers-|case-|vib-|tam-|chunkId-BLK|stype-|voicetype-	6	pof	_	_
6	karawA	kara	v	VM	lex-kara|cat-v|gen-m|num-sg|pers-3|case-|vib-wA_hE|tam-wA|chunkId-VGF|stype-declarative|voicetype-active	1	ccof	_	_
7	wo	wo	avy	CC	lex-wo|cat-avy|gen-|num-|pers-|case-|vib-|tam-|chunkId-CCP2|stype-|voicetype-	0	main	_	_
8	yahAz	yahAz	pn	PRP	lex-yahAz|cat-pn|gen-|num-|pers-|case-d|vib-|tam-|chunkId-NP4|stype-|voicetype-	10	k7p	_	_
9	jarUra	jarUra	adv	RB	lex-jarUra|cat-adv|gen-|num-|pers-|case-|vib-|tam-|chunkId-RBP|stype-|voicetype-	10	adv	_	_
10	TahareM	Tahara	v	VM	lex-Tahara|cat-v|gen-any|num-sg|pers-2h|case-|vib-eM|tam-eM|chunkId-VGF2|stype-declarative|voicetype-active	7	ccof	_	_
11	.	.	punc	SYM	lex-.|cat-punc|gen-|num-|pers-|case-|vib-|tam-|chunkId-BLK2|stype-|voicetype-	7	rsym	_	_

