1	cixaMbarama	cixaMbarama	n	NNP	lex-cixaMbarama|cat-n|gen-m|num-sg|pers-3|case-o|vib-0_ne|tam-0|chunkId-NP|stype-|voicetype-	11	k1	_	_
2	somavAra	somavAra	n	NNP	lex-somavAra|cat-n|gen-m|num-sg|pers-3|case-o|vib-0_ko|tam-0|chunkId-NP2|stype-|voicetype-	11	k7t	_	_
3	mAmaloM	mAmalA	n	NN	lex-mAmalA|cat-n|gen-m|num-pl|pers-3|case-o|vib-0_meM|tam-0|chunkId-NP3|stype-|voicetype-	8	k7	_	_
4	sarakAra	sarakAra	n	NN	lex-sarakAra|cat-n|gen-f|num-sg|pers-3|case-o|vib-0_kA|tam-0|chunkId-NP4|stype-|voicetype-	5	r6	_	_
5	rAha	rAha	n	NN	lex-rAha|cat-n|gen-f|num-sg|pers-3|case-o|vib-0_meM|tam-0|chunkId-NP5|stype-|voicetype-	8	k7	_	_
6	vAmaxaloM	vAmaxala	n	NN	lex-vAmaxala|cat-n|gen-m|num-pl|pers-3|case-o|vib-0_kA|tam-0|chunkId-NP6|stype-|voicetype-	7	r6-k2	_	_
7	rodZe	rodZA	n	NN	lex-rodZA|cat-n|gen-m|num-pl|pers-3|case-d|vib-0|tam-0|chunkId-NP7|stype-|voicetype-	8	pof	_	_
8	atakAne	atakA	v	VM	lex-atakA|cat-v|gen-any|num-sg|pers-any|case-o|vib-nA_kA|tam-nA|chunkId-VGNN|stype-|voicetype-	9	r6	_	_
9	bAwa	bAwa	n	NN	lex-bAwa|cat-n|gen-f|num-sg|pers-3|case-o|vib-0_ko|tam-0|chunkId-NP8|stype-|voicetype-	11	k2	_	_
10	xarakinAra	xarakinAra	adv	RB	lex-xarakinAra|cat-adv|gen-|num-|pers-|case-|vib-|tam-|chunkId-RBP|stype-|voicetype-	11	pof	_	_
11	kara	kara	v	VM	lex-kara|cat-v|gen-any|num-sg|pers-any|case-|vib-0_xe+yA|tam-0|chunkId-VGF|stype-declarative|voicetype-active	0	main	_	_
12	.	.	punc	SYM	lex-.|cat-punc|gen-|num-|pers-|case-|vib-|tam-|chunkId-BLK|stype-|voicetype-	11	rsym	_	_

1	unhoMne	vaha	pn	PRP	lex-vaha|cat-pn|gen-any|num-sg|pers-3h|case-o|vib-ne|tam-ne|chunkId-NP|stype-|voicetype-	2	k1	_	_
2	kahA	kaha	v	VM	lex-kaha|cat-v|gen-m|num-sg|pers-any|case-|vib-yA|tam-yA|chunkId-VGF|stype-declarative|voicetype-active	0	main	_	_
3	ki	ki	avy	CC	lex-ki|cat-avy|gen-|num-|pers-|case-|vib-|tam-|chunkId-CCP|stype-|voicetype-	2	k2	_	_
4	vAmaxala	vAmaxala	n	NN	lex-vAmaxala|cat-n|gen-m|num-pl|pers-3|case-d|vib-0|tam-0|chunkId-NP2|stype-|voicetype-	7	k1	_	_
5	apane	apanA	pn	PRP	lex-apanA|cat-pn|gen-m|num-any|pers-any|case-o|vib-0|tam-0|chunkId-NP3|stype-|voicetype-	6	r6	_	_
6	vicAroM	vicAra	n	NN	lex-vicAra|cat-n|gen-m|num-pl|pers-3|case-o|vib-0_ko|tam-0|chunkId-NP4|stype-|voicetype-	7	k2	_	_
7	raKawe	raKa	v	VM	lex-raKa|cat-v|gen-m|num-pl|pers-3|case-|vib-wA_hE|tam-wA|chunkId-VGF2|stype-declarative|voicetype-active	3	ccof	_	_
8	jisakA	jo	pn	PRP	lex-jo|cat-pn|gen-m|num-sg|pers-3|case-o|vib-kA|tam-kA|chunkId-NP5|stype-|voicetype-	9	r6-k2	_	_
9	XyAna	XyAna	n	NN	lex-XyAna|cat-n|gen-m|num-sg|pers-3|case-d|vib-0|tam-0|chunkId-NP6|stype-|voicetype-	10	pof	_	_
10	raKA	raKa	v	VM	lex-raKa|cat-v|gen-m|num-sg|pers-3|case-|vib-yA_jA+wA_hE|tam-yA|chunkId-VGF3|stype-declarative|voicetype-passive	6	nmod__relc	_	_
11	.	.	punc	SYM	lex-.|cat-punc|gen-|num-|pers-|case-|vib-|tam-|chunkId-BLK|stype-|voicetype-	2	rsym	_	_

1	kAMgresa	kAMgresa	n	NNP	lex-kAMgresa|cat-n|gen-f|num-sg|pers-3|case-o|vib-0_kA|tam-0|chunkId-NP|stype-|voicetype-	2	r6	_	_
2	muKapawra	muKapawra	n	NN	lex-muKapawra|cat-n|gen-m|num-sg|pers-3|case-o|vib-0|tam-0|chunkId-NP2|stype-|voicetype-	3	nmod	_	_
3	xEnika	xEnika	n	NN	lex-xEnika|cat-n|gen-m|num-sg|pers-3|case-o|vib-0_kA|tam-0|chunkId-NP3|stype-|voicetype-	4	r6	_	_
4	samAroha	samAroha	n	NN	lex-samAroha|cat-n|gen-m|num-sg|pers-3|case-o|vib-0_meM|tam-0|chunkId-NP4|stype-|voicetype-	7	k7	_	_
5	cixaMbarama	cixaMbarama	n	NNP	lex-cixaMbarama|cat-n|gen-m|num-sg|pers-3|case-o|vib-0_ne|tam-0|chunkId-NP5|stype-|voicetype-	7	k1	_	_
6	saMvAxaxAwAoM	saMvAxaxAwA	n	NN	lex-saMvAxaxAwA|cat-n|gen-m|num-pl|pers-3|case-o|vib-0_ko|tam-0|chunkId-NP6|stype-|voicetype-	7	k4	_	_
7	bawAyA	bawA	v	VM	lex-bawA|cat-v|gen-m|num-sg|pers-any|case-|vib-yA|tam-yA|chunkId-VGF|stype-declarative|voicetype-active	0	main	_	_
8	ki	ki	avy	CC	lex-ki|cat-avy|gen-|num-|pers-|case-|vib-|tam-|chunkId-CCP|stype-|voicetype-	7	k2	_	_
9	vAmaxaloM	vAmaxala	n	NN	lex-vAmaxala|cat-n|gen-m|num-pl|pers-3|case-o|vib-0_kA|tam-0|chunkId-NP7|stype-|voicetype-	11	r6	_	_
10	apanI	apanA	pn	PRP	lex-apanA|cat-pn|gen-f|num-any|pers-any|case-d|vib-0|tam-0|chunkId-NP8|stype-|voicetype-	11	r6	_	_
11	vicAraXArA	vicAraXArA	n	NN	lex-vicAraXArA|cat-n|gen-f|num-sg|pers-3|case-d|vib-0|tam-0|chunkId-NP9|stype-|voicetype-	12	k1	_	_
12	hE	hE	v	VM	lex-hE|cat-v|gen-any|num-sg|pers-3|case-|vib-hE|tam-hE|chunkId-VGF2|stype-declarative|voicetype-active	13	ccof	_	_
13	Ora	Ora	avy	CC	lex-Ora|cat-avy|gen-|num-|pers-|case-|vib-|tam-|chunkId-CCP2|stype-|voicetype-	8	ccof	_	_
14	ve	vaha	pn	PRP	lex-vaha|cat-pn|gen-any|num-pl|pers-3|case-d|vib-0|tam-0|chunkId-NP10|stype-|voicetype-	17	k1	_	_
15	usakA	vaha	pn	PRP	lex-vaha|cat-pn|gen-m|num-sg|pers-3|case-o|vib-kA|tam-kA|chunkId-NP11|stype-|voicetype-	16	r6-k2	_	_
16	Axara	Axara	n	NN	lex-Axara|cat-n|gen-m|num-sg|pers-3|case-d|vib-0|tam-0|chunkId-NP12|stype-|voicetype-	17	pof	_	_
17	karawe	kara	v	VM	lex-kara|cat-v|gen-m|num-pl|pers-3|case-|vib-wA_hE|tam-wA|chunkId-VGF3|stype-declarative|voicetype-active	13	ccof	_	_
18	.	.	punc	SYM	lex-.|cat-punc|gen-|num-|pers-|case-|vib-|tam-|chunkId-BLK|stype-|voicetype-	7	rsym	_	_

1	waraha	waraha	n	NN	lex-waraha|cat-n|gen-f|num-sg|pers-3|case-d|vib-0|tam-0|chunkId-NP|stype-|voicetype-	8	adv	_	_
2	kAMgresa	kAMgresa	n	NNP	lex-kAMgresa|cat-n|gen-f|num-sg|pers-3|case-o|vib-0_kA|tam-0|chunkId-NP2|stype-|voicetype-	4	r6	_	_
3	apane	apanA	pn	PRP	lex-apanA|cat-pn|gen-m|num-any|pers-any|case-o|vib-0|tam-0|chunkId-NP3|stype-|voicetype-	4	r6	_	_
4	vikAsa	vikAsa	n	NN	lex-vikAsa|cat-n|gen-m|num-sg|pers-3|case-o|vib-0_kA|tam-0|chunkId-NP4|stype-|voicetype-	7	r6	_	_
5	eka	eka	num	QC	lex-eka|cat-num|gen-any|num-any|pers-|case-any|vib-|tam-|chunkId-NP5|stype-|voicetype-	7	nmod	_	_
6	apanA	apanA	pn	PRP	lex-apanA|cat-pn|gen-m|num-sg|pers-any|case-d|vib-0|tam-0|chunkId-NP6|stype-|voicetype-	7	r6	_	_
7	mOYdala	mOYdala	n	NN	lex-mOYdala|cat-n|gen-m|num-sg|pers-3|case-d|vib-0|tam-0|chunkId-NP7|stype-|voicetype-	8	k1	_	_
8	hE	hE	v	VM	lex-hE|cat-v|gen-any|num-sg|pers-3|case-|vib-hE|tam-hE|chunkId-VGF|stype-declarative|voicetype-active	9	ccof	_	_
9	Ora	Ora	avy	CC	lex-Ora|cat-avy|gen-|num-|pers-|case-|vib-|tam-|chunkId-CCP|stype-|voicetype-	0	main	_	_
10	vAmaxaloM	vAmaxala	n	NN	lex-vAmaxala|cat-n|gen-m|num-pl|pers-3|case-o|vib-0_ko|tam-0|chunkId-NP8|stype-|voicetype-	13	k1	_	_
11	usakA	vaha	pn	PRP	lex-vaha|cat-pn|gen-m|num-sg|pers-3|case-o|vib-kA|tam-kA|chunkId-NP9|stype-|voicetype-	12	r6-k2	_	_
12	Axara	Axara	n	NN	lex-Axara|cat-n|gen-m|num-sg|pers-3|case-d|vib-0|tam-0|chunkId-NP10|stype-|voicetype-	13	pof	_	_
13	karanA	kara	v	VM	lex-kara|cat-v|gen-m|num-any|pers-any|case-|vib-nA_cAhie|tam-nA|chunkId-VGF2|stype-declarative|voicetype-active	9	ccof	_	_
14	.	.	punc	SYM	lex-.|cat-punc|gen-|num-|pers-|case-|vib-|tam-|chunkId-BLK|stype-|voicetype-	9	rsym	_	_

1	maMwrI	maMwrI	n	NNP	lex-maMwrI|cat-n|gen-m|num-sg|pers-3|case-o|vib-0_ne|tam-0|chunkId-NP|stype-|voicetype-	2	k1	_	_
2	kahA	kaha	v	VM	lex-kaha|cat-v|gen-m|num-sg|pers-any|case-|vib-yA|tam-yA|chunkId-VGF|stype-declarative|voicetype-active	0	main	_	_
3	ki	ki	avy	CC	lex-ki|cat-avy|gen-|num-|pers-|case-|vib-|tam-|chunkId-CCP|stype-|voicetype-	2	k2	_	_
4	vAmaxaloM	vAmaxala	n	NN	lex-vAmaxala|cat-n|gen-m|num-pl|pers-3|case-o|vib-0_ne|tam-0|chunkId-NP2|stype-|voicetype-	11	k1	_	_
5	aba	aba	pn	PRP	lex-aba|cat-pn|gen-|num-|pers-|case-d|vib-|tam-|chunkId-NP3|stype-|voicetype-	9	k7t	_	_
6	kaMpaniyoM	kaMpanI	n	NN	lex-kaMpanI|cat-n|gen-f|num-pl|pers-3|case-o|vib-0_meM|tam-0|chunkId-NP4|stype-|voicetype-	9	k7	_	_
7	viniveSa	viniveSa	n	NN	lex-viniveSa|cat-n|gen-m|num-sg|pers-3|case-o|vib-0_ko|tam-0|chunkId-NP5|stype-|voicetype-	9	k2	_	_
8	svIkAra	svIkAra	n	NN	lex-svIkAra|cat-n|gen-m|num-sg|pers-3|case-d|vib-0|tam-0|chunkId-NP6|stype-|voicetype-	9	pof	_	_
9	karanA	kara	v	VM	lex-kara|cat-v|gen-any|num-any|pers-any|case-d|vib-nA|tam-nA|chunkId-VGNN|stype-|voicetype-	11	k2	_	_
10	SurU	SurU	n	NN	lex-SurU|cat-n|gen-m|num-sg|pers-3|case-d|vib-0|tam-0|chunkId-NP7|stype-|voicetype-	11	pof	_	_
11	kara	kara	v	VM	lex-kara|cat-v|gen-m|num-sg|pers-3|case-|vib-0_xe+yA_hE|tam-0|chunkId-VGF2|stype-declarative|voicetype-active	3	ccof	_	_
12	.	.	punc	SYM	lex-.|cat-punc|gen-|num-|pers-|case-|vib-|tam-|chunkId-BLK|stype-|voicetype-	2	rsym	_	_

1	vAmaxaloM	vAmaxala	n	NN	lex-vAmaxala|cat-n|gen-m|num-pl|pers-3|case-o|vib-0_kA|tam-0|chunkId-NP|stype-|voicetype-	2	r6	_	_
2	gawiroXa	gawiroXa	n	NN	lex-gawiroXa|cat-n|gen-m|num-sg|pers-3|case-o|vib-0_ke_bAvajUxa|tam-0|chunkId-NP2|stype-|voicetype-	13	vmod	_	_
3	sarakAra	sarakAra	n	NN	lex-sarakAra|cat-n|gen-f|num-sg|pers-3|case-d|vib-0|tam-0|chunkId-NP3|stype-|voicetype-	13	k1	_	_
4	uddayana	uddayana	n	NN	lex-uddayana|cat-n|gen-m|num-sg|pers-3|case-o|vib-0|tam-0|chunkId-NP4|stype-|voicetype-	6	ccof	_	_
5	telIkOYma	telIkOYma	n	NN	lex-telIkOYma|cat-n|gen-m|num-sg|pers-3|case-o|vib-0|tam-0|chunkId-NP5|stype-|voicetype-	6	ccof	_	_
6	Ora	Ora	avy	CC	lex-Ora|cat-avy|gen-|num-|pers-|case-|vib-|tam-|chunkId-CCP|stype-|voicetype-	11	k7	_	_
7	sektara	sektara	n	NN	lex-sektara|cat-n|gen-m|num-sg|pers-3|case-o|vib-0_meM|tam-0|chunkId-NP6|stype-|voicetype-	6	ccof	_	_
8	niveSa	niveSa	n	NNP	lex-niveSa|cat-n|gen-m|num-sg|pers-3|case-o|vib-0|tam-0|chunkId-NP7|stype-|voicetype-	11	k7	_	_
9	ePadIAI	ePadIAI	n	NNP	lex-ePadIAI|cat-n|gen-m|num-sg|pers-3|case-o|vib-0|tam-0|chunkId-NP8|stype-|voicetype-	8	rs	_	_
10	Age	Age	nst	NST	lex-Age|cat-nst|gen-m|num-sg|pers-3|case-d|vib-|tam-|chunkId-NP9|stype-|voicetype-	11	pof	_	_
11	baDZanA	baDZa	v	VM	lex-baDZa|cat-v|gen-any|num-any|pers-any|case-d|vib-nA|tam-nA|chunkId-VGNN|stype-|voicetype-	13	k2	_	_
12	SurU	SurU	n	NN	lex-SurU|cat-n|gen-m|num-sg|pers-3|case-d|vib-0|tam-0|chunkId-NP10|stype-|voicetype-	13	pof	_	_
13	kara	kara	v	VM	lex-kara|cat-v|gen-f|num-sg|pers-3|case-|vib-0_saka+wA_hE|tam-0|chunkId-VGF|stype-declarative|voicetype-active	0	main	_	_
14	.	.	punc	SYM	lex-.|cat-punc|gen-|num-|pers-|case-|vib-|tam-|chunkId-BLK|stype-|voicetype-	13	rsym	_	_

1	nirNaya	nirNaya	n	NN	lex-nirNaya|cat-n|gen-m|num-pl|pers-3|case-d|vib-0|tam-0|chunkId-NP|stype-|voicetype-	3	k2	_	_
2	vimarSa	vimarSa	n	NN	lex-vimarSa|cat-n|gen-m|num-sg|pers-3|case-o|vib-0_ke_bAxa|tam-0|chunkId-NP2|stype-|voicetype-	3	k7t	_	_
3	lie	le	v	VM	lex-le|cat-v|gen-m|num-pl|pers-3|case-|vib-yA_jA_raha+yA_hE|tam-yA|chunkId-VGF|stype-declarative|voicetype-passive	0	main	_	_
4	.	.	punc	SYM	lex-.|cat-punc|gen-|num-|pers-|case-|vib-|tam-|chunkId-BLK|stype-|voicetype-	3	rsym	_	_

1	sarakAra	sarakAra	n	NN	lex-sarakAra|cat-n|gen-f|num-sg|pers-3|case-o|vib-0_ne|tam-0|chunkId-NP|stype-|voicetype-	7	k1	_	_
2	unheM	vaha	pn	PRP	lex-vaha|cat-pn|gen-any|num-pl|pers-3|case-o|vib-ko|tam-ko|chunkId-NP2|stype-|voicetype-	4	k2	_	_
3	muxxoM	muxxA	n	NN	lex-muxxA|cat-n|gen-m|num-pl|pers-3|case-o|vib-0_para|tam-0|chunkId-NP3|stype-|voicetype-	4	k7	_	_
4	manAne	manA	v	VM	lex-manA|cat-v|gen-any|num-any|pers-any|case-o|vib-nA_meM|tam-nA|chunkId-VGNN|stype-|voicetype-	7	k7	_	_
5	kAmayAbI	kAmayAbI	n	NN	lex-kAmayAbI|cat-n|gen-f|num-sg|pers-3|case-d|vib-0|tam-0|chunkId-NP4|stype-|voicetype-	7	k2	_	_
6	hAsila	hAsila	adj	JJ	lex-hAsila|cat-adj|gen-any|num-any|pers-|case-|vib-|tam-|chunkId-JJP|stype-|voicetype-	7	pof	_	_
7	kI	kara	v	VM	lex-kara|cat-v|gen-f|num-sg|pers-3|case-|vib-yA_hE|tam-yA|chunkId-VGF|stype-declarative|voicetype-active	0	main	_	_
8	.	.	punc	SYM	lex-.|cat-punc|gen-|num-|pers-|case-|vib-|tam-|chunkId-BLK|stype-|voicetype-	7	rsym	_	_

1	cixaMbarama	cixaMbarama	n	NNP	lex-cixaMbarama|cat-n|gen-m|num-sg|pers-3|case-o|vib-0_ne|tam-0|chunkId-NP|stype-|voicetype-	2	k1	_	_
2	kahA	kaha	v	VM	lex-kaha|cat-v|gen-m|num-sg|pers-any|case-|vib-yA|tam-yA|chunkId-VGF|stype-declarative|voicetype-active	0	main	_	_
3	ki	ki	avy	CC	lex-ki|cat-avy|gen-|num-|pers-|case-|vib-|tam-|chunkId-CCP|stype-|voicetype-	2	k2	_	_
4	sarakAra	sarakAra	n	NN	lex-sarakAra|cat-n|gen-f|num-sg|pers-3|case-o|vib-0_ne|tam-0|chunkId-NP2|stype-|voicetype-	7	k1	_	_
5	mAmale	mAmalA	n	NN	lex-mAmalA|cat-n|gen-m|num-sg|pers-3|case-o|vib-0_meM|tam-0|chunkId-NP3|stype-|voicetype-	7	k7	_	_
6	nIwi	nIwi	n	NN	lex-nIwi|cat-n|gen-f|num-sg|pers-3|case-d|vib-0|tam-0|chunkId-NP4|stype-|voicetype-	7	k2	_	_
7	apanAI	apanA	v	VM	lex-apanA|cat-v|gen-f|num-sg|pers-3|case-|vib-yA_hE|tam-yA|chunkId-VGF2|stype-declarative|voicetype-active	3	ccof	_	_
8	.	.	punc	SYM	lex-.|cat-punc|gen-|num-|pers-|case-|vib-|tam-|chunkId-BLK|stype-|voicetype-	2	rsym	_	_

1	isase	yaha	pn	PRP	lex-yaha|cat-pn|gen-any|num-sg|pers-3|case-o|vib-se|tam-se|chunkId-NP|stype-|voicetype-	5	rh	_	_
2	rAjya	rAjya	n	NN	lex-rAjya|cat-n|gen-m|num-sg|pers-3|case-o|vib-0_meM|tam-0|chunkId-NP2|stype-|voicetype-	5	k7p	_	_
3	niveSa	niveSa	n	NN	lex-niveSa|cat-n|gen-m|num-sg|pers-3|case-d|vib-0|tam-0|chunkId-NP3|stype-|voicetype-	5	k1	_	_
4	SurU	SurU	n	NN	lex-SurU|cat-n|gen-m|num-sg|pers-3|case-d|vib-0|tam-0|chunkId-NP4|stype-|voicetype-	5	pof	_	_
5	ho	ho	v	VM	lex-ho|cat-v|gen-m|num-sg|pers-3|case-|vib-0_jA+yA1_hE|tam-0|chunkId-VGF|stype-declarative|voicetype-passive	0	main	_	_
6	.	.	punc	SYM	lex-.|cat-punc|gen-|num-|pers-|case-|vib-|tam-|chunkId-BLK|stype-|voicetype-	5	rsym	_	_

1	isake	yaha	pn	PRP	lex-yaha|cat-pn|gen-any|num-sg|pers-3|case-o|vib-ke_alAvA|tam-ke|chunkId-NP|stype-|voicetype-	5	vmod	_	_
2	xeSa	xeSa	n	NN	lex-xeSa|cat-n|gen-m|num-sg|pers-3|case-o|vib-0_meM|tam-0|chunkId-NP2|stype-|voicetype-	5	k7p	_	_
3	niveSa	niveSa	n	NN	lex-niveSa|cat-n|gen-m|num-sg|pers-3|case-o|vib-0_meM|tam-0|chunkId-NP3|stype-|voicetype-	5	k7	_	_
4	baDZowarI	baDZowarI	n	NN	lex-baDZowarI|cat-n|gen-f|num-sg|pers-3|case-d|vib-0|tam-0|chunkId-NP4|stype-|voicetype-	5	pof	_	_
5	huI	ho	v	VM	lex-ho|cat-v|gen-f|num-sg|pers-any|case-|vib-yA|tam-yA|chunkId-VGF|stype-declarative|voicetype-active	0	main	_	_
6	.	.	punc	SYM	lex-.|cat-punc|gen-|num-|pers-|case-|vib-|tam-|chunkId-BLK|stype-|voicetype-	5	rsym	_	_

1	KAsakara	KAsakara	adv	RB	lex-KAsakara|cat-adv|gen-|num-|pers-|case-|vib-|tam-|chunkId-RBP|stype-|voicetype-	7	adv	_	_
2	karnAtaka	karnAtaka	n	NNP	lex-karnAtaka|cat-n|gen-m|num-sg|pers-3|case-o|vib-0|tam-0|chunkId-NP|stype-|voicetype-	3	ccof	_	_
3	Ora	Ora	avy	CC	lex-Ora|cat-avy|gen-|num-|pers-|case-|vib-|tam-|chunkId-CCP|stype-|voicetype-	7	k7p	_	_
4	mahArARtra	mahArARtra	n	NNP	lex-mahArARtra|cat-n|gen-m|num-sg|pers-3|case-o|vib-0_meM|tam-0|chunkId-NP2|stype-|voicetype-	3	ccof	_	_
5	isameM	yaha	pn	PRP	lex-yaha|cat-pn|gen-any|num-sg|pers-3|case-o|vib-meM|tam-meM|chunkId-NP3|stype-|voicetype-	7	k7	_	_
6	ijAPA	ijAPA	n	NN	lex-ijAPA|cat-n|gen-m|num-sg|pers-3|case-d|vib-0|tam-0|chunkId-NP4|stype-|voicetype-	7	pof	_	_
7	huA	ho	v	VM	lex-ho|cat-v|gen-m|num-sg|pers-any|case-|vib-yA|tam-yA|chunkId-VGF|stype-declarative|voicetype-active	0	main	_	_
8	.	.	punc	SYM	lex-.|cat-punc|gen-|num-|pers-|case-|vib-|tam-|chunkId-BLK|stype-|voicetype-	7	rsym	_	_

