1	rAjaxUwa	rAjaxUwa	n	NN	lex-rAjaxUwa|cat-n|gen-m|num-sg|pers-3|case-o|vib-0|tam-0|chunkId-NP|stype-|voicetype-	2	nmod	_	_
2	yuksI	yuksI	n	NNP	lex-yuksI|cat-n|gen-m|num-sg|pers-3|case-o|vib-0_ne|tam-0|chunkId-NP2|stype-|voicetype-	5	k1	_	_
3	isakI	yaha	pn	PRP	lex-yaha|cat-pn|gen-f|num-sg|pers-3|case-o|vib-kA|tam-kA|chunkId-NP3|stype-|voicetype-	4	r6-k2	_	_
4	puRti	puRti	n	NN	lex-puRti|cat-n|gen-f|num-sg|pers-3|case-d|vib-0|tam-0|chunkId-NP4|stype-|voicetype-	5	pof	_	_
5	kI	kara	v	VM	lex-kara|cat-v|gen-f|num-sg|pers-3|case-|vib-yA_hE|tam-yA|chunkId-VGF|stype-declarative|voicetype-active	0	main	_	_
6	.	.	punc	SYM	lex-.|cat-punc|gen-|num-|pers-|case-|vib-|tam-|chunkId-BLK|stype-|voicetype-	5	rsym	_	_

1	yuksI	yuksI	n	NNP	lex-yuksI|cat-n|gen-m|num-sg|pers-3|case-o|vib-0_ne|tam-0|chunkId-NP|stype-|voicetype-	4	k1	_	_
2	saMpAxakoM	saMpAxaka	n	NN	lex-saMpAxaka|cat-n|gen-m|num-pl|pers-3|case-o|vib-0_ke_sAWa|tam-0|chunkId-NP2|stype-|voicetype-	4	ras-k1	_	_
3	mulAkAwa	mulAkAwa	n	NN	lex-mulAkAwa|cat-n|gen-f|num-sg|pers-3|case-o|vib-0_meM|tam-0|chunkId-NP3|stype-|voicetype-	4	k7	_	_
4	kahA	kaha	v	VM	lex-kaha|cat-v|gen-m|num-sg|pers-any|case-|vib-yA|tam-yA|chunkId-VGF|stype-declarative|voicetype-active	0	main	_	_
5	ki	ki	avy	CC	lex-ki|cat-avy|gen-|num-|pers-|case-|vib-|tam-|chunkId-CCP|stype-|voicetype-	4	k2	_	_
6	xeSoM	xeSa	n	NN	lex-xeSa|cat-n|gen-m|num-pl|pers-3|case-o|vib-0_ne|tam-0|chunkId-NP4|stype-|voicetype-	11	k1	_	_
7	apane	apanA	pn	PRP	lex-apanA|cat-pn|gen-m|num-any|pers-any|case-o|vib-0|tam-0|chunkId-NP5|stype-|voicetype-	8	r6	_	_
8	riSwe	riSwA	n	NN	lex-riSwA|cat-n|gen-m|num-sg|pers-3|case-o|vib-0_ko|tam-0|chunkId-NP6|stype-|voicetype-	9	k2	_	_
9	suXArane	suXAra	v	VM	lex-suXAra|cat-v|gen-any|num-sg|pers-any|case-o|vib-nA_kA|tam-nA|chunkId-VGNN|stype-|voicetype-	10	r6-k2	_	_
10	pahala	pahala	n	NN	lex-pahala|cat-n|gen-f|num-sg|pers-3|case-d|vib-0|tam-0|chunkId-NP7|stype-|voicetype-	11	pof	_	_
11	kI	kara	v	VM	lex-kara|cat-v|gen-f|num-sg|pers-3|case-|vib-yA_hE|tam-yA|chunkId-VGF2|stype-declarative|voicetype-active	5	ccof	_	_
12	.	.	punc	SYM	lex-.|cat-punc|gen-|num-|pers-|case-|vib-|tam-|chunkId-BLK|stype-|voicetype-	4	rsym	_	_

1	unhoMne	vaha	pn	PRP	lex-vaha|cat-pn|gen-any|num-sg|pers-3h|case-o|vib-ne|tam-ne|chunkId-NP|stype-|voicetype-	2	k1	_	_
2	bawAyA	bawA	v	VM	lex-bawA|cat-v|gen-m|num-sg|pers-any|case-|vib-yA|tam-yA|chunkId-VGF|stype-declarative|voicetype-active	0	main	_	_
3	ki	ki	avy	CC	lex-ki|cat-avy|gen-|num-|pers-|case-|vib-|tam-|chunkId-CCP|stype-|voicetype-	2	k2	_	_
4	BArawa	BArawa	n	NNP	lex-BArawa|cat-n|gen-m|num-sg|pers-3|case-o|vib-0_ke_sAWa|tam-0|chunkId-NP2|stype-|voicetype-	9	ras-k1	_	_
5	aByAsa	aByAsa	n	NN	lex-aByAsa|cat-n|gen-m|num-sg|pers-3|case-o|vib-0_ke_lie|tam-0|chunkId-NP3|stype-|voicetype-	9	rt	_	_
6	yuxGapowa	yuxGapowa	n	NN	lex-yuxGapowa|cat-n|gen-m|num-pl|pers-3|case-d|vib-0|tam-0|chunkId-NP4|stype-|voicetype-	9	k1	_	_
7	jalxa	jalxa	adv	RB	lex-jalxa|cat-adv|gen-|num-|pers-|case-|vib-|tam-|chunkId-RBP|stype-|voicetype-	9	adv	_	_
8	kocci	kocci	n	NNP	lex-kocci|cat-n|gen-m|num-sg|pers-3|case-d|vib-0|tam-0|chunkId-NP5|stype-|voicetype-	9	k2p	_	_
9	pahuMceMge	pahuMca	v	VM	lex-pahuMca|cat-v|gen-m|num-pl|pers-3|case-|vib-gA|tam-gA|chunkId-VGF2|stype-declarative|voicetype-active	3	ccof	_	_
10	.	.	punc	SYM	lex-.|cat-punc|gen-|num-|pers-|case-|vib-|tam-|chunkId-BLK|stype-|voicetype-	2	rsym	_	_

1	xeSoM	xeSa	n	NN	lex-xeSa|cat-n|gen-m|num-pl|pers-3|case-o|vib-0_ne|tam-0|chunkId-NP|stype-|voicetype-	9	k1	_	_
2	xUsare	xUsarA	pn	PRP	lex-xUsarA|cat-pn|gen-m|num-sg|pers-3|case-o|vib-0_kA|tam-0|chunkId-NP2|stype-|voicetype-	3	r6	_	_
3	kRamawA	kRamawA	n	NN	lex-kRamawA|cat-n|gen-f|num-sg|pers-3|case-o|vib-0_kA|tam-0|chunkId-NP3|stype-|voicetype-	4	r6	_	_
4	AMkalana	AMkalana	n	NN	lex-AMkalana|cat-n|gen-m|num-sg|pers-3|case-o|vib-0_ke_lie|tam-0|chunkId-NP4|stype-|voicetype-	7	rt	_	_
5	apane	apanA	pn	PRP	lex-apanA|cat-pn|gen-m|num-any|pers-any|case-d|vib-0|tam-0|chunkId-NP5|stype-|voicetype-	6	r6	_	_
6	paryavekRaka	paryavekRaka	n	NN	lex-paryavekRaka|cat-n|gen-m|num-pl|pers-3|case-d|vib-0|tam-0|chunkId-NP6|stype-|voicetype-	7	k2	_	_
7	Bejane	Beja	v	VM	lex-Beja|cat-v|gen-any|num-sg|pers-any|case-o|vib-nA_kA|tam-nA|chunkId-VGNN|stype-|voicetype-	8	r6-k2	_	_
8	PEsalA	PEsalA	n	NN	lex-PEsalA|cat-n|gen-m|num-sg|pers-3|case-d|vib-0|tam-0|chunkId-NP7|stype-|voicetype-	9	pof	_	_
9	kiyA	kara	v	VM	lex-kara|cat-v|gen-m|num-sg|pers-3|case-|vib-yA_hE|tam-yA|chunkId-VGF|stype-declarative|voicetype-active	0	main	_	_
10	.	.	punc	SYM	lex-.|cat-punc|gen-|num-|pers-|case-|vib-|tam-|chunkId-BLK|stype-|voicetype-	9	rsym	_	_

1	unhoMne	vaha	pn	PRP	lex-vaha|cat-pn|gen-any|num-sg|pers-3h|case-o|vib-ne|tam-ne|chunkId-NP|stype-|voicetype-	2	k1	_	_
2	kahA	kaha	v	VM	lex-kaha|cat-v|gen-m|num-sg|pers-any|case-|vib-yA|tam-yA|chunkId-VGF|stype-declarative|voicetype-active	0	main	_	_
3	ki	ki	avy	CC	lex-ki|cat-avy|gen-|num-|pers-|case-|vib-|tam-|chunkId-CCP|stype-|voicetype-	2	k2	_	_
4	bIjiMga	bIjiMga	n	NNP	lex-bIjiMga|cat-n|gen-m|num-sg|pers-3|case-d|vib-0|tam-0|chunkId-NP2|stype-|voicetype-	5	jjmod	_	_
5	sWiwa	sWiwa	adj	JJ	lex-sWiwa|cat-adj|gen-any|num-any|pers-|case-o|vib-|tam-|chunkId-JJP|stype-|voicetype-	6	nmod	_	_
6	prawiRTAna	prawiRTAna	n	NN	lex-prawiRTAna|cat-n|gen-m|num-sg|pers-3|case-o|vib-0_ne|tam-0|chunkId-NP3|stype-|voicetype-	14	k1	_	_
7	BArawa	BArawa	n	NNP	lex-BArawa|cat-n|gen-m|num-sg|pers-3|case-o|vib-0_ke_sAWa|tam-0|chunkId-NP4|stype-|voicetype-	14	ras-k1	_	_
8	sEnya	sEnya	adj	JJ	lex-sEnya|cat-adj|gen-any|num-any|pers-|case-d|vib-|tam-|chunkId-JJP2|stype-|voicetype-	9	ccof	_	_
9	va	va	avy	CC	lex-va|cat-avy|gen-|num-|pers-|case-|vib-|tam-|chunkId-CCP2|stype-|voicetype-	11	nmod	_	_
10	raNanIwika	raNanIwika	adj	JJ	lex-raNanIwika|cat-adj|gen-any|num-any|pers-|case-d|vib-|tam-|chunkId-JJP3|stype-|voicetype-	9	ccof	_	_
11	sahayoga	sahayoga	n	NN	lex-sahayoga|cat-n|gen-m|num-sg|pers-3|case-d|vib-0|tam-0|chunkId-NP5|stype-|voicetype-	12	k2	_	_
12	baDZAne	baDA	v	VM	lex-baDA|cat-v|gen-any|num-sg|pers-any|case-o|vib-nA_kA|tam-nA|chunkId-VGNN|stype-|voicetype-	13	r6	_	_
13	JaMdI	JaMdI	n	NN	lex-JaMdI|cat-n|gen-f|num-sg|pers-3|case-d|vib-0|tam-0|chunkId-NP6|stype-|voicetype-	14	k2	_	_
14	xe	xe	v	VM	lex-xe|cat-v|gen-f|num-sg|pers-3|case-|vib-0_xe+yA_hE|tam-0|chunkId-VGF2|stype-declarative|voicetype-active	3	ccof	_	_
15	.	.	punc	SYM	lex-.|cat-punc|gen-|num-|pers-|case-|vib-|tam-|chunkId-BLK|stype-|voicetype-	2	rsym	_	_

1	yuksI	yuksI	n	NNP	lex-yuksI|cat-n|gen-m|num-sg|pers-3|case-o|vib-0_ne|tam-0|chunkId-NP|stype-|voicetype-	2	k1	_	_
2	kahA	kaha	v	VM	lex-kaha|cat-v|gen-m|num-sg|pers-any|case-|vib-yA|tam-yA|chunkId-VGF|stype-declarative|voicetype-active	0	main	_	_
3	ki	ki	avy	CC	lex-ki|cat-avy|gen-|num-|pers-|case-|vib-|tam-|chunkId-CCP|stype-|voicetype-	2	k2	_	_
4	hamAre	hama	pn	PRP	lex-hama|cat-pn|gen-m|num-pl|pers-1|case-o|vib-kA|tam-kA|chunkId-NP2|stype-|voicetype-	5	r6	_	_
5	yuxGapowa	yuxGapowa	n	NN	lex-yuxGapowa|cat-n|gen-m|num-pl|pers-3|case-d|vib-0|tam-0|chunkId-NP3|stype-|voicetype-	8	k1	_	_
6	jalxa	jalxa	adv	RB	lex-jalxa|cat-adv|gen-|num-|pers-|case-|vib-|tam-|chunkId-RBP|stype-|voicetype-	8	adv	_	_
7	kocci	kocci	n	NNP	lex-kocci|cat-n|gen-m|num-sg|pers-3|case-d|vib-0|tam-0|chunkId-NP4|stype-|voicetype-	8	k2p	_	_
8	pahuMceMge	pahuMca	v	VM	lex-pahuMca|cat-v|gen-m|num-pl|pers-3|case-|vib-gA|tam-gA|chunkId-VGF2|stype-declarative|voicetype-active	3	ccof	_	_
9	.	.	punc	SYM	lex-.|cat-punc|gen-|num-|pers-|case-|vib-|tam-|chunkId-BLK|stype-|voicetype-	2	rsym	_	_

1	vahAM	vahAz	pn	PRP	lex-vahAz|cat-pn|gen-|num-|pers-|case-d|vib-|tam-|chunkId-NP|stype-|voicetype-	3	k7p	_	_
2	aByAsa	aByAsa	n	NN	lex-aByAsa|cat-n|gen-m|num-sg|pers-3|case-d|vib-0|tam-0|chunkId-NP2|stype-|voicetype-	3	k1	_	_
3	hogA	ho	v	VM	lex-ho|cat-v|gen-m|num-sg|pers-3|case-|vib-gA|tam-gA|chunkId-VGF|stype-declarative|voicetype-active	0	main	_	_
4	.	.	punc	SYM	lex-.|cat-punc|gen-|num-|pers-|case-|vib-|tam-|chunkId-BLK|stype-|voicetype-	3	rsym	_	_

1	unhoMne	vaha	pn	PRP	lex-vaha|cat-pn|gen-any|num-sg|pers-3h|case-o|vib-ne|tam-ne|chunkId-NP|stype-|voicetype-	2	k1	_	_
2	kahA	kaha	v	VM	lex-kaha|cat-v|gen-m|num-sg|pers-any|case-|vib-yA|tam-yA|chunkId-VGF|stype-declarative|voicetype-active	0	main	_	_
3	ki	ki	avy	CC	lex-ki|cat-avy|gen-|num-|pers-|case-|vib-|tam-|chunkId-CCP|stype-|voicetype-	2	k2	_	_
4	PilahAla	PilahAla	adv	RB	lex-PilahAla|cat-adv|gen-|num-|pers-|case-|vib-|tam-|chunkId-RBP|stype-|voicetype-	8	vmod	_	_
5	hama	hama	pn	PRP	lex-hama|cat-pn|gen-any|num-pl|pers-1|case-d|vib-0|tam-0|chunkId-NP2|stype-|voicetype-	8	k1	_	_
6	aByAsa	aByAsa	n	NN	lex-aByAsa|cat-n|gen-m|num-sg|pers-3|case-o|vib-0_kA|tam-0|chunkId-NP3|stype-|voicetype-	7	r6	_	_
7	wArIKa	wArIKa	n	NN	lex-wArIKa|cat-n|gen-f|num-sg|pers-3|case-o|vib-0_ke_bAre_meM|tam-0|chunkId-NP4|stype-|voicetype-	8	k7	_	_
8	kaha	kaha	v	VM	lex-kaha|cat-v|gen-any|num-pl|pers-any|case-|vib-0_saka+wA|tam-0|chunkId-VGF2|stype-declarative|voicetype-active	3	ccof	_	_
9	kyoMki	kyoMki	avy	CC	lex-kyoMki|cat-avy|gen-|num-|pers-|case-|vib-|tam-|chunkId-CCP2|stype-|voicetype-	8	rh	_	_
10	hameM	hama	pn	PRP	lex-hama|cat-pn|gen-any|num-pl|pers-1|case-o|vib-ko|tam-ko|chunkId-NP5|stype-|voicetype-	16	k4a	_	_
11	ise	yaha	pn	PRP	lex-yaha|cat-pn|gen-any|num-sg|pers-3|case-o|vib-ko|tam-ko|chunkId-NP6|stype-|voicetype-	12	k2	_	_
12	lekara	le	v	VM	lex-le|cat-v|gen-any|num-any|pers-any|case-|vib-kara|tam-kara|chunkId-VGF3|stype-declarative|voicetype-active	16	vmod	_	_
13	BArawa	BArawa	n	NNP	lex-BArawa|cat-n|gen-m|num-sg|pers-3|case-o|vib-0_kA|tam-0|chunkId-NP7|stype-|voicetype-	14	r6	_	_
14	javAba	javAba	n	NN	lex-javAba|cat-n|gen-m|num-sg|pers-3|case-o|vib-0_kA|tam-0|chunkId-NP8|stype-|voicetype-	15	r6	_	_
15	iMwajAra	iMwajAra	n	NN	lex-iMwajAra|cat-n|gen-m|num-sg|pers-3|case-d|vib-0|tam-0|chunkId-NP9|stype-|voicetype-	16	k1	_	_
16	hE	hE	v	VM	lex-hE|cat-v|gen-any|num-sg|pers-3|case-|vib-hE|tam-hE|chunkId-VGF4|stype-declarative|voicetype-active	9	ccof	_	_
17	.	.	punc	SYM	lex-.|cat-punc|gen-|num-|pers-|case-|vib-|tam-|chunkId-BLK|stype-|voicetype-	2	rsym	_	_

1	unhoMne	vaha	pn	PRP	lex-vaha|cat-pn|gen-any|num-sg|pers-3h|case-o|vib-ne|tam-ne|chunkId-NP|stype-|voicetype-	2	k1	_	_
2	kahA	kaha	v	VM	lex-kaha|cat-v|gen-m|num-sg|pers-any|case-|vib-yA|tam-yA|chunkId-VGF|stype-declarative|voicetype-active	0	main	_	_
3	ki	ki	avy	CC	lex-ki|cat-avy|gen-|num-|pers-|case-|vib-|tam-|chunkId-CCP|stype-|voicetype-	2	k2	_	_
4	BaviRya	BaviRya	n	NN	lex-BaviRya|cat-n|gen-m|num-sg|pers-3|case-o|vib-0_kA|tam-0|chunkId-NP2|stype-|voicetype-	5	r6	_	_
5	aByAsoM	aByAsa	n	NN	lex-aByAsa|cat-n|gen-m|num-pl|pers-3|case-o|vib-0_kA|tam-0|chunkId-NP3|stype-|voicetype-	6	r6	_	_
6	Pokasa	Pokasa	n	NN	lex-Pokasa|cat-n|gen-m|num-sg|pers-3|case-d|vib-0|tam-0|chunkId-NP4|stype-|voicetype-	11	k1	_	_
7	AwaMkavAxa	AwaMkavAxa	n	NN	lex-AwaMkavAxa|cat-n|gen-m|num-sg|pers-3|case-o|vib-0|tam-0|chunkId-NP5|stype-|voicetype-	8	ccof	_	_
8	Ora	Ora	avy	CC	lex-Ora|cat-avy|gen-|num-|pers-|case-|vib-|tam-|chunkId-CCP2|stype-|voicetype-	11	k2	_	_
9	xasyu	xasyu	n	NN	lex-xasyu|cat-n|gen-m|num-sg|pers-3|case-o|vib-0_se|tam-0|chunkId-NP6|stype-|voicetype-	8	ccof	_	_
10	ladZanA	lada	v	VM	lex-lada|cat-v|gen-any|num-any|pers-any|case-d|vib-nA|tam-nA|chunkId-VGNN|stype-|voicetype-	11	pof	_	_
11	honA	ho	v	VM	lex-ho|cat-v|gen-m|num-any|pers-any|case-|vib-nA_cAhie|tam-nA|chunkId-VGF2|stype-declarative|voicetype-active	3	ccof	_	_
12	.	.	punc	SYM	lex-.|cat-punc|gen-|num-|pers-|case-|vib-|tam-|chunkId-BLK|stype-|voicetype-	2	rsym	_	_

1	kocci	kocci	n	NNP	lex-kocci|cat-n|gen-m|num-sg|pers-3|case-o|vib-0_meM|tam-0|chunkId-NP|stype-|voicetype-	2	k7p	_	_
2	hone	ho	v	VM	lex-ho|cat-v|gen-any|num-sg|pers-any|case-o|vib-nA_vAlA|tam-nA|chunkId-VGNN|stype-|voicetype-	3	nmod	_	_
3	aByAsa	aByAsa	n	NN	lex-aByAsa|cat-n|gen-m|num-sg|pers-3|case-d|vib-0|tam-0|chunkId-NP2|stype-|voicetype-	7	k1	_	_
4	xeSoM	xeSa	n	NN	lex-xeSa|cat-n|gen-m|num-pl|pers-3|case-o|vib-0_ke_bIca|tam-0|chunkId-NP3|stype-|voicetype-	5	k7	_	_
5	hone	ho	v	VM	lex-ho|cat-v|gen-any|num-sg|pers-any|case-o|vib-nA_vAlA|tam-nA|chunkId-VGNN2|stype-|voicetype-	6	nmod	_	_
6	aByAsa	aByAsa	n	NN	lex-aByAsa|cat-n|gen-m|num-sg|pers-3|case-d|vib-0|tam-0|chunkId-NP4|stype-|voicetype-	7	k1s	_	_
7	hogA	ho	v	VM	lex-ho|cat-v|gen-m|num-sg|pers-3|case-|vib-gA|tam-gA|chunkId-VGF|stype-declarative|voicetype-active	0	main	_	_
8	.	.	punc	SYM	lex-.|cat-punc|gen-|num-|pers-|case-|vib-|tam-|chunkId-BLK|stype-|voicetype-	7	rsym	_	_

1	2003	2003	n	NNP	lex-2003|cat-n|gen-any|num-sg|pers-3|case-o|vib-0_meM|tam-0|chunkId-NP|stype-|voicetype-	7	k7t	_	_
2	wata	wata	n	NN	lex-wata|cat-n|gen-m|num-sg|pers-3|case-o|vib-0_ke_pAsa|tam-0|chunkId-NP2|stype-|voicetype-	7	k7p	_	_
3	BArawa	BArawa	n	NNP	lex-BArawa|cat-n|gen-m|num-sg|pers-3|case-o|vib-0|tam-0|chunkId-NP3|stype-|voicetype-	4	ccof	_	_
4	Ora	Ora	avy	CC	lex-Ora|cat-avy|gen-|num-|pers-|case-|vib-|tam-|chunkId-CCP|stype-|voicetype-	6	r6	_	_
5	cIna	cIna	n	NNP	lex-cIna|cat-n|gen-m|num-sg|pers-3|case-o|vib-0_kA|tam-0|chunkId-NP4|stype-|voicetype-	4	ccof	_	_
6	aByAsa	aByAsa	n	NN	lex-aByAsa|cat-n|gen-m|num-sg|pers-3|case-d|vib-0|tam-0|chunkId-NP5|stype-|voicetype-	7	k1	_	_
7	huA	ho	v	VM	lex-ho|cat-v|gen-m|num-sg|pers-any|case-|vib-yA_WA|tam-yA|chunkId-VGF|stype-declarative|voicetype-active	0	main	_	_
8	.	.	punc	SYM	lex-.|cat-punc|gen-|num-|pers-|case-|vib-|tam-|chunkId-BLK|stype-|voicetype-	7	rsym	_	_

1	aByAsa	aByAsa	n	NN	lex-aByAsa|cat-n|gen-m|num-sg|pers-3|case-o|vib-0_meM|tam-0|chunkId-NP|stype-|voicetype-	4	k7	_	_
2	yuxGapowoM	yuxGapowa	n	NN	lex-yuxGapowa|cat-n|gen-m|num-pl|pers-3|case-o|vib-0_ne|tam-0|chunkId-NP2|stype-|voicetype-	4	k1	_	_
3	hissA	hissA	n	NN	lex-hissA|cat-n|gen-m|num-sg|pers-3|case-d|vib-0|tam-0|chunkId-NP3|stype-|voicetype-	4	pof	_	_
4	liyA	le	v	VM	lex-le|cat-v|gen-m|num-sg|pers-any|case-|vib-yA_WA|tam-yA|chunkId-VGF|stype-declarative|voicetype-active	0	main	_	_
5	.	.	punc	SYM	lex-.|cat-punc|gen-|num-|pers-|case-|vib-|tam-|chunkId-BLK|stype-|voicetype-	4	rsym	_	_

1	yuksI	yuksI	n	NNP	lex-yuksI|cat-n|gen-m|num-sg|pers-3|case-o|vib-0_ne|tam-0|chunkId-NP|stype-|voicetype-	2	k1	_	_
2	kahA	kaha	v	VM	lex-kaha|cat-v|gen-m|num-sg|pers-any|case-|vib-yA|tam-yA|chunkId-VGF|stype-declarative|voicetype-active	0	main	_	_
3	ki	ki	avy	CC	lex-ki|cat-avy|gen-|num-|pers-|case-|vib-|tam-|chunkId-CCP|stype-|voicetype-	2	k2	_	_
4	BArawa	BArawa	n	NNP	lex-BArawa|cat-n|gen-m|num-sg|pers-3|case-o|vib-0_ke_sAWa|tam-0|chunkId-NP2|stype-|voicetype-	8	ras-k1	_	_
5	riSwe	riSwA	n	NN	lex-riSwA|cat-n|gen-m|num-pl|pers-3|case-d|vib-0|tam-0|chunkId-NP3|stype-|voicetype-	6	k2	_	_
6	suXArane	suXAra	v	VM	lex-suXAra|cat-v|gen-any|num-any|pers-any|case-o|vib-nA_ke_lie|tam-nA|chunkId-VGNN|stype-|voicetype-	8	rt	_	_
7	pahala	pahala	n	NN	lex-pahala|cat-n|gen-f|num-pl|pers-3|case-d|vib-0|tam-0|chunkId-NP4|stype-|voicetype-	8	pof	_	_
8	kI	kara	v	VM	lex-kara|cat-v|gen-f|num-pl|pers-3|case-|vib-yA_jA+gA|tam-yA|chunkId-VGF2|stype-declarative|voicetype-passive	3	ccof	_	_
9	.	.	punc	SYM	lex-.|cat-punc|gen-|num-|pers-|case-|vib-|tam-|chunkId-BLK|stype-|voicetype-	2	rsym	_	_

1	unhoMne	vaha	pn	PRP	lex-vaha|cat-pn|gen-any|num-sg|pers-3h|case-o|vib-ne|tam-ne|chunkId-NP|stype-|voicetype-	2	k1	_	_
2	kahA	kaha	v	VM	lex-kaha|cat-v|gen-m|num-sg|pers-any|case-|vib-yA|tam-yA|chunkId-VGF|stype-declarative|voicetype-active	0	main	_	_
3	ki	ki	avy	CC	lex-ki|cat-avy|gen-|num-|pers-|case-|vib-|tam-|chunkId-CCP|stype-|voicetype-	2	k2	_	_
4	hAla	hAla	n	NN	lex-hAla|cat-n|gen-m|num-sg|pers-3|case-o|vib-0_kA|tam-0|chunkId-NP2|stype-|voicetype-	5	r6	_	_
5	mahInoM	mahInA	n	NN	lex-mahInA|cat-n|gen-m|num-pl|pers-3|case-o|vib-0_meM|tam-0|chunkId-NP3|stype-|voicetype-	9	k7t	_	_
6	xeSoM	xeSa	n	NN	lex-xeSa|cat-n|gen-m|num-pl|pers-3|case-o|vib-0_ke_bIca|tam-0|chunkId-NP4|stype-|voicetype-	9	k7	_	_
7	riSwe	riSwA	n	NN	lex-riSwA|cat-n|gen-m|num-sg|pers-3|case-o|vib-0_meM|tam-0|chunkId-NP5|stype-|voicetype-	9	k7	_	_
8	garamAhata	garamAhata	n	NN	lex-garamAhata|cat-n|gen-f|num-sg|pers-3|case-d|vib-0|tam-0|chunkId-NP6|stype-|voicetype-	9	k1	_	_
9	AI	A	v	VM	lex-A|cat-v|gen-f|num-sg|pers-3|case-|vib-yA_hE|tam-yA|chunkId-VGF2|stype-declarative|voicetype-active	3	ccof	_	_
10	.	.	punc	SYM	lex-.|cat-punc|gen-|num-|pers-|case-|vib-|tam-|chunkId-BLK|stype-|voicetype-	2	rsym	_	_

1	unhoMne	vaha	pn	PRP	lex-vaha|cat-pn|gen-any|num-sg|pers-3h|case-o|vib-ne|tam-ne|chunkId-NP|stype-|voicetype-	2	k1	_	_
2	kahA	kaha	v	VM	lex-kaha|cat-v|gen-m|num-sg|pers-any|case-|vib-yA|tam-yA|chunkId-VGF|stype-declarative|voicetype-active	0	main	_	_
3	ki	ki	avy	CC	lex-ki|cat-avy|gen-|num-|pers-|case-|vib-|tam-|chunkId-CCP|stype-|voicetype-	2	k2	_	_
4	mEM	mEM	pn	PRP	lex-mEM|cat-pn|gen-any|num-sg|pers-1|case-d|vib-0|tam-0|chunkId-NP2|stype-|voicetype-	9	k1	_	_
5	BArawa	BArawa	n	NNP	lex-BArawa|cat-n|gen-m|num-sg|pers-3|case-o|vib-0_meM|tam-0|chunkId-NP3|stype-|voicetype-	9	k7p	_	_
6	rAjaxUwa	rAjaxUwa	n	NN	lex-rAjaxUwa|cat-n|gen-m|num-sg|pers-3|case-d|vib-0_bawOra|tam-0|chunkId-NP4|stype-|voicetype-	9	k1s	_	_
7	sAla	sAla	n	NN	lex-sAla|cat-n|gen-m|num-sg|pers-3|case-d|vib-0|tam-0|chunkId-NP5|stype-|voicetype-	9	k7t	_	_
8	niyukwa	niyukwa	adj	JJ	lex-niyukwa|cat-adj|gen-any|num-any|pers-|case-|vib-|tam-|chunkId-JJP|stype-|voicetype-	9	pof	_	_
9	huA	ho	v	VM	lex-ho|cat-v|gen-m|num-sg|pers-any|case-|vib-yA|tam-yA|chunkId-VGF2|stype-declarative|voicetype-active	10	ccof	_	_
10	Ora	Ora	avy	CC	lex-Ora|cat-avy|gen-|num-|pers-|case-|vib-|tam-|chunkId-CCP2|stype-|voicetype-	3	ccof	_	_
11	waba	waba	pn	PRP	lex-waba|cat-pn|gen-|num-|pers-|case-o|vib-0_se_lekara|tam-|chunkId-NP6|stype-|voicetype-	12	rsp	_	_
12	aba	aba	pn	PRP	lex-aba|cat-pn|gen-|num-|pers-|case-o|vib-0_waka|tam-|chunkId-NP7|stype-|voicetype-	20	k7t	_	_
13	cIna	cIna	n	NNP	lex-cIna|cat-n|gen-m|num-sg|pers-3|case-o|vib-0_kA|tam-0|chunkId-NP8|stype-|voicetype-	14	r6	_	_
14	xarjana	xarjana	n	NN	lex-xarjana|cat-n|gen-m|num-sg|pers-3|case-o|vib-0_se|tam-0|chunkId-NP9|stype-|voicetype-	15	jjmod	_	_
15	aXika	aXika	avy	QF	lex-aXika|cat-avy|gen-|num-|pers-|case-|vib-|tam-|chunkId-NP10|stype-|voicetype-	16	nmod	_	_
16	janaraloM	janarala	n	NN	lex-janarala|cat-n|gen-m|num-pl|pers-3|case-o|vib-0_kA|tam-0|chunkId-NP11|stype-|voicetype-	19	r6	_	_
17	mEM	mEM	pn	PRP	lex-mEM|cat-pn|gen-any|num-sg|pers-1|case-d|vib-0|tam-0|chunkId-NP12|stype-|voicetype-	20	k1	_	_
18	BArawa	BArawa	n	NNP	lex-BArawa|cat-n|gen-m|num-sg|pers-3|case-o|vib-0_meM|tam-0|chunkId-NP13|stype-|voicetype-	20	k7p	_	_
19	svAgawa	svAgawa	n	NN	lex-svAgawa|cat-n|gen-m|num-sg|pers-3|case-d|vib-0|tam-0|chunkId-NP14|stype-|voicetype-	20	pof	_	_
20	kara	kara	v	VM	lex-kara|cat-v|gen-m|num-sg|pers-1|case-|vib-0_cuka+yA_hE|tam-0|chunkId-VGF3|stype-declarative|voicetype-active	10	ccof	_	_
21	.	.	punc	SYM	lex-.|cat-punc|gen-|num-|pers-|case-|vib-|tam-|chunkId-BLK|stype-|voicetype-	2	rsym	_	_

1	yahAM	yahAz	pn	PRP	lex-yahAz|cat-pn|gen-|num-|pers-|case-o|vib-0_waka|tam-|chunkId-NP|stype-|voicetype-	6	sent-adv	_	_
2	cIna	cIna	n	NNP	lex-cIna|cat-n|gen-m|num-sg|pers-3|case-o|vib-0_kA|tam-0|chunkId-NP2|stype-|voicetype-	3	r6	_	_
3	stAPa	stAPa	n	NN	lex-stAPa|cat-n|gen-m|num-sg|pers-3|case-d|vib-0|tam-0|chunkId-NP3|stype-|voicetype-	6	k1	_	_
4	BArawa	BArawa	n	NNP	lex-BArawa|cat-n|gen-m|num-sg|pers-3|case-o|vib-0_kA|tam-0|chunkId-NP4|stype-|voicetype-	5	r6-k2	_	_
5	xOrA	xOrA	n	NN	lex-xOrA|cat-n|gen-m|num-sg|pers-3|case-d|vib-0|tam-0|chunkId-NP5|stype-|voicetype-	6	pof	_	_
6	kara	kara	v	VM	lex-kara|cat-v|gen-m|num-sg|pers-3h|case-|vib-0_cuka+yA_hE|tam-0|chunkId-VGF|stype-declarative|voicetype-active	0	main	_	_
7	.	.	punc	SYM	lex-.|cat-punc|gen-|num-|pers-|case-|vib-|tam-|chunkId-BLK|stype-|voicetype-	6	rsym	_	_

1	hAla	hAla	n	NN	lex-hAla|cat-n|gen-m|num-sg|pers-3|case-o|vib-0_meM|tam-0|chunkId-NP|stype-|voicetype-	7	k7	_	_
2	rUsa	rUsa	n	NNP	lex-rUsa|cat-n|gen-m|num-sg|pers-3|case-o|vib-0_ke_sAWa|tam-0|chunkId-NP2|stype-|voicetype-	7	ras-k2	_	_
3	aByAsa	aByAsa	n	NN	lex-aByAsa|cat-n|gen-m|num-sg|pers-3|case-o|vib-0_meM|tam-0|chunkId-NP3|stype-|voicetype-	7	k7	_	_
4	hamane	hama	pn	PRP	lex-hama|cat-pn|gen-any|num-pl|pers-1|case-o|vib-ne|tam-ne|chunkId-NP4|stype-|voicetype-	7	k1	_	_
5	paryavekRakoM	paryavekRaka	n	NN	lex-paryavekRaka|cat-n|gen-m|num-pl|pers-3|case-o|vib-0_ko|tam-0|chunkId-NP5|stype-|voicetype-	7	k2	_	_
6	AmaMwriwa	AmaMwriwa	adj	JJ	lex-AmaMwriwa|cat-adj|gen-any|num-any|pers-|case-|vib-|tam-|chunkId-JJP|stype-|voicetype-	7	pof	_	_
7	kiyA	kara	v	VM	lex-kara|cat-v|gen-m|num-sg|pers-any|case-|vib-yA_WA|tam-yA|chunkId-VGF|stype-declarative|voicetype-active	0	main	_	_
8	.	.	punc	SYM	lex-.|cat-punc|gen-|num-|pers-|case-|vib-|tam-|chunkId-BLK|stype-|voicetype-	7	rsym	_	_

