1	kAMgresa	kAMgresa	n	NNP	lex-kAMgresa|cat-n|gen-f|num-sg|pers-3|case-d|vib-0|tam-0|chunkId-NP|stype-|voicetype-	8	k1	_	_
2	pArtI	pArtI	n	NNP	lex-pArtI|cat-n|gen-f|num-sg|pers-3|case-o|vib-0|tam-0|chunkId-NP2|stype-|voicetype-	4	r6	_	_
3	sapA	sapA	n	NNP	lex-sapA|cat-n|gen-f|num-sg|pers-3|case-o|vib-0|tam-0|chunkId-NP3|stype-|voicetype-	2	rs	_	_
4	sAMsaxa	sAMsaxa	n	NN	lex-sAMsaxa|cat-n|gen-m|num-sg|pers-3|case-o|vib-0|tam-0|chunkId-NP4|stype-|voicetype-	5	nmod	_	_
5	babbara	babbara	n	NNP	lex-babbara|cat-n|gen-any|num-sg|pers-3|case-o|vib-0_kA|tam-0|chunkId-NP5|stype-|voicetype-	6	r6	_	_
6	samarWana	samarWana	n	NN	lex-samarWana|cat-n|gen-m|num-sg|pers-3|case-o|vib-0_meM|tam-0|chunkId-NP6|stype-|voicetype-	8	k7	_	_
7	Kulakara	Kulakara	adv	RB	lex-Kulakara|cat-adv|gen-|num-|pers-|case-|vib-|tam-|chunkId-RBP|stype-|voicetype-	8	vmod	_	_
8	A	A	v	VM	lex-A|cat-v|gen-f|num-sg|pers-3|case-|vib-0_jA+yA1_hE|tam-0|chunkId-VGF|stype-declarative|voicetype-active	0	main	_	_
9	.	.	punc	SYM	lex-.|cat-punc|gen-|num-|pers-|case-|vib-|tam-|chunkId-BLK|stype-|voicetype-	8	rsym	_	_

1	pArtI	pArtI	n	NNP	lex-pArtI|cat-n|gen-f|num-sg|pers-3|case-o|vib-0_ke_prawi|tam-0|chunkId-NP|stype-|voicetype-	5	rd	_	_
2	babbara	babbara	n	NNP	lex-babbara|cat-n|gen-any|num-sg|pers-3|case-o|vib-0_kA|tam-0|chunkId-NP2|stype-|voicetype-	3	r6	_	_
3	gusse	gussA	n	NN	lex-gussA|cat-n|gen-m|num-sg|pers-3|case-o|vib-0_ko|tam-0|chunkId-NP3|stype-|voicetype-	5	k2	_	_
4	jAyaja	jAyaja	adj	JJ	lex-jAyaja|cat-adj|gen-any|num-any|pers-|case-|vib-|tam-|chunkId-JJP|stype-|voicetype-	5	pof	_	_
5	TaharAwe	TaharA	v	VM	lex-TaharA|cat-v|gen-m|num-sg|pers-any|case-|vib-wA_ho+yA|tam-wA|chunkId-VGNF|stype-|voicetype-	11	vmod	_	_
6	kAMgresa	kAMgresa	n	NNP	lex-kAMgresa|cat-n|gen-f|num-sg|pers-3|case-d|vib-0|tam-0|chunkId-NP4|stype-|voicetype-	11	k1	_	_
7	yaha	yaha	pn	PRP	lex-yaha|cat-pn|gen-any|num-sg|pers-3|case-d|vib-0|tam-0|chunkId-NP5|stype-|voicetype-	9	k2	_	_
8	sAbiwa	sAbiwa	adj	JJ	lex-sAbiwa|cat-adj|gen-any|num-any|pers-|case-|vib-|tam-|chunkId-JJP2|stype-|voicetype-	9	pof	_	_
9	karane	kara	v	VM	lex-kara|cat-v|gen-any|num-sg|pers-any|case-o|vib-nA_kA|tam-nA|chunkId-VGNN|stype-|voicetype-	10	r6-k2	_	_
10	koSiSa	koSiSa	n	NN	lex-koSiSa|cat-n|gen-f|num-sg|pers-3|case-d|vib-0|tam-0|chunkId-NP6|stype-|voicetype-	11	pof	_	_
11	kara	kara	v	VM	lex-kara|cat-v|gen-f|num-sg|pers-3|case-|vib-0_raha+yA_hE|tam-0|chunkId-VGF|stype-declarative|voicetype-active	0	main	_	_
12	ki	ki	avy	CC	lex-ki|cat-avy|gen-|num-|pers-|case-|vib-|tam-|chunkId-CCP|stype-|voicetype-	11	k2	_	_
13	hAWI	hAWI	n	NN	lex-hAWI|cat-n|gen-m|num-sg|pers-3|case-o|vib-0_kA_waraha|tam-0|chunkId-NP7|stype-|voicetype-	18	k1u	_	_
14	sapA	sapA	n	NNP	lex-sapA|cat-n|gen-f|num-sg|pers-3|case-o|vib-0_kA|tam-0|chunkId-NP8|stype-|voicetype-	15	r6	_	_
15	KAne	KA	v	VM	lex-KA|cat-v|gen-any|num-pl|pers-any|case-o|vib-nA_kA|tam-nA|chunkId-VGNN2|stype-|voicetype-	16	r6	_	_
16	xAMwa	xAMwa	n	NN	lex-xAMwa|cat-n|gen-f|num-pl|pers-3|case-d|vib-0|tam-0|chunkId-NP9|stype-|voicetype-	18	k1	_	_
17	Ora	Ora	adj	JJ	lex-Ora|cat-adj|gen-any|num-any|pers-|case-|vib-|tam-|chunkId-JJP3|stype-|voicetype-	18	adv	_	_
18	hEM	hE	v	VM	lex-hE|cat-v|gen-any|num-pl|pers-3|case-|vib-hE|tam-hE|chunkId-VGF2|stype-declarative|voicetype-active	19	ccof	_	_
19	va	va	avy	CC	lex-va|cat-avy|gen-|num-|pers-|case-|vib-|tam-|chunkId-CCP2|stype-|voicetype-	12	ccof	_	_
20	xiKAne	xiKA	v	VM	lex-xiKA|cat-v|gen-any|num-pl|pers-any|case-o|vib-nA_kA|tam-nA|chunkId-VGNN3|stype-|voicetype-	21	r6	_	_
21	NULL	_	n	NN	lex-_|cat-n|gen-|num-|pers-|case-|vib-|tam-|chunkId-NULL__NP|stype-|voicetype-	23	k1	_	_
22	Ora	Ora	adj	JJ	lex-Ora|cat-adj|gen-any|num-any|pers-|case-|vib-|tam-|chunkId-JJP4|stype-|voicetype-	23	adv	_	_
23	NULL	_	v	VM	lex-_|cat-v|gen-|num-|pers-|case-|vib-|tam-|chunkId-NULL__VGF|stype-|voicetype-	19	ccof	_	_
24	.	.	punc	SYM	lex-.|cat-punc|gen-|num-|pers-|case-|vib-|tam-|chunkId-BLK|stype-|voicetype-	11	rsym	_	_

1	kAMgresa	kAMgresa	n	NNP	lex-kAMgresa|cat-n|gen-f|num-sg|pers-3|case-o|vib-0_ne|tam-0|chunkId-NP|stype-|voicetype-	2	k1	_	_
2	kahA	kaha	v	VM	lex-kaha|cat-v|gen-m|num-sg|pers-3|case-|vib-yA_hE|tam-yA|chunkId-VGF|stype-declarative|voicetype-active	0	main	_	_
3	ki	ki	avy	CC	lex-ki|cat-avy|gen-|num-|pers-|case-|vib-|tam-|chunkId-CCP|stype-|voicetype-	2	k2	_	_
4	babbara	babbara	n	NNP	lex-babbara|cat-n|gen-any|num-sg|pers-3|case-d|vib-0|tam-0|chunkId-NP2|stype-|voicetype-	11	k1	_	_
5	xinoM	xina	n	NN	lex-xina|cat-n|gen-m|num-pl|pers-3|case-o|vib-0_se|tam-0|chunkId-NP3|stype-|voicetype-	11	k7t	_	_
6	sapA	sapA	n	NNP	lex-sapA|cat-n|gen-f|num-sg|pers-3|case-o|vib-0_ke_aMxara|tam-0|chunkId-NP4|stype-|voicetype-	7	k7	_	_
7	cala	cala	v	VM	lex-cala|cat-v|gen-any|num-sg|pers-any|case-|vib-0_raha+yA|tam-0|chunkId-VGNF|stype-|voicetype-	8	nmod__k1inv	_	_
8	aMwarviroXa	aMwarviroXa	n	NN	lex-aMwarviroXa|cat-n|gen-m|num-sg|pers-3|case-o|vib-0_ke_KilAPa|tam-0|chunkId-NP5|stype-|voicetype-	11	vmod	_	_
9	AvAja	AvAja	n	NN	lex-AvAja|cat-n|gen-f|num-sg|pers-3|case-d|vib-0|tam-0|chunkId-NP6|stype-|voicetype-	11	k2	_	_
10	bulaMxa	bulaMxa	adj	JJ	lex-bulaMxa|cat-adj|gen-any|num-any|pers-|case-|vib-|tam-|chunkId-JJP|stype-|voicetype-	11	pof	_	_
11	karawe	kara	v	VM	lex-kara|cat-v|gen-m|num-sg|pers-3h|case-|vib-wA_raha+yA_hE|tam-wA|chunkId-VGF2|stype-declarative|voicetype-active	3	ccof	_	_
12	.	.	punc	SYM	lex-.|cat-punc|gen-|num-|pers-|case-|vib-|tam-|chunkId-BLK|stype-|voicetype-	2	rsym	_	_

1	para	para	avy	CC	lex-para|cat-avy|gen-|num-|pers-|case-|vib-|tam-|chunkId-CCP|stype-|voicetype-	0	main	_	_
2	bAwa	bAwa	n	NN	lex-bAwa|cat-n|gen-f|num-sg|pers-3|case-o|vib-0_ko|tam-0|chunkId-NP|stype-|voicetype-	5	k2	_	_
3	niraMwara	niranwara	adv	RB	lex-niranwara|cat-adv|gen-|num-|pers-|case-|vib-|tam-|chunkId-RBP|stype-|voicetype-	5	adv	_	_
4	anasunA	anasunA	adj	JJ	lex-anasunA|cat-adj|gen-m|num-sg|pers-|case-|vib-|tam-|chunkId-JJP|stype-|voicetype-	5	pof	_	_
5	kie	kara	v	VM	lex-kara|cat-v|gen-any|num-sg|pers-any|case-|vib-yA_jA+nA_para|tam-yA|chunkId-VGNN|stype-|voicetype-	9	k7	_	_
6	unheM	vaha	pn	PRP	lex-vaha|cat-pn|gen-any|num-sg|pers-3h|case-o|vib-ko|tam-ko|chunkId-NP2|stype-|voicetype-	9	k1	_	_
7	KuleAma	KuleAma	adv	RB	lex-KuleAma|cat-adv|gen-|num-|pers-|case-|vib-|tam-|chunkId-RBP2|stype-|voicetype-	9	adv	_	_
8	morcA	morcA	n	NN	lex-morcA|cat-n|gen-m|num-sg|pers-3|case-d|vib-0|tam-0|chunkId-NP3|stype-|voicetype-	9	k2	_	_
9	saMBAlanA	saMBAla	v	VM	lex-saMBAla|cat-v|gen-m|num-sg|pers-any|case-|vib-nA_pada+yA|tam-nA|chunkId-VGF|stype-declarative|voicetype-active	1	ccof	_	_
10	.	.	punc	SYM	lex-.|cat-punc|gen-|num-|pers-|case-|vib-|tam-|chunkId-BLK|stype-|voicetype-	1	rsym	_	_

1	pArtI	pArtI	n	NN	lex-pArtI|cat-n|gen-f|num-sg|pers-3|case-o|vib-0_kA|tam-0|chunkId-NP|stype-|voicetype-	2	k1	_	_
2	kahanA	kaha	v	VM	lex-kaha|cat-v|gen-any|num-any|pers-any|case-d|vib-nA|tam-nA|chunkId-VGNN|stype-|voicetype-	3	k1	_	_
3	hE	hE	v	VM	lex-hE|cat-v|gen-any|num-sg|pers-3|case-|vib-hE|tam-hE|chunkId-VGF|stype-declarative|voicetype-active	0	main	_	_
4	ki	ki	avy	CC	lex-ki|cat-avy|gen-|num-|pers-|case-|vib-|tam-|chunkId-CCP|stype-|voicetype-	2	k2	_	_
5	babbara	babbara	n	NNP	lex-babbara|cat-n|gen-any|num-sg|pers-3|case-o|vib-0_kA|tam-0|chunkId-NP2|stype-|voicetype-	6	r6	_	_
6	nArAjagI	nArAjagI	n	NN	lex-nArAjagI|cat-n|gen-f|num-sg|pers-3|case-o|vib-0_se|tam-0|chunkId-NP3|stype-|voicetype-	11	adv	_	_
7	newAoM	newA	n	NN	lex-newA|cat-n|gen-m|num-pl|pers-3|case-o|vib-0_kA|tam-0|chunkId-NP4|stype-|voicetype-	8	r6-k1	_	_
8	pareSAna	pareSAna	adj	JJ	lex-pareSAna|cat-adj|gen-any|num-any|pers-|case-|vib-|tam-|chunkId-JJP|stype-|voicetype-	9	pof	_	_
9	honA	ho	v	VM	lex-ho|cat-v|gen-any|num-any|pers-any|case-d|vib-nA|tam-nA|chunkId-VGNN2|stype-|voicetype-	11	k1	_	_
10	lAjimI	lAjimI	adj	JJ	lex-lAjimI|cat-adj|gen-any|num-any|pers-|case-|vib-|tam-|chunkId-JJP2|stype-|voicetype-	11	k1s	_	_
11	hE	hE	v	VM	lex-hE|cat-v|gen-any|num-sg|pers-3|case-|vib-hE|tam-hE|chunkId-VGF2|stype-declarative|voicetype-active	4	ccof	_	_
12	.	.	punc	SYM	lex-.|cat-punc|gen-|num-|pers-|case-|vib-|tam-|chunkId-BLK|stype-|voicetype-	3	rsym	_	_

1	pArtI	pArtI	n	NN	lex-pArtI|cat-n|gen-f|num-sg|pers-3|case-d|vib-0|tam-0|chunkId-NP|stype-|voicetype-	6	k1	_	_
2	unase	vaha	pn	PRP	lex-vaha|cat-pn|gen-any|num-sg|pers-3h|case-o|vib-se|tam-se|chunkId-NP2|stype-|voicetype-	6	jk1	_	_
3	samAjavAxa	samAjavAxa	n	NNP	lex-samAjavAxa|cat-n|gen-m|num-sg|pers-3|case-o|vib-0_kA|tam-0|chunkId-NP3|stype-|voicetype-	4	r6	_	_
4	pakRa	pakRa	n	NN	lex-pakRa|cat-n|gen-m|num-sg|pers-3|case-o|vib-0_meM|tam-0|chunkId-NP4|stype-|voicetype-	6	k7	_	_
5	nArA	nArA	n	NN	lex-nArA|cat-n|gen-m|num-sg|pers-3|case-d|vib-0|tam-0|chunkId-NP5|stype-|voicetype-	6	k2	_	_
6	lagavAwI	laga	v	VM	lex-laga|cat-v|gen-f|num-sg|pers-3|case-|vib-wA_raha+yA_hE|tam-wA|chunkId-VGF|stype-declarative|voicetype-active	0	main	_	_
7	.	.	punc	SYM	lex-.|cat-punc|gen-|num-|pers-|case-|vib-|tam-|chunkId-BLK|stype-|voicetype-	6	rsym	_	_

1	kAMgresa	kAMgresa	n	NNP	lex-kAMgresa|cat-n|gen-f|num-sg|pers-3|case-o|vib-0_ne|tam-0|chunkId-NP|stype-|voicetype-	3	k1	_	_
2	Aropa	Aropa	n	NN	lex-Aropa|cat-n|gen-m|num-sg|pers-3|case-d|vib-0|tam-0|chunkId-NP2|stype-|voicetype-	3	k2	_	_
3	lagAyA	lagA	v	VM	lex-lagA|cat-v|gen-m|num-sg|pers-3|case-|vib-yA_hE|tam-yA|chunkId-VGF|stype-declarative|voicetype-active	0	main	_	_
4	ki	ki	avy	CC	lex-ki|cat-avy|gen-|num-|pers-|case-|vib-|tam-|chunkId-CCP|stype-|voicetype-	2	rs	_	_
5	samAjavAxa	samAjavAxa	n	NN	lex-samAjavAxa|cat-n|gen-m|num-sg|pers-3|case-d|vib-0|tam-0|chunkId-NP3|stype-|voicetype-	8	k1	_	_
6	gAMva	gAzva	n	NN	lex-gAzva|cat-n|gen-m|num-sg|pers-3|case-o|vib-0_waka|tam-0|chunkId-NP4|stype-|voicetype-	7	k7p	_	_
7	Tahara	Tahara	v	VM	lex-Tahara|cat-v|gen-any|num-any|pers-any|case-|vib-0_kara|tam-0|chunkId-VGNF|stype-|voicetype-	8	vmod	_	_
8	raha	raha	v	VM	lex-raha|cat-v|gen-m|num-sg|pers-3|case-|vib-0_jA+yA1_hE|tam-0|chunkId-VGF2|stype-declarative|voicetype-active	4	ccof	_	_
9	.	.	punc	SYM	lex-.|cat-punc|gen-|num-|pers-|case-|vib-|tam-|chunkId-BLK|stype-|voicetype-	3	rsym	_	_

1	logoM	loga	n	NN	lex-loga|cat-n|gen-m|num-pl|pers-3|case-o|vib-0_kA|tam-0|chunkId-NP|stype-|voicetype-	2	r6	_	_
2	AbAxI	AbAxI	n	NN	lex-AbAxI|cat-n|gen-f|num-sg|pers-3|case-o|vib-0_vAlA|tam-0|chunkId-NP2|stype-|voicetype-	3	nmod	_	_
3	gAMva	gAzva	n	NN	lex-gAzva|cat-n|gen-m|num-sg|pers-3|case-o|vib-0_para|tam-0|chunkId-NP3|stype-|voicetype-	5	k7p	_	_
4	rupaye	rupayA	n	NN	lex-rupayA|cat-n|gen-m|num-pl|pers-3|case-d|vib-0|tam-0|chunkId-NP4|stype-|voicetype-	5	k2	_	_
5	Karca	Karca	v	VM	lex-Karca|cat-v|gen-m|num-pl|pers-3|case-|vib-0_kara+yA_jA_raha+yA_hE|tam-0|chunkId-VGF|stype-declarative|voicetype-passive	0	main	_	_
6	.	.	punc	SYM	lex-.|cat-punc|gen-|num-|pers-|case-|vib-|tam-|chunkId-BLK|stype-|voicetype-	5	rsym	_	_

1	waraPa	waraPa	nst	NST	lex-waraPa|cat-nst|gen-f|num-sg|pers-3|case-d|vib-|tam-|chunkId-NP|stype-|voicetype-	5	rd	_	_
2	praxeSa	praxeSa	n	NNP	lex-praxeSa|cat-n|gen-m|num-sg|pers-3|case-o|vib-0_meM|tam-0|chunkId-NP2|stype-|voicetype-	5	k7	_	_
3	loga	loga	n	NN	lex-loga|cat-n|gen-m|num-pl|pers-3|case-d|vib-0|tam-0|chunkId-NP3|stype-|voicetype-	5	k1	_	_
4	cIjoM	cIja	n	NN	lex-cIja|cat-n|gen-f|num-pl|pers-3|case-o|vib-0_ke_lie|tam-0|chunkId-NP4|stype-|voicetype-	5	rt	_	_
5	warasa	warasa	v	VM	lex-warasa|cat-v|gen-m|num-pl|pers-3|case-|vib-0_raha+yA_hE|tam-0|chunkId-VGF|stype-declarative|voicetype-active	0	main	_	_
6	.	.	punc	SYM	lex-.|cat-punc|gen-|num-|pers-|case-|vib-|tam-|chunkId-BLK|stype-|voicetype-	5	rsym	_	_

1	sapA	sapA	n	NNP	lex-sapA|cat-n|gen-f|num-sg|pers-3|case-d|vib-0|tam-0|chunkId-NP|stype-|voicetype-	5	k1	_	_
2	pUMjIpawiyoM	pUMjIpawI	n	NN	lex-pUMjIpawI|cat-n|gen-m|num-pl|pers-3|case-o|vib-0_kA|tam-0|chunkId-NP2|stype-|voicetype-	3	r6	_	_
3	pArtI	pArtI	n	NN	lex-pArtI|cat-n|gen-f|num-sg|pers-3|case-d|vib-0|tam-0|chunkId-NP3|stype-|voicetype-	4	k1	_	_
4	bana	bana	v	VM	lex-bana|cat-v|gen-any|num-any|pers-any|case-|vib-0_kara|tam-0|chunkId-VGNF|stype-|voicetype-	5	vmod	_	_
5	raha	raha	v	VM	lex-raha|cat-v|gen-f|num-sg|pers-3|case-|vib-0_jA+yA1_hE|tam-0|chunkId-VGF|stype-declarative|voicetype-active	0	main	_	_
6	.	.	punc	SYM	lex-.|cat-punc|gen-|num-|pers-|case-|vib-|tam-|chunkId-BLK|stype-|voicetype-	5	rsym	_	_

1	sEPaI	sEPaI	n	NNP	lex-sEPaI|cat-n|gen-m|num-sg|pers-3|case-o|vib-0_kA|tam-0|chunkId-NP|stype-|voicetype-	2	r6-k2	_	_
2	iswemAla	iswemAla	n	NN	lex-iswemAla|cat-n|gen-m|num-sg|pers-3|case-d|vib-0|tam-0|chunkId-NP2|stype-|voicetype-	5	pof	_	_
3	pUMjIpawiyoM	pUMjIpawI	n	NN	lex-pUMjIpawI|cat-n|gen-m|num-pl|pers-3|case-o|vib-0_xvArA|tam-0|chunkId-NP3|stype-|voicetype-	5	k1	_	_
4	spOYta	spOYta	n	NN	lex-spOYta|cat-n|gen-m|num-sg|pers-3|case-o|vib-0_ke_rUpa_meM|tam-0|chunkId-NP4|stype-|voicetype-	5	k7	_	_
5	kiyA	kara	v	VM	lex-kara|cat-v|gen-m|num-sg|pers-3|case-|vib-yA_jA_raha+yA_hE|tam-yA|chunkId-VGF|stype-declarative|voicetype-passive	0	main	_	_
6	.	.	punc	SYM	lex-.|cat-punc|gen-|num-|pers-|case-|vib-|tam-|chunkId-BLK|stype-|voicetype-	5	rsym	_	_

1	kAMgresa	kAMgresa	n	NNP	lex-kAMgresa|cat-n|gen-f|num-sg|pers-3|case-o|vib-0_ne|tam-0|chunkId-NP|stype-|voicetype-	2	k1	_	_
2	kahA	kaha	v	VM	lex-kaha|cat-v|gen-m|num-sg|pers-3|case-|vib-yA_hE|tam-yA|chunkId-VGF|stype-declarative|voicetype-active	0	main	_	_
3	ki	ki	avy	CC	lex-ki|cat-avy|gen-|num-|pers-|case-|vib-|tam-|chunkId-CCP|stype-|voicetype-	2	k2	_	_
4	newAoM	newA	n	NN	lex-newA|cat-n|gen-m|num-pl|pers-3|case-o|vib-0_kA|tam-0|chunkId-NP2|stype-|voicetype-	5	r6	_	_
5	xilacaspI	xilacaspI	n	NN	lex-xilacaspI|cat-n|gen-f|num-sg|pers-3|case-d|vib-0|tam-0|chunkId-NP3|stype-|voicetype-	12	k1	_	_
6	xuniyA	xuniyA	n	NN	lex-xuniyA|cat-n|gen-f|num-sg|pers-3|case-o|vib-0_meM|tam-0|chunkId-NP4|stype-|voicetype-	7	k7	_	_
7	jyAxA	jyAxA	avy	QF	lex-jyAxA|cat-avy|gen-|num-|pers-|case-|vib-|tam-|chunkId-JJP|stype-|voicetype-	8	ccof	_	_
8	Ora	Ora	avy	CC	lex-Ora|cat-avy|gen-|num-|pers-|case-|vib-|tam-|chunkId-CCP2|stype-|voicetype-	12	k1s	_	_
9	janahiwa	janahiwa	n	NN	lex-janahiwa|cat-n|gen-m|num-sg|pers-3|case-o|vib-0_kA|tam-0|chunkId-NP5|stype-|voicetype-	10	r6	_	_
10	kAmoM	kAma	n	NN	lex-kAma|cat-n|gen-m|num-pl|pers-3|case-o|vib-0_meM|tam-0|chunkId-NP6|stype-|voicetype-	11	k7	_	_
11	kama	kama	avy	QF	lex-kama|cat-avy|gen-|num-|pers-|case-|vib-|tam-|chunkId-JJP2|stype-|voicetype-	8	ccof	_	_
12	hE	hE	v	VM	lex-hE|cat-v|gen-any|num-sg|pers-3|case-|vib-hE|tam-hE|chunkId-VGF2|stype-declarative|voicetype-active	3	ccof	_	_
13	.	.	punc	SYM	lex-.|cat-punc|gen-|num-|pers-|case-|vib-|tam-|chunkId-BLK|stype-|voicetype-	2	rsym	_	_

1	saMGavI	saMGavI	n	NNP	lex-saMGavI|cat-n|gen-any|num-sg|pers-3|case-o|vib-0_ne|tam-0|chunkId-NP|stype-|voicetype-	7	k1	_	_
2	newAoM	newA	n	NN	lex-newA|cat-n|gen-m|num-pl|pers-3|case-o|vib-0_se|tam-0|chunkId-NP2|stype-|voicetype-	7	k4	_	_
3	babbara	babbara	n	NNP	lex-babbara|cat-n|gen-any|num-sg|pers-3|case-o|vib-0_kA|tam-0|chunkId-NP3|stype-|voicetype-	4	r6	_	_
4	gusse	gussA	n	NN	lex-gussA|cat-n|gen-m|num-sg|pers-3|case-o|vib-0_kA|tam-0|chunkId-NP4|stype-|voicetype-	5	r6	_	_
5	vajaha	vajaha	n	NN	lex-vajaha|cat-n|gen-f|num-sg|pers-3|case-d|vib-0|tam-0|chunkId-NP5|stype-|voicetype-	7	k2	_	_
6	mAlUma	mAlUma	adj	JJ	lex-mAlUma|cat-adj|gen-any|num-any|pers-|case-|vib-|tam-|chunkId-JJP|stype-|voicetype-	7	pof	_	_
7	kI	kara	v	VM	lex-kara|cat-v|gen-f|num-sg|pers-3|case-|vib-yA_hE|tam-yA|chunkId-VGF|stype-declarative|voicetype-active	0	main	_	_
8	.	.	punc	SYM	lex-.|cat-punc|gen-|num-|pers-|case-|vib-|tam-|chunkId-BLK|stype-|voicetype-	7	rsym	_	_

1	unhoMne	vaha	pn	PRP	lex-vaha|cat-pn|gen-any|num-sg|pers-3h|case-o|vib-ne|tam-ne|chunkId-NP|stype-|voicetype-	2	k1	_	_
2	kahA	kaha	v	VM	lex-kaha|cat-v|gen-m|num-sg|pers-any|case-|vib-yA|tam-yA|chunkId-VGF|stype-declarative|voicetype-active	0	main	_	_
3	ki	ki	avy	CC	lex-ki|cat-avy|gen-|num-|pers-|case-|vib-|tam-|chunkId-CCP|stype-|voicetype-	2	k2	_	_
4	samAjavAxa	samAjavAxa	n	NN	lex-samAjavAxa|cat-n|gen-m|num-sg|pers-3|case-o|vib-0_kA|tam-0|chunkId-NP2|stype-|voicetype-	5	r6	_	_
5	cAxara	cAxara	n	NN	lex-cAxara|cat-n|gen-f|num-sg|pers-3|case-d|vib-0|tam-0|chunkId-NP3|stype-|voicetype-	6	k1	_	_
6	oDZakara	oDa	v	VM	lex-oDa|cat-v|gen-any|num-any|pers-any|case-|vib-kara|tam-kara|chunkId-VGNF|stype-|voicetype-	11	vmod	_	_
7	newA	newA	n	NN	lex-newA|cat-n|gen-m|num-pl|pers-3|case-d|vib-0|tam-0|chunkId-NP4|stype-|voicetype-	11	k1	_	_
8	kAryo	kArya	n	NN	lex-kArya|cat-n|gen-m|num-pl|pers-3|case-o|vib-0_ko|tam-0|chunkId-NP5|stype-|voicetype-	9	k2	_	_
9	CupAne	CupA	v	VM	lex-CupA|cat-v|gen-any|num-sg|pers-any|case-o|vib-nA_kA|tam-nA|chunkId-VGNN|stype-|voicetype-	10	r6-k2	_	_
10	koSiSa	koSiSa	n	NN	lex-koSiSa|cat-n|gen-f|num-sg|pers-3|case-d|vib-0|tam-0|chunkId-NP6|stype-|voicetype-	11	pof	_	_
11	kara	kara	v	VM	lex-kara|cat-v|gen-m|num-pl|pers-3|case-|vib-0_raha+yA_hE|tam-0|chunkId-VGF2|stype-declarative|voicetype-active	3	ccof	_	_
12	.	.	punc	SYM	lex-.|cat-punc|gen-|num-|pers-|case-|vib-|tam-|chunkId-BLK|stype-|voicetype-	2	rsym	_	_

1	unhoMne	vaha	pn	PRP	lex-vaha|cat-pn|gen-any|num-sg|pers-3h|case-o|vib-ne|tam-ne|chunkId-NP|stype-|voicetype-	2	k1	_	_
2	kahA	kaha	v	VM	lex-kaha|cat-v|gen-m|num-sg|pers-any|case-|vib-yA|tam-yA|chunkId-VGF|stype-declarative|voicetype-active	0	main	_	_
3	ki	ki	avy	CC	lex-ki|cat-avy|gen-|num-|pers-|case-|vib-|tam-|chunkId-CCP|stype-|voicetype-	2	k2	_	_
4	samAjavAxa	samAjavAxa	n	NN	lex-samAjavAxa|cat-n|gen-m|num-sg|pers-3|case-o|vib-0_kA|tam-0|chunkId-NP2|stype-|voicetype-	5	r6	_	_
5	rUpa	rUpa	n	NN	lex-rUpa|cat-n|gen-m|num-sg|pers-3|case-d|vib-0|tam-0|chunkId-NP3|stype-|voicetype-	7	k1	_	_
6	xuniyA	xuniyA	n	NN	lex-xuniyA|cat-n|gen-f|num-sg|pers-3|case-o|vib-0_ke_sAmane|tam-0|chunkId-NP4|stype-|voicetype-	7	k7	_	_
7	A	A	v	VM	lex-A|cat-v|gen-m|num-sg|pers-3|case-|vib-0_cuka+yA_hE|tam-0|chunkId-VGF2|stype-declarative|voicetype-active	3	ccof	_	_
8	.	.	punc	SYM	lex-.|cat-punc|gen-|num-|pers-|case-|vib-|tam-|chunkId-BLK|stype-|voicetype-	2	rsym	_	_

1	unhoMne	vaha	pn	PRP	lex-vaha|cat-pn|gen-any|num-sg|pers-3h|case-o|vib-ne|tam-ne|chunkId-NP|stype-|voicetype-	2	k1	_	_
2	kahA	kaha	v	VM	lex-kaha|cat-v|gen-m|num-sg|pers-any|case-|vib-yA|tam-yA|chunkId-VGF|stype-declarative|voicetype-active	0	main	_	_
3	ki	ki	avy	CC	lex-ki|cat-avy|gen-|num-|pers-|case-|vib-|tam-|chunkId-CCP|stype-|voicetype-	2	k2	_	_
4	neharU	neharU	n	NNP	lex-neharU|cat-n|gen-any|num-sg|pers-3|case-d|vib-0|tam-0|chunkId-NP2|stype-|voicetype-	6	ccof	_	_
5	gAMXI	gAMXI	n	NNP	lex-gAMXI|cat-n|gen-any|num-sg|pers-3|case-o|vib-0|tam-0|chunkId-NP3|stype-|voicetype-	6	ccof	_	_
6	va	va	avy	CC	lex-va|cat-avy|gen-|num-|pers-|case-|vib-|tam-|chunkId-CCP2|stype-|voicetype-	16	r6-k2	_	_
7	lohiyA	lohiyA	n	NNP	lex-lohiyA|cat-n|gen-m|num-sg|pers-3|case-o|vib-0_kA|tam-0|chunkId-NP4|stype-|voicetype-	6	ccof	_	_
8	samAjavAxa	samAjavAxa	n	NN	lex-samAjavAxa|cat-n|gen-m|num-sg|pers-3|case-o|vib-0_para|tam-0|chunkId-NP5|stype-|voicetype-	10	k2	_	_
9	yakIna	yakIna	n	NN	lex-yakIna|cat-n|gen-m|num-sg|pers-3|case-d|vib-0|tam-0|chunkId-NP6|stype-|voicetype-	10	pof	_	_
10	karane	kara	v	VM	lex-kara|cat-v|gen-any|num-pl|pers-any|case-o|vib-nA_vAlA|tam-nA|chunkId-VGNN|stype-|voicetype-	16	nmod__k1inv	_	_
11	loga	loga	n	NN	lex-loga|cat-n|gen-m|num-pl|pers-3|case-d|vib-0|tam-0|chunkId-NP7|stype-|voicetype-	17	k1	_	_
12	jalxa	jalxa	adv	RB	lex-jalxa|cat-adv|gen-|num-|pers-|case-|vib-|tam-|chunkId-RBP|stype-|voicetype-	17	adv	_	_
13	sapA	sapA	n	NNP	lex-sapA|cat-n|gen-f|num-sg|pers-3|case-o|vib-0_kA|tam-0|chunkId-NP8|stype-|voicetype-	16	r6	_	_
14	samAjavAxa	samAjavAxa	n	NN	lex-samAjavAxa|cat-n|gen-m|num-sg|pers-3|case-o|vib-0_kA|tam-0|chunkId-NP9|stype-|voicetype-	15	r6	_	_
15	nAroM	nArA	n	NN	lex-nArA|cat-n|gen-m|num-pl|pers-3|case-o|vib-0_ko|tam-0|chunkId-NP10|stype-|voicetype-	17	k2	_	_
16	nakAra	nakAra	n	NN	lex-nakAra|cat-n|gen-m|num-sg|pers-3|case-d|vib-0|tam-0|chunkId-NP11|stype-|voicetype-	17	pof	_	_
17	xeMge	xe	v	VM	lex-xe|cat-v|gen-m|num-pl|pers-3|case-|vib-gA|tam-gA|chunkId-VGF2|stype-declarative|voicetype-active	3	ccof	_	_
18	.	.	punc	SYM	lex-.|cat-punc|gen-|num-|pers-|case-|vib-|tam-|chunkId-BLK|stype-|voicetype-	2	rsym	_	_

