1	pramuKa	pramuKa	n	NN	lex-pramuKa|cat-n|gen-m|num-sg|pers-3|case-o|vib-0|tam-0|chunkId-NP|stype-|voicetype-	2	nmod	_	_
2	prakASa	prakASa	n	NNP	lex-prakASa|cat-n|gen-m|num-sg|pers-3|case-o|vib-0_ne|tam-0|chunkId-NP2|stype-|voicetype-	3	k1	_	_
3	kahA	kaha	v	VM	lex-kaha|cat-v|gen-m|num-sg|pers-any|case-|vib-yA|tam-yA|chunkId-VGF|stype-declarative|voicetype-active	0	main	_	_
4	ki	ki	avy	CC	lex-ki|cat-avy|gen-|num-|pers-|case-|vib-|tam-|chunkId-CCP|stype-|voicetype-	3	k2	_	_
5	nOsenA	nOsenA	n	NNP	lex-nOsenA|cat-n|gen-f|num-sg|pers-3|case-o|vib-0_ko|tam-0|chunkId-NP3|stype-|voicetype-	15	k4	_	_
6	samuxra	samuxra	n	NN	lex-samuxra|cat-n|gen-m|num-sg|pers-3|case-o|vib-0_ke_BIwara|tam-0|chunkId-NP4|stype-|voicetype-	15	k7p	_	_
7	kRamawA	kRamawA	n	NN	lex-kRamawA|cat-n|gen-f|num-sg|pers-3|case-o|vib-0_se|tam-0|chunkId-NP5|stype-|voicetype-	9	k3	_	_
8	lEsa	lEsa	adj	JJ	lex-lEsa|cat-adj|gen-any|num-any|pers-|case-|vib-|tam-|chunkId-JJP|stype-|voicetype-	9	pof	_	_
9	karanA	kara	v	VM	lex-kara|cat-v|gen-any|num-any|pers-any|case-d|vib-nA|tam-nA|chunkId-VGNN|stype-|voicetype-	15	k1	_	_
10	hamale	hamalA	n	NN	lex-hamalA|cat-n|gen-m|num-sg|pers-3|case-o|vib-0_kA|tam-0|chunkId-NP6|stype-|voicetype-	13	r6	_	_
11	kArravAI	kArravAI	n	NN	lex-kArravAI|cat-n|gen-f|num-sg|pers-3|case-o|vib-0|tam-0|chunkId-NP7|stype-|voicetype-	12	ccof	_	_
12	yA	yA	avy	CC	lex-yA|cat-avy|gen-|num-|pers-|case-|vib-|tam-|chunkId-CCP2|stype-|voicetype-	15	rt	_	_
13	kaMpIteMsa	kaMpIteMsa	n	NN	lex-kaMpIteMsa|cat-n|gen-|num-|pers-|case-o|vib-0_ke_lie|tam-|chunkId-NP8|stype-|voicetype-	12	ccof	_	_
14	jarUrI	jarUrI	adj	JJ	lex-jarUrI|cat-adj|gen-any|num-any|pers-|case-|vib-|tam-|chunkId-JJP2|stype-|voicetype-	15	k1s	_	_
15	hE	hE	v	VM	lex-hE|cat-v|gen-any|num-sg|pers-3|case-|vib-hE|tam-hE|chunkId-VGF2|stype-declarative|voicetype-active	4	ccof	_	_
16	.	.	punc	SYM	lex-.|cat-punc|gen-|num-|pers-|case-|vib-|tam-|chunkId-BLK|stype-|voicetype-	3	rsym	_	_

1	unhoMne	vaha	pn	PRP	lex-vaha|cat-pn|gen-any|num-sg|pers-3h|case-o|vib-ne|tam-ne|chunkId-NP|stype-|voicetype-	3	k1	_	_
2	AgAha	AgAha	adj	JJ	lex-AgAha|cat-adj|gen-any|num-any|pers-|case-|vib-|tam-|chunkId-JJP|stype-|voicetype-	3	pof	_	_
3	kiyA	kara	v	VM	lex-kara|cat-v|gen-m|num-sg|pers-any|case-|vib-yA|tam-yA|chunkId-VGF|stype-declarative|voicetype-active	0	main	_	_
4	ki	ki	avy	CC	lex-ki|cat-avy|gen-|num-|pers-|case-|vib-|tam-|chunkId-CCP|stype-|voicetype-	3	k2	_	_
5	nirmANa	nirmANa	n	NN	lex-nirmANa|cat-n|gen-m|num-sg|pers-3|case-o|vib-0_meM|tam-0|chunkId-NP2|stype-|voicetype-	10	k7	_	_
6	waraha	waraha	n	NN	lex-waraha|cat-n|gen-f|num-sg|pers-3|case-o|vib-0_kA|tam-0|chunkId-NP3|stype-|voicetype-	7	r6	_	_
7	xerI	xerI	n	NN	lex-xerI|cat-n|gen-f|num-sg|pers-3|case-o|vib-0_se|tam-0|chunkId-NP4|stype-|voicetype-	10	rh	_	_
8	wEyAriyoM	wEyArI	n	NN	lex-wEyArI|cat-n|gen-f|num-pl|pers-3|case-o|vib-0_para|tam-0|chunkId-NP5|stype-|voicetype-	10	k7	_	_
9	asara	asara	n	NN	lex-asara|cat-n|gen-m|num-sg|pers-3|case-d|vib-0|tam-0|chunkId-NP6|stype-|voicetype-	10	pof	_	_
10	padZa	pada	v	VM	lex-pada|cat-v|gen-m|num-sg|pers-3|case-|vib-0_saka+wA_hE|tam-0|chunkId-VGF2|stype-declarative|voicetype-active	4	ccof	_	_
11	.	.	punc	SYM	lex-.|cat-punc|gen-|num-|pers-|case-|vib-|tam-|chunkId-BLK|stype-|voicetype-	3	rsym	_	_

1	pawrikA	pawrikA	n	NN	lex-pawrikA|cat-n|gen-f|num-sg|pers-3|case-o|vib-0|tam-0|chunkId-NP|stype-|voicetype-	2	nmod	_	_
2	rivyU	rivyU	n	NNP	lex-rivyU|cat-n|gen-m|num-sg|pers-3|case-o|vib-0_ko|tam-0|chunkId-NP2|stype-|voicetype-	3	k4	_	_
3	xie	xe	v	VM	lex-xe|cat-v|gen-m|num-sg|pers-any|case-|vib-yA_jA+yA1|tam-yA|chunkId-VGNF|stype-|voicetype-	4	nmod__k1inv	_	_
4	iMtaravyU	iMtaravyU	n	NN	lex-iMtaravyU|cat-n|gen-m|num-sg|pers-3|case-o|vib-0_meM|tam-0|chunkId-NP3|stype-|voicetype-	6	k7	_	_
5	unhoMne	vaha	pn	PRP	lex-vaha|cat-pn|gen-any|num-sg|pers-3h|case-o|vib-ne|tam-ne|chunkId-NP4|stype-|voicetype-	6	k1	_	_
6	kahA	kaha	v	VM	lex-kaha|cat-v|gen-m|num-sg|pers-any|case-|vib-yA|tam-yA|chunkId-VGF|stype-declarative|voicetype-active	0	main	_	_
7	ki	ki	avy	CC	lex-ki|cat-avy|gen-|num-|pers-|case-|vib-|tam-|chunkId-CCP|stype-|voicetype-	6	k2	_	_
8	BArawa	BArawa	n	NNP	lex-BArawa|cat-n|gen-m|num-sg|pers-3|case-o|vib-0_kA|tam-0|chunkId-NP5|stype-|voicetype-	9	r6	_	_
9	masOxe	masOxA	n	NN	lex-masOxA|cat-n|gen-m|num-sg|pers-3|case-o|vib-0_meM|tam-0|chunkId-NP6|stype-|voicetype-	16	k7	_	_
10	senA	senA	n	NN	lex-senA|cat-n|gen-f|num-sg|pers-3|case-o|vib-0_kA|tam-0|chunkId-NP7|stype-|voicetype-	11	r6	_	_
11	aMgoM	aMga	n	NN	lex-aMga|cat-n|gen-m|num-pl|pers-3|case-o|vib-0_ko|tam-0|chunkId-NP8|stype-|voicetype-	14	k2	_	_
12	kRamawA	kRamawA	n	NN	lex-kRamawA|cat-n|gen-f|num-sg|pers-3|case-o|vib-0_se|tam-0|chunkId-NP9|stype-|voicetype-	14	k3	_	_
13	lEsa	lEsa	adj	JJ	lex-lEsa|cat-adj|gen-any|num-any|pers-|case-|vib-|tam-|chunkId-JJP|stype-|voicetype-	14	pof	_	_
14	karane	kara	v	VM	lex-kara|cat-v|gen-any|num-any|pers-any|case-o|vib-nA_para|tam-nA|chunkId-VGNN|stype-|voicetype-	16	k7	_	_
15	bala	bala	n	NN	lex-bala|cat-n|gen-m|num-sg|pers-3|case-d|vib-0|tam-0|chunkId-NP10|stype-|voicetype-	16	pof	_	_
16	xiyA	xe	v	VM	lex-xe|cat-v|gen-m|num-sg|pers-3|case-|vib-yA_jA+yA1_hE|tam-yA|chunkId-VGF2|stype-declarative|voicetype-passive	7	ccof	_	_
17	.	.	punc	SYM	lex-.|cat-punc|gen-|num-|pers-|case-|vib-|tam-|chunkId-BLK|stype-|voicetype-	6	rsym	_	_

1	hI	hI	avy	RP	lex-hI|cat-avy|gen-|num-|pers-|case-|vib-|tam-|chunkId-NP|stype-|voicetype-	4	sent-adv	_	_
2	yaha	yaha	pn	PRP	lex-yaha|cat-pn|gen-any|num-sg|pers-3|case-d|vib-0|tam-0|chunkId-NP2|stype-|voicetype-	4	k2	_	_
3	saBI	saba	pn	PRP	lex-saba|cat-pn|gen-|num-|pers-|case-|vib-|tam-|chunkId-NP3|stype-|voicetype-	4	k1	_	_
4	jAnawe	jAna	v	VM	lex-jAna|cat-v|gen-m|num-pl|pers-3|case-|vib-wA_hE|tam-wA|chunkId-VGF|stype-declarative|voicetype-active	0	main	_	_
5	ki	ki	avy	CC	lex-ki|cat-avy|gen-|num-|pers-|case-|vib-|tam-|chunkId-CCP|stype-|voicetype-	2	rs	_	_
6	nOsenA	nOsenA	n	NN	lex-nOsenA|cat-n|gen-f|num-sg|pers-3|case-o|vib-0_kA|tam-0|chunkId-NP4|stype-|voicetype-	7	r6	_	_
7	samuxra	samuxra	n	NN	lex-samuxra|cat-n|gen-m|num-sg|pers-3|case-o|vib-0_ke_aMxara|tam-0|chunkId-NP5|stype-|voicetype-	13	k7p	_	_
8	kRamawA	kRamawA	n	NN	lex-kRamawA|cat-n|gen-f|num-sg|pers-3|case-o|vib-0_se|tam-0|chunkId-NP6|stype-|voicetype-	10	k3	_	_
9	lEsa	lEsa	adj	JJ	lex-lEsa|cat-adj|gen-any|num-any|pers-|case-|vib-|tam-|chunkId-JJP|stype-|voicetype-	10	pof	_	_
10	honA	ho	v	VM	lex-ho|cat-v|gen-any|num-any|pers-any|case-d|vib-nA|tam-nA|chunkId-VGNN|stype-|voicetype-	13	k1	_	_
11	kRamawA	kRamawA	n	NN	lex-kRamawA|cat-n|gen-f|num-sg|pers-3|case-o|vib-0_ke_lie|tam-0|chunkId-NP7|stype-|voicetype-	13	rt	_	_
12	jarUrI	jarUrI	adj	JJ	lex-jarUrI|cat-adj|gen-any|num-any|pers-|case-|vib-|tam-|chunkId-JJP2|stype-|voicetype-	13	k1s	_	_
13	hE	hE	v	VM	lex-hE|cat-v|gen-any|num-sg|pers-3|case-|vib-hE|tam-hE|chunkId-VGF2|stype-declarative|voicetype-active	5	ccof	_	_
14	.	.	punc	SYM	lex-.|cat-punc|gen-|num-|pers-|case-|vib-|tam-|chunkId-BLK|stype-|voicetype-	4	rsym	_	_

1	Sipa	Sipa	n	NN	lex-Sipa|cat-n|gen-m|num-sg|pers-3|case-d|vib-0|tam-0|chunkId-NP|stype-|voicetype-	2	ccof	_	_
2	yA	yA	avy	CC	lex-yA|cat-avy|gen-|num-|pers-|case-|vib-|tam-|chunkId-CCP|stype-|voicetype-	4	nmod	_	_
3	panadubbI	panadubbI	n	NN	lex-panadubbI|cat-n|gen-f|num-sg|pers-3|case-o|vib-0_kA|tam-0|chunkId-NP2|stype-|voicetype-	2	r6	_	_
4	nirmANa	nirmANa	n	NN	lex-nirmANa|cat-n|gen-m|num-sg|pers-3|case-o|vib-0_meM|tam-0|chunkId-NP3|stype-|voicetype-	5	nmod	_	_
5	xerI	xerI	n	NN	lex-xerI|cat-n|gen-f|num-sg|pers-3|case-o|vib-0_kA|tam-0|chunkId-NP4|stype-|voicetype-	6	r6	_	_
6	savAla	savAla	n	NN	lex-savAla|cat-n|gen-m|num-sg|pers-3|case-o|vib-0_para|tam-0|chunkId-NP5|stype-|voicetype-	10	k7	_	_
7	unhoMne	vaha	pn	PRP	lex-vaha|cat-pn|gen-any|num-sg|pers-3h|case-o|vib-ne|tam-ne|chunkId-NP6|stype-|voicetype-	10	k1	_	_
8	cewAvanI	cewAvanI	n	NN	lex-cewAvanI|cat-n|gen-f|num-sg|pers-3|case-d|vib-0|tam-0|chunkId-NP7|stype-|voicetype-	9	pof	_	_
9	xewe	xe	v	VM	lex-xe|cat-v|gen-m|num-sg|pers-any|case-|vib-wA_ho+yA|tam-wA|chunkId-VGNF|stype-|voicetype-	10	vmod	_	_
10	kahA	kaha	v	VM	lex-kaha|cat-v|gen-m|num-sg|pers-any|case-|vib-yA|tam-yA|chunkId-VGF|stype-declarative|voicetype-active	0	main	_	_
11	ki	ki	avy	CC	lex-ki|cat-avy|gen-|num-|pers-|case-|vib-|tam-|chunkId-CCP2|stype-|voicetype-	10	k2	_	_
12	samaya	samaya	n	NN	lex-samaya|cat-n|gen-m|num-sg|pers-3|case-d|vib-0|tam-0|chunkId-NP8|stype-|voicetype-	13	k1	_	_
13	nikalawA	nikala	v	VM	lex-nikala|cat-v|gen-m|num-sg|pers-3|case-|vib-wA_jA_raha+yA_hE|tam-wA|chunkId-VGF2|stype-declarative|voicetype-active	14	ccof	_	_
14	Ora	Ora	avy	CC	lex-Ora|cat-avy|gen-|num-|pers-|case-|vib-|tam-|chunkId-CCP3|stype-|voicetype-	11	ccof	_	_
15	hamArI	hama	pn	PRP	lex-hama|cat-pn|gen-f|num-any|pers-1|case-any|vib-kA|tam-kA|chunkId-NP9|stype-|voicetype-	16	r6	_	_
16	nOsenA	nOsenA	n	NN	lex-nOsenA|cat-n|gen-f|num-sg|pers-3|case-o|vib-0_kA|tam-0|chunkId-NP10|stype-|voicetype-	17	r6	_	_
17	wEyArI	wEyArI	n	NN	lex-wEyArI|cat-n|gen-f|num-sg|pers-3|case-o|vib-0_kA|tam-0|chunkId-NP11|stype-|voicetype-	18	r6	_	_
18	swara	swara	n	NN	lex-swara|cat-n|gen-m|num-sg|pers-3|case-o|vib-0_para|tam-0|chunkId-NP12|stype-|voicetype-	23	k7	_	_
19	isakA	yaha	pn	PRP	lex-yaha|cat-pn|gen-m|num-sg|pers-3|case-o|vib-kA|tam-kA|chunkId-NP13|stype-|voicetype-	20	r6	_	_
20	asara	asara	n	NN	lex-asara|cat-n|gen-m|num-sg|pers-3|case-d|vib-0|tam-0|chunkId-NP14|stype-|voicetype-	23	k2	_	_
21	sAloM	sAla	n	NN	lex-sAla|cat-n|gen-m|num-pl|pers-3|case-o|vib-0_waka|tam-0|chunkId-NP15|stype-|voicetype-	23	k7t	_	_
22	mahasUsa	mahasUsa	adj	JJ	lex-mahasUsa|cat-adj|gen-any|num-any|pers-|case-|vib-|tam-|chunkId-JJP|stype-|voicetype-	23	pof	_	_
23	kiyA	kara	v	VM	lex-kara|cat-v|gen-m|num-sg|pers-3|case-|vib-yA_jA+gA|tam-yA|chunkId-VGF3|stype-declarative|voicetype-active	14	ccof	_	_
24	.	.	punc	SYM	lex-.|cat-punc|gen-|num-|pers-|case-|vib-|tam-|chunkId-BLK|stype-|voicetype-	10	rsym	_	_

1	unhoMne	vaha	pn	PRP	lex-vaha|cat-pn|gen-any|num-sg|pers-3h|case-o|vib-ne|tam-ne|chunkId-NP|stype-|voicetype-	2	k1	_	_
2	kahA	kaha	v	VM	lex-kaha|cat-v|gen-m|num-sg|pers-any|case-|vib-yA|tam-yA|chunkId-VGF|stype-declarative|voicetype-active	0	main	_	_
3	ki	ki	avy	CC	lex-ki|cat-avy|gen-|num-|pers-|case-|vib-|tam-|chunkId-CCP|stype-|voicetype-	2	k2	_	_
4	projekta	projekta	n	NN	lex-projekta|cat-n|gen-m|num-sg|pers-3|case-d|vib-0|tam-0|chunkId-NP2|stype-|voicetype-	5	nmod	_	_
5	panadubbI	panadubbI	n	NNP	lex-panadubbI|cat-n|gen-f|num-sg|pers-3|case-d|vib-0|tam-0|chunkId-NP3|stype-|voicetype-	9	k1	_	_
6	hamArI	hama	pn	PRP	lex-hama|cat-pn|gen-f|num-any|pers-1|case-o|vib-kA|tam-kA|chunkId-NP4|stype-|voicetype-	7	r6	_	_
7	kRamawA	kRamawA	n	NN	lex-kRamawA|cat-n|gen-f|num-sg|pers-3|case-o|vib-0_para|tam-0|chunkId-NP5|stype-|voicetype-	9	k7	_	_
8	niSAna	niSAna	n	NN	lex-niSAna|cat-n|gen-m|num-sg|pers-3|case-d|vib-0|tam-0|chunkId-NP6|stype-|voicetype-	9	k2	_	_
9	hE	hE	v	VM	lex-hE|cat-v|gen-any|num-sg|pers-3|case-|vib-hE|tam-hE|chunkId-VGF2|stype-declarative|voicetype-active	3	ccof	_	_
10	.	.	punc	SYM	lex-.|cat-punc|gen-|num-|pers-|case-|vib-|tam-|chunkId-BLK|stype-|voicetype-	2	rsym	_	_

1	pramuKa	pramuKa	n	NN	lex-pramuKa|cat-n|gen-m|num-sg|pers-3|case-o|vib-0_ne|tam-0|chunkId-NP|stype-|voicetype-	2	k1	_	_
2	kahA	kaha	v	VM	lex-kaha|cat-v|gen-m|num-sg|pers-any|case-|vib-yA|tam-yA|chunkId-VGF|stype-declarative|voicetype-active	0	main	_	_
3	ki	ki	avy	CC	lex-ki|cat-avy|gen-|num-|pers-|case-|vib-|tam-|chunkId-CCP|stype-|voicetype-	2	k2	_	_
4	hameM	hama	pn	PRP	lex-hama|cat-pn|gen-any|num-pl|pers-1|case-o|vib-ko|tam-ko|chunkId-NP2|stype-|voicetype-	8	k4	_	_
5	limiteda	limiteda	n	NNP	lex-limiteda|cat-n|gen-m|num-sg|pers-3|case-o|vib-0_meM|tam-0|chunkId-NP3|stype-|voicetype-	8	k7	_	_
6	nirmANa	nirmANa	n	NN	lex-nirmANa|cat-n|gen-m|num-sg|pers-3|case-d|vib-0|tam-0|chunkId-NP4|stype-|voicetype-	8	k2	_	_
7	SurU	SurU	n	NN	lex-SurU|cat-n|gen-m|num-sg|pers-3|case-d|vib-0|tam-0|chunkId-NP5|stype-|voicetype-	8	pof	_	_
8	kara	kara	v	VM	lex-kara|cat-v|gen-m|num-any|pers-any|case-|vib-0_xe+nA_cAhie|tam-0|chunkId-VGF2|stype-declarative|voicetype-active	3	ccof	_	_
9	.	.	punc	SYM	lex-.|cat-punc|gen-|num-|pers-|case-|vib-|tam-|chunkId-BLK|stype-|voicetype-	2	rsym	_	_

1	isake	yaha	pn	PRP	lex-yaha|cat-pn|gen-any|num-sg|pers-3|case-o|vib-ke_alAvA|tam-ke|chunkId-NP|stype-|voicetype-	8	vmod	_	_
2	PEsalA	PEsalA	n	NN	lex-PEsalA|cat-n|gen-m|num-sg|pers-3|case-d|vib-0|tam-0|chunkId-NP2|stype-|voicetype-	3	k2	_	_
3	lene	le	v	VM	lex-le|cat-v|gen-any|num-any|pers-any|case-o|vib-nA_meM|tam-nA|chunkId-VGNN|stype-|voicetype-	8	k7	_	_
4	xerI	xerI	n	NN	lex-xerI|cat-n|gen-f|num-sg|pers-3|case-d|vib-0|tam-0|chunkId-NP3|stype-|voicetype-	5	pof	_	_
5	hone	ho	v	VM	lex-ho|cat-v|gen-any|num-any|pers-any|case-o|vib-nA_se|tam-nA|chunkId-VGNN2|stype-|voicetype-	8	rh	_	_
6	nirmANa	nirmANa	n	NN	lex-nirmANa|cat-n|gen-m|num-sg|pers-3|case-o|vib-0_kA|tam-0|chunkId-NP4|stype-|voicetype-	7	r6	_	_
7	lAgawa	lAgawa	n	NN	lex-lAgawa|cat-n|gen-f|num-sg|pers-3|case-d|vib-0|tam-0|chunkId-NP5|stype-|voicetype-	8	k1	_	_
8	baDZa	baDa	v	VM	lex-baDa|cat-v|gen-f|num-sg|pers-3|case-|vib-0_jA+wA_hE|tam-0|chunkId-VGF|stype-declarative|voicetype-active	0	main	_	_
9	.	.	punc	SYM	lex-.|cat-punc|gen-|num-|pers-|case-|vib-|tam-|chunkId-BLK|stype-|voicetype-	8	rsym	_	_

1	baharahAla	baharahAla	avy	CC	lex-baharahAla|cat-avy|gen-|num-|pers-|case-|vib-|tam-|chunkId-CCP|stype-|voicetype-	0	main	_	_
2	unhoMne	vaha	pn	PRP	lex-vaha|cat-pn|gen-any|num-sg|pers-3h|case-o|vib-ne|tam-ne|chunkId-NP|stype-|voicetype-	3	k1	_	_
3	kahA	kaha	v	VM	lex-kaha|cat-v|gen-m|num-sg|pers-any|case-|vib-yA|tam-yA|chunkId-VGF|stype-declarative|voicetype-active	10	ccof	_	_
4	ki	ki	avy	CC	lex-ki|cat-avy|gen-|num-|pers-|case-|vib-|tam-|chunkId-CCP2|stype-|voicetype-	3	k2	_	_
5	sarakAra	sarakAra	n	NN	lex-sarakAra|cat-n|gen-f|num-sg|pers-3|case-d|vib-0|tam-0|chunkId-NP2|stype-|voicetype-	9	k1	_	_
6	jarUrawoM	jarUrawa	n	NN	lex-jarUrawa|cat-n|gen-f|num-pl|pers-3|case-o|vib-0_se|tam-0|chunkId-NP3|stype-|voicetype-	9	k2	_	_
7	waraha	waraha	n	NN	lex-waraha|cat-n|gen-f|num-sg|pers-3|case-d|vib-0|tam-0|chunkId-NP4|stype-|voicetype-	9	adv	_	_
8	vAkiPa	vAkiPa	adj	JJ	lex-vAkiPa|cat-adj|gen-any|num-any|pers-|case-|vib-|tam-|chunkId-JJP|stype-|voicetype-	9	k1s	_	_
9	hE	hE	v	VM	lex-hE|cat-v|gen-any|num-sg|pers-3|case-|vib-hE|tam-hE|chunkId-VGF2|stype-declarative|voicetype-active	4	ccof	_	_
10	Ora	Ora	avy	CC	lex-Ora|cat-avy|gen-|num-|pers-|case-|vib-|tam-|chunkId-CCP3|stype-|voicetype-	1	ccof	_	_
11	hameM	hama	pn	PRP	lex-hama|cat-pn|gen-any|num-pl|pers-1|case-o|vib-ko|tam-ko|chunkId-NP5|stype-|voicetype-	13	k4	_	_
12	ummIxa	ummIxa	n	NN	lex-ummIxa|cat-n|gen-f|num-sg|pers-3|case-d|vib-0|tam-0|chunkId-NP6|stype-|voicetype-	13	k1	_	_
13	hE	hE	v	VM	lex-hE|cat-v|gen-any|num-sg|pers-3|case-|vib-hE|tam-hE|chunkId-VGF3|stype-declarative|voicetype-active	10	ccof	_	_
14	ki	ki	avy	CC	lex-ki|cat-avy|gen-|num-|pers-|case-|vib-|tam-|chunkId-CCP4|stype-|voicetype-	13	k2	_	_
15	jalxa	jalxa	adv	RB	lex-jalxa|cat-adv|gen-|num-|pers-|case-|vib-|tam-|chunkId-RBP|stype-|voicetype-	19	adv	_	_
16	xiSA	xiSA	n	NN	lex-xiSA|cat-n|gen-f|num-sg|pers-3|case-o|vib-0_meM|tam-0|chunkId-NP7|stype-|voicetype-	19	k7	_	_
17	kArya	kArya	n	NN	lex-kArya|cat-n|gen-m|num-sg|pers-3|case-d|vib-0|tam-0|chunkId-NP8|stype-|voicetype-	19	k1	_	_
18	SurU	SurU	n	NN	lex-SurU|cat-n|gen-m|num-sg|pers-3|case-d|vib-0|tam-0|chunkId-NP9|stype-|voicetype-	19	pof	_	_
19	ho	ho	v	VM	lex-ho|cat-v|gen-any|num-sg|pers-3|case-|vib-0_jA+gA|tam-0|chunkId-VGF4|stype-declarative|voicetype-active	14	ccof	_	_
20	.	.	punc	SYM	lex-.|cat-punc|gen-|num-|pers-|case-|vib-|tam-|chunkId-BLK|stype-|voicetype-	1	rsym	_	_

1	pramuKa	pramuKa	n	NN	lex-pramuKa|cat-n|gen-m|num-sg|pers-3|case-o|vib-0_ne|tam-0|chunkId-NP|stype-|voicetype-	2	k1	_	_
2	kahA	kaha	v	VM	lex-kaha|cat-v|gen-m|num-sg|pers-any|case-|vib-yA|tam-yA|chunkId-VGF|stype-declarative|voicetype-active	0	main	_	_
3	ki	ki	avy	CC	lex-ki|cat-avy|gen-|num-|pers-|case-|vib-|tam-|chunkId-CCP|stype-|voicetype-	2	k2	_	_
4	nirmANa	nirmANa	n	NN	lex-nirmANa|cat-n|gen-m|num-sg|pers-3|case-o|vib-0_kA|tam-0|chunkId-NP2|stype-|voicetype-	5	r6	_	_
5	kAma	kAma	n	NN	lex-kAma|cat-n|gen-m|num-sg|pers-3|case-o|vib-0_ne|tam-0|chunkId-NP3|stype-|voicetype-	8	k1	_	_
6	aba	aba	pn	PRP	lex-aba|cat-pn|gen-|num-|pers-|case-|vib-|tam-|chunkId-NP4|stype-|voicetype-	8	k7t	_	_
7	gawi	gawi	n	NN	lex-gawi|cat-n|gen-f|num-sg|pers-3|case-d|vib-0|tam-0|chunkId-NP5|stype-|voicetype-	8	k2	_	_
8	pakadZa	pakada	v	VM	lex-pakada|cat-v|gen-f|num-sg|pers-3|case-|vib-0_le+yA_hE|tam-0|chunkId-VGF2|stype-declarative|voicetype-active	9	ccof	_	_
9	Ora	Ora	avy	CC	lex-Ora|cat-avy|gen-|num-|pers-|case-|vib-|tam-|chunkId-CCP2|stype-|voicetype-	3	ccof	_	_
10	SipayArdo	SipayArda	n	NN	lex-SipayArda|cat-n|gen-m|num-pl|pers-3|case-o|vib-0_meM|tam-0|chunkId-NP6|stype-|voicetype-	14	k7p	_	_
11	powa	powa	num	NNC	lex-powa|cat-num|gen-m|num-pl|pers-3|case-d|vib-0|tam-0|chunkId-NP7|stype-|voicetype-	12	nmod	_	_
12	nirmANa	nirmANa	n	NN	lex-nirmANa|cat-n|gen-m|num-sg|pers-3|case-o|vib-0_kA|tam-0|chunkId-NP8|stype-|voicetype-	13	r6	_	_
13	caraNoM	caraNa	n	NN	lex-caraNa|cat-n|gen-m|num-pl|pers-3|case-o|vib-0_meM|tam-0|chunkId-NP9|stype-|voicetype-	14	k7	_	_
14	hEM	hE	v	VM	lex-hE|cat-v|gen-any|num-pl|pers-3|case-|vib-hE|tam-hE|chunkId-VGF3|stype-declarative|voicetype-active	9	ccof	_	_
15	.	.	punc	SYM	lex-.|cat-punc|gen-|num-|pers-|case-|vib-|tam-|chunkId-BLK|stype-|voicetype-	2	rsym	_	_

1	unhoMne	vaha	pn	PRP	lex-vaha|cat-pn|gen-any|num-sg|pers-3h|case-o|vib-ne|tam-ne|chunkId-NP|stype-|voicetype-	2	k1	_	_
2	bawAyA	bawA	v	VM	lex-bawA|cat-v|gen-m|num-sg|pers-any|case-|vib-yA|tam-yA|chunkId-VGF|stype-declarative|voicetype-active	0	main	_	_
3	ki	ki	avy	CC	lex-ki|cat-avy|gen-|num-|pers-|case-|vib-|tam-|chunkId-CCP|stype-|voicetype-	2	k2	_	_
4	isameM	yaha	pn	PRP	lex-yaha|cat-pn|gen-any|num-sg|pers-3|case-o|vib-meM|tam-meM|chunkId-NP2|stype-|voicetype-	14	k7	_	_
5	Prigeta	Prigeta	n	NN	lex-Prigeta|cat-n|gen-m|num-sg|pers-3|case-d|vib-0|tam-0|chunkId-NP3|stype-|voicetype-	6	ccof	_	_
6	waWA	waWA	avy	CC	lex-waWA|cat-avy|gen-|num-|pers-|case-|vib-|tam-|chunkId-CCP2|stype-|voicetype-	11	ccof	_	_
7	projekta	projekta	n	NN	lex-projekta|cat-n|gen-m|num-sg|pers-3|case-d|vib-0|tam-0|chunkId-NP4|stype-|voicetype-	6	ccof	_	_
8	klAsa	klAsa	n	NNP	lex-klAsa|cat-n|gen-m|num-sg|pers-3|case-d|vib-0_kA|tam-0|chunkId-NP5|stype-|voicetype-	9	r6	_	_
9	Prigeta	Prigeta	n	NNP	lex-Prigeta|cat-n|gen-m|num-sg|pers-3|case-d|vib-0|tam-0|chunkId-NP6|stype-|voicetype-	11	ccof	_	_
10	Sipa	Sipa	n	NNP	lex-Sipa|cat-n|gen-f|num-sg|pers-3|case-d|vib-0|tam-0|chunkId-NP7|stype-|voicetype-	11	ccof	_	_
11	Ora	Ora	avy	CC	lex-Ora|cat-avy|gen-|num-|pers-|case-|vib-|tam-|chunkId-CCP3|stype-|voicetype-	14	k1	_	_
12	Sipa	Sipa	n	NNP	lex-Sipa|cat-n|gen-m|num-sg|pers-3|case-d|vib-0|tam-0|chunkId-NP8|stype-|voicetype-	11	ccof	_	_
13	SAmila	SAmila	adj	JJ	lex-SAmila|cat-adj|gen-any|num-any|pers-|case-|vib-|tam-|chunkId-JJP|stype-|voicetype-	14	k1s	_	_
14	hEM	hE	v	VM	lex-hE|cat-v|gen-any|num-pl|pers-3|case-|vib-hE|tam-hE|chunkId-VGF2|stype-declarative|voicetype-active	3	ccof	_	_
15	.	.	punc	SYM	lex-.|cat-punc|gen-|num-|pers-|case-|vib-|tam-|chunkId-BLK|stype-|voicetype-	2	rsym	_	_

