1	kAMgresa	kAMgresa	n	NNP	lex-kAMgresa|cat-n|gen-f|num-sg|pers-3|case-o|vib-0_kA|tam-0|chunkId-NP|stype-|voicetype-	2	r6	_	_
2	aXyakRa	aXyakRa	n	NN	lex-aXyakRa|cat-n|gen-f|num-sg|pers-3|case-d|vib-0|tam-0|chunkId-NP2|stype-|voicetype-	3	ccof	_	_
3	Ora	Ora	avy	CC	lex-Ora|cat-avy|gen-|num-|pers-|case-|vib-|tam-|chunkId-CCP|stype-|voicetype-	6	nmod	_	_
4	jile	jilA	n	NN	lex-jilA|cat-n|gen-m|num-sg|pers-3|case-o|vib-0_kA|tam-0|chunkId-NP3|stype-|voicetype-	5	r6	_	_
5	sAMsaxa	sAMsaxa	n	NN	lex-sAMsaxa|cat-n|gen-f|num-sg|pers-3|case-d|vib-0|tam-0|chunkId-NP4|stype-|voicetype-	3	ccof	_	_
6	gAMXI	gAMXI	n	NNP	lex-gAMXI|cat-n|gen-any|num-sg|pers-3|case-d|vib-0|tam-0|chunkId-NP5|stype-|voicetype-	9	k1	_	_
7	somavAra	somavAra	n	NNP	lex-somavAra|cat-n|gen-m|num-sg|pers-3|case-o|vib-0_ko|tam-0|chunkId-NP6|stype-|voicetype-	9	k7t	_	_
8	baCarAvAM	baCarAvAM	n	NNP	lex-baCarAvAM|cat-n|gen-m|num-sg|pers-3|case-d|vib-0|tam-0|chunkId-NP7|stype-|voicetype-	9	k2p	_	_
9	pahuMcIM	pahuMca	v	VM	lex-pahuMca|cat-v|gen-f|num-sg|pers-3h|case-|vib-yA|tam-yA|chunkId-VGF|stype-declarative|voicetype-active	0	main	_	_
10	.	.	punc	SYM	lex-.|cat-punc|gen-|num-|pers-|case-|vib-|tam-|chunkId-BLK|stype-|voicetype-	9	rsym	_	_

1	ve	vaha	pn	PRP	lex-vaha|cat-pn|gen-any|num-sg|pers-3h|case-d|vib-0|tam-0|chunkId-NP|stype-|voicetype-	3	k1	_	_
2	apane	apanA	pn	PRP	lex-apanA|cat-pn|gen-m|num-any|pers-any|case-o|vib-0_sAWa|tam-0|chunkId-NP2|stype-|voicetype-	3	ras-k1	_	_
3	lAI	lA	v	VM	lex-lA|cat-v|gen-f|num-sg|pers-any|case-|vib-yA|tam-yA|chunkId-VGNF|stype-|voicetype-	0	main	_	_
4	rupae	rupayA	n	NN	lex-rupayA|cat-n|gen-m|num-sg|pers-3|case-o|vib-0_kA|tam-0|chunkId-NP3|stype-|voicetype-	5	r6	_	_
5	yojanAoM	yojanA	n	NN	lex-yojanA|cat-n|gen-f|num-pl|pers-3|case-o|vib-0_kA|tam-0|chunkId-NP4|stype-|voicetype-	6	r6	_	_
6	pitArA	pitArA	n	NN	lex-pitArA|cat-n|gen-m|num-sg|pers-3|case-d|vib-0|tam-0|chunkId-NP5|stype-|voicetype-	3	k2	_	_
7	.	.	punc	SYM	lex-.|cat-punc|gen-|num-|pers-|case-|vib-|tam-|chunkId-BLK|stype-|voicetype-	3	rsym	_	_

1	pitArA	pitArA	n	NN	lex-pitArA|cat-n|gen-m|num-sg|pers-3|case-d|vib-0|tam-0|chunkId-NP|stype-|voicetype-	10	k2	_	_
2	unhoMne	vaha	pn	PRP	lex-vaha|cat-pn|gen-any|num-sg|pers-3h|case-o|vib-ne|tam-ne|chunkId-NP2|stype-|voicetype-	10	k1	_	_
3	yahAM	yahAz	pn	PRP	lex-yahAz|cat-pn|gen-|num-|pers-|case-d|vib-|tam-|chunkId-NP3|stype-|voicetype-	10	k7p	_	_
4	Sivira	Sivira	n	NNP	lex-Sivira|cat-n|gen-m|num-sg|pers-3|case-o|vib-0_kA|tam-0|chunkId-NP4|stype-|voicetype-	5	r6-k1	_	_
5	SuBAraMBa	SuBAraMBa	n	NN	lex-SuBAraMBa|cat-n|gen-m|num-sg|pers-3|case-d|vib-0|tam-0|chunkId-NP5|stype-|voicetype-	6	pof	_	_
6	karane	kara	v	VM	lex-kara|cat-v|gen-any|num-sg|pers-3|case-o|vib-nA_ke_bAxa|tam-nA|chunkId-VGNN|stype-|voicetype-	10	k7t	_	_
7	mahAvixyAlaya	mahAvixyAlaya	n	NNP	lex-mahAvixyAlaya|cat-n|gen-m|num-sg|pers-3|case-o|vib-0_meM|tam-0|chunkId-NP6|stype-|voicetype-	10	k7p	_	_
8	Ayojiwa	Ayojiwa	adj	JJ	lex-Ayojiwa|cat-adj|gen-any|num-any|pers-|case-o|vib-|tam-|chunkId-JJP|stype-|voicetype-	9	nmod	_	_
9	samAroha	samAroha	n	NN	lex-samAroha|cat-n|gen-m|num-sg|pers-3|case-o|vib-0_meM|tam-0|chunkId-NP7|stype-|voicetype-	10	k7	_	_
10	KolA	Kola	v	VM	lex-Kola|cat-v|gen-m|num-sg|pers-any|case-|vib-yA|tam-yA|chunkId-VGF|stype-declarative|voicetype-active	0	main	_	_
11	.	.	punc	SYM	lex-.|cat-punc|gen-|num-|pers-|case-|vib-|tam-|chunkId-BLK|stype-|voicetype-	10	rsym	_	_

1	unhoMne	vaha	pn	PRP	lex-vaha|cat-pn|gen-any|num-sg|pers-3h|case-o|vib-ne|tam-ne|chunkId-NP|stype-|voicetype-	8	k1	_	_
2	jile	jilA	n	NN	lex-jilA|cat-n|gen-m|num-sg|pers-3|case-o|vib-0_kA|tam-0|chunkId-NP2|stype-|voicetype-	3	r6	_	_
3	logoM	loga	n	NN	lex-loga|cat-n|gen-m|num-pl|pers-3|case-o|vib-0_ko|tam-0|chunkId-NP3|stype-|voicetype-	8	k4	_	_
4	yuga	yuga	n	NNP	lex-yuga|cat-n|gen-m|num-sg|pers-3|case-o|vib-0_kA|tam-0|chunkId-NP4|stype-|voicetype-	5	r6	_	_
5	vApasI	vApasI	n	NN	lex-vApasI|cat-n|gen-f|num-sg|pers-3|case-o|vib-0_kA|tam-0|chunkId-NP5|stype-|voicetype-	6	r6-k2	_	_
6	saMkewa	saMkewa	n	NN	lex-saMkewa|cat-n|gen-m|num-pl|pers-3|case-d|vib-0|tam-0|chunkId-NP6|stype-|voicetype-	7	pof	_	_
7	xewe	xe	v	VM	lex-xe|cat-v|gen-m|num-sg|pers-any|case-|vib-wA_ho+yA|tam-wA|chunkId-VGNF|stype-|voicetype-	8	vmod	_	_
8	kahA	kaha	v	VM	lex-kaha|cat-v|gen-m|num-sg|pers-any|case-|vib-yA|tam-yA|chunkId-VGF|stype-declarative|voicetype-active	0	main	_	_
9	ki	ki	avy	CC	lex-ki|cat-avy|gen-|num-|pers-|case-|vib-|tam-|chunkId-CCP|stype-|voicetype-	8	k2	_	_
10	saba	saba	pn	PRP	lex-saba|cat-pn|gen-any|num-pl|pers-any|case-d|vib-0|tam-0|chunkId-NP7|stype-|voicetype-	12	k1	_	_
11	bAnagI	bAnagI	n	NN	lex-bAnagI|cat-n|gen-f|num-sg|pers-3|case-d|vib-0|tam-0|chunkId-NP8|stype-|voicetype-	12	k1s	_	_
12	hE	hE	v	VM	lex-hE|cat-v|gen-any|num-sg|pers-3|case-|vib-hE|tam-hE|chunkId-VGF2|stype-declarative|voicetype-active	9	ccof	_	_
13	.	.	punc	SYM	lex-.|cat-punc|gen-|num-|pers-|case-|vib-|tam-|chunkId-BLK|stype-|voicetype-	8	rsym	_	_

1	isake	yaha	pn	PRP	lex-yaha|cat-pn|gen-m|num-sg|pers-3|case-o|vib-ke_bAxa|tam-ke|chunkId-NP|stype-|voicetype-	6	k7t	_	_
2	kAryakrama	kAryakrama	n	NN	lex-kAryakrama|cat-n|gen-m|num-sg|pers-3|case-o|vib-0_ke|tam-0|chunkId-NP2|stype-|voicetype-	6	ras-NEG	_	_
3	unhoMne	vaha	pn	PRP	lex-vaha|cat-pn|gen-any|num-sg|pers-3h|case-o|vib-ne|tam-ne|chunkId-NP3|stype-|voicetype-	6	k1	_	_
4	gAMvoM	gAMva	n	NN	lex-gAMva|cat-n|gen-m|num-pl|pers-3|case-o|vib-0_kA|tam-0|chunkId-NP4|stype-|voicetype-	5	r6-k2	_	_
5	xOrA	xOrA	n	NN	lex-xOrA|cat-n|gen-m|num-sg|pers-3|case-d|vib-0|tam-0|chunkId-NP5|stype-|voicetype-	6	pof	_	_
6	kiyA	kara	v	VM	lex-kara|cat-v|gen-m|num-sg|pers-any|case-|vib-yA|tam-yA|chunkId-VGF|stype-declarative|voicetype-active	7	ccof	_	_
7	Ora	Ora	avy	CC	lex-Ora|cat-avy|gen-|num-|pers-|case-|vib-|tam-|chunkId-CCP|stype-|voicetype-	0	main	_	_
8	garIboM	garIba	n	NN	lex-garIba|cat-n|gen-m|num-pl|pers-3|case-o|vib-0_kA|tam-0|chunkId-NP6|stype-|voicetype-	9	r6	_	_
9	xarxa	xarxa	n	NN	lex-xarxa|cat-n|gen-m|num-sg|pers-3|case-d|vib-0|tam-0|chunkId-NP7|stype-|voicetype-	10	k2	_	_
10	bAMtA	bAMta	v	VM	lex-bAMta|cat-v|gen-m|num-sg|pers-3|case-|vib-yA|tam-yA|chunkId-VGF2|stype-declarative|voicetype-active	7	ccof	_	_
11	.	.	punc	SYM	lex-.|cat-punc|gen-|num-|pers-|case-|vib-|tam-|chunkId-BLK|stype-|voicetype-	7	rsym	_	_

1	unhoMne	vaha	pn	PRP	lex-vaha|cat-pn|gen-any|num-sg|pers-3h|case-o|vib-ne|tam-ne|chunkId-NP|stype-|voicetype-	15	k1	_	_
2	varRa	varRa	n	NN	lex-varRa|cat-n|gen-m|num-sg|pers-3|case-o|vib-0_kA|tam-0|chunkId-NP2|stype-|voicetype-	3	r6	_	_
3	SuBakAmanAoM	SuBakAmanA	n	NN	lex-SuBakAmanA|cat-n|gen-f|num-pl|pers-3|case-o|vib-0_ke_sAWa|tam-0|chunkId-NP3|stype-|voicetype-	15	ras-k1	_	_
4	rAyabarelI	rAyabarelI	n	NNP	lex-rAyabarelI|cat-n|gen-m|num-sg|pers-3|case-o|vib-0_kA|tam-0|chunkId-NP4|stype-|voicetype-	5	r6	_	_
5	vikAsa	vikAsa	n	NN	lex-vikAsa|cat-n|gen-m|num-sg|pers-3|case-o|vib-0_ke_lie|tam-0|chunkId-NP5|stype-|voicetype-	7	rt	_	_
6	KajAnA	KajAnA	n	NN	lex-KajAnA|cat-n|gen-m|num-sg|pers-3|case-d|vib-0|tam-0|chunkId-NP6|stype-|voicetype-	7	k2	_	_
7	Kolawe	Kola	v	VM	lex-Kola|cat-v|gen-m|num-sg|pers-any|case-|vib-wA_ho+yA|tam-wA|chunkId-VGNF|stype-|voicetype-	15	vmod	_	_
8	sadZakoM	sadZaka	n	NN	lex-sadZaka|cat-n|gen-f|num-pl|pers-3|case-o|vib-0_ke_lie|tam-0|chunkId-NP7|stype-|voicetype-	13	rt	_	_
9	,	COMMA	punc	SYM	lex-COMMA|cat-punc|gen-|num-|pers-|case-|vib-0_ke_alAvA|tam-|chunkId-NP8|stype-|voicetype-	13	vmod	_	_
10	yojanA	yojanA	n	NNP	lex-yojanA|cat-n|gen-f|num-sg|pers-3|case-o|vib-0_ke_lie|tam-0|chunkId-NP9|stype-|voicetype-	13	rt	_	_
11	rupae	rupayA	n	NN	lex-rupayA|cat-n|gen-m|num-pl|pers-3|case-d|vib-0|tam-0|chunkId-NP10|stype-|voicetype-	13	k2	_	_
12	maMjUra	maMjUra	adj	JJ	lex-maMjUra|cat-adj|gen-any|num-any|pers-|case-|vib-|tam-|chunkId-JJP|stype-|voicetype-	13	pof	_	_
13	kie	kara	v	VM	lex-kara|cat-v|gen-any|num-sg|pers-any|case-|vib-yA_jA+nA_kA|tam-yA|chunkId-VGNN|stype-|voicetype-	14	r6-k2	_	_
14	GoRaNA	GoRaNA	n	NN	lex-GoRaNA|cat-n|gen-f|num-sg|pers-3|case-d|vib-0|tam-0|chunkId-NP11|stype-|voicetype-	15	pof	_	_
15	kI	kara	v	VM	lex-kara|cat-v|gen-f|num-sg|pers-any|case-|vib-yA|tam-yA|chunkId-VGF|stype-declarative|voicetype-active	0	main	_	_
16	.	.	punc	SYM	lex-.|cat-punc|gen-|num-|pers-|case-|vib-|tam-|chunkId-BLK|stype-|voicetype-	15	rsym	_	_

1	hI	hI	avy	RP	lex-hI|cat-avy|gen-|num-|pers-|case-|vib-|tam-|chunkId-NP|stype-|voicetype-	2	sent-adv	_	_
2	kahA	kaha	v	VM	lex-kaha|cat-v|gen-m|num-sg|pers-any|case-|vib-yA|tam-yA|chunkId-VGF|stype-declarative|voicetype-active	0	main	_	_
3	ki	ki	avy	CC	lex-ki|cat-avy|gen-|num-|pers-|case-|vib-|tam-|chunkId-CCP|stype-|voicetype-	2	k2	_	_
4	yojanA	yojanA	n	NNP	lex-yojanA|cat-n|gen-f|num-sg|pers-3|case-o|vib-0_meM|tam-0|chunkId-NP2|stype-|voicetype-	9	k7	_	_
5	jile	jilA	n	NN	lex-jilA|cat-n|gen-m|num-sg|pers-3|case-o|vib-0_ko|tam-0|chunkId-NP3|stype-|voicetype-	9	k4	_	_
6	sAloM	sAla	n	NN	lex-sAla|cat-n|gen-m|num-pl|pers-3|case-o|vib-0_waka|tam-0|chunkId-NP4|stype-|voicetype-	9	k7t	_	_
7	prawivarRa	prawivarRa	n	NN	lex-prawivarRa|cat-n|gen-m|num-sg|pers-3|case-d|vib-0|tam-0|chunkId-NP5|stype-|voicetype-	9	k7t	_	_
8	karodZa	karoda	num	QC	lex-karoda|cat-num|gen-any|num-any|pers-|case-any|vib-|tam-|chunkId-NP6|stype-|voicetype-	9	k1	_	_
9	mileMge	mila	v	VM	lex-mila|cat-v|gen-m|num-pl|pers-3|case-|vib-gA|tam-gA|chunkId-VGF2|stype-declarative|voicetype-active	3	ccof	_	_
10	.	.	punc	SYM	lex-.|cat-punc|gen-|num-|pers-|case-|vib-|tam-|chunkId-BLK|stype-|voicetype-	2	rsym	_	_

1	NULL	_	pn	PRP	lex-_|cat-pn|gen-|num-|pers-|case-|vib-|tam-|chunkId-NP|stype-|voicetype-	2	k2	_	_
2	kahA	kaha	v	VM	lex-kaha|cat-v|gen-m|num-sg|pers-any|case-|vib-yA|tam-yA|chunkId-VGF|stype-declarative|voicetype-active	0	main	_	_
3	ki	ki	avy	CC	lex-ki|cat-avy|gen-|num-|pers-|case-|vib-|tam-|chunkId-CCP|stype-|voicetype-	1	rs	_	_
4	naharoM	nahara	n	NN	lex-nahara|cat-n|gen-f|num-pl|pers-3|case-o|vib-0_ke_lie|tam-0|chunkId-NP2|stype-|voicetype-	8	rt	_	_
5	karodZa	karoda	num	QC	lex-karoda|cat-num|gen-any|num-any|pers-|case-any|vib-0_kA|tam-|chunkId-NP3|stype-|voicetype-	6	r6	_	_
6	yojanA	yojanA	n	NN	lex-yojanA|cat-n|gen-f|num-sg|pers-3|case-d|vib-0|tam-0|chunkId-NP4|stype-|voicetype-	8	k1	_	_
7	praswAviwa	praswAviwa	adj	JJ	lex-praswAviwa|cat-adj|gen-any|num-any|pers-|case-|vib-|tam-|chunkId-JJP|stype-|voicetype-	8	k1s	_	_
8	hE	hE	v	VM	lex-hE|cat-v|gen-any|num-sg|pers-3|case-|vib-hE|tam-hE|chunkId-VGF2|stype-declarative|voicetype-active	9	ccof	_	_
9	NULL	_	avy	CC	lex-_|cat-avy|gen-|num-|pers-|case-|vib-|tam-|chunkId-NULL__CCP|stype-|voicetype-	3	ccof	_	_
10	maMjUrI	maMjUrI	n	NN	lex-maMjUrI|cat-n|gen-f|num-sg|pers-3|case-o|vib-0_kA|tam-0|chunkId-NP5|stype-|voicetype-	11	r6	_	_
11	xera	xera	n	NN	lex-xera|cat-n|gen-f|num-sg|pers-3|case-d|vib-0|tam-0|chunkId-NP6|stype-|voicetype-	12	k1	_	_
12	hE	hE	v	VM	lex-hE|cat-v|gen-any|num-sg|pers-3|case-|vib-hE|tam-hE|chunkId-VGF3|stype-declarative|voicetype-active	9	ccof	_	_
13	.	.	punc	SYM	lex-.|cat-punc|gen-|num-|pers-|case-|vib-|tam-|chunkId-BLK|stype-|voicetype-	2	rsym	_	_

1	xOrAna	xOrAna	nst	NST	lex-xOrAna|cat-nst|gen-m|num-sg|pers-3|case-d|vib-|tam-|chunkId-NP|stype-|voicetype-	8	k7t	_	_
2	unhoMne	vaha	pn	PRP	lex-vaha|cat-pn|gen-any|num-sg|pers-3h|case-o|vib-ne|tam-ne|chunkId-NP2|stype-|voicetype-	8	k1	_	_
3	aspawAla	aspawAla	n	NN	lex-aspawAla|cat-n|gen-m|num-sg|pers-3|case-o|vib-0_kA|tam-0|chunkId-NP3|stype-|voicetype-	4	r6	_	_
4	AXunikIkaraNa	AXunikIkaraNa	n	NN	lex-AXunikIkaraNa|cat-n|gen-m|num-sg|pers-3|case-o|vib-0_ke_lie|tam-0|chunkId-NP4|stype-|voicetype-	6	rt	_	_
5	rupae	rupayA	n	NN	lex-rupayA|cat-n|gen-m|num-pl|pers-3|case-d|vib-0|tam-0|chunkId-NP5|stype-|voicetype-	6	k2	_	_
6	xene	xe	v	VM	lex-xe|cat-v|gen-any|num-sg|pers-any|case-o|vib-nA_kA|tam-nA|chunkId-VGNN|stype-|voicetype-	7	r6-k2	_	_
7	GoRaNA	GoRaNA	n	NN	lex-GoRaNA|cat-n|gen-f|num-sg|pers-3|case-d|vib-0|tam-0|chunkId-NP6|stype-|voicetype-	8	pof	_	_
8	kI	kara	v	VM	lex-kara|cat-v|gen-f|num-sg|pers-any|case-|vib-yA|tam-yA|chunkId-VGF|stype-declarative|voicetype-active	0	main	_	_
9	.	.	punc	SYM	lex-.|cat-punc|gen-|num-|pers-|case-|vib-|tam-|chunkId-BLK|stype-|voicetype-	8	rsym	_	_

1	aXyakRa	aXyakRa	n	NN	lex-aXyakRa|cat-n|gen-m|num-sg|pers-3|case-o|vib-0_ne|tam-0|chunkId-NP|stype-|voicetype-	2	k1	_	_
2	kahA	kaha	v	VM	lex-kaha|cat-v|gen-m|num-sg|pers-any|case-|vib-yA|tam-yA|chunkId-VGF|stype-declarative|voicetype-active	0	main	_	_
3	berojagAroM	berojagAra	n	NN	lex-berojagAra|cat-n|gen-m|num-pl|pers-3|case-o|vib-0|tam-0|chunkId-NP2|stype-|voicetype-	4	ccof	_	_
4	Ora	Ora	avy	CC	lex-Ora|cat-avy|gen-|num-|pers-|case-|vib-|tam-|chunkId-CCP|stype-|voicetype-	10	rt	_	_
5	mahilAoM	mahilA	n	NN	lex-mahilA|cat-n|gen-f|num-pl|pers-3|case-o|vib-0_ke_lie|tam-0|chunkId-NP3|stype-|voicetype-	4	ccof	_	_
6	kRewra	kRewra	n	NN	lex-kRewra|cat-n|gen-m|num-sg|pers-3|case-o|vib-0_meM|tam-0|chunkId-NP4|stype-|voicetype-	10	k7	_	_
7	yojanAeM	yojanA	n	NN	lex-yojanA|cat-n|gen-f|num-pl|pers-3|case-d|vib-0|tam-0|chunkId-NP5|stype-|voicetype-	10	k2	_	_
8	jalxa	jalxa	adv	RB	lex-jalxa|cat-adv|gen-|num-|pers-|case-|vib-|tam-|chunkId-RBP|stype-|voicetype-	10	adv	_	_
9	amalIjAmA	amalIjAmA	n	NN	lex-amalIjAmA|cat-n|gen-m|num-sg|pers-3|case-d|vib-0|tam-0|chunkId-NP6|stype-|voicetype-	10	k2s	_	_
10	pahaneMgI	pahana	v	VM	lex-pahana|cat-v|gen-f|num-pl|pers-3|case-|vib-gA|tam-gA|chunkId-VGF2|stype-declarative|voicetype-active	2	k2	_	_
11	.	.	punc	SYM	lex-.|cat-punc|gen-|num-|pers-|case-|vib-|tam-|chunkId-BLK|stype-|voicetype-	2	rsym	_	_

1	unhoMne	vaha	pn	PRP	lex-vaha|cat-pn|gen-any|num-sg|pers-3h|case-o|vib-ne|tam-ne|chunkId-NP|stype-|voicetype-	2	k1	_	_
2	bawAyA	bawA	v	VM	lex-bawA|cat-v|gen-m|num-sg|pers-any|case-|vib-yA|tam-yA|chunkId-VGF|stype-declarative|voicetype-active	0	main	_	_
3	ki	ki	avy	CC	lex-ki|cat-avy|gen-|num-|pers-|case-|vib-|tam-|chunkId-CCP|stype-|voicetype-	2	k2	_	_
4	vihAra	vihAra	n	NNP	lex-vihAra|cat-n|gen-m|num-sg|pers-3|case-o|vib-0|tam-0|chunkId-NP2|stype-|voicetype-	6	ccof	_	_
5	salona	salona	n	NNP	lex-salona|cat-n|gen-m|num-sg|pers-3|case-o|vib-0|tam-0|chunkId-NP3|stype-|voicetype-	6	ccof	_	_
6	Ora	Ora	avy	CC	lex-Ora|cat-avy|gen-|num-|pers-|case-|vib-|tam-|chunkId-CCP2|stype-|voicetype-	10	k2	_	_
7	dalamaU	dalamaU	n	NNP	lex-dalamaU|cat-n|gen-m|num-sg|pers-3|case-o|vib-0_ko|tam-0|chunkId-NP4|stype-|voicetype-	6	ccof	_	_
8	sWala	sWala	n	NN	lex-sWala|cat-n|gen-m|num-sg|pers-3|case-o|vib-0_ke_rUpa_meM|tam-0|chunkId-NP5|stype-|voicetype-	10	k7	_	_
9	vikasiwa	vikasiwa	adj	JJ	lex-vikasiwa|cat-adj|gen-any|num-any|pers-|case-|vib-|tam-|chunkId-JJP|stype-|voicetype-	10	pof	_	_
10	kiyA	kara	v	VM	lex-kara|cat-v|gen-m|num-sg|pers-3|case-|vib-yA_jA+gA|tam-yA|chunkId-VGF2|stype-declarative|voicetype-passive	3	ccof	_	_
11	.	.	punc	SYM	lex-.|cat-punc|gen-|num-|pers-|case-|vib-|tam-|chunkId-BLK|stype-|voicetype-	2	rsym	_	_

1	gAMXI	gAMXI	n	NNP	lex-gAMXI|cat-n|gen-any|num-sg|pers-3|case-o|vib-0_ne|tam-0|chunkId-NP|stype-|voicetype-	2	k1	_	_
2	kahA	kaha	v	VM	lex-kaha|cat-v|gen-m|num-sg|pers-any|case-|vib-yA|tam-yA|chunkId-VGF|stype-declarative|voicetype-active	0	main	_	_
3	ki	ki	avy	CC	lex-ki|cat-avy|gen-|num-|pers-|case-|vib-|tam-|chunkId-CCP|stype-|voicetype-	2	k2	_	_
4	sevA	sevA	n	NN	lex-sevA|cat-n|gen-f|num-sg|pers-3|case-o|vib-0_meM|tam-0|chunkId-NP2|stype-|voicetype-	7	k7	_	_
5	kahIM	kahIM	pn	PRP	lex-kahIM|cat-pn|gen-|num-|pers-|case-d|vib-|tam-|chunkId-NP3|stype-|voicetype-	7	k7	_	_
6	kamI	kamI	n	NN	lex-kamI|cat-n|gen-f|num-sg|pers-3|case-d|vib-0|tam-0|chunkId-NP4|stype-|voicetype-	7	k1	_	_
7	raha	raha	v	VM	lex-raha|cat-v|gen-f|num-sg|pers-3|case-|vib-0_jA+wA_hE|tam-0|chunkId-VGF2|stype-declarative|voicetype-active	3	ccof	_	_
8	.	.	punc	SYM	lex-.|cat-punc|gen-|num-|pers-|case-|vib-|tam-|chunkId-BLK|stype-|voicetype-	2	rsym	_	_

1	Sivira	Sivira	n	NNP	lex-Sivira|cat-n|gen-m|num-sg|pers-3|case-o|vib-0_kA|tam-0|chunkId-NP|stype-|voicetype-	2	r6	_	_
2	uxxeSya	uxxeSya	n	NN	lex-uxxeSya|cat-n|gen-m|num-sg|pers-3|case-d|vib-0|tam-0|chunkId-NP2|stype-|voicetype-	6	k1	_	_
3	garIboM	garIba	n	NN	lex-garIba|cat-n|gen-m|num-pl|pers-3|case-o|vib-0_ko|tam-0|chunkId-NP3|stype-|voicetype-	6	k4	_	_
4	sevA	sevA	n	NN	lex-sevA|cat-n|gen-f|num-sg|pers-3|case-d|vib-0|tam-0|chunkId-NP4|stype-|voicetype-	5	k2	_	_
5	xenA	xe	v	VM	lex-xe|cat-v|gen-m|num-sg|pers-any|case-|vib-nA|tam-nA|chunkId-VGNN|stype-|voicetype-	6	k1s	_	_
6	hE	hE	v	VM	lex-hE|cat-v|gen-any|num-sg|pers-3|case-|vib-hE|tam-hE|chunkId-VGF|stype-declarative|voicetype-active	0	main	_	_
7	.	.	punc	SYM	lex-.|cat-punc|gen-|num-|pers-|case-|vib-|tam-|chunkId-BLK|stype-|voicetype-	6	rsym	_	_

1	unhoMne	vaha	pn	PRP	lex-vaha|cat-pn|gen-any|num-sg|pers-3h|case-o|vib-ne|tam-ne|chunkId-NP|stype-|voicetype-	3	k1	_	_
2	viSvAsa	viSvAsa	n	NN	lex-viSvAsa|cat-n|gen-m|num-sg|pers-3|case-d|vib-0|tam-0|chunkId-NP2|stype-|voicetype-	3	k1s	_	_
3	jawAyA	jawA	v	VM	lex-jawA|cat-v|gen-m|num-sg|pers-any|case-|vib-yA|tam-yA|chunkId-VGF|stype-declarative|voicetype-active	0	main	_	_
4	ki	ki	avy	CC	lex-ki|cat-avy|gen-|num-|pers-|case-|vib-|tam-|chunkId-CCP|stype-|voicetype-	3	k2	_	_
5	PAuMdeSana	PAuMdeSana	n	NNP	lex-PAuMdeSana|cat-n|gen-m|num-sg|pers-3|case-d|vib-0|tam-0|chunkId-NP3|stype-|voicetype-	6	ccof	_	_
6	waWA	waWA	avy	CC	lex-waWA|cat-avy|gen-|num-|pers-|case-|vib-|tam-|chunkId-CCP2|stype-|voicetype-	8	ccof	_	_
7	PAuMdeSana	PAuMdeSana	n	NNP	lex-PAuMdeSana|cat-n|gen-m|num-sg|pers-3|case-o|vib-0|tam-0|chunkId-NP4|stype-|voicetype-	6	ccof	_	_
8	evaM	evaM	avy	CC	lex-evaM|cat-avy|gen-|num-|pers-|case-|vib-|tam-|chunkId-CCP3|stype-|voicetype-	16	rd	_	_
9	trasta	trasta	n	NNP	lex-trasta|cat-n|gen-m|num-sg|pers-3|case-o|vib-0_kA_ora_se|tam-0|chunkId-NP5|stype-|voicetype-	8	ccof	_	_
10	mahIne	mahInA	n	NN	lex-mahInA|cat-n|gen-m|num-sg|pers-3|case-o|vib-0_ke_lie|tam-0|chunkId-NP6|stype-|voicetype-	16	k7t	_	_
11	baCarAvAM	baCarAvAM	n	NNP	lex-baCarAvAM|cat-n|gen-m|num-sg|pers-3|case-o|vib-0_meM|tam-0|chunkId-NP7|stype-|voicetype-	12	jjmod	_	_
12	Ayojiwa	Ayojiwa	adj	JJ	lex-Ayojiwa|cat-adj|gen-any|num-any|pers-|case-o|vib-|tam-|chunkId-JJP|stype-|voicetype-	13	nmod	_	_
13	Sivira	Sivira	n	NN	lex-Sivira|cat-n|gen-m|num-sg|pers-3|case-o|vib-0_kA|tam-0|chunkId-NP8|stype-|voicetype-	14	r6	_	_
14	marIja	marIja	n	NN	lex-marIja|cat-n|gen-m|num-pl|pers-3|case-d|vib-0|tam-0|chunkId-NP9|stype-|voicetype-	16	k1	_	_
15	PAyaxA	PAyaxA	n	NN	lex-PAyaxA|cat-n|gen-m|num-sg|pers-3|case-d|vib-0|tam-0|chunkId-NP10|stype-|voicetype-	16	pof	_	_
16	uTAeMge	uTA	v	VM	lex-uTA|cat-v|gen-m|num-pl|pers-3|case-|vib-gA|tam-gA|chunkId-VGF2|stype-declarative|voicetype-active	4	ccof	_	_
17	.	.	punc	SYM	lex-.|cat-punc|gen-|num-|pers-|case-|vib-|tam-|chunkId-BLK|stype-|voicetype-	3	rsym	_	_

1	logoM	loga	n	NN	lex-loga|cat-n|gen-m|num-pl|pers-3|case-o|vib-0_ko|tam-0|chunkId-NP|stype-|voicetype-	4	k4	_	_
2	OYpareSana	OYpareSana	n	NN	lex-OYpareSana|cat-n|gen-m|num-sg|pers-3|case-o|vib-0_kA|tam-0|chunkId-NP2|stype-|voicetype-	3	r6	_	_
3	suviXAeM	suviXA	n	NN	lex-suviXA|cat-n|gen-f|num-pl|pers-3|case-d|vib-0|tam-0|chunkId-NP3|stype-|voicetype-	4	k1	_	_
4	milegI	mila	v	VM	lex-mila|cat-v|gen-f|num-pl|pers-3|case-|vib-gA|tam-gA|chunkId-VGF|stype-declarative|voicetype-active	0	main	_	_
5	.	.	punc	SYM	lex-.|cat-punc|gen-|num-|pers-|case-|vib-|tam-|chunkId-BLK|stype-|voicetype-	4	rsym	_	_

1	Sivira	Sivira	n	NN	lex-Sivira|cat-n|gen-m|num-sg|pers-3|case-o|vib-0_meM|tam-0|chunkId-NP|stype-|voicetype-	5	k7p	_	_
2	laKanaU	laKanaU	n	NNP	lex-laKanaU|cat-n|gen-m|num-sg|pers-3|case-o|vib-0_kA|tam-0|chunkId-NP2|stype-|voicetype-	3	r6	_	_
3	dAktaroM	dAktara	n	NN	lex-dAktara|cat-n|gen-m|num-pl|pers-3|case-o|vib-0_kA|tam-0|chunkId-NP3|stype-|voicetype-	4	r6-k2	_	_
4	BUmikA	BUmikA	n	NN	lex-BUmikA|cat-n|gen-f|num-sg|pers-3|case-d|vib-0|tam-0|chunkId-NP4|stype-|voicetype-	5	pof	_	_
5	hogI	ho	v	VM	lex-ho|cat-v|gen-f|num-sg|pers-3|case-|vib-gA|tam-gA|chunkId-VGF|stype-declarative|voicetype-active	0	main	_	_
6	.	.	punc	SYM	lex-.|cat-punc|gen-|num-|pers-|case-|vib-|tam-|chunkId-BLK|stype-|voicetype-	5	rsym	_	_

1	steSana	steSana	n	NN	lex-steSana|cat-n|gen-m|num-sg|pers-3|case-o|vib-0_para|tam-0|chunkId-NP|stype-|voicetype-	9	k7p	_	_
2	Sivira	Sivira	n	NNP	lex-Sivira|cat-n|gen-m|num-sg|pers-3|case-o|vib-0_kA|tam-0|chunkId-NP2|stype-|voicetype-	3	r6-k2	_	_
3	uxGAtana	uxGAtana	n	NN	lex-uxGAtana|cat-n|gen-m|num-sg|pers-3|case-d|vib-0|tam-0|chunkId-NP3|stype-|voicetype-	4	pof	_	_
4	karane	kara	v	VM	lex-kara|cat-v|gen-any|num-sg|pers-3|case-o|vib-nA_ke_bAxa|tam-nA|chunkId-VGNN|stype-|voicetype-	9	k7t	_	_
5	vahAM	vahAz	pn	PRP	lex-vahAz|cat-pn|gen-|num-|pers-|case-d|vib-|tam-|chunkId-NP4|stype-|voicetype-	9	k7p	_	_
6	Ayojiwa	Ayojiwa	adj	JJ	lex-Ayojiwa|cat-adj|gen-any|num-any|pers-|case-o|vib-|tam-|chunkId-JJP|stype-|voicetype-	7	nmod	_	_
7	janasaBA	janasaBA	n	NN	lex-janasaBA|cat-n|gen-f|num-sg|pers-3|case-o|vib-0_meM|tam-0|chunkId-NP5|stype-|voicetype-	9	k7	_	_
8	gAMXI	gAMXI	n	NNP	lex-gAMXI|cat-n|gen-any|num-sg|pers-3|case-o|vib-0_ne|tam-0|chunkId-NP6|stype-|voicetype-	9	k1	_	_
9	kahA	kaha	v	VM	lex-kaha|cat-v|gen-m|num-sg|pers-any|case-|vib-yA|tam-yA|chunkId-VGF|stype-declarative|voicetype-active	0	main	_	_
10	ki	ki	avy	CC	lex-ki|cat-avy|gen-|num-|pers-|case-|vib-|tam-|chunkId-CCP|stype-|voicetype-	9	k2	_	_
11	suviXA	suviXA	n	NN	lex-suviXA|cat-n|gen-f|num-sg|pers-3|case-d|vib-0|tam-0|chunkId-NP7|stype-|voicetype-	15	k1	_	_
12	aBI	aBI	pn	PRP	lex-aBI|cat-pn|gen-|num-|pers-|case-o|vib-0_waka|tam-|chunkId-NP8|stype-|voicetype-	15	k7t	_	_
13	ameTI	ameTI	n	NNP	lex-ameTI|cat-n|gen-m|num-sg|pers-3|case-o|vib-0_kA|tam-0|chunkId-NP9|stype-|voicetype-	14	r6	_	_
14	logoM	loga	n	NN	lex-loga|cat-n|gen-m|num-pl|pers-3|case-o|vib-0_ko|tam-0|chunkId-NP10|stype-|voicetype-	15	k4	_	_
15	milawI	mila	v	VM	lex-mila|cat-v|gen-f|num-sg|pers-any|case-|vib-wA_WA|tam-wA|chunkId-VGF2|stype-declarative|voicetype-active	16	ccof	_	_
16	para	para	avy	CC	lex-para|cat-avy|gen-|num-|pers-|case-|vib-|tam-|chunkId-CCP2|stype-|voicetype-	10	ccof	_	_
17	aba	aba	pn	PRP	lex-aba|cat-pn|gen-|num-|pers-|case-d|vib-|tam-|chunkId-NP11|stype-|voicetype-	22	k7t	_	_
18	rAyabarelI	rAyabarelI	n	NNP	lex-rAyabarelI|cat-n|gen-m|num-sg|pers-3|case-o|vib-0_kA|tam-0|chunkId-NP12|stype-|voicetype-	19	r6	_	_
19	loga	loga	n	NN	lex-loga|cat-n|gen-m|num-pl|pers-3|case-d|vib-0|tam-0|chunkId-NP13|stype-|voicetype-	22	k1	_	_
20	sevA	sevA	n	NN	lex-sevA|cat-n|gen-f|num-sg|pers-3|case-o|vib-0_kA|tam-0|chunkId-NP14|stype-|voicetype-	21	r6-k2	_	_
21	lABa	lABa	n	NN	lex-lABa|cat-n|gen-m|num-sg|pers-3|case-d|vib-0|tam-0|chunkId-NP15|stype-|voicetype-	22	pof	_	_
22	uTA	uTA	v	VM	lex-uTA|cat-v|gen-any|num-pl|pers-3|case-|vib-0_saka+gA|tam-0|chunkId-VGF3|stype-declarative|voicetype-active	16	ccof	_	_
23	.	.	punc	SYM	lex-.|cat-punc|gen-|num-|pers-|case-|vib-|tam-|chunkId-BLK|stype-|voicetype-	9	rsym	_	_

1	vikalAMgoM	vikalAMga	n	NN	lex-vikalAMga|cat-n|gen-m|num-pl|pers-3|case-o|vib-0_ko|tam-0|chunkId-NP|stype-|voicetype-	6	k1	_	_
2	sevA	sevA	n	NN	lex-sevA|cat-n|gen-f|num-sg|pers-3|case-o|vib-0|tam-0|chunkId-NP2|stype-|voicetype-	3	ccof	_	_
3	Ora	Ora	avy	CC	lex-Ora|cat-avy|gen-|num-|pers-|case-|vib-|tam-|chunkId-CCP|stype-|voicetype-	5	r6	_	_
4	sahAyawA	sahAyawA	n	NN	lex-sahAyawA|cat-n|gen-f|num-sg|pers-3|case-o|vib-0_kA|tam-0|chunkId-NP3|stype-|voicetype-	3	ccof	_	_
5	jarUrawa	jarUrawa	n	NN	lex-jarUrawa|cat-n|gen-f|num-sg|pers-3|case-d|vib-0|tam-0|chunkId-NP4|stype-|voicetype-	6	k2	_	_
6	bawAwe	bawA	v	VM	lex-bawA|cat-v|gen-m|num-sg|pers-any|case-|vib-wA_ho+yA|tam-wA|chunkId-VGNF|stype-|voicetype-	8	vmod	_	_
7	unhoMne	vaha	pn	PRP	lex-vaha|cat-pn|gen-any|num-sg|pers-3h|case-o|vib-ne|tam-ne|chunkId-NP5|stype-|voicetype-	8	k1	_	_
8	kahA	kaha	v	VM	lex-kaha|cat-v|gen-m|num-sg|pers-any|case-|vib-yA|tam-yA|chunkId-VGF|stype-declarative|voicetype-active	0	main	_	_
9	ki	ki	avy	CC	lex-ki|cat-avy|gen-|num-|pers-|case-|vib-|tam-|chunkId-CCP2|stype-|voicetype-	8	k2	_	_
10	jalxa	jalxa	adv	RB	lex-jalxa|cat-adv|gen-|num-|pers-|case-|vib-|tam-|chunkId-RBP|stype-|voicetype-	17	adv	_	_
11	jayapura	jayapura	n	NNP	lex-jayapura|cat-n|gen-m|num-sg|pers-3|case-o|vib-0_kA_ora_se|tam-0|chunkId-NP6|stype-|voicetype-	17	rd	_	_
12	vikalAMgoM	vikalAMga	n	NN	lex-vikalAMga|cat-n|gen-m|num-pl|pers-3|case-o|vib-0_ko|tam-0|chunkId-NP7|stype-|voicetype-	14	k4	_	_
13	pEra	pEra	n	NN	lex-pEra|cat-n|gen-m|num-pl|pers-3|case-d|vib-0|tam-0|chunkId-NP8|stype-|voicetype-	14	k2	_	_
14	xene	xe	v	VM	lex-xe|cat-v|gen-any|num-any|pers-any|case-o|vib-nA_ke_lie|tam-nA|chunkId-VGNN|stype-|voicetype-	17	rt	_	_
15	rAyabarelI	rAyabarelI	n	NNP	lex-rAyabarelI|cat-n|gen-m|num-sg|pers-3|case-o|vib-0_meM|tam-0|chunkId-NP9|stype-|voicetype-	17	k7p	_	_
16	kEMpa	kEMpa	n	NN	lex-kEMpa|cat-n|gen-m|num-sg|pers-3|case-d|vib-0|tam-0|chunkId-NP10|stype-|voicetype-	17	k2	_	_
17	lagAyA	lagA	v	VM	lex-lagA|cat-v|gen-m|num-sg|pers-3|case-|vib-yA_jA+gA|tam-yA|chunkId-VGF2|stype-declarative|voicetype-passive	9	ccof	_	_
18	.	.	punc	SYM	lex-.|cat-punc|gen-|num-|pers-|case-|vib-|tam-|chunkId-BLK|stype-|voicetype-	8	rsym	_	_

1	sunAmI	sunAmI	n	NN	lex-sunAmI|cat-n|gen-f|num-sg|pers-3|case-o|vib-0_kA|tam-0|chunkId-NP|stype-|voicetype-	2	r6	_	_
2	capeta	capeta	n	NN	lex-capeta|cat-n|gen-f|num-sg|pers-3|case-o|vib-0_meM|tam-0|chunkId-NP2|stype-|voicetype-	3	k7	_	_
3	Ae	A	v	VM	lex-A|cat-v|gen-m|num-pl|pers-any|case-|vib-yA|tam-yA|chunkId-VGNF|stype-|voicetype-	4	nmod__k1inv	_	_
4	logoM	loga	n	NN	lex-loga|cat-n|gen-m|num-pl|pers-3|case-o|vib-0_ko|tam-0|chunkId-NP3|stype-|voicetype-	6	k1	_	_
5	SraxXAMjali	SraxXAMjali	n	NN	lex-SraxXAMjali|cat-n|gen-f|num-sg|pers-3|case-d|vib-0|tam-0|chunkId-NP4|stype-|voicetype-	6	pof	_	_
6	xewe	xe	v	VM	lex-xe|cat-v|gen-m|num-sg|pers-any|case-|vib-wA_ho+yA|tam-wA|chunkId-VGNF2|stype-|voicetype-	8	vmod	_	_
7	unhoMne	vaha	pn	PRP	lex-vaha|cat-pn|gen-any|num-sg|pers-3h|case-o|vib-ne|tam-ne|chunkId-NP5|stype-|voicetype-	8	k1	_	_
8	kahA	kaha	v	VM	lex-kaha|cat-v|gen-m|num-sg|pers-any|case-|vib-yA|tam-yA|chunkId-VGF|stype-declarative|voicetype-active	0	main	_	_
9	ki	ki	avy	CC	lex-ki|cat-avy|gen-|num-|pers-|case-|vib-|tam-|chunkId-CCP|stype-|voicetype-	8	k2	_	_
10	ApaxA	ApaxA	n	NN	lex-ApaxA|cat-n|gen-f|num-sg|pers-3|case-o|vib-0_kA|tam-0|chunkId-NP6|stype-|voicetype-	11	r6-k2	_	_
11	sAmanA	sAmanA	n	NN	lex-sAmanA|cat-n|gen-m|num-sg|pers-3|case-d|vib-0|tam-0|chunkId-NP7|stype-|voicetype-	12	pof	_	_
12	karane	kara	v	VM	lex-kara|cat-v|gen-any|num-any|pers-any|case-o|vib-nA_ke_lie|tam-nA|chunkId-VGNN|stype-|voicetype-	15	rt	_	_
13	saBI	saba	pn	PRP	lex-saba|cat-pn|gen-any|num-pl|pers-any|case-o|vib-0_ko|tam-0|chunkId-NP8|stype-|voicetype-	15	k1	_	_
14	sahayoga	sahayoga	n	NN	lex-sahayoga|cat-n|gen-m|num-sg|pers-3|case-d|vib-0|tam-0|chunkId-NP9|stype-|voicetype-	15	pof	_	_
15	karanA	kara	v	VM	lex-kara|cat-v|gen-m|num-any|pers-any|case-|vib-nA_cAhie|tam-nA|chunkId-VGF2|stype-declarative|voicetype-active	9	ccof	_	_
16	.	.	punc	SYM	lex-.|cat-punc|gen-|num-|pers-|case-|vib-|tam-|chunkId-BLK|stype-|voicetype-	8	rsym	_	_

1	samAroha	samAroha	n	NN	lex-samAroha|cat-n|gen-m|num-sg|pers-3|case-o|vib-0_meM|tam-0|chunkId-NP|stype-|voicetype-	9	k7	_	_
2	viXAyaka	viXAyaka	n	NN	lex-viXAyaka|cat-n|gen-m|num-sg|pers-3|case-o|vib-0|tam-0|chunkId-NP2|stype-|voicetype-	3	nmod	_	_
3	siMha	siMha	n	NNP	lex-siMha|cat-n|gen-m|num-sg|pers-3|case-o|vib-0_ne|tam-0|chunkId-NP3|stype-|voicetype-	9	k1	_	_
4	pIdZiwoM	pIdZiwa	n	NN	lex-pIdZiwa|cat-n|gen-m|num-pl|pers-3|case-o|vib-0_ke_lie|tam-0|chunkId-NP4|stype-|voicetype-	9	rt	_	_
5	lAKa	lAKa	num	QC	lex-lAKa|cat-num|gen-any|num-any|pers-|case-any|vib-0_kA|tam-|chunkId-NP5|stype-|voicetype-	6	r6	_	_
6	ceka	ceka	n	NN	lex-ceka|cat-n|gen-m|num-sg|pers-3|case-d|vib-0|tam-0|chunkId-NP6|stype-|voicetype-	9	k2	_	_
7	soniyA	soniyA	n	NNP	lex-soniyA|cat-n|gen-f|num-sg|pers-3|case-o|vib-0_ko|tam-0|chunkId-NP7|stype-|voicetype-	9	k4	_	_
8	BeMta	BeMta	n	NN	lex-BeMta|cat-n|gen-f|num-sg|pers-3|case-d|vib-0|tam-0|chunkId-NP8|stype-|voicetype-	9	pof	_	_
9	kiyA	kara	v	VM	lex-kara|cat-v|gen-m|num-sg|pers-any|case-|vib-yA|tam-yA|chunkId-VGF|stype-declarative|voicetype-active	0	main	_	_
10	.	.	punc	SYM	lex-.|cat-punc|gen-|num-|pers-|case-|vib-|tam-|chunkId-BLK|stype-|voicetype-	9	rsym	_	_

1	isake	yaha	pn	PRP	lex-yaha|cat-pn|gen-m|num-sg|pers-3|case-o|vib-ke_bAxa|tam-ke|chunkId-NP|stype-|voicetype-	8	k7t	_	_
2	gAMXI	gAMXI	n	NNP	lex-gAMXI|cat-n|gen-any|num-sg|pers-3|case-d|vib-0|tam-0|chunkId-NP2|stype-|voicetype-	8	k1	_	_
3	haracaMxapura	haracaMxapura	n	NNP	lex-haracaMxapura|cat-n|gen-m|num-sg|pers-3|case-o|vib-0_kA|tam-0|chunkId-NP3|stype-|voicetype-	4	r6	_	_
4	ParIxapura	ParIxapura	n	NNP	lex-ParIxapura|cat-n|gen-m|num-sg|pers-3|case-o|vib-0|tam-0|chunkId-NP4|stype-|voicetype-	5	ccof	_	_
5	Ora	Ora	avy	CC	lex-Ora|cat-avy|gen-|num-|pers-|case-|vib-|tam-|chunkId-CCP|stype-|voicetype-	8	k7p	_	_
6	baCarAvAM	baCarAvAM	n	NNP	lex-baCarAvAM|cat-n|gen-m|num-sg|pers-3|case-o|vib-0_meM|tam-0|chunkId-NP5|stype-|voicetype-	7	nmod	_	_
7	gAMva	gAzva	n	NNP	lex-gAzva|cat-n|gen-m|num-sg|pers-3|case-d|vib-0|tam-0|chunkId-NP6|stype-|voicetype-	5	ccof	_	_
8	gaI	jA	v	VM	lex-jA|cat-v|gen-f|num-sg|pers-any|case-|vib-yA|tam-yA|chunkId-VGF|stype-declarative|voicetype-active	0	main	_	_
9	jahAM	jahAz	pn	PRP	lex-jahAz|cat-pn|gen-|num-|pers-|case-d|vib-|tam-|chunkId-NP7|stype-|voicetype-	13	k7p	_	_
10	unhoMne	vaha	pn	PRP	lex-vaha|cat-pn|gen-any|num-sg|pers-3h|case-o|vib-ne|tam-ne|chunkId-NP8|stype-|voicetype-	13	k1	_	_
11	gAMva	gAzva	n	NN	lex-gAzva|cat-n|gen-m|num-sg|pers-3|case-d|vib-0_vAlA_kA|tam-0|chunkId-NP9|stype-|voicetype-	12	r6	_	_
12	wakalIPa	wakalIPa	n	NN	lex-wakalIPa|cat-n|gen-f|num-sg|pers-3|case-d|vib-0|tam-0|chunkId-NP10|stype-|voicetype-	13	k2	_	_
13	sunI	suna	v	VM	lex-suna|cat-v|gen-f|num-sg|pers-any|case-|vib-yA|tam-yA|chunkId-VGF2|stype-declarative|voicetype-active	7	nmod__relc	_	_
14	.	.	punc	SYM	lex-.|cat-punc|gen-|num-|pers-|case-|vib-|tam-|chunkId-BLK|stype-|voicetype-	8	rsym	_	_

1	isake	yaha	pn	PRP	lex-yaha|cat-pn|gen-m|num-sg|pers-3|case-o|vib-ke_bAxa|tam-ke|chunkId-NP|stype-|voicetype-	3	k7t	_	_
2	hAusa	hAusa	n	NN	lex-hAusa|cat-n|gen-m|num-sg|pers-3|case-d|vib-0|tam-0|chunkId-NP2|stype-|voicetype-	3	k2p	_	_
3	pahuMcI	pahuMca	v	VM	lex-pahuMca|cat-v|gen-f|num-sg|pers-3h|case-|vib-yA|tam-yA|chunkId-VGF|stype-declarative|voicetype-active	0	main	_	_
4	.	.	punc	SYM	lex-.|cat-punc|gen-|num-|pers-|case-|vib-|tam-|chunkId-BLK|stype-|voicetype-	3	rsym	_	_

