1	Gara	Gara	n	NN	lex-Gara|cat-n|gen-m|num-sg|pers-3|case-d|vib-0_vAlA_ne|tam-0|chunkId-NP|stype-|voicetype-	6	k1	_	_
2	premI	premI	n	NN	lex-premI|cat-n|gen-m|num-sg|pers-3|case-d|vib-0_saMga|tam-0|chunkId-NP2|stype-|voicetype-	4	ras-k1	_	_
3	nikAha	nikAha	n	NN	lex-nikAha|cat-n|gen-m|num-sg|pers-3|case-d|vib-0|tam-0|chunkId-NP3|stype-|voicetype-	4	pof	_	_
4	karane	kara	v	VM	lex-kara|cat-v|gen-any|num-any|pers-any|case-o|vib-nA_se|tam-nA|chunkId-VGNN|stype-|voicetype-	6	rt	_	_
5	iMkAra	iMkAra	n	NN	lex-iMkAra|cat-n|gen-m|num-sg|pers-3|case-d|vib-0|tam-0|chunkId-NP4|stype-|voicetype-	6	pof	_	_
6	kara	kara	v	VM	lex-kara|cat-v|gen-any|num-sg|pers-any|case-|vib-0_xe+yA|tam-0|chunkId-VGF|stype-declarative|voicetype-active	7	ccof	_	_
7	wo	wo	avy	CC	lex-wo|cat-avy|gen-|num-|pers-|case-|vib-|tam-|chunkId-CCP|stype-|voicetype-	0	main	_	_
8	KAwUna	KAwUna	n	NNP	lex-KAwUna|cat-n|gen-f|num-sg|pers-3|case-d|vib-0|tam-0|chunkId-NP5|stype-|voicetype-	13	k1	_	_
9	saja	saja	v	VMC	lex-saja|cat-v|gen-any|num-any|pers-any|case-|vib-0|tam-0|chunkId-VGNF|stype-|voicetype-	13	adv	_	_
10	apane	apanA	pn	PRP	lex-apanA|cat-pn|gen-m|num-any|pers-any|case-o|vib-0|tam-0|chunkId-NP6|stype-|voicetype-	11	r6	_	_
11	premI	premI	n	NN	lex-premI|cat-n|gen-m|num-sg|pers-3|case-o|vib-0_kA|tam-0|chunkId-NP7|stype-|voicetype-	12	r6	_	_
12	Gara	Gara	n	NN	lex-Gara|cat-n|gen-m|num-sg|pers-3|case-o|vib-0|tam-0|chunkId-NP8|stype-|voicetype-	13	k2p	_	_
13	pahuMca	pahuMca	v	VM	lex-pahuMca|cat-v|gen-any|num-sg|pers-any|case-|vib-0_jA+yA1|tam-0|chunkId-VGF2|stype-declarative|voicetype-active	14	ccof	_	_
14	Ora	Ora	avy	CC	lex-Ora|cat-avy|gen-|num-|pers-|case-|vib-|tam-|chunkId-CCP2|stype-|voicetype-	7	ccof	_	_
15	Kuxa	Kuxa	pn	PRP	lex-Kuxa|cat-pn|gen-|num-|pers-|case-o|vib-0_ko|tam-|chunkId-NP9|stype-|voicetype-	18	k4a	_	_
16	kamare	kamarA	n	NN	lex-kamarA|cat-n|gen-m|num-sg|pers-3|case-o|vib-0_ke_BIwara|tam-0|chunkId-NP10|stype-|voicetype-	18	k7p	_	_
17	baMxa	baMxa	adj	JJ	lex-baMxa|cat-adj|gen-any|num-any|pers-|case-|vib-|tam-|chunkId-JJP|stype-|voicetype-	18	pof	_	_
18	kara	kara	v	VM	lex-kara|cat-v|gen-any|num-sg|pers-any|case-|vib-0_le+yA|tam-0|chunkId-VGF3|stype-declarative|voicetype-active	14	ccof	_	_
19	.	.	punc	SYM	lex-.|cat-punc|gen-|num-|pers-|case-|vib-|tam-|chunkId-BLK|stype-|voicetype-	7	rsym	_	_

1	sAPa	sAPa	adj	JJ	lex-sAPa|cat-adj|gen-any|num-any|pers-|case-|vib-|tam-|chunkId-JJP|stype-|voicetype-	2	adv	_	_
2	kaha	kaha	v	VM	lex-kaha|cat-v|gen-any|num-sg|pers-any|case-|vib-0_xe+yA|tam-0|chunkId-VGF|stype-declarative|voicetype-active	0	main	_	_
3	nikAha	nikAha	n	NN	lex-nikAha|cat-n|gen-m|num-sg|pers-3|case-d|vib-0|tam-0|chunkId-NP|stype-|voicetype-	4	pof	_	_
4	karUMgI	kara	v	VM	lex-kara|cat-v|gen-f|num-sg|pers-3|case-|vib-gA|tam-gA|chunkId-VGF2|stype-declarative|voicetype-active	5	ccof	_	_
5	wo	wo	avy	CC	lex-wo|cat-avy|gen-|num-|pers-|case-|vib-|tam-|chunkId-CCP|stype-|voicetype-	8	ccof	_	_
6	wAliba	wAliba	n	NNP	lex-wAliba|cat-n|gen-m|num-sg|pers-3|case-o|vib-0_se|tam-0|chunkId-NP2|stype-|voicetype-	7	k2	_	_
7	NULL	_	v	VM	lex-_|cat-v|gen-|num-|pers-|case-|vib-|tam-|chunkId-NULL__VGF|stype-declarative|voicetype-active	5	ccof	_	_
8	varanA	varanA	avy	CC	lex-varanA|cat-avy|gen-|num-|pers-|case-|vib-|tam-|chunkId-CCP2|stype-|voicetype-	2	k2	_	_
9	usake	vaha	pn	PRP	lex-vaha|cat-pn|gen-m|num-sg|pers-3|case-o|vib-kA|tam-kA|chunkId-NP3|stype-|voicetype-	10	r6	_	_
10	xaravAje	xaravAjA	n	NN	lex-xaravAjA|cat-n|gen-m|num-sg|pers-3|case-o|vib-0_para|tam-0|chunkId-NP4|stype-|voicetype-	12	k7p	_	_
11	jAna	jAna	n	NN	lex-jAna|cat-n|gen-f|num-sg|pers-3|case-d|vib-0|tam-0|chunkId-NP5|stype-|voicetype-	12	pof	_	_
12	xe	xe	v	VM	lex-xe|cat-v|gen-any|num-sg|pers-3|case-|vib-0_xe+gA|tam-0|chunkId-VGF3|stype-declarative|voicetype-active	8	ccof	_	_
13	.	.	punc	SYM	lex-.|cat-punc|gen-|num-|pers-|case-|vib-|tam-|chunkId-BLK|stype-|voicetype-	2	rsym	_	_

1	WAnAXyakRa	WAnAXyakRa	n	NN	lex-WAnAXyakRa|cat-n|gen-m|num-sg|pers-3|case-o|vib-0_ne|tam-0|chunkId-NP|stype-|voicetype-	5	k1	_	_
2	usase	vaha	pn	PRP	lex-vaha|cat-pn|gen-any|num-sg|pers-3|case-o|vib-se|tam-se|chunkId-NP2|stype-|voicetype-	5	k2	_	_
3	jixa	jixa	n	NN	lex-jixa|cat-n|gen-f|num-sg|pers-3|case-d|vib-0|tam-0|chunkId-NP3|stype-|voicetype-	4	pof	_	_
4	CodZane	Coda	v	VM	lex-Coda|cat-v|gen-any|num-any|pers-any|case-o|vib-nA_ko|tam-nA|chunkId-VGNN|stype-|voicetype-	5	rt	_	_
5	kahA	kaha	v	VM	lex-kaha|cat-v|gen-m|num-sg|pers-any|case-|vib-yA|tam-yA|chunkId-VGF|stype-declarative|voicetype-active	6	ccof	_	_
6	lekina	lekina	avy	CC	lex-lekina|cat-avy|gen-|num-|pers-|case-|vib-|tam-|chunkId-CCP|stype-|voicetype-	0	main	_	_
7	sAbirA	sAbirA	n	NNP	lex-sAbirA|cat-n|gen-f|num-sg|pers-3|case-d|vib-0|tam-0|chunkId-NP4|stype-|voicetype-	9	k1	_	_
8	masa	masa	adv	RB	lex-masa|cat-adv|gen-|num-|pers-|case-|vib-|tam-|chunkId-RBP|stype-|voicetype-	9	adv	_	_
9	huI	ho	v	VM	lex-ho|cat-v|gen-f|num-sg|pers-any|case-|vib-yA|tam-yA|chunkId-VGF2|stype-declarative|voicetype-active	6	ccof	_	_
10	.	.	punc	SYM	lex-.|cat-punc|gen-|num-|pers-|case-|vib-|tam-|chunkId-BLK|stype-|voicetype-	6	rsym	_	_

1	Waka	Waka	v	VMC	lex-Waka|cat-v|gen-any|num-any|pers-any|case-|vib-0_kara|tam-0|chunkId-VGNF|stype-|voicetype-	7	adv	_	_
2	SanivAra	SanivAra	n	NNP	lex-SanivAra|cat-n|gen-m|num-sg|pers-3|case-o|vib-0_ko|tam-0|chunkId-NP|stype-|voicetype-	7	k7t	_	_
3	sAbirA	sAbirA	n	NNP	lex-sAbirA|cat-n|gen-f|num-sg|pers-3|case-d|vib-0|tam-0|chunkId-NP2|stype-|voicetype-	4	ccof	_	_
4	Ora	Ora	avy	CC	lex-Ora|cat-avy|gen-|num-|pers-|case-|vib-|tam-|chunkId-CCP|stype-|voicetype-	6	r6-k2	_	_
5	wAliba	wAliba	n	NNP	lex-wAliba|cat-n|gen-m|num-sg|pers-3|case-o|vib-0_kA|tam-0|chunkId-NP3|stype-|voicetype-	4	ccof	_	_
6	nikAha	nikAha	n	NN	lex-nikAha|cat-n|gen-m|num-sg|pers-3|case-d|vib-0|tam-0|chunkId-NP4|stype-|voicetype-	7	pof	_	_
7	karA	kara	v	VM	lex-kara|cat-v|gen-m|num-sg|pers-any|case-|vib-yA_xe+yA_jA+yA1|tam-yA|chunkId-VGF|stype-declarative|voicetype-passive	0	main	_	_
8	.	.	punc	SYM	lex-.|cat-punc|gen-|num-|pers-|case-|vib-|tam-|chunkId-BLK|stype-|voicetype-	7	rsym	_	_

1	pyAra	pyAra	n	NN	lex-pyAra|cat-n|gen-m|num-sg|pers-3|case-o|vib-0_ko|tam-0|chunkId-NP|stype-|voicetype-	2	k2	_	_
2	pAne	pA	v	VM	lex-pA|cat-v|gen-any|num-sg|pers-any|case-o|vib-nA_kA|tam-nA|chunkId-VGNN|stype-|voicetype-	3	r6	_	_
3	warIkA	warIkA	n	NN	lex-warIkA|cat-n|gen-m|num-sg|pers-3|case-d|vib-0|tam-0|chunkId-NP2|stype-|voicetype-	9	k2	_	_
4	kRewra	kRewra	n	NNP	lex-kRewra|cat-n|gen-m|num-sg|pers-3|case-o|vib-0_kA|tam-0|chunkId-NP3|stype-|voicetype-	5	r6	_	_
5	gAMva	gAzva	n	NN	lex-gAzva|cat-n|gen-m|num-sg|pers-3|case-d|vib-0|tam-0|chunkId-NP4|stype-|voicetype-	9	k7p	_	_
6	sikariyA	sikariyA	n	NNP	lex-sikariyA|cat-n|gen-m|num-sg|pers-3|case-d|vib-0|tam-0|chunkId-NP5|stype-|voicetype-	7	jjmod	_	_
7	nivAsI	nivAsI	adj	JJ	lex-nivAsI|cat-adj|gen-any|num-any|pers-|case-o|vib-|tam-|chunkId-JJP|stype-|voicetype-	8	nmod	_	_
8	KAwUna	KAwUna	n	NNP	lex-KAwUna|cat-n|gen-m|num-sg|pers-3|case-o|vib-0_ne|tam-0|chunkId-NP6|stype-|voicetype-	9	k1	_	_
9	apanAyA	apanA	v	VM	lex-apanA|cat-v|gen-m|num-sg|pers-any|case-|vib-yA|tam-yA|chunkId-VGF|stype-declarative|voicetype-active	0	main	_	_
10	.	.	punc	SYM	lex-.|cat-punc|gen-|num-|pers-|case-|vib-|tam-|chunkId-BLK|stype-|voicetype-	9	rsym	_	_

1	sAbirA	sAbirA	n	NNP	lex-sAbirA|cat-n|gen-f|num-sg|pers-3|case-d|vib-0|tam-0|chunkId-NP|stype-|voicetype-	10	k1	_	_
2	subaha	subaha	n	NN	lex-subaha|cat-n|gen-f|num-sg|pers-3|case-o|vib-0_ke_samaya|tam-0|chunkId-NP2|stype-|voicetype-	10	k7t	_	_
3	xulhana	xulhana	n	NN	lex-xulhana|cat-n|gen-f|num-sg|pers-3|case-o|vib-0_jEsA|tam-0|chunkId-NP3|stype-|voicetype-	4	nmod	_	_
4	libAsa	libAsa	n	NN	lex-libAsa|cat-n|gen-m|num-sg|pers-3|case-d|vib-0|tam-0|chunkId-NP4|stype-|voicetype-	5	k2	_	_
5	pahanakara	pahana	v	VM	lex-pahana|cat-v|gen-any|num-any|pers-any|case-|vib-kara|tam-kara|chunkId-VGNF|stype-|voicetype-	10	vmod	_	_
6	apane	apanA	pn	PRP	lex-apanA|cat-pn|gen-m|num-any|pers-any|case-o|vib-0|tam-0|chunkId-NP5|stype-|voicetype-	7	r6	_	_
7	gAMva	gAzva	n	NN	lex-gAzva|cat-n|gen-m|num-sg|pers-3|case-o|vib-0_kA|tam-0|chunkId-NP6|stype-|voicetype-	8	r6	_	_
8	husEna	husEna	n	NNP	lex-husEna|cat-n|gen-m|num-sg|pers-3|case-o|vib-0_kA|tam-0|chunkId-NP7|stype-|voicetype-	9	r6	_	_
9	Gara	Gara	n	NN	lex-Gara|cat-n|gen-m|num-sg|pers-3|case-d|vib-0|tam-0|chunkId-NP8|stype-|voicetype-	10	k2p	_	_
10	pahuMca	pahuMca	v	VM	lex-pahuMca|cat-v|gen-any|num-sg|pers-any|case-|vib-0_jA+yA1|tam-0|chunkId-VGF|stype-declarative|voicetype-active	0	main	_	_
11	.	.	punc	SYM	lex-.|cat-punc|gen-|num-|pers-|case-|vib-|tam-|chunkId-BLK|stype-|voicetype-	10	rsym	_	_

1	usane	vaha	pn	PRP	lex-vaha|cat-pn|gen-any|num-sg|pers-3|case-o|vib-ne|tam-ne|chunkId-NP|stype-|voicetype-	5	k1	_	_
2	wAliba	wAliba	n	NNP	lex-wAliba|cat-n|gen-m|num-sg|pers-3|case-o|vib-0_kA|tam-0|chunkId-NP2|stype-|voicetype-	3	r6	_	_
3	mAM	mAz	n	NN	lex-mAz|cat-n|gen-f|num-sg|pers-3|case-o|vib-0|tam-0|chunkId-NP3|stype-|voicetype-	4	nmod	_	_
4	KuSanUxA	KuSanUxA	n	NNP	lex-KuSanUxA|cat-n|gen-f|num-sg|pers-3|case-o|vib-0_se|tam-0|chunkId-NP4|stype-|voicetype-	5	k4	_	_
5	kahA	kaha	v	VM	lex-kaha|cat-v|gen-m|num-sg|pers-any|case-|vib-yA|tam-yA|chunkId-VGF|stype-declarative|voicetype-active	0	main	_	_
6	ammI	ammI	n	NN	lex-ammI|cat-n|gen-f|num-sg|pers-3|case-d|vib-0|tam-0|chunkId-NP5|stype-|voicetype-	11	rad	_	_
7	mEM	mEM	pn	PRP	lex-mEM|cat-pn|gen-any|num-sg|pers-1|case-d|vib-0|tam-0|chunkId-NP6|stype-|voicetype-	11	k1	_	_
8	Aja	Aja	n	NN	lex-Aja|cat-n|gen-m|num-sg|pers-3|case-o|vib-0_se|tam-0|chunkId-NP7|stype-|voicetype-	11	k7t	_	_
9	ApakI	Apa	pn	PRP	lex-Apa|cat-pn|gen-f|num-sg|pers-2h|case-d|vib-kA|tam-kA|chunkId-NP8|stype-|voicetype-	10	r6	_	_
10	bahU	bahU	n	NN	lex-bahU|cat-n|gen-f|num-sg|pers-3|case-d|vib-0|tam-0|chunkId-NP9|stype-|voicetype-	11	k1s	_	_
11	hUM	hE	v	VM	lex-hE|cat-v|gen-any|num-sg|pers-1|case-|vib-hE|tam-hE|chunkId-VGF2|stype-declarative|voicetype-active	5	k2	_	_
12	.	.	punc	SYM	lex-.|cat-punc|gen-|num-|pers-|case-|vib-|tam-|chunkId-BLK|stype-|voicetype-	5	rsym	_	_

1	aba	aba	pn	PRP	lex-aba|cat-pn|gen-|num-|pers-|case-d|vib-|tam-|chunkId-NP|stype-|voicetype-	4	k7t	_	_
2	mEM	mEM	pn	PRP	lex-mEM|cat-pn|gen-any|num-sg|pers-1|case-d|vib-0|tam-0|chunkId-NP2|stype-|voicetype-	4	k1	_	_
3	yahIM	yahIM	pn	PRP	lex-yahIM|cat-pn|gen-|num-|pers-|case-d|vib-|tam-|chunkId-NP3|stype-|voicetype-	4	k7p	_	_
4	rahUMgI	raha	v	VM	lex-raha|cat-v|gen-f|num-sg|pers-1|case-|vib-gA|tam-gA|chunkId-VGF|stype-declarative|voicetype-active	0	main	_	_
5	.	.	punc	SYM	lex-.|cat-punc|gen-|num-|pers-|case-|vib-|tam-|chunkId-BLK|stype-|voicetype-	4	rsym	_	_

1	KuSanUxA	KuSanUxA	n	NNP	lex-KuSanUxA|cat-n|gen-f|num-sg|pers-3|case-o|vib-0_ne|tam-0|chunkId-NP|stype-|voicetype-	4	k1	_	_
2	use	vaha	pn	PRP	lex-vaha|cat-pn|gen-any|num-sg|pers-3|case-o|vib-ko|tam-ko|chunkId-NP2|stype-|voicetype-	4	k2	_	_
3	kAPI	kAPI	avy	QF	lex-kAPI|cat-avy|gen-|num-|pers-|case-|vib-|tam-|chunkId-JJP|stype-|voicetype-	4	adv	_	_
4	samaJAyA	samaJA	v	VM	lex-samaJA|cat-v|gen-m|num-sg|pers-any|case-|vib-yA|tam-yA|chunkId-VGF|stype-declarative|voicetype-active	0	main	_	_
5	.	.	punc	SYM	lex-.|cat-punc|gen-|num-|pers-|case-|vib-|tam-|chunkId-BLK|stype-|voicetype-	4	rsym	_	_

1	yahAM	yahAz	pn	PRP	lex-yahAz|cat-pn|gen-|num-|pers-|case-o|vib-0_waka|tam-|chunkId-NP|stype-|voicetype-	2	adv	_	_
2	kahA	kaha	v	VM	lex-kaha|cat-v|gen-m|num-sg|pers-any|case-|vib-yA|tam-yA|chunkId-VGF|stype-declarative|voicetype-active	0	main	_	_
3	ki	ki	avy	CC	lex-ki|cat-avy|gen-|num-|pers-|case-|vib-|tam-|chunkId-CCP|stype-|voicetype-	2	k2	_	_
4	usake	vaha	pn	PRP	lex-vaha|cat-pn|gen-m|num-sg|pers-3|case-o|vib-kA|tam-kA|chunkId-NP2|stype-|voicetype-	5	r6	_	_
5	bApa	bApa	n	NN	lex-bApa|cat-n|gen-m|num-sg|pers-3|case-d|vib-0|tam-0|chunkId-NP3|stype-|voicetype-	6	k2p	_	_
6	Akara	A	v	VM	lex-A|cat-v|gen-any|num-any|pers-any|case-|vib-kara|tam-kara|chunkId-VGNF|stype-|voicetype-	8	vmod	_	_
7	use	vaha	pn	PRP	lex-vaha|cat-pn|gen-any|num-sg|pers-3|case-o|vib-ko|tam-ko|chunkId-NP4|stype-|voicetype-	8	k4a	_	_
8	mAreMge	mAra	v	VM	lex-mAra|cat-v|gen-m|num-pl|pers-3|case-|vib-gA|tam-gA|chunkId-VGF2|stype-declarative|voicetype-active	9	ccof	_	_
9	lihAjA	lihAjA	adv	RB	lex-lihAjA|cat-adv|gen-|num-|pers-|case-|vib-|tam-|chunkId-RBP|stype-|voicetype-	3	ccof	_	_
10	vaha	vaha	pn	PRP	lex-vaha|cat-pn|gen-any|num-sg|pers-3|case-d|vib-0|tam-0|chunkId-NP5|stype-|voicetype-	12	k1	_	_
11	yahAM	yahAz	pn	PRP	lex-yahAz|cat-pn|gen-|num-|pers-|case-o|vib-0_se|tam-|chunkId-NP6|stype-|voicetype-	12	k7t	_	_
12	calI	cala	v	VM	lex-cala|cat-v|gen-f|num-sg|pers-3|case-|vib-yA_jA+eM|tam-yA|chunkId-VGF3|stype-declarative|voicetype-active	9	ccof	_	_
13	.	.	punc	SYM	lex-.|cat-punc|gen-|num-|pers-|case-|vib-|tam-|chunkId-BLK|stype-|voicetype-	2	rsym	_	_

1	lekina	lekina	avy	CC	lex-lekina|cat-avy|gen-|num-|pers-|case-|vib-|tam-|chunkId-CCP|stype-|voicetype-	0	main	_	_
2	sAbirA	sAbirA	n	NNP	lex-sAbirA|cat-n|gen-f|num-sg|pers-3|case-o|vib-0_ne|tam-0|chunkId-NP|stype-|voicetype-	3	k1	_	_
3	kaha	kaha	v	VM	lex-kaha|cat-v|gen-any|num-sg|pers-any|case-|vib-0_xe+yA|tam-0|chunkId-VGF|stype-declarative|voicetype-active	1	ccof	_	_
4	agara	agara	avy	CC	lex-agara|cat-avy|gen-|num-|pers-|case-|vib-|tam-|chunkId-CCP2|stype-|voicetype-	12	vmod	_	_
5	Apane	Apa	pn	PRP	lex-Apa|cat-pn|gen-any|num-sg|pers-2|case-o|vib-ne|tam-ne|chunkId-NP2|stype-|voicetype-	7	k1	_	_
6	muJe	mEM	pn	PRP	lex-mEM|cat-pn|gen-any|num-sg|pers-1|case-o|vib-ko|tam-ko|chunkId-NP3|stype-|voicetype-	7	k2	_	_
7	BejA	Beja	v	VM	lex-Beja|cat-v|gen-m|num-sg|pers-any|case-|vib-yA|tam-yA|chunkId-VGF2|stype-declarative|voicetype-active	4	ccof	_	_
8	wo	wo	avy	CC	lex-wo|cat-avy|gen-|num-|pers-|case-|vib-|tam-|chunkId-CCP3|stype-|voicetype-	3	k2	_	_
9	mEM	mEM	pn	PRP	lex-mEM|cat-pn|gen-any|num-sg|pers-1|case-d|vib-0|tam-0|chunkId-NP4|stype-|voicetype-	12	k1	_	_
10	yahIM	yahAM	pn	PRP	lex-yahAM|cat-pn|gen-|num-|pers-|case-d|vib-|tam-|chunkId-NP5|stype-|voicetype-	12	k7p	_	_
11	jAna	jAna	n	NN	lex-jAna|cat-n|gen-f|num-sg|pers-3|case-d|vib-0|tam-0|chunkId-NP6|stype-|voicetype-	12	pof	_	_
12	xe	xe	v	VM	lex-xe|cat-v|gen-any|num-sg|pers-1|case-|vib-0_xe+gA|tam-0|chunkId-VGF3|stype-declarative|voicetype-active	8	ccof	_	_
13	.	.	punc	SYM	lex-.|cat-punc|gen-|num-|pers-|case-|vib-|tam-|chunkId-BLK|stype-|voicetype-	1	rsym	_	_

1	iwanA	iwanA	adj	QF	lex-iwanA|cat-adj|gen-m|num-sg|pers-|case-|vib-|tam-|chunkId-JJP|stype-|voicetype-	2	adv	_	_
2	kahane	kaha	v	VM	lex-kaha|cat-v|gen-any|num-sg|pers-3|case-o|vib-nA_ke_bAxa|tam-nA|chunkId-VGNN|stype-|voicetype-	7	k7t	_	_
3	usane	vaha	pn	PRP	lex-vaha|cat-pn|gen-any|num-sg|pers-3|case-o|vib-ne|tam-ne|chunkId-NP|stype-|voicetype-	7	k1	_	_
4	Kuxa	Kuxa	pn	PRP	lex-Kuxa|cat-pn|gen-|num-|pers-|case-o|vib-0_ko|tam-|chunkId-NP2|stype-|voicetype-	7	k2	_	_
5	kamare	kamarA	n	NN	lex-kamarA|cat-n|gen-m|num-sg|pers-3|case-o|vib-0_ke_BIwara|tam-0|chunkId-NP3|stype-|voicetype-	7	k7p	_	_
6	baMxa	baMxa	adj	JJ	lex-baMxa|cat-adj|gen-any|num-any|pers-|case-|vib-|tam-|chunkId-JJP2|stype-|voicetype-	7	pof	_	_
7	kara	kara	v	VM	lex-kara|cat-v|gen-any|num-sg|pers-any|case-|vib-0_le+yA|tam-0|chunkId-VGF|stype-declarative|voicetype-active	0	main	_	_
8	.	.	punc	SYM	lex-.|cat-punc|gen-|num-|pers-|case-|vib-|tam-|chunkId-BLK|stype-|voicetype-	7	rsym	_	_

1	xera	xera	n	NN	lex-xera|cat-n|gen-f|num-sg|pers-3|case-o|vib-0_meM|tam-0|chunkId-NP|stype-|voicetype-	10	k7t	_	_
2	sAbirA	sAbirA	n	NNP	lex-sAbirA|cat-n|gen-f|num-sg|pers-3|case-o|vib-0_ko|tam-0|chunkId-NP2|stype-|voicetype-	3	k2	_	_
3	walASawe	walASa	v	VM	lex-walASa|cat-v|gen-m|num-pl|pers-any|case-|vib-wA_ho+yA|tam-wA|chunkId-VGNF|stype-|voicetype-	5	nmod__k1inv	_	_
4	usake	vaha	pn	PRP	lex-vaha|cat-pn|gen-m|num-sg|pers-3|case-o|vib-kA|tam-kA|chunkId-NP3|stype-|voicetype-	5	r6	_	_
5	vAlixa	vAlixa	n	NN	lex-vAlixa|cat-n|gen-m|num-sg|pers-3|case-d|vib-0|tam-0|chunkId-NP4|stype-|voicetype-	6	nmod	_	_
6	BUrA	BUrA	n	NNP	lex-BUrA|cat-n|gen-m|num-sg|pers-3|case-d|vib-0|tam-0|chunkId-NP5|stype-|voicetype-	7	ccof	_	_
7	waWA	waWA	avy	CC	lex-waWA|cat-avy|gen-|num-|pers-|case-|vib-|tam-|chunkId-CCP|stype-|voicetype-	10	k2p	_	_
8	cAcA	cAcA	n	NN	lex-cAcA|cat-n|gen-m|num-sg|pers-3|case-d|vib-0|tam-0|chunkId-NP6|stype-|voicetype-	9	nmod	_	_
9	kaluvA	kaluvA	n	NNP	lex-kaluvA|cat-n|gen-m|num-sg|pers-3|case-d|vib-0|tam-0|chunkId-NP7|stype-|voicetype-	7	ccof	_	_
10	pahuMca	pahuMca	v	VM	lex-pahuMca|cat-v|gen-any|num-pl|pers-any|case-|vib-0_jA+yA1|tam-0|chunkId-VGF|stype-declarative|voicetype-active	0	main	_	_
11	.	.	punc	SYM	lex-.|cat-punc|gen-|num-|pers-|case-|vib-|tam-|chunkId-BLK|stype-|voicetype-	10	rsym	_	_

1	unhoMne	vaha	pn	PRP	lex-vaha|cat-pn|gen-any|num-pl|pers-3|case-o|vib-ne|tam-ne|chunkId-NP|stype-|voicetype-	5	k1	_	_
2	xaravAjA	xaravAjA	n	NN	lex-xaravAjA|cat-n|gen-m|num-sg|pers-3|case-d|vib-0|tam-0|chunkId-NP2|stype-|voicetype-	3	k2	_	_
3	KulavAne	KulavA	v	VM	lex-KulavA|cat-v|gen-any|num-any|pers-any|case-o|vib-nA_ke_lie|tam-nA|chunkId-VGNN|stype-|voicetype-	5	rt	_	_
4	kasmeM	kasma	n	NN	lex-kasma|cat-n|gen-f|num-pl|pers-3|case-d|vib-0|tam-0|chunkId-NP3|stype-|voicetype-	5	k2	_	_
5	xIM	xe	v	VM	lex-xe|cat-v|gen-f|num-pl|pers-any|case-|vib-yA|tam-yA|chunkId-VGF|stype-declarative|voicetype-active	6	ccof	_	_
6	lekina	lekina	avy	CC	lex-lekina|cat-avy|gen-|num-|pers-|case-|vib-|tam-|chunkId-CCP|stype-|voicetype-	0	main	_	_
7	kasama	kasama	n	NN	lex-kasama|cat-n|gen-f|num-sg|pers-3|case-d|vib-0|tam-0|chunkId-NP4|stype-|voicetype-	12	k2	_	_
8	sAbirA	sAbirA	n	NNP	lex-sAbirA|cat-n|gen-f|num-sg|pers-3|case-o|vib-0_ko|tam-0|chunkId-NP5|stype-|voicetype-	12	k1	_	_
9	apane	apanA	pn	PRP	lex-apanA|cat-pn|gen-m|num-any|pers-any|case-o|vib-0|tam-0|chunkId-NP6|stype-|voicetype-	10	r6	_	_
10	PEsale	PEsalA	n	NN	lex-PEsalA|cat-n|gen-m|num-sg|pers-3|case-o|vib-0_se|tam-0|chunkId-NP7|stype-|voicetype-	12	k5	_	_
11	adiga	adiga	adj	JJ	lex-adiga|cat-adj|gen-any|num-any|pers-|case-|vib-|tam-|chunkId-JJP|stype-|voicetype-	12	pof	_	_
12	kara	kara	v	VM	lex-kara|cat-v|gen-any|num-sg|pers-any|case-|vib-0_saka+yA|tam-0|chunkId-VGF2|stype-declarative|voicetype-active	6	ccof	_	_
13	.	.	punc	SYM	lex-.|cat-punc|gen-|num-|pers-|case-|vib-|tam-|chunkId-BLK|stype-|voicetype-	6	rsym	_	_

1	Waka	Waka	v	VMC	lex-Waka|cat-v|gen-any|num-any|pers-any|case-|vib-0|tam-0|chunkId-VGNF|stype-|voicetype-	5	adv	_	_
2	sAbirA	sAbirA	n	NNP	lex-sAbirA|cat-n|gen-f|num-sg|pers-3|case-o|vib-0_kA|tam-0|chunkId-NP|stype-|voicetype-	3	r6	_	_
3	Gara	Gara	n	NN	lex-Gara|cat-n|gen-m|num-sg|pers-3|case-o|vib-0_vAlA|tam-0|chunkId-NP2|stype-|voicetype-	5	k2p	_	_
4	WAne	WAnA	n	NNP	lex-WAnA|cat-n|gen-m|num-sg|pers-3|case-d|vib-0|tam-0|chunkId-NP3|stype-|voicetype-	5	k7p	_	_
5	pahuMca	pahuMca	v	VM	lex-pahuMca|cat-v|gen-any|num-pl|pers-3|case-|vib-0_jA+yA1|tam-0|chunkId-VGF|stype-declarative|voicetype-active	6	ccof	_	_
6	waWA	waWA	avy	CC	lex-waWA|cat-avy|gen-|num-|pers-|case-|vib-|tam-|chunkId-CCP|stype-|voicetype-	0	main	_	_
7	jAnakArI	jAnakArI	n	NN	lex-jAnakArI|cat-n|gen-f|num-sg|pers-3|case-d|vib-0|tam-0|chunkId-NP4|stype-|voicetype-	8	k2	_	_
8	xI	xe	v	VM	lex-xe|cat-v|gen-f|num-sg|pers-any|case-|vib-yA|tam-yA|chunkId-VGF2|stype-declarative|voicetype-active	6	ccof	_	_
9	.	.	punc	SYM	lex-.|cat-punc|gen-|num-|pers-|case-|vib-|tam-|chunkId-BLK|stype-|voicetype-	6	rsym	_	_

1	sAha	saha	n	NNP	lex-saha|cat-n|gen-m|num-sg|pers-3|case-d|vib-0|tam-0|chunkId-NP|stype-|voicetype-	4	k1	_	_
2	bala	bala	n	NN	lex-bala|cat-n|gen-f|num-sg|pers-3|case-o|vib-0_ke_sAWa|tam-0|chunkId-NP2|stype-|voicetype-	4	ras-k1	_	_
3	gAMva	gAzva	n	NNP	lex-gAzva|cat-n|gen-m|num-sg|pers-3|case-d|vib-0|tam-0|chunkId-NP3|stype-|voicetype-	4	k2p	_	_
4	pahuMca	pahuMca	v	VM	lex-pahuMca|cat-v|gen-any|num-sg|pers-3h|case-|vib-0_jA+yA1|tam-0|chunkId-VGF|stype-declarative|voicetype-active	0	main	_	_
5	.	.	punc	SYM	lex-.|cat-punc|gen-|num-|pers-|case-|vib-|tam-|chunkId-BLK|stype-|voicetype-	4	rsym	_	_

1	unhoMne	vaha	pn	PRP	lex-vaha|cat-pn|gen-any|num-sg|pers-3h|case-o|vib-ne|tam-ne|chunkId-NP|stype-|voicetype-	5	k1	_	_
2	sAbirA	sAbirA	n	NNP	lex-sAbirA|cat-n|gen-f|num-sg|pers-3|case-o|vib-0_se|tam-0|chunkId-NP2|stype-|voicetype-	5	k4	_	_
3	xaravAjA	xaravAjA	n	NN	lex-xaravAjA|cat-n|gen-m|num-sg|pers-3|case-d|vib-0|tam-0|chunkId-NP3|stype-|voicetype-	4	k2	_	_
4	Kolane	Kola	v	VM	lex-Kola|cat-v|gen-any|num-any|pers-any|case-o|vib-nA_ko|tam-nA|chunkId-VGNN|stype-|voicetype-	5	k2	_	_
5	kahA	kaha	v	VM	lex-kaha|cat-v|gen-m|num-sg|pers-any|case-|vib-yA|tam-yA|chunkId-VGF|stype-declarative|voicetype-active	0	main	_	_
6	.	.	punc	SYM	lex-.|cat-punc|gen-|num-|pers-|case-|vib-|tam-|chunkId-BLK|stype-|voicetype-	5	rsym	_	_

1	lekina	lekina	avy	CC	lex-lekina|cat-avy|gen-|num-|pers-|case-|vib-|tam-|chunkId-CCP|stype-|voicetype-	0	main	_	_
2	usane	vaha	pn	PRP	lex-vaha|cat-pn|gen-f|num-sg|pers-3|case-o|vib-ne|tam-ne|chunkId-NP|stype-|voicetype-	4	k1	_	_
3	iMkAra	iMkAra	n	NN	lex-iMkAra|cat-n|gen-m|num-sg|pers-3|case-d|vib-0|tam-0|chunkId-NP2|stype-|voicetype-	4	pof	_	_
4	kara	kara	v	VM	lex-kara|cat-v|gen-any|num-sg|pers-any|case-|vib-0_xe+yA|tam-0|chunkId-VGF|stype-declarative|voicetype-active	1	ccof	_	_
5	.	.	punc	SYM	lex-.|cat-punc|gen-|num-|pers-|case-|vib-|tam-|chunkId-BLK|stype-|voicetype-	1	rsym	_	_

1	jaba	jaba	pn	PRP	lex-jaba|cat-pn|gen-|num-|pers-|case-d|vib-|tam-|chunkId-NP|stype-|voicetype-	7	k7t	_	_
2	unhoMne	vaha	pn	PRP	lex-vaha|cat-pn|gen-any|num-sg|pers-3h|case-o|vib-ne|tam-ne|chunkId-NP2|stype-|voicetype-	7	k1	_	_
3	bAhara	bAhara	nst	NST	lex-bAhara|cat-nst|gen-m|num-sg|pers-3|case-d|vib-|tam-|chunkId-NP3|stype-|voicetype-	5	k7p	_	_
4	KadZe	KadA	adj	JJ	lex-KadA|cat-adj|gen-m|num-sg|pers-|case-|vib-|tam-|chunkId-JJP|stype-|voicetype-	5	pof	_	_
5	hokara	ho	v	VM	lex-ho|cat-v|gen-any|num-any|pers-any|case-|vib-kara|tam-kara|chunkId-VGNF|stype-|voicetype-	7	vmod	_	_
6	use	vaha	pn	PRP	lex-vaha|cat-pn|gen-any|num-sg|pers-3|case-o|vib-ko|tam-ko|chunkId-NP4|stype-|voicetype-	7	k4	_	_
7	samaJAyA	samaJA	v	VM	lex-samaJA|cat-v|gen-m|num-sg|pers-any|case-|vib-yA|tam-yA|chunkId-VGF|stype-declarative|voicetype-active	8	ccof	_	_
8	wo	wo	avy	CC	lex-wo|cat-avy|gen-|num-|pers-|case-|vib-|tam-|chunkId-CCP|stype-|voicetype-	0	main	_	_
9	vaha	vaha	pn	PRP	lex-vaha|cat-pn|gen-any|num-sg|pers-3|case-d|vib-0|tam-0|chunkId-NP5|stype-|voicetype-	10	k1	_	_
10	mAna	mAna	v	VM	lex-mAna|cat-v|gen-any|num-sg|pers-any|case-|vib-0_jA+yA1|tam-0|chunkId-VGF2|stype-declarative|voicetype-active	11	ccof	_	_
11	Ora	Ora	avy	CC	lex-Ora|cat-avy|gen-|num-|pers-|case-|vib-|tam-|chunkId-CCP2|stype-|voicetype-	8	ccof	_	_
12	bAhara	bAhara	nst	NST	lex-bAhara|cat-nst|gen-m|num-sg|pers-3|case-d|vib-|tam-|chunkId-NP6|stype-|voicetype-	13	k2p	_	_
13	nikala	nikala	v	VM	lex-nikala|cat-v|gen-any|num-sg|pers-any|case-|vib-0_A+yA|tam-0|chunkId-VGF3|stype-declarative|voicetype-active	11	ccof	_	_
14	.	.	punc	SYM	lex-.|cat-punc|gen-|num-|pers-|case-|vib-|tam-|chunkId-BLK|stype-|voicetype-	8	rsym	_	_

1	jEse	jEse	adv	RB	lex-jEse|cat-adv|gen-|num-|pers-|case-|vib-|tam-|chunkId-RBP|stype-|voicetype-	5	adv	_	_
2	vaha	vaha	pn	PRP	lex-vaha|cat-pn|gen-any|num-sg|pers-3|case-d|vib-0|tam-0|chunkId-NP|stype-|voicetype-	5	k1	_	_
3	kamare	kamarA	n	NN	lex-kamarA|cat-n|gen-m|num-sg|pers-3|case-o|vib-0_se|tam-0|chunkId-NP2|stype-|voicetype-	5	k5	_	_
4	bAhara	bAhara	nst	NST	lex-bAhara|cat-nst|gen-m|num-sg|pers-3|case-d|vib-|tam-|chunkId-NP3|stype-|voicetype-	5	k2p	_	_
5	nikalI	nikala	v	VM	lex-nikala|cat-v|gen-f|num-sg|pers-any|case-|vib-yA|tam-yA|chunkId-VGF|stype-declarative|voicetype-active	6	ccof	_	_
6	wo	wo	avy	CC	lex-wo|cat-avy|gen-|num-|pers-|case-|vib-|tam-|chunkId-CCP|stype-|voicetype-	0	main	_	_
7	usake	vaha	pn	PRP	lex-vaha|cat-pn|gen-m|num-sg|pers-3|case-o|vib-kA|tam-kA|chunkId-NP4|stype-|voicetype-	8	r6	_	_
8	Gara	Gara	n	NN	lex-Gara|cat-n|gen-m|num-sg|pers-3|case-d|vib-0_vAlA|tam-0|chunkId-NP5|stype-|voicetype-	11	k1	_	_
9	use	vaha	pn	PRP	lex-vaha|cat-pn|gen-any|num-sg|pers-3|case-o|vib-ko|tam-ko|chunkId-NP6|stype-|voicetype-	11	k2	_	_
10	jabarana	jabarana	adv	RB	lex-jabarana|cat-adv|gen-|num-|pers-|case-|vib-|tam-|chunkId-RBP2|stype-|voicetype-	11	adv	_	_
11	lekara	le	v	VM	lex-le|cat-v|gen-any|num-any|pers-any|case-|vib-kara|tam-kara|chunkId-VGNF|stype-|voicetype-	12	vmod	_	_
12	jAne	jA	v	VM	lex-jA|cat-v|gen-any|num-pl|pers-any|case-|vib-nA_laga+yA|tam-nA|chunkId-VGF2|stype-declarative|voicetype-active	6	ccof	_	_
13	.	.	punc	SYM	lex-.|cat-punc|gen-|num-|pers-|case-|vib-|tam-|chunkId-BLK|stype-|voicetype-	6	rsym	_	_

1	isakA	yaha	pn	PRP	lex-yaha|cat-pn|gen-m|num-sg|pers-3|case-d|vib-kA|tam-kA|chunkId-NP|stype-|voicetype-	2	r6-k2	_	_
2	viroXa	viroXa	n	NN	lex-viroXa|cat-n|gen-m|num-sg|pers-3|case-d|vib-0|tam-0|chunkId-NP2|stype-|voicetype-	6	pof	_	_
3	husEna	husEna	n	NNP	lex-husEna|cat-n|gen-m|num-sg|pers-3|case-o|vib-0|tam-0|chunkId-NP3|stype-|voicetype-	4	ccof	_	_
4	waWA	waWA	avy	CC	lex-waWA|cat-avy|gen-|num-|pers-|case-|vib-|tam-|chunkId-CCP|stype-|voicetype-	6	k1	_	_
5	grAmINoM	grAmINa	n	NN	lex-grAmINa|cat-n|gen-m|num-pl|pers-3|case-o|vib-0_ne|tam-0|chunkId-NP4|stype-|voicetype-	4	ccof	_	_
6	kiyA	kara	v	VM	lex-kara|cat-v|gen-m|num-sg|pers-any|case-|vib-yA|tam-yA|chunkId-VGF|stype-declarative|voicetype-active	0	main	_	_
7	.	.	punc	SYM	lex-.|cat-punc|gen-|num-|pers-|case-|vib-|tam-|chunkId-BLK|stype-|voicetype-	6	rsym	_	_

1	bAwa	bAwa	n	NN	lex-bAwa|cat-n|gen-f|num-sg|pers-3|case-d|vib-0|tam-0|chunkId-NP|stype-|voicetype-	2	k1	_	_
2	baDZane	baDa	v	VM	lex-baDa|cat-v|gen-any|num-any|pers-any|case-o|vib-nA_para|tam-nA|chunkId-VGNN|stype-|voicetype-	6	k7	_	_
3	WAnAXyakRa	WAnAXyakRa	n	NN	lex-WAnAXyakRa|cat-n|gen-m|num-sg|pers-3|case-d|vib-0|tam-0|chunkId-NP2|stype-|voicetype-	6	k1	_	_
4	sAbirA	sAbirA	n	NNP	lex-sAbirA|cat-n|gen-f|num-sg|pers-3|case-o|vib-0_ko|tam-0|chunkId-NP3|stype-|voicetype-	6	k2	_	_
5	WAne	WAnA	n	NN	lex-WAnA|cat-n|gen-m|num-sg|pers-3|case-d|vib-0|tam-0|chunkId-NP4|stype-|voicetype-	6	k7p	_	_
6	le	le	v	VM	lex-le|cat-v|gen-any|num-sg|pers-3h|case-|vib-0_A+yA|tam-0|chunkId-VGF|stype-declarative|voicetype-active	0	main	_	_
7	.	.	punc	SYM	lex-.|cat-punc|gen-|num-|pers-|case-|vib-|tam-|chunkId-BLK|stype-|voicetype-	6	rsym	_	_

1	yahIM	yahIM	pn	PRP	lex-yahIM|cat-pn|gen-|num-|pers-|case-d|vib-|tam-|chunkId-NP|stype-|voicetype-	4	k7	_	_
2	pakRoM	pakRa	n	NN	lex-pakRa|cat-n|gen-m|num-pl|pers-3|case-o|vib-0_kA|tam-0|chunkId-NP2|stype-|voicetype-	3	r6	_	_
3	loga	loga	n	NN	lex-loga|cat-n|gen-m|num-pl|pers-3|case-d|vib-0|tam-0|chunkId-NP3|stype-|voicetype-	4	k1	_	_
4	A	A	v	VM	lex-A|cat-v|gen-any|num-pl|pers-any|case-|vib-0_jA+yA1|tam-0|chunkId-VGF|stype-declarative|voicetype-active	0	main	_	_
5	.	.	punc	SYM	lex-.|cat-punc|gen-|num-|pers-|case-|vib-|tam-|chunkId-BLK|stype-|voicetype-	4	rsym	_	_

1	PEsalA	PEsalA	n	NN	lex-PEsalA|cat-n|gen-m|num-sg|pers-3|case-d|vib-0|tam-0|chunkId-NP|stype-|voicetype-	3	k2	_	_
2	grAmINoM	grAmINa	n	NN	lex-grAmINa|cat-n|gen-m|num-pl|pers-3|case-o|vib-0_para|tam-0|chunkId-NP2|stype-|voicetype-	3	k7	_	_
3	CodZa	Coda	v	VM	lex-Coda|cat-v|gen-m|num-sg|pers-any|case-|vib-0_xe+yA_jA+yA1|tam-0|chunkId-VGF|stype-declarative|voicetype-passive	0	main	_	_
4	.	.	punc	SYM	lex-.|cat-punc|gen-|num-|pers-|case-|vib-|tam-|chunkId-BLK|stype-|voicetype-	3	rsym	_	_

1	gAMva	gAzva	n	NN	lex-gAzva|cat-n|gen-m|num-sg|pers-3|case-d|vib-0_vAlA|tam-0|chunkId-NP|stype-|voicetype-	4	k1	_	_
2	sAbirA	sAbirA	n	NNP	lex-sAbirA|cat-n|gen-f|num-sg|pers-3|case-o|vib-0_kA|tam-0|chunkId-NP2|stype-|voicetype-	3	r6	_	_
3	jixa	jixa	n	NN	lex-jixa|cat-n|gen-f|num-sg|pers-3|case-o|vib-0_ke_Age|tam-0|chunkId-NP3|stype-|voicetype-	4	k7	_	_
4	hAra	hAra	v	VM	lex-hAra|cat-v|gen-any|num-pl|pers-any|case-|vib-0_jA+yA1|tam-0|chunkId-VGF|stype-declarative|voicetype-active	0	main	_	_
5	.	.	punc	SYM	lex-.|cat-punc|gen-|num-|pers-|case-|vib-|tam-|chunkId-BLK|stype-|voicetype-	4	rsym	_	_

1	lihAjA	lihAjA	avy	CC	lex-lihAjA|cat-avy|gen-|num-|pers-|case-|vib-|tam-|chunkId-CCP|stype-|voicetype-	0	main	_	_
2	subaha	subaha	n	NN	lex-subaha|cat-n|gen-f|num-sg|pers-3|case-d|vib-0|tam-0|chunkId-NP|stype-|voicetype-	8	k7t	_	_
3	raSIxa	raSIxa	n	NNP	lex-raSIxa|cat-n|gen-m|num-sg|pers-3|case-o|vib-0_ne|tam-0|chunkId-NP2|stype-|voicetype-	8	k1	_	_
4	sAbirA	sAbirA	n	NNP	lex-sAbirA|cat-n|gen-f|num-sg|pers-3|case-o|vib-0|tam-0|chunkId-NP3|stype-|voicetype-	5	ccof	_	_
5	Ora	Ora	avy	CC	lex-Ora|cat-avy|gen-|num-|pers-|case-|vib-|tam-|chunkId-CCP2|stype-|voicetype-	7	r6-k2	_	_
6	husEna	husEna	n	NNP	lex-husEna|cat-n|gen-m|num-sg|pers-3|case-o|vib-0_kA|tam-0|chunkId-NP4|stype-|voicetype-	5	ccof	_	_
7	nikAha	nikAha	n	NN	lex-nikAha|cat-n|gen-m|num-sg|pers-3|case-d|vib-0|tam-0|chunkId-NP5|stype-|voicetype-	8	pof	_	_
8	karA	kara	v	VM	lex-kara|cat-v|gen-any|num-sg|pers-any|case-|vib-yA_xe+yA|tam-yA|chunkId-VGF|stype-declarative|voicetype-active	1	ccof	_	_
9	.	.	punc	SYM	lex-.|cat-punc|gen-|num-|pers-|case-|vib-|tam-|chunkId-BLK|stype-|voicetype-	1	rsym	_	_

1	gAMva	gAzva	n	NN	lex-gAzva|cat-n|gen-m|num-sg|pers-3|case-o|vib-0_meM|tam-0|chunkId-NP|stype-|voicetype-	2	k7p	_	_
2	pahuMce	pahuMca	v	VM	lex-pahuMca|cat-v|gen-m|num-sg|pers-3h|case-|vib-yA|tam-yA|chunkId-VGNF|stype-|voicetype-	3	nmod__k1inv	_	_
3	saMvAxaxAwA	saMvAxaxAwA	n	NN	lex-saMvAxaxAwA|cat-n|gen-m|num-sg|pers-3|case-o|vib-0_ne|tam-0|chunkId-NP2|stype-|voicetype-	7	k1	_	_
4	jaba	jaba	pn	PRP	lex-jaba|cat-pn|gen-|num-|pers-|case-d|vib-|tam-|chunkId-NP3|stype-|voicetype-	7	k7t	_	_
5	sAbirA	sAbirA	n	NNP	lex-sAbirA|cat-n|gen-f|num-sg|pers-3|case-o|vib-0_se|tam-0|chunkId-NP4|stype-|voicetype-	7	k4	_	_
6	bAwa	bAwa	n	NN	lex-bAwa|cat-n|gen-f|num-sg|pers-3|case-d|vib-0|tam-0|chunkId-NP5|stype-|voicetype-	7	pof	_	_
7	kI	kara	v	VM	lex-kara|cat-v|gen-f|num-sg|pers-any|case-|vib-yA|tam-yA|chunkId-VGF|stype-declarative|voicetype-active	8	nmod__relc	_	_
8	wo	wo	pn	PRP	lex-wo|cat-pn|gen-|num-|pers-|case-|vib-|tam-|chunkId-NP6|stype-|voicetype-	10	k7t	_	_
9	vaha	vaha	pn	PRP	lex-vaha|cat-pn|gen-any|num-sg|pers-3|case-d|vib-0|tam-0|chunkId-NP7|stype-|voicetype-	10	k1	_	_
10	bolI	bola	v	VM	lex-bola|cat-v|gen-f|num-sg|pers-any|case-|vib-yA|tam-yA|chunkId-VGF2|stype-declarative|voicetype-active	11	ccof	_	_
11	:	:	punc	SYM	lex-:|cat-punc|gen-|num-|pers-|case-|vib-|tam-|chunkId-CCP|stype-|voicetype-	0	main	_	_
12	mEne	mE	pn	PRP	lex-mE|cat-pn|gen-any|num-sg|pers-1|case-o|vib-ne|tam-ne|chunkId-NP8|stype-|voicetype-	14	k1	_	_
13	minnaweM	minnawa	n	NN	lex-minnawa|cat-n|gen-f|num-pl|pers-3|case-d|vib-0|tam-0|chunkId-NP9|stype-|voicetype-	14	pof	_	_
14	kI	kara	v	VM	lex-kara|cat-v|gen-f|num-pl|pers-any|case-|vib-yA_WA|tam-yA|chunkId-VGF3|stype-declarative|voicetype-active	11	ccof	_	_
15	.	.	punc	SYM	lex-.|cat-punc|gen-|num-|pers-|case-|vib-|tam-|chunkId-BLK|stype-|voicetype-	11	rsym	_	_

1	lekina	lekina	avy	CC	lex-lekina|cat-avy|gen-|num-|pers-|case-|vib-|tam-|chunkId-CCP|stype-|voicetype-	0	main	_	_
2	Gara	Gara	n	NN	lex-Gara|cat-n|gen-m|num-sg|pers-3|case-d|vib-0_vAlA|tam-0|chunkId-NP|stype-|voicetype-	3	k1	_	_
3	mAne	mAna	v	VM	lex-mAna|cat-v|gen-m|num-pl|pers-3|case-|vib-yA|tam-yA|chunkId-VGF|stype-declarative|voicetype-active	1	ccof	_	_
4	.	.	punc	SYM	lex-.|cat-punc|gen-|num-|pers-|case-|vib-|tam-|chunkId-BLK|stype-|voicetype-	1	rsym	_	_

1	jagaha	jagaha	n	NN	lex-jagaha|cat-n|gen-f|num-sg|pers-3|case-d|vib-0|tam-0|chunkId-NP|stype-|voicetype-	5	k7	_	_
2	merI	mEM	pn	PRP	lex-mEM|cat-pn|gen-f|num-any|pers-1|case-any|vib-kA|tam-kA|chunkId-NP2|stype-|voicetype-	3	r6	_	_
3	SAxI	SAxI	n	NN	lex-SAxI|cat-n|gen-f|num-sg|pers-3|case-o|vib-0_kA|tam-0|chunkId-NP3|stype-|voicetype-	4	r6-k2	_	_
4	wEyArI	wEyArI	n	NN	lex-wEyArI|cat-n|gen-f|num-sg|pers-3|case-d|vib-0|tam-0|chunkId-NP4|stype-|voicetype-	5	pof	_	_
5	kI	kara	v	VM	lex-kara|cat-v|gen-f|num-sg|pers-any|case-|vib-yA_jA_raha+yA_WA|tam-yA|chunkId-VGF|stype-declarative|voicetype-passive	0	main	_	_
6	.	.	punc	SYM	lex-.|cat-punc|gen-|num-|pers-|case-|vib-|tam-|chunkId-BLK|stype-|voicetype-	5	rsym	_	_

1	mEMne	mE	pn	PRP	lex-mE|cat-pn|gen-any|num-sg|pers-1|case-o|vib-ne|tam-ne|chunkId-NP|stype-|voicetype-	2	k1	_	_
2	TAna	TAna	v	VM	lex-TAna|cat-v|gen-m|num-sg|pers-any|case-|vib-0_le+yA_WA|tam-0|chunkId-VGF|stype-declarative|voicetype-active	0	main	_	_
3	ki	ki	avy	CC	lex-ki|cat-avy|gen-|num-|pers-|case-|vib-|tam-|chunkId-CCP|stype-|voicetype-	2	k2	_	_
4	jagaha	jagaha	n	NN	lex-jagaha|cat-n|gen-f|num-sg|pers-3|case-d|vib-0|tam-0|chunkId-NP2|stype-|voicetype-	6	k7	_	_
5	nikAha	nikAha	n	NN	lex-nikAha|cat-n|gen-m|num-sg|pers-3|case-d|vib-0|tam-0|chunkId-NP3|stype-|voicetype-	6	pof	_	_
6	karUMgI	kara	v	VM	lex-kara|cat-v|gen-f|num-sg|pers-3|case-|vib-gA|tam-gA|chunkId-VGF2|stype-declarative|voicetype-active	3	ccof	_	_
7	.	.	punc	SYM	lex-.|cat-punc|gen-|num-|pers-|case-|vib-|tam-|chunkId-BLK|stype-|voicetype-	2	rsym	_	_

1	husEna	husEna	n	NNP	lex-husEna|cat-n|gen-m|num-sg|pers-3|case-o|vib-0_ne|tam-0|chunkId-NP|stype-|voicetype-	2	k1	_	_
2	bawAyA	bawA	v	VM	lex-bawA|cat-v|gen-m|num-sg|pers-any|case-|vib-yA|tam-yA|chunkId-VGF|stype-declarative|voicetype-active	0	main	_	_
3	merA	mEM	pn	PRP	lex-mEM|cat-pn|gen-m|num-sg|pers-1|case-d|vib-kA|tam-kA|chunkId-NP2|stype-|voicetype-	4	ccof	_	_
4	Ora	Ora	avy	CC	lex-Ora|cat-avy|gen-|num-|pers-|case-|vib-|tam-|chunkId-CCP|stype-|voicetype-	6	r6	_	_
5	sAbirA	sAbirA	n	NNP	lex-sAbirA|cat-n|gen-f|num-sg|pers-3|case-o|vib-0_kA|tam-0|chunkId-NP3|stype-|voicetype-	4	ccof	_	_
6	prema	prema	n	NN	lex-prema|cat-n|gen-m|num-sg|pers-3|case-d|vib-0|tam-0|chunkId-NP4|stype-|voicetype-	9	k1	_	_
7	mAha	mAha	n	NN	lex-mAha|cat-n|gen-m|num-sg|pers-3|case-o|vib-0_se|tam-0|chunkId-NP5|stype-|voicetype-	8	nmod	_	_
8	samaya	samaya	n	NN	lex-samaya|cat-n|gen-m|num-sg|pers-3|case-o|vib-0_se|tam-0|chunkId-NP6|stype-|voicetype-	9	k7t	_	_
9	cala	cala	v	VM	lex-cala|cat-v|gen-m|num-sg|pers-any|case-|vib-0_raha+yA_WA|tam-0|chunkId-VGF2|stype-declarative|voicetype-active	2	k2	_	_
10	.	.	punc	SYM	lex-.|cat-punc|gen-|num-|pers-|case-|vib-|tam-|chunkId-BLK|stype-|voicetype-	2	rsym	_	_

1	mEne	mE	pn	PRP	lex-mE|cat-pn|gen-any|num-sg|pers-1|case-o|vib-ne|tam-ne|chunkId-NP|stype-|voicetype-	8	k1	_	_
2	usake	vaha	pn	PRP	lex-vaha|cat-pn|gen-m|num-sg|pers-3|case-o|vib-kA|tam-kA|chunkId-NP2|stype-|voicetype-	3	r6	_	_
3	piwA	piwA	n	NN	lex-piwA|cat-n|gen-m|num-sg|pers-3|case-o|vib-0_se|tam-0|chunkId-NP3|stype-|voicetype-	5	k4	_	_
4	bAwa	bAwa	n	NN	lex-bAwa|cat-n|gen-f|num-sg|pers-3|case-d|vib-0|tam-0|chunkId-NP4|stype-|voicetype-	5	pof	_	_
5	karane	kara	v	VM	lex-kara|cat-v|gen-any|num-any|pers-any|case-o|vib-nA_ke_lie|tam-nA|chunkId-VGNN|stype-|voicetype-	8	rt	_	_
6	apane	apanA	pn	PRP	lex-apanA|cat-pn|gen-m|num-any|pers-any|case-o|vib-0|tam-0|chunkId-NP5|stype-|voicetype-	7	r6	_	_
7	Gara	Gara	n	NN	lex-Gara|cat-n|gen-m|num-sg|pers-3|case-d|vib-0_vAlA_ko|tam-0|chunkId-NP6|stype-|voicetype-	8	k2	_	_
8	BejA	Beja	v	VM	lex-Beja|cat-v|gen-m|num-sg|pers-any|case-|vib-yA_WA|tam-yA|chunkId-VGF|stype-declarative|voicetype-active	9	ccof	_	_
9	lekina	lekina	avy	CC	lex-lekina|cat-avy|gen-|num-|pers-|case-|vib-|tam-|chunkId-CCP|stype-|voicetype-	0	main	_	_
10	unhoMne	vaha	pn	PRP	lex-vaha|cat-pn|gen-any|num-sg|pers-3h|case-o|vib-ne|tam-ne|chunkId-NP7|stype-|voicetype-	13	k1	_	_
11	riSwe	riSwA	n	NN	lex-riSwA|cat-n|gen-m|num-sg|pers-3|case-o|vib-0_se|tam-0|chunkId-NP8|stype-|voicetype-	13	k2	_	_
12	iMkAra	iMkAra	n	NN	lex-iMkAra|cat-n|gen-m|num-sg|pers-3|case-d|vib-0|tam-0|chunkId-NP9|stype-|voicetype-	13	pof	_	_
13	kara	kara	v	VM	lex-kara|cat-v|gen-any|num-sg|pers-any|case-|vib-0_xe+yA|tam-0|chunkId-VGF2|stype-declarative|voicetype-active	9	ccof	_	_
14	.	.	punc	SYM	lex-.|cat-punc|gen-|num-|pers-|case-|vib-|tam-|chunkId-BLK|stype-|voicetype-	9	rsym	_	_

1	kula	kula	avy	QF	lex-kula|cat-avy|gen-|num-|pers-|case-|vib-|tam-|chunkId-JJP|stype-|voicetype-	2	vmod	_	_
2	milAkara	milA	v	VM	lex-milA|cat-v|gen-any|num-any|pers-any|case-|vib-kara|tam-kara|chunkId-VGNF|stype-|voicetype-	8	vmod	_	_
3	apane	apanA	pn	PRP	lex-apanA|cat-pn|gen-m|num-any|pers-any|case-o|vib-0|tam-0|chunkId-NP|stype-|voicetype-	4	r6	_	_
4	pyAra	pyAra	n	NN	lex-pyAra|cat-n|gen-m|num-sg|pers-3|case-o|vib-0_ko|tam-0|chunkId-NP2|stype-|voicetype-	5	k2	_	_
5	pAkara	pA	v	VM	lex-pA|cat-v|gen-any|num-any|pers-any|case-|vib-kara|tam-kara|chunkId-VGNF2|stype-|voicetype-	8	vmod	_	_
6	sAbirA	sAbirA	n	NNP	lex-sAbirA|cat-n|gen-f|num-sg|pers-3|case-d|vib-0|tam-0|chunkId-NP3|stype-|voicetype-	8	k1	_	_
7	KuSa	KuSa	adj	JJ	lex-KuSa|cat-adj|gen-any|num-any|pers-|case-|vib-|tam-|chunkId-JJP2|stype-|voicetype-	8	k1s	_	_
8	hE	hE	v	VM	lex-hE|cat-v|gen-any|num-sg|pers-3|case-|vib-hE|tam-hE|chunkId-VGF|stype-declarative|voicetype-active	0	main	_	_
9	.	.	punc	SYM	lex-.|cat-punc|gen-|num-|pers-|case-|vib-|tam-|chunkId-BLK|stype-|voicetype-	8	rsym	_	_

1	wAliba	wAliba	n	NNP	lex-wAliba|cat-n|gen-m|num-sg|pers-3|case-o|vib-0_kA|tam-0|chunkId-NP|stype-|voicetype-	2	r6	_	_
2	Gara	Gara	n	NN	lex-Gara|cat-n|gen-m|num-sg|pers-3|case-o|vib-0_para|tam-0|chunkId-NP2|stype-|voicetype-	6	k7p	_	_
3	pAsa	pAsa	nst	NST	lex-pAsa|cat-nst|gen-m|num-sg|pers-3|case-o|vib-0_kA|tam-|chunkId-NP3|stype-|voicetype-	4	r6	_	_
4	mahilAoM	mahilA	n	NN	lex-mahilA|cat-n|gen-f|num-pl|pers-3|case-o|vib-0_kA|tam-0|chunkId-NP4|stype-|voicetype-	5	r6	_	_
5	jamAvadZA	jamAvadA	n	NN	lex-jamAvadA|cat-n|gen-m|num-sg|pers-3|case-d|vib-0|tam-0|chunkId-NP5|stype-|voicetype-	6	k1	_	_
6	lagA	laga	v	VM	lex-laga|cat-v|gen-m|num-sg|pers-3|case-|vib-yA_ho+yA_hE|tam-yA|chunkId-VGF|stype-declarative|voicetype-active	0	main	_	_
7	.	.	punc	SYM	lex-.|cat-punc|gen-|num-|pers-|case-|vib-|tam-|chunkId-BLK|stype-|voicetype-	6	rsym	_	_

1	saBI	saba	pn	PRP	lex-saba|cat-pn|gen-|num-|pers-|case-d|vib-|tam-|chunkId-NP|stype-|voicetype-	5	k1	_	_
2	wAliba	wAliba	n	NNP	lex-wAliba|cat-n|gen-m|num-sg|pers-3|case-o|vib-0_kA|tam-0|chunkId-NP2|stype-|voicetype-	3	r6	_	_
3	pawni	kA	n	NN	lex-kA|cat-n|gen-f|num-sg|pers-3|case-o|vib-0_kA|tam-0|chunkId-NP3|stype-|voicetype-	4	r6-k2	_	_
4	xiKAI	xiKAI	n	NN	lex-xiKAI|cat-n|gen-f|num-sg|pers-3|case-d|vib-0|tam-0|chunkId-NP4|stype-|voicetype-	5	pof	_	_
5	kara	kara	v	VM	lex-kara|cat-v|gen-f|num-pl|pers-3|case-|vib-0_raha+yA_hE|tam-0|chunkId-VGF|stype-declarative|voicetype-active	0	main	_	_
6	.	.	punc	SYM	lex-.|cat-punc|gen-|num-|pers-|case-|vib-|tam-|chunkId-BLK|stype-|voicetype-	5	rsym	_	_

1	wAliba	wAliba	n	NNP	lex-wAliba|cat-n|gen-m|num-sg|pers-3|case-o|vib-0_kA|tam-0|chunkId-NP|stype-|voicetype-	2	k1	_	_
2	parivAra	parivAra	n	NN	lex-parivAra|cat-n|gen-m|num-sg|pers-3|case-o|vib-0_vAlA|tam-0|chunkId-NP2|stype-|voicetype-	5	k1	_	_
3	valIme	valImA	n	NN	lex-valImA|cat-n|gen-m|num-sg|pers-3|case-o|vib-0_kA|tam-0|chunkId-NP3|stype-|voicetype-	4	r6	_	_
4	wEyArI	wEyArI	n	NN	lex-wEyArI|cat-n|gen-f|num-sg|pers-3|case-o|vib-0_meM|tam-0|chunkId-NP4|stype-|voicetype-	5	k7	_	_
5	juta	juta	v	VM	lex-juta|cat-v|gen-m|num-pl|pers-3|case-|vib-0_jA+yA1_hE|tam-0|chunkId-VGF|stype-declarative|voicetype-active	0	main	_	_
6	.	.	punc	SYM	lex-.|cat-punc|gen-|num-|pers-|case-|vib-|tam-|chunkId-BLK|stype-|voicetype-	5	rsym	_	_

1	burA	burA	adj	JJ	lex-burA|cat-adj|gen-m|num-sg|pers-|case-|vib-|tam-|chunkId-JJP|stype-|voicetype-	2	k2	_	_
2	samaJa	samaJa	v	VM	lex-samaJa|cat-v|gen-f|num-sg|pers-3|case-|vib-0_saka+wA_hE|tam-0|chunkId-VGF|stype-declarative|voicetype-active	0	main	_	_
3	kArIamarohA	kArIamarohA	n	NNP	lex-kArIamarohA|cat-n|gen-f|num-sg|pers-3|case-d|vib-0|tam-0|chunkId-NP|stype-|voicetype-	2	k1	_	_
4	.	.	punc	SYM	lex-.|cat-punc|gen-|num-|pers-|case-|vib-|tam-|chunkId-BLK|stype-|voicetype-	2	rsym	_	_

1	nikAha	nikAha	n	NN	lex-nikAha|cat-n|gen-m|num-sg|pers-3|case-d|vib-0|tam-0|chunkId-NP|stype-|voicetype-	2	nmod	_	_
2	karAne	karA	v	VM	lex-karA|cat-v|gen-any|num-sg|pers-any|case-o|vib-nA_vAlA|tam-nA|chunkId-VGNN|stype-|voicetype-	3	nmod	_	_
3	raSIxa	raSIxa	n	NNP	lex-raSIxa|cat-n|gen-m|num-sg|pers-3|case-o|vib-0_ne|tam-0|chunkId-NP2|stype-|voicetype-	4	k1	_	_
4	kahA	kaha	v	VM	lex-kaha|cat-v|gen-m|num-sg|pers-any|case-|vib-yA|tam-yA|chunkId-VGF|stype-declarative|voicetype-active	0	main	_	_
5	ki	ki	avy	CC	lex-ki|cat-avy|gen-|num-|pers-|case-|vib-|tam-|chunkId-CCP|stype-|voicetype-	4	k2	_	_
6	KAwUna	KAwUna	n	NNP	lex-KAwUna|cat-n|gen-f|num-sg|pers-3|case-d|vib-0|tam-0|chunkId-NP3|stype-|voicetype-	8	k1	_	_
7	bAliga	bAliga	adj	JJ	lex-bAliga|cat-adj|gen-any|num-any|pers-|case-|vib-|tam-|chunkId-JJP|stype-|voicetype-	8	k1s	_	_
8	hE	hE	v	VM	lex-hE|cat-v|gen-any|num-sg|pers-3|case-|vib-hE|tam-hE|chunkId-VGF2|stype-declarative|voicetype-active	5	ccof	_	_
9	.	.	punc	SYM	lex-.|cat-punc|gen-|num-|pers-|case-|vib-|tam-|chunkId-BLK|stype-|voicetype-	4	rsym	_	_

1	vaha	vaha	pn	PRP	lex-vaha|cat-pn|gen-any|num-sg|pers-3|case-d|vib-0|tam-0|chunkId-NP|stype-|voicetype-	4	k1	_	_
2	apanA	apanA	pn	PRP	lex-apanA|cat-pn|gen-m|num-any|pers-any|case-d|vib-0|tam-0|chunkId-NP2|stype-|voicetype-	3	r6-k2	_	_
3	burA	burA	adj	JJ	lex-burA|cat-adj|gen-m|num-sg|pers-|case-|vib-|tam-|chunkId-JJP|stype-|voicetype-	4	pof	_	_
4	samaJa	samaJa	v	VM	lex-samaJa|cat-v|gen-f|num-sg|pers-3|case-|vib-0_saka+wA_hE|tam-0|chunkId-VGF|stype-declarative|voicetype-active	0	main	_	_
5	.	.	punc	SYM	lex-.|cat-punc|gen-|num-|pers-|case-|vib-|tam-|chunkId-BLK|stype-|voicetype-	4	rsym	_	_

1	pahale	pahale	nst	NST	lex-pahale|cat-nst|gen-m|num-sg|pers-3|case-d|vib-|tam-|chunkId-NP|stype-|voicetype-	4	k7t	_	_
2	usake	vaha	pn	PRP	lex-vaha|cat-pn|gen-m|num-sg|pers-3|case-o|vib-kA|tam-kA|chunkId-NP2|stype-|voicetype-	3	r6	_	_
3	Gara	Gara	n	NN	lex-Gara|cat-n|gen-m|num-sg|pers-3|case-d|vib-0_vAlA|tam-0|chunkId-NP3|stype-|voicetype-	4	k1	_	_
4	mAna	mAna	v	VM	lex-mAna|cat-v|gen-m|num-pl|pers-any|case-|vib-0_raha+yA_WA|tam-0|chunkId-VGF|stype-declarative|voicetype-active	5	ccof	_	_
5	lekina	lekina	avy	CC	lex-lekina|cat-avy|gen-|num-|pers-|case-|vib-|tam-|chunkId-CCP|stype-|voicetype-	0	main	_	_
6	bAxa	bAxa	nst	NST	lex-bAxa|cat-nst|gen-m|num-sg|pers-3|case-o|vib-0_meM|tam-|chunkId-NP4|stype-|voicetype-	8	k7t	_	_
7	vaha	vaha	pn	PRP	lex-vaha|cat-pn|gen-any|num-pl|pers-3|case-d|vib-0|tam-0|chunkId-NP5|stype-|voicetype-	8	k1	_	_
8	mAna	mAna	v	VM	lex-mAna|cat-v|gen-m|num-pl|pers-any|case-|vib-0_jA+yA1_WA|tam-0|chunkId-VGF2|stype-declarative|voicetype-active	5	ccof	_	_
9	.	.	punc	SYM	lex-.|cat-punc|gen-|num-|pers-|case-|vib-|tam-|chunkId-BLK|stype-|voicetype-	5	rsym	_	_

1	raSIxa	raSIxa	n	NNP	lex-raSIxa|cat-n|gen-m|num-sg|pers-3|case-o|vib-0_ne|tam-0|chunkId-NP|stype-|voicetype-	2	k1	_	_
2	bawAyA	bawA	v	VM	lex-bawA|cat-v|gen-m|num-sg|pers-any|case-|vib-yA|tam-yA|chunkId-VGF|stype-declarative|voicetype-active	0	main	_	_
3	ki	ki	avy	CC	lex-ki|cat-avy|gen-|num-|pers-|case-|vib-|tam-|chunkId-CCP|stype-|voicetype-	2	k2	_	_
4	sAbirA	sAbirA	n	NNP	lex-sAbirA|cat-n|gen-f|num-sg|pers-3|case-o|vib-0_ne|tam-0|chunkId-NP2|stype-|voicetype-	6	k1	_	_
5	kaxama	kaxama	n	NN	lex-kaxama|cat-n|gen-m|num-sg|pers-3|case-d|vib-0|tam-0|chunkId-NP3|stype-|voicetype-	6	k2	_	_
6	uTAyA	uTA	v	VM	lex-uTA|cat-v|gen-m|num-sg|pers-any|case-|vib-yA|tam-yA|chunkId-VGNF|stype-|voicetype-	7	nmod__relc	_	_
7	vaha	vaha	pn	PRP	lex-vaha|cat-pn|gen-any|num-sg|pers-3|case-d|vib-0|tam-0|chunkId-NP4|stype-|voicetype-	8	k1	_	_
8	hE	hE	v	VM	lex-hE|cat-v|gen-any|num-sg|pers-3|case-|vib-hE|tam-hE|chunkId-VGF2|stype-declarative|voicetype-active	10	ccof	_	_
9	galawa	galawa	adj	JJ	lex-galawa|cat-adj|gen-any|num-any|pers-|case-|vib-|tam-|chunkId-JJP|stype-|voicetype-	8	k1s	_	_
10	lekina	lekina	avy	CC	lex-lekina|cat-avy|gen-|num-|pers-|case-|vib-|tam-|chunkId-CCP2|stype-|voicetype-	3	ccof	_	_
11	usakI	vaha	pn	PRP	lex-vaha|cat-pn|gen-f|num-sg|pers-3|case-o|vib-kA|tam-kA|chunkId-NP5|stype-|voicetype-	12	r6	_	_
12	jixa	jixa	n	NN	lex-jixa|cat-n|gen-f|num-sg|pers-3|case-o|vib-0_ke_Age|tam-0|chunkId-NP6|stype-|voicetype-	14	k7	_	_
13	logoM	loga	n	NN	lex-loga|cat-n|gen-m|num-pl|pers-3|case-o|vib-0_ko|tam-0|chunkId-NP7|stype-|voicetype-	14	k1	_	_
14	JukanA	Juka	v	VM	lex-Juka|cat-v|gen-any|num-sg|pers-any|case-d|vib-nA_pada+yA|tam-nA|chunkId-VGF3|stype-declarative|voicetype-active	10	ccof	_	_
15	.	.	punc	SYM	lex-.|cat-punc|gen-|num-|pers-|case-|vib-|tam-|chunkId-BLK|stype-|voicetype-	2	rsym	_	_

1	sahamawi	sahamawi	n	NN	lex-sahamawi|cat-n|gen-f|num-sg|pers-3|case-o|vib-0_se|tam-0|chunkId-NP|stype-|voicetype-	3	rh	_	_
2	hala	hala	n	NN	lex-hala|cat-n|gen-m|num-sg|pers-3|case-d|vib-0|tam-0|chunkId-NP2|stype-|voicetype-	3	pof	_	_
3	huA	ho	v	VM	lex-ho|cat-v|gen-m|num-sg|pers-any|case-|vib-yA|tam-yA|chunkId-VGNF|stype-|voicetype-	0	main	_	_
4	mAmalA	mAmalA	n	NN	lex-mAmalA|cat-n|gen-m|num-sg|pers-3|case-d|vib-0|tam-0|chunkId-NP3|stype-|voicetype-	3	k2	_	_
5	esaoamarohA	esaoamarohA	n	NNP	lex-esaoamarohA|cat-n|gen-m|num-sg|pers-3|case-d|vib-0|tam-0|chunkId-NP4|stype-|voicetype-	4	rs	_	_
6	.	.	punc	SYM	lex-.|cat-punc|gen-|num-|pers-|case-|vib-|tam-|chunkId-BLK|stype-|voicetype-	3	rsym	_	_

1	sAha	saha	n	NNP	lex-saha|cat-n|gen-m|num-sg|pers-3|case-o|vib-0_kA|tam-0|chunkId-NP|stype-|voicetype-	2	k1	_	_
2	kahanA	kaha	v	VM	lex-kaha|cat-v|gen-any|num-any|pers-any|case-d|vib-nA|tam-nA|chunkId-VGNN|stype-|voicetype-	3	k1	_	_
3	hE	hE	v	VM	lex-hE|cat-v|gen-any|num-sg|pers-3|case-|vib-hE|tam-hE|chunkId-VGF|stype-declarative|voicetype-active	0	main	_	_
4	wAliba	wAliba	n	NNP	lex-wAliba|cat-n|gen-m|num-sg|pers-3|case-o|vib-0_kA|tam-0|chunkId-NP2|stype-|voicetype-	5	r6	_	_
5	rikArda	rikArda	n	NN	lex-rikArda|cat-n|gen-m|num-sg|pers-3|case-d|vib-0|tam-0|chunkId-NP3|stype-|voicetype-	7	k1	_	_
6	AparAXika	AparAXika	adj	JJ	lex-AparAXika|cat-adj|gen-any|num-any|pers-|case-|vib-|tam-|chunkId-JJP|stype-|voicetype-	7	k2	_	_
7	hE	hE	v	VM	lex-hE|cat-v|gen-any|num-sg|pers-3|case-|vib-hE|tam-hE|chunkId-VGF2|stype-declarative|voicetype-active	2	k2	_	_
8	.	.	punc	SYM	lex-.|cat-punc|gen-|num-|pers-|case-|vib-|tam-|chunkId-BLK|stype-|voicetype-	3	rsym	_	_

1	kAraNa	kAraNa	n	NN	lex-kAraNa|cat-n|gen-m|num-sg|pers-3|case-d|vib-0|tam-0|chunkId-NP|stype-|voicetype-	6	rh	_	_
2	sAbirA	sAbirA	n	NNP	lex-sAbirA|cat-n|gen-f|num-sg|pers-3|case-o|vib-0_kA|tam-0|chunkId-NP2|stype-|voicetype-	3	r6	_	_
3	Gara	Gara	n	NN	lex-Gara|cat-n|gen-m|num-sg|pers-3|case-o|vib-0_vAlA|tam-0|chunkId-NP3|stype-|voicetype-	6	k1	_	_
4	nikAha	nikAha	n	NN	lex-nikAha|cat-n|gen-m|num-sg|pers-3|case-o|vib-0_se|tam-0|chunkId-NP4|stype-|voicetype-	6	k2	_	_
5	iMkAra	iMkAra	n	NN	lex-iMkAra|cat-n|gen-m|num-sg|pers-3|case-d|vib-0|tam-0|chunkId-NP5|stype-|voicetype-	6	pof	_	_
6	kara	kara	v	VM	lex-kara|cat-v|gen-m|num-pl|pers-any|case-|vib-0_raha+yA_WA|tam-0|chunkId-VGF|stype-declarative|voicetype-active	0	main	_	_
7	.	.	punc	SYM	lex-.|cat-punc|gen-|num-|pers-|case-|vib-|tam-|chunkId-BLK|stype-|voicetype-	6	rsym	_	_

1	lekina	lekina	avy	CC	lex-lekina|cat-avy|gen-|num-|pers-|case-|vib-|tam-|chunkId-CCP|stype-|voicetype-	0	main	_	_
2	apanI	apanI	pn	PRP	lex-apanI|cat-pn|gen-f|num-any|pers-any|case-o|vib-0|tam-0|chunkId-NP|stype-|voicetype-	3	r6	_	_
3	betI	betI	n	NN	lex-betI|cat-n|gen-f|num-sg|pers-3|case-o|vib-0_kA|tam-0|chunkId-NP2|stype-|voicetype-	4	r6	_	_
4	jixa	jixa	n	NN	lex-jixa|cat-n|gen-f|num-sg|pers-3|case-o|vib-0_ke_Age|tam-0|chunkId-NP3|stype-|voicetype-	7	k7	_	_
5	unheM	vaha	pn	PRP	lex-vaha|cat-pn|gen-any|num-pl|pers-3|case-o|vib-ko|tam-ko|chunkId-NP4|stype-|voicetype-	7	k4a	_	_
6	hAra	hAra	n	NN	lex-hAra|cat-n|gen-f|num-sg|pers-3|case-d|vib-0|tam-0|chunkId-NP5|stype-|voicetype-	7	pof	_	_
7	mAnanI	mAna	v	VM	lex-mAna|cat-v|gen-f|num-sg|pers-any|case-|vib-nA_pada+yA|tam-nA|chunkId-VGF|stype-declarative|voicetype-active	1	ccof	_	_
8	.	.	punc	SYM	lex-.|cat-punc|gen-|num-|pers-|case-|vib-|tam-|chunkId-BLK|stype-|voicetype-	1	rsym	_	_

1	unhoMne	vaha	pn	PRP	lex-vaha|cat-pn|gen-any|num-sg|pers-3h|case-o|vib-ne|tam-ne|chunkId-NP|stype-|voicetype-	2	k1	_	_
2	bawAyA	bawA	v	VM	lex-bawA|cat-v|gen-m|num-sg|pers-any|case-|vib-yA|tam-yA|chunkId-VGF|stype-declarative|voicetype-active	0	main	_	_
3	ki	ki	avy	CC	lex-ki|cat-avy|gen-|num-|pers-|case-|vib-|tam-|chunkId-CCP|stype-|voicetype-	2	k2	_	_
4	hamane	hama	pn	PRP	lex-hama|cat-pn|gen-any|num-sg|pers-1|case-o|vib-ne|tam-ne|chunkId-NP2|stype-|voicetype-	9	k1	_	_
5	WAne	WAnA	n	NN	lex-WAnA|cat-n|gen-m|num-sg|pers-3|case-o|vib-0_para|tam-0|chunkId-NP3|stype-|voicetype-	9	k7p	_	_
6	gAMva	gAzva	n	NN	lex-gAzva|cat-n|gen-m|num-sg|pers-3|case-o|vib-0_kA|tam-0|chunkId-NP4|stype-|voicetype-	7	r6	_	_
7	logoM	loga	n	NN	lex-loga|cat-n|gen-m|num-pl|pers-3|case-o|vib-0_ko|tam-0|chunkId-NP5|stype-|voicetype-	8	k2	_	_
8	bulAkara	bulA	v	VM	lex-bulA|cat-v|gen-any|num-any|pers-any|case-|vib-kara|tam-kara|chunkId-VGNF|stype-|voicetype-	9	vmod	_	_
9	kaha	kaha	v	VM	lex-kaha|cat-v|gen-m|num-sg|pers-any|case-|vib-0_xe+yA_WA|tam-0|chunkId-VGF2|stype-declarative|voicetype-active	10	ccof	_	_
10	ki	ki	avy	CC	lex-ki|cat-avy|gen-|num-|pers-|case-|vib-|tam-|chunkId-CCP2|stype-|voicetype-	3	ccof	_	_
11	ise	yaha	pn	PRP	lex-yaha|cat-pn|gen-any|num-sg|pers-3|case-o|vib-ko|tam-ko|chunkId-NP6|stype-|voicetype-	13	k2	_	_
12	sahamawi	sahamawi	n	NN	lex-sahamawi|cat-n|gen-f|num-sg|pers-3|case-o|vib-0_ke_sAWa|tam-0|chunkId-NP7|stype-|voicetype-	13	ras-k2	_	_
13	nipatAyA	nipatA	v	VM	lex-nipatA|cat-v|gen-m|num-sg|pers-3|case-|vib-yA_jA+yA|tam-yA|chunkId-VGF3|stype-declarative|voicetype-active	10	ccof	_	_
14	.	.	punc	SYM	lex-.|cat-punc|gen-|num-|pers-|case-|vib-|tam-|chunkId-BLK|stype-|voicetype-	2	rsym	_	_

