1	wiraMgA	wiraMgA	n	NNP	lex-wiraMgA|cat-n|gen-m|num-sg|pers-3|case-d|vib-0|tam-0|chunkId-NP|stype-|voicetype-	2	vmod	_	_
2	Cape	Capa	v	VM	lex-Capa|cat-v|gen-m|num-pl|pers-any|case-|vib-yA|tam-yA|chunkId-VGNF|stype-|voicetype-	3	nmod__k1inv	_	_
3	pariXAnoM	pariXAna	n	NN	lex-pariXAna|cat-n|gen-m|num-pl|pers-3|case-o|vib-0_kA|tam-0|chunkId-NP2|stype-|voicetype-	4	r6	_	_
4	iswemAla	iswemAla	n	NN	lex-iswemAla|cat-n|gen-m|num-sg|pers-3|case-o|vib-0_para|tam-0|chunkId-NP3|stype-|voicetype-	6	k7	_	_
5	roka	roka	n	NN	lex-roka|cat-n|gen-f|num-sg|pers-3|case-d|vib-0|tam-0|chunkId-NP4|stype-|voicetype-	6	k2	_	_
6	hatAne	hatA	v	VM	lex-hatA|cat-v|gen-any|num-any|pers-any|case-o|vib-nA_saMbaMXI|tam-nA|chunkId-VGNN|stype-|voicetype-	7	nmod	_	_
7	praswAva	praswAva	n	NN	lex-praswAva|cat-n|gen-m|num-sg|pers-3|case-o|vib-0_ko|tam-0|chunkId-NP5|stype-|voicetype-	11	k2	_	_
8	kEbineta	kEbineta	n	NN	lex-kEbineta|cat-n|gen-m|num-sg|pers-3|case-o|vib-0_ne|tam-0|chunkId-NP6|stype-|voicetype-	11	k1	_	_
9	Aja	Aja	n	NN	lex-Aja|cat-n|gen-m|num-sg|pers-3|case-d|vib-0|tam-0|chunkId-NP7|stype-|voicetype-	11	k7t	_	_
10	maMjZUrI	maMjUrI	n	NN	lex-maMjUrI|cat-n|gen-f|num-sg|pers-3|case-d|vib-0|tam-0|chunkId-NP8|stype-|voicetype-	11	pof	_	_
11	xe	xe	v	VM	lex-xe|cat-v|gen-any|num-sg|pers-any|case-|vib-0_xe+yA|tam-0|chunkId-VGF|stype-declarative|voicetype-active	0	main	_	_
12	.	.	punc	SYM	lex-.|cat-punc|gen-|num-|pers-|case-|vib-|tam-|chunkId-BLK|stype-|voicetype-	11	rsym	_	_

1	isake	yaha	pn	PRP	lex-yaha|cat-pn|gen-any|num-sg|pers-3|case-|vib-ke_wahawa|tam-ke|chunkId-NP|stype-|voicetype-	11	k7a	_	_
2	janawA	janawA	n	NN	lex-janawA|cat-n|gen-f|num-sg|pers-3|case-d|vib-0|tam-0|chunkId-NP2|stype-|voicetype-	11	k1	_	_
3	rUpa	rUpa	n	NN	lex-rUpa|cat-n|gen-m|num-sg|pers-3|case-o|vib-0_se|tam-0|chunkId-NP3|stype-|voicetype-	11	vmod	_	_
4	KilAdZI	KilAdI	n	NN	lex-KilAdI|cat-n|gen-m|num-sg|pers-3|case-d|vib-0|tam-0|chunkId-NP4|stype-|voicetype-	11	k1s	_	_
5	apanI	apanA	pn	PRP	lex-apanA|cat-pn|gen-f|num-any|pers-any|case-o|vib-0|tam-0|chunkId-NP5|stype-|voicetype-	6	r6	_	_
6	varxI	varxI	n	NN	lex-varxI|cat-n|gen-f|num-sg|pers-3|case-o|vib-0|tam-0|chunkId-NP6|stype-|voicetype-	7	ccof	_	_
7	Ora	Ora	avy	CC	lex-Ora|cat-avy|gen-|num-|pers-|case-|vib-|tam-|chunkId-CCP|stype-|voicetype-	11	k7p	_	_
8	kapadZoM	kapadA	n	NN	lex-kapadA|cat-n|gen-m|num-pl|pers-3|case-o|vib-0_meM|tam-0|chunkId-NP7|stype-|voicetype-	7	ccof	_	_
9	wiraMge	wiraMgA	n	NNP	lex-wiraMgA|cat-n|gen-m|num-sg|pers-3|case-o|vib-0_kA|tam-0|chunkId-NP8|stype-|voicetype-	10	r6-k2	_	_
10	iswemAla	iswemAla	n	NN	lex-iswemAla|cat-n|gen-m|num-sg|pers-3|case-d|vib-0|tam-0|chunkId-NP9|stype-|voicetype-	11	pof	_	_
11	kara	kara	v	VM	lex-kara|cat-v|gen-any|num-pl|pers-any|case-|vib-0_saka+gA|tam-0|chunkId-VGF|stype-declarative|voicetype-active	0	main	_	_
12	.	.	punc	SYM	lex-.|cat-punc|gen-|num-|pers-|case-|vib-|tam-|chunkId-BLK|stype-|voicetype-	11	rsym	_	_

1	lekina	lekina	avy	CC	lex-lekina|cat-avy|gen-|num-|pers-|case-|vib-|tam-|chunkId-CCP|stype-|voicetype-	0	main	_	_
2	aMdaragArameMta	aMdaragArameMta	n	NN	lex-aMdaragArameMta|cat-n|gen-m|num-sg|pers-3|case-d|vib-0|tam-0|chunkId-NP|stype-|voicetype-	3	ccof	_	_
3	Ora	Ora	avy	CC	lex-Ora|cat-avy|gen-|num-|pers-|case-|vib-|tam-|chunkId-CCP2|stype-|voicetype-	5	k7p	_	_
4	kamara	kamara	n	NN	lex-kamara|cat-n|gen-f|num-sg|pers-3|case-o|vib-0_se_nIce|tam-0|chunkId-NP2|stype-|voicetype-	3	ccof	_	_
5	pahane	pahana	v	VM	lex-pahana|cat-v|gen-any|num-pl|pers-any|case-|vib-yA_jA+nA_vAlA|tam-yA|chunkId-VGNN|stype-|voicetype-	6	nmod__k2inv	_	_
6	kapadZoM	kapadA	n	NN	lex-kapadA|cat-n|gen-m|num-pl|pers-3|case-o|vib-0_para|tam-0|chunkId-NP3|stype-|voicetype-	11	k7	_	_
7	wiraMge	wiraMgA	n	NNP	lex-wiraMgA|cat-n|gen-m|num-sg|pers-3|case-o|vib-0_kA|tam-0|chunkId-NP4|stype-|voicetype-	8	r6	_	_
8	iswemAla	iswemAla	n	NN	lex-iswemAla|cat-n|gen-m|num-sg|pers-3|case-d|vib-0|tam-0|chunkId-NP5|stype-|voicetype-	11	k2	_	_
9	pahale	pahalA	nst	NST	lex-pahalA|cat-nst|gen-m|num-sg|pers-|case-o|vib-0_kA_waraha|tam-|chunkId-NP6|stype-|voicetype-	11	k7tu	_	_
10	prawibaMXiwa	prawibaMXiwa	adj	JJ	lex-prawibaMXiwa|cat-adj|gen-any|num-any|pers-|case-|vib-|tam-|chunkId-JJP|stype-|voicetype-	11	pof	_	_
11	rahegA	raha	v	VM	lex-raha|cat-v|gen-m|num-sg|pers-3|case-|vib-gA|tam-gA|chunkId-VGF|stype-declarative|voicetype-active	1	ccof	_	_
12	.	.	punc	SYM	lex-.|cat-punc|gen-|num-|pers-|case-|vib-|tam-|chunkId-BLK|stype-|voicetype-	1	rsym	_	_

1	siMha	siMha	n	NNP	lex-siMha|cat-n|gen-m|num-sg|pers-3|case-o|vib-0_kA|tam-0|chunkId-NP|stype-|voicetype-	2	r6	_	_
2	aXyakRawA	aXyakRawA	n	NN	lex-aXyakRawA|cat-n|gen-f|num-sg|pers-3|case-o|vib-0_meM|tam-0|chunkId-NP2|stype-|voicetype-	3	k7	_	_
3	huI	ho	v	VM	lex-ho|cat-v|gen-f|num-sg|pers-any|case-|vib-yA|tam-yA|chunkId-VGNF|stype-|voicetype-	5	nmod__k1inv	_	_
4	kEbineta	kEbineta	n	NN	lex-kEbineta|cat-n|gen-m|num-sg|pers-3|case-o|vib-0_kA|tam-0|chunkId-NP3|stype-|voicetype-	5	r6	_	_
5	bETaka	bETaka	n	NN	lex-bETaka|cat-n|gen-f|num-sg|pers-3|case-o|vib-0_meM|tam-0|chunkId-NP4|stype-|voicetype-	19	k7	_	_
6	maMwroccAra	maMwroccAra	n	NN	lex-maMwroccAra|cat-n|gen-m|num-sg|pers-3|case-o|vib-0|tam-0|chunkId-NP5|stype-|voicetype-	9	ccof	_	_
7	kotiyawwama	kotiyawwama	n	NNP	lex-kotiyawwama|cat-n|gen-m|num-sg|pers-3|case-o|vib-0|tam-0|chunkId-NP6|stype-|voicetype-	9	ccof	_	_
8	rAmalIlA	rAmalIlA	n	NN	lex-rAmalIlA|cat-n|gen-f|num-sg|pers-3|case-o|vib-0|tam-0|chunkId-NP7|stype-|voicetype-	9	ccof	_	_
9	Ora	Ora	avy	CC	lex-Ora|cat-avy|gen-|num-|pers-|case-|vib-|tam-|chunkId-CCP|stype-|voicetype-	12	ccof	_	_
10	AxivAsI	AxivAsI	adj	JJ	lex-AxivAsI|cat-adj|gen-any|num-any|pers-|case-d|vib-|tam-|chunkId-JJP|stype-|voicetype-	11	nmod	_	_
11	nqwya	nqwya	n	NN	lex-nqwya|cat-n|gen-m|num-sg|pers-3|case-o|vib-0|tam-0|chunkId-NP8|stype-|voicetype-	12	ccof	_	_
12	va	va	avy	CC	lex-va|cat-avy|gen-|num-|pers-|case-|vib-|tam-|chunkId-CCP2|stype-|voicetype-	16	k2u	_	_
13	saMgIwa	saMgIwa	n	NN	lex-saMgIwa|cat-n|gen-m|num-sg|pers-3|case-o|vib-0_jEsA|tam-0|chunkId-NP9|stype-|voicetype-	12	ccof	_	_
14	XaroharoM	Xarohara	n	NN	lex-Xarohara|cat-n|gen-f|num-pl|pers-3|case-o|vib-0_ko|tam-0|chunkId-NP10|stype-|voicetype-	15	r6-k2	_	_
15	hiPAjZawa	hiPAjawa	n	NN	lex-hiPAjawa|cat-n|gen-f|num-sg|pers-3|case-d|vib-0|tam-0|chunkId-NP11|stype-|voicetype-	16	pof	_	_
16	karane	kara	v	VM	lex-kara|cat-v|gen-any|num-any|pers-any|case-d|vib-nA_saMbaMXI|tam-nA|chunkId-VGNN|stype-|voicetype-	17	nmod	_	_
17	praswAva	praswAva	n	NN	lex-praswAva|cat-n|gen-m|num-sg|pers-3|case-o|vib-0_ko|tam-0|chunkId-NP12|stype-|voicetype-	19	k2	_	_
18	maMjZUrI	maMjUrI	n	NN	lex-maMjUrI|cat-n|gen-f|num-sg|pers-3|case-d|vib-0|tam-0|chunkId-NP13|stype-|voicetype-	19	pof	_	_
19	xe	xe	v	VM	lex-xe|cat-v|gen-any|num-sg|pers-any|case-|vib-0_xe+yA|tam-0|chunkId-VGF|stype-declarative|voicetype-active	0	main	_	_
20	.	.	punc	SYM	lex-.|cat-punc|gen-|num-|pers-|case-|vib-|tam-|chunkId-BLK|stype-|voicetype-	19	rsym	_	_

1	kEbineta	kEbineta	n	NN	lex-kEbineta|cat-n|gen-m|num-sg|pers-3|case-o|vib-0_ne|tam-0|chunkId-NP|stype-|voicetype-	7	k1	_	_
2	cEnaloM	cEnala	n	NN	lex-cEnala|cat-n|gen-m|num-pl|pers-3|case-o|vib-0_kA|tam-0|chunkId-NP2|stype-|voicetype-	3	r6	_	_
3	niyamoM	niyama	n	NN	lex-niyama|cat-n|gen-m|num-pl|pers-3|case-o|vib-0_kA|tam-0|chunkId-NP3|stype-|voicetype-	4	r6	_	_
4	praswAva	praswAva	n	NN	lex-praswAva|cat-n|gen-m|num-sg|pers-3|case-d|vib-0|tam-0|chunkId-NP4|stype-|voicetype-	7	k2	_	_
5	maMwriyoM	maMwrI	n	NN	lex-maMwrI|cat-n|gen-m|num-pl|pers-3|case-o|vib-0_kA|tam-0|chunkId-NP5|stype-|voicetype-	6	r6	_	_
6	jIoema	jIoema	n	NNP	lex-jIoema|cat-n|gen-m|num-sg|pers-3|case-o|vib-0_ko|tam-0|chunkId-NP6|stype-|voicetype-	7	k4	_	_
7	sOMpa	sOMpa	v	VM	lex-sOMpa|cat-v|gen-any|num-sg|pers-any|case-|vib-0_xe+yA|tam-0|chunkId-VGF|stype-declarative|voicetype-active	0	main	_	_
8	.	.	punc	SYM	lex-.|cat-punc|gen-|num-|pers-|case-|vib-|tam-|chunkId-BLK|stype-|voicetype-	7	rsym	_	_

1	isake	yaha	pn	PRP	lex-yaha|cat-pn|gen-any|num-sg|pers-3|case-|vib-ke_jZarie|tam-ke|chunkId-NP|stype-|voicetype-	11	k3	_	_
2	sarakAra	sarakAra	n	NN	lex-sarakAra|cat-n|gen-f|num-sg|pers-3|case-d|vib-0|tam-0|chunkId-NP2|stype-|voicetype-	11	k1	_	_
3	cEnaloM	cEnala	n	NN	lex-cEnala|cat-n|gen-m|num-pl|pers-3|case-o|vib-0_para|tam-0|chunkId-NP3|stype-|voicetype-	7	k7	_	_
4	niveSa	niveSa	n	NNP	lex-niveSa|cat-n|gen-m|num-sg|pers-3|case-d|vib-0|tam-0|chunkId-NP4|stype-|voicetype-	6	k2	_	_
5	ePadIAI	ePadIAI	n	NNP	lex-ePadIAI|cat-n|gen-m|num-sg|pers-3|case-d|vib-0|tam-0|chunkId-NP5|stype-|voicetype-	4	rs	_	_
6	lekara	le	v	VM	lex-le|cat-v|gen-any|num-any|pers-any|case-|vib-kara|tam-kara|chunkId-VGNF|stype-|voicetype-	7	vmod	_	_
7	CAI	CA	v	VM	lex-CA|cat-v|gen-f|num-sg|pers-any|case-|vib-yA|tam-yA|chunkId-VGNF2|stype-|voicetype-	8	nmod__k1inv	_	_
8	XuMXa	XuMXa	n	NN	lex-XuMXa|cat-n|gen-f|num-sg|pers-3|case-d|vib-0|tam-0|chunkId-NP6|stype-|voicetype-	10	k2	_	_
9	sAPZa	sAPa	adj	JJ	lex-sAPa|cat-adj|gen-any|num-any|pers-|case-|vib-|tam-|chunkId-JJP|stype-|voicetype-	10	pof	_	_
10	karanA	kara	v	VM	lex-kara|cat-v|gen-any|num-any|pers-any|case-d|vib-nA|tam-nA|chunkId-VGNN|stype-|voicetype-	11	k2	_	_
11	cAhawI	cAha	v	VM	lex-cAha|cat-v|gen-f|num-sg|pers-3|case-|vib-wA_hE|tam-wA|chunkId-VGF|stype-declarative|voicetype-active	0	main	_	_
12	.	.	punc	SYM	lex-.|cat-punc|gen-|num-|pers-|case-|vib-|tam-|chunkId-BLK|stype-|voicetype-	11	rsym	_	_

1	hI	hI	avy	RP	lex-hI|cat-avy|gen-|num-|pers-|case-|vib-|tam-|chunkId-NP|stype-|voicetype-	3	sent-adv	_	_
2	sarakAra	sarakAra	n	NN	lex-sarakAra|cat-n|gen-f|num-sg|pers-3|case-d|vib-0|tam-0|chunkId-NP2|stype-|voicetype-	3	k1	_	_
3	cAhawI	cAha	v	VM	lex-cAha|cat-v|gen-f|num-sg|pers-3|case-|vib-wA_hE|tam-wA|chunkId-VGF|stype-declarative|voicetype-active	0	main	_	_
4	ki	ki	avy	CC	lex-ki|cat-avy|gen-|num-|pers-|case-|vib-|tam-|chunkId-CCP|stype-|voicetype-	3	k2	_	_
5	prawiyogiwAoM	prawiyogiwA	n	NN	lex-prawiyogiwA|cat-n|gen-f|num-pl|pers-3|case-o|vib-0|tam-0|chunkId-NP3|stype-|voicetype-	6	ccof	_	_
6	Ora	Ora	avy	CC	lex-Ora|cat-avy|gen-|num-|pers-|case-|vib-|tam-|chunkId-CCP2|stype-|voicetype-	8	r6-k1	_	_
7	kAryakramoM	kAryakrama	n	NN	lex-kAryakrama|cat-n|gen-m|num-pl|pers-3|case-o|vib-0_kA|tam-0|chunkId-NP4|stype-|voicetype-	6	ccof	_	_
8	prasAraNa	prasAraNa	n	NN	lex-prasAraNa|cat-n|gen-m|num-sg|pers-3|case-d|vib-0|tam-0|chunkId-NP5|stype-|voicetype-	10	pof	_	_
9	xUraxarSana	xUraxarSana	n	NN	lex-xUraxarSana|cat-n|gen-m|num-sg|pers-3|case-o|vib-0_ke_jZarie|tam-0|chunkId-NP6|stype-|voicetype-	10	k3	_	_
10	ho	ho	v	VM	lex-ho|cat-v|gen-any|num-any|pers-any|case-|vib-0|tam-0|chunkId-VGF2|stype-declarative|voicetype-active	4	ccof	_	_
11	.	.	punc	SYM	lex-.|cat-punc|gen-|num-|pers-|case-|vib-|tam-|chunkId-BLK|stype-|voicetype-	3	rsym	_	_

1	maMwrimaMdala	maMwrimaMdala	n	NN	lex-maMwrimaMdala|cat-n|gen-m|num-sg|pers-3|case-o|vib-0_kA|tam-0|chunkId-NP|stype-|voicetype-	2	r6	_	_
2	bETaka	bETaka	n	NN	lex-bETaka|cat-n|gen-f|num-sg|pers-3|case-o|vib-0_ke_bAxa|tam-0|chunkId-NP2|stype-|voicetype-	5	k7t	_	_
3	reddI	reddI	n	NNP	lex-reddI|cat-n|gen-m|num-sg|pers-3|case-o|vib-0_ne|tam-0|chunkId-NP3|stype-|voicetype-	5	k1	_	_
4	pawrakAroM	pawrakAra	n	NN	lex-pawrakAra|cat-n|gen-m|num-pl|pers-3|case-o|vib-0_ko|tam-0|chunkId-NP4|stype-|voicetype-	5	k4	_	_
5	bawAyA	bawA	v	VM	lex-bawA|cat-v|gen-m|num-sg|pers-any|case-|vib-yA|tam-yA|chunkId-VGF|stype-declarative|voicetype-active	0	main	_	_
6	ki	ki	avy	CC	lex-ki|cat-avy|gen-|num-|pers-|case-|vib-|tam-|chunkId-CCP|stype-|voicetype-	5	k2	_	_
7	maMwrimaMdala	maMwrimaMdala	n	NN	lex-maMwrimaMdala|cat-n|gen-m|num-sg|pers-3|case-o|vib-0_ne|tam-0|chunkId-NP5|stype-|voicetype-	12	k1	_	_
8	prawibaMXa	prawibaMXa	n	NNPC	lex-prawibaMXa|cat-n|gen-m|num-sg|pers-3|case-d|vib-0|tam-0|chunkId-NP6|stype-|voicetype-	9	nmod	_	_
9	1971	1971	n	NNP	lex-1971|cat-n|gen-m|num-sg|pers-3|case-o|vib-0_meM|tam-0|chunkId-NP7|stype-|voicetype-	12	k7	_	_
10	saMSoXana	saMSoXana	n	NN	lex-saMSoXana|cat-n|gen-m|num-sg|pers-3|case-o|vib-0_ko|tam-0|chunkId-NP8|stype-|voicetype-	12	k4	_	_
11	maMjZUrI	maMjUrI	n	NN	lex-maMjUrI|cat-n|gen-f|num-sg|pers-3|case-d|vib-0|tam-0|chunkId-NP9|stype-|voicetype-	12	k2	_	_
12	xe	xe	v	VM	lex-xe|cat-v|gen-any|num-sg|pers-any|case-|vib-0_xe+yA|tam-0|chunkId-VGF2|stype-declarative|voicetype-active	6	ccof	_	_
13	.	.	punc	SYM	lex-.|cat-punc|gen-|num-|pers-|case-|vib-|tam-|chunkId-BLK|stype-|voicetype-	5	rsym	_	_

1	saMSoXana	saMSoXana	n	NN	lex-saMSoXana|cat-n|gen-m|num-sg|pers-3|case-o|vib-0_meM|tam-0|chunkId-NP|stype-|voicetype-	9	k7	_	_
2	aMdaragArameMta	aMdaragArameMta	n	NN	lex-aMdaragArameMta|cat-n|gen-m|num-sg|pers-3|case-d|vib-0|tam-0|chunkId-NP2|stype-|voicetype-	3	ccof	_	_
3	yA	yA	avy	CC	lex-yA|cat-avy|gen-|num-|pers-|case-|vib-|tam-|chunkId-CCP|stype-|voicetype-	9	k7	_	_
4	kamara	kamara	n	NN	lex-kamara|cat-n|gen-f|num-sg|pers-3|case-o|vib-0_ke_nIce|tam-0|chunkId-NP3|stype-|voicetype-	5	k7p	_	_
5	pahane	pahana	v	VM	lex-pahana|cat-v|gen-any|num-sg|pers-any|case-o|vib-nA_jA+nA_vAlA|tam-nA|chunkId-VGNN|stype-|voicetype-	6	nmod__k2inv	_	_
6	pariXAna	pariXAna	n	NN	lex-pariXAna|cat-n|gen-m|num-sg|pers-3|case-o|vib-0_meM|tam-0|chunkId-NP4|stype-|voicetype-	3	ccof	_	_
7	wiraMge	wiraMgA	n	NNP	lex-wiraMgA|cat-n|gen-m|num-sg|pers-3|case-o|vib-0_kA|tam-0|chunkId-NP5|stype-|voicetype-	8	r6-k2	_	_
8	iswemAla	iswemAla	n	NN	lex-iswemAla|cat-n|gen-m|num-sg|pers-3|case-d|vib-0|tam-0|chunkId-NP6|stype-|voicetype-	9	pof	_	_
9	kiyA	kara	v	VM	lex-kara|cat-v|gen-any|num-sg|pers-3|case-|vib-yA_jA_saka+gA|tam-yA|chunkId-VGF|stype-declarative|voicetype-passive	0	main	_	_
10	.	.	punc	SYM	lex-.|cat-punc|gen-|num-|pers-|case-|vib-|tam-|chunkId-BLK|stype-|voicetype-	9	rsym	_	_

1	waraha	waraha	n	NN	lex-waraha|cat-n|gen-f|num-sg|pers-3|case-d|vib-0|tam-0|chunkId-NP|stype-|voicetype-	14	sent-adv	_	_
2	wakiye	wakiyA	n	NN	lex-wakiyA|cat-n|gen-m|num-pl|pers-3|case-o|vib-0|tam-0|chunkId-NP2|stype-|voicetype-	5	ccof	_	_
3	glovsa	glova	n	NN	lex-glova|cat-n|gen-m|num-pl|pers-3|case-o|vib-0|tam-0|chunkId-NP3|stype-|voicetype-	5	ccof	_	_
4	rUmAla	rUmAla	n	NN	lex-rUmAla|cat-n|gen-m|num-sg|pers-3|case-o|vib-0|tam-0|chunkId-NP4|stype-|voicetype-	5	ccof	_	_
5	yA	yA	avy	CC	lex-yA|cat-avy|gen-|num-|pers-|case-|vib-|tam-|chunkId-CCP|stype-|voicetype-	14	k7	_	_
6	nepakIna	nepakIna	n	NN	lex-nepakIna|cat-n|gen-m|num-sg|pers-3|case-o|vib-0_meM|tam-0|chunkId-NP5|stype-|voicetype-	5	ccof	_	_
7	embrAyadarI	embrAyadarI	n	NN	lex-embrAyadarI|cat-n|gen-f|num-sg|pers-3|case-d|vib-0|tam-0|chunkId-NP6|stype-|voicetype-	8	ccof	_	_
8	yA	yA	avy	CC	lex-yA|cat-avy|gen-|num-|pers-|case-|vib-|tam-|chunkId-CCP2|stype-|voicetype-	12	k3	_	_
9	waraha	waraha	n	NN	lex-waraha|cat-n|gen-f|num-sg|pers-3|case-o|vib-0_se|tam-0|chunkId-NP7|stype-|voicetype-	8	ccof	_	_
10	wiraMgA	wiraMgA	n	NNP	lex-wiraMgA|cat-n|gen-m|num-sg|pers-3|case-d|vib-0|tam-0|chunkId-NP8|stype-|voicetype-	12	k2	_	_
11	aMkiwa	aMkiwa	adj	JJ	lex-aMkiwa|cat-adj|gen-any|num-any|pers-|case-|vib-|tam-|chunkId-JJP|stype-|voicetype-	12	pof	_	_
12	karanA	kara	v	VM	lex-kara|cat-v|gen-any|num-any|pers-any|case-d|vib-nA|tam-nA|chunkId-VGNN|stype-|voicetype-	14	k1	_	_
13	varjiwa	varjiwa	adj	JJ	lex-varjiwa|cat-adj|gen-any|num-any|pers-|case-|vib-|tam-|chunkId-JJP2|stype-|voicetype-	14	pof	_	_
14	hogA	ho	v	VM	lex-ho|cat-v|gen-m|num-sg|pers-3|case-|vib-gA|tam-gA|chunkId-VGF|stype-declarative|voicetype-active	0	main	_	_
15	.	.	punc	SYM	lex-.|cat-punc|gen-|num-|pers-|case-|vib-|tam-|chunkId-BLK|stype-|voicetype-	14	rsym	_	_

1	varRa	varRa	n	NN	lex-varRa|cat-n|gen-m|num-sg|pers-3|case-d|vib-0_pahalA|tam-0|chunkId-NP|stype-|voicetype-	5	k7t	_	_
2	wiraMge	wiraMgA	n	NNP	lex-wiraMgA|cat-n|gen-m|num-sg|pers-3|case-o|vib-0_kA|tam-0|chunkId-NP2|stype-|voicetype-	3	r6	_	_
3	iswemAla	iswemAla	n	NN	lex-iswemAla|cat-n|gen-m|num-sg|pers-3|case-o|vib-0_ko|tam-0|chunkId-NP3|stype-|voicetype-	5	k2	_	_
4	uxAra	uxAra	adj	JJ	lex-uxAra|cat-adj|gen-any|num-any|pers-|case-|vib-|tam-|chunkId-JJP|stype-|voicetype-	5	pof	_	_
5	banAwe	banA	v	VM	lex-banA|cat-v|gen-m|num-sg|pers-any|case-|vib-wA_ho+yA|tam-wA|chunkId-VGNF|stype-|voicetype-	6	nmod__k1inv	_	_
6	keMxra	keMxra	n	NNP	lex-keMxra|cat-n|gen-m|num-sg|pers-3|case-o|vib-0_ne|tam-0|chunkId-NP4|stype-|voicetype-	12	k1	_	_
7	rARtraXvaja	rARtraXvaja	n	NN	lex-rARtraXvaja|cat-n|gen-m|num-sg|pers-3|case-o|vib-0_kA|tam-0|chunkId-NP5|stype-|voicetype-	8	r6	_	_
8	apamAna	apamAna	n	NN	lex-apamAna|cat-n|gen-m|num-sg|pers-3|case-o|vib-0_ko|tam-0|chunkId-NP6|stype-|voicetype-	10	k2	_	_
9	aparAXa	aparAXa	n	NN	lex-aparAXa|cat-n|gen-m|num-sg|pers-3|case-d|vib-0|tam-0|chunkId-NP7|stype-|voicetype-	10	k2s	_	_
10	banAne	banA	v	VM	lex-banA|cat-v|gen-any|num-any|pers-any|case-o|vib-nA_para|tam-nA|chunkId-VGNN|stype-|voicetype-	12	k7	_	_
11	vicAra	vicAra	n	NN	lex-vicAra|cat-n|gen-m|num-sg|pers-3|case-d|vib-0|tam-0|chunkId-NP8|stype-|voicetype-	12	pof	_	_
12	kiyA	kara	v	VM	lex-kara|cat-v|gen-m|num-sg|pers-any|case-|vib-yA_WA|tam-yA|chunkId-VGF|stype-declarative|voicetype-active	0	main	_	_
13	.	.	punc	SYM	lex-.|cat-punc|gen-|num-|pers-|case-|vib-|tam-|chunkId-BLK|stype-|voicetype-	12	rsym	_	_

1	isI	yaha	pn	PRP	lex-yaha|cat-pn|gen-any|num-sg|pers-3|case-o|vib-0_ke_wahawa|tam-0|chunkId-NP|stype-|voicetype-	7	k7a	_	_
2	2003	2003	n	NNP	lex-2003|cat-n|gen-m|num-sg|pers-3|case-o|vib-0_meM|tam-0|chunkId-NP2|stype-|voicetype-	7	k7t	_	_
3	rARtraXvaja	rARtraXvaja	n	NN	lex-rARtraXvaja|cat-n|gen-m|num-sg|pers-3|case-o|vib-0_kA|tam-0|chunkId-NP3|stype-|voicetype-	4	r6	_	_
4	avamAnanA	avamAnanA	n	NN	lex-avamAnanA|cat-n|gen-f|num-sg|pers-3|case-o|vib-0_ko|tam-0|chunkId-NP4|stype-|voicetype-	5	nmod	_	_
5	aparAXa	aparAXa	n	NN	lex-aparAXa|cat-n|gen-m|num-sg|pers-3|case-d|vib-0|tam-0|chunkId-NP5|stype-|voicetype-	7	k2	_	_
6	GoRiwa	GoRiwa	adj	JJ	lex-GoRiwa|cat-adj|gen-any|num-any|pers-|case-|vib-|tam-|chunkId-JJP|stype-|voicetype-	7	pof	_	_
7	kiyA	kara	v	VM	lex-kara|cat-v|gen-m|num-sg|pers-any|case-|vib-yA_jA+yA1|tam-yA|chunkId-VGF|stype-declarative|voicetype-passive	0	main	_	_
8	.	.	punc	SYM	lex-.|cat-punc|gen-|num-|pers-|case-|vib-|tam-|chunkId-BLK|stype-|voicetype-	7	rsym	_	_

1	isake	yaha	pn	PRP	lex-yaha|cat-pn|gen-any|num-sg|pers-3|case-o|vib-ke_sAWa|tam-ke|chunkId-NP|stype-|voicetype-	2	sent-adv	_	_
2	bawAyA	bawA	v	VM	lex-bawA|cat-v|gen-m|num-sg|pers-any|case-|vib-yA_jA+yA1|tam-yA|chunkId-VGF|stype-declarative|voicetype-active	0	main	_	_
3	ki	ki	avy	CC	lex-ki|cat-avy|gen-|num-|pers-|case-|vib-|tam-|chunkId-CCP|stype-|voicetype-	2	k2	_	_
4	kqwyoM	kqwya	n	NN	lex-kqwya|cat-n|gen-m|num-pl|pers-3|case-o|vib-0_ko|tam-0|chunkId-NP2|stype-|voicetype-	7	k2	_	_
5	rARtraXvaja	rARtraXvaja	n	NN	lex-rARtraXvaja|cat-n|gen-m|num-sg|pers-3|case-o|vib-0_kA|tam-0|chunkId-NP3|stype-|voicetype-	6	r6	_	_
6	apamAna	apamAna	n	NN	lex-apamAna|cat-n|gen-m|num-sg|pers-3|case-d|vib-0|tam-0|chunkId-NP4|stype-|voicetype-	7	k2s	_	_
7	mAnA	mAna	v	VM	lex-mAna|cat-v|gen-m|num-sg|pers-3|case-|vib-yA_jA+gA|tam-yA|chunkId-VGF2|stype-declarative|voicetype-passive	3	ccof	_	_
8	.	.	punc	SYM	lex-.|cat-punc|gen-|num-|pers-|case-|vib-|tam-|chunkId-BLK|stype-|voicetype-	2	rsym	_	_

1	2000	2000	n	NNP	lex-2000|cat-n|gen-m|num-sg|pers-3|case-o|vib-0_meM|tam-0|chunkId-NP|stype-|voicetype-	2	jjmod	_	_
2	gaTiwa	gaTiwa	adj	JJ	lex-gaTiwa|cat-adj|gen-any|num-any|pers-|case-d|vib-|tam-|chunkId-JJP|stype-|voicetype-	3	nmod	_	_
3	samiwi	samiwi	n	NN	lex-samiwi|cat-n|gen-f|num-sg|pers-3|case-o|vib-0_ne|tam-0|chunkId-NP2|stype-|voicetype-	8	k1	_	_
4	apanI	apanA	pn	PRP	lex-apanA|cat-pn|gen-f|num-any|pers-any|case-o|vib-0|tam-0|chunkId-NP3|stype-|voicetype-	5	r6	_	_
5	riporta	riporta	n	NN	lex-riporta|cat-n|gen-f|num-sg|pers-3|case-o|vib-0_meM|tam-0|chunkId-NP4|stype-|voicetype-	8	k7	_	_
6	2002	2002	n	NNP	lex-2002|cat-n|gen-m|num-sg|pers-3|case-o|vib-0_ko|tam-0|chunkId-NP5|stype-|voicetype-	8	k2	_	_
7	rUpa	rUpa	n	NN	lex-rUpa|cat-n|gen-m|num-sg|pers-3|case-d|vib-0|tam-0|chunkId-NP6|stype-|voicetype-	8	pof	_	_
8	xiyA	xe	v	VM	lex-xe|cat-v|gen-m|num-sg|pers-any|case-|vib-yA_WA|tam-yA|chunkId-VGF|stype-declarative|voicetype-active	0	main	_	_
9	.	.	punc	SYM	lex-.|cat-punc|gen-|num-|pers-|case-|vib-|tam-|chunkId-BLK|stype-|voicetype-	8	rsym	_	_

1	2002	2002	n	NNP	lex-2002|cat-n|gen-m|num-sg|pers-3|case-o|vib-0_se|tam-0|chunkId-NP|stype-|voicetype-	4	k5	_	_
2	ise	yaha	pn	PRP	lex-yaha|cat-pn|gen-any|num-sg|pers-3|case-o|vib-ko|tam-ko|chunkId-NP2|stype-|voicetype-	4	k2	_	_
3	lAgU	lAgU	adj	JJ	lex-lAgU|cat-adj|gen-any|num-any|pers-|case-|vib-|tam-|chunkId-JJP|stype-|voicetype-	4	pof	_	_
4	kara	kara	v	VM	lex-kara|cat-v|gen-m|num-sg|pers-any|case-|vib-0_xe+yA_jA+yA1|tam-0|chunkId-VGF|stype-declarative|voicetype-passive	0	main	_	_
5	.	.	punc	SYM	lex-.|cat-punc|gen-|num-|pers-|case-|vib-|tam-|chunkId-BLK|stype-|voicetype-	4	rsym	_	_

1	isake	yaha	pn	PRP	lex-yaha|cat-pn|gen-any|num-sg|pers-3|case-|vib-ke_wahawa|tam-ke|chunkId-NP|stype-|voicetype-	10	k7a	_	_
2	prawibaMXoM	prawibaMXa	n	NN	lex-prawibaMXa|cat-n|gen-m|num-pl|pers-3|case-o|vib-0_ke_sAWa|tam-0|chunkId-NP2|stype-|voicetype-	10	ras-k1	_	_
3	janawA	janawA	n	NN	lex-janawA|cat-n|gen-f|num-sg|pers-3|case-d|vib-0|tam-0|chunkId-NP3|stype-|voicetype-	5	ccof	_	_
4	saMgaTanoM	saMgaTana	n	NN	lex-saMgaTana|cat-n|gen-m|num-pl|pers-3|case-o|vib-0|tam-0|chunkId-NP4|stype-|voicetype-	5	ccof	_	_
5	Ora	Ora	avy	CC	lex-Ora|cat-avy|gen-|num-|pers-|case-|vib-|tam-|chunkId-CCP|stype-|voicetype-	10	k1	_	_
6	saMsWAnoM	saMsWAna	n	NN	lex-saMsWAna|cat-n|gen-m|num-pl|pers-3|case-o|vib-0_xvArA|tam-0|chunkId-NP5|stype-|voicetype-	5	ccof	_	_
7	wiraMge	wiraMgA	n	NNP	lex-wiraMgA|cat-n|gen-m|num-sg|pers-3|case-o|vib-0_kA|tam-0|chunkId-NP6|stype-|voicetype-	8	r6	_	_
8	praxarSana	praxarSana	n	NN	lex-praxarSana|cat-n|gen-m|num-sg|pers-3|case-o|vib-0_para|tam-0|chunkId-NP7|stype-|voicetype-	10	k7	_	_
9	roka	roka	n	NN	lex-roka|cat-n|gen-f|num-sg|pers-3|case-d|vib-0|tam-0|chunkId-NP8|stype-|voicetype-	10	k2	_	_
10	hatA	hatA	v	VM	lex-hatA|cat-v|gen-f|num-sg|pers-any|case-|vib-0_xe+yA_jA+yA1_WA|tam-0|chunkId-VGF|stype-declarative|voicetype-passive	0	main	_	_
11	.	.	punc	SYM	lex-.|cat-punc|gen-|num-|pers-|case-|vib-|tam-|chunkId-BLK|stype-|voicetype-	10	rsym	_	_

1	reddI	reddI	n	NNP	lex-reddI|cat-n|gen-m|num-sg|pers-3|case-o|vib-0_ne|tam-0|chunkId-NP|stype-|voicetype-	2	k1	_	_
2	bawAyA	bawA	v	VM	lex-bawA|cat-v|gen-m|num-sg|pers-any|case-|vib-yA|tam-yA|chunkId-VGF|stype-declarative|voicetype-active	0	main	_	_
3	ki	ki	avy	CC	lex-ki|cat-avy|gen-|num-|pers-|case-|vib-|tam-|chunkId-CCP|stype-|voicetype-	2	k2	_	_
4	kEbineta	kEbineta	n	NN	lex-kEbineta|cat-n|gen-m|num-sg|pers-3|case-o|vib-0_ne|tam-0|chunkId-NP2|stype-|voicetype-	8	k1	_	_
5	XaroharoM	Xarohara	n	NN	lex-Xarohara|cat-n|gen-f|num-pl|pers-3|case-o|vib-0_kA|tam-0|chunkId-NP3|stype-|voicetype-	6	r6	_	_
6	samaJOwe	samaJOwA	n	NN	lex-samaJOwA|cat-n|gen-m|num-sg|pers-3|case-o|vib-0_ko|tam-0|chunkId-NP4|stype-|voicetype-	8	k2	_	_
7	maMjZUrI	maMjUrI	n	NN	lex-maMjUrI|cat-n|gen-f|num-sg|pers-3|case-d|vib-0|tam-0|chunkId-NP5|stype-|voicetype-	8	pof	_	_
8	xe	xe	v	VM	lex-xe|cat-v|gen-f|num-sg|pers-3|case-|vib-0_xe+yA_hE|tam-0|chunkId-VGF2|stype-declarative|voicetype-active	3	ccof	_	_
9	.	.	punc	SYM	lex-.|cat-punc|gen-|num-|pers-|case-|vib-|tam-|chunkId-BLK|stype-|voicetype-	2	rsym	_	_

1	reddI	reddI	n	NNP	lex-reddI|cat-n|gen-m|num-sg|pers-3|case-o|vib-0_ke_muwAbika|tam-0|chunkId-NP|stype-|voicetype-	6	k7a	_	_
2	pahala	pahala	n	NN	lex-pahala|cat-n|gen-f|num-sg|pers-3|case-d|vib-0|tam-0|chunkId-NP2|stype-|voicetype-	3	pof	_	_
3	karane	kara	v	VM	lex-kara|cat-v|gen-any|num-sg|pers-3|case-o|vib-nA_vAlA|tam-nA|chunkId-VGNN|stype-|voicetype-	4	nmod__k1inv	_	_
4	BArawa	BArawa	n	NNP	lex-BArawa|cat-n|gen-m|num-sg|pers-3|case-d|vib-0|tam-0|chunkId-NP3|stype-|voicetype-	6	k1	_	_
5	xeSa	xeSa	n	NN	lex-xeSa|cat-n|gen-m|num-sg|pers-3|case-d|vib-0|tam-0|chunkId-NP4|stype-|voicetype-	6	k1s	_	_
6	hE	hE	v	VM	lex-hE|cat-v|gen-any|num-sg|pers-3|case-|vib-hE|tam-hE|chunkId-VGF|stype-declarative|voicetype-active	0	main	_	_
7	.	.	punc	SYM	lex-.|cat-punc|gen-|num-|pers-|case-|vib-|tam-|chunkId-BLK|stype-|voicetype-	6	rsym	_	_

1	unake	vaha	pn	PRP	lex-vaha|cat-pn|gen-any|num-pl|pers-3|case-o|vib-ke_muwAbika|tam-ke|chunkId-NP|stype-|voicetype-	7	k7a	_	_
2	lupwa	lupwa	adj	JJ	lex-lupwa|cat-adj|gen-any|num-any|pers-|case-|vib-|tam-|chunkId-JJP|stype-|voicetype-	3	k1	_	_
3	ho	ho	v	VM	lex-ho|cat-v|gen-any|num-pl|pers-any|case-|vib-0_raha+yA|tam-0|chunkId-VGNF|stype-|voicetype-	4	nmod__k1inv	_	_
4	saMgIwa	saMgIwa	n	NN	lex-saMgIwa|cat-n|gen-m|num-sg|pers-3|case-o|vib-0_ke_sAWa|tam-0|chunkId-NP2|stype-|voicetype-	7	ras-k2	_	_
5	XaroharoM	Xarohara	n	NN	lex-Xarohara|cat-n|gen-f|num-pl|pers-3|case-o|vib-0_ko|tam-0|chunkId-NP3|stype-|voicetype-	7	k2	_	_
6	saMrakRiwa	saMrakRiwa	adj	JJ	lex-saMrakRiwa|cat-adj|gen-any|num-any|pers-|case-|vib-|tam-|chunkId-JJP2|stype-|voicetype-	7	pof	_	_
7	kiyA	kara	v	VM	lex-kara|cat-v|gen-m|num-sg|pers-3|case-|vib-yA_jA+gA|tam-yA|chunkId-VGF|stype-declarative|voicetype-passive	0	main	_	_
8	.	.	punc	SYM	lex-.|cat-punc|gen-|num-|pers-|case-|vib-|tam-|chunkId-BLK|stype-|voicetype-	7	rsym	_	_

