1	AdavANI	AdavANI	n	NNP	lex-AdavANI|cat-n|gen-any|num-sg|pers-3|case-o|vib-0_ne|tam-0|chunkId-NP|stype-|voicetype-	4	k1	_	_
2	Aja	Aja	n	NN	lex-Aja|cat-n|gen-m|num-sg|pers-3|case-d|vib-0|tam-0|chunkId-NP2|stype-|voicetype-	4	k7t	_	_
3	svIkAra	svIkAra	n	NN	lex-svIkAra|cat-n|gen-m|num-sg|pers-3|case-d|vib-0|tam-0|chunkId-NP3|stype-|voicetype-	4	pof	_	_
4	kiyA	kara	v	VM	lex-kara|cat-v|gen-m|num-sg|pers-any|case-|vib-yA|tam-yA|chunkId-VGF|stype-declarative|voicetype-active	0	main	_	_
5	ki	ki	avy	CC	lex-ki|cat-avy|gen-|num-|pers-|case-|vib-|tam-|chunkId-CCP|stype-|voicetype-	4	k2	_	_
6	janawA	janawA	n	NN	lex-janawA|cat-n|gen-f|num-sg|pers-3|case-o|vib-0_ne|tam-0|chunkId-NP4|stype-|voicetype-	9	k1	_	_
7	gaTabaMXana	gaTabaMXana	n	NNP	lex-gaTabaMXana|cat-n|gen-m|num-sg|pers-3|case-o|vib-0_ko|tam-0|chunkId-NP5|stype-|voicetype-	9	k4	_	_
8	janAxeSa	janAxeSa	n	NN	lex-janAxeSa|cat-n|gen-m|num-sg|pers-3|case-d|vib-0|tam-0|chunkId-NP6|stype-|voicetype-	9	pof	_	_
9	xiyA	xe	v	VM	lex-xe|cat-v|gen-m|num-sg|pers-any|case-|vib-yA|tam-yA|chunkId-VGF2|stype-declarative|voicetype-active	5	ccof	_	_
10	.	.	punc	SYM	lex-.|cat-punc|gen-|num-|pers-|case-|vib-|tam-|chunkId-BLK|stype-|voicetype-	4	rsym	_	_

1	pariNAmoM	pariNAma	n	NN	lex-pariNAma|cat-n|gen-m|num-pl|pers-3|case-o|vib-0_ke_bAxa|tam-0|chunkId-NP|stype-|voicetype-	4	k7t	_	_
2	kAMPreMsa	kAMPreMsa	n	NN	lex-kAMPreMsa|cat-n|gen-f|num-sg|pers-3|case-o|vib-0_meM|tam-0|chunkId-NP2|stype-|voicetype-	4	k7	_	_
3	AdavANI	AdavANI	n	NNP	lex-AdavANI|cat-n|gen-any|num-sg|pers-3|case-o|vib-0_ne|tam-0|chunkId-NP3|stype-|voicetype-	4	k1	_	_
4	kahA	kaha	v	VM	lex-kaha|cat-v|gen-m|num-sg|pers-any|case-|vib-yA|tam-yA|chunkId-VGF|stype-declarative|voicetype-active	0	main	_	_
5	ki	ki	avy	CC	lex-ki|cat-avy|gen-|num-|pers-|case-|vib-|tam-|chunkId-CCP|stype-|voicetype-	4	k2	_	_
6	unheM	vaha	pn	PRP	lex-vaha|cat-pn|gen-any|num-sg|pers-3h|case-o|vib-ko|tam-ko|chunkId-NP4|stype-|voicetype-	7	ccof	_	_
7	yA	yA	avy	CC	lex-yA|cat-avy|gen-|num-|pers-|case-|vib-|tam-|chunkId-CCP2|stype-|voicetype-	11	k4a	_	_
8	xUsare	xUsarA	n	NN	lex-xUsarA|cat-n|gen-m|num-sg|pers-3|case-o|vib-0_ko|tam-0|chunkId-NP5|stype-|voicetype-	7	ccof	_	_
9	pariNAmoM	pariNAma	n	NN	lex-pariNAma|cat-n|gen-m|num-pl|pers-3|case-o|vib-0_kA|tam-0|chunkId-NP6|stype-|voicetype-	10	r6-k2	_	_
10	ummIxa	ummIxa	n	NN	lex-ummIxa|cat-n|gen-f|num-sg|pers-3|case-d|vib-0|tam-0|chunkId-NP7|stype-|voicetype-	11	pof	_	_
11	WI	WA	v	VM	lex-WA|cat-v|gen-f|num-sg|pers-any|case-|vib-WA|tam-WA|chunkId-VGF2|stype-declarative|voicetype-active	5	ccof	_	_
12	.	.	punc	SYM	lex-.|cat-punc|gen-|num-|pers-|case-|vib-|tam-|chunkId-BLK|stype-|voicetype-	4	rsym	_	_

1	unhoMne	vaha	pn	PRP	lex-vaha|cat-pn|gen-any|num-sg|pers-3h|case-o|vib-ne|tam-ne|chunkId-NP|stype-|voicetype-	2	k1	_	_
2	kahA	kaha	v	VM	lex-kaha|cat-v|gen-m|num-sg|pers-any|case-|vib-yA|tam-yA|chunkId-VGF|stype-declarative|voicetype-active	0	main	_	_
3	ki	ki	avy	CC	lex-ki|cat-avy|gen-|num-|pers-|case-|vib-|tam-|chunkId-CCP|stype-|voicetype-	2	k2	_	_
4	baharahAla	baharahAla	avy	CC	lex-baharahAla|cat-avy|gen-|num-|pers-|case-|vib-|tam-|chunkId-CCP2|stype-|voicetype-	9	ccof	_	_
5	janawA	janawA	n	NN	lex-janawA|cat-n|gen-f|num-sg|pers-3|case-o|vib-0_kA|tam-0|chunkId-NP2|stype-|voicetype-	6	r6	_	_
6	janAxeSa	janAxeSa	n	NN	lex-janAxeSa|cat-n|gen-m|num-sg|pers-3|case-d|vib-0|tam-0|chunkId-NP3|stype-|voicetype-	8	k2	_	_
7	svIkAra	svIkAra	n	NN	lex-svIkAra|cat-n|gen-m|num-sg|pers-3|case-d|vib-0|tam-0|chunkId-NP4|stype-|voicetype-	8	pof	_	_
8	kara	kara	v	VM	lex-kara|cat-v|gen-m|num-sg|pers-3|case-|vib-0_le+yA_jA+yA1_hE|tam-0|chunkId-VGF2|stype-declarative|voicetype-passive	4	ccof	_	_
9	Ora	Ora	avy	CC	lex-Ora|cat-avy|gen-|num-|pers-|case-|vib-|tam-|chunkId-CCP3|stype-|voicetype-	3	ccof	_	_
10	BAjapA	BAjapA	n	NNP	lex-BAjapA|cat-n|gen-f|num-sg|pers-3|case-o|vib-0_ne|tam-0|chunkId-NP5|stype-|voicetype-	15	k1	_	_
11	vipakRa	vipakRa	n	NN	lex-vipakRa|cat-n|gen-m|num-sg|pers-3|case-o|vib-0_kA|tam-0|chunkId-NP6|stype-|voicetype-	12	r6-k2	_	_
12	BUmikA	BUmikA	n	NN	lex-BUmikA|cat-n|gen-f|num-sg|pers-3|case-d|vib-0|tam-0|chunkId-NP7|stype-|voicetype-	13	pof	_	_
13	niBAne	niBA	v	VM	lex-niBA|cat-v|gen-any|num-sg|pers-any|case-o|vib-nA_kA|tam-nA|chunkId-VGNN|stype-|voicetype-	14	r6-k2	_	_
14	PEsalA	PEsalA	n	NN	lex-PEsalA|cat-n|gen-m|num-sg|pers-3|case-d|vib-0|tam-0|chunkId-NP8|stype-|voicetype-	15	pof	_	_
15	kiyA	kara	v	VM	lex-kara|cat-v|gen-m|num-sg|pers-3|case-|vib-yA_hE|tam-yA|chunkId-VGF3|stype-declarative|voicetype-active	9	ccof	_	_
16	.	.	punc	SYM	lex-.|cat-punc|gen-|num-|pers-|case-|vib-|tam-|chunkId-BLK|stype-|voicetype-	2	rsym	_	_

1	unhoMne	vaha	pn	PRP	lex-vaha|cat-pn|gen-any|num-sg|pers-3h|case-o|vib-ne|tam-ne|chunkId-NP|stype-|voicetype-	2	k1	_	_
2	kahA	kaha	v	VM	lex-kaha|cat-v|gen-m|num-sg|pers-any|case-|vib-yA|tam-yA|chunkId-VGF|stype-declarative|voicetype-active	0	main	_	_
3	ki	ki	avy	CC	lex-ki|cat-avy|gen-|num-|pers-|case-|vib-|tam-|chunkId-CCP|stype-|voicetype-	2	k2	_	_
4	pariNAma	pariNAma	n	NN	lex-pariNAma|cat-n|gen-m|num-sg|pers-3|case-d|vib-0|tam-0|chunkId-NP2|stype-|voicetype-	8	k1	_	_
5	janawA	janawA	n	NN	lex-janawA|cat-n|gen-f|num-sg|pers-3|case-o|vib-0_kA|tam-0|chunkId-NP3|stype-|voicetype-	6	r6-k1	_	_
6	aBimawa	aBimawa	n	NN	lex-aBimawa|cat-n|gen-m|num-sg|pers-3|case-d|vib-0|tam-0|chunkId-NP4|stype-|voicetype-	8	pof	_	_
7	nahIM	nahIM	avy	NEG	lex-nahIM|cat-avy|gen-|num-|pers-|case-|vib-|tam-|chunkId-NEGP|stype-|voicetype-	8	fragof	_	_
8	NULL	_	v	VM	lex-_|cat-v|gen-|num-|pers-|case-|vib-|tam-|chunkId-NULL__VGF|stype-|voicetype-	9	ccof	_	_
9	balki	balki	avy	CC	lex-balki|cat-avy|gen-|num-|pers-|case-|vib-|tam-|chunkId-CCP2|stype-|voicetype-	3	ccof	_	_
10	rAjyoM	rAjya	n	NN	lex-rAjya|cat-n|gen-m|num-pl|pers-3|case-o|vib-0_kA|tam-0|chunkId-NP5|stype-|voicetype-	11	r6	_	_
11	janAxeSa	janAxeSa	n	NN	lex-janAxeSa|cat-n|gen-m|num-sg|pers-3|case-o|vib-0_kA|tam-0|chunkId-NP6|stype-|voicetype-	12	r6	_	_
12	yogaPala	yogaPala	n	NN	lex-yogaPala|cat-n|gen-m|num-sg|pers-3|case-d|vib-0|tam-0|chunkId-NP7|stype-|voicetype-	13	k1	_	_
13	hE	hE	v	VM	lex-hE|cat-v|gen-any|num-sg|pers-3|case-|vib-hE|tam-hE|chunkId-VGF2|stype-declarative|voicetype-active	9	ccof	_	_
14	.	.	punc	SYM	lex-.|cat-punc|gen-|num-|pers-|case-|vib-|tam-|chunkId-BLK|stype-|voicetype-	2	rsym	_	_

1	ise	yaha	pn	PRP	lex-yaha|cat-pn|gen-any|num-sg|pers-3|case-o|vib-ko|tam-ko|chunkId-NP|stype-|voicetype-	5	k2	_	_
2	janAxeSa	janAxeSa	n	NN	lex-janAxeSa|cat-n|gen-m|num-sg|pers-3|case-d|vib-0|tam-0|chunkId-NP2|stype-|voicetype-	3	ccof	_	_
3	yA	yA	avy	CC	lex-yA|cat-avy|gen-|num-|pers-|case-|vib-|tam-|chunkId-CCP|stype-|voicetype-	5	k2g	_	_
4	janaBAvanA	janaBAvanA	n	NN	lex-janaBAvanA|cat-n|gen-m|num-sg|pers-3|case-d|vib-0|tam-0|chunkId-NP3|stype-|voicetype-	3	ccof	_	_
5	kahanA	kaha	v	VM	lex-kaha|cat-v|gen-any|num-any|pers-any|case-d|vib-nA|tam-nA|chunkId-VGNN|stype-|voicetype-	7	k1	_	_
6	galawa	galawa	adj	JJ	lex-galawa|cat-adj|gen-any|num-any|pers-|case-|vib-|tam-|chunkId-JJP|stype-|voicetype-	7	k1s	_	_
7	hE	hE	v	VM	lex-hE|cat-v|gen-any|num-sg|pers-3|case-|vib-hE|tam-hE|chunkId-VGF|stype-declarative|voicetype-active	0	main	_	_
8	.	.	punc	SYM	lex-.|cat-punc|gen-|num-|pers-|case-|vib-|tam-|chunkId-BLK|stype-|voicetype-	7	rsym	_	_

1	janawA	janawA	n	NN	lex-janawA|cat-n|gen-f|num-sg|pers-3|case-o|vib-0_ne|tam-0|chunkId-NP|stype-|voicetype-	8	k1	_	_
2	bAra	bAra	n	NN	lex-bAra|cat-n|gen-f|num-sg|pers-3|case-d|vib-0|tam-0|chunkId-NP2|stype-|voicetype-	8	k7t	_	_
3	kisI	koI	pn	PRP	lex-koI|cat-pn|gen-any|num-sg|pers-3|case-o|vib-0|tam-0|chunkId-NP3|stype-|voicetype-	4	nmod	_	_
4	xala	xala	n	NN	lex-xala|cat-n|gen-m|num-sg|pers-3|case-o|vib-0|tam-0|chunkId-NP4|stype-|voicetype-	5	ccof	_	_
5	yA	yA	avy	CC	lex-yA|cat-avy|gen-|num-|pers-|case-|vib-|tam-|chunkId-CCP|stype-|voicetype-	8	k4	_	_
6	vyakwi	vyakwi	n	NN	lex-vyakwi|cat-n|gen-m|num-sg|pers-3|case-o|vib-0_ko|tam-0|chunkId-NP5|stype-|voicetype-	5	ccof	_	_
7	bahumawa	bahumawa	n	NN	lex-bahumawa|cat-n|gen-m|num-sg|pers-3|case-d|vib-0|tam-0|chunkId-NP6|stype-|voicetype-	8	pof	_	_
8	xiyA	xe	v	VM	lex-xe|cat-v|gen-m|num-sg|pers-3|case-|vib-yA_hE|tam-yA|chunkId-VGF|stype-declarative|voicetype-active	0	main	_	_
9	.	.	punc	SYM	lex-.|cat-punc|gen-|num-|pers-|case-|vib-|tam-|chunkId-BLK|stype-|voicetype-	8	rsym	_	_

1	unhoMne	vaha	pn	PRP	lex-vaha|cat-pn|gen-any|num-sg|pers-3h|case-o|vib-ne|tam-ne|chunkId-NP|stype-|voicetype-	2	k1	_	_
2	kahA	kaha	v	VM	lex-kaha|cat-v|gen-m|num-sg|pers-any|case-|vib-yA|tam-yA|chunkId-VGF|stype-declarative|voicetype-active	0	main	_	_
3	ki	ki	avy	CC	lex-ki|cat-avy|gen-|num-|pers-|case-|vib-|tam-|chunkId-CCP|stype-|voicetype-	2	k2	_	_
4	rAjaga	rAjaga	n	NNP	lex-rAjaga|cat-n|gen-f|num-sg|pers-3|case-d|vib-0|tam-0|chunkId-NP2|stype-|voicetype-	7	k1	_	_
5	vikAsa	vikAsa	n	NN	lex-vikAsa|cat-n|gen-m|num-sg|pers-3|case-o|vib-0_ko|tam-0|chunkId-NP3|stype-|voicetype-	7	k2	_	_
6	muxxA	muxxA	n	NN	lex-muxxA|cat-n|gen-m|num-sg|pers-3|case-d|vib-0|tam-0|chunkId-NP4|stype-|voicetype-	7	k2s	_	_
7	banA	bana	v	VM	lex-bana|cat-v|gen-m|num-sg|pers-any|case-|vib-yA_pA+yA|tam-yA|chunkId-VGF2|stype-declarative|voicetype-active	8	ccof	_	_
8	Ora	Ora	avy	CC	lex-Ora|cat-avy|gen-|num-|pers-|case-|vib-|tam-|chunkId-CCP2|stype-|voicetype-	3	ccof	_	_
9	jahAM	jahAz	pn	PRP	lex-jahAz|cat-pn|gen-|num-|pers-|case-d|vib-|tam-|chunkId-NP5|stype-|voicetype-	11	k7	_	_
10	muxxA	muxxA	n	NN	lex-muxxA|cat-n|gen-m|num-sg|pers-3|case-d|vib-0|tam-0|chunkId-NP6|stype-|voicetype-	11	k1	_	_
11	banA	bana	v	VM	lex-bana|cat-v|gen-m|num-sg|pers-3|case-|vib-yA|tam-yA|chunkId-VGF3|stype-declarative|voicetype-active	12	nmod__relc	_	_
12	vahAM	vahAz	pn	PRP	lex-vahAz|cat-pn|gen-|num-|pers-|case-d|vib-|tam-|chunkId-NP7|stype-|voicetype-	16	k7	_	_
13	ise	yaha	pn	PRP	lex-yaha|cat-pn|gen-any|num-sg|pers-3|case-o|vib-ko|tam-ko|chunkId-NP8|stype-|voicetype-	16	k2	_	_
14	waraha	waraha	n	NN	lex-waraha|cat-n|gen-f|num-sg|pers-3|case-d|vib-0|tam-0|chunkId-NP9|stype-|voicetype-	16	adv	_	_
15	janawA	janawA	n	NN	lex-janawA|cat-n|gen-f|num-sg|pers-3|case-o|vib-0_ke_bIca|tam-0|chunkId-NP10|stype-|voicetype-	16	k7	_	_
16	raKa	raKa	v	VM	lex-raKa|cat-v|gen-any|num-sg|pers-3h|case-|vib-0_pA+yA|tam-0|chunkId-VGF4|stype-declarative|voicetype-active	8	ccof	_	_
17	.	.	punc	SYM	lex-.|cat-punc|gen-|num-|pers-|case-|vib-|tam-|chunkId-BLK|stype-|voicetype-	2	rsym	_	_

1	SAiniMga	SAiniMga	n	NNP	lex-SAiniMga|cat-n|gen-f|num-sg|pers-3|case-o|vib-0_kA|tam-0|chunkId-NP|stype-|voicetype-	2	r6	_	_
2	nAre	nArA	n	NN	lex-nArA|cat-n|gen-m|num-sg|pers-3|case-o|vib-0_se|tam-0|chunkId-NP2|stype-|voicetype-	5	rh	_	_
3	rAjaga	rAjaga	n	NNP	lex-rAjaga|cat-n|gen-f|num-sg|pers-3|case-o|vib-0_ko|tam-0|chunkId-NP3|stype-|voicetype-	5	k2	_	_
4	nukasAna	nukasAna	n	NN	lex-nukasAna|cat-n|gen-m|num-sg|pers-3|case-d|vib-0|tam-0|chunkId-NP4|stype-|voicetype-	5	pof	_	_
5	huA	ho	v	VM	lex-ho|cat-v|gen-m|num-sg|pers-any|case-|vib-yA|tam-yA|chunkId-VGF|stype-declarative|voicetype-active	0	main	_	_
6	.	.	punc	SYM	lex-.|cat-punc|gen-|num-|pers-|case-|vib-|tam-|chunkId-BLK|stype-|voicetype-	5	rsym	_	_

1	unhoMne	vaha	pn	PRP	lex-vaha|cat-pn|gen-any|num-sg|pers-3h|case-o|vib-ne|tam-ne|chunkId-NP|stype-|voicetype-	2	k1	_	_
2	kahA	kaha	v	VM	lex-kaha|cat-v|gen-m|num-sg|pers-any|case-|vib-yA|tam-yA|chunkId-VGF|stype-declarative|voicetype-active	0	main	_	_
3	ki	ki	avy	CC	lex-ki|cat-avy|gen-|num-|pers-|case-|vib-|tam-|chunkId-CCP|stype-|voicetype-	2	k2	_	_
4	PIlaguda	PIlaguda	n	NN	lex-PIlaguda|cat-n|gen-m|num-sg|pers-3|case-o|vib-0_kA|tam-0|chunkId-NP2|stype-|voicetype-	5	r6	_	_
5	nArA	nArA	n	NN	lex-nArA|cat-n|gen-m|num-sg|pers-3|case-d|vib-0|tam-0|chunkId-NP3|stype-|voicetype-	8	k2	_	_
6	unhoMne	vaha	pn	PRP	lex-vaha|cat-pn|gen-any|num-sg|pers-3h|case-o|vib-ne|tam-ne|chunkId-NP4|stype-|voicetype-	8	k1	_	_
7	AraMBa	AramBa	n	NN	lex-AramBa|cat-n|gen-m|num-sg|pers-3|case-d|vib-0|tam-0|chunkId-NP5|stype-|voicetype-	8	pof	_	_
8	kiyA	kara	v	VM	lex-kara|cat-v|gen-m|num-sg|pers-any|case-|vib-yA_WA|tam-yA|chunkId-VGF2|stype-declarative|voicetype-active	9	ccof	_	_
9	lekina	lekina	avy	CC	lex-lekina|cat-avy|gen-|num-|pers-|case-|vib-|tam-|chunkId-CCP2|stype-|voicetype-	3	ccof	_	_
10	rAjyoM	rAjya	n	NN	lex-rAjya|cat-n|gen-m|num-pl|pers-3|case-o|vib-0_meM|tam-0|chunkId-NP6|stype-|voicetype-	14	k7p	_	_
11	yaha	yaha	pn	PRP	lex-yaha|cat-pn|gen-any|num-sg|pers-3|case-d|vib-0|tam-0|chunkId-NP7|stype-|voicetype-	14	k1	_	_
12	kAragara	kAragara	n	NN	lex-kAragara|cat-n|gen-m|num-sg|pers-3|case-d|vib-0|tam-0|chunkId-NP8|stype-|voicetype-	14	k1s	_	_
13	sAbiwa	sAbiwa	adj	JJ	lex-sAbiwa|cat-adj|gen-any|num-any|pers-|case-|vib-|tam-|chunkId-JJP|stype-|voicetype-	14	pof	_	_
14	ho	ho	v	VM	lex-ho|cat-v|gen-any|num-sg|pers-any|case-|vib-0_pA+yA|tam-0|chunkId-VGF3|stype-declarative|voicetype-active	9	ccof	_	_
15	.	.	punc	SYM	lex-.|cat-punc|gen-|num-|pers-|case-|vib-|tam-|chunkId-BLK|stype-|voicetype-	2	rsym	_	_

1	rAjyoM	rAjya	n	NN	lex-rAjya|cat-n|gen-m|num-pl|pers-3|case-o|vib-0_meM|tam-0|chunkId-NP|stype-|voicetype-	5	k7p	_	_
2	PEktara	PEktara	n	NN	lex-PEktara|cat-n|gen-m|num-sg|pers-3|case-o|vib-0_ne|tam-0|chunkId-NP2|stype-|voicetype-	5	k1	_	_
3	pariNAmoM	pariNAma	n	NN	lex-pariNAma|cat-n|gen-m|num-pl|pers-3|case-o|vib-0_meM|tam-0|chunkId-NP3|stype-|voicetype-	5	k7	_	_
4	BUmikA	BUmikA	n	NN	lex-BUmikA|cat-n|gen-f|num-sg|pers-3|case-d|vib-0|tam-0|chunkId-NP4|stype-|voicetype-	5	pof	_	_
5	niBAI	niBA	v	VM	lex-niBA|cat-v|gen-f|num-sg|pers-any|case-|vib-yA|tam-yA|chunkId-VGF|stype-declarative|voicetype-active	0	main	_	_
6	.	.	punc	SYM	lex-.|cat-punc|gen-|num-|pers-|case-|vib-|tam-|chunkId-BLK|stype-|voicetype-	5	rsym	_	_

1	unhoMne	vaha	pn	PRP	lex-vaha|cat-pn|gen-any|num-sg|pers-3h|case-o|vib-ne|tam-ne|chunkId-NP|stype-|voicetype-	2	k1	_	_
2	kahA	kaha	v	VM	lex-kaha|cat-v|gen-m|num-sg|pers-any|case-|vib-yA|tam-yA|chunkId-VGF|stype-declarative|voicetype-active	0	main	_	_
3	ki	ki	avy	CC	lex-ki|cat-avy|gen-|num-|pers-|case-|vib-|tam-|chunkId-CCP|stype-|voicetype-	2	k2	_	_
4	xaloM	xala	n	NN	lex-xala|cat-n|gen-m|num-pl|pers-3|case-o|vib-0_ne|tam-0|chunkId-NP2|stype-|voicetype-	8	k1	_	_
5	hiMxuwva	hiMxuwva	n	NN	lex-hiMxuwva|cat-n|gen-m|num-sg|pers-3|case-o|vib-0_kA|tam-0|chunkId-NP3|stype-|voicetype-	6	r6	_	_
6	vyAKyA	vyAKyA	n	NN	lex-vyAKyA|cat-n|gen-f|num-sg|pers-3|case-d|vib-0|tam-0|chunkId-NP4|stype-|voicetype-	8	k2	_	_
7	peSa	peSa	adj	JJ	lex-peSa|cat-adj|gen-any|num-any|pers-|case-|vib-|tam-|chunkId-JJP|stype-|voicetype-	8	pof	_	_
8	kI	kara	v	VM	lex-kara|cat-v|gen-f|num-sg|pers-any|case-|vib-yA|tam-yA|chunkId-VGF2|stype-declarative|voicetype-active	3	ccof	_	_
9	.	.	punc	SYM	lex-.|cat-punc|gen-|num-|pers-|case-|vib-|tam-|chunkId-BLK|stype-|voicetype-	2	rsym	_	_

1	cunAvoM	cunAva	n	NN	lex-cunAva|cat-n|gen-m|num-pl|pers-3|case-o|vib-0_meM|tam-0|chunkId-NP|stype-|voicetype-	5	k7	_	_
2	hAra	hAra	n	NN	lex-hAra|cat-n|gen-f|num-sg|pers-3|case-o|vib-0_kA|tam-0|chunkId-NP2|stype-|voicetype-	3	r6	_	_
3	muxxe	muxxA	n	NN	lex-muxxA|cat-n|gen-m|num-sg|pers-3|case-o|vib-0_para|tam-0|chunkId-NP3|stype-|voicetype-	5	k7	_	_
4	unhoMne	vaha	pn	PRP	lex-vaha|cat-pn|gen-any|num-sg|pers-3h|case-o|vib-ne|tam-ne|chunkId-NP4|stype-|voicetype-	5	k1	_	_
5	kahA	kaha	v	VM	lex-kaha|cat-v|gen-m|num-sg|pers-any|case-|vib-yA|tam-yA|chunkId-VGF|stype-declarative|voicetype-active	0	main	_	_
6	ki	ki	avy	CC	lex-ki|cat-avy|gen-|num-|pers-|case-|vib-|tam-|chunkId-CCP|stype-|voicetype-	5	k2	_	_
7	beSaka	beSaka	adv	RB	lex-beSaka|cat-adv|gen-|num-|pers-|case-|vib-|tam-|chunkId-RBP|stype-|voicetype-	11	sent-adv	_	_
8	isase	yaha	pn	PRP	lex-yaha|cat-pn|gen-any|num-sg|pers-3|case-o|vib-se|tam-se|chunkId-NP5|stype-|voicetype-	11	rh	_	_
9	BAjapA	BAjapA	n	NNP	lex-BAjapA|cat-n|gen-f|num-sg|pers-3|case-o|vib-0_ko|tam-0|chunkId-NP6|stype-|voicetype-	11	k4a	_	_
10	JatakA	JatakA	n	NN	lex-JatakA|cat-n|gen-m|num-sg|pers-3|case-d|vib-0|tam-0|chunkId-NP7|stype-|voicetype-	11	pof	_	_
11	lagA	laga	v	VM	lex-laga|cat-v|gen-m|num-sg|pers-3|case-|vib-yA_hE|tam-yA|chunkId-VGF2|stype-declarative|voicetype-active	12	ccof	_	_
12	Ora	Ora	avy	CC	lex-Ora|cat-avy|gen-|num-|pers-|case-|vib-|tam-|chunkId-CCP2|stype-|voicetype-	6	ccof	_	_
13	isakI	yaha	pn	PRP	lex-yaha|cat-pn|gen-f|num-sg|pers-3|case-o|vib-kA|tam-kA|chunkId-NP8|stype-|voicetype-	14	r6-k2	_	_
14	samIkRA	samIkRA	n	NN	lex-samIkRA|cat-n|gen-f|num-sg|pers-3|case-d|vib-0|tam-0|chunkId-NP9|stype-|voicetype-	15	pof	_	_
15	kI	kara	v	VM	lex-kara|cat-v|gen-f|num-sg|pers-3|case-|vib-yA_jA+gA|tam-yA|chunkId-VGF3|stype-declarative|voicetype-passive	12	ccof	_	_
16	.	.	punc	SYM	lex-.|cat-punc|gen-|num-|pers-|case-|vib-|tam-|chunkId-BLK|stype-|voicetype-	5	rsym	_	_

1	BAjapA	BAjapA	n	NNP	lex-BAjapA|cat-n|gen-f|num-sg|pers-3|case-d|vib-0|tam-0|chunkId-NP|stype-|voicetype-	4	k1	_	_
2	Pira	Pira	adv	RB	lex-Pira|cat-adv|gen-|num-|pers-|case-|vib-|tam-|chunkId-RBP|stype-|voicetype-	4	adv	_	_
3	saMgaTiwa	saMgaTiwa	adj	JJ	lex-saMgaTiwa|cat-adj|gen-any|num-any|pers-|case-|vib-|tam-|chunkId-JJP|stype-|voicetype-	4	pof	_	_
4	hogI	ho	v	VM	lex-ho|cat-v|gen-f|num-sg|pers-3|case-|vib-gA|tam-gA|chunkId-VGF|stype-declarative|voicetype-active	5	ccof	_	_
5	Ora	Ora	avy	CC	lex-Ora|cat-avy|gen-|num-|pers-|case-|vib-|tam-|chunkId-CCP|stype-|voicetype-	0	main	_	_
6	pArtI	pArtI	n	NN	lex-pArtI|cat-n|gen-f|num-sg|pers-3|case-o|vib-0_ko|tam-0|chunkId-NP2|stype-|voicetype-	9	k2	_	_
7	Pira	Pira	adv	RB	lex-Pira|cat-adv|gen-|num-|pers-|case-|vib-|tam-|chunkId-RBP2|stype-|voicetype-	9	adv	_	_
8	majabUwa	majabUwa	adj	JJ	lex-majabUwa|cat-adj|gen-any|num-any|pers-|case-|vib-|tam-|chunkId-JJP2|stype-|voicetype-	9	pof	_	_
9	kiyA	kara	v	VM	lex-kara|cat-v|gen-m|num-sg|pers-3|case-|vib-yA_jA+gA|tam-yA|chunkId-VGF2|stype-declarative|voicetype-passive	5	ccof	_	_
10	.	.	punc	SYM	lex-.|cat-punc|gen-|num-|pers-|case-|vib-|tam-|chunkId-BLK|stype-|voicetype-	5	rsym	_	_

1	unhoMne	vaha	pn	PRP	lex-vaha|cat-pn|gen-any|num-sg|pers-3h|case-o|vib-ne|tam-ne|chunkId-NP|stype-|voicetype-	2	k1	_	_
2	kahA	kaha	v	VM	lex-kaha|cat-v|gen-m|num-sg|pers-any|case-|vib-yA|tam-yA|chunkId-VGF|stype-declarative|voicetype-active	0	main	_	_
3	ki	ki	avy	CC	lex-ki|cat-avy|gen-|num-|pers-|case-|vib-|tam-|chunkId-CCP|stype-|voicetype-	2	k2	_	_
4	BAjapA	BAjapA	n	NNP	lex-BAjapA|cat-n|gen-f|num-sg|pers-3|case-o|vib-0_ne|tam-0|chunkId-NP2|stype-|voicetype-	8	k1	_	_
5	1984	1984	n	NNP	lex-1984|cat-n|gen-m|num-sg|pers-3|case-o|vib-0_meM|tam-0|chunkId-NP3|stype-|voicetype-	8	k7t	_	_
6	cunAvoM	cunAva	n	NN	lex-cunAva|cat-n|gen-m|num-pl|pers-3|case-o|vib-0_meM|tam-0|chunkId-NP4|stype-|voicetype-	8	k7	_	_
7	iwihAsa	iwihAsa	n	NN	lex-iwihAsa|cat-n|gen-m|num-sg|pers-3|case-d|vib-0|tam-0|chunkId-NP5|stype-|voicetype-	8	k2	_	_
8	racA	raca	v	VM	lex-raca|cat-v|gen-m|num-sg|pers-any|case-|vib-yA|tam-yA|chunkId-VGF2|stype-declarative|voicetype-active	9	nmod__relc	_	_
9	xOra	xOra	n	NN	lex-xOra|cat-n|gen-m|num-sg|pers-3|case-d|vib-0|tam-0|chunkId-NP6|stype-|voicetype-	13	k1	_	_
10	niSciwa	niSciwa	adj	JJ	lex-niSciwa|cat-adj|gen-any|num-any|pers-|case-o|vib-|tam-|chunkId-JJP|stype-|voicetype-	13	adv	_	_
11	iwihAsa	iwihAsa	n	NN	lex-iwihAsa|cat-n|gen-m|num-sg|pers-3|case-o|vib-0_kA|tam-0|chunkId-NP7|stype-|voicetype-	12	r6	_	_
12	pvAiMta	pvAiMta	n	NN	lex-pvAiMta|cat-n|gen-m|num-sg|pers-3|case-d|vib-0|tam-0|chunkId-NP8|stype-|voicetype-	13	k1s	_	_
13	WA	WA	v	VM	lex-WA|cat-v|gen-m|num-sg|pers-any|case-|vib-WA|tam-WA|chunkId-VGF3|stype-declarative|voicetype-active	3	ccof	_	_
14	.	.	punc	SYM	lex-.|cat-punc|gen-|num-|pers-|case-|vib-|tam-|chunkId-BLK|stype-|voicetype-	2	rsym	_	_

1	AdavANI	AdavANI	n	NNP	lex-AdavANI|cat-n|gen-any|num-sg|pers-3|case-o|vib-0_ne|tam-0|chunkId-NP|stype-|voicetype-	2	k1	_	_
2	kahA	kaha	v	VM	lex-kaha|cat-v|gen-m|num-sg|pers-any|case-|vib-yA|tam-yA|chunkId-VGF|stype-declarative|voicetype-active	0	main	_	_
3	ki	ki	avy	CC	lex-ki|cat-avy|gen-|num-|pers-|case-|vib-|tam-|chunkId-CCP|stype-|voicetype-	2	k2	_	_
4	BAjapA	BAjapA	n	NNP	lex-BAjapA|cat-n|gen-f|num-sg|pers-3|case-o|vib-0_ne|tam-0|chunkId-NP2|stype-|voicetype-	9	k1	_	_
5	vipakRa	vipakRa	n	NN	lex-vipakRa|cat-n|gen-m|num-sg|pers-3|case-o|vib-0|tam-0|chunkId-NP3|stype-|voicetype-	6	ccof	_	_
6	Ora	Ora	avy	CC	lex-Ora|cat-avy|gen-|num-|pers-|case-|vib-|tam-|chunkId-CCP2|stype-|voicetype-	9	k7	_	_
7	SAsaka	SAsaka	n	NN	lex-SAsaka|cat-n|gen-m|num-sg|pers-3|case-o|vib-0_ke_nAwe|tam-0|chunkId-NP4|stype-|voicetype-	6	ccof	_	_
8	sAKa	sAKa	n	NN	lex-sAKa|cat-n|gen-m|num-sg|pers-3|case-d|vib-0|tam-0|chunkId-NP5|stype-|voicetype-	9	pof	_	_
9	banAI	banA	v	VM	lex-banA|cat-v|gen-f|num-sg|pers-3|case-|vib-yA_hE|tam-yA|chunkId-VGF2|stype-declarative|voicetype-active	10	nmod__relc	_	_
10	yaha	yaha	pn	PRP	lex-yaha|cat-pn|gen-any|num-sg|pers-3|case-d|vib-0|tam-0|chunkId-NP6|stype-|voicetype-	12	k1	_	_
11	upalabXi	upalabXi	n	NN	lex-upalabXi|cat-n|gen-f|num-sg|pers-3|case-d|vib-0|tam-0|chunkId-NP7|stype-|voicetype-	12	k1s	_	_
12	hE	hE	v	VM	lex-hE|cat-v|gen-any|num-sg|pers-3|case-|vib-hE|tam-hE|chunkId-VGF3|stype-declarative|voicetype-active	3	ccof	_	_
13	.	.	punc	SYM	lex-.|cat-punc|gen-|num-|pers-|case-|vib-|tam-|chunkId-BLK|stype-|voicetype-	2	rsym	_	_

1	hama	hama	pn	PRP	lex-hama|cat-pn|gen-any|num-pl|pers-1|case-d|vib-0|tam-0|chunkId-NP|stype-|voicetype-	4	k1	_	_
2	Pira	Pira	adv	RB	lex-Pira|cat-adv|gen-|num-|pers-|case-|vib-|tam-|chunkId-RBP|stype-|voicetype-	4	adv	_	_
3	vApasa	vApasa	adj	JJ	lex-vApasa|cat-adj|gen-any|num-any|pers-|case-|vib-|tam-|chunkId-JJP|stype-|voicetype-	4	pof	_	_
4	AeMge	A	v	VM	lex-A|cat-v|gen-m|num-pl|pers-1|case-|vib-gA|tam-gA|chunkId-VGF|stype-declarative|voicetype-active	5	ccof	_	_
5	Ora	Ora	avy	CC	lex-Ora|cat-avy|gen-|num-|pers-|case-|vib-|tam-|chunkId-CCP|stype-|voicetype-	0	main	_	_
6	BArawa	BArawa	n	NNP	lex-BArawa|cat-n|gen-m|num-sg|pers-3|case-o|vib-0_kA|tam-0|chunkId-NP2|stype-|voicetype-	7	r6	_	_
7	svapna	svapna	n	NN	lex-svapna|cat-n|gen-m|num-sg|pers-3|case-o|vib-0_ko|tam-0|chunkId-NP3|stype-|voicetype-	9	k2	_	_
8	pUrA	pUrA	adj	JJ	lex-pUrA|cat-adj|gen-m|num-sg|pers-|case-|vib-|tam-|chunkId-JJP2|stype-|voicetype-	9	pof	_	_
9	kareMge	kara	v	VM	lex-kara|cat-v|gen-m|num-pl|pers-1|case-|vib-gA|tam-gA|chunkId-VGF2|stype-declarative|voicetype-active	5	ccof	_	_
10	.	.	punc	SYM	lex-.|cat-punc|gen-|num-|pers-|case-|vib-|tam-|chunkId-BLK|stype-|voicetype-	5	rsym	_	_

1	siMha	siMha	n	NNP	lex-siMha|cat-n|gen-m|num-sg|pers-3|case-o|vib-0_ko|tam-0|chunkId-NP|stype-|voicetype-	3	k4a	_	_
2	baXAI	baXAI	n	NN	lex-baXAI|cat-n|gen-f|num-sg|pers-3|case-d|vib-0|tam-0|chunkId-NP2|stype-|voicetype-	3	pof	_	_
3	xewe	xe	v	VM	lex-xe|cat-v|gen-m|num-sg|pers-3h|case-|vib-wA_ho+eM|tam-wA|chunkId-VGNF|stype-|voicetype-	4	nmod__k1inv	_	_
4	unhoMne	vaha	pn	PRP	lex-vaha|cat-pn|gen-any|num-sg|pers-3h|case-o|vib-ne|tam-ne|chunkId-NP3|stype-|voicetype-	5	k1	_	_
5	kahA	kaha	v	VM	lex-kaha|cat-v|gen-m|num-sg|pers-any|case-|vib-yA|tam-yA|chunkId-VGF|stype-declarative|voicetype-active	0	main	_	_
6	ki	ki	avy	CC	lex-ki|cat-avy|gen-|num-|pers-|case-|vib-|tam-|chunkId-CCP|stype-|voicetype-	5	k2	_	_
7	sarakAra	sarakAra	n	NN	lex-sarakAra|cat-n|gen-f|num-sg|pers-3|case-o|vib-0_ko|tam-0|chunkId-NP4|stype-|voicetype-	10	k1	_	_
8	sahamawi	sahamawi	n	NN	lex-sahamawi|cat-n|gen-f|num-sg|pers-3|case-o|vib-0_para|tam-0|chunkId-NP5|stype-|voicetype-	10	k7	_	_
9	kAma	kAma	n	NN	lex-kAma|cat-n|gen-m|num-sg|pers-3|case-d|vib-0|tam-0|chunkId-NP6|stype-|voicetype-	10	pof	_	_
10	karanA	kara	v	VM	lex-kara|cat-v|gen-m|num-any|pers-any|case-|vib-nA_cAhie|tam-nA|chunkId-VGF2|stype-declarative|voicetype-active	6	ccof	_	_
11	.	.	punc	SYM	lex-.|cat-punc|gen-|num-|pers-|case-|vib-|tam-|chunkId-BLK|stype-|voicetype-	5	rsym	_	_

1	unhoMne	vaha	pn	PRP	lex-vaha|cat-pn|gen-any|num-sg|pers-3h|case-o|vib-ne|tam-ne|chunkId-NP|stype-|voicetype-	3	k1	_	_
2	spaRta	spaRta	adj	JJ	lex-spaRta|cat-adj|gen-any|num-any|pers-|case-|vib-|tam-|chunkId-JJP|stype-|voicetype-	3	pof	_	_
3	kiyA	kara	v	VM	lex-kara|cat-v|gen-m|num-sg|pers-any|case-|vib-yA|tam-yA|chunkId-VGF|stype-declarative|voicetype-active	0	main	_	_
4	ki	ki	avy	CC	lex-ki|cat-avy|gen-|num-|pers-|case-|vib-|tam-|chunkId-CCP|stype-|voicetype-	3	k2	_	_
5	vipakRa	vipakRa	n	NN	lex-vipakRa|cat-n|gen-m|num-sg|pers-3|case-o|vib-0_meM|tam-0|chunkId-NP2|stype-|voicetype-	6	k7	_	_
6	rahawe	raha	v	VM	lex-raha|cat-v|gen-m|num-sg|pers-any|case-|vib-wA_ho+eM|tam-wA|chunkId-VGNF|stype-|voicetype-	10	vmod	_	_
7	muxxoM	muxxA	n	NN	lex-muxxA|cat-n|gen-m|num-pl|pers-3|case-o|vib-0_para|tam-0|chunkId-NP3|stype-|voicetype-	10	k7	_	_
8	sarakAra	sarakAra	n	NN	lex-sarakAra|cat-n|gen-f|num-sg|pers-3|case-o|vib-0_kA|tam-0|chunkId-NP4|stype-|voicetype-	9	r6-k2	_	_
9	sahayoga	sahayoga	n	NN	lex-sahayoga|cat-n|gen-m|num-sg|pers-3|case-d|vib-0|tam-0|chunkId-NP5|stype-|voicetype-	10	pof	_	_
10	kiyA	kara	v	VM	lex-kara|cat-v|gen-m|num-sg|pers-3|case-|vib-yA_jA+gA|tam-yA|chunkId-VGF2|stype-declarative|voicetype-passive	4	ccof	_	_
11	.	.	punc	SYM	lex-.|cat-punc|gen-|num-|pers-|case-|vib-|tam-|chunkId-BLK|stype-|voicetype-	3	rsym	_	_

