1	praxeSa	praxeSa	n	NN	lex-praxeSa|cat-n|gen-m|num-sg|pers-3|case-o|vib-0_kA|tam-0|chunkId-NP|stype-|voicetype-	2	r6	_	_
2	muKiyA	muKiyA	n	NN	lex-muKiyA|cat-n|gen-any|num-sg|pers-3|case-o|vib-0|tam-0|chunkId-NP2|stype-|voicetype-	3	nmod	_	_
3	mAyAvawI	mAyAvawI	n	NNP	lex-mAyAvawI|cat-n|gen-f|num-sg|pers-3|case-o|vib-0_kA|tam-0|chunkId-NP3|stype-|voicetype-	4	r6	_	_
4	maMSA	maMSA	n	NN	lex-maMSA|cat-n|gen-f|num-sg|pers-3|case-o|vib-0_para|tam-0|chunkId-NP4|stype-|voicetype-	6	k7	_	_
5	KarA	KarA	adj	JJ	lex-KarA|cat-adj|gen-m|num-sg|pers-|case-|vib-|tam-|chunkId-JJP|stype-|voicetype-	6	pof	_	_
6	uwarane	uwara	v	VM	lex-uwara|cat-v|gen-any|num-any|pers-any|case-o|vib-nA_ke_lie|tam-nA|chunkId-VGNN|stype-|voicetype-	10	rt	_	_
7	pulisa	pulisa	n	NN	lex-pulisa|cat-n|gen-f|num-sg|pers-3|case-o|vib-0_ne|tam-0|chunkId-NP5|stype-|voicetype-	10	k1	_	_
8	kasarawa	kasarawa	n	NN	lex-kasarawa|cat-n|gen-f|num-sg|pers-3|case-d|vib-0|tam-0|chunkId-NP6|stype-|voicetype-	10	k2	_	_
9	SurU	SurU	n	NN	lex-SurU|cat-n|gen-m|num-sg|pers-3|case-d|vib-0|tam-0|chunkId-NP7|stype-|voicetype-	10	pof	_	_
10	kara	kara	v	VM	lex-kara|cat-v|gen-f|num-sg|pers-3|case-|vib-0_xe+yA_hE|tam-0|chunkId-VGF|stype-declarative|voicetype-active	0	main	_	_
11	.	.	punc	SYM	lex-.|cat-punc|gen-|num-|pers-|case-|vib-|tam-|chunkId-BLK|stype-|voicetype-	10	rsym	_	_

1	CedZaCAdZa	CedaCAda	n	NN	lex-CedaCAda|cat-n|gen-f|num-sg|pers-3|case-d|vib-0|tam-0|chunkId-NP|stype-|voicetype-	2	pof	_	_
2	karane	kara	v	VM	lex-kara|cat-v|gen-any|num-any|pers-any|case-o|vib-nA_vAlA_ke_viruxXa|tam-nA|chunkId-VGNN|stype-|voicetype-	5	vmod	_	_
3	tImeM	tIma	n	NN	lex-tIma|cat-n|gen-f|num-pl|pers-3|case-d|vib-0|tam-0|chunkId-NP2|stype-|voicetype-	5	k2	_	_
4	gaTiwa	gaTiwa	adj	JJ	lex-gaTiwa|cat-adj|gen-any|num-any|pers-|case-|vib-|tam-|chunkId-JJP|stype-|voicetype-	5	pof	_	_
5	kI	kara	v	VM	lex-kara|cat-v|gen-f|num-pl|pers-3|case-|vib-yA_jA+yA1_hE|tam-yA|chunkId-VGF|stype-declarative|voicetype-active	0	main	_	_
6	.	.	punc	SYM	lex-.|cat-punc|gen-|num-|pers-|case-|vib-|tam-|chunkId-BLK|stype-|voicetype-	5	rsym	_	_

1	muKyamaMwrI	muKyamaMwrI	n	NNP	lex-muKyamaMwrI|cat-n|gen-m|num-sg|pers-3|case-o|vib-0_kA|tam-0|chunkId-NP|stype-|voicetype-	2	r6	_	_
2	kAryapraNAlI	kAryapraNAlI	n	NN	lex-kAryapraNAlI|cat-n|gen-f|num-sg|pers-3|case-o|vib-0_se|tam-0|chunkId-NP2|stype-|voicetype-	7	ras-k2	_	_
3	esaesapI	esaesapI	n	NN	lex-esaesapI|cat-n|gen-m|num-sg|pers-3|case-o|vib-0_ne|tam-0|chunkId-NP3|stype-|voicetype-	7	k1	_	_
4	apane	apanA	pn	PRP	lex-apanA|cat-pn|gen-m|num-any|pers-any|case-o|vib-0|tam-0|chunkId-NP4|stype-|voicetype-	5	r6	_	_
5	aXInasWoM	aXInasWa	n	NN	lex-aXInasWa|cat-n|gen-m|num-pl|pers-3|case-o|vib-0_ko|tam-0|chunkId-NP5|stype-|voicetype-	7	k2	_	_
6	pariciwa	pariciwa	adj	JJ	lex-pariciwa|cat-adj|gen-any|num-any|pers-|case-|vib-|tam-|chunkId-JJP|stype-|voicetype-	7	pof	_	_
7	karA	kara	v	VM	lex-kara|cat-v|gen-any|num-sg|pers-any|case-|vib-yA_xe+yA|tam-yA|chunkId-VGF|stype-declarative|voicetype-active	0	main	_	_
8	.	.	punc	SYM	lex-.|cat-punc|gen-|num-|pers-|case-|vib-|tam-|chunkId-BLK|stype-|voicetype-	7	rsym	_	_

1	Sahara	Sahara	n	NN	lex-Sahara|cat-n|gen-m|num-sg|pers-3|case-o|vib-0_meM|tam-0|chunkId-NP|stype-|voicetype-	5	k7p	_	_
2	ravivAra	ravivAra	n	NNP	lex-ravivAra|cat-n|gen-m|num-sg|pers-3|case-o|vib-0_ko|tam-0|chunkId-NP2|stype-|voicetype-	5	k7t	_	_
3	manacaloM	manacalA	n	NN	lex-manacalA|cat-n|gen-m|num-pl|pers-3|case-o|vib-0_ke_viruxXa|tam-0|chunkId-NP3|stype-|voicetype-	5	vmod	_	_
4	aBiyAna	aBiyAna	n	NN	lex-aBiyAna|cat-n|gen-m|num-sg|pers-3|case-d|vib-0|tam-0|chunkId-NP4|stype-|voicetype-	5	k2	_	_
5	calAkara	calA	v	VM	lex-calA|cat-v|gen-any|num-any|pers-any|case-|vib-kara|tam-kara|chunkId-VGNF|stype-|voicetype-	7	vmod	_	_
6	SurUAwa	SurUAwa	n	NN	lex-SurUAwa|cat-n|gen-f|num-sg|pers-3|case-d|vib-0|tam-0|chunkId-NP5|stype-|voicetype-	7	k1	_	_
7	kara	kara	v	VM	lex-kara|cat-v|gen-f|num-sg|pers-any|case-|vib-0_xe+yA_jA+yA1|tam-0|chunkId-VGF|stype-declarative|voicetype-active	0	main	_	_
8	.	.	punc	SYM	lex-.|cat-punc|gen-|num-|pers-|case-|vib-|tam-|chunkId-BLK|stype-|voicetype-	7	rsym	_	_

1	xinoM	xina	n	NN	lex-xina|cat-n|gen-m|num-pl|pers-3|case-d|vib-0|tam-0|chunkId-NP|stype-|voicetype-	3	k7t	_	_
2	laKanaU	laKanaU	n	NNP	lex-laKanaU|cat-n|gen-m|num-sg|pers-3|case-o|vib-0_meM|tam-0|chunkId-NP2|stype-|voicetype-	3	k7p	_	_
3	huI	ho	v	VM	lex-ho|cat-v|gen-f|num-sg|pers-any|case-|vib-yA|tam-yA|chunkId-VGNF|stype-|voicetype-	4	nmod__k2inv	_	_
4	mItiMga	mItiMga	n	NN	lex-mItiMga|cat-n|gen-f|num-sg|pers-3|case-o|vib-0_se|tam-0|chunkId-NP3|stype-|voicetype-	5	k5	_	_
5	lOte	lOta	v	VM	lex-lOta|cat-v|gen-m|num-sg|pers-3h|case-|vib-yA|tam-yA|chunkId-VGNF2|stype-|voicetype-	6	nmod__k1inv	_	_
6	cawurvexI	cawurvexI	n	NNP	lex-cawurvexI|cat-n|gen-any|num-sg|pers-3|case-o|vib-0_ne|tam-0|chunkId-NP4|stype-|voicetype-	17	k1	_	_
7	lAina	lAina	n	NN	lex-lAina|cat-n|gen-f|num-sg|pers-3|case-o|vib-0_kA|tam-0|chunkId-NP5|stype-|voicetype-	8	r6	_	_
8	saBAgAra	saBAgAra	n	NN	lex-saBAgAra|cat-n|gen-m|num-sg|pers-3|case-o|vib-0_meM|tam-0|chunkId-NP6|stype-|voicetype-	17	k7p	_	_
9	kRewrAXikAriyoM	kRewrAXikArI	n	NN	lex-kRewrAXikArI|cat-n|gen-m|num-pl|pers-3|case-o|vib-0|tam-0|chunkId-NP7|stype-|voicetype-	10	ccof	_	_
10	Ora	Ora	avy	CC	lex-Ora|cat-avy|gen-|num-|pers-|case-|vib-|tam-|chunkId-CCP|stype-|voicetype-	12	r6-k2	_	_
11	praBAriyoM	praBArI	n	NN	lex-praBArI|cat-n|gen-m|num-pl|pers-3|case-o|vib-0_kA|tam-0|chunkId-NP8|stype-|voicetype-	10	ccof	_	_
12	mItiMga	mItiMga	n	NN	lex-mItiMga|cat-n|gen-f|num-sg|pers-3|case-d|vib-0|tam-0|chunkId-NP9|stype-|voicetype-	13	pof	_	_
13	kara	kara	v	VM	lex-kara|cat-v|gen-any|num-any|pers-any|case-|vib-0|tam-0|chunkId-VGNF3|stype-|voicetype-	14	vmod	_	_
14	mile	mila	v	VM	lex-mila|cat-v|gen-m|num-pl|pers-any|case-|vib-yA|tam-yA|chunkId-VGNF4|stype-|voicetype-	15	nmod__k2inv	_	_
15	nirxeSoM	nirxeSa	n	NN	lex-nirxeSa|cat-n|gen-m|num-pl|pers-3|case-o|vib-0_se|tam-0|chunkId-NP10|stype-|voicetype-	17	k2	_	_
16	avagawa	avagawa	adj	JJ	lex-avagawa|cat-adj|gen-any|num-any|pers-|case-|vib-|tam-|chunkId-JJP|stype-|voicetype-	17	pof	_	_
17	karAyA	karA	v	VM	lex-karA|cat-v|gen-m|num-sg|pers-any|case-|vib-yA|tam-yA|chunkId-VGF|stype-declarative|voicetype-active	0	main	_	_
18	.	.	punc	SYM	lex-.|cat-punc|gen-|num-|pers-|case-|vib-|tam-|chunkId-BLK|stype-|voicetype-	17	rsym	_	_

1	esaesapI	esaesapI	n	NN	lex-esaesapI|cat-n|gen-m|num-sg|pers-3|case-o|vib-0_ne|tam-0|chunkId-NP|stype-|voicetype-	13	k1	_	_
2	aXInasWoM	aXInasWa	n	NN	lex-aXInasWa|cat-n|gen-m|num-pl|pers-3|case-o|vib-0_ko|tam-0|chunkId-NP2|stype-|voicetype-	13	k4	_	_
3	inAmI	inAmI	adj	JJ	lex-inAmI|cat-adj|gen-any|num-any|pers-|case-o|vib-|tam-|chunkId-JJP|stype-|voicetype-	4	ccof	_	_
4	Ora	Ora	avy	CC	lex-Ora|cat-avy|gen-|num-|pers-|case-|vib-|tam-|chunkId-CCP|stype-|voicetype-	6	nmod	_	_
5	SAwira	SAwira	adj	JJ	lex-SAwira|cat-adj|gen-any|num-any|pers-|case-o|vib-|tam-|chunkId-JJP2|stype-|voicetype-	4	ccof	_	_
6	aparAXiyoM	aparAXI	n	NN	lex-aparAXI|cat-n|gen-m|num-pl|pers-3|case-o|vib-0_ke_viruxXa|tam-0|chunkId-NP3|stype-|voicetype-	8	vmod	_	_
7	aBiyAna	aBiyAna	n	NN	lex-aBiyAna|cat-n|gen-m|num-sg|pers-3|case-d|vib-0|tam-0|chunkId-NP4|stype-|voicetype-	8	k2	_	_
8	calAkara	calA	v	VM	lex-calA|cat-v|gen-any|num-any|pers-any|case-|vib-kara|tam-kara|chunkId-VGNF|stype-|voicetype-	11	vmod	_	_
9	wawkAla	wawkAla	adv	RB	lex-wawkAla|cat-adv|gen-|num-|pers-|case-|vib-|tam-|chunkId-RBP|stype-|voicetype-	11	adv	_	_
10	salAKoM	salAKa	n	NN	lex-salAKa|cat-n|gen-f|num-pl|pers-3|case-o|vib-0_ke_pICe|tam-0|chunkId-NP5|stype-|voicetype-	11	k7p	_	_
11	karane	kara	v	VM	lex-kara|cat-v|gen-any|num-sg|pers-any|case-o|vib-nA_kA|tam-nA|chunkId-VGNN|stype-|voicetype-	12	r6-k2	_	_
12	nirxeSa	nirxeSa	n	NN	lex-nirxeSa|cat-n|gen-m|num-pl|pers-3|case-d|vib-0|tam-0|chunkId-NP6|stype-|voicetype-	13	pof	_	_
13	xie	xe	v	VM	lex-xe|cat-v|gen-m|num-pl|pers-any|case-|vib-yA|tam-yA|chunkId-VGF|stype-declarative|voicetype-active	0	main	_	_
14	.	.	punc	SYM	lex-.|cat-punc|gen-|num-|pers-|case-|vib-|tam-|chunkId-BLK|stype-|voicetype-	13	rsym	_	_

1	ekta	ekta	n	NN	lex-ekta|cat-n|gen-m|num-sg|pers-3|case-o|vib-0_kA|tam-0|chunkId-NP|stype-|voicetype-	2	r6	_	_
2	xurupayoga	xurupayoga	n	NN	lex-xurupayoga|cat-n|gen-m|num-sg|pers-3|case-d|vib-0|tam-0|chunkId-NP2|stype-|voicetype-	3	k2	_	_
3	rokane	roka	v	VM	lex-roka|cat-v|gen-any|num-sg|pers-any|case-o|vib-nA_kA|tam-nA|chunkId-VGNN|stype-|voicetype-	4	r6	_	_
4	xiSA	xiSA	n	NN	lex-xiSA|cat-n|gen-f|num-sg|pers-3|case-o|vib-0_meM|tam-0|chunkId-NP3|stype-|voicetype-	6	k7	_	_
5	esaesapI	esaesapI	n	NN	lex-esaesapI|cat-n|gen-m|num-sg|pers-3|case-o|vib-0_ne|tam-0|chunkId-NP4|stype-|voicetype-	6	k1	_	_
6	kahA	kaha	v	VM	lex-kaha|cat-v|gen-m|num-sg|pers-any|case-|vib-yA|tam-yA|chunkId-VGF|stype-declarative|voicetype-active	0	main	_	_
7	ki	ki	avy	CC	lex-ki|cat-avy|gen-|num-|pers-|case-|vib-|tam-|chunkId-CCP|stype-|voicetype-	6	k2	_	_
8	padZawAla	padZawAla	n	NN	lex-padZawAla|cat-n|gen-f|num-sg|pers-3|case-o|vib-0_ke_paScAwa|tam-0|chunkId-NP5|stype-|voicetype-	11	k7t	_	_
9	mAmalA	mAmalA	n	NN	lex-mAmalA|cat-n|gen-m|num-sg|pers-3|case-d|vib-0|tam-0|chunkId-NP6|stype-|voicetype-	11	k2	_	_
10	xarja	xarja	adj	JJ	lex-xarja|cat-adj|gen-any|num-any|pers-|case-|vib-|tam-|chunkId-JJP|stype-|voicetype-	11	pof	_	_
11	kareM	kara	v	VM	lex-kara|cat-v|gen-any|num-pl|pers-3|case-|vib-eM|tam-eM|chunkId-VGF2|stype-declarative|voicetype-active	7	ccof	_	_
12	.	.	punc	SYM	lex-.|cat-punc|gen-|num-|pers-|case-|vib-|tam-|chunkId-BLK|stype-|voicetype-	6	rsym	_	_

1	esaesapI	esaesapI	n	NN	lex-esaesapI|cat-n|gen-m|num-sg|pers-3|case-o|vib-0_ne|tam-0|chunkId-NP|stype-|voicetype-	2	k1	_	_
2	kahA	kaha	v	VM	lex-kaha|cat-v|gen-m|num-sg|pers-any|case-|vib-yA|tam-yA|chunkId-VGF|stype-declarative|voicetype-active	0	main	_	_
3	ki	ki	avy	CC	lex-ki|cat-avy|gen-|num-|pers-|case-|vib-|tam-|chunkId-CCP|stype-|voicetype-	2	k2	_	_
4	mahApuruRoM	mahApuruRa	n	NN	lex-mahApuruRa|cat-n|gen-m|num-pl|pers-3|case-o|vib-0_kA|tam-0|chunkId-NP2|stype-|voicetype-	5	r6	_	_
5	mUrwi	mUrwi	n	NN	lex-mUrwi|cat-n|gen-f|num-sg|pers-3|case-o|vib-0_kA|tam-0|chunkId-NP3|stype-|voicetype-	6	r6	_	_
6	surakRA	surakRA	n	NN	lex-surakRA|cat-n|gen-f|num-sg|pers-3|case-o|vib-0_kA|tam-0|chunkId-NP4|stype-|voicetype-	7	r6-k2	_	_
7	XyAna	XyAna	n	NN	lex-XyAna|cat-n|gen-m|num-sg|pers-3|case-d|vib-0|tam-0|chunkId-NP5|stype-|voicetype-	8	pof	_	_
8	xeM	xe	v	VM	lex-xe|cat-v|gen-any|num-pl|pers-3|case-|vib-eM|tam-eM|chunkId-VGF2|stype-declarative|voicetype-active	3	ccof	_	_
9	.	.	punc	SYM	lex-.|cat-punc|gen-|num-|pers-|case-|vib-|tam-|chunkId-BLK|stype-|voicetype-	2	rsym	_	_

1	muKyamaMwrI	muKyamaMwrI	n	NNP	lex-muKyamaMwrI|cat-n|gen-m|num-sg|pers-3|case-o|vib-0_kA|tam-0|chunkId-NP|stype-|voicetype-	2	r6	_	_
2	maMSA	maMSA	n	NN	lex-maMSA|cat-n|gen-f|num-sg|pers-3|case-o|vib-0_ke_anurUpa|tam-0|chunkId-NP2|stype-|voicetype-	7	k7a	_	_
3	esaesapI	esaesapI	n	NN	lex-esaesapI|cat-n|gen-m|num-sg|pers-3|case-o|vib-0_ne|tam-0|chunkId-NP3|stype-|voicetype-	7	k1	_	_
4	CedZaCAdZa	CedaCAda	n	NN	lex-CedaCAda|cat-n|gen-f|num-sg|pers-3|case-o|vib-0_ke_viruxXa|tam-0|chunkId-NP4|stype-|voicetype-	7	vmod	_	_
5	tImeM	tIma	n	NN	lex-tIma|cat-n|gen-f|num-pl|pers-3|case-d|vib-0|tam-0|chunkId-NP5|stype-|voicetype-	7	k2	_	_
6	gaTiwa	gaTiwa	adj	JJ	lex-gaTiwa|cat-adj|gen-any|num-any|pers-|case-|vib-|tam-|chunkId-JJP|stype-|voicetype-	7	pof	_	_
7	kI	kara	v	VM	lex-kara|cat-v|gen-f|num-pl|pers-any|case-|vib-yA|tam-yA|chunkId-VGF|stype-declarative|voicetype-active	0	main	_	_
8	.	.	punc	SYM	lex-.|cat-punc|gen-|num-|pers-|case-|vib-|tam-|chunkId-BLK|stype-|voicetype-	7	rsym	_	_

1	ravivAra	ravivAra	n	NNP	lex-ravivAra|cat-n|gen-m|num-sg|pers-3|case-o|vib-0_ko|tam-0|chunkId-NP|stype-|voicetype-	12	k7	_	_
2	kAryavAhaka	kAryavAhaka	adj	JJ	lex-kAryavAhaka|cat-adj|gen-any|num-any|pers-|case-o|vib-|tam-|chunkId-JJP|stype-|voicetype-	3	nmod	_	_
3	sitI	sitI	n	NN	lex-sitI|cat-n|gen-f|num-sg|pers-3|case-o|vib-0|tam-0|chunkId-NP2|stype-|voicetype-	4	ccof	_	_
4	Ora	Ora	avy	CC	lex-Ora|cat-avy|gen-|num-|pers-|case-|vib-|tam-|chunkId-CCP|stype-|voicetype-	6	nmod	_	_
5	saxara	saxara	n	NN	lex-saxara|cat-n|gen-m|num-sg|pers-3|case-o|vib-0|tam-0|chunkId-NP3|stype-|voicetype-	4	ccof	_	_
6	pANdeya	pAMdeya	n	NNP	lex-pAMdeya|cat-n|gen-any|num-sg|pers-3|case-o|vib-0_kA|tam-0|chunkId-NP4|stype-|voicetype-	7	r6	_	_
7	newqwva	newqwva	n	NN	lex-newqwva|cat-n|gen-m|num-sg|pers-3|case-o|vib-0_meM|tam-0|chunkId-NP5|stype-|voicetype-	12	k7	_	_
8	Sahara	Sahara	n	NN	lex-Sahara|cat-n|gen-m|num-sg|pers-3|case-o|vib-0_meM|tam-0|chunkId-NP6|stype-|voicetype-	12	k7p	_	_
9	CedZaCAdZa	CedaCAda	n	NN	lex-CedaCAda|cat-n|gen-f|num-sg|pers-3|case-d|vib-0|tam-0|chunkId-NP7|stype-|voicetype-	10	pof	_	_
10	karane	kara	v	VM	lex-kara|cat-v|gen-any|num-any|pers-any|case-o|vib-nA_vAlA_ke_viruxXa|tam-nA|chunkId-VGNN|stype-|voicetype-	12	vmod	_	_
11	aBiyAna	aBiyAna	n	NN	lex-aBiyAna|cat-n|gen-m|num-sg|pers-3|case-d|vib-0|tam-0|chunkId-NP8|stype-|voicetype-	12	k2	_	_
12	calAyA	calA	v	VM	lex-calA|cat-v|gen-m|num-sg|pers-any|case-|vib-yA_jA+yA1|tam-yA|chunkId-VGF|stype-declarative|voicetype-passive	0	main	_	_
13	.	.	punc	SYM	lex-.|cat-punc|gen-|num-|pers-|case-|vib-|tam-|chunkId-BLK|stype-|voicetype-	12	rsym	_	_

1	pulisa	pulisa	n	NN	lex-pulisa|cat-n|gen-f|num-sg|pers-3|case-o|vib-0_ne|tam-0|chunkId-NP|stype-|voicetype-	5	k1	_	_
2	xOrAna	xOrAna	nst	NST	lex-xOrAna|cat-nst|gen-m|num-sg|pers-3|case-d|vib-|tam-|chunkId-NP2|stype-|voicetype-	5	k7t	_	_
3	naMbara	naMbara	n	NN	lex-naMbara|cat-n|gen-m|num-sg|pers-3|case-o|vib-0_kA|tam-0|chunkId-NP3|stype-|voicetype-	5	ras-NEG	_	_
4	vAhanoM	vAhana	n	NN	lex-vAhana|cat-n|gen-m|num-pl|pers-3|case-o|vib-0_ko|tam-0|chunkId-NP4|stype-|voicetype-	5	k2	_	_
5	pakadZA	pakada	v	VM	lex-pakada|cat-v|gen-m|num-sg|pers-any|case-|vib-yA|tam-yA|chunkId-VGF|stype-declarative|voicetype-active	0	main	_	_
6	.	.	punc	SYM	lex-.|cat-punc|gen-|num-|pers-|case-|vib-|tam-|chunkId-BLK|stype-|voicetype-	5	rsym	_	_

1	cAlAna	cAlAna	n	NN	lex-cAlAna|cat-n|gen-m|num-sg|pers-3|case-d|vib-0|tam-0|chunkId-NP|stype-|voicetype-	2	pof	_	_
2	kara	kara	v	VM	lex-kara|cat-v|gen-any|num-any|pers-any|case-|vib-0|tam-0|chunkId-VGNF|stype-|voicetype-	4	vmod	_	_
3	unheM	vaha	pn	PRP	lex-vaha|cat-pn|gen-any|num-pl|pers-3|case-o|vib-ko|tam-ko|chunkId-NP2|stype-|voicetype-	4	k2	_	_
4	CodZa	CodZa	v	VM	lex-CodZa|cat-v|gen-m|num-sg|pers-any|case-|vib-0_xe+yA_jA+yA1|tam-0|chunkId-VGF|stype-declarative|voicetype-passive	0	main	_	_
5	.	.	punc	SYM	lex-.|cat-punc|gen-|num-|pers-|case-|vib-|tam-|chunkId-BLK|stype-|voicetype-	4	rsym	_	_

