1	kiwAba	kiwAba	n	NN	lex-kiwAba|cat-n|gen-f|num-sg|pers-3|case-o|vib-0_ke_lie|tam-0|chunkId-NP|stype-|voicetype-	3	rt	_	_
2	avArda	avArda	n	NNP	lex-avArda|cat-n|gen-m|num-sg|pers-3|case-d|vib-0|tam-0|chunkId-NP2|stype-|voicetype-	3	k2	_	_
3	jIwakara	jIwa	v	VM	lex-jIwa|cat-v|gen-any|num-any|pers-any|case-|vib-kara|tam-kara|chunkId-VGNF|stype-|voicetype-	5	vmod	_	_
4	surKiyoM	surKI	n	NN	lex-surKI|cat-n|gen-f|num-pl|pers-3|case-o|vib-0_meM|tam-0|chunkId-NP3|stype-|voicetype-	5	k7	_	_
5	Ane	A	v	VM	lex-A|cat-v|gen-any|num-sg|pers-any|case-o|vib-nA_vAlA|tam-nA|chunkId-VGNN|stype-|voicetype-	6	nmod	_	_
6	rAya	rAya	n	NNP	lex-rAya|cat-n|gen-any|num-sg|pers-3|case-o|vib-0_ne|tam-0|chunkId-NP4|stype-|voicetype-	10	k1	_	_
7	puraskAra	puraskAra	n	NNP	lex-puraskAra|cat-n|gen-m|num-sg|pers-3|case-d|vib-0|tam-0|chunkId-NP5|stype-|voicetype-	8	k2	_	_
8	lene	le	v	VM	lex-le|cat-v|gen-any|num-any|pers-any|case-o|vib-nA_se|tam-nA|chunkId-VGNN2|stype-|voicetype-	10	rt	_	_
9	inakAra	inakAra	n	NN	lex-inakAra|cat-n|gen-m|num-sg|pers-3|case-d|vib-0|tam-0|chunkId-NP6|stype-|voicetype-	10	pof	_	_
10	kara	kara	v	VM	lex-kara|cat-v|gen-m|num-sg|pers-3|case-|vib-0_xe+yA_hE|tam-0|chunkId-VGF|stype-declarative|voicetype-active	0	main	_	_
11	.	.	punc	SYM	lex-.|cat-punc|gen-|num-|pers-|case-|vib-|tam-|chunkId-BLK|stype-|voicetype-	10	rsym	_	_

1	vajaha	vajaha	n	NN	lex-vajaha|cat-n|gen-f|num-sg|pers-3|case-d|vib-0|tam-0|chunkId-NP|stype-|voicetype-	3	k2	_	_
2	sAPa	sAPa	adj	JJ	lex-sAPa|cat-adj|gen-any|num-any|pers-|case-|vib-|tam-|chunkId-JJP|stype-|voicetype-	3	pof	_	_
3	karawe	kara	v	VM	lex-kara|cat-v|gen-m|num-sg|pers-any|case-|vib-wA_ho+yA|tam-wA|chunkId-VGNF|stype-|voicetype-	5	vmod	_	_
4	unhoMne	vaha	pn	PRP	lex-vaha|cat-pn|gen-any|num-sg|pers-3h|case-o|vib-ne|tam-ne|chunkId-NP2|stype-|voicetype-	5	k1	_	_
5	kahA	kaha	v	VM	lex-kaha|cat-v|gen-m|num-sg|pers-any|case-|vib-yA|tam-yA|chunkId-VGF|stype-declarative|voicetype-active	0	main	_	_
6	ki	ki	avy	CC	lex-ki|cat-avy|gen-|num-|pers-|case-|vib-|tam-|chunkId-CCP|stype-|voicetype-	5	k2	_	_
7	BArawa	BArawa	n	NNP	lex-BArawa|cat-n|gen-m|num-sg|pers-3|case-o|vib-0_kA|tam-0|chunkId-NP3|stype-|voicetype-	8	r6	_	_
8	lAina	lAina	n	NN	lex-lAina|cat-n|gen-f|num-sg|pers-3|case-o|vib-0_para|tam-0|chunkId-NP4|stype-|voicetype-	9	k7	_	_
9	calane	cala	v	VM	lex-cala|cat-v|gen-m|num-any|pers-any|case-o|vib-nA_ke_kAraNa|tam-nA|chunkId-VGNN|stype-|voicetype-	21	rh	_	_
10	masalana	masalana	adv	RB	lex-masalana|cat-adv|gen-|num-|pers-|case-|vib-|tam-|chunkId-RBP|stype-|voicetype-	21	adv	_	_
11	SramikoM	Sramika	n	NN	lex-Sramika|cat-n|gen-m|num-pl|pers-3|case-o|vib-0_se|tam-0|chunkId-NP5|stype-|voicetype-	12	nmod	_	_
12	barbarawA	barbarawA	n	NN	lex-barbarawA|cat-n|gen-f|num-sg|pers-3|case-o|vib-0_kA|tam-0|chunkId-NP6|stype-|voicetype-	13	r6	_	_
13	nIwi	nIwi	n	NN	lex-nIwi|cat-n|gen-f|num-sg|pers-3|case-d|vib-0|tam-0|chunkId-NP7|stype-|voicetype-	16	ccof	_	_
14	baDZawA	baDZa	v	VM	lex-baDZa|cat-v|gen-m|num-sg|pers-any|case-|vib-wA_ho+yA|tam-wA|chunkId-VGNF2|stype-|voicetype-	15	nmod__k1inv	_	_
15	sEnyakaraNa	sEnyakaraNa	n	NN	lex-sEnyakaraNa|cat-n|gen-m|num-sg|pers-3|case-d|vib-0|tam-0|chunkId-NP8|stype-|voicetype-	16	ccof	_	_
16	Ora	Ora	avy	CC	lex-Ora|cat-avy|gen-|num-|pers-|case-|vib-|tam-|chunkId-CCP2|stype-|voicetype-	19	k2	_	_
17	nIwiyoM	nIwi	n	NN	lex-nIwi|cat-n|gen-f|num-pl|pers-3|case-o|vib-0_se|tam-0|chunkId-NP9|stype-|voicetype-	16	ccof	_	_
18	KaPA	KaPA	adj	JJ	lex-KaPA|cat-adj|gen-any|num-any|pers-|case-|vib-|tam-|chunkId-JJP2|stype-|voicetype-	19	pof	_	_
19	hokara	ho	v	VM	lex-ho|cat-v|gen-any|num-any|pers-any|case-|vib-kara|tam-kara|chunkId-VGNF3|stype-|voicetype-	21	vmod	_	_
20	puraskAra	puraskAra	n	NN	lex-puraskAra|cat-n|gen-m|num-sg|pers-3|case-d|vib-0|tam-0|chunkId-NP10|stype-|voicetype-	21	k2	_	_
21	TukarA	TukarA	v	VM	lex-TukarA|cat-v|gen-m|num-sg|pers-3|case-|vib-0_xe+yA_hE|tam-0|chunkId-VGF2|stype-declarative|voicetype-active	6	ccof	_	_
22	.	.	punc	SYM	lex-.|cat-punc|gen-|num-|pers-|case-|vib-|tam-|chunkId-BLK|stype-|voicetype-	5	rsym	_	_

1	aruMXawi	aruMXawi	n	NNP	lex-aruMXawi|cat-n|gen-f|num-sg|pers-3|case-o|vib-0_ne|tam-0|chunkId-NP|stype-|voicetype-	10	k1	_	_
2	akAxamI	akAxamI	n	NN	lex-akAxamI|cat-n|gen-f|num-sg|pers-3|case-o|vib-0_kA|tam-0|chunkId-NP2|stype-|voicetype-	3	r6	_	_
3	saciva	saciva	n	NN	lex-saciva|cat-n|gen-m|num-sg|pers-3|case-o|vib-0|tam-0|chunkId-NP3|stype-|voicetype-	4	nmod	_	_
4	sacixAnaMxana	sacixAnaMxana	n	NNP	lex-sacixAnaMxana|cat-n|gen-m|num-sg|pers-3|case-o|vib-0_ko|tam-0|chunkId-NP4|stype-|voicetype-	6	k4	_	_
5	PEksa	PEksa	n	NN	lex-PEksa|cat-n|gen-m|num-sg|pers-3|case-d|vib-0|tam-0|chunkId-NP5|stype-|voicetype-	6	k2	_	_
6	Bejakara	Beja	v	VM	lex-Beja|cat-v|gen-any|num-any|pers-any|case-|vib-kara|tam-kara|chunkId-VGNF|stype-|voicetype-	10	vmod	_	_
7	puraskAra	puraskAra	n	NN	lex-puraskAra|cat-n|gen-m|num-sg|pers-3|case-d|vib-0|tam-0|chunkId-NP6|stype-|voicetype-	8	k2	_	_
8	lene	le	v	VM	lex-le|cat-v|gen-any|num-sg|pers-any|case-o|vib-nA_kA|tam-nA|chunkId-VGNN|stype-|voicetype-	9	r6-k2	_	_
9	GoRaNA	GoRaNA	n	NN	lex-GoRaNA|cat-n|gen-f|num-sg|pers-3|case-d|vib-0|tam-0|chunkId-NP7|stype-|voicetype-	10	pof	_	_
10	kI	kara	v	VM	lex-kara|cat-v|gen-f|num-sg|pers-3|case-|vib-yA_hE|tam-yA|chunkId-VGF|stype-declarative|voicetype-active	0	main	_	_
11	.	.	punc	SYM	lex-.|cat-punc|gen-|num-|pers-|case-|vib-|tam-|chunkId-BLK|stype-|voicetype-	10	rsym	_	_

1	haPwe	haPwA	n	NN	lex-haPwA|cat-n|gen-m|num-sg|pers-3|case-o|vib-0|tam-0|chunkId-NP|stype-|voicetype-	11	k7t	_	_
2	akAxamI	akAxamI	n	NNP	lex-akAxamI|cat-n|gen-f|num-sg|pers-3|case-o|vib-0_kA|tam-0|chunkId-NP2|stype-|voicetype-	3	r6	_	_
3	jUrI	jUrI	n	NN	lex-jUrI|cat-n|gen-f|num-sg|pers-3|case-o|vib-0_ne|tam-0|chunkId-NP3|stype-|voicetype-	11	k1	_	_
4	2005	2005	n	NNP	lex-2005|cat-n|gen-m|num-sg|pers-3|case-o|vib-0_ke_lie|tam-0|chunkId-NP4|stype-|voicetype-	11	rt	_	_
5	unakI	vaha	pn	PRP	lex-vaha|cat-pn|gen-f|num-sg|pers-3h|case-o|vib-kA|tam-kA|chunkId-NP5|stype-|voicetype-	6	r6	_	_
6	puswaka	puswaka	n	NN	lex-puswaka|cat-n|gen-f|num-sg|pers-3|case-o|vib-0|tam-0|chunkId-NP6|stype-|voicetype-	7	nmod	_	_
7	jastisa	jastisa	n	NNP	lex-jastisa|cat-n|gen-m|num-sg|pers-3|case-o|vib-0_ko|tam-0|chunkId-NP7|stype-|voicetype-	9	k4	_	_
8	puraskAra	puraskAra	n	NN	lex-puraskAra|cat-n|gen-m|num-sg|pers-3|case-d|vib-0|tam-0|chunkId-NP8|stype-|voicetype-	9	k2	_	_
9	xene	xe	v	VM	lex-xe|cat-v|gen-any|num-sg|pers-any|case-o|vib-nA_kA|tam-nA|chunkId-VGNN|stype-|voicetype-	10	r6-k2	_	_
10	GoRaNA	GoRaNA	n	NN	lex-GoRaNA|cat-n|gen-f|num-sg|pers-3|case-d|vib-0|tam-0|chunkId-NP9|stype-|voicetype-	11	pof	_	_
11	kI	kara	v	VM	lex-kara|cat-v|gen-f|num-sg|pers-any|case-|vib-yA_WA|tam-yA|chunkId-VGF|stype-declarative|voicetype-active	0	main	_	_
12	.	.	punc	SYM	lex-.|cat-punc|gen-|num-|pers-|case-|vib-|tam-|chunkId-BLK|stype-|voicetype-	11	rsym	_	_

1	yaha	yaha	pn	PRP	lex-yaha|cat-pn|gen-any|num-sg|pers-3|case-d|vib-0|tam-0|chunkId-NP|stype-|voicetype-	4	k1	_	_
2	leKoM	leKA	n	NN	lex-leKA|cat-n|gen-m|num-pl|pers-3|case-o|vib-0_kA|tam-0|chunkId-NP2|stype-|voicetype-	3	r6	_	_
3	saMgraha	saMgraha	n	NN	lex-saMgraha|cat-n|gen-m|num-sg|pers-3|case-d|vib-0|tam-0|chunkId-NP3|stype-|voicetype-	4	k1s	_	_
4	hE	hE	v	VM	lex-hE|cat-v|gen-any|num-sg|pers-3|case-|vib-hE|tam-hE|chunkId-VGF|stype-declarative|voicetype-active	0	main	_	_
5	.	.	punc	SYM	lex-.|cat-punc|gen-|num-|pers-|case-|vib-|tam-|chunkId-BLK|stype-|voicetype-	4	rsym	_	_

1	puswaka	puswaka	n	NN	lex-puswaka|cat-n|gen-f|num-sg|pers-3|case-o|vib-0_meM|tam-0|chunkId-NP|stype-|voicetype-	2	jjmod	_	_
2	saMgrahiwa	saMgrahiwa	adj	JJ	lex-saMgrahiwa|cat-adj|gen-any|num-any|pers-|case-d|vib-|tam-|chunkId-JJP|stype-|voicetype-	3	nmod	_	_
3	leKa	leKa	n	NN	lex-leKa|cat-n|gen-m|num-pl|pers-3|case-d|vib-0|tam-0|chunkId-NP2|stype-|voicetype-	7	k2	_	_
4	1998	1998	n	NNP	lex-1998|cat-n|gen-any|num-sg|pers-3|case-d|vib-0|tam-0|chunkId-NP3|stype-|voicetype-	5	ccof	_	_
5	Ora	Ora	avy	CC	lex-Ora|cat-avy|gen-|num-|pers-|case-|vib-|tam-|chunkId-CCP|stype-|voicetype-	7	k7	_	_
6	2001	2001	n	NNP	lex-2001|cat-n|gen-any|num-sg|pers-3|case-o|vib-0_ke_bIca|tam-0|chunkId-NP4|stype-|voicetype-	5	ccof	_	_
7	liKe	liKa	v	VM	lex-liKa|cat-v|gen-m|num-pl|pers-3|case-|vib-yA_jA+yA1_hE|tam-yA|chunkId-VGF|stype-declarative|voicetype-active	8	ccof	_	_
8	Ora	Ora	avy	CC	lex-Ora|cat-avy|gen-|num-|pers-|case-|vib-|tam-|chunkId-CCP2|stype-|voicetype-	0	main	_	_
9	unameM	vaha	pn	PRP	lex-vaha|cat-pn|gen-any|num-pl|pers-3|case-o|vib-meM|tam-meM|chunkId-NP5|stype-|voicetype-	13	k7	_	_
10	sarakAra	sarakAra	n	NNP	lex-sarakAra|cat-n|gen-f|num-sg|pers-3|case-o|vib-0_kA|tam-0|chunkId-NP6|stype-|voicetype-	11	r6	_	_
11	nIwiyoM	nIwi	n	NN	lex-nIwi|cat-n|gen-f|num-pl|pers-3|case-o|vib-0_kA|tam-0|chunkId-NP7|stype-|voicetype-	12	r6-k2	_	_
12	AlocanA	AlocanA	n	NN	lex-AlocanA|cat-n|gen-f|num-sg|pers-3|case-d|vib-0|tam-0|chunkId-NP8|stype-|voicetype-	13	pof	_	_
13	kI	kara	v	VM	lex-kara|cat-v|gen-f|num-sg|pers-3|case-|vib-yA_jA+yA1_hE|tam-yA|chunkId-VGF2|stype-declarative|voicetype-active	8	ccof	_	_
14	.	.	punc	SYM	lex-.|cat-punc|gen-|num-|pers-|case-|vib-|tam-|chunkId-BLK|stype-|voicetype-	8	rsym	_	_

1	aruMXawi	aruMXawi	n	NNP	lex-aruMXawi|cat-n|gen-f|num-sg|pers-3|case-o|vib-0_ne|tam-0|chunkId-NP|stype-|voicetype-	10	k1	_	_
2	puraskAra	puraskAra	n	NN	lex-puraskAra|cat-n|gen-m|num-sg|pers-3|case-d|vib-0|tam-0|chunkId-NP2|stype-|voicetype-	3	k2	_	_
3	xene	xe	v	VM	lex-xe|cat-v|gen-any|num-sg|pers-any|case-o|vib-nA_kA|tam-nA|chunkId-VGNN|stype-|voicetype-	4	r6	_	_
4	PEsale	PEsalA	n	NN	lex-PEsalA|cat-n|gen-m|num-sg|pers-3|case-o|vib-0_ke_lie|tam-0|chunkId-NP3|stype-|voicetype-	10	rt	_	_
5	akAxamI	akAxamI	n	NN	lex-akAxamI|cat-n|gen-f|num-sg|pers-3|case-o|vib-0_kA|tam-0|chunkId-NP4|stype-|voicetype-	6	r6	_	_
6	varRa	varRa	n	NN	lex-varRa|cat-n|gen-m|num-sg|pers-3|case-o|vib-0_kA|tam-0|chunkId-NP5|stype-|voicetype-	7	r6	_	_
7	maMdala	maMdala	n	NN	lex-maMdala|cat-n|gen-m|num-sg|pers-3|case-o|vib-0_ke_prawi|tam-0|chunkId-NP6|stype-|voicetype-	9	rd	_	_
8	ABAra	ABAra	n	NN	lex-ABAra|cat-n|gen-m|num-sg|pers-3|case-d|vib-0|tam-0|chunkId-NP7|stype-|voicetype-	9	pof	_	_
9	jawAwe	jawA	v	VM	lex-jawA|cat-v|gen-m|num-sg|pers-any|case-|vib-wA_ho+yA|tam-wA|chunkId-VGNF|stype-|voicetype-	10	vmod	_	_
10	kahA	kaha	v	VM	lex-kaha|cat-v|gen-m|num-sg|pers-3|case-|vib-yA_hE|tam-yA|chunkId-VGF|stype-declarative|voicetype-active	0	main	_	_
11	ki	ki	avy	CC	lex-ki|cat-avy|gen-|num-|pers-|case-|vib-|tam-|chunkId-CCP|stype-|voicetype-	10	k2	_	_
12	unake	vaha	pn	PRP	lex-vaha|cat-pn|gen-m|num-sg|pers-3h|case-o|vib-kA|tam-kA|chunkId-NP8|stype-|voicetype-	13	r6	_	_
13	xila	xila	n	NN	lex-xila|cat-n|gen-m|num-sg|pers-3|case-o|vib-0_meM|tam-0|chunkId-NP9|stype-|voicetype-	20	k7	_	_
14	jUrI	jUrI	n	NN	lex-jUrI|cat-n|gen-f|num-sg|pers-3|case-o|vib-0|tam-0|chunkId-NP10|stype-|voicetype-	15	ccof	_	_
15	Ora	Ora	avy	CC	lex-Ora|cat-avy|gen-|num-|pers-|case-|vib-|tam-|chunkId-CCP2|stype-|voicetype-	20	rd	_	_
16	puraskAra	puraskAra	n	NN	lex-puraskAra|cat-n|gen-m|num-sg|pers-3|case-o|vib-0_se|tam-0|chunkId-NP11|stype-|voicetype-	17	jjmod	_	_
17	sammAniwa	sammAniwa	adj	JJ	lex-sammAniwa|cat-adj|gen-any|num-any|pers-|case-o|vib-|tam-|chunkId-JJP|stype-|voicetype-	18	nmod	_	_
18	leKakoM	leKaka	n	NN	lex-leKaka|cat-n|gen-m|num-pl|pers-3|case-o|vib-0_ke_prawi|tam-0|chunkId-NP12|stype-|voicetype-	15	ccof	_	_
19	sammAna	sammAna	n	NN	lex-sammAna|cat-n|gen-m|num-sg|pers-3|case-d|vib-0|tam-0|chunkId-NP13|stype-|voicetype-	20	k1	_	_
20	hE	hE	v	VM	lex-hE|cat-v|gen-any|num-sg|pers-3|case-|vib-hE|tam-hE|chunkId-VGF2|stype-declarative|voicetype-active	11	ccof	_	_
21	.	.	punc	SYM	lex-.|cat-punc|gen-|num-|pers-|case-|vib-|tam-|chunkId-BLK|stype-|voicetype-	10	rsym	_	_

1	lekina	lekina	avy	CC	lex-lekina|cat-avy|gen-|num-|pers-|case-|vib-|tam-|chunkId-CCP|stype-|voicetype-	0	main	_	_
2	sarakAra	sarakAra	n	NN	lex-sarakAra|cat-n|gen-f|num-sg|pers-3|case-o|vib-0_kA|tam-0|chunkId-NP|stype-|voicetype-	3	r6	_	_
3	nIwiyoM	nIwi	n	NN	lex-nIwi|cat-n|gen-f|num-pl|pers-3|case-o|vib-0_ke_viroXasvarUpa|tam-0|chunkId-NP2|stype-|voicetype-	7	rh	_	_
4	mEMne	mEM	pn	PRP	lex-mEM|cat-pn|gen-any|num-sg|pers-1|case-o|vib-ne|tam-ne|chunkId-NP3|stype-|voicetype-	7	k1	_	_
5	puraskAra	puraskAra	n	NN	lex-puraskAra|cat-n|gen-m|num-sg|pers-3|case-o|vib-0_ko|tam-0|chunkId-NP4|stype-|voicetype-	7	k2	_	_
6	asvIkAra	asvIkAra	n	NN	lex-asvIkAra|cat-n|gen-m|num-sg|pers-3|case-d|vib-0|tam-0|chunkId-NP5|stype-|voicetype-	7	pof	_	_
7	kara	kara	v	VM	lex-kara|cat-v|gen-m|num-sg|pers-3|case-|vib-0_xe+yA_hE|tam-0|chunkId-VGF|stype-declarative|voicetype-active	1	ccof	_	_
8	.	.	punc	SYM	lex-.|cat-punc|gen-|num-|pers-|case-|vib-|tam-|chunkId-BLK|stype-|voicetype-	1	rsym	_	_

1	aruMXawi	aruMXawi	n	NNP	lex-aruMXawi|cat-n|gen-f|num-sg|pers-3|case-o|vib-0_ne|tam-0|chunkId-NP|stype-|voicetype-	4	k1	_	_
2	jArI	jArI	adj	JJ	lex-jArI|cat-adj|gen-any|num-any|pers-|case-o|vib-|tam-|chunkId-JJP|stype-|voicetype-	3	nmod	_	_
3	vijFapwi	vijFapwi	n	NN	lex-vijFapwi|cat-n|gen-f|num-sg|pers-3|case-o|vib-0_meM|tam-0|chunkId-NP2|stype-|voicetype-	4	k7	_	_
4	bawAyA	bawA	v	VM	lex-bawA|cat-v|gen-m|num-sg|pers-3|case-|vib-yA_hE|tam-yA|chunkId-VGF|stype-declarative|voicetype-active	0	main	_	_
5	ki	ki	avy	CC	lex-ki|cat-avy|gen-|num-|pers-|case-|vib-|tam-|chunkId-CCP|stype-|voicetype-	4	k2	_	_
6	bAMXoM	bAMXa	n	NN	lex-bAMXa|cat-n|gen-m|num-pl|pers-3|case-o|vib-0_kA|tam-0|chunkId-NP3|stype-|voicetype-	7	r6	_	_
7	nirmANa	nirmANa	n	NN	lex-nirmANa|cat-n|gen-m|num-sg|pers-3|case-o|vib-0|tam-0|chunkId-NP4|stype-|voicetype-	11	ccof	_	_
8	haWiyAroM	haWiyAra	n	NN	lex-haWiyAra|cat-n|gen-m|num-pl|pers-3|case-o|vib-0|tam-0|chunkId-NP5|stype-|voicetype-	11	ccof	_	_
9	baDZawe	baDZa	v	VM	lex-baDZa|cat-v|gen-m|num-sg|pers-any|case-|vib-wA|tam-wA|chunkId-VGNF|stype-|voicetype-	10	nmod__k1inv	_	_
10	sEnyakaraNa	sEnyakaraNa	n	NN	lex-sEnyakaraNa|cat-n|gen-m|num-sg|pers-3|case-o|vib-0|tam-0|chunkId-NP6|stype-|voicetype-	11	ccof	_	_
11	Ora	Ora	avy	CC	lex-Ora|cat-avy|gen-|num-|pers-|case-|vib-|tam-|chunkId-CCP2|stype-|voicetype-	13	r6	_	_
12	uxAravAxa	uxAravAxa	n	NN	lex-uxAravAxa|cat-n|gen-m|num-sg|pers-3|case-o|vib-0_kA|tam-0|chunkId-NP7|stype-|voicetype-	11	ccof	_	_
13	sarakAra	sarakAra	n	NNP	lex-sarakAra|cat-n|gen-f|num-sg|pers-3|case-o|vib-0_kA|tam-0|chunkId-NP8|stype-|voicetype-	14	r6	_	_
14	nIwiyoM	nIwi	n	NN	lex-nIwi|cat-n|gen-f|num-pl|pers-3|case-o|vib-0_kA|tam-0|chunkId-NP9|stype-|voicetype-	16	r6-k2	_	_
15	vaha	vaha	pn	PRP	lex-vaha|cat-pn|gen-any|num-sg|pers-3|case-d|vib-0|tam-0|chunkId-NP10|stype-|voicetype-	17	k1	_	_
16	viroXa	viroXa	n	NN	lex-viroXa|cat-n|gen-m|num-sg|pers-3|case-d|vib-0|tam-0|chunkId-NP11|stype-|voicetype-	17	pof	_	_
17	karawI	kara	v	VM	lex-kara|cat-v|gen-f|num-sg|pers-3h|case-|vib-wA_hE|tam-wA|chunkId-VGF2|stype-declarative|voicetype-active	5	ccof	_	_
18	.	.	punc	SYM	lex-.|cat-punc|gen-|num-|pers-|case-|vib-|tam-|chunkId-BLK|stype-|voicetype-	4	rsym	_	_

1	unakA	vaha	pn	PRP	lex-vaha|cat-pn|gen-any|num-sg|pers-3h|case-o|vib-kA|tam-kA|chunkId-NP|stype-|voicetype-	2	k1	_	_
2	kahanA	kaha	v	VM	lex-kaha|cat-v|gen-any|num-any|pers-any|case-d|vib-nA|tam-nA|chunkId-VGNN|stype-|voicetype-	3	k1	_	_
3	hE	hE	v	VM	lex-hE|cat-v|gen-any|num-sg|pers-3|case-|vib-hE|tam-hE|chunkId-VGF|stype-declarative|voicetype-active	0	main	_	_
4	ki	ki	avy	CC	lex-ki|cat-avy|gen-|num-|pers-|case-|vib-|tam-|chunkId-CCP|stype-|voicetype-	2	k2	_	_
5	aba	aba	pn	PRP	lex-aba|cat-pn|gen-|num-|pers-|case-d|vib-|tam-|chunkId-NP2|stype-|voicetype-	10	k7t	_	_
6	sarakAra	sarakAra	n	NN	lex-sarakAra|cat-n|gen-f|num-sg|pers-3|case-d|vib-0|tam-0|chunkId-NP3|stype-|voicetype-	10	k1	_	_
7	apanI	apanA	pn	PRP	lex-apanA|cat-pn|gen-f|num-any|pers-any|case-o|vib-0|tam-0|chunkId-NP4|stype-|voicetype-	8	r6	_	_
8	nIwiyoM	nIwi	n	NN	lex-nIwi|cat-n|gen-f|num-pl|pers-3|case-o|vib-0_ke_lie|tam-0|chunkId-NP5|stype-|voicetype-	10	rt	_	_
9	prawibaxXa	prawibaxXa	adj	JJ	lex-prawibaxXa|cat-adj|gen-any|num-any|pers-|case-|vib-|tam-|chunkId-JJP|stype-|voicetype-	10	k1s	_	_
10	hE	hE	v	VM	lex-hE|cat-v|gen-any|num-sg|pers-3|case-|vib-hE|tam-hE|chunkId-VGF2|stype-declarative|voicetype-active	11	ccof	_	_
11	Ora	Ora	avy	CC	lex-Ora|cat-avy|gen-|num-|pers-|case-|vib-|tam-|chunkId-CCP2|stype-|voicetype-	4	ccof	_	_
12	sarakAra	sarakAra	n	NN	lex-sarakAra|cat-n|gen-f|num-sg|pers-3|case-d|vib-0|tam-0|chunkId-NP6|stype-|voicetype-	17	k1	_	_
13	kImawa	kImawa	n	NN	lex-kImawa|cat-n|gen-f|num-sg|pers-3|case-o|vib-0_para|tam-0|chunkId-NP7|stype-|voicetype-	16	k7	_	_
14	inheM	yaha	pn	PRP	lex-yaha|cat-pn|gen-any|num-pl|pers-3|case-o|vib-ko|tam-ko|chunkId-NP8|stype-|voicetype-	16	k2	_	_
15	lAgU	lAgU	adj	JJ	lex-lAgU|cat-adj|gen-any|num-any|pers-|case-|vib-|tam-|chunkId-JJP2|stype-|voicetype-	16	pof	_	_
16	karanA	kara	v	VM	lex-kara|cat-v|gen-any|num-any|pers-any|case-d|vib-nA|tam-nA|chunkId-VGNN2|stype-|voicetype-	17	k2	_	_
17	cAhawI	cAha	v	VM	lex-cAha|cat-v|gen-f|num-sg|pers-3|case-|vib-wA_hE|tam-wA|chunkId-VGF3|stype-declarative|voicetype-active	11	ccof	_	_
18	.	.	punc	SYM	lex-.|cat-punc|gen-|num-|pers-|case-|vib-|tam-|chunkId-BLK|stype-|voicetype-	3	rsym	_	_

1	hI	hI	avy	RP	lex-hI|cat-avy|gen-|num-|pers-|case-|vib-|tam-|chunkId-BLK|stype-|voicetype-	6	vmod	_	_
2	isake	yaha	pn	PRP	lex-yaha|cat-pn|gen-any|num-sg|pers-3|case-o|vib-ke_lie|tam-ke|chunkId-NP|stype-|voicetype-	6	rt	_	_
3	hiMsA	hiMsA	n	NN	lex-hiMsA|cat-n|gen-f|num-sg|pers-3|case-o|vib-0_kA|tam-0|chunkId-NP2|stype-|voicetype-	4	r6-k1	_	_
4	sahArA	sahArA	n	NN	lex-sahArA|cat-n|gen-m|num-sg|pers-3|case-d|vib-0|tam-0|chunkId-NP3|stype-|voicetype-	6	pof	_	_
5	na	na	avy	RP	lex-na|cat-avy|gen-|num-|pers-|case-|vib-|tam-|chunkId-RBP|stype-|voicetype-	6	adv	_	_
6	lenA	le	v	VM	lex-le|cat-v|gen-m|num-sg|pers-3|case-|vib-nA_padZa+eM|tam-nA|chunkId-VGF|stype-interrogative|voicetype-active	0	main	_	_
7	.	.	punc	SYM	lex-.|cat-punc|gen-|num-|pers-|case-|vib-|tam-|chunkId-BLK2|stype-|voicetype-	6	rsym	_	_

1	unhoMne	vaha	pn	PRP	lex-vaha|cat-pn|gen-any|num-sg|pers-3h|case-o|vib-ne|tam-ne|chunkId-NP|stype-|voicetype-	2	k1	_	_
2	kahA	kaha	v	VM	lex-kaha|cat-v|gen-m|num-sg|pers-3|case-|vib-yA_hE|tam-yA|chunkId-VGF|stype-declarative|voicetype-active	0	main	_	_
3	ki	ki	avy	CC	lex-ki|cat-avy|gen-|num-|pers-|case-|vib-|tam-|chunkId-CCP|stype-|voicetype-	2	k2	_	_
4	sarakAra	sarakAra	n	NN	lex-sarakAra|cat-n|gen-f|num-sg|pers-3|case-o|vib-0_kA|tam-0|chunkId-NP2|stype-|voicetype-	5	r6	_	_
5	nIwiyoM	nIwi	n	NN	lex-nIwi|cat-n|gen-f|num-pl|pers-3|case-o|vib-0_kA_vajaha_se|tam-0|chunkId-NP3|stype-|voicetype-	8	rh	_	_
6	kisAna	kisAna	n	NN	lex-kisAna|cat-n|gen-m|num-pl|pers-3|case-d|vib-0|tam-0|chunkId-NP4|stype-|voicetype-	8	k1	_	_
7	AwmahawyA	AwmahawyA	n	NN	lex-AwmahawyA|cat-n|gen-f|num-sg|pers-3|case-d|vib-0|tam-0|chunkId-NP5|stype-|voicetype-	8	pof	_	_
8	kara	kara	v	VM	lex-kara|cat-v|gen-m|num-pl|pers-3|case-|vib-0_raha+yA_hE|tam-0|chunkId-VGF2|stype-declarative|voicetype-active	3	ccof	_	_
9	.	.	punc	SYM	lex-.|cat-punc|gen-|num-|pers-|case-|vib-|tam-|chunkId-BLK|stype-|voicetype-	2	rsym	_	_

1	logoM	loga	n	NN	lex-loga|cat-n|gen-m|num-pl|pers-3|case-o|vib-0_ko|tam-0|chunkId-NP|stype-|voicetype-	5	k2	_	_
2	unake	vaha	pn	PRP	lex-vaha|cat-pn|gen-any|num-sg|pers-3h|case-o|vib-kA|tam-kA|chunkId-NP2|stype-|voicetype-	3	r6	_	_
3	TikAne	TikAnA	n	NN	lex-TikAnA|cat-n|gen-m|num-sg|pers-3|case-o|vib-0_se|tam-0|chunkId-NP3|stype-|voicetype-	5	k5	_	_
4	visWApiwa	visWApiwa	adj	JJ	lex-visWApiwa|cat-adj|gen-any|num-any|pers-|case-|vib-|tam-|chunkId-JJP|stype-|voicetype-	5	pof	_	_
5	kiyA	kara	v	VM	lex-kara|cat-v|gen-m|num-sg|pers-3|case-|vib-yA_jA_raha+yA_hE|tam-yA|chunkId-VGF|stype-declarative|voicetype-passive	0	main	_	_
6	.	.	punc	SYM	lex-.|cat-punc|gen-|num-|pers-|case-|vib-|tam-|chunkId-BLK|stype-|voicetype-	5	rsym	_	_

1	gudZagAMva	gudZagAMva	n	NNP	lex-gudZagAMva|cat-n|gen-m|num-sg|pers-3|case-o|vib-0_meM|tam-0|chunkId-NP|stype-|voicetype-	4	nmod	_	_
2	SramikoM	Sramika	n	NN	lex-Sramika|cat-n|gen-m|num-pl|pers-3|case-o|vib-0_kA|tam-0|chunkId-NP2|stype-|voicetype-	3	r6	_	_
3	pulisa	pulisa	n	NN	lex-pulisa|cat-n|gen-f|num-sg|pers-3|case-o|vib-0_xvArA|tam-0|chunkId-NP3|stype-|voicetype-	4	nmod	_	_
4	pitAI	pitAI	n	NN	lex-pitAI|cat-n|gen-f|num-sg|pers-3|case-o|vib-0|tam-0|chunkId-NP4|stype-|voicetype-	11	ccof	_	_
5	maNipura	maNipura	n	NNP	lex-maNipura|cat-n|gen-m|num-sg|pers-3|case-o|vib-0_meM|tam-0|chunkId-NP5|stype-|voicetype-	8	k7	_	_
6	bAMXa	bAMXa	n	NN	lex-bAMXa|cat-n|gen-m|num-sg|pers-3|case-o|vib-0_kA|tam-0|chunkId-NP6|stype-|voicetype-	7	r6-k2	_	_
7	viroXa	viroXa	n	NN	lex-viroXa|cat-n|gen-m|num-sg|pers-3|case-d|vib-0|tam-0|chunkId-NP7|stype-|voicetype-	8	pof	_	_
8	kara	kara	v	VM	lex-kara|cat-v|gen-any|num-pl|pers-3|case-|vib-0_raha+yA|tam-0|chunkId-VGNF|stype-|voicetype-	10	nmod__k2inv	_	_
9	logoM	loga	n	NN	lex-loga|cat-n|gen-m|num-pl|pers-3|case-o|vib-0_kA|tam-0|chunkId-NP8|stype-|voicetype-	10	r6	_	_
10	hawyA	hawyA	n	NN	lex-hawyA|cat-n|gen-f|num-sg|pers-3|case-o|vib-0|tam-0|chunkId-NP9|stype-|voicetype-	11	ccof	_	_
11	Ora	Ora	avy	CC	lex-Ora|cat-avy|gen-|num-|pers-|case-|vib-|tam-|chunkId-CCP|stype-|voicetype-	22	k1u	_	_
12	udZIsA	udZIsA	n	NNP	lex-udZIsA|cat-n|gen-m|num-sg|pers-3|case-o|vib-0_meM|tam-0|chunkId-NP10|stype-|voicetype-	15	k7	_	_
13	plAMta	plAMta	n	NN	lex-plAMta|cat-n|gen-m|num-sg|pers-3|case-o|vib-0_kA|tam-0|chunkId-NP11|stype-|voicetype-	14	r6-k2	_	_
14	viroXa	viroXa	n	NN	lex-viroXa|cat-n|gen-m|num-sg|pers-3|case-d|vib-0|tam-0|chunkId-NP12|stype-|voicetype-	15	pof	_	_
15	kara	kara	v	VM	lex-kara|cat-v|gen-any|num-pl|pers-any|case-|vib-0_raha+yA|tam-0|chunkId-VGNF2|stype-|voicetype-	17	nmod__k2inv	_	_
16	logoM	loga	n	NN	lex-loga|cat-n|gen-m|num-pl|pers-3|case-o|vib-0_kA|tam-0|chunkId-NP13|stype-|voicetype-	17	r6	_	_
17	hawyA	hawyA	n	NN	lex-hawyA|cat-n|gen-f|num-sg|pers-3|case-o|vib-0_jEsA|tam-0|chunkId-NP14|stype-|voicetype-	11	ccof	_	_
18	GatanAeM	GatanA	n	NN	lex-GatanA|cat-n|gen-f|num-pl|pers-3|case-d|vib-0|tam-0|chunkId-NP15|stype-|voicetype-	22	k1	_	_
19	sarakAra	sarakAra	n	NN	lex-sarakAra|cat-n|gen-f|num-sg|pers-3|case-o|vib-0_kA|tam-0|chunkId-NP16|stype-|voicetype-	20	r6	_	_
20	ruKa	ruKa	n	NN	lex-ruKa|cat-n|gen-m|num-sg|pers-3|case-o|vib-0_kA|tam-0|chunkId-NP17|stype-|voicetype-	21	r6	_	_
21	pramANa	pramANa	n	NN	lex-pramANa|cat-n|gen-m|num-pl|pers-3|case-d|vib-0|tam-0|chunkId-NP18|stype-|voicetype-	22	k1s	_	_
22	hEM	hE	v	VM	lex-hE|cat-v|gen-any|num-pl|pers-3|case-|vib-hE|tam-hE|chunkId-VGF|stype-declarative|voicetype-active	0	main	_	_
23	.	.	punc	SYM	lex-.|cat-punc|gen-|num-|pers-|case-|vib-|tam-|chunkId-BLK|stype-|voicetype-	22	rsym	_	_

1	isake	yaha	pn	PRP	lex-yaha|cat-pn|gen-any|num-sg|pers-3|case-o|vib-ke_alAvA|tam-ke|chunkId-NP|stype-|voicetype-	11	vmod	_	_
2	jastisa	jastisa	n	NNP	lex-jastisa|cat-n|gen-m|num-sg|pers-3|case-o|vib-0_meM|tam-0|chunkId-NP2|stype-|voicetype-	7	k7	_	_
3	nyUyOYrka	nyUyOYrka	n	NNP	lex-nyUyOYrka|cat-n|gen-m|num-sg|pers-3|case-o|vib-0|tam-0|chunkId-NP3|stype-|voicetype-	4	ccof	_	_
4	Ora	Ora	avy	CC	lex-Ora|cat-avy|gen-|num-|pers-|case-|vib-|tam-|chunkId-CCP|stype-|voicetype-	7	k7p	_	_
5	vASiMgatana	vASiMgatana	n	NNP	lex-vASiMgatana|cat-n|gen-m|num-sg|pers-3|case-o|vib-0_meM|tam-0|chunkId-NP4|stype-|voicetype-	4	ccof	_	_
6	2001	2001	n	NNP	lex-2001|cat-n|gen-any|num-sg|pers-3|case-o|vib-0_ko|tam-0|chunkId-NP5|stype-|voicetype-	7	k7t	_	_
7	hue	ho	v	VM	lex-ho|cat-v|gen-m|num-pl|pers-any|case-|vib-yA|tam-yA|chunkId-VGNF|stype-|voicetype-	8	nmod__k1inv	_	_
8	hamaloM	hamalA	n	NN	lex-hamalA|cat-n|gen-m|num-pl|pers-3|case-o|vib-0_ke_bAxa_kA|tam-0|chunkId-NP6|stype-|voicetype-	9	r6	_	_
9	nIwi	nIwi	n	NN	lex-nIwi|cat-n|gen-f|num-sg|pers-3|case-o|vib-0_kA|tam-0|chunkId-NP7|stype-|voicetype-	10	r6-k2	_	_
10	AlocanA	AlocanA	n	NN	lex-AlocanA|cat-n|gen-f|num-sg|pers-3|case-d|vib-0|tam-0|chunkId-NP8|stype-|voicetype-	11	pof	_	_
11	kI	kara	v	VM	lex-kara|cat-v|gen-f|num-sg|pers-3|case-|vib-yA_jA+yA1_hE|tam-yA|chunkId-VGF|stype-declarative|voicetype-active	0	main	_	_
12	.	.	punc	SYM	lex-.|cat-punc|gen-|num-|pers-|case-|vib-|tam-|chunkId-BLK|stype-|voicetype-	11	rsym	_	_

1	aruMXawi	aruMXawi	n	NNP	lex-aruMXawi|cat-n|gen-f|num-sg|pers-3|case-o|vib-0_ko|tam-0|chunkId-NP|stype-|voicetype-	8	k2	_	_
2	1997	1997	n	NNP	lex-1997|cat-n|gen-any|num-sg|pers-3|case-o|vib-0_meM|tam-0|chunkId-NP2|stype-|voicetype-	8	k7	_	_
3	unake	vaha	pn	PRP	lex-vaha|cat-pn|gen-any|num-sg|pers-3h|case-o|vib-kA|tam-kA|chunkId-NP3|stype-|voicetype-	4	r6	_	_
4	upanyAsa	upanyAsa	n	NN	lex-upanyAsa|cat-n|gen-m|num-sg|pers-3|case-o|vib-0|tam-0|chunkId-NP4|stype-|voicetype-	5	nmod	_	_
5	WiMgsa	WiMga	n	NNP	lex-WiMga|cat-n|gen-f|num-pl|pers-3|case-o|vib-0_ke_lie|tam-0|chunkId-NP5|stype-|voicetype-	8	rt	_	_
6	puraskAra	puraskAra	n	NNP	lex-puraskAra|cat-n|gen-m|num-sg|pers-3|case-o|vib-0_se|tam-0|chunkId-NP6|stype-|voicetype-	8	k3	_	_
7	sammAniwa	sammAniwa	adj	JJ	lex-sammAniwa|cat-adj|gen-any|num-any|pers-|case-|vib-|tam-|chunkId-JJP|stype-|voicetype-	8	pof	_	_
8	kiyA	kara	v	VM	lex-kara|cat-v|gen-m|num-sg|pers-any|case-|vib-yA_jA+yA1_WA|tam-yA|chunkId-VGF|stype-declarative|voicetype-passive	0	main	_	_
9	.	.	punc	SYM	lex-.|cat-punc|gen-|num-|pers-|case-|vib-|tam-|chunkId-BLK|stype-|voicetype-	8	rsym	_	_

1	,	COMMA	punc	SYM	lex-COMMA|cat-punc|gen-|num-|pers-|case-|vib-|tam-|chunkId-NP|stype-|voicetype-	3	sent-adv	_	_
2	sacixAnaMxana	sacixAnaMxana	n	NNP	lex-sacixAnaMxana|cat-n|gen-m|num-sg|pers-3|case-o|vib-0_ne|tam-0|chunkId-NP2|stype-|voicetype-	3	k1	_	_
3	kahA	kaha	v	VM	lex-kaha|cat-v|gen-m|num-sg|pers-any|case-|vib-yA|tam-yA|chunkId-VGF|stype-declarative|voicetype-active	0	main	_	_
4	ki	ki	avy	CC	lex-ki|cat-avy|gen-|num-|pers-|case-|vib-|tam-|chunkId-CCP|stype-|voicetype-	3	k2	_	_
5	leKikA	leKikA	n	NN	lex-leKikA|cat-n|gen-f|num-sg|pers-3|case-o|vib-0_ne|tam-0|chunkId-NP3|stype-|voicetype-	9	k1	_	_
6	puraskAra	puraskAra	n	NN	lex-puraskAra|cat-n|gen-m|num-sg|pers-3|case-d|vib-0|tam-0|chunkId-NP4|stype-|voicetype-	7	k2	_	_
7	lene	le	v	VM	lex-le|cat-v|gen-any|num-any|pers-any|case-o|vib-nA_se|tam-nA|chunkId-VGNN|stype-|voicetype-	9	rt	_	_
8	inakAra	inakAra	n	NN	lex-inakAra|cat-n|gen-m|num-sg|pers-3|case-d|vib-0|tam-0|chunkId-NP5|stype-|voicetype-	9	pof	_	_
9	kara	kara	v	VM	lex-kara|cat-v|gen-m|num-sg|pers-3|case-|vib-0_xe+yA_hE|tam-0|chunkId-VGF2|stype-declarative|voicetype-active	4	ccof	_	_
10	kyoMki	kyoMki	avy	CC	lex-kyoMki|cat-avy|gen-|num-|pers-|case-|vib-|tam-|chunkId-CCP2|stype-|voicetype-	9	rh	_	_
11	unakA	vaha	pn	PRP	lex-vaha|cat-pn|gen-any|num-sg|pers-3h|case-o|vib-kA|tam-kA|chunkId-NP6|stype-|voicetype-	12	k1	_	_
12	mAnanA	mAna	v	VM	lex-mAna|cat-v|gen-any|num-any|pers-any|case-d|vib-nA|tam-nA|chunkId-VGNN2|stype-|voicetype-	13	k1	_	_
13	hE	hE	v	VM	lex-hE|cat-v|gen-any|num-sg|pers-3|case-|vib-hE|tam-hE|chunkId-VGF3|stype-declarative|voicetype-active	10	ccof	_	_
14	ki	ki	avy	CC	lex-ki|cat-avy|gen-|num-|pers-|case-|vib-|tam-|chunkId-CCP3|stype-|voicetype-	12	k2	_	_
15	sarakAra	sarakAra	n	NN	lex-sarakAra|cat-n|gen-f|num-sg|pers-3|case-o|vib-0_se|tam-0|chunkId-NP7|stype-|voicetype-	16	jjmod	_	_
16	saMbaxXa	saMbaxXa	adj	JJ	lex-saMbaxXa|cat-adj|gen-any|num-any|pers-|case-o|vib-|tam-|chunkId-JJP|stype-|voicetype-	17	nmod	_	_
17	saMsWA	saMsWA	n	NN	lex-saMsWA|cat-n|gen-f|num-sg|pers-3|case-o|vib-0_se|tam-0|chunkId-NP8|stype-|voicetype-	20	k5	_	_
18	vaha	vaha	pn	PRP	lex-vaha|cat-pn|gen-any|num-sg|pers-3|case-d|vib-0|tam-0|chunkId-NP9|stype-|voicetype-	20	k1	_	_
19	puraskAra	puraskAra	n	NN	lex-puraskAra|cat-n|gen-m|num-sg|pers-3|case-d|vib-0|tam-0|chunkId-NP10|stype-|voicetype-	20	k2	_	_
20	leMgI	le	v	VM	lex-le|cat-v|gen-f|num-sg|pers-3h|case-|vib-gA|tam-gA|chunkId-VGF4|stype-declarative|voicetype-active	14	ccof	_	_
21	.	.	punc	SYM	lex-.|cat-punc|gen-|num-|pers-|case-|vib-|tam-|chunkId-BLK|stype-|voicetype-	3	rsym	_	_

1	lekina	lekina	avy	CC	lex-lekina|cat-avy|gen-|num-|pers-|case-|vib-|tam-|chunkId-CCP|stype-|voicetype-	0	main	_	_
2	loga	loga	n	NN	lex-loga|cat-n|gen-m|num-pl|pers-3|case-d|vib-0|tam-0|chunkId-NP|stype-|voicetype-	9	k1	_	_
3	unheM	vaha	pn	PRP	lex-vaha|cat-pn|gen-any|num-sg|pers-3h|case-o|vib-ko|tam-ko|chunkId-NP2|stype-|voicetype-	9	k2	_	_
4	apane	apanA	pn	PRP	lex-apanA|cat-pn|gen-m|num-any|pers-any|case-o|vib-0|tam-0|chunkId-NP3|stype-|voicetype-	5	r6	_	_
5	PEsale	PEsalA	n	NN	lex-PEsalA|cat-n|gen-m|num-sg|pers-3|case-o|vib-0_para|tam-0|chunkId-NP4|stype-|voicetype-	8	k7	_	_
6	Pira	Pira	adv	RB	lex-Pira|cat-adv|gen-|num-|pers-|case-|vib-|tam-|chunkId-RBP|stype-|voicetype-	9	adv	_	_
7	vicAra	vicAra	n	NN	lex-vicAra|cat-n|gen-m|num-sg|pers-3|case-d|vib-0|tam-0|chunkId-NP5|stype-|voicetype-	8	pof	_	_
8	karane	kara	v	VM	lex-kara|cat-v|gen-any|num-any|pers-any|case-o|vib-nA_ke_lie|tam-nA|chunkId-VGNN|stype-|voicetype-	9	rt	_	_
9	kaheMge	kaha	v	VM	lex-kaha|cat-v|gen-m|num-pl|pers-1|case-|vib-gA|tam-gA|chunkId-VGF|stype-declarative|voicetype-active	1	ccof	_	_
10	kyoMki	kyoMki	avy	CC	lex-kyoMki|cat-avy|gen-|num-|pers-|case-|vib-|tam-|chunkId-CCP2|stype-|voicetype-	9	rh	_	_
11	saMsWA	saMsWA	n	NN	lex-saMsWA|cat-n|gen-f|num-sg|pers-3|case-d|vib-0|tam-0|chunkId-NP6|stype-|voicetype-	17	k1	_	_
12	bOxXika	bOxXika	adj	JJ	lex-bOxXika|cat-adj|gen-any|num-any|pers-|case-o|vib-|tam-|chunkId-JJP|stype-|voicetype-	13	ccof	_	_
13	Ora	Ora	avy	CC	lex-Ora|cat-avy|gen-|num-|pers-|case-|vib-|tam-|chunkId-CCP3|stype-|voicetype-	15	nmod	_	_
14	sAMskqwika	sAMskqwika	adj	JJ	lex-sAMskqwika|cat-adj|gen-any|num-any|pers-|case-o|vib-|tam-|chunkId-JJP2|stype-|voicetype-	13	ccof	_	_
15	rUpa	rUpa	n	NN	lex-rUpa|cat-n|gen-m|num-sg|pers-3|case-o|vib-0_se|tam-0|chunkId-NP7|stype-|voicetype-	17	adv	_	_
16	svAyawwa	svAyawwa	adj	JJ	lex-svAyawwa|cat-adj|gen-any|num-any|pers-|case-|vib-|tam-|chunkId-JJP3|stype-|voicetype-	17	k1s	_	_
17	hE	hE	v	VM	lex-hE|cat-v|gen-any|num-sg|pers-3|case-|vib-hE|tam-hE|chunkId-VGF2|stype-declarative|voicetype-active	18	ccof	_	_
18	lekina	lekina	avy	CC	lex-lekina|cat-avy|gen-|num-|pers-|case-|vib-|tam-|chunkId-CCP4|stype-|voicetype-	10	ccof	_	_
19	ise	yaha	pn	PRP	lex-yaha|cat-pn|gen-any|num-sg|pers-3|case-o|vib-ko|tam-ko|chunkId-NP8|stype-|voicetype-	22	k4	_	_
20	Xana	Xana	n	NN	lex-Xana|cat-n|gen-m|num-sg|pers-3|case-d|vib-0|tam-0|chunkId-NP9|stype-|voicetype-	22	k1	_	_
21	sarakAra	sarakAra	n	NN	lex-sarakAra|cat-n|gen-f|num-sg|pers-3|case-o|vib-0_se|tam-0|chunkId-NP10|stype-|voicetype-	22	k5	_	_
22	milawA	mila	v	VM	lex-mila|cat-v|gen-m|num-sg|pers-3|case-|vib-wA_hE|tam-wA|chunkId-VGF3|stype-declarative|voicetype-active	18	ccof	_	_
23	.	.	punc	SYM	lex-.|cat-punc|gen-|num-|pers-|case-|vib-|tam-|chunkId-BLK|stype-|voicetype-	1	rsym	_	_

1	unhoMne	vaha	pn	PRP	lex-vaha|cat-pn|gen-any|num-sg|pers-3h|case-o|vib-ne|tam-ne|chunkId-NP|stype-|voicetype-	2	k1	_	_
2	kahA	kaha	v	VM	lex-kaha|cat-v|gen-m|num-sg|pers-any|case-|vib-yA|tam-yA|chunkId-VGF|stype-declarative|voicetype-active	0	main	_	_
3	ki	ki	avy	CC	lex-ki|cat-avy|gen-|num-|pers-|case-|vib-|tam-|chunkId-CCP|stype-|voicetype-	2	k2	_	_
4	puraskAra	puraskAra	n	NN	lex-puraskAra|cat-n|gen-m|num-sg|pers-3|case-o|vib-0_ke_lie|tam-0|chunkId-NP2|stype-|voicetype-	9	rt	_	_
5	aruMXawi	aruMXawi	n	NNP	lex-aruMXawi|cat-n|gen-f|num-sg|pers-3|case-o|vib-0_kA|tam-0|chunkId-NP3|stype-|voicetype-	6	r6	_	_
6	jagaha	jagaha	n	NN	lex-jagaha|cat-n|gen-f|num-sg|pers-3|case-d|vib-0|tam-0|chunkId-NP4|stype-|voicetype-	9	k7	_	_
7	Ora	Ora	n	NN	lex-Ora|cat-n|gen-m|num-sg|pers-3|case-o|vib-0_kA|tam-0|chunkId-NP5|stype-|voicetype-	8	r6-k2	_	_
8	cayana	cayana	n	NN	lex-cayana|cat-n|gen-m|num-sg|pers-3|case-d|vib-0|tam-0|chunkId-NP6|stype-|voicetype-	9	pof	_	_
9	kiyA	kara	v	VM	lex-kara|cat-v|gen-m|num-sg|pers-3|case-|vib-yA_jA+gA|tam-yA|chunkId-VGF2|stype-declarative|voicetype-passive	3	ccof	_	_
10	.	.	punc	SYM	lex-.|cat-punc|gen-|num-|pers-|case-|vib-|tam-|chunkId-BLK|stype-|voicetype-	2	rsym	_	_

