1	siMha	siMha	n	NNP	lex-siMha|cat-n|gen-m|num-sg|pers-3|case-d|vib-0|tam-0|chunkId-NP|stype-|voicetype-	11	k1	_	_
2	enasIIAratI	enasIIAratI	n	NNP	lex-enasIIAratI|cat-n|gen-m|num-sg|pers-3|case-o|vib-0_kA|tam-0|chunkId-NP2|stype-|voicetype-	3	r6	_	_
3	iwihAsa	iwihAsa	n	NNP	lex-iwihAsa|cat-n|gen-m|num-sg|pers-3|case-o|vib-0_kA|tam-0|chunkId-NP3|stype-|voicetype-	4	r6	_	_
4	puswakoM	puswaka	n	NN	lex-puswaka|cat-n|gen-m|num-pl|pers-3|case-o|vib-0_kA|tam-0|chunkId-NP4|stype-|voicetype-	5	r6	_	_
5	samIkRA	samIkRA	n	NN	lex-samIkRA|cat-n|gen-f|num-sg|pers-3|case-o|vib-0_ke_lie|tam-0|chunkId-NP5|stype-|voicetype-	6	rt	_	_
6	bane	bana	v	VM	lex-bana|cat-v|gen-m|num-sg|pers-any|case-|vib-yA|tam-yA|chunkId-VGNF|stype-|voicetype-	7	nmod__k1inv	_	_
7	pEnala	pEnala	n	NN	lex-pEnala|cat-n|gen-m|num-sg|pers-3|case-o|vib-0_kA|tam-0|chunkId-NP6|stype-|voicetype-	8	r6	_	_
8	riporta	riporta	n	NN	lex-riporta|cat-n|gen-f|num-sg|pers-3|case-o|vib-0_para|tam-0|chunkId-NP7|stype-|voicetype-	11	k7	_	_
9	gaMBIrawA	gaMBIrawA	n	NN	lex-gaMBIrawA|cat-n|gen-f|num-sg|pers-3|case-o|vib-0_se|tam-0|chunkId-NP8|stype-|voicetype-	11	adv	_	_
10	vicAra	vicAra	n	NN	lex-vicAra|cat-n|gen-m|num-sg|pers-3|case-d|vib-0|tam-0|chunkId-NP9|stype-|voicetype-	11	pof	_	_
11	kara	kara	v	VM	lex-kara|cat-v|gen-m|num-sg|pers-3h|case-|vib-0_raha+yA_hE|tam-0|chunkId-VGF|stype-declarative|voicetype-active	0	main	_	_
12	.	.	punc	SYM	lex-.|cat-punc|gen-|num-|pers-|case-|vib-|tam-|chunkId-BLK|stype-|voicetype-	11	rsym	_	_

1	pATyakrama	pATyakrama	n	NN	lex-pATyakrama|cat-n|gen-m|num-sg|pers-3|case-o|vib-0_meM|tam-0|chunkId-NP|stype-|voicetype-	6	k7	_	_
2	baxalAva	baxalAva	n	NN	lex-baxalAva|cat-n|gen-m|num-sg|pers-3|case-o|vib-0_ke_bahAnA|tam-0|chunkId-NP2|stype-|voicetype-	3	k2	_	_
3	hue	ho	v	VM	lex-ho|cat-v|gen-m|num-sg|pers-any|case-|vib-yA|tam-yA|chunkId-VGNF|stype-|voicetype-	4	nmod	_	_
4	BagavAkaraNa	BagavAkaraNa	n	NN	lex-BagavAkaraNa|cat-n|gen-m|num-sg|pers-3|case-o|vib-0_ko|tam-0|chunkId-NP3|stype-|voicetype-	6	k2	_	_
5	xUra	xUra	nst	NST	lex-xUra|cat-nst|gen-m|num-sg|pers-3|case-d|vib-|tam-|chunkId-NP4|stype-|voicetype-	6	pof	_	_
6	karane	kara	v	VM	lex-kara|cat-v|gen-any|num-any|pers-any|case-o|vib-nA_ke_bAre_meM|tam-nA|chunkId-VGNN|stype-|voicetype-	10	k7	_	_
7	vaha	vaha	pn	PRP	lex-vaha|cat-pn|gen-any|num-sg|pers-3|case-d|vib-0|tam-0|chunkId-NP5|stype-|voicetype-	10	k1	_	_
8	xinoM	xina	n	NN	lex-xina|cat-n|gen-m|num-pl|pers-3|case-o|vib-0_meM|tam-0|chunkId-NP6|stype-|voicetype-	10	k7t	_	_
9	nirNaya	nirNaya	n	NN	lex-nirNaya|cat-n|gen-m|num-sg|pers-3|case-d|vib-0|tam-0|chunkId-NP7|stype-|voicetype-	10	k2	_	_
10	le	le	v	VM	lex-le|cat-v|gen-any|num-sg|pers-3h|case-|vib-0_le+gA|tam-0|chunkId-VGF|stype-declarative|voicetype-active	0	main	_	_
11	.	.	punc	SYM	lex-.|cat-punc|gen-|num-|pers-|case-|vib-|tam-|chunkId-BLK|stype-|voicetype-	10	rsym	_	_

1	iwihAsavixoM	iwihAsavixa	n	NN	lex-iwihAsavixa|cat-n|gen-m|num-pl|pers-3|case-o|vib-0_kA|tam-0|chunkId-NP|stype-|voicetype-	2	r6	_	_
2	pEnala	pEnala	n	NN	lex-pEnala|cat-n|gen-m|num-sg|pers-3|case-o|vib-0_ne|tam-0|chunkId-NP2|stype-|voicetype-	8	k1	_	_
3	apanI	apanA	pn	PRP	lex-apanA|cat-pn|gen-f|num-any|pers-any|case-o|vib-0|tam-0|chunkId-NP3|stype-|voicetype-	4	r6	_	_
4	riporta	riporta	n	NN	lex-riporta|cat-n|gen-f|num-sg|pers-3|case-o|vib-0_meM|tam-0|chunkId-NP4|stype-|voicetype-	8	k7	_	_
5	puswakoM	puswaka	n	NN	lex-puswaka|cat-n|gen-f|num-pl|pers-3|case-o|vib-0_ko|tam-0|chunkId-NP5|stype-|voicetype-	6	k2	_	_
6	baxalane	baxala	v	VM	lex-baxala|cat-v|gen-any|num-sg|pers-any|case-o|vib-nA_kA|tam-nA|chunkId-VGNN|stype-|voicetype-	7	r6-k2	_	_
7	siPAriSa	siPAriSa	n	NN	lex-siPAriSa|cat-n|gen-f|num-sg|pers-3|case-d|vib-0|tam-0|chunkId-NP6|stype-|voicetype-	8	pof	_	_
8	kI	kara	v	VM	lex-kara|cat-v|gen-f|num-sg|pers-3|case-|vib-yA_hE|tam-yA|chunkId-VGF|stype-declarative|voicetype-active	0	main	_	_
9	.	.	punc	SYM	lex-.|cat-punc|gen-|num-|pers-|case-|vib-|tam-|chunkId-BLK|stype-|voicetype-	8	rsym	_	_

1	lekina	lekina	avy	CC	lex-lekina|cat-avy|gen-|num-|pers-|case-|vib-|tam-|chunkId-CCP|stype-|voicetype-	0	main	_	_
2	PilahAla	PilahAla	adv	RB	lex-PilahAla|cat-adv|gen-|num-|pers-|case-|vib-|tam-|chunkId-RBP|stype-|voicetype-	13	adv	_	_
3	maMwrAlaya	maMwrAlaya	n	NN	lex-maMwrAlaya|cat-n|gen-m|num-sg|pers-3|case-d|vib-0|tam-0|chunkId-NP|stype-|voicetype-	13	k1	_	_
4	sawra	sawra	n	NN	lex-sawra|cat-n|gen-m|num-sg|pers-3|case-o|vib-0_meM|tam-0|chunkId-NP2|stype-|voicetype-	11	k7	_	_
5	kiwAboM	kiwAba	n	NN	lex-kiwAba|cat-n|gen-f|num-pl|pers-3|case-o|vib-0_kA|tam-0|chunkId-NP3|stype-|voicetype-	6	r6	_	_
6	aMSoM	aMSa	n	NN	lex-aMSa|cat-n|gen-m|num-pl|pers-3|case-o|vib-0_ko|tam-0|chunkId-NP4|stype-|voicetype-	7	k2	_	_
7	hatAkara	hatA	v	VM	lex-hatA|cat-v|gen-any|num-any|pers-any|case-|vib-kara|tam-kara|chunkId-VGNF|stype-|voicetype-	8	vmod	_	_
8	paDZAne	paDZA	v	VM	lex-paDZA|cat-v|gen-any|num-sg|pers-any|case-o|vib-nA_kA|tam-nA|chunkId-VGNN|stype-|voicetype-	9	r6	_	_
9	vikalpa	vikalpa	n	NN	lex-vikalpa|cat-n|gen-m|num-sg|pers-3|case-d|vib-0|tam-0|chunkId-NP5|stype-|voicetype-	11	k2	_	_
10	KulA	KulA	adj	JJ	lex-KulA|cat-adj|gen-any|num-any|pers-|case-|vib-|tam-|chunkId-JJP|stype-|voicetype-	11	pof	_	_
11	raKane	raKa	v	VM	lex-raKa|cat-v|gen-any|num-any|pers-any|case-o|vib-nA_para|tam-nA|chunkId-VGNN2|stype-|voicetype-	13	k7	_	_
12	vicAra	vicAra	n	NN	lex-vicAra|cat-n|gen-m|num-sg|pers-3|case-d|vib-0|tam-0|chunkId-NP6|stype-|voicetype-	13	pof	_	_
13	kara	kara	v	VM	lex-kara|cat-v|gen-m|num-sg|pers-3|case-|vib-0_raha+yA_hE|tam-0|chunkId-VGF|stype-declarative|voicetype-active	1	ccof	_	_
14	.	.	punc	SYM	lex-.|cat-punc|gen-|num-|pers-|case-|vib-|tam-|chunkId-BLK|stype-|voicetype-	1	rsym	_	_

1	EsA	EsA	pn	PRP	lex-EsA|cat-pn|gen-m|num-sg|pers-any|case-d|vib-0|tam-0|chunkId-NP|stype-|voicetype-	2	k2	_	_
2	hone	ho	v	VM	lex-ho|cat-v|gen-any|num-sg|pers-any|case-o|vib-nA_kA|tam-nA|chunkId-VGNN|stype-|voicetype-	3	r6	_	_
3	sWiwi	sWiwi	n	NN	lex-sWiwi|cat-n|gen-f|num-sg|pers-3|case-o|vib-0_meM|tam-0|chunkId-NP2|stype-|voicetype-	14	k7	_	_
4	SikRakoM	SikRaka	n	NN	lex-SikRaka|cat-n|gen-m|num-pl|pers-3|case-o|vib-0_ke_lie|tam-0|chunkId-NP3|stype-|voicetype-	14	rt	_	_
5	puswakoM	puswaka	n	NN	lex-puswaka|cat-n|gen-f|num-pl|pers-3|case-o|vib-0_kA|tam-0|chunkId-NP4|stype-|voicetype-	6	r6	_	_
6	aMSa	aMSa	n	NN	lex-aMSa|cat-n|gen-m|num-pl|pers-3|case-d|vib-0|tam-0|chunkId-NP5|stype-|voicetype-	7	k2	_	_
7	paDZAne	paDZA	v	VM	lex-paDZA|cat-v|gen-any|num-any|pers-any|case-o|vib-nA|tam-nA|chunkId-VGNN2|stype-|voicetype-	8	ccof	_	_
8	Ora	Ora	avy	CC	lex-Ora|cat-avy|gen-|num-|pers-|case-|vib-|tam-|chunkId-CCP|stype-|voicetype-	12	nmod	_	_
9	kuCa	kuCa	avy	QF	lex-kuCa|cat-avy|gen-|num-|pers-|case-|vib-|tam-|chunkId-JJP|stype-|voicetype-	11	k2	_	_
10	alaga	alaga	adv	RB	lex-alaga|cat-adv|gen-|num-|pers-|case-|vib-|tam-|chunkId-RBP|stype-|voicetype-	11	adv	_	_
11	paDZAne	paDZA	v	VM	lex-paDZA|cat-v|gen-any|num-pl|pers-any|case-o|vib-nA_jEsA|tam-nA|chunkId-VGNN3|stype-|voicetype-	8	ccof	_	_
12	nirxeSa	nirxeSa	n	NN	lex-nirxeSa|cat-n|gen-m|num-pl|pers-3|case-d|vib-0|tam-0|chunkId-NP6|stype-|voicetype-	14	k2	_	_
13	jArI	jArI	adj	JJ	lex-jArI|cat-adj|gen-any|num-any|pers-|case-|vib-|tam-|chunkId-JJP2|stype-|voicetype-	14	pof	_	_
14	kie	kara	v	VM	lex-kara|cat-v|gen-m|num-pl|pers-3|case-|vib-yA_jA_saka+wA_hE|tam-yA|chunkId-VGF|stype-declarative|voicetype-passive	0	main	_	_
15	.	.	punc	SYM	lex-.|cat-punc|gen-|num-|pers-|case-|vib-|tam-|chunkId-BLK|stype-|voicetype-	14	rsym	_	_

1	maMwrAlaya	maMwrAlaya	n	NNP	lex-maMwrAlaya|cat-n|gen-m|num-sg|pers-3|case-o|vib-0_meM|tam-0|chunkId-NP|stype-|voicetype-	6	k7p	_	_
2	bAsavAna	bAsavAna	n	NNP	lex-bAsavAna|cat-n|gen-any|num-sg|pers-3|case-o|vib-0_ne|tam-0|chunkId-NP2|stype-|voicetype-	6	k1	_	_
3	maMgalavAra	maMgalavAra	n	NNP	lex-maMgalavAra|cat-n|gen-m|num-sg|pers-3|case-o|vib-0_ko|tam-0|chunkId-NP3|stype-|voicetype-	6	k7t	_	_
4	pawrakAroM	pawrakAra	n	NN	lex-pawrakAra|cat-n|gen-m|num-pl|pers-3|case-o|vib-0_se|tam-0|chunkId-NP4|stype-|voicetype-	6	k4	_	_
5	bAwacIwa	bAwacIwa	n	NN	lex-bAwacIwa|cat-n|gen-f|num-sg|pers-3|case-o|vib-0_meM|tam-0|chunkId-NP5|stype-|voicetype-	6	k7	_	_
6	kahA	kaha	v	VM	lex-kaha|cat-v|gen-m|num-sg|pers-any|case-|vib-yA|tam-yA|chunkId-VGF|stype-declarative|voicetype-active	0	main	_	_
7	ki	ki	avy	CC	lex-ki|cat-avy|gen-|num-|pers-|case-|vib-|tam-|chunkId-CCP|stype-|voicetype-	6	k2	_	_
8	pATyakrama	pATyakrama	n	NN	lex-pATyakrama|cat-n|gen-m|num-sg|pers-3|case-o|vib-0_kA|tam-0|chunkId-NP6|stype-|voicetype-	9	r6	_	_
9	samIkRA	samIkRA	n	NN	lex-samIkRA|cat-n|gen-f|num-sg|pers-3|case-o|vib-0_ke_lie|tam-0|chunkId-NP7|stype-|voicetype-	10	rt	_	_
10	bane	bana	v	VM	lex-bana|cat-v|gen-m|num-sg|pers-any|case-|vib-yA|tam-yA|chunkId-VGNF|stype-|voicetype-	11	nmod__k1inv	_	_
11	pEnala	pEnala	n	NN	lex-pEnala|cat-n|gen-m|num-sg|pers-3|case-o|vib-0_ne|tam-0|chunkId-NP8|stype-|voicetype-	17	k1	_	_
12	apanI	apanA	pn	PRP	lex-apanA|cat-pn|gen-f|num-any|pers-any|case-o|vib-0|tam-0|chunkId-NP9|stype-|voicetype-	13	r6	_	_
13	riporta	riporta	n	NN	lex-riporta|cat-n|gen-f|num-sg|pers-3|case-o|vib-0_meM|tam-0|chunkId-NP10|stype-|voicetype-	17	k7	_	_
14	kiwAbeM	kiwAba	n	NN	lex-kiwAba|cat-n|gen-f|num-pl|pers-3|case-d|vib-0|tam-0|chunkId-NP11|stype-|voicetype-	15	k2	_	_
15	baxalane	baxala	v	VM	lex-baxala|cat-v|gen-any|num-sg|pers-any|case-o|vib-nA_kA|tam-nA|chunkId-VGNN|stype-|voicetype-	16	r6-k2	_	_
16	siPAriSa	siPAriSa	n	NN	lex-siPAriSa|cat-n|gen-f|num-sg|pers-3|case-d|vib-0|tam-0|chunkId-NP12|stype-|voicetype-	17	pof	_	_
17	kI	kara	v	VM	lex-kara|cat-v|gen-f|num-sg|pers-3|case-|vib-yA_hE|tam-yA|chunkId-VGF2|stype-declarative|voicetype-active	7	ccof	_	_
18	.	.	punc	SYM	lex-.|cat-punc|gen-|num-|pers-|case-|vib-|tam-|chunkId-BLK|stype-|voicetype-	6	rsym	_	_

1	maMwrAlaya	maMwrAlaya	n	NN	lex-maMwrAlaya|cat-n|gen-m|num-sg|pers-3|case-o|vib-0_meM|tam-0|chunkId-NP|stype-|voicetype-	4	k7	_	_
2	riporta	riporta	n	NN	lex-riporta|cat-n|gen-f|num-sg|pers-3|case-o|vib-0_para|tam-0|chunkId-NP2|stype-|voicetype-	4	k7	_	_
3	vimarSa	vimarSa	n	NN	lex-vimarSa|cat-n|gen-m|num-sg|pers-3|case-d|vib-0|tam-0|chunkId-NP3|stype-|voicetype-	4	k1	_	_
4	cala	cala	v	VM	lex-cala|cat-v|gen-m|num-sg|pers-3|case-|vib-0_raha+yA_hE|tam-0|chunkId-VGF|stype-declarative|voicetype-active	5	ccof	_	_
5	Ora	Ora	avy	CC	lex-Ora|cat-avy|gen-|num-|pers-|case-|vib-|tam-|chunkId-CCP|stype-|voicetype-	0	main	_	_
6	jalxa	jalxa	adv	RB	lex-jalxa|cat-adv|gen-|num-|pers-|case-|vib-|tam-|chunkId-RBP|stype-|voicetype-	8	adv	_	_
7	nirNaya	nirNaya	n	NN	lex-nirNaya|cat-n|gen-m|num-sg|pers-3|case-d|vib-0|tam-0|chunkId-NP4|stype-|voicetype-	8	k2	_	_
8	le	le	v	VM	lex-le|cat-v|gen-m|num-sg|pers-3|case-|vib-0_le+yA_jA+gA|tam-0|chunkId-VGF2|stype-declarative|voicetype-passive	5	ccof	_	_
9	.	.	punc	SYM	lex-.|cat-punc|gen-|num-|pers-|case-|vib-|tam-|chunkId-BLK|stype-|voicetype-	5	rsym	_	_

1	isameM	yaha	pn	PRP	lex-yaha|cat-pn|gen-any|num-sg|pers-3|case-o|vib-meM|tam-meM|chunkId-NP|stype-|voicetype-	4	k7	_	_
2	jAna	jAna	v	VMC	lex-jAna|cat-v|gen-any|num-any|pers-any|case-|vib-0|tam-0|chunkId-VGNF|stype-|voicetype-	4	vmod	_	_
3	baxalAva	baxalAva	n	NN	lex-baxalAva|cat-n|gen-m|num-pl|pers-3|case-d|vib-0|tam-0|chunkId-NP2|stype-|voicetype-	4	pof	_	_
4	kie	kara	v	VM	lex-kara|cat-v|gen-m|num-pl|pers-3|case-|vib-yA_jA+yA1_hE|tam-yA|chunkId-VGF|stype-declarative|voicetype-active	5	ccof	_	_
5	Ora	Ora	avy	CC	lex-Ora|cat-avy|gen-|num-|pers-|case-|vib-|tam-|chunkId-CCP|stype-|voicetype-	0	main	_	_
6	waraha	waraha	n	NN	lex-waraha|cat-n|gen-f|num-sg|pers-3|case-o|vib-0_kA|tam-0|chunkId-NP3|stype-|voicetype-	7	r6	_	_
7	wrutiyAz	wruti	n	NN	lex-wruti|cat-n|gen-f|num-pl|pers-3|case-d|vib-0|tam-0|chunkId-NP4|stype-|voicetype-	8	k1	_	_
8	hEM	hE	v	VM	lex-hE|cat-v|gen-any|num-pl|pers-3|case-|vib-hE|tam-hE|chunkId-VGF2|stype-declarative|voicetype-active	5	ccof	_	_
9	jinheM	jo	pn	PRP	lex-jo|cat-pn|gen-any|num-pl|pers-3|case-o|vib-ko|tam-ko|chunkId-NP5|stype-|voicetype-	11	k2	_	_
10	xUra	xUra	nst	NST	lex-xUra|cat-nst|gen-m|num-sg|pers-3|case-d|vib-|tam-|chunkId-NP6|stype-|voicetype-	11	pof	_	_
11	karane	kara	v	VM	lex-kara|cat-v|gen-any|num-sg|pers-any|case-o|vib-nA_kA|tam-nA|chunkId-VGNN|stype-|voicetype-	12	r6-k2	_	_
12	siPAriSa	siPAriSa	n	NN	lex-siPAriSa|cat-n|gen-f|num-sg|pers-3|case-d|vib-0|tam-0|chunkId-NP7|stype-|voicetype-	13	pof	_	_
13	kI	kara	v	VM	lex-kara|cat-v|gen-f|num-sg|pers-3|case-|vib-yA_jA+yA1_hE|tam-yA|chunkId-VGF3|stype-declarative|voicetype-active	7	nmod__relc	_	_
14	.	.	punc	SYM	lex-.|cat-punc|gen-|num-|pers-|case-|vib-|tam-|chunkId-BLK|stype-|voicetype-	5	rsym	_	_

1	pEnala	pEnala	n	NN	lex-pEnala|cat-n|gen-m|num-sg|pers-3|case-o|vib-0_ne|tam-0|chunkId-NP|stype-|voicetype-	3	k1	_	_
2	siPAriSa	siPAriSa	n	NN	lex-siPAriSa|cat-n|gen-f|num-sg|pers-3|case-d|vib-0|tam-0|chunkId-NP2|stype-|voicetype-	3	pof	_	_
3	kI	kara	v	VM	lex-kara|cat-v|gen-f|num-sg|pers-3|case-|vib-yA_hE|tam-yA|chunkId-VGF|stype-declarative|voicetype-active	0	main	_	_
4	ki	ki	avy	CC	lex-ki|cat-avy|gen-|num-|pers-|case-|vib-|tam-|chunkId-CCP|stype-|voicetype-	3	k2	_	_
5	kiwAbeM	kiwAba	n	NN	lex-kiwAba|cat-n|gen-f|num-pl|pers-3|case-d|vib-0|tam-0|chunkId-NP3|stype-|voicetype-	9	k1	_	_
6	acCI	acCA	adj	JJ	lex-acCA|cat-adj|gen-f|num-any|pers-|case-|vib-|tam-|chunkId-JJP|stype-|voicetype-	7	ccof	_	_
7	Ora	Ora	avy	CC	lex-Ora|cat-avy|gen-|num-|pers-|case-|vib-|tam-|chunkId-CCP2|stype-|voicetype-	9	k1s	_	_
8	nirapekRa	nirapekRa	adj	JJ	lex-nirapekRa|cat-adj|gen-any|num-any|pers-|case-|vib-|tam-|chunkId-JJP2|stype-|voicetype-	7	ccof	_	_
9	honI	ho	v	VM	lex-ho|cat-v|gen-f|num-any|pers-any|case-|vib-nA_cAhie|tam-nA|chunkId-VGF2|stype-declarative|voicetype-active	4	ccof	_	_
10	.	.	punc	SYM	lex-.|cat-punc|gen-|num-|pers-|case-|vib-|tam-|chunkId-BLK|stype-|voicetype-	3	rsym	_	_

1	maMwrAlaya	maMwrAlaya	n	NN	lex-maMwrAlaya|cat-n|gen-m|num-sg|pers-3|case-d|vib-0|tam-0|chunkId-NP|stype-|voicetype-	7	k1	_	_
2	masale	masalA	n	NN	lex-masalA|cat-n|gen-m|num-sg|pers-3|case-o|vib-0_para|tam-0|chunkId-NP2|stype-|voicetype-	5	k7	_	_
3	skUloM	skUla	n	NN	lex-skUla|cat-n|gen-m|num-pl|pers-3|case-o|vib-0_ke_sAWa|tam-0|chunkId-NP3|stype-|voicetype-	5	ras-k1	_	_
4	bAwacIwa	bAwacIwa	n	NN	lex-bAwacIwa|cat-n|gen-f|num-sg|pers-3|case-d|vib-0|tam-0|chunkId-NP4|stype-|voicetype-	5	pof	_	_
5	karane	kara	v	VM	lex-kara|cat-v|gen-any|num-sg|pers-any|case-o|vib-nA_kA|tam-nA|chunkId-VGNN|stype-|voicetype-	6	r6-k2	_	_
6	wEyArI	wEyArI	n	NN	lex-wEyArI|cat-n|gen-f|num-sg|pers-3|case-d|vib-0|tam-0|chunkId-NP5|stype-|voicetype-	7	pof	_	_
7	kara	kara	v	VM	lex-kara|cat-v|gen-m|num-sg|pers-3|case-|vib-0_raha+yA_hE|tam-0|chunkId-VGF|stype-declarative|voicetype-active	0	main	_	_
8	.	.	punc	SYM	lex-.|cat-punc|gen-|num-|pers-|case-|vib-|tam-|chunkId-BLK|stype-|voicetype-	7	rsym	_	_

1	bAsavAna	bAsavAna	n	NNP	lex-bAsavAna|cat-n|gen-any|num-sg|pers-3|case-o|vib-0_ne|tam-0|chunkId-NP|stype-|voicetype-	2	k1	_	_
2	kahA	kaha	v	VM	lex-kaha|cat-v|gen-m|num-sg|pers-any|case-|vib-yA|tam-yA|chunkId-VGF|stype-declarative|voicetype-active	0	main	_	_
3	ki	ki	avy	CC	lex-ki|cat-avy|gen-|num-|pers-|case-|vib-|tam-|chunkId-CCP|stype-|voicetype-	2	k2	_	_
4	nirNaya	nirNaya	n	NN	lex-nirNaya|cat-n|gen-m|num-sg|pers-3|case-d|vib-0|tam-0|chunkId-NP2|stype-|voicetype-	5	k2	_	_
5	lewe	le	v	VM	lex-le|cat-v|gen-any|num-any|pers-any|case-o|vib-wA_samaya|tam-wA|chunkId-VGNN|stype-|voicetype-	9	k7t	_	_
6	CAwroM	CAwra	n	NN	lex-CAwra|cat-n|gen-m|num-pl|pers-3|case-o|vib-0_kA|tam-0|chunkId-NP3|stype-|voicetype-	7	r6	_	_
7	hiwoM	hiwa	n	NN	lex-hiwa|cat-n|gen-m|num-pl|pers-3|case-o|vib-0_kA|tam-0|chunkId-NP4|stype-|voicetype-	8	r6	_	_
8	KyAla	KyAla	n	NN	lex-KyAla|cat-n|gen-m|num-sg|pers-3|case-d|vib-0|tam-0|chunkId-NP5|stype-|voicetype-	9	k2	_	_
9	raKA	raKa	v	VM	lex-raKa|cat-v|gen-m|num-sg|pers-3|case-|vib-yA_jA+gA|tam-yA|chunkId-VGF2|stype-declarative|voicetype-passive	3	ccof	_	_
10	.	.	punc	SYM	lex-.|cat-punc|gen-|num-|pers-|case-|vib-|tam-|chunkId-BLK|stype-|voicetype-	2	rsym	_	_

