1	kalAma	kalAma	n	NNP	lex-kalAma|cat-n|gen-m|num-sg|pers-3|case-o|vib-0_ne|tam-0|chunkId-NP|stype-|voicetype-	7	k1	_	_
2	rARtra	rARtra	n	NNP	lex-rARtra|cat-n|gen-m|num-sg|pers-3|case-o|vib-0|tam-0|chunkId-NP2|stype-|voicetype-	7	k7p	_	_
3	yUena	yUena	n	NNP	lex-yUena|cat-n|gen-m|num-sg|pers-3|case-o|vib-0|tam-0|chunkId-NP3|stype-|voicetype-	2	rs	_	_
4	suXAra	suXAra	n	NN	lex-suXAra|cat-n|gen-m|num-sg|pers-3|case-o|vib-0_para|tam-0|chunkId-NP4|stype-|voicetype-	6	k7	_	_
5	jora	jora	n	NN	lex-jora|cat-n|gen-m|num-sg|pers-3|case-d|vib-0|tam-0|chunkId-NP5|stype-|voicetype-	6	adv	_	_
6	xewe	xe	v	VM	lex-xe|cat-v|gen-m|num-sg|pers-any|case-|vib-wA_ho+yA|tam-wA|chunkId-VGNF|stype-|voicetype-	7	vmod	_	_
7	kahA	kaha	v	VM	lex-kaha|cat-v|gen-m|num-sg|pers-3|case-|vib-yA_hE|tam-yA|chunkId-VGF|stype-declarative|voicetype-active	0	main	_	_
8	ki	ki	avy	CC	lex-ki|cat-avy|gen-|num-|pers-|case-|vib-|tam-|chunkId-CCP|stype-|voicetype-	7	k2	_	_
9	baxalAva	baxalAva	n	NN	lex-baxalAva|cat-n|gen-m|num-sg|pers-3|case-o|vib-0_se|tam-0|chunkId-NP6|stype-|voicetype-	14	rh	_	_
10	yaha	yaha	pn	PRP	lex-yaha|cat-pn|gen-any|num-sg|pers-3|case-d|vib-0|tam-0|chunkId-NP7|stype-|voicetype-	14	k1	_	_
11	lokawAMwrika	lokawAMwrika	adj	JJ	lex-lokawAMwrika|cat-adj|gen-any|num-any|pers-|case-|vib-|tam-|chunkId-JJP|stype-|voicetype-	12	ccof	_	_
12	va	va	avy	CC	lex-va|cat-avy|gen-|num-|pers-|case-|vib-|tam-|chunkId-CCP2|stype-|voicetype-	14	k1s	_	_
13	pAraxarSI	pAraxarSI	adj	JJ	lex-pAraxarSI|cat-adj|gen-any|num-any|pers-|case-|vib-|tam-|chunkId-JJP2|stype-|voicetype-	12	ccof	_	_
14	banegA	bana	v	VM	lex-bana|cat-v|gen-m|num-sg|pers-3|case-|vib-gA|tam-gA|chunkId-VGF2|stype-declarative|voicetype-active	8	ccof	_	_
15	.	.	punc	SYM	lex-.|cat-punc|gen-|num-|pers-|case-|vib-|tam-|chunkId-BLK|stype-|voicetype-	7	rsym	_	_

1	hI	hI	avy	RP	lex-hI|cat-avy|gen-|num-|pers-|case-|vib-|tam-|chunkId-NP|stype-|voicetype-	5	sent-adv	_	_
2	xOra	xOra	n	NN	lex-xOra|cat-n|gen-m|num-sg|pers-3|case-o|vib-0_kA|tam-0|chunkId-NP2|stype-|voicetype-	3	r6	_	_
3	saccAIyoM	saccAI	n	NN	lex-saccAI|cat-n|gen-f|num-pl|pers-3|case-o|vib-0_se|tam-0|chunkId-NP3|stype-|voicetype-	5	ras-k1	_	_
4	rUbarU	rUbarU	nst	NST	lex-rUbarU|cat-nst|gen-m|num-sg|pers-3|case-d|vib-|tam-|chunkId-NP4|stype-|voicetype-	5	pof	_	_
5	ho	ho	v	VM	lex-ho|cat-v|gen-any|num-sg|pers-3|case-|vib-0_saka+gA|tam-0|chunkId-VGF|stype-declarative|voicetype-active	0	main	_	_
6	.	.	punc	SYM	lex-.|cat-punc|gen-|num-|pers-|case-|vib-|tam-|chunkId-BLK|stype-|voicetype-	5	rsym	_	_

1	jabaki	jabaki	avy	CC	lex-jabaki|cat-avy|gen-|num-|pers-|case-|vib-|tam-|chunkId-CCP|stype-|voicetype-	0	main	_	_
2	kAryakrama	kAryakrama	n	NN	lex-kAryakrama|cat-n|gen-m|num-sg|pers-3|case-o|vib-0_meM|tam-0|chunkId-NP|stype-|voicetype-	6	k7	_	_
3	unhoMne	vaha	pn	PRP	lex-vaha|cat-pn|gen-any|num-sg|pers-3h|case-o|vib-ne|tam-ne|chunkId-NP2|stype-|voicetype-	6	k1	_	_
4	vEjFAnikoM	vEjFAnika	n	NN	lex-vEjFAnika|cat-n|gen-m|num-pl|pers-3|case-o|vib-0_kA|tam-0|chunkId-NP3|stype-|voicetype-	5	r6-k2	_	_
5	AhvAna	AhvAna	n	NN	lex-AhvAna|cat-n|gen-m|num-sg|pers-3|case-d|vib-0|tam-0|chunkId-NP4|stype-|voicetype-	6	pof	_	_
6	kiyA	kara	v	VM	lex-kara|cat-v|gen-m|num-sg|pers-any|case-|vib-yA|tam-yA|chunkId-VGF|stype-declarative|voicetype-active	1	ccof	_	_
7	ki	ki	avy	CC	lex-ki|cat-avy|gen-|num-|pers-|case-|vib-|tam-|chunkId-CCP2|stype-|voicetype-	6	k2	_	_
8	ve	vaha	pn	PRP	lex-vaha|cat-pn|gen-any|num-pl|pers-3|case-d|vib-0|tam-0|chunkId-NP5|stype-|voicetype-	16	k1	_	_
9	prOxyogikI	prOxyogikI	n	NNP	lex-prOxyogikI|cat-n|gen-f|num-sg|pers-3|case-o|vib-0|tam-0|chunkId-NP6|stype-|voicetype-	11	ccof	_	_
10	AItI	AItI	n	NNP	lex-AItI|cat-n|gen-f|num-sg|pers-3|case-o|vib-0|tam-0|chunkId-NP7|stype-|voicetype-	9	nmod	_	_
11	Ora	Ora	avy	CC	lex-Ora|cat-avy|gen-|num-|pers-|case-|vib-|tam-|chunkId-CCP3|stype-|voicetype-	16	k3	_	_
12	saMcAra	saMcAra	n	NNP	lex-saMcAra|cat-n|gen-m|num-sg|pers-3|case-o|vib-0_ke_jariye|tam-0|chunkId-NP8|stype-|voicetype-	11	ccof	_	_
13	BUkaMpa	BUkaMpa	n	NN	lex-BUkaMpa|cat-n|gen-m|num-sg|pers-3|case-o|vib-0_kA|tam-0|chunkId-NP9|stype-|voicetype-	14	r6	_	_
14	BaviRyavANiyoM	BaviRyavANI	n	NN	lex-BaviRyavANI|cat-n|gen-f|num-pl|pers-3|case-o|vib-0_para|tam-0|chunkId-NP10|stype-|voicetype-	16	k7	_	_
15	anusaMXAna	anusaMXAna	n	NN	lex-anusaMXAna|cat-n|gen-m|num-sg|pers-3|case-d|vib-0|tam-0|chunkId-NP11|stype-|voicetype-	16	pof	_	_
16	kareM	kara	v	VM	lex-kara|cat-v|gen-any|num-pl|pers-3|case-|vib-eM|tam-eM|chunkId-VGF2|stype-imperative|voicetype-active	7	ccof	_	_
17	jisase	jo	pn	PRP	lex-jo|cat-pn|gen-any|num-sg|pers-3|case-o|vib-se|tam-se|chunkId-NP12|stype-|voicetype-	22	rh	_	_
18	logoM	loga	n	NN	lex-loga|cat-n|gen-m|num-pl|pers-3|case-o|vib-0_ko|tam-0|chunkId-NP13|stype-|voicetype-	22	k2	_	_
19	samaya	samaya	n	NN	lex-samaya|cat-n|gen-m|num-sg|pers-3|case-d|vib-0|tam-0|chunkId-NP14|stype-|voicetype-	20	k1	_	_
20	rahawe	raha	v	VM	lex-raha|cat-v|gen-m|num-sg|pers-any|case-|vib-wA|tam-wA|chunkId-VGNF|stype-|voicetype-	22	vmod	_	_
21	sacewa	sacewa	adj	JJ	lex-sacewa|cat-adj|gen-any|num-any|pers-|case-|vib-|tam-|chunkId-JJP|stype-|voicetype-	22	pof	_	_
22	kiyA	kara	v	VM	lex-kara|cat-v|gen-any|num-sg|pers-3|case-|vib-yA_jA_saka+eM|tam-yA|chunkId-VGF3|stype-declarative|voicetype-active	14	nmod__relc	_	_
23	.	.	punc	SYM	lex-.|cat-punc|gen-|num-|pers-|case-|vib-|tam-|chunkId-BLK|stype-|voicetype-	1	rsym	_	_

1	BArawa	BArawa	n	NNP	lex-BArawa|cat-n|gen-m|num-sg|pers-3|case-d|vib-0|tam-0|chunkId-NP|stype-|voicetype-	6	k1	_	_
2	SoXa	SoXa	n	NN	lex-SoXa|cat-n|gen-m|num-sg|pers-3|case-o|vib-0_meM|tam-0|chunkId-NP2|stype-|voicetype-	4	k7	_	_
3	maxaxa	maxaxa	n	NN	lex-maxaxa|cat-n|gen-f|num-sg|pers-3|case-d|vib-0|tam-0|chunkId-NP3|stype-|voicetype-	4	k2	_	_
4	xene	xe	v	VM	lex-xe|cat-v|gen-any|num-any|pers-any|case-o|vib-nA_ko|tam-nA|chunkId-VGNN|stype-|voicetype-	6	k4	_	_
5	wEyAra	wEyAra	adj	JJ	lex-wEyAra|cat-adj|gen-any|num-any|pers-|case-|vib-|tam-|chunkId-JJP|stype-|voicetype-	6	k1s	_	_
6	hE	hE	v	VM	lex-hE|cat-v|gen-any|num-sg|pers-3|case-|vib-hE|tam-hE|chunkId-VGF|stype-declarative|voicetype-active	0	main	_	_
7	.	.	punc	SYM	lex-.|cat-punc|gen-|num-|pers-|case-|vib-|tam-|chunkId-BLK|stype-|voicetype-	6	rsym	_	_

1	AisalEMda	AisalEMda	n	NNP	lex-AisalEMda|cat-n|gen-m|num-sg|pers-3|case-o|vib-0_kA|tam-0|chunkId-NP|stype-|voicetype-	2	r6	_	_
2	rARtrapawi	rARtrapawi	n	NNP	lex-rARtrapawi|cat-n|gen-m|num-sg|pers-3|case-o|vib-0|tam-0|chunkId-NP2|stype-|voicetype-	3	nmod	_	_
3	grimasana	grimasana	n	NNP	lex-grimasana|cat-n|gen-m|num-sg|pers-3|case-o|vib-0_xvArA|tam-0|chunkId-NP3|stype-|voicetype-	6	jjmod	_	_
4	kalAma	kalAma	n	NNP	lex-kalAma|cat-n|gen-m|num-sg|pers-3|case-o|vib-0_kA|tam-0|chunkId-NP4|stype-|voicetype-	5	r6	_	_
5	sammAna	sammAna	n	NN	lex-sammAna|cat-n|gen-m|num-sg|pers-3|case-o|vib-0_meM|tam-0|chunkId-NP5|stype-|voicetype-	6	jjmod	_	_
6	Ayojiwa	Ayojiwa	adj	JJ	lex-Ayojiwa|cat-adj|gen-any|num-any|pers-|case-o|vib-|tam-|chunkId-JJP|stype-|voicetype-	7	nmod	_	_
7	kAryakrama	kAryakrama	n	NN	lex-kAryakrama|cat-n|gen-m|num-sg|pers-3|case-o|vib-0_meM|tam-0|chunkId-NP6|stype-|voicetype-	9	k7	_	_
8	kalAma	kalAma	n	NNP	lex-kalAma|cat-n|gen-m|num-sg|pers-3|case-o|vib-0_ne|tam-0|chunkId-NP7|stype-|voicetype-	9	k1	_	_
9	kahA	kaha	v	VM	lex-kaha|cat-v|gen-m|num-sg|pers-any|case-|vib-yA|tam-yA|chunkId-VGF|stype-declarative|voicetype-active	0	main	_	_
10	ki	ki	avy	CC	lex-ki|cat-avy|gen-|num-|pers-|case-|vib-|tam-|chunkId-CCP|stype-|voicetype-	9	k2	_	_
11	AisalEMda	AisalEMda	n	NNP	lex-AisalEMda|cat-n|gen-m|num-sg|pers-3|case-o|vib-0_meM|tam-0|chunkId-NP8|stype-|voicetype-	23	k7p	_	_
12	lokawaMwra	lokawaMwra	n	NN	lex-lokawaMwra|cat-n|gen-m|num-sg|pers-3|case-o|vib-0|tam-0|chunkId-NP9|stype-|voicetype-	20	ccof	_	_
13	mAnavAXikAra	mAnavAXikAra	n	NN	lex-mAnavAXikAra|cat-n|gen-m|num-sg|pers-3|case-o|vib-0|tam-0|chunkId-NP10|stype-|voicetype-	14	ccof	_	_
14	Ora	Ora	avy	CC	lex-Ora|cat-avy|gen-|num-|pers-|case-|vib-|tam-|chunkId-CCP2|stype-|voicetype-	16	nmod	_	_
15	paryAvaraNa	paryAvaraNa	n	NN	lex-paryAvaraNa|cat-n|gen-m|num-sg|pers-3|case-o|vib-0_meM|tam-0|chunkId-NP11|stype-|voicetype-	14	ccof	_	_
16	sahiRNuwA	sahiRNuwA	n	NN	lex-sahiRNuwA|cat-n|gen-f|num-sg|pers-3|case-o|vib-0|tam-0|chunkId-NP12|stype-|voicetype-	17	ccof	_	_
17	va	va	avy	CC	lex-va|cat-avy|gen-|num-|pers-|case-|vib-|tam-|chunkId-CCP3|stype-|voicetype-	19	nmod	_	_
18	AjAxI	AjAxI	n	NN	lex-AjAxI|cat-n|gen-f|num-sg|pers-3|case-o|vib-0_jEsA|tam-0|chunkId-NP13|stype-|voicetype-	17	ccof	_	_
19	bAweM	bAwa	n	NN	lex-bAwa|cat-n|gen-f|num-pl|pers-3|case-d|vib-0|tam-0|chunkId-NP14|stype-|voicetype-	20	ccof	_	_
20	va	va	avy	CC	lex-va|cat-avy|gen-|num-|pers-|case-|vib-|tam-|chunkId-CCP4|stype-|voicetype-	23	k1	_	_
21	mUlya	mUlya	n	NN	lex-mUlya|cat-n|gen-m|num-pl|pers-3|case-d|vib-0|tam-0|chunkId-NP15|stype-|voicetype-	20	ccof	_	_
22	samAna	samAna	adj	JJ	lex-samAna|cat-adj|gen-any|num-any|pers-|case-|vib-|tam-|chunkId-JJP2|stype-|voicetype-	23	k1s	_	_
23	hEM	hE	v	VM	lex-hE|cat-v|gen-any|num-pl|pers-3|case-|vib-hE|tam-hE|chunkId-VGF2|stype-declarative|voicetype-active	10	ccof	_	_
24	.	.	punc	SYM	lex-.|cat-punc|gen-|num-|pers-|case-|vib-|tam-|chunkId-BLK|stype-|voicetype-	9	rsym	_	_

1	kalAma	kalAma	n	NNP	lex-kalAma|cat-n|gen-m|num-sg|pers-3|case-o|vib-0_ne|tam-0|chunkId-NP|stype-|voicetype-	2	k1	_	_
2	kahA	kaha	v	VM	lex-kaha|cat-v|gen-m|num-sg|pers-any|case-|vib-yA|tam-yA|chunkId-VGF|stype-declarative|voicetype-active	0	main	_	_
3	ki	ki	avy	CC	lex-ki|cat-avy|gen-|num-|pers-|case-|vib-|tam-|chunkId-CCP|stype-|voicetype-	2	k2	_	_
4	BArawa	BArawa	n	NNP	lex-BArawa|cat-n|gen-m|num-sg|pers-3|case-d|vib-0|tam-0|chunkId-NP2|stype-|voicetype-	5	ccof	_	_
5	Ora	Ora	avy	CC	lex-Ora|cat-avy|gen-|num-|pers-|case-|vib-|tam-|chunkId-CCP2|stype-|voicetype-	7	nmod	_	_
6	AisalEMda	AisalEMda	n	NNP	lex-AisalEMda|cat-n|gen-m|num-sg|pers-3|case-d|vib-0|tam-0|chunkId-NP3|stype-|voicetype-	5	ccof	_	_
7	hI	hI	avy	RP	lex-hI|cat-avy|gen-|num-|pers-|case-|vib-|tam-|chunkId-NP4|stype-|voicetype-	10	k1	_	_
8	GoRaNA	GoRaNA	n	NN	lex-GoRaNA|cat-n|gen-f|num-sg|pers-3|case-o|vib-0_ke_prawi|tam-0|chunkId-NP5|stype-|voicetype-	10	rd	_	_
9	prawibaxXa	prawibaxXa	adj	JJ	lex-prawibaxXa|cat-adj|gen-any|num-any|pers-|case-|vib-|tam-|chunkId-JJP|stype-|voicetype-	10	k1s	_	_
10	hEM	hE	v	VM	lex-hE|cat-v|gen-any|num-pl|pers-3|case-|vib-hE|tam-hE|chunkId-VGF2|stype-declarative|voicetype-active	3	ccof	_	_
11	.	.	punc	SYM	lex-.|cat-punc|gen-|num-|pers-|case-|vib-|tam-|chunkId-BLK|stype-|voicetype-	2	rsym	_	_

1	hamArA	hama	pn	PRP	lex-hama|cat-pn|gen-any|num-pl|pers-1|case-o|vib-kA|tam-kA|chunkId-NP|stype-|voicetype-	2	r6	_	_
2	viSvAsa	viSvAsa	n	NN	lex-viSvAsa|cat-n|gen-m|num-sg|pers-3|case-d|vib-0|tam-0|chunkId-NP2|stype-|voicetype-	3	k1	_	_
3	hE	hE	v	VM	lex-hE|cat-v|gen-any|num-sg|pers-3|case-|vib-hE|tam-hE|chunkId-VGF|stype-declarative|voicetype-active	0	main	_	_
4	ki	ki	avy	CC	lex-ki|cat-avy|gen-|num-|pers-|case-|vib-|tam-|chunkId-CCP|stype-|voicetype-	2	rs	_	_
5	rARtra	rARtra	n	NNP	lex-rARtra|cat-n|gen-m|num-sg|pers-3|case-o|vib-0_kA|tam-0|chunkId-NP3|stype-|voicetype-	6	r6	_	_
6	DAMce	DAMcA	n	NN	lex-DAMcA|cat-n|gen-m|num-sg|pers-3|case-o|vib-0_meM|tam-0|chunkId-NP4|stype-|voicetype-	9	k7	_	_
7	suXAra	suXAra	n	NN	lex-suXAra|cat-n|gen-m|num-sg|pers-3|case-o|vib-0_kA|tam-0|chunkId-NP5|stype-|voicetype-	8	r6	_	_
8	jarUrawa	jarUrawa	n	NN	lex-jarUrawa|cat-n|gen-f|num-sg|pers-3|case-d|vib-0|tam-0|chunkId-NP6|stype-|voicetype-	9	k1	_	_
9	hE	hE	v	VM	lex-hE|cat-v|gen-any|num-sg|pers-3|case-|vib-hE|tam-hE|chunkId-VGF2|stype-declarative|voicetype-active	4	ccof	_	_
10	jisase	jo	pn	PRP	lex-jo|cat-pn|gen-any|num-sg|pers-3|case-o|vib-se|tam-se|chunkId-NP7|stype-|voicetype-	17	rh	_	_
11	ise	yaha	pn	PRP	lex-yaha|cat-pn|gen-any|num-sg|pers-3|case-o|vib-ko|tam-ko|chunkId-NP8|stype-|voicetype-	17	k2	_	_
12	xOra	xOra	n	NN	lex-xOra|cat-n|gen-m|num-sg|pers-3|case-o|vib-0_kA|tam-0|chunkId-NP9|stype-|voicetype-	13	r6	_	_
13	hakIkawoM	hakIkawa	n	NN	lex-hakIkawa|cat-n|gen-f|num-pl|pers-3|case-o|vib-0_ke_hisAba_se|tam-0|chunkId-NP10|stype-|voicetype-	17	vmod	_	_
14	lokawAMwrika	lokawAMwrika	adj	JJ	lex-lokawAMwrika|cat-adj|gen-any|num-any|pers-|case-|vib-|tam-|chunkId-JJP|stype-|voicetype-	15	ccof	_	_
15	va	va	avy	CC	lex-va|cat-avy|gen-|num-|pers-|case-|vib-|tam-|chunkId-CCP2|stype-|voicetype-	17	k2s	_	_
16	pAraxarSI	pAraxarSI	adj	JJ	lex-pAraxarSI|cat-adj|gen-any|num-any|pers-|case-|vib-|tam-|chunkId-JJP2|stype-|voicetype-	15	ccof	_	_
17	banAyA	banA	v	VM	lex-banA|cat-v|gen-any|num-sg|pers-3|case-|vib-yA_jA_saka+eM|tam-yA|chunkId-VGF3|stype-declarative|voicetype-passive	7	nmod__relc	_	_
18	.	.	punc	SYM	lex-.|cat-punc|gen-|num-|pers-|case-|vib-|tam-|chunkId-BLK|stype-|voicetype-	3	rsym	_	_

1	unhoMne	vaha	pn	PRP	lex-vaha|cat-pn|gen-any|num-sg|pers-3h|case-o|vib-ne|tam-ne|chunkId-NP|stype-|voicetype-	5	k1	_	_
2	AisalEMda	AisalEMda	n	NNP	lex-AisalEMda|cat-n|gen-m|num-sg|pers-3|case-o|vib-0_kA|tam-0|chunkId-NP2|stype-|voicetype-	4	r6-k2	_	_
3	bAwa	bAwa	n	NN	lex-bAwa|cat-n|gen-f|num-sg|pers-3|case-o|vib-0_ke_lie|tam-0|chunkId-NP3|stype-|voicetype-	5	rt	_	_
4	sarAhanA	sarAhanA	n	NN	lex-sarAhanA|cat-n|gen-f|num-sg|pers-3|case-d|vib-0|tam-0|chunkId-NP4|stype-|voicetype-	5	pof	_	_
5	kI	kara	v	VM	lex-kara|cat-v|gen-f|num-sg|pers-any|case-|vib-yA|tam-yA|chunkId-VGF|stype-declarative|voicetype-active	0	main	_	_
6	ki	ki	avy	CC	lex-ki|cat-avy|gen-|num-|pers-|case-|vib-|tam-|chunkId-CCP|stype-|voicetype-	5	k2	_	_
7	vaha	vaha	pn	PRP	lex-vaha|cat-pn|gen-any|num-sg|pers-3|case-d|vib-0|tam-0|chunkId-NP5|stype-|voicetype-	12	k1	_	_
8	rUpa	rUpa	n	NN	lex-rUpa|cat-n|gen-m|num-sg|pers-3|case-o|vib-0_se|tam-0|chunkId-NP6|stype-|voicetype-	12	adv	_	_
9	lagAwAra	lagAwAra	adv	RB	lex-lagAwAra|cat-adv|gen-|num-|pers-|case-|vib-|tam-|chunkId-RBP|stype-|voicetype-	12	adv	_	_
10	bAwa	bAwa	n	NN	lex-bAwa|cat-n|gen-f|num-sg|pers-3|case-o|vib-0_para|tam-0|chunkId-NP7|stype-|voicetype-	12	k7	_	_
11	kAyama	kAyama	adj	JJ	lex-kAyama|cat-adj|gen-any|num-any|pers-|case-|vib-|tam-|chunkId-JJP|stype-|voicetype-	12	pof	_	_
12	hE	hE	v	VM	lex-hE|cat-v|gen-any|num-sg|pers-3|case-|vib-hE|tam-hE|chunkId-VGF2|stype-declarative|voicetype-active	13	ccof	_	_
13	Ora	Ora	avy	CC	lex-Ora|cat-avy|gen-|num-|pers-|case-|vib-|tam-|chunkId-CCP2|stype-|voicetype-	6	ccof	_	_
14	samarWana	samarWana	n	NN	lex-samarWana|cat-n|gen-m|num-sg|pers-3|case-d|vib-0|tam-0|chunkId-NP8|stype-|voicetype-	15	pof	_	_
15	xe	xe	v	VM	lex-xe|cat-v|gen-m|num-sg|pers-3|case-|vib-0_raha+yA_hE|tam-0|chunkId-VGF3|stype-declarative|voicetype-active	13	ccof	_	_
16	ki	ki	avy	CC	lex-ki|cat-avy|gen-|num-|pers-|case-|vib-|tam-|chunkId-CCP3|stype-|voicetype-	15	k2	_	_
17	BArawa	BArawa	n	NNP	lex-BArawa|cat-n|gen-m|num-sg|pers-3|case-o|vib-0_ko|tam-0|chunkId-NP9|stype-|voicetype-	20	k4	_	_
18	pariRaxa	pariRaxa	n	NNP	lex-pariRaxa|cat-n|gen-m|num-sg|pers-3|case-o|vib-0_meM|tam-0|chunkId-NP10|stype-|voicetype-	20	k7	_	_
19	sIta	sIta	n	NN	lex-sIta|cat-n|gen-f|num-sg|pers-3|case-d|vib-0|tam-0|chunkId-NP11|stype-|voicetype-	20	k1	_	_
20	mile	mila	v	VM	lex-mila|cat-v|gen-any|num-sg|pers-3|case-|vib-eM|tam-eM|chunkId-VGF4|stype-declarative|voicetype-active	16	ccof	_	_
21	.	.	punc	SYM	lex-.|cat-punc|gen-|num-|pers-|case-|vib-|tam-|chunkId-BLK|stype-|voicetype-	5	rsym	_	_

1	kAryakrama	kAryakrama	n	NN	lex-kAryakrama|cat-n|gen-m|num-sg|pers-3|case-o|vib-0_meM|tam-0|chunkId-NP|stype-|voicetype-	7	k7	_	_
2	kalAma	kalAma	n	NNP	lex-kalAma|cat-n|gen-m|num-sg|pers-3|case-o|vib-0_ne|tam-0|chunkId-NP2|stype-|voicetype-	7	k1	_	_
3	AisalEMda	AisalEMda	n	NNP	lex-AisalEMda|cat-n|gen-m|num-sg|pers-3|case-o|vib-0_kA|tam-0|chunkId-NP3|stype-|voicetype-	4	r6	_	_
4	vEjFAnikoM	vEjFAnika	n	NN	lex-vEjFAnika|cat-n|gen-m|num-pl|pers-3|case-o|vib-0_ko|tam-0|chunkId-NP4|stype-|voicetype-	6	k2	_	_
5	saMboXiwa	saMboXiwa	adj	JJ	lex-saMboXiwa|cat-adj|gen-any|num-any|pers-|case-|vib-|tam-|chunkId-JJP|stype-|voicetype-	6	pof	_	_
6	karawe	kara	v	VM	lex-kara|cat-v|gen-m|num-sg|pers-any|case-|vib-wA_ho+yA|tam-wA|chunkId-VGNF|stype-|voicetype-	7	vmod	_	_
7	kahA	kaha	v	VM	lex-kaha|cat-v|gen-m|num-sg|pers-any|case-|vib-yA|tam-yA|chunkId-VGF|stype-declarative|voicetype-active	0	main	_	_
8	ki	ki	avy	CC	lex-ki|cat-avy|gen-|num-|pers-|case-|vib-|tam-|chunkId-CCP|stype-|voicetype-	7	k2	_	_
9	prOxyogikI	prOxyogikI	n	NNP	lex-prOxyogikI|cat-n|gen-f|num-sg|pers-3|case-o|vib-0|tam-0|chunkId-NP5|stype-|voicetype-	10	ccof	_	_
10	va	va	avy	CC	lex-va|cat-avy|gen-|num-|pers-|case-|vib-|tam-|chunkId-CCP2|stype-|voicetype-	12	r6-k2	_	_
11	saMcAra	saMcAra	n	NNP	lex-saMcAra|cat-n|gen-m|num-sg|pers-3|case-o|vib-0_kA|tam-0|chunkId-NP6|stype-|voicetype-	10	ccof	_	_
12	iswemAla	iswemAla	n	NN	lex-iswemAla|cat-n|gen-m|num-sg|pers-3|case-d|vib-0|tam-0|chunkId-NP7|stype-|voicetype-	14	pof	_	_
13	BaviRyavANiyoM	BaviRyavANI	n	NN	lex-BaviRyavANI|cat-n|gen-f|num-pl|pers-3|case-o|vib-0_ke_lie|tam-0|chunkId-NP8|stype-|voicetype-	14	rt	_	_
14	kiyA	kara	v	VM	lex-kara|cat-v|gen-m|num-any|pers-any|case-|vib-yA_jA+nA_cAhie|tam-yA|chunkId-VGF2|stype-declarative|voicetype-passive	8	ccof	_	_
15	.	.	punc	SYM	lex-.|cat-punc|gen-|num-|pers-|case-|vib-|tam-|chunkId-BLK|stype-|voicetype-	7	rsym	_	_

1	unhoMne	vaha	pn	PRP	lex-vaha|cat-pn|gen-any|num-sg|pers-3h|case-o|vib-ne|tam-ne|chunkId-NP|stype-|voicetype-	7	k1	_	_
2	xeSoM	xeSa	n	NN	lex-xeSa|cat-n|gen-m|num-pl|pers-3|case-o|vib-0_ke_lie|tam-0|chunkId-NP2|stype-|voicetype-	7	rt	_	_
3	prabaMXana	prabaMXana	n	NN	lex-prabaMXana|cat-n|gen-m|num-sg|pers-3|case-o|vib-0_meM|tam-0|chunkId-NP3|stype-|voicetype-	6	k7	_	_
4	upagrahoM	upagraha	n	NN	lex-upagraha|cat-n|gen-m|num-pl|pers-3|case-o|vib-0_kA|tam-0|chunkId-NP4|stype-|voicetype-	5	r6-k2	_	_
5	maxaxa	maxaxa	n	NN	lex-maxaxa|cat-n|gen-f|num-sg|pers-3|case-d|vib-0|tam-0|chunkId-NP5|stype-|voicetype-	6	pof	_	_
6	lene	le	v	VM	lex-le|cat-v|gen-any|num-any|pers-any|case-o|vib-nA_ko|tam-nA|chunkId-VGNN|stype-|voicetype-	7	k2	_	_
7	kahA	kaha	v	VM	lex-kaha|cat-v|gen-m|num-sg|pers-any|case-|vib-yA|tam-yA|chunkId-VGF|stype-declarative|voicetype-active	0	main	_	_
8	.	.	punc	SYM	lex-.|cat-punc|gen-|num-|pers-|case-|vib-|tam-|chunkId-BLK|stype-|voicetype-	7	rsym	_	_

1	unhoMne	vaha	pn	PRP	lex-vaha|cat-pn|gen-any|num-sg|pers-3h|case-o|vib-ne|tam-ne|chunkId-NP|stype-|voicetype-	2	k1	_	_
2	kahA	kaha	v	VM	lex-kaha|cat-v|gen-m|num-sg|pers-any|case-|vib-yA|tam-yA|chunkId-VGF|stype-declarative|voicetype-active	0	main	_	_
3	ki	ki	avy	CC	lex-ki|cat-avy|gen-|num-|pers-|case-|vib-|tam-|chunkId-CCP|stype-|voicetype-	2	k2	_	_
4	kAryakrama	kAryakrama	n	NN	lex-kAryakrama|cat-n|gen-m|num-sg|pers-3|case-o|vib-0_meM|tam-0|chunkId-NP2|stype-|voicetype-	13	k7	_	_
5	prOxyogikI	prOxyogikI	n	NNP	lex-prOxyogikI|cat-n|gen-f|num-sg|pers-3|case-o|vib-0_kA|tam-0|chunkId-NP3|stype-|voicetype-	6	r6	_	_
6	iswemAla	iswemAla	n	NN	lex-iswemAla|cat-n|gen-m|num-sg|pers-3|case-d|vib-0|tam-0|chunkId-NP4|stype-|voicetype-	13	k1	_	_
7	jIAIesa	jIAIesa	n	NNP	lex-jIAIesa|cat-n|gen-m|num-sg|pers-3|case-o|vib-0|tam-0|chunkId-NP5|stype-|voicetype-	10	ccof	_	_
8	seMsiMga	seMsiMga	n	NNP	lex-seMsiMga|cat-n|gen-f|num-sg|pers-3|case-o|vib-0|tam-0|chunkId-NP6|stype-|voicetype-	10	ccof	_	_
9	saMcAra	saMcAra	n	NN	lex-saMcAra|cat-n|gen-m|num-sg|pers-3|case-o|vib-0|tam-0|chunkId-NP7|stype-|voicetype-	10	ccof	_	_
10	Ora	Ora	avy	CC	lex-Ora|cat-avy|gen-|num-|pers-|case-|vib-|tam-|chunkId-CCP2|stype-|voicetype-	13	k7	_	_
11	iMtaraneta	iMtaraneta	n	NN	lex-iMtaraneta|cat-n|gen-m|num-sg|pers-3|case-o|vib-0_ke_rUpa_meM|tam-0|chunkId-NP8|stype-|voicetype-	10	ccof	_	_
12	BUmikA	BUmikA	n	NN	lex-BUmikA|cat-n|gen-f|num-sg|pers-3|case-d|vib-0|tam-0|chunkId-NP9|stype-|voicetype-	13	k1s	_	_
13	niBA	niBA	v	VM	lex-niBA|cat-v|gen-m|num-sg|pers-3|case-|vib-0_saka+wA_hE|tam-0|chunkId-VGF2|stype-declarative|voicetype-active	3	ccof	_	_
14	.	.	punc	SYM	lex-.|cat-punc|gen-|num-|pers-|case-|vib-|tam-|chunkId-BLK|stype-|voicetype-	2	rsym	_	_

