1	basa	basa	n	NNP	lex-basa|cat-n|gen-f|num-sg|pers-3|case-o|vib-0_se|tam-0|chunkId-NP|stype-|voicetype-	12	k3	_	_
2	jUna	jUna	n	NNP	lex-jUna|cat-n|gen-m|num-sg|pers-3|case-o|vib-0_ko|tam-0|chunkId-NP2|stype-|voicetype-	12	k7t	_	_
3	kaSmIra	kaSmIra	n	NNP	lex-kaSmIra|cat-n|gen-m|num-sg|pers-3|case-o|vib-0|tam-0|chunkId-NP3|stype-|voicetype-	4	ccof	_	_
4	Ora	Ora	avy	CC	lex-Ora|cat-avy|gen-|num-|pers-|case-|vib-|tam-|chunkId-CCP|stype-|voicetype-	6	r6	_	_
5	pAkiswAna	pAkiswAna	n	NNP	lex-pAkiswAna|cat-n|gen-m|num-sg|pers-3|case-o|vib-0_kA|tam-0|chunkId-NP4|stype-|voicetype-	4	ccof	_	_
6	yAwrA	yAwrA	n	NN	lex-yAwrA|cat-n|gen-f|num-sg|pers-3|case-o|vib-0_ke_xOrAna|tam-0|chunkId-NP5|stype-|voicetype-	12	k7t	_	_
7	newAoM	newA	n	NN	lex-newA|cat-n|gen-m|num-pl|pers-3|case-o|vib-0_ko|tam-0|chunkId-NP6|stype-|voicetype-	12	k4a	_	_
8	apane	apanA	pn	PRP	lex-apanA|cat-pn|gen-m|num-any|pers-any|case-o|vib-0_sAWa|tam-0|chunkId-NP7|stype-|voicetype-	10	ras-k1	_	_
9	pAsaporta	pAsaporta	n	NN	lex-pAsaporta|cat-n|gen-m|num-sg|pers-3|case-d|vib-0|tam-0|chunkId-NP8|stype-|voicetype-	10	k2	_	_
10	le	le	v	VM	lex-le|cat-v|gen-any|num-sg|pers-any|case-|vib-0_jA+nA_kA|tam-0|chunkId-VGNN|stype-|voicetype-	11	r6-k2	_	_
11	hixAyawa	hixAyawa	n	NN	lex-hixAyawa|cat-n|gen-f|num-sg|pers-3|case-d|vib-0|tam-0|chunkId-NP9|stype-|voicetype-	12	pof	_	_
12	xI	xe	v	VM	lex-xe|cat-v|gen-f|num-sg|pers-3|case-|vib-yA_jA+yA1_hE|tam-yA|chunkId-VGF|stype-declarative|voicetype-active	0	main	_	_
13	.	.	punc	SYM	lex-.|cat-punc|gen-|num-|pers-|case-|vib-|tam-|chunkId-BLK|stype-|voicetype-	12	rsym	_	_

1	yAwrA	yAwrA	n	NN	lex-yAwrA|cat-n|gen-f|num-sg|pers-3|case-o|vib-0_ke_lie|tam-0|chunkId-NP|stype-|voicetype-	6	rt	_	_
2	kAMPreMsa	kAMPreMsa	n	NNP	lex-kAMPreMsa|cat-n|gen-m|num-sg|pers-3|case-o|vib-0_ne|tam-0|chunkId-NP2|stype-|voicetype-	6	k1	_	_
3	apane	apanA	pn	PRP	lex-apanA|cat-pn|gen-m|num-any|pers-any|case-o|vib-0|tam-0|chunkId-NP3|stype-|voicetype-	4	r6	_	_
4	saxasyoM	saxasya	n	NN	lex-saxasya|cat-n|gen-m|num-pl|pers-3|case-o|vib-0_ko|tam-0|chunkId-NP4|stype-|voicetype-	6	k2	_	_
5	nAmiwa	nAmiwa	adj	JJ	lex-nAmiwa|cat-adj|gen-any|num-any|pers-|case-|vib-|tam-|chunkId-JJP|stype-|voicetype-	6	pof	_	_
6	kiyA	kara	v	VM	lex-kara|cat-v|gen-m|num-sg|pers-3|case-|vib-yA_hE|tam-yA|chunkId-VGF|stype-declarative|voicetype-active	0	main	_	_
7	.	.	punc	SYM	lex-.|cat-punc|gen-|num-|pers-|case-|vib-|tam-|chunkId-BLK|stype-|voicetype-	6	rsym	_	_

1	isake	yaha	pn	PRP	lex-yaha|cat-pn|gen-any|num-sg|pers-3|case-o|vib-ke_sAWa|tam-ke|chunkId-NP|stype-|voicetype-	5	sent-adv	_	_
2	kAMPreMsa	kAMPreMsa	n	NNP	lex-kAMPreMsa|cat-n|gen-m|num-sg|pers-3|case-o|vib-0_xvArA|tam-0|chunkId-NP2|stype-|voicetype-	5	k1	_	_
3	OYPisa	OYPisa	n	NN	lex-OYPisa|cat-n|gen-m|num-sg|pers-3|case-o|vib-0_meM|tam-0|chunkId-NP3|stype-|voicetype-	5	k7p	_	_
4	jamA	jamA	n	NN	lex-jamA|cat-n|gen-f|num-sg|pers-3|case-d|vib-0|tam-0|chunkId-NP4|stype-|voicetype-	5	pof	_	_
5	kie	kara	v	VM	lex-kara|cat-v|gen-m|num-sg|pers-3|case-|vib-yA_jA+yA1|tam-yA|chunkId-VGNF|stype-|voicetype-	6	nmod__k2inv	_	_
6	POYrma	POYrma	n	NN	lex-POYrma|cat-n|gen-m|num-sg|pers-3|case-o|vib-0_kA|tam-0|chunkId-NP5|stype-|voicetype-	7	r6	_	_
7	saMKyA	saMKyA	n	NN	lex-saMKyA|cat-n|gen-f|num-sg|pers-3|case-d|vib-0|tam-0|chunkId-NP6|stype-|voicetype-	9	k1	_	_
8	11	11	num	QC	lex-11|cat-num|gen-any|num-any|pers-|case-any|vib-|tam-|chunkId-NP7|stype-|voicetype-	9	k1s	_	_
9	ho	ho	v	VM	lex-ho|cat-v|gen-f|num-sg|pers-3|case-|vib-0_jA+yA1_hE|tam-0|chunkId-VGF|stype-declarative|voicetype-passive	0	main	_	_
10	.	.	punc	SYM	lex-.|cat-punc|gen-|num-|pers-|case-|vib-|tam-|chunkId-BLK|stype-|voicetype-	9	rsym	_	_

1	,	COMMA	punc	SYM	lex-COMMA|cat-punc|gen-|num-|pers-|case-|vib-|tam-|chunkId-NP|stype-|voicetype-	16	sent-adv	_	_
2	17	17	num	QC	lex-17|cat-num|gen-any|num-pl|pers-|case-o|vib-0_meM_se|tam-|chunkId-NP2|stype-|voicetype-	6	k5	_	_
3	saxasyoM	saxasya	n	NN	lex-saxasya|cat-n|gen-m|num-pl|pers-3|case-o|vib-0_ko|tam-0|chunkId-NP3|stype-|voicetype-	6	k4	_	_
4	yAwrA	yAwrA	n	NN	lex-yAwrA|cat-n|gen-f|num-sg|pers-3|case-o|vib-0_kA|tam-0|chunkId-NP4|stype-|voicetype-	5	r6-k2	_	_
5	maMjUrI	maMjUrI	n	NN	lex-maMjUrI|cat-n|gen-f|num-sg|pers-3|case-d|vib-0|tam-0|chunkId-NP5|stype-|voicetype-	6	pof	_	_
6	xie	xe	v	VM	lex-xe|cat-v|gen-any|num-sg|pers-3|case-|vib-yA_jA+nA_xe+nA_kA|tam-yA|chunkId-VGNN|stype-|voicetype-	7	nmod	_	_
7	PEsale	PEsalA	n	NN	lex-PEsalA|cat-n|gen-m|num-sg|pers-3|case-o|vib-0_kA|tam-0|chunkId-NP6|stype-|voicetype-	8	r6	_	_
8	viroXa	viroXa	n	NN	lex-viroXa|cat-n|gen-m|num-sg|pers-3|case-o|vib-0_meM|tam-0|chunkId-NP7|stype-|voicetype-	16	k7	_	_
9	PraMta	PraMta	n	NNP	lex-PraMta|cat-n|gen-m|num-sg|pers-3|case-o|vib-0|tam-0|chunkId-NP8|stype-|voicetype-	16	k1	_	_
10	jekeelaePa	jekeelaePa	n	NNP	lex-jekeelaePa|cat-n|gen-m|num-sg|pers-3|case-o|vib-0|tam-0|chunkId-NP9|stype-|voicetype-	9	rs	_	_
11	apane	apanA	pn	PRP	lex-apanA|cat-pn|gen-m|num-any|pers-any|case-o|vib-0|tam-0|chunkId-NP10|stype-|voicetype-	12	r6	_	_
12	aXyakRa	aXyakRa	n	NN	lex-aXyakRa|cat-n|gen-m|num-sg|pers-3|case-o|vib-0|tam-0|chunkId-NP11|stype-|voicetype-	13	nmod	_	_
13	malika	malika	n	NNP	lex-malika|cat-n|gen-m|num-sg|pers-3|case-o|vib-0_ko|tam-0|chunkId-NP12|stype-|voicetype-	15	k2	_	_
14	Bejane	Beja	v	VM	lex-Beja|cat-v|gen-any|num-sg|pers-any|case-o|vib-nA_kA|tam-nA|chunkId-VGNN2|stype-|voicetype-	15	r6-k2	_	_
15	nirNaya	nirNaya	n	NN	lex-nirNaya|cat-n|gen-m|num-sg|pers-3|case-d|vib-0|tam-0|chunkId-NP13|stype-|voicetype-	16	pof	_	_
16	kiyA	kara	v	VM	lex-kara|cat-v|gen-m|num-sg|pers-3|case-|vib-yA_hE|tam-yA|chunkId-VGF|stype-declarative|voicetype-active	0	main	_	_
17	.	.	punc	SYM	lex-.|cat-punc|gen-|num-|pers-|case-|vib-|tam-|chunkId-BLK|stype-|voicetype-	16	rsym	_	_

