1	nAgarikoM	nAgarika	n	NN	lex-nAgarika|cat-n|gen-m|num-pl|pers-3|case-o|vib-0_ke_prawi|tam-0|chunkId-NP|stype-|voicetype-	3	rd	_	_
2	ruKa	ruKa	n	NN	lex-ruKa|cat-n|gen-m|num-sg|pers-3|case-d|vib-0|tam-0|chunkId-NP2|stype-|voicetype-	3	k2	_	_
3	apanAwe	apanA	v	VM	lex-apanA|cat-v|gen-m|num-sg|pers-any|case-|vib-wA_ho+yA|tam-wA|chunkId-VGNF|stype-|voicetype-	4	nmod__k1inv	_	_
4	BArawa	BArawa	n	NNP	lex-BArawa|cat-n|gen-m|num-sg|pers-3|case-o|vib-0_ne|tam-0|chunkId-NP3|stype-|voicetype-	11	k1	_	_
5	bqhaspawivAra	bqhaspawivAra	n	NNP	lex-bqhaspawivAra|cat-n|gen-m|num-sg|pers-3|case-o|vib-0_ko|tam-0|chunkId-NP4|stype-|voicetype-	11	k7t	_	_
6	pAka	pAka	n	NNP	lex-pAka|cat-n|gen-m|num-sg|pers-3|case-o|vib-0_kA|tam-0|chunkId-NP5|stype-|voicetype-	7	r6	_	_
7	baccoM	baccA	n	NN	lex-baccA|cat-n|gen-m|num-pl|pers-3|case-o|vib-0_kA|tam-0|chunkId-NP6|stype-|voicetype-	8	r6-k2	_	_
8	upacAra	upacAra	n	NN	lex-upacAra|cat-n|gen-m|num-sg|pers-3|case-d|vib-0|tam-0|chunkId-NP7|stype-|voicetype-	9	pof	_	_
9	karane	kara	v	VM	lex-kara|cat-v|gen-any|num-sg|pers-any|case-o|vib-nA_kA|tam-nA|chunkId-VGNN|stype-|voicetype-	10	r6-k2	_	_
10	PEsalA	PEsalA	n	NN	lex-PEsalA|cat-n|gen-m|num-sg|pers-3|case-d|vib-0|tam-0|chunkId-NP8|stype-|voicetype-	11	pof	_	_
11	kiyA	kara	v	VM	lex-kara|cat-v|gen-m|num-sg|pers-3|case-|vib-yA_hE|tam-yA|chunkId-VGF|stype-declarative|voicetype-active	0	main	_	_
12	.	.	punc	SYM	lex-.|cat-punc|gen-|num-|pers-|case-|vib-|tam-|chunkId-BLK|stype-|voicetype-	11	rsym	_	_

1	BArawa	BArawa	n	NNP	lex-BArawa|cat-n|gen-m|num-sg|pers-3|case-o|vib-0_kA|tam-0|chunkId-NP|stype-|voicetype-	2	r6	_	_
2	PEsale	PEsalA	n	NN	lex-PEsalA|cat-n|gen-m|num-sg|pers-3|case-o|vib-0_ke_bAxa|tam-0|chunkId-NP2|stype-|voicetype-	10	k7t	_	_
3	suviXA	suviXA	n	NN	lex-suviXA|cat-n|gen-f|num-sg|pers-3|case-d|vib-0|tam-0|chunkId-NP3|stype-|voicetype-	4	k2	_	_
4	pAne	pA	v	VM	lex-pA|cat-v|gen-any|num-pl|pers-any|case-o|vib-nA_vAlA|tam-nA|chunkId-VGNN|stype-|voicetype-	6	nmod	_	_
5	pAka	pAka	n	NNP	lex-pAka|cat-n|gen-m|num-sg|pers-3|case-o|vib-0_kA|tam-0|chunkId-NP4|stype-|voicetype-	6	r6	_	_
6	baccoM	baccA	n	NN	lex-baccA|cat-n|gen-m|num-pl|pers-3|case-o|vib-0_kA|tam-0|chunkId-NP5|stype-|voicetype-	7	r6	_	_
7	saMKyA	saMKyA	n	NN	lex-saMKyA|cat-n|gen-f|num-sg|pers-3|case-d|vib-0|tam-0|chunkId-NP6|stype-|voicetype-	10	k1	_	_
8	baDZakara	baDZa	v	VM	lex-baDZa|cat-v|gen-any|num-any|pers-any|case-|vib-kara|tam-kara|chunkId-VGNF|stype-|voicetype-	10	vmod	_	_
9	60	60	num	QC	lex-60|cat-num|gen-any|num-any|pers-|case-any|vib-|tam-|chunkId-NP7|stype-|voicetype-	10	k1s	_	_
10	ho	ho	v	VM	lex-ho|cat-v|gen-any|num-sg|pers-3|case-|vib-0_jA+gA|tam-0|chunkId-VGF|stype-declarative|voicetype-active	0	main	_	_
11	.	.	punc	SYM	lex-.|cat-punc|gen-|num-|pers-|case-|vib-|tam-|chunkId-BLK|stype-|voicetype-	10	rsym	_	_

1	maMwrAlaya	maMwrAlaya	n	NNP	lex-maMwrAlaya|cat-n|gen-m|num-sg|pers-3|case-o|vib-0_kA|tam-0|chunkId-NP|stype-|voicetype-	2	r6	_	_
2	pravakwA	pravakwA	n	NN	lex-pravakwA|cat-n|gen-m|num-sg|pers-3|case-o|vib-0|tam-0|chunkId-NP2|stype-|voicetype-	3	nmod	_	_
3	saranA	saranA	n	NNP	lex-saranA|cat-n|gen-m|num-sg|pers-3|case-o|vib-0_ne|tam-0|chunkId-NP3|stype-|voicetype-	4	k1	_	_
4	kahA	kaha	v	VM	lex-kaha|cat-v|gen-m|num-sg|pers-any|case-|vib-yA|tam-yA|chunkId-VGF|stype-declarative|voicetype-active	0	main	_	_
5	ki	ki	avy	CC	lex-ki|cat-avy|gen-|num-|pers-|case-|vib-|tam-|chunkId-CCP|stype-|voicetype-	4	k2	_	_
6	sarakAra	sarakAra	n	NNP	lex-sarakAra|cat-n|gen-f|num-sg|pers-3|case-o|vib-0_ne|tam-0|chunkId-NP4|stype-|voicetype-	11	k1	_	_
7	baccoM	baccA	n	NN	lex-baccA|cat-n|gen-m|num-pl|pers-3|case-o|vib-0_kA|tam-0|chunkId-NP5|stype-|voicetype-	8	r6	_	_
8	bEca	bEca	n	NN	lex-bEca|cat-n|gen-m|num-sg|pers-3|case-o|vib-0_ko|tam-0|chunkId-NP6|stype-|voicetype-	11	k4	_	_
9	ilAja	ilAja	n	NN	lex-ilAja|cat-n|gen-m|num-sg|pers-3|case-o|vib-0_kA|tam-0|chunkId-NP7|stype-|voicetype-	10	r6-k2	_	_
10	maMjUrI	maMjUrI	n	NN	lex-maMjUrI|cat-n|gen-f|num-sg|pers-3|case-d|vib-0|tam-0|chunkId-NP8|stype-|voicetype-	11	pof	_	_
11	xe	xe	v	VM	lex-xe|cat-v|gen-f|num-sg|pers-3|case-|vib-0_xe+yA_hE|tam-0|chunkId-VGF2|stype-declarative|voicetype-active	5	ccof	_	_
12	.	.	punc	SYM	lex-.|cat-punc|gen-|num-|pers-|case-|vib-|tam-|chunkId-BLK|stype-|voicetype-	4	rsym	_	_

1	yojanA	yojanA	n	NN	lex-yojanA|cat-n|gen-f|num-sg|pers-3|case-o|vib-0_se|tam-0|chunkId-NP|stype-|voicetype-	10	rh	_	_
2	pAkiswAna	pAkiswAna	n	NNP	lex-pAkiswAna|cat-n|gen-m|num-sg|pers-3|case-o|vib-0_kA|tam-0|chunkId-NP2|stype-|voicetype-	7	r6	_	_
3	jarUrawamaMxa	jarUrawamaMxa	adj	JJ	lex-jarUrawamaMxa|cat-adj|gen-any|num-any|pers-|case-d|vib-|tam-|chunkId-JJP|stype-|voicetype-	4	ccof	_	_
4	Ora	Ora	avy	CC	lex-Ora|cat-avy|gen-|num-|pers-|case-|vib-|tam-|chunkId-CCP|stype-|voicetype-	7	nmod	_	_
5	rUpa	rUpa	n	NN	lex-rUpa|cat-n|gen-m|num-sg|pers-3|case-o|vib-0_se|tam-0|chunkId-NP3|stype-|voicetype-	6	jjmod	_	_
6	bImAra	bImAra	adj	JJ	lex-bImAra|cat-adj|gen-any|num-any|pers-|case-d|vib-|tam-|chunkId-JJP2|stype-|voicetype-	4	ccof	_	_
7	bacce	baccA	n	NN	lex-baccA|cat-n|gen-m|num-pl|pers-3|case-d|vib-0|tam-0|chunkId-NP4|stype-|voicetype-	10	k1	_	_
8	BArawa	BArawa	n	NNP	lex-BArawa|cat-n|gen-m|num-sg|pers-3|case-o|vib-0_meM|tam-0|chunkId-NP5|stype-|voicetype-	10	k7p	_	_
9	ilAja	ilAja	n	NN	lex-ilAja|cat-n|gen-m|num-sg|pers-3|case-d|vib-0|tam-0|chunkId-NP6|stype-|voicetype-	10	pof	_	_
10	karA	karA	v	VM	lex-karA|cat-v|gen-any|num-pl|pers-3|case-|vib-0_saka+gA|tam-0|chunkId-VGF|stype-declarative|voicetype-active	0	main	_	_
11	.	.	punc	SYM	lex-.|cat-punc|gen-|num-|pers-|case-|vib-|tam-|chunkId-BLK|stype-|voicetype-	10	rsym	_	_

1	varRa	varRa	n	NN	lex-varRa|cat-n|gen-m|num-sg|pers-3|case-o|vib-0|tam-0|chunkId-NP|stype-|voicetype-	3	k7t	_	_
2	SurU	SurU	n	NN	lex-SurU|cat-n|gen-m|num-sg|pers-3|case-d|vib-0|tam-0|chunkId-NP2|stype-|voicetype-	3	pof	_	_
3	kI	kara	v	VM	lex-kara|cat-v|gen-f|num-sg|pers-any|case-|vib-yA_jA+yA1|tam-yA|chunkId-VGNF|stype-|voicetype-	4	nmod__k1inv	_	_
4	yojanA	yojanA	n	NN	lex-yojanA|cat-n|gen-f|num-sg|pers-3|case-o|vib-0_ke_wahawa|tam-0|chunkId-NP3|stype-|voicetype-	15	k7a	_	_
5	sarakAra	sarakAra	n	NNP	lex-sarakAra|cat-n|gen-f|num-sg|pers-3|case-o|vib-0_kA_ora_se|tam-0|chunkId-NP4|stype-|voicetype-	15	rd	_	_
6	bacce	baccA	n	NN	lex-baccA|cat-n|gen-m|num-sg|pers-3|case-o|vib-0|tam-0|chunkId-NP5|stype-|voicetype-	7	ccof	_	_
7	Ora	Ora	avy	CC	lex-Ora|cat-avy|gen-|num-|pers-|case-|vib-|tam-|chunkId-CCP|stype-|voicetype-	15	k2	_	_
8	usake	vaha	pn	PRP	lex-vaha|cat-pn|gen-m|num-sg|pers-3|case-o|vib-kA|tam-kA|chunkId-NP6|stype-|voicetype-	9	r6	_	_
9	aBiBAvaka	aBiBAvaka	n	NN	lex-aBiBAvaka|cat-n|gen-m|num-sg|pers-3|case-o|vib-0_kA|tam-0|chunkId-NP7|stype-|voicetype-	10	r6	_	_
10	kirAyA	kirAyA	n	NN	lex-kirAyA|cat-n|gen-m|num-sg|pers-3|case-d|vib-0|tam-0|chunkId-NP8|stype-|voicetype-	11	ccof	_	_
11	Ora	Ora	avy	CC	lex-Ora|cat-avy|gen-|num-|pers-|case-|vib-|tam-|chunkId-CCP2|stype-|voicetype-	7	ccof	_	_
12	rahane	raha	v	VM	lex-raha|cat-v|gen-any|num-sg|pers-any|case-o|vib-nA_kA|tam-nA|chunkId-VGNN|stype-|voicetype-	13	r6	_	_
13	KarcA	KarcA	n	NN	lex-KarcA|cat-n|gen-m|num-sg|pers-3|case-d|vib-0|tam-0|chunkId-NP9|stype-|voicetype-	11	ccof	_	_
14	muhEyA	muhEyA	adj	JJ	lex-muhEyA|cat-adj|gen-any|num-any|pers-|case-|vib-|tam-|chunkId-JJP|stype-|voicetype-	15	pof	_	_
15	karAyA	karA	v	VM	lex-karA|cat-v|gen-m|num-sg|pers-3|case-|vib-yA_jA+wA_hE|tam-yA|chunkId-VGF|stype-declarative|voicetype-active	0	main	_	_
16	.	.	punc	SYM	lex-.|cat-punc|gen-|num-|pers-|case-|vib-|tam-|chunkId-BLK|stype-|voicetype-	15	rsym	_	_

1	BArawa	BArawa	n	NNP	lex-BArawa|cat-n|gen-m|num-sg|pers-3|case-o|vib-0_kA_ora_se|tam-0|chunkId-NP|stype-|voicetype-	5	rd	_	_
2	pAkiswAna	pAkiswAna	n	NNP	lex-pAkiswAna|cat-n|gen-m|num-sg|pers-3|case-o|vib-0_ke_sAWa|tam-0|chunkId-NP2|stype-|voicetype-	5	ras-k1	_	_
3	viSvAsa	viSvAsa	n	NN	lex-viSvAsa|cat-n|gen-m|num-sg|pers-3|case-d|vib-0|tam-0|chunkId-NP3|stype-|voicetype-	5	k2	_	_
4	kZAyama	kAyama	adj	JJ	lex-kAyama|cat-adj|gen-any|num-any|pers-|case-|vib-|tam-|chunkId-JJP|stype-|voicetype-	5	pof	_	_
5	karane	kara	v	VM	lex-kara|cat-v|gen-any|num-pl|pers-any|case-o|vib-nA_kA|tam-nA|chunkId-VGNN|stype-|voicetype-	6	r6	_	_
6	upAyoM	upAya	n	NN	lex-upAya|cat-n|gen-m|num-pl|pers-3|case-o|vib-0_ke_wahawa|tam-0|chunkId-NP4|stype-|voicetype-	12	k7a	_	_
7	yojanA	yojanA	n	NN	lex-yojanA|cat-n|gen-f|num-sg|pers-3|case-d|vib-0|tam-0|chunkId-NP5|stype-|voicetype-	12	k2	_	_
8	islAmAbAxa	islAmAbAxa	n	NNP	lex-islAmAbAxa|cat-n|gen-m|num-sg|pers-3|case-d|vib-0|tam-0|chunkId-NP6|stype-|voicetype-	9	jjmod	_	_
9	sWiwa	sWiwa	adj	JJ	lex-sWiwa|cat-adj|gen-any|num-any|pers-|case-o|vib-|tam-|chunkId-JJP2|stype-|voicetype-	10	nmod	_	_
10	uccAyoga	uccAyoga	n	NN	lex-uccAyoga|cat-n|gen-m|num-sg|pers-3|case-o|vib-0_ke_mAXyama_se|tam-0|chunkId-NP7|stype-|voicetype-	12	k3	_	_
11	lAgU	lAgU	adj	JJ	lex-lAgU|cat-adj|gen-any|num-any|pers-|case-|vib-|tam-|chunkId-JJP3|stype-|voicetype-	12	pof	_	_
12	kI	kara	v	VM	lex-kara|cat-v|gen-f|num-sg|pers-3|case-|vib-yA_jA_raha+yA_hE|tam-yA|chunkId-VGF|stype-declarative|voicetype-passive	0	main	_	_
13	.	.	punc	SYM	lex-.|cat-punc|gen-|num-|pers-|case-|vib-|tam-|chunkId-BLK|stype-|voicetype-	12	rsym	_	_

