1	baMXuoM	baMXu	n	NN	lex-baMXu|cat-n|gen-m|num-pl|pers-3|case-o|vib-0_meM|tam-0|chunkId-NP|stype-|voicetype-	4	k7	_	_
2	varcasva	varcasva	n	NN	lex-varcasva|cat-n|gen-m|num-sg|pers-3|case-o|vib-0_kA|tam-0|chunkId-NP2|stype-|voicetype-	3	r6	_	_
3	jaMga	jaMga	n	NN	lex-jaMga|cat-n|gen-f|num-sg|pers-3|case-d|vib-0|tam-0|chunkId-NP3|stype-|voicetype-	4	k2	_	_
4	Wamane	Wama	v	VM	lex-Wama|cat-v|gen-any|num-sg|pers-3|case-o|vib-nA_ke_bAxa|tam-nA|chunkId-VGNN|stype-|voicetype-	9	k7t	_	_
5	enarjI	enarjI	n	NNP	lex-enarjI|cat-n|gen-f|num-sg|pers-3|case-o|vib-0_kA|tam-0|chunkId-NP4|stype-|voicetype-	6	r6	_	_
6	niveSakoM	niveSaka	n	NN	lex-niveSaka|cat-n|gen-m|num-pl|pers-3|case-o|vib-0_ke_lie|tam-0|chunkId-NP5|stype-|voicetype-	9	rt	_	_
7	buXavAra	buXavAra	n	NNP	lex-buXavAra|cat-n|gen-m|num-sg|pers-3|case-o|vib-0_ko|tam-0|chunkId-NP6|stype-|voicetype-	9	k7t	_	_
8	Kabara	Kabara	n	NN	lex-Kabara|cat-n|gen-f|num-sg|pers-3|case-d|vib-0|tam-0|chunkId-NP7|stype-|voicetype-	9	k1	_	_
9	AI	A	v	VM	lex-A|cat-v|gen-f|num-sg|pers-any|case-|vib-yA|tam-yA|chunkId-VGF|stype-declarative|voicetype-active	0	main	_	_
10	.	.	punc	SYM	lex-.|cat-punc|gen-|num-|pers-|case-|vib-|tam-|chunkId-BLK|stype-|voicetype-	9	rsym	_	_

1	enarjI	enarjI	n	NNP	lex-enarjI|cat-n|gen-f|num-sg|pers-3|case-o|vib-0_kA_ora_se|tam-0|chunkId-NP|stype-|voicetype-	4	rd	_	_
2	Aja	Aja	n	NN	lex-Aja|cat-n|gen-m|num-sg|pers-3|case-d|vib-0|tam-0|chunkId-NP2|stype-|voicetype-	4	k7t	_	_
3	rUpa	rUpa	n	NN	lex-rUpa|cat-n|gen-m|num-sg|pers-3|case-o|vib-0_se|tam-0|chunkId-NP3|stype-|voicetype-	4	adv	_	_
4	bawAyA	bawA	v	VM	lex-bawA|cat-v|gen-m|num-sg|pers-any|case-|vib-yA_jA+yA1|tam-yA|chunkId-VGF|stype-declarative|voicetype-active	0	main	_	_
5	ki	ki	avy	CC	lex-ki|cat-avy|gen-|num-|pers-|case-|vib-|tam-|chunkId-CCP|stype-|voicetype-	4	k2	_	_
6	kaMpanI	kaMpanI	n	NN	lex-kaMpanI|cat-n|gen-f|num-sg|pers-3|case-o|vib-0_kA|tam-0|chunkId-NP4|stype-|voicetype-	7	r6	_	_
7	borda	borda	n	NN	lex-borda|cat-n|gen-m|num-sg|pers-3|case-o|vib-0_ne|tam-0|chunkId-NP5|stype-|voicetype-	13	k1	_	_
8	praxeSa	praxeSa	n	NNP	lex-praxeSa|cat-n|gen-m|num-sg|pers-3|case-o|vib-0_meM|tam-0|chunkId-NP6|stype-|voicetype-	11	k7p	_	_
9	viwaraNa	viwaraNa	n	NN	lex-viwaraNa|cat-n|gen-m|num-sg|pers-3|case-o|vib-0_kA|tam-0|chunkId-NP7|stype-|voicetype-	10	r6	_	_
10	kRewra	kRewra	n	NN	lex-kRewra|cat-n|gen-m|num-sg|pers-3|case-o|vib-0_meM|tam-0|chunkId-NP8|stype-|voicetype-	11	k7p	_	_
11	uwarane	uwara	v	VM	lex-uwara|cat-v|gen-any|num-sg|pers-any|case-o|vib-nA_kA|tam-nA|chunkId-VGNN|stype-|voicetype-	12	r6-k2	_	_
12	sahamawi	sahamawi	n	NN	lex-sahamawi|cat-n|gen-f|num-sg|pers-3|case-d|vib-0|tam-0|chunkId-NP9|stype-|voicetype-	13	pof	_	_
13	xe	xe	v	VM	lex-xe|cat-v|gen-f|num-sg|pers-3|case-|vib-0_xe+yA_hE|tam-0|chunkId-VGF2|stype-declarative|voicetype-active	5	ccof	_	_
14	.	.	punc	SYM	lex-.|cat-punc|gen-|num-|pers-|case-|vib-|tam-|chunkId-BLK|stype-|voicetype-	4	rsym	_	_

1	praxeSa	praxeSa	n	NNP	lex-praxeSa|cat-n|gen-m|num-sg|pers-3|case-o|vib-0_meM|tam-0|chunkId-NP|stype-|voicetype-	7	k7p	_	_
2	kaMpaniyoM	kaMpanI	n	NN	lex-kaMpanI|cat-n|gen-f|num-pl|pers-3|case-o|vib-0_meM|tam-0|chunkId-NP2|stype-|voicetype-	7	k7	_	_
3	hissexArI	hissexArI	n	NN	lex-hissexArI|cat-n|gen-f|num-sg|pers-3|case-o|vib-0_ke_lie|tam-0|chunkId-NP3|stype-|voicetype-	7	rt	_	_
4	nivixAoM	nivixA	n	NN	lex-nivixA|cat-n|gen-f|num-pl|pers-3|case-o|vib-0_meM|tam-0|chunkId-NP4|stype-|voicetype-	7	k7	_	_
5	enarjI	enarjI	n	NNP	lex-enarjI|cat-n|gen-f|num-sg|pers-3|case-d|vib-0|tam-0|chunkId-NP5|stype-|voicetype-	7	k1	_	_
6	hAWa	hAWa	n	NN	lex-hAWa|cat-n|gen-m|num-sg|pers-3|case-d|vib-0|tam-0|chunkId-NP6|stype-|voicetype-	7	pof	_	_
7	dAlegI	dAla	v	VM	lex-dAla|cat-v|gen-f|num-sg|pers-3|case-|vib-gA|tam-gA|chunkId-VGF|stype-declarative|voicetype-active	0	main	_	_
8	.	.	punc	SYM	lex-.|cat-punc|gen-|num-|pers-|case-|vib-|tam-|chunkId-BLK|stype-|voicetype-	7	rsym	_	_

1	ora	ora	nst	NST	lex-ora|cat-nst|gen-f|num-sg|pers-3|case-d|vib-|tam-|chunkId-NP|stype-|voicetype-	4	sent-adv	_	_
2	Aja	Aja	n	NN	lex-Aja|cat-n|gen-m|num-sg|pers-3|case-d|vib-0|tam-0|chunkId-NP2|stype-|voicetype-	4	k7t	_	_
3	KabaroM	Kabara	n	NN	lex-Kabara|cat-n|gen-f|num-pl|pers-3|case-o|vib-0_meM|tam-0|chunkId-NP3|stype-|voicetype-	4	k7	_	_
4	kahA	kaha	v	VM	lex-kaha|cat-v|gen-m|num-sg|pers-3|case-|vib-yA_jA+yA1_hE|tam-yA|chunkId-VGF|stype-declarative|voicetype-active	0	main	_	_
5	ki	ki	avy	CC	lex-ki|cat-avy|gen-|num-|pers-|case-|vib-|tam-|chunkId-CCP|stype-|voicetype-	4	k2	_	_
6	enarjI	enarjI	n	NNP	lex-enarjI|cat-n|gen-f|num-sg|pers-3|case-o|vib-0_kA|tam-0|chunkId-NP4|stype-|voicetype-	7	r6	_	_
7	aXyakRa	aXyakRa	n	NN	lex-aXyakRa|cat-n|gen-m|num-sg|pers-3|case-o|vib-0|tam-0|chunkId-NP5|stype-|voicetype-	8	ccof	_	_
8	evaM	evaM	avy	CC	lex-evaM|cat-avy|gen-|num-|pers-|case-|vib-|tam-|chunkId-CCP2|stype-|voicetype-	10	nmod	_	_
9	nixeSaka	nixeSaka	n	NN	lex-nixeSaka|cat-n|gen-m|num-sg|pers-3|case-o|vib-0|tam-0|chunkId-NP6|stype-|voicetype-	8	ccof	_	_
10	aMbAnI	aMbAnI	n	NNP	lex-aMbAnI|cat-n|gen-any|num-sg|pers-3|case-o|vib-0_ne|tam-0|chunkId-NP7|stype-|voicetype-	17	k1	_	_
11	pariyojanAoM	pariyojanA	n	NN	lex-pariyojanA|cat-n|gen-f|num-pl|pers-3|case-o|vib-0_meM|tam-0|chunkId-NP8|stype-|voicetype-	17	k7	_	_
12	rupaye	rupayA	n	NN	lex-rupayA|cat-n|gen-m|num-sg|pers-3|case-o|vib-0_kA|tam-0|chunkId-NP9|stype-|voicetype-	13	r6	_	_
13	niveSa	niveSa	n	NN	lex-niveSa|cat-n|gen-m|num-sg|pers-3|case-o|vib-0_ke_bAre_meM|tam-0|chunkId-NP10|stype-|voicetype-	17	k7	_	_
14	iMdastrIja	iMdastrI	n	NNP	lex-iMdastrI|cat-n|gen-f|num-pl|pers-3|case-o|vib-0_ko|tam-0|chunkId-NP11|stype-|voicetype-	17	k4	_	_
15	varRa	varRa	n	NN	lex-varRa|cat-n|gen-m|num-sg|pers-3|case-o|vib-0_meM|tam-0|chunkId-NP12|stype-|voicetype-	17	k7t	_	_
16	sUciwa	sUciwa	adj	JJ	lex-sUciwa|cat-adj|gen-any|num-any|pers-|case-|vib-|tam-|chunkId-JJP|stype-|voicetype-	17	pof	_	_
17	kiyA	kara	v	VM	lex-kara|cat-v|gen-m|num-sg|pers-any|case-|vib-yA_WA|tam-yA|chunkId-VGF2|stype-declarative|voicetype-active	5	ccof	_	_
18	.	.	punc	SYM	lex-.|cat-punc|gen-|num-|pers-|case-|vib-|tam-|chunkId-BLK|stype-|voicetype-	4	rsym	_	_

1	xAvA	xAvA	n	NN	lex-xAvA|cat-n|gen-m|num-sg|pers-3|case-d|vib-0|tam-0|chunkId-NP|stype-|voicetype-	2	pof	_	_
2	kiyA	kara	v	VM	lex-kara|cat-v|gen-m|num-sg|pers-3|case-|vib-yA_jA+yA1_hE|tam-yA|chunkId-VGF|stype-declarative|voicetype-passive	0	main	_	_
3	ki	ki	avy	CC	lex-ki|cat-avy|gen-|num-|pers-|case-|vib-|tam-|chunkId-CCP|stype-|voicetype-	2	k2	_	_
4	aMbAnI	aMbAnI	n	NNP	lex-aMbAnI|cat-n|gen-any|num-sg|pers-3|case-o|vib-0_kA|tam-0|chunkId-NP2|stype-|voicetype-	5	r6	_	_
5	aXyakRawA	aXyakRawA	n	NN	lex-aXyakRawA|cat-n|gen-f|num-sg|pers-3|case-o|vib-0_vAlA|tam-0|chunkId-NP3|stype-|voicetype-	6	nmod	_	_
6	iMdastrIja	iMdastrI	n	NNP	lex-iMdastrI|cat-n|gen-f|num-pl|pers-3|case-o|vib-0_ne|tam-0|chunkId-NP4|stype-|voicetype-	12	k1	_	_
7	isake	yaha	pn	PRP	lex-yaha|cat-pn|gen-any|num-sg|pers-3|case-o|vib-ke_lie|tam-ke|chunkId-NP5|stype-|voicetype-	9	rt	_	_
8	maMjUrI	maMjUrI	n	NN	lex-maMjUrI|cat-n|gen-f|num-sg|pers-3|case-d|vib-0|tam-0|chunkId-NP6|stype-|voicetype-	9	pof	_	_
9	xene	xe	v	VM	lex-xe|cat-v|gen-any|num-sg|pers-3|case-o|vib-nA_ke_sAWa|tam-nA|chunkId-VGNN|stype-|voicetype-	12	ras-k2	_	_
10	maxaxa	maxaxa	n	NN	lex-maxaxa|cat-n|gen-f|num-sg|pers-3|case-o|vib-0_ko|tam-0|chunkId-NP7|stype-|voicetype-	12	k4	_	_
11	rajAmaMxI	rajAmaMxI	n	NN	lex-rajAmaMxI|cat-n|gen-f|num-sg|pers-3|case-d|vib-0|tam-0|chunkId-NP8|stype-|voicetype-	12	pof	_	_
12	xe	xe	v	VM	lex-xe|cat-v|gen-f|num-sg|pers-any|case-|vib-0_xe+yA_WA|tam-0|chunkId-VGF2|stype-declarative|voicetype-active	3	ccof	_	_
13	.	.	punc	SYM	lex-.|cat-punc|gen-|num-|pers-|case-|vib-|tam-|chunkId-BLK|stype-|voicetype-	2	rsym	_	_

1	sUwroM	sUwra	n	NN	lex-sUwra|cat-n|gen-m|num-pl|pers-3|case-o|vib-0_ne|tam-0|chunkId-NP|stype-|voicetype-	2	k1	_	_
2	kahA	kaha	v	VM	lex-kaha|cat-v|gen-m|num-sg|pers-any|case-|vib-yA|tam-yA|chunkId-VGF|stype-declarative|voicetype-active	0	main	_	_
3	ki	ki	avy	CC	lex-ki|cat-avy|gen-|num-|pers-|case-|vib-|tam-|chunkId-CCP|stype-|voicetype-	2	k2	_	_
4	enarjI	enarjI	n	NNP	lex-enarjI|cat-n|gen-f|num-sg|pers-3|case-o|vib-0_ne|tam-0|chunkId-NP2|stype-|voicetype-	12	k1	_	_
5	akwUbara	akwUbara	n	NNP	lex-akwUbara|cat-n|gen-m|num-sg|pers-3|case-o|vib-0_ko|tam-0|chunkId-NP3|stype-|voicetype-	12	k7t	_	_
6	bETaka	bETaka	n	NN	lex-bETaka|cat-n|gen-f|num-sg|pers-3|case-o|vib-0_meM|tam-0|chunkId-NP4|stype-|voicetype-	12	k7	_	_
7	aMbAnI	aMbAnI	n	NNP	lex-aMbAnI|cat-n|gen-any|num-sg|pers-3|case-o|vib-0|tam-0|chunkId-NP5|stype-|voicetype-	8	ccof	_	_
8	va	va	avy	CC	lex-va|cat-avy|gen-|num-|pers-|case-|vib-|tam-|chunkId-CCP2|stype-|voicetype-	12	k4	_	_
9	iMdastrIja	iMdastrI	n	NNP	lex-iMdastrI|cat-n|gen-f|num-pl|pers-3|case-o|vib-0_kA|tam-0|chunkId-NP6|stype-|voicetype-	10	r6	_	_
10	nixeSakoM	nixeSaka	n	NN	lex-nixeSaka|cat-n|gen-m|num-pl|pers-3|case-o|vib-0_ko|tam-0|chunkId-NP7|stype-|voicetype-	8	ccof	_	_
11	AmaMwriwa	AmaMwriwa	adj	JJ	lex-AmaMwriwa|cat-adj|gen-any|num-any|pers-|case-|vib-|tam-|chunkId-JJP|stype-|voicetype-	12	pof	_	_
12	kiyA	kara	v	VM	lex-kara|cat-v|gen-m|num-sg|pers-any|case-|vib-yA_WA|tam-yA|chunkId-VGF2|stype-declarative|voicetype-active	3	ccof	_	_
13	.	.	punc	SYM	lex-.|cat-punc|gen-|num-|pers-|case-|vib-|tam-|chunkId-BLK|stype-|voicetype-	2	rsym	_	_

1	isameM	yaha	pn	PRP	lex-yaha|cat-pn|gen-any|num-sg|pers-3|case-o|vib-meM|tam-meM|chunkId-NP|stype-|voicetype-	7	k7	_	_
2	projekta	projekta	n	NN	lex-projekta|cat-n|gen-m|num-sg|pers-3|case-o|vib-0_samewa|tam-0|chunkId-NP2|stype-|voicetype-	7	vmod	_	_
3	xAxarI	xAxarI	n	NNP	lex-xAxarI|cat-n|gen-m|num-sg|pers-3|case-o|vib-0_meM|tam-0|chunkId-NP3|stype-|voicetype-	7	k7p	_	_
4	megAvAta	megAvAta	n	NN	lex-megAvAta|cat-n|gen-m|num-sg|pers-3|case-o|vib-0_kA|tam-0|chunkId-NP4|stype-|voicetype-	5	r6	_	_
5	pariyojanAoM	pariyojanA	n	NN	lex-pariyojanA|cat-n|gen-f|num-pl|pers-3|case-o|vib-0_ke_bAre_meM|tam-0|chunkId-NP5|stype-|voicetype-	7	k7	_	_
6	jAnakArI	jAnakArI	n	NN	lex-jAnakArI|cat-n|gen-f|num-sg|pers-3|case-d|vib-0|tam-0|chunkId-NP6|stype-|voicetype-	7	pof	_	_
7	xI	xe	v	VM	lex-xe|cat-v|gen-f|num-sg|pers-any|case-|vib-yA_jA+yA1_WA|tam-yA|chunkId-VGF|stype-declarative|voicetype-active	0	main	_	_
8	.	.	punc	SYM	lex-.|cat-punc|gen-|num-|pers-|case-|vib-|tam-|chunkId-BLK|stype-|voicetype-	7	rsym	_	_

1	kahA	kaha	v	VM	lex-kaha|cat-v|gen-m|num-sg|pers-any|case-|vib-yA_jA+yA1|tam-yA|chunkId-VGF|stype-declarative|voicetype-active	0	main	_	_
2	ki	ki	avy	CC	lex-ki|cat-avy|gen-|num-|pers-|case-|vib-|tam-|chunkId-CCP|stype-|voicetype-	1	k2	_	_
3	BAIyoM	BAI	n	NN	lex-BAI|cat-n|gen-m|num-pl|pers-3|case-o|vib-0_meM|tam-0|chunkId-NP|stype-|voicetype-	6	k7	_	_
4	manamutAva	manamutAva	n	NN	lex-manamutAva|cat-n|gen-m|num-sg|pers-3|case-d|vib-0|tam-0|chunkId-NP2|stype-|voicetype-	6	k1	_	_
5	vajaha	vajaha	n	NN	lex-vajaha|cat-n|gen-f|num-sg|pers-3|case-o|vib-0_se|tam-0|chunkId-NP3|stype-|voicetype-	6	rh	_	_
6	huA	ho	v	VM	lex-ho|cat-v|gen-m|num-sg|pers-any|case-|vib-yA|tam-yA|chunkId-VGF2|stype-declarative|voicetype-active	2	ccof	_	_
7	.	.	punc	SYM	lex-.|cat-punc|gen-|num-|pers-|case-|vib-|tam-|chunkId-BLK|stype-|voicetype-	1	rsym	_	_

1	bETaka	bETaka	n	NN	lex-bETaka|cat-n|gen-f|num-sg|pers-3|case-o|vib-0_meM|tam-0|chunkId-NP|stype-|voicetype-	8	k7	_	_
2	iMdastrIja	iMdastrI	n	NNP	lex-iMdastrI|cat-n|gen-f|num-pl|pers-3|case-o|vib-0_kA|tam-0|chunkId-NP2|stype-|voicetype-	3	r6	_	_
3	aXyakRa	aXyakRa	n	NN	lex-aXyakRa|cat-n|gen-m|num-sg|pers-3|case-d|vib-0|tam-0|chunkId-NP3|stype-|voicetype-	4	ccof	_	_
4	evaM	evaM	avy	CC	lex-evaM|cat-avy|gen-|num-|pers-|case-|vib-|tam-|chunkId-CCP|stype-|voicetype-	6	nmod	_	_
5	nixeSaka	nixeSaka	n	NN	lex-nixeSaka|cat-n|gen-m|num-sg|pers-3|case-d|vib-0|tam-0|chunkId-NP4|stype-|voicetype-	4	ccof	_	_
6	aMbAnI	aMbAnI	n	NNP	lex-aMbAnI|cat-n|gen-any|num-sg|pers-3|case-d|vib-0|tam-0|chunkId-NP5|stype-|voicetype-	8	k1	_	_
7	mOjUxa	mOjUxa	adj	JJ	lex-mOjUxa|cat-adj|gen-any|num-any|pers-|case-|vib-|tam-|chunkId-JJP|stype-|voicetype-	8	k1s	_	_
8	We	WA	v	VM	lex-WA|cat-v|gen-m|num-sg|pers-3h|case-|vib-WA|tam-WA|chunkId-VGF|stype-declarative|voicetype-active	0	main	_	_
9	.	.	punc	SYM	lex-.|cat-punc|gen-|num-|pers-|case-|vib-|tam-|chunkId-BLK|stype-|voicetype-	8	rsym	_	_

1	sUwroM	sUwra	n	NN	lex-sUwra|cat-n|gen-m|num-pl|pers-3|case-o|vib-0_ke_muwAbika|tam-0|chunkId-NP|stype-|voicetype-	9	k7a	_	_
2	bETaka	bETaka	n	NN	lex-bETaka|cat-n|gen-f|num-sg|pers-3|case-o|vib-0_se_pahale|tam-0|chunkId-NP2|stype-|voicetype-	9	k7t	_	_
3	mukeSa	mukeSa	n	NNP	lex-mukeSa|cat-n|gen-m|num-sg|pers-3|case-o|vib-0_ne|tam-0|chunkId-NP3|stype-|voicetype-	9	k1	_	_
4	anila	anila	n	NNP	lex-anila|cat-n|gen-m|num-sg|pers-3|case-o|vib-0|tam-0|chunkId-NP4|stype-|voicetype-	5	ccof	_	_
5	va	va	avy	CC	lex-va|cat-avy|gen-|num-|pers-|case-|vib-|tam-|chunkId-CCP|stype-|voicetype-	9	k2	_	_
6	nixeSakoM	nixeSaka	n	NN	lex-nixeSaka|cat-n|gen-m|num-pl|pers-3|case-o|vib-0_ke_sAWa|tam-0|chunkId-NP5|stype-|voicetype-	5	ccof	_	_
7	alaga	alaga	adv	RB	lex-alaga|cat-adv|gen-|num-|pers-|case-|vib-|tam-|chunkId-RBP|stype-|voicetype-	9	adv	_	_
8	bETaka	bETaka	n	NN	lex-bETaka|cat-n|gen-f|num-sg|pers-3|case-d|vib-0|tam-0|chunkId-NP6|stype-|voicetype-	9	pof	_	_
9	kI	kara	v	VM	lex-kara|cat-v|gen-f|num-sg|pers-any|case-|vib-yA_WA|tam-yA|chunkId-VGF|stype-declarative|voicetype-active	0	main	_	_
10	.	.	punc	SYM	lex-.|cat-punc|gen-|num-|pers-|case-|vib-|tam-|chunkId-BLK|stype-|voicetype-	9	rsym	_	_

