1	axAlawa	axAlawa	n	NN	lex-axAlawa|cat-n|gen-f|num-sg|pers-3|case-o|vib-0_ne|tam-0|chunkId-NP|stype-|voicetype-	7	k1	_	_
2	nirxeSaka	nirxeSaka	n	NN	lex-nirxeSaka|cat-n|gen-m|num-sg|pers-3|case-o|vib-0|tam-0|chunkId-NP2|stype-|voicetype-	3	nmod	_	_
3	BaMdArakara	BaMdArakara	n	NNP	lex-BaMdArakara|cat-n|gen-any|num-sg|pers-3|case-o|vib-0_kA|tam-0|chunkId-NP3|stype-|voicetype-	4	r6	_	_
4	giraPwArI	giraPwArI	n	NN	lex-giraPwArI|cat-n|gen-f|num-sg|pers-3|case-o|vib-0_para|tam-0|chunkId-NP4|stype-|voicetype-	7	k7	_	_
5	buXavAra	buXavAra	n	NNP	lex-buXavAra|cat-n|gen-m|num-sg|pers-3|case-o|vib-0_waka_ke_lie|tam-0|chunkId-NP5|stype-|voicetype-	7	rt	_	_
6	roka	roka	n	NN	lex-roka|cat-n|gen-f|num-sg|pers-3|case-d|vib-0|tam-0|chunkId-NP6|stype-|voicetype-	7	pof	_	_
7	lagA	lagA	v	VM	lex-lagA|cat-v|gen-f|num-sg|pers-3|case-|vib-0_xe+yA_hE|tam-0|chunkId-VGF|stype-declarative|voicetype-active	0	main	_	_
8	.	.	punc	SYM	lex-.|cat-punc|gen-|num-|pers-|case-|vib-|tam-|chunkId-BLK|stype-|voicetype-	7	rsym	_	_

1	mOYdala	mOYdala	n	NN	lex-mOYdala|cat-n|gen-f|num-sg|pers-3|case-o|vib-0|tam-0|chunkId-NP|stype-|voicetype-	2	ccof	_	_
2	va	va	avy	CC	lex-va|cat-avy|gen-|num-|pers-|case-|vib-|tam-|chunkId-CCP|stype-|voicetype-	4	nmod	_	_
3	aBinewrI	aBinewrI	n	NN	lex-aBinewrI|cat-n|gen-f|num-sg|pers-3|case-o|vib-0_se|tam-0|chunkId-NP2|stype-|voicetype-	2	ccof	_	_
4	xuRkarma	xuRkarma	n	NN	lex-xuRkarma|cat-n|gen-m|num-sg|pers-3|case-o|vib-0_kA|tam-0|chunkId-NP3|stype-|voicetype-	5	r6	_	_
5	Aropa	Aropa	n	NN	lex-Aropa|cat-n|gen-m|num-sg|pers-3|case-o|vib-0_kA|tam-0|chunkId-NP4|stype-|voicetype-	6	r6	_	_
6	mAmale	mAmalA	n	NN	lex-mAmalA|cat-n|gen-m|num-sg|pers-3|case-o|vib-0_meM|tam-0|chunkId-NP5|stype-|voicetype-	10	k7	_	_
7	axAlawa	axAlawa	n	NN	lex-axAlawa|cat-n|gen-f|num-sg|pers-3|case-o|vib-0_ne|tam-0|chunkId-NP6|stype-|voicetype-	10	k1	_	_
8	pulisa	pulisa	n	NN	lex-pulisa|cat-n|gen-f|num-sg|pers-3|case-o|vib-0_ko|tam-0|chunkId-NP7|stype-|voicetype-	10	k4	_	_
9	hixAyawa	hixAyawa	n	NN	lex-hixAyawa|cat-n|gen-f|num-sg|pers-3|case-d|vib-0|tam-0|chunkId-NP8|stype-|voicetype-	10	k2	_	_
10	xI	xe	v	VM	lex-xe|cat-v|gen-f|num-sg|pers-any|case-|vib-yA|tam-yA|chunkId-VGF|stype-declarative|voicetype-active	0	main	_	_
11	.	.	punc	SYM	lex-.|cat-punc|gen-|num-|pers-|case-|vib-|tam-|chunkId-BLK|stype-|voicetype-	10	rsym	_	_

1	BaMdArakara	BaMdArakara	n	NNP	lex-BaMdArakara|cat-n|gen-any|num-sg|pers-3|case-o|vib-0_kA|tam-0|chunkId-NP|stype-|voicetype-	2	r6	_	_
2	jamAnawa	jamAnawa	n	NN	lex-jamAnawa|cat-n|gen-f|num-sg|pers-3|case-o|vib-0_kA|tam-0|chunkId-NP2|stype-|voicetype-	3	r6	_	_
3	yAcikA	yAcikA	n	NN	lex-yAcikA|cat-n|gen-f|num-sg|pers-3|case-o|vib-0_para|tam-0|chunkId-NP3|stype-|voicetype-	8	k7	_	_
4	buXavAra	buXavAra	n	NNP	lex-buXavAra|cat-n|gen-m|num-sg|pers-3|case-o|vib-0_ko|tam-0|chunkId-NP4|stype-|voicetype-	8	k7t	_	_
5	axAlawa	axAlawa	n	NN	lex-axAlawa|cat-n|gen-f|num-sg|pers-3|case-o|vib-0_kA|tam-0|chunkId-NP5|stype-|voicetype-	6	r6	_	_
6	PEsale	PEsalA	n	NN	lex-PEsalA|cat-n|gen-m|num-sg|pers-3|case-o|vib-0_kA|tam-0|chunkId-NP6|stype-|voicetype-	7	r6	_	_
7	ummIxa	ummIxa	n	NN	lex-ummIxa|cat-n|gen-f|num-sg|pers-3|case-d|vib-0|tam-0|chunkId-NP7|stype-|voicetype-	8	k1	_	_
8	hE	hE	v	VM	lex-hE|cat-v|gen-any|num-sg|pers-3|case-|vib-hE|tam-hE|chunkId-VGF|stype-declarative|voicetype-active	0	main	_	_
9	.	.	punc	SYM	lex-.|cat-punc|gen-|num-|pers-|case-|vib-|tam-|chunkId-BLK|stype-|voicetype-	8	rsym	_	_

1	hAlAMki	hAlAMki	avy	CC	lex-hAlAMki|cat-avy|gen-|num-|pers-|case-|vib-|tam-|chunkId-CCP|stype-|voicetype-	0	main	_	_
2	maMgalavAra	maMgalavAra	n	NNP	lex-maMgalavAra|cat-n|gen-m|num-sg|pers-3|case-o|vib-0_ko|tam-0|chunkId-NP|stype-|voicetype-	5	k7t	_	_
3	isa	yaha	pn	PRP	lex-yaha|cat-pn|gen-any|num-sg|pers-3|case-o|vib-0_para|tam-0|chunkId-NP2|stype-|voicetype-	5	k7	_	_
4	bahasa	bahasa	n	NN	lex-bahasa|cat-n|gen-f|num-sg|pers-3|case-d|vib-0|tam-0|chunkId-NP3|stype-|voicetype-	5	k1	_	_
5	huI	ho	v	VM	lex-ho|cat-v|gen-f|num-sg|pers-any|case-|vib-yA|tam-yA|chunkId-VGF|stype-declarative|voicetype-active	1	ccof	_	_
6	jo	jo	pn	PRP	lex-jo|cat-pn|gen-any|num-sg|pers-3|case-d|vib-0|tam-0|chunkId-NP4|stype-|voicetype-	9	k1	_	_
7	buXavAra	buXavAra	n	NNP	lex-buXavAra|cat-n|gen-m|num-sg|pers-3|case-o|vib-0_ko|tam-0|chunkId-NP5|stype-|voicetype-	9	k7t	_	_
8	jArI	jArI	adj	JJ	lex-jArI|cat-adj|gen-any|num-any|pers-|case-|vib-|tam-|chunkId-JJP|stype-|voicetype-	9	pof	_	_
9	rahegI	raha	v	VM	lex-raha|cat-v|gen-f|num-sg|pers-3|case-|vib-gA|tam-gA|chunkId-VGF2|stype-declarative|voicetype-active	4	nmod__relc	_	_
10	.	.	punc	SYM	lex-.|cat-punc|gen-|num-|pers-|case-|vib-|tam-|chunkId-BLK|stype-|voicetype-	1	rsym	_	_

1	isase	yaha	pn	PRP	lex-yaha|cat-pn|gen-any|num-sg|pers-3|case-o|vib-se_pUrva|tam-se|chunkId-NP|stype-|voicetype-	9	k7t	_	_
2	axAlawa	axAlawa	n	NN	lex-axAlawa|cat-n|gen-f|num-sg|pers-3|case-o|vib-0_ne|tam-0|chunkId-NP2|stype-|voicetype-	9	k1	_	_
3	BaMdArakara	BaMdArakara	n	NNP	lex-BaMdArakara|cat-n|gen-any|num-sg|pers-3|case-o|vib-0_ko|tam-0|chunkId-NP3|stype-|voicetype-	6	k2	_	_
4	buXavAra	buXavAra	n	NNP	lex-buXavAra|cat-n|gen-m|num-sg|pers-3|case-o|vib-0_waka_ke_lie|tam-0|chunkId-NP4|stype-|voicetype-	6	rt	_	_
5	giraPwAra	giraPwAra	adj	JJ	lex-giraPwAra|cat-adj|gen-any|num-any|pers-|case-|vib-|tam-|chunkId-JJP|stype-|voicetype-	6	pof	_	_
6	karane	kara	v	VM	lex-kara|cat-v|gen-any|num-pl|pers-any|case-o|vib-nA_kA|tam-nA|chunkId-VGNN|stype-|voicetype-	7	r6	_	_
7	pulisa	pulisa	n	NN	lex-pulisa|cat-n|gen-f|num-sg|pers-3|case-o|vib-0_ko|tam-0|chunkId-NP5|stype-|voicetype-	9	k4	_	_
8	nirxeSa	nirxeSa	n	NN	lex-nirxeSa|cat-n|gen-m|num-pl|pers-3|case-d|vib-0|tam-0|chunkId-NP6|stype-|voicetype-	9	k2	_	_
9	xie	xe	v	VM	lex-xe|cat-v|gen-m|num-pl|pers-any|case-|vib-yA_WA|tam-yA|chunkId-VGF|stype-declarative|voicetype-active	0	main	_	_
10	.	.	punc	SYM	lex-.|cat-punc|gen-|num-|pers-|case-|vib-|tam-|chunkId-BLK|stype-|voicetype-	9	rsym	_	_

1	BaMdArakara	BaMdArakara	n	NNP	lex-BaMdArakara|cat-n|gen-any|num-sg|pers-3|case-o|vib-0_ne|tam-0|chunkId-NP|stype-|voicetype-	13	k1	_	_
2	una	vaha	pn	PRP	lex-vaha|cat-pn|gen-any|num-sg|pers-3h|case-o|vib-0_para|tam-0|chunkId-NP2|stype-|voicetype-	3	k7	_	_
3	lagAe	lagA	v	VM	lex-lagA|cat-v|gen-m|num-pl|pers-any|case-|vib-yA_jA+yA1|tam-yA|chunkId-VGNF|stype-|voicetype-	4	nmod__k1inv	_	_
4	xuRkarma	xuRkarma	n	NN	lex-xuRkarma|cat-n|gen-m|num-sg|pers-3|case-o|vib-0|tam-0|chunkId-NP3|stype-|voicetype-	5	ccof	_	_
5	Ora	Ora	avy	CC	lex-Ora|cat-avy|gen-|num-|pers-|case-|vib-|tam-|chunkId-CCP|stype-|voicetype-	10	r6	_	_
6	jAna	jAna	n	NN	lex-jAna|cat-n|gen-f|num-sg|pers-3|case-o|vib-0_se|tam-0|chunkId-NP4|stype-|voicetype-	7	pof	_	_
7	mArane	mAra	v	VM	lex-mAra|cat-v|gen-any|num-sg|pers-any|case-o|vib-nA_kA|tam-nA|chunkId-VGNN|stype-|voicetype-	8	r6-k2	_	_
8	XamakI	XamakI	n	NN	lex-XamakI|cat-n|gen-f|num-sg|pers-3|case-d|vib-0|tam-0|chunkId-NP5|stype-|voicetype-	9	pof	_	_
9	xene	xe	v	VM	lex-xe|cat-v|gen-any|num-pl|pers-any|case-o|vib-nA_kA|tam-nA|chunkId-VGNN2|stype-|voicetype-	5	ccof	_	_
10	AropoM	Aropa	n	NN	lex-Aropa|cat-n|gen-m|num-pl|pers-3|case-o|vib-0_ko|tam-0|chunkId-NP6|stype-|voicetype-	12	k2	_	_
11	KArija	KArija	adj	JJ	lex-KArija|cat-adj|gen-any|num-any|pers-|case-|vib-|tam-|chunkId-JJP|stype-|voicetype-	12	pof	_	_
12	karawe	kara	v	VM	lex-kara|cat-v|gen-m|num-sg|pers-any|case-|vib-wA_ho+yA|tam-wA|chunkId-VGNF2|stype-|voicetype-	13	vmod	_	_
13	kahA	kaha	v	VM	lex-kaha|cat-v|gen-m|num-sg|pers-3|case-|vib-yA_hE|tam-yA|chunkId-VGF|stype-declarative|voicetype-active	0	main	_	_
14	ki	ki	avy	CC	lex-ki|cat-avy|gen-|num-|pers-|case-|vib-|tam-|chunkId-CCP2|stype-|voicetype-	13	k2	_	_
15	unakI	vaha	pn	PRP	lex-vaha|cat-pn|gen-f|num-sg|pers-3h|case-o|vib-kA|tam-kA|chunkId-NP7|stype-|voicetype-	16	r6	_	_
16	Pilma	Pilma	n	NN	lex-Pilma|cat-n|gen-f|num-sg|pers-3|case-o|vib-0_meM|tam-0|chunkId-NP8|stype-|voicetype-	19	k7	_	_
17	rola	rola	n	NN	lex-rola|cat-n|gen-m|num-sg|pers-3|case-d|vib-0|tam-0|chunkId-NP9|stype-|voicetype-	19	k2	_	_
18	hAsila	hAsila	adj	JJ	lex-hAsila|cat-adj|gen-any|num-any|pers-|case-|vib-|tam-|chunkId-JJP2|stype-|voicetype-	19	pof	_	_
19	karane	kara	v	VM	lex-kara|cat-v|gen-any|num-any|pers-any|case-o|vib-nA_ke_lie|tam-nA|chunkId-VGNN3|stype-|voicetype-	23	rt	_	_
20	xabAva	xabAva	n	NN	lex-xabAva|cat-n|gen-m|num-sg|pers-3|case-d|vib-0|tam-0|chunkId-NP10|stype-|voicetype-	21	pof	_	_
21	banAne	banA	v	VM	lex-banA|cat-v|gen-any|num-sg|pers-any|case-o|vib-nA_kA|tam-nA|chunkId-VGNN4|stype-|voicetype-	22	r6	_	_
22	koSiSa	koSiSa	n	NN	lex-koSiSa|cat-n|gen-f|num-sg|pers-3|case-d|vib-0|tam-0|chunkId-NP11|stype-|voicetype-	23	k1	_	_
23	hE	hE	v	VM	lex-hE|cat-v|gen-any|num-sg|pers-3|case-|vib-hE|tam-hE|chunkId-VGF2|stype-declarative|voicetype-active	14	ccof	_	_
24	.	.	punc	SYM	lex-.|cat-punc|gen-|num-|pers-|case-|vib-|tam-|chunkId-BLK|stype-|voicetype-	13	rsym	_	_

1	jabaki	jabaki	avy	CC	lex-jabaki|cat-avy|gen-|num-|pers-|case-|vib-|tam-|chunkId-CCP|stype-|voicetype-	0	main	_	_
2	aBinewrI	aBinewrI	n	NN	lex-aBinewrI|cat-n|gen-f|num-sg|pers-3|case-o|vib-0_kA|tam-0|chunkId-NP|stype-|voicetype-	3	r6	_	_
3	Aropa	Aropa	n	NN	lex-Aropa|cat-n|gen-m|num-sg|pers-3|case-d|vib-0|tam-0|chunkId-NP2|stype-|voicetype-	4	k1	_	_
4	hE	hE	v	VM	lex-hE|cat-v|gen-any|num-sg|pers-3|case-|vib-hE|tam-hE|chunkId-VGF|stype-declarative|voicetype-active	1	ccof	_	_
5	ki	ki	avy	CC	lex-ki|cat-avy|gen-|num-|pers-|case-|vib-|tam-|chunkId-CCP2|stype-|voicetype-	3	rs	_	_
6	BaMdArakara	BaMdArakara	n	NNP	lex-BaMdArakara|cat-n|gen-any|num-sg|pers-3|case-o|vib-0_ne|tam-0|chunkId-NP3|stype-|voicetype-	19	k1	_	_
7	use	vaha	pn	PRP	lex-vaha|cat-pn|gen-any|num-sg|pers-3|case-o|vib-ko|tam-ko|chunkId-NP4|stype-|voicetype-	9	k5	_	_
8	Pilma	Pilma	n	NN	lex-Pilma|cat-n|gen-f|num-sg|pers-3|case-o|vib-0_meM|tam-0|chunkId-NP5|stype-|voicetype-	9	k7	_	_
9	lene	le	v	VM	lex-le|cat-v|gen-any|num-any|pers-any|case-o|vib-nA|tam-nA|chunkId-VGNN|stype-|voicetype-	10	ccof	_	_
10	Ora	Ora	avy	CC	lex-Ora|cat-avy|gen-|num-|pers-|case-|vib-|tam-|chunkId-CCP3|stype-|voicetype-	14	r6-k2	_	_
11	usase	vaha	pn	PRP	lex-vaha|cat-pn|gen-any|num-sg|pers-3|case-o|vib-se|tam-se|chunkId-NP6|stype-|voicetype-	13	k1	_	_
12	SAxI	SAxI	n	NN	lex-SAxI|cat-n|gen-f|num-sg|pers-3|case-d|vib-0|tam-0|chunkId-NP7|stype-|voicetype-	13	pof	_	_
13	karane	kara	v	VM	lex-kara|cat-v|gen-any|num-sg|pers-any|case-o|vib-nA_kA|tam-nA|chunkId-VGNN2|stype-|voicetype-	10	r6	_	_
14	vAxA	vAxA	n	NN	lex-vAxA|cat-n|gen-m|num-sg|pers-3|case-d|vib-0|tam-0|chunkId-NP8|stype-|voicetype-	15	pof	_	_
15	karake	kara	v	VM	lex-kara|cat-v|gen-any|num-any|pers-any|case-|vib-kara|tam-kara|chunkId-VGNF|stype-|voicetype-	19	vmod	_	_
16	xaPA	xaPA	n	NN	lex-xaPA|cat-n|gen-f|num-pl|pers-3|case-d|vib-0|tam-0|chunkId-NP9|stype-|voicetype-	19	k7t	_	_
17	usakA	vaha	pn	PRP	lex-vaha|cat-pn|gen-m|num-sg|pers-3|case-o|vib-kA|tam-kA|chunkId-NP10|stype-|voicetype-	18	r6-k2	_	_
18	uwpIdZana	uwpIdZana	n	NN	lex-uwpIdZana|cat-n|gen-m|num-sg|pers-3|case-d|vib-0|tam-0|chunkId-NP11|stype-|voicetype-	19	pof	_	_
19	kiyA	kara	v	VM	lex-kara|cat-v|gen-m|num-sg|pers-any|case-|vib-yA|tam-yA|chunkId-VGF2|stype-declarative|voicetype-active	5	ccof	_	_
20	.	.	punc	SYM	lex-.|cat-punc|gen-|num-|pers-|case-|vib-|tam-|chunkId-BLK|stype-|voicetype-	1	rsym	_	_

