1	xeSa	xeSa	n	NN	lex-xeSa|cat-n|gen-m|num-sg|pers-3|case-o|vib-0_kA|tam-0|chunkId-NP|stype-|voicetype-	6	r6	_	_
2	XArmika	XArmika	adj	JJ	lex-XArmika|cat-adj|gen-any|num-any|pers-|case-o|vib-|tam-|chunkId-JJP|stype-|voicetype-	4	ccof	_	_
3	sAmAjika	sAmAjika	adj	JJ	lex-sAmAjika|cat-adj|gen-any|num-any|pers-|case-o|vib-|tam-|chunkId-JJP2|stype-|voicetype-	4	ccof	_	_
4	Ora	Ora	avy	CC	lex-Ora|cat-avy|gen-|num-|pers-|case-|vib-|tam-|chunkId-CCP|stype-|voicetype-	6	nmod	_	_
5	rAjanIwika	rAjanIwika	adj	JJ	lex-rAjanIwika|cat-adj|gen-any|num-any|pers-|case-o|vib-|tam-|chunkId-JJP3|stype-|voicetype-	4	ccof	_	_
6	samasyAoM	samasyA	n	NN	lex-samasyA|cat-n|gen-f|num-pl|pers-3|case-o|vib-0_ke_lie|tam-0|chunkId-NP2|stype-|voicetype-	20	rt	_	_
7	Araesaesa	Araesaesa	n	NNP	lex-Araesaesa|cat-n|gen-m|num-sg|pers-3|case-o|vib-0_kA|tam-0|chunkId-NP3|stype-|voicetype-	8	r6	_	_
8	sarasaMGacAlaka	sarasaMGacAlaka	n	NN	lex-sarasaMGacAlaka|cat-n|gen-m|num-sg|pers-3|case-o|vib-0|tam-0|chunkId-NP4|stype-|voicetype-	9	nmod	_	_
9	suxarSana	suxarSana	n	NNP	lex-suxarSana|cat-n|gen-m|num-sg|pers-3|case-o|vib-0_ne|tam-0|chunkId-NP5|stype-|voicetype-	20	k1	_	_
10	ravivAra	ravivAra	n	NNP	lex-ravivAra|cat-n|gen-m|num-sg|pers-3|case-o|vib-0_ko|tam-0|chunkId-NP6|stype-|voicetype-	20	k7t	_	_
11	stediyama	stediyama	n	NN	lex-stediyama|cat-n|gen-m|num-sg|pers-3|case-o|vib-0_meM|tam-0|chunkId-NP7|stype-|voicetype-	12	jjmod	_	_
12	Ayojiwa	Ayojiwa	adj	JJ	lex-Ayojiwa|cat-adj|gen-any|num-any|pers-|case-o|vib-|tam-|chunkId-JJP4|stype-|voicetype-	13	nmod	_	_
13	sammelana	sammelana	n	NN	lex-sammelana|cat-n|gen-m|num-sg|pers-3|case-o|vib-0_meM|tam-0|chunkId-NP8|stype-|voicetype-	20	k7	_	_
14	gAMXI	gAMXI	n	NNP	lex-gAMXI|cat-n|gen-any|num-sg|pers-3|case-o|vib-0|tam-0|chunkId-NP9|stype-|voicetype-	16	ccof	_	_
15	neharU	neharU	n	NNP	lex-neharU|cat-n|gen-any|num-sg|pers-3|case-o|vib-0|tam-0|chunkId-NP10|stype-|voicetype-	16	ccof	_	_
16	Ora	Ora	avy	CC	lex-Ora|cat-avy|gen-|num-|pers-|case-|vib-|tam-|chunkId-CCP2|stype-|voicetype-	20	k2	_	_
17	jinnA	jinnA	n	NNP	lex-jinnA|cat-n|gen-any|num-sg|pers-3|case-o|vib-0_ko|tam-0|chunkId-NP11|stype-|voicetype-	16	ccof	_	_
18	kataGare	kataGarA	n	NN	lex-kataGarA|cat-n|gen-m|num-sg|pers-3|case-o|vib-0_meM|tam-0|chunkId-NP12|stype-|voicetype-	20	k7p	_	_
19	KadZA	KadA	adj	JJ	lex-KadA|cat-adj|gen-m|num-sg|pers-|case-|vib-|tam-|chunkId-JJP5|stype-|voicetype-	20	pof	_	_
20	kiyA	kara	v	VM	lex-kara|cat-v|gen-m|num-sg|pers-any|case-|vib-yA|tam-yA|chunkId-VGF|stype-declarative|voicetype-active	0	main	_	_
21	.	.	punc	SYM	lex-.|cat-punc|gen-|num-|pers-|case-|vib-|tam-|chunkId-BLK|stype-|voicetype-	20	rsym	_	_

1	unhoMne	vaha	pn	PRP	lex-vaha|cat-pn|gen-any|num-sg|pers-3h|case-o|vib-ne|tam-ne|chunkId-NP|stype-|voicetype-	2	k1	_	_
2	kahA	kaha	v	VM	lex-kaha|cat-v|gen-m|num-sg|pers-any|case-|vib-yA|tam-yA|chunkId-VGF|stype-declarative|voicetype-active	0	main	_	_
3	ki	ki	avy	CC	lex-ki|cat-avy|gen-|num-|pers-|case-|vib-|tam-|chunkId-CCP|stype-|voicetype-	2	k2	_	_
4	kAMgresa	kAMgresa	n	NNP	lex-kAMgresa|cat-n|gen-f|num-sg|pers-3|case-o|vib-0_kA|tam-0|chunkId-NP2|stype-|voicetype-	7	r6	_	_
5	1920	1920	n	NNP	lex-1920|cat-n|gen-m|num-sg|pers-3|case-o|vib-0_kA|tam-0|chunkId-NP3|stype-|voicetype-	6	r6	_	_
6	AMxolana	AMxolana	n	NN	lex-AMxolana|cat-n|gen-m|num-sg|pers-3|case-o|vib-0_ko|tam-0|chunkId-NP4|stype-|voicetype-	7	nmod	_	_
7	samarWana	samarWana	n	NN	lex-samarWana|cat-n|gen-m|num-sg|pers-3|case-d|vib-0|tam-0|chunkId-NP5|stype-|voicetype-	9	k1	_	_
8	BUla	BUla	n	NN	lex-BUla|cat-n|gen-f|num-sg|pers-3|case-d|vib-0|tam-0|chunkId-NP6|stype-|voicetype-	9	k1s	_	_
9	WI	WA	v	VM	lex-WA|cat-v|gen-f|num-sg|pers-any|case-|vib-WA|tam-WA|chunkId-VGF2|stype-declarative|voicetype-active	3	ccof	_	_
10	.	.	punc	SYM	lex-.|cat-punc|gen-|num-|pers-|case-|vib-|tam-|chunkId-BLK|stype-|voicetype-	2	rsym	_	_

1	isase	yaha	pn	PRP	lex-yaha|cat-pn|gen-any|num-sg|pers-3|case-o|vib-se|tam-se|chunkId-NP|stype-|voicetype-	5	rh	_	_
2	musalamAna	musalamAna	n	NN	lex-musalamAna|cat-n|gen-m|num-sg|pers-3|case-d|vib-0|tam-0|chunkId-NP2|stype-|voicetype-	5	k1	_	_
3	samAja	samAja	n	NN	lex-samAja|cat-n|gen-m|num-sg|pers-3|case-o|vib-0_para|tam-0|chunkId-NP3|stype-|voicetype-	5	k7	_	_
4	hAvI	hAvI	adj	JJ	lex-hAvI|cat-adj|gen-any|num-any|pers-|case-|vib-|tam-|chunkId-JJP|stype-|voicetype-	5	pof	_	_
5	ho	ho	v	VM	lex-ho|cat-v|gen-any|num-pl|pers-any|case-|vib-0_jA+yA1|tam-0|chunkId-VGF|stype-declarative|voicetype-active	0	main	_	_
6	.	.	punc	SYM	lex-.|cat-punc|gen-|num-|pers-|case-|vib-|tam-|chunkId-BLK|stype-|voicetype-	5	rsym	_	_

1	unhoMne	vaha	pn	PRP	lex-vaha|cat-pn|gen-any|num-sg|pers-3h|case-o|vib-ne|tam-ne|chunkId-NP|stype-|voicetype-	3	k1	_	_
2	Aropa	Aropa	n	NN	lex-Aropa|cat-n|gen-m|num-sg|pers-3|case-d|vib-0|tam-0|chunkId-NP2|stype-|voicetype-	3	pof	_	_
3	lagAyA	lagA	v	VM	lex-lagA|cat-v|gen-m|num-sg|pers-any|case-|vib-yA|tam-yA|chunkId-VGF|stype-declarative|voicetype-active	0	main	_	_
4	ki	ki	avy	CC	lex-ki|cat-avy|gen-|num-|pers-|case-|vib-|tam-|chunkId-CCP|stype-|voicetype-	3	k2	_	_
5	muKarjI	muKarjI	n	NNP	lex-muKarjI|cat-n|gen-any|num-sg|pers-3|case-o|vib-0_kA|tam-0|chunkId-NP3|stype-|voicetype-	6	r6	_	_
6	hawyA	hawyA	n	NN	lex-hawyA|cat-n|gen-f|num-sg|pers-3|case-o|vib-0_meM|tam-0|chunkId-NP4|stype-|voicetype-	10	k7	_	_
7	abxullA	abxullA	n	NNP	lex-abxullA|cat-n|gen-m|num-sg|pers-3|case-o|vib-0_kA|tam-0|chunkId-NP5|stype-|voicetype-	8	r6	_	_
8	hukUmawa	hukUmawa	n	NN	lex-hukUmawa|cat-n|gen-f|num-sg|pers-3|case-o|vib-0_kA|tam-0|chunkId-NP6|stype-|voicetype-	9	r6-k1	_	_
9	hAWa	hAWa	n	NN	lex-hAWa|cat-n|gen-m|num-sg|pers-3|case-d|vib-0|tam-0|chunkId-NP7|stype-|voicetype-	10	pof	_	_
10	WA	WA	v	VM	lex-WA|cat-v|gen-m|num-sg|pers-3|case-|vib-WA|tam-WA|chunkId-VGF2|stype-declarative|voicetype-active	4	ccof	_	_
11	.	.	punc	SYM	lex-.|cat-punc|gen-|num-|pers-|case-|vib-|tam-|chunkId-BLK|stype-|voicetype-	3	rsym	_	_

1	jela	jela	n	NN	lex-jela|cat-n|gen-m|num-sg|pers-3|case-o|vib-0_meM|tam-0|chunkId-NP|stype-|voicetype-	3	k7p	_	_
2	xavAiyAM	xavAI	n	NN	lex-xavAI|cat-n|gen-f|num-pl|pers-3|case-d|vib-0|tam-0|chunkId-NP2|stype-|voicetype-	3	k2	_	_
3	xekara	xe	v	VM	lex-xe|cat-v|gen-any|num-any|pers-any|case-|vib-kara|tam-kara|chunkId-VGNF|stype-|voicetype-	6	vmod	_	_
4	unakI	vaha	pn	PRP	lex-vaha|cat-pn|gen-f|num-sg|pers-3h|case-o|vib-kA|tam-kA|chunkId-NP3|stype-|voicetype-	5	r6-k2	_	_
5	hawyA	hawyA	n	NN	lex-hawyA|cat-n|gen-f|num-sg|pers-3|case-d|vib-0|tam-0|chunkId-NP4|stype-|voicetype-	6	pof	_	_
6	karAI	karA	v	VM	lex-karA|cat-v|gen-f|num-sg|pers-3h|case-|vib-yA_jA+yA1|tam-yA|chunkId-VGF|stype-declarative|voicetype-passive	0	main	_	_
7	.	.	punc	SYM	lex-.|cat-punc|gen-|num-|pers-|case-|vib-|tam-|chunkId-BLK|stype-|voicetype-	6	rsym	_	_

1	pramuKa	pramuKa	n	NN	lex-pramuKa|cat-n|gen-m|num-sg|pers-3|case-o|vib-0_ne|tam-0|chunkId-NP|stype-|voicetype-	4	k1	_	_
2	bAra	bAra	n	NN	lex-bAra|cat-n|gen-f|num-sg|pers-3|case-d|vib-0|tam-0|chunkId-NP2|stype-|voicetype-	3	rbmod	_	_
3	Pira	Pira	adv	RB	lex-Pira|cat-adv|gen-|num-|pers-|case-|vib-|tam-|chunkId-RBP|stype-|voicetype-	4	vmod	_	_
4	xoharAyA	xoharA	v	VM	lex-xoharA|cat-v|gen-m|num-sg|pers-any|case-|vib-yA|tam-yA|chunkId-VGF|stype-declarative|voicetype-active	0	main	_	_
5	ki	ki	avy	CC	lex-ki|cat-avy|gen-|num-|pers-|case-|vib-|tam-|chunkId-CCP|stype-|voicetype-	4	k2	_	_
6	saMGa	saMGa	n	NN	lex-saMGa|cat-n|gen-m|num-sg|pers-3|case-o|vib-0_kA|tam-0|chunkId-NP3|stype-|voicetype-	7	r6	_	_
7	saMgaTana	saMgaTana	n	NN	lex-saMgaTana|cat-n|gen-m|num-pl|pers-3|case-d|vib-0|tam-0|chunkId-NP4|stype-|voicetype-	9	k1	_	_
8	aneka	aneka	avy	QF	lex-aneka|cat-avy|gen-|num-|pers-|case-|vib-|tam-|chunkId-JJP|stype-|voicetype-	9	k1s	_	_
9	hEM	hE	v	VM	lex-hE|cat-v|gen-any|num-pl|pers-3|case-|vib-hE|tam-hE|chunkId-VGF2|stype-declarative|voicetype-active	10	ccof	_	_
10	kiMwu	kiMwu	avy	CC	lex-kiMwu|cat-avy|gen-|num-|pers-|case-|vib-|tam-|chunkId-CCP2|stype-|voicetype-	5	ccof	_	_
11	vicAraXArA	vicAraXArA	n	NN	lex-vicAraXArA|cat-n|gen-f|num-sg|pers-3|case-d|vib-0|tam-0|chunkId-NP5|stype-|voicetype-	13	k1	_	_
12	eka	eka	n	NN	lex-eka|cat-n|gen-m|num-sg|pers-3|case-d|vib-0|tam-0|chunkId-NP6|stype-|voicetype-	13	k1s	_	_
13	hE	hE	v	VM	lex-hE|cat-v|gen-any|num-sg|pers-3|case-|vib-hE|tam-hE|chunkId-VGF3|stype-declarative|voicetype-active	10	ccof	_	_
14	.	.	punc	SYM	lex-.|cat-punc|gen-|num-|pers-|case-|vib-|tam-|chunkId-BLK|stype-|voicetype-	4	rsym	_	_

1	suxarSana	suxarSana	n	NNP	lex-suxarSana|cat-n|gen-m|num-sg|pers-3|case-o|vib-0_ne|tam-0|chunkId-NP|stype-|voicetype-	2	k1	_	_
2	kahA	kaha	v	VM	lex-kaha|cat-v|gen-m|num-sg|pers-any|case-|vib-yA|tam-yA|chunkId-VGF|stype-declarative|voicetype-active	0	main	_	_
3	ki	ki	avy	CC	lex-ki|cat-avy|gen-|num-|pers-|case-|vib-|tam-|chunkId-CCP|stype-|voicetype-	2	k2	_	_
4	yuxXa	yuxXa	n	NNP	lex-yuxXa|cat-n|gen-m|num-sg|pers-3|case-o|vib-0_meM|tam-0|chunkId-NP2|stype-|voicetype-	9	k7	_	_
5	aMgrejoM	aMgreja	n	NN	lex-aMgreja|cat-n|gen-m|num-pl|pers-3|case-o|vib-0_xvArA|tam-0|chunkId-NP3|stype-|voicetype-	9	k1	_	_
6	wurkI	wurkI	n	NNP	lex-wurkI|cat-n|gen-m|num-sg|pers-3|case-o|vib-0_kA|tam-0|chunkId-NP4|stype-|voicetype-	7	r6	_	_
7	KalIPA	KalIPA	n	NN	lex-KalIPA|cat-n|gen-m|num-sg|pers-3|case-o|vib-0_ko|tam-0|chunkId-NP5|stype-|voicetype-	9	k2	_	_
8	gaxxI	gaxxI	n	NN	lex-gaxxI|cat-n|gen-f|num-sg|pers-3|case-o|vib-0_se|tam-0|chunkId-NP6|stype-|voicetype-	9	k5	_	_
9	hatAnA	hatA	v	VM	lex-hatA|cat-v|gen-any|num-any|pers-any|case-d|vib-nA|tam-nA|chunkId-VGNN|stype-|voicetype-	13	k1	_	_
10	BArawa	BArawa	n	NNP	lex-BArawa|cat-n|gen-m|num-sg|pers-3|case-o|vib-0_kA|tam-0|chunkId-NP7|stype-|voicetype-	11	r6	_	_
11	musalamAnoM	musalamAna	n	NN	lex-musalamAna|cat-n|gen-m|num-pl|pers-3|case-o|vib-0_ko|tam-0|chunkId-NP8|stype-|voicetype-	13	k4a	_	_
12	rAsa	rAsa	n	NN	lex-rAsa|cat-n|gen-m|num-sg|pers-3|case-d|vib-0|tam-0|chunkId-NP9|stype-|voicetype-	13	pof	_	_
13	AyA	A	v	VM	lex-A|cat-v|gen-m|num-sg|pers-any|case-|vib-yA|tam-yA|chunkId-VGF2|stype-declarative|voicetype-active	3	ccof	_	_
14	.	.	punc	SYM	lex-.|cat-punc|gen-|num-|pers-|case-|vib-|tam-|chunkId-BLK|stype-|voicetype-	2	rsym	_	_

1	gAMXI	gAMXI	n	NNP	lex-gAMXI|cat-n|gen-any|num-sg|pers-3|case-o|vib-0_ne|tam-0|chunkId-NP|stype-|voicetype-	11	k1	_	_
2	isake	yaha	pn	PRP	lex-yaha|cat-pn|gen-m|num-sg|pers-3|case-o|vib-ke_KilAPa|tam-ke|chunkId-NP2|stype-|voicetype-	6	vmod	_	_
3	xeSa	xeSa	n	NN	lex-xeSa|cat-n|gen-m|num-sg|pers-3|case-o|vib-0_meM|tam-0|chunkId-NP3|stype-|voicetype-	6	k7p	_	_
4	samAja	samAja	n	NN	lex-samAja|cat-n|gen-m|num-sg|pers-3|case-o|vib-0_xvArA|tam-0|chunkId-NP4|stype-|voicetype-	6	k1	_	_
5	SurU	SurU	n	NN	lex-SurU|cat-n|gen-m|num-sg|pers-3|case-d|vib-0|tam-0|chunkId-NP5|stype-|voicetype-	6	pof	_	_
6	kie	kara	v	VM	lex-kara|cat-v|gen-m|num-sg|pers-any|case-|vib-yA_jA+yA1|tam-yA|chunkId-VGNF|stype-|voicetype-	7	nmod__k2inv	_	_
7	AMxolana	AMxolana	n	NN	lex-AMxolana|cat-n|gen-m|num-sg|pers-3|case-o|vib-0_ko|tam-0|chunkId-NP6|stype-|voicetype-	9	k4	_	_
8	samarWana	samarWana	n	NN	lex-samarWana|cat-n|gen-m|num-sg|pers-3|case-d|vib-0|tam-0|chunkId-NP7|stype-|voicetype-	9	pof	_	_
9	xene	xe	v	VM	lex-xe|cat-v|gen-any|num-sg|pers-any|case-o|vib-nA_kA|tam-nA|chunkId-VGNN|stype-|voicetype-	10	r6-k2	_	_
10	PEsalA	PEsalA	n	NN	lex-PEsalA|cat-n|gen-m|num-sg|pers-3|case-d|vib-0|tam-0|chunkId-NP8|stype-|voicetype-	11	pof	_	_
11	kiyA	kara	v	VM	lex-kara|cat-v|gen-m|num-sg|pers-any|case-|vib-yA|tam-yA|chunkId-VGF|stype-declarative|voicetype-active	0	main	_	_
12	.	.	punc	SYM	lex-.|cat-punc|gen-|num-|pers-|case-|vib-|tam-|chunkId-BLK|stype-|voicetype-	11	rsym	_	_

1	hedagevAra	hedagevAra	n	NNP	lex-hedagevAra|cat-n|gen-m|num-sg|pers-3|case-o|vib-0|tam-0|chunkId-NP|stype-|voicetype-	2	ccof	_	_
2	Ora	Ora	avy	CC	lex-Ora|cat-avy|gen-|num-|pers-|case-|vib-|tam-|chunkId-CCP|stype-|voicetype-	9	k1	_	_
3	mAlavIya	mAlavIya	n	NNP	lex-mAlavIya|cat-n|gen-any|num-sg|pers-3|case-o|vib-0_ne|tam-0|chunkId-NP2|stype-|voicetype-	2	ccof	_	_
4	viroXa	viroXa	n	NN	lex-viroXa|cat-n|gen-m|num-sg|pers-3|case-d|vib-0|tam-0|chunkId-NP3|stype-|voicetype-	5	pof	_	_
5	karawe	kara	v	VM	lex-kara|cat-v|gen-m|num-pl|pers-any|case-|vib-wA_ho+yA|tam-wA|chunkId-VGNF|stype-|voicetype-	9	vmod	_	_
6	isake	yaha	pn	PRP	lex-yaha|cat-pn|gen-m|num-sg|pers-3|case-o|vib-kA|tam-kA|chunkId-NP4|stype-|voicetype-	7	r6	_	_
7	pariNAmoM	pariNAma	n	NN	lex-pariNAma|cat-n|gen-m|num-pl|pers-3|case-o|vib-0_se|tam-0|chunkId-NP5|stype-|voicetype-	9	k2	_	_
8	avagawa	avagawa	adj	JJ	lex-avagawa|cat-adj|gen-any|num-any|pers-|case-|vib-|tam-|chunkId-JJP|stype-|voicetype-	9	pof	_	_
9	karAyA	karA	v	VM	lex-karA|cat-v|gen-m|num-sg|pers-any|case-|vib-yA|tam-yA|chunkId-VGF|stype-declarative|voicetype-active	0	main	_	_
10	.	.	punc	SYM	lex-.|cat-punc|gen-|num-|pers-|case-|vib-|tam-|chunkId-BLK|stype-|voicetype-	9	rsym	_	_

1	gAMXI	gAMXI	n	NNP	lex-gAMXI|cat-n|gen-any|num-sg|pers-3|case-o|vib-0_ne|tam-0|chunkId-NP|stype-|voicetype-	2	k1	_	_
2	kahA	kaha	v	VM	lex-kaha|cat-v|gen-m|num-sg|pers-3|case-|vib-yA_WA|tam-yA|chunkId-VGF|stype-declarative|voicetype-active	0	main	_	_
3	ki	ki	avy	CC	lex-ki|cat-avy|gen-|num-|pers-|case-|vib-|tam-|chunkId-CCP|stype-|voicetype-	2	k2	_	_
4	ASaMkA	ASaMkA	n	NN	lex-ASaMkA|cat-n|gen-f|num-sg|pers-3|case-d|vib-0|tam-0|chunkId-NP2|stype-|voicetype-	5	k1	_	_
5	hE	hE	v	VM	lex-hE|cat-v|gen-any|num-sg|pers-3|case-|vib-hE|tam-hE|chunkId-VGF2|stype-declarative|voicetype-active	3	ccof	_	_
6	.	.	punc	SYM	lex-.|cat-punc|gen-|num-|pers-|case-|vib-|tam-|chunkId-BLK|stype-|voicetype-	2	rsym	_	_

1	sAla	sAla	n	NN	lex-sAla|cat-n|gen-m|num-sg|pers-3|case-d|vib-0_waka|tam-0|chunkId-NP|stype-|voicetype-	11	k7t	_	_
2	gAMXI	gAMXI	n	NNP	lex-gAMXI|cat-n|gen-any|num-sg|pers-3|case-o|vib-0_ne|tam-0|chunkId-NP2|stype-|voicetype-	11	k1	_	_
3	alI	alI	n	NNP	lex-alI|cat-n|gen-m|num-sg|pers-3|case-o|vib-0|tam-0|chunkId-NP3|stype-|voicetype-	4	ccof	_	_
4	Ora	Ora	avy	CC	lex-Ora|cat-avy|gen-|num-|pers-|case-|vib-|tam-|chunkId-CCP|stype-|voicetype-	11	ras-k1	_	_
5	alI	alI	n	NNP	lex-alI|cat-n|gen-m|num-sg|pers-3|case-o|vib-0_ke_sAWa|tam-0|chunkId-NP4|stype-|voicetype-	4	ccof	_	_
6	xeSa	xeSa	n	NN	lex-xeSa|cat-n|gen-m|num-sg|pers-3|case-o|vib-0_kA|tam-0|chunkId-NP5|stype-|voicetype-	7	r6-k2	_	_
7	xOrA	xOrA	n	NN	lex-xOrA|cat-n|gen-m|num-sg|pers-3|case-d|vib-0|tam-0|chunkId-NP6|stype-|voicetype-	8	pof	_	_
8	karake	kara	v	VM	lex-kara|cat-v|gen-any|num-any|pers-any|case-|vib-kara|tam-kara|chunkId-VGNF|stype-|voicetype-	11	vmod	_	_
9	AMxolana	AMxolana	n	NN	lex-AMxolana|cat-n|gen-m|num-sg|pers-3|case-o|vib-0_ko|tam-0|chunkId-NP7|stype-|voicetype-	11	k2	_	_
10	jArI	jArI	adj	JJ	lex-jArI|cat-adj|gen-any|num-any|pers-|case-|vib-|tam-|chunkId-JJP|stype-|voicetype-	11	k2s	_	_
11	raKA	raKa	v	VM	lex-raKa|cat-v|gen-m|num-sg|pers-any|case-|vib-yA|tam-yA|chunkId-VGF|stype-declarative|voicetype-active	0	main	_	_
12	.	.	punc	SYM	lex-.|cat-punc|gen-|num-|pers-|case-|vib-|tam-|chunkId-BLK|stype-|voicetype-	11	rsym	_	_

1	para	para	avy	CC	lex-para|cat-avy|gen-|num-|pers-|case-|vib-|tam-|chunkId-CCP|stype-|voicetype-	0	main	_	_
2	xeSa	xeSa	n	NN	lex-xeSa|cat-n|gen-m|num-sg|pers-3|case-o|vib-0_meM|tam-0|chunkId-NP|stype-|voicetype-	5	k7p	_	_
3	aMgrejoM	aMgreja	n	NN	lex-aMgreja|cat-n|gen-m|num-pl|pers-3|case-o|vib-0_ne|tam-0|chunkId-NP2|stype-|voicetype-	5	k1	_	_
4	AMxolana	AMxolana	n	NN	lex-AMxolana|cat-n|gen-m|num-sg|pers-3|case-o|vib-0_ko|tam-0|chunkId-NP3|stype-|voicetype-	5	k2	_	_
5	kucala	kucala	v	VM	lex-kucala|cat-v|gen-any|num-sg|pers-any|case-|vib-0_xe+yA|tam-0|chunkId-VGF|stype-declarative|voicetype-active	1	ccof	_	_
6	.	.	punc	SYM	lex-.|cat-punc|gen-|num-|pers-|case-|vib-|tam-|chunkId-BLK|stype-|voicetype-	1	rsym	_	_

1	isakA	yaha	pn	PRP	lex-yaha|cat-pn|gen-m|num-sg|pers-3|case-o|vib-kA|tam-kA|chunkId-NP|stype-|voicetype-	2	r6	_	_
2	gussA	gussA	n	NN	lex-gussA|cat-n|gen-m|num-sg|pers-3|case-d|vib-0|tam-0|chunkId-NP2|stype-|voicetype-	5	k1	_	_
3	mAlAbAra	mAlAbAra	n	NNP	lex-mAlAbAra|cat-n|gen-m|num-sg|pers-3|case-o|vib-0_kA|tam-0|chunkId-NP3|stype-|voicetype-	4	r6	_	_
4	hiMxuoM	hiMxU	n	NN	lex-hiMxU|cat-n|gen-m|num-pl|pers-3|case-o|vib-0_para|tam-0|chunkId-NP4|stype-|voicetype-	5	k7	_	_
5	nikalA	nikala	v	VM	lex-nikala|cat-v|gen-m|num-sg|pers-3|case-|vib-yA|tam-yA|chunkId-VGF|stype-declarative|voicetype-active	0	main	_	_
6	.	.	punc	SYM	lex-.|cat-punc|gen-|num-|pers-|case-|vib-|tam-|chunkId-BLK|stype-|voicetype-	5	rsym	_	_

1	KalIPA	KalIPA	n	NN	lex-KalIPA|cat-n|gen-m|num-sg|pers-3|case-o|vib-0_ko|tam-0|chunkId-NP|stype-|voicetype-	3	k2	_	_
2	gaxxI	gaxxI	n	NN	lex-gaxxI|cat-n|gen-f|num-sg|pers-3|case-o|vib-0_se|tam-0|chunkId-NP2|stype-|voicetype-	3	k5	_	_
3	uwArane	uwAra	v	VM	lex-uwAra|cat-v|gen-any|num-any|pers-any|case-o|vib-nA_para|tam-nA|chunkId-VGNN|stype-|voicetype-	16	k7	_	_
4	AMxolana	AMxolana	n	NN	lex-AMxolana|cat-n|gen-m|num-sg|pers-3|case-o|vib-0_kA|tam-0|chunkId-NP3|stype-|voicetype-	5	r6	_	_
5	viPalawA	viPalawA	n	NN	lex-viPalawA|cat-n|gen-f|num-sg|pers-3|case-o|vib-0_kA|tam-0|chunkId-NP4|stype-|voicetype-	6	r6	_	_
6	gussA	gussA	n	NN	lex-gussA|cat-n|gen-m|num-sg|pers-3|case-d|vib-0|tam-0|chunkId-NP5|stype-|voicetype-	16	k2	_	_
7	musalamAnoM	musalamAna	n	NN	lex-musalamAna|cat-n|gen-m|num-pl|pers-3|case-o|vib-0_ne|tam-0|chunkId-NP6|stype-|voicetype-	16	k1	_	_
8	1923	1923	n	NNP	lex-1923|cat-n|gen-any|num-sg|pers-3|case-o|vib-0_kA|tam-0|chunkId-NP7|stype-|voicetype-	9	r6	_	_
9	xaMgoM	xaMgA	n	NN	lex-xaMgA|cat-n|gen-m|num-pl|pers-3|case-o|vib-0_meM|tam-0|chunkId-NP8|stype-|voicetype-	15	k7	_	_
10	hiMxuoM	hiMxU	n	NN	lex-hiMxU|cat-n|gen-m|num-pl|pers-3|case-o|vib-0_kA|tam-0|chunkId-NP9|stype-|voicetype-	11	r6	_	_
11	kawla	kawla	n	NN	lex-kawla|cat-n|gen-m|num-pl|pers-3|case-d|vib-0|tam-0|chunkId-NP10|stype-|voicetype-	12	ccof	_	_
12	Ora	Ora	avy	CC	lex-Ora|cat-avy|gen-|num-|pers-|case-|vib-|tam-|chunkId-CCP|stype-|voicetype-	15	k2	_	_
13	logoM	loga	n	NN	lex-loga|cat-n|gen-m|num-pl|pers-3|case-o|vib-0_kA|tam-0|chunkId-NP11|stype-|voicetype-	14	r6	_	_
14	Xarmaparivarwana	Xarmaparivarwana	n	NN	lex-Xarmaparivarwana|cat-n|gen-m|num-sg|pers-3|case-d|vib-0|tam-0|chunkId-NP12|stype-|voicetype-	12	ccof	_	_
15	kara	kara	v	VM	lex-kara|cat-v|gen-any|num-any|pers-any|case-|vib-0|tam-0|chunkId-VGNF|stype-|voicetype-	16	vmod	_	_
16	nikAlA	nikAla	v	VM	lex-nikAla|cat-v|gen-m|num-sg|pers-any|case-|vib-yA|tam-yA|chunkId-VGF|stype-declarative|voicetype-active	0	main	_	_
17	.	.	punc	SYM	lex-.|cat-punc|gen-|num-|pers-|case-|vib-|tam-|chunkId-BLK|stype-|voicetype-	16	rsym	_	_

1	muKarjI	muKarjI	n	NNP	lex-muKarjI|cat-n|gen-any|num-sg|pers-3|case-o|vib-0_kA|tam-0|chunkId-NP|stype-|voicetype-	3	r6	_	_
2	kaSmIra	kaSmIra	n	NNP	lex-kaSmIra|cat-n|gen-m|num-sg|pers-3|case-o|vib-0_meM|tam-0|chunkId-NP2|stype-|voicetype-	3	nmod	_	_
3	praveSa	praveSa	n	NN	lex-praveSa|cat-n|gen-m|num-sg|pers-3|case-o|vib-0|tam-0|chunkId-NP3|stype-|voicetype-	4	ccof	_	_
4	Ora	Ora	avy	CC	lex-Ora|cat-avy|gen-|num-|pers-|case-|vib-|tam-|chunkId-CCP|stype-|voicetype-	15	k7t	_	_
5	SAswrI	SAswrI	n	NNP	lex-SAswrI|cat-n|gen-any|num-sg|pers-3|case-o|vib-0_kA|tam-0|chunkId-NP4|stype-|voicetype-	6	r6	_	_
6	xOre	xOrA	n	NN	lex-xOrA|cat-n|gen-m|num-sg|pers-3|case-o|vib-0_se_pUrva|tam-0|chunkId-NP5|stype-|voicetype-	4	ccof	_	_
7	saMGa	saMGa	n	NN	lex-saMGa|cat-n|gen-m|num-sg|pers-3|case-o|vib-0_kA|tam-0|chunkId-NP6|stype-|voicetype-	8	r6	_	_
8	sarasaMGacAlaka	sarasaMGacAlaka	n	NN	lex-sarasaMGacAlaka|cat-n|gen-m|num-sg|pers-3|case-o|vib-0|tam-0|chunkId-NP7|stype-|voicetype-	9	nmod	_	_
9	golavalakara	golavalakara	n	NNP	lex-golavalakara|cat-n|gen-any|num-sg|pers-3|case-o|vib-0_ne|tam-0|chunkId-NP8|stype-|voicetype-	15	k1	_	_
10	newAoM	newA	n	NN	lex-newA|cat-n|gen-m|num-pl|pers-3|case-o|vib-0_kA|tam-0|chunkId-NP9|stype-|voicetype-	11	r6	_	_
11	hawyA	hawyA	n	NN	lex-hawyA|cat-n|gen-f|num-sg|pers-3|case-o|vib-0_kA|tam-0|chunkId-NP10|stype-|voicetype-	12	r6	_	_
12	ASaMkA	ASaMkA	n	NN	lex-ASaMkA|cat-n|gen-f|num-sg|pers-3|case-o|vib-0_ko|tam-0|chunkId-NP11|stype-|voicetype-	13	k2	_	_
13	lekara	le	v	VM	lex-le|cat-v|gen-any|num-any|pers-any|case-|vib-kara|tam-kara|chunkId-VGNF|stype-|voicetype-	15	vmod	_	_
14	AgAha	AgAha	n	NN	lex-AgAha|cat-n|gen-m|num-sg|pers-3|case-d|vib-0|tam-0|chunkId-NP12|stype-|voicetype-	15	pof	_	_
15	kara	kara	v	VM	lex-kara|cat-v|gen-m|num-sg|pers-any|case-|vib-0_xe+yA_WA|tam-0|chunkId-VGF|stype-declarative|voicetype-active	0	main	_	_
16	.	.	punc	SYM	lex-.|cat-punc|gen-|num-|pers-|case-|vib-|tam-|chunkId-BLK|stype-|voicetype-	15	rsym	_	_

1	unhoMne	vaha	pn	PRP	lex-vaha|cat-pn|gen-any|num-sg|pers-3h|case-o|vib-ne|tam-ne|chunkId-NP|stype-|voicetype-	2	k1	_	_
2	kahA	kaha	v	VM	lex-kaha|cat-v|gen-m|num-sg|pers-any|case-|vib-yA|tam-yA|chunkId-VGF|stype-declarative|voicetype-active	0	main	_	_
3	ki	ki	avy	CC	lex-ki|cat-avy|gen-|num-|pers-|case-|vib-|tam-|chunkId-CCP|stype-|voicetype-	2	k2	_	_
4	sAla	sAla	n	NN	lex-sAla|cat-n|gen-m|num-sg|pers-3|case-d|vib-0_bAxa|tam-0|chunkId-NP2|stype-|voicetype-	12	k7t	_	_
5	Pira	Pira	adv	RB	lex-Pira|cat-adv|gen-|num-|pers-|case-|vib-|tam-|chunkId-RBP|stype-|voicetype-	12	vmod	_	_
6	jinnA	jinnA	n	NNP	lex-jinnA|cat-n|gen-m|num-sg|pers-3|case-o|vib-0_ne|tam-0|chunkId-NP3|stype-|voicetype-	12	k1	_	_
7	lIga	lIga	n	NNP	lex-lIga|cat-n|gen-m|num-sg|pers-3|case-o|vib-0_kA|tam-0|chunkId-NP4|stype-|voicetype-	8	r6	_	_
8	kAryakarwAoM	kAryakarwA	n	NN	lex-kAryakarwA|cat-n|gen-m|num-pl|pers-3|case-o|vib-0_ko|tam-0|chunkId-NP5|stype-|voicetype-	12	k2	_	_
9	pAkiswAna	pAkiswAna	n	NNP	lex-pAkiswAna|cat-n|gen-m|num-sg|pers-3|case-d|vib-0|tam-0|chunkId-NP6|stype-|voicetype-	10	k2	_	_
10	banAne	banA	v	VM	lex-banA|cat-v|gen-any|num-sg|pers-any|case-o|vib-nA_kA|tam-nA|chunkId-VGNN|stype-|voicetype-	11	r6	_	_
11	mAMga	mAMga	n	NN	lex-mAMga|cat-n|gen-f|num-sg|pers-3|case-o|vib-0_para|tam-0|chunkId-NP7|stype-|voicetype-	12	k7	_	_
12	BadZakAyA	Badaka	v	VM	lex-Badaka|cat-v|gen-m|num-sg|pers-any|case-|vib-yA|tam-yA|chunkId-VGF2|stype-declarative|voicetype-active	3	ccof	_	_
13	.	.	punc	SYM	lex-.|cat-punc|gen-|num-|pers-|case-|vib-|tam-|chunkId-BLK|stype-|voicetype-	2	rsym	_	_

1	47	47	n	NNP	lex-47|cat-n|gen-m|num-sg|pers-3|case-o|vib-0_kA|tam-0|chunkId-NP|stype-|voicetype-	2	r6	_	_
2	kAlaKaMda	kAlaKaMda	n	NN	lex-kAlaKaMda|cat-n|gen-m|num-sg|pers-3|case-o|vib-0_meM|tam-0|chunkId-NP2|stype-|voicetype-	5	k7t	_	_
3	jinnA	jinnA	n	NNP	lex-jinnA|cat-n|gen-m|num-sg|pers-3|case-o|vib-0_ne|tam-0|chunkId-NP3|stype-|voicetype-	5	k1	_	_
4	xaMge	xaMgA	n	NN	lex-xaMgA|cat-n|gen-m|num-pl|pers-3|case-d|vib-0|tam-0|chunkId-NP4|stype-|voicetype-	5	pof	_	_
5	karAe	karA	v	VM	lex-karA|cat-v|gen-m|num-pl|pers-any|case-|vib-yA|tam-yA|chunkId-VGF|stype-declarative|voicetype-active	0	main	_	_
6	.	.	punc	SYM	lex-.|cat-punc|gen-|num-|pers-|case-|vib-|tam-|chunkId-BLK|stype-|voicetype-	5	rsym	_	_

1	hAlAwa	hAlAwa	n	NN	lex-hAlAwa|cat-n|gen-m|num-sg|pers-3|case-o|vib-0_meM|tam-0|chunkId-NP|stype-|voicetype-	11	k7	_	_
2	samAja	samAja	n	NN	lex-samAja|cat-n|gen-m|num-sg|pers-3|case-o|vib-0|tam-0|chunkId-NP2|stype-|voicetype-	3	ccof	_	_
3	aWavA	aWavA	avy	CC	lex-aWavA|cat-avy|gen-|num-|pers-|case-|vib-|tam-|chunkId-CCP|stype-|voicetype-	5	k2	_	_
4	hiMxuoM	hiMxU	n	NN	lex-hiMxU|cat-n|gen-m|num-pl|pers-3|case-o|vib-0_ko|tam-0|chunkId-NP3|stype-|voicetype-	3	ccof	_	_
5	bacAne	bacA	v	VM	lex-bacA|cat-v|gen-any|num-any|pers-any|case-o|vib-nA|tam-nA|chunkId-VGNN|stype-|voicetype-	6	ccof	_	_
6	Ora	Ora	avy	CC	lex-Ora|cat-avy|gen-|num-|pers-|case-|vib-|tam-|chunkId-CCP2|stype-|voicetype-	8	r6	_	_
7	basAne	basA	v	VM	lex-basA|cat-v|gen-any|num-sg|pers-any|case-o|vib-nA_kA|tam-nA|chunkId-VGNN2|stype-|voicetype-	6	ccof	_	_
8	kAma	kAma	n	NN	lex-kAma|cat-n|gen-m|num-sg|pers-3|case-d|vib-0|tam-0|chunkId-NP4|stype-|voicetype-	11	k2	_	_
9	saMGa	saMGa	n	NNP	lex-saMGa|cat-n|gen-m|num-sg|pers-3|case-o|vib-0_kA|tam-0|chunkId-NP5|stype-|voicetype-	10	r6	_	_
10	kAryakarwAoM	kAryakarwA	n	NN	lex-kAryakarwA|cat-n|gen-m|num-pl|pers-3|case-o|vib-0_ne|tam-0|chunkId-NP6|stype-|voicetype-	11	k1	_	_
11	kiyA	kara	v	VM	lex-kara|cat-v|gen-m|num-sg|pers-any|case-|vib-yA|tam-yA|chunkId-VGF|stype-declarative|voicetype-active	0	main	_	_
12	.	.	punc	SYM	lex-.|cat-punc|gen-|num-|pers-|case-|vib-|tam-|chunkId-BLK|stype-|voicetype-	11	rsym	_	_

1	samaya	samaya	n	NN	lex-samaya|cat-n|gen-m|num-sg|pers-3|case-d|vib-0|tam-0|chunkId-NP|stype-|voicetype-	6	k7t	_	_
2	xeSa	xeSa	n	NN	lex-xeSa|cat-n|gen-m|num-sg|pers-3|case-o|vib-0_kA|tam-0|chunkId-NP2|stype-|voicetype-	3	r6	_	_
3	newA	newA	n	NN	lex-newA|cat-n|gen-m|num-pl|pers-3|case-d|vib-0|tam-0|chunkId-NP3|stype-|voicetype-	6	k1	_	_
4	AjAxI	AjAxI	n	NN	lex-AjAxI|cat-n|gen-f|num-sg|pers-3|case-o|vib-0_kA|tam-0|chunkId-NP4|stype-|voicetype-	5	r6	_	_
5	jaSna	jaSna	n	NN	lex-jaSna|cat-n|gen-m|num-sg|pers-3|case-d|vib-0|tam-0|chunkId-NP5|stype-|voicetype-	6	k2	_	_
6	manA	manA	v	VM	lex-manA|cat-v|gen-m|num-pl|pers-any|case-|vib-0_raha+yA_WA|tam-0|chunkId-VGF|stype-declarative|voicetype-active	7	ccof	_	_
7	para	para	avy	CC	lex-para|cat-avy|gen-|num-|pers-|case-|vib-|tam-|chunkId-CCP|stype-|voicetype-	0	main	_	_
8	saMGa	saMGa	n	NN	lex-saMGa|cat-n|gen-m|num-sg|pers-3|case-o|vib-0_kA|tam-0|chunkId-NP6|stype-|voicetype-	9	r6	_	_
9	kAryakarwA	kAryakarwA	n	NN	lex-kAryakarwA|cat-n|gen-m|num-pl|pers-3|case-d|vib-0|tam-0|chunkId-NP7|stype-|voicetype-	12	k1	_	_
10	hiMxuoM	hiMxU	n	NN	lex-hiMxU|cat-n|gen-m|num-pl|pers-3|case-o|vib-0_kA|tam-0|chunkId-NP8|stype-|voicetype-	11	r6	_	_
11	rakRA	rakRA	n	NN	lex-rakRA|cat-n|gen-f|num-sg|pers-3|case-o|vib-0_meM|tam-0|chunkId-NP9|stype-|voicetype-	12	k7	_	_
12	jute	juta	v	VM	lex-juta|cat-v|gen-m|num-pl|pers-any|case-|vib-yA_WA|tam-yA|chunkId-VGF2|stype-declarative|voicetype-active	7	ccof	_	_
13	.	.	punc	SYM	lex-.|cat-punc|gen-|num-|pers-|case-|vib-|tam-|chunkId-BLK|stype-|voicetype-	7	rsym	_	_

1	svayaMsevakoM	svayaMsevaka	n	NN	lex-svayaMsevaka|cat-n|gen-m|num-pl|pers-3|case-o|vib-0_kA|tam-0|chunkId-NP|stype-|voicetype-	2	r6	_	_
2	balixAna	balixAna	n	NN	lex-balixAna|cat-n|gen-m|num-sg|pers-3|case-d|vib-0|tam-0|chunkId-NP2|stype-|voicetype-	5	k1	_	_
3	isakA	yaha	pn	PRP	lex-yaha|cat-pn|gen-m|num-sg|pers-3|case-o|vib-kA|tam-kA|chunkId-NP3|stype-|voicetype-	4	r6	_	_
4	gavAha	gavAha	n	NN	lex-gavAha|cat-n|gen-m|num-sg|pers-3|case-d|vib-0|tam-0|chunkId-NP4|stype-|voicetype-	5	k1s	_	_
5	hE	hE	v	VM	lex-hE|cat-v|gen-any|num-sg|pers-3|case-|vib-hE|tam-hE|chunkId-VGF|stype-declarative|voicetype-active	0	main	_	_
6	.	.	punc	SYM	lex-.|cat-punc|gen-|num-|pers-|case-|vib-|tam-|chunkId-BLK|stype-|voicetype-	5	rsym	_	_

1	suxarSana	suxarSana	n	NNP	lex-suxarSana|cat-n|gen-m|num-sg|pers-3|case-o|vib-0_ne|tam-0|chunkId-NP|stype-|voicetype-	2	k1	_	_
2	kahA	kaha	v	VM	lex-kaha|cat-v|gen-m|num-sg|pers-any|case-|vib-yA|tam-yA|chunkId-VGF|stype-declarative|voicetype-active	0	main	_	_
3	ki	ki	avy	CC	lex-ki|cat-avy|gen-|num-|pers-|case-|vib-|tam-|chunkId-CCP|stype-|voicetype-	2	k2	_	_
4	saMGa	saMGa	n	NN	lex-saMGa|cat-n|gen-m|num-sg|pers-3|case-d|vib-0|tam-0|chunkId-NP2|stype-|voicetype-	10	k1	_	_
5	beSaka	beSaka	adv	RB	lex-beSaka|cat-adv|gen-|num-|pers-|case-|vib-|tam-|chunkId-RBP|stype-|voicetype-	10	sent-adv	_	_
6	xeSa	xeSa	n	NN	lex-xeSa|cat-n|gen-m|num-sg|pers-3|case-o|vib-0_ko|tam-0|chunkId-NP3|stype-|voicetype-	8	k2	_	_
7	rARtra	rARtra	n	NN	lex-rARtra|cat-n|gen-m|num-sg|pers-3|case-d|vib-0|tam-0|chunkId-NP4|stype-|voicetype-	8	k2g	_	_
8	banAne	banA	v	VM	lex-banA|cat-v|gen-any|num-any|pers-any|case-o|vib-nA_ke_lie|tam-nA|chunkId-VGNN|stype-|voicetype-	10	rt	_	_
9	saMGarRa	saMGarRa	n	NN	lex-saMGarRa|cat-n|gen-m|num-sg|pers-3|case-d|vib-0|tam-0|chunkId-NP5|stype-|voicetype-	10	pof	_	_
10	kara	kara	v	VM	lex-kara|cat-v|gen-m|num-sg|pers-3|case-|vib-0_raha+yA_hE|tam-0|chunkId-VGF2|stype-declarative|voicetype-active	11	ccof	_	_
11	para	para	avy	CC	lex-para|cat-avy|gen-|num-|pers-|case-|vib-|tam-|chunkId-CCP2|stype-|voicetype-	3	ccof	_	_
12	AMxolana	AMxolana	n	NN	lex-AMxolana|cat-n|gen-m|num-sg|pers-3|case-o|vib-0_meM|tam-0|chunkId-NP6|stype-|voicetype-	18	k7	_	_
13	svayaMsevakoM	svayaMsevaka	n	NN	lex-svayaMsevaka|cat-n|gen-m|num-pl|pers-3|case-o|vib-0_ne|tam-0|chunkId-NP7|stype-|voicetype-	18	k1	_	_
14	wOra	wOra	n	NN	lex-wOra|cat-n|gen-m|num-sg|pers-3|case-o|vib-0_para|tam-0|chunkId-NP8|stype-|voicetype-	16	adv	_	_
15	SAmila	SAmila	adj	JJ	lex-SAmila|cat-adj|gen-any|num-any|pers-|case-|vib-|tam-|chunkId-JJP|stype-|voicetype-	16	pof	_	_
16	hokara	ho	v	VM	lex-ho|cat-v|gen-any|num-any|pers-any|case-|vib-kara|tam-kara|chunkId-VGNF|stype-|voicetype-	18	vmod	_	_
17	saMGarRa	saMGarRa	n	NN	lex-saMGarRa|cat-n|gen-m|num-sg|pers-3|case-d|vib-0|tam-0|chunkId-NP9|stype-|voicetype-	18	pof	_	_
18	kiyA	kara	v	VM	lex-kara|cat-v|gen-m|num-sg|pers-any|case-|vib-yA_WA|tam-yA|chunkId-VGF3|stype-declarative|voicetype-active	11	ccof	_	_
19	.	.	punc	SYM	lex-.|cat-punc|gen-|num-|pers-|case-|vib-|tam-|chunkId-BLK|stype-|voicetype-	2	rsym	_	_

1	gurU	gurU	n	NN	lex-gurU|cat-n|gen-m|num-sg|pers-3|case-o|vib-0_ne|tam-0|chunkId-NP|stype-|voicetype-	8	k1	_	_
2	svayaMsevakoM	svayaMsevaka	n	NN	lex-svayaMsevaka|cat-n|gen-m|num-pl|pers-3|case-o|vib-0_ko|tam-0|chunkId-NP2|stype-|voicetype-	8	k4	_	_
3	AMxolana	AMxolana	n	NN	lex-AMxolana|cat-n|gen-m|num-sg|pers-3|case-o|vib-0_meM|tam-0|chunkId-NP3|stype-|voicetype-	6	k7	_	_
4	wOra	wOra	n	NN	lex-wOra|cat-n|gen-m|num-sg|pers-3|case-o|vib-0_para|tam-0|chunkId-NP4|stype-|voicetype-	6	k7	_	_
5	SAmila	SAmila	adj	JJ	lex-SAmila|cat-adj|gen-any|num-any|pers-|case-|vib-|tam-|chunkId-JJP|stype-|voicetype-	6	pof	_	_
6	hone	ho	v	VM	lex-ho|cat-v|gen-any|num-sg|pers-any|case-o|vib-nA_kA|tam-nA|chunkId-VGNN|stype-|voicetype-	7	r6	_	_
7	AjFA	AjFA	n	NN	lex-AjFA|cat-n|gen-f|num-sg|pers-3|case-d|vib-0|tam-0|chunkId-NP5|stype-|voicetype-	8	k2	_	_
8	xI	xe	v	VM	lex-xe|cat-v|gen-f|num-sg|pers-any|case-|vib-yA_WA|tam-yA|chunkId-VGF|stype-declarative|voicetype-active	0	main	_	_
9	.	.	punc	SYM	lex-.|cat-punc|gen-|num-|pers-|case-|vib-|tam-|chunkId-BLK|stype-|voicetype-	8	rsym	_	_

1	isameM	yaha	pn	PRP	lex-yaha|cat-pn|gen-any|num-sg|pers-3|case-o|vib-meM|tam-meM|chunkId-NP|stype-|voicetype-	5	k7	_	_
2	saMGa	saMGa	n	NN	lex-saMGa|cat-n|gen-m|num-sg|pers-3|case-o|vib-0_kA|tam-0|chunkId-NP2|stype-|voicetype-	3	r6	_	_
3	pIDZiyoM	pIDI	n	NN	lex-pIDI|cat-n|gen-f|num-sg|pers-3|case-o|vib-0_kA|tam-0|chunkId-NP3|stype-|voicetype-	4	r6	_	_
4	yogaxAna	yogaxAna	n	NN	lex-yogaxAna|cat-n|gen-m|num-sg|pers-3|case-d|vib-0|tam-0|chunkId-NP4|stype-|voicetype-	5	k1	_	_
5	rahA	raha	v	VM	lex-raha|cat-v|gen-m|num-sg|pers-3|case-|vib-yA_hE|tam-yA|chunkId-VGF|stype-declarative|voicetype-active	0	main	_	_
6	.	.	punc	SYM	lex-.|cat-punc|gen-|num-|pers-|case-|vib-|tam-|chunkId-BLK|stype-|voicetype-	5	rsym	_	_

1	unhoMne	vaha	pn	PRP	lex-vaha|cat-pn|gen-any|num-sg|pers-3h|case-o|vib-ne|tam-ne|chunkId-NP|stype-|voicetype-	12	k1	_	_
2	muKarjI	muKarjI	n	NNP	lex-muKarjI|cat-n|gen-any|num-sg|pers-3|case-o|vib-0_kA|tam-0|chunkId-NP2|stype-|voicetype-	3	r6	_	_
3	suJAva	suJAva	n	NN	lex-suJAva|cat-n|gen-m|num-sg|pers-3|case-o|vib-0_para|tam-0|chunkId-NP3|stype-|voicetype-	12	k7	_	_
4	upAXyAya	upAXyAya	n	NNP	lex-upAXyAya|cat-n|gen-any|num-sg|pers-3|case-o|vib-0|tam-0|chunkId-NP4|stype-|voicetype-	8	ccof	_	_
5	TAkare	TAkare	n	NNP	lex-TAkare|cat-n|gen-any|num-sg|pers-3|case-o|vib-0|tam-0|chunkId-NP5|stype-|voicetype-	8	ccof	_	_
6	BaMdArI	BaMdArI	n	NNP	lex-BaMdArI|cat-n|gen-any|num-sg|pers-3|case-o|vib-0|tam-0|chunkId-NP6|stype-|voicetype-	8	ccof	_	_
7	vAjapeyI	vAjapeyI	n	NNP	lex-vAjapeyI|cat-n|gen-any|num-sg|pers-3|case-o|vib-0|tam-0|chunkId-NP7|stype-|voicetype-	8	ccof	_	_
8	Ora	Ora	avy	CC	lex-Ora|cat-avy|gen-|num-|pers-|case-|vib-|tam-|chunkId-CCP|stype-|voicetype-	12	k2u	_	_
9	AdavANI	AdavANI	n	NNP	lex-AdavANI|cat-n|gen-any|num-sg|pers-3|case-o|vib-0_jEsA|tam-0|chunkId-NP8|stype-|voicetype-	8	ccof	_	_
10	loga	loga	n	NN	lex-loga|cat-n|gen-m|num-pl|pers-3|case-d|vib-0|tam-0|chunkId-NP9|stype-|voicetype-	12	k2	_	_
11	kRewra	kRewra	n	NN	lex-kRewra|cat-n|gen-m|num-sg|pers-3|case-o|vib-0_meM|tam-0|chunkId-NP10|stype-|voicetype-	12	k7	_	_
12	xie	xe	v	VM	lex-xe|cat-v|gen-m|num-pl|pers-any|case-|vib-yA|tam-yA|chunkId-VGF|stype-declarative|voicetype-active	0	main	_	_
13	.	.	punc	SYM	lex-.|cat-punc|gen-|num-|pers-|case-|vib-|tam-|chunkId-BLK|stype-|voicetype-	12	rsym	_	_

1	pArtI	pArtI	n	NNP	lex-pArtI|cat-n|gen-f|num-sg|pers-3|case-o|vib-0_kA|tam-0|chunkId-NP|stype-|voicetype-	2	r6	_	_
2	newAoM	newA	n	NN	lex-newA|cat-n|gen-m|num-pl|pers-3|case-o|vib-0_xvArA|tam-0|chunkId-NP2|stype-|voicetype-	6	k1	_	_
3	1977	1977	n	NNP	lex-1977|cat-n|gen-any|num-sg|pers-3|case-o|vib-0_meM|tam-0|chunkId-NP3|stype-|voicetype-	6	k7t	_	_
4	Araesaesa	Araesaesa	n	NNP	lex-Araesaesa|cat-n|gen-m|num-sg|pers-3|case-o|vib-0_se|tam-0|chunkId-NP4|stype-|voicetype-	6	k5	_	_
5	riSwe	riSwA	n	NN	lex-riSwA|cat-n|gen-m|num-pl|pers-3|case-d|vib-0|tam-0|chunkId-NP5|stype-|voicetype-	6	k2	_	_
6	wodZane	woda	v	VM	lex-woda|cat-v|gen-any|num-sg|pers-any|case-o|vib-nA_kA|tam-nA|chunkId-VGNN|stype-|voicetype-	7	r6	_	_
7	Sarwa	Sarwa	n	NN	lex-Sarwa|cat-n|gen-f|num-sg|pers-3|case-o|vib-0_para|tam-0|chunkId-NP6|stype-|voicetype-	11	vmod	_	_
8	newAoM	newA	n	NN	lex-newA|cat-n|gen-m|num-pl|pers-3|case-o|vib-0_ne|tam-0|chunkId-NP7|stype-|voicetype-	11	k1	_	_
9	BAjapA	BAjapA	n	NNP	lex-BAjapA|cat-n|gen-f|num-sg|pers-3|case-o|vib-0_kA|tam-0|chunkId-NP8|stype-|voicetype-	10	r6-k2	_	_
10	gaTana	gaTana	n	NN	lex-gaTana|cat-n|gen-m|num-sg|pers-3|case-d|vib-0|tam-0|chunkId-NP9|stype-|voicetype-	11	pof	_	_
11	kiyA	kara	v	VM	lex-kara|cat-v|gen-m|num-sg|pers-any|case-|vib-yA|tam-yA|chunkId-VGF|stype-declarative|voicetype-active	0	main	_	_
12	.	.	punc	SYM	lex-.|cat-punc|gen-|num-|pers-|case-|vib-|tam-|chunkId-BLK|stype-|voicetype-	11	rsym	_	_

1	suxarSana	suxarSana	n	NNP	lex-suxarSana|cat-n|gen-m|num-sg|pers-3|case-o|vib-0_ne|tam-0|chunkId-NP|stype-|voicetype-	2	k1	_	_
2	kahA	kaha	v	VM	lex-kaha|cat-v|gen-m|num-sg|pers-any|case-|vib-yA|tam-yA|chunkId-VGF|stype-declarative|voicetype-active	0	main	_	_
3	ki	ki	avy	CC	lex-ki|cat-avy|gen-|num-|pers-|case-|vib-|tam-|chunkId-CCP|stype-|voicetype-	2	k2	_	_
4	saMgaTana	saMgaTana	n	NN	lex-saMgaTana|cat-n|gen-m|num-sg|pers-3|case-d|vib-0|tam-0|chunkId-NP2|stype-|voicetype-	6	k1	_	_
5	svawaMwra	svawaMwra	adj	JJ	lex-svawaMwra|cat-adj|gen-any|num-any|pers-|case-|vib-|tam-|chunkId-JJP|stype-|voicetype-	6	k1s	_	_
6	hE	hE	v	VM	lex-hE|cat-v|gen-any|num-sg|pers-3|case-|vib-hE|tam-hE|chunkId-VGF2|stype-declarative|voicetype-active	7	ccof	_	_
7	para	para	avy	CC	lex-para|cat-avy|gen-|num-|pers-|case-|vib-|tam-|chunkId-CCP2|stype-|voicetype-	3	ccof	_	_
8	vicAraXArA	vicAraXArA	n	NN	lex-vicAraXArA|cat-n|gen-f|num-sg|pers-3|case-o|vib-0_se|tam-0|chunkId-NP3|stype-|voicetype-	10	k7	_	_
9	samaJOwA	samaJOwA	n	NN	lex-samaJOwA|cat-n|gen-m|num-sg|pers-3|case-d|vib-0|tam-0|chunkId-NP4|stype-|voicetype-	10	k2	_	_
10	kiyA	kara	v	VM	lex-kara|cat-v|gen-any|num-sg|pers-any|case-|vib-yA_jA_saka+wA|tam-yA|chunkId-VGF3|stype-declarative|voicetype-passive	7	ccof	_	_
11	.	.	punc	SYM	lex-.|cat-punc|gen-|num-|pers-|case-|vib-|tam-|chunkId-BLK|stype-|voicetype-	2	rsym	_	_

1	suxarSana	suxarSana	n	NNP	lex-suxarSana|cat-n|gen-m|num-sg|pers-3|case-o|vib-0_ne|tam-0|chunkId-NP|stype-|voicetype-	2	k1	_	_
2	kahA	kaha	v	VM	lex-kaha|cat-v|gen-m|num-sg|pers-any|case-|vib-yA|tam-yA|chunkId-VGF|stype-declarative|voicetype-active	0	main	_	_
3	ki	ki	avy	CC	lex-ki|cat-avy|gen-|num-|pers-|case-|vib-|tam-|chunkId-CCP|stype-|voicetype-	2	k2	_	_
4	golavalakara	golavalakara	n	NNP	lex-golavalakara|cat-n|gen-any|num-sg|pers-3|case-o|vib-0_kA|tam-0|chunkId-NP2|stype-|voicetype-	5	r6	_	_
5	jayaMwI	jayaMwI	n	NN	lex-jayaMwI|cat-n|gen-f|num-sg|pers-3|case-o|vib-0_para|tam-0|chunkId-NP3|stype-|voicetype-	8	k7	_	_
6	saMGa	saMGa	n	NN	lex-saMGa|cat-n|gen-m|num-sg|pers-3|case-d|vib-0|tam-0|chunkId-NP4|stype-|voicetype-	8	k1	_	_
7	varRa	varRa	n	NN	lex-varRa|cat-n|gen-m|num-sg|pers-3|case-d|vib-0|tam-0|chunkId-NP5|stype-|voicetype-	8	k2	_	_
8	manAegA	manA	v	VM	lex-manA|cat-v|gen-m|num-sg|pers-3|case-|vib-gA|tam-gA|chunkId-VGF2|stype-declarative|voicetype-active	3	ccof	_	_
9	.	.	punc	SYM	lex-.|cat-punc|gen-|num-|pers-|case-|vib-|tam-|chunkId-BLK|stype-|voicetype-	2	rsym	_	_

1	unhoMne	vaha	pn	PRP	lex-vaha|cat-pn|gen-any|num-sg|pers-3h|case-o|vib-ne|tam-ne|chunkId-NP|stype-|voicetype-	3	k1	_	_
2	kAryakarwAoM	kAryakarwA	n	NN	lex-kAryakarwA|cat-n|gen-m|num-pl|pers-3|case-o|vib-0_se|tam-0|chunkId-NP2|stype-|voicetype-	3	k4	_	_
3	kahA	kaha	v	VM	lex-kaha|cat-v|gen-m|num-sg|pers-any|case-|vib-yA|tam-yA|chunkId-VGF|stype-declarative|voicetype-active	0	main	_	_
4	ki	ki	avy	CC	lex-ki|cat-avy|gen-|num-|pers-|case-|vib-|tam-|chunkId-CCP|stype-|voicetype-	3	k2	_	_
5	vixeSiyoM	vixeSI	n	NN	lex-vixeSI|cat-n|gen-m|num-pl|pers-3|case-o|vib-0_kA|tam-0|chunkId-NP3|stype-|voicetype-	6	r6	_	_
6	AkramaNa	AkramaNa	n	NN	lex-AkramaNa|cat-n|gen-m|num-sg|pers-3|case-o|vib-0_ke_prawi|tam-0|chunkId-NP4|stype-|voicetype-	8	rd	_	_
7	sacewa	sacewa	adj	JJ	lex-sacewa|cat-adj|gen-any|num-any|pers-|case-|vib-|tam-|chunkId-JJP|stype-|voicetype-	8	pof	_	_
8	raheM	raha	v	VM	lex-raha|cat-v|gen-any|num-pl|pers-3|case-|vib-eM|tam-eM|chunkId-VGF2|stype-imperative|voicetype-active	9	ccof	_	_
9	Ora	Ora	avy	CC	lex-Ora|cat-avy|gen-|num-|pers-|case-|vib-|tam-|chunkId-CCP2|stype-|voicetype-	4	ccof	_	_
10	saMGa	saMGa	n	NN	lex-saMGa|cat-n|gen-m|num-sg|pers-3|case-o|vib-0_kA|tam-0|chunkId-NP5|stype-|voicetype-	11	r6	_	_
11	kArya	kArya	n	NN	lex-kArya|cat-n|gen-m|num-sg|pers-3|case-o|vib-0_ko|tam-0|chunkId-NP6|stype-|voicetype-	13	k2	_	_
12	Age	Age	nst	NST	lex-Age|cat-nst|gen-m|num-sg|pers-3|case-d|vib-|tam-|chunkId-NP7|stype-|voicetype-	13	vmod	_	_
13	baDZAeM	baDZAeM	v	VM	lex-baDZAeM|cat-v|gen-any|num-pl|pers-3|case-|vib-eM|tam-eM|chunkId-VGF3|stype-imperative|voicetype-active	9	ccof	_	_
14	.	.	punc	SYM	lex-.|cat-punc|gen-|num-|pers-|case-|vib-|tam-|chunkId-BLK|stype-|voicetype-	3	rsym	_	_

