<document id="2479623">
<head>
<title>  </title>			
<author>			
<firstname>  </firstname>			
<middlename>    </middlename>			
<lastname></lastname>			
</author>			
<availability format="electronic" ></availability>			
<bibl>			
</bibl>			
<bytecount>8.0K</bytecount>			
<domain name="general" ></domain>			
<creation creationdate="19/06/2007" institutename="IIIT Hyderabad">			
<creatorname>			
<lastname>Dipti</lastname>			
<middlename>			
</middlename>			
<firstname>Sharma</firstname>			
</creatorname>			
</creation>			
<distributor>CLIA Consortia, DIT</distributor>			
<edition number="1.0" ></edition>			
<encodingdesc>			
<newencoding>Unicode(UTF-8)</newencoding>			
<originalencoding>UTF-8</originalencoding>			
</encodingdesc>			
<sentencemarker marker=".">Specify Marker</sentencemarker>			
<language name="hi" writingsystem="LTR" script="Devanagari" ></language>			
<normalization normalized="no">			
<utilityname>xxx.exe</utilityname>			
</normalization>			
<projectdesc name="ILMT" ></projectdesc>			
<pubaddress addresstype="web">			
</pubaddress>			
<pubdate>			
<dateofpublication></dateofpublication>			
</pubdate>			
<publicationstmt type="copyrightfree">			
</publicationstmt>			
<publisher>			
<name></name>			
<url>xxx.com</url>			
</publisher>			
<pubplace place="books" ></pubplace>			
<wordcount>14  </wordcount>			
<caption>कांग्रेस ने राज की ओर हाथ बढ़ाया राज ने बाबा साहेब को लिखी कड़ी चिट्ठी मुंबई। </caption>			
			

</head>
<body>
<tb number="1" segment="no" bullet="no">
<foreign language="select" writingsystem="LTR"></foreign>
<text>
<Sentence id='1'>
1	((	NP	<fs name='NP' drel='k7t:VGNF'>
1.1	हाल	NN	<fs af='हाल,n,m,sg,3,o,0,0' name='हाल' posn='10'>
1.2	में	PSP	<fs af='में,psp,,,,,,' name='में' posn='20'>
	))
2	((	NP	<fs name='NP2' drel='ccof:CCP'>
2.1	मालवण	NNP	<fs af='मालवण,n,m,sg,3,d,0,0' name='मालवण' posn='30'>
	))
3	((	CCP	<fs name='CCP' drel='nmod:NP4'>
3.1	और	CC	<fs af='और,avy,,,,,,' name='और' posn='40'>
	))
4	((	NP	<fs name='NP3' drel='ccof:CCP'>
4.1	मुंबई	NNP	<fs af='मुंबई,n,f,sg,3,d,0,0' name='मुंबई' posn='50'>
	))
5	((	NP	<fs name='NP4' drel='r6:NP5'>
5.1	क्षेत्रों	NN	<fs af='क्षेत्र,n,m,pl,3,o,0,0' name='क्षेत्रों' posn='60'>
5.2	के	PSP	<fs af='का,psp,m,sg,,o,,' name='के' posn='70'>
	))
6	((	NP	<fs name='NP5' drel='k7:VGNF'>
6.1	उपचुनाव	NN	<fs af='उपचुनाव,n,m,sg,3,o,0,0' name='उपचुनाव' posn='80'>
6.2	में	PSP	<fs af='में,psp,,,,,,' name='में2' posn='90'>
	))
7	((	VGNF	<fs name='VGNF' drel='nmod__k1inv:NP6'>
7.1	हुई	VM	<fs af='हो,v,f,sg,any,,या,yA' name='हुई' posn='100'>
	))
8	((	NP	<fs name='NP6' drel='k7t:VGNF2'>
8.1	करारी	JJ	<fs af='करारा,adj,f,sg,,o,,' name='करारी' posn='110'>
8.2	हार	NN	<fs af='हार,n,f,sg,3,o,0,0' name='हार' posn='120'>
8.3	के	PSP	<fs af='के,psp,,,,,,' name='के2' posn='130'>
8.4	बाद	NST	<fs af='बाद,nst,m,sg,3,d,,' name='बाद' posn='140'>
	))
9	((	NP	<fs name='NP7' drel='k7:VGNF2'>
9.1	शिवसेना	NNP	<fs af='शिवसेना,n,f,sg,3,o,0,0' name='शिवसेना' posn='150'>
9.2	में	PSP	<fs af='में,psp,,,,,,' name='में3' posn='160'>
	))
10	((	VGNF	<fs name='VGNF2' drel='nmod__k2inv:NP8'>
10.1	मचा	VM	<fs af='मच,v,m,sg,any,,या,yA' name='मचा' posn='170'>
	))
11	((	NP	<fs name='NP8' drel='k1:VGF'>
11.1	तूफान	NN	<fs af='तूफान,n,m,sg,3,d,0,0' name='तूफान' posn='180'>
	))
12	((	NP	<fs name='NP9' drel='k7t:VGF'>
12.1	अब	PRP	<fs af='अब,pn,,,,d,,' name='अब' posn='190'>
	))
13	((	NP	<fs name='NP10' drel='k7:VGF'>
13.1	नाजुक	JJ	<fs af='नाजुक,adj,any,any,,o,,' name='नाजुक' posn='200'>
13.2	मोड़	NN	<fs af='मोड,n,m,sg,3,o,0,0' name='मोड़' posn='210'>
13.3	पर	PSP	<fs af='पर,psp,,,,,,' name='पर' posn='220'>
	))
14	((	VGF	<fs name='VGF' stype='declarative' voicetype='passive'>
14.1	पहुंच	VM	<fs af='पहुंच,v,any,any,any,,0,0' name='पहुंच' posn='230'>
14.2	गया	VAUX	<fs af='जा,v,m,sg,any,,या१,yA1' name='गया' posn='240'>
14.3	है	VAUX	<fs af='है,v,any,sg,3,,है,hE' name='है' posn='250'>
	))
15	((	BLK	<fs name='BLK' drel='rsym:VGF'>
15.1	।	SYM	<fs af='।,punc,,,,,,' name='।' posn='260'>
	))
</Sentence>

<Sentence id='2'>
1	((	NP	<fs name='NP' drel='r6:NP2'>
1.1	अपने	PRP	<fs af='अपना,pn,m,any,any,o,0,0' name='अपने' posn='10'>
	))
2	((	NP	<fs name='NP2' drel='ccof:CCP'>
2.1	चचेरे	JJ	<fs af='चचेरा,adj,m,sg,,o,,' name='चचेरे' posn='20'>
2.2	भाई	NN	<fs af='भाई,n,m,sg,3,o,0,0' name='भाई' posn='30'>
	))
3	((	CCP	<fs name='CCP' drel='nmod:NP5'>
3.1	और	CC	<fs af='और,avy,,,,,,' name='और' posn='40'>
	))
4	((	NP	<fs name='NP3' drel='r6:NP4'>
4.1	शिवसेना	NNP	<fs af='शिवसेना,n,f,sg,3,o,0,0' name='शिवसेना' posn='50'>
4.2	के	PSP	<fs af='का,psp,m,sg,,o,,' name='के' posn='60'>
	))
5	((	NP	<fs name='NP4' drel='ccof:CCP'>
5.1	कार्यकारी	JJ	<fs af='कार्यकारी,adj,any,any,,o,,' name='कार्यकारी' posn='70'>
5.2	अध्यक्ष	NN	<fs af='अध्यक्ष,n,m,sg,3,o,0,0' name='अध्यक्ष' posn='80'>
	))
6	((	NP	<fs name='NP5' drel='jjmod:JJP'>
6.1	उद्धव	NNPC	<fs af='उद्धव,n,m,sg,3,d,0,0' name='उद्धव' posn='90'>
6.2	ठाकरे	NNP	<fs af='ठाकरे,n,any,sg,3,o,0,0' name='ठाकरे' posn='100'>
6.3	से	PSP	<fs af='से,psp,,,,,,' name='से' posn='110'>
	))
7	((	JJP	<fs name='JJP' drel='nmod:NP6'>
7.1	खफा	JJ	<fs af='खफा,adj,any,any,,o,,' name='खफा' posn='120'>
	))
8	((	NP	<fs name='NP6' drel='k1:VGF'>
8.1	राज	NNPC	<fs af='राज,n,m,sg,3,d,0,0' name='राज' posn='130'>
8.2	ठाकरे	NNP	<fs af='ठाकरे,n,any,sg,3,o,0,0' name='ठाकरे2' posn='140'>
8.3	ने	PSP	<fs af='ने,psp,,,,,,' name='ने' posn='150'>
	))
9	((	NP	<fs name='NP7' drel='nmod:NP8'>
9.1	शिवसेना	NNC	<fs af='शिवसेना,n,f,sg,3,d,0,0' name='शिवसेना2' posn='160'>
9.2	सुप्रीमो	NN	<fs af='सुप्रीमो,n,m,sg,3,o,0,0' name='सुप्रीमो' posn='170'>
	))
10	((	NP	<fs name='NP8' drel='k4:VGF'>
10.1	बाल	NNPC	<fs af='बाल,n,m,sg,3,d,0,0' name='बाल' posn='180'>
10.2	ठाकरे	NNP	<fs af='ठाकरे,n,any,sg,3,o,0,0' name='ठाकरे3' posn='190'>
10.3	को	PSP	<fs af='को,psp,,,,,,' name='को' posn='200'>
	))
11	((	JJP	<fs name='JJP2' drel='pof:VGF'>
11.1	कड़ा	JJ	<fs af='कडा,adj,m,sg,,,,' name='कड़ा' posn='210'>
	))
12	((	VGF	<fs voicetype='active' name='VGF' stype='declarative' drel='ccof:CCP2'>
12.1	लिखा	VM	<fs af='लिख,v,m,sg,any,,या,yA' name='लिखा' posn='220'>
	))
13	((	CCP	<fs name='CCP2'>
13.1	और	CC	<fs af='और,avy,,,,,,' name='और2' posn='230'>
	))
14	((	VGF	<fs voicetype='active' name='VGF2' stype='declarative' drel='ccof:CCP2'>
14.1	पूछा	VM	<fs af='पूछ,v,m,sg,any,,या,yA' name='पूछा' posn='240'>
	))
15	((	CCP	<fs name='CCP3' drel='k2:VGF2'>
15.1	कि	CC	<fs af='कि,avy,,,,,,' name='कि' posn='250'>
	))
16	((	NP	<fs name='NP9' drel='r6:NP10'>
16.1	मालवण	NNP	<fs af='मालवण,n,m,sg,3,o,0,0' name='मालवण' posn='260'>
16.2	की	PSP	<fs af='का,psp,f,sg,,o,,' name='की' posn='270'>
	))
17	((	NP	<fs name='NP10' drel='rt:VGF3'>
17.1	हार	NN	<fs af='हार,n,f,sg,3,o,0,0' name='हार' posn='280'>
17.2	के	PSP	<fs af='के,psp,,,,,,' name='के2' posn='290'>
17.3	लिए	PSP	<fs af='लिए,psp,,,,,,' name='लिए' posn='300'>
	))
18	((	JJP	<fs name='JJP3' drel='k1:VGF3'>
18.1	जिम्मेदार	JJ	<fs af='जिम्मेदार,adj,any,any,,d,,' name='जिम्मेदार' posn='310'>
	))
19	((	NP	<fs name='NP11' drel='adv:VGF3'>
19.1	कौन	WQ	<fs af='कौन,pn,,,,,,' name='कौन' posn='300'>
	))
20	((	VGF	<fs voicetype='active' name='VGF3' stype='interrogative' drel='ccof:CCP3'>
20.1	है	VM	<fs af='है,v,any,sg,3,,है,hE' name='है' posn='330'>
	))
21	((	BLK	<fs name='BLK' drel='rsym:CCP2'>
21.1	?	SYM	<fs af='?,punc,,,,,,' name='?' posn='340'>
	))
</Sentence>

<Sentence id='3'>
1	((	VGF	<fs name='VGF' stype='declarative' voicetype='active'>
1.1	बताते	VM	<fs af='बता,v,m,sg,3h,,ता,wA' name='बताते' posn='10'>
1.2	हैं	VAUX	<fs af='है,v,any,sg,3h,,है,hE' name='हैं' posn='20'>
	))
2	((	CCP	<fs name='CCP' drel='k2:VGF'>
2.1	कि	CC	<fs af='कि,avy,,,,,,' name='कि' posn='30'>
	))
3	((	NP	<fs name='NP' drel='k7t:VGF2'>
3.1	अब	PRP	<fs af='अब,pn,,,,d,,' name='अब' posn='40'>
	))
4	((	NP	<fs name='NP2' drel='k1:VGF2'>
4.1	बाल	NNPC	<fs af='बाल,n,m,sg,3,d,0,0' name='बाल' posn='50'>
4.2	ठाकरे	NNP	<fs af='ठाकरे,n,any,sg,3,d,0,0' name='ठाकरे' posn='60'>
4.3	ही	RP	<fs af='ही,avy,,,,,,' name='ही' posn='70'>
	))
5	((	NP	<fs name='NP3' drel='k2:VGF2'>
5.1	इस	DEM	<fs af='यह,pn,any,sg,3,o,,' name='इस' posn='80'>
5.2	मामले	NN	<fs af='मामला,n,m,sg,3,o,0,0' name='मामले' posn='90'>
5.3	को	PSP	<fs af='को,psp,,,,,,' name='को' posn='100'>
	))
6	((	VGF	<fs voicetype='active' name='VGF2' stype='declarative' drel='ccof:CCP'>
6.1	निपटाएंगे	VM	<fs af='निपटा,v,m,sg,3h,,गा,gA' name='निपटाएंगे' posn='110'>
	))
7	((	BLK	<fs name='BLK' drel='rsym:VGF'>
7.1	।	SYM	<fs af='।,punc,,,,,,' name='।' posn='120'>
	))
</Sentence>

<Sentence id='4'>
1	((	NP	<fs name='NP' drel='sent-adv:VGF'>
1.1	दूसरी	QO	<fs af='दूसरा,num,f,sg,,d,,' name='दूसरी' posn='10'>
1.2	तरफ	NST	<fs af='तरफ,nst,f,sg,3,d,,' name='तरफ' posn='20'>
	))
2	((	NP	<fs name='NP2' drel='k7p:VGNN'>
2.1	महाराष्ट्र	NNP	<fs af='महाराष्ट्र,n,m,sg,3,o,0,0' name='महाराष्ट्र' posn='30'>
2.2	में	PSP	<fs af='में,psp,,,,,,' name='में' posn='40'>
	))
3	((	NP	<fs name='NP3' drel='r6:NP4'>
3.1	शिवसेना	NNP	<fs af='शिवसेना,n,f,sg,3,o,0,0' name='शिवसेना' posn='50'>
3.2	की	PSP	<fs af='का,psp,f,pl,,d,,' name='की' posn='60'>
	))
4	((	NP	<fs name='NP4' drel='k2:VGNN'>
4.1	जड़ें	NN	<fs af='जड,n,f,pl,3,d,0,0' name='जड़ें' posn='70'>
	))
5	((	VGNN	<fs name='VGNN' drel='r6:NP5'>
5.1	उखाड़ने	VM	<fs af='उखाड,v,any,any,any,o,ना,nA' name='उखाड़ने' posn='80'>
5.2	की	PSP	<fs af='का,psp,f,sg,,o,,' name='की2' posn='90'>
	))
6	((	NP	<fs name='NP5' drel='k7:VGNF'>
6.1	फिराक	NN	<fs af='फिराक,n,f,sg,3,o,0,0' name='फिराक' posn='100'>
6.2	में	PSP	<fs af='में,psp,,,,,,' name='में2' posn='110'>
	))
7	((	VGNF	<fs name='VGNF' drel='nmod__k1inv:NP6'>
7.1	लगी	VM	<fs af='लग,v,f,sg,any,,या,yA' name='लगी' posn='120'>
	))
8	((	NP	<fs name='NP6' drel='k1:VGF'>
8.1	कांग्रेस	NNP	<fs af='कांग्रेस,n,f,sg,3,d,0,0' name='कांग्रेस' posn='130'>
	))
9	((	NP	<fs name='NP7' drel='k2:VGF'>
9.1	इस	DEM	<fs af='यह,pn,any,sg,3,o,,' name='इस' posn='140'>
9.2	विवाद	NN	<fs af='विवाद,n,m,sg,3,o,0,0' name='विवाद' posn='150'>
9.3	को	PSP	<fs af='को,psp,,,,,,' name='को' posn='160'>
	))
10	((	NP	<fs name='NP8' drel='k2u:VGF'>
10.1	सुनहरे	JJ	<fs af='सुनहरा,adj,m,sg,,o,,' name='सुनहरे' posn='170'>
10.2	मौके	NN	<fs af='मौका,n,m,sg,3,o,0,0' name='मौके' posn='180'>
10.3	की	PSP	<fs af='का,psp,f,,,o,,' name='की3' posn='190'>
10.4	तरह	PSP	<fs af='तरह,n,f,,,o,,' name='तरह' posn='200'>
	))
11	((	VGF	<fs name='VGF' stype='declarative' voicetype='active'>
11.1	देख	VM	<fs af='देख,v,any,any,any,,0,0' name='देख' posn='210'>
11.2	रही	VAUX	<fs af='रह,v,f,sg,any,,या,yA' name='रही' posn='220'>
11.3	है	VAUX	<fs af='है,v,any,sg,3,,है,hE' name='है' posn='230'>
	))
12	((	BLK	<fs name='BLK' drel='rsym:VGF'>
12.1	।	SYM	<fs af='।,punc,,,,,,' name='।' posn='240'>
	))
</Sentence>

<Sentence id='5'>
1	((	VGNF	<fs name='VGNF' drel='nmod:NP'>
1.1	लगे	VM	<fs af='लग,v,any,pl,3,,एं,eM' name='लगे' posn='10'>
	))
2	((	NP	<fs name='NP' drel='vmod:VGF'>
2.1	हाथ	NN	<fs af='हाथ,n,m,pl,3,d,0,0' name='हाथ' posn='20'>
	))
3	((	NP	<fs name='NP2' drel='k1:VGF'>
3.1	कांग्रेस	NNP	<fs af='कांग्रेस,n,f,sg,3,o,0,0' name='कांग्रेस' posn='30'>
3.2	ने	PSP	<fs af='ने,psp,,,,,,' name='ने' posn='40'>
	))
4	((	NP	<fs name='NP3' drel='k4:VGF'>
4.1	राज	NNPC	<fs af='राज,n,m,sg,3,d,0,0' name='राज' posn='50'>
4.2	ठाकरे	NNP	<fs af='ठाकरे,n,any,sg,3,o,0,0' name='ठाकरे' posn='60'>
4.3	को	PSP	<fs af='को,psp,,,,,,' name='को' posn='70'>
	))
5	((	NP	<fs name='NP4' drel='k7p:VGNN'>
5.1	पार्टी	NN	<fs af='पार्टी,n,f,sg,3,o,0,0' name='पार्टी' posn='80'>
5.2	में	PSP	<fs af='में,psp,,,,,,' name='में' posn='90'>
	))
6	((	JJP	<fs name='JJP' drel='pof:VGNN'>
6.1	शामिल	JJ	<fs af='शामिल,adj,any,any,,,,' name='शामिल' posn='100'>
	))
7	((	VGNN	<fs name='VGNN' drel='r6:NP5'>
7.1	होने	VM	<fs af='हो,v,any,any,any,o,ना,nA' name='होने' posn='110'>
7.2	का	PSP	<fs af='का,psp,m,sg,,d,,' name='का' posn='120'>
	))
8	((	NP	<fs name='NP5' drel='k2:VGF'>
8.1	न्यौता	NN	<fs af='न्यौता,n,m,sg,any,d,0,0' name='न्यौता' posn='130'>
8.2	भी	RP	<fs af='भी,avy,,,,,,' name='भी' posn='140'>
	))
9	((	VGF	<fs name='VGF' stype='declarative' voicetype='active'>
9.1	दे	VM	<fs af='दे,v,any,any,any,,0,0' name='दे' posn='150'>
9.2	दिया	VAUX	<fs af='दे,v,m,sg,any,,या,yA' name='दिया' posn='160'>
	))
10	((	BLK	<fs name='BLK' drel='rsym:VGF'>
10.1	।	SYM	<fs af='।,punc,,,,,,' name='।' posn='170'>
	))
</Sentence>

<Sentence id='6'>
1	((	NP	<fs name='NP' drel='r6:NP2'>
1.1	महाराष्ट्र	NNPC	<fs af='महाराष्ट्र,n,m,sg,3,d,0,0' name='महाराष्ट्र' posn='10'>
1.2	कांग्रेस	NNP	<fs af='कांग्रेस,n,f,sg,3,o,0,0' name='कांग्रेस' posn='20'>
1.3	के	PSP	<fs af='का,psp,m,sg,,o,,' name='के' posn='30'>
	))
2	((	NP	<fs name='NP2' drel='nmod:NP3'>
2.1	प्रवक्ता	NN	<fs af='प्रवक्ता,n,m,sg,3,o,0,0' name='प्रवक्ता' posn='40'>
	))
3	((	NP	<fs name='NP3' drel='k1:VGF'>
3.1	संजय	NNPC	<fs af='संजय,n,m,sg,3,d,0,0' name='संजय' posn='50'>
3.2	निरुपम	NNP	<fs af='निरुपम,n,m,sg,3,o,0,0' name='निरुपम' posn='60'>
3.3	ने	PSP	<fs af='ने,psp,,,,,,' name='ने' posn='70'>
	))
4	((	NP	<fs name='NP4' drel='k7t:VGF'>
4.1	शुक्रवार	NNP	<fs af='शुक्रवार,n,m,sg,3,o,0,0' name='शुक्रवार' posn='80'>
4.2	को	PSP	<fs af='को,psp,,,,,,' name='को' posn='90'>
	))
5	((	VGF	<fs name='VGF' stype='declarative' voicetype='active'>
5.1	कहा	VM	<fs af='कह,v,m,sg,any,,या,yA' name='कहा' posn='100'>
	))
6	((	CCP	<fs name='CCP' drel='k2:VGF'>
6.1	कि	CC	<fs af='कि,avy,,,,,,' name='कि' posn='110'>
	))
7	((	NP	<fs name='NP5' drel='r6:NP6'>
7.1	उनकी	PRP	<fs af='वह,pn,f,sg,3h,o,का,kA' name='उनकी' posn='120'>
	))
8	((	NP	<fs name='NP6' drel='k1:VGF2'>
8.1	पार्टी	NN	<fs af='पार्टी,n,f,sg,3,d,0,0' name='पार्टी' posn='130'>
	))
9	((	NP	<fs name='NP7' drel='k2:VGNN'>
9.1	राज	NNPC	<fs af='राज,n,m,sg,3,d,0,0' name='राज' posn='140'>
9.2	ठाकरे	NNP	<fs af='ठाकरे,n,any,sg,3,o,0,0' name='ठाकरे' posn='150'>
9.3	को	PSP	<fs af='को,psp,,,,,,' name='को2' posn='160'>
	))
10	((	NP	<fs name='NP8' drel='pof:VGNN'>
10.1	स्वीकार	NN	<fs af='स्वीकार,n,m,sg,3,d,0,0' name='स्वीकार' posn='170'>
	))
11	((	VGNN	<fs name='VGNN' drel='rt:VGF2'>
11.1	करने	VM	<fs af='कर,v,any,any,any,o,ना,nA' name='करने' posn='180'>
11.2	के	PSP	<fs af='के,psp,,,,,,' name='के2' posn='190'>
11.3	लिए	PSP	<fs af='लिए,psp,,,,,,' name='लिए' posn='200'>
	))
12	((	JJP	<fs name='JJP' drel='k1s:VGF2'>
12.1	तैयार	JJ	<fs af='तैयार,adj,any,any,,,,' name='तैयार' posn='210'>
	))
13	((	VGF	<fs voicetype='active' name='VGF2' stype='declarative' drel='ccof:CCP'>
13.1	है	VM	<fs af='है,v,any,sg,3,,है,hE' name='है' posn='220'>
13.2	,	SYM	<fs af='COMMA,punc,,,,,,' name=',' posn='230'>
	))
14	((	CCP	<fs name='CCP2' drel='vmod:VGF2'>
14.1	बशर्ते	CC	<fs af='बशर्ते,avy,,,,,,' name='बशर्ते' posn='240'>
	))
15	((	NP	<fs name='NP9' drel='k1:VGF3'>
15.1	वह	PRP	<fs af='वह,pn,any,sg,3,d,0,0' name='वह' posn='250'>
	))
16	((	NP	<fs name='NP10' drel='r6:NP11'>
16.1	शिवसेना	NNP	<fs af='शिवसेना,n,f,sg,3,o,0,0' name='शिवसेना' posn='260'>
16.2	की	PSP	<fs af='का,psp,f,sg,,d,,' name='की' posn='270'>
	))
17	((	NP	<fs name='NP11' drel='k2:VGNF'>
17.1	विचारधारा	NN	<fs af='विचारधारा,n,f,sg,3,d,0,0' name='विचारधारा' posn='280'>
	))
18	((	VGNF	<fs name='VGNF' drel='vmod:VGF3'>
18.1	छोड़कर	VM	<fs af='छोड,v,any,any,any,,कर,kara' name='छोड़कर' posn='290'>
	))
19	((	NP	<fs name='NP12' drel='r6:NP13'>
19.1	सोनिया	NNPC	<fs af='सोनिया,n,f,sg,3,d,0,0' name='सोनिया' posn='300'>
19.2	गांधी	NNP	<fs af='गांधी,n,any,sg,3,o,0,0' name='गांधी' posn='310'>
19.3	के	PSP	<fs af='का,psp,m,sg,,o,,' name='के3' posn='320'>
	))
20	((	NP	<fs name='NP13' drel='k2:VGF3'>
20.1	नेतृत्व	NN	<fs af='नेतृत्व,n,m,sg,3,o,0,0' name='नेतृत्व' posn='330'>
20.2	को	PSP	<fs af='को,psp,,,,,,' name='को3' posn='340'>
	))
21	((	NP	<fs name='NP14' drel='pof:VGF3'>
21.1	स्वीकार	NN	<fs af='स्वीकार,n,m,sg,3,d,0,0' name='स्वीकार2' posn='350'>
	))
22	((	VGF	<fs voicetype='active' name='VGF3' stype='declarative' drel='ccof:CCP2'>
22.1	कर	VM	<fs af='कर,v,any,any,any,,0,0' name='कर' posn='360'>
22.2	लें	VAUX	<fs af='ले,v,any,sg,3h,,एं,eM' name='लें' posn='370'>
	))
23	((	BLK	<fs name='BLK' drel='rsym:VGF'>
23.1	।	SYM	<fs af='।,punc,,,,,,' name='।' posn='380'>
	))
</Sentence>

<Sentence id='7'>
1	((	NP	<fs name='NP' drel='r6:NP2'>
1.1	हमारे	PRP	<fs af='हम,pn,m,pl,1,o,का,kA' name='हमारे' posn='10'>
	))
2	((	NP	<fs name='NP2' drel='k1:VGF'>
2.1	दरवाजे	NN	<fs af='दरवाजा,n,m,pl,3,d,0,0' name='दरवाजे' posn='20'>
	))
3	((	VGF	<fs voicetype='active' name='VGF' stype='declarative' drel='ccof:NULL__CCP'>
3.1	खुले	VM	<fs af='खुल,v,m,pl,any,,या,yA' name='खुले' posn='30'>
3.2	हैं	VAUX	<fs af='है,v,any,pl,3,,है,hE' name='हैं' posn='40'>
3.3	,	SYM	<fs af='COMMA,punc,,,,,,' name=',' posn='50'>
	))
4	((	NULL__CCP	<fs mtype='gap' troot='और' name='NULL__CCP'>
4.1	NULL	CC	<fs name='NULL'>
	))
5	((	NP	<fs name='NP3' drel='k7t:VGF2'>
5.1	अब	PRP	<fs af='अब,pn,,,,d,,' name='अब' posn='60'>
	))
6	((	NP	<fs name='NP4' drel='k1:VGF2'>
6.1	राज	NNP	<fs af='राज,n,m,sg,3,o,0,0' name='राज' posn='70'>
6.2	को	PSP	<fs af='को,psp,,,,,,' name='को' posn='80'>
	))
7	((	NP	<fs name='NP5' drel='pof:VGF2'>
7.1	फैसला	NN	<fs af='फैसला,n,m,sg,3,d,0,0' name='फैसला' posn='90'>
	))
8	((	VGF	<fs voicetype='active' name='VGF2' stype='declarative' drel='ccof:NULL__CCP'>
8.1	करना	VM	<fs af='कर,v,m,sg,any,,ना,nA' name='करना' posn='100'>
8.2	है	VAUX	<fs af='है,v,any,sg,3,,है,hE' name='है' posn='110'>
	))
9	((	BLK	<fs name='BLK' drel='rsym:NULL__CCP'>
9.1	।	SYM	<fs af='।,punc,,,,,,' name='।' posn='120'>
	))
</Sentence>

<Sentence id='8'>
1	((	NP	<fs name='NP' drel='k7t:VGF'>
1.1	अब	PRP	<fs af='अब,pn,,,,d,,' name='अब' posn='10'>
	))
2	((	NP	<fs name='NP2' drel='k1:VGF'>
2.1	उन्हें	PRP	<fs af='वह,pn,any,sg,3h,o,को,ko' name='उन्हें' posn='20'>
2.2	ही	RP	<fs af='ही,avy,,,,,,' name='ही' posn='30'>
	))
3	((	VGF	<fs name='VGF' stype='declarative' voicetype='active'>
3.1	बताना	VM	<fs af='बता,v,m,sg,any,,ना,nA' name='बताना' posn='40'>
3.2	होगा	VAUX	<fs af='हो,v,m,sg,3,,गा,gA' name='होगा' posn='50'>
	))
4	((	CCP	<fs name='CCP' drel='k2:VGF'>
4.1	कि	CC	<fs af='कि,avy,,,,,,' name='कि' posn='60'>
	))
5	((	RBP	<fs name='RBP' drel='adv:VGF2'>
5.1	क्या	WQ	<fs af='क्या,pn,,,,,,' name='क्या' posn='70'>
	))
6	((	NP	<fs name='NP3' drel='k1:VGF2'>
6.1	वह	PRP	<fs af='वह,pn,any,sg,3,d,0,0' name='वह' posn='80'>
	))
7	((	NP	<fs name='NP4' drel='k7p:VGNN'>
7.1	कांग्रेस	NNP	<fs af='कांग्रेस,n,f,sg,3,o,0,0' name='कांग्रेस' posn='90'>
7.2	में	PSP	<fs af='में,psp,,,,,,' name='में' posn='100'>
	))
8	((	VGNN	<fs name='VGNN' drel='rt:VGF2'>
8.1	आने	VM	<fs af='आ,v,any,any,any,o,ना,nA' name='आने' posn='110'>
8.2	को	PSP	<fs af='को,psp,,,,,,' name='को' posn='120'>
	))
9	((	JJP	<fs name='JJP' drel='k1s:VGF2'>
9.1	तैयार	JJ	<fs af='तैयार,adj,any,any,,,,' name='तैयार' posn='130'>
	))
10	((	VGF	<fs voicetype='active' name='VGF2' stype='interrogative' drel='ccof:CCP2'>
10.1	हैं	VM	<fs af='है,v,any,sg,3h,,है,hE' name='हैं' posn='140'>
	))
11	((	CCP	<fs name='CCP2' drel='ccof:CCP'>
11.1	और	CC	<fs af='और,avy,,,,,,' name='और' posn='150'>
	))
12	((	NP	<fs name='NP5' drel='k4a:VGF3'>
12.1	उन्हें	PRP	<fs af='वह,pn,any,sg,3h,o,को,ko' name='उन्हें2' posn='160'>
	))
13	((	NP	<fs name='NP6' drel='k5:VGF3'>
13.1	हमसे	PRP	<fs af='हम,pn,any,pl,1,o,से,se' name='हमसे' posn='170'>
	))
14	((	NP	<fs name='NP7' drel='k1:VGF3'>
14.1	क्या	WQ	<fs af='क्या,pn,,,,,,' name='क्या2' posn='180'>
14.2	उम्मीद	NN	<fs af='उम्मीद,n,f,sg,3,d,0,0' name='उम्मीद' posn='190'>
	))
15	((	VGF	<fs voicetype='active' name='VGF3' stype='interrogative' drel='ccof:CCP2'>
15.1	है	VM	<fs af='है,v,any,sg,3,,है,hE' name='है' posn='200'>
	))
16	((	BLK	<fs name='BLK' drel='rsym:VGF'>
16.1	?	SYM	<fs af='?,punc,,,,,,' name='?' posn='210'>
	))
</Sentence>

<Sentence id='9'>
1	((	NP	<fs name='NP' drel='sent-adv:VGF'>
1.1	दूसरी	QO	<fs af='दूसरा,num,f,sg,,d,,' name='दूसरी' posn='10'>
1.2	तरफ	NST	<fs af='तरफ,nst,f,sg,3,d,,' name='तरफ' posn='20'>
	))
2	((	NP	<fs name='NP2' drel='k7t:VGF'>
2.1	सुबह	NN	<fs af='सुबह,n,f,sg,3,d,0,0' name='सुबह' posn='30'>
	))
3	((	NP	<fs name='NP3' drel='k1:VGF'>
3.1	सूत्रों	NN	<fs af='सूत्र,n,m,pl,3,o,0,0' name='सूत्रों' posn='40'>
3.2	ने	PSP	<fs af='ने,psp,,,,,,' name='ने' posn='50'>
	))
4	((	NP	<fs name='NP4' drel='k2:VGF'>
4.1	उम्मीद	NN	<fs af='उम्मीद,n,f,sg,3,d,0,0' name='उम्मीद' posn='60'>
	))
5	((	JJP	<fs name='JJP' drel='pof:VGF'>
5.1	व्यक्त	JJ	<fs af='व्यक्त,adj,any,any,,,,' name='व्यक्त' posn='70'>
	))
6	((	VGF	<fs voicetype='active' name='VGF' stype='declarative' drel='ccof:CCP2'>
6.1	की	VM	<fs af='कर,v,f,sg,any,,या,yA' name='की' posn='80'>
6.2	थी	VAUX	<fs af='था,v,f,sg,any,,था,WA' name='थी' posn='90'>
	))
7	((	CCP	<fs name='CCP' drel='rs:NP4'>
7.1	कि	CC	<fs af='कि,avy,,,,,,' name='कि' posn='100'>
	))
8	((	NP	<fs name='NP5' drel='r6:NP6'>
8.1	सेना	NN	<fs af='सेना,n,f,sg,3,o,0,0' name='सेना' posn='110'>
8.2	के	PSP	<fs af='का,psp,m,sg,3h,o,,' name='के' posn='120'>
	))
9	((	NP	<fs name='NP6' drel='nmod:NP7'>
9.1	कार्यकारी	JJ	<fs af='कार्यकारी,adj,any,any,,d,,' name='कार्यकारी' posn='130'>
9.2	अध्यक्ष	NN	<fs af='अध्यक्ष,n,m,sg,3,d,0,0' name='अध्यक्ष' posn='140'>
	))
10	((	NP	<fs name='NP7' drel='k1:VGF2'>
10.1	उद्धव	NNPC	<fs af='उद्धव,n,m,sg,3,d,0,0' name='उद्धव' posn='150'>
10.2	ठाकरे	NNP	<fs af='ठाकरे,n,any,sg,3,d,0,0' name='ठाकरे' posn='160'>
	))
11	((	NP	<fs name='NP8' drel='k2:VGNN'>
11.1	चचेरे	JJ	<fs af='चचेरा,adj,m,sg,,o,,' name='चचेरे' posn='170'>
11.2	भाई	NN	<fs af='भाई,n,m,sg,3,o,0,0' name='भाई' posn='180'>
11.3	से	PSP	<fs af='से,psp,,,,,,' name='से' posn='190'>
	))
12	((	VGNN	<fs name='VGNN' drel='rt:VGF2'>
12.1	मिलने	VM	<fs af='मिल,v,any,any,any,o,ना,nA' name='मिलने' posn='200'>
12.2	के	PSP	<fs af='के,psp,,,,,,' name='के2' posn='210'>
12.3	लिए	PSP	<fs af='लिए,psp,,,,,,' name='लिए' posn='220'>
	))
13	((	NP	<fs name='NP9' drel='k7t:VGF2'>
13.1	शनिवार	NNP	<fs af='शनिवार,n,m,sg,3,o,0,0' name='शनिवार' posn='230'>
13.2	को	PSP	<fs af='को,psp,,,,,,' name='को' posn='240'>
	))
14	((	NP	<fs name='NP10' drel='k2p:VGF2'>
14.1	नासिक	NNP	<fs af='नासिक,n,m,sg,3,d,0,0' name='नासिक' posn='250'>
	))
15	((	VGF	<fs voicetype='active' name='VGF2' stype='declarative' drel='ccof:CCP'>
15.1	जा	VM	<fs af='जा,v,any,any,any,,0,0' name='जा' posn='260'>
15.2	सकते	VAUX	<fs af='सक,v,m,sg,3h,,ता,wA' name='सकते' posn='270'>
15.3	हैं	VAUX	<fs af='है,v,m,sg,3h,,है,hE' name='हैं' posn='280'>
	))
16	((	CCP	<fs name='CCP2'>
16.1	लेकिन	CC	<fs af='लेकिन,avy,,,,,,' name='लेकिन' posn='290'>
	))
17	((	NP	<fs name='NP11' drel='k7t:VGF3'>
17.1	इससे	PRP	<fs af='यह,pn,any,sg,3,o,से,se' name='इससे' posn='300'>
17.2	पहले	NST	<fs af='पहले,nst,m,sg,3,d,,' name='पहले' posn='310'>
17.3	ही	RP	<fs af='ही,avy,,,,,,' name='ही' posn='320'>
	))
18	((	NP	<fs name='NP12' drel='k1:VGF3'>
18.1	राज	NNP	<fs af='राज,n,m,sg,3,d,0,0' name='राज' posn='330'>
	))
19	((	NP	<fs name='NP13' drel='rt:VGF3'>
19.1	शिर्डी	NNP	<fs af='शिर्डी,n,m,sg,3,o,0,0' name='शिर्डी' posn='340'>
19.2	के	PSP	<fs af='के,psp,,,,,,' name='के3' posn='350'>
19.3	लिए	PSP	<fs af='लिए,psp,,,,,,' name='लिए2' posn='360'>
	))
20	((	JJP	<fs name='JJP2' drel='pof:VGF3'>
20.1	रवाना	JJ	<fs af='रवाना,adj,any,any,,,,' name='रवाना' posn='370'>
	))
21	((	VGF	<fs voicetype='active' name='VGF3' stype='declarative' drel='ccof:CCP2'>
21.1	हो	VM	<fs af='हो,v,any,any,any,,0,0' name='हो' posn='380'>
21.2	गए	VAUX	<fs af='जा,v,m,sg,3h,,या१,yA1' name='गए' posn='390'>
	))
22	((	BLK	<fs name='BLK' drel='rsym:CCP2'>
22.1	।	SYM	<fs af='।,punc,,,,,,' name='।' posn='400'>
	))
</Sentence>

<Sentence id='10'>
1	((	NP	<fs name='NP' drel='k1:VGF'>
1.1	राज	NNP	<fs af='राज,n,m,sg,3,d,0,0' name='राज' posn='10'>
	))
2	((	NP	<fs name='NP2' drel='k7t:VGF'>
2.1	शुक्रवार	NNP	<fs af='शुक्रवार,n,m,sg,3,o,0,0' name='शुक्रवार' posn='20'>
2.2	को	PSP	<fs af='को,psp,,,,,,' name='को' posn='30'>
	))
3	((	NP	<fs name='NP3' drel='k2p:VGF'>
3.1	नासिक	NNP	<fs af='नासिक,n,m,sg,3,d,0,0' name='नासिक' posn='40'>
	))
4	((	VGF	<fs voicetype='active' name='VGF' stype='declarative' drel='ccof:CCP'>
4.1	पहुंचे	VM	<fs af='पहुंच,v,m,sg,3h,,या,yA' name='पहुंचे' posn='50'>
4.2	थे	VAUX	<fs af='था,v,m,sg,3h,,था,WA' name='थे' posn='60'>
	))
5	((	CCP	<fs name='CCP'>
5.1	और	CC	<fs af='और,avy,,,,,,' name='और' posn='70'>
	))
6	((	NP	<fs name='NP4' drel='k7p:VGF2'>
6.1	वहां	PRP	<fs af='वहाँ,pn,,,,d,,' name='वहां' posn='80'>
	))
7	((	NP	<fs name='NP5' drel='r6:NP6'>
7.1	शिवसेना	NNP	<fs af='शिवसेना,n,f,sg,3,o,0,0' name='शिवसेना' posn='90'>
7.2	के	PSP	<fs af='का,psp,m,pl,,o,,' name='के' posn='100'>
	))
8	((	NP	<fs name='NP6' drel='k2:VGF2'>
8.1	स्थानीय	JJ	<fs af='स्थानीय,adj,any,any,,o,,' name='स्थानीय' posn='110'>
8.2	नेताओं	NN	<fs af='नेता,n,m,pl,3,o,0,0' name='नेताओं' posn='120'>
8.3	से	PSP	<fs af='से,psp,,,,,,' name='से' posn='130'>
	))
9	((	VGF	<fs voicetype='active' name='VGF2' stype='declarative' drel='ccof:CCP'>
9.1	मिले	VM	<fs af='मिल,v,m,sg,any,,या,yA' name='मिले' posn='140'>
9.2	थे	VAUX	<fs af='था,v,m,sg,any,,था,WA' name='थे2' posn='150'>
	))
10	((	BLK	<fs name='BLK' drel='rsym:CCP'>
10.1	।	SYM	<fs af='।,punc,,,,,,' name='।' posn='160'>
	))
</Sentence>

<Sentence id='11'>
1	((	NP	<fs name='NP' drel='k7t:VGF'>
1.1	इस	DEM	<fs af='यह,pn,any,sg,3,o,,' name='इस' posn='10'>
1.2	दौरान	NST	<fs af='दौरान,nst,m,sg,3,d,,' name='दौरान' posn='20'>
	))
2	((	NP	<fs name='NP2' drel='k1:VGF'>
2.1	पत्रकारों	NN	<fs af='पत्रकार,n,m,pl,3,o,0,0' name='पत्रकारों' posn='30'>
2.2	ने	PSP	<fs af='ने,psp,,,,,,' name='ने' posn='40'>
	))
3	((	NP	<fs name='NP3' drel='k2:VGF'>
3.1	राज	NNP	<fs af='राज,n,m,sg,3,o,0,0' name='राज' posn='50'>
3.2	को	PSP	<fs af='को,psp,,,,,,' name='को' posn='60'>
	))
4	((	VGF	<fs voicetype='active' name='VGF' stype='declarative' drel='ccof:CCP'>
4.1	घेरा	VM	<fs af='घेर,v,m,sg,any,,या,yA' name='घेरा' posn='70'>
	))
5	((	CCP	<fs name='CCP'>
5.1	लेकिन	CC	<fs af='लेकिन,avy,,,,,,' name='लेकिन' posn='80'>
	))
6	((	NP	<fs name='NP4' drel='k1:VGF2'>
6.1	उन्होंने	PRP	<fs af='वह,pn,any,sg,3h,o,ने,ne' name='उन्होंने' posn='90'>
	))
7	((	NP	<fs name='NP5' drel='r6:NP6'>
7.1	उनके	PRP	<fs af='वह,pn,m,pl,3,o,का,kA' name='उनके' posn='100'>
	))
8	((	NP	<fs name='NP6' drel='r6:NP7'>
8.1	किसी	PRP	<fs af='कोई,pn,any,sg,3,o,0,0' name='किसी' posn='110'>
8.2	सवाल	NN	<fs af='सवाल,n,m,sg,3,o,0,0' name='सवाल' posn='120'>
8.3	का	PSP	<fs af='का,psp,m,sg,,d,,' name='का' posn='130'>
	))
9	((	NP	<fs name='NP7' drel='k2:VGF2'>
9.1	जवाब	NN	<fs af='जवाब,n,m,sg,3,d,0,0' name='जवाब' posn='140'>
	))
10	((	VGF	<fs voicetype='active' name='VGF2' stype='declarative' drel='ccof:CCP'>
10.1	नहीं	NEG	<fs af='नहीं,avy,,,,,,' name='नहीं' posn='150'>
10.2	दिया	VM	<fs af='दे,v,m,sg,any,,या,yA' name='दिया' posn='160'>
	))
11	((	BLK	<fs name='BLK' drel='rsym:CCP'>
11.1	।	SYM	<fs af='।,punc,,,,,,' name='।' posn='170'>
	))
</Sentence>

<Sentence id='12'>
1	((	NP	<fs name='NP' drel='r6:NP2'>
1.1	शिवसेना	NNP	<fs af='शिवसेना,n,f,sg,3,o,0,0' name='शिवसेना' posn='10'>
1.2	के	PSP	<fs af='का,psp,m,sg,,o,,' name='के' posn='20'>
	))
2	((	NP	<fs name='NP2' drel='nmod:NP3'>
2.1	वरिष्ठ	JJ	<fs af='वरिष्ठ,adj,any,any,,o,,' name='वरिष्ठ' posn='30'>
2.2	नेता	NN	<fs af='नेता,n,m,sg,3,o,0,0' name='नेता' posn='40'>
	))
3	((	NP	<fs name='NP3' drel='k1:VGF'>
3.1	मनोहर	NNPC	<fs af='मनोहर,n,m,sg,3,d,0,0' name='मनोहर' posn='50'>
3.2	जोशी	NNP	<fs af='जोशी,n,any,sg,3,o,0,0' name='जोशी' posn='60'>
3.3	ने	PSP	<fs af='ने,psp,,,,,,' name='ने' posn='70'>
	))
4	((	VGF	<fs name='VGF' stype='declarative' voicetype='active'>
4.1	कहा	VM	<fs af='कह,v,m,sg,any,,या,yA' name='कहा' posn='80'>
4.2	है	VAUX	<fs af='है,v,any,sg,3,,है,hE' name='है' posn='90'>
	))
5	((	CCP	<fs name='CCP' drel='k2:VGF'>
5.1	कि	CC	<fs af='कि,avy,,,,,,' name='कि' posn='100'>
	))
6	((	NP	<fs name='NP4' drel='k7t:VGF2'>
6.1	अब	PRP	<fs af='अब,pn,,,,d,,' name='अब' posn='110'>
	))
7	((	NP	<fs name='NP5' drel='k1:VGF2'>
7.1	बाल	NNPC	<fs af='बाल,n,m,sg,3,d,0,0' name='बाल' posn='120'>
7.2	ठाकरे	NNP	<fs af='ठाकरे,n,any,sg,3,d,0,0' name='ठाकरे' posn='130'>
7.3	ही	RP	<fs af='ही,avy,,,,,,' name='ही' posn='140'>
	))
8	((	NP	<fs name='NP6' drel='k2:VGF2'>
8.1	इस	DEM	<fs af='यह,pn,any,sg,3,o,,' name='इस' posn='150'>
8.2	मामले	NN	<fs af='मामला,n,m,sg,3,o,0,0' name='मामले' posn='160'>
8.3	को	PSP	<fs af='को,psp,,,,,,' name='को' posn='170'>
	))
9	((	VGF	<fs voicetype='active' name='VGF2' stype='declarative' drel='ccof:CCP'>
9.1	देखेंगे	VM	<fs af='देख,v,m,sg,3h,,गा,gA' name='देखेंगे' posn='180'>
	))
10	((	BLK	<fs name='BLK' drel='rsym:VGF'>
10.1	।	SYM	<fs af='।,punc,,,,,,' name='।' posn='190'>
	))
</Sentence>

<Sentence id='13'>
1	((	NP	<fs name='NP' drel='k1:VGF'>
1.1	उन्होंने	PRP	<fs af='वह,pn,any,sg,3h,o,ने,ne' name='उन्होंने' posn='10'>
	))
2	((	NP	<fs name='NP2' drel='k2:VGNF'>
2.1	राज	NNP	<fs af='राज,n,m,sg,3,o,0,0' name='राज' posn='20'>
2.2	को	PSP	<fs af='को,psp,,,,,,' name='को' posn='30'>
	))
3	((	NP	<fs name='NP3' drel='k2g:VGNF'>
3.1	बहुत	INTF	<fs af='बहुत,avy,,,,,,' name='बहुत' posn='40'>
3.2	परिपक्व	JJ	<fs af='परिपक्व,adj,any,any,,d,,' name='परिपक्व' posn='50'>
3.3	नेता	NN	<fs af='नेता,n,m,sg,3,d,0,0' name='नेता' posn='60'>
	))
4	((	VGNF	<fs name='VGNF' drel='vmod:VGF'>
4.1	बताते	VM	<fs af='बता,v,m,sg,any,,ता,wA' name='बताते' posn='70'>
4.2	हुए	VAUX	<fs af='हो,v,m,sg,any,,या,yA' name='हुए' posn='80'>
	))
5	((	VGF	<fs name='VGF' stype='declarative' voicetype='active'>
5.1	कहा	VM	<fs af='कह,v,m,sg,any,,या,yA' name='कहा' posn='90'>
	))
6	((	CCP	<fs name='CCP' drel='k2:VGF'>
6.1	कि	CC	<fs af='कि,avy,,,,,,' name='कि' posn='100'>
	))
7	((	NP	<fs name='NP4' drel='k1:VGF2'>
7.1	बाला	NNPC	<fs af='बाला,n,m,sg,3,d,0,0' name='बाला' posn='110'>
7.2	साहेब	NNP	<fs af='साहेब,n,m,sg,3,d,0,0' name='साहेब' posn='120'>
7.3	ही	RP	<fs af='ही,avy,,,,,,' name='ही' posn='130'>
	))
8	((	NP	<fs name='NP5' drel='r6:NP6'>
8.1	अपने	PRP	<fs af='अपना,pn,m,any,any,o,0,0' name='अपने' posn='140'>
	))
9	((	NP	<fs name='NP6' drel='k4:VGF2'>
9.1	भतीजे	NN	<fs af='भतीजा,n,m,sg,3,o,0,0' name='भतीजे' posn='150'>
9.2	से	PSP	<fs af='से,psp,,,,,,' name='से' posn='160'>
	))
10	((	NP	<fs name='NP7' drel='pof:VGF2'>
10.1	बात	NN	<fs af='बात,n,f,sg,3,d,0,0' name='बात' posn='170'>
	))
11	((	VGF	<fs voicetype='active' name='VGF2' stype='declarative' drel='ccof:CCP2'>
11.1	करेंगे	VM	<fs af='कर,v,m,sg,3h,,गा,gA' name='करेंगे' posn='180'>
	))
12	((	CCP	<fs name='CCP2' drel='ccof:CCP'>
12.1	और	CC	<fs af='और,avy,,,,,,' name='और' posn='190'>
	))
13	((	NP	<fs name='NP8' drel='k2:VGF3'>
13.1	ऐसा	PRP	<fs af='ऐसा,pn,m,sg,any,d,0,0' name='ऐसा' posn='200'>
	))
14	((	VGF	<fs voicetype='active' name='VGF3' stype='declarative' drel='ccof:CCP2'>
14.1	नहीं	NEG	<fs af='नहीं,avy,,,,,,' name='नहीं' posn='210'>
14.2	लगता	VM	<fs af='लग,v,m,sg,any,,ता,wA' name='लगता' posn='220'>
	))
15	((	CCP	<fs name='CCP3' drel='rs:NP8'>
15.1	कि	CC	<fs af='कि,avy,,,,,,' name='कि2' posn='230'>
	))
16	((	NP	<fs name='NP9' drel='k2:VGNF2'>
16.1	इसे	PRP	<fs af='यह,pn,any,sg,3,o,को,ko' name='इसे' posn='240'>
	))
17	((	VGNF	<fs name='VGNF2' drel='vmod:VGF4'>
17.1	लेकर	VM	<fs af='ले,v,any,any,any,,कर,kara' name='लेकर' posn='250'>
	))
18	((	NP	<fs name='NP10' drel='k7p:VGF4'>
18.1	पार्टी	NN	<fs af='पार्टी,n,f,sg,3,o,0,0' name='पार्टी' posn='260'>
18.2	में	PSP	<fs af='में,psp,,,,,,' name='में' posn='270'>
	))
19	((	NP	<fs name='NP11' drel='k1:VGF4'>
19.1	कोई	PRP	<fs af='कोई,pn,any,sg,3,d,0,0' name='कोई' posn='280'>
19.2	बड़ा	JJ	<fs af='बडा,adj,m,sg,,d,,' name='बड़ा' posn='290'>
19.3	विवाद	NN	<fs af='विवाद,n,m,sg,3,d,0,0' name='विवाद' posn='300'>
	))
20	((	VGF	<fs voicetype='active' name='VGF4' stype='declarative' drel='ccof:CCP3'>
20.1	छिड़ेगा	VM	<fs af='छिड,v,m,sg,3,,गा,gA' name='छिड़ेगा' posn='310'>
	))
21	((	BLK	<fs name='BLK' drel='rsym:VGF'>
21.1	।	SYM	<fs af='।,punc,,,,,,' name='।' posn='320'>
	))
</Sentence>

<Sentence id='14'>
1	((	NP	<fs name='NP' drel='k1:VGF'>
1.1	जोशी	NNP	<fs af='जोशी,n,any,sg,3,o,0,0' name='जोशी' posn='10'>
1.2	ने	PSP	<fs af='ने,psp,,,,,,' name='ने' posn='20'>
	))
2	((	VGF	<fs name='VGF' stype='declarative' voicetype='active'>
2.1	कहा	VM	<fs af='कह,v,m,sg,any,,या,yA' name='कहा' posn='30'>
	))
3	((	CCP	<fs name='CCP' drel='k2:VGF'>
3.1	कि	CC	<fs af='कि,avy,,,,,,' name='कि' posn='40'>
	))
4	((	NP	<fs name='NP2' drel='k1:VGF2'>
4.1	वह	PRP	<fs af='वह,pn,any,sg,3,d,0,0' name='वह' posn='50'>
	))
5	((	NP	<fs name='NP3' drel='ccof:CCP2'>
5.1	उद्धव	NNP	<fs af='उद्धव,n,m,sg,3,d,0,0' name='उद्धव' posn='60'>
	))
6	((	CCP	<fs name='CCP2' drel='rs:NP5'>
6.1	और	CC	<fs af='और,avy,,,,,,' name='और' posn='70'>
	))
7	((	NP	<fs name='NP4' drel='ccof:CCP2'>
7.1	राज	NNP	<fs af='राज,n,m,sg,3,d,0,0' name='राज' posn='80'>
7.2	,	SYM	<fs af='COMMA,punc,,,,,,' name=',' posn='90'>
	))
8	((	NP	<fs name='NP5' drel='k4:VGF2'>
8.1	दोनों	NN	<fs af='दो,n,m,pl,3,o,0,0' name='दोनों' posn='100'>
8.2	से	PSP	<fs af='से,psp,,,,,,' name='से' posn='110'>
	))
9	((	NP	<fs name='NP6' drel='pof:VGF2'>
9.1	बात	NN	<fs af='बात,n,f,sg,3,d,0,0' name='बात' posn='120'>
	))
10	((	VGF	<fs voicetype='active' name='VGF2' stype='declarative' drel='ccof:CCP'>
10.1	कर	VM	<fs af='कर,v,any,any,any,,0,0' name='कर' posn='130'>
10.2	चुके	VAUX	<fs af='चुक,v,any,sg,3h,,एं,eM' name='चुके' posn='140'>
10.3	हैं	VAUX	<fs af='है,v,any,sg,3h,,है,hE' name='हैं' posn='150'>
	))
11	((	BLK	<fs name='BLK' drel='rsym:VGF'>
11.1	।	SYM	<fs af='।,punc,,,,,,' name='।' posn='160'>
	))
</Sentence>

<Sentence id='15'>
1	((	CCP	<fs name='CCP' drel='vmod:VGF2'>
1.1	अगर	CC	<fs af='अगर,avy,,,,,,' name='अगर' posn='10'>
	))
2	((	NP	<fs name='NP' drel='k1:VGF'>
2.1	राज	NNP	<fs af='राज,n,m,sg,3,d,0,0' name='राज' posn='20'>
	))
3	((	NP	<fs name='NP2' drel='k2:VGF'>
3.1	कुछ	PRP	<fs af='कुछ,pn,any,any,3,d,0,0' name='कुछ' posn='30'>
	))
4	((	VGF	<fs voicetype='active' name='VGF' stype='declarative' drel='ccof:CCP'>
4.1	चाहते	VM	<fs af='चाह,v,m,sg,3h,,ता,wA' name='चाहते' posn='40'>
4.2	है	VAUX	<fs af='है,v,any,sg,3h,,है,hE' name='है' posn='50'>
	))
5	((	CCP	<fs name='CCP2'>
5.1	तो	CC	<fs af='तो,avy,,,,,,' name='तो' posn='60'>
	))
6	((	NP	<fs name='NP3' drel='k7:VGF2'>
6.1	उस	PRP	<fs af='वह,pn,any,sg,3,o,0,0' name='उस' posn='70'>
6.2	पर	PSP	<fs af='पर,psp,,,,,,' name='पर' posn='80'>
	))
7	((	NP	<fs name='NP4' drel='pof:VGF2'>
7.1	विचार	NN	<fs af='विचार,n,m,sg,3,d,0,0' name='विचार' posn='90'>
	))
8	((	VGF	<fs voicetype='passive' name='VGF2' stype='declarative' drel='ccof:CCP2'>
8.1	किया	VM	<fs af='कर,v,m,sg,any,,या,yA' name='किया' posn='100'>
8.2	जाना	VAUX	<fs af='जा,v,m,sg,any,,ना,nA' name='जाना' posn='110'>
8.3	चाहिए	VAUX	<fs af='चाहिए,v,any,any,any,,0,0' name='चाहिए' posn='120'>
	))
9	((	BLK	<fs name='BLK' drel='rsym:CCP2'>
9.1	।	SYM	<fs af='।,punc,,,,,,' name='।' posn='130'>
	))
</Sentence>

<Sentence id='16'>
1	((	VGF	<fs name='VGF' stype='declarative' voicetype='passive'>
1.1	बताया	VM	<fs af='बता,v,m,sg,any,,या,yA' name='बताया' posn='10'>
1.2	गया	VAUX	<fs af='जा,v,m,sg,any,,या१,yA1' name='गया' posn='20'>
1.3	है	VAUX	<fs af='है,v,any,sg,3,,है,hE' name='है' posn='30'>
	))
2	((	CCP	<fs name='CCP' drel='k2:VGF'>
2.1	कि	CC	<fs af='कि,avy,,,,,,' name='कि' posn='40'>
	))
3	((	NP	<fs name='NP' drel='k1:VGF2'>
3.1	राज	NNP	<fs af='राज,n,m,sg,3,o,0,0' name='राज' posn='50'>
3.2	ने	PSP	<fs af='ने,psp,,,,,,' name='ने' posn='60'>
	))
4	((	NP	<fs name='NP2' drel='adv:VGF2'>
4.1	अप्रत्यक्ष	JJ	<fs af='अप्रत्यक्ष,adj,any,any,,o,,' name='अप्रत्यक्ष' posn='70'>
4.2	रूप	NN	<fs af='रूप,n,m,sg,3,o,0,0' name='रूप' posn='80'>
4.3	से	PSP	<fs af='से,psp,,,,,,' name='से' posn='90'>
	))
5	((	NP	<fs name='NP3' drel='rd:VGNF'>
5.1	उद्धव	NNP	<fs af='उद्धव,n,m,sg,3,o,0,0' name='उद्धव' posn='100'>
5.2	की	PSP	<fs af='का,psp,f,sg,,o,,' name='की' posn='110'>
5.3	ओर	NST	<fs af='ओर,nst,f,sg,3,d,,' name='ओर' posn='120'>
	))
6	((	NP	<fs name='NP4' drel='pof:VGNF'>
6.1	इशारा	NN	<fs af='इशारा,n,m,sg,3,d,0,0' name='इशारा' posn='130'>
	))
7	((	VGNF	<fs name='VGNF' drel='vmod:VGF2'>
7.1	करते	VM	<fs af='कर,v,m,sg,any,,ता,wA' name='करते' posn='140'>
7.2	हुए	VAUX	<fs af='हो,v,m,sg,any,,एं,eM' name='हुए' posn='150'>
	))
8	((	NP	<fs name='NP5' drel='k4:VGF2'>
8.1	सेना	NNC	<fs af='सेना,n,f,sg,3,d,0,0' name='सेना' posn='160'>
8.2	प्रमुख	NN	<fs af='प्रमुख,n,m,sg,3,o,0,0' name='प्रमुख' posn='170'>
8.3	से	PSP	<fs af='से,psp,,,,,,' name='से2' posn='180'>
	))
9	((	NP	<fs name='NP6' drel='ccof:CCP2'>
9.1	उन्हें	PRP	<fs af='वह,pn,any,sg,3h,o,को,ko' name='उन्हें' posn='190'>
	))
10	((	CCP	<fs name='CCP2' drel='k1:VGNN'>
10.1	और	CC	<fs af='और,avy,,,,,,' name='और' posn='200'>
	))
11	((	NP	<fs name='NP7' drel='r6:NP8'>
11.1	उनके	PRP	<fs af='वह,pn,m,sg,3h,o,का,kA' name='उनके' posn='210'>
	))
12	((	NP	<fs name='NP8' drel='ccof:CCP2'>
12.1	समर्थकों	NN	<fs af='समर्थक,n,m,pl,3,o,0,0' name='समर्थकों' posn='220'>
12.2	की	PSP	<fs af='का,psp,f,sg,,d,,' name='की2' posn='230'>
	))
13	((	NP	<fs name='NP9' drel='pof:VGNN'>
13.1	अनदेखी	NN	<fs af='अनदेखी,n,f,sg,3,d,0,0' name='अनदेखी' posn='240'>
	))
14	((	VGNN	<fs name='VGNN' drel='r6-k2:NP10'>
14.1	होने	VM	<fs af='हो,v,any,any,any,o,ना,nA' name='होने' posn='250'>
14.2	की	PSP	<fs af='का,psp,f,sg,,d,,' name='की3' posn='260'>
	))
15	((	NP	<fs name='NP10' drel='pof:VGF2'>
15.1	शिकायत	NN	<fs af='शिकायत,n,f,sg,3,d,0,0' name='शिकायत' posn='270'>
	))
16	((	VGF	<fs voicetype='active' name='VGF2' stype='declarative' drel='ccof:CCP'>
16.1	की	VM	<fs af='कर,v,f,sg,any,,या,yA' name='की4' posn='280'>
16.2	है	VAUX	<fs af='है,v,any,sg,3,,है,hE' name='है2' posn='290'>
	))
17	((	BLK	<fs name='BLK' drel='rsym:VGF'>
17.1	।	SYM	<fs af='।,punc,,,,,,' name='।' posn='300'>
	))
</Sentence>

<Sentence id='17'>
1	((	VGF	<fs name='VGF' stype='declarative' voicetype='passive'>
1.1	बताया	VM	<fs af='बता,v,m,sg,any,,या,yA' name='बताया' posn='10'>
1.2	जाता	VAUX	<fs af='जा,v,m,sg,any,,ता,wA' name='जाता' posn='20'>
1.3	है	VAUX	<fs af='है,v,any,sg,3,,है,hE' name='है' posn='30'>
	))
2	((	CCP	<fs name='CCP' drel='k2:VGF'>
2.1	कि	CC	<fs af='कि,avy,,,,,,' name='कि' posn='40'>
	))
3	((	NP	<fs name='NP' drel='k1:VGF2'>
3.1	राज	NNP	<fs af='राज,n,m,sg,3,d,0,0' name='राज' posn='50'>
	))
4	((	VGF	<fs voicetype='active' name='VGF2' stype='declarative' drel='ccof:CCP'>
4.1	चाहते	VM	<fs af='चाह,v,m,sg,3h,,ता,wA' name='चाहते' posn='60'>
4.2	थे	VAUX	<fs af='था,v,m,sg,3h,,था,WA' name='थे' posn='70'>
	))
5	((	CCP	<fs name='CCP2' drel='k2:VGF2'>
5.1	कि	CC	<fs af='कि,avy,,,,,,' name='कि2' posn='80'>
	))
6	((	NP	<fs name='NP2' drel='k1:VGF3'>
6.1	सुप्रीमो	NN	<fs af='सुप्रीमो,n,m,sg,3,d,0,0' name='सुप्रीमो' posn='90'>
	))
7	((	CCP	<fs name='CCP3' drel='vmod:VGF4'>
7.1	यदि	CC	<fs af='यदि,avy,,,,,,' name='यदि' posn='100'>
	))
8	((	NP	<fs name='NP3' drel='k2:VGNN'>
8.1	पार्टी	NN	<fs af='पार्टी,n,f,sg,3,d,0,0' name='पार्टी' posn='110'>
	))
9	((	VGNN	<fs name='VGNN' drel='k2:VGF3'>
9.1	बचाना	VM	<fs af='बचा,v,any,any,any,d,ना,nA' name='बचाना' posn='120'>
	))
10	((	VGF	<fs voicetype='active' name='VGF3' stype='declarative' drel='ccof:CCP3'>
10.1	चाहते	VM	<fs af='चाह,v,m,sg,3h,,ता,wA' name='चाहते2' posn='130'>
10.2	हैं	VAUX	<fs af='है,v,m,sg,3h,,है,hE' name='हैं' posn='140'>
10.3	,	SYM	<fs af='COMMA,punc,,,,,,' name=',' posn='150'>
	))
11	((	CCP	<fs name='CCP4' drel='ccof:CCP2'>
11.1	तो	CC	<fs af='तो,avy,,,,,,' name='तो' posn='160'>
	))
12	((	NP	<fs name='NP4' drel='k1:VGF4'>
12.1	उन्हें	PRP	<fs af='वह,pn,any,sg,3h,o,को,ko' name='उन्हें' posn='170'>
	))
13	((	NP	<fs name='NP5' drel='k7:VGF4'>
13.1	सगंठन	NN	<fs af='सगंठन,n,m,sg,3,o,0,0' name='सगंठन' posn='180'>
13.2	में	PSP	<fs af='में,psp,,,,,,' name='में' posn='190'>
	))
14	((	RBP	<fs name='RBP' drel='adv:VGF4'>
14.1	तत्काल	RB	<fs af='तत्काल,adv,,,,,,' name='तत्काल' posn='200'>
	))
15	((	NP	<fs name='NP6' drel='pof:VGF4'>
15.1	फेरबदल	NN	<fs af='फेरबदल,n,f,sg,3,d,0,0' name='फेरबदल' posn='210'>
	))
16	((	VGF	<fs voicetype='active' name='VGF4' stype='declarative' drel='ccof:CCP4'>
16.1	करनी	VM	<fs af='कर,v,f,sg,any,,ना,nA' name='करनी' posn='220'>
16.2	चाहिए	VAUX	<fs af='चाहिए,v,any,any,any,,0,0' name='चाहिए' posn='230'>
	))
17	((	BLK	<fs name='BLK' drel='rsym:VGF'>
17.1	।	SYM	<fs af='।,punc,,,,,,' name='।' posn='240'>
	))
</Sentence>

<Sentence id='18'>
1	((	NP	<fs name='NP' drel='k1:VGNN'>
1.1	सूत्रों	NN	<fs af='सूत्र,n,m,pl,3,o,0,0' name='सूत्रों' posn='10'>
1.2	का	PSP	<fs af='का,psp,m,sg,,d,,' name='का' posn='20'>
	))
2	((	VGNN	<fs name='VGNN' drel='k1:VGF'>
2.1	कहना	VM	<fs af='कह,v,any,any,any,d,ना,nA' name='कहना' posn='30'>
	))
3	((	VGF	<fs name='VGF' stype='declarative' voicetype='active'>
3.1	है	VM	<fs af='है,v,any,sg,3,,है,hE' name='है' posn='40'>
	))
4	((	CCP	<fs name='CCP' drel='k2:VGNN'>
4.1	कि	CC	<fs af='कि,avy,,,,,,' name='कि' posn='50'>
	))
5	((	NP	<fs name='NP2' drel='k1:VGF2'>
5.1	राज	NNP	<fs af='राज,n,m,sg,3,o,0,0' name='राज' posn='60'>
5.2	ने	PSP	<fs af='ने,psp,,,,,,' name='ने' posn='70'>
	))
6	((	NP	<fs coref='NP5' name='NP3' drel='k7:VGF2'>
6.1	जिस	DEM	<fs af='जो,pn,any,sg,3,o,,' name='जिस' posn='80'>
6.2	कड़ी	JJ	<fs af='कडा,adj,f,sg,,o,,' name='कड़ी' posn='90'>
6.3	भाषा	NN	<fs af='भाषा,n,f,sg,3,o,0,0' name='भाषा' posn='100'>
6.4	में	PSP	<fs af='में,psp,,,,,,' name='में' posn='110'>
	))
7	((	NP	<fs name='NP4' drel='k4:VGF2'>
7.1	बाल	NNPC	<fs af='बाल,n,m,sg,3,d,0,0' name='बाल' posn='120'>
7.2	ठाकरे	NNP	<fs af='ठाकरे,n,any,sg,3,o,0,0' name='ठाकरे' posn='130'>
7.3	को	PSP	<fs af='को,psp,,,,,,' name='को' posn='140'>
	))
8	((	VGF	<fs voicetype='active' name='VGF2' stype='declarative' drel='nmod__relc:NP5'>
8.1	लिखा	VM	<fs af='लिख,v,m,sg,any,,या,yA' name='लिखा' posn='150'>
8.2	है	VAUX	<fs af='है,v,any,sg,3,,है,hE' name='है2' posn='160'>
8.3	,	SYM	<fs af='COMMA,punc,,,,,,' name=',' posn='170'>
	))
9	((	NP	<fs name='NP5' drel='k2:VGNF'>
9.1	उसे	PRP	<fs af='वह,pn,any,sg,3,o,को,ko' name='उसे' posn='180'>
	))
10	((	VGNF	<fs name='VGNF' drel='vmod:VGF3'>
10.1	देखते	VM	<fs af='देख,v,m,sg,any,,ता,wA' name='देखते' posn='190'>
10.2	हुए	VAUX	<fs af='हो,v,m,sg,any,,या,yA' name='हुए' posn='200'>
	))
11	((	RBP	<fs name='RBP' drel='vmod:VGF3'>
11.1	तत्काल	RB	<fs af='तत्काल,adv,,,,,,' name='तत्काल' posn='210'>
	))
12	((	NP	<fs name='NP6' drel='k1:VGF3'>
12.1	समाधान	NN	<fs af='समाधान,n,m,sg,3,d,0,0' name='समाधान' posn='220'>
	))
13	((	JJP	<fs name='JJP' drel='k1s:VGF3'>
13.1	जरूरी	JJ	<fs af='जरूरी,adj,any,any,,,,' name='जरूरी' posn='230'>
	))
14	((	VGF	<fs voicetype='active' name='VGF3' stype='declarative' drel='ccof:CCP'>
14.1	लगता	VM	<fs af='लग,v,m,sg,any,,ता,wA' name='लगता' posn='240'>
14.2	है	VAUX	<fs af='है,v,any,sg,3,,है,hE' name='है3' posn='250'>
	))
15	((	BLK	<fs name='BLK' drel='rsym:VGF'>
15.1	।	SYM	<fs af='।,punc,,,,,,' name='।' posn='260'>
	))
</Sentence>

<Sentence id='19'>
1	((	NP	<fs name='NP' drel='k1:VGF'>
1.1	यह	DEM	<fs af='यह,pn,any,sg,3,d,,' name='यह' posn='10'>
1.2	मामला	NN	<fs af='मामला,n,m,sg,3,d,0,0' name='मामला' posn='20'>
	))
2	((	NP	<fs name='NP2' drel='k7t:VGF'>
2.1	ऐसे	DEM	<fs af='ऐसा,pn,m,sg,any,o,,' name='ऐसे' posn='30'>
2.2	वक्त	NN	<fs af='वक्त,n,m,sg,3,o,0,0' name='वक्त' posn='40'>
	))
3	((	VGF	<fs name='VGF' stype='declarative' voicetype='active'>
3.1	उठा	VM	<fs af='उठ,v,m,sg,any,,या,yA' name='उठा' posn='50'>
3.2	है	VAUX	<fs af='है,v,any,sg,3,,है,hE' name='है' posn='60'>
3.3	,	SYM	<fs af='COMMA,punc,,,,,,' name=',' posn='70'>
	))
4	((	NP	<fs coref='NP2' name='NP3' drel='k7t:VGF2'>
4.1	जब	PRP	<fs af='जब,pn,,,,d,,' name='जब' posn='80'>
	))
5	((	NP	<fs name='NP4' drel='k1:VGF2'>
5.1	बाल	NNPC	<fs af='बाल,n,m,sg,3,d,0,0' name='बाल' posn='90'>
5.2	ठाकरे	NNP	<fs af='ठाकरे,n,any,sg,3,d,0,0' name='ठाकरे' posn='100'>
	))
6	((	NP	<fs name='NP5' drel='k7p:VGF2'>
6.1	मालवन	NNP	<fs af='मालवन,n,m,sg,3,o,0,0' name='मालवन' posn='110'>
6.2	में	PSP	<fs af='में,psp,,,,,,' name='में' posn='120'>
	))
7	((	NP	<fs name='NP6' drel='k7a:VGF2'>
7.1	हार	NN	<fs af='हार,n,f,sg,3,o,0,0' name='हार' posn='130'>
7.2	के	PSP	<fs af='के,psp,,,,,,' name='के' posn='140'>
7.3	मद्देनजर	PSP	<fs af='मद्देनजर,psp,,,,,,' name='मद्देनजर' posn='150'>
	))
8	((	NP	<fs name='NP7' drel='k2:VGNN'>
8.1	पार्टी	NNC	<fs af='पार्टी,n,f,sg,3,d,0,0' name='पार्टी' posn='160'>
8.2	संगठन	NN	<fs af='संगठन,n,m,sg,3,o,0,0' name='संगठन' posn='170'>
8.3	को	PSP	<fs af='को,psp,,,,,,' name='को' posn='180'>
	))
9	((	JJP	<fs name='JJP' drel='pof:VGNN'>
9.1	दुरुस्त	JJ	<fs af='दुरुस्त,adj,any,any,,,,' name='दुरुस्त' posn='190'>
	))
10	((	VGNN	<fs name='VGNN' drel='k2:VGF2'>
10.1	करने	VM	<fs af='कर,v,any,any,any,o,ना,nA' name='करने' posn='200'>
10.2	की	PSP	<fs af='का,psp,f,sg,,,,' name='की' posn='210'>
	))
11	((	VGF	<fs voicetype='active' name='VGF2' stype='declarative' drel='nmod__relc:NP2'>
11.1	सोच	VM	<fs af='सोच,v,any,any,any,,0,0' name='सोच' posn='220'>
11.2	रहे	VAUX	<fs af='रह,v,any,sg,3h,,एं,eM' name='रहे' posn='230'>
11.3	थे	VAUX	<fs af='था,v,m,sg,3h,,था,WA' name='थे' posn='240'>
	))
12	((	BLK	<fs name='BLK' drel='rsym:VGF'>
12.1	।	SYM	<fs af='।,punc,,,,,,' name='।' posn='250'>
	))
</Sentence>

<Sentence id='20'>
1	((	RBP	<fs name='RBP' drel='vmod:VGF'>
1.1	फिलहाल	RB	<fs af='फिलहाल,adv,,,,,,' name='फिलहाल' posn='10'>
	))
2	((	NP	<fs name='NP' drel='r6:NP2'>
2.1	पार्टी	NN	<fs af='पार्टी,n,f,sg,3,o,0,0' name='पार्टी' posn='20'>
2.2	के	PSP	<fs af='का,psp,m,pl,,o,,' name='के' posn='30'>
	))
3	((	NP	<fs name='NP2' drel='k4:VGF'>
3.1	सभी	QF	<fs af='सभी,avy,,,,,,' name='सभी' posn='40'>
3.2	नेताओं	NN	<fs af='नेता,n,m,pl,3,o,0,0' name='नेताओं' posn='50'>
3.3	से	PSP	<fs af='से,psp,,,,,,' name='से' posn='60'>
	))
4	((	NP	<fs name='NP3' drel='k7:VGF'>
4.1	इस	DEM	<fs af='यह,pn,any,sg,3,o,,' name='इस' posn='70'>
4.2	मामले	NN	<fs af='मामला,n,m,sg,3,o,0,0' name='मामले' posn='80'>
4.3	पर	PSP	<fs af='पर,psp,,,,,,' name='पर' posn='90'>
	))
5	((	NP	<fs name='NP4' drel='pof:VGNN'>
5.1	कोई	PRP	<fs af='कोई,pn,any,sg,3,d,0,0' name='कोई' posn='100'>
5.2	टीका	NNC	<fs af='टीका,n,f,sg,3,d,0,0' name='टीका' posn='110'>
5.3	-	SYM	<fs af='-,punc,,,,,,' name='-' posn='120'>
5.4	टिप्पणी	NN	<fs af='टिप्पणी,n,f,sg,3,d,0,0' name='टिप्पणी' posn='130'>
	))
6	((	VGNN	<fs name='VGNN' drel='k2:VGF'>
6.1	नहीं	NEG	<fs af='नहीं,avy,,,,,,' name='नहीं' posn='140'>
6.2	करने	VM	<fs af='कर,v,any,any,any,o,ना,nA' name='करने' posn='150'>
6.3	को	PSP	<fs af='को,psp,,,,,,' name='को' posn='160'>
	))
7	((	VGF	<fs name='VGF' stype='declarative' voicetype='passive'>
7.1	कहा	VM	<fs af='कह,v,m,sg,any,,या,yA' name='कहा' posn='170'>
7.2	गया	VAUX	<fs af='जा,v,m,sg,any,,या१,yA1' name='गया' posn='180'>
7.3	है	VAUX	<fs af='है,v,any,sg,3,,है,hE' name='है' posn='190'>
	))
8	((	BLK	<fs name='BLK' drel='rsym:VGF'>
8.1	।	SYM	<fs af='।,punc,,,,,,' name='।' posn='200'>
	))
</Sentence>

<Sentence id='21'>
1	((	BLK	<fs name='BLK' drel='vmod:VGF'>
1.1	जैसा	RP	<fs af='जैसा,avy,,,,,,' name='जैसा' posn='10'>
1.2	कि	RP	<fs af='कि,avy,,,,,,' name='कि' posn='20'>
	))
2	((	NP	<fs name='NP' drel='ccof:CCP'>
2.1	शिवसेना	NNC	<fs af='शिवसेना,n,f,sg,3,d,0,0' name='शिवसेना' posn='30'>
2.2	सांसद	NN	<fs af='सांसद,n,m,sg,3,o,0,0' name='सांसद' posn='40'>
	))
3	((	CCP	<fs name='CCP' drel='nmod:NP4'>
3.1	और	CC	<fs af='और,avy,,,,,,' name='और' posn='50'>
	))
4	((	NP	<fs name='NP2' drel='r6:NP3'>
4.1	सामना	NNP	<fs af='सामना,n,m,sg,3,o,0,0' name='सामना' posn='60'>
4.2	के	PSP	<fs af='का,psp,m,sg,3h,d,,' name='के' posn='70'>
	))
5	((	NP	<fs name='NP3' drel='ccof:CCP'>
5.1	संपादक	NN	<fs af='संपादक,n,m,sg,3,d,0,0' name='संपादक' posn='80'>
	))
6	((	NP	<fs name='NP4' drel='k1:VGF'>
6.1	संजय	NNPC	<fs af='संजय,n,m,sg,3,d,0,0' name='संजय' posn='90'>
6.2	राउत	NNP	<fs af='राउत,n,m,sg,3,d,0,0' name='राउत' posn='100'>
	))
7	((	VGF	<fs name='VGF' stype='declarative' voicetype='active'>
7.1	कहते	VM	<fs af='कह,v,m,sg,3h,,ता,wA' name='कहते' posn='110'>
7.2	हैं	VAUX	<fs af='है,v,any,sg,3h,,है,hE' name='हैं' posn='120'>
	))
8	((	CCP	<fs name='CCP2' drel='k2:VGF'>
8.1	कि	CC	<fs af='कि,avy,,,,,,' name='कि2' posn='130'>
	))
9	((	NP	<fs name='NP5' drel='k1:VGF2'>
9.1	शिवसेना	NNC	<fs af='शिवसेना,n,f,sg,3,d,0,0' name='शिवसेना2' posn='140'>
9.2	सुप्रीमो	NN	<fs af='सुप्रीमो,n,m,sg,3,d,0,0' name='सुप्रीमो' posn='150'>
	))
10	((	NP	<fs name='NP6' drel='r6:NP7'>
10.1	अपने	PRP	<fs af='अपना,pn,m,any,any,o,0,0' name='अपने' posn='160'>
	))
11	((	NP	<fs name='NP7' drel='r6:NP8'>
11.1	परिवार	NN	<fs af='परिवार,n,m,sg,3,o,0,0' name='परिवार' posn='170'>
11.2	के	PSP	<fs af='का,psp,m,sg,,o,,' name='के2' posn='180'>
	))
12	((	NP	<fs name='NP8' drel='k2:VGNN'>
12.1	विवाद	NN	<fs af='विवाद,n,m,sg,3,o,0,0' name='विवाद' posn='190'>
12.2	को	PSP	<fs af='को,psp,,,,,,' name='को' posn='200'>
	))
13	((	NP	<fs name='NP9' drel='k1:VGNN'>
13.1	खुद	PRP	<fs af='खुद,pn,,,,d,,' name='खुद' posn='300'>
	))
14	((	VGNN	<fs name='VGNN' drel='k7:VGF2'>
14.1	निपटाने	VM	<fs af='निपटा,v,any,any,any,o,ना,nA' name='निपटाने' posn='220'>
14.2	में	PSP	<fs af='में,psp,,,,,,' name='में' posn='230'>
	))
15	((	JJP	<fs name='JJP' drel='k1s:VGF2'>
15.1	सक्षम	JJ	<fs af='सक्षम,adj,any,any,,,,' name='सक्षम' posn='240'>
	))
16	((	VGF	<fs voicetype='active' name='VGF2' stype='declarative' drel='ccof:CCP2'>
16.1	हैं	VM	<fs af='है,v,any,sg,3h,,है,hE' name='हैं2' posn='250'>
	))
17	((	BLK	<fs name='BLK2' drel='rsym:VGF'>
17.1	।	SYM	<fs af='।,punc,,,,,,' name='।' posn='260'>
	))
</Sentence>

</text>
</tb>
</body>
</document>
