<document id="2511325">
<head>
<title></title>			
<caption>कायर नहीं हूं, संसद में दूंगा जवाबःनटवर        केंद्रीय मंत्री के समर्थक दिल्ली पहुंचे, नारेबाजी   : नई दिल्ली</caption>			
<language>Hindi </language>			
<author>			
<firstname></firstname>			
<middlename></middlename>			
<lastname></lastname>			
</author>			
<creation>			
<raw_corpus creation_date="" institute_name=""></raw_corpus>			
<annotated_corpus creation_date="07/25/2009" institute_name="IIIT-Hyderabad"></annotated_corpus>			
</creation>			
<domain_name>News Articles </domain_name>			
<distributor>LTRC, IIIT Hyderabad</distributor>			
<source>ISI, Kolkata</source>			
<publication>			
<place>New Delhi</place>			
<date>9/6/2004</date>			
<address>Connaught Place, New Delhi</address>			
<type>Newspaper</type>			
<publisher>			
<name>Amar Ujala</name>			
<url>http://www.amarujala.com</url>			
</publisher>			
</publication>			
<project_description>NSF Hindi/Urdu Dependency Treebanking Project</project_description>			
<availability>			
<format>CML/SSF</format>			
</availability>			
<byte_count>11517</byte_count>			
<word_count>467</word_count>			
<edition_number>1.0</edition_number>			
<encoding_description>			
<original_encoding>ISO 8859</original_encoding>			
<new_encoding>Unicode UTF8</new_encoding>			
</encoding_description>			
<bibliography></bibliography>			
<sentence_marker>.</sentence_marker>			
<normalization>No</normalization>			
<utility_name>cml_tags</utility_name>			

</head>
<body>
<tb number="1" segment="no" bullet="no">
<foreign language="select" writingsystem="LTR"> </foreign>			
<text>
<Sentence id='1'>
1	((	NP	<fs name='NP' drel='k7:VGNF'>
1.1	तेल	NNPC	<fs af='तेल,n,m,sg,3,d,0,0' name='तेल' posn='10'>
1.2	घोटाले	NNP	<fs af='घोटाला,n,m,sg,3,o,0,0' name='घोटाले' posn='20'>
1.3	में	PSP	<fs af='में,psp,,,,,,' name='में' posn='30'>
	))
2	((	VGNF	<fs name='VGNF' drel='nmod__k1inv:NP2'>
2.1	घिरे	VM	<fs af='घिर,v,m,sg,any,,या,yA' name='घिरे' posn='40'>
	))
3	((	NP	<fs name='NP2' drel='k1:VGF'>
3.1	केंद्रीय	JJ	<fs af='केंद्रीय,adj,any,any,,o,,' name='केंद्रीय' posn='300'>
3.2	मंत्री	NN	<fs af='मंत्री,n,m,sg,3,o,0,0' name='मंत्री' posn='60'>
3.3	नटवर	NNPC	<fs af='नटवर,n,m,sg,3,d,0,0' name='नटवर' posn='70'>
3.4	सिंह	NNP	<fs af='सिंह,n,any,sg,3,o,0,0' name='सिंह' posn='80'>
3.5	ने	PSP	<fs af='ने,psp,,,,,,' name='ने' posn='90'>
	))
4	((	NP	<fs name='NP3' drel='k7t:VGF'>
4.1	मंगलवार	NNP	<fs af='मंगलवार,n,m,sg,3,o,0,0' name='मंगलवार' posn='100'>
4.2	को	PSP	<fs af='को,psp,,,,,,' name='को' posn='110'>
	))
5	((	NP	<fs name='NP4' drel='k2:VGNF2'>
5.1	चुप्पी	NN	<fs af='चुप्पी,n,f,sg,3,d,0,0' name='चुप्पी' posn='120'>
	))
6	((	VGNF	<fs name='VGNF2' drel='vmod:VGF'>
6.1	तोड़ते	VM	<fs af='तोड़,v,m,sg,any,,ता,wA' name='तोड़ते' posn='130'>
6.2	हुए	VAUX	<fs af='हो,v,m,sg,any,,या,yA' name='हुए' posn='140'>
	))
7	((	VGF	<fs name='VGF' stype='declarative' voicetype='active'>
7.1	कहा	VM	<fs af='कह,v,m,sg,any,,या,yA' name='कहा' posn='150'>
	))
8	((	CCP	<fs name='CCP' drel='k2:VGF'>
8.1	कि	CC	<fs af='कि,avy,,,,,,' name='कि' posn='160'>
	))
9	((	NP	<fs name='NP5' drel='k1:VGF2'>
9.1	वे	PRP	<fs af='वह,pn,any,sg,3h,d,0,0' name='वे' posn='170'>
	))
10	((	NP	<fs name='NP6' drel='k7p:VGF2'>
10.1	संसद	NN	<fs af='संसद,n,f,sg,3,o,0,0' name='संसद' posn='180'>
10.2	में	PSP	<fs af='में,psp,,,,o,,' name='में2' posn='190'>
	))
11	((	NP	<fs name='NP7' drel='r6:NP8'>
11.1	अपने	PRP	<fs af='अपना,pn,m,any,any,d,0,0' name='अपने' posn='200'>
	))
12	((	NP	<fs name='NP8' drel='k7:VGNF3'>
12.1	ऊपर	NST	<fs af='ऊपर,nst,m,sg,3,d,,' name='ऊपर' posn='210'>
	))
13	((	VGNF	<fs name='VGNF3' drel='nmod__k1inv:NP9'>
13.1	लगे	VM	<fs af='लग,v,m,pl,any,,या,yA' name='लगे' posn='220'>
	))
14	((	NP	<fs name='NP9' drel='nmod:NP10'>
14.1	आरोपों	NN	<fs af='आरोप,n,m,pl,3,o,0,0' name='आरोपों' posn='230'>
14.2	का	PSP	<fs af='का,psp,m,sg,,d,,' name='का' posn='240'>
	))
15	((	NP	<fs name='NP10' drel='k2:VGF2'>
15.1	जवाब	NN	<fs af='जवाब,n,m,sg,3,d,0,0' name='जवाब' posn='250'>
	))
16	((	VGF	<fs voicetype='active' name='VGF2' stype='declarative' drel='ccof:CCP'>
16.1	देंगे	VM	<fs af='दे,v,m,sg,3h,,गा,gA' name='देंगे' posn='260'>
	))
17	((	BLK	<fs name='BLK' drel='rsym:VGF'>
17.1	।	SYM	<fs af='।,punc,,,,,,' name='।' posn='270'>
	))
</Sentence>

<Sentence id='2'>
1	((	NP	<fs name='NP' drel='vmod:VGF'>
1.1	बकौल	PSP	<fs af='बकौल,psp,,,,,,' name='बकौल' posn='10'>
1.2	उनके	PRP	<fs af='वह,pn,m,sg,3h,o,का,kA' name='उनके' posn='20'>
1.3	,	SYM	<fs af='COMMA,punc,,,,,,' name=',' posn='30'>
	))
2	((	NP	<fs name='NP2' drel='k1:VGF'>
2.1	वे	PRP	<fs af='वह,pn,any,sg,3h,d,0,0' name='वे' posn='40'>
	))
3	((	NP	<fs name='NP3' drel='k1s:VGF'>
3.1	कोई	PRP	<fs af='कोई,pn,any,sg,3,d,0,0' name='कोई' posn='50'>
3.2	कायर	NN	<fs af='कायर,n,m,sg,3,d,0,0' name='कायर' posn='60'>
	))
4	((	VGF	<fs name='VGF' stype='declarative' voicetype='active'>
4.1	नहीं	NEG	<fs af='नहीं,avy,,,,,,' name='नहीं' posn='70'>
4.2	हैं	VM	<fs af='है,v,any,sg,3h,,है,hE' name='हैं' posn='80'>
	))
5	((	BLK	<fs name='BLK' drel='rsym:VGF'>
5.1	।	SYM	<fs af='।,punc,,,,,,' name='।' posn='90'>
	))
</Sentence>

<Sentence id='3'>
1	((	NP	<fs name='NP' drel='k2:VGF'>
1.1	यह	DEM	<fs af='यह,pn,any,sg,3,d,,' name='यह' posn='10'>
1.2	बात	NN	<fs af='बात,n,f,sg,3,d,0,0' name='बात' posn='20'>
	))
2	((	NP	<fs name='NP2' drel='k1:VGF'>
2.1	नटवर	NNP	<fs af='नटवर,n,m,sg,3,o,0,0' name='नटवर' posn='30'>
2.2	ने	PSP	<fs af='ने,psp,,,,,,' name='ने' posn='40'>
	))
3	((	NP	<fs name='NP3' drel='r6:NP4'>
3.1	अपने	PRP	<fs af='अपना,pn,m,any,any,o,0,0' name='अपने' posn='50'>
	))
4	((	NP	<fs name='NP4' drel='k2p:VGNF'>
4.1	आवास	NN	<fs af='आवास,n,m,sg,3,o,0,0' name='आवास' posn='60'>
4.2	पर	PSP	<fs af='पर,psp,,,,,,' name='पर' posn='70'>
	))
5	((	NP	<fs name='NP5' drel='k5:VGNF'>
5.1	राजस्थान	NNP	<fs af='राजस्थान,n,m,sg,3,o,0,0' name='राजस्थान' posn='80'>
5.2	से	PSP	<fs af='से,psp,,,,,,' name='से' posn='90'>
	))
6	((	VGNF	<fs name='VGNF' drel='nmod__k1inv:NP6'>
6.1	आए	VM	<fs af='आ,v,m,pl,any,,या,yA' name='आए' posn='100'>
	))
7	((	NP	<fs name='NP6' drel='k4:VGF'>
7.1	समर्थकों	NN	<fs af='समर्थक,n,m,pl,3,o,0,0' name='समर्थकों' posn='110'>
7.2	को	PSP	<fs af='को,psp,,,,,,' name='को' posn='120'>
	))
8	((	JJP	<fs name='JJP' drel='pof:VGNF2'>
8.1	संबोधित	JJ	<fs af='संबोधित,adj,any,any,,,,' name='संबोधित' posn='130'>
	))
9	((	VGNF	<fs name='VGNF2' drel='vmod:VGF'>
9.1	करते	VM	<fs af='कर,v,m,sg,any,,ता,wA' name='करते' posn='140'>
9.2	हुए	VAUX	<fs af='हो,v,m,sg,any,,या,yA' name='हुए' posn='150'>
	))
10	((	VGF	<fs name='VGF' stype='declarative' voicetype='active'>
10.1	कही	VM	<fs af='कह,v,f,sg,any,,या,yA' name='कही' posn='160'>
	))
11	((	BLK	<fs name='BLK' drel='rsym:VGF'>
11.1	।	SYM	<fs af='।,punc,,,,,,' name='।' posn='170'>
	))
</Sentence>

<Sentence id='4'>
1	((	NP	<fs name='NP' drel='k7t:VGF'>
1.1	इससे	PRP	<fs af='यह,pn,any,sg,3,o,से,se' name='इससे' posn='10'>
1.2	पहले	NST	<fs af='पहले,nst,m,sg,3,d,,' name='पहले' posn='20'>
	))
2	((	NP	<fs name='NP2' drel='r6:NP3'>
2.1	उनके	PRP	<fs af='वह,pn,m,sg,3h,o,का,kA' name='उनके' posn='30'>
	))
3	((	NP	<fs name='NP3' drel='k2:VGNN'>
3.1	समर्थकों	NN	<fs af='समर्थक,n,m,pl,3,o,0,0' name='समर्थकों' posn='40'>
3.2	को	PSP	<fs af='को,psp,,,,,,' name='को' posn='50'>
	))
4	((	NP	<fs name='NP4' drel='r6:NP5'>
4.1	उनके	PRP	<fs af='वह,pn,m,sg,3h,o,का,kA' name='उनके2' posn='60'>
	))
5	((	NP	<fs name='NP5' drel='k2p:VGNN'>
5.1	आवास	NN	<fs af='आवास,n,m,sg,3,o,0,0' name='आवास' posn='70'>
5.2	तक	PSP	<fs af='तक,psp,,,,,,' name='तक' posn='80'>
	))
6	((	VGNN	<fs name='VGNN' drel='r6-k2:NP6'>
6.1	न	NEG	<fs af='न,avy,,,,,,' name='न' posn='90'>
6.2	आने	VM	<fs af='आ,v,any,any,any,,ना,nA' name='आने' posn='100'>
6.3	देने	VAUX	<fs af='दे,v,any,any,any,o,ना,nA' name='देने' posn='110'>
6.4	की	PSP	<fs af='का,psp,f,sg,,d,,' name='की' posn='120'>
	))
7	((	NP	<fs name='NP6' drel='pof:VGF'>
7.1	कोशिश	NN	<fs af='कोशिश,n,f,sg,3,d,0,0' name='कोशिश' posn='130'>
7.2	भी	RP	<fs af='भी,avy,,,,,,' name='भी' posn='140'>
	))
8	((	VGF	<fs voicetype='active' name='VGF' stype='declarative' drel='rs:NP7'>
8.1	हुई	VM	<fs af='हो,v,f,sg,any,,या,yA' name='हुई' posn='150'>
8.2	,	SYM	<fs af='COMMA,punc,,,,,,' name=',' posn='160'>
	))
9	((	NP	<fs name='NP7' drel='k7:VGF2'>
9.1	इस	PRP	<fs af='यह,pn,any,sg,3,o,0,0' name='इस' posn='170'>
9.2	पर	PSP	<fs af='पर,psp,,,,,,' name='पर' posn='180'>
	))
10	((	NP	<fs name='NP8' drel='ccof:CCP'>
10.1	डीसीपी	NN	<fs af='डीसीपी,n,f,sg,3,d,0,0' name='डीसीपी' posn='190'>
10.2	अनीता	NNPC	<fs af='अनीता,n,f,sg,3,d,0,0' name='अनीता' posn='200'>
10.3	राय	NNP	<fs af='राय,n,f,sg,3,d,0,0' name='राय' posn='210'>
	))
11	((	CCP	<fs name='CCP' drel='k7:VGF2'>
11.1	और	CC	<fs af='और,avy,,,,,,' name='और' posn='220'>
	))
12	((	NP	<fs name='NP9' drel='r6:NP10'>
12.1	नटवर	NNP	<fs af='नटवर,n,m,sg,3,o,0,0' name='नटवर' posn='230'>
12.2	के	PSP	<fs af='का,psp,m,sg,,o,,' name='के' posn='240'>
	))
13	((	NP	<fs name='NP10' drel='nmod:NP11'>
13.1	पुत्र	NN	<fs af='पुत्र,n,m,sg,3,o,0,0' name='पुत्र' posn='250'>
	))
14	((	NP	<fs name='NP11' drel='ccof:CCP'>
14.1	जगत	NNPC	<fs af='जगत,n,m,sg,3,d,0,0' name='जगत' posn='260'>
14.2	सिंह	NNP	<fs af='सिंह,n,any,sg,3,o,0,0' name='सिंह' posn='270'>
14.3	के	PSP	<fs af='के,psp,,,,,,' name='के2' posn='280'>
14.4	बीच	NST	<fs af='बीच,nst,m,sg,3,d,,' name='बीच' posn='290'>
	))
15	((	NP	<fs name='NP12' drel='pof:VGF2'>
15.1	तीखी	JJ	<fs af='तीखा,adj,f,sg,,d,,' name='तीखी' posn='300'>
15.2	बहस	NN	<fs af='बहस,n,f,sg,3,d,0,0' name='बहस' posn='310'>
15.3	भी	RP	<fs af='भी,avy,,,,,,' name='भी2' posn='320'>
	))
16	((	VGF	<fs name='VGF2' stype='declarative' voicetype='active'>
16.1	हुई	VM	<fs af='हो,v,f,sg,any,,या,yA' name='हुई2' posn='330'>
	))
17	((	BLK	<fs name='BLK' drel='rsym:VGF2'>
17.1	।	SYM	<fs af='।,punc,,,,,,' name='।' posn='340'>
	))
</Sentence>

<Sentence id='5'>
1	((	NP	<fs name='NP' drel='k1:VGF'>
1.1	नटवर	NNP	<fs af='नटवर,n,m,sg,3,o,0,0' name='नटवर' posn='10'>
1.2	ने	PSP	<fs af='ने,psp,,,,,,' name='ने' posn='20'>
	))
2	((	VGF	<fs name='VGF' stype='declarative' voicetype='active'>
2.1	कहा	VM	<fs af='कह,v,m,sg,any,,या,yA' name='कहा' posn='30'>
	))
3	((	CCP	<fs name='CCP' drel='k2:VGF'>
3.1	कि	CC	<fs af='कि,avy,,,,,,' name='कि' posn='40'>
	))
4	((	NP	<fs name='NP2' drel='r6:NP3'>
4.1	उनके	PRP	<fs af='वह,pn,m,sg,3h,o,का,kA' name='उनके' posn='50'>
	))
5	((	NP	<fs name='NP3' drel='k7:VGNF'>
5.1	घर	NN	<fs af='घर,n,m,sg,3,o,0,0' name='घर' posn='60'>
5.2	पर	PSP	<fs af='पर,psp,,,,,,' name='पर' posn='70'>
	))
6	((	VGNF	<fs name='VGNF' drel='nmod__k1inv:NP5'>
6.1	जुटी	VM	<fs af='जुट,v,f,sg,any,,या,yA' name='जुटी' posn='80'>
	))
7	((	NP	<fs name='NP4' drel='r6:NP5'>
7.1	समर्थकों	NN	<fs af='समर्थक,n,m,pl,3,o,0,0' name='समर्थकों' posn='90'>
7.2	की	PSP	<fs af='का,psp,f,pl,,d,,' name='की' posn='100'>
	))
8	((	NP	<fs name='NP5' drel='k1:VGF2'>
8.1	भीड़	NN	<fs af='भीड़,n,f,pl,3,d,0,0' name='भीड़' posn='110'>
	))
9	((	NP	<fs name='NP6' drel='r6:NP7'>
9.1	किसी	PRP	<fs af='कोई,pn,any,sg,3,o,0,0' name='किसी' posn='120'>
9.2	तरह	NN	<fs af='तरह,n,f,sg,3,o,0,0' name='तरह' posn='130'>
9.3	का	PSP	<fs af='का,psp,m,sg,,d,,' name='का' posn='140'>
	))
10	((	NP	<fs name='NP7' drel='k1s:VGF2'>
10.1	शक्ति	NNC	<fs af='शक्ति,n,f,sg,3,d,0,0' name='शक्ति' posn='150'>
10.2	प्रदर्शन	NN	<fs af='प्रदर्शन,n,m,sg,3,d,0,0' name='प्रदर्शन' posn='160'>
	))
11	((	VGF	<fs voicetype='active' name='VGF2' stype='declarative' drel='ccof:CCP'>
11.1	नहीं	NEG	<fs af='नहीं,avy,,,,,,' name='नहीं' posn='170'>
11.2	है	VM	<fs af='है,v,any,sg,3,,है,hE' name='है' posn='180'>
	))
12	((	BLK	<fs name='BLK' drel='rsym:VGF'>
12.1	।	SYM	<fs af='।,punc,,,,,,' name='।' posn='190'>
	))
</Sentence>

<Sentence id='6'>
1	((	NP	<fs name='NP' drel='k1:VGF'>
1.1	वे	PRP	<fs af='वह,pn,any,sg,3h,d,0,0' name='वे' posn='10'>
	))
2	((	NP	<fs name='NP2' drel='k2:VGF'>
2.1	कोई	PRP	<fs af='कोई,pn,any,sg,3,d,0,0' name='कोई' posn='20'>
2.2	ऐसा	DEM	<fs af='ऐसा,pn,m,sg,any,d,,' name='ऐसा' posn='30'>
2.3	काम	NN	<fs af='काम,n,m,sg,3,d,0,0' name='काम' posn='40'>
	))
3	((	VGF	<fs name='VGF' stype='declarative' voicetype='active'>
3.1	नहीं	NEG	<fs af='नहीं,avy,,,,,,' name='नहीं' posn='50'>
3.2	करेंगे	VM	<fs af='कर,v,m,sg,3h,,गा,gA' name='करेंगे' posn='60'>
3.3	,	SYM	<fs af='COMMA,punc,,,,,,' name=',' posn='70'>
	))
4	((	NP	<fs coref=':NP2' name='NP3' drel='rh:VGF2'>
4.1	जिससे	PRP	<fs af='जो,pn,any,sg,3,o,से,se' name='जिससे' posn='80'>
	))
5	((	NP	<fs name='NP4' drel='nmod:NP5'>
5.1	खुद	PRP	<fs af='खुद,pn,,,,d,,' name='खुद' posn='110'>
	))
6	((	NP	<fs name='NP5' drel='ccof:CCP'>
6.1	उनको	PRP	<fs af='वह,pn,any,sg,3h,o,को,ko' name='उनको' posn='100'>
	))
7	((	CCP	<fs name='CCP' drel='k1:VGF2'>
7.1	या	CC	<fs af='या,avy,,,,,,' name='या' posn='110'>
	))
8	((	NP	<fs name='NP6' drel='ccof:CCP'>
8.1	समर्थकों	NN	<fs af='समर्थक,n,m,pl,3,o,0,0' name='समर्थकों' posn='120'>
8.2	को	PSP	<fs af='को,psp,,,,,,' name='को' posn='130'>
	))
9	((	NP	<fs name='NP7' drel='r6:NP8'>
9.1	अपना	PRP	<fs af='अपना,pn,m,sg,any,d,0,0' name='अपना' posn='140'>
	))
10	((	NP	<fs name='NP8' drel='k2:VGF2'>
10.1	सिर	NN	<fs af='सिर,n,m,pl,3,d,0,0' name='सिर' posn='150'>
	))
11	((	VGF	<fs voicetype='active' name='VGF2' stype='declarative' drel='nmod__relc:NP2'>
11.1	झुकाना	VM	<fs af='झुका,v,m,sg,any,,ना,nA' name='झुकाना' posn='160'>
11.2	पड़े	VAUX	<fs af='पड़,v,m,pl,any,,एं,eM' name='पड़े' posn='170'>
	))
12	((	BLK	<fs name='BLK' drel='rsym:VGF'>
12.1	।	SYM	<fs af='।,punc,,,,,,' name='।' posn='180'>
	))
</Sentence>

<Sentence id='7'>
1	((	NP	<fs name='NP' drel='k1:VGF'>
1.1	उन्होंने	PRP	<fs af='वह,pn,any,sg,3h,o,ने,ne' name='उन्होंने' posn='10'>
	))
2	((	NP	<fs name='NP2' drel='k2:VGNN'>
2.1	किसी	PRP	<fs af='कोई,pn,any,sg,3,o,0,0' name='किसी' posn='20'>
2.2	जांच	NN	<fs af='जांच,n,f,sg,3,o,0,0' name='जांच' posn='30'>
2.3	से	PSP	<fs af='से,psp,,,,,,' name='से' posn='40'>
	))
3	((	VGNN	<fs name='VGNN' drel='r6-k2:NP3'>
3.1	न	NEG	<fs af='न,avy,,,,,,' name='न' posn='50'>
3.2	डरने	VM	<fs af='डर,v,any,any,any,o,ना,nA' name='डरने' posn='60'>
3.3	का	PSP	<fs af='का,psp,m,sg,,d,,' name='का' posn='70'>
	))
4	((	NP	<fs name='NP3' drel='pof:VGNF'>
4.1	ऐलान	NN	<fs af='ऐलान,n,m,sg,3,d,0,0' name='ऐलान' posn='80'>
	))
5	((	VGNF	<fs name='VGNF' drel='vmod:VGF'>
5.1	करते	VM	<fs af='कर,v,m,sg,any,,ता,wA' name='करते' posn='90'>
5.2	हुए	VAUX	<fs af='हो,v,m,sg,any,,या,yA' name='हुए' posn='100'>
	))
6	((	VGF	<fs name='VGF' stype='declarative' voicetype='active'>
6.1	कहा	VM	<fs af='कह,v,m,sg,any,,या,yA' name='कहा' posn='110'>
	))
7	((	CCP	<fs name='CCP' drel='k2:VGF'>
7.1	कि	CC	<fs af='कि,avy,,,,,,' name='कि' posn='120'>
	))
8	((	NP	<fs name='NP4' drel='ccof:CCP2'>
8.1	रिलायंस	NNP	<fs af='रिलायंस,n,m,sg,3,o,0,0' name='रिलायंस' posn='130'>
8.2	,	SYM	<fs af='COMMA,punc,,,,,,' name=',' posn='140'>
	))
9	((	NP	<fs name='NP5' drel='ccof:CCP2'>
9.1	टाटा	NNP	<fs af='टाटा,n,m,sg,3,o,0,0' name='टाटा' posn='150'>
	))
10	((	CCP	<fs name='CCP2' drel='r6:NP7'>
10.1	व	CC	<fs af='व,avy,,,,,,' name='व' posn='160'>
	))
11	((	NP	<fs name='NP6' drel='ccof:CCP2'>
11.1	किर्लोस्कर	NNP	<fs af='किर्लोस्कर,n,m,sg,3,o,0,0' name='किर्लोस्कर' posn='170'>
11.2	का	PSP	<fs af='का,psp,m,sg,,d,,' name='का2' posn='180'>
11.3	भी	RP	<fs af='भी,avy,,,,,,' name='भी' posn='190'>
	))
12	((	NP	<fs name='NP7' drel='k1:VGF2'>
12.1	नाम	NN	<fs af='नाम,n,m,sg,3,d,0,0' name='नाम' posn='200'>
	))
13	((	NP	<fs name='NP8' drel='k7:VGF2'>
13.1	रिपोर्ट	NN	<fs af='रिपोर्ट,n,f,sg,3,o,0,0' name='रिपोर्ट' posn='210'>
13.2	में	PSP	<fs af='में,psp,,,,o,,' name='में' posn='220'>
	))
14	((	VGF	<fs voicetype='active' name='VGF2' stype='declarative' drel='ccof:CCP'>
14.1	आया	VM	<fs af='आ,v,m,sg,any,,या,yA' name='आया' posn='230'>
14.2	है	VAUX	<fs af='है,v,any,sg,3,,है,hE' name='है' posn='240'>
	))
15	((	BLK	<fs name='BLK' drel='rsym:VGF'>
15.1	।	SYM	<fs af='।,punc,,,,,,' name='।' posn='250'>
	))
</Sentence>

<Sentence id='8'>
1	((	NP	<fs name='NP' drel='rh:VGF'>
1.1	इसलिए	PRP	<fs af='इसलिए,pn,,,,,,' name='इसलिए' posn='10'>
1.2	,	SYM	<fs af='COMMA,punc,,,,,,' name=',' posn='20'>
	))
2	((	NP	<fs name='NP2' drel='k4a:VGF'>
2.1	सभी	PRP	<fs af='सब,pn,any,pl,any,o,0,0' name='सभी' posn='30'>
2.2	को	PSP	<fs af='को,psp,,,,,,' name='को' posn='40'>
	))
3	((	NP	<fs name='NP3' drel='r6:NP4'>
3.1	अपना	PRP	<fs af='अपना,pn,m,sg,any,d,0,0' name='अपना' posn='50'>
	))
4	((	NP	<fs name='NP4' drel='k2:VGNN'>
4.1	पक्ष	NN	<fs af='पक्ष,n,m,sg,3,d,0,0' name='पक्ष' posn='60'>
	))
5	((	VGNN	<fs name='VGNN' drel='r6:NP5'>
5.1	रखने	VM	<fs af='रख,v,any,any,any,o,ना,nA' name='रखने' posn='70'>
5.2	का	PSP	<fs af='का,psp,m,sg,,d,,' name='का' posn='80'>
	))
6	((	NP	<fs name='NP5' drel='k1:VGF'>
6.1	मौका	NN	<fs af='मौका,n,m,sg,3,d,0,0' name='मौका' posn='90'>
	))
7	((	VGF	<fs name='VGF' stype='declarative' voicetype='passive'>
7.1	मिलना	VM	<fs af='मिल,v,m,sg,any,,ना,nA' name='मिलना' posn='100'>
7.2	चाहिए	VAUX	<fs af='चाहिए,v,any,any,any,,0,0' name='चाहिए' posn='110'>
	))
8	((	BLK	<fs name='BLK' drel='rsym:VGF'>
8.1	।	SYM	<fs af='।,punc,,,,,,' name='।' posn='120'>
	))
</Sentence>

<Sentence id='9'>
1	((	NP	<fs name='NP' drel='k1:VGF'>
1.1	नटवर	NNP	<fs af='नटवर,n,m,sg,3,o,0,0' name='नटवर' posn='10'>
1.2	ने	PSP	<fs af='ने,psp,,,,,,' name='ने' posn='20'>
	))
2	((	VGF	<fs name='VGF' stype='declarative' voicetype='active'>
2.1	कहा	VM	<fs af='कह,v,m,sg,any,,या,yA' name='कहा' posn='30'>
	))
3	((	CCP	<fs name='CCP' drel='k2:VGF'>
3.1	कि	CC	<fs af='कि,avy,,,,,,' name='कि' posn='40'>
	))
4	((	NP	<fs name='NP2' drel='k1:VGF2'>
4.1	कांग्रेस	NNP	<fs af='कांग्रेस,n,f,sg,3,d,0,0' name='कांग्रेस' posn='50'>
	))
5	((	NP	<fs name='NP3' drel='k1s:VGF2'>
5.1	एक	QC	<fs af='एक,num,any,any,,any,,' name='एक' posn='60'>
5.2	महान	JJ	<fs af='महान,adj,any,any,,d,,' name='महान' posn='70'>
5.3	पार्टी	NN	<fs af='पार्टी,n,f,sg,3,d,0,0' name='पार्टी' posn='80'>
	))
6	((	VGF	<fs voicetype='active' name='VGF2' stype='declarative' drel='ccof:CCP'>
6.1	है	VM	<fs af='है,v,any,sg,3,,है,hE' name='है' posn='90'>
6.2	,	SYM	<fs af='COMMA,punc,,,,,,' name=',' posn='100'>
	))
7	((	NP	<fs coref='NP2' name='NP4' drel='r6:NP5'>
7.1	जिसका	PRP	<fs af='जो,pn,m,sg,3,o,का,kA' name='जिसका' posn='110'>
	))
8	((	NP	<fs name='NP5' drel='k1:VGF3'>
8.1	संबंध	NN	<fs af='संबंध,n,m,sg,3,d,0,0' name='संबंध' posn='120'>
	))
9	((	NP	<fs name='NP6' drel='ccof:CCP2'>
9.1	महात्मा	NNPC	<fs af='महात्मा,n,m,sg,3,d,0,0' name='महात्मा' posn='130'>
9.2	गांधी	NNP	<fs af='गांधी,n,any,sg,3,o,0,0' name='गांधी' posn='140'>
9.3	,	SYM	<fs af='COMMA,punc,,,,,,' name=',2' posn='150'>
	))
10	((	NP	<fs name='NP7' drel='ccof:CCP2'>
10.1	जवाहर	NNPC	<fs af='जवाहर,n,m,sg,3,d,0,0' name='जवाहर' posn='160'>
10.2	लाल	NNPC	<fs af='लाल,n,m,sg,3,d,0,0' name='लाल' posn='170'>
10.3	नेहरू	NNP	<fs af='नेहरू,n,any,sg,3,o,0,0' name='नेहरू' posn='180'>
	))
11	((	CCP	<fs name='CCP2' drel='ras-k1:VGF3'>
11.1	और	CC	<fs af='और,avy,,,,,,' name='और' posn='190'>
	))
12	((	NP	<fs name='NP8' drel='ccof:CCP2'>
12.1	राजेंद्र	NNPC	<fs af='राजेंद्र,n,m,sg,3,d,0,0' name='राजेंद्र' posn='200'>
12.2	प्रसाद	NNP	<fs af='प्रसाद,n,m,sg,3,o,0,0' name='प्रसाद' posn='210'>
12.3	से	PSP	<fs af='से,psp,,,,,,' name='से' posn='220'>
	))
13	((	VGF	<fs voicetype='active' name='VGF3' stype='declarative' drel='nmod__relc:NP2'>
13.1	रहा	VM	<fs af='रह,v,m,sg,any,,या,yA' name='रहा' posn='230'>
13.2	है	VAUX	<fs af='है,v,any,sg,3,,है,hE' name='है2' posn='240'>
	))
14	((	BLK	<fs name='BLK' drel='rsym:VGF'>
14.1	।	SYM	<fs af='।,punc,,,,,,' name='।' posn='250'>
	))
</Sentence>

<Sentence id='10'>
1	((	NP	<fs name='NP' drel='k1:VGF'>
1.1	उन्होंने	PRP	<fs af='वह,pn,any,sg,3h,o,ने,ne' name='उन्होंने' posn='10'>
	))
2	((	NP	<fs name='NP2' drel='k7:VGNF'>
2.1	सरकारी	JJ	<fs af='सरकारी,adj,any,any,,o,,' name='सरकारी' posn='20'>
2.2	निवास	NN	<fs af='निवास,n,m,sg,3,o,0,0' name='निवास' posn='30'>
2.3	पर	PSP	<fs af='पर,psp,,,,,,' name='पर' posn='40'>
	))
3	((	VGNF	<fs name='VGNF' drel='nmod__k1inv:NP3'>
3.1	जुटे	VM	<fs af='जुट,v,m,pl,any,,या,yA' name='जुटे' posn='50'>
	))
4	((	NP	<fs name='NP3' drel='k4:VGF'>
4.1	समर्थकों	NN	<fs af='समर्थक,n,m,pl,3,o,0,0' name='समर्थकों' posn='60'>
4.2	से	PSP	<fs af='से,psp,,,,,,' name='से' posn='70'>
	))
5	((	NP	<fs name='NP4' drel='k7:VGF'>
5.1	सवालिया	JJ	<fs af='सवालिया,adj,any,any,,o,,' name='सवालिया' posn='80'>
5.2	अंदाज	NN	<fs af='अंदाज,n,m,sg,3,o,0,0' name='अंदाज' posn='90'>
5.3	में	PSP	<fs af='में,psp,,,,,,' name='में' posn='100'>
	))
6	((	VGF	<fs name='VGF' stype='declarative' voicetype='active'>
6.1	कहा	VM	<fs af='कह,v,m,sg,any,,या,yA' name='कहा' posn='110'>
	))
7	((	CCP	<fs name='CCP' drel='k2:VGF'>
7.1	कि	CC	<fs af='कि,avy,,,,,,' name='कि' posn='120'>
	))
8	((	RBP	<fs name='RBP' drel='adv:VGF2'>
8.1	क्या	WQ	<fs af='क्या,pn,,,,,,' name='क्या' posn='130'>
	))
9	((	NP	<fs name='NP5' drel='k1:VGF2'>
9.1	ऐसी	DEM	<fs af='ऐसा,pn,f,sg,any,d,,' name='ऐसी' posn='140'>
9.2	पार्टी	NN	<fs af='पार्टी,n,f,sg,3,d,0,0' name='पार्टी' posn='150'>
	))
10	((	NP	<fs name='NP6' drel='k2:VGF2'>
10.1	तेल	NN	<fs af='तेल,n,m,sg,3,d,0,0' name='तेल' posn='160'>
	))
11	((	VGF	<fs voicetype='active' name='VGF2' stype='interrogative' drel='ccof:CCP'>
11.1	बेच	VM	<fs af='बेच,v,any,any,any,,0,0' name='बेच' posn='170'>
11.2	सकती	VAUX	<fs af='सक,v,f,sg,any,,ता,wA' name='सकती' posn='180'>
11.3	है	VAUX	<fs af='है,v,any,sg,3,,है,hE' name='है' posn='190'>
	))
12	((	BLK	<fs name='BLK' drel='rsym:VGF'>
12.1	।	SYM	<fs af='।,punc,,,,,,' name='।' posn='200'>
	))
</Sentence>

<Sentence id='11'>
1	((	NP	<fs name='NP' drel='k1:VGF'>
1.1	वे	PRP	<fs af='वह,pn,any,pl,3,d,0,0' name='वे' posn='10'>
	))
2	((	NP	<fs name='NP2' drel='r6:NP3'>
2.1	इस	DEM	<fs af='यह,pn,any,sg,3,o,,' name='इस' posn='20'>
2.2	विशाल	JJ	<fs af='विशाल,adj,any,any,,o,,' name='विशाल' posn='30'>
2.3	पार्टी	NN	<fs af='पार्टी,n,f,sg,3,o,0,0' name='पार्टी' posn='40'>
2.4	के	PSP	<fs af='का,psp,m,pl,,d,,' name='के' posn='50'>
	))
3	((	NP	<fs name='NP3' drel='k1s:VGF'>
3.1	सदस्य	NN	<fs af='सदस्य,n,m,pl,3,d,0,0' name='सदस्य' posn='60'>
	))
4	((	VGF	<fs name='VGF' stype='declarative' voicetype='active'>
4.1	हैं	VM	<fs af='है,v,any,pl,3,,है,hE' name='हैं' posn='70'>
	))
5	((	BLK	<fs name='BLK' drel='rsym:VGF'>
5.1	।	SYM	<fs af='।,punc,,,,,,' name='।' posn='80'>
	))
</Sentence>

<Sentence id='12'>
1	((	NP	<fs name='NP' drel='nmod:NP2'>
1.1	इस	DEM	<fs af='यह,pn,any,sg,3,o,,' name='इस' posn='10'>
1.2	प्रकार	NN	<fs af='प्रकार,n,m,sg,3,o,0,0' name='प्रकार' posn='20'>
1.3	के	PSP	<fs af='का,psp,m,pl,,d,,' name='के' posn='30'>
	))
2	((	NP	<fs name='NP2' drel='k2:VGNN'>
2.1	आरोप	NN	<fs af='आरोप,n,m,pl,3,d,0,0' name='आरोप' posn='40'>
	))
3	((	VGNN	<fs name='VGNN' drel='k1:VGF'>
3.1	लगाने	VM	<fs af='लगा,v,any,any,any,o,ना,nA' name='लगाने' posn='50'>
3.2	वालों	PSP	<fs af='वाला,psp,m,pl,,o,,' name='वालों' posn='60'>
3.3	को	PSP	<fs af='को,psp,,,,,,' name='को' posn='70'>
	))
4	((	NP	<fs name='NP3' drel='nmod__emph:NP4'>
4.1	खुद	PRP	<fs af='खुद,pn,,,,d,,' name='खुद' posn='110'>
	))
5	((	NP	<fs name='NP4' drel='k7:VGF'>
5.1	अपने	PRPC	<fs af='अपना,pn,m,any,any,d,0,0' name='अपने' posn='90'>
5.2	आप	PRP	<fs af='आप,pn,any,any,any,o,0,0' name='आप' posn='100'>
5.3	पर	PSP	<fs af='पर,psp,,,,,,' name='पर' posn='110'>
	))
6	((	JJP	<fs name='JJP' drel='pof:VGF'>
6.1	शर्मिंदा	JJ	<fs af='शर्मिंदा,adj,any,any,,,,' name='शर्मिंदा' posn='120'>
	))
7	((	VGF	<fs name='VGF' stype='declarative' voicetype='active'>
7.1	होना	VM	<fs af='हो,v,m,sg,any,,ना,nA' name='होना' posn='130'>
7.2	चाहिए	VAUX	<fs af='चाहिए,v,any,any,any,,0,0' name='चाहिए' posn='140'>
	))
8	((	BLK	<fs name='BLK' drel='rsym:VGF'>
8.1	।	SYM	<fs af='।,punc,,,,,,' name='।' posn='150'>
	))
</Sentence>

<Sentence id='13'>
1	((	NP	<fs name='NP' drel='r6:NP2'>
1.1	नटवर	NNPC	<fs af='नटवर,n,m,sg,3,d,0,0' name='नटवर' posn='10'>
1.2	सिंह	NNP	<fs af='सिंह,n,any,sg,3,o,0,0' name='सिंह' posn='20'>
1.3	के	PSP	<fs af='का,psp,m,sg,,o,,' name='के' posn='30'>
	))
2	((	NP	<fs name='NP2' drel='nmod:NP3'>
2.1	बेटे	NN	<fs af='बेटा,n,m,sg,3,o,0,0' name='बेटे' posn='40'>
	))
3	((	NP	<fs name='NP3' drel='k1:VGF'>
3.1	जगत	NNPC	<fs af='जगत,n,m,sg,3,d,0,0' name='जगत' posn='50'>
3.2	सिंह	NNP	<fs af='सिंह,n,any,sg,3,o,0,0' name='सिंह2' posn='60'>
3.3	ने	PSP	<fs af='ने,psp,,,,,,' name='ने' posn='70'>
3.4	भी	RP	<fs af='भी,avy,,,,,,' name='भी' posn='80'>
	))
4	((	NP	<fs name='NP4' drel='k7:VGF'>
4.1	जांच	NN	<fs af='जांच,n,f,sg,3,o,0,0' name='जांच' posn='90'>
4.2	पर	PSP	<fs af='पर,psp,,,,,,' name='पर' posn='100'>
	))
5	((	NP	<fs name='NP5' drel='pof:VGF'>
5.1	पूरा	JJ	<fs af='पूरा,adj,m,sg,,d,,' name='पूरा' posn='110'>
5.2	भरोसा	NN	<fs af='भरोसा,n,m,sg,3,d,0,0' name='भरोसा' posn='120'>
	))
6	((	VGF	<fs name='VGF' stype='declarative' voicetype='active'>
6.1	जताया	VM	<fs af='जता,v,m,sg,any,,या,yA' name='जताया' posn='130'>
	))
7	((	BLK	<fs name='BLK' drel='rsym:VGF'>
7.1	।	SYM	<fs af='।,punc,,,,,,' name='।' posn='140'>
	))
</Sentence>

<Sentence id='14'>
1	((	NP	<fs name='NP' drel='k4:VGNF'>
1.1	संवाददाताओं	NN	<fs af='संवाददाता,n,m,pl,3,o,0,0' name='संवाददाताओं' posn='10'>
1.2	से	PSP	<fs af='से,psp,,,,,,' name='से' posn='20'>
	))
2	((	NP	<fs name='NP2' drel='pof:VGNF'>
2.1	बात	NN	<fs af='बात,n,f,sg,3,d,0,0' name='बात' posn='30'>
	))
3	((	VGNF	<fs name='VGNF' drel='vmod:VGF'>
3.1	करते	VM	<fs af='कर,v,m,sg,any,,ता,wA' name='करते' posn='40'>
3.2	हुए	VAUX	<fs af='हो,v,m,sg,any,,या,yA' name='हुए' posn='50'>
	))
4	((	NP	<fs name='NP3' drel='k1:VGF'>
4.1	उन्होंने	PRP	<fs af='वह,pn,any,sg,3h,o,ने,ne' name='उन्होंने' posn='60'>
	))
5	((	VGF	<fs name='VGF' stype='declarative' voicetype='active'>
5.1	कहा	VM	<fs af='कह,v,m,sg,any,,या,yA' name='कहा' posn='70'>
	))
6	((	CCP	<fs name='CCP' drel='k2:VGF'>
6.1	कि	CC	<fs af='कि,avy,,,,,,' name='कि' posn='80'>
	))
7	((	NP	<fs name='NP4' drel='k1:VGF2'>
7.1	हम	PRP	<fs af='हम,pn,any,pl,1,d,0,0' name='हम' posn='90'>
	))
8	((	VGF	<fs voicetype='active' name='VGF2' stype='declarative' drel='ccof:CCP'>
8.1	चाहते	VM	<fs af='चाह,v,m,pl,any,,ता,wA' name='चाहते' posn='100'>
8.2	हैं	VAUX	<fs af='है,v,any,pl,any,,है,hE' name='हैं' posn='110'>
	))
9	((	CCP	<fs name='CCP2' drel='k2:VGF2'>
9.1	कि	CC	<fs af='कि,avy,,,,,,' name='कि2' posn='120'>
	))
10	((	NP	<fs name='NP5' drel='k1:VGF3'>
10.1	जांच	NN	<fs af='जांच,n,f,sg,3,d,0,0' name='जांच' posn='130'>
	))
11	((	RBP	<fs name='RBP' drel='adv:VGF3'>
11.1	जल्द	RB	<fs af='जल्द,adv,,,,,,' name='जल्द' posn='140'>
11.2	से	RP	<fs af='से,avy,,,,,,' name='से2' posn='150'>
11.3	जल्द	RB	<fs af='जल्द,adv,,,,,,' name='जल्द2' posn='160'>
	))
12	((	JJP	<fs name='JJP' drel='pof:VGF3'>
12.1	पूरी	JJ	<fs af='पूरा,adj,f,sg,,,,' name='पूरी' posn='170'>
	))
13	((	VGF	<fs voicetype='active' name='VGF3' stype='declarative' drel='ccof:CCP2'>
13.1	हो	VM	<fs af='हो,v,any,any,any,,0,0' name='हो' posn='180'>
	))
14	((	CCP	<fs name='CCP3' drel='vmod:VGF3'>
14.1	ताकि	CC	<fs af='ताकि,avy,,,,,,' name='ताकि' posn='190'>
	))
15	((	NP	<fs name='NP6' drel='k1:VGF4'>
15.1	लोगों	NN	<fs af='लोग,n,m,pl,3,o,0,0' name='लोगों' posn='200'>
15.2	को	PSP	<fs af='को,psp,,,,,,' name='को' posn='210'>
	))
16	((	NP	<fs name='NP7' drel='r6-k2:NP8'>
16.1	सच्चाई	NN	<fs af='सच्चाई,n,f,sg,3,o,0,0' name='सच्चाई' posn='220'>
16.2	का	PSP	<fs af='का,psp,m,sg,,d,,' name='का' posn='230'>
	))
17	((	NP	<fs name='NP8' drel='pof:VGF4'>
17.1	पता	NN	<fs af='पता,n,m,sg,3,d,0,0' name='पता' posn='30'>
	))
18	((	VGF	<fs voicetype='active' name='VGF4' stype='declarative' drel='ccof:CCP3'>
18.1	चल	VM	<fs af='चल,v,any,any,any,,0,0' name='चल' posn='250'>
18.2	सके	VAUX	<fs af='सक,v,any,any,any,,एं,eM' name='सके' posn='260'>
	))
19	((	BLK	<fs name='BLK' drel='rsym:VGF'>
19.1	।	SYM	<fs af='।,punc,,,,,,' name='।' posn='270'>
	))
</Sentence>

<Sentence id='15'>
1	((	NP	<fs name='NP' drel='k7a:VGF'>
1.1	जगत	NNPC	<fs af='जगत,n,m,sg,3,d,0,0' name='जगत' posn='10'>
1.2	सिंह	NNP	<fs af='सिंह,n,any,sg,3,o,0,0' name='सिंह' posn='20'>
1.3	के	PSP	<fs af='के,psp,,,,,,' name='के' posn='30'>
1.4	मुताबिक	PSP	<fs af='मुताबिक,psp,,,,,,' name='मुताबिक' posn='40'>
1.5	,	SYM	<fs af='COMMA,punc,,,,,,' name=',' posn='50'>
	))
2	((	NP	<fs name='NP2' drel='nmod:NP3'>
2.1	यह	PRP	<fs af='यह,pn,any,sg,3,d,0,0' name='यह' posn='60'>
	))
3	((	NP	<fs name='NP3' drel='k1:VGF'>
3.1	पूरा	JJ	<fs af='पूरा,adj,m,sg,,d,,' name='पूरा' posn='70'>
3.2	प्रकरण	NN	<fs af='प्रकरण,n,m,sg,3,d,0,0' name='प्रकरण' posn='80'>
	))
4	((	NP	<fs name='NP4' drel='ccof:CCP'>
4.1	भारतीय	NNPC	<fs af='भारतीय,adj,any,any,,o,,' name='भारतीय' posn='130'>
4.2	जनता	NNPC	<fs af='जनता,n,f,sg,3,d,0,0' name='जनता' posn='100'>
4.3	पार्टी	NNP	<fs af='पार्टी,n,f,sg,3,o,0,0' name='पार्टी' posn='110'>
	))
5	((	CCP	<fs name='CCP' drel='r6:NP6'>
5.1	और	CC	<fs af='और,avy,,,,,,' name='और' posn='120'>
	))
6	((	NP	<fs name='NP5' drel='ccof:CCP'>
6.1	अन्य	JJ	<fs af='अन्य,adj,any,any,,o,,' name='अन्य' posn='130'>
6.2	लोगों	NN	<fs af='लोग,n,m,pl,3,o,0,0' name='लोगों' posn='140'>
6.3	का	PSP	<fs af='का,psp,m,sg,,d,,' name='का' posn='150'>
	))
7	((	NP	<fs name='NP6' drel='k1s:VGF'>
7.1	षड्यंत्र	NN	<fs af='षड्यंत्र,n,m,sg,3,d,0,0' name='षड्यंत्र' posn='160'>
	))
8	((	VGF	<fs name='VGF' stype='declarative' voicetype='active'>
8.1	है	VM	<fs af='है,v,any,sg,3,,है,hE' name='है' posn='170'>
	))
9	((	BLK	<fs name='BLK' drel='rsym:VGF'>
9.1	।	SYM	<fs af='।,punc,,,,,,' name='।' posn='180'>
	))
</Sentence>

<Sentence id='16'>
1	((	NP	<fs name='NP' drel='r6:NP2'>
1.1	इन	DEM	<fs af='यह,pn,any,pl,3,o,,' name='इन' posn='10'>
1.2	अन्य	JJ	<fs af='अन्य,adj,any,any,,o,,' name='अन्य' posn='20'>
1.3	लोगों	NN	<fs af='लोग,n,m,pl,3,o,0,0' name='लोगों' posn='30'>
1.4	का	PSP	<fs af='का,psp,m,sg,,d,,' name='का' posn='40'>
	))
2	((	NP	<fs name='NP2' drel='k2:VGNN'>
2.1	नाम	NN	<fs af='नाम,n,m,sg,3,d,0,0' name='नाम' posn='50'>
	))
3	((	VGNN	<fs name='VGNN' drel='k2:VGF'>
3.1	बताने	VM	<fs af='बता,v,any,any,any,o,ना,nA' name='बताने' posn='60'>
3.2	से	PSP	<fs af='से,psp,,,,,,' name='से' posn='70'>
	))
4	((	NP	<fs name='NP3' drel='k1:VGF'>
4.1	उन्होंने	PRP	<fs af='वह,pn,any,sg,3h,o,ने,ne' name='उन्होंने' posn='80'>
	))
5	((	NP	<fs name='NP4' drel='pof:VGF'>
5.1	इनकार	NN	<fs af='इनकार,n,m,sg,3,d,0,0' name='इनकार' posn='90'>
	))
6	((	VGF	<fs name='VGF' stype='declarative' voicetype='active'>
6.1	कर	VM	<fs af='कर,v,any,any,any,,0,0' name='कर' posn='100'>
6.2	दिया	VAUX	<fs af='दे,v,m,sg,any,,या,yA' name='दिया' posn='110'>
	))
7	((	BLK	<fs name='BLK' drel='rsym:VGF'>
7.1	।	SYM	<fs af='।,punc,,,,,,' name='।' posn='120'>
	))
</Sentence>

<Sentence id='17'>
1	((	CCP	<fs name='CCP'>
1.1	पर	CC	<fs af='पर,avy,,,,,,' name='पर' posn='10'>
	))
2	((	RBP	<fs name='RBP' drel='adv:VGF'>
2.1	शायद	RB	<fs af='शायद,adv,,,,,,' name='शायद' posn='20'>
	))
3	((	NP	<fs name='NP' drel='r6:NP2'>
3.1	उनका	PRP	<fs af='वह,pn,m,sg,3h,o,का,kA' name='उनका' posn='30'>
	))
4	((	NP	<fs name='NP2' drel='k1:VGF'>
4.1	इशारा	NN	<fs af='इशारा,n,m,sg,3,d,0,0' name='इशारा' posn='40'>
	))
5	((	NP	<fs name='NP3' drel='nmod:NP5'>
5.1	कांग्रेस	NNP	<fs af='कांग्रेस,n,f,sg,3,o,0,0' name='कांग्रेस' posn='50'>
5.2	में	PSP	<fs af='में,psp,,,,,,' name='में' posn='60'>
	))
6	((	NP	<fs name='NP4' drel='r6:NP5'>
6.1	अपने	PRP	<fs af='अपना,pn,m,any,any,o,0,0' name='अपने' posn='70'>
	))
7	((	NP	<fs name='NP5' drel='rd:VGF'>
7.1	विरोधियों	NN	<fs af='विरोधी,n,m,pl,3,o,0,0' name='विरोधियों' posn='80'>
7.2	की	PSP	<fs af='का,psp,f,sg,,o,,' name='की' posn='90'>
7.3	तरफ	NST	<fs af='तरफ,nst,f,sg,3,d,,' name='तरफ' posn='100'>
	))
8	((	VGF	<fs voicetype='active' name='VGF' stype='declarative' drel='ccof:CCP'>
8.1	था	VM	<fs af='था,v,m,sg,any,,था,WA' name='था' posn='110'>
	))
9	((	BLK	<fs name='BLK' drel='rsym:CCP'>
9.1	।	SYM	<fs af='।,punc,,,,,,' name='।' posn='120'>
	))
</Sentence>

<Sentence id='18'>
1	((	NP	<fs name='NP' drel='r6:NP2'>
1.1	पिता	NN	<fs af='पिता,n,m,sg,3,o,0,0' name='पिता' posn='10'>
1.2	के	PSP	<fs af='का,psp,m,sg,,o,,' name='के' posn='20'>
	))
2	((	NP	<fs name='NP2' drel='k7p:VGNF'>
2.1	समर्थन	NN	<fs af='समर्थन,n,m,sg,3,o,0,0' name='समर्थन' posn='30'>
2.2	में	PSP	<fs af='में,psp,,,,,,' name='में' posn='40'>
	))
3	((	VGNF	<fs name='VGNF' drel='nmod__k1inv:NP3'>
3.1	जुटे	VM	<fs af='जुट,v,m,pl,any,,या,yA' name='जुटे' posn='50'>
	))
4	((	NP	<fs name='NP3' drel='k7:VGNN'>
4.1	लोगों	NN	<fs af='लोग,n,m,pl,3,o,0,0' name='लोगों' posn='60'>
4.2	के	PSP	<fs af='के,psp,,,,,,' name='के2' posn='70'>
4.3	बारे	PSP	<fs af='बारे,psp,,,,,,' name='बारे' posn='80'>
4.4	में	PSP	<fs af='में,psp,,,,,,' name='में2' posn='90'>
	))
5	((	NP	<fs name='NP4' drel='k1:VGNN'>
5.1	उनका	PRP	<fs af='वह,pn,m,sg,3h,d,का,kA' name='उनका' posn='100'>
	))
6	((	VGNN	<fs name='VGNN' drel='k1:VGF'>
6.1	कहना	VM	<fs af='कह,v,any,any,any,d,ना,nA' name='कहना' posn='110'>
	))
7	((	VGF	<fs name='VGF' stype='declarative' voicetype='active'>
7.1	था	VM	<fs af='था,v,m,sg,any,,था,WA' name='था' posn='120'>
	))
8	((	CCP	<fs name='CCP' drel='k2:VGNN'>
8.1	कि	CC	<fs af='कि,avy,,,,,,' name='कि' posn='130'>
	))
9	((	NP	<fs name='NP5' drel='r6:NP6'>
9.1	क्षेत्र	NN	<fs af='क्षेत्र,n,m,sg,3,o,0,0' name='क्षेत्र' posn='140'>
9.2	के	PSP	<fs af='का,psp,m,pl,,o,,' name='के3' posn='150'>
	))
10	((	NP	<fs name='NP6' drel='k4a:VGF2'>
10.1	लोगों	NN	<fs af='लोग,n,m,pl,3,o,0,0' name='लोगों2' posn='160'>
10.2	को	PSP	<fs af='को,psp,,,,,,' name='को' posn='170'>
	))
11	((	NP	<fs name='NP7' drel='r6:NP8'>
11.1	उनके	PRP	<fs af='वह,pn,m,sg,3h,o,का,kA' name='उनके' posn='180'>
	))
12	((	NP	<fs name='NP8' drel='ras-k1:VGF2'>
12.1	परिवार	NN	<fs af='परिवार,n,m,sg,3,o,0,0' name='परिवार' posn='190'>
12.2	से	PSP	<fs af='से,psp,,,,,,' name='से' posn='200'>
	))
13	((	NP	<fs name='NP9' drel='k1:VGF2'>
13.1	काफी	QF	<fs af='काफी,avy,,,,,,' name='काफी' posn='210'>
13.2	प्यार	NN	<fs af='प्यार,n,m,sg,3,d,0,0' name='प्यार' posn='220'>
	))
14	((	VGF	<fs voicetype='active' name='VGF2' stype='declarative' drel='ccof:CCP'>
14.1	है	VM	<fs af='है,v,any,sg,3,,है,hE' name='है' posn='230'>
	))
15	((	BLK	<fs name='BLK' drel='rsym:VGF'>
15.1	।	SYM	<fs af='।,punc,,,,,,' name='।' posn='240'>
	))
</Sentence>

<Sentence id='19'>
1	((	NP	<fs name='NP' drel='sent-adv:VGF'>
1.1	उधर	NST	<fs af='उधर,nst,m,sg,3,d,,' name='उधर' posn='10'>
1.2	,	SYM	<fs af='COMMA,punc,,,,,,' name=',' posn='20'>
	))
2	((	NP	<fs name='NP2' drel='r6:NP3'>
2.1	राजस्थान	NNP	<fs af='राजस्थान,n,m,sg,3,o,0,0' name='राजस्थान' posn='30'>
2.2	के	PSP	<fs af='का,psp,m,sg,,o,,' name='के' posn='40'>
	))
3	((	NP	<fs name='NP3' drel='k2p:VGNF'>
3.1	भरतपुर	NNP	<fs af='भरतपुर,n,m,sg,3,o,0,0' name='भरतपुर' posn='50'>
3.2	से	PSP	<fs af='से,psp,,,,,,' name='से' posn='60'>
	))
4	((	VGNF	<fs name='VGNF' drel='nmod__k1inv:NP5'>
4.1	आए	VM	<fs af='आ,v,m,pl,any,,या,yA' name='आए' posn='70'>
	))
5	((	NP	<fs name='NP4' drel='r6:NP5'>
5.1	उनके	PRP	<fs af='वह,pn,m,sg,3h,o,का,kA' name='उनके' posn='80'>
	))
6	((	NP	<fs name='NP5' drel='k1:VGF'>
6.1	दर्जनों	NN	<fs af='दर्जन,n,m,pl,3,d,0,0' name='दर्जनों' posn='90'>
6.2	समर्थकों	NN	<fs af='समर्थक,n,m,pl,3,o,0,0' name='समर्थकों' posn='100'>
6.3	ने	PSP	<fs af='ने,psp,,,,,,' name='ने' posn='110'>
	))
7	((	NP	<fs name='NP6' drel='k2p:VGNF2'>
7.1	प्रधानमंत्री	NNC	<fs af='प्रधानमंत्री,n,m,sg,3,d,0,0' name='प्रधानमंत्री' posn='120'>
7.2	कार्यालय	NN	<fs af='कार्यालय,n,m,sg,3,o,0,0' name='कार्यालय' posn='130'>
7.3	के	PSP	<fs af='के,psp,,,,,,' name='के2' posn='140'>
7.4	सामने	NST	<fs af='सामने,nst,m,sg,3,d,,' name='सामने' posn='150'>
	))
8	((	VGNF	<fs name='VGNF2' drel='vmod:VGF'>
8.1	पहुंच	VM	<fs af='पहुंच,v,any,any,any,,0,0' name='पहुंच' posn='160'>
8.2	कर	VAUX	<fs af='कर,v,any,any,any,,0,0' name='कर' posn='170'>
	))
9	((	NP	<fs name='NP7' drel='pof:VGF'>
9.1	हंगामा	NN	<fs af='हंगामा,n,m,sg,3,d,0,0' name='हंगामा' posn='180'>
9.2	भी	RP	<fs af='भी,avy,,,,,,' name='भी' posn='190'>
	))
10	((	VGF	<fs name='VGF' stype='declarative' voicetype='active'>
10.1	किया	VM	<fs af='कर,v,m,sg,any,,या,yA' name='किया' posn='200'>
	))
11	((	BLK	<fs name='BLK' drel='rsym:VGF'>
11.1	।	SYM	<fs af='।,punc,,,,,,' name='।' posn='210'>
	))
</Sentence>

<Sentence id='20'>
1	((	NP	<fs name='NP' drel='r6:NP2'>
1.1	विदेश	NNPC	<fs af='विदेश,n,m,sg,3,d,0,0' name='विदेश' posn='10'>
1.2	मंत्री	NNP	<fs af='मंत्री,n,m,sg,3,o,0,0' name='मंत्री' posn='20'>
1.3	का	PSP	<fs af='का,psp,m,sg,,d,,' name='का' posn='30'>
	))
2	((	NP	<fs name='NP2' drel='k1:VGF'>
2.1	सरकारी	JJ	<fs af='सरकारी,adj,any,any,,d,,' name='सरकारी' posn='40'>
2.2	बंगला	NN	<fs af='बंगला,n,m,sg,3,d,0,0' name='बंगला' posn='50'>
	))
3	((	NP	<fs name='NP3' drel='nmod:NP4'>
3.1	प्रधानमंत्री	NNP	<fs af='प्रधानमंत्री,n,m,sg,3,d,0,0' name='प्रधानमंत्री' posn='60'>
3.2	आवास	NN	<fs af='आवास,n,m,sg,3,o,0,0' name='आवास' posn='70'>
3.3	के	PSP	<fs af='के,psp,,,,,,' name='के' posn='80'>
	))
4	((	RBP	<fs name='RBP' drel='adv:VGF'>
4.1	बिल्कुल	RB	<fs af='बिल्कुल,adv,,,,,,' name='बिल्कुल' posn='90'>
	))
5	((	NP	<fs name='NP4' drel='k7:VGF'>
5.1	पास	NST	<fs af='पास,nst,m,sg,3,d,,' name='पास' posn='100'>
5.2	ही	RP	<fs af='ही,avy,,,,,,' name='ही' posn='110'>
	))
6	((	VGF	<fs name='VGF' stype='declarative' voicetype='active'>
6.1	है	VM	<fs af='है,v,any,sg,3,,है,hE' name='है' posn='120'>
	))
7	((	BLK	<fs name='BLK' drel='rsym:VGF'>
7.1	।	SYM	<fs af='।,punc,,,,,,' name='।' posn='130'>
	))
</Sentence>

<Sentence id='21'>
1	((	NP	<fs name='NP' drel='k1:VGF'>
1.1	ये	DEM	<fs af='यह,pn,any,pl,3,d,,' name='ये' posn='10'>
1.2	लोग	NN	<fs af='लोग,n,m,pl,3,d,0,0' name='लोग' posn='20'>
	))
2	((	NP	<fs name='NP2' drel='r6:NP3'>
2.1	उनके	PRP	<fs af='वह,pn,m,sg,3h,o,का,kA' name='उनके' posn='30'>
	))
3	((	NP	<fs name='NP3' drel='k2p:VGF'>
3.1	बंगले	NN	<fs af='बंगला,n,m,sg,3,o,0,0' name='बंगले' posn='40'>
3.2	में	PSP	<fs af='में,psp,,,,,,' name='में' posn='50'>
	))
4	((	VGF	<fs name='VGF' stype='declarative' voicetype='active'>
4.1	जमा	VM	<fs af='जमा,v,any,any,any,,0,0' name='जमा' posn='60'>
4.2	थे	VAUX	<fs af='था,v,m,pl,any,,था,WA' name='थे' posn='70'>
4.3	,	SYM	<fs af='COMMA,punc,,,,,,' name=',' posn='80'>
	))
5	((	NP	<fs coref='NP3' name='NP4' drel='k5:VGF2'>
5.1	जहां	PRP	<fs af='जहाँ,pn,,,,o,,' name='जहां' posn='90'>
5.2	से	PSP	<fs af='से,psp,,,,,,' name='से' posn='100'>
	))
6	((	RBP	<fs name='RBP' drel='adv:VGF2'>
6.1	एकाएक	RB	<fs af='एकाएक,adv,,,,,,' name='एकाएक' posn='110'>
	))
7	((	NP	<fs name='NP5' drel='k7:JJP'>
7.1	सात	QC	<fs af='सात,num,any,any,,any,,' name='सात' posn='120'>
7.2	रेसकोर्स	NNPC	<fs af='रेसकोर्स,n,m,sg,3,d,0,0' name='रेसकोर्स' posn='130'>
7.3	रोड	NNP	<fs af='रोड,n,m,sg,3,d,0,0' name='रोड' posn='140'>
	))
8	((	JJP	<fs name='JJP' drel='nmod:NP6'>
8.1	स्थित	JJ	<fs af='स्थित,adj,any,any,,o,,' name='स्थित' posn='150'>
	))
9	((	NP	<fs name='NP6' drel='rd:VGF2'>
9.1	प्रधानमंत्री	NNP	<fs af='प्रधानमंत्री,n,m,sg,3,d,0,0' name='प्रधानमंत्री' posn='160'>
9.2	आवास	NN	<fs af='आवास,n,m,sg,3,o,0,0' name='आवास' posn='170'>
9.3	की	PSP	<fs af='का,psp,f,sg,,d,,' name='की' posn='180'>
9.4	ओर	NST	<fs af='ओर,nst,f,sg,3,d,,' name='ओर' posn='190'>
	))
10	((	VGF	<fs voicetype='active' name='VGF2' stype='declarative' drel='nmod__relc:NP3'>
10.1	बढ़	VM	<fs af='बढ़,v,any,any,any,,0,0' name='बढ़' posn='200'>
10.2	गए	VAUX	<fs af='जा,v,m,pl,any,,या१,yA1' name='गए' posn='210'>
	))
11	((	BLK	<fs name='BLK' drel='rsym:VGF'>
11.1	।	SYM	<fs af='।,punc,,,,,,' name='।' posn='220'>
	))
</Sentence>

<Sentence id='22'>
1	((	NP	<fs name='NP' drel='k1:VGF'>
1.1	नटवर	NNPC	<fs af='नटवर,n,m,sg,3,d,0,0' name='नटवर' posn='10'>
1.2	सिंह	NNP	<fs af='सिंह,n,any,sg,3,o,0,0' name='सिंह' posn='20'>
1.3	ने	PSP	<fs af='ने,psp,,,,,,' name='ने' posn='30'>
	))
2	((	VGF	<fs name='VGF' stype='declarative' voicetype='active'>
2.1	कहा	VM	<fs af='कह,v,m,sg,any,,या,yA' name='कहा' posn='40'>
	))
3	((	CCP	<fs name='CCP' drel='k2:VGF'>
3.1	कि	CC	<fs af='कि,avy,,,,,,' name='कि' posn='50'>
	))
4	((	NP	<fs name='NP2' drel='k1:VGF2'>
4.1	उन्होंने	PRP	<fs af='वह,pn,any,sg,3h,o,ने,ne' name='उन्होंने' posn='60'>
	))
5	((	NEGP	<fs name='NEGP' drel='vmod:VGF2'>
5.1	न	NEG	<fs af='न,avy,,,,,,' name='न' posn='70'>
5.2	तो	RP	<fs af='तो,avy,,,,,,' name='तो' posn='80'>
	))
6	((	NP	<fs name='NP3' drel='k2:VGF2'>
6.1	समर्थकों	NN	<fs af='समर्थक,n,m,pl,3,o,0,0' name='समर्थकों' posn='90'>
6.2	को	PSP	<fs af='को,psp,,,,,,' name='को' posn='100'>
	))
7	((	NP	<fs name='NP4' drel='k7:VGF2'>
7.1	यहां	PRP	<fs af='यहाँ,pn,,,,d,,' name='यहां' posn='110'>
	))
8	((	VGF	<fs voicetype='active' name='VGF2' stype='declarative' drel='ccof:CCP2'>
8.1	बुलाया	VM	<fs af='बुला,v,m,sg,any,,या,yA' name='बुलाया' posn='120'>
8.2	है	VAUX	<fs af='है,v,any,sg,3,,है,hE' name='है' posn='130'>
	))
9	((	CCP	<fs name='CCP2' drel='ccof:CCP'>
9.1	और	CC	<fs af='और,avy,,,,,,' name='और' posn='140'>
	))
10	((	NEGP	<fs name='NEGP2' drel='vmod:VGF3'>
10.1	न	NEG	<fs af='न,avy,,,,,,' name='न2' posn='150'>
10.2	ही	RP	<fs af='ही,avy,,,,,,' name='ही' posn='160'>
	))
11	((	NP	<fs name='NP5' drel='k1:VGF3'>
11.1	वे	PRP	<fs af='वह,pn,any,sg,3h,d,0,0' name='वे' posn='170'>
	))
12	((	NP	<fs name='NP6' drel='pof:VGNN'>
12.1	शक्ति	NNC	<fs af='शक्ति,n,f,sg,3,d,0,0' name='शक्ति' posn='180'>
12.2	प्रदर्शन	NN	<fs af='प्रदर्शन,n,m,sg,3,d,0,0' name='प्रदर्शन' posn='190'>
	))
13	((	VGNN	<fs name='VGNN' drel='k2:VGF3'>
13.1	करना	VM	<fs af='कर,v,m,sg,any,d,ना,nA' name='करना' posn='200'>
	))
14	((	VGF	<fs voicetype='active' name='VGF3' stype='declarative' drel='ccof:CCP2'>
14.1	चाहते	VM	<fs af='चाह,v,m,sg,3h,,ता,wA' name='चाहते' posn='210'>
14.2	हैं	VAUX	<fs af='है,v,any,sg,3h,,है,hE' name='हैं' posn='220'>
	))
15	((	BLK	<fs name='BLK' drel='rsym:VGF'>
15.1	।	SYM	<fs af='।,punc,,,,,,' name='।' posn='230'>
	))
</Sentence>

<Sentence id='23'>
1	((	CCP	<fs name='CCP'>
1.1	मगर	CC	<fs af='मगर,avy,,,,,,' name='मगर' posn='10'>
1.2	,	SYM	<fs af='COMMA,punc,,,,,,' name=',' posn='20'>
	))
2	((	NP	<fs name='NP' drel='nmod:NP2'>
2.1	समर्थकों	NN	<fs af='समर्थक,n,m,pl,3,o,0,0' name='समर्थकों' posn='30'>
2.2	में	PSP	<fs af='में,psp,,,,,,' name='में' posn='40'>
2.3	से	PSP	<fs af='से,psp,,,,,,' name='से' posn='50'>
	))
3	((	NP	<fs name='NP2' drel='k1:VGF'>
3.1	कुछ	PRP	<fs af='कुछ,pn,any,pl,3,d,0,0' name='कुछ' posn='60'>
3.2	ने	PSP	<fs af='ने,psp,,,,,,' name='ने' posn='70'>
	))
4	((	VGF	<fs voicetype='active' name='VGF' stype='declarative' drel='ccof:CCP'>
4.1	माना	VM	<fs af='मान,v,m,sg,any,,या,yA' name='माना' posn='80'>
	))
5	((	CCP	<fs name='CCP2' drel='k2:VGF'>
5.1	कि	CC	<fs af='कि,avy,,,,,,' name='कि' posn='90'>
	))
6	((	NP	<fs name='NP3' drel='k1:VGF2'>
6.1	वे	PRP	<fs af='वह,pn,any,pl,3,d,0,0' name='वे' posn='100'>
	))
7	((	NP	<fs name='NP4' drel='r6:NP5'>
7.1	नटवर	NNPC	<fs af='नटवर,n,m,sg,3,d,0,0' name='नटवर' posn='110'>
7.2	सिंह	NNP	<fs af='सिंह,n,any,sg,3,o,0,0' name='सिंह' posn='120'>
7.3	के	PSP	<fs af='का,psp,m,sg,,o,,' name='के' posn='130'>
	))
8	((	NP	<fs name='NP5' drel='nmod:NP6'>
8.1	बेटे	NN	<fs af='बेटा,n,m,sg,3,o,0,0' name='बेटे' posn='140'>
	))
9	((	NP	<fs name='NP6' drel='k1:VGNN'>
9.1	जगत	NNPC	<fs af='जगत,n,m,sg,3,d,0,0' name='जगत' posn='150'>
9.2	सिंह	NNP	<fs af='सिंह,n,any,sg,3,o,0,0' name='सिंह2' posn='160'>
9.3	के	PSP	<fs af='का,psp,m,sg,,o,,' name='के2' posn='170'>
	))
10	((	VGNN	<fs name='VGNN' drel='rh:VGF2'>
10.1	कहने	VM	<fs af='कह,v,any,any,any,o,ना,nA' name='कहने' posn='180'>
10.2	पर	PSP	<fs af='पर,psp,,,,,,' name='पर' posn='190'>
10.3	ही	RP	<fs af='ही,avy,,,,,,' name='ही' posn='200'>
	))
11	((	NP	<fs name='NP7' drel='k7p:VGF2'>
11.1	यहां	PRP	<fs af='यहाँ,pn,,,,d,,' name='यहां' posn='210'>
	))
12	((	VGF	<fs voicetype='active' name='VGF2' stype='declarative' drel='ccof:CCP2'>
12.1	जमा	VM	<fs af='जमा,v,any,any,any,,0,0' name='जमा' posn='220'>
12.2	हुए	VAUX	<fs af='हो,v,m,pl,any,,या,yA' name='हुए' posn='230'>
12.3	थे	VAUX	<fs af='था,v,m,pl,any,,था,WA' name='थे' posn='240'>
	))
13	((	BLK	<fs name='BLK' drel='rsym:CCP'>
13.1	।	SYM	<fs af='।,punc,,,,,,' name='।' posn='250'>
	))
</Sentence>

<Sentence id='24'>
1	((	NP	<fs name='NP' drel='k7p:VGF'>
1.1	प्रधानमंत्री	NNP	<fs af='प्रधानमंत्री,n,m,sg,3,d,0,0' name='प्रधानमंत्री' posn='10'>
1.2	आवास	NN	<fs af='आवास,n,m,sg,3,o,0,0' name='आवास' posn='20'>
1.3	के	PSP	<fs af='के,psp,,,,,,' name='के' posn='30'>
1.4	सामने	NST	<fs af='सामने,nst,m,sg,3,d,,' name='सामने' posn='40'>
	))
2	((	NP	<fs name='NP2' drel='k1:VGF'>
2.1	प्रदर्शन	NN	<fs af='प्रदर्शन,n,m,sg,3,d,0,0' name='प्रदर्शन' posn='50'>
2.2	भी	RP	<fs af='भी,avy,,,,,,' name='भी' posn='60'>
	))
3	((	NP	<fs name='NP3' drel='k1:VGNN'>
3.1	जगत	NNPC	<fs af='जगत,n,m,sg,3,d,0,0' name='जगत' posn='70'>
3.2	सिंह	NNP	<fs af='सिंह,n,any,sg,3,o,0,0' name='सिंह' posn='80'>
3.3	के	PSP	<fs af='का,psp,m,sg,,o,,' name='के2' posn='90'>
	))
4	((	VGNN	<fs name='VGNN' drel='k7:VGF'>
4.1	कहने	VM	<fs af='कह,v,any,any,any,o,ना,nA' name='कहने' posn='100'>
4.2	पर	PSP	<fs af='पर,psp,,,,,,' name='पर' posn='110'>
4.3	ही	RP	<fs af='ही,avy,,,,,,' name='ही' posn='120'>
	))
5	((	VGF	<fs name='VGF' stype='declarative' voicetype='active'>
5.1	हुआ	VM	<fs af='हो,v,m,sg,any,,या,yA' name='हुआ' posn='130'>
	))
6	((	BLK	<fs name='BLK' drel='rsym:VGF'>
6.1	।	SYM	<fs af='।,punc,,,,,,' name='।' posn='140'>
	))
</Sentence>

<Sentence id='25'>
1	((	CCP	<fs name='CCP'>
1.1	जबकि	CC	<fs af='जबकि,avy,,,,,,' name='जबकि' posn='10'>
	))
2	((	NP	<fs name='NP' drel='k1:VGF'>
2.1	नटवर	NNPC	<fs af='नटवर,n,m,sg,3,d,0,0' name='नटवर' posn='20'>
2.2	सिंह	NNP	<fs af='सिंह,n,any,sg,3,d,0,0' name='सिंह' posn='30'>
	))
3	((	NP	<fs name='NP2' drel='nmod__emph:NP'>
3.1	खुद	PRP	<fs af='खुद,pn,,,,d,,' name='खुद' posn='10'>
	))
4	((	NP	<fs name='NP3' drel='r6:NP4'>
4.1	इस	DEM	<fs af='यह,pn,any,sg,3,o,,' name='इस' posn='50'>
4.2	बात	NN	<fs af='बात,n,f,sg,3,o,0,0' name='बात' posn='60'>
4.3	के	PSP	<fs af='का,psp,m,sg,,o,,' name='के' posn='70'>
	))
5	((	NP	<fs name='NP4' drel='k7:VGF'>
5.1	पक्ष	NN	<fs af='पक्ष,n,m,sg,3,o,0,0' name='पक्ष' posn='80'>
5.2	में	PSP	<fs af='में,psp,,,,o,,' name='में' posn='90'>
	))
6	((	VGF	<fs voicetype='active' name='VGF' stype='declarative' drel='ccof:CCP'>
6.1	नहीं	NEG	<fs af='नहीं,avy,,,,,,' name='नहीं' posn='100'>
6.2	थे	VM	<fs af='था,v,m,sg,3h,,था,WA' name='थे' posn='110'>
	))
7	((	BLK	<fs name='BLK' drel='rsym:CCP'>
7.1	।	SYM	<fs af='।,punc,,,,,,' name='।' posn='120'>
	))
</Sentence>

</text>
</tb>
</body>
</document>
