1	nIxaralEMda	nIxaralEMda	NNP	n	lex-nIxaralEMda|cat-n|gen-m|num-sg|pers-3|case-d|vib-0|tam-0|chunkId-NP|chunkType-head|stype-|voicetype-	26	k1	_	_
2	KvAboM	KvAba	NN	n	lex-KvAba|cat-n|gen-m|num-pl|pers-3|case-o|vib-0_ko|tam-0|chunkId-NP2|chunkType-head|stype-|voicetype-	5	k2	_	_
3	ko	ko	PSP	psp	lex-ko|cat-psp|gen-|num-|pers-|case-|vib-|tam-|chunkId-NP2|chunkType-child|stype-|voicetype-	2	lwg__psp	_	_
4	saca	saca	NN	n	lex-saca|cat-n|gen-m|num-sg|pers-3|case-d|vib-0|tam-0|chunkId-NP3|chunkType-head|stype-|voicetype-	5	pof	_	_
5	karawA	kara	VM	v	lex-kara|cat-v|gen-m|num-sg|pers-any|case-|vib-wA|tam-wA|chunkId-VGNF|chunkType-head|stype-|voicetype-	8	nmod	_	_
6	pariyoM	parI	NN	n	lex-parI|cat-n|gen-f|num-pl|pers-3|case-o|vib-0_kA|tam-0|chunkId-NP4|chunkType-head|stype-|voicetype-	8	r6	_	_
7	kA	kA	PSP	psp	lex-kA|cat-psp|gen-m|num-sg|pers-|case-d|vib-|tam-|chunkId-NP4|chunkType-child|stype-|voicetype-	6	lwg__psp	_	_
8	xeSa	xeSa	NN	n	lex-xeSa|cat-n|gen-m|num-sg|pers-3|case-d|vib-0|tam-0|chunkId-NP5|chunkType-head|stype-|voicetype-	19	ccof	_	_
9	,	COMMA	SYM	punc	lex-COMMA|cat-punc|gen-|num-|pers-|case-|vib-|tam-|chunkId-NP5|chunkType-child|stype-|voicetype-	8	rsym	_	_
10	PUloM	PUla	NN	n	lex-PUla|cat-n|gen-m|num-pl|pers-3|case-o|vib-0_kA|tam-0|chunkId-NP6|chunkType-head|stype-|voicetype-	13	r6	_	_
11	kI	kA	PSP	psp	lex-kA|cat-psp|gen-f|num-sg|pers-|case-d|vib-|tam-|chunkId-NP6|chunkType-child|stype-|voicetype-	10	lwg__psp	_	_
12	suMxara	sunxara	JJ	adj	lex-sunxara|cat-adj|gen-any|num-any|pers-|case-d|vib-|tam-|chunkId-NP7|chunkType-child|stype-|voicetype-	13	nmod__adj	_	_
13	nagariyA	nagariyA	NN	n	lex-nagariyA|cat-n|gen-f|num-sg|pers-3|case-d|vib-0|tam-0|chunkId-NP7|chunkType-head|stype-|voicetype-	19	ccof	_	_
14	,	COMMA	SYM	punc	lex-COMMA|cat-punc|gen-|num-|pers-|case-|vib-|tam-|chunkId-NP7|chunkType-child|stype-|voicetype-	13	rsym	_	_
15	pavana	pavana	NNC	n	lex-pavana|cat-n|gen-any|num-sg|pers-3|case-d|vib-0|tam-0|chunkId-NP8|chunkType-child|stype-|voicetype-	16	pof__cn	_	_
16	cakkiyoM	cakkI	NN	n	lex-cakkI|cat-n|gen-f|num-pl|pers-3|case-o|vib-0_kA|tam-0|chunkId-NP8|chunkType-head|stype-|voicetype-	18	r6	_	_
17	kI	kA	PSP	psp	lex-kA|cat-psp|gen-f|num-sg|pers-|case-d|vib-|tam-|chunkId-NP8|chunkType-child|stype-|voicetype-	16	lwg__psp	_	_
18	xuniyA	xuniyA	NN	n	lex-xuniyA|cat-n|gen-f|num-sg|pers-3|case-d|vib-0|tam-0|chunkId-NP9|chunkType-head|stype-|voicetype-	19	ccof	_	_
19	Ora	Ora	CC	avy	lex-Ora|cat-avy|gen-|num-|pers-|case-|vib-|tam-|chunkId-CCP|chunkType-head|stype-|voicetype-	21	rs	_	_
20	ina	yaha	DEM	pn	lex-yaha|cat-pn|gen-any|num-pl|pers-3|case-o|vib-|tam-|chunkId-NP10|chunkType-child|stype-|voicetype-	21	nmod__adj	_	_
21	sabase	saba	PRP	pn	lex-saba|cat-pn|gen-any|num-pl|pers-any|case-o|vib-se|tam-se|chunkId-NP10|chunkType-head|stype-|voicetype-	22	k5	_	_
22	baDZakara	baDa	VM	v	lex-baDa|cat-v|gen-any|num-any|pers-any|case-|vib-kara|tam-kara|chunkId-VGNF2|chunkType-head|stype-|voicetype-	26	vmod	_	_
23	sAikiloM	sAikila	NN	n	lex-sAikila|cat-n|gen-f|num-pl|pers-3|case-o|vib-0_kA|tam-0|chunkId-NP11|chunkType-head|stype-|voicetype-	25	r6	_	_
24	kA	kA	PSP	psp	lex-kA|cat-psp|gen-m|num-sg|pers-|case-d|vib-|tam-|chunkId-NP11|chunkType-child|stype-|voicetype-	23	lwg__psp	_	_
25	xeSa	xeSa	NN	n	lex-xeSa|cat-n|gen-m|num-sg|pers-3|case-d|vib-0|tam-0|chunkId-NP12|chunkType-head|stype-|voicetype-	26	k1s	_	_
26	NULL	_	VM	_	lex-_|cat-_|gen-|num-|pers-|case-|vib-|tam-|chunkId-NULL__VGF|chunkType-head|stype-declarative|voicetype-active	0	main	_	_
27	.	.	SYM	punc	lex-.|cat-punc|gen-|num-|pers-|case-|vib-|tam-|chunkId-BLK|chunkType-head|stype-|voicetype-	26	rsym	_	_

1	nIxaralEMda	nIxaralEMda	NNP	n	lex-nIxaralEMda|cat-n|gen-m|num-sg|pers-3|case-d|vib-0|tam-0|chunkId-NP|chunkType-head|stype-|voicetype-	18	k1	_	_
2	,	COMMA	SYM	punc	lex-COMMA|cat-punc|gen-|num-|pers-|case-|vib-|tam-|chunkId-NP|chunkType-child|stype-|voicetype-	1	rsym	_	_
3	jise	jo	PRP	pn	lex-jo|cat-pn|gen-any|num-sg|pers-3|case-o|vib-ko|tam-ko|chunkId-NP2|chunkType-head|stype-|voicetype-	6	k4	_	_
4	hOYlEMda	hOYlEMda	NNP	n	lex-hOYlEMda|cat-n|gen-m|num-sg|pers-3|case-d|vib-0|tam-0|chunkId-NP3|chunkType-head|stype-|voicetype-	6	k2	_	_
5	BI	BI	RP	avy	lex-BI|cat-avy|gen-|num-|pers-|case-|vib-|tam-|chunkId-NP3|chunkType-child|stype-|voicetype-	4	lwg__rp	_	_
6	kahA	kaha	VM	v	lex-kaha|cat-v|gen-m|num-sg|pers-3|case-|vib-yA_jA+wA_hE|tam-yA|chunkId-VGF|chunkType-head|stype-declarative|voicetype-active	1	nmod__relc	_	_
7	jAwA	jA	VAUX	v	lex-jA|cat-v|gen-m|num-sg|pers-any|case-|vib-wA|tam-wA|chunkId-VGF|chunkType-child|stype-|voicetype-	6	lwg__vaux	_	_
8	hE	hE	VAUX	v	lex-hE|cat-v|gen-any|num-sg|pers-3|case-|vib-hE|tam-hE|chunkId-VGF|chunkType-child|stype-|voicetype-	6	lwg__vaux	_	_
9	,	COMMA	SYM	punc	lex-COMMA|cat-punc|gen-|num-|pers-|case-|vib-|tam-|chunkId-VGF|chunkType-child|stype-|voicetype-	6	rsym	_	_
10	mOja	mOja	NNC	n	lex-mOja|cat-n|gen-m|num-sg|pers-3|case-d|vib-0|tam-0|chunkId-NP4|chunkType-child|stype-|voicetype-	12	pof__cn	_	_
11	-	-	SYM	punc	lex--|cat-punc|gen-|num-|pers-|case-|vib-|tam-|chunkId-NP4|chunkType-child|stype-|voicetype-	12	pof__cn	_	_
12	maswI	maswI	NN	n	lex-maswI|cat-n|gen-f|num-sg|pers-3|case-o|vib-0|tam-0|chunkId-NP4|chunkType-head|stype-|voicetype-	13	ccof	_	_
13	Ora	Ora	CC	avy	lex-Ora|cat-avy|gen-|num-|pers-|case-|vib-|tam-|chunkId-CCP|chunkType-head|stype-|voicetype-	17	nmod	_	_
14	suMxara	sunxara	JJ	adj	lex-sunxara|cat-adj|gen-any|num-any|pers-|case-o|vib-|tam-|chunkId-NP5|chunkType-child|stype-|voicetype-	15	nmod__adj	_	_
15	najAroM	najArA	NN	n	lex-najArA|cat-n|gen-m|num-pl|pers-3|case-o|vib-0_vAlA|tam-0|chunkId-NP5|chunkType-head|stype-|voicetype-	13	ccof	_	_
16	vAlA	vAlA	PSP	psp	lex-vAlA|cat-psp|gen-m|num-sg|pers-|case-d|vib-|tam-|chunkId-NP5|chunkType-child|stype-|voicetype-	15	lwg__psp	_	_
17	xeSa	xeSa	NN	n	lex-xeSa|cat-n|gen-m|num-sg|pers-3|case-d|vib-0|tam-0|chunkId-NP6|chunkType-head|stype-|voicetype-	18	k1s	_	_
18	hE	hE	VM	v	lex-hE|cat-v|gen-any|num-sg|pers-3|case-|vib-hE|tam-hE|chunkId-VGF2|chunkType-head|stype-declarative|voicetype-active	0	main	_	_
19	.	.	SYM	punc	lex-.|cat-punc|gen-|num-|pers-|case-|vib-|tam-|chunkId-BLK|chunkType-head|stype-|voicetype-	18	rsym	_	_

1	yahAz	yahAz	PRP	pn	lex-yahAz|cat-pn|gen-|num-|pers-|case-o|vib-0_kA|tam-|chunkId-NP|chunkType-head|stype-|voicetype-	5	r6	_	_
2	kI	kA	PSP	psp	lex-kA|cat-psp|gen-f|num-sg|pers-|case-d|vib-|tam-|chunkId-NP|chunkType-child|stype-|voicetype-	1	lwg__psp	_	_
3	sabase	sabase	INTF	avy	lex-sabase|cat-avy|gen-|num-|pers-|case-|vib-|tam-|chunkId-NP2|chunkType-child|stype-|voicetype-	4	jjmod__intf	_	_
4	KAsa	KAsa	JJ	adj	lex-KAsa|cat-adj|gen-any|num-any|pers-|case-d|vib-|tam-|chunkId-NP2|chunkType-child|stype-|voicetype-	5	nmod__adj	_	_
5	bAwa	bAwa	NN	n	lex-bAwa|cat-n|gen-f|num-sg|pers-3|case-d|vib-0|tam-0|chunkId-NP2|chunkType-head|stype-|voicetype-	12	k1	_	_
6	yahAz	yahAz	PRP	pn	lex-yahAz|cat-pn|gen-|num-|pers-|case-o|vib-0_kA|tam-|chunkId-NP3|chunkType-head|stype-|voicetype-	8	r6	_	_
7	ke	kA	PSP	psp	lex-kA|cat-psp|gen-m|num-pl|pers-|case-o|vib-|tam-|chunkId-NP3|chunkType-child|stype-|voicetype-	6	lwg__psp	_	_
8	logoM	loga	NN	n	lex-loga|cat-n|gen-m|num-pl|pers-3|case-o|vib-0_kA|tam-0|chunkId-NP4|chunkType-head|stype-|voicetype-	11	r6	_	_
9	kA	kA	PSP	psp	lex-kA|cat-psp|gen-m|num-sg|pers-|case-d|vib-|tam-|chunkId-NP4|chunkType-child|stype-|voicetype-	8	lwg__psp	_	_
10	sAikila	sAikila	NNC	n	lex-sAikila|cat-n|gen-f|num-sg|pers-3|case-d|vib-0|tam-0|chunkId-NP5|chunkType-child|stype-|voicetype-	11	pof__cn	_	_
11	prema	prema	NN	n	lex-prema|cat-n|gen-m|num-sg|pers-3|case-d|vib-0|tam-0|chunkId-NP5|chunkType-head|stype-|voicetype-	12	k1s	_	_
12	hE	hE	VM	v	lex-hE|cat-v|gen-any|num-sg|pers-3|case-|vib-hE|tam-hE|chunkId-VGF|chunkType-head|stype-declarative|voicetype-active	0	main	_	_
13	.	.	SYM	punc	lex-.|cat-punc|gen-|num-|pers-|case-|vib-|tam-|chunkId-BLK|chunkType-head|stype-|voicetype-	12	rsym	_	_

1	yahAz	yahAz	PRP	pn	lex-yahAz|cat-pn|gen-|num-|pers-|case-o|vib-0_kA|tam-|chunkId-NP|chunkType-head|stype-|voicetype-	3	r6	_	_
2	kI	kA	PSP	psp	lex-kA|cat-psp|gen-f|num-sg|pers-|case-o|vib-|tam-|chunkId-NP|chunkType-child|stype-|voicetype-	1	lwg__psp	_	_
3	sarakAra	sarakAra	NN	n	lex-sarakAra|cat-n|gen-f|num-sg|pers-3|case-o|vib-0_ne|tam-0|chunkId-NP2|chunkType-head|stype-|voicetype-	17	k1	_	_
4	ne	ne	PSP	psp	lex-ne|cat-psp|gen-|num-|pers-|case-|vib-|tam-|chunkId-NP2|chunkType-child|stype-|voicetype-	3	lwg__psp	_	_
5	xeSa	xeSa	NN	n	lex-xeSa|cat-n|gen-m|num-sg|pers-3|case-o|vib-0_kA|tam-0|chunkId-NP3|chunkType-head|stype-|voicetype-	8	r6	_	_
6	kI	kA	PSP	psp	lex-kA|cat-psp|gen-f|num-sg|pers-|case-o|vib-|tam-|chunkId-NP3|chunkType-child|stype-|voicetype-	5	lwg__psp	_	_
7	prAkqwika	prAkqwika	JJ	adj	lex-prAkqwika|cat-adj|gen-any|num-any|pers-|case-o|vib-|tam-|chunkId-NP4|chunkType-child|stype-|voicetype-	8	nmod__adj	_	_
8	suMxarawA	suMxarawA	NN	n	lex-suMxarawA|cat-n|gen-f|num-sg|pers-3|case-o|vib-0_ko|tam-0|chunkId-NP4|chunkType-head|stype-|voicetype-	10	k2	_	_
9	ko	ko	PSP	psp	lex-ko|cat-psp|gen-|num-|pers-|case-|vib-|tam-|chunkId-NP4|chunkType-child|stype-|voicetype-	8	lwg__psp	_	_
10	bacAne	bacA	VM	v	lex-bacA|cat-v|gen-any|num-any|pers-any|case-o|vib-nA_ke_lie|tam-nA|chunkId-VGNN|chunkType-head|stype-|voicetype-	17	rt	_	_
11	ke	ke	PSP	psp	lex-ke|cat-psp|gen-|num-|pers-|case-|vib-|tam-|chunkId-VGNN|chunkType-child|stype-|voicetype-	10	lwg__psp	_	_
12	lie	lie	PSP	psp	lex-lie|cat-psp|gen-|num-|pers-|case-|vib-|tam-|chunkId-VGNN|chunkType-child|stype-|voicetype-	10	lwg__psp	_	_
13	sAikiloM	sAikila	NN	n	lex-sAikila|cat-n|gen-f|num-pl|pers-3|case-o|vib-0_ko|tam-0|chunkId-NP5|chunkType-head|stype-|voicetype-	17	k2	_	_
14	ko	ko	PSP	psp	lex-ko|cat-psp|gen-|num-|pers-|case-|vib-|tam-|chunkId-NP5|chunkType-child|stype-|voicetype-	13	lwg__psp	_	_
15	kAPI	kAPI	QF	avy	lex-kAPI|cat-avy|gen-|num-|pers-|case-|vib-|tam-|chunkId-BLK|chunkType-head|stype-|voicetype-	17	pof	_	_
16	pramota	pramota	UNK	unk	lex-pramota|cat-unk|gen-|num-|pers-|case-|vib-|tam-|chunkId-BLK|chunkType-child|stype-|voicetype-	15	mod	_	_
17	kiyA	kara	VM	v	lex-kara|cat-v|gen-m|num-sg|pers-any|case-|vib-yA|tam-yA|chunkId-VGF|chunkType-head|stype-declarative|voicetype-active	0	main	_	_
18	.	.	SYM	punc	lex-.|cat-punc|gen-|num-|pers-|case-|vib-|tam-|chunkId-BLK2|chunkType-head|stype-|voicetype-	17	rsym	_	_

1	vEse	vEse	PRP	pn	lex-vEse|cat-pn|gen-|num-|pers-|case-|vib-|tam-|chunkId-NP|chunkType-head|stype-|voicetype-	7	sent-adv	_	_
2	BI	BI	RP	avy	lex-BI|cat-avy|gen-|num-|pers-|case-|vib-|tam-|chunkId-NP|chunkType-child|stype-|voicetype-	1	lwg__rp	_	_
3	yaha	yaha	DEM	pn	lex-yaha|cat-pn|gen-any|num-sg|pers-3|case-d|vib-|tam-|chunkId-NP2|chunkType-child|stype-|voicetype-	4	nmod__adj	_	_
4	xeSa	xeSa	NN	n	lex-xeSa|cat-n|gen-m|num-sg|pers-3|case-d|vib-0|tam-0|chunkId-NP2|chunkType-head|stype-|voicetype-	7	k1	_	_
5	kAPI	kAPI	QF	avy	lex-kAPI|cat-avy|gen-|num-|pers-|case-|vib-|tam-|chunkId-JJP|chunkType-child|stype-|voicetype-	6	nmod__adj	_	_
6	CotA	CotA	JJ	adj	lex-CotA|cat-adj|gen-m|num-sg|pers-|case-|vib-|tam-|chunkId-JJP|chunkType-head|stype-|voicetype-	7	k1s	_	_
7	hE	hE	VM	v	lex-hE|cat-v|gen-any|num-sg|pers-3|case-|vib-hE|tam-hE|chunkId-VGF|chunkType-head|stype-declarative|voicetype-active	9	ccof	_	_
8	,	COMMA	SYM	punc	lex-COMMA|cat-punc|gen-|num-|pers-|case-|vib-|tam-|chunkId-VGF|chunkType-child|stype-|voicetype-	7	rsym	_	_
9	NULL	_	CC	_	lex-_|cat-_|gen-|num-|pers-|case-|vib-|tam-|chunkId-NULL__CCP|chunkType-head|stype-|voicetype-	0	main	_	_
10	isalie	isaliye	PRP	pn	lex-isaliye|cat-pn|gen-|num-|pers-|case-|vib-|tam-|chunkId-NP3|chunkType-head|stype-|voicetype-	14	rh	_	_
11	xUriyAz	xUrI	NN	n	lex-xUrI|cat-n|gen-f|num-pl|pers-3|case-d|vib-0|tam-0|chunkId-NP4|chunkType-head|stype-|voicetype-	14	k1	_	_
12	BI	BI	RP	avy	lex-BI|cat-avy|gen-|num-|pers-|case-|vib-|tam-|chunkId-NP4|chunkType-child|stype-|voicetype-	11	lwg__rp	_	_
13	kama	kama	QF	avy	lex-kama|cat-avy|gen-|num-|pers-|case-|vib-|tam-|chunkId-JJP2|chunkType-head|stype-|voicetype-	14	k1s	_	_
14	hEM	hE	VM	v	lex-hE|cat-v|gen-any|num-pl|pers-3|case-|vib-hE|tam-hE|chunkId-VGF2|chunkType-head|stype-declarative|voicetype-active	9	ccof	_	_
15	.	.	SYM	punc	lex-.|cat-punc|gen-|num-|pers-|case-|vib-|tam-|chunkId-BLK|chunkType-head|stype-|voicetype-	9	rsym	_	_

1	Apa	Apa	PRP	pn	lex-Apa|cat-pn|gen-any|num-sg|pers-2h|case-d|vib-0|tam-0|chunkId-NP|chunkType-head|stype-|voicetype-	14	k1	_	_
2	pEMwisa	pEMwisa	QC	num	lex-pEMwisa|cat-num|gen-any|num-any|pers-|case-o|vib-0_se|tam-|chunkId-NP2|chunkType-head|stype-|voicetype-	5	rsp	_	_
3	se	se	PSP	psp	lex-se|cat-psp|gen-|num-|pers-|case-|vib-|tam-|chunkId-NP2|chunkType-child|stype-|voicetype-	2	lwg__psp	_	_
4	pEMwAlisa	pEMwAlisa	QC	num	lex-pEMwAlisa|cat-num|gen-any|num-any|pers-|case-any|vib-|tam-|chunkId-NP3|chunkType-child|stype-|voicetype-	5	nmod__adj	_	_
5	kilomItara	kilomItara	NN	n	lex-kilomItara|cat-n|gen-m|num-sg|pers-3|case-o|vib-0_kA|tam-0|chunkId-NP3|chunkType-head|stype-|voicetype-	7	r6	_	_
6	ke	kA	PSP	psp	lex-kA|cat-psp|gen-m|num-sg|pers-|case-o|vib-|tam-|chunkId-NP3|chunkType-child|stype-|voicetype-	5	lwg__psp	_	_
7	xAyare	xAyarA	NN	n	lex-xAyarA|cat-n|gen-m|num-sg|pers-3|case-o|vib-0_meM|tam-0|chunkId-NP4|chunkType-head|stype-|voicetype-	14	k7	_	_
8	meM	meM	PSP	psp	lex-meM|cat-psp|gen-|num-|pers-|case-|vib-|tam-|chunkId-NP4|chunkType-child|stype-|voicetype-	7	lwg__psp	_	_
9	yahAz	yahAz	PRP	pn	lex-yahAz|cat-pn|gen-|num-|pers-|case-o|vib-0_kA|tam-|chunkId-NP5|chunkType-head|stype-|voicetype-	11	r6	_	_
10	kI	kA	PSP	psp	lex-kA|cat-psp|gen-f|num-sg|pers-|case-d|vib-|tam-|chunkId-NP5|chunkType-child|stype-|voicetype-	9	lwg__psp	_	_
11	rAjaXAnI	rAjaXAnI	NN	n	lex-rAjaXAnI|cat-n|gen-f|num-sg|pers-3|case-o|vib-0|tam-0|chunkId-NP6|chunkType-head|stype-|voicetype-	12	nmod	_	_
12	em‍s‍tardama	em‍s‍tardama	NNP	n	lex-em‍s‍tardama|cat-n|gen-m|num-sg|pers-3|case-o|vib-0_ko|tam-0|chunkId-NP7|chunkType-head|stype-|voicetype-	14	k2	_	_
13	ko	ko	PSP	psp	lex-ko|cat-psp|gen-|num-|pers-|case-|vib-|tam-|chunkId-NP7|chunkType-child|stype-|voicetype-	12	lwg__psp	_	_
14	nihAra	nihAra	VM	v	lex-nihAra|cat-v|gen-m|num-sg|pers-2h|case-|vib-0_saka+wA_hE|tam-0|chunkId-VGF|chunkType-head|stype-declarative|voicetype-active	0	main	_	_
15	sakawe	saka	VAUX	v	lex-saka|cat-v|gen-m|num-sg|pers-2h|case-|vib-wA|tam-wA|chunkId-VGF|chunkType-child|stype-|voicetype-	14	lwg__vaux	_	_
16	hEM	hE	VAUX	v	lex-hE|cat-v|gen-any|num-sg|pers-2h|case-|vib-hE|tam-hE|chunkId-VGF|chunkType-child|stype-|voicetype-	14	lwg__vaux	_	_
17	.	.	SYM	punc	lex-.|cat-punc|gen-|num-|pers-|case-|vib-|tam-|chunkId-BLK|chunkType-head|stype-|voicetype-	14	rsym	_	_

1	Pira	Pira	RB	adv	lex-Pira|cat-adv|gen-|num-|pers-|case-|vib-|tam-|chunkId-RBP|chunkType-head|stype-|voicetype-	11	adv	_	_
2	yahAz	yahAz	PRP	pn	lex-yahAz|cat-pn|gen-|num-|pers-|case-o|vib-0_kA|tam-|chunkId-NP|chunkType-head|stype-|voicetype-	6	r6	_	_
3	kI	kA	PSP	psp	lex-kA|cat-psp|gen-f|num-sg|pers-|case-o|vib-|tam-|chunkId-NP|chunkType-child|stype-|voicetype-	2	lwg__psp	_	_
4	Abo	Abo	NNC	n	lex-Abo|cat-n|gen-f|num-sg|pers-3|case-d|vib-0|tam-0|chunkId-NP2|chunkType-child|stype-|voicetype-	6	pof__cn	_	_
5	-	-	SYM	punc	lex--|cat-punc|gen-|num-|pers-|case-|vib-|tam-|chunkId-NP2|chunkType-child|stype-|voicetype-	6	pof__cn	_	_
6	havA	havA	NN	n	lex-havA|cat-n|gen-f|num-sg|pers-3|case-o|vib-0_kA|tam-0|chunkId-NP2|chunkType-head|stype-|voicetype-	8	k1	_	_
7	kA	kA	PSP	psp	lex-kA|cat-psp|gen-m|num-sg|pers-|case-d|vib-|tam-|chunkId-NP2|chunkType-child|stype-|voicetype-	6	lwg__psp	_	_
8	kahanA	kaha	VM	v	lex-kaha|cat-v|gen-any|num-any|pers-any|case-d|vib-nA|tam-nA|chunkId-VGNN|chunkType-head|stype-|voicetype-	11	k1	_	_
9	hI	hI	RP	avy	lex-hI|cat-avy|gen-|num-|pers-|case-|vib-|tam-|chunkId-VGNN|chunkType-child|stype-|voicetype-	8	lwg__rp	_	_
10	kyA	kyA	WQ	pn	lex-kyA|cat-pn|gen-|num-|pers-|case-|vib-|tam-|chunkId-NP3|chunkType-head|stype-|voicetype-	11	k1s	_	_
11	NULL	_	VM	_	lex-_|cat-_|gen-|num-|pers-|case-|vib-|tam-|chunkId-NULL__VGF|chunkType-head|stype-|voicetype-	0	main	_	_
12	.	.	SYM	punc	lex-.|cat-punc|gen-|num-|pers-|case-|vib-|tam-|chunkId-BLK|chunkType-head|stype-|voicetype-	11	rsym	_	_

1	yahAz	yahAz	PRP	pn	lex-yahAz|cat-pn|gen-|num-|pers-|case-d|vib-|tam-|chunkId-NP|chunkType-head|stype-|voicetype-	2	k7p	_	_
2	Akara	A	VM	v	lex-A|cat-v|gen-any|num-any|pers-any|case-|vib-kara|tam-kara|chunkId-VGNF|chunkType-head|stype-|voicetype-	11	vmod	_	_
3	ApakA	Apa	PRP	pn	lex-Apa|cat-pn|gen-m|num-sg|pers-2h|case-o|vib-kA|tam-kA|chunkId-NP2|chunkType-head|stype-|voicetype-	4	r6	_	_
4	mana	mana	NN	n	lex-mana|cat-n|gen-m|num-sg|pers-3|case-d|vib-0|tam-0|chunkId-NP3|chunkType-head|stype-|voicetype-	11	k1	_	_
5	barabasa	barabasa	RB	adv	lex-barabasa|cat-adv|gen-|num-|pers-|case-|vib-|tam-|chunkId-RBP|chunkType-head|stype-|voicetype-	11	adv	_	_
6	hI	hI	RP	avy	lex-hI|cat-avy|gen-|num-|pers-|case-|vib-|tam-|chunkId-RBP|chunkType-child|stype-|voicetype-	5	lwg__rp	_	_
7	sAikila	sAikila	NN	n	lex-sAikila|cat-n|gen-f|num-sg|pers-3|case-d|vib-0|tam-0|chunkId-NP4|chunkType-head|stype-|voicetype-	8	k2	_	_
8	calAne	calA	VM	v	lex-calA|cat-v|gen-any|num-any|pers-any|case-o|vib-nA_ke_lie|tam-nA|chunkId-VGNN|chunkType-head|stype-|voicetype-	11	rt	_	_
9	ke	ke	PSP	psp	lex-ke|cat-psp|gen-|num-|pers-|case-|vib-|tam-|chunkId-VGNN|chunkType-child|stype-|voicetype-	8	lwg__psp	_	_
10	lie	lie	PSP	psp	lex-lie|cat-psp|gen-|num-|pers-|case-|vib-|tam-|chunkId-VGNN|chunkType-child|stype-|voicetype-	8	lwg__psp	_	_
11	macala	macala	VM	v	lex-macala|cat-v|gen-any|num-sg|pers-3|case-|vib-0_uTa+gA|tam-0|chunkId-VGF|chunkType-head|stype-declarative|voicetype-active	0	main	_	_
12	uTegA	uTa	VAUX	v	lex-uTa|cat-v|gen-m|num-sg|pers-3|case-|vib-gA|tam-gA|chunkId-VGF|chunkType-child|stype-|voicetype-	11	lwg__vaux	_	_
13	.	.	SYM	punc	lex-.|cat-punc|gen-|num-|pers-|case-|vib-|tam-|chunkId-BLK|chunkType-head|stype-|voicetype-	11	rsym	_	_

1	pramuKa	pramuKa	JJ	adj	lex-pramuKa|cat-adj|gen-any|num-any|pers-|case-d|vib-|tam-|chunkId-NP|chunkType-child|stype-|voicetype-	2	nmod__adj	_	_
2	AkarRaNa	AkarRaNa	NN	n	lex-AkarRaNa|cat-n|gen-m|num-sg|pers-3|case-d|vib-0|tam-0|chunkId-NP|chunkType-head|stype-|voicetype-	3	nmod	_	_
3	em‍s‍tardama	em‍s‍tardama	NNP	n	lex-em‍s‍tardama|cat-n|gen-m|num-sg|pers-3|case-d|vib-0|tam-0|chunkId-NP2|chunkType-head|stype-|voicetype-	0	main	_	_
4	-	-	SYM	punc	lex--|cat-punc|gen-|num-|pers-|case-|vib-|tam-|chunkId-BLK|chunkType-head|stype-|voicetype-	3	rsym	_	_

1	yaha	yaha	PRP	pn	lex-yaha|cat-pn|gen-any|num-sg|pers-3|case-d|vib-0|tam-0|chunkId-NP|chunkType-head|stype-|voicetype-	5	k1	_	_
2	nIxaralEMda	nIxaralEMda	NNP	n	lex-nIxaralEMda|cat-n|gen-m|num-sg|pers-3|case-o|vib-0_kA|tam-0|chunkId-NP2|chunkType-head|stype-|voicetype-	4	r6	_	_
3	kI	kA	PSP	psp	lex-kA|cat-psp|gen-f|num-sg|pers-|case-d|vib-|tam-|chunkId-NP2|chunkType-child|stype-|voicetype-	2	lwg__psp	_	_
4	rAjaXAnI	rAjaXAnI	NN	n	lex-rAjaXAnI|cat-n|gen-f|num-sg|pers-3|case-d|vib-0|tam-0|chunkId-NP3|chunkType-head|stype-|voicetype-	5	k1s	_	_
5	hE	hE	VM	v	lex-hE|cat-v|gen-any|num-sg|pers-3|case-|vib-hE|tam-hE|chunkId-VGF|chunkType-head|stype-declarative|voicetype-active	0	main	_	_
6	.	.	SYM	punc	lex-.|cat-punc|gen-|num-|pers-|case-|vib-|tam-|chunkId-BLK|chunkType-head|stype-|voicetype-	5	rsym	_	_

1	yaha	yaha	PRP	pn	lex-yaha|cat-pn|gen-any|num-sg|pers-3|case-d|vib-0|tam-0|chunkId-NP|chunkType-head|stype-|voicetype-	9	k1	_	_
2	xuniyA	xuniyA	NN	n	lex-xuniyA|cat-n|gen-f|num-sg|pers-3|case-o|vib-0_kA|tam-0|chunkId-NP2|chunkType-head|stype-|voicetype-	6	r6	_	_
3	ke	kA	PSP	psp	lex-kA|cat-psp|gen-m|num-pl|pers-|case-o|vib-|tam-|chunkId-NP2|chunkType-child|stype-|voicetype-	2	lwg__psp	_	_
4	sabase	sabase	INTF	avy	lex-sabase|cat-avy|gen-|num-|pers-|case-|vib-|tam-|chunkId-NP3|chunkType-child|stype-|voicetype-	5	jjmod__intf	_	_
5	raMgIna	raMgIna	JJ	adj	lex-raMgIna|cat-adj|gen-any|num-any|pers-|case-o|vib-|tam-|chunkId-NP3|chunkType-child|stype-|voicetype-	6	nmod__adj	_	_
6	SaharoM	Sahara	NN	n	lex-Sahara|cat-n|gen-m|num-pl|pers-3|case-o|vib-0_meM|tam-0|chunkId-NP3|chunkType-head|stype-|voicetype-	9	k7p	_	_
7	meM	meM	PSP	psp	lex-meM|cat-psp|gen-|num-|pers-|case-|vib-|tam-|chunkId-NP3|chunkType-child|stype-|voicetype-	6	lwg__psp	_	_
8	SumAra	SumAra	JJ	adj	lex-SumAra|cat-adj|gen-any|num-any|pers-|case-|vib-|tam-|chunkId-JJP|chunkType-head|stype-|voicetype-	9	k1s	_	_
9	hE	hE	VM	v	lex-hE|cat-v|gen-any|num-sg|pers-3|case-|vib-hE|tam-hE|chunkId-VGF|chunkType-head|stype-declarative|voicetype-active	0	main	_	_
10	.	.	SYM	punc	lex-.|cat-punc|gen-|num-|pers-|case-|vib-|tam-|chunkId-BLK|chunkType-head|stype-|voicetype-	9	rsym	_	_

1	yahAz	yahAz	PRP	pn	lex-yahAz|cat-pn|gen-|num-|pers-|case-d|vib-|tam-|chunkId-NP|chunkType-head|stype-|voicetype-	22	k7p	_	_
2	Apa	Apa	PRP	pn	lex-Apa|cat-pn|gen-any|num-sg|pers-2h|case-d|vib-0|tam-0|chunkId-NP2|chunkType-head|stype-|voicetype-	22	k1	_	_
3	KUbasUrawa	KUbasUrawa	JJ	adj	lex-KUbasUrawa|cat-adj|gen-any|num-any|pers-|case-o|vib-|tam-|chunkId-NP3|chunkType-child|stype-|voicetype-	4	nmod__adj	_	_
4	myUjiyama	myUjiyama	NN	n	lex-myUjiyama|cat-n|gen-m|num-sg|pers-3|case-o|vib-0|tam-0|chunkId-NP3|chunkType-head|stype-|voicetype-	9	ccof	_	_
5	,	COMMA	SYM	punc	lex-COMMA|cat-punc|gen-|num-|pers-|case-|vib-|tam-|chunkId-NP3|chunkType-child|stype-|voicetype-	4	rsym	_	_
6	SAnaxAra	SAnaxAra	JJ	adj	lex-SAnaxAra|cat-adj|gen-any|num-any|pers-|case-o|vib-|tam-|chunkId-NP4|chunkType-child|stype-|voicetype-	7	nmod__adj	_	_
7	paba	paba	NN	n	lex-paba|cat-n|gen-m|num-sg|pers-3|case-o|vib-0|tam-0|chunkId-NP4|chunkType-head|stype-|voicetype-	9	ccof	_	_
8	,	COMMA	SYM	punc	lex-COMMA|cat-punc|gen-|num-|pers-|case-|vib-|tam-|chunkId-NP4|chunkType-child|stype-|voicetype-	7	rsym	_	_
9	NULL	_	CC	_	lex-_|cat-_|gen-|num-|pers-|case-|vib-|tam-|chunkId-NULL__CCP|chunkType-head|stype-|voicetype-	22	vmod	_	_
10	acCe	acCA	JJ	adj	lex-acCA|cat-adj|gen-m|num-sg|pers-|case-o|vib-|tam-|chunkId-NP5|chunkType-child|stype-|voicetype-	11	nmod__adj	_	_
11	reswrAz	reswrAz	NN	n	lex-reswrAz|cat-n|gen-m|num-sg|pers-3|case-o|vib-0_ke_sAWa|tam-0|chunkId-NP5|chunkType-head|stype-|voicetype-	9	ccof	_	_
12	ke	ke	PSP	psp	lex-ke|cat-psp|gen-|num-|pers-|case-|vib-|tam-|chunkId-NP5|chunkType-child|stype-|voicetype-	11	lwg__psp	_	_
13	sAWa	sAWa	NST	nst	lex-sAWa|cat-nst|gen-m|num-sg|pers-3|case-d|vib-|tam-|chunkId-NP5|chunkType-child|stype-|voicetype-	11	lwg__psp	_	_
14	-	-	SYM	punc	lex--|cat-punc|gen-|num-|pers-|case-|vib-|tam-|chunkId-NP5|chunkType-child|stype-|voicetype-	11	rsym	_	_
15	sAWa	sAWa	RDP	nst	lex-sAWa|cat-nst|gen-m|num-sg|pers-3|case-d|vib-|tam-|chunkId-NP5|chunkType-child|stype-|voicetype-	14	pof__redup	_	_
16	KUbasUrawa	KUbasUrawa	JJ	adj	lex-KUbasUrawa|cat-adj|gen-any|num-any|pers-|case-o|vib-|tam-|chunkId-NP6|chunkType-child|stype-|voicetype-	17	nmod__adj	_	_
17	PUloM	PUla	NN	n	lex-PUla|cat-n|gen-m|num-pl|pers-3|case-o|vib-0_kA|tam-0|chunkId-NP6|chunkType-head|stype-|voicetype-	19	r6	_	_
18	ke	kA	PSP	psp	lex-kA|cat-psp|gen-m|num-sg|pers-|case-o|vib-|tam-|chunkId-NP6|chunkType-child|stype-|voicetype-	17	lwg__psp	_	_
19	mArketa	mArketa	NN	n	lex-mArketa|cat-n|gen-m|num-sg|pers-3|case-o|vib-0_kA|tam-0|chunkId-NP7|chunkType-head|stype-|voicetype-	21	r6-k2	_	_
20	kA	kA	PSP	psp	lex-kA|cat-psp|gen-m|num-sg|pers-|case-d|vib-|tam-|chunkId-NP7|chunkType-child|stype-|voicetype-	19	lwg__psp	_	_
21	jAyajA	jAyajA	NN	n	lex-jAyajA|cat-n|gen-m|num-sg|pers-3|case-d|vib-0|tam-0|chunkId-NP8|chunkType-head|stype-|voicetype-	22	pof	_	_
22	le	le	VM	v	lex-le|cat-v|gen-m|num-sg|pers-2h|case-|vib-0_saka+wA_hE|tam-0|chunkId-VGF|chunkType-head|stype-declarative|voicetype-active	0	main	_	_
23	sakawe	saka	VAUX	v	lex-saka|cat-v|gen-m|num-sg|pers-2h|case-|vib-wA|tam-wA|chunkId-VGF|chunkType-child|stype-|voicetype-	22	lwg__vaux	_	_
24	hEM	hE	VAUX	v	lex-hE|cat-v|gen-any|num-sg|pers-2h|case-|vib-hE|tam-hE|chunkId-VGF|chunkType-child|stype-|voicetype-	22	lwg__vaux	_	_
25	.	.	SYM	punc	lex-.|cat-punc|gen-|num-|pers-|case-|vib-|tam-|chunkId-BLK|chunkType-head|stype-|voicetype-	22	rsym	_	_

1	yaha	yaha	DEM	pn	lex-yaha|cat-pn|gen-any|num-sg|pers-3|case-d|vib-|tam-|chunkId-NP|chunkType-child|stype-|voicetype-	2	nmod__adj	_	_
2	Sahara	Sahara	NN	n	lex-Sahara|cat-n|gen-m|num-sg|pers-3|case-d|vib-0|tam-0|chunkId-NP|chunkType-head|stype-|voicetype-	7	k1	_	_
3	kaI	kaI	QF	avy	lex-kaI|cat-avy|gen-|num-|pers-|case-|vib-|tam-|chunkId-NP2|chunkType-child|stype-|voicetype-	5	nmod__adj	_	_
4	KUbasUrawa	KUbasUrawa	JJ	adj	lex-KUbasUrawa|cat-adj|gen-any|num-any|pers-|case-o|vib-|tam-|chunkId-NP2|chunkType-child|stype-|voicetype-	5	nmod__adj	_	_
5	naharoM	nahara	NN	n	lex-nahara|cat-n|gen-f|num-pl|pers-3|case-o|vib-0_se|tam-0|chunkId-NP2|chunkType-head|stype-|voicetype-	7	ras-k1	_	_
6	se	se	PSP	psp	lex-se|cat-psp|gen-|num-|pers-|case-|vib-|tam-|chunkId-NP2|chunkType-child|stype-|voicetype-	5	lwg__psp	_	_
7	judZA	juda	VM	v	lex-juda|cat-v|gen-m|num-sg|pers-3|case-|vib-yA_hE|tam-yA|chunkId-VGF|chunkType-head|stype-declarative|voicetype-active	0	main	_	_
8	hE	hE	VAUX	v	lex-hE|cat-v|gen-any|num-sg|pers-3|case-|vib-hE|tam-hE|chunkId-VGF|chunkType-child|stype-|voicetype-	7	lwg__vaux	_	_
9	.	.	SYM	punc	lex-.|cat-punc|gen-|num-|pers-|case-|vib-|tam-|chunkId-BLK|chunkType-head|stype-|voicetype-	7	rsym	_	_

1	yaxi	yaxi	CC	avy	lex-yaxi|cat-avy|gen-|num-|pers-|case-|vib-|tam-|chunkId-CCP|chunkType-head|stype-|voicetype-	11	vmod	_	_
2	Apa	Apa	PRP	pn	lex-Apa|cat-pn|gen-any|num-sg|pers-2h|case-d|vib-0|tam-0|chunkId-NP|chunkType-head|stype-|voicetype-	4	k1	_	_
3	yahAz	yahAz	PRP	pn	lex-yahAz|cat-pn|gen-|num-|pers-|case-d|vib-|tam-|chunkId-NP2|chunkType-head|stype-|voicetype-	4	k7p	_	_
4	Aez	A	VM	v	lex-A|cat-v|gen-any|num-sg|pers-2h|case-|vib-eM|tam-eM|chunkId-VGF|chunkType-head|stype-declarative|voicetype-active	1	ccof	_	_
5	wo	wo	CC	avy	lex-wo|cat-avy|gen-|num-|pers-|case-|vib-|tam-|chunkId-CCP2|chunkType-head|stype-|voicetype-	0	main	_	_
6	krUja	krUja	NN	n	lex-krUja|cat-n|gen-m|num-sg|pers-3|case-o|vib-0_meM|tam-0|chunkId-NP3|chunkType-head|stype-|voicetype-	9	k7p	_	_
7	meM	meM	PSP	psp	lex-meM|cat-psp|gen-|num-|pers-|case-|vib-|tam-|chunkId-NP3|chunkType-child|stype-|voicetype-	6	lwg__psp	_	_
8	sEra	sEra	NN	n	lex-sEra|cat-n|gen-f|num-sg|pers-3|case-d|vib-0|tam-0|chunkId-NP4|chunkType-head|stype-|voicetype-	9	pof	_	_
9	karanA	kara	VM	v	lex-kara|cat-v|gen-any|num-any|pers-any|case-d|vib-nA|tam-nA|chunkId-VGNN|chunkType-head|stype-|voicetype-	11	k2	_	_
10	na	na	NEG	avy	lex-na|cat-avy|gen-|num-|pers-|case-|vib-|tam-|chunkId-VGF2|chunkType-child|stype-|voicetype-	11	lwg__neg	_	_
11	BUleM	BUla	VM	v	lex-BUla|cat-v|gen-any|num-sg|pers-2h|case-|vib-eM|tam-eM|chunkId-VGF2|chunkType-head|stype-declarative|voicetype-active	5	ccof	_	_
12	.	.	SYM	punc	lex-.|cat-punc|gen-|num-|pers-|case-|vib-|tam-|chunkId-BLK|chunkType-head|stype-|voicetype-	5	rsym	_	_

1	naharoM	nahara	NN	n	lex-nahara|cat-n|gen-f|num-pl|pers-3|case-o|vib-0_ke|tam-0|chunkId-NP|chunkType-head|stype-|voicetype-	3	r6	_	_
2	ke	ke	PSP	psp	lex-ke|cat-psp|gen-|num-|pers-|case-|vib-|tam-|chunkId-NP|chunkType-child|stype-|voicetype-	1	lwg__psp	_	_
3	xonoM	xo	QC	num	lex-xo|cat-num|gen-any|num-pl|pers-|case-d|vib-|tam-|chunkId-NP2|chunkType-head|stype-|voicetype-	8	rd	_	_
4	ora	ora	NST	nst	lex-ora|cat-nst|gen-f|num-pl|pers-3|case-d|vib-|tam-|chunkId-NP2|chunkType-child|stype-|voicetype-	3	lwg__psp	_	_
5	tyUlipa	tyUlipa	NN	n	lex-tyUlipa|cat-n|gen-m|num-sg|pers-3|case-o|vib-0_kA|tam-0|chunkId-NP3|chunkType-head|stype-|voicetype-	7	r6	_	_
6	ke	kA	PSP	psp	lex-kA|cat-psp|gen-m|num-pl|pers-|case-d|vib-|tam-|chunkId-NP3|chunkType-child|stype-|voicetype-	5	lwg__psp	_	_
7	PUla	PUla	NN	n	lex-PUla|cat-n|gen-m|num-pl|pers-3|case-d|vib-0|tam-0|chunkId-NP4|chunkType-head|stype-|voicetype-	8	k1	_	_
8	Kile	Kila	VM	v	lex-Kila|cat-v|gen-m|num-pl|pers-3|case-|vib-yA_raha+wA_hE|tam-yA|chunkId-VGF|chunkType-head|stype-declarative|voicetype-active	0	main	_	_
9	rahawe	raha	VAUX	v	lex-raha|cat-v|gen-m|num-pl|pers-any|case-|vib-wA|tam-wA|chunkId-VGF|chunkType-child|stype-|voicetype-	8	lwg__vaux	_	_
10	hEM	hE	VAUX	v	lex-hE|cat-v|gen-any|num-pl|pers-3|case-|vib-hE|tam-hE|chunkId-VGF|chunkType-child|stype-|voicetype-	8	lwg__vaux	_	_
11	.	.	SYM	punc	lex-.|cat-punc|gen-|num-|pers-|case-|vib-|tam-|chunkId-BLK|chunkType-head|stype-|voicetype-	8	rsym	_	_

1	isa	yaha	DEM	pn	lex-yaha|cat-pn|gen-any|num-sg|pers-3|case-o|vib-|tam-|chunkId-NP|chunkType-child|stype-|voicetype-	3	nmod__adj	_	_
2	KUbasUrawa	KUbasUrawa	JJ	adj	lex-KUbasUrawa|cat-adj|gen-any|num-any|pers-|case-o|vib-|tam-|chunkId-NP|chunkType-child|stype-|voicetype-	3	nmod__adj	_	_
3	samAz	samAz	NN	n	lex-samAz|cat-n|gen-m|num-sg|pers-3|case-o|vib-0_meM|tam-0|chunkId-NP|chunkType-head|stype-|voicetype-	15	k7	_	_
4	meM	meM	PSP	psp	lex-meM|cat-psp|gen-|num-|pers-|case-|vib-|tam-|chunkId-NP|chunkType-child|stype-|voicetype-	3	lwg__psp	_	_
5	apane	apanA	PRP	pn	lex-apanA|cat-pn|gen-m|num-any|pers-any|case-o|vib-0|tam-0|chunkId-NP2|chunkType-head|stype-|voicetype-	6	r6	_	_
6	sAWI	sAWI	NN	n	lex-sAWI|cat-n|gen-m|num-sg|pers-3|case-o|vib-0_ke_sAWa|tam-0|chunkId-NP3|chunkType-head|stype-|voicetype-	15	ras-k1	_	_
7	ke	ke	PSP	psp	lex-ke|cat-psp|gen-|num-|pers-|case-|vib-|tam-|chunkId-NP3|chunkType-child|stype-|voicetype-	6	lwg__psp	_	_
8	sAWa	sAWa	NST	nst	lex-sAWa|cat-nst|gen-m|num-sg|pers-3|case-d|vib-|tam-|chunkId-NP3|chunkType-child|stype-|voicetype-	6	lwg__psp	_	_
9	krUja	krUja	NN	n	lex-krUja|cat-n|gen-m|num-sg|pers-3|case-o|vib-0_kA|tam-0|chunkId-NP4|chunkType-head|stype-|voicetype-	11	r6	_	_
10	kI	kA	PSP	psp	lex-kA|cat-psp|gen-f|num-sg|pers-|case-d|vib-|tam-|chunkId-NP4|chunkType-child|stype-|voicetype-	9	lwg__psp	_	_
11	sEra	sEra	NN	n	lex-sEra|cat-n|gen-f|num-sg|pers-3|case-d|vib-0|tam-0|chunkId-NP5|chunkType-head|stype-|voicetype-	15	k1	_	_
12	eka	eka	QC	num	lex-eka|cat-num|gen-any|num-any|pers-|case-any|vib-|tam-|chunkId-NP6|chunkType-child|stype-|voicetype-	14	nmod__adj	_	_
13	anoKA	anoKA	JJ	adj	lex-anoKA|cat-adj|gen-m|num-sg|pers-|case-d|vib-|tam-|chunkId-NP6|chunkType-child|stype-|voicetype-	14	nmod__adj	_	_
14	anuBava	anuBava	NN	n	lex-anuBava|cat-n|gen-m|num-sg|pers-3|case-d|vib-0|tam-0|chunkId-NP6|chunkType-head|stype-|voicetype-	15	pof	_	_
15	hogA	ho	VM	v	lex-ho|cat-v|gen-m|num-sg|pers-3|case-|vib-gA|tam-gA|chunkId-VGF|chunkType-head|stype-declarative|voicetype-active	0	main	_	_
16	.	.	SYM	punc	lex-.|cat-punc|gen-|num-|pers-|case-|vib-|tam-|chunkId-BLK|chunkType-head|stype-|voicetype-	15	rsym	_	_

1	Pira	Pira	RB	adv	lex-Pira|cat-adv|gen-|num-|pers-|case-|vib-|tam-|chunkId-RBP|chunkType-head|stype-|voicetype-	9	adv	_	_
2	yaxi	yaxi	CC	avy	lex-yaxi|cat-avy|gen-|num-|pers-|case-|vib-|tam-|chunkId-CCP|chunkType-head|stype-|voicetype-	15	vmod	_	_
3	nAita	nAita	NN	n	lex-nAita|cat-n|gen-f|num-sg|pers-3|case-o|vib-0_meM|tam-0|chunkId-NP|chunkType-head|stype-|voicetype-	9	k7t	_	_
4	meM	meM	PSP	psp	lex-meM|cat-psp|gen-|num-|pers-|case-|vib-|tam-|chunkId-NP|chunkType-child|stype-|voicetype-	3	lwg__psp	_	_
5	vAina	vAina	NNC	n	lex-vAina|cat-n|gen-f|num-sg|pers-3|case-d|vib-0|tam-0|chunkId-NP2|chunkType-child|stype-|voicetype-	6	pof__cn	_	_
6	krUja	krUja	NN	n	lex-krUja|cat-n|gen-m|num-sg|pers-3|case-o|vib-0_kA|tam-0|chunkId-NP2|chunkType-head|stype-|voicetype-	8	r6-k2	_	_
7	kA	kA	PSP	psp	lex-kA|cat-psp|gen-m|num-sg|pers-|case-d|vib-|tam-|chunkId-NP2|chunkType-child|stype-|voicetype-	6	lwg__psp	_	_
8	luwPa	luwPa	NN	n	lex-luwPa|cat-n|gen-m|num-sg|pers-3|case-d|vib-0|tam-0|chunkId-NP3|chunkType-head|stype-|voicetype-	9	pof	_	_
9	uTAyA	uTA	VM	v	lex-uTA|cat-v|gen-m|num-sg|pers-3|case-|vib-yA_jA+eM|tam-yA|chunkId-VGF|chunkType-head|stype-declarative|voicetype-active	2	ccof	_	_
10	jAe	jA	VAUX	v	lex-jA|cat-v|gen-any|num-sg|pers-3|case-|vib-eM|tam-eM|chunkId-VGF|chunkType-child|stype-|voicetype-	9	lwg__vaux	_	_
11	wo	wo	CC	avy	lex-wo|cat-avy|gen-|num-|pers-|case-|vib-|tam-|chunkId-CCP2|chunkType-head|stype-|voicetype-	0	main	_	_
12	kahanA	kaha	VM	v	lex-kaha|cat-v|gen-any|num-any|pers-any|case-d|vib-nA|tam-nA|chunkId-VGNN|chunkType-head|stype-|voicetype-	15	k1	_	_
13	hI	hI	RP	avy	lex-hI|cat-avy|gen-|num-|pers-|case-|vib-|tam-|chunkId-VGNN|chunkType-child|stype-|voicetype-	12	lwg__rp	_	_
14	kyA	kyA	WQ	pn	lex-kyA|cat-pn|gen-|num-|pers-|case-|vib-|tam-|chunkId-NP4|chunkType-head|stype-|voicetype-	15	k1s	_	_
15	NULL	_	VM	_	lex-_|cat-_|gen-|num-|pers-|case-|vib-|tam-|chunkId-NULL__VGF|chunkType-head|stype-|voicetype-	11	ccof	_	_
16	.	.	SYM	punc	lex-.|cat-punc|gen-|num-|pers-|case-|vib-|tam-|chunkId-BLK|chunkType-head|stype-|voicetype-	11	rsym	_	_

1	yahAz	yahAz	PRP	pn	lex-yahAz|cat-pn|gen-|num-|pers-|case-d|vib-|tam-|chunkId-NP|chunkType-head|stype-|voicetype-	11	k7p	_	_
2	samara	samara	NN	n	lex-samara|cat-n|gen-m|num-sg|pers-3|case-o|vib-0_meM|tam-0|chunkId-NP2|chunkType-head|stype-|voicetype-	11	k7t	_	_
3	meM	meM	PSP	psp	lex-meM|cat-psp|gen-|num-|pers-|case-|vib-|tam-|chunkId-NP2|chunkType-child|stype-|voicetype-	2	lwg__psp	_	_
4	kEnAla	kEnAla	NNPC	n	lex-kEnAla|cat-n|gen-f|num-sg|pers-3|case-d|vib-0|tam-0|chunkId-NP3|chunkType-child|stype-|voicetype-	6	pof__cn	_	_
5	hAusa	hAusa	NNPC	n	lex-hAusa|cat-n|gen-m|num-sg|pers-3|case-d|vib-0|tam-0|chunkId-NP3|chunkType-child|stype-|voicetype-	6	pof__cn	_	_
6	gArdana	gArdana	NNP	n	lex-gArdana|cat-n|gen-m|num-sg|pers-3|case-d|vib-0|tam-0|chunkId-NP3|chunkType-head|stype-|voicetype-	11	k2	_	_
7	Ama	Ama	JJ	adj	lex-Ama|cat-adj|gen-any|num-any|pers-|case-o|vib-|tam-|chunkId-NP4|chunkType-child|stype-|voicetype-	8	nmod__adj	_	_
8	logoM	loga	NN	n	lex-loga|cat-n|gen-m|num-pl|pers-3|case-o|vib-0_ke_lie|tam-0|chunkId-NP4|chunkType-head|stype-|voicetype-	11	rt	_	_
9	ke	ke	PSP	psp	lex-ke|cat-psp|gen-|num-|pers-|case-|vib-|tam-|chunkId-NP4|chunkType-child|stype-|voicetype-	8	lwg__psp	_	_
10	lie	lie	PSP	psp	lex-lie|cat-psp|gen-|num-|pers-|case-|vib-|tam-|chunkId-NP4|chunkType-child|stype-|voicetype-	8	lwg__psp	_	_
11	Kola	Kola	VM	v	lex-Kola|cat-v|gen-m|num-sg|pers-3|case-|vib-0_xe+yA_jA+wA_hE|tam-0|chunkId-VGF|chunkType-head|stype-declarative|voicetype-passive	0	main	_	_
12	xiyA	xe	VAUX	v	lex-xe|cat-v|gen-m|num-sg|pers-any|case-|vib-yA|tam-yA|chunkId-VGF|chunkType-child|stype-|voicetype-	11	lwg__vaux	_	_
13	jAwA	jA	VAUX	v	lex-jA|cat-v|gen-m|num-sg|pers-any|case-|vib-wA|tam-wA|chunkId-VGF|chunkType-child|stype-|voicetype-	11	lwg__vaux	_	_
14	hE	hE	VAUX	v	lex-hE|cat-v|gen-any|num-sg|pers-3|case-|vib-hE|tam-hE|chunkId-VGF|chunkType-child|stype-|voicetype-	11	lwg__vaux	_	_
15	.	.	SYM	punc	lex-.|cat-punc|gen-|num-|pers-|case-|vib-|tam-|chunkId-BLK|chunkType-head|stype-|voicetype-	11	rsym	_	_

1	yahAz	yahAz	PRP	pn	lex-yahAz|cat-pn|gen-|num-|pers-|case-o|vib-0_kA|tam-|chunkId-NP|chunkType-head|stype-|voicetype-	3	r6	_	_
2	kI	kA	PSP	psp	lex-kA|cat-psp|gen-f|num-sg|pers-|case-d|vib-|tam-|chunkId-NP|chunkType-child|stype-|voicetype-	1	lwg__psp	_	_
3	KUbasUrawI	KUbasUrawI	NN	n	lex-KUbasUrawI|cat-n|gen-f|num-sg|pers-3|case-d|vib-0|tam-0|chunkId-NP2|chunkType-head|stype-|voicetype-	4	ccof	_	_
4	Ora	Ora	CC	avy	lex-Ora|cat-avy|gen-|num-|pers-|case-|vib-|tam-|chunkId-CCP|chunkType-head|stype-|voicetype-	6	k2	_	_
5	hariyAlI	hariyAlI	NN	n	lex-hariyAlI|cat-n|gen-f|num-sg|pers-3|case-d|vib-0|tam-0|chunkId-NP3|chunkType-head|stype-|voicetype-	4	ccof	_	_
6	xeKawe	xeKa	VM	v	lex-xeKa|cat-v|gen-m|num-sg|pers-any|case-|vib-wA|tam-wA|chunkId-VGNF|chunkType-head|stype-|voicetype-	8	vmod	_	_
7	hI	hI	RP	avy	lex-hI|cat-avy|gen-|num-|pers-|case-|vib-|tam-|chunkId-VGNF|chunkType-child|stype-|voicetype-	6	lwg__rp	_	_
8	banawI	bana	VM	v	lex-bana|cat-v|gen-f|num-sg|pers-3|case-|vib-wA_hE|tam-wA|chunkId-VGF|chunkType-head|stype-declarative|voicetype-active	0	main	_	_
9	hE	hE	VAUX	v	lex-hE|cat-v|gen-any|num-sg|pers-3|case-|vib-hE|tam-hE|chunkId-VGF|chunkType-child|stype-|voicetype-	8	lwg__vaux	_	_
10	.	.	SYM	punc	lex-.|cat-punc|gen-|num-|pers-|case-|vib-|tam-|chunkId-BLK|chunkType-head|stype-|voicetype-	8	rsym	_	_

1	yahAz	yahAz	PRP	pn	lex-yahAz|cat-pn|gen-|num-|pers-|case-d|vib-|tam-|chunkId-NP|chunkType-head|stype-|voicetype-	11	k7p	_	_
2	yUropa	yUropa	NNP	n	lex-yUropa|cat-n|gen-m|num-sg|pers-3|case-o|vib-0_kA|tam-0|chunkId-NP2|chunkType-head|stype-|voicetype-	6	r6	_	_
3	kA	kA	PSP	psp	lex-kA|cat-psp|gen-m|num-sg|pers-|case-d|vib-|tam-|chunkId-NP2|chunkType-child|stype-|voicetype-	2	lwg__psp	_	_
4	sabase	sabase	INTF	avy	lex-sabase|cat-avy|gen-|num-|pers-|case-|vib-|tam-|chunkId-NP3|chunkType-child|stype-|voicetype-	5	jjmod__intf	_	_
5	purAnA	purAnA	JJ	adj	lex-purAnA|cat-adj|gen-m|num-sg|pers-|case-d|vib-|tam-|chunkId-NP3|chunkType-child|stype-|voicetype-	6	nmod__adj	_	_
6	jU	jU	NN	n	lex-jU|cat-n|gen-m|num-sg|pers-3|case-d|vib-0|tam-0|chunkId-NP3|chunkType-head|stype-|voicetype-	11	k1	_	_
7	'	SINGLE_QUOTE	SYM	punc	lex-SINGLE_QUOTE|cat-punc|gen-|num-|pers-|case-|vib-|tam-|chunkId-NP4|chunkType-child|stype-|voicetype-	9	rsym	_	_
8	Aratisa	Aratisa	NNPC	n	lex-Aratisa|cat-n|gen-m|num-sg|pers-3|case-d|vib-0|tam-0|chunkId-NP4|chunkType-child|stype-|voicetype-	9	pof__cn	_	_
9	jUra	jUra	NNP	n	lex-jUra|cat-n|gen-m|num-sg|pers-3|case-d|vib-0|tam-0|chunkId-NP4|chunkType-head|stype-|voicetype-	11	k1s	_	_
10	'	SINGLE_QUOTE	SYM	punc	lex-SINGLE_QUOTE|cat-punc|gen-|num-|pers-|case-|vib-|tam-|chunkId-NP4|chunkType-child|stype-|voicetype-	9	rsym	_	_
11	hE	hE	VM	v	lex-hE|cat-v|gen-any|num-sg|pers-3|case-|vib-hE|tam-hE|chunkId-VGF|chunkType-head|stype-declarative|voicetype-active	0	main	_	_
12	.	.	SYM	punc	lex-.|cat-punc|gen-|num-|pers-|case-|vib-|tam-|chunkId-BLK|chunkType-head|stype-|voicetype-	11	rsym	_	_

1	yahAz	yahAz	PRP	pn	lex-yahAz|cat-pn|gen-|num-|pers-|case-d|vib-|tam-|chunkId-NP|chunkType-head|stype-|voicetype-	11	k7p	_	_
2	Apa	Apa	PRP	pn	lex-Apa|cat-pn|gen-any|num-sg|pers-2h|case-d|vib-0|tam-0|chunkId-NP2|chunkType-head|stype-|voicetype-	11	k1	_	_
3	raMgIna	raMgIna	JJ	adj	lex-raMgIna|cat-adj|gen-any|num-any|pers-|case-o|vib-|tam-|chunkId-NP3|chunkType-child|stype-|voicetype-	4	nmod__adj	_	_
4	pariMxoM	pariMxA	NN	n	lex-pariMxA|cat-n|gen-m|num-pl|pers-3|case-o|vib-0_se|tam-0|chunkId-NP3|chunkType-head|stype-|voicetype-	6	k5	_	_
5	se	se	PSP	psp	lex-se|cat-psp|gen-|num-|pers-|case-|vib-|tam-|chunkId-NP3|chunkType-child|stype-|voicetype-	4	lwg__psp	_	_
6	lekara	le	VM	v	lex-le|cat-v|gen-any|num-any|pers-any|case-|vib-kara|tam-kara|chunkId-VGNF|chunkType-head|stype-|voicetype-	9	nmod	_	_
7	nirAle	nirAlA	JJ	adj	lex-nirAlA|cat-adj|gen-m|num-pl|pers-|case-o|vib-|tam-|chunkId-NP4|chunkType-child|stype-|voicetype-	9	nmod__adj	_	_
8	vanya	vanya	JJ	adj	lex-vanya|cat-adj|gen-any|num-any|pers-|case-o|vib-|tam-|chunkId-NP4|chunkType-child|stype-|voicetype-	9	nmod__adj	_	_
9	jIvoM	jIva	NN	n	lex-jIva|cat-n|gen-m|num-pl|pers-3|case-o|vib-0_ko|tam-0|chunkId-NP4|chunkType-head|stype-|voicetype-	11	k2	_	_
10	ko	ko	PSP	psp	lex-ko|cat-psp|gen-|num-|pers-|case-|vib-|tam-|chunkId-NP4|chunkType-child|stype-|voicetype-	9	lwg__psp	_	_
11	nihAra	nihAra	VM	v	lex-nihAra|cat-v|gen-m|num-sg|pers-2h|case-|vib-0_saka+wA_hE|tam-0|chunkId-VGF|chunkType-head|stype-declarative|voicetype-active	0	main	_	_
12	sakawe	saka	VAUX	v	lex-saka|cat-v|gen-m|num-sg|pers-2h|case-|vib-wA|tam-wA|chunkId-VGF|chunkType-child|stype-|voicetype-	11	lwg__vaux	_	_
13	hEM	hE	VAUX	v	lex-hE|cat-v|gen-any|num-sg|pers-2h|case-|vib-hE|tam-hE|chunkId-VGF|chunkType-child|stype-|voicetype-	11	lwg__vaux	_	_
14	.	.	SYM	punc	lex-.|cat-punc|gen-|num-|pers-|case-|vib-|tam-|chunkId-BLK|chunkType-head|stype-|voicetype-	11	rsym	_	_

1	em‍s‍tardama	em‍s‍tardama	NNP	n	lex-em‍s‍tardama|cat-n|gen-m|num-sg|pers-3|case-o|vib-0_kA|tam-0|chunkId-NP|chunkType-head|stype-|voicetype-	3	r6	_	_
2	ke	kA	PSP	psp	lex-kA|cat-psp|gen-m|num-sg|pers-|case-o|vib-|tam-|chunkId-NP|chunkType-child|stype-|voicetype-	1	lwg__psp	_	_
3	xakRiNa	xakRiNa	NN	n	lex-xakRiNa|cat-n|gen-m|num-sg|pers-3|case-o|vib-0_meM|tam-0|chunkId-NP2|chunkType-head|stype-|voicetype-	8	k7p	_	_
4	meM	meM	PSP	psp	lex-meM|cat-psp|gen-|num-|pers-|case-|vib-|tam-|chunkId-NP2|chunkType-child|stype-|voicetype-	3	lwg__psp	_	_
5	prasixXa	prasixXa	JJ	adj	lex-prasixXa|cat-adj|gen-any|num-any|pers-|case-d|vib-|tam-|chunkId-NP3|chunkType-child|stype-|voicetype-	7	nmod__adj	_	_
6	redalAita	redalAita	NNC	n	lex-redalAita|cat-n|gen-m|num-sg|pers-3|case-d|vib-0|tam-0|chunkId-NP3|chunkType-child|stype-|voicetype-	7	pof__cn	_	_
7	ilAkA	ilAkA	NN	n	lex-ilAkA|cat-n|gen-m|num-sg|pers-3|case-d|vib-0|tam-0|chunkId-NP3|chunkType-head|stype-|voicetype-	8	k1	_	_
8	hE	hE	VM	v	lex-hE|cat-v|gen-any|num-sg|pers-3|case-|vib-hE|tam-hE|chunkId-VGF|chunkType-head|stype-declarative|voicetype-active	0	main	_	_
9	.	.	SYM	punc	lex-.|cat-punc|gen-|num-|pers-|case-|vib-|tam-|chunkId-BLK|chunkType-head|stype-|voicetype-	8	rsym	_	_

1	yahAz	yahAz	PRP	pn	lex-yahAz|cat-pn|gen-|num-|pers-|case-d|vib-|tam-|chunkId-NP|chunkType-head|stype-|voicetype-	13	k7p	_	_
2	seksa	seksa	NNC	n	lex-seksa|cat-n|gen-m|num-sg|pers-3|case-d|vib-0|tam-0|chunkId-NP2|chunkType-child|stype-|voicetype-	3	pof__cn	_	_
3	SOYpsa	SOYpa	NN	n	lex-SOYpa|cat-n|gen-f|num-pl|pers-3|case-d|vib-0|tam-0|chunkId-NP2|chunkType-head|stype-|voicetype-	5	ccof	_	_
4	,	COMMA	SYM	punc	lex-COMMA|cat-punc|gen-|num-|pers-|case-|vib-|tam-|chunkId-NP2|chunkType-child|stype-|voicetype-	3	rsym	_	_
5	NULL	_	CC	_	lex-_|cat-_|gen-|num-|pers-|case-|vib-|tam-|chunkId-NULL__CCP|chunkType-head|stype-|voicetype-	9	k5	_	_
6	seksa	seksa	NNC	n	lex-seksa|cat-n|gen-m|num-sg|pers-3|case-d|vib-0|tam-0|chunkId-NP3|chunkType-child|stype-|voicetype-	7	pof__cn	_	_
7	myUjiyama	myUjiyama	NN	n	lex-myUjiyama|cat-n|gen-m|num-sg|pers-3|case-o|vib-0_se|tam-0|chunkId-NP3|chunkType-head|stype-|voicetype-	5	ccof	_	_
8	se	se	PSP	psp	lex-se|cat-psp|gen-|num-|pers-|case-|vib-|tam-|chunkId-NP3|chunkType-child|stype-|voicetype-	7	lwg__psp	_	_
9	lekara	le	VM	v	lex-le|cat-v|gen-any|num-any|pers-any|case-|vib-kara|tam-kara|chunkId-VGNF|chunkType-head|stype-|voicetype-	13	vmod	_	_
10	EsA	EsA	PRP	pn	lex-EsA|cat-pn|gen-m|num-sg|pers-any|case-d|vib-0|tam-0|chunkId-NP4|chunkType-head|stype-|voicetype-	13	k1	_	_
11	bahuwa	bahuwa	QF	avy	lex-bahuwa|cat-avy|gen-|num-|pers-|case-|vib-|tam-|chunkId-NP5|chunkType-child|stype-|voicetype-	12	nmod__adj	_	_
12	kuCa	kuCa	PRP	pn	lex-kuCa|cat-pn|gen-|num-|pers-|case-|vib-|tam-|chunkId-NP5|chunkType-head|stype-|voicetype-	13	k1s	_	_
13	hE	hE	VM	v	lex-hE|cat-v|gen-any|num-sg|pers-3|case-|vib-hE|tam-hE|chunkId-VGF|chunkType-head|stype-declarative|voicetype-active	0	main	_	_
14	,	COMMA	SYM	punc	lex-COMMA|cat-punc|gen-|num-|pers-|case-|vib-|tam-|chunkId-VGF|chunkType-child|stype-|voicetype-	13	rsym	_	_
15	jisakI	jo	PRP	pn	lex-jo|cat-pn|gen-f|num-sg|pers-3|case-o|vib-kA|tam-kA|chunkId-NP6|chunkType-head|stype-|voicetype-	16	r6	_	_
16	kalpanA	kalpanA	NN	n	lex-kalpanA|cat-n|gen-f|num-sg|pers-3|case-d|vib-0|tam-0|chunkId-NP7|chunkType-head|stype-|voicetype-	19	k1	_	_
17	BI	BI	RP	avy	lex-BI|cat-avy|gen-|num-|pers-|case-|vib-|tam-|chunkId-NP7|chunkType-child|stype-|voicetype-	16	lwg__rp	_	_
18	muSkila	muSkila	JJ	adj	lex-muSkila|cat-adj|gen-any|num-any|pers-|case-|vib-|tam-|chunkId-JJP|chunkType-head|stype-|voicetype-	19	k1s	_	_
19	hE	hE	VM	v	lex-hE|cat-v|gen-any|num-sg|pers-3|case-|vib-hE|tam-hE|chunkId-VGF2|chunkType-head|stype-declarative|voicetype-active	10	nmod__relc	_	_
20	.	.	SYM	punc	lex-.|cat-punc|gen-|num-|pers-|case-|vib-|tam-|chunkId-BLK|chunkType-head|stype-|voicetype-	13	rsym	_	_

1	yahAz	yahAz	PRP	pn	lex-yahAz|cat-pn|gen-|num-|pers-|case-d|vib-|tam-|chunkId-NP|chunkType-head|stype-|voicetype-	9	k7p	_	_
2	seksa	seksa	NNC	n	lex-seksa|cat-n|gen-m|num-sg|pers-3|case-d|vib-0|tam-0|chunkId-NP2|chunkType-child|stype-|voicetype-	3	pof__cn	_	_
3	varkiMga	varkiMga	NN	n	lex-varkiMga|cat-n|gen-f|num-sg|pers-3|case-o|vib-0_ko|tam-0|chunkId-NP2|chunkType-head|stype-|voicetype-	9	k4a	_	_
4	ko	ko	PSP	psp	lex-ko|cat-psp|gen-|num-|pers-|case-|vib-|tam-|chunkId-NP2|chunkType-child|stype-|voicetype-	3	lwg__psp	_	_
5	vyavasAya	vyavasAya	NN	n	lex-vyavasAya|cat-n|gen-m|num-sg|pers-3|case-o|vib-0_kA|tam-0|chunkId-NP3|chunkType-head|stype-|voicetype-	7	r6	_	_
6	kA	kA	PSP	psp	lex-kA|cat-psp|gen-m|num-sg|pers-|case-d|vib-|tam-|chunkId-NP3|chunkType-child|stype-|voicetype-	5	lwg__psp	_	_
7	xarjA	xarjA	NN	n	lex-xarjA|cat-n|gen-m|num-sg|pers-3|case-d|vib-0|tam-0|chunkId-NP4|chunkType-head|stype-|voicetype-	9	k1	_	_
8	prApwa	prApwa	JJ	adj	lex-prApwa|cat-adj|gen-any|num-any|pers-|case-|vib-|tam-|chunkId-JJP|chunkType-head|stype-|voicetype-	9	k1s	_	_
9	hE	hE	VM	v	lex-hE|cat-v|gen-any|num-sg|pers-3|case-|vib-hE|tam-hE|chunkId-VGF|chunkType-head|stype-declarative|voicetype-active	0	main	_	_
10	.	.	SYM	punc	lex-.|cat-punc|gen-|num-|pers-|case-|vib-|tam-|chunkId-BLK|chunkType-head|stype-|voicetype-	9	rsym	_	_

1	ye	yaha	DEM	pn	lex-yaha|cat-pn|gen-any|num-pl|pers-3|case-d|vib-|tam-|chunkId-NP|chunkType-child|stype-|voicetype-	2	nmod__adj	_	_
2	loga	loga	NN	n	lex-loga|cat-n|gen-m|num-pl|pers-3|case-d|vib-0|tam-0|chunkId-NP|chunkType-head|stype-|voicetype-	6	k1	_	_
3	na	na	NEG	avy	lex-na|cat-avy|gen-|num-|pers-|case-|vib-|tam-|chunkId-NEGP|chunkType-head|stype-|voicetype-	6	vmod	_	_
4	kevala	kevala	RP	avy	lex-kevala|cat-avy|gen-|num-|pers-|case-|vib-|tam-|chunkId-NEGP|chunkType-child|stype-|voicetype-	3	lwg__rp	_	_
5	tEksa	tEksa	NN	n	lex-tEksa|cat-n|gen-m|num-sg|pers-3|case-d|vib-0|tam-0|chunkId-NP2|chunkType-head|stype-|voicetype-	6	k2	_	_
6	cukAwe	cukA	VM	v	lex-cukA|cat-v|gen-m|num-pl|pers-3|case-|vib-wA_hE|tam-wA|chunkId-VGF|chunkType-head|stype-declarative|voicetype-active	9	ccof	_	_
7	hEM	hE	VAUX	v	lex-hE|cat-v|gen-any|num-pl|pers-3|case-|vib-hE|tam-hE|chunkId-VGF|chunkType-child|stype-|voicetype-	6	lwg__vaux	_	_
8	,	COMMA	SYM	punc	lex-COMMA|cat-punc|gen-|num-|pers-|case-|vib-|tam-|chunkId-VGF|chunkType-child|stype-|voicetype-	6	rsym	_	_
9	balki	balki	CC	avy	lex-balki|cat-avy|gen-|num-|pers-|case-|vib-|tam-|chunkId-CCP|chunkType-head|stype-|voicetype-	0	main	_	_
10	inheM	yaha	PRP	pn	lex-yaha|cat-pn|gen-any|num-pl|pers-3|case-o|vib-ko|tam-ko|chunkId-NP3|chunkType-head|stype-|voicetype-	13	k1	_	_
11	lAiseMsa	lAiseMsa	NN	n	lex-lAiseMsa|cat-n|gen-m|num-sg|pers-3|case-d|vib-0|tam-0|chunkId-NP4|chunkType-head|stype-|voicetype-	13	k2	_	_
12	BI	BI	RP	avy	lex-BI|cat-avy|gen-|num-|pers-|case-|vib-|tam-|chunkId-NP4|chunkType-child|stype-|voicetype-	11	lwg__rp	_	_
13	lenA	le	VM	v	lex-le|cat-v|gen-m|num-sg|pers-3|case-|vib-nA_padZa+wA_hE|tam-nA|chunkId-VGF2|chunkType-head|stype-declarative|voicetype-active	9	ccof	_	_
14	padZawA	padZa	VAUX	v	lex-padZa|cat-v|gen-m|num-sg|pers-any|case-|vib-wA|tam-wA|chunkId-VGF2|chunkType-child|stype-|voicetype-	13	lwg__vaux	_	_
15	hE	hE	VAUX	v	lex-hE|cat-v|gen-any|num-sg|pers-3|case-|vib-hE|tam-hE|chunkId-VGF2|chunkType-child|stype-|voicetype-	13	lwg__vaux	_	_
16	.	.	SYM	punc	lex-.|cat-punc|gen-|num-|pers-|case-|vib-|tam-|chunkId-BLK|chunkType-head|stype-|voicetype-	9	rsym	_	_

