1	kAMcI	kAMcI	NNPC	n	lex-kAMcI|cat-n|gen-m|num-sg|pers-3|case-d|vib-0|tam-0|chunkId-NP|chunkType-child|stype-|voicetype-	3	pof__cn	_	_
2	kAmakoti	kAmakoti	NNPC	n	lex-kAmakoti|cat-n|gen-m|num-sg|pers-3|case-d|vib-0|tam-0|chunkId-NP|chunkType-child|stype-|voicetype-	3	pof__cn	_	_
3	pITa	pITa	NNP	n	lex-pITa|cat-n|gen-m|num-sg|pers-3|case-o|vib-0_kA|tam-0|chunkId-NP|chunkType-head|stype-|voicetype-	5	r6	_	_
4	ke	kA	PSP	psp	lex-kA|cat-psp|gen-m|num-sg|pers-|case-o|vib-|tam-|chunkId-NP|chunkType-child|stype-|voicetype-	3	lwg__psp	_	_
5	SaMkarAcArya	SaMkarAcArya	NN	n	lex-SaMkarAcArya|cat-n|gen-m|num-sg|pers-3|case-o|vib-0|tam-0|chunkId-NP2|chunkType-head|stype-|voicetype-	7	nmod	_	_
6	jayeMxra	jayeMxra	NNPC	n	lex-jayeMxra|cat-n|gen-m|num-sg|pers-3|case-d|vib-0|tam-0|chunkId-NP3|chunkType-child|stype-|voicetype-	7	pof__cn	_	_
7	sarasvawI	sarasvawI	NNP	n	lex-sarasvawI|cat-n|gen-m|num-sg|pers-3|case-o|vib-0_ne|tam-0|chunkId-NP3|chunkType-head|stype-|voicetype-	24	k1	_	_
8	ne	ne	PSP	psp	lex-ne|cat-psp|gen-|num-|pers-|case-|vib-|tam-|chunkId-NP3|chunkType-child|stype-|voicetype-	7	lwg__psp	_	_
9	vArwA	vArwA	NN	n	lex-vArwA|cat-n|gen-f|num-sg|pers-3|case-o|vib-0_ke_jariye|tam-0|chunkId-NP4|chunkType-head|stype-|voicetype-	24	k3	_	_
10	ke	ke	PSP	psp	lex-ke|cat-psp|gen-|num-|pers-|case-|vib-|tam-|chunkId-NP4|chunkType-child|stype-|voicetype-	9	lwg__psp	_	_
11	jariye	jariye	PSP	psp	lex-jariye|cat-psp|gen-|num-|pers-|case-|vib-|tam-|chunkId-NP4|chunkType-child|stype-|voicetype-	9	lwg__psp	_	_
12	ayoXyA	ayoXyA	NNP	n	lex-ayoXyA|cat-n|gen-m|num-sg|pers-3|case-d|vib-0|tam-0|chunkId-NP5|chunkType-child|stype-|voicetype-	13	nmod__adj	_	_
13	masalA	masalA	NN	n	lex-masalA|cat-n|gen-m|num-sg|pers-3|case-d|vib-0|tam-0|chunkId-NP5|chunkType-head|stype-|voicetype-	14	k2	_	_
14	sulaJAne	sulaJA	VM	v	lex-sulaJA|cat-v|gen-any|num-sg|pers-any|case-o|vib-nA_kA|tam-nA|chunkId-VGNN|chunkType-head|stype-|voicetype-	16	r6	_	_
15	kI	kA	PSP	psp	lex-kA|cat-psp|gen-f|num-sg|pers-|case-o|vib-|tam-|chunkId-VGNN|chunkType-child|stype-|voicetype-	14	lwg__psp	_	_
16	xiSA	xiSA	NN	n	lex-xiSA|cat-n|gen-f|num-sg|pers-3|case-o|vib-0_meM|tam-0|chunkId-NP6|chunkType-head|stype-|voicetype-	24	rd	_	_
17	meM	meM	PSP	psp	lex-meM|cat-psp|gen-|num-|pers-|case-|vib-|tam-|chunkId-NP6|chunkType-child|stype-|voicetype-	16	lwg__psp	_	_
18	eka	eka	QC	num	lex-eka|cat-num|gen-any|num-any|pers-|case-any|vib-|tam-|chunkId-NP7|chunkType-child|stype-|voicetype-	19	nmod__adj	_	_
19	bAra	bAra	NN	n	lex-bAra|cat-n|gen-f|num-sg|pers-3|case-d|vib-0|tam-0|chunkId-NP7|chunkType-head|stype-|voicetype-	20	rbmod	_	_
20	Pira	Pira	RB	adv	lex-Pira|cat-adv|gen-|num-|pers-|case-|vib-|tam-|chunkId-RBP|chunkType-head|stype-|voicetype-	24	adv	_	_
21	maxaxa	maxaxa	NN	n	lex-maxaxa|cat-n|gen-f|num-sg|pers-3|case-o|vib-0_kA|tam-0|chunkId-NP8|chunkType-head|stype-|voicetype-	23	r6-k2	_	_
22	kI	kA	PSP	psp	lex-kA|cat-psp|gen-f|num-sg|pers-|case-d|vib-|tam-|chunkId-NP8|chunkType-child|stype-|voicetype-	21	lwg__psp	_	_
23	peSakaSa	peSakaSa	NN	n	lex-peSakaSa|cat-n|gen-f|num-sg|pers-3|case-d|vib-0|tam-0|chunkId-NP9|chunkType-head|stype-|voicetype-	24	pof	_	_
24	kI	kara	VM	v	lex-kara|cat-v|gen-f|num-sg|pers-3|case-|vib-yA_hE|tam-yA|chunkId-VGF|chunkType-head|stype-declarative|voicetype-active	0	main	_	_
25	hE	hE	VAUX	v	lex-hE|cat-v|gen-any|num-sg|pers-3|case-|vib-hE|tam-hE|chunkId-VGF|chunkType-child|stype-|voicetype-	24	lwg__vaux	_	_
26	.	.	SYM	punc	lex-.|cat-punc|gen-|num-|pers-|case-|vib-|tam-|chunkId-BLK|chunkType-head|stype-|voicetype-	24	rsym	_	_

1	buXavAra	buXavAra	NNP	n	lex-buXavAra|cat-n|gen-m|num-sg|pers-3|case-o|vib-0_ko|tam-0|chunkId-NP|chunkType-head|stype-|voicetype-	4	k7t	_	_
2	ko	ko	PSP	psp	lex-ko|cat-psp|gen-|num-|pers-|case-|vib-|tam-|chunkId-NP|chunkType-child|stype-|voicetype-	1	lwg__psp	_	_
3	unhoMne	vaha	PRP	pn	lex-vaha|cat-pn|gen-any|num-sg|pers-3h|case-o|vib-ne|tam-ne|chunkId-NP2|chunkType-head|stype-|voicetype-	4	k1	_	_
4	kahA	kaha	VM	v	lex-kaha|cat-v|gen-m|num-sg|pers-any|case-|vib-yA|tam-yA|chunkId-VGF|chunkType-head|stype-declarative|voicetype-active	0	main	_	_
5	ki	ki	CC	avy	lex-ki|cat-avy|gen-|num-|pers-|case-|vib-|tam-|chunkId-CCP|chunkType-head|stype-|voicetype-	4	k2	_	_
6	yaxi	yaxi	CC	avy	lex-yaxi|cat-avy|gen-|num-|pers-|case-|vib-|tam-|chunkId-CCP2|chunkType-head|stype-|voicetype-	25	vmod	_	_
7	naI	nayA	JJ	adj	lex-nayA|cat-adj|gen-f|num-sg|pers-|case-d|vib-|tam-|chunkId-NP3|chunkType-child|stype-|voicetype-	9	nmod__adj	_	_
8	keMxra	keMxra	NNPC	n	lex-keMxra|cat-n|gen-m|num-sg|pers-3|case-d|vib-0|tam-0|chunkId-NP3|chunkType-child|stype-|voicetype-	9	pof__cn	_	_
9	sarakAra	sarakAra	NNP	n	lex-sarakAra|cat-n|gen-f|num-sg|pers-3|case-d|vib-0|tam-0|chunkId-NP3|chunkType-head|stype-|voicetype-	10	k1	_	_
10	cAhe	cAha	VM	v	lex-cAha|cat-v|gen-m|num-sg|pers-any|case-|vib-eM|tam-eM|chunkId-VGF2|chunkType-head|stype-declarative|voicetype-active	6	ccof	_	_
11	wo	wo	CC	avy	lex-wo|cat-avy|gen-|num-|pers-|case-|vib-|tam-|chunkId-CCP3|chunkType-head|stype-|voicetype-	5	ccof	_	_
12	isa	yaha	DEM	pn	lex-yaha|cat-pn|gen-any|num-sg|pers-3|case-o|vib-|tam-|chunkId-NP4|chunkType-child|stype-|voicetype-	13	nmod__adj	_	_
13	mAmale	mAmalA	NN	n	lex-mAmalA|cat-n|gen-m|num-sg|pers-3|case-o|vib-0_ko|tam-0|chunkId-NP4|chunkType-head|stype-|voicetype-	15	k2	_	_
14	ko	ko	PSP	psp	lex-ko|cat-psp|gen-|num-|pers-|case-|vib-|tam-|chunkId-NP4|chunkType-child|stype-|voicetype-	13	lwg__psp	_	_
15	sulaJAne	sulaJA	VM	v	lex-sulaJA|cat-v|gen-any|num-sg|pers-any|case-o|vib-nA_kA|tam-nA|chunkId-VGNN|chunkType-head|stype-|voicetype-	17	r6	_	_
16	kI	kA	PSP	psp	lex-kA|cat-psp|gen-f|num-sg|pers-|case-o|vib-|tam-|chunkId-VGNN|chunkType-child|stype-|voicetype-	15	lwg__psp	_	_
17	xiSA	xiSA	NN	n	lex-xiSA|cat-n|gen-f|num-sg|pers-3|case-o|vib-0_meM|tam-0|chunkId-NP5|chunkType-head|stype-|voicetype-	25	rd	_	_
18	meM	meM	PSP	psp	lex-meM|cat-psp|gen-|num-|pers-|case-|vib-|tam-|chunkId-NP5|chunkType-child|stype-|voicetype-	17	lwg__psp	_	_
19	vaha	vaha	PRP	pn	lex-vaha|cat-pn|gen-any|num-sg|pers-3|case-d|vib-0|tam-0|chunkId-NP6|chunkType-head|stype-|voicetype-	25	k1	_	_
20	eka	eka	QC	num	lex-eka|cat-num|gen-any|num-any|pers-|case-any|vib-|tam-|chunkId-NP7|chunkType-child|stype-|voicetype-	21	nmod__adj	_	_
21	bAra	bAra	NN	n	lex-bAra|cat-n|gen-f|num-sg|pers-3|case-d|vib-0|tam-0|chunkId-NP7|chunkType-head|stype-|voicetype-	22	rbmod	_	_
22	Pira	Pira	RB	adv	lex-Pira|cat-adv|gen-|num-|pers-|case-|vib-|tam-|chunkId-RBP|chunkType-head|stype-|voicetype-	25	adv	_	_
23	apanI	apanA	PRP	pn	lex-apanA|cat-pn|gen-f|num-any|pers-any|case-d|vib-0|tam-0|chunkId-NP8|chunkType-head|stype-|voicetype-	24	r6-k1	_	_
24	sevA	sevA	NN	n	lex-sevA|cat-n|gen-f|num-sg|pers-3|case-d|vib-0|tam-0|chunkId-NP9|chunkType-head|stype-|voicetype-	25	pof	_	_
25	xe	xe	VM	v	lex-xe|cat-v|gen-m|num-sg|pers-3h|case-|vib-0_saka+wA_hE|tam-0|chunkId-VGF3|chunkType-head|stype-declarative|voicetype-active	11	ccof	_	_
26	sakawe	saka	VAUX	v	lex-saka|cat-v|gen-m|num-sg|pers-3h|case-|vib-wA|tam-wA|chunkId-VGF3|chunkType-child|stype-|voicetype-	25	lwg__vaux	_	_
27	hEM	hE	VAUX	v	lex-hE|cat-v|gen-any|num-sg|pers-3h|case-|vib-hE|tam-hE|chunkId-VGF3|chunkType-child|stype-|voicetype-	25	lwg__vaux	_	_
28	.	.	SYM	punc	lex-.|cat-punc|gen-|num-|pers-|case-|vib-|tam-|chunkId-BLK|chunkType-head|stype-|voicetype-	4	rsym	_	_

1	NULL	_	PRP	_	lex-_|cat-_|gen-|num-|pers-|case-|vib-|tam-|chunkId-NULL__NP|chunkType-head|stype-|voicetype-	3	k1	_	_
2	gOrawalaba	gOrawalaba	JJ	adj	lex-gOrawalaba|cat-adj|gen-any|num-any|pers-|case-|vib-|tam-|chunkId-JJP|chunkType-head|stype-|voicetype-	3	k1s	_	_
3	hE	hE	VM	v	lex-hE|cat-v|gen-any|num-sg|pers-3|case-|vib-hE|tam-hE|chunkId-VGF|chunkType-head|stype-declarative|voicetype-active	0	main	_	_
4	ki	ki	CC	avy	lex-ki|cat-avy|gen-|num-|pers-|case-|vib-|tam-|chunkId-CCP|chunkType-head|stype-|voicetype-	1	rs	_	_
5	rAjaga	rAjaga	NNP	n	lex-rAjaga|cat-n|gen-m|num-sg|pers-3|case-d|vib-0|tam-0|chunkId-NP|chunkType-child|stype-|voicetype-	6	nmod__adj	_	_
6	sarakAra	sarakAra	NN	n	lex-sarakAra|cat-n|gen-f|num-sg|pers-3|case-o|vib-0_ke_samaya|tam-0|chunkId-NP|chunkType-head|stype-|voicetype-	23	k7t	_	_
7	ke	ke	PSP	psp	lex-ke|cat-psp|gen-m|num-|pers-|case-o|vib-|tam-|chunkId-NP|chunkType-child|stype-|voicetype-	6	lwg__psp	_	_
8	samaya	samaya	PSP	n	lex-samaya|cat-n|gen-m|num-|pers-|case-o|vib-|tam-|chunkId-NP|chunkType-child|stype-|voicetype-	6	lwg__psp	_	_
9	SaMkarAcArya	SaMkarAcArya	NN	n	lex-SaMkarAcArya|cat-n|gen-m|num-sg|pers-3|case-o|vib-0_ne|tam-0|chunkId-NP2|chunkType-head|stype-|voicetype-	23	k1	_	_
10	ne	ne	PSP	psp	lex-ne|cat-psp|gen-|num-|pers-|case-|vib-|tam-|chunkId-NP2|chunkType-child|stype-|voicetype-	9	lwg__psp	_	_
11	xonoM	xo	QC	num	lex-xo|cat-num|gen-any|num-any|pers-|case-any|vib-|tam-|chunkId-NP3|chunkType-child|stype-|voicetype-	12	nmod__adj	_	_
12	samuxAyoM	samuxAya	NN	n	lex-samuxAya|cat-n|gen-m|num-pl|pers-3|case-o|vib-0_kA|tam-0|chunkId-NP3|chunkType-head|stype-|voicetype-	14	r6	_	_
13	ke	kA	PSP	psp	lex-kA|cat-psp|gen-m|num-pl|pers-|case-o|vib-|tam-|chunkId-NP3|chunkType-child|stype-|voicetype-	12	lwg__psp	_	_
14	newAoM	newA	NN	n	lex-newA|cat-n|gen-m|num-pl|pers-3|case-o|vib-0_se|tam-0|chunkId-NP4|chunkType-head|stype-|voicetype-	17	k4	_	_
15	se	se	PSP	psp	lex-se|cat-psp|gen-|num-|pers-|case-|vib-|tam-|chunkId-NP4|chunkType-child|stype-|voicetype-	14	lwg__psp	_	_
16	bAwacIwa	bAwacIwa	NN	n	lex-bAwacIwa|cat-n|gen-f|num-sg|pers-3|case-d|vib-0|tam-0|chunkId-NP5|chunkType-head|stype-|voicetype-	17	pof	_	_
17	karake	kara	VM	v	lex-kara|cat-v|gen-any|num-any|pers-any|case-|vib-kara|tam-kara|chunkId-VGNF|chunkType-head|stype-|voicetype-	23	vmod	_	_
18	ayoXyA	ayoXyA	NNP	n	lex-ayoXyA|cat-n|gen-m|num-sg|pers-3|case-d|vib-0|tam-0|chunkId-NP6|chunkType-child|stype-|voicetype-	19	nmod__adj	_	_
19	vivAxa	vivAxa	NN	n	lex-vivAxa|cat-n|gen-m|num-sg|pers-3|case-d|vib-0|tam-0|chunkId-NP6|chunkType-head|stype-|voicetype-	20	k2	_	_
20	sulaJAne	sulaJA	VM	v	lex-sulaJA|cat-v|gen-any|num-sg|pers-any|case-o|vib-nA_kA|tam-nA|chunkId-VGNN|chunkType-head|stype-|voicetype-	22	r6-k2	_	_
21	kI	kA	PSP	psp	lex-kA|cat-psp|gen-f|num-sg|pers-|case-d|vib-|tam-|chunkId-VGNN|chunkType-child|stype-|voicetype-	20	lwg__psp	_	_
22	koSiSa	koSiSa	NN	n	lex-koSiSa|cat-n|gen-f|num-sg|pers-3|case-d|vib-0|tam-0|chunkId-NP7|chunkType-head|stype-|voicetype-	23	pof	_	_
23	kI	kara	VM	v	lex-kara|cat-v|gen-f|num-sg|pers-any|case-|vib-yA_WA|tam-yA|chunkId-VGF2|chunkType-head|stype-declarative|voicetype-active	25	ccof	_	_
24	WI	WA	VAUX	v	lex-WA|cat-v|gen-f|num-sg|pers-any|case-|vib-WA|tam-WA|chunkId-VGF2|chunkType-child|stype-|voicetype-	23	lwg__vaux	_	_
25	lekina	lekina	CC	avy	lex-lekina|cat-avy|gen-|num-|pers-|case-|vib-|tam-|chunkId-CCP2|chunkType-head|stype-|voicetype-	4	ccof	_	_
26	bAwa	bAwa	NN	n	lex-bAwa|cat-n|gen-f|num-sg|pers-3|case-d|vib-0|tam-0|chunkId-NP8|chunkType-head|stype-|voicetype-	28	k1	_	_
27	nahIM	nahIM	NEG	avy	lex-nahIM|cat-avy|gen-|num-|pers-|case-|vib-|tam-|chunkId-VGF3|chunkType-child|stype-|voicetype-	28	lwg__neg	_	_
28	bana	bana	VM	v	lex-bana|cat-v|gen-f|num-sg|pers-any|case-|vib-0_pA+yA_WA|tam-0|chunkId-VGF3|chunkType-head|stype-declarative|voicetype-active	25	ccof	_	_
29	pAI	pA	VAUX	v	lex-pA|cat-v|gen-f|num-sg|pers-any|case-|vib-yA|tam-yA|chunkId-VGF3|chunkType-child|stype-|voicetype-	28	lwg__vaux	_	_
30	WI	WA	VAUX	v	lex-WA|cat-v|gen-f|num-sg|pers-any|case-|vib-WA|tam-WA|chunkId-VGF3|chunkType-child|stype-|voicetype-	28	lwg__vaux	_	_
31	.	.	SYM	punc	lex-.|cat-punc|gen-|num-|pers-|case-|vib-|tam-|chunkId-BLK|chunkType-head|stype-|voicetype-	3	rsym	_	_

