1	rARtrapawi	rARtrapawi	NNP	n	lex-rARtrapawi|cat-n|gen-m|num-sg|pers-3|case-d|vib-0|tam-0|chunkId-NP|chunkType-child|stype-|voicetype-	6	nmod__adj	_	_
2	e.	e.	NNPC	n	lex-e.|cat-n|gen-m|num-sg|pers-3|case-d|vib-0|tam-0|chunkId-NP|chunkType-child|stype-|voicetype-	6	pof__cn	_	_
3	pI.	pI.	NNPC	n	lex-pI.|cat-n|gen-m|num-sg|pers-3|case-d|vib-0|tam-0|chunkId-NP|chunkType-child|stype-|voicetype-	6	pof__cn	_	_
4	je.	je.	NNPC	n	lex-je.|cat-n|gen-m|num-sg|pers-3|case-d|vib-0|tam-0|chunkId-NP|chunkType-child|stype-|voicetype-	6	pof__cn	_	_
5	abxula	abxula	NNPC	n	lex-abxula|cat-n|gen-m|num-sg|pers-3|case-d|vib-0|tam-0|chunkId-NP|chunkType-child|stype-|voicetype-	6	pof__cn	_	_
6	kalAma	kalAma	NNP	n	lex-kalAma|cat-n|gen-m|num-sg|pers-3|case-o|vib-0_ne|tam-0|chunkId-NP|chunkType-head|stype-|voicetype-	23	k1	_	_
7	ne	ne	PSP	psp	lex-ne|cat-psp|gen-|num-|pers-|case-|vib-|tam-|chunkId-NP|chunkType-child|stype-|voicetype-	6	lwg__psp	_	_
8	patanA	patanA	NNPC	n	lex-patanA|cat-n|gen-m|num-sg|pers-3|case-d|vib-0|tam-0|chunkId-NP2|chunkType-child|stype-|voicetype-	9	pof__cn	_	_
9	viSvavixyAlaya	viSvavixyAlaya	NNP	n	lex-viSvavixyAlaya|cat-n|gen-m|num-sg|pers-3|case-o|vib-0|tam-0|chunkId-NP2|chunkType-head|stype-|voicetype-	20	k5	_	_
10	(	(	SYM	punc	lex-(|cat-punc|gen-|num-|pers-|case-|vib-|tam-|chunkId-NP3|chunkType-child|stype-|voicetype-	11	rsym	_	_
11	pIyU	pIyU	NNP	n	lex-pIyU|cat-n|gen-f|num-sg|pers-3|case-o|vib-0|tam-0|chunkId-NP3|chunkType-head|stype-|voicetype-	9	rs	_	_
12	)	)	SYM	punc	lex-)|cat-punc|gen-|num-|pers-|case-|vib-|tam-|chunkId-NP3|chunkType-child|stype-|voicetype-	11	rsym	_	_
13	se	_	PSP	_	lex-_|cat-_|gen-|num-|pers-|case-|vib-|tam-|chunkId-FRAGP|chunkType-head|stype-|voicetype-	9	fragof	_	_
14	vijFAna	vijFAna	NN	n	lex-vijFAna|cat-n|gen-m|num-sg|pers-3|case-o|vib-0_kA|tam-0|chunkId-NP4|chunkType-head|stype-|voicetype-	17	r6	_	_
15	kI	kA	PSP	psp	lex-kA|cat-psp|gen-f|num-sg|pers-|case-o|vib-|tam-|chunkId-NP4|chunkType-child|stype-|voicetype-	14	lwg__psp	_	_
16	mAnaxa	mAnaxa	NNC	n	lex-mAnaxa|cat-n|gen-m|num-sg|pers-3|case-d|vib-0|tam-0|chunkId-NP5|chunkType-child|stype-|voicetype-	17	pof__cn	_	_
17	digrI	digrI	NN	n	lex-digrI|cat-n|gen-f|num-sg|pers-3|case-d|vib-0|tam-0|chunkId-NP5|chunkType-head|stype-|voicetype-	18	nmod	_	_
18	dIesasI	dIesasI	NNP	n	lex-dIesasI|cat-n|gen-m|num-sg|pers-3|case-d|vib-0|tam-0|chunkId-NP6|chunkType-head|stype-|voicetype-	20	k2	_	_
19	svIkAra	svIkAra	NN	n	lex-svIkAra|cat-n|gen-m|num-sg|pers-3|case-d|vib-0|tam-0|chunkId-NP7|chunkType-head|stype-|voicetype-	20	pof	_	_
20	karane	kara	VM	v	lex-kara|cat-v|gen-any|num-any|pers-any|case-o|vib-nA_se|tam-nA|chunkId-VGNN|chunkType-head|stype-|voicetype-	23	k2	_	_
21	se	se	PSP	psp	lex-se|cat-psp|gen-|num-|pers-|case-|vib-|tam-|chunkId-VGNN|chunkType-child|stype-|voicetype-	20	lwg__psp	_	_
22	inakAra	inakAra	NN	n	lex-inakAra|cat-n|gen-m|num-sg|pers-3|case-d|vib-0|tam-0|chunkId-NP8|chunkType-head|stype-|voicetype-	23	pof	_	_
23	kara	kara	VM	v	lex-kara|cat-v|gen-m|num-sg|pers-3|case-|vib-0_xe+yA_hE|tam-0|chunkId-VGF|chunkType-head|stype-declarative|voicetype-active	0	main	_	_
24	xiyA	xe	VAUX	v	lex-xe|cat-v|gen-m|num-sg|pers-3|case-|vib-yA|tam-yA|chunkId-VGF|chunkType-child|stype-|voicetype-	23	lwg__vaux	_	_
25	hE	hE	VAUX	v	lex-hE|cat-v|gen-any|num-sg|pers-3|case-|vib-hE|tam-hE|chunkId-VGF|chunkType-child|stype-|voicetype-	23	lwg__vaux	_	_
26	.	.	SYM	punc	lex-.|cat-punc|gen-|num-|pers-|case-|vib-|tam-|chunkId-BLK|chunkType-head|stype-|voicetype-	23	rsym	_	_

1	pIyU	pIyU	NNP	n	lex-pIyU|cat-n|gen-f|num-sg|pers-3|case-o|vib-0_ne|tam-0|chunkId-NP|chunkType-head|stype-|voicetype-	18	k1	_	_
2	ne	ne	PSP	psp	lex-ne|cat-psp|gen-|num-|pers-|case-|vib-|tam-|chunkId-NP|chunkType-child|stype-|voicetype-	1	lwg__psp	_	_
3	rARtrapawi	rARtrapawi	NNP	n	lex-rARtrapawi|cat-n|gen-m|num-sg|pers-3|case-o|vib-0_ko|tam-0|chunkId-NP2|chunkType-head|stype-|voicetype-	15	k4	_	_
4	ko	ko	PSP	psp	lex-ko|cat-psp|gen-|num-|pers-|case-|vib-|tam-|chunkId-NP2|chunkType-child|stype-|voicetype-	3	lwg__psp	_	_
5	unakI	vaha	PRP	pn	lex-vaha|cat-pn|gen-f|num-sg|pers-3h|case-o|vib-kA|tam-kA|chunkId-NP3|chunkType-head|stype-|voicetype-	7	r6	_	_
6	bihAra	bihAra	NNP	n	lex-bihAra|cat-n|gen-m|num-sg|pers-3|case-d|vib-0|tam-0|chunkId-NP4|chunkType-child|stype-|voicetype-	7	nmod__adj	_	_
7	yAwrA	yAwrA	NN	n	lex-yAwrA|cat-n|gen-f|num-sg|pers-3|case-o|vib-0_ke_xOrAna|tam-0|chunkId-NP4|chunkType-head|stype-|voicetype-	15	k7t	_	_
8	ke	ke	PSP	psp	lex-ke|cat-psp|gen-|num-|pers-|case-|vib-|tam-|chunkId-NP4|chunkType-child|stype-|voicetype-	7	lwg__psp	_	_
9	xOrAna	xOrAna	NST	nst	lex-xOrAna|cat-nst|gen-m|num-sg|pers-3|case-d|vib-|tam-|chunkId-NP4|chunkType-child|stype-|voicetype-	7	lwg__psp	_	_
10	SukravAra	SukravAra	NNP	n	lex-SukravAra|cat-n|gen-m|num-sg|pers-3|case-o|vib-0_ko|tam-0|chunkId-NP5|chunkType-head|stype-|voicetype-	15	k7t	_	_
11	ko	ko	PSP	psp	lex-ko|cat-psp|gen-|num-|pers-|case-|vib-|tam-|chunkId-NP5|chunkType-child|stype-|voicetype-	10	lwg__psp	_	_
12	mAnaxa	mAnaxa	NNC	n	lex-mAnaxa|cat-n|gen-m|num-sg|pers-3|case-d|vib-0|tam-0|chunkId-NP6|chunkType-child|stype-|voicetype-	13	pof__cn	_	_
13	digrI	digrI	NN	n	lex-digrI|cat-n|gen-f|num-sg|pers-3|case-d|vib-0|tam-0|chunkId-NP6|chunkType-head|stype-|voicetype-	15	k2	_	_
14	praxAna	praxAna	NN	n	lex-praxAna|cat-n|gen-m|num-sg|pers-3|case-d|vib-0|tam-0|chunkId-NP7|chunkType-head|stype-|voicetype-	15	pof	_	_
15	karane	kara	VM	v	lex-kara|cat-v|gen-any|num-sg|pers-any|case-o|vib-nA_kA|tam-nA|chunkId-VGNN|chunkType-head|stype-|voicetype-	17	r6-k2	_	_
16	kA	kA	PSP	psp	lex-kA|cat-psp|gen-m|num-sg|pers-|case-d|vib-|tam-|chunkId-VGNN|chunkType-child|stype-|voicetype-	15	lwg__psp	_	_
17	PEsalA	PEsalA	NN	n	lex-PEsalA|cat-n|gen-m|num-sg|pers-3|case-d|vib-0|tam-0|chunkId-NP8|chunkType-head|stype-|voicetype-	18	pof	_	_
18	kiyA	kara	VM	v	lex-kara|cat-v|gen-m|num-sg|pers-3|case-|vib-yA_WA|tam-yA|chunkId-VGF|chunkType-head|stype-declarative|voicetype-active	0	main	_	_
19	WA	WA	VAUX	v	lex-WA|cat-v|gen-m|num-sg|pers-3|case-|vib-WA|tam-WA|chunkId-VGF|chunkType-child|stype-|voicetype-	18	lwg__vaux	_	_
20	.	.	SYM	punc	lex-.|cat-punc|gen-|num-|pers-|case-|vib-|tam-|chunkId-BLK|chunkType-head|stype-|voicetype-	18	rsym	_	_

1	kalAma	kalAma	NNP	n	lex-kalAma|cat-n|gen-m|num-sg|pers-3|case-d|vib-0|tam-0|chunkId-NP|chunkType-head|stype-|voicetype-	20	k1	_	_
2	SukravAra	SukravAra	NNP	n	lex-SukravAra|cat-n|gen-m|num-sg|pers-3|case-o|vib-0_ko|tam-0|chunkId-NP2|chunkType-head|stype-|voicetype-	20	k7t	_	_
3	ko	ko	PSP	psp	lex-ko|cat-psp|gen-|num-|pers-|case-|vib-|tam-|chunkId-NP2|chunkType-child|stype-|voicetype-	2	lwg__psp	_	_
4	apane	apanA	PRP	pn	lex-apanA|cat-pn|gen-m|num-any|pers-any|case-o|vib-0|tam-0|chunkId-NP3|chunkType-head|stype-|voicetype-	6	r6	_	_
5	vyaswa	vyaswa	JJ	adj	lex-vyaswa|cat-adj|gen-any|num-any|pers-|case-o|vib-|tam-|chunkId-NP4|chunkType-child|stype-|voicetype-	6	nmod__adj	_	_
6	kAryakrama	kAryakrama	NN	n	lex-kAryakrama|cat-n|gen-m|num-sg|pers-3|case-o|vib-0_se|tam-0|chunkId-NP4|chunkType-head|stype-|voicetype-	9	k5	_	_
7	se	se	PSP	psp	lex-se|cat-psp|gen-|num-|pers-|case-|vib-|tam-|chunkId-NP4|chunkType-child|stype-|voicetype-	6	lwg__psp	_	_
8	samaya	samaya	NN	n	lex-samaya|cat-n|gen-m|num-sg|pers-3|case-d|vib-0|tam-0|chunkId-NP5|chunkType-head|stype-|voicetype-	9	k2	_	_
9	nikAla	nikAla	VM	v	lex-nikAla|cat-v|gen-any|num-any|pers-any|case-|vib-0_kara|tam-0|chunkId-VGNF|chunkType-head|stype-|voicetype-	20	vmod	_	_
10	kara	kara	VAUX	v	lex-kara|cat-v|gen-any|num-any|pers-any|case-|vib-0|tam-0|chunkId-VGNF|chunkType-child|stype-|voicetype-	9	lwg__vaux	_	_
11	xaraBaMgA	xaraBaMgA	NNP	n	lex-xaraBaMgA|cat-n|gen-m|num-sg|pers-3|case-o|vib-0_meM|tam-0|chunkId-NP6|chunkType-head|stype-|voicetype-	20	k7p	_	_
12	meM	meM	PSP	psp	lex-meM|cat-psp|gen-|num-|pers-|case-|vib-|tam-|chunkId-NP6|chunkType-child|stype-|voicetype-	11	lwg__psp	_	_
13	apane	apanA	PRP	pn	lex-apanA|cat-pn|gen-m|num-any|pers-any|case-o|vib-0|tam-0|chunkId-NP7|chunkType-head|stype-|voicetype-	14	r6	_	_
14	sahakarmI	sahakarmI	NN	n	lex-sahakarmI|cat-n|gen-m|num-sg|pers-3|case-d|vib-0|tam-0|chunkId-NP8|chunkType-head|stype-|voicetype-	15	k1	_	_
15	rahe	raha	VM	v	lex-raha|cat-v|gen-m|num-sg|pers-3|case-|vib-yA|tam-yA|chunkId-VGNF2|chunkType-head|stype-declarative|voicetype-active	17	nmod__k1inv	_	_
16	eka	eka	QC	num	lex-eka|cat-num|gen-any|num-any|pers-|case-any|vib-|tam-|chunkId-NP9|chunkType-child|stype-|voicetype-	17	nmod__adj	_	_
17	vEjFAnika	vEjFAnika	NN	n	lex-vEjFAnika|cat-n|gen-m|num-sg|pers-3|case-o|vib-0_se|tam-0|chunkId-NP9|chunkType-head|stype-|voicetype-	20	k2	_	_
18	se	se	PSP	psp	lex-se|cat-psp|gen-|num-|pers-|case-|vib-|tam-|chunkId-NP9|chunkType-child|stype-|voicetype-	17	lwg__psp	_	_
19	BI	BI	RP	avy	lex-BI|cat-avy|gen-|num-|pers-|case-|vib-|tam-|chunkId-NP9|chunkType-child|stype-|voicetype-	17	lwg__rp	_	_
20	mileMge	mila	VM	v	lex-mila|cat-v|gen-m|num-sg|pers-3h|case-|vib-gA|tam-gA|chunkId-VGF|chunkType-head|stype-declarative|voicetype-active	0	main	_	_
21	.	.	SYM	punc	lex-.|cat-punc|gen-|num-|pers-|case-|vib-|tam-|chunkId-BLK|chunkType-head|stype-|voicetype-	20	rsym	_	_

1	pIyU	pIyU	NNP	n	lex-pIyU|cat-n|gen-f|num-sg|pers-3|case-o|vib-0_kA|tam-0|chunkId-NP|chunkType-head|stype-|voicetype-	3	r6	_	_
2	ke	kA	PSP	psp	lex-kA|cat-psp|gen-m|num-sg|pers-|case-o|vib-|tam-|chunkId-NP|chunkType-child|stype-|voicetype-	1	lwg__psp	_	_
3	rajistrAra	rajistrAra	NN	n	lex-rajistrAra|cat-n|gen-m|num-sg|pers-3|case-o|vib-0|tam-0|chunkId-NP2|chunkType-head|stype-|voicetype-	6	nmod	_	_
4	vI.	vI.	NNPC	n	lex-vI.|cat-n|gen-m|num-sg|pers-3|case-d|vib-0|tam-0|chunkId-NP3|chunkType-child|stype-|voicetype-	6	pof__cn	_	_
5	ke.	ke.	NNPC	n	lex-ke.|cat-n|gen-m|num-sg|pers-3|case-d|vib-0|tam-0|chunkId-NP3|chunkType-child|stype-|voicetype-	6	pof__cn	_	_
6	yAxava	yAxava	NNP	n	lex-yAxava|cat-n|gen-any|num-sg|pers-3|case-o|vib-0_ne|tam-0|chunkId-NP3|chunkType-head|stype-|voicetype-	8	k1	_	_
7	ne	ne	PSP	psp	lex-ne|cat-psp|gen-|num-|pers-|case-|vib-|tam-|chunkId-NP3|chunkType-child|stype-|voicetype-	6	lwg__psp	_	_
8	bawAyA	bawA	VM	v	lex-bawA|cat-v|gen-m|num-sg|pers-3|case-|vib-yA|tam-yA|chunkId-VGF|chunkType-head|stype-declarative|voicetype-active	0	main	_	_
9	ki	ki	CC	avy	lex-ki|cat-avy|gen-|num-|pers-|case-|vib-|tam-|chunkId-CCP|chunkType-head|stype-|voicetype-	8	k2	_	_
10	rARtrapawi	rARtrapawi	NNC	n	lex-rARtrapawi|cat-n|gen-m|num-sg|pers-3|case-d|vib-0|tam-0|chunkId-NP4|chunkType-child|stype-|voicetype-	11	pof__cn	_	_
11	Bavana	Bavana	NN	n	lex-Bavana|cat-n|gen-m|num-sg|pers-3|case-o|vib-0_ne|tam-0|chunkId-NP4|chunkType-head|stype-|voicetype-	16	k1	_	_
12	ne	ne	PSP	psp	lex-ne|cat-psp|gen-|num-|pers-|case-|vib-|tam-|chunkId-NP4|chunkType-child|stype-|voicetype-	11	lwg__psp	_	_
13	viSvavixyAlaya	viSvavixyAlaya	NN	n	lex-viSvavixyAlaya|cat-n|gen-m|num-sg|pers-3|case-o|vib-0_ko|tam-0|chunkId-NP5|chunkType-head|stype-|voicetype-	16	k4	_	_
14	ko	ko	PSP	psp	lex-ko|cat-psp|gen-|num-|pers-|case-|vib-|tam-|chunkId-NP5|chunkType-child|stype-|voicetype-	13	lwg__psp	_	_
15	sUciwa	sUciwa	JJ	adj	lex-sUciwa|cat-adj|gen-any|num-any|pers-|case-|vib-|tam-|chunkId-JJP|chunkType-head|stype-|voicetype-	16	pof	_	_
16	kiyA	kara	VM	v	lex-kara|cat-v|gen-m|num-sg|pers-3|case-|vib-yA_hE|tam-yA|chunkId-VGF2|chunkType-head|stype-declarative|voicetype-active	9	ccof	_	_
17	hE	hE	VAUX	v	lex-hE|cat-v|gen-any|num-sg|pers-3|case-|vib-hE|tam-hE|chunkId-VGF2|chunkType-child|stype-|voicetype-	16	lwg__vaux	_	_
18	ki	ki	CC	avy	lex-ki|cat-avy|gen-|num-|pers-|case-|vib-|tam-|chunkId-CCP2|chunkType-head|stype-|voicetype-	16	k2	_	_
19	kalAma	kalAma	NNP	n	lex-kalAma|cat-n|gen-m|num-sg|pers-3|case-d|vib-0|tam-0|chunkId-NP6|chunkType-head|stype-|voicetype-	27	k1	_	_
20	kisI	koI	PRP	pn	lex-koI|cat-pn|gen-any|num-sg|pers-3|case-o|vib-0|tam-0|chunkId-NP7|chunkType-child|stype-|voicetype-	21	nmod__adj	_	_
21	viSvavixyAlaya	viSvavixyAlaya	NN	n	lex-viSvavixyAlaya|cat-n|gen-m|num-sg|pers-3|case-o|vib-0_kA|tam-0|chunkId-NP7|chunkType-head|stype-|voicetype-	24	r6	_	_
22	kI	kA	PSP	psp	lex-kA|cat-psp|gen-f|num-sg|pers-|case-d|vib-|tam-|chunkId-NP7|chunkType-child|stype-|voicetype-	21	lwg__psp	_	_
23	mAnaxa	mAnaxa	NNC	n	lex-mAnaxa|cat-n|gen-m|num-sg|pers-3|case-d|vib-0|tam-0|chunkId-NP8|chunkType-child|stype-|voicetype-	24	pof__cn	_	_
24	digrI	digrI	NN	n	lex-digrI|cat-n|gen-f|num-sg|pers-3|case-d|vib-0|tam-0|chunkId-NP8|chunkType-head|stype-|voicetype-	27	k2	_	_
25	svIkAra	svIkAra	NN	n	lex-svIkAra|cat-n|gen-m|num-sg|pers-3|case-d|vib-0|tam-0|chunkId-NP9|chunkType-head|stype-|voicetype-	27	pof	_	_
26	nahIM	nahIM	NEG	avy	lex-nahIM|cat-avy|gen-|num-|pers-|case-|vib-|tam-|chunkId-VGF3|chunkType-child|stype-|voicetype-	27	lwg__neg	_	_
27	karawe	kara	VM	v	lex-kara|cat-v|gen-m|num-sg|pers-3h|case-|vib-wA|tam-wA|chunkId-VGF3|chunkType-head|stype-declarative|voicetype-active	18	ccof	_	_
28	.	.	SYM	punc	lex-.|cat-punc|gen-|num-|pers-|case-|vib-|tam-|chunkId-BLK|chunkType-head|stype-|voicetype-	8	rsym	_	_

1	pIyU	pIyU	NNP	n	lex-pIyU|cat-n|gen-f|num-sg|pers-3|case-o|vib-0_ne|tam-0|chunkId-NP|chunkType-head|stype-|voicetype-	11	k1	_	_
2	ne	ne	PSP	psp	lex-ne|cat-psp|gen-|num-|pers-|case-|vib-|tam-|chunkId-NP|chunkType-child|stype-|voicetype-	1	lwg__psp	_	_
3	aba	aba	PRP	pn	lex-aba|cat-pn|gen-|num-|pers-|case-o|vib-0_waka|tam-|chunkId-NP2|chunkType-head|stype-|voicetype-	11	k7t	_	_
4	waka	waka	PSP	psp	lex-waka|cat-psp|gen-|num-|pers-|case-|vib-|tam-|chunkId-NP2|chunkType-child|stype-|voicetype-	3	lwg__psp	_	_
5	kaI	kaI	QF	avy	lex-kaI|cat-avy|gen-|num-|pers-|case-|vib-|tam-|chunkId-NP3|chunkType-child|stype-|voicetype-	6	nmod__adj	_	_
6	haswiyoM	haswI	NN	n	lex-haswI|cat-n|gen-f|num-pl|pers-3|case-o|vib-0_ko|tam-0|chunkId-NP3|chunkType-head|stype-|voicetype-	11	k4	_	_
7	ko	ko	PSP	psp	lex-ko|cat-psp|gen-|num-|pers-|case-|vib-|tam-|chunkId-NP3|chunkType-child|stype-|voicetype-	6	lwg__psp	_	_
8	mAnaxa	mAnaxa	NNC	n	lex-mAnaxa|cat-n|gen-m|num-sg|pers-3|case-d|vib-0|tam-0|chunkId-NP4|chunkType-child|stype-|voicetype-	9	pof__cn	_	_
9	digrI	digrI	NN	n	lex-digrI|cat-n|gen-f|num-sg|pers-3|case-o|vib-0_se|tam-0|chunkId-NP4|chunkType-head|stype-|voicetype-	11	k2	_	_
10	se	se	PSP	psp	lex-se|cat-psp|gen-|num-|pers-|case-|vib-|tam-|chunkId-NP4|chunkType-child|stype-|voicetype-	9	lwg__psp	_	_
11	navAjA	navAja	VM	v	lex-navAja|cat-v|gen-m|num-sg|pers-3|case-|vib-yA_hE|tam-yA|chunkId-VGF|chunkType-head|stype-declarative|voicetype-active	0	main	_	_
12	hE	hE	VAUX	v	lex-hE|cat-v|gen-any|num-sg|pers-3|case-|vib-hE|tam-hE|chunkId-VGF|chunkType-child|stype-|voicetype-	11	lwg__vaux	_	_
13	.	.	SYM	punc	lex-.|cat-punc|gen-|num-|pers-|case-|vib-|tam-|chunkId-BLK|chunkType-head|stype-|voicetype-	11	rsym	_	_

1	pIyU	pIyU	NNP	n	lex-pIyU|cat-n|gen-f|num-sg|pers-3|case-d|vib-0|tam-0|chunkId-NP|chunkType-child|stype-|voicetype-	2	nmod__adj	_	_
2	sUwroM	sUwra	NN	n	lex-sUwra|cat-n|gen-m|num-pl|pers-3|case-o|vib-0_ke_muwAbika|tam-0|chunkId-NP|chunkType-head|stype-|voicetype-	22	k7a	_	_
3	ke	ke	PSP	psp	lex-ke|cat-psp|gen-|num-|pers-|case-|vib-|tam-|chunkId-NP|chunkType-child|stype-|voicetype-	2	lwg__psp	_	_
4	muwAbika	muwAbika	PSP	psp	lex-muwAbika|cat-psp|gen-|num-|pers-|case-|vib-|tam-|chunkId-NP|chunkType-child|stype-|voicetype-	2	lwg__psp	_	_
5	viSvavixyAlaya	viSavavixyAlaya	NN	n	lex-viSavavixyAlaya|cat-n|gen-m|num-sg|pers-3|case-o|vib-0_ne|tam-0|chunkId-NP2|chunkType-head|stype-|voicetype-	22	k1	_	_
6	ne	ne	PSP	psp	lex-ne|cat-psp|gen-|num-|pers-|case-|vib-|tam-|chunkId-NP2|chunkType-child|stype-|voicetype-	5	lwg__psp	_	_
7	varRa	varRa	NN	n	lex-varRa|cat-n|gen-m|num-sg|pers-3|case-d|vib-0|tam-0|chunkId-NP3|chunkType-child|stype-|voicetype-	8	nmod	_	_
8	1948	1948	NNP	n	lex-1948|cat-n|gen-any|num-sg|pers-3|case-o|vib-0_meM|tam-0|chunkId-NP3|chunkType-head|stype-|voicetype-	22	k7t	_	_
9	meM	meM	PSP	psp	lex-meM|cat-psp|gen-|num-|pers-|case-|vib-|tam-|chunkId-NP3|chunkType-child|stype-|voicetype-	8	lwg__psp	_	_
10	xeSa	xeSa	NN	n	lex-xeSa|cat-n|gen-m|num-sg|pers-3|case-o|vib-0_kA|tam-0|chunkId-NP4|chunkType-head|stype-|voicetype-	14	r6	_	_
11	ke	kA	PSP	psp	lex-kA|cat-psp|gen-m|num-sg|pers-|case-o|vib-|tam-|chunkId-NP4|chunkType-child|stype-|voicetype-	10	lwg__psp	_	_
12	pahale	pahalA	QO	num	lex-pahalA|cat-num|gen-m|num-sg|pers-|case-o|vib-|tam-|chunkId-NP5|chunkType-child|stype-|voicetype-	14	nmod__adj	_	_
13	gavarnara	gavarnara	NNC	n	lex-gavarnara|cat-n|gen-m|num-sg|pers-3|case-d|vib-0|tam-0|chunkId-NP5|chunkType-child|stype-|voicetype-	14	pof__cn	_	_
14	janarala	janarala	NN	n	lex-janarala|cat-n|gen-m|num-sg|pers-3|case-o|vib-0|tam-0|chunkId-NP5|chunkType-head|stype-|voicetype-	17	nmod	_	_
15	lOYrda	lOYrda	NNC	n	lex-lOYrda|cat-n|gen-m|num-sg|pers-3|case-d|vib-0|tam-0|chunkId-NP6|chunkType-child|stype-|voicetype-	16	pof__cn	_	_
16	mAuMta	mAuMta	NNPC	n	lex-mAuMta|cat-n|gen-m|num-sg|pers-3|case-d|vib-0|tam-0|chunkId-NP6|chunkType-child|stype-|voicetype-	17	pof__cn	_	_
17	betana	betana	NNP	n	lex-betana|cat-n|gen-m|num-sg|pers-3|case-o|vib-0_ko|tam-0|chunkId-NP6|chunkType-head|stype-|voicetype-	22	k2	_	_
18	ko	ko	PSP	psp	lex-ko|cat-psp|gen-|num-|pers-|case-|vib-|tam-|chunkId-NP6|chunkType-child|stype-|voicetype-	17	lwg__psp	_	_
19	dIesasI	dIesasI	NNP	n	lex-dIesasI|cat-n|gen-m|num-sg|pers-3|case-o|vib-0_se|tam-0|chunkId-NP7|chunkType-head|stype-|voicetype-	22	k3	_	_
20	se	se	PSP	psp	lex-se|cat-psp|gen-|num-|pers-|case-|vib-|tam-|chunkId-NP7|chunkType-child|stype-|voicetype-	19	lwg__psp	_	_
21	sammAniwa	sammAniwa	JJ	adj	lex-sammAniwa|cat-adj|gen-any|num-any|pers-|case-|vib-|tam-|chunkId-JJP|chunkType-head|stype-|voicetype-	22	pof	_	_
22	kiyA	kara	VM	v	lex-kara|cat-v|gen-m|num-sg|pers-any|case-|vib-yA_WA|tam-yA|chunkId-VGF|chunkType-head|stype-declarative|voicetype-active	0	main	_	_
23	WA	WA	VAUX	v	lex-WA|cat-v|gen-m|num-sg|pers-any|case-|vib-WA|tam-WA|chunkId-VGF|chunkType-child|stype-|voicetype-	22	lwg__vaux	_	_
24	.	.	SYM	punc	lex-.|cat-punc|gen-|num-|pers-|case-|vib-|tam-|chunkId-BLK|chunkType-head|stype-|voicetype-	22	rsym	_	_

1	viSavavixyAlaya	viSavavixyAlaya	NN	n	lex-viSavavixyAlaya|cat-n|gen-m|num-sg|pers-3|case-o|vib-0_ne|tam-0|chunkId-NP|chunkType-head|stype-|voicetype-	23	k1	_	_
2	ne	ne	PSP	psp	lex-ne|cat-psp|gen-|num-|pers-|case-|vib-|tam-|chunkId-NP|chunkType-child|stype-|voicetype-	1	lwg__psp	_	_
3	varRa	varRa	NN	n	lex-varRa|cat-n|gen-m|num-sg|pers-3|case-d|vib-0|tam-0|chunkId-NP2|chunkType-child|stype-|voicetype-	4	nmod	_	_
4	2002	2002	NNP	n	lex-2002|cat-n|gen-any|num-sg|pers-3|case-o|vib-0_meM|tam-0|chunkId-NP2|chunkType-head|stype-|voicetype-	23	k7t	_	_
5	meM	meM	PSP	psp	lex-meM|cat-psp|gen-|num-|pers-|case-|vib-|tam-|chunkId-NP2|chunkType-child|stype-|voicetype-	4	lwg__psp	_	_
6	pUrva	pUrva	JJ	adj	lex-pUrva|cat-adj|gen-any|num-any|pers-|case-o|vib-|tam-|chunkId-NP3|chunkType-child|stype-|voicetype-	9	nmod__adj	_	_
7	keMxrIya	keMxrIya	NNPC	adj	lex-keMxrIya|cat-adj|gen-any|num-any|pers-|case-o|vib-|tam-|chunkId-NP3|chunkType-child|stype-|voicetype-	8	pof__cn	_	_
8	maMwrI	maMwrI	NNP	n	lex-maMwrI|cat-n|gen-m|num-sg|pers-3|case-d|vib-0|tam-0|chunkId-NP3|chunkType-child|stype-|voicetype-	10	nmod__adj	_	_
9	yaSavaMwa	yaSavaMwa	NNPC	n	lex-yaSavaMwa|cat-n|gen-m|num-sg|pers-3|case-d|vib-0|tam-0|chunkId-NP3|chunkType-child|stype-|voicetype-	10	pof__cn	_	_
10	sinhA	sinhA	NNP	n	lex-sinhA|cat-n|gen-any|num-sg|pers-3|case-o|vib-0|tam-0|chunkId-NP3|chunkType-head|stype-|voicetype-	11	ccof	_	_
11	Ora	Ora	CC	avy	lex-Ora|cat-avy|gen-|num-|pers-|case-|vib-|tam-|chunkId-CCP|chunkType-head|stype-|voicetype-	23	k2	_	_
12	ignU	ignU	NNP	n	lex-ignU|cat-n|gen-f|num-sg|pers-3|case-o|vib-0_kA|tam-0|chunkId-NP4|chunkType-head|stype-|voicetype-	14	r6	_	_
13	ke	kA	PSP	psp	lex-kA|cat-psp|gen-m|num-sg|pers-|case-o|vib-|tam-|chunkId-NP4|chunkType-child|stype-|voicetype-	12	lwg__psp	_	_
14	upakulapawi	upakulapawi	NN	n	lex-upakulapawi|cat-n|gen-m|num-sg|pers-3|case-o|vib-0|tam-0|chunkId-NP5|chunkType-head|stype-|voicetype-	17	nmod	_	_
15	eca.	eca.	NNPC	n	lex-eca.|cat-n|gen-m|num-sg|pers-3|case-d|vib-0|tam-0|chunkId-NP6|chunkType-child|stype-|voicetype-	17	pof__cn	_	_
16	pI.	pI.	NNPC	n	lex-pI.|cat-n|gen-m|num-sg|pers-3|case-d|vib-0|tam-0|chunkId-NP6|chunkType-child|stype-|voicetype-	17	pof__cn	_	_
17	xIkRiwa	xIkRiwa	NNP	n	lex-xIkRiwa|cat-n|gen-any|num-sg|pers-3|case-o|vib-0_ko|tam-0|chunkId-NP6|chunkType-head|stype-|voicetype-	11	ccof	_	_
18	ko	ko	PSP	psp	lex-ko|cat-psp|gen-|num-|pers-|case-|vib-|tam-|chunkId-NP6|chunkType-child|stype-|voicetype-	17	lwg__psp	_	_
19	mAnaxa	mAnaxa	NNC	n	lex-mAnaxa|cat-n|gen-m|num-sg|pers-3|case-d|vib-0|tam-0|chunkId-NP7|chunkType-child|stype-|voicetype-	20	pof__cn	_	_
20	pIecadI	pIecadI	NNP	n	lex-pIecadI|cat-n|gen-m|num-sg|pers-3|case-o|vib-0_se|tam-0|chunkId-NP7|chunkType-head|stype-|voicetype-	23	k3	_	_
21	se	se	PSP	psp	lex-se|cat-psp|gen-|num-|pers-|case-|vib-|tam-|chunkId-NP7|chunkType-child|stype-|voicetype-	20	lwg__psp	_	_
22	viBURiwa	viBURiwa	JJ	adj	lex-viBURiwa|cat-adj|gen-any|num-any|pers-|case-|vib-|tam-|chunkId-JJP|chunkType-head|stype-|voicetype-	23	pof	_	_
23	kiyA	kara	VM	v	lex-kara|cat-v|gen-m|num-sg|pers-any|case-|vib-yA_WA|tam-yA|chunkId-VGF|chunkType-head|stype-declarative|voicetype-active	0	main	_	_
24	WA	WA	VAUX	v	lex-WA|cat-v|gen-m|num-sg|pers-any|case-|vib-WA|tam-WA|chunkId-VGF|chunkType-child|stype-|voicetype-	23	lwg__vaux	_	_
25	.	.	SYM	punc	lex-.|cat-punc|gen-|num-|pers-|case-|vib-|tam-|chunkId-BLK|chunkType-head|stype-|voicetype-	23	rsym	_	_

1	kalAma	kalAma	NNP	n	lex-kalAma|cat-n|gen-m|num-sg|pers-3|case-d|vib-0|tam-0|chunkId-NP|chunkType-head|stype-|voicetype-	11	k1	_	_
2	xaraBaMgA	xaraBaMgA	NNP	n	lex-xaraBaMgA|cat-n|gen-m|num-sg|pers-3|case-o|vib-0_meM|tam-0|chunkId-NP2|chunkType-head|stype-|voicetype-	11	k7p	_	_
3	meM	meM	PSP	psp	lex-meM|cat-psp|gen-|num-|pers-|case-|vib-|tam-|chunkId-NP2|chunkType-child|stype-|voicetype-	2	lwg__psp	_	_
4	apane	apanA	PRP	pn	lex-apanA|cat-pn|gen-m|num-any|pers-any|case-o|vib-0|tam-0|chunkId-NP3|chunkType-head|stype-|voicetype-	7	r6	_	_
5	pUrva	pUrva	JJ	adj	lex-pUrva|cat-adj|gen-any|num-any|pers-|case-o|vib-|tam-|chunkId-NP4|chunkType-child|stype-|voicetype-	7	nmod__adj	_	_
6	vEjFAnika	vEjFAnika	NNC	n	lex-vEjFAnika|cat-n|gen-m|num-sg|pers-3|case-d|vib-0|tam-0|chunkId-NP4|chunkType-child|stype-|voicetype-	7	pof__cn	_	_
7	sahakarmI	sahakarmI	NN	n	lex-sahakarmI|cat-n|gen-m|num-sg|pers-3|case-o|vib-0_se|tam-0|chunkId-NP4|chunkType-head|stype-|voicetype-	11	ras-k1	_	_
8	se	se	PSP	psp	lex-se|cat-psp|gen-|num-|pers-|case-|vib-|tam-|chunkId-NP4|chunkType-child|stype-|voicetype-	7	lwg__psp	_	_
9	BI	BI	RP	avy	lex-BI|cat-avy|gen-|num-|pers-|case-|vib-|tam-|chunkId-NP4|chunkType-child|stype-|voicetype-	7	lwg__rp	_	_
10	mulAkAwa	mulAkAwa	NN	n	lex-mulAkAwa|cat-n|gen-f|num-sg|pers-3|case-d|vib-0|tam-0|chunkId-NP5|chunkType-head|stype-|voicetype-	11	pof	_	_
11	kareMge	kara	VM	v	lex-kara|cat-v|gen-m|num-sg|pers-3h|case-|vib-gA|tam-gA|chunkId-VGF|chunkType-head|stype-declarative|voicetype-active	0	main	_	_
12	.	.	SYM	punc	lex-.|cat-punc|gen-|num-|pers-|case-|vib-|tam-|chunkId-BLK|chunkType-head|stype-|voicetype-	11	rsym	_	_

1	xaraBaMgA	xaraBaMgA	NNP	n	lex-xaraBaMgA|cat-n|gen-m|num-sg|pers-3|case-o|vib-0_kA|tam-0|chunkId-NP|chunkType-head|stype-|voicetype-	3	r6	_	_
2	ke	kA	PSP	psp	lex-kA|cat-psp|gen-m|num-sg|pers-|case-o|vib-|tam-|chunkId-NP|chunkType-child|stype-|voicetype-	1	lwg__psp	_	_
3	jilAXikArI	jilAXikArI	NN	n	lex-jilAXikArI|cat-n|gen-m|num-sg|pers-3|case-o|vib-0|tam-0|chunkId-NP2|chunkType-head|stype-|voicetype-	5	nmod	_	_
4	upeMxra	upeMxra	NNPC	n	lex-upeMxra|cat-n|gen-m|num-sg|pers-3|case-d|vib-0|tam-0|chunkId-NP3|chunkType-child|stype-|voicetype-	5	pof__cn	_	_
5	SarmA	SarmA	NNP	n	lex-SarmA|cat-n|gen-any|num-sg|pers-3|case-o|vib-0_ne|tam-0|chunkId-NP3|chunkType-head|stype-|voicetype-	7	k1	_	_
6	ne	ne	PSP	psp	lex-ne|cat-psp|gen-|num-|pers-|case-|vib-|tam-|chunkId-NP3|chunkType-child|stype-|voicetype-	5	lwg__psp	_	_
7	bawAyA	bawA	VM	v	lex-bawA|cat-v|gen-m|num-sg|pers-3|case-|vib-yA|tam-yA|chunkId-VGF|chunkType-head|stype-declarative|voicetype-active	0	main	_	_
8	ki	ki	CC	avy	lex-ki|cat-avy|gen-|num-|pers-|case-|vib-|tam-|chunkId-CCP|chunkType-head|stype-|voicetype-	7	k2	_	_
9	rARtrapawi	rARtrapawi	NNC	n	lex-rARtrapawi|cat-n|gen-m|num-sg|pers-3|case-d|vib-0|tam-0|chunkId-NP4|chunkType-child|stype-|voicetype-	10	pof__cn	_	_
10	Bavana	Bavana	NN	n	lex-Bavana|cat-n|gen-m|num-sg|pers-3|case-o|vib-0_se|tam-0|chunkId-NP4|chunkType-head|stype-|voicetype-	12	jjmod	_	_
11	se	se	PSP	psp	lex-se|cat-psp|gen-|num-|pers-|case-|vib-|tam-|chunkId-NP4|chunkType-child|stype-|voicetype-	10	lwg__psp	_	_
12	prApwa	prApwa	JJ	adj	lex-prApwa|cat-adj|gen-any|num-any|pers-|case-o|vib-|tam-|chunkId-JJP|chunkType-head|stype-|voicetype-	22	nmod	_	_
13	nirxeSoM	nirxeSa	NN	n	lex-nirxeSa|cat-n|gen-m|num-pl|pers-3|case-o|vib-0_ke_muwAbika|tam-0|chunkId-NP5|chunkType-head|stype-|voicetype-	23	k7a	_	_
14	ke	ke	PSP	psp	lex-ke|cat-psp|gen-|num-|pers-|case-|vib-|tam-|chunkId-NP5|chunkType-child|stype-|voicetype-	13	lwg__psp	_	_
15	muwAbika	muwAbika	PSP	psp	lex-muwAbika|cat-psp|gen-|num-|pers-|case-|vib-|tam-|chunkId-NP5|chunkType-child|stype-|voicetype-	13	lwg__psp	_	_
16	varmA	varmA	NNP	n	lex-varmA|cat-n|gen-any|num-sg|pers-3|case-o|vib-0_se|tam-0|chunkId-NP6|chunkType-head|stype-|voicetype-	22	nmod	_	_
17	se	se	PSP	psp	lex-se|cat-psp|gen-|num-|pers-|case-|vib-|tam-|chunkId-NP6|chunkType-child|stype-|voicetype-	16	lwg__psp	_	_
18	kalAma	kalAma	NNP	n	lex-kalAma|cat-n|gen-m|num-sg|pers-3|case-o|vib-0_kA|tam-0|chunkId-NP7|chunkType-head|stype-|voicetype-	22	r6	_	_
19	kI	kA	PSP	psp	lex-kA|cat-psp|gen-f|num-sg|pers-|case-o|vib-|tam-|chunkId-NP7|chunkType-child|stype-|voicetype-	18	lwg__psp	_	_
20	mulAkAwa	mulAkAwa	NN	n	lex-mulAkAwa|cat-n|gen-f|num-sg|pers-3|case-o|vib-0_kA|tam-0|chunkId-NP8|chunkType-head|stype-|voicetype-	22	r6-k2	_	_
21	kA	kA	PSP	psp	lex-kA|cat-psp|gen-m|num-sg|pers-|case-d|vib-|tam-|chunkId-NP8|chunkType-child|stype-|voicetype-	20	lwg__psp	_	_
22	prabaMXa	prabaMXa	NN	n	lex-prabaMXa|cat-n|gen-m|num-sg|pers-3|case-d|vib-0|tam-0|chunkId-NP9|chunkType-head|stype-|voicetype-	23	pof	_	_
23	kara	kara	VM	v	lex-kara|cat-v|gen-m|num-sg|pers-3|case-|vib-0_le+yA_jA+yA1_hE|tam-0|chunkId-VGF2|chunkType-head|stype-declarative|voicetype-passive	8	ccof	_	_
24	liyA	le	VAUX	v	lex-le|cat-v|gen-m|num-sg|pers-3|case-|vib-yA|tam-yA|chunkId-VGF2|chunkType-child|stype-|voicetype-	23	lwg__vaux	_	_
25	gayA	jA	VAUX	v	lex-jA|cat-v|gen-m|num-sg|pers-3|case-|vib-yA1|tam-yA1|chunkId-VGF2|chunkType-child|stype-|voicetype-	23	lwg__vaux	_	_
26	hE	hE	VAUX	v	lex-hE|cat-v|gen-any|num-sg|pers-3|case-|vib-hE|tam-hE|chunkId-VGF2|chunkType-child|stype-|voicetype-	23	lwg__vaux	_	_
27	.	.	SYM	punc	lex-.|cat-punc|gen-|num-|pers-|case-|vib-|tam-|chunkId-BLK|chunkType-head|stype-|voicetype-	7	rsym	_	_

1	varRa	varRa	NN	n	lex-varRa|cat-n|gen-m|num-sg|pers-3|case-d|vib-0|tam-0|chunkId-NP|chunkType-child|stype-|voicetype-	2	nmod	_	_
2	1991	1991	NNP	n	lex-1991|cat-n|gen-any|num-sg|pers-3|case-d|vib-0|tam-0|chunkId-NP|chunkType-child|stype-|voicetype-	4	nmod__adj	_	_
3	-JOIN	-	SYM	punc	lex--|cat-punc|gen-|num-|pers-|case-|vib-|tam-|chunkId-NP|chunkType-child|stype-|voicetype-	4	rsym	_	_
4	92	92	NNP	n	lex-92|cat-n|gen-any|num-sg|pers-3|case-o|vib-0_ke_xOrAna|tam-0|chunkId-NP|chunkType-head|stype-|voicetype-	12	k7t	_	_
5	ke	ke	PSP	psp	lex-ke|cat-psp|gen-|num-|pers-|case-|vib-|tam-|chunkId-NP|chunkType-child|stype-|voicetype-	4	lwg__psp	_	_
6	xOrAna	xOrAna	NST	nst	lex-xOrAna|cat-nst|gen-m|num-sg|pers-3|case-d|vib-|tam-|chunkId-NP|chunkType-child|stype-|voicetype-	4	lwg__psp	_	_
7	jaba	jaba	PRP	pn	lex-jaba|cat-pn|gen-|num-|pers-|case-d|vib-|tam-|chunkId-NP2|chunkType-head|stype-|voicetype-	12	k7t	_	_
8	kalAma	kalAma	NNP	n	lex-kalAma|cat-n|gen-m|num-sg|pers-3|case-d|vib-0|tam-0|chunkId-NP3|chunkType-head|stype-|voicetype-	12	k1	_	_
9	ejeMsI	ejeMsI	NN	n	lex-ejeMsI|cat-n|gen-f|num-sg|pers-3|case-o|vib-0_kA|tam-0|chunkId-NP4|chunkType-head|stype-|voicetype-	11	r6	_	_
10	ke	kA	PSP	psp	lex-kA|cat-psp|gen-m|num-sg|pers-3h|case-d|vib-|tam-|chunkId-NP4|chunkType-child|stype-|voicetype-	9	lwg__psp	_	_
11	pramuKa	pramuKa	NN	n	lex-pramuKa|cat-n|gen-m|num-sg|pers-3|case-d|vib-0|tam-0|chunkId-NP5|chunkType-head|stype-|voicetype-	12	k1s	_	_
12	We	WA	VM	v	lex-WA|cat-v|gen-m|num-sg|pers-3h|case-|vib-WA|tam-WA|chunkId-VGF|chunkType-head|stype-declarative|voicetype-active	14	nmod__relc	_	_
13	,	COMMA	SYM	punc	lex-COMMA|cat-punc|gen-|num-|pers-|case-|vib-|tam-|chunkId-VGF|chunkType-child|stype-|voicetype-	12	rsym	_	_
14	NULL	_	NN	_	lex-_|cat-_|gen-|num-|pers-|case-|vib-|tam-|chunkId-NULL__NP|chunkType-head|stype-|voicetype-	27	k7t	_	_
15	varmA	varmA	NNP	n	lex-varmA|cat-n|gen-any|num-sg|pers-3|case-d|vib-0|tam-0|chunkId-NP6|chunkType-head|stype-|voicetype-	27	k1	_	_
16	'	SINGLE_QUOTE	SYM	punc	lex-SINGLE_QUOTE|cat-punc|gen-|num-|pers-|case-|vib-|tam-|chunkId-NP7|chunkType-child|stype-|voicetype-	19	rsym	_	_
17	halke	halkA	JJ	adj	lex-halkA|cat-adj|gen-m|num-pl|pers-|case-d|vib-|tam-|chunkId-NP7|chunkType-child|stype-|voicetype-	19	nmod__adj	_	_
18	ladZAkU	ladAkA	NNC	adj	lex-ladAkA|cat-adj|gen-any|num-any|pers-|case-d|vib-|tam-|chunkId-NP7|chunkType-child|stype-|voicetype-	19	pof__cn	_	_
19	vimAna	vimAna	NN	n	lex-vimAna|cat-n|gen-m|num-pl|pers-3|case-d|vib-0|tam-0|chunkId-NP7|chunkType-head|stype-|voicetype-	26	r6	_	_
20	'	SINGLE_QUOTE	SYM	punc	lex-SINGLE_QUOTE|cat-punc|gen-|num-|pers-|case-|vib-|tam-|chunkId-NP7|chunkType-child|stype-|voicetype-	19	rsym	_	_
21	(	(	SYM	punc	lex-(|cat-punc|gen-|num-|pers-|case-|vib-|tam-|chunkId-NP8|chunkType-child|stype-|voicetype-	22	rsym	_	_
22	elasIe	elasIe	NNP	n	lex-elasIe|cat-n|gen-m|num-sg|pers-3|case-d|vib-0|tam-0|chunkId-NP8|chunkType-head|stype-|voicetype-	19	rs	_	_
23	)	)	SYM	punc	lex-)|cat-punc|gen-|num-|pers-|case-|vib-|tam-|chunkId-NP8|chunkType-child|stype-|voicetype-	22	rsym	_	_
24	pariyojanA	pariyojanA	NN	n	lex-pariyojanA|cat-n|gen-f|num-sg|pers-3|case-o|vib-0_kA|tam-0|chunkId-NP9|chunkType-head|stype-|voicetype-	19	fragof	_	_
25	ke	kA	PSP	psp	lex-kA|cat-psp|gen-m|num-sg|pers-3h|case-d|vib-|tam-|chunkId-NP9|chunkType-child|stype-|voicetype-	24	lwg__psp	_	_
26	nixeSaka	nixeSaka	NN	n	lex-nixeSaka|cat-n|gen-m|num-sg|pers-3|case-d|vib-0|tam-0|chunkId-NP10|chunkType-head|stype-|voicetype-	27	k1s	_	_
27	We	WA	VM	v	lex-WA|cat-v|gen-m|num-sg|pers-3h|case-|vib-WA|tam-WA|chunkId-VGF2|chunkType-head|stype-declarative|voicetype-active	0	main	_	_
28	.	.	SYM	punc	lex-.|cat-punc|gen-|num-|pers-|case-|vib-|tam-|chunkId-BLK|chunkType-head|stype-|voicetype-	27	rsym	_	_

1	apane	apanA	PRP	pn	lex-apanA|cat-pn|gen-m|num-any|pers-any|case-o|vib-0|tam-0|chunkId-NP|chunkType-head|stype-|voicetype-	3	r6	_	_
2	pUrva	pUrva	JJ	adj	lex-pUrva|cat-adj|gen-any|num-any|pers-|case-o|vib-|tam-|chunkId-NP2|chunkType-child|stype-|voicetype-	3	nmod__adj	_	_
3	bOYsa	bOYsa	NN	n	lex-bOYsa|cat-n|gen-m|num-sg|pers-3|case-o|vib-0_se|tam-0|chunkId-NP2|chunkType-head|stype-|voicetype-	7	ras-k1	_	_
4	se	se	PSP	psp	lex-se|cat-psp|gen-|num-|pers-|case-|vib-|tam-|chunkId-NP2|chunkType-child|stype-|voicetype-	3	lwg__psp	_	_
5	mulAkAwa	mulAkAwa	NN	n	lex-mulAkAwa|cat-n|gen-f|num-sg|pers-3|case-o|vib-0_ko|tam-0|chunkId-NP3|chunkType-head|stype-|voicetype-	7	k2	_	_
6	ko	ko	PSP	psp	lex-ko|cat-psp|gen-|num-|pers-|case-|vib-|tam-|chunkId-NP3|chunkType-child|stype-|voicetype-	5	lwg__psp	_	_
7	lekara	le	VM	v	lex-le|cat-v|gen-any|num-any|pers-any|case-|vib-kara|tam-kara|chunkId-VGNF|chunkType-head|stype-|voicetype-	11	vmod	_	_
8	uwsAhiwa	uwsAhiwa	JJ	adj	lex-uwsAhiwa|cat-adj|gen-any|num-any|pers-|case-o|vib-|tam-|chunkId-NP4|chunkType-child|stype-|voicetype-	9	nmod__adj	_	_
9	varmA	varmA	NNP	n	lex-varmA|cat-n|gen-any|num-sg|pers-3|case-o|vib-0_ne|tam-0|chunkId-NP4|chunkType-head|stype-|voicetype-	11	k1	_	_
10	ne	ne	PSP	psp	lex-ne|cat-psp|gen-|num-|pers-|case-|vib-|tam-|chunkId-NP4|chunkType-child|stype-|voicetype-	9	lwg__psp	_	_
11	kahA	kaha	VM	v	lex-kaha|cat-v|gen-m|num-sg|pers-3|case-|vib-yA|tam-yA|chunkId-VGF|chunkType-head|stype-declarative|voicetype-active	0	main	_	_
12	ki	ki	CC	avy	lex-ki|cat-avy|gen-|num-|pers-|case-|vib-|tam-|chunkId-CCP|chunkType-head|stype-|voicetype-	11	k2	_	_
13	yaha	yaha	PRP	pn	lex-yaha|cat-pn|gen-any|num-sg|pers-3|case-d|vib-0|tam-0|chunkId-NP5|chunkType-head|stype-|voicetype-	17	k1	_	_
14	kalAma	kalAma	NNP	n	lex-kalAma|cat-n|gen-m|num-sg|pers-3|case-o|vib-0_kA|tam-0|chunkId-NP6|chunkType-head|stype-|voicetype-	16	r6	_	_
15	kI	kA	PSP	psp	lex-kA|cat-psp|gen-f|num-sg|pers-|case-d|vib-|tam-|chunkId-NP6|chunkType-child|stype-|voicetype-	14	lwg__psp	_	_
16	mahAnawA	mahAnawA	NN	n	lex-mahAnawA|cat-n|gen-f|num-sg|pers-3|case-d|vib-0|tam-0|chunkId-NP7|chunkType-head|stype-|voicetype-	17	k1s	_	_
17	hE	hE	VM	v	lex-hE|cat-v|gen-any|num-sg|pers-3|case-|vib-hE|tam-hE|chunkId-VGF2|chunkType-head|stype-declarative|voicetype-active	12	ccof	_	_
18	ki	ki	CC	avy	lex-ki|cat-avy|gen-|num-|pers-|case-|vib-|tam-|chunkId-CCP2|chunkType-head|stype-|voicetype-	13	rs	_	_
19	unhoMne	vaha	PRP	pn	lex-vaha|cat-pn|gen-any|num-sg|pers-3h|case-o|vib-ne|tam-ne|chunkId-NP8|chunkType-head|stype-|voicetype-	24	k1	_	_
20	mulAkAwa	mulAkAwa	NN	n	lex-mulAkAwa|cat-n|gen-f|num-sg|pers-3|case-o|vib-0_ke_lie|tam-0|chunkId-NP9|chunkType-head|stype-|voicetype-	24	rt	_	_
21	ke	ke	PSP	psp	lex-ke|cat-psp|gen-|num-|pers-|case-|vib-|tam-|chunkId-NP9|chunkType-child|stype-|voicetype-	20	lwg__psp	_	_
22	lie	lie	PSP	psp	lex-lie|cat-psp|gen-|num-|pers-|case-|vib-|tam-|chunkId-NP9|chunkType-child|stype-|voicetype-	20	lwg__psp	_	_
23	samaya	samaya	NN	n	lex-samaya|cat-n|gen-m|num-sg|pers-3|case-d|vib-0|tam-0|chunkId-NP10|chunkType-head|stype-|voicetype-	24	k2	_	_
24	nikAlA	nikAla	VM	v	lex-nikAla|cat-v|gen-m|num-sg|pers-3|case-|vib-yA|tam-yA|chunkId-VGF3|chunkType-head|stype-declarative|voicetype-active	18	ccof	_	_
25	.	.	SYM	punc	lex-.|cat-punc|gen-|num-|pers-|case-|vib-|tam-|chunkId-BLK|chunkType-head|stype-|voicetype-	11	rsym	_	_

1	unhoMne	vaha	PRP	pn	lex-vaha|cat-pn|gen-any|num-sg|pers-3h|case-o|vib-ne|tam-ne|chunkId-NP|chunkType-head|stype-|voicetype-	2	k1	_	_
2	kahA	kaha	VM	v	lex-kaha|cat-v|gen-m|num-sg|pers-3|case-|vib-yA|tam-yA|chunkId-VGF|chunkType-head|stype-declarative|voicetype-active	0	main	_	_
3	ki	ki	CC	avy	lex-ki|cat-avy|gen-|num-|pers-|case-|vib-|tam-|chunkId-CCP|chunkType-head|stype-|voicetype-	2	k2	_	_
4	kalAma	kalAma	NNP	n	lex-kalAma|cat-n|gen-m|num-sg|pers-3|case-o|vib-0_kA|tam-0|chunkId-NP2|chunkType-head|stype-|voicetype-	6	r6	_	_
5	ke	kA	PSP	psp	lex-kA|cat-psp|gen-m|num-sg|pers-|case-o|vib-|tam-|chunkId-NP2|chunkType-child|stype-|voicetype-	4	lwg__psp	_	_
6	kAryakAla	kAryakAla	NN	n	lex-kAryakAla|cat-n|gen-m|num-sg|pers-3|case-o|vib-0_ke_xOrAna|tam-0|chunkId-NP3|chunkType-head|stype-|voicetype-	16	k7t	_	_
7	ke	ke	PSP	psp	lex-ke|cat-psp|gen-|num-|pers-|case-|vib-|tam-|chunkId-NP3|chunkType-child|stype-|voicetype-	6	lwg__psp	_	_
8	xOrAna	xOrAna	NST	nst	lex-xOrAna|cat-nst|gen-m|num-sg|pers-3|case-d|vib-|tam-|chunkId-NP3|chunkType-child|stype-|voicetype-	6	lwg__psp	_	_
9	hI	hI	RP	avy	lex-hI|cat-avy|gen-|num-|pers-|case-|vib-|tam-|chunkId-NP3|chunkType-child|stype-|voicetype-	6	lwg__rp	_	_
10	unhoMne	vaha	PRP	pn	lex-vaha|cat-pn|gen-any|num-sg|pers-3h|case-o|vib-ne|tam-ne|chunkId-NP4|chunkType-head|stype-|voicetype-	16	k1	_	_
11	elasIe	elasIe	NN	n	lex-elasIe|cat-n|gen-m|num-sg|pers-3|case-d|vib-0|tam-0|chunkId-NP5|chunkType-child|stype-|voicetype-	12	nmod	_	_
12	wejasvA	wejasvA	NNP	n	lex-wejasvA|cat-n|gen-m|num-sg|pers-3|case-o|vib-0_kA|tam-0|chunkId-NP5|chunkType-head|stype-|voicetype-	14	r6	_	_
13	kI	kA	PSP	psp	lex-kA|cat-psp|gen-f|num-sg|pers-|case-d|vib-|tam-|chunkId-NP5|chunkType-child|stype-|voicetype-	12	lwg__psp	_	_
14	dijAina	dijAina	NN	n	lex-dijAina|cat-n|gen-f|num-sg|pers-3|case-d|vib-0|tam-0|chunkId-NP6|chunkType-head|stype-|voicetype-	16	k2	_	_
15	wEyAra	wEyAra	JJ	adj	lex-wEyAra|cat-adj|gen-any|num-any|pers-|case-|vib-|tam-|chunkId-JJP|chunkType-head|stype-|voicetype-	16	pof	_	_
16	kI	kara	VM	v	lex-kara|cat-v|gen-f|num-sg|pers-3|case-|vib-yA_WA|tam-yA|chunkId-VGF2|chunkType-head|stype-declarative|voicetype-active	3	ccof	_	_
17	WI	WA	VAUX	v	lex-WA|cat-v|gen-f|num-sg|pers-3|case-|vib-WA|tam-WA|chunkId-VGF2|chunkType-child|stype-|voicetype-	16	lwg__vaux	_	_
18	,	COMMA	SYM	punc	lex-COMMA|cat-punc|gen-|num-|pers-|case-|vib-|tam-|chunkId-VGF2|chunkType-child|stype-|voicetype-	16	rsym	_	_
19	jise	jo	PRP	pn	lex-jo|cat-pn|gen-any|num-sg|pers-3|case-o|vib-ko|tam-ko|chunkId-NP7|chunkType-head|stype-|voicetype-	32	k2	_	_
20	varRa	varRa	NN	n	lex-varRa|cat-n|gen-m|num-sg|pers-3|case-d|vib-0|tam-0|chunkId-NP8|chunkType-child|stype-|voicetype-	21	nmod	_	_
21	2002	2002	NNP	n	lex-2002|cat-n|gen-any|num-sg|pers-3|case-o|vib-0_meM|tam-0|chunkId-NP8|chunkType-head|stype-|voicetype-	32	k7t	_	_
22	meM	meM	PSP	psp	lex-meM|cat-psp|gen-|num-|pers-|case-|vib-|tam-|chunkId-NP8|chunkType-child|stype-|voicetype-	21	lwg__psp	_	_
23	pUrva	pUrva	JJ	adj	lex-pUrva|cat-adj|gen-any|num-any|pers-|case-any|vib-|tam-|chunkId-NP9|chunkType-child|stype-|voicetype-	25	nmod__adj	_	_
24	praXAnamaMwrI	praXAnamaMwrI	NNP	n	lex-praXAnamaMwrI|cat-n|gen-m|num-sg|pers-3|case-d|vib-0|tam-0|chunkId-NP9|chunkType-child|stype-|voicetype-	27	nmod__adj	_	_
25	atala	atala	NNPC	n	lex-atala|cat-n|gen-m|num-sg|pers-3|case-d|vib-0|tam-0|chunkId-NP9|chunkType-child|stype-|voicetype-	27	pof__cn	_	_
26	bihArI	bihArI	NNPC	n	lex-bihArI|cat-n|gen-m|num-sg|pers-3|case-d|vib-0|tam-0|chunkId-NP9|chunkType-child|stype-|voicetype-	27	pof__cn	_	_
27	vAjapeyI	vAjapeyI	NNP	n	lex-vAjapeyI|cat-n|gen-any|num-sg|pers-3|case-o|vib-0_ne|tam-0|chunkId-NP9|chunkType-head|stype-|voicetype-	32	k1	_	_
28	ne	ne	PSP	psp	lex-ne|cat-psp|gen-|num-|pers-|case-|vib-|tam-|chunkId-NP9|chunkType-child|stype-|voicetype-	27	lwg__psp	_	_
29	rARtra	rARtra	NN	n	lex-rARtra|cat-n|gen-m|num-sg|pers-3|case-o|vib-0_ko|tam-0|chunkId-NP10|chunkType-head|stype-|voicetype-	32	k4	_	_
30	ko	ko	PSP	psp	lex-ko|cat-psp|gen-|num-|pers-|case-|vib-|tam-|chunkId-NP10|chunkType-child|stype-|voicetype-	29	lwg__psp	_	_
31	samarpiwa	samarpiwa	JJ	adj	lex-samarpiwa|cat-adj|gen-any|num-any|pers-|case-|vib-|tam-|chunkId-JJP2|chunkType-head|stype-|voicetype-	32	pof	_	_
32	kiyA	kara	VM	v	lex-kara|cat-v|gen-m|num-sg|pers-3|case-|vib-yA_WA|tam-yA|chunkId-VGF3|chunkType-head|stype-declarative|voicetype-active	14	nmod__relc	_	_
33	WA	WA	VAUX	v	lex-WA|cat-v|gen-m|num-sg|pers-3|case-|vib-WA|tam-WA|chunkId-VGF3|chunkType-child|stype-|voicetype-	32	lwg__vaux	_	_
34	.	.	SYM	punc	lex-.|cat-punc|gen-|num-|pers-|case-|vib-|tam-|chunkId-BLK|chunkType-head|stype-|voicetype-	2	rsym	_	_

