1	naksaliyoM	naksalI	NN	n	lex-naksalI|cat-n|gen-m|num-pl|pers-3|case-o|vib-0_ne|tam-0|chunkId-NP|chunkType-head|stype-|voicetype-	19	k1	_	_
2	ne	ne	PSP	psp	lex-ne|cat-psp|gen-|num-|pers-|case-|vib-|tam-|chunkId-NP|chunkType-child|stype-|voicetype-	1	lwg__psp	_	_
3	ravivAra	ravivAra	NNP	n	lex-ravivAra|cat-n|gen-m|num-sg|pers-3|case-d|vib-0|tam-0|chunkId-NP2|chunkType-child|stype-|voicetype-	4	nmod__adj	_	_
4	rAwa	rAwa	NN	n	lex-rAwa|cat-n|gen-f|num-sg|pers-3|case-d|vib-0|tam-0|chunkId-NP2|chunkType-head|stype-|voicetype-	19	k7t	_	_
5	apanI	apanA	PRP	pn	lex-apanA|cat-pn|gen-f|num-any|pers-any|case-o|vib-0|tam-0|chunkId-NP3|chunkType-head|stype-|voicetype-	6	r6	_	_
6	sAjiSa	sAjiSa	NN	n	lex-sAjiSa|cat-n|gen-f|num-sg|pers-3|case-o|vib-0_ko|tam-0|chunkId-NP4|chunkType-head|stype-|voicetype-	9	k2	_	_
7	ko	ko	PSP	psp	lex-ko|cat-psp|gen-|num-|pers-|case-|vib-|tam-|chunkId-NP4|chunkType-child|stype-|voicetype-	6	lwg__psp	_	_
8	aMjAma	aMjAma	NN	n	lex-aMjAma|cat-n|gen-m|num-sg|pers-3|case-d|vib-0|tam-0|chunkId-NP5|chunkType-head|stype-|voicetype-	9	pof	_	_
9	xene	xe	VM	v	lex-xe|cat-v|gen-any|num-sg|pers-3|case-o|vib-nA_se_pahale|tam-nA|chunkId-VGNN|chunkType-head|stype-|voicetype-	19	k7t	_	_
10	se	se	PSP	psp	lex-se|cat-psp|gen-|num-|pers-|case-|vib-|tam-|chunkId-VGNN|chunkType-child|stype-|voicetype-	9	lwg__psp	_	_
11	pahale	pahale	NST	nst	lex-pahale|cat-nst|gen-m|num-sg|pers-3|case-d|vib-|tam-|chunkId-VGNN|chunkType-child|stype-|voicetype-	9	lwg__nst	_	_
12	jahAnAbAxa	jahAnAbAxa	NNP	n	lex-jahAnAbAxa|cat-n|gen-m|num-sg|pers-3|case-d|vib-0|tam-0|chunkId-NP6|chunkType-child|stype-|voicetype-	13	nmod__adj	_	_
13	jela	jela	NN	n	lex-jela|cat-n|gen-f|num-sg|pers-3|case-o|vib-0_meM|tam-0|chunkId-NP6|chunkType-head|stype-|voicetype-	19	k7p	_	_
14	meM	meM	PSP	psp	lex-meM|cat-psp|gen-|num-|pers-|case-|vib-|tam-|chunkId-NP6|chunkType-child|stype-|voicetype-	13	lwg__psp	_	_
15	xahaSawa	xahaSawa	NN	n	lex-xahaSawa|cat-n|gen-f|num-sg|pers-3|case-o|vib-0_kA|tam-0|chunkId-NP7|chunkType-head|stype-|voicetype-	17	r6	_	_
16	kA	kA	PSP	psp	lex-kA|cat-psp|gen-m|num-sg|pers-|case-d|vib-|tam-|chunkId-NP7|chunkType-child|stype-|voicetype-	15	lwg__psp	_	_
17	mAhOla	mAhOla	NN	n	lex-mAhOla|cat-n|gen-m|num-sg|pers-3|case-d|vib-0|tam-0|chunkId-NP8|chunkType-head|stype-|voicetype-	19	k2	_	_
18	pExA	pExA	JJ	adj	lex-pExA|cat-adj|gen-any|num-any|pers-|case-|vib-|tam-|chunkId-JJP|chunkType-head|stype-|voicetype-	19	pof	_	_
19	kara	kara	VM	v	lex-kara|cat-v|gen-m|num-sg|pers-any|case-|vib-0_xe+yA_WA|tam-0|chunkId-VGF|chunkType-head|stype-declarative|voicetype-active	0	main	_	_
20	xiyA	xe	VAUX	v	lex-xe|cat-v|gen-m|num-sg|pers-any|case-|vib-yA|tam-yA|chunkId-VGF|chunkType-child|stype-|voicetype-	19	lwg__vaux	_	_
21	WA	WA	VAUX	v	lex-WA|cat-v|gen-m|num-sg|pers-any|case-|vib-WA|tam-WA|chunkId-VGF|chunkType-child|stype-|voicetype-	19	lwg__vaux	_	_
22	.	.	SYM	punc	lex-.|cat-punc|gen-|num-|pers-|case-|vib-|tam-|chunkId-BLK|chunkType-head|stype-|voicetype-	19	rsym	_	_

1	unhoMne	vaha	PRP	pn	lex-vaha|cat-pn|gen-any|num-sg|pers-3h|case-o|vib-ne|tam-ne|chunkId-NP|chunkType-head|stype-|voicetype-	8	k1	_	_
2	gArdoM	gArda	NN	n	lex-gArda|cat-n|gen-m|num-pl|pers-3|case-o|vib-0_se|tam-0|chunkId-NP2|chunkType-head|stype-|voicetype-	8	k3	_	_
3	se	se	PSP	psp	lex-se|cat-psp|gen-|num-|pers-|case-|vib-|tam-|chunkId-NP2|chunkType-child|stype-|voicetype-	2	lwg__psp	_	_
4	jabarxaswI	jabarxaswI	NN	n	lex-jabarxaswI|cat-n|gen-f|num-sg|pers-3|case-d|vib-0|tam-0|chunkId-NP3|chunkType-head|stype-|voicetype-	8	adv	_	_
5	vArdo	vArda	NN	n	lex-vArda|cat-n|gen-m|num-pl|pers-3|case-o|vib-0_kA|tam-0|chunkId-NP4|chunkType-head|stype-|voicetype-	7	r6	_	_
6	ke	kA	PSP	psp	lex-kA|cat-psp|gen-m|num-pl|pers-|case-d|vib-|tam-|chunkId-NP4|chunkType-child|stype-|voicetype-	5	lwg__psp	_	_
7	wAle	wAlA	NN	n	lex-wAlA|cat-n|gen-m|num-pl|pers-3|case-d|vib-0|tam-0|chunkId-NP5|chunkType-head|stype-|voicetype-	8	k2	_	_
8	KulavAe	KulavA	VM	v	lex-KulavA|cat-v|gen-m|num-pl|pers-any|case-|vib-yA|tam-yA|chunkId-VGF|chunkType-head|stype-declarative|voicetype-active	9	ccof	_	_
9	Ora	Ora	CC	avy	lex-Ora|cat-avy|gen-|num-|pers-|case-|vib-|tam-|chunkId-CCP|chunkType-head|stype-|voicetype-	0	main	_	_
10	jela	jela	NN	n	lex-jela|cat-n|gen-f|num-sg|pers-3|case-o|vib-0_meM|tam-0|chunkId-NP6|chunkType-head|stype-|voicetype-	14	k7p	_	_
11	meM	meM	PSP	psp	lex-meM|cat-psp|gen-|num-|pers-|case-|vib-|tam-|chunkId-NP6|chunkType-child|stype-|voicetype-	10	lwg__psp	_	_
12	bama	bama	NN	n	lex-bama|cat-n|gen-m|num-sg|pers-3|case-d|vib-0|tam-0|chunkId-NP7|chunkType-head|stype-|voicetype-	14	k2	_	_
13	Pita	Pita	UNK	unk	lex-Pita|cat-unk|gen-|num-|pers-|case-|vib-|tam-|chunkId-BLK|chunkType-head|stype-|voicetype-	14	pof	_	_
14	karane	kara	VM	v	lex-kara|cat-v|gen-any|num-sg|pers-any|case-o|vib-nA_kA|tam-nA|chunkId-VGNN|chunkType-head|stype-|voicetype-	16	r6	_	_
15	kI	kA	PSP	psp	lex-kA|cat-psp|gen-f|num-sg|pers-|case-d|vib-|tam-|chunkId-VGNN|chunkType-child|stype-|voicetype-	14	lwg__psp	_	_
16	bAwa	bAwa	NN	n	lex-bAwa|cat-n|gen-f|num-sg|pers-3|case-d|vib-0|tam-0|chunkId-NP8|chunkType-head|stype-|voicetype-	17	k2	_	_
17	kahawe	kaha	VM	v	lex-kaha|cat-v|gen-m|num-sg|pers-any|case-|vib-wA_ho+yA|tam-wA|chunkId-VGNF|chunkType-head|stype-|voicetype-	24	vmod	_	_
18	hue	ho	VAUX	v	lex-ho|cat-v|gen-m|num-sg|pers-any|case-|vib-yA|tam-yA|chunkId-VGNF|chunkType-child|stype-|voicetype-	17	lwg__vaux	_	_
19	kExiyoM	kExI	NN	n	lex-kExI|cat-n|gen-m|num-pl|pers-3|case-o|vib-0_se|tam-0|chunkId-NP9|chunkType-head|stype-|voicetype-	24	k2	_	_
20	se	se	PSP	psp	lex-se|cat-psp|gen-|num-|pers-|case-|vib-|tam-|chunkId-NP9|chunkType-child|stype-|voicetype-	19	lwg__psp	_	_
21	BAga	BAga	VM	v	lex-BAga|cat-v|gen-any|num-any|pers-any|case-|vib-0_jA+nA_ko|tam-0|chunkId-VGNN2|chunkType-head|stype-|voicetype-	24	rt	_	_
22	jAne	jA	VAUX	v	lex-jA|cat-v|gen-any|num-any|pers-any|case-o|vib-nA|tam-nA|chunkId-VGNN2|chunkType-child|stype-|voicetype-	21	lwg__vaux	_	_
23	ko	ko	PSP	psp	lex-ko|cat-psp|gen-|num-|pers-|case-|vib-|tam-|chunkId-VGNN2|chunkType-child|stype-|voicetype-	21	lwg__psp	_	_
24	kahA	kaha	VM	v	lex-kaha|cat-v|gen-m|num-sg|pers-any|case-|vib-yA|tam-yA|chunkId-VGF2|chunkType-head|stype-declarative|voicetype-active	9	ccof	_	_
25	.	.	SYM	punc	lex-.|cat-punc|gen-|num-|pers-|case-|vib-|tam-|chunkId-BLK2|chunkType-head|stype-|voicetype-	9	rsym	_	_

1	iwanA	iwanA	QF	adj	lex-iwanA|cat-adj|gen-m|num-sg|pers-|case-|vib-|tam-|chunkId-JJP|chunkType-head|stype-|voicetype-	2	k2	_	_
2	sunanA	suna	VM	v	lex-suna|cat-v|gen-m|num-sg|pers-any|case-|vib-nA_WA|tam-nA|chunkId-VGF|chunkType-head|stype-declarative|voicetype-active	0	main	_	_
3	WA	WA	VAUX	v	lex-WA|cat-v|gen-m|num-sg|pers-any|case-|vib-WA|tam-WA|chunkId-VGF|chunkType-child|stype-|voicetype-	2	lwg__vaux	_	_
4	ki	ki	CC	avy	lex-ki|cat-avy|gen-|num-|pers-|case-|vib-|tam-|chunkId-CCP|chunkType-head|stype-|voicetype-	1	rs	_	_
5	kExiyoM	kExI	NN	n	lex-kExI|cat-n|gen-m|num-pl|pers-3|case-o|vib-0_meM|tam-0|chunkId-NP|chunkType-head|stype-|voicetype-	8	k7	_	_
6	meM	meM	PSP	psp	lex-meM|cat-psp|gen-|num-|pers-|case-|vib-|tam-|chunkId-NP|chunkType-child|stype-|voicetype-	5	lwg__psp	_	_
7	BagaxadZa	BagaxadZa	NN	n	lex-BagaxadZa|cat-n|gen-f|num-sg|pers-3|case-d|vib-0|tam-0|chunkId-NP2|chunkType-head|stype-|voicetype-	8	pof	_	_
8	maca	maca	VM	v	lex-maca|cat-v|gen-any|num-sg|pers-any|case-|vib-0_jA+yA1|tam-0|chunkId-VGF2|chunkType-head|stype-declarative|voicetype-active	4	ccof	_	_
9	gaI	jA	VAUX	v	lex-jA|cat-v|gen-f|num-sg|pers-any|case-|vib-yA1|tam-yA1|chunkId-VGF2|chunkType-child|stype-|voicetype-	8	lwg__vaux	_	_
10	.	.	SYM	punc	lex-.|cat-punc|gen-|num-|pers-|case-|vib-|tam-|chunkId-BLK|chunkType-head|stype-|voicetype-	2	rsym	_	_

1	Sahara	Sahara	NN	n	lex-Sahara|cat-n|gen-m|num-sg|pers-3|case-o|vib-0_kA|tam-0|chunkId-NP|chunkType-head|stype-|voicetype-	3	r6	_	_
2	ke	kA	PSP	psp	lex-kA|cat-psp|gen-m|num-pl|pers-|case-o|vib-|tam-|chunkId-NP|chunkType-child|stype-|voicetype-	1	lwg__psp	_	_
3	logoM	loga	NN	n	lex-loga|cat-n|gen-m|num-pl|pers-3|case-o|vib-0_ne|tam-0|chunkId-NP2|chunkType-head|stype-|voicetype-	9	k1	_	_
4	ne	ne	PSP	psp	lex-ne|cat-psp|gen-|num-|pers-|case-|vib-|tam-|chunkId-NP2|chunkType-child|stype-|voicetype-	3	lwg__psp	_	_
5	pUrI	pUrA	JJ	adj	lex-pUrA|cat-adj|gen-f|num-sg|pers-|case-d|vib-|tam-|chunkId-NP3|chunkType-child|stype-|voicetype-	6	nmod__adj	_	_
6	rAwa	rAwa	NN	n	lex-rAwa|cat-n|gen-f|num-sg|pers-3|case-d|vib-0|tam-0|chunkId-NP3|chunkType-head|stype-|voicetype-	9	k7t	_	_
7	becEnI	becEnI	NN	n	lex-becEnI|cat-n|gen-f|num-sg|pers-3|case-o|vib-0_meM|tam-0|chunkId-NP4|chunkType-head|stype-|voicetype-	9	k7	_	_
8	meM	meM	PSP	psp	lex-meM|cat-psp|gen-|num-|pers-|case-|vib-|tam-|chunkId-NP4|chunkType-child|stype-|voicetype-	7	lwg__psp	_	_
9	gujArI	gujAra	VM	v	lex-gujAra|cat-v|gen-f|num-sg|pers-any|case-|vib-yA|tam-yA|chunkId-VGF|chunkType-head|stype-declarative|voicetype-active	10	ccof	_	_
10	Ora	Ora	CC	avy	lex-Ora|cat-avy|gen-|num-|pers-|case-|vib-|tam-|chunkId-CCP|chunkType-head|stype-|voicetype-	0	main	_	_
11	pO	pO	NN	n	lex-pO|cat-n|gen-f|num-sg|pers-3|case-d|vib-0|tam-0|chunkId-NP5|chunkType-head|stype-|voicetype-	12	pof	_	_
12	Patawe	Pata	VM	v	lex-Pata|cat-v|gen-m|num-sg|pers-any|case-|vib-wA|tam-wA|chunkId-VGNF|chunkType-head|stype-|voicetype-	24	vmod	_	_
13	hI	hI	RP	avy	lex-hI|cat-avy|gen-|num-|pers-|case-|vib-|tam-|chunkId-VGNF|chunkType-child|stype-|voicetype-	12	lwg__rp	_	_
14	hajAroM	hajAra	QC	num	lex-hajAra|cat-num|gen-any|num-pl|pers-|case-any|vib-|tam-|chunkId-NP6|chunkType-child|stype-|voicetype-	15	nmod__adj	_	_
15	logoM	loga	NN	n	lex-loga|cat-n|gen-m|num-pl|pers-3|case-o|vib-0_kA|tam-0|chunkId-NP6|chunkType-head|stype-|voicetype-	17	r6	_	_
16	kA	kA	PSP	psp	lex-kA|cat-psp|gen-m|num-sg|pers-|case-d|vib-|tam-|chunkId-NP6|chunkType-child|stype-|voicetype-	15	lwg__psp	_	_
17	hujUma	hujUma	NN	n	lex-hujUma|cat-n|gen-m|num-sg|pers-3|case-d|vib-0|tam-0|chunkId-NP7|chunkType-head|stype-|voicetype-	24	k1	_	_
18	jela	jela	NN	n	lex-jela|cat-n|gen-f|num-sg|pers-3|case-o|vib-0_kA|tam-0|chunkId-NP8|chunkType-head|stype-|voicetype-	21	r6	_	_
19	ke	kA	PSP	psp	lex-kA|cat-psp|gen-m|num-sg|pers-|case-o|vib-|tam-|chunkId-NP8|chunkType-child|stype-|voicetype-	18	lwg__psp	_	_
20	muKya	muKya	JJ	adj	lex-muKya|cat-adj|gen-any|num-any|pers-|case-o|vib-|tam-|chunkId-NP9|chunkType-child|stype-|voicetype-	21	nmod__adj	_	_
21	xaravAje	xaravAjA	NN	n	lex-xaravAjA|cat-n|gen-m|num-sg|pers-3|case-o|vib-0_para|tam-0|chunkId-NP9|chunkType-head|stype-|voicetype-	24	k7p	_	_
22	para	para	PSP	psp	lex-para|cat-psp|gen-|num-|pers-|case-|vib-|tam-|chunkId-NP9|chunkType-child|stype-|voicetype-	21	lwg__psp	_	_
23	A	A	VM	v	lex-A|cat-v|gen-any|num-any|pers-any|case-|vib-0|tam-0|chunkId-VGNF2|chunkType-head|stype-|voicetype-	24	vmod	_	_
24	jamA	jamA	VM	v	lex-jamA|cat-v|gen-any|num-sg|pers-any|case-|vib-0_ho+yA|tam-0|chunkId-VGF2|chunkType-head|stype-declarative|voicetype-active	10	ccof	_	_
25	huA	ho	VAUX	v	lex-ho|cat-v|gen-m|num-sg|pers-any|case-|vib-yA|tam-yA|chunkId-VGF2|chunkType-child|stype-|voicetype-	24	lwg__vaux	_	_
26	.	.	SYM	punc	lex-.|cat-punc|gen-|num-|pers-|case-|vib-|tam-|chunkId-BLK|chunkType-head|stype-|voicetype-	10	rsym	_	_

1	BIdZa	BIdZa	NN	n	lex-BIdZa|cat-n|gen-f|num-sg|pers-3|case-o|vib-0_meM|tam-0|chunkId-NP|chunkType-head|stype-|voicetype-	17	k7	_	_
2	meM	meM	PSP	psp	lex-meM|cat-psp|gen-|num-|pers-|case-|vib-|tam-|chunkId-NP|chunkType-child|stype-|voicetype-	1	lwg__psp	_	_
3	kuCa	kuCa	QF	avy	lex-kuCa|cat-avy|gen-|num-|pers-|case-|vib-|tam-|chunkId-NP2|chunkType-child|stype-|voicetype-	4	nmod__adj	_	_
4	loga	loga	NN	n	lex-loga|cat-n|gen-m|num-pl|pers-3|case-d|vib-0|tam-0|chunkId-NP2|chunkType-head|stype-|voicetype-	17	k1	_	_
5	jela	jela	NN	n	lex-jela|cat-n|gen-f|num-sg|pers-3|case-o|vib-0_meM|tam-0|chunkId-NP3|chunkType-head|stype-|voicetype-	7	jjmod	_	_
6	meM	meM	PSP	psp	lex-meM|cat-psp|gen-|num-|pers-|case-|vib-|tam-|chunkId-NP3|chunkType-child|stype-|voicetype-	5	lwg__psp	_	_
7	baMxa	baMxa	JJ	adj	lex-baMxa|cat-adj|gen-any|num-any|pers-|case-o|vib-|tam-|chunkId-JJP|chunkType-head|stype-|voicetype-	9	nmod	_	_
8	apane	apanA	PRP	pn	lex-apanA|cat-pn|gen-m|num-any|pers-any|case-o|vib-0|tam-0|chunkId-NP4|chunkType-head|stype-|voicetype-	9	r6	_	_
9	saMbaMXiyoM	saMbaMXI	NN	n	lex-saMbaMXI|cat-n|gen-m|num-pl|pers-3|case-o|vib-0_ke_bAre_meM|tam-0|chunkId-NP5|chunkType-head|stype-|voicetype-	17	k7	_	_
10	ke	ke	PSP	psp	lex-ke|cat-psp|gen-|num-|pers-|case-|vib-|tam-|chunkId-NP5|chunkType-child|stype-|voicetype-	9	lwg__psp	_	_
11	bAre	bAre	PSP	psp	lex-bAre|cat-psp|gen-|num-|pers-|case-|vib-|tam-|chunkId-NP5|chunkType-child|stype-|voicetype-	9	lwg__psp	_	_
12	meM	meM	PSP	psp	lex-meM|cat-psp|gen-|num-|pers-|case-|vib-|tam-|chunkId-NP5|chunkType-child|stype-|voicetype-	9	lwg__psp	_	_
13	jAnakArI	jAnakArI	NN	n	lex-jAnakArI|cat-n|gen-f|num-sg|pers-3|case-d|vib-0|tam-0|chunkId-NP6|chunkType-head|stype-|voicetype-	14	k2	_	_
14	lene	le	VM	v	lex-le|cat-v|gen-any|num-sg|pers-any|case-o|vib-nA_kA|tam-nA|chunkId-VGNN|chunkType-head|stype-|voicetype-	16	r6-k2	_	_
15	kA	kA	PSP	psp	lex-kA|cat-psp|gen-m|num-sg|pers-|case-d|vib-|tam-|chunkId-VGNN|chunkType-child|stype-|voicetype-	14	lwg__psp	_	_
16	prayAsa	prayAsa	NN	n	lex-prayAsa|cat-n|gen-m|num-sg|pers-3|case-d|vib-0|tam-0|chunkId-NP7|chunkType-head|stype-|voicetype-	17	pof	_	_
17	kara	kara	VM	v	lex-kara|cat-v|gen-m|num-pl|pers-any|case-|vib-0_raha+yA_WA|tam-0|chunkId-VGF|chunkType-head|stype-declarative|voicetype-active	20	ccof	_	_
18	rahe	raha	VAUX	v	lex-raha|cat-v|gen-m|num-pl|pers-any|case-|vib-yA|tam-yA|chunkId-VGF|chunkType-child|stype-|voicetype-	17	lwg__vaux	_	_
19	We	WA	VAUX	v	lex-WA|cat-v|gen-m|num-pl|pers-any|case-|vib-WA|tam-WA|chunkId-VGF|chunkType-child|stype-|voicetype-	17	lwg__vaux	_	_
20	Ora	Ora	CC	avy	lex-Ora|cat-avy|gen-|num-|pers-|case-|vib-|tam-|chunkId-CCP|chunkType-head|stype-|voicetype-	0	main	_	_
21	surakRA	surakRA	NN	n	lex-surakRA|cat-n|gen-f|num-sg|pers-3|case-o|vib-0_kA|tam-0|chunkId-NP8|chunkType-head|stype-|voicetype-	23	r6	_	_
22	kI	kA	PSP	psp	lex-kA|cat-psp|gen-f|num-sg|pers-|case-o|vib-|tam-|chunkId-NP8|chunkType-child|stype-|voicetype-	21	lwg__psp	_	_
23	baxaiMwajAmI	baxaiMwajAmI	NN	n	lex-baxaiMwajAmI|cat-n|gen-f|num-sg|pers-3|case-o|vib-0_ke_lie|tam-0|chunkId-NP9|chunkType-head|stype-|voicetype-	29	rt	_	_
24	ke	ke	PSP	psp	lex-ke|cat-psp|gen-|num-|pers-|case-|vib-|tam-|chunkId-NP9|chunkType-child|stype-|voicetype-	23	lwg__psp	_	_
25	lie	lie	PSP	psp	lex-lie|cat-psp|gen-|num-|pers-|case-|vib-|tam-|chunkId-NP9|chunkType-child|stype-|voicetype-	23	lwg__psp	_	_
26	jela	jela	NNC	n	lex-jela|cat-n|gen-f|num-sg|pers-3|case-d|vib-0|tam-0|chunkId-NP10|chunkType-child|stype-|voicetype-	27	pof__cn	_	_
27	aXikAriyoM	aXikArI	NN	n	lex-aXikArI|cat-n|gen-m|num-pl|pers-3|case-o|vib-0_ko|tam-0|chunkId-NP10|chunkType-head|stype-|voicetype-	29	k2	_	_
28	ko	ko	PSP	psp	lex-ko|cat-psp|gen-|num-|pers-|case-|vib-|tam-|chunkId-NP10|chunkType-child|stype-|voicetype-	27	lwg__psp	_	_
29	kosa	kosa	VM	v	lex-kosa|cat-v|gen-m|num-pl|pers-any|case-|vib-0_raha+yA_WA|tam-0|chunkId-VGF2|chunkType-head|stype-declarative|voicetype-active	20	ccof	_	_
30	rahe	raha	VAUX	v	lex-raha|cat-v|gen-m|num-pl|pers-any|case-|vib-yA|tam-yA|chunkId-VGF2|chunkType-child|stype-|voicetype-	29	lwg__vaux	_	_
31	We	WA	VAUX	v	lex-WA|cat-v|gen-m|num-pl|pers-any|case-|vib-WA|tam-WA|chunkId-VGF2|chunkType-child|stype-|voicetype-	29	lwg__vaux	_	_
32	.	.	SYM	punc	lex-.|cat-punc|gen-|num-|pers-|case-|vib-|tam-|chunkId-BLK|chunkType-head|stype-|voicetype-	20	rsym	_	_

1	jela	jela	NN	n	lex-jela|cat-n|gen-f|num-sg|pers-3|case-o|vib-0_se|tam-0|chunkId-NP|chunkType-head|stype-|voicetype-	3	k5	_	_
2	se	se	PSP	psp	lex-se|cat-psp|gen-|num-|pers-|case-|vib-|tam-|chunkId-NP|chunkType-child|stype-|voicetype-	1	lwg__psp	_	_
3	BAge	BAga	VM	v	lex-BAga|cat-v|gen-m|num-pl|pers-any|case-|vib-yA|tam-yA|chunkId-VGNF|chunkType-head|stype-|voicetype-	5	nmod__k1inv	_	_
4	341	341	QC	num	lex-341|cat-num|gen-any|num-any|pers-|case-any|vib-|tam-|chunkId-NP2|chunkType-child|stype-|voicetype-	5	nmod__adj	_	_
5	kExiyoM	kExI	NN	n	lex-kExI|cat-n|gen-m|num-pl|pers-3|case-o|vib-0_meM|tam-0|chunkId-NP2|chunkType-head|stype-|voicetype-	19	k7	_	_
6	meM	meM	PSP	psp	lex-meM|cat-psp|gen-|num-|pers-|case-|vib-|tam-|chunkId-NP2|chunkType-child|stype-|voicetype-	5	lwg__psp	_	_
7	kuCa	kuCa	QF	avy	lex-kuCa|cat-avy|gen-|num-|pers-|case-|vib-|tam-|chunkId-NP3|chunkType-child|stype-|voicetype-	8	nmod__adj	_	_
8	kExI	kExI	NN	n	lex-kExI|cat-n|gen-m|num-pl|pers-3|case-d|vib-0|tam-0|chunkId-NP3|chunkType-head|stype-|voicetype-	19	k1	_	_
9	isa	yaha	DEM	pn	lex-yaha|cat-pn|gen-any|num-sg|pers-3|case-o|vib-|tam-|chunkId-NP4|chunkType-child|stype-|voicetype-	10	nmod__adj	_	_
10	BIdZa	BIdZa	NN	n	lex-BIdZa|cat-n|gen-f|num-sg|pers-3|case-o|vib-0_meM|tam-0|chunkId-NP4|chunkType-head|stype-|voicetype-	19	k7	_	_
11	meM	meM	PSP	psp	lex-meM|cat-psp|gen-|num-|pers-|case-|vib-|tam-|chunkId-NP4|chunkType-child|stype-|voicetype-	10	lwg__psp	_	_
12	be	be	RP	avy	lex-be|cat-avy|gen-|num-|pers-|case-|vib-|tam-|chunkId-RBP|chunkType-child|stype-|voicetype-	15	lwg__rp	_	_
13	roka	roka	RBC	adv	lex-roka|cat-adv|gen-|num-|pers-|case-|vib-|tam-|chunkId-RBP|chunkType-child|stype-|voicetype-	15	mod	_	_
14	-	-	SYM	punc	lex--|cat-punc|gen-|num-|pers-|case-|vib-|tam-|chunkId-RBP|chunkType-child|stype-|voicetype-	15	rsym	_	_
15	toka	toka	RB	adv	lex-toka|cat-adv|gen-|num-|pers-|case-|vib-|tam-|chunkId-RBP|chunkType-head|stype-|voicetype-	19	adv	_	_
16	apane	apanA	PRP	pn	lex-apanA|cat-pn|gen-m|num-any|pers-any|case-o|vib-0|tam-0|chunkId-NP5|chunkType-head|stype-|voicetype-	17	r6	_	_
17	riSwexAroM	riSwexAra	NN	n	lex-riSwexAra|cat-n|gen-m|num-pl|pers-3|case-o|vib-0_se|tam-0|chunkId-NP6|chunkType-head|stype-|voicetype-	19	ras-k1	_	_
18	se	se	PSP	psp	lex-se|cat-psp|gen-|num-|pers-|case-|vib-|tam-|chunkId-NP6|chunkType-child|stype-|voicetype-	17	lwg__psp	_	_
19	mila	mila	VM	v	lex-mila|cat-v|gen-m|num-pl|pers-any|case-|vib-0_raha+yA_WA|tam-0|chunkId-VGF|chunkType-head|stype-declarative|voicetype-active	23	ccof	_	_
20	rahe	raha	VAUX	v	lex-raha|cat-v|gen-m|num-pl|pers-any|case-|vib-yA|tam-yA|chunkId-VGF|chunkType-child|stype-|voicetype-	19	lwg__vaux	_	_
21	We	WA	VAUX	v	lex-WA|cat-v|gen-m|num-pl|pers-any|case-|vib-WA|tam-WA|chunkId-VGF|chunkType-child|stype-|voicetype-	19	lwg__vaux	_	_
22	,	COMMA	SYM	punc	lex-COMMA|cat-punc|gen-|num-|pers-|case-|vib-|tam-|chunkId-VGF|chunkType-child|stype-|voicetype-	19	rsym	_	_
23	NULL	_	CC	_	lex-_|cat-_|gen-|num-|pers-|case-|vib-|tam-|chunkId-NULL__CCP|chunkType-head|stype-|voicetype-	0	main	_	_
24	kuCa	kuCa	QF	avy	lex-kuCa|cat-avy|gen-|num-|pers-|case-|vib-|tam-|chunkId-NP7|chunkType-child|stype-|voicetype-	25	nmod__adj	_	_
25	kExI	kExI	NN	n	lex-kExI|cat-n|gen-m|num-pl|pers-3|case-d|vib-0|tam-0|chunkId-NP7|chunkType-head|stype-|voicetype-	30	k1	_	_
26	stOYla	stOYla	NN	n	lex-stOYla|cat-n|gen-f|num-sg|pers-3|case-o|vib-0_para|tam-0|chunkId-NP8|chunkType-head|stype-|voicetype-	30	k7p	_	_
27	para	para	PSP	psp	lex-para|cat-psp|gen-|num-|pers-|case-|vib-|tam-|chunkId-NP8|chunkType-child|stype-|voicetype-	26	lwg__psp	_	_
28	cAya	cAya	NN	n	lex-cAya|cat-n|gen-f|num-sg|pers-3|case-d|vib-0|tam-0|chunkId-NP9|chunkType-head|stype-|voicetype-	30	k2	_	_
29	BI	BI	RP	avy	lex-BI|cat-avy|gen-|num-|pers-|case-|vib-|tam-|chunkId-NP9|chunkType-child|stype-|voicetype-	28	lwg__rp	_	_
30	pI	pI	VM	v	lex-pI|cat-v|gen-m|num-pl|pers-any|case-|vib-0_raha+yA_WA|tam-0|chunkId-VGF2|chunkType-head|stype-declarative|voicetype-active	23	ccof	_	_
31	rahe	raha	VAUX	v	lex-raha|cat-v|gen-m|num-pl|pers-any|case-|vib-yA|tam-yA|chunkId-VGF2|chunkType-child|stype-|voicetype-	30	lwg__vaux	_	_
32	We	WA	VAUX	v	lex-WA|cat-v|gen-m|num-pl|pers-any|case-|vib-WA|tam-WA|chunkId-VGF2|chunkType-child|stype-|voicetype-	30	lwg__vaux	_	_
33	.	.	SYM	punc	lex-.|cat-punc|gen-|num-|pers-|case-|vib-|tam-|chunkId-BLK|chunkType-head|stype-|voicetype-	23	rsym	_	_

1	BIdZa	BIdZa	NN	n	lex-BIdZa|cat-n|gen-f|num-sg|pers-3|case-o|vib-0_meM|tam-0|chunkId-NP|chunkType-head|stype-|voicetype-	3	jjmod	_	_
2	meM	meM	PSP	psp	lex-meM|cat-psp|gen-|num-|pers-|case-|vib-|tam-|chunkId-NP|chunkType-child|stype-|voicetype-	1	lwg__psp	_	_
3	SAmila	SAmila	JJ	adj	lex-SAmila|cat-adj|gen-any|num-any|pers-|case-o|vib-|tam-|chunkId-JJP|chunkType-head|stype-|voicetype-	4	nmod	_	_
4	SikRaka	SikRaka	NN	n	lex-SikRaka|cat-n|gen-m|num-sg|pers-3|case-o|vib-0|tam-0|chunkId-NP2|chunkType-head|stype-|voicetype-	6	nmod	_	_
5	vIreMxra	vIreMxra	NNPC	n	lex-vIreMxra|cat-n|gen-m|num-sg|pers-3|case-d|vib-0|tam-0|chunkId-NP3|chunkType-child|stype-|voicetype-	6	pof__cn	_	_
6	SarmA	SarmA	NNP	n	lex-SarmA|cat-n|gen-any|num-sg|pers-3|case-o|vib-0_ne|tam-0|chunkId-NP3|chunkType-head|stype-|voicetype-	10	k1	_	_
7	ne	ne	PSP	psp	lex-ne|cat-psp|gen-|num-|pers-|case-|vib-|tam-|chunkId-NP3|chunkType-child|stype-|voicetype-	6	lwg__psp	_	_
8	mOjU	mOjU	JJ	adj	lex-mOjU|cat-adj|gen-any|num-any|pers-|case-d|vib-|tam-|chunkId-NP4|chunkType-child|stype-|voicetype-	9	nmod__adj	_	_
9	savAla	savAla	NN	n	lex-savAla|cat-n|gen-m|num-sg|pers-3|case-d|vib-0|tam-0|chunkId-NP4|chunkType-head|stype-|voicetype-	10	pof	_	_
10	uTAyA	uTA	VM	v	lex-uTA|cat-v|gen-m|num-sg|pers-any|case-|vib-yA|tam-yA|chunkId-VGF|chunkType-head|stype-declarative|voicetype-active	0	main	_	_
11	,	COMMA	SYM	punc	lex-COMMA|cat-punc|gen-|num-|pers-|case-|vib-|tam-|chunkId-VGF|chunkType-child|stype-|voicetype-	10	rsym	_	_
12	jaba	jaba	PRP	pn	lex-jaba|cat-pn|gen-|num-|pers-|case-d|vib-|tam-|chunkId-NP5|chunkType-head|stype-|voicetype-	21	k7t	_	_
13	loga	loga	NN	n	lex-loga|cat-n|gen-m|num-pl|pers-3|case-d|vib-0|tam-0|chunkId-NP6|chunkType-head|stype-|voicetype-	21	k1	_	_
14	kAnUna	kAnUna	NN	n	lex-kAnUna|cat-n|gen-m|num-sg|pers-3|case-o|vib-0_kA|tam-0|chunkId-NP7|chunkType-head|stype-|voicetype-	16	r6	_	_
15	kI	kA	PSP	psp	lex-kA|cat-psp|gen-f|num-sg|pers-|case-o|vib-|tam-|chunkId-NP7|chunkType-child|stype-|voicetype-	14	lwg__psp	_	_
16	giraPwa	giraPwa	NN	n	lex-giraPwa|cat-n|gen-f|num-sg|pers-3|case-o|vib-0_meM|tam-0|chunkId-NP8|chunkType-head|stype-|voicetype-	21	k7	_	_
17	meM	meM	PSP	psp	lex-meM|cat-psp|gen-|num-|pers-|case-|vib-|tam-|chunkId-NP8|chunkType-child|stype-|voicetype-	16	lwg__psp	_	_
18	BI	BI	RP	avy	lex-BI|cat-avy|gen-|num-|pers-|case-|vib-|tam-|chunkId-NP8|chunkType-child|stype-|voicetype-	16	lwg__rp	_	_
19	surakRiwa	surakRiwa	JJ	adj	lex-surakRiwa|cat-adj|gen-any|num-any|pers-|case-|vib-|tam-|chunkId-JJP2|chunkType-head|stype-|voicetype-	21	k1s	_	_
20	nahIM	nahIM	NEG	avy	lex-nahIM|cat-avy|gen-|num-|pers-|case-|vib-|tam-|chunkId-VGF2|chunkType-child|stype-|voicetype-	21	lwg__neg	_	_
21	hEM	hE	VM	v	lex-hE|cat-v|gen-any|num-pl|pers-3|case-|vib-hE|tam-hE|chunkId-VGF2|chunkType-head|stype-declarative|voicetype-active	23	nmod__relc	_	_
22	,	COMMA	SYM	punc	lex-COMMA|cat-punc|gen-|num-|pers-|case-|vib-|tam-|chunkId-VGF2|chunkType-child|stype-|voicetype-	21	rsym	_	_
23	wo	wo	PRP	pn	lex-wo|cat-pn|gen-|num-|pers-|case-d|vib-|tam-|chunkId-NP9|chunkType-head|stype-|voicetype-	25	k7t	_	_
24	kahAM	kahAz	WQ	pn	lex-kahAz|cat-pn|gen-|num-|pers-|case-d|vib-|tam-|chunkId-NP10|chunkType-head|stype-|voicetype-	25	k7p	_	_
25	milegI	mila	VM	v	lex-mila|cat-v|gen-f|num-sg|pers-3|case-|vib-gA|tam-gA|chunkId-VGF3|chunkType-head|stype-declarative|voicetype-active	10	k2	_	_
26	surakRA	surakRA	NN	n	lex-surakRA|cat-n|gen-f|num-sg|pers-3|case-d|vib-0|tam-0|chunkId-NP11|chunkType-head|stype-|voicetype-	25	k1	_	_
27	.	.	SYM	punc	lex-.|cat-punc|gen-|num-|pers-|case-|vib-|tam-|chunkId-BLK|chunkType-head|stype-|voicetype-	10	rsym	_	_

1	jela	jela	NN	n	lex-jela|cat-n|gen-f|num-sg|pers-3|case-d|vib-0|tam-0|chunkId-NP|chunkType-head|stype-|voicetype-	2	k2p	_	_
2	lOta	lOta	VM	v	lex-lOta|cat-v|gen-any|num-pl|pers-any|case-|vib-0_A+yA|tam-0|chunkId-VGNF|chunkType-head|stype-|voicetype-	4	nmod__k1inv	_	_
3	Ae	A	VAUX	v	lex-A|cat-v|gen-m|num-pl|pers-any|case-|vib-yA|tam-yA|chunkId-VGNF|chunkType-child|stype-|voicetype-	2	lwg__vaux	_	_
4	kExiyoM	kExI	NN	n	lex-kExI|cat-n|gen-m|num-pl|pers-3|case-o|vib-0_meM|tam-0|chunkId-NP2|chunkType-head|stype-|voicetype-	6	jjmod	_	_
5	meM	meM	PSP	psp	lex-meM|cat-psp|gen-|num-|pers-|case-|vib-|tam-|chunkId-NP2|chunkType-child|stype-|voicetype-	4	lwg__psp	_	_
6	SAmila	SAmila	JJ	adj	lex-SAmila|cat-adj|gen-any|num-any|pers-|case-o|vib-|tam-|chunkId-JJP|chunkType-head|stype-|voicetype-	8	nmod	_	_
7	saMjaya	saMjaya	NNPC	n	lex-saMjaya|cat-n|gen-m|num-sg|pers-3|case-d|vib-0|tam-0|chunkId-NP3|chunkType-child|stype-|voicetype-	8	pof__cn	_	_
8	pAMde	pAMde	NNP	n	lex-pAMde|cat-n|gen-any|num-sg|pers-3|case-o|vib-0_ne|tam-0|chunkId-NP3|chunkType-head|stype-|voicetype-	10	k1	_	_
9	ne	ne	PSP	psp	lex-ne|cat-psp|gen-|num-|pers-|case-|vib-|tam-|chunkId-NP3|chunkType-child|stype-|voicetype-	8	lwg__psp	_	_
10	kahA	kaha	VM	v	lex-kaha|cat-v|gen-m|num-sg|pers-any|case-|vib-yA|tam-yA|chunkId-VGF|chunkType-head|stype-declarative|voicetype-active	0	main	_	_
11	ki	ki	CC	avy	lex-ki|cat-avy|gen-|num-|pers-|case-|vib-|tam-|chunkId-CCP|chunkType-head|stype-|voicetype-	10	k2	_	_
12	bama	bama	NNC	n	lex-bama|cat-n|gen-m|num-sg|pers-3|case-d|vib-0|tam-0|chunkId-NP4|chunkType-child|stype-|voicetype-	13	pof__cn	_	_
13	visPota	visPota	NN	n	lex-visPota|cat-n|gen-m|num-sg|pers-3|case-d|vib-0|tam-0|chunkId-NP4|chunkType-head|stype-|voicetype-	14	k1	_	_
14	hone	ho	VM	v	lex-ho|cat-v|gen-any|num-sg|pers-any|case-o|vib-nA_kA|tam-nA|chunkId-VGNN|chunkType-head|stype-|voicetype-	16	r6	_	_
15	kI	kA	PSP	psp	lex-kA|cat-psp|gen-f|num-sg|pers-|case-d|vib-|tam-|chunkId-VGNN|chunkType-child|stype-|voicetype-	14	lwg__psp	_	_
16	bAwa	bAwa	NN	n	lex-bAwa|cat-n|gen-f|num-sg|pers-3|case-d|vib-0|tam-0|chunkId-NP5|chunkType-head|stype-|voicetype-	17	k2	_	_
17	sunakara	suna	VM	v	lex-suna|cat-v|gen-any|num-any|pers-any|case-|vib-kara|tam-kara|chunkId-VGNF2|chunkType-head|stype-|voicetype-	19	vmod	_	_
18	hameM	hama	PRP	pn	lex-hama|cat-pn|gen-any|num-pl|pers-1|case-o|vib-ko|tam-ko|chunkId-NP6|chunkType-head|stype-|voicetype-	19	k1	_	_
19	BAganA	BAga	VM	v	lex-BAga|cat-v|gen-any|num-sg|pers-any|case-|vib-nA_padZa+yA|tam-nA|chunkId-VGF2|chunkType-head|stype-declarative|voicetype-active	22	ccof	_	_
20	padZA	padZa	VAUX	v	lex-padZa|cat-v|gen-m|num-sg|pers-any|case-|vib-yA|tam-yA|chunkId-VGF2|chunkType-child|stype-|voicetype-	19	lwg__vaux	_	_
21	,	COMMA	SYM	punc	lex-COMMA|cat-punc|gen-|num-|pers-|case-|vib-|tam-|chunkId-VGF2|chunkType-child|stype-|voicetype-	19	rsym	_	_
22	NULL	_	CC	_	lex-_|cat-_|gen-|num-|pers-|case-|vib-|tam-|chunkId-NULL__CCP|chunkType-head|stype-|voicetype-	11	ccof	_	_
23	koI	koI	PRP	pn	lex-koI|cat-pn|gen-any|num-sg|pers-3|case-d|vib-0|tam-0|chunkId-NP7|chunkType-head|stype-|voicetype-	28	k1	_	_
24	yUM	yUz	RB	adv	lex-yUz|cat-adv|gen-|num-|pers-|case-|vib-|tam-|chunkId-RBP|chunkType-head|stype-|voicetype-	28	adv	_	_
25	wo	wo	RP	avy	lex-wo|cat-avy|gen-|num-|pers-|case-|vib-|tam-|chunkId-RBP|chunkType-child|stype-|voicetype-	24	lwg__rp	_	_
26	nahIM	nahIM	NEG	avy	lex-nahIM|cat-avy|gen-|num-|pers-|case-|vib-|tam-|chunkId-VGNN2|chunkType-child|stype-|voicetype-	27	lwg__neg	_	_
27	maranA	mara	VM	v	lex-mara|cat-v|gen-any|num-any|pers-any|case-d|vib-nA|tam-nA|chunkId-VGNN2|chunkType-head|stype-|voicetype-	28	k2	_	_
28	cAhawA	cAha	VM	v	lex-cAha|cat-v|gen-m|num-sg|pers-any|case-|vib-wA|tam-wA|chunkId-VGF3|chunkType-head|stype-declarative|voicetype-active	22	ccof	_	_
29	.	.	SYM	punc	lex-.|cat-punc|gen-|num-|pers-|case-|vib-|tam-|chunkId-BLK|chunkType-head|stype-|voicetype-	10	rsym	_	_

1	birajU	birajU	NNP	n	lex-birajU|cat-n|gen-m|num-sg|pers-3|case-d|vib-0|tam-0|chunkId-NP|chunkType-child|stype-|voicetype-	2	nmod__adj	_	_
2	nAma	nAma	NN	n	lex-nAma|cat-n|gen-m|num-sg|pers-3|case-o|vib-0_kA|tam-0|chunkId-NP|chunkType-head|stype-|voicetype-	5	r6	_	_
3	ke	kA	PSP	psp	lex-kA|cat-psp|gen-m|num-sg|pers-|case-o|vib-|tam-|chunkId-NP|chunkType-child|stype-|voicetype-	2	lwg__psp	_	_
4	eka	eka	QC	num	lex-eka|cat-num|gen-any|num-any|pers-|case-any|vib-|tam-|chunkId-NP2|chunkType-child|stype-|voicetype-	5	nmod__adj	_	_
5	kExI	kExI	NN	n	lex-kExI|cat-n|gen-m|num-sg|pers-3|case-o|vib-0_ne|tam-0|chunkId-NP2|chunkType-head|stype-|voicetype-	7	k1	_	_
6	ne	ne	PSP	psp	lex-ne|cat-psp|gen-|num-|pers-|case-|vib-|tam-|chunkId-NP2|chunkType-child|stype-|voicetype-	5	lwg__psp	_	_
7	bawAyA	bawA	VM	v	lex-bawA|cat-v|gen-m|num-sg|pers-any|case-|vib-yA|tam-yA|chunkId-VGF|chunkType-head|stype-declarative|voicetype-active	0	main	_	_
8	ki	ki	CC	avy	lex-ki|cat-avy|gen-|num-|pers-|case-|vib-|tam-|chunkId-CCP|chunkType-head|stype-|voicetype-	7	k2	_	_
9	saBI	saBI	QF	avy	lex-saBI|cat-avy|gen-|num-|pers-|case-|vib-|tam-|chunkId-NP3|chunkType-child|stype-|voicetype-	10	nmod__adj	_	_
10	hamalAvara	hamalAvara	NN	n	lex-hamalAvara|cat-n|gen-m|num-pl|pers-3|case-d|vib-0|tam-0|chunkId-NP3|chunkType-head|stype-|voicetype-	15	k1	_	_
11	naksalI	naksalI	JJ	adj	lex-naksalI|cat-adj|gen-any|num-any|pers-|case-o|vib-|tam-|chunkId-NP4|chunkType-child|stype-|voicetype-	12	nmod__adj	_	_
12	pulisa	pulisa	NN	n	lex-pulisa|cat-n|gen-f|num-sg|pers-3|case-o|vib-0_kA|tam-0|chunkId-NP4|chunkType-head|stype-|voicetype-	14	r6	_	_
13	kI	kA	PSP	psp	lex-kA|cat-psp|gen-f|num-sg|pers-|case-d|vib-|tam-|chunkId-NP4|chunkType-child|stype-|voicetype-	12	lwg__psp	_	_
14	varxI	varxI	NN	n	lex-varxI|cat-n|gen-f|num-sg|pers-3|case-d|vib-0|tam-0|chunkId-NP5|chunkType-head|stype-|voicetype-	15	k2	_	_
15	pahane	pahana	VM	v	lex-pahana|cat-v|gen-m|num-pl|pers-any|case-|vib-yA_ho+yA_WA|tam-yA|chunkId-VGF2|chunkType-head|stype-declarative|voicetype-active	8	ccof	_	_
16	hue	ho	VAUX	v	lex-ho|cat-v|gen-m|num-pl|pers-any|case-|vib-yA|tam-yA|chunkId-VGF2|chunkType-child|stype-|voicetype-	15	lwg__vaux	_	_
17	We	WA	VAUX	v	lex-WA|cat-v|gen-m|num-pl|pers-any|case-|vib-WA|tam-WA|chunkId-VGF2|chunkType-child|stype-|voicetype-	15	lwg__vaux	_	_
18	.	.	SYM	punc	lex-.|cat-punc|gen-|num-|pers-|case-|vib-|tam-|chunkId-BLK|chunkType-head|stype-|voicetype-	7	rsym	_	_

1	pahale	pahale	NST	nst	lex-pahale|cat-nst|gen-m|num-sg|pers-3|case-d|vib-|tam-|chunkId-NP|chunkType-head|stype-|voicetype-	12	k7t	_	_
2	kuCa	kuCa	QF	avy	lex-kuCa|cat-avy|gen-|num-|pers-|case-|vib-|tam-|chunkId-NP2|chunkType-child|stype-|voicetype-	3	nmod__adj	_	_
3	naksalI	naksalI	NN	n	lex-naksalI|cat-n|gen-m|num-pl|pers-3|case-d|vib-0|tam-0|chunkId-NP2|chunkType-head|stype-|voicetype-	12	k1	_	_
4	lakadZI	lakadI	NN	n	lex-lakadI|cat-n|gen-f|num-sg|pers-3|case-o|vib-0_kA|tam-0|chunkId-NP3|chunkType-head|stype-|voicetype-	6	r6	_	_
5	kI	kA	PSP	psp	lex-kA|cat-psp|gen-f|num-sg|pers-|case-o|vib-|tam-|chunkId-NP3|chunkType-child|stype-|voicetype-	4	lwg__psp	_	_
6	sIDZI	sIDZI	NN	n	lex-sIDZI|cat-n|gen-f|num-sg|pers-3|case-o|vib-0_se|tam-0|chunkId-NP4|chunkType-head|stype-|voicetype-	9	k3	_	_
7	se	se	PSP	psp	lex-se|cat-psp|gen-|num-|pers-|case-|vib-|tam-|chunkId-NP4|chunkType-child|stype-|voicetype-	6	lwg__psp	_	_
8	xIvAra	xIvAra	NN	n	lex-xIvAra|cat-n|gen-f|num-sg|pers-3|case-d|vib-0|tam-0|chunkId-NP5|chunkType-head|stype-|voicetype-	9	k2	_	_
9	PAMxakara	PAMxa	VM	v	lex-PAMxa|cat-v|gen-any|num-any|pers-any|case-|vib-kara|tam-kara|chunkId-VGNF|chunkType-head|stype-|voicetype-	12	vmod	_	_
10	jela	jela	NN	n	lex-jela|cat-n|gen-f|num-sg|pers-3|case-o|vib-0_meM|tam-0|chunkId-NP6|chunkType-head|stype-|voicetype-	12	k7p	_	_
11	meM	meM	PSP	psp	lex-meM|cat-psp|gen-|num-|pers-|case-|vib-|tam-|chunkId-NP6|chunkType-child|stype-|voicetype-	10	lwg__psp	_	_
12	Guse	Gusa	VM	v	lex-Gusa|cat-v|gen-m|num-pl|pers-any|case-|vib-yA|tam-yA|chunkId-VGF|chunkType-head|stype-declarative|voicetype-active	14	ccof	_	_
13	,	COMMA	SYM	punc	lex-COMMA|cat-punc|gen-|num-|pers-|case-|vib-|tam-|chunkId-VGF|chunkType-child|stype-|voicetype-	12	rsym	_	_
14	NULL	_	CC	_	lex-_|cat-_|gen-|num-|pers-|case-|vib-|tam-|chunkId-NULL__CCP|chunkType-head|stype-|voicetype-	0	main	_	_
15	Pira	Pira	RB	adv	lex-Pira|cat-adv|gen-|num-|pers-|case-|vib-|tam-|chunkId-RBP|chunkType-head|stype-|voicetype-	20	adv	_	_
16	jela	jela	NN	n	lex-jela|cat-n|gen-f|num-sg|pers-3|case-o|vib-0_kA|tam-0|chunkId-NP7|chunkType-head|stype-|voicetype-	19	r6	_	_
17	kA	kA	PSP	psp	lex-kA|cat-psp|gen-m|num-sg|pers-|case-d|vib-|tam-|chunkId-NP7|chunkType-child|stype-|voicetype-	16	lwg__psp	_	_
18	praveSa	praveSa	NNC	n	lex-praveSa|cat-n|gen-m|num-sg|pers-3|case-d|vib-0|tam-0|chunkId-NP8|chunkType-child|stype-|voicetype-	19	pof__cn	_	_
19	xvAra	xvAra	NN	n	lex-xvAra|cat-n|gen-m|num-sg|pers-3|case-d|vib-0|tam-0|chunkId-NP8|chunkType-head|stype-|voicetype-	20	k2	_	_
20	Kolakara	Kola	VM	v	lex-Kola|cat-v|gen-any|num-any|pers-any|case-|vib-kara|tam-kara|chunkId-VGNF2|chunkType-head|stype-|voicetype-	26	vmod	_	_
21	apane	apanA	PRP	pn	lex-apanA|cat-pn|gen-m|num-any|pers-any|case-o|vib-0|tam-0|chunkId-NP9|chunkType-head|stype-|voicetype-	22	r6	_	_
22	sAWiyoM	sAWI	NN	n	lex-sAWI|cat-n|gen-m|num-pl|pers-3|case-o|vib-0_ko|tam-0|chunkId-NP10|chunkType-head|stype-|voicetype-	26	k2	_	_
23	ko	ko	PSP	psp	lex-ko|cat-psp|gen-|num-|pers-|case-|vib-|tam-|chunkId-NP10|chunkType-child|stype-|voicetype-	22	lwg__psp	_	_
24	BI	BI	RP	avy	lex-BI|cat-avy|gen-|num-|pers-|case-|vib-|tam-|chunkId-NP10|chunkType-child|stype-|voicetype-	22	lwg__rp	_	_
25	aMxara	aMxara	NST	nst	lex-aMxara|cat-nst|gen-m|num-sg|pers-3|case-d|vib-|tam-|chunkId-NP11|chunkType-head|stype-|voicetype-	26	pof	_	_
26	kara	kara	VM	v	lex-kara|cat-v|gen-any|num-sg|pers-any|case-|vib-0_le+yA|tam-0|chunkId-VGF2|chunkType-head|stype-declarative|voicetype-active	14	ccof	_	_
27	liyA	le	VAUX	v	lex-le|cat-v|gen-m|num-sg|pers-any|case-|vib-yA|tam-yA|chunkId-VGF2|chunkType-child|stype-|voicetype-	26	lwg__vaux	_	_
28	.	.	SYM	punc	lex-.|cat-punc|gen-|num-|pers-|case-|vib-|tam-|chunkId-BLK|chunkType-head|stype-|voicetype-	14	rsym	_	_

1	birajU	birajU	NNP	n	lex-birajU|cat-n|gen-m|num-sg|pers-3|case-o|vib-0_ne|tam-0|chunkId-NP|chunkType-head|stype-|voicetype-	3	k1	_	_
2	ne	ne	PSP	psp	lex-ne|cat-psp|gen-|num-|pers-|case-|vib-|tam-|chunkId-NP|chunkType-child|stype-|voicetype-	1	lwg__psp	_	_
3	bawAyA	bawA	VM	v	lex-bawA|cat-v|gen-m|num-sg|pers-any|case-|vib-yA|tam-yA|chunkId-VGF|chunkType-head|stype-declarative|voicetype-active	0	main	_	_
4	ki	ki	CC	avy	lex-ki|cat-avy|gen-|num-|pers-|case-|vib-|tam-|chunkId-CCP|chunkType-head|stype-|voicetype-	3	k2	_	_
5	usa	vaha	DEM	pn	lex-vaha|cat-pn|gen-any|num-sg|pers-3|case-o|vib-|tam-|chunkId-NP2|chunkType-child|stype-|voicetype-	6	nmod__adj	_	_
6	vakwa	vakwa	NN	n	lex-vakwa|cat-n|gen-m|num-sg|pers-3|case-d|vib-0|tam-0|chunkId-NP2|chunkType-head|stype-|voicetype-	9	k7	_	_
7	kExI	kExI	NN	n	lex-kExI|cat-n|gen-m|num-pl|pers-3|case-d|vib-0|tam-0|chunkId-NP3|chunkType-head|stype-|voicetype-	9	k1	_	_
8	KAnA	KAnA	NN	n	lex-KAnA|cat-n|gen-m|num-sg|pers-3|case-d|vib-0|tam-0|chunkId-NP4|chunkType-head|stype-|voicetype-	9	k2	_	_
9	KA	KA	VM	v	lex-KA|cat-v|gen-m|num-pl|pers-any|case-|vib-0_raha+yA_WA|tam-0|chunkId-VGF2|chunkType-head|stype-declarative|voicetype-active	12	ccof	_	_
10	rahe	raha	VAUX	v	lex-raha|cat-v|gen-m|num-pl|pers-any|case-|vib-yA|tam-yA|chunkId-VGF2|chunkType-child|stype-|voicetype-	9	lwg__vaux	_	_
11	We	WA	VAUX	v	lex-WA|cat-v|gen-m|num-pl|pers-any|case-|vib-WA|tam-WA|chunkId-VGF2|chunkType-child|stype-|voicetype-	9	lwg__vaux	_	_
12	lekina	lekina	CC	avy	lex-lekina|cat-avy|gen-|num-|pers-|case-|vib-|tam-|chunkId-CCP2|chunkType-head|stype-|voicetype-	4	ccof	_	_
13	acAnaka	acAnaka	RB	adv	lex-acAnaka|cat-adv|gen-|num-|pers-|case-|vib-|tam-|chunkId-RBP|chunkType-head|stype-|voicetype-	23	adv	_	_
14	XamAkoM	XamAkA	NN	n	lex-XamAkA|cat-n|gen-m|num-pl|pers-3|case-o|vib-0|tam-0|chunkId-NP5|chunkType-head|stype-|voicetype-	15	ccof	_	_
15	Ora	Ora	CC	avy	lex-Ora|cat-avy|gen-|num-|pers-|case-|vib-|tam-|chunkId-CCP3|chunkType-head|stype-|voicetype-	18	r6	_	_
16	PAyariMga	PAyariMga	NN	n	lex-PAyariMga|cat-n|gen-f|num-sg|pers-3|case-o|vib-0_kA|tam-0|chunkId-NP6|chunkType-head|stype-|voicetype-	15	ccof	_	_
17	kI	kA	PSP	psp	lex-kA|cat-psp|gen-f|num-pl|pers-|case-o|vib-|tam-|chunkId-NP6|chunkType-child|stype-|voicetype-	16	lwg__psp	_	_
18	AvAjoM	AvAja	NN	n	lex-AvAja|cat-n|gen-f|num-pl|pers-3|case-o|vib-0_se|tam-0|chunkId-NP7|chunkType-head|stype-|voicetype-	23	rh	_	_
19	se	se	PSP	psp	lex-se|cat-psp|gen-|num-|pers-|case-|vib-|tam-|chunkId-NP7|chunkType-child|stype-|voicetype-	18	lwg__psp	_	_
20	mAhOla	mAhOla	NN	n	lex-mAhOla|cat-n|gen-m|num-sg|pers-3|case-o|vib-0_meM|tam-0|chunkId-NP8|chunkType-head|stype-|voicetype-	23	k7	_	_
21	meM	meM	PSP	psp	lex-meM|cat-psp|gen-|num-|pers-|case-|vib-|tam-|chunkId-NP8|chunkType-child|stype-|voicetype-	20	lwg__psp	_	_
22	xahaSawa	xahaSawa	NN	n	lex-xahaSawa|cat-n|gen-f|num-sg|pers-3|case-d|vib-0|tam-0|chunkId-NP9|chunkType-head|stype-|voicetype-	23	pof	_	_
23	PEla	PEla	VM	v	lex-PEla|cat-v|gen-any|num-sg|pers-any|case-|vib-0_jA+yA1|tam-0|chunkId-VGF3|chunkType-head|stype-declarative|voicetype-active	12	ccof	_	_
24	gaI	jA	VAUX	v	lex-jA|cat-v|gen-f|num-sg|pers-any|case-|vib-yA1|tam-yA1|chunkId-VGF3|chunkType-child|stype-|voicetype-	23	lwg__vaux	_	_
25	.	.	SYM	punc	lex-.|cat-punc|gen-|num-|pers-|case-|vib-|tam-|chunkId-BLK|chunkType-head|stype-|voicetype-	3	rsym	_	_

1	eka	eka	QC	num	lex-eka|cat-num|gen-any|num-any|pers-|case-any|vib-|tam-|chunkId-NP|chunkType-child|stype-|voicetype-	3	nmod__adj	_	_
2	anya	anya	JJ	adj	lex-anya|cat-adj|gen-any|num-any|pers-|case-d|vib-|tam-|chunkId-NP|chunkType-child|stype-|voicetype-	3	nmod__adj	_	_
3	kExI	kExI	NN	n	lex-kExI|cat-n|gen-m|num-sg|pers-3|case-d|vib-0|tam-0|chunkId-NP|chunkType-head|stype-|voicetype-	4	nmod	_	_
4	suxAmA	suxAmA	NNP	n	lex-suxAmA|cat-n|gen-m|num-sg|pers-3|case-o|vib-0_ne|tam-0|chunkId-NP2|chunkType-head|stype-|voicetype-	6	k1	_	_
5	ne	ne	PSP	psp	lex-ne|cat-psp|gen-|num-|pers-|case-|vib-|tam-|chunkId-NP2|chunkType-child|stype-|voicetype-	4	lwg__psp	_	_
6	bawAyA	bawA	VM	v	lex-bawA|cat-v|gen-m|num-sg|pers-any|case-|vib-yA|tam-yA|chunkId-VGF|chunkType-head|stype-declarative|voicetype-active	0	main	_	_
7	ki	ki	CC	avy	lex-ki|cat-avy|gen-|num-|pers-|case-|vib-|tam-|chunkId-CCP|chunkType-head|stype-|voicetype-	6	k2	_	_
8	'	SINGLE_QUOTE	SYM	punc	lex-SINGLE_QUOTE|cat-punc|gen-|num-|pers-|case-|vib-|tam-|chunkId-NP3|chunkType-child|stype-|voicetype-	12	rsym	_	_
9	BAkapA	BAkapA	NNP	n	lex-BAkapA|cat-n|gen-f|num-sg|pers-3|case-d|vib-0|tam-0|chunkId-NP3|chunkType-child|stype-|voicetype-	12	nmod__adj	_	_
10	mAovAxI	mAovAxI	JJ	adj	lex-mAovAxI|cat-adj|gen-any|num-any|pers-|case-o|vib-|tam-|chunkId-NP3|chunkType-child|stype-|voicetype-	12	nmod__adj	_	_
11	'	SINGLE_QUOTE	SYM	punc	lex-SINGLE_QUOTE|cat-punc|gen-|num-|pers-|case-|vib-|tam-|chunkId-NP3|chunkType-child|stype-|voicetype-	12	rsym	_	_
12	vixrohiyoM	vixrohI	NN	n	lex-vixrohI|cat-n|gen-m|num-pl|pers-3|case-o|vib-0_ne|tam-0|chunkId-NP3|chunkType-head|stype-|voicetype-	20	k1	_	_
13	ne	ne	PSP	psp	lex-ne|cat-psp|gen-|num-|pers-|case-|vib-|tam-|chunkId-NP3|chunkType-child|stype-|voicetype-	12	lwg__psp	_	_
14	pahale	pahale	NST	nst	lex-pahale|cat-nst|gen-m|num-sg|pers-3|case-d|vib-|tam-|chunkId-NP4|chunkType-head|stype-|voicetype-	20	k7t	_	_
15	xo	xo	QC	num	lex-xo|cat-num|gen-any|num-any|pers-|case-any|vib-|tam-|chunkId-NP5|chunkType-child|stype-|voicetype-	16	nmod__adj	_	_
16	saMwariyoM	saMwarI	NN	n	lex-saMwarI|cat-n|gen-m|num-pl|pers-3|case-o|vib-0_ko|tam-0|chunkId-NP5|chunkType-head|stype-|voicetype-	20	k2	_	_
17	ko	ko	PSP	psp	lex-ko|cat-psp|gen-|num-|pers-|case-|vib-|tam-|chunkId-NP5|chunkType-child|stype-|voicetype-	16	lwg__psp	_	_
18	golI	golI	NN	n	lex-golI|cat-n|gen-f|num-sg|pers-3|case-o|vib-0_se|tam-0|chunkId-NP6|chunkType-head|stype-|voicetype-	20	k3	_	_
19	se	se	PSP	psp	lex-se|cat-psp|gen-|num-|pers-|case-|vib-|tam-|chunkId-NP6|chunkType-child|stype-|voicetype-	18	lwg__psp	_	_
20	udZA	udZA	VM	v	lex-udZA|cat-v|gen-any|num-sg|pers-any|case-|vib-0_xe+yA|tam-0|chunkId-VGF2|chunkType-head|stype-declarative|voicetype-active	22	ccof	_	_
21	xiyA	xe	VAUX	v	lex-xe|cat-v|gen-m|num-sg|pers-any|case-|vib-yA|tam-yA|chunkId-VGF2|chunkType-child|stype-|voicetype-	20	lwg__vaux	_	_
22	Ora	Ora	CC	avy	lex-Ora|cat-avy|gen-|num-|pers-|case-|vib-|tam-|chunkId-CCP2|chunkType-head|stype-|voicetype-	7	ccof	_	_
23	Pira	Pira	RB	adv	lex-Pira|cat-adv|gen-|num-|pers-|case-|vib-|tam-|chunkId-RBP|chunkType-head|stype-|voicetype-	33	adv	_	_
24	kaI	kaI	QF	avy	lex-kaI|cat-avy|gen-|num-|pers-|case-|vib-|tam-|chunkId-NP7|chunkType-child|stype-|voicetype-	25	nmod__adj	_	_
25	vArdo	vArda	NN	n	lex-vArda|cat-n|gen-m|num-pl|pers-3|case-o|vib-0_kA|tam-0|chunkId-NP7|chunkType-head|stype-|voicetype-	27	r6	_	_
26	ke	kA	PSP	psp	lex-kA|cat-psp|gen-m|num-pl|pers-|case-d|vib-|tam-|chunkId-NP7|chunkType-child|stype-|voicetype-	25	lwg__psp	_	_
27	wAle	wAlA	NN	n	lex-wAlA|cat-n|gen-m|num-pl|pers-3|case-d|vib-0|tam-0|chunkId-NP8|chunkType-head|stype-|voicetype-	28	k2	_	_
28	KulavAkara	Kula	VM	v	lex-Kula|cat-v|gen-any|num-any|pers-any|case-|vib-kara|tam-kara|chunkId-VGNF|chunkType-head|stype-|voicetype-	33	vmod	_	_
29	logoM	loga	NN	n	lex-loga|cat-n|gen-m|num-pl|pers-3|case-o|vib-0_se|tam-0|chunkId-NP9|chunkType-head|stype-|voicetype-	33	k4	_	_
30	se	se	PSP	psp	lex-se|cat-psp|gen-|num-|pers-|case-|vib-|tam-|chunkId-NP9|chunkType-child|stype-|voicetype-	29	lwg__psp	_	_
31	BAgane	BAga	VM	v	lex-BAga|cat-v|gen-any|num-any|pers-any|case-o|vib-nA_ko|tam-nA|chunkId-VGNN|chunkType-head|stype-|voicetype-	33	rt	_	_
32	ko	ko	PSP	psp	lex-ko|cat-psp|gen-|num-|pers-|case-|vib-|tam-|chunkId-VGNN|chunkType-child|stype-|voicetype-	31	lwg__psp	_	_
33	kahA	kaha	VM	v	lex-kaha|cat-v|gen-m|num-sg|pers-any|case-|vib-yA|tam-yA|chunkId-VGF3|chunkType-head|stype-declarative|voicetype-active	22	ccof	_	_
34	.	.	SYM	punc	lex-.|cat-punc|gen-|num-|pers-|case-|vib-|tam-|chunkId-BLK|chunkType-head|stype-|voicetype-	6	rsym	_	_

1	eka	eka	QC	num	lex-eka|cat-num|gen-any|num-any|pers-|case-any|vib-|tam-|chunkId-NP|chunkType-child|stype-|voicetype-	2	nmod__adj	_	_
2	naksalI	naksalI	NN	n	lex-naksalI|cat-n|gen-m|num-sg|pers-3|case-d|vib-0|tam-0|chunkId-NP|chunkType-head|stype-|voicetype-	7	k1	_	_
3	hAWa	hAWa	NN	n	lex-hAWa|cat-n|gen-m|num-sg|pers-3|case-o|vib-0_meM|tam-0|chunkId-NP2|chunkType-head|stype-|voicetype-	6	k7p	_	_
4	meM	meM	PSP	psp	lex-meM|cat-psp|gen-|num-|pers-|case-|vib-|tam-|chunkId-NP2|chunkType-child|stype-|voicetype-	3	lwg__psp	_	_
5	lAudaspIkara	lAudaspIkara	NN	n	lex-lAudaspIkara|cat-n|gen-m|num-sg|pers-3|case-d|vib-0|tam-0|chunkId-NP3|chunkType-head|stype-|voicetype-	6	k2	_	_
6	lie	le	VM	v	lex-le|cat-v|gen-m|num-sg|pers-any|case-|vib-yA|tam-yA|chunkId-VGNF|chunkType-head|stype-|voicetype-	7	vmod	_	_
7	kaha	kaha	VM	v	lex-kaha|cat-v|gen-m|num-sg|pers-any|case-|vib-0_raha+yA_WA|tam-0|chunkId-VGF|chunkType-head|stype-declarative|voicetype-active	0	main	_	_
8	rahA	raha	VAUX	v	lex-raha|cat-v|gen-m|num-sg|pers-any|case-|vib-yA|tam-yA|chunkId-VGF|chunkType-child|stype-|voicetype-	7	lwg__vaux	_	_
9	WA	WA	VAUX	v	lex-WA|cat-v|gen-m|num-sg|pers-any|case-|vib-WA|tam-WA|chunkId-VGF|chunkType-child|stype-|voicetype-	7	lwg__vaux	_	_
10	jela	jela	NN	n	lex-jela|cat-n|gen-f|num-sg|pers-3|case-o|vib-0_ke_aMxara|tam-0|chunkId-NP4|chunkType-head|stype-|voicetype-	16	k7p	_	_
11	ke	ke	PSP	psp	lex-ke|cat-psp|gen-|num-|pers-|case-|vib-|tam-|chunkId-NP4|chunkType-child|stype-|voicetype-	10	lwg__psp	_	_
12	aMxara	aMxara	NST	nst	lex-aMxara|cat-nst|gen-m|num-sg|pers-3|case-d|vib-|tam-|chunkId-NP4|chunkType-child|stype-|voicetype-	10	lwg__psp	_	_
13	badZA	badZA	JJ	adj	lex-badZA|cat-adj|gen-m|num-sg|pers-|case-d|vib-|tam-|chunkId-NP5|chunkType-child|stype-|voicetype-	14	nmod__adj	_	_
14	bama	bama	NN	n	lex-bama|cat-n|gen-m|num-sg|pers-3|case-d|vib-0|tam-0|chunkId-NP5|chunkType-head|stype-|voicetype-	16	k2	_	_
15	Pita	Pita	UNK	unk	lex-Pita|cat-unk|gen-|num-|pers-|case-|vib-|tam-|chunkId-BLK|chunkType-head|stype-|voicetype-	16	pof	_	_
16	kara	kara	VM	v	lex-kara|cat-v|gen-m|num-sg|pers-3|case-|vib-0_xe+yA_jA+yA1_hE|tam-0|chunkId-VGF2|chunkType-head|stype-declarative|voicetype-passive	7	k2	_	_
17	xiyA	xe	VAUX	v	lex-xe|cat-v|gen-m|num-sg|pers-any|case-|vib-yA|tam-yA|chunkId-VGF2|chunkType-child|stype-|voicetype-	16	lwg__vaux	_	_
18	gayA	jA	VAUX	v	lex-jA|cat-v|gen-m|num-sg|pers-any|case-|vib-yA1|tam-yA1|chunkId-VGF2|chunkType-child|stype-|voicetype-	16	lwg__vaux	_	_
19	hE	hE	VAUX	v	lex-hE|cat-v|gen-any|num-sg|pers-3|case-|vib-hE|tam-hE|chunkId-VGF2|chunkType-child|stype-|voicetype-	16	lwg__vaux	_	_
20	,	COMMA	SYM	punc	lex-COMMA|cat-punc|gen-|num-|pers-|case-|vib-|tam-|chunkId-VGF2|chunkType-child|stype-|voicetype-	16	rsym	_	_
21	jo	jo	PRP	pn	lex-jo|cat-pn|gen-any|num-sg|pers-3|case-d|vib-0|tam-0|chunkId-NP6|chunkType-head|stype-|voicetype-	23	k1	_	_
22	basa	basa	RP	avy	lex-basa|cat-avy|gen-|num-|pers-|case-|vib-|tam-|chunkId-VGF3|chunkType-child|stype-|voicetype-	23	lwg__rp	_	_
23	Patane	Pata	VM	v	lex-Pata|cat-v|gen-m|num-sg|pers-3|case-|vib-nA_vAlA_hE|tam-nA|chunkId-VGF3|chunkType-head|stype-declarative|voicetype-active	14	nmod__relc	_	_
24	hI	hI	RP	avy	lex-hI|cat-avy|gen-|num-|pers-|case-|vib-|tam-|chunkId-VGF3|chunkType-child|stype-|voicetype-	23	lwg__rp	_	_
25	vAlA	vAlA	VAUX	v	lex-vAlA|cat-v|gen-m|num-sg|pers-3|case-|vib-0|tam-0|chunkId-VGF3|chunkType-child|stype-|voicetype-	23	lwg__vaux	_	_
26	hE	hE	VAUX	v	lex-hE|cat-v|gen-any|num-sg|pers-3|case-|vib-hE|tam-hE|chunkId-VGF3|chunkType-child|stype-|voicetype-	23	lwg__vaux	_	_
27	.	.	SYM	punc	lex-.|cat-punc|gen-|num-|pers-|case-|vib-|tam-|chunkId-BLK2|chunkType-head|stype-|voicetype-	7	rsym	_	_

1	iwanA	iwanA	QF	adj	lex-iwanA|cat-adj|gen-m|num-sg|pers-|case-|vib-|tam-|chunkId-JJP|chunkType-head|stype-|voicetype-	7	k2	_	_
2	sunawe	suna	VM	v	lex-suna|cat-v|gen-m|num-sg|pers-any|case-|vib-wA|tam-wA|chunkId-VGNF|chunkType-head|stype-|voicetype-	7	vmod	_	_
3	hI	hI	RP	avy	lex-hI|cat-avy|gen-|num-|pers-|case-|vib-|tam-|chunkId-VGNF|chunkType-child|stype-|voicetype-	2	lwg__rp	_	_
4	jela	jela	NN	n	lex-jela|cat-n|gen-f|num-sg|pers-3|case-o|vib-0_meM|tam-0|chunkId-NP|chunkType-head|stype-|voicetype-	7	k7p	_	_
5	meM	meM	PSP	psp	lex-meM|cat-psp|gen-|num-|pers-|case-|vib-|tam-|chunkId-NP|chunkType-child|stype-|voicetype-	4	lwg__psp	_	_
6	BagaxadZa	BagaxadZa	NN	n	lex-BagaxadZa|cat-n|gen-f|num-sg|pers-3|case-d|vib-0|tam-0|chunkId-NP2|chunkType-head|stype-|voicetype-	7	pof	_	_
7	maca	maca	VM	v	lex-maca|cat-v|gen-any|num-sg|pers-any|case-|vib-0_jA+yA1|tam-0|chunkId-VGF|chunkType-head|stype-declarative|voicetype-active	0	main	_	_
8	gaI	jA	VAUX	v	lex-jA|cat-v|gen-f|num-sg|pers-any|case-|vib-yA1|tam-yA1|chunkId-VGF|chunkType-child|stype-|voicetype-	7	lwg__vaux	_	_
9	.	.	SYM	punc	lex-.|cat-punc|gen-|num-|pers-|case-|vib-|tam-|chunkId-BLK|chunkType-head|stype-|voicetype-	7	rsym	_	_

1	kExI	kExI	NN	n	lex-kExI|cat-n|gen-m|num-pl|pers-3|case-d|vib-0|tam-0|chunkId-NP|chunkType-head|stype-|voicetype-	8	k1	_	_
2	jela	jela	NN	n	lex-jela|cat-n|gen-f|num-sg|pers-3|case-o|vib-0_kA|tam-0|chunkId-NP2|chunkType-head|stype-|voicetype-	5	r6	_	_
3	ke	kA	PSP	psp	lex-kA|cat-psp|gen-m|num-sg|pers-|case-o|vib-|tam-|chunkId-NP2|chunkType-child|stype-|voicetype-	2	lwg__psp	_	_
4	muKya	muKya	JJ	adj	lex-muKya|cat-adj|gen-any|num-any|pers-|case-o|vib-|tam-|chunkId-NP3|chunkType-child|stype-|voicetype-	5	nmod__adj	_	_
5	xaravAje	xaravAjA	NN	n	lex-xaravAjA|cat-n|gen-m|num-sg|pers-3|case-o|vib-0_kA_ora|tam-0|chunkId-NP3|chunkType-head|stype-|voicetype-	8	rd	_	_
6	kI	kA	PSP	psp	lex-kA|cat-psp|gen-f|num-sg|pers-|case-d|vib-|tam-|chunkId-NP3|chunkType-child|stype-|voicetype-	5	lwg__psp	_	_
7	ora	ora	NST	nst	lex-ora|cat-nst|gen-f|num-sg|pers-3|case-d|vib-|tam-|chunkId-NP3|chunkType-child|stype-|voicetype-	5	lwg__psp	_	_
8	xOdZe	xOdZa	VM	v	lex-xOdZa|cat-v|gen-m|num-pl|pers-any|case-|vib-yA|tam-yA|chunkId-VGF|chunkType-head|stype-declarative|voicetype-active	9	ccof	_	_
9	Ora	Ora	CC	avy	lex-Ora|cat-avy|gen-|num-|pers-|case-|vib-|tam-|chunkId-CCP|chunkType-head|stype-|voicetype-	0	main	_	_
10	aMXere	azXerA	NN	n	lex-azXerA|cat-n|gen-m|num-sg|pers-3|case-o|vib-0_meM|tam-0|chunkId-NP4|chunkType-head|stype-|voicetype-	13	k7	_	_
11	meM	meM	PSP	psp	lex-meM|cat-psp|gen-|num-|pers-|case-|vib-|tam-|chunkId-NP4|chunkType-child|stype-|voicetype-	10	lwg__psp	_	_
12	gAyaba	gAyaba	JJ	adj	lex-gAyaba|cat-adj|gen-any|num-any|pers-|case-|vib-|tam-|chunkId-JJP|chunkType-head|stype-|voicetype-	13	pof	_	_
13	ho	ho	VM	v	lex-ho|cat-v|gen-any|num-pl|pers-any|case-|vib-0_jA+yA1|tam-0|chunkId-VGF2|chunkType-head|stype-declarative|voicetype-active	9	ccof	_	_
14	gae	jA	VAUX	v	lex-jA|cat-v|gen-m|num-pl|pers-any|case-|vib-yA1|tam-yA1|chunkId-VGF2|chunkType-child|stype-|voicetype-	13	lwg__vaux	_	_
15	.	.	SYM	punc	lex-.|cat-punc|gen-|num-|pers-|case-|vib-|tam-|chunkId-BLK|chunkType-head|stype-|voicetype-	9	rsym	_	_

1	birajU	birajU	NNP	n	lex-birajU|cat-n|gen-m|num-sg|pers-3|case-o|vib-0_ke_muwAbika|tam-0|chunkId-NP|chunkType-head|stype-|voicetype-	19	k7a	_	_
2	ke	ke	PSP	psp	lex-ke|cat-psp|gen-|num-|pers-|case-|vib-|tam-|chunkId-NP|chunkType-child|stype-|voicetype-	1	lwg__psp	_	_
3	muwAbika	muwAbika	PSP	psp	lex-muwAbika|cat-psp|gen-|num-|pers-|case-|vib-|tam-|chunkId-NP|chunkType-child|stype-|voicetype-	1	lwg__psp	_	_
4	,	COMMA	SYM	punc	lex-COMMA|cat-punc|gen-|num-|pers-|case-|vib-|tam-|chunkId-NP|chunkType-child|stype-|voicetype-	1	rsym	_	_
5	isake	yaha	PRP	pn	lex-yaha|cat-pn|gen-m|num-sg|pers-3|case-o|vib-0_bAxa|tam-ke|chunkId-NP2|chunkType-head|stype-|voicetype-	19	k7t	_	_
6	bAxa	bAxa	NST	nst	lex-bAxa|cat-nst|gen-m|num-sg|pers-3|case-d|vib-|tam-|chunkId-NP2|chunkType-child|stype-|voicetype-	5	lwg__psp	_	_
7	naksaliyoM	naksalI	NN	n	lex-naksalI|cat-n|gen-m|num-pl|pers-3|case-o|vib-0_ne|tam-0|chunkId-NP3|chunkType-head|stype-|voicetype-	19	k1	_	_
8	ne	ne	PSP	psp	lex-ne|cat-psp|gen-|num-|pers-|case-|vib-|tam-|chunkId-NP3|chunkType-child|stype-|voicetype-	7	lwg__psp	_	_
9	bAkI	bAkI	JJ	adj	lex-bAkI|cat-adj|gen-any|num-any|pers-|case-|vib-|tam-|chunkId-JJP|chunkType-head|stype-|voicetype-	10	adv	_	_
10	bace	baca	VM	v	lex-baca|cat-v|gen-m|num-pl|pers-any|case-|vib-yA|tam-yA|chunkId-VGNF|chunkType-head|stype-|voicetype-	11	nmod__k1inv	_	_
11	kExiyoM	kExI	NN	n	lex-kExI|cat-n|gen-m|num-pl|pers-3|case-o|vib-0_se|tam-0|chunkId-NP4|chunkType-head|stype-|voicetype-	19	k5	_	_
12	se	se	PSP	psp	lex-se|cat-psp|gen-|num-|pers-|case-|vib-|tam-|chunkId-NP4|chunkType-child|stype-|voicetype-	11	lwg__psp	_	_
13	badZe	badZA	JJ	adj	lex-badZA|cat-adj|gen-m|num-sg|pers-|case-o|vib-|tam-|chunkId-NP5|chunkType-child|stype-|voicetype-	14	nmod__adj	_	_
14	SarmA	SarmA	NNP	n	lex-SarmA|cat-n|gen-any|num-sg|pers-3|case-o|vib-0_ke_bAre_meM|tam-0|chunkId-NP5|chunkType-head|stype-|voicetype-	19	k7	_	_
15	ke	ke	PSP	psp	lex-ke|cat-psp|gen-|num-|pers-|case-|vib-|tam-|chunkId-NP5|chunkType-child|stype-|voicetype-	14	lwg__psp	_	_
16	bAre	bAre	PSP	psp	lex-bAre|cat-psp|gen-|num-|pers-|case-|vib-|tam-|chunkId-NP5|chunkType-child|stype-|voicetype-	14	lwg__psp	_	_
17	meM	meM	PSP	psp	lex-meM|cat-psp|gen-|num-|pers-|case-|vib-|tam-|chunkId-NP5|chunkType-child|stype-|voicetype-	14	lwg__psp	_	_
18	jAnakArI	jAnakArI	NN	n	lex-jAnakArI|cat-n|gen-f|num-sg|pers-3|case-d|vib-0|tam-0|chunkId-NP6|chunkType-head|stype-|voicetype-	19	k2	_	_
19	lI	le	VM	v	lex-le|cat-v|gen-f|num-sg|pers-any|case-|vib-yA|tam-yA|chunkId-VGF|chunkType-head|stype-declarative|voicetype-active	20	ccof	_	_
20	Ora	Ora	CC	avy	lex-Ora|cat-avy|gen-|num-|pers-|case-|vib-|tam-|chunkId-CCP|chunkType-head|stype-|voicetype-	0	main	_	_
21	use	vaha	PRP	pn	lex-vaha|cat-pn|gen-any|num-sg|pers-3|case-o|vib-ko|tam-ko|chunkId-NP7|chunkType-head|stype-|voicetype-	26	k4	_	_
22	vArda	vArda	NN	n	lex-vArda|cat-n|gen-m|num-sg|pers-3|case-o|vib-0_se|tam-0|chunkId-NP8|chunkType-head|stype-|voicetype-	24	k5	_	_
23	se	se	PSP	psp	lex-se|cat-psp|gen-|num-|pers-|case-|vib-|tam-|chunkId-NP8|chunkType-child|stype-|voicetype-	22	lwg__psp	_	_
24	nikAlakara	nikAla	VM	v	lex-nikAla|cat-v|gen-any|num-any|pers-any|case-|vib-kara|tam-kara|chunkId-VGNF2|chunkType-head|stype-|voicetype-	26	vmod	_	_
25	golI	golI	NN	n	lex-golI|cat-n|gen-f|num-sg|pers-3|case-d|vib-0|tam-0|chunkId-NP9|chunkType-head|stype-|voicetype-	26	k2	_	_
26	mAra	mAra	VM	v	lex-mAra|cat-v|gen-any|num-sg|pers-any|case-|vib-0_xe+yA|tam-0|chunkId-VGF2|chunkType-head|stype-declarative|voicetype-active	20	ccof	_	_
27	xI	xe	VAUX	v	lex-xe|cat-v|gen-f|num-sg|pers-any|case-|vib-yA|tam-yA|chunkId-VGF2|chunkType-child|stype-|voicetype-	26	lwg__vaux	_	_
28	.	.	SYM	punc	lex-.|cat-punc|gen-|num-|pers-|case-|vib-|tam-|chunkId-BLK|chunkType-head|stype-|voicetype-	20	rsym	_	_

1	naksalI	naksalI	NN	n	lex-naksalI|cat-n|gen-m|num-pl|pers-3|case-d|vib-0|tam-0|chunkId-NP|chunkType-head|stype-|voicetype-	10	k1	_	_
2	sarakAra	sarakAra	JJC	n	lex-sarakAra|cat-n|gen-f|num-sg|pers-3|case-d|vib-0|tam-0|chunkId-JJP|chunkType-child|stype-|voicetype-	4	mod	_	_
3	-	-	SYM	punc	lex--|cat-punc|gen-|num-|pers-|case-|vib-|tam-|chunkId-JJP|chunkType-child|stype-|voicetype-	4	rsym	_	_
4	viroXI	viroXI	JJ	adj	lex-viroXI|cat-adj|gen-any|num-any|pers-|case-d|vib-|tam-|chunkId-JJP|chunkType-head|stype-|voicetype-	5	ccof	_	_
5	Ora	Ora	CC	avy	lex-Ora|cat-avy|gen-|num-|pers-|case-|vib-|tam-|chunkId-CCP|chunkType-head|stype-|voicetype-	8	nmod	_	_
6	pulisa	pulisa	JJC	n	lex-pulisa|cat-n|gen-f|num-sg|pers-3|case-d|vib-0|tam-0|chunkId-JJP2|chunkType-child|stype-|voicetype-	7	mod	_	_
7	viroXI	viroXI	JJ	adj	lex-viroXI|cat-adj|gen-any|num-any|pers-|case-d|vib-|tam-|chunkId-JJP2|chunkType-head|stype-|voicetype-	5	ccof	_	_
8	nAre	nArA	NN	n	lex-nArA|cat-n|gen-m|num-pl|pers-3|case-d|vib-0|tam-0|chunkId-NP2|chunkType-head|stype-|voicetype-	10	k2	_	_
9	BI	BI	RP	avy	lex-BI|cat-avy|gen-|num-|pers-|case-|vib-|tam-|chunkId-NP2|chunkType-child|stype-|voicetype-	8	lwg__rp	_	_
10	lagA	lagA	VM	v	lex-lagA|cat-v|gen-m|num-pl|pers-any|case-|vib-0_raha+yA_WA|tam-0|chunkId-VGF|chunkType-head|stype-declarative|voicetype-active	0	main	_	_
11	rahe	raha	VAUX	v	lex-raha|cat-v|gen-m|num-pl|pers-any|case-|vib-yA|tam-yA|chunkId-VGF|chunkType-child|stype-|voicetype-	10	lwg__vaux	_	_
12	We	WA	VAUX	v	lex-WA|cat-v|gen-m|num-pl|pers-any|case-|vib-WA|tam-WA|chunkId-VGF|chunkType-child|stype-|voicetype-	10	lwg__vaux	_	_
13	.	.	SYM	punc	lex-.|cat-punc|gen-|num-|pers-|case-|vib-|tam-|chunkId-BLK|chunkType-head|stype-|voicetype-	10	rsym	_	_

1	birajU	birajU	NNP	n	lex-birajU|cat-n|gen-m|num-sg|pers-3|case-o|vib-0_ne|tam-0|chunkId-NP|chunkType-head|stype-|voicetype-	8	k1	_	_
2	ne	ne	PSP	psp	lex-ne|cat-psp|gen-|num-|pers-|case-|vib-|tam-|chunkId-NP|chunkType-child|stype-|voicetype-	1	lwg__psp	_	_
3	isa	yaha	DEM	pn	lex-yaha|cat-pn|gen-any|num-sg|pers-3|case-o|vib-|tam-|chunkId-NP2|chunkType-child|stype-|voicetype-	4	nmod__adj	_	_
4	saMvAxaxAwA	saMvAxaxAwA	NN	n	lex-saMvAxaxAwA|cat-n|gen-m|num-sg|pers-3|case-o|vib-0_ke_sAmane|tam-0|chunkId-NP2|chunkType-head|stype-|voicetype-	8	k7	_	_
5	ke	ke	PSP	psp	lex-ke|cat-psp|gen-|num-|pers-|case-|vib-|tam-|chunkId-NP2|chunkType-child|stype-|voicetype-	4	lwg__psp	_	_
6	sAmane	sAmane	NST	nst	lex-sAmane|cat-nst|gen-m|num-sg|pers-3|case-d|vib-|tam-|chunkId-NP2|chunkType-child|stype-|voicetype-	4	lwg__psp	_	_
7	savAla	savAla	NN	n	lex-savAla|cat-n|gen-m|num-sg|pers-3|case-d|vib-0|tam-0|chunkId-NP3|chunkType-head|stype-|voicetype-	8	pof	_	_
8	uTAyA	uTA	VM	v	lex-uTA|cat-v|gen-m|num-sg|pers-any|case-|vib-yA|tam-yA|chunkId-VGF|chunkType-head|stype-declarative|voicetype-active	0	main	_	_
9	ki	ki	CC	avy	lex-ki|cat-avy|gen-|num-|pers-|case-|vib-|tam-|chunkId-CCP|chunkType-head|stype-|voicetype-	8	k2	_	_
10	hama	hama	PRP	pn	lex-hama|cat-pn|gen-any|num-pl|pers-1|case-d|vib-0|tam-0|chunkId-NP4|chunkType-head|stype-|voicetype-	13	k1	_	_
11	jela	jela	NN	n	lex-jela|cat-n|gen-f|num-sg|pers-3|case-o|vib-0_meM|tam-0|chunkId-NP5|chunkType-head|stype-|voicetype-	13	k7p	_	_
12	meM	meM	PSP	psp	lex-meM|cat-psp|gen-|num-|pers-|case-|vib-|tam-|chunkId-NP5|chunkType-child|stype-|voicetype-	11	lwg__psp	_	_
13	hEM	hE	VM	v	lex-hE|cat-v|gen-any|num-pl|pers-1|case-|vib-hE|tam-hE|chunkId-VGF2|chunkType-head|stype-declarative|voicetype-active	9	ccof	_	_
14	kyoMki	kyoMki	CC	avy	lex-kyoMki|cat-avy|gen-|num-|pers-|case-|vib-|tam-|chunkId-CCP2|chunkType-head|stype-|voicetype-	13	rh	_	_
15	hama	hama	PRP	pn	lex-hama|cat-pn|gen-any|num-pl|pers-1|case-d|vib-0|tam-0|chunkId-NP6|chunkType-head|stype-|voicetype-	19	k1	_	_
16	kAnUna	kAnUna	NN	n	lex-kAnUna|cat-n|gen-m|num-sg|pers-3|case-o|vib-0_kA|tam-0|chunkId-NP7|chunkType-head|stype-|voicetype-	18	r6-k2	_	_
17	kA	kA	PSP	psp	lex-kA|cat-psp|gen-m|num-sg|pers-|case-d|vib-|tam-|chunkId-NP7|chunkType-child|stype-|voicetype-	16	lwg__psp	_	_
18	sammAna	sammAna	NN	n	lex-sammAna|cat-n|gen-m|num-sg|pers-3|case-d|vib-0|tam-0|chunkId-NP8|chunkType-head|stype-|voicetype-	19	pof	_	_
19	karawe	kara	VM	v	lex-kara|cat-v|gen-m|num-pl|pers-1|case-|vib-wA_hE|tam-wA|chunkId-VGF3|chunkType-head|stype-declarative|voicetype-active	14	ccof	_	_
20	hEM	hE	VAUX	v	lex-hE|cat-v|gen-any|num-pl|pers-1|case-|vib-hE|tam-hE|chunkId-VGF3|chunkType-child|stype-|voicetype-	19	lwg__vaux	_	_
21	.	.	SYM	punc	lex-.|cat-punc|gen-|num-|pers-|case-|vib-|tam-|chunkId-BLK|chunkType-head|stype-|voicetype-	8	rsym	_	_

1	yaxi	yaxi	CC	avy	lex-yaxi|cat-avy|gen-|num-|pers-|case-|vib-|tam-|chunkId-CCP|chunkType-head|stype-|voicetype-	9	vmod	_	_
2	hama	hama	PRP	pn	lex-hama|cat-pn|gen-any|num-pl|pers-1|case-d|vib-0|tam-0|chunkId-NP|chunkType-head|stype-|voicetype-	4	k1	_	_
3	BAganA	BAga	VM	v	lex-BAga|cat-v|gen-any|num-any|pers-any|case-d|vib-nA|tam-nA|chunkId-VGNN|chunkType-head|stype-|voicetype-	4	k2	_	_
4	cAhawe	cAha	VM	v	lex-cAha|cat-v|gen-m|num-pl|pers-any|case-|vib-wA|tam-wA|chunkId-VGF|chunkType-head|stype-declarative|voicetype-active	1	ccof	_	_
5	,	COMMA	SYM	punc	lex-COMMA|cat-punc|gen-|num-|pers-|case-|vib-|tam-|chunkId-VGF|chunkType-child|stype-|voicetype-	4	rsym	_	_
6	wo	wo	CC	avy	lex-wo|cat-avy|gen-|num-|pers-|case-|vib-|tam-|chunkId-CCP2|chunkType-head|stype-|voicetype-	0	main	_	_
7	kyA	kyA	WQ	pn	lex-kyA|cat-pn|gen-|num-|pers-|case-|vib-|tam-|chunkId-RBP|chunkType-head|stype-|voicetype-	9	adv	_	_
8	Apako	Apa	PRP	pn	lex-Apa|cat-pn|gen-any|num-sg|pers-2h|case-o|vib-ko|tam-ko|chunkId-NP2|chunkType-head|stype-|voicetype-	9	k4a	_	_
9	lagawA	laga	VM	v	lex-laga|cat-v|gen-m|num-sg|pers-3|case-|vib-wA_hE|tam-wA|chunkId-VGF2|chunkType-head|stype-declarative|voicetype-active	6	ccof	_	_
10	hE	hE	VAUX	v	lex-hE|cat-v|gen-any|num-sg|pers-3|case-|vib-hE|tam-hE|chunkId-VGF2|chunkType-child|stype-|voicetype-	9	lwg__vaux	_	_
11	ki	ki	CC	avy	lex-ki|cat-avy|gen-|num-|pers-|case-|vib-|tam-|chunkId-CCP3|chunkType-head|stype-|voicetype-	9	k2	_	_
12	koI	koI	PRP	pn	lex-koI|cat-pn|gen-any|num-sg|pers-3|case-d|vib-0|tam-0|chunkId-NP3|chunkType-child|stype-|voicetype-	13	nmod__adj	_	_
13	pulisa	pulisa	NN	n	lex-pulisa|cat-n|gen-f|num-sg|pers-3|case-o|vib-0_vAlA|tam-0|chunkId-NP3|chunkType-head|stype-|voicetype-	16	k1	_	_
14	vAlA	vAlA	PSP	psp	lex-vAlA|cat-psp|gen-m|num-sg|pers-|case-d|vib-|tam-|chunkId-NP3|chunkType-child|stype-|voicetype-	13	lwg__psp	_	_
15	hamako	hama	PRP	pn	lex-hama|cat-pn|gen-any|num-pl|pers-1|case-o|vib-ko|tam-ko|chunkId-NP4|chunkType-head|stype-|voicetype-	16	k2	_	_
16	roka	roka	VM	v	lex-roka|cat-v|gen-any|num-sg|pers-any|case-|vib-0_le+wA|tam-0|chunkId-VGF3|chunkType-head|stype-declarative|voicetype-active	11	ccof	_	_
17	lewA	le	VAUX	v	lex-le|cat-v|gen-m|num-sg|pers-any|case-|vib-wA|tam-wA|chunkId-VGF3|chunkType-child|stype-|voicetype-	16	lwg__vaux	_	_
18	.	.	SYM	punc	lex-.|cat-punc|gen-|num-|pers-|case-|vib-|tam-|chunkId-BLK|chunkType-head|stype-|voicetype-	6	rsym	_	_

1	naksaliyoM	naksalI	NN	n	lex-naksalI|cat-n|gen-m|num-pl|pers-3|case-o|vib-0_ne|tam-0|chunkId-NP|chunkType-head|stype-|voicetype-	9	k1	_	_
2	ne	ne	PSP	psp	lex-ne|cat-psp|gen-|num-|pers-|case-|vib-|tam-|chunkId-NP|chunkType-child|stype-|voicetype-	1	lwg__psp	_	_
3	rAwa	rAwa	NN	n	lex-rAwa|cat-n|gen-f|num-sg|pers-3|case-d|vib-0|tam-0|chunkId-NP2|chunkType-head|stype-|voicetype-	9	k7t	_	_
4	nO	nO	QC	num	lex-nO|cat-num|gen-any|num-any|pers-|case-any|vib-|tam-|chunkId-NP3|chunkType-child|stype-|voicetype-	5	nmod__adj	_	_
5	baje	baje	NN	n	lex-baje|cat-n|gen-m|num-sg|pers-3|case-d|vib-0|tam-0|chunkId-NP3|chunkType-head|stype-|voicetype-	9	k7t	_	_
6	Sahara	Sahara	NN	n	lex-Sahara|cat-n|gen-m|num-sg|pers-3|case-o|vib-0_meM|tam-0|chunkId-NP4|chunkType-head|stype-|voicetype-	9	k7p	_	_
7	meM	meM	PSP	psp	lex-meM|cat-psp|gen-|num-|pers-|case-|vib-|tam-|chunkId-NP4|chunkType-child|stype-|voicetype-	6	lwg__psp	_	_
8	praveSa	praveSa	NN	n	lex-praveSa|cat-n|gen-m|num-sg|pers-3|case-d|vib-0|tam-0|chunkId-NP5|chunkType-head|stype-|voicetype-	9	pof	_	_
9	kiyA	kara	VM	v	lex-kara|cat-v|gen-m|num-sg|pers-any|case-|vib-yA|tam-yA|chunkId-VGF|chunkType-head|stype-declarative|voicetype-active	11	ccof	_	_
10	,	COMMA	SYM	punc	lex-COMMA|cat-punc|gen-|num-|pers-|case-|vib-|tam-|chunkId-VGF|chunkType-child|stype-|voicetype-	9	rsym	_	_
11	NULL	_	CC	_	lex-_|cat-_|gen-|num-|pers-|case-|vib-|tam-|chunkId-NULL__CCP|chunkType-head|stype-|voicetype-	0	main	_	_
12	usa	vaha	DEM	pn	lex-vaha|cat-pn|gen-any|num-sg|pers-3|case-o|vib-|tam-|chunkId-NP6|chunkType-child|stype-|voicetype-	13	nmod__adj	_	_
13	vakwa	vakwa	NN	n	lex-vakwa|cat-n|gen-m|num-sg|pers-3|case-d|vib-0|tam-0|chunkId-NP6|chunkType-head|stype-|voicetype-	19	k7t	_	_
14	bijalI	bijalI	NNC	n	lex-bijalI|cat-n|gen-f|num-sg|pers-3|case-d|vib-0|tam-0|chunkId-NP7|chunkType-child|stype-|voicetype-	15	pof__cn	_	_
15	kata	kata	NN	n	lex-kata|cat-n|gen-m|num-sg|pers-3|case-o|vib-0_ke_kAraNa|tam-0|chunkId-NP7|chunkType-head|stype-|voicetype-	19	rh	_	_
16	ke	ke	PSP	psp	lex-ke|cat-psp|gen-m|num-|pers-|case-o|vib-|tam-|chunkId-NP7|chunkType-child|stype-|voicetype-	15	lwg__psp	_	_
17	kAraNa	kAraNa	PSP	n	lex-kAraNa|cat-n|gen-m|num-|pers-|case-o|vib-|tam-|chunkId-NP7|chunkType-child|stype-|voicetype-	15	lwg__psp	_	_
18	aMXerA	azXerA	NN	n	lex-azXerA|cat-n|gen-m|num-sg|pers-3|case-d|vib-0|tam-0|chunkId-NP8|chunkType-head|stype-|voicetype-	19	pof	_	_
19	CAyA	CA	VM	v	lex-CA|cat-v|gen-m|num-sg|pers-any|case-|vib-yA_ho+yA_WA|tam-yA|chunkId-VGF2|chunkType-head|stype-declarative|voicetype-active	11	ccof	_	_
20	huA	ho	VAUX	v	lex-ho|cat-v|gen-m|num-sg|pers-any|case-|vib-yA|tam-yA|chunkId-VGF2|chunkType-child|stype-|voicetype-	19	lwg__vaux	_	_
21	WA	WA	VAUX	v	lex-WA|cat-v|gen-m|num-sg|pers-any|case-|vib-WA|tam-WA|chunkId-VGF2|chunkType-child|stype-|voicetype-	19	lwg__vaux	_	_
22	.	.	SYM	punc	lex-.|cat-punc|gen-|num-|pers-|case-|vib-|tam-|chunkId-BLK|chunkType-head|stype-|voicetype-	11	rsym	_	_

1	sAikila	sAikila	NNC	n	lex-sAikila|cat-n|gen-f|num-sg|pers-3|case-d|vib-0|tam-0|chunkId-NP|chunkType-child|stype-|voicetype-	2	pof__cn	_	_
2	mEkenika	mEkenika	NN	n	lex-mEkenika|cat-n|gen-m|num-sg|pers-3|case-o|vib-0|tam-0|chunkId-NP|chunkType-head|stype-|voicetype-	4	nmod	_	_
3	miWileSa	miWileSa	NNPC	n	lex-miWileSa|cat-n|gen-any|num-sg|pers-3|case-d|vib-0|tam-0|chunkId-NP2|chunkType-child|stype-|voicetype-	4	pof__cn	_	_
4	miswrI	miswrI	NNP	n	lex-miswrI|cat-n|gen-any|num-sg|pers-3|case-o|vib-0_ne|tam-0|chunkId-NP2|chunkType-head|stype-|voicetype-	6	k1	_	_
5	ne	ne	PSP	psp	lex-ne|cat-psp|gen-|num-|pers-|case-|vib-|tam-|chunkId-NP2|chunkType-child|stype-|voicetype-	4	lwg__psp	_	_
6	bawAyA	bawA	VM	v	lex-bawA|cat-v|gen-m|num-sg|pers-any|case-|vib-yA|tam-yA|chunkId-VGF|chunkType-head|stype-declarative|voicetype-active	0	main	_	_
7	ki	ki	CC	avy	lex-ki|cat-avy|gen-|num-|pers-|case-|vib-|tam-|chunkId-CCP|chunkType-head|stype-|voicetype-	6	k2	_	_
8	XamAkoM	XamAkA	NN	n	lex-XamAkA|cat-n|gen-m|num-pl|pers-3|case-o|vib-0_kA|tam-0|chunkId-NP3|chunkType-head|stype-|voicetype-	10	r6	_	_
9	kI	kA	PSP	psp	lex-kA|cat-psp|gen-f|num-sg|pers-|case-d|vib-|tam-|chunkId-NP3|chunkType-child|stype-|voicetype-	8	lwg__psp	_	_
10	AvAja	AvAja	NN	n	lex-AvAja|cat-n|gen-f|num-sg|pers-3|case-d|vib-0|tam-0|chunkId-NP4|chunkType-head|stype-|voicetype-	11	k2	_	_
11	sunakara	suna	VM	v	lex-suna|cat-v|gen-any|num-any|pers-any|case-|vib-kara|tam-kara|chunkId-VGNF|chunkType-head|stype-|voicetype-	15	vmod	_	_
12	pahale	pahale	NST	nst	lex-pahale|cat-nst|gen-m|num-sg|pers-3|case-d|vib-|tam-|chunkId-NP5|chunkType-head|stype-|voicetype-	15	k7t	_	_
13	wo	wo	RP	avy	lex-wo|cat-avy|gen-|num-|pers-|case-|vib-|tam-|chunkId-NP5|chunkType-child|stype-|voicetype-	12	lwg__rp	_	_
14	usane	vaha	PRP	pn	lex-vaha|cat-pn|gen-any|num-sg|pers-3|case-o|vib-ne|tam-ne|chunkId-NP6|chunkType-head|stype-|voicetype-	15	k1	_	_
15	socA	soca	VM	v	lex-soca|cat-v|gen-m|num-sg|pers-any|case-|vib-yA|tam-yA|chunkId-VGF2|chunkType-head|stype-declarative|voicetype-active	7	ccof	_	_
16	ki	ki	CC	avy	lex-ki|cat-avy|gen-|num-|pers-|case-|vib-|tam-|chunkId-CCP2|chunkType-head|stype-|voicetype-	15	k2	_	_
17	bAhara	bAhara	NST	nst	lex-bAhara|cat-nst|gen-m|num-sg|pers-3|case-d|vib-|tam-|chunkId-NP7|chunkType-head|stype-|voicetype-	20	k7	_	_
18	bacce	baccA	NN	n	lex-baccA|cat-n|gen-m|num-pl|pers-3|case-d|vib-0|tam-0|chunkId-NP8|chunkType-head|stype-|voicetype-	20	k1	_	_
19	patAKe	patAKA	NN	n	lex-patAKA|cat-n|gen-m|num-pl|pers-3|case-d|vib-0|tam-0|chunkId-NP9|chunkType-head|stype-|voicetype-	20	k2	_	_
20	CudZA	CudZA	VM	v	lex-CudZA|cat-v|gen-m|num-pl|pers-3|case-|vib-0_raha+yA_hE|tam-0|chunkId-VGF3|chunkType-head|stype-declarative|voicetype-active	16	ccof	_	_
21	rahe	raha	VAUX	v	lex-raha|cat-v|gen-m|num-pl|pers-any|case-|vib-yA|tam-yA|chunkId-VGF3|chunkType-child|stype-|voicetype-	20	lwg__vaux	_	_
22	hEM	hE	VAUX	v	lex-hE|cat-v|gen-any|num-pl|pers-3|case-|vib-hE|tam-hE|chunkId-VGF3|chunkType-child|stype-|voicetype-	20	lwg__vaux	_	_
23	.	.	SYM	punc	lex-.|cat-punc|gen-|num-|pers-|case-|vib-|tam-|chunkId-BLK|chunkType-head|stype-|voicetype-	6	rsym	_	_

1	jEse	jEse	RB	adv	lex-jEse|cat-adv|gen-|num-|pers-|case-|vib-|tam-|chunkId-RBP|chunkType-head|stype-|voicetype-	8	adv	_	_
2	hI	hI	RP	avy	lex-hI|cat-avy|gen-|num-|pers-|case-|vib-|tam-|chunkId-RBP|chunkType-child|stype-|voicetype-	1	lwg__rp	_	_
3	vaha	vaha	PRP	pn	lex-vaha|cat-pn|gen-any|num-sg|pers-3|case-d|vib-0|tam-0|chunkId-NP|chunkType-head|stype-|voicetype-	8	k1	_	_
4	apanI	apanA	PRP	pn	lex-apanA|cat-pn|gen-f|num-any|pers-any|case-o|vib-0|tam-0|chunkId-NP2|chunkType-head|stype-|voicetype-	5	r6	_	_
5	JopadZI	JopadZI	NN	n	lex-JopadZI|cat-n|gen-f|num-sg|pers-3|case-o|vib-0_se_bAhara|tam-0|chunkId-NP3|chunkType-head|stype-|voicetype-	8	k7p	_	_
6	se	se	PSP	psp	lex-se|cat-psp|gen-|num-|pers-|case-|vib-|tam-|chunkId-NP3|chunkType-child|stype-|voicetype-	5	lwg__psp	_	_
7	bAhara	bAhara	NST	nst	lex-bAhara|cat-nst|gen-m|num-sg|pers-3|case-d|vib-|tam-|chunkId-NP3|chunkType-child|stype-|voicetype-	5	lwg__psp	_	_
8	nikalA	nikala	VM	v	lex-nikala|cat-v|gen-m|num-sg|pers-any|case-|vib-yA|tam-yA|chunkId-VGF|chunkType-head|stype-declarative|voicetype-active	10	ccof	_	_
9	,	COMMA	SYM	punc	lex-COMMA|cat-punc|gen-|num-|pers-|case-|vib-|tam-|chunkId-VGF|chunkType-child|stype-|voicetype-	8	rsym	_	_
10	wo	wo	CC	avy	lex-wo|cat-avy|gen-|num-|pers-|case-|vib-|tam-|chunkId-CCP|chunkType-head|stype-|voicetype-	0	main	_	_
11	xeKA	xeKa	VM	v	lex-xeKa|cat-v|gen-m|num-sg|pers-any|case-|vib-yA|tam-yA|chunkId-VGF2|chunkType-head|stype-declarative|voicetype-active	10	ccof	_	_
12	ki	ki	CC	avy	lex-ki|cat-avy|gen-|num-|pers-|case-|vib-|tam-|chunkId-CCP2|chunkType-head|stype-|voicetype-	11	k2	_	_
13	KAkI	KAkI	JJ	adj	lex-KAkI|cat-adj|gen-any|num-any|pers-|case-d|vib-|tam-|chunkId-NP4|chunkType-child|stype-|voicetype-	14	nmod__adj	_	_
14	varxI	varxI	NN	n	lex-varxI|cat-n|gen-f|num-sg|pers-3|case-d|vib-0|tam-0|chunkId-NP4|chunkType-head|stype-|voicetype-	15	k2	_	_
15	pahane	pahana	VM	v	lex-pahana|cat-v|gen-m|num-pl|pers-any|case-|vib-yA|tam-yA|chunkId-VGNF|chunkType-head|stype-|voicetype-	17	nmod__k1inv	_	_
16	kuCa	kuCa	QF	avy	lex-kuCa|cat-avy|gen-|num-|pers-|case-|vib-|tam-|chunkId-NP5|chunkType-child|stype-|voicetype-	17	nmod__adj	_	_
17	loga	loga	NN	n	lex-loga|cat-n|gen-m|num-pl|pers-3|case-d|vib-0|tam-0|chunkId-NP5|chunkType-head|stype-|voicetype-	19	k1	_	_
18	goliyAM	golI	NN	n	lex-golI|cat-n|gen-f|num-pl|pers-3|case-d|vib-0|tam-0|chunkId-NP6|chunkType-head|stype-|voicetype-	19	k2	_	_
19	calA	calA	VM	v	lex-calA|cat-v|gen-m|num-pl|pers-3|case-|vib-0_raha+yA_hE|tam-0|chunkId-VGF3|chunkType-head|stype-declarative|voicetype-active	12	ccof	_	_
20	rahe	raha	VAUX	v	lex-raha|cat-v|gen-m|num-pl|pers-any|case-|vib-yA|tam-yA|chunkId-VGF3|chunkType-child|stype-|voicetype-	19	lwg__vaux	_	_
21	hEM	hE	VAUX	v	lex-hE|cat-v|gen-any|num-pl|pers-3|case-|vib-hE|tam-hE|chunkId-VGF3|chunkType-child|stype-|voicetype-	19	lwg__vaux	_	_
22	.	.	SYM	punc	lex-.|cat-punc|gen-|num-|pers-|case-|vib-|tam-|chunkId-BLK|chunkType-head|stype-|voicetype-	10	rsym	_	_

1	ina	yaha	DEM	pn	lex-yaha|cat-pn|gen-any|num-pl|pers-3|case-o|vib-|tam-|chunkId-NP|chunkType-child|stype-|voicetype-	2	nmod__adj	_	_
2	logoM	loga	NN	n	lex-loga|cat-n|gen-m|num-pl|pers-3|case-o|vib-0_ne|tam-0|chunkId-NP|chunkType-head|stype-|voicetype-	12	k1	_	_
3	ne	ne	PSP	psp	lex-ne|cat-psp|gen-|num-|pers-|case-|vib-|tam-|chunkId-NP|chunkType-child|stype-|voicetype-	2	lwg__psp	_	_
4	use	vaha	PRP	pn	lex-vaha|cat-pn|gen-any|num-sg|pers-3|case-o|vib-ko|tam-ko|chunkId-NP2|chunkType-head|stype-|voicetype-	12	k2	_	_
5	apanI	apanA	PRP	pn	lex-apanA|cat-pn|gen-f|num-any|pers-any|case-o|vib-0|tam-0|chunkId-NP3|chunkType-head|stype-|voicetype-	6	r6	_	_
6	JopadZI	JopadZI	NN	n	lex-JopadZI|cat-n|gen-f|num-sg|pers-3|case-o|vib-0_ke_aMxara|tam-0|chunkId-NP4|chunkType-head|stype-|voicetype-	10	k7p	_	_
7	ke	ke	PSP	psp	lex-ke|cat-psp|gen-|num-|pers-|case-|vib-|tam-|chunkId-NP4|chunkType-child|stype-|voicetype-	6	lwg__psp	_	_
8	aMxara	aMxara	NST	nst	lex-aMxara|cat-nst|gen-m|num-sg|pers-3|case-d|vib-|tam-|chunkId-NP4|chunkType-child|stype-|voicetype-	6	lwg__psp	_	_
9	hI	hI	RP	avy	lex-hI|cat-avy|gen-|num-|pers-|case-|vib-|tam-|chunkId-NP4|chunkType-child|stype-|voicetype-	6	lwg__rp	_	_
10	rahane	raha	VM	v	lex-raha|cat-v|gen-any|num-any|pers-any|case-o|vib-nA_ko|tam-nA|chunkId-VGNN|chunkType-head|stype-|voicetype-	12	rt	_	_
11	ko	ko	PSP	psp	lex-ko|cat-psp|gen-|num-|pers-|case-|vib-|tam-|chunkId-VGNN|chunkType-child|stype-|voicetype-	10	lwg__psp	_	_
12	kahA	kaha	VM	v	lex-kaha|cat-v|gen-m|num-sg|pers-any|case-|vib-yA|tam-yA|chunkId-VGF|chunkType-head|stype-declarative|voicetype-active	0	main	_	_
13	.	.	SYM	punc	lex-.|cat-punc|gen-|num-|pers-|case-|vib-|tam-|chunkId-BLK|chunkType-head|stype-|voicetype-	12	rsym	_	_

1	pulisa	pulisa	NNC	n	lex-pulisa|cat-n|gen-f|num-sg|pers-3|case-d|vib-0|tam-0|chunkId-NP|chunkType-child|stype-|voicetype-	2	pof__cn	_	_
2	lAina	lAina	NN	n	lex-lAina|cat-n|gen-f|num-sg|pers-3|case-d|vib-0|tam-0|chunkId-NP|chunkType-head|stype-|voicetype-	3	ccof	_	_
3	Ora	Ora	CC	avy	lex-Ora|cat-avy|gen-|num-|pers-|case-|vib-|tam-|chunkId-CCP|chunkType-head|stype-|voicetype-	11	k7	_	_
4	jela	jela	NN	n	lex-jela|cat-n|gen-f|num-sg|pers-3|case-o|vib-0_ke_bIca|tam-0|chunkId-NP2|chunkType-head|stype-|voicetype-	3	ccof	_	_
5	ke	ke	PSP	psp	lex-ke|cat-psp|gen-|num-|pers-|case-|vib-|tam-|chunkId-NP2|chunkType-child|stype-|voicetype-	4	lwg__psp	_	_
6	bIca	bIca	NST	nst	lex-bIca|cat-nst|gen-m|num-sg|pers-3|case-d|vib-|tam-|chunkId-NP2|chunkType-child|stype-|voicetype-	4	lwg__psp	_	_
7	sadZaka	sadZaka	NNC	n	lex-sadZaka|cat-n|gen-f|num-sg|pers-3|case-d|vib-0|tam-0|chunkId-NP3|chunkType-child|stype-|voicetype-	8	pof__cn	_	_
8	kinAre	kinArA	NN	n	lex-kinArA|cat-n|gen-m|num-sg|pers-3|case-d|vib-0|tam-0|chunkId-NP3|chunkType-head|stype-|voicetype-	11	k7p	_	_
9	JopadZI	JopadZI	NN	n	lex-JopadZI|cat-n|gen-f|num-sg|pers-3|case-o|vib-0_meM|tam-0|chunkId-NP4|chunkType-head|stype-|voicetype-	11	k7p	_	_
10	meM	meM	PSP	psp	lex-meM|cat-psp|gen-|num-|pers-|case-|vib-|tam-|chunkId-NP4|chunkType-child|stype-|voicetype-	9	lwg__psp	_	_
11	rahane	raha	VM	v	lex-raha|cat-v|gen-any|num-sg|pers-any|case-o|vib-nA_vAlA|tam-nA|chunkId-VGNN|chunkType-head|stype-|voicetype-	13	nmod	_	_
12	vAlA	vAlA	PSP	psp	lex-vAlA|cat-psp|gen-m|num-sg|pers-|case-d|vib-|tam-|chunkId-VGNN|chunkType-child|stype-|voicetype-	11	lwg__psp	_	_
13	miWileSa	miWileSa	NNP	n	lex-miWileSa|cat-n|gen-any|num-sg|pers-3|case-d|vib-0|tam-0|chunkId-NP5|chunkType-head|stype-|voicetype-	18	k1	_	_
14	unheM	vaha	PRP	pn	lex-vaha|cat-pn|gen-any|num-pl|pers-3|case-o|vib-ko|tam-ko|chunkId-NP6|chunkType-head|stype-|voicetype-	16	k2	_	_
15	pulisakarmI	pulisakarmI	NN	n	lex-pulisakarmI|cat-n|gen-m|num-pl|pers-3|case-d|vib-0|tam-0|chunkId-NP7|chunkType-head|stype-|voicetype-	16	k2s	_	_
16	samaJakara	samaJa	VM	v	lex-samaJa|cat-v|gen-any|num-any|pers-any|case-|vib-kara|tam-kara|chunkId-VGNF|chunkType-head|stype-|voicetype-	18	vmod	_	_
17	aMxara	aMxara	NST	nst	lex-aMxara|cat-nst|gen-m|num-sg|pers-3|case-d|vib-|tam-|chunkId-NP8|chunkType-head|stype-|voicetype-	18	k7p	_	_
18	calA	cala	VM	v	lex-cala|cat-v|gen-m|num-sg|pers-any|case-|vib-yA_jA+yA1|tam-yA|chunkId-VGF|chunkType-head|stype-declarative|voicetype-passive	0	main	_	_
19	gayA	jA	VAUX	v	lex-jA|cat-v|gen-m|num-sg|pers-any|case-|vib-yA1|tam-yA1|chunkId-VGF|chunkType-child|stype-|voicetype-	18	lwg__vaux	_	_
20	.	.	SYM	punc	lex-.|cat-punc|gen-|num-|pers-|case-|vib-|tam-|chunkId-BLK|chunkType-head|stype-|voicetype-	18	rsym	_	_

1	lekina	lekina	CC	avy	lex-lekina|cat-avy|gen-|num-|pers-|case-|vib-|tam-|chunkId-CCP|chunkType-head|stype-|voicetype-	0	main	_	_
2	,	COMMA	SYM	punc	lex-COMMA|cat-punc|gen-|num-|pers-|case-|vib-|tam-|chunkId-CCP|chunkType-child|stype-|voicetype-	1	rsym	_	_
3	ve	vaha	PRP	pn	lex-vaha|cat-pn|gen-any|num-pl|pers-3|case-d|vib-0|tam-0|chunkId-NP|chunkType-head|stype-|voicetype-	5	k1	_	_
4	naksalI	naksalI	NN	n	lex-naksalI|cat-n|gen-m|num-pl|pers-3|case-d|vib-0|tam-0|chunkId-NP2|chunkType-head|stype-|voicetype-	5	k1s	_	_
5	We	WA	VM	v	lex-WA|cat-v|gen-m|num-pl|pers-any|case-|vib-WA|tam-WA|chunkId-VGF|chunkType-head|stype-declarative|voicetype-active	1	ccof	_	_
6	.	.	SYM	punc	lex-.|cat-punc|gen-|num-|pers-|case-|vib-|tam-|chunkId-BLK|chunkType-head|stype-|voicetype-	1	rsym	_	_

