1	jeta	jeta	NNPC	n	lex-jeta|cat-n|gen-m|num-sg|pers-3|case-d|vib-0|tam-0|chunkId-NP|chunkType-child|stype-|voicetype-	2	pof__cn	_	_
2	eyaraveja	eyaraveja	NNP	n	lex-eyaraveja|cat-n|gen-m|num-sg|pers-3|case-o|vib-0_ke_KilAPa|tam-0|chunkId-NP|chunkType-head|stype-|voicetype-	31	vmod	_	_
3	ke	ke	PSP	psp	lex-ke|cat-psp|gen-|num-|pers-|case-|vib-|tam-|chunkId-NP|chunkType-child|stype-|voicetype-	2	lwg__psp	_	_
4	KilAPa	KilAPa	PSP	adj	lex-KilAPa|cat-adj|gen-|num-|pers-|case-|vib-|tam-|chunkId-NP|chunkType-child|stype-|voicetype-	2	lwg__psp	_	_
5	isI	yaha	DEM	pn	lex-yaha|cat-pn|gen-any|num-sg|pers-3|case-o|vib-|tam-|chunkId-NP2|chunkType-child|stype-|voicetype-	6	nmod__adj	_	_
6	nAma	nAma	NN	n	lex-nAma|cat-n|gen-m|num-sg|pers-3|case-o|vib-0_kA|tam-0|chunkId-NP2|chunkType-head|stype-|voicetype-	10	r6	_	_
7	kI	kA	PSP	psp	lex-kA|cat-psp|gen-f|num-sg|pers-|case-o|vib-|tam-|chunkId-NP2|chunkType-child|stype-|voicetype-	6	lwg__psp	_	_
8	eka	eka	QC	num	lex-eka|cat-num|gen-any|num-any|pers-|case-any|vib-|tam-|chunkId-NP3|chunkType-child|stype-|voicetype-	10	nmod__adj	_	_
9	amerikI	amerikI	JJ	adj	lex-amerikI|cat-adj|gen-any|num-any|pers-|case-o|vib-|tam-|chunkId-NP3|chunkType-child|stype-|voicetype-	10	nmod__adj	_	_
10	kaMpanI	kaMpanI	NN	n	lex-kaMpanI|cat-n|gen-f|num-sg|pers-3|case-o|vib-0_kA|tam-0|chunkId-NP3|chunkType-head|stype-|voicetype-	12	r6-k2	_	_
11	ke	kA	PSP	psp	lex-kA|cat-psp|gen-m|num-sg|pers-|case-o|vib-|tam-|chunkId-NP3|chunkType-child|stype-|voicetype-	10	lwg__psp	_	_
12	SikAyawa	SikAyawa	NN	n	lex-SikAyawa|cat-n|gen-f|num-sg|pers-3|case-d|vib-0|tam-0|chunkId-NP4|chunkType-head|stype-|voicetype-	13	pof	_	_
13	karane	kara	VM	v	lex-kara|cat-v|gen-any|num-any|pers-any|case-o|vib-nA_para|tam-nA|chunkId-VGNN|chunkType-head|stype-|voicetype-	31	k7	_	_
14	para	para	PSP	psp	lex-para|cat-psp|gen-|num-|pers-|case-|vib-|tam-|chunkId-VGNN|chunkType-child|stype-|voicetype-	13	lwg__psp	_	_
15	amerikI	amerikI	JJ	adj	lex-amerikI|cat-adj|gen-any|num-any|pers-|case-o|vib-|tam-|chunkId-NP5|chunkType-child|stype-|voicetype-	16	nmod__adj	_	_
16	praSAsana	praSAsana	NN	n	lex-praSAsana|cat-n|gen-m|num-sg|pers-3|case-o|vib-0_kA|tam-0|chunkId-NP5|chunkType-head|stype-|voicetype-	20	r6	_	_
17	kI	kA	PSP	psp	lex-kA|cat-psp|gen-f|num-pl|pers-|case-o|vib-|tam-|chunkId-NP5|chunkType-child|stype-|voicetype-	16	lwg__psp	_	_
18	mAMgI	mAMga	VM	v	lex-mAMga|cat-v|gen-f|num-pl|pers-any|case-|vib-yA_jA+yA1|tam-yA|chunkId-VGNF|chunkType-head|stype-|voicetype-	20	nmod__k1inv	_	_
19	gaI	jA	VAUX	v	lex-jA|cat-v|gen-f|num-pl|pers-any|case-|vib-yA1|tam-yA1|chunkId-VGNF|chunkType-child|stype-|voicetype-	18	lwg__vaux	_	_
20	jAnakAriyoM	jAnakArI	NN	n	lex-jAnakArI|cat-n|gen-f|num-pl|pers-3|case-o|vib-0_ke_bAre_meM|tam-0|chunkId-NP6|chunkType-head|stype-|voicetype-	31	k7	_	_
21	ke	ke	PSP	psp	lex-ke|cat-psp|gen-|num-|pers-|case-|vib-|tam-|chunkId-NP6|chunkType-child|stype-|voicetype-	20	lwg__psp	_	_
22	bAre	bAre	PSP	psp	lex-bAre|cat-psp|gen-|num-|pers-|case-|vib-|tam-|chunkId-NP6|chunkType-child|stype-|voicetype-	20	lwg__psp	_	_
23	meM	meM	PSP	psp	lex-meM|cat-psp|gen-|num-|pers-|case-|vib-|tam-|chunkId-NP6|chunkType-child|stype-|voicetype-	20	lwg__psp	_	_
24	maMwrimaMdala	maMwrimaMdala	NN	n	lex-maMwrimaMdala|cat-n|gen-m|num-sg|pers-3|case-o|vib-0_ke_bIca|tam-0|chunkId-NP7|chunkType-head|stype-|voicetype-	31	k7	_	_
25	ke	ke	PSP	psp	lex-ke|cat-psp|gen-|num-|pers-|case-|vib-|tam-|chunkId-NP7|chunkType-child|stype-|voicetype-	24	lwg__psp	_	_
26	bIca	bIca	NST	nst	lex-bIca|cat-nst|gen-m|num-sg|pers-3|case-d|vib-|tam-|chunkId-NP7|chunkType-child|stype-|voicetype-	24	lwg__psp	_	_
27	vicAra	vicAra	NNC	n	lex-vicAra|cat-n|gen-m|num-sg|pers-3|case-d|vib-0|tam-0|chunkId-NP8|chunkType-child|stype-|voicetype-	29	pof__cn	_	_
28	-	-	SYM	punc	lex--|cat-punc|gen-|num-|pers-|case-|vib-|tam-|chunkId-NP8|chunkType-child|stype-|voicetype-	29	pof__cn	_	_
29	vimarSa	vimarSa	NN	n	lex-vimarSa|cat-n|gen-m|num-sg|pers-3|case-d|vib-0|tam-0|chunkId-NP8|chunkType-head|stype-|voicetype-	31	k1	_	_
30	jArI	jArI	JJ	adj	lex-jArI|cat-adj|gen-any|num-any|pers-|case-|vib-|tam-|chunkId-JJP|chunkType-head|stype-|voicetype-	31	pof	_	_
31	hE	hE	VM	v	lex-hE|cat-v|gen-any|num-sg|pers-3|case-|vib-hE|tam-hE|chunkId-VGF|chunkType-head|stype-declarative|voicetype-active	0	main	_	_
32	.	.	SYM	punc	lex-.|cat-punc|gen-|num-|pers-|case-|vib-|tam-|chunkId-BLK|chunkType-head|stype-|voicetype-	31	rsym	_	_

1	yaha	yaha	DEM	pn	lex-yaha|cat-pn|gen-any|num-sg|pers-3|case-d|vib-|tam-|chunkId-NP|chunkType-child|stype-|voicetype-	2	nmod__adj	_	_
2	jAnakArI	jAnakArI	NN	n	lex-jAnakArI|cat-n|gen-f|num-sg|pers-3|case-d|vib-0|tam-0|chunkId-NP|chunkType-head|stype-|voicetype-	7	k2	_	_
3	bqhaspawivAra	bqhaspawivAra	NNP	n	lex-bqhaspawivAra|cat-n|gen-m|num-sg|pers-3|case-o|vib-0_ko|tam-0|chunkId-NP2|chunkType-head|stype-|voicetype-	7	k7t	_	_
4	ko	ko	PSP	psp	lex-ko|cat-psp|gen-|num-|pers-|case-|vib-|tam-|chunkId-NP2|chunkType-child|stype-|voicetype-	3	lwg__psp	_	_
5	lokasaBA	lokasaBA	NN	n	lex-lokasaBA|cat-n|gen-f|num-sg|pers-3|case-o|vib-0_ko|tam-0|chunkId-NP3|chunkType-head|stype-|voicetype-	7	k4	_	_
6	ko	ko	PSP	psp	lex-ko|cat-psp|gen-|num-|pers-|case-|vib-|tam-|chunkId-NP3|chunkType-child|stype-|voicetype-	5	lwg__psp	_	_
7	xI	xe	VM	v	lex-xe|cat-v|gen-f|num-sg|pers-any|case-|vib-yA_jA+yA1|tam-yA|chunkId-VGF|chunkType-head|stype-declarative|voicetype-active	0	main	_	_
8	gaI	jA	VAUX	v	lex-jA|cat-v|gen-f|num-sg|pers-any|case-|vib-yA1|tam-yA1|chunkId-VGF|chunkType-child|stype-|voicetype-	7	lwg__vaux	_	_
9	.	.	SYM	punc	lex-.|cat-punc|gen-|num-|pers-|case-|vib-|tam-|chunkId-BLK|chunkType-head|stype-|voicetype-	7	rsym	_	_

1	nAgarika	nAgarika	NNPC	n	lex-nAgarika|cat-n|gen-m|num-sg|pers-3|case-d|vib-0|tam-0|chunkId-NP|chunkType-child|stype-|voicetype-	3	pof__cn	_	_
2	uddayana	uddayana	NNPC	n	lex-uddayana|cat-n|gen-m|num-sg|pers-3|case-d|vib-0|tam-0|chunkId-NP|chunkType-child|stype-|voicetype-	3	pof__cn	_	_
3	maMwrI	maMwrI	NNP	n	lex-maMwrI|cat-n|gen-m|num-sg|pers-3|case-d|vib-0|tam-0|chunkId-NP|chunkType-child|stype-|voicetype-	5	nmod__adj	_	_
4	praPulla	praPulla	NNPC	n	lex-praPulla|cat-n|gen-m|num-sg|pers-3|case-d|vib-0|tam-0|chunkId-NP|chunkType-child|stype-|voicetype-	5	pof__cn	_	_
5	patela	patela	NNP	n	lex-patela|cat-n|gen-m|num-sg|pers-3|case-o|vib-0_ne|tam-0|chunkId-NP|chunkType-head|stype-|voicetype-	10	k1	_	_
6	ne	ne	PSP	psp	lex-ne|cat-psp|gen-|num-|pers-|case-|vib-|tam-|chunkId-NP|chunkType-child|stype-|voicetype-	5	lwg__psp	_	_
7	praSnakAla	praSnakAla	NN	n	lex-praSnakAla|cat-n|gen-m|num-sg|pers-3|case-o|vib-0_ke_xOrAna|tam-0|chunkId-NP2|chunkType-head|stype-|voicetype-	10	k7t	_	_
8	ke	ke	PSP	psp	lex-ke|cat-psp|gen-|num-|pers-|case-|vib-|tam-|chunkId-NP2|chunkType-child|stype-|voicetype-	7	lwg__psp	_	_
9	xOrAna	xOrAna	NST	nst	lex-xOrAna|cat-nst|gen-m|num-sg|pers-3|case-d|vib-|tam-|chunkId-NP2|chunkType-child|stype-|voicetype-	7	lwg__psp	_	_
10	bawAyA	bawA	VM	v	lex-bawA|cat-v|gen-m|num-sg|pers-any|case-|vib-yA|tam-yA|chunkId-VGF|chunkType-head|stype-declarative|voicetype-active	0	main	_	_
11	ki	ki	CC	avy	lex-ki|cat-avy|gen-|num-|pers-|case-|vib-|tam-|chunkId-CCP|chunkType-head|stype-|voicetype-	10	k2	_	_
12	amerikI	amerikI	JJ	adj	lex-amerikI|cat-adj|gen-any|num-any|pers-|case-o|vib-|tam-|chunkId-NP3|chunkType-child|stype-|voicetype-	13	nmod__adj	_	_
13	praSAsana	praSAsana	NN	n	lex-praSAsana|cat-n|gen-m|num-sg|pers-3|case-o|vib-0_ke_sAmane|tam-0|chunkId-NP3|chunkType-head|stype-|voicetype-	29	k7	_	_
14	ke	ke	PSP	psp	lex-ke|cat-psp|gen-|num-|pers-|case-|vib-|tam-|chunkId-NP3|chunkType-child|stype-|voicetype-	13	lwg__psp	_	_
15	sAmane	sAmane	NST	nst	lex-sAmane|cat-nst|gen-m|num-sg|pers-3|case-d|vib-|tam-|chunkId-NP3|chunkType-child|stype-|voicetype-	13	lwg__psp	_	_
16	samAna	samAna	JJ	adj	lex-samAna|cat-adj|gen-any|num-any|pers-|case-o|vib-|tam-|chunkId-NP4|chunkType-child|stype-|voicetype-	17	nmod__adj	_	_
17	nAma	nAma	NN	n	lex-nAma|cat-n|gen-m|num-sg|pers-3|case-o|vib-0_vAlA|tam-0|chunkId-NP4|chunkType-head|stype-|voicetype-	20	nmod	_	_
18	vAlI	vAlA	PSP	psp	lex-vAlA|cat-psp|gen-f|num-sg|pers-|case-o|vib-|tam-|chunkId-NP4|chunkType-child|stype-|voicetype-	17	lwg__psp	_	_
19	amerikI	amerikI	JJ	adj	lex-amerikI|cat-adj|gen-any|num-any|pers-|case-o|vib-|tam-|chunkId-NP5|chunkType-child|stype-|voicetype-	20	nmod__adj	_	_
20	kaMpanI	kaMpanI	NN	n	lex-kaMpanI|cat-n|gen-f|num-sg|pers-3|case-o|vib-0_kA|tam-0|chunkId-NP5|chunkType-head|stype-|voicetype-	23	r6	_	_
21	ke	kA	PSP	psp	lex-kA|cat-psp|gen-m|num-sg|pers-|case-o|vib-|tam-|chunkId-NP5|chunkType-child|stype-|voicetype-	20	lwg__psp	_	_
22	jeta	jeta	NNPC	n	lex-jeta|cat-n|gen-m|num-sg|pers-3|case-d|vib-0|tam-0|chunkId-NP6|chunkType-child|stype-|voicetype-	23	pof__cn	_	_
23	eyaraveja	eyaraveja	NNP	n	lex-eyaraveja|cat-n|gen-m|num-sg|pers-3|case-o|vib-0_ke_KilAPa|tam-0|chunkId-NP6|chunkType-head|stype-|voicetype-	29	vmod	_	_
24	ke	ke	PSP	psp	lex-ke|cat-psp|gen-|num-|pers-|case-|vib-|tam-|chunkId-NP6|chunkType-child|stype-|voicetype-	23	lwg__psp	_	_
25	KilAPa	KilAPa	PSP	psp	lex-KilAPa|cat-psp|gen-|num-|pers-|case-|vib-|tam-|chunkId-NP6|chunkType-child|stype-|voicetype-	23	lwg__psp	_	_
26	kuCa	kuCa	QF	avy	lex-kuCa|cat-avy|gen-|num-|pers-|case-|vib-|tam-|chunkId-NP7|chunkType-child|stype-|voicetype-	27	nmod__adj	_	_
27	ApawwiyAM	Apawwi	NN	n	lex-Apawwi|cat-n|gen-f|num-pl|pers-3|case-d|vib-0|tam-0|chunkId-NP7|chunkType-head|stype-|voicetype-	29	k2	_	_
28	xarja	xarja	JJ	adj	lex-xarja|cat-adj|gen-any|num-any|pers-|case-|vib-|tam-|chunkId-JJP|chunkType-head|stype-|voicetype-	29	pof	_	_
29	karane	kara	VM	v	lex-kara|cat-v|gen-any|num-sg|pers-3|case-o|vib-nA_ke_bAxa|tam-nA|chunkId-VGNN|chunkType-head|stype-|voicetype-	36	k7t	_	_
30	ke	ke	PSP	psp	lex-ke|cat-psp|gen-|num-|pers-|case-|vib-|tam-|chunkId-VGNN|chunkType-child|stype-|voicetype-	29	lwg__psp	_	_
31	bAxa	bAxa	NST	nst	lex-bAxa|cat-nst|gen-m|num-sg|pers-3|case-d|vib-|tam-|chunkId-VGNN|chunkType-child|stype-|voicetype-	29	lwg__nst	_	_
32	amerikA	amerikA	NNP	n	lex-amerikA|cat-n|gen-m|num-sg|pers-3|case-d|vib-0|tam-0|chunkId-NP8|chunkType-head|stype-|voicetype-	36	k1	_	_
33	BArawa	BArawa	NNP	n	lex-BArawa|cat-n|gen-m|num-sg|pers-3|case-o|vib-0_kA|tam-0|chunkId-NP9|chunkType-head|stype-|voicetype-	35	r6	_	_
34	kI	kA	PSP	psp	lex-kA|cat-psp|gen-f|num-sg|pers-|case-d|vib-|tam-|chunkId-NP9|chunkType-child|stype-|voicetype-	33	lwg__psp	_	_
35	prawikriyA	prawikriyA	NN	n	lex-prawikriyA|cat-n|gen-f|num-sg|pers-3|case-d|vib-0|tam-0|chunkId-NP10|chunkType-head|stype-|voicetype-	36	k2	_	_
36	cAhawA	cAha	VM	v	lex-cAha|cat-v|gen-m|num-sg|pers-3|case-|vib-wA_hE|tam-wA|chunkId-VGF2|chunkType-head|stype-declarative|voicetype-active	38	ccof	_	_
37	hE	hE	VAUX	v	lex-hE|cat-v|gen-any|num-sg|pers-3|case-|vib-hE|tam-hE|chunkId-VGF2|chunkType-child|stype-|voicetype-	36	lwg__vaux	_	_
38	Ora	Ora	CC	avy	lex-Ora|cat-avy|gen-|num-|pers-|case-|vib-|tam-|chunkId-CCP2|chunkType-head|stype-|voicetype-	11	ccof	_	_
39	usane	vaha	PRP	pn	lex-vaha|cat-pn|gen-any|num-sg|pers-3|case-o|vib-ne|tam-ne|chunkId-NP11|chunkType-head|stype-|voicetype-	45	k1	_	_
40	isa	yaha	PRP	pn	lex-yaha|cat-pn|gen-any|num-sg|pers-3|case-o|vib-0_bAre_meM|tam-0|chunkId-NP12|chunkType-head|stype-|voicetype-	45	k7	_	_
41	bAre	bAre	PSP	psp	lex-bAre|cat-psp|gen-|num-|pers-|case-|vib-|tam-|chunkId-NP12|chunkType-child|stype-|voicetype-	40	lwg__psp	_	_
42	meM	meM	PSP	psp	lex-meM|cat-psp|gen-|num-|pers-|case-|vib-|tam-|chunkId-NP12|chunkType-child|stype-|voicetype-	40	lwg__psp	_	_
43	kuCa	kuCa	QF	avy	lex-kuCa|cat-avy|gen-|num-|pers-|case-|vib-|tam-|chunkId-NP13|chunkType-child|stype-|voicetype-	44	nmod__adj	_	_
44	jAnakAriyAM	jAnakArI	NN	n	lex-jAnakArI|cat-n|gen-f|num-pl|pers-3|case-d|vib-0|tam-0|chunkId-NP13|chunkType-head|stype-|voicetype-	45	k2	_	_
45	mAMgI	mAMga	VM	v	lex-mAMga|cat-v|gen-f|num-pl|pers-3|case-|vib-yA_hE|tam-yA|chunkId-VGF3|chunkType-head|stype-declarative|voicetype-active	38	ccof	_	_
46	hEM	hE	VAUX	v	lex-hE|cat-v|gen-any|num-pl|pers-3|case-|vib-hE|tam-hE|chunkId-VGF3|chunkType-child|stype-|voicetype-	45	lwg__vaux	_	_
47	.	.	SYM	punc	lex-.|cat-punc|gen-|num-|pers-|case-|vib-|tam-|chunkId-BLK|chunkType-head|stype-|voicetype-	10	rsym	_	_

1	unhoMne	vaha	PRP	pn	lex-vaha|cat-pn|gen-any|num-sg|pers-3h|case-o|vib-ne|tam-ne|chunkId-NP|chunkType-head|stype-|voicetype-	2	k1	_	_
2	bawAyA	bawA	VM	v	lex-bawA|cat-v|gen-m|num-sg|pers-any|case-|vib-yA|tam-yA|chunkId-VGF|chunkType-head|stype-declarative|voicetype-active	0	main	_	_
3	ki	ki	CC	avy	lex-ki|cat-avy|gen-|num-|pers-|case-|vib-|tam-|chunkId-CCP|chunkType-head|stype-|voicetype-	2	k2	_	_
4	amerikI	amerikI	JJ	adj	lex-amerikI|cat-adj|gen-any|num-any|pers-|case-o|vib-|tam-|chunkId-NP2|chunkType-child|stype-|voicetype-	5	nmod__adj	_	_
5	sarakAra	sarakAra	NN	n	lex-sarakAra|cat-n|gen-f|num-sg|pers-3|case-o|vib-0_ko|tam-0|chunkId-NP2|chunkType-head|stype-|voicetype-	15	k4	_	_
6	ko	ko	PSP	psp	lex-ko|cat-psp|gen-|num-|pers-|case-|vib-|tam-|chunkId-NP2|chunkType-child|stype-|voicetype-	5	lwg__psp	_	_
7	isa	yaha	PRP	pn	lex-yaha|cat-pn|gen-any|num-sg|pers-3|case-o|vib-0_bAre_meM|tam-0|chunkId-NP3|chunkType-head|stype-|voicetype-	15	k7	_	_
8	bAre	bAre	PSP	psp	lex-bAre|cat-psp|gen-|num-|pers-|case-|vib-|tam-|chunkId-NP3|chunkType-child|stype-|voicetype-	7	lwg__psp	_	_
9	meM	meM	PSP	psp	lex-meM|cat-psp|gen-|num-|pers-|case-|vib-|tam-|chunkId-NP3|chunkType-child|stype-|voicetype-	7	lwg__psp	_	_
10	jAnakArI	jAnakArI	NN	n	lex-jAnakArI|cat-n|gen-f|num-sg|pers-3|case-d|vib-0|tam-0|chunkId-NP4|chunkType-head|stype-|voicetype-	15	k2	_	_
11	vixeSa	vixeSa	NNPC	n	lex-vixeSa|cat-n|gen-m|num-sg|pers-3|case-d|vib-0|tam-0|chunkId-NP5|chunkType-child|stype-|voicetype-	12	pof__cn	_	_
12	maMwrAlaya	maMwrAlaya	NNP	n	lex-maMwrAlaya|cat-n|gen-m|num-sg|pers-3|case-o|vib-0_ke_jZarie|tam-0|chunkId-NP5|chunkType-head|stype-|voicetype-	15	k3	_	_
13	ke	ke	PSP	psp	lex-ke|cat-psp|gen-|num-|pers-|case-|vib-|tam-|chunkId-NP5|chunkType-child|stype-|voicetype-	12	lwg__psp	_	_
14	jZarie	jZarie	PSP	psp	lex-jZarie|cat-psp|gen-|num-|pers-|case-|vib-|tam-|chunkId-NP5|chunkType-child|stype-|voicetype-	12	lwg__psp	_	_
15	xI	xe	VM	v	lex-xe|cat-v|gen-f|num-sg|pers-3|case-|vib-yA_jA+gA|tam-yA|chunkId-VGF2|chunkType-head|stype-declarative|voicetype-active	3	ccof	_	_
16	jAegI	jA	VAUX	v	lex-jA|cat-v|gen-f|num-sg|pers-3|case-|vib-gA|tam-gA|chunkId-VGF2|chunkType-child|stype-|voicetype-	15	lwg__vaux	_	_
17	.	.	SYM	punc	lex-.|cat-punc|gen-|num-|pers-|case-|vib-|tam-|chunkId-BLK|chunkType-head|stype-|voicetype-	2	rsym	_	_

