1	rARtrapawi	rARtrapawi	NNP	n	lex-rARtrapawi|cat-n|gen-m|num-sg|pers-3|case-d|vib-0|tam-0|chunkId-NP|chunkType-child|stype-|voicetype-	6	nmod__adj	_	_
2	e.	e.	NNPC	n	lex-e.|cat-n|gen-m|num-sg|pers-3|case-d|vib-0|tam-0|chunkId-NP|chunkType-child|stype-|voicetype-	6	pof__cn	_	_
3	pI.	pI.	NNPC	n	lex-pI.|cat-n|gen-m|num-sg|pers-3|case-d|vib-0|tam-0|chunkId-NP|chunkType-child|stype-|voicetype-	6	pof__cn	_	_
4	je.	je.	NNPC	n	lex-je.|cat-n|gen-m|num-sg|pers-3|case-d|vib-0|tam-0|chunkId-NP|chunkType-child|stype-|voicetype-	6	pof__cn	_	_
5	abxula	abxula	NNPC	n	lex-abxula|cat-n|gen-m|num-sg|pers-3|case-d|vib-0|tam-0|chunkId-NP|chunkType-child|stype-|voicetype-	6	pof__cn	_	_
6	kalAma	kalAma	NNP	n	lex-kalAma|cat-n|gen-m|num-sg|pers-3|case-d|vib-0|tam-0|chunkId-NP|chunkType-head|stype-|voicetype-	15	k1	_	_
7	somavAra	somavAra	NNP	n	lex-somavAra|cat-n|gen-m|num-sg|pers-3|case-o|vib-0_ko|tam-0|chunkId-NP2|chunkType-head|stype-|voicetype-	15	k7t	_	_
8	ko	ko	PSP	psp	lex-ko|cat-psp|gen-|num-|pers-|case-|vib-|tam-|chunkId-NP2|chunkType-child|stype-|voicetype-	7	lwg__psp	_	_
9	eka	eka	QC	num	lex-eka|cat-num|gen-any|num-any|pers-|case-any|vib-|tam-|chunkId-NP3|chunkType-child|stype-|voicetype-	10	nmod__adj	_	_
10	xina	xina	NN	n	lex-xina|cat-n|gen-m|num-sg|pers-3|case-o|vib-0_kA|tam-0|chunkId-NP3|chunkType-head|stype-|voicetype-	12	r6	_	_
11	ke	kA	PSP	psp	lex-kA|cat-psp|gen-m|num-sg|pers-|case-o|vib-|tam-|chunkId-NP3|chunkType-child|stype-|voicetype-	10	lwg__psp	_	_
12	xOre	xOrA	NN	n	lex-xOrA|cat-n|gen-m|num-sg|pers-3|case-o|vib-0_para|tam-0|chunkId-NP4|chunkType-head|stype-|voicetype-	15	k7	_	_
13	para	para	PSP	psp	lex-para|cat-psp|gen-|num-|pers-|case-|vib-|tam-|chunkId-NP4|chunkType-child|stype-|voicetype-	12	lwg__psp	_	_
14	muMbaI	muMbaI	NNP	n	lex-muMbaI|cat-n|gen-f|num-sg|pers-3|case-d|vib-0|tam-0|chunkId-NP5|chunkType-head|stype-|voicetype-	15	k2p	_	_
15	pahuMce	pahuMca	VM	v	lex-pahuMca|cat-v|gen-m|num-sg|pers-3h|case-|vib-yA|tam-yA|chunkId-VGF|chunkType-head|stype-declarative|voicetype-active	0	main	_	_
16	.	.	SYM	punc	lex-.|cat-punc|gen-|num-|pers-|case-|vib-|tam-|chunkId-BLK|chunkType-head|stype-|voicetype-	15	rsym	_	_

1	havAI	havAI	NNC	adj	lex-havAI|cat-adj|gen-any|num-any|pers-|case-o|vib-|tam-|chunkId-NP|chunkType-child|stype-|voicetype-	3	pof__cn	_	_
2	-	-	SYM	punc	lex--|cat-punc|gen-|num-|pers-|case-|vib-|tam-|chunkId-NP|chunkType-child|stype-|voicetype-	3	pof__cn	_	_
3	adde	addA	NN	n	lex-addA|cat-n|gen-m|num-sg|pers-3|case-o|vib-0_para|tam-0|chunkId-NP|chunkType-head|stype-|voicetype-	26	k7p	_	_
4	para	para	PSP	psp	lex-para|cat-psp|gen-|num-|pers-|case-|vib-|tam-|chunkId-NP|chunkType-child|stype-|voicetype-	3	lwg__psp	_	_
5	unakI	vaha	PRP	pn	lex-vaha|cat-pn|gen-f|num-sg|pers-3h|case-o|vib-kA|tam-kA|chunkId-NP2|chunkType-head|stype-|voicetype-	6	r6	_	_
6	agavAnI	agavAnI	NN	n	lex-agavAnI|cat-n|gen-f|num-sg|pers-3|case-o|vib-0_ke_lie|tam-0|chunkId-NP3|chunkType-head|stype-|voicetype-	26	rt	_	_
7	ke	ke	PSP	psp	lex-ke|cat-psp|gen-|num-|pers-|case-|vib-|tam-|chunkId-NP3|chunkType-child|stype-|voicetype-	6	lwg__psp	_	_
8	lie	lie	PSP	psp	lex-lie|cat-psp|gen-|num-|pers-|case-|vib-|tam-|chunkId-NP3|chunkType-child|stype-|voicetype-	6	lwg__psp	_	_
9	muKyamaMwrI	muKyamaMwrI	NNP	n	lex-muKyamaMwrI|cat-n|gen-m|num-sg|pers-3|case-d|vib-0|tam-0|chunkId-NP4|chunkType-child|stype-|voicetype-	11	nmod__adj	_	_
10	vilAsarAva	vilAsarAva	NNPC	n	lex-vilAsarAva|cat-n|gen-m|num-sg|pers-3|case-d|vib-0|tam-0|chunkId-NP4|chunkType-child|stype-|voicetype-	11	pof__cn	_	_
11	xeSamuKa	xeSamuKa	NNP	n	lex-xeSamuKa|cat-n|gen-any|num-sg|pers-3|case-d|vib-0|tam-0|chunkId-NP4|chunkType-head|stype-|voicetype-	22	ccof	_	_
12	,	COMMA	SYM	punc	lex-COMMA|cat-punc|gen-|num-|pers-|case-|vib-|tam-|chunkId-NP4|chunkType-child|stype-|voicetype-	11	rsym	_	_
13	upa	upa	NNPC	n	lex-upa|cat-n|gen-m|num-sg|pers-3|case-d|vib-0|tam-0|chunkId-NP5|chunkType-child|stype-|voicetype-	15	pof__cn	_	_
14	-	-	SYM	punc	lex--|cat-punc|gen-|num-|pers-|case-|vib-|tam-|chunkId-NP5|chunkType-child|stype-|voicetype-	18	rsym	_	_
15	muKyamaMwrI	muKyamaMwrI	NNP	n	lex-muKyamaMwrI|cat-n|gen-m|num-sg|pers-3|case-d|vib-0|tam-0|chunkId-NP5|chunkType-child|stype-|voicetype-	18	nmod__adj	_	_
16	Ara.	Ara.	NNPC	n	lex-Ara.|cat-n|gen-m|num-sg|pers-3|case-d|vib-0|tam-0|chunkId-NP5|chunkType-child|stype-|voicetype-	18	pof__cn	_	_
17	Ara.	Ara.	NNPC	n	lex-Ara.|cat-n|gen-m|num-sg|pers-3|case-d|vib-0|tam-0|chunkId-NP5|chunkType-child|stype-|voicetype-	18	pof__cn	_	_
18	pAtila	pAtila	NNP	n	lex-pAtila|cat-n|gen-any|num-sg|pers-3|case-d|vib-0|tam-0|chunkId-NP5|chunkType-head|stype-|voicetype-	22	ccof	_	_
19	,	COMMA	SYM	punc	lex-COMMA|cat-punc|gen-|num-|pers-|case-|vib-|tam-|chunkId-NP5|chunkType-child|stype-|voicetype-	18	rsym	_	_
20	anya	anya	JJ	adj	lex-anya|cat-adj|gen-any|num-any|pers-|case-d|vib-|tam-|chunkId-NP6|chunkType-child|stype-|voicetype-	21	nmod__adj	_	_
21	maMwrI	maMwrI	NN	n	lex-maMwrI|cat-n|gen-m|num-pl|pers-3|case-d|vib-0|tam-0|chunkId-NP6|chunkType-head|stype-|voicetype-	22	ccof	_	_
22	Ora	Ora	CC	avy	lex-Ora|cat-avy|gen-|num-|pers-|case-|vib-|tam-|chunkId-CCP|chunkType-head|stype-|voicetype-	26	k1	_	_
23	variRTa	variRTa	JJ	adj	lex-variRTa|cat-adj|gen-any|num-any|pers-|case-d|vib-|tam-|chunkId-NP7|chunkType-child|stype-|voicetype-	24	nmod__adj	_	_
24	nOkaraSAha	nOkaraSAha	NN	n	lex-nOkaraSAha|cat-n|gen-m|num-pl|pers-3|case-d|vib-0|tam-0|chunkId-NP7|chunkType-head|stype-|voicetype-	22	ccof	_	_
25	mOjUxa	mOjUxa	JJ	adj	lex-mOjUxa|cat-adj|gen-any|num-any|pers-|case-|vib-|tam-|chunkId-JJP|chunkType-head|stype-|voicetype-	26	k1s	_	_
26	We	WA	VM	v	lex-WA|cat-v|gen-m|num-pl|pers-any|case-|vib-WA|tam-WA|chunkId-VGF|chunkType-head|stype-declarative|voicetype-active	0	main	_	_
27	.	.	SYM	punc	lex-.|cat-punc|gen-|num-|pers-|case-|vib-|tam-|chunkId-BLK|chunkType-head|stype-|voicetype-	26	rsym	_	_

1	kalAma	kalAma	NNP	n	lex-kalAma|cat-n|gen-m|num-sg|pers-3|case-d|vib-0|tam-0|chunkId-NP|chunkType-head|stype-|voicetype-	8	k1	_	_
2	havAI	havAI	NNC	adj	lex-havAI|cat-adj|gen-any|num-any|pers-|case-o|vib-|tam-|chunkId-NP2|chunkType-child|stype-|voicetype-	4	pof__cn	_	_
3	-	-	SYM	punc	lex--|cat-punc|gen-|num-|pers-|case-|vib-|tam-|chunkId-NP2|chunkType-child|stype-|voicetype-	4	pof__cn	_	_
4	adde	addA	NN	n	lex-addA|cat-n|gen-m|num-sg|pers-3|case-o|vib-0_se|tam-0|chunkId-NP2|chunkType-head|stype-|voicetype-	8	k5	_	_
5	se	se	PSP	psp	lex-se|cat-psp|gen-|num-|pers-|case-|vib-|tam-|chunkId-NP2|chunkType-child|stype-|voicetype-	4	lwg__psp	_	_
6	sIXe	sIXe	RB	adv	lex-sIXe|cat-adv|gen-|num-|pers-|case-|vib-|tam-|chunkId-RBP|chunkType-head|stype-|voicetype-	8	adv	_	_
7	rAjaBavana	rAjaBavana	NN	n	lex-rAjaBavana|cat-n|gen-m|num-sg|pers-3|case-d|vib-0|tam-0|chunkId-NP3|chunkType-head|stype-|voicetype-	8	k2p	_	_
8	gae	jA	VM	v	lex-jA|cat-v|gen-m|num-sg|pers-3h|case-|vib-yA|tam-yA|chunkId-VGF|chunkType-head|stype-declarative|voicetype-active	0	main	_	_
9	.	.	SYM	punc	lex-.|cat-punc|gen-|num-|pers-|case-|vib-|tam-|chunkId-BLK|chunkType-head|stype-|voicetype-	8	rsym	_	_

1	apane	apanA	PRP	pn	lex-apanA|cat-pn|gen-m|num-any|pers-any|case-o|vib-0|tam-0|chunkId-NP|chunkType-head|stype-|voicetype-	2	r6	_	_
2	xOre	xOrA	NN	n	lex-xOrA|cat-n|gen-m|num-sg|pers-3|case-o|vib-0_ke_xOrAna|tam-0|chunkId-NP2|chunkType-head|stype-|voicetype-	38	k7t	_	_
3	ke	ke	PSP	psp	lex-ke|cat-psp|gen-|num-|pers-|case-|vib-|tam-|chunkId-NP2|chunkType-child|stype-|voicetype-	2	lwg__psp	_	_
4	xOrAna	xOrAna	NST	nst	lex-xOrAna|cat-nst|gen-m|num-sg|pers-3|case-d|vib-|tam-|chunkId-NP2|chunkType-child|stype-|voicetype-	2	lwg__psp	_	_
5	rARtrapawi	rARtrapawi	NNP	n	lex-rARtrapawi|cat-n|gen-m|num-sg|pers-3|case-o|vib-0_ne|tam-0|chunkId-NP3|chunkType-head|stype-|voicetype-	38	k1	_	_
6	ne	ne	PSP	psp	lex-ne|cat-psp|gen-|num-|pers-|case-|vib-|tam-|chunkId-NP3|chunkType-child|stype-|voicetype-	5	lwg__psp	_	_
7	mAlAbAra	mAlAbAra	NNPC	n	lex-mAlAbAra|cat-n|gen-m|num-sg|pers-3|case-d|vib-0|tam-0|chunkId-NP4|chunkType-child|stype-|voicetype-	8	pof__cn	_	_
8	hila	hila	NNP	n	lex-hila|cat-n|gen-f|num-sg|pers-3|case-o|vib-0_ke_nikata|tam-0|chunkId-NP4|chunkType-head|stype-|voicetype-	20	k7	_	_
9	ke	ke	PSP	psp	lex-ke|cat-psp|gen-|num-|pers-|case-|vib-|tam-|chunkId-NP4|chunkType-child|stype-|voicetype-	8	lwg__psp	_	_
10	nikata	nikata	NST	nst	lex-nikata|cat-nst|gen-m|num-sg|pers-3|case-d|vib-|tam-|chunkId-NP4|chunkType-child|stype-|voicetype-	8	lwg__psp	_	_
11	sahyAxrI	sahyAxrI	NNPC	n	lex-sahyAxrI|cat-n|gen-m|num-sg|pers-3|case-d|vib-0|tam-0|chunkId-NP5|chunkType-child|stype-|voicetype-	13	pof__cn	_	_
12	gesta	gesta	NNPC	n	lex-gesta|cat-n|gen-m|num-sg|pers-3|case-d|vib-0|tam-0|chunkId-NP5|chunkType-child|stype-|voicetype-	13	pof__cn	_	_
13	hAUsa	hAUsa	NNP	n	lex-hAUsa|cat-n|gen-m|num-sg|pers-3|case-o|vib-0_meM|tam-0|chunkId-NP5|chunkType-head|stype-|voicetype-	20	k7p	_	_
14	meM	meM	PSP	psp	lex-meM|cat-psp|gen-|num-|pers-|case-|vib-|tam-|chunkId-NP5|chunkType-child|stype-|voicetype-	13	lwg__psp	_	_
15	variRTa	variRTa	JJ	adj	lex-variRTa|cat-adj|gen-any|num-any|pers-|case-o|vib-|tam-|chunkId-NP6|chunkType-child|stype-|voicetype-	16	nmod__adj	_	_
16	nOkaraSAhoM	nOkaraSAha	NN	n	lex-nOkaraSAha|cat-n|gen-m|num-pl|pers-3|case-o|vib-0_ke_sAWa|tam-0|chunkId-NP6|chunkType-head|stype-|voicetype-	38	ras-k1	_	_
17	ke	ke	PSP	psp	lex-ke|cat-psp|gen-|num-|pers-|case-|vib-|tam-|chunkId-NP6|chunkType-child|stype-|voicetype-	16	lwg__psp	_	_
18	sAWa	sAWa	NST	nst	lex-sAWa|cat-nst|gen-m|num-sg|pers-3|case-d|vib-|tam-|chunkId-NP6|chunkType-child|stype-|voicetype-	16	lwg__psp	_	_
19	bETaka	bETaka	NN	n	lex-bETaka|cat-n|gen-f|num-sg|pers-3|case-d|vib-0|tam-0|chunkId-NP7|chunkType-head|stype-|voicetype-	20	pof	_	_
20	kara	kara	VM	v	lex-kara|cat-v|gen-any|num-any|pers-any|case-|vib-0|tam-0|chunkId-VGNF|chunkType-head|stype-|voicetype-	38	vmod	_	_
21	26	26	NNPC	n	lex-26|cat-n|gen-any|num-sg|pers-3|case-d|vib-0|tam-0|chunkId-NP8|chunkType-child|stype-|voicetype-	22	pof__cn	_	_
22	julAI	julAI	NNP	n	lex-julAI|cat-n|gen-f|num-sg|pers-3|case-o|vib-0_ko|tam-0|chunkId-NP8|chunkType-head|stype-|voicetype-	24	k7t	_	_
23	ko	ko	PSP	psp	lex-ko|cat-psp|gen-|num-|pers-|case-|vib-|tam-|chunkId-NP8|chunkType-child|stype-|voicetype-	22	lwg__psp	_	_
24	AI	A	VM	v	lex-A|cat-v|gen-f|num-sg|pers-any|case-|vib-yA|tam-yA|chunkId-VGNF2|chunkType-head|stype-|voicetype-	25	nmod__k1inv	_	_
25	bADZa	bADZa	NN	n	lex-bADZa|cat-n|gen-f|num-sg|pers-3|case-o|vib-0_ke_bAxa|tam-0|chunkId-NP9|chunkType-head|stype-|voicetype-	38	k7t	_	_
26	ke	ke	PSP	psp	lex-ke|cat-psp|gen-|num-|pers-|case-|vib-|tam-|chunkId-NP9|chunkType-child|stype-|voicetype-	25	lwg__psp	_	_
27	bAxa	bAxa	NST	nst	lex-bAxa|cat-nst|gen-m|num-sg|pers-3|case-d|vib-|tam-|chunkId-NP9|chunkType-child|stype-|voicetype-	25	lwg__psp	_	_
28	mahAnagara	mahAnagara	NN	n	lex-mahAnagara|cat-n|gen-m|num-sg|pers-3|case-o|vib-0|tam-0|chunkId-NP10|chunkType-head|stype-|voicetype-	29	ccof	_	_
29	Ora	Ora	CC	avy	lex-Ora|cat-avy|gen-|num-|pers-|case-|vib-|tam-|chunkId-CCP|chunkType-head|stype-|voicetype-	33	r6	_	_
30	rAjya	rAjya	NN	n	lex-rAjya|cat-n|gen-m|num-sg|pers-3|case-o|vib-0_kA|tam-0|chunkId-NP11|chunkType-head|stype-|voicetype-	29	ccof	_	_
31	ke	kA	PSP	psp	lex-kA|cat-psp|gen-m|num-pl|pers-|case-o|vib-|tam-|chunkId-NP11|chunkType-child|stype-|voicetype-	30	lwg__psp	_	_
32	anya	anya	JJ	adj	lex-anya|cat-adj|gen-any|num-any|pers-|case-o|vib-|tam-|chunkId-NP12|chunkType-child|stype-|voicetype-	33	nmod__adj	_	_
33	BAgoM	BAga	NN	n	lex-BAga|cat-n|gen-m|num-pl|pers-3|case-o|vib-0_kA|tam-0|chunkId-NP12|chunkType-head|stype-|voicetype-	35	r6	_	_
34	ke	kA	PSP	psp	lex-kA|cat-psp|gen-m|num-pl|pers-|case-o|vib-|tam-|chunkId-NP12|chunkType-child|stype-|voicetype-	33	lwg__psp	_	_
35	hAlAwoM	hAlAwa	NN	n	lex-hAlAwa|cat-n|gen-m|num-pl|pers-3|case-o|vib-0_kA|tam-0|chunkId-NP13|chunkType-head|stype-|voicetype-	37	r6-k2	_	_
36	kA	kA	PSP	psp	lex-kA|cat-psp|gen-m|num-sg|pers-|case-d|vib-|tam-|chunkId-NP13|chunkType-child|stype-|voicetype-	35	lwg__psp	_	_
37	jAyajA	jAyajA	NN	n	lex-jAyajA|cat-n|gen-m|num-sg|pers-3|case-d|vib-0|tam-0|chunkId-NP14|chunkType-head|stype-|voicetype-	38	pof	_	_
38	liyA	le	VM	v	lex-le|cat-v|gen-m|num-sg|pers-any|case-|vib-yA|tam-yA|chunkId-VGF|chunkType-head|stype-declarative|voicetype-active	0	main	_	_
39	.	.	SYM	punc	lex-.|cat-punc|gen-|num-|pers-|case-|vib-|tam-|chunkId-BLK|chunkType-head|stype-|voicetype-	38	rsym	_	_

1	bAxa	bAxa	NST	nst	lex-bAxa|cat-nst|gen-m|num-sg|pers-3|case-o|vib-0_meM|tam-|chunkId-NP|chunkType-head|stype-|voicetype-	18	k7t	_	_
2	meM	meM	PSP	psp	lex-meM|cat-psp|gen-|num-|pers-|case-|vib-|tam-|chunkId-NP|chunkType-child|stype-|voicetype-	1	lwg__psp	_	_
3	unhoMne	vaha	PRP	pn	lex-vaha|cat-pn|gen-any|num-sg|pers-3h|case-o|vib-ne|tam-ne|chunkId-NP2|chunkType-head|stype-|voicetype-	18	k1	_	_
4	vArdana	vArdana	NNPC	n	lex-vArdana|cat-n|gen-m|num-sg|pers-3|case-d|vib-0|tam-0|chunkId-NP3|chunkType-child|stype-|voicetype-	5	pof__cn	_	_
5	roda	roda	NNP	n	lex-roda|cat-n|gen-f|num-sg|pers-3|case-d|vib-0|tam-0|chunkId-NP3|chunkType-head|stype-|voicetype-	6	jjmod	_	_
6	sWiwa	sWiwa	JJ	adj	lex-sWiwa|cat-adj|gen-any|num-any|pers-|case-o|vib-|tam-|chunkId-JJP|chunkType-head|stype-|voicetype-	7	nmod	_	_
7	AvAsa	AvAsa	NN	n	lex-AvAsa|cat-n|gen-m|num-sg|pers-3|case-o|vib-0_para|tam-0|chunkId-NP4|chunkType-head|stype-|voicetype-	18	k7p	_	_
8	para	para	PSP	psp	lex-para|cat-psp|gen-|num-|pers-|case-|vib-|tam-|chunkId-NP4|chunkType-child|stype-|voicetype-	7	lwg__psp	_	_
9	jAne	jAnA	JJC	adj	lex-jAnA|cat-adj|gen-m|num-any|pers-|case-o|vib-|tam-|chunkId-NP5|chunkType-child|stype-|voicetype-	12	mod	_	_
10	-	-	SYM	punc	lex--|cat-punc|gen-|num-|pers-|case-|vib-|tam-|chunkId-NP5|chunkType-child|stype-|voicetype-	12	rsym	_	_
11	mAne	mAnA	JJ	adj	lex-mAnA|cat-adj|gen-m|num-any|pers-|case-o|vib-|tam-|chunkId-NP5|chunkType-child|stype-|voicetype-	12	nmod__adj	_	_
12	kArtUnista	kArtUnista	NN	n	lex-kArtUnista|cat-n|gen-m|num-sg|pers-3|case-o|vib-0|tam-0|chunkId-NP5|chunkType-head|stype-|voicetype-	15	nmod	_	_
13	Ara.	Ara.	NNPC	n	lex-Ara.|cat-n|gen-m|num-sg|pers-3|case-d|vib-0|tam-0|chunkId-NP6|chunkType-child|stype-|voicetype-	15	pof__cn	_	_
14	ke.	ke.	NNPC	n	lex-ke.|cat-n|gen-m|num-sg|pers-3|case-d|vib-0|tam-0|chunkId-NP6|chunkType-child|stype-|voicetype-	15	pof__cn	_	_
15	lakRmaNa	lakRmaNa	NNP	n	lex-lakRmaNa|cat-n|gen-m|num-sg|pers-3|case-o|vib-0_se|tam-0|chunkId-NP6|chunkType-head|stype-|voicetype-	18	k2	_	_
16	se	se	PSP	psp	lex-se|cat-psp|gen-|num-|pers-|case-|vib-|tam-|chunkId-NP6|chunkType-child|stype-|voicetype-	15	lwg__psp	_	_
17	mulAkAwa	mulAkAwa	NN	n	lex-mulAkAwa|cat-n|gen-f|num-sg|pers-3|case-d|vib-0|tam-0|chunkId-NP7|chunkType-head|stype-|voicetype-	18	pof	_	_
18	kI	kara	VM	v	lex-kara|cat-v|gen-f|num-sg|pers-any|case-|vib-yA|tam-yA|chunkId-VGF|chunkType-head|stype-declarative|voicetype-active	0	main	_	_
19	.	.	SYM	punc	lex-.|cat-punc|gen-|num-|pers-|case-|vib-|tam-|chunkId-BLK|chunkType-head|stype-|voicetype-	18	rsym	_	_

1	unhoMne	vaha	PRP	pn	lex-vaha|cat-pn|gen-any|num-sg|pers-3h|case-o|vib-ne|tam-ne|chunkId-NP|chunkType-head|stype-|voicetype-	23	k1	_	_
2	varalI	varalI	NNP	n	lex-varalI|cat-n|gen-m|num-sg|pers-3|case-o|vib-0_meM|tam-0|chunkId-NP2|chunkType-head|stype-|voicetype-	23	k7p	_	_
3	meM	meM	PSP	psp	lex-meM|cat-psp|gen-|num-|pers-|case-|vib-|tam-|chunkId-NP2|chunkType-child|stype-|voicetype-	2	lwg__psp	_	_
4	neharU	neharU	NNPC	n	lex-neharU|cat-n|gen-m|num-sg|pers-3|case-d|vib-0|tam-0|chunkId-NP3|chunkType-child|stype-|voicetype-	5	pof__cn	_	_
5	keMxra	keMxra	NNP	n	lex-keMxra|cat-n|gen-m|num-sg|pers-3|case-o|vib-0_meM|tam-0|chunkId-NP3|chunkType-head|stype-|voicetype-	23	k7p	_	_
6	meM	meM	PSP	psp	lex-meM|cat-psp|gen-|num-|pers-|case-|vib-|tam-|chunkId-NP3|chunkType-child|stype-|voicetype-	5	lwg__psp	_	_
7	SrI	SrI	NNPC	n	lex-SrI|cat-n|gen-m|num-sg|pers-3|case-d|vib-0|tam-0|chunkId-NP4|chunkType-child|stype-|voicetype-	12	pof__cn	_	_
8	rAjarAjeSavarI	rAjarAjeSavarI	NNPC	n	lex-rAjarAjeSavarI|cat-n|gen-f|num-sg|pers-3|case-d|vib-0|tam-0|chunkId-NP4|chunkType-child|stype-|voicetype-	12	pof__cn	_	_
9	Barawa	Barawa	NNPC	n	lex-Barawa|cat-n|gen-m|num-sg|pers-3|case-d|vib-0|tam-0|chunkId-NP4|chunkType-child|stype-|voicetype-	12	pof__cn	_	_
10	nAtya	nAtya	NNPC	n	lex-nAtya|cat-n|gen-m|num-sg|pers-3|case-d|vib-0|tam-0|chunkId-NP4|chunkType-child|stype-|voicetype-	12	pof__cn	_	_
11	kalA	kalA	NNPC	n	lex-kalA|cat-n|gen-f|num-sg|pers-3|case-d|vib-0|tam-0|chunkId-NP4|chunkType-child|stype-|voicetype-	12	pof__cn	_	_
12	maMxira	maMxira	NNP	n	lex-maMxira|cat-n|gen-m|num-sg|pers-3|case-o|vib-0_kA|tam-0|chunkId-NP4|chunkType-head|stype-|voicetype-	16	r6	_	_
13	ke	kA	PSP	psp	lex-kA|cat-psp|gen-m|num-sg|pers-|case-o|vib-|tam-|chunkId-NP4|chunkType-child|stype-|voicetype-	12	lwg__psp	_	_
14	hIraka	hIraka	NNPC	n	lex-hIraka|cat-n|gen-m|num-sg|pers-3|case-d|vib-0|tam-0|chunkId-NP5|chunkType-child|stype-|voicetype-	15	pof__cn	_	_
15	jayaMwI	jayaMwI	NNP	n	lex-jayaMwI|cat-n|gen-f|num-sg|pers-3|case-d|vib-0|tam-0|chunkId-NP5|chunkType-child|stype-|voicetype-	16	nmod__adj	_	_
16	samAroha	samAroha	NN	n	lex-samAroha|cat-n|gen-m|num-sg|pers-3|case-o|vib-0_kA|tam-0|chunkId-NP5|chunkType-head|stype-|voicetype-	19	r6	_	_
17	ke	kA	PSP	psp	lex-kA|cat-psp|gen-m|num-sg|pers-|case-o|vib-|tam-|chunkId-NP5|chunkType-child|stype-|voicetype-	16	lwg__psp	_	_
18	uxGAtana	uxGAtana	NNC	n	lex-uxGAtana|cat-n|gen-m|num-sg|pers-3|case-d|vib-0|tam-0|chunkId-NP6|chunkType-child|stype-|voicetype-	19	pof__cn	_	_
19	kAryakrama	kAryakrama	NN	n	lex-kAryakrama|cat-n|gen-m|num-sg|pers-3|case-o|vib-0_meM|tam-0|chunkId-NP6|chunkType-head|stype-|voicetype-	23	k7	_	_
20	meM	meM	PSP	psp	lex-meM|cat-psp|gen-|num-|pers-|case-|vib-|tam-|chunkId-NP6|chunkType-child|stype-|voicetype-	19	lwg__psp	_	_
21	BI	BI	RP	avy	lex-BI|cat-avy|gen-|num-|pers-|case-|vib-|tam-|chunkId-NP6|chunkType-child|stype-|voicetype-	19	lwg__rp	_	_
22	BAga	BAga	NN	n	lex-BAga|cat-n|gen-m|num-sg|pers-3|case-d|vib-0|tam-0|chunkId-NP7|chunkType-head|stype-|voicetype-	23	pof	_	_
23	liyA	le	VM	v	lex-le|cat-v|gen-m|num-sg|pers-any|case-|vib-yA|tam-yA|chunkId-VGF|chunkType-head|stype-declarative|voicetype-active	0	main	_	_
24	.	.	SYM	punc	lex-.|cat-punc|gen-|num-|pers-|case-|vib-|tam-|chunkId-BLK|chunkType-head|stype-|voicetype-	23	rsym	_	_

1	kalAma	kalAma	NNP	n	lex-kalAma|cat-n|gen-m|num-sg|pers-3|case-o|vib-0_ne|tam-0|chunkId-NP|chunkType-head|stype-|voicetype-	15	k1	_	_
2	ne	ne	PSP	psp	lex-ne|cat-psp|gen-|num-|pers-|case-|vib-|tam-|chunkId-NP|chunkType-child|stype-|voicetype-	1	lwg__psp	_	_
3	hotala	hotala	NNPC	n	lex-hotala|cat-n|gen-m|num-sg|pers-3|case-d|vib-0|tam-0|chunkId-NP2|chunkType-child|stype-|voicetype-	5	pof__cn	_	_
4	greMda	greMda	NNPC	adj	lex-greMda|cat-adj|gen-any|num-any|pers-|case-o|vib-|tam-|chunkId-NP2|chunkType-child|stype-|voicetype-	5	pof__cn	_	_
5	hayAwa	hayAwa	NNP	n	lex-hayAwa|cat-n|gen-m|num-sg|pers-3|case-o|vib-0_meM|tam-0|chunkId-NP2|chunkType-head|stype-|voicetype-	15	k7p	_	_
6	meM	meM	PSP	psp	lex-meM|cat-psp|gen-|num-|pers-|case-|vib-|tam-|chunkId-NP2|chunkType-child|stype-|voicetype-	5	lwg__psp	_	_
7	svAsWya	svAsWya	NNC	n	lex-svAsWya|cat-n|gen-m|num-sg|pers-3|case-d|vib-0|tam-0|chunkId-NP3|chunkType-child|stype-|voicetype-	8	pof__cn	_	_
8	SoXa	SoXa	NN	n	lex-SoXa|cat-n|gen-m|num-sg|pers-3|case-o|vib-0_para|tam-0|chunkId-NP3|chunkType-head|stype-|voicetype-	15	k7	_	_
9	para	para	PSP	psp	lex-para|cat-psp|gen-|num-|pers-|case-|vib-|tam-|chunkId-NP3|chunkType-child|stype-|voicetype-	8	lwg__psp	_	_
10	vESvika	vESvika	JJ	adj	lex-vESvika|cat-adj|gen-any|num-any|pers-|case-o|vib-|tam-|chunkId-NP4|chunkType-child|stype-|voicetype-	11	nmod__adj	_	_
11	maMca	maMca	NN	n	lex-maMca|cat-n|gen-m|num-sg|pers-3|case-o|vib-0_kA|tam-0|chunkId-NP4|chunkType-head|stype-|voicetype-	14	r6-k2	_	_
12	kA	kA	PSP	psp	lex-kA|cat-psp|gen-m|num-sg|pers-|case-d|vib-|tam-|chunkId-NP4|chunkType-child|stype-|voicetype-	11	lwg__psp	_	_
13	BI	BI	RP	avy	lex-BI|cat-avy|gen-|num-|pers-|case-|vib-|tam-|chunkId-NP4|chunkType-child|stype-|voicetype-	11	lwg__rp	_	_
14	uxGAtana	uxGAtana	NN	n	lex-uxGAtana|cat-n|gen-m|num-sg|pers-3|case-d|vib-0|tam-0|chunkId-NP5|chunkType-head|stype-|voicetype-	15	pof	_	_
15	kiyA	kara	VM	v	lex-kara|cat-v|gen-m|num-sg|pers-any|case-|vib-yA|tam-yA|chunkId-VGF|chunkType-head|stype-declarative|voicetype-active	0	main	_	_
16	.	.	SYM	punc	lex-.|cat-punc|gen-|num-|pers-|case-|vib-|tam-|chunkId-BLK|chunkType-head|stype-|voicetype-	15	rsym	_	_

1	isa	yaha	DEM	pn	lex-yaha|cat-pn|gen-any|num-sg|pers-3|case-o|vib-|tam-|chunkId-NP|chunkType-child|stype-|voicetype-	2	nmod__adj	_	_
2	avasara	avasara	NN	n	lex-avasara|cat-n|gen-m|num-sg|pers-3|case-o|vib-0_para|tam-0|chunkId-NP|chunkType-head|stype-|voicetype-	15	k7	_	_
3	para	para	PSP	psp	lex-para|cat-psp|gen-|num-|pers-|case-|vib-|tam-|chunkId-NP|chunkType-child|stype-|voicetype-	2	lwg__psp	_	_
4	keMxrIya	keMxrIya	NNPC	adj	lex-keMxrIya|cat-adj|gen-any|num-any|pers-|case-d|vib-|tam-|chunkId-NP2|chunkType-child|stype-|voicetype-	6	pof__cn	_	_
5	svAsWya	svAsWya	NNPC	n	lex-svAsWya|cat-n|gen-m|num-sg|pers-3|case-d|vib-0|tam-0|chunkId-NP2|chunkType-child|stype-|voicetype-	6	pof__cn	_	_
6	maMwrI	maMwrI	NNP	n	lex-maMwrI|cat-n|gen-m|num-sg|pers-3|case-d|vib-0|tam-0|chunkId-NP2|chunkType-child|stype-|voicetype-	8	nmod__adj	_	_
7	e.	e.	NNPC	n	lex-e.|cat-n|gen-m|num-sg|pers-3|case-d|vib-0|tam-0|chunkId-NP2|chunkType-child|stype-|voicetype-	8	pof__cn	_	_
8	rAmaxAsa	rAmaxAsa	NNP	n	lex-rAmaxAsa|cat-n|gen-m|num-sg|pers-3|case-d|vib-0|tam-0|chunkId-NP2|chunkType-head|stype-|voicetype-	9	ccof	_	_
9	Ora	Ora	CC	avy	lex-Ora|cat-avy|gen-|num-|pers-|case-|vib-|tam-|chunkId-CCP|chunkType-head|stype-|voicetype-	15	k1	_	_
10	muKyamaMwrI	muKyamaMwrI	NNP	n	lex-muKyamaMwrI|cat-n|gen-m|num-sg|pers-3|case-d|vib-0|tam-0|chunkId-NP3|chunkType-child|stype-|voicetype-	12	nmod__adj	_	_
11	vilAsarAva	vilAsarAva	NNPC	n	lex-vilAsarAva|cat-n|gen-m|num-sg|pers-3|case-d|vib-0|tam-0|chunkId-NP3|chunkType-child|stype-|voicetype-	12	pof__cn	_	_
12	xeSamuKa	xeSamuKa	NNP	n	lex-xeSamuKa|cat-n|gen-any|num-sg|pers-3|case-d|vib-0|tam-0|chunkId-NP3|chunkType-head|stype-|voicetype-	9	ccof	_	_
13	BI	BI	RP	avy	lex-BI|cat-avy|gen-|num-|pers-|case-|vib-|tam-|chunkId-NP3|chunkType-child|stype-|voicetype-	12	lwg__rp	_	_
14	mOjUxa	mOjUxa	JJ	adj	lex-mOjUxa|cat-adj|gen-any|num-any|pers-|case-|vib-|tam-|chunkId-JJP|chunkType-head|stype-|voicetype-	15	k1s	_	_
15	We	WA	VM	v	lex-WA|cat-v|gen-m|num-pl|pers-any|case-|vib-WA|tam-WA|chunkId-VGF|chunkType-head|stype-declarative|voicetype-active	0	main	_	_
16	.	.	SYM	punc	lex-.|cat-punc|gen-|num-|pers-|case-|vib-|tam-|chunkId-BLK|chunkType-head|stype-|voicetype-	15	rsym	_	_

1	rARtrapawi	rARtrapawi	NNP	n	lex-rARtrapawi|cat-n|gen-m|num-sg|pers-3|case-d|vib-0|tam-0|chunkId-NP|chunkType-head|stype-|voicetype-	7	k1	_	_
2	somavAra	somavAra	NNP	n	lex-somavAra|cat-n|gen-m|num-sg|pers-3|case-d|vib-0|tam-0|chunkId-NP2|chunkType-head|stype-|voicetype-	4	nmod	_	_
3	xera	xera	NN	n	lex-xera|cat-n|gen-m|num-sg|pers-3|case-d|vib-0|tam-0|chunkId-NP3|chunkType-child|stype-|voicetype-	4	nmod	_	_
4	rAwa	rAwa	NN	n	lex-rAwa|cat-n|gen-f|num-sg|pers-3|case-d|vib-0|tam-0|chunkId-NP3|chunkType-head|stype-|voicetype-	7	k7t	_	_
5	naI	nayA	NNPC	adj	lex-nayA|cat-adj|gen-f|num-sg|pers-|case-d|vib-|tam-|chunkId-NP4|chunkType-child|stype-|voicetype-	6	pof__cn	_	_
6	xillI	xillI	NNP	n	lex-xillI|cat-n|gen-f|num-sg|pers-3|case-d|vib-0|tam-0|chunkId-NP4|chunkType-head|stype-|voicetype-	7	k2p	_	_
7	lOta	lOta	VM	v	lex-lOta|cat-v|gen-any|num-sg|pers-3h|case-|vib-0_jA+gA|tam-0|chunkId-VGF|chunkType-head|stype-declarative|voicetype-active	0	main	_	_
8	jAeMge	jA	VAUX	v	lex-jA|cat-v|gen-m|num-sg|pers-3h|case-|vib-gA|tam-gA|chunkId-VGF|chunkType-child|stype-|voicetype-	7	lwg__vaux	_	_
9	.	.	SYM	punc	lex-.|cat-punc|gen-|num-|pers-|case-|vib-|tam-|chunkId-BLK|chunkType-head|stype-|voicetype-	7	rsym	_	_

