1	hExarAbAxa	hExarAbAxa	NNP	n	lex-hExarAbAxa|cat-n|gen-m|num-sg|pers-3|case-o|vib-0_meM|tam-0|chunkId-NP|chunkType-head|stype-|voicetype-	10	k7p	_	_
2	meM	meM	PSP	psp	lex-meM|cat-psp|gen-|num-|pers-|case-|vib-|tam-|chunkId-NP|chunkType-child|stype-|voicetype-	1	lwg__psp	_	_
3	maMgalavAra	maMgalavAra	NNP	n	lex-maMgalavAra|cat-n|gen-m|num-sg|pers-3|case-o|vib-0_se|tam-0|chunkId-NP2|chunkType-head|stype-|voicetype-	10	k7t	_	_
4	se	se	PSP	psp	lex-se|cat-psp|gen-|num-|pers-|case-|vib-|tam-|chunkId-NP2|chunkType-child|stype-|voicetype-	3	lwg__psp	_	_
5	93vIM	93vAz	NNPC	n	lex-93vAz|cat-n|gen-f|num-sg|pers-3|case-d|vib-0|tam-0|chunkId-NP3|chunkType-child|stype-|voicetype-	8	pof__cn	_	_
6	BArawIya	BArawIya	NNPC	null	lex-BArawIya|cat-null|gen-any|num-any|pers-|case-d|vib-|tam-|chunkId-NP3|chunkType-child|stype-|voicetype-	8	pof__cn	_	_
7	vijFAna	vijFAna	NNPC	null	lex-vijFAna|cat-null|gen-m|num-sg|pers-3|case-d|vib-0|tam-0|chunkId-NP3|chunkType-child|stype-|voicetype-	8	pof__cn	_	_
8	kAMgresa	kAMgresa	NNP	n	lex-kAMgresa|cat-n|gen-f|num-sg|pers-3|case-d|vib-0|tam-0|chunkId-NP3|chunkType-head|stype-|voicetype-	10	k1	_	_
9	SurU	SurU	NN	n	lex-SurU|cat-n|gen-m|num-sg|pers-3|case-d|vib-0|tam-0|chunkId-NP4|chunkType-head|stype-|voicetype-	10	pof	_	_
10	hogI	ho	VM	v	lex-ho|cat-v|gen-f|num-sg|pers-3|case-|vib-gA|tam-gA|chunkId-VGF|chunkType-head|stype-declarative|voicetype-active	0	main	_	_
11	.	.	SYM	s	lex-.|cat-s|gen-|num-|pers-|case-|vib-|tam-|chunkId-BLK|chunkType-head|stype-|voicetype-	10	rsym	_	_

1	kAMgresa	kAMgresa	NN	n	lex-kAMgresa|cat-n|gen-f|num-sg|pers-3|case-o|vib-0_ke_xOrAna|tam-0|chunkId-NP|chunkType-head|stype-|voicetype-	8	k7	_	_
2	ke	ke	PSP	psp	lex-ke|cat-psp|gen-|num-|pers-|case-|vib-|tam-|chunkId-NP|chunkType-child|stype-|voicetype-	1	lwg__psp	_	_
3	xOrAna	xOrAna	NST	nst	lex-xOrAna|cat-nst|gen-m|num-sg|pers-3|case-d|vib-|tam-|chunkId-NP|chunkType-child|stype-|voicetype-	1	lwg__psp	_	_
4	surakRA	surakRA	NN	n	lex-surakRA|cat-n|gen-f|num-sg|pers-3|case-o|vib-0_ke|tam-0|chunkId-NP2|chunkType-head|stype-|voicetype-	7	r6	_	_
5	ke	ke	PSP	psp	lex-ke|cat-psp|gen-m|num-pl|pers-|case-d|vib-|tam-|chunkId-NP2|chunkType-child|stype-|voicetype-	4	lwg__psp	_	_
6	vyApaka	vyApaka	JJ	adj	lex-vyApaka|cat-adj|gen-any|num-any|pers-|case-d|vib-|tam-|chunkId-NP3|chunkType-child|stype-|voicetype-	7	nmod__adj	_	_
7	prabaMXa	prabaMXa	NN	n	lex-prabaMXa|cat-n|gen-m|num-pl|pers-3|case-d|vib-0|tam-0|chunkId-NP3|chunkType-head|stype-|voicetype-	8	k1	_	_
8	kiye	kara	VM	v	lex-kara|cat-v|gen-m|num-pl|pers-3|case-|vib-yA_jA+yA1_hE|tam-yA|chunkId-VGF|chunkType-head|stype-declarative|voicetype-passive	0	main	_	_
9	gaye	jA	VAUX	v	lex-jA|cat-v|gen-m|num-pl|pers-any|case-|vib-yA1|tam-yA1|chunkId-VGF|chunkType-child|stype-|voicetype-	8	lwg__vaux	_	_
10	hEM	hE	VAUX	v	lex-hE|cat-v|gen-any|num-pl|pers-3|case-|vib-hE|tam-hE|chunkId-VGF|chunkType-child|stype-|voicetype-	8	lwg__vaux	_	_
11	.	.	SYM	s	lex-.|cat-s|gen-|num-|pers-|case-|vib-|tam-|chunkId-BLK|chunkType-head|stype-|voicetype-	8	rsym	_	_

1	rARtrIya	rARtrIya	JJ	adj	lex-rARtrIya|cat-adj|gen-any|num-any|pers-|case-o|vib-|tam-|chunkId-JJP|chunkType-head|stype-|voicetype-	2	ccof	_	_
2	va	va	CC	avy	lex-va|cat-avy|gen-|num-|pers-|case-|vib-|tam-|chunkId-CCP|chunkType-head|stype-|voicetype-	4	nmod	_	_
3	aMwararARtrIya	aMwararARtrIya	JJ	adj	lex-aMwararARtrIya|cat-adj|gen-any|num-any|pers-|case-o|vib-|tam-|chunkId-JJP2|chunkType-head|stype-|voicetype-	2	ccof	_	_
4	swara	swara	NN	n	lex-swara|cat-n|gen-m|num-sg|pers-3|case-o|vib-0_kA|tam-0|chunkId-NP|chunkType-head|stype-|voicetype-	8	r6	_	_
5	ke	kA	PSP	psp	lex-kA|cat-psp|gen-m|num-pl|pers-|case-d|vib-|tam-|chunkId-NP|chunkType-child|stype-|voicetype-	4	lwg__psp	_	_
6	kaI	kaI	QF	avy	lex-kaI|cat-avy|gen-|num-|pers-|case-|vib-|tam-|chunkId-NP2|chunkType-child|stype-|voicetype-	8	nmod__adj	_	_
7	SIrRa	SIrRa	JJ	adj	lex-SIrRa|cat-adj|gen-any|num-any|pers-|case-d|vib-|tam-|chunkId-NP2|chunkType-child|stype-|voicetype-	8	nmod__adj	_	_
8	vEjFAnika	vEjFAnika	NN	n	lex-vEjFAnika|cat-n|gen-m|num-pl|pers-3|case-d|vib-0|tam-0|chunkId-NP2|chunkType-head|stype-|voicetype-	16	k1	_	_
9	kAMgresa	kAMgresa	NN	n	lex-kAMgresa|cat-n|gen-f|num-sg|pers-3|case-o|vib-0_meM|tam-0|chunkId-NP3|chunkType-head|stype-|voicetype-	12	k7	_	_
10	meM	meM	PSP	psp	lex-meM|cat-psp|gen-|num-|pers-|case-|vib-|tam-|chunkId-NP3|chunkType-child|stype-|voicetype-	9	lwg__psp	_	_
11	Sirakawa	Sirakawa	NN	n	lex-Sirakawa|cat-n|gen-f|num-sg|pers-3|case-d|vib-0|tam-0|chunkId-NP4|chunkType-head|stype-|voicetype-	12	pof	_	_
12	karane	kara	VM	v	lex-kara|cat-v|gen-any|num-any|pers-any|case-o|vib-nA_ke_liye|tam-nA|chunkId-VGNN|chunkType-head|stype-|voicetype-	16	rt	_	_
13	ke	ke	PSP	psp	lex-ke|cat-psp|gen-|num-|pers-|case-|vib-|tam-|chunkId-VGNN|chunkType-child|stype-|voicetype-	12	lwg__psp	_	_
14	liye	liye	PSP	psp	lex-liye|cat-psp|gen-|num-|pers-|case-|vib-|tam-|chunkId-VGNN|chunkType-child|stype-|voicetype-	12	lwg__psp	_	_
15	hExarAbAxa	hExarAbAxa	NNP	n	lex-hExarAbAxa|cat-n|gen-m|num-sg|pers-3|case-d|vib-0|tam-0|chunkId-NP5|chunkType-head|stype-|voicetype-	16	k2p	_	_
16	pahuMca	pahuMca	VM	v	lex-pahuMca|cat-v|gen-m|num-pl|pers-3|case-|vib-0_cuka+yA_hE|tam-0|chunkId-VGF|chunkType-head|stype-declarative|voicetype-active	0	main	_	_
17	cuke	cuka	VAUX	v	lex-cuka|cat-v|gen-m|num-pl|pers-any|case-|vib-yA|tam-yA|chunkId-VGF|chunkType-child|stype-|voicetype-	16	lwg__vaux	_	_
18	hEM	hE	VAUX	v	lex-hE|cat-v|gen-any|num-pl|pers-3|case-|vib-hE|tam-hE|chunkId-VGF|chunkType-child|stype-|voicetype-	16	lwg__vaux	_	_
19	.	.	SYM	s	lex-.|cat-s|gen-|num-|pers-|case-|vib-|tam-|chunkId-BLK|chunkType-head|stype-|voicetype-	16	rsym	_	_

1	inameM	yaha	PRP	pn	lex-yaha|cat-pn|gen-any|num-pl|pers-3|case-o|vib-meM|tam-meM|chunkId-NP|chunkType-head|stype-|voicetype-	9	k7	_	_
2	cAra	cAra	QC	num	lex-cAra|cat-num|gen-any|num-any|pers-|case-any|vib-|tam-|chunkId-NP2|chunkType-child|stype-|voicetype-	5	nmod__adj	_	_
3	nobala	nobala	NNPC	num	lex-nobala|cat-num|gen-any|num-any|pers-|case-d|vib-|tam-|chunkId-NP2|chunkType-child|stype-|voicetype-	4	pof__cn	_	_
4	puraskAra	puraskAra	NNP	n	lex-puraskAra|cat-n|gen-m|num-sg|pers-3|case-d|vib-0|tam-0|chunkId-NP2|chunkType-child|stype-|voicetype-	6	nmod__adj	_	_
5	vijewA	vijewA	NNC	n	lex-vijewA|cat-n|gen-m|num-sg|pers-3|case-d|vib-0|tam-0|chunkId-NP2|chunkType-child|stype-|voicetype-	6	pof__cn	_	_
6	vEjFAnika	vEjFAnika	NN	n	lex-vEjFAnika|cat-n|gen-m|num-pl|pers-3|case-d|vib-0|tam-0|chunkId-NP2|chunkType-head|stype-|voicetype-	9	k1	_	_
7	BI	BI	RP	avy	lex-BI|cat-avy|gen-|num-|pers-|case-|vib-|tam-|chunkId-NP2|chunkType-child|stype-|voicetype-	6	lwg__rp	_	_
8	SAmila	SAmila	JJ	adj	lex-SAmila|cat-adj|gen-any|num-any|pers-|case-|vib-|tam-|chunkId-JJP|chunkType-head|stype-|voicetype-	9	k1s	_	_
9	hEM	hE	VM	v	lex-hE|cat-v|gen-any|num-pl|pers-3|case-|vib-hE|tam-hE|chunkId-VGF|chunkType-head|stype-declarative|voicetype-active	0	main	_	_
10	.	.	SYM	s	lex-.|cat-s|gen-|num-|pers-|case-|vib-|tam-|chunkId-BLK|chunkType-head|stype-|voicetype-	9	rsym	_	_

1	rARtrapawi	rARtrapawi	NNP	n	lex-rARtrapawi|cat-n|gen-m|num-sg|pers-3|case-d|vib-0|tam-0|chunkId-NP|chunkType-child|stype-|voicetype-	6	nmod__adj	_	_
2	e.	e.	NNPC	n	lex-e.|cat-n|gen-m|num-sg|pers-3|case-d|vib-0|tam-0|chunkId-NP|chunkType-child|stype-|voicetype-	6	pof__cn	_	_
3	pI.	pI.	NNPC	null	lex-pI.|cat-null|gen-m|num-sg|pers-3|case-d|vib-0|tam-0|chunkId-NP|chunkType-child|stype-|voicetype-	6	pof__cn	_	_
4	je.	je.	NNPC	null	lex-je.|cat-null|gen-m|num-sg|pers-3|case-d|vib-0|tam-0|chunkId-NP|chunkType-child|stype-|voicetype-	6	pof__cn	_	_
5	abxula	abxula	NNPC	null	lex-abxula|cat-null|gen-m|num-sg|pers-3|case-d|vib-0|tam-0|chunkId-NP|chunkType-child|stype-|voicetype-	6	pof__cn	_	_
6	kalAma	kalAma	NNP	n	lex-kalAma|cat-n|gen-m|num-sg|pers-3|case-o|vib-0|tam-0|chunkId-NP|chunkType-head|stype-|voicetype-	7	ccof	_	_
7	Ora	Ora	CC	avy	lex-Ora|cat-avy|gen-|num-|pers-|case-|vib-|tam-|chunkId-CCP|chunkType-head|stype-|voicetype-	23	ras-k1	_	_
8	praXAnamaMwrI	praXAnamaMwrI	NNP	n	lex-praXAnamaMwrI|cat-n|gen-m|num-sg|pers-3|case-d|vib-0|tam-0|chunkId-NP2|chunkType-child|stype-|voicetype-	10	nmod__adj	_	_
9	manamohana	manamohana	NNPC	n	lex-manamohana|cat-n|gen-m|num-sg|pers-3|case-d|vib-0|tam-0|chunkId-NP2|chunkType-child|stype-|voicetype-	10	pof__cn	_	_
10	siMha	siMha	NNP	n	lex-siMha|cat-n|gen-m|num-sg|pers-3|case-o|vib-0_sahiwa|tam-0|chunkId-NP2|chunkType-head|stype-|voicetype-	7	ccof	_	_
11	sahiwa	sahiwa	PSP	psp	lex-sahiwa|cat-psp|gen-|num-|pers-|case-|vib-|tam-|chunkId-NP2|chunkType-child|stype-|voicetype-	10	lwg__psp	_	_
12	kaI	kaI	QF	avy	lex-kaI|cat-avy|gen-|num-|pers-|case-|vib-|tam-|chunkId-NP3|chunkType-child|stype-|voicetype-	16	nmod__adj	_	_
13	nAmI	nAmI	JJC	avy	lex-nAmI|cat-avy|gen-any|num-any|pers-|case-d|vib-|tam-|chunkId-NP3|chunkType-child|stype-|voicetype-	16	mod	_	_
14	-	-	SYM	punc	lex--|cat-punc|gen-|num-|pers-|case-|vib-|tam-|chunkId-NP3|chunkType-child|stype-|voicetype-	16	rsym	_	_
15	girAmI	girAmI	JJ	adj	lex-girAmI|cat-adj|gen-any|num-any|pers-|case-d|vib-|tam-|chunkId-NP3|chunkType-child|stype-|voicetype-	16	nmod__adj	_	_
16	haswiyAM	haswI	NN	n	lex-haswI|cat-n|gen-f|num-pl|pers-3|case-d|vib-0|tam-0|chunkId-NP3|chunkType-head|stype-|voicetype-	23	k1	_	_
17	pAMca	pAMca	QC	num	lex-pAMca|cat-num|gen-any|num-any|pers-|case-any|vib-|tam-|chunkId-NP4|chunkType-child|stype-|voicetype-	20	nmod__adj	_	_
18	xivasIya	xivasIya	JJ	adj	lex-xivasIya|cat-adj|gen-any|num-any|pers-|case-o|vib-|tam-|chunkId-NP4|chunkType-child|stype-|voicetype-	20	nmod__adj	_	_
19	vijFAna	vijFAna	NNC	adj	lex-vijFAna|cat-adj|gen-m|num-sg|pers-3|case-d|vib-0|tam-0|chunkId-NP4|chunkType-child|stype-|voicetype-	20	pof__cn	_	_
20	sammelana	sammelana	NN	n	lex-sammelana|cat-n|gen-m|num-sg|pers-3|case-o|vib-0_meM|tam-0|chunkId-NP4|chunkType-head|stype-|voicetype-	23	k7	_	_
21	meM	meM	PSP	psp	lex-meM|cat-psp|gen-|num-|pers-|case-|vib-|tam-|chunkId-NP4|chunkType-child|stype-|voicetype-	20	lwg__psp	_	_
22	Sirakawa	Sirakawa	NN	n	lex-Sirakawa|cat-n|gen-f|num-sg|pers-3|case-d|vib-0|tam-0|chunkId-NP5|chunkType-head|stype-|voicetype-	23	pof	_	_
23	kareMgI	kara	VM	v	lex-kara|cat-v|gen-f|num-pl|pers-3|case-|vib-gA|tam-gA|chunkId-VGF|chunkType-head|stype-declarative|voicetype-active	0	main	_	_
24	.	.	SYM	punc	lex-.|cat-punc|gen-|num-|pers-|case-|vib-|tam-|chunkId-BLK|chunkType-head|stype-|voicetype-	23	rsym	_	_

1	hExarAbAxa	hExarAbAxa	NNP	n	lex-hExarAbAxa|cat-n|gen-m|num-sg|pers-3|case-o|vib-0_ke|tam-0|chunkId-NP|chunkType-head|stype-|voicetype-	8	r6	_	_
2	ke	ke	PSP	psp	lex-ke|cat-psp|gen-m|num-sg|pers-|case-o|vib-|tam-|chunkId-NP|chunkType-child|stype-|voicetype-	1	lwg__psp	_	_
3	AcArya	AcArya	NNPC	n	lex-AcArya|cat-n|gen-m|num-sg|pers-3|case-d|vib-0|tam-0|chunkId-NP2|chunkType-child|stype-|voicetype-	8	pof__cn	_	_
4	ena.	ena.	NNPC	n	lex-ena.|cat-n|gen-m|num-sg|pers-3|case-d|vib-0|tam-0|chunkId-NP2|chunkType-child|stype-|voicetype-	8	pof__cn	_	_
5	jI.	jI.	NNPC	n	lex-jI.|cat-n|gen-m|num-sg|pers-3|case-d|vib-0|tam-0|chunkId-NP2|chunkType-child|stype-|voicetype-	8	pof__cn	_	_
6	raMgA	raMgA	NNPC	n	lex-raMgA|cat-n|gen-m|num-sg|pers-3|case-d|vib-0|tam-0|chunkId-NP2|chunkType-child|stype-|voicetype-	8	pof__cn	_	_
7	kqRi	kqRi	NNPC	n	lex-kqRi|cat-n|gen-f|num-sg|pers-3|case-d|vib-0|tam-0|chunkId-NP2|chunkType-child|stype-|voicetype-	8	pof__cn	_	_
8	viSvavixyAlaya	viSvavixyAlaya	NNP	n	lex-viSvavixyAlaya|cat-n|gen-m|num-sg|pers-3|case-o|vib-0_ke|tam-0|chunkId-NP2|chunkType-head|stype-|voicetype-	10	r6	_	_
9	ke	ke	PSP	psp	lex-ke|cat-psp|gen-m|num-sg|pers-|case-o|vib-|tam-|chunkId-NP2|chunkType-child|stype-|voicetype-	8	lwg__psp	_	_
10	parisara	parisara	NN	n	lex-parisara|cat-n|gen-m|num-sg|pers-3|case-o|vib-0_meM|tam-0|chunkId-NP3|chunkType-head|stype-|voicetype-	14	k7p	_	_
11	meM	meM	PSP	psp	lex-meM|cat-psp|gen-|num-|pers-|case-|vib-|tam-|chunkId-NP3|chunkType-child|stype-|voicetype-	10	lwg__psp	_	_
12	isakA	yaha	PRP	pn	lex-yaha|cat-pn|gen-m|num-sg|pers-3|case-o|vib-kA|tam-kA|chunkId-NP4|chunkType-head|stype-|voicetype-	13	r6	_	_
13	Ayojana	Ayojana	NN	n	lex-Ayojana|cat-n|gen-m|num-sg|pers-3|case-d|vib-0|tam-0|chunkId-NP5|chunkType-head|stype-|voicetype-	14	k1	_	_
14	kiyA	kara	VM	v	lex-kara|cat-v|gen-m|num-sg|pers-3|case-|vib-yA_jA+yA1_hE|tam-yA|chunkId-VGF|chunkType-head|stype-declarative|voicetype-passive	0	main	_	_
15	gayA	jA	VAUX	v	lex-jA|cat-v|gen-m|num-sg|pers-any|case-|vib-yA1|tam-yA1|chunkId-VGF|chunkType-child|stype-|voicetype-	14	lwg__vaux	_	_
16	hE	hE	VAUX	v	lex-hE|cat-v|gen-any|num-sg|pers-3|case-|vib-hE|tam-hE|chunkId-VGF|chunkType-child|stype-|voicetype-	14	lwg__vaux	_	_
17	.	.	SYM	punc	lex-.|cat-punc|gen-|num-|pers-|case-|vib-|tam-|chunkId-BLK|chunkType-head|stype-|voicetype-	14	rsym	_	_

1	isa	yaha	DEM	pn	lex-yaha|cat-pn|gen-any|num-sg|pers-3|case-d|vib-|tam-|chunkId-NP|chunkType-child|stype-|voicetype-	2	nmod__adj	_	_
2	bAra	bAra	NN	n	lex-bAra|cat-n|gen-f|num-sg|pers-3|case-d|vib-0|tam-0|chunkId-NP|chunkType-head|stype-|voicetype-	12	k7t	_	_
3	samekiwa	samekiwa	JJ	adj	lex-samekiwa|cat-adj|gen-any|num-any|pers-|case-o|vib-|tam-|chunkId-NP2|chunkType-child|stype-|voicetype-	5	nmod__adj	_	_
4	grAmINa	grAmINa	JJ	adj	lex-grAmINa|cat-adj|gen-any|num-any|pers-|case-o|vib-|tam-|chunkId-NP2|chunkType-child|stype-|voicetype-	5	nmod__adj	_	_
5	vikAsa	vikAsa	NN	n	lex-vikAsa|cat-n|gen-m|num-sg|pers-3|case-o|vib-0_ko|tam-0|chunkId-NP2|chunkType-head|stype-|voicetype-	12	k2	_	_
6	ko	ko	PSP	psp	lex-ko|cat-psp|gen-|num-|pers-|case-|vib-|tam-|chunkId-NP2|chunkType-child|stype-|voicetype-	5	lwg__psp	_	_
7	vijFAna	vijFAna	NNC	n	lex-vijFAna|cat-n|gen-m|num-sg|pers-3|case-d|vib-0|tam-0|chunkId-NP3|chunkType-child|stype-|voicetype-	8	pof__cn	_	_
8	kAMgresa	kAMgresa	NN	n	lex-kAMgresa|cat-n|gen-f|num-sg|pers-3|case-o|vib-0_kA|tam-0|chunkId-NP3|chunkType-head|stype-|voicetype-	10	r6	_	_
9	kA	kA	PSP	psp	lex-kA|cat-psp|gen-m|num-sg|pers-|case-d|vib-|tam-|chunkId-NP3|chunkType-child|stype-|voicetype-	8	lwg__psp	_	_
10	viRaya	viRaya	NN	n	lex-viRaya|cat-n|gen-m|num-sg|pers-3|case-d|vib-0|tam-0|chunkId-NP4|chunkType-head|stype-|voicetype-	12	k2s	_	_
11	waya	waya	JJ	adj	lex-waya|cat-adj|gen-any|num-any|pers-|case-|vib-|tam-|chunkId-JJP|chunkType-head|stype-|voicetype-	12	pof	_	_
12	kiyA	kara	VM	v	lex-kara|cat-v|gen-m|num-sg|pers-3|case-|vib-yA_jA+yA1_hE|tam-yA|chunkId-VGF|chunkType-head|stype-declarative|voicetype-passive	0	main	_	_
13	gayA	jA	VAUX	v	lex-jA|cat-v|gen-m|num-sg|pers-any|case-|vib-yA1|tam-yA1|chunkId-VGF|chunkType-child|stype-|voicetype-	12	lwg__vaux	_	_
14	hE	hE	VAUX	v	lex-hE|cat-v|gen-any|num-sg|pers-3|case-|vib-hE|tam-hE|chunkId-VGF|chunkType-child|stype-|voicetype-	12	lwg__vaux	_	_
15	.	.	SYM	punc	lex-.|cat-punc|gen-|num-|pers-|case-|vib-|tam-|chunkId-BLK|chunkType-head|stype-|voicetype-	12	rsym	_	_

1	praXAnamaMwrI	praXAnamaMwrI	NNP	n	lex-praXAnamaMwrI|cat-n|gen-m|num-sg|pers-3|case-d|vib-0|tam-0|chunkId-NP|chunkType-head|stype-|voicetype-	6	k1	_	_
2	maMgalavAra	maMgalavAra	NNP	n	lex-maMgalavAra|cat-n|gen-m|num-sg|pers-3|case-o|vib-0_ko|tam-0|chunkId-NP2|chunkType-head|stype-|voicetype-	6	k7t	_	_
3	ko	ko	PSP	psp	lex-ko|cat-psp|gen-|num-|pers-|case-|vib-|tam-|chunkId-NP2|chunkType-child|stype-|voicetype-	2	lwg__psp	_	_
4	isakA	yaha	PRP	pn	lex-yaha|cat-pn|gen-m|num-sg|pers-3|case-o|vib-kA|tam-kA|chunkId-NP3|chunkType-head|stype-|voicetype-	5	r6-k2	_	_
5	uxGAtana	uxGAtana	NN	n	lex-uxGAtana|cat-n|gen-m|num-sg|pers-3|case-d|vib-0|tam-0|chunkId-NP4|chunkType-head|stype-|voicetype-	6	pof	_	_
6	kareMge	kara	VM	v	lex-kara|cat-v|gen-m|num-sg|pers-3h|case-|vib-gA|tam-gA|chunkId-VGF|chunkType-head|stype-declarative|voicetype-active	0	main	_	_
7	.	.	SYM	punc	lex-.|cat-punc|gen-|num-|pers-|case-|vib-|tam-|chunkId-BLK|chunkType-head|stype-|voicetype-	6	rsym	_	_

1	jAne	jAnA	JJC	adj	lex-jAnA|cat-adj|gen-m|num-sg|pers-3h|case-d|vib-|tam-|chunkId-NP|chunkType-child|stype-|voicetype-	4	mod	_	_
2	-	-	SYM	punc	lex--|cat-punc|gen-|num-|pers-|case-|vib-|tam-|chunkId-NP|chunkType-child|stype-|voicetype-	4	rsym	_	_
3	mAne	mAnA	JJ	adj	lex-mAnA|cat-adj|gen-m|num-sg|pers-3h|case-d|vib-|tam-|chunkId-NP|chunkType-child|stype-|voicetype-	4	nmod__adj	_	_
4	arWaSAswrI	arWaSAswrI	NN	n	lex-arWaSAswrI|cat-n|gen-m|num-sg|pers-3|case-d|vib-0|tam-0|chunkId-NP|chunkType-head|stype-|voicetype-	5	ccof	_	_
5	evaM	evaM	CC	avy	lex-evaM|cat-avy|gen-|num-|pers-|case-|vib-|tam-|chunkId-CCP|chunkType-head|stype-|voicetype-	10	nmod	_	_
6	nobala	nobala	NNPC	n	lex-nobala|cat-n|gen-m|num-sg|pers-3|case-d|vib-0|tam-0|chunkId-NP2|chunkType-child|stype-|voicetype-	7	pof__cn	_	_
7	puraskAra	puraskAra	NNP	n	lex-puraskAra|cat-n|gen-m|num-sg|pers-3|case-d|vib-0|tam-0|chunkId-NP2|chunkType-child|stype-|voicetype-	8	nmod__adj	_	_
8	vijewA	vijewA	NN	n	lex-vijewA|cat-n|gen-m|num-sg|pers-3|case-d|vib-0|tam-0|chunkId-NP2|chunkType-head|stype-|voicetype-	5	ccof	_	_
9	amarwya	amarwya	NNPC	n	lex-amarwya|cat-n|gen-m|num-sg|pers-3|case-d|vib-0|tam-0|chunkId-NP3|chunkType-child|stype-|voicetype-	10	pof__cn	_	_
10	sena	sena	NNP	n	lex-sena|cat-n|gen-any|num-sg|pers-3|case-d|vib-0|tam-0|chunkId-NP3|chunkType-head|stype-|voicetype-	17	k1	_	_
11	sammelana	sammelana	NN	n	lex-sammelana|cat-n|gen-m|num-sg|pers-3|case-o|vib-0_ke|tam-0|chunkId-NP4|chunkType-head|stype-|voicetype-	14	r6	_	_
12	ke	ke	PSP	psp	lex-ke|cat-psp|gen-m|num-sg|pers-|case-o|vib-|tam-|chunkId-NP4|chunkType-child|stype-|voicetype-	11	lwg__psp	_	_
13	uxGAtana	uxGAtana	NNC	n	lex-uxGAtana|cat-n|gen-m|num-sg|pers-3|case-d|vib-0|tam-0|chunkId-NP5|chunkType-child|stype-|voicetype-	14	pof__cn	_	_
14	sawra	sawra	NN	n	lex-sawra|cat-n|gen-m|num-sg|pers-3|case-o|vib-0_ko|tam-0|chunkId-NP5|chunkType-head|stype-|voicetype-	17	k2	_	_
15	ko	ko	PSP	psp	lex-ko|cat-psp|gen-|num-|pers-|case-|vib-|tam-|chunkId-NP5|chunkType-child|stype-|voicetype-	14	lwg__psp	_	_
16	saMboXiwa	saMboXiwa	JJ	adj	lex-saMboXiwa|cat-adj|gen-any|num-any|pers-|case-|vib-|tam-|chunkId-JJP|chunkType-head|stype-|voicetype-	17	pof	_	_
17	kareMge	kara	VM	v	lex-kara|cat-v|gen-m|num-sg|pers-3h|case-|vib-gA|tam-gA|chunkId-VGF|chunkType-head|stype-declarative|voicetype-active	0	main	_	_
18	.	.	SYM	punc	lex-.|cat-punc|gen-|num-|pers-|case-|vib-|tam-|chunkId-BLK|chunkType-head|stype-|voicetype-	17	rsym	_	_

1	AyojakoM	Ayojaka	NN	n	lex-Ayojaka|cat-n|gen-m|num-pl|pers-3|case-o|vib-0_ke_muwAbika|tam-0|chunkId-NP|chunkType-head|stype-|voicetype-	17	k7	_	_
2	ke	ke	PSP	psp	lex-ke|cat-psp|gen-|num-|pers-|case-|vib-|tam-|chunkId-NP|chunkType-child|stype-|voicetype-	1	lwg__psp	_	_
3	muwAbikZa	muwAbika	PSP	psp	lex-muwAbika|cat-psp|gen-|num-|pers-|case-|vib-|tam-|chunkId-NP|chunkType-child|stype-|voicetype-	1	lwg__psp	_	_
4	6	6	QC	num	lex-6|cat-num|gen-any|num-any|pers-|case-any|vib-|tam-|chunkId-NP2|chunkType-child|stype-|voicetype-	8	nmod__adj	_	_
5	viSva	viSva	NNPC	num	lex-viSva|cat-num|gen-m|num-sg|pers-3|case-d|vib-0|tam-0|chunkId-NP2|chunkType-child|stype-|voicetype-	7	pof__cn	_	_
6	KAxya	KAxya	NNPC	null	lex-KAxya|cat-null|gen-m|num-sg|pers-3|case-d|vib-0|tam-0|chunkId-NP2|chunkType-child|stype-|voicetype-	7	pof__cn	_	_
7	puraskAra	puraskAra	NNP	n	lex-puraskAra|cat-n|gen-m|num-sg|pers-3|case-d|vib-0|tam-0|chunkId-NP2|chunkType-child|stype-|voicetype-	8	nmod__adj	_	_
8	vijewA	vijewA	NN	n	lex-vijewA|cat-n|gen-m|num-pl|pers-3|case-d|vib-0|tam-0|chunkId-NP2|chunkType-head|stype-|voicetype-	9	ccof	_	_
9	va	va	CC	avy	lex-va|cat-avy|gen-|num-|pers-|case-|vib-|tam-|chunkId-CCP|chunkType-head|stype-|voicetype-	17	k1	_	_
10	cAra	cAra	QC	num	lex-cAra|cat-num|gen-any|num-any|pers-|case-any|vib-|tam-|chunkId-NP3|chunkType-child|stype-|voicetype-	13	nmod__adj	_	_
11	nobala	nobala	NNPC	num	lex-nobala|cat-num|gen-m|num-sg|pers-3|case-d|vib-0|tam-0|chunkId-NP3|chunkType-child|stype-|voicetype-	12	pof__cn	_	_
12	puraskAra	puraskAra	NNP	n	lex-puraskAra|cat-n|gen-m|num-sg|pers-3|case-d|vib-0|tam-0|chunkId-NP3|chunkType-child|stype-|voicetype-	13	nmod__adj	_	_
13	vijewA	vijewA	NN	n	lex-vijewA|cat-n|gen-m|num-pl|pers-3|case-d|vib-0|tam-0|chunkId-NP3|chunkType-head|stype-|voicetype-	9	ccof	_	_
14	sammelana	sammelana	NN	n	lex-sammelana|cat-n|gen-m|num-sg|pers-3|case-o|vib-0_meM|tam-0|chunkId-NP4|chunkType-head|stype-|voicetype-	17	k7	_	_
15	meM	meM	PSP	psp	lex-meM|cat-psp|gen-|num-|pers-|case-|vib-|tam-|chunkId-NP4|chunkType-child|stype-|voicetype-	14	lwg__psp	_	_
16	hissA	hissA	NN	n	lex-hissA|cat-n|gen-m|num-sg|pers-3|case-d|vib-0|tam-0|chunkId-NP5|chunkType-head|stype-|voicetype-	17	pof	_	_
17	leMge	le	VM	v	lex-le|cat-v|gen-m|num-pl|pers-3|case-|vib-gA|tam-gA|chunkId-VGF|chunkType-head|stype-declarative|voicetype-active	0	main	_	_
18	.	.	SYM	punc	lex-.|cat-punc|gen-|num-|pers-|case-|vib-|tam-|chunkId-BLK|chunkType-head|stype-|voicetype-	17	rsym	_	_

1	isake	yaha	PRP	pn	lex-yaha|cat-pn|gen-any|num-sg|pers-3|case-o|vib-0_alAvA|tam-ke|chunkId-NP|chunkType-head|stype-|voicetype-	13	vmod	_	_
2	alAvA	alAvA	PSP	psp	lex-alAvA|cat-psp|gen-|num-|pers-|case-|vib-|tam-|chunkId-NP|chunkType-child|stype-|voicetype-	1	lwg__psp	_	_
3	25	25	QC	num	lex-25|cat-num|gen-any|num-any|pers-|case-any|vib-|tam-|chunkId-NP2|chunkType-child|stype-|voicetype-	4	nmod__adj	_	_
4	xeSoM	xeSa	NN	n	lex-xeSa|cat-n|gen-m|num-pl|pers-3|case-o|vib-0_ke|tam-0|chunkId-NP2|chunkType-head|stype-|voicetype-	10	r6	_	_
5	ke	ke	PSP	psp	lex-ke|cat-psp|gen-m|num-pl|pers-|case-o|vib-|tam-|chunkId-NP2|chunkType-child|stype-|voicetype-	4	lwg__psp	_	_
6	85	85	QC	num	lex-85|cat-num|gen-any|num-any|pers-|case-any|vib-|tam-|chunkId-NP3|chunkType-child|stype-|voicetype-	10	nmod__adj	_	_
7	jAne	jAnA	JJC	adj	lex-jAnA|cat-adj|gen-m|num-pl|pers-|case-d|vib-|tam-|chunkId-NP3|chunkType-child|stype-|voicetype-	10	mod	_	_
8	-	-	SYM	punc	lex--|cat-punc|gen-|num-|pers-|case-|vib-|tam-|chunkId-NP3|chunkType-child|stype-|voicetype-	10	rsym	_	_
9	mAne	mAnA	JJ	adj	lex-mAnA|cat-adj|gen-m|num-pl|pers-|case-d|vib-|tam-|chunkId-NP3|chunkType-child|stype-|voicetype-	10	nmod__adj	_	_
10	vEjFAnika	vEjFAnika	NN	n	lex-vEjFAnika|cat-n|gen-m|num-pl|pers-3|case-d|vib-0|tam-0|chunkId-NP3|chunkType-head|stype-|voicetype-	13	k1	_	_
11	isameM	yaha	PRP	pn	lex-yaha|cat-pn|gen-any|num-sg|pers-3|case-o|vib-meM|tam-meM|chunkId-NP4|chunkType-head|stype-|voicetype-	13	k7	_	_
12	hissA	hissA	NN	n	lex-hissA|cat-n|gen-m|num-sg|pers-3|case-d|vib-0|tam-0|chunkId-NP5|chunkType-head|stype-|voicetype-	13	pof	_	_
13	leMge	le	VM	v	lex-le|cat-v|gen-m|num-pl|pers-3|case-|vib-gA|tam-gA|chunkId-VGF|chunkType-head|stype-declarative|voicetype-active	0	main	_	_
14	.	.	SYM	punc	lex-.|cat-punc|gen-|num-|pers-|case-|vib-|tam-|chunkId-BLK|chunkType-head|stype-|voicetype-	13	rsym	_	_

1	sammelana	sammelana	NN	n	lex-sammelana|cat-n|gen-m|num-sg|pers-3|case-o|vib-0_meM|tam-0|chunkId-NP|chunkType-head|stype-|voicetype-	16	k7	_	_
2	meM	meM	PSP	psp	lex-meM|cat-psp|gen-|num-|pers-|case-|vib-|tam-|chunkId-NP|chunkType-child|stype-|voicetype-	1	lwg__psp	_	_
3	viBinna	viBinna	JJ	adj	lex-viBinna|cat-adj|gen-any|num-any|pers-|case-o|vib-|tam-|chunkId-NP2|chunkType-child|stype-|voicetype-	4	nmod__adj	_	_
4	sWAnoM	sWAna	NN	n	lex-sWAna|cat-n|gen-m|num-pl|pers-3|case-o|vib-0_se|tam-0|chunkId-NP2|chunkType-head|stype-|voicetype-	6	k5	_	_
5	se	se	PSP	psp	lex-se|cat-psp|gen-|num-|pers-|case-|vib-|tam-|chunkId-NP2|chunkType-child|stype-|voicetype-	4	lwg__psp	_	_
6	Ae	A	VM	v	lex-A|cat-v|gen-m|num-pl|pers-3|case-|vib-yA|tam-yA|chunkId-VGNF|chunkType-head|stype-|voicetype-	10	nmod__k1inv	_	_
7	lagaBaga	lagaBaga	RP	avy	lex-lagaBaga|cat-avy|gen-|num-|pers-|case-|vib-|tam-|chunkId-NP3|chunkType-child|stype-|voicetype-	10	lwg__rp	_	_
8	5	5	QCC	num	lex-5|cat-num|gen-any|num-any|pers-|case-any|vib-|tam-|chunkId-NP3|chunkType-child|stype-|voicetype-	10	mod	_	_
9	hajAra	hajAra	QC	num	lex-hajAra|cat-num|gen-any|num-any|pers-|case-any|vib-|tam-|chunkId-NP3|chunkType-child|stype-|voicetype-	10	nmod__adj	_	_
10	prawiniXiyoM	prawiniXi	NN	n	lex-prawiniXi|cat-n|gen-m|num-pl|pers-3|case-o|vib-0_kA|tam-0|chunkId-NP3|chunkType-head|stype-|voicetype-	13	k1	_	_
11	ke	kA	PSP	psp	lex-kA|cat-psp|gen-|num-|pers-|case-o|vib-|tam-|chunkId-NP3|chunkType-child|stype-|voicetype-	10	lwg__psp	_	_
12	BAga	BAga	NN	n	lex-BAga|cat-n|gen-m|num-sg|pers-3|case-d|vib-0|tam-0|chunkId-NP4|chunkType-head|stype-|voicetype-	13	pof	_	_
13	lene	le	VM	v	lex-le|cat-v|gen-any|num-sg|pers-any|case-o|vib-nA_kA|tam-nA|chunkId-VGNN|chunkType-head|stype-|voicetype-	15	r6	_	_
14	kI	kA	PSP	psp	lex-kA|cat-psp|gen-f|num-sg|pers-|case-d|vib-|tam-|chunkId-VGNN|chunkType-child|stype-|voicetype-	13	lwg__psp	_	_
15	saMBAvanA	saMBAvanA	NN	n	lex-saMBAvanA|cat-n|gen-f|num-sg|pers-3|case-d|vib-0|tam-0|chunkId-NP5|chunkType-head|stype-|voicetype-	16	k1	_	_
16	hE	hE	VM	v	lex-hE|cat-v|gen-any|num-sg|pers-3|case-|vib-hE|tam-hE|chunkId-VGF|chunkType-head|stype-declarative|voicetype-active	0	main	_	_
17	.	.	SYM	punc	lex-.|cat-punc|gen-|num-|pers-|case-|vib-|tam-|chunkId-BLK|chunkType-head|stype-|voicetype-	16	rsym	_	_

