1	noedA	noedA	NNP	n	lex-noedA|cat-n|gen-m|num-sg|pers-3|case-o|vib-0_se|tam-0|chunkId-NP|chunkType-head|stype-|voicetype-	8	k5	_	_
2	se	se	PSP	psp	lex-se|cat-psp|gen-|num-|pers-|case-|vib-|tam-|chunkId-NP|chunkType-child|stype-|voicetype-	1	lwg__psp	_	_
3	apane	apanA	PRP	pn	lex-apanA|cat-pn|gen-m|num-any|pers-any|case-o|vib-0|tam-0|chunkId-NP2|chunkType-head|stype-|voicetype-	4	r6	_	_
4	mOYdaliMga	mOYdaliMga	NN	n	lex-mOYdaliMga|cat-n|gen-f|num-sg|pers-3|case-o|vib-0_kA|tam-0|chunkId-NP3|chunkType-head|stype-|voicetype-	6	r6	_	_
5	kA	kA	PSP	psp	lex-kA|cat-psp|gen-m|num-sg|pers-|case-d|vib-|tam-|chunkId-NP3|chunkType-child|stype-|voicetype-	4	lwg__psp	_	_
6	saPara	saPara	NN	n	lex-saPara|cat-n|gen-m|num-sg|pers-3|case-d|vib-0|tam-0|chunkId-NP4|chunkType-head|stype-|voicetype-	8	k2	_	_
7	SurU	SurU	NN	n	lex-SurU|cat-n|gen-m|num-sg|pers-3|case-d|vib-0|tam-0|chunkId-NP5|chunkType-head|stype-|voicetype-	8	pof	_	_
8	karane	kara	VM	v	lex-kara|cat-v|gen-any|num-sg|pers-any|case-o|vib-nA_vAlA|tam-nA|chunkId-VGNN|chunkType-head|stype-|voicetype-	11	nmod	_	_
9	vAlI	vAlA	PSP	psp	lex-vAlA|cat-psp|gen-f|num-sg|pers-|case-o|vib-|tam-|chunkId-VGNN|chunkType-child|stype-|voicetype-	8	lwg__psp	_	_
10	sonala	sonala	NNPC	n	lex-sonala|cat-n|gen-f|num-sg|pers-3|case-d|vib-0|tam-0|chunkId-NP6|chunkType-child|stype-|voicetype-	11	pof__cn	_	_
11	cOhAna	cOhAna	NNP	n	lex-cOhAna|cat-n|gen-any|num-sg|pers-3|case-o|vib-0_ne|tam-0|chunkId-NP6|chunkType-head|stype-|voicetype-	28	k1	_	_
12	ne	ne	PSP	psp	lex-ne|cat-psp|gen-|num-|pers-|case-|vib-|tam-|chunkId-NP6|chunkType-child|stype-|voicetype-	11	lwg__psp	_	_
13	SanivAra	SanivAra	NNP	n	lex-SanivAra|cat-n|gen-m|num-sg|pers-3|case-o|vib-0_ko|tam-0|chunkId-NP7|chunkType-head|stype-|voicetype-	28	k7t	_	_
14	ko	ko	PSP	psp	lex-ko|cat-psp|gen-|num-|pers-|case-|vib-|tam-|chunkId-NP7|chunkType-child|stype-|voicetype-	13	lwg__psp	_	_
15	33	33	QC	num	lex-33|cat-num|gen-any|num-any|pers-|case-any|vib-|tam-|chunkId-NP8|chunkType-child|stype-|voicetype-	16	nmod__adj	_	_
16	xeSoM	xeSa	NN	n	lex-xeSa|cat-n|gen-m|num-pl|pers-3|case-o|vib-0_kA|tam-0|chunkId-NP8|chunkType-head|stype-|voicetype-	18	r6	_	_
17	kI	kA	PSP	psp	lex-kA|cat-psp|gen-f|num-sg|pers-|case-o|vib-|tam-|chunkId-NP8|chunkType-child|stype-|voicetype-	16	lwg__psp	_	_
18	bAlAoM	bAlA	NN	n	lex-bAlA|cat-n|gen-f|num-pl|pers-3|case-o|vib-0_ko|tam-0|chunkId-NP9|chunkType-head|stype-|voicetype-	20	k2	_	_
19	ko	ko	PSP	psp	lex-ko|cat-psp|gen-|num-|pers-|case-|vib-|tam-|chunkId-NP9|chunkType-child|stype-|voicetype-	18	lwg__psp	_	_
20	paCAdZawe	paCAda	VM	v	lex-paCAda|cat-v|gen-m|num-sg|pers-any|case-|vib-wA_ho+yA|tam-wA|chunkId-VGNF|chunkType-head|stype-|voicetype-	28	vmod	_	_
21	hue	ho	VAUX	v	lex-ho|cat-v|gen-m|num-sg|pers-any|case-|vib-yA|tam-yA|chunkId-VGNF|chunkType-child|stype-|voicetype-	20	lwg__vaux	_	_
22	misa	misa	NNPC	n	lex-misa|cat-n|gen-f|num-sg|pers-3|case-d|vib-0|tam-0|chunkId-NP10|chunkType-child|stype-|voicetype-	24	pof__cn	_	_
23	tUrijma	tUrijma	NNPC	n	lex-tUrijma|cat-n|gen-m|num-sg|pers-3|case-d|vib-0|tam-0|chunkId-NP10|chunkType-child|stype-|voicetype-	24	pof__cn	_	_
24	iMtarakAntineMtala	iMtarakAntineMtala	NNP	n	lex-iMtarakAntineMtala|cat-n|gen-any|num-any|pers-|case-o|vib-0_kA|tam-|chunkId-NP10|chunkType-head|stype-|voicetype-	26	r6	_	_
25	kA	kA	PSP	psp	lex-kA|cat-psp|gen-m|num-sg|pers-|case-d|vib-|tam-|chunkId-NP10|chunkType-child|stype-|voicetype-	24	lwg__psp	_	_
26	KiwAba	KiwAba	NN	n	lex-KiwAba|cat-n|gen-m|num-sg|pers-3|case-d|vib-0|tam-0|chunkId-NP11|chunkType-head|stype-|voicetype-	28	k2	_	_
27	hAsila	hAsila	JJ	adj	lex-hAsila|cat-adj|gen-any|num-any|pers-|case-|vib-|tam-|chunkId-JJP|chunkType-head|stype-|voicetype-	28	pof	_	_
28	kiyA	kara	VM	v	lex-kara|cat-v|gen-m|num-sg|pers-any|case-|vib-yA|tam-yA|chunkId-VGF|chunkType-head|stype-declarative|voicetype-active	0	main	_	_
29	.	.	SYM	punc	lex-.|cat-punc|gen-|num-|pers-|case-|vib-|tam-|chunkId-BLK|chunkType-head|stype-|voicetype-	28	rsym	_	_

1	yaha	yaha	DEM	pn	lex-yaha|cat-pn|gen-any|num-sg|pers-3|case-d|vib-|tam-|chunkId-NP|chunkType-child|stype-|voicetype-	2	nmod__adj	_	_
2	KiwAba	KiwAba	NN	n	lex-KiwAba|cat-n|gen-m|num-sg|pers-3|case-d|vib-0|tam-0|chunkId-NP|chunkType-head|stype-|voicetype-	3	k2	_	_
3	pAne	pA	VM	v	lex-pA|cat-v|gen-any|num-sg|pers-any|case-o|vib-nA_vAlA|tam-nA|chunkId-VGNN|chunkType-head|stype-|voicetype-	5	nmod	_	_
4	vAlI	vAlA	PSP	psp	lex-vAlA|cat-psp|gen-f|num-sg|pers-|case-d|vib-|tam-|chunkId-VGNN|chunkType-child|stype-|voicetype-	3	lwg__psp	_	_
5	sonala	sonala	NNP	n	lex-sonala|cat-n|gen-f|num-sg|pers-3|case-d|vib-0|tam-0|chunkId-NP2|chunkType-head|stype-|voicetype-	10	k1	_	_
6	xeSa	xeSa	NN	n	lex-xeSa|cat-n|gen-m|num-sg|pers-3|case-o|vib-0_kA|tam-0|chunkId-NP3|chunkType-head|stype-|voicetype-	9	r6	_	_
7	kI	kA	PSP	psp	lex-kA|cat-psp|gen-f|num-sg|pers-|case-d|vib-|tam-|chunkId-NP3|chunkType-child|stype-|voicetype-	6	lwg__psp	_	_
8	pahalI	pahalA	QO	num	lex-pahalA|cat-num|gen-f|num-sg|pers-|case-d|vib-|tam-|chunkId-NP4|chunkType-child|stype-|voicetype-	9	nmod__adj	_	_
9	ladZakI	ladakI	NN	n	lex-ladakI|cat-n|gen-f|num-sg|pers-3|case-d|vib-0|tam-0|chunkId-NP4|chunkType-head|stype-|voicetype-	10	k1s	_	_
10	hE	hE	VM	v	lex-hE|cat-v|gen-any|num-sg|pers-3|case-|vib-hE|tam-hE|chunkId-VGF|chunkType-head|stype-declarative|voicetype-active	0	main	_	_
11	.	.	SYM	punc	lex-.|cat-punc|gen-|num-|pers-|case-|vib-|tam-|chunkId-BLK|chunkType-head|stype-|voicetype-	10	rsym	_	_

1	yaha	yaha	DEM	pn	lex-yaha|cat-pn|gen-any|num-sg|pers-3|case-d|vib-|tam-|chunkId-NP|chunkType-child|stype-|voicetype-	2	nmod__adj	_	_
2	prawiyogiwA	prawiyogiwA	NN	n	lex-prawiyogiwA|cat-n|gen-f|num-sg|pers-3|case-d|vib-0|tam-0|chunkId-NP|chunkType-head|stype-|voicetype-	5	k1	_	_
3	maleSiyA	malayeSiyA	NNP	n	lex-malayeSiyA|cat-n|gen-m|num-sg|pers-3|case-o|vib-0_meM|tam-0|chunkId-NP2|chunkType-head|stype-|voicetype-	5	k7p	_	_
4	meM	meM	PSP	psp	lex-meM|cat-psp|gen-|num-|pers-|case-|vib-|tam-|chunkId-NP2|chunkType-child|stype-|voicetype-	3	lwg__psp	_	_
5	huI	ho	VM	v	lex-ho|cat-v|gen-f|num-sg|pers-any|case-|vib-yA|tam-yA|chunkId-VGF|chunkType-head|stype-declarative|voicetype-active	0	main	_	_
6	.	.	SYM	punc	lex-.|cat-punc|gen-|num-|pers-|case-|vib-|tam-|chunkId-BLK|chunkType-head|stype-|voicetype-	5	rsym	_	_

1	maleSiyA	maleSiyA	NNP	n	lex-maleSiyA|cat-n|gen-m|num-sg|pers-3|case-o|vib-0_se|tam-0|chunkId-NP|chunkType-head|stype-|voicetype-	13	k7p	_	_
2	se	se	PSP	psp	lex-se|cat-psp|gen-|num-|pers-|case-|vib-|tam-|chunkId-NP|chunkType-child|stype-|voicetype-	1	lwg__psp	_	_
3	Pona	Pona	NN	n	lex-Pona|cat-n|gen-m|num-sg|pers-3|case-o|vib-0_para|tam-0|chunkId-NP2|chunkType-head|stype-|voicetype-	13	k7p	_	_
4	para	para	PSP	psp	lex-para|cat-psp|gen-|num-|pers-|case-|vib-|tam-|chunkId-NP2|chunkType-child|stype-|voicetype-	3	lwg__psp	_	_
5	sonala	sonala	NNP	n	lex-sonala|cat-n|gen-f|num-sg|pers-3|case-o|vib-0_ne|tam-0|chunkId-NP3|chunkType-head|stype-|voicetype-	13	k1	_	_
6	ne	ne	PSP	psp	lex-ne|cat-psp|gen-|num-|pers-|case-|vib-|tam-|chunkId-NP3|chunkType-child|stype-|voicetype-	5	lwg__psp	_	_
7	amara	amara	NNPC	n	lex-amara|cat-n|gen-any|num-any|pers-|case-o|vib-|tam-|chunkId-NP4|chunkType-child|stype-|voicetype-	8	pof__cn	_	_
8	ujAlA	ujAlA	NNP	n	lex-ujAlA|cat-n|gen-m|num-sg|pers-3|case-o|vib-0_se|tam-0|chunkId-NP4|chunkType-head|stype-|voicetype-	13	k4	_	_
9	se	se	PSP	psp	lex-se|cat-psp|gen-|num-|pers-|case-|vib-|tam-|chunkId-NP4|chunkType-child|stype-|voicetype-	8	lwg__psp	_	_
10	KAsa	KAsa	JJ	adj	lex-KAsa|cat-adj|gen-any|num-any|pers-|case-o|vib-|tam-|chunkId-NP5|chunkType-child|stype-|voicetype-	11	nmod__adj	_	_
11	bAwacIwa	bAwacIwa	NN	n	lex-bAwacIwa|cat-n|gen-f|num-sg|pers-3|case-o|vib-0_meM|tam-0|chunkId-NP5|chunkType-head|stype-|voicetype-	13	k7	_	_
12	meM	meM	PSP	psp	lex-meM|cat-psp|gen-|num-|pers-|case-|vib-|tam-|chunkId-NP5|chunkType-child|stype-|voicetype-	11	lwg__psp	_	_
13	kahA	kaha	VM	v	lex-kaha|cat-v|gen-m|num-sg|pers-any|case-|vib-yA|tam-yA|chunkId-VGF|chunkType-head|stype-declarative|voicetype-active	0	main	_	_
14	ki	ki	CC	avy	lex-ki|cat-avy|gen-|num-|pers-|case-|vib-|tam-|chunkId-CCP|chunkType-head|stype-|voicetype-	13	k2	_	_
15	noedAvAsiyoM	noedAvAsI	NN	n	lex-noedAvAsI|cat-n|gen-m|num-pl|pers-3|case-o|vib-0_kA|tam-0|chunkId-NP6|chunkType-head|stype-|voicetype-	17	r6	_	_
16	ke	kA	PSP	psp	lex-kA|cat-psp|gen-m|num-sg|pers-|case-o|vib-|tam-|chunkId-NP6|chunkType-child|stype-|voicetype-	15	lwg__psp	_	_
17	pyAra	pyAra	NN	n	lex-pyAra|cat-n|gen-m|num-sg|pers-3|case-o|vib-0_ke_kAraNa|tam-0|chunkId-NP7|chunkType-head|stype-|voicetype-	24	rh	_	_
18	ke	ke	PSP	psp	lex-ke|cat-psp|gen-m|num-|pers-|case-o|vib-|tam-|chunkId-NP7|chunkType-child|stype-|voicetype-	17	lwg__psp	_	_
19	kAraNa	kAraNa	PSP	psp	lex-kAraNa|cat-psp|gen-m|num-|pers-|case-o|vib-|tam-|chunkId-NP7|chunkType-child|stype-|voicetype-	17	lwg__psp	_	_
20	hI	hI	RP	avy	lex-hI|cat-avy|gen-|num-|pers-|case-|vib-|tam-|chunkId-NP7|chunkType-child|stype-|voicetype-	17	lwg__rp	_	_
21	mEM	mEM	PRP	pn	lex-mEM|cat-pn|gen-any|num-sg|pers-1|case-d|vib-0|tam-0|chunkId-NP8|chunkType-head|stype-|voicetype-	24	k1	_	_
22	yahAM	yahAz	PRP	pn	lex-yahAz|cat-pn|gen-|num-|pers-|case-o|vib-0_waka|tam-|chunkId-NP9|chunkType-head|stype-|voicetype-	24	k2p	_	_
23	waka	waka	PSP	psp	lex-waka|cat-psp|gen-|num-|pers-|case-|vib-|tam-|chunkId-NP9|chunkType-child|stype-|voicetype-	22	lwg__psp	_	_
24	pahuMcI	pahuMca	VM	v	lex-pahuMca|cat-v|gen-f|num-sg|pers-1|case-|vib-yA_hE+Uz|tam-yA|chunkId-VGF2|chunkType-head|stype-declarative|voicetype-active	14	ccof	_	_
25	hUM	hE	VAUX	v	lex-hE|cat-v|gen-any|num-sg|pers-1|case-|vib-Uz|tam-UZ|chunkId-VGF2|chunkType-child|stype-|voicetype-	24	lwg__vaux	_	_
26	.	.	SYM	punc	lex-.|cat-punc|gen-|num-|pers-|case-|vib-|tam-|chunkId-BLK|chunkType-head|stype-|voicetype-	13	rsym	_	_

1	maleSiyA	maleSiyA	NNP	n	lex-maleSiyA|cat-n|gen-m|num-sg|pers-3|case-o|vib-0_kA|tam-0|chunkId-NP|chunkType-head|stype-|voicetype-	4	r6	_	_
2	ke	kA	PSP	psp	lex-kA|cat-psp|gen-m|num-sg|pers-|case-o|vib-|tam-|chunkId-NP|chunkType-child|stype-|voicetype-	1	lwg__psp	_	_
3	kuciMga	kuciMga	NNP	n	lex-kuciMga|cat-n|gen-m|num-sg|pers-3|case-d|vib-0|tam-0|chunkId-NP2|chunkType-child|stype-|voicetype-	4	nmod__adj	_	_
4	Sahara	Sahara	NN	n	lex-Sahara|cat-n|gen-m|num-sg|pers-3|case-o|vib-0_meM|tam-0|chunkId-NP2|chunkType-head|stype-|voicetype-	14	k7p	_	_
5	meM	meM	PSP	psp	lex-meM|cat-psp|gen-|num-|pers-|case-|vib-|tam-|chunkId-NP2|chunkType-child|stype-|voicetype-	4	lwg__psp	_	_
6	nO	nO	NNP	n	lex-nO|cat-n|gen-any|num-sg|pers-3|case-o|vib-0_se|tam-0|chunkId-NP3|chunkType-head|stype-|voicetype-	9	rsp	_	_
7	se	se	PSP	psp	lex-se|cat-psp|gen-|num-|pers-|case-|vib-|tam-|chunkId-NP3|chunkType-child|stype-|voicetype-	6	lwg__psp	_	_
8	23	23	NNPC	n	lex-23|cat-n|gen-any|num-sg|pers-3|case-d|vib-0|tam-0|chunkId-NP4|chunkType-child|stype-|voicetype-	9	pof__cn	_	_
9	julAI	julAI	NNP	n	lex-julAI|cat-n|gen-f|num-sg|pers-3|case-o|vib-0_waka|tam-0|chunkId-NP4|chunkType-head|stype-|voicetype-	14	k7	_	_
10	waka	waka	PSP	psp	lex-waka|cat-psp|gen-|num-|pers-|case-|vib-|tam-|chunkId-NP4|chunkType-child|stype-|voicetype-	9	lwg__psp	_	_
11	yaha	yaha	DEM	pn	lex-yaha|cat-pn|gen-any|num-sg|pers-3|case-d|vib-|tam-|chunkId-NP5|chunkType-child|stype-|voicetype-	12	nmod__adj	_	_
12	prawiyogiwA	prawiyogiwA	NN	n	lex-prawiyogiwA|cat-n|gen-f|num-sg|pers-3|case-d|vib-0|tam-0|chunkId-NP5|chunkType-head|stype-|voicetype-	14	k2	_	_
13	Ayojiwa	Ayojiwa	JJ	adj	lex-Ayojiwa|cat-adj|gen-any|num-any|pers-|case-|vib-|tam-|chunkId-JJP|chunkType-head|stype-|voicetype-	14	pof	_	_
14	kI	kara	VM	v	lex-kara|cat-v|gen-f|num-sg|pers-any|case-|vib-yA_jA+yA1|tam-yA|chunkId-VGF|chunkType-head|stype-declarative|voicetype-passive	0	main	_	_
15	gaI	jA	VAUX	v	lex-jA|cat-v|gen-f|num-sg|pers-any|case-|vib-yA1|tam-yA1|chunkId-VGF|chunkType-child|stype-|voicetype-	14	lwg__vaux	_	_
16	.	.	SYM	punc	lex-.|cat-punc|gen-|num-|pers-|case-|vib-|tam-|chunkId-BLK|chunkType-head|stype-|voicetype-	14	rsym	_	_

1	prawiyogiwA	prawiyogiwA	NN	n	lex-prawiyogiwA|cat-n|gen-f|num-sg|pers-3|case-o|vib-0_ke_bAxa|tam-0|chunkId-NP|chunkType-head|stype-|voicetype-	6	k7t	_	_
2	ke	ke	PSP	psp	lex-ke|cat-psp|gen-|num-|pers-|case-|vib-|tam-|chunkId-NP|chunkType-child|stype-|voicetype-	1	lwg__psp	_	_
3	bAxa	bAxa	NST	nst	lex-bAxa|cat-nst|gen-m|num-sg|pers-3|case-d|vib-|tam-|chunkId-NP|chunkType-child|stype-|voicetype-	1	lwg__psp	_	_
4	sonala	sonala	NNP	n	lex-sonala|cat-n|gen-f|num-sg|pers-3|case-o|vib-0_ne|tam-0|chunkId-NP2|chunkType-head|stype-|voicetype-	6	k1	_	_
5	ne	ne	PSP	psp	lex-ne|cat-psp|gen-|num-|pers-|case-|vib-|tam-|chunkId-NP2|chunkType-child|stype-|voicetype-	4	lwg__psp	_	_
6	bawAyA	bawA	VM	v	lex-bawA|cat-v|gen-m|num-sg|pers-any|case-|vib-yA|tam-yA|chunkId-VGF|chunkType-head|stype-declarative|voicetype-active	0	main	_	_
7	ki	ki	CC	avy	lex-ki|cat-avy|gen-|num-|pers-|case-|vib-|tam-|chunkId-CCP|chunkType-head|stype-|voicetype-	6	k2	_	_
8	vijewA	vijewA	NN	n	lex-vijewA|cat-n|gen-m|num-sg|pers-3|case-o|vib-0_ke_rUpa_meM|tam-0|chunkId-NP3|chunkType-head|stype-|voicetype-	15	k7	_	_
9	ke	ke	PSP	psp	lex-ke|cat-psp|gen-m|num-|pers-|case-o|vib-|tam-|chunkId-NP3|chunkType-child|stype-|voicetype-	8	lwg__psp	_	_
10	rUpa	rUpa	PSP	psp	lex-rUpa|cat-psp|gen-m|num-|pers-|case-o|vib-|tam-|chunkId-NP3|chunkType-child|stype-|voicetype-	8	lwg__psp	_	_
11	meM	meM	PSP	psp	lex-meM|cat-psp|gen-|num-|pers-|case-|vib-|tam-|chunkId-NP3|chunkType-child|stype-|voicetype-	8	lwg__psp	_	_
12	jaba	jaba	PRP	pn	lex-jaba|cat-pn|gen-|num-|pers-|case-d|vib-|tam-|chunkId-NP4|chunkType-head|stype-|voicetype-	15	k7t	_	_
13	usakA	vaha	PRP	pn	lex-vaha|cat-pn|gen-m|num-sg|pers-3|case-o|vib-kA|tam-kA|chunkId-NP5|chunkType-head|stype-|voicetype-	14	r6	_	_
14	nAma	nAma	NN	n	lex-nAma|cat-n|gen-m|num-sg|pers-3|case-d|vib-0|tam-0|chunkId-NP6|chunkType-head|stype-|voicetype-	15	k2	_	_
15	pukArA	pukAra	VM	v	lex-pukAra|cat-v|gen-m|num-sg|pers-any|case-|vib-yA_jA+yA1|tam-yA|chunkId-VGF2|chunkType-head|stype-declarative|voicetype-active	17	nmod__relc	_	_
16	gayA	jA	VAUX	v	lex-jA|cat-v|gen-m|num-sg|pers-any|case-|vib-yA1|tam-yA1|chunkId-VGF2|chunkType-child|stype-|voicetype-	15	lwg__vaux	_	_
17	wo	wo	PRP	pn	lex-wo|cat-pn|gen-|num-|pers-|case-|vib-|tam-|chunkId-NP7|chunkType-head|stype-|voicetype-	26	k7t	_	_
18	use	vaha	PRP	pn	lex-vaha|cat-pn|gen-any|num-sg|pers-3|case-o|vib-ko|tam-ko|chunkId-NP8|chunkType-head|stype-|voicetype-	26	k4a	_	_
19	kuCa	kuCa	QF	avy	lex-kuCa|cat-avy|gen-|num-|pers-|case-|vib-|tam-|chunkId-NP9|chunkType-child|stype-|voicetype-	20	nmod__adj	_	_
20	xera	xera	NN	n	lex-xera|cat-n|gen-f|num-sg|pers-3|case-o|vib-0_waka|tam-0|chunkId-NP9|chunkType-head|stype-|voicetype-	26	k7t	_	_
21	waka	waka	PSP	psp	lex-waka|cat-psp|gen-|num-|pers-|case-|vib-|tam-|chunkId-NP9|chunkType-child|stype-|voicetype-	20	lwg__psp	_	_
22	Kuxa	Kuxa	PRP	pn	lex-Kuxa|cat-pn|gen-|num-|pers-|case-o|vib-0_para|tam-|chunkId-NP10|chunkType-head|stype-|voicetype-	26	k7	_	_
23	para	para	PSP	psp	lex-para|cat-psp|gen-|num-|pers-|case-|vib-|tam-|chunkId-NP10|chunkType-child|stype-|voicetype-	22	lwg__psp	_	_
24	viSvAsa	viSvAsa	NN	n	lex-viSvAsa|cat-n|gen-m|num-sg|pers-3|case-d|vib-0|tam-0|chunkId-NP11|chunkType-head|stype-|voicetype-	26	pof	_	_
25	nahIM	nahIM	NEG	avy	lex-nahIM|cat-avy|gen-|num-|pers-|case-|vib-|tam-|chunkId-VGF3|chunkType-child|stype-|voicetype-	26	lwg__neg	_	_
26	huA	ho	VM	v	lex-ho|cat-v|gen-m|num-sg|pers-any|case-|vib-yA|tam-yA|chunkId-VGF3|chunkType-head|stype-declarative|voicetype-active	7	ccof	_	_
27	,	COMMA	SYM	punc	lex-COMMA|cat-punc|gen-|num-|pers-|case-|vib-|tam-|chunkId-VGF3|chunkType-child|stype-|voicetype-	26	rsym	_	_
28	kyoMki	kyoMki	CC	avy	lex-kyoMki|cat-avy|gen-|num-|pers-|case-|vib-|tam-|chunkId-CCP2|chunkType-head|stype-|voicetype-	26	rh	_	_
29	vaha	vaha	PRP	pn	lex-vaha|cat-pn|gen-any|num-sg|pers-3|case-d|vib-0|tam-0|chunkId-NP12|chunkType-head|stype-|voicetype-	31	k1	_	_
30	mAnakara	mAna	VM	v	lex-mAna|cat-v|gen-any|num-any|pers-any|case-|vib-kara|tam-kara|chunkId-VGNF|chunkType-head|stype-|voicetype-	31	pof	_	_
31	cala	cala	VM	v	lex-cala|cat-v|gen-f|num-sg|pers-any|case-|vib-0_raha+yA_WA|tam-0|chunkId-VGF4|chunkType-head|stype-declarative|voicetype-active	28	ccof	_	_
32	rahI	raha	VAUX	v	lex-raha|cat-v|gen-f|num-sg|pers-any|case-|vib-yA|tam-yA|chunkId-VGF4|chunkType-child|stype-|voicetype-	31	lwg__vaux	_	_
33	WI	WA	VAUX	v	lex-WA|cat-v|gen-f|num-sg|pers-any|case-|vib-WA|tam-WA|chunkId-VGF4|chunkType-child|stype-|voicetype-	31	lwg__vaux	_	_
34	ki	ki	CC	avy	lex-ki|cat-avy|gen-|num-|pers-|case-|vib-|tam-|chunkId-CCP3|chunkType-head|stype-|voicetype-	31	k2	_	_
35	yaha	yaha	DEM	pn	lex-yaha|cat-pn|gen-any|num-sg|pers-3|case-d|vib-|tam-|chunkId-NP13|chunkType-child|stype-|voicetype-	36	nmod__adj	_	_
36	prawiyogiwA	prawiyogiwA	NN	n	lex-prawiyogiwA|cat-n|gen-f|num-sg|pers-3|case-d|vib-0|tam-0|chunkId-NP13|chunkType-head|stype-|voicetype-	38	k1	_	_
37	Piksa	Piksa	UNK	unk	lex-Piksa|cat-unk|gen-|num-|pers-|case-|vib-|tam-|chunkId-BLK|chunkType-head|stype-|voicetype-	38	k1s	_	_
38	hE	hE	VM	v	lex-hE|cat-v|gen-any|num-sg|pers-3|case-|vib-hE|tam-hE|chunkId-VGF5|chunkType-head|stype-declarative|voicetype-active	34	ccof	_	_
39	.	.	SYM	punc	lex-.|cat-punc|gen-|num-|pers-|case-|vib-|tam-|chunkId-BLK2|chunkType-head|stype-|voicetype-	6	rsym	_	_

1	prawiyogiwA	prawiyogiwA	NN	n	lex-prawiyogiwA|cat-n|gen-f|num-sg|pers-3|case-o|vib-0_meM|tam-0|chunkId-NP|chunkType-head|stype-|voicetype-	9	k7	_	_
2	meM	meM	PSP	psp	lex-meM|cat-psp|gen-|num-|pers-|case-|vib-|tam-|chunkId-NP|chunkType-child|stype-|voicetype-	1	lwg__psp	_	_
3	34	34	QC	num	lex-34|cat-num|gen-any|num-any|pers-|case-any|vib-|tam-|chunkId-NP2|chunkType-child|stype-|voicetype-	4	nmod__adj	_	_
4	xeSoM	xeSa	NN	n	lex-xeSa|cat-n|gen-m|num-pl|pers-3|case-o|vib-0_kA|tam-0|chunkId-NP2|chunkType-head|stype-|voicetype-	6	r6	_	_
5	kI	kA	PSP	psp	lex-kA|cat-psp|gen-f|num-pl|pers-|case-o|vib-|tam-|chunkId-NP2|chunkType-child|stype-|voicetype-	4	lwg__psp	_	_
6	bAlAoM	bAlA	NN	n	lex-bAlA|cat-n|gen-f|num-pl|pers-3|case-o|vib-0_ne|tam-0|chunkId-NP3|chunkType-head|stype-|voicetype-	9	k1	_	_
7	ne	ne	PSP	psp	lex-ne|cat-psp|gen-|num-|pers-|case-|vib-|tam-|chunkId-NP3|chunkType-child|stype-|voicetype-	6	lwg__psp	_	_
8	BAga	BAga	NN	n	lex-BAga|cat-n|gen-m|num-sg|pers-3|case-d|vib-0|tam-0|chunkId-NP4|chunkType-head|stype-|voicetype-	9	pof	_	_
9	liyA	le	VM	v	lex-le|cat-v|gen-m|num-sg|pers-any|case-|vib-yA_WA|tam-yA|chunkId-VGF|chunkType-head|stype-declarative|voicetype-active	0	main	_	_
10	WA	WA	VAUX	v	lex-WA|cat-v|gen-m|num-sg|pers-any|case-|vib-WA|tam-WA|chunkId-VGF|chunkType-child|stype-|voicetype-	9	lwg__vaux	_	_
11	.	.	SYM	punc	lex-.|cat-punc|gen-|num-|pers-|case-|vib-|tam-|chunkId-BLK|chunkType-head|stype-|voicetype-	9	rsym	_	_

1	xUsare	xUsarA	QO	num	lex-xUsarA|cat-num|gen-m|num-sg|pers-|case-o|vib-|tam-|chunkId-NP|chunkType-child|stype-|voicetype-	2	nmod__adj	_	_
2	naMbara	naMbara	NN	n	lex-naMbara|cat-n|gen-m|num-sg|pers-3|case-o|vib-0_para|tam-0|chunkId-NP|chunkType-head|stype-|voicetype-	7	k7	_	_
3	para	para	PSP	psp	lex-para|cat-psp|gen-|num-|pers-|case-|vib-|tam-|chunkId-NP|chunkType-child|stype-|voicetype-	2	lwg__psp	_	_
4	misa	misa	NNC	n	lex-misa|cat-n|gen-f|num-sg|pers-3|case-d|vib-0|tam-0|chunkId-NP2|chunkType-child|stype-|voicetype-	6	pof__cn	_	_
5	rUsa	rUsa	NNC	n	lex-rUsa|cat-n|gen-m|num-sg|pers-3|case-d|vib-0|tam-0|chunkId-NP2|chunkType-child|stype-|voicetype-	6	pof__cn	_	_
6	nawASA	nawASA	NNP	n	lex-nawASA|cat-n|gen-f|num-sg|pers-3|case-d|vib-0|tam-0|chunkId-NP2|chunkType-head|stype-|voicetype-	7	k1	_	_
7	NULL	_	VM	_	lex-_|cat-_|gen-|num-|pers-|case-|vib-|tam-|chunkId-NULL__VGF|chunkType-head|stype-|voicetype-	8	ccof	_	_
8	Ora	Ora	CC	avy	lex-Ora|cat-avy|gen-|num-|pers-|case-|vib-|tam-|chunkId-CCP|chunkType-head|stype-|voicetype-	0	main	_	_
9	wIsare	wIsarA	QO	num	lex-wIsarA|cat-num|gen-m|num-sg|pers-|case-o|vib-|tam-|chunkId-NP3|chunkType-child|stype-|voicetype-	10	nmod__adj	_	_
10	naMbara	naMbara	NN	n	lex-naMbara|cat-n|gen-m|num-sg|pers-3|case-o|vib-0_para|tam-0|chunkId-NP3|chunkType-head|stype-|voicetype-	15	k7	_	_
11	para	para	PSP	psp	lex-para|cat-psp|gen-|num-|pers-|case-|vib-|tam-|chunkId-NP3|chunkType-child|stype-|voicetype-	10	lwg__psp	_	_
12	misa	misa	NNC	n	lex-misa|cat-n|gen-f|num-sg|pers-3|case-d|vib-0|tam-0|chunkId-NP4|chunkType-child|stype-|voicetype-	14	pof__cn	_	_
13	lebanAna	lebanAna	NNC	n	lex-lebanAna|cat-n|gen-m|num-sg|pers-3|case-d|vib-0|tam-0|chunkId-NP4|chunkType-child|stype-|voicetype-	14	pof__cn	_	_
14	sendrA	sendrA	NNP	n	lex-sendrA|cat-n|gen-f|num-sg|pers-3|case-d|vib-0|tam-0|chunkId-NP4|chunkType-head|stype-|voicetype-	15	k1	_	_
15	rahIM	raha	VM	v	lex-raha|cat-v|gen-f|num-pl|pers-any|case-|vib-yA|tam-yA|chunkId-VGF|chunkType-head|stype-declarative|voicetype-active	8	ccof	_	_
16	.	.	SYM	punc	lex-.|cat-punc|gen-|num-|pers-|case-|vib-|tam-|chunkId-BLK|chunkType-head|stype-|voicetype-	8	rsym	_	_

1	sonala	sonala	NNP	n	lex-sonala|cat-n|gen-f|num-sg|pers-3|case-o|vib-0_ne|tam-0|chunkId-NP|chunkType-head|stype-|voicetype-	3	k1	_	_
2	ne	ne	PSP	psp	lex-ne|cat-psp|gen-|num-|pers-|case-|vib-|tam-|chunkId-NP|chunkType-child|stype-|voicetype-	1	lwg__psp	_	_
3	bawAyA	bawA	VM	v	lex-bawA|cat-v|gen-m|num-sg|pers-any|case-|vib-yA|tam-yA|chunkId-VGF|chunkType-head|stype-declarative|voicetype-active	0	main	_	_
4	ki	ki	CC	avy	lex-ki|cat-avy|gen-|num-|pers-|case-|vib-|tam-|chunkId-CCP|chunkType-head|stype-|voicetype-	3	k2	_	_
5	puraskAra	puraskAra	NN	n	lex-puraskAra|cat-n|gen-m|num-sg|pers-3|case-o|vib-0_ke_wOra_para|tam-0|chunkId-NP2|chunkType-head|stype-|voicetype-	20	vmod	_	_
6	ke	ke	PSP	psp	lex-ke|cat-psp|gen-|num-|pers-|case-|vib-|tam-|chunkId-NP2|chunkType-child|stype-|voicetype-	5	lwg__psp	_	_
7	wOra	wOra	PSP	psp	lex-wOra|cat-psp|gen-|num-|pers-|case-|vib-|tam-|chunkId-NP2|chunkType-child|stype-|voicetype-	5	lwg__psp	_	_
8	para	para	PSP	psp	lex-para|cat-psp|gen-|num-|pers-|case-|vib-|tam-|chunkId-NP2|chunkType-child|stype-|voicetype-	5	lwg__psp	_	_
9	use	vaha	PRP	pn	lex-vaha|cat-pn|gen-any|num-sg|pers-3|case-o|vib-ko|tam-ko|chunkId-NP3|chunkType-head|stype-|voicetype-	20	k4	_	_
10	xasa	xasa	QCC	num	lex-xasa|cat-num|gen-any|num-any|pers-|case-any|vib-|tam-|chunkId-NP4|chunkType-child|stype-|voicetype-	13	mod	_	_
11	hajAra	hajAra	QC	num	lex-hajAra|cat-num|gen-any|num-any|pers-|case-any|vib-|tam-|chunkId-NP4|chunkType-child|stype-|voicetype-	13	nmod__adj	_	_
12	maleSiyana	maleSiyana	JJ	adj	lex-maleSiyana|cat-adj|gen-any|num-any|pers-|case-d|vib-|tam-|chunkId-NP4|chunkType-child|stype-|voicetype-	13	nmod__adj	_	_
13	bAta	bAta	NN	n	lex-bAta|cat-n|gen-m|num-pl|pers-3|case-d|vib-0|tam-0|chunkId-NP4|chunkType-head|stype-|voicetype-	20	k1	_	_
14	(	(	SYM	punc	lex-(|cat-punc|gen-|num-|pers-|case-|vib-|tam-|chunkId-NP5|chunkType-child|stype-|voicetype-	18	rsym	_	_
15	karIba	karIba	RP	avy	lex-karIba|cat-avy|gen-|num-|pers-|case-|vib-|tam-|chunkId-NP5|chunkType-child|stype-|voicetype-	18	lwg__rp	_	_
16	xo	xo	QCC	num	lex-xo|cat-num|gen-any|num-any|pers-|case-any|vib-|tam-|chunkId-NP5|chunkType-child|stype-|voicetype-	18	mod	_	_
17	lAKa	lAKa	QC	num	lex-lAKa|cat-num|gen-any|num-any|pers-|case-any|vib-|tam-|chunkId-NP5|chunkType-child|stype-|voicetype-	18	nmod__adj	_	_
18	rupaye	rupaye	NN	n	lex-rupaye|cat-n|gen-m|num-pl|pers-3|case-d|vib-0|tam-0|chunkId-NP5|chunkType-head|stype-|voicetype-	13	nmod	_	_
19	)	)	SYM	punc	lex-)|cat-punc|gen-|num-|pers-|case-|vib-|tam-|chunkId-NP5|chunkType-child|stype-|voicetype-	18	rsym	_	_
20	mile	mila	VM	v	lex-mila|cat-v|gen-any|num-pl|pers-3|case-|vib-yA_hE|tam-yA|chunkId-VGF2|chunkType-head|stype-declarative|voicetype-active	4	ccof	_	_
21	hEM	hE	VAUX	v	lex-hE|cat-v|gen-any|num-pl|pers-3|case-|vib-hE|tam-hE|chunkId-VGF2|chunkType-child|stype-|voicetype-	20	lwg__vaux	_	_
22	.	.	SYM	punc	lex-.|cat-punc|gen-|num-|pers-|case-|vib-|tam-|chunkId-BLK|chunkType-head|stype-|voicetype-	3	rsym	_	_

1	vaha	vaha	PRP	pn	lex-vaha|cat-pn|gen-any|num-sg|pers-3|case-d|vib-0|tam-0|chunkId-NP|chunkType-head|stype-|voicetype-	8	k1	_	_
2	xo	xo	QC	num	lex-xo|cat-num|gen-any|num-any|pers-|case-any|vib-|tam-|chunkId-NP2|chunkType-child|stype-|voicetype-	5	nmod__adj	_	_
3	-	-	SYM	punc	lex--|cat-punc|gen-|num-|pers-|case-|vib-|tam-|chunkId-NP2|chunkType-child|stype-|voicetype-	5	rsym	_	_
4	wIna	wIna	QC	num	lex-wIna|cat-num|gen-any|num-any|pers-|case-any|vib-|tam-|chunkId-NP2|chunkType-child|stype-|voicetype-	5	nmod__adj	_	_
5	xina	xina	NN	n	lex-xina|cat-n|gen-m|num-sg|pers-3|case-o|vib-0_meM|tam-0|chunkId-NP2|chunkType-head|stype-|voicetype-	8	k7t	_	_
6	meM	meM	PSP	psp	lex-meM|cat-psp|gen-|num-|pers-|case-|vib-|tam-|chunkId-NP2|chunkType-child|stype-|voicetype-	5	lwg__psp	_	_
7	noedA	noedA	NNP	n	lex-noedA|cat-n|gen-m|num-sg|pers-3|case-d|vib-0|tam-0|chunkId-NP3|chunkType-head|stype-|voicetype-	8	k2p	_	_
8	pahuMca	pahuMca	VM	v	lex-pahuMca|cat-v|gen-f|num-sg|pers-3|case-|vib-0_raha+yA_hE|tam-0|chunkId-VGF|chunkType-head|stype-declarative|voicetype-active	0	main	_	_
9	rahI	raha	VAUX	v	lex-raha|cat-v|gen-f|num-sg|pers-any|case-|vib-yA|tam-yA|chunkId-VGF|chunkType-child|stype-|voicetype-	8	lwg__vaux	_	_
10	hE	hE	VAUX	v	lex-hE|cat-v|gen-any|num-sg|pers-3|case-|vib-hE|tam-hE|chunkId-VGF|chunkType-child|stype-|voicetype-	8	lwg__vaux	_	_
11	.	.	SYM	punc	lex-.|cat-punc|gen-|num-|pers-|case-|vib-|tam-|chunkId-BLK|chunkType-head|stype-|voicetype-	8	rsym	_	_

1	sonala	sonala	NNP	n	lex-sonala|cat-n|gen-f|num-sg|pers-3|case-o|vib-0_ne|tam-0|chunkId-NP|chunkType-head|stype-|voicetype-	3	k1	_	_
2	ne	ne	PSP	psp	lex-ne|cat-psp|gen-|num-|pers-|case-|vib-|tam-|chunkId-NP|chunkType-child|stype-|voicetype-	1	lwg__psp	_	_
3	bawAyA	bawA	VM	v	lex-bawA|cat-v|gen-m|num-sg|pers-any|case-|vib-yA|tam-yA|chunkId-VGF|chunkType-head|stype-declarative|voicetype-active	0	main	_	_
4	ki	ki	CC	avy	lex-ki|cat-avy|gen-|num-|pers-|case-|vib-|tam-|chunkId-CCP|chunkType-head|stype-|voicetype-	3	k2	_	_
5	jajoM	jaja	NN	n	lex-jaja|cat-n|gen-m|num-pl|pers-3|case-o|vib-0_ne|tam-0|chunkId-NP2|chunkType-head|stype-|voicetype-	9	k1	_	_
6	ne	ne	PSP	psp	lex-ne|cat-psp|gen-|num-|pers-|case-|vib-|tam-|chunkId-NP2|chunkType-child|stype-|voicetype-	5	lwg__psp	_	_
7	jaba	jaba	PRP	pn	lex-jaba|cat-pn|gen-|num-|pers-|case-d|vib-|tam-|chunkId-NP3|chunkType-head|stype-|voicetype-	9	k7t	_	_
8	usase	vaha	PRP	pn	lex-vaha|cat-pn|gen-any|num-sg|pers-3|case-o|vib-se|tam-se|chunkId-NP4|chunkType-head|stype-|voicetype-	9	k4	_	_
9	pUCA	pUCa	VM	v	lex-pUCa|cat-v|gen-m|num-sg|pers-any|case-|vib-yA|tam-yA|chunkId-VGF2|chunkType-head|stype-declarative|voicetype-active	29	nmod__relc	_	_
10	ki	ki	CC	avy	lex-ki|cat-avy|gen-|num-|pers-|case-|vib-|tam-|chunkId-CCP2|chunkType-head|stype-|voicetype-	9	k2	_	_
11	Apase	Apa	PRP	pn	lex-Apa|cat-pn|gen-any|num-sg|pers-2h|case-o|vib-se|tam-se|chunkId-NP5|chunkType-head|stype-|voicetype-	20	k4	_	_
12	ApakI	Apa	PRP	pn	lex-Apa|cat-pn|gen-f|num-sg|pers-2h|case-o|vib-kA|tam-kA|chunkId-NP6|chunkType-head|stype-|voicetype-	13	r6	_	_
13	jagaha	jagaha	NN	n	lex-jagaha|cat-n|gen-m|num-sg|pers-3|case-d|vib-0|tam-0|chunkId-NP7|chunkType-head|stype-|voicetype-	20	vmod	_	_
14	kisI	koI	PRP	pn	lex-koI|cat-pn|gen-any|num-sg|pers-3|case-o|vib-0|tam-0|chunkId-NP8|chunkType-child|stype-|voicetype-	15	nmod__adj	_	_
15	Ora	Ora	NN	n	lex-Ora|cat-n|gen-m|num-sg|pers-3|case-o|vib-0_kA|tam-0|chunkId-NP8|chunkType-head|stype-|voicetype-	17	r6	_	_
16	kA	kA	PSP	psp	lex-kA|cat-psp|gen-m|num-sg|pers-|case-d|vib-|tam-|chunkId-NP8|chunkType-child|stype-|voicetype-	15	lwg__psp	_	_
17	nAma	nAma	NN	n	lex-nAma|cat-n|gen-m|num-sg|pers-3|case-d|vib-0|tam-0|chunkId-NP9|chunkType-head|stype-|voicetype-	20	k2	_	_
18	vijewA	vijewA	NN	n	lex-vijewA|cat-n|gen-m|num-sg|pers-3|case-o|vib-0_meM|tam-0|chunkId-NP10|chunkType-head|stype-|voicetype-	20	k7	_	_
19	meM	meM	PSP	psp	lex-meM|cat-psp|gen-|num-|pers-|case-|vib-|tam-|chunkId-NP10|chunkType-child|stype-|voicetype-	18	lwg__psp	_	_
20	pUCA	pUCa	VM	v	lex-pUCa|cat-v|gen-m|num-sg|pers-3|case-|vib-yA_jA+eM|tam-yA|chunkId-VGF3|chunkType-head|stype-declarative|voicetype-passive	26	vmod	_	_
21	jAe	jA	VAUX	v	lex-jA|cat-v|gen-any|num-sg|pers-3|case-|vib-eM|tam-eM|chunkId-VGF3|chunkType-child|stype-|voicetype-	20	lwg__vaux	_	_
22	wo	wo	CC	avy	lex-wo|cat-avy|gen-|num-|pers-|case-|vib-|tam-|chunkId-CCP3|chunkType-head|stype-|voicetype-	10	ccof	_	_
23	Apa	Apa	PRP	pn	lex-Apa|cat-pn|gen-any|num-sg|pers-2h|case-d|vib-0|tam-0|chunkId-NP11|chunkType-head|stype-|voicetype-	26	k1	_	_
24	kisakA	kOna	WQ	pn	lex-kOna|cat-pn|gen-m|num-sg|pers-3|case-o|vib-kA|tam-kA|chunkId-NP12|chunkType-head|stype-|voicetype-	25	r6	_	_
25	nAma	nAma	NN	n	lex-nAma|cat-n|gen-m|num-sg|pers-3|case-d|vib-0|tam-0|chunkId-NP13|chunkType-head|stype-|voicetype-	26	k2	_	_
26	lenA	le	VM	v	lex-le|cat-v|gen-any|num-sg|pers-2h|case-|vib-nA_cAha+gA|tam-nA|chunkId-VGF4|chunkType-head|stype-declarative|voicetype-active	22	ccof	_	_
27	cAheMgI	cAha	VAUX	v	lex-cAha|cat-v|gen-f|num-sg|pers-2h|case-|vib-gA|tam-gA|chunkId-VGF4|chunkType-child|stype-|voicetype-	26	lwg__vaux	_	_
28	,	COMMA	SYM	punc	lex-COMMA|cat-punc|gen-|num-|pers-|case-|vib-|tam-|chunkId-VGF4|chunkType-child|stype-|voicetype-	26	rsym	_	_
29	waba	waba	PRP	pn	lex-waba|cat-pn|gen-|num-|pers-|case-d|vib-|tam-|chunkId-NP14|chunkType-head|stype-|voicetype-	33	k7t	_	_
30	mEMne	mEM	PRP	pn	lex-mEM|cat-pn|gen-any|num-sg|pers-1|case-o|vib-ne|tam-ne|chunkId-NP15|chunkType-head|stype-|voicetype-	33	k1	_	_
31	apanA	apanA	PRP	pn	lex-apanA|cat-pn|gen-m|num-sg|pers-any|case-d|vib-0|tam-0|chunkId-NP16|chunkType-head|stype-|voicetype-	32	r6	_	_
32	nAma	nAma	NN	n	lex-nAma|cat-n|gen-m|num-sg|pers-3|case-d|vib-0|tam-0|chunkId-NP17|chunkType-head|stype-|voicetype-	33	k2	_	_
33	liyA	le	VM	v	lex-le|cat-v|gen-m|num-sg|pers-any|case-|vib-yA|tam-yA|chunkId-VGF5|chunkType-head|stype-declarative|voicetype-active	35	ccof	_	_
34	,	COMMA	SYM	punc	lex-COMMA|cat-punc|gen-|num-|pers-|case-|vib-|tam-|chunkId-VGF5|chunkType-child|stype-|voicetype-	33	rsym	_	_
35	NULL	_	CC	_	lex-_|cat-_|gen-|num-|pers-|case-|vib-|tam-|chunkId-NULL__CCP|chunkType-head|stype-|voicetype-	4	ccof	_	_
36	kisI	koI	PRP	pn	lex-koI|cat-pn|gen-any|num-sg|pers-3|case-o|vib-0|tam-0|chunkId-NP18|chunkType-child|stype-|voicetype-	37	nmod__adj	_	_
37	Ora	Ora	NN	n	lex-Ora|cat-n|gen-m|num-sg|pers-3|case-o|vib-0_kA|tam-0|chunkId-NP18|chunkType-head|stype-|voicetype-	39	r6	_	_
38	kA	kA	PSP	psp	lex-kA|cat-psp|gen-m|num-sg|pers-|case-d|vib-|tam-|chunkId-NP18|chunkType-child|stype-|voicetype-	37	lwg__psp	_	_
39	nAma	nAma	NN	n	lex-nAma|cat-n|gen-m|num-sg|pers-3|case-d|vib-0|tam-0|chunkId-NP19|chunkType-head|stype-|voicetype-	41	k2	_	_
40	nahIM	nahIM	NEG	avy	lex-nahIM|cat-avy|gen-|num-|pers-|case-|vib-|tam-|chunkId-VGF6|chunkType-child|stype-|voicetype-	41	lwg__neg	_	_
41	le	le	VM	v	lex-le|cat-v|gen-any|num-sg|pers-any|case-|vib-0_pA+yA|tam-0|chunkId-VGF6|chunkType-head|stype-declarative|voicetype-active	35	ccof	_	_
42	pAI	pA	VAUX	v	lex-pA|cat-v|gen-f|num-sg|pers-any|case-|vib-yA|tam-yA|chunkId-VGF6|chunkType-child|stype-|voicetype-	41	lwg__vaux	_	_
43	.	.	SYM	punc	lex-.|cat-punc|gen-|num-|pers-|case-|vib-|tam-|chunkId-BLK|chunkType-head|stype-|voicetype-	3	rsym	_	_

1	unhoMne	vaha	PRP	pn	lex-vaha|cat-pn|gen-any|num-sg|pers-3h|case-o|vib-ne|tam-ne|chunkId-NP|chunkType-head|stype-|voicetype-	2	k1	_	_
2	kahA	kaha	VM	v	lex-kaha|cat-v|gen-m|num-sg|pers-any|case-|vib-yA|tam-yA|chunkId-VGF|chunkType-head|stype-declarative|voicetype-active	0	main	_	_
3	ki	ki	CC	avy	lex-ki|cat-avy|gen-|num-|pers-|case-|vib-|tam-|chunkId-CCP|chunkType-head|stype-|voicetype-	2	k2	_	_
4	vaha	vaha	PRP	pn	lex-vaha|cat-pn|gen-any|num-sg|pers-3|case-d|vib-0|tam-0|chunkId-NP2|chunkType-head|stype-|voicetype-	23	k1	_	_
5	apane	apanA	PRP	pn	lex-apanA|cat-pn|gen-m|num-any|pers-any|case-o|vib-0|tam-0|chunkId-NP3|chunkType-head|stype-|voicetype-	7	r6	_	_
6	dresa	dresa	NNC	n	lex-dresa|cat-n|gen-f|num-sg|pers-3|case-d|vib-0|tam-0|chunkId-NP4|chunkType-child|stype-|voicetype-	7	pof__cn	_	_
7	dijAinara	dijAinara	NN	n	lex-dijAinara|cat-n|gen-m|num-sg|pers-3|case-d|vib-0|tam-0|chunkId-NP4|chunkType-head|stype-|voicetype-	11	nmod	_	_
8	xillI	xillI	NNP	n	lex-xillI|cat-n|gen-f|num-sg|pers-3|case-o|vib-0_kA|tam-0|chunkId-NP5|chunkType-head|stype-|voicetype-	11	r6	_	_
9	ke	kA	PSP	psp	lex-kA|cat-psp|gen-m|num-sg|pers-|case-o|vib-|tam-|chunkId-NP5|chunkType-child|stype-|voicetype-	8	lwg__psp	_	_
10	hemeMxra	hemeMxra	NNPC	n	lex-hemeMxra|cat-n|gen-m|num-sg|pers-3|case-d|vib-0|tam-0|chunkId-NP6|chunkType-child|stype-|voicetype-	11	pof__cn	_	_
11	lAlavAnI	lAlavAnI	NNP	n	lex-lAlavAnI|cat-n|gen-any|num-sg|pers-3|case-o|vib-0|tam-0|chunkId-NP6|chunkType-head|stype-|voicetype-	12	ccof	_	_
12	va	va	CC	avy	lex-va|cat-avy|gen-|num-|pers-|case-|vib-|tam-|chunkId-CCP2|chunkType-head|stype-|voicetype-	15	ccof	_	_
13	naMxiwA	naMxiwA	NNPC	n	lex-naMxiwA|cat-n|gen-f|num-sg|pers-3|case-d|vib-0|tam-0|chunkId-NP7|chunkType-child|stype-|voicetype-	14	pof__cn	_	_
14	rAya	rAya	NNP	n	lex-rAya|cat-n|gen-any|num-sg|pers-3|case-o|vib-0|tam-0|chunkId-NP7|chunkType-head|stype-|voicetype-	12	ccof	_	_
15	waWA	waWA	CC	avy	lex-waWA|cat-avy|gen-|num-|pers-|case-|vib-|tam-|chunkId-CCP3|chunkType-head|stype-|voicetype-	23	k4	_	_
16	muMbaI	muMbaI	NNP	n	lex-muMbaI|cat-n|gen-f|num-sg|pers-3|case-o|vib-0_kA|tam-0|chunkId-NP8|chunkType-head|stype-|voicetype-	18	r6	_	_
17	ke	kA	PSP	psp	lex-kA|cat-psp|gen-m|num-sg|pers-|case-o|vib-|tam-|chunkId-NP8|chunkType-child|stype-|voicetype-	16	lwg__psp	_	_
18	lasela	lasela	NNP	n	lex-lasela|cat-n|gen-m|num-sg|pers-3|case-o|vib-0_ko|tam-0|chunkId-NP9|chunkType-head|stype-|voicetype-	15	ccof	_	_
19	ko	ko	PSP	psp	lex-ko|cat-psp|gen-|num-|pers-|case-|vib-|tam-|chunkId-NP9|chunkType-child|stype-|voicetype-	18	lwg__psp	_	_
20	viSeRa	viSeRa	JJ	adj	lex-viSeRa|cat-adj|gen-any|num-any|pers-|case-d|vib-|tam-|chunkId-NP10|chunkType-child|stype-|voicetype-	21	nmod__adj	_	_
21	XanyavAxa	XanyavAxa	NN	n	lex-XanyavAxa|cat-n|gen-m|num-sg|pers-3|case-d|vib-0|tam-0|chunkId-NP10|chunkType-head|stype-|voicetype-	22	k2	_	_
22	xenA	xe	VM	v	lex-xe|cat-v|gen-any|num-any|pers-any|case-d|vib-nA|tam-nA|chunkId-VGNN|chunkType-head|stype-|voicetype-	23	k2	_	_
23	cAhawI	cAha	VM	v	lex-cAha|cat-v|gen-f|num-sg|pers-3h|case-|vib-wA_hE|tam-wA|chunkId-VGF2|chunkType-head|stype-declarative|voicetype-active	3	ccof	_	_
24	hEM	hE	VAUX	v	lex-hE|cat-v|gen-any|num-sg|pers-3h|case-|vib-hE|tam-hE|chunkId-VGF2|chunkType-child|stype-|voicetype-	23	lwg__vaux	_	_
25	.	.	SYM	punc	lex-.|cat-punc|gen-|num-|pers-|case-|vib-|tam-|chunkId-BLK|chunkType-head|stype-|voicetype-	2	rsym	_	_

1	sonala	sonala	NNP	n	lex-sonala|cat-n|gen-f|num-sg|pers-3|case-o|vib-0_kA|tam-0|chunkId-NP|chunkType-head|stype-|voicetype-	3	r6	_	_
2	ke	kA	PSP	psp	lex-kA|cat-psp|gen-m|num-sg|pers-3h|case-o|vib-|tam-|chunkId-NP|chunkType-child|stype-|voicetype-	1	lwg__psp	_	_
3	piwA	piwA	NN	n	lex-piwA|cat-n|gen-m|num-sg|pers-3|case-d|vib-0|tam-0|chunkId-NP2|chunkType-head|stype-|voicetype-	6	rs	_	_
4	raGurAja	raGurAja	NNPC	n	lex-raGurAja|cat-n|gen-m|num-sg|pers-3|case-d|vib-0|tam-0|chunkId-NP3|chunkType-child|stype-|voicetype-	6	pof__cn	_	_
5	siMha	siMha	NNPC	n	lex-siMha|cat-n|gen-m|num-sg|pers-3|case-d|vib-0|tam-0|chunkId-NP3|chunkType-child|stype-|voicetype-	6	pof__cn	_	_
6	cOhAna	cOhAna	NNP	n	lex-cOhAna|cat-n|gen-any|num-sg|pers-3|case-d|vib-0|tam-0|chunkId-NP3|chunkType-head|stype-|voicetype-	9	k1	_	_
7	pulisa	pulisa	NNC	n	lex-pulisa|cat-n|gen-f|num-sg|pers-3|case-d|vib-0|tam-0|chunkId-NP4|chunkType-child|stype-|voicetype-	8	pof__cn	_	_
8	iMsapektara	iMsapektara	NN	n	lex-iMsapektara|cat-n|gen-m|num-sg|pers-3|case-d|vib-0|tam-0|chunkId-NP4|chunkType-head|stype-|voicetype-	9	k1s	_	_
9	hEM	hE	VM	v	lex-hE|cat-v|gen-any|num-sg|pers-3h|case-|vib-hE|tam-hE|chunkId-VGF|chunkType-head|stype-declarative|voicetype-active	10	ccof	_	_
10	Ora	Ora	CC	avy	lex-Ora|cat-avy|gen-|num-|pers-|case-|vib-|tam-|chunkId-CCP|chunkType-head|stype-|voicetype-	0	main	_	_
11	sektara	sektara	NNPC	n	lex-sektara|cat-n|gen-m|num-sg|pers-3|case-d|vib-0|tam-0|chunkId-NP5|chunkType-child|stype-|voicetype-	13	pof__cn	_	_
12	-	-	SYM	punc	lex--|cat-punc|gen-|num-|pers-|case-|vib-|tam-|chunkId-NP5|chunkType-child|stype-|voicetype-	13	rsym	_	_
13	14	14	NNP	n	lex-14|cat-n|gen-any|num-sg|pers-3|case-o|vib-0_meM|tam-0|chunkId-NP5|chunkType-head|stype-|voicetype-	18	k7p	_	_
14	meM	meM	PSP	psp	lex-meM|cat-psp|gen-|num-|pers-|case-|vib-|tam-|chunkId-NP5|chunkType-child|stype-|voicetype-	13	lwg__psp	_	_
15	parivAra	parivAra	NN	n	lex-parivAra|cat-n|gen-m|num-sg|pers-3|case-o|vib-0_ke_sAWa|tam-0|chunkId-NP6|chunkType-head|stype-|voicetype-	18	ras-k1	_	_
16	ke	ke	PSP	psp	lex-ke|cat-psp|gen-|num-|pers-|case-|vib-|tam-|chunkId-NP6|chunkType-child|stype-|voicetype-	15	lwg__psp	_	_
17	sAWa	sAWa	NST	nst	lex-sAWa|cat-nst|gen-m|num-sg|pers-3|case-d|vib-|tam-|chunkId-NP6|chunkType-child|stype-|voicetype-	15	lwg__psp	_	_
18	rahawe	raha	VM	v	lex-raha|cat-v|gen-m|num-sg|pers-3h|case-|vib-wA_hE|tam-wA|chunkId-VGF2|chunkType-head|stype-declarative|voicetype-active	10	ccof	_	_
19	hEM	hE	VAUX	v	lex-hE|cat-v|gen-any|num-sg|pers-3h|case-|vib-hE|tam-hE|chunkId-VGF2|chunkType-child|stype-|voicetype-	18	lwg__vaux	_	_
20	.	.	SYM	punc	lex-.|cat-punc|gen-|num-|pers-|case-|vib-|tam-|chunkId-BLK|chunkType-head|stype-|voicetype-	10	rsym	_	_

1	unhoMne	vaha	PRP	pn	lex-vaha|cat-pn|gen-any|num-sg|pers-3h|case-o|vib-ne|tam-ne|chunkId-NP|chunkType-head|stype-|voicetype-	2	k1	_	_
2	bawAyA	bawA	VM	v	lex-bawA|cat-v|gen-m|num-sg|pers-any|case-|vib-yA|tam-yA|chunkId-VGF|chunkType-head|stype-declarative|voicetype-active	0	main	_	_
3	ki	ki	CC	avy	lex-ki|cat-avy|gen-|num-|pers-|case-|vib-|tam-|chunkId-CCP|chunkType-head|stype-|voicetype-	2	k2	_	_
4	xillI	xillI	NNP	n	lex-xillI|cat-n|gen-f|num-sg|pers-3|case-o|vib-0_kA|tam-0|chunkId-NP2|chunkType-head|stype-|voicetype-	7	r6	_	_
5	ke	kA	PSP	psp	lex-kA|cat-psp|gen-m|num-sg|pers-|case-o|vib-|tam-|chunkId-NP2|chunkType-child|stype-|voicetype-	4	lwg__psp	_	_
6	gArgI	gArgI	NNPC	n	lex-gArgI|cat-n|gen-f|num-sg|pers-3|case-d|vib-0|tam-0|chunkId-NP3|chunkType-child|stype-|voicetype-	7	pof__cn	_	_
7	kOYleja	kOYleja	NNP	n	lex-kOYleja|cat-n|gen-m|num-sg|pers-3|case-o|vib-0_meM|tam-0|chunkId-NP3|chunkType-head|stype-|voicetype-	10	k7p	_	_
8	meM	meM	PSP	psp	lex-meM|cat-psp|gen-|num-|pers-|case-|vib-|tam-|chunkId-NP3|chunkType-child|stype-|voicetype-	7	lwg__psp	_	_
9	xAKilA	xAKilA	NN	n	lex-xAKilA|cat-n|gen-m|num-sg|pers-3|case-d|vib-0|tam-0|chunkId-NP4|chunkType-head|stype-|voicetype-	10	k2	_	_
10	lene	le	VM	v	lex-le|cat-v|gen-any|num-sg|pers-3|case-o|vib-nA_ke_bAxa|tam-nA|chunkId-VGNN|chunkType-head|stype-|voicetype-	18	k7t	_	_
11	ke	ke	PSP	psp	lex-ke|cat-psp|gen-|num-|pers-|case-|vib-|tam-|chunkId-VGNN|chunkType-child|stype-|voicetype-	10	lwg__psp	_	_
12	bAxa	bAxa	NST	nst	lex-bAxa|cat-nst|gen-m|num-sg|pers-3|case-d|vib-|tam-|chunkId-VGNN|chunkType-child|stype-|voicetype-	10	lwg__nst	_	_
13	kisI	koI	PRP	pn	lex-koI|cat-pn|gen-any|num-sg|pers-3|case-o|vib-0_ne|tam-0|chunkId-NP5|chunkType-head|stype-|voicetype-	18	k1	_	_
14	ne	ne	PSP	psp	lex-ne|cat-psp|gen-|num-|pers-|case-|vib-|tam-|chunkId-NP5|chunkType-child|stype-|voicetype-	13	lwg__psp	_	_
15	sonala	sonala	NNP	n	lex-sonala|cat-n|gen-f|num-sg|pers-3|case-o|vib-0_ko|tam-0|chunkId-NP6|chunkType-head|stype-|voicetype-	18	k4	_	_
16	ko	ko	PSP	psp	lex-ko|cat-psp|gen-|num-|pers-|case-|vib-|tam-|chunkId-NP6|chunkType-child|stype-|voicetype-	15	lwg__psp	_	_
17	kameMta	kameMta	NN	n	lex-kameMta|cat-n|gen-m|num-sg|pers-3|case-d|vib-0|tam-0|chunkId-NP7|chunkType-head|stype-|voicetype-	18	pof	_	_
18	kiyA	kara	VM	v	lex-kara|cat-v|gen-m|num-sg|pers-any|case-|vib-yA|tam-yA|chunkId-VGF2|chunkType-head|stype-declarative|voicetype-active	3	ccof	_	_
19	ki	ki	CC	avy	lex-ki|cat-avy|gen-|num-|pers-|case-|vib-|tam-|chunkId-CCP2|chunkType-head|stype-|voicetype-	17	rs	_	_
20	misa	misa	NNPC	n	lex-misa|cat-n|gen-f|num-sg|pers-3|case-d|vib-0|tam-0|chunkId-NP8|chunkType-child|stype-|voicetype-	21	pof__cn	_	_
21	iMdiyA	iMdiyA	NNP	n	lex-iMdiyA|cat-n|gen-m|num-sg|pers-3|case-d|vib-0|tam-0|chunkId-NP8|chunkType-head|stype-|voicetype-	22	k1	_	_
22	banane	bana	VM	v	lex-bana|cat-v|gen-any|num-any|pers-any|case-o|vib-nA_ke_lie|tam-nA|chunkId-VGNN2|chunkType-head|stype-|voicetype-	25	rt	_	_
23	ke	ke	PSP	psp	lex-ke|cat-psp|gen-|num-|pers-|case-|vib-|tam-|chunkId-VGNN2|chunkType-child|stype-|voicetype-	22	lwg__psp	_	_
24	lie	lie	PSP	psp	lex-lie|cat-psp|gen-|num-|pers-|case-|vib-|tam-|chunkId-VGNN2|chunkType-child|stype-|voicetype-	22	lwg__psp	_	_
25	AI	A	VM	v	lex-A|cat-v|gen-f|num-sg|pers-3|case-|vib-yA_hE|tam-yA|chunkId-VGF3|chunkType-head|stype-declarative|voicetype-active	28	ccof	_	_
26	hE	hE	VAUX	v	lex-hE|cat-v|gen-any|num-sg|pers-3|case-|vib-hE|tam-hE|chunkId-VGF3|chunkType-child|stype-|voicetype-	25	lwg__vaux	_	_
27	,	COMMA	SYM	punc	lex-COMMA|cat-punc|gen-|num-|pers-|case-|vib-|tam-|chunkId-VGF3|chunkType-child|stype-|voicetype-	25	rsym	_	_
28	NULL	_	CC	_	lex-_|cat-_|gen-|num-|pers-|case-|vib-|tam-|chunkId-NULL__CCP|chunkType-head|stype-|voicetype-	19	ccof	_	_
29	usI	vaha	DEM	pn	lex-vaha|cat-pn|gen-any|num-sg|pers-3|case-o|vib-|tam-|chunkId-NP9|chunkType-child|stype-|voicetype-	30	nmod__adj	_	_
30	kameMta	kameMta	NN	n	lex-kameMta|cat-n|gen-m|num-sg|pers-3|case-o|vib-0_ne|tam-0|chunkId-NP9|chunkType-head|stype-|voicetype-	36	k1	_	_
31	ne	ne	PSP	psp	lex-ne|cat-psp|gen-|num-|pers-|case-|vib-|tam-|chunkId-NP9|chunkType-child|stype-|voicetype-	30	lwg__psp	_	_
32	Aja	Aja	NN	n	lex-Aja|cat-n|gen-m|num-sg|pers-3|case-d|vib-0|tam-0|chunkId-NP10|chunkType-head|stype-|voicetype-	36	k7t	_	_
33	use	vaha	PRP	pn	lex-vaha|cat-pn|gen-any|num-sg|pers-3|case-o|vib-ko|tam-ko|chunkId-NP11|chunkType-head|stype-|voicetype-	36	k2	_	_
34	yahAM	yahAz	PRP	pn	lex-yahAz|cat-pn|gen-|num-|pers-|case-o|vib-0_waka|tam-|chunkId-NP12|chunkType-head|stype-|voicetype-	36	k7	_	_
35	waka	waka	PSP	psp	lex-waka|cat-psp|gen-|num-|pers-|case-|vib-|tam-|chunkId-NP12|chunkType-child|stype-|voicetype-	34	lwg__psp	_	_
36	pahuMcA	pahuMca	VM	v	lex-pahuMca|cat-v|gen-any|num-sg|pers-any|case-|vib-yA_xe+yA|tam-yA|chunkId-VGF4|chunkType-head|stype-declarative|voicetype-active	28	ccof	_	_
37	xiyA	xe	VAUX	v	lex-xe|cat-v|gen-m|num-sg|pers-any|case-|vib-yA|tam-yA|chunkId-VGF4|chunkType-child|stype-|voicetype-	36	lwg__vaux	_	_
38	.	.	SYM	punc	lex-.|cat-punc|gen-|num-|pers-|case-|vib-|tam-|chunkId-BLK|chunkType-head|stype-|voicetype-	2	rsym	_	_

1	unhoMne	vaha	PRP	pn	lex-vaha|cat-pn|gen-any|num-sg|pers-3h|case-o|vib-ne|tam-ne|chunkId-NP|chunkType-head|stype-|voicetype-	2	k1	_	_
2	kahA	kaha	VM	v	lex-kaha|cat-v|gen-m|num-sg|pers-any|case-|vib-yA|tam-yA|chunkId-VGF|chunkType-head|stype-declarative|voicetype-active	0	main	_	_
3	ki	ki	CC	avy	lex-ki|cat-avy|gen-|num-|pers-|case-|vib-|tam-|chunkId-CCP|chunkType-head|stype-|voicetype-	2	k2	_	_
4	SurU	SurU	NN	n	lex-SurU|cat-n|gen-m|num-sg|pers-3|case-o|vib-0_meM|tam-0|chunkId-NP2|chunkType-head|stype-|voicetype-	12	k7t	_	_
5	meM	meM	PSP	psp	lex-meM|cat-psp|gen-|num-|pers-|case-|vib-|tam-|chunkId-NP2|chunkType-child|stype-|voicetype-	4	lwg__psp	_	_
6	wo	wo	RP	avy	lex-wo|cat-avy|gen-|num-|pers-|case-|vib-|tam-|chunkId-NP2|chunkType-child|stype-|voicetype-	4	lwg__rp	_	_
7	vaha	vaha	PRP	pn	lex-vaha|cat-pn|gen-any|num-sg|pers-3|case-d|vib-0|tam-0|chunkId-NP3|chunkType-head|stype-|voicetype-	12	k1	_	_
8	isake	yaha	PRP	pn	lex-yaha|cat-pn|gen-m|num-sg|pers-3|case-o|vib-ke|tam-ke|chunkId-NP4|chunkType-head|stype-|voicetype-	9	r6-k2	_	_
9	pakRa	pakRa	NN	n	lex-pakRa|cat-n|gen-m|num-sg|pers-3|case-o|vib-0_meM|tam-0|chunkId-NP5|chunkType-head|stype-|voicetype-	12	pof	_	_
10	meM	meM	PSP	psp	lex-meM|cat-psp|gen-|num-|pers-|case-|vib-|tam-|chunkId-NP5|chunkType-child|stype-|voicetype-	9	lwg__psp	_	_
11	nahIM	nahIM	NEG	avy	lex-nahIM|cat-avy|gen-|num-|pers-|case-|vib-|tam-|chunkId-VGF2|chunkType-child|stype-|voicetype-	12	lwg__neg	_	_
12	We	WA	VM	v	lex-WA|cat-v|gen-m|num-sg|pers-3h|case-|vib-WA|tam-WA|chunkId-VGF2|chunkType-head|stype-declarative|voicetype-active	3	ccof	_	_
13	ki	ki	CC	avy	lex-ki|cat-avy|gen-|num-|pers-|case-|vib-|tam-|chunkId-CCP2|chunkType-head|stype-|voicetype-	8	rs	_	_
14	betI	betI	NN	n	lex-betI|cat-n|gen-f|num-sg|pers-3|case-d|vib-0|tam-0|chunkId-NP6|chunkType-head|stype-|voicetype-	19	k1	_	_
15	ina	yaha	DEM	pn	lex-yaha|cat-pn|gen-any|num-pl|pers-3|case-o|vib-|tam-|chunkId-NP7|chunkType-child|stype-|voicetype-	16	nmod__adj	_	_
16	prawiyogiwAoM	prawiyogiwA	NN	n	lex-prawiyogiwA|cat-n|gen-f|num-pl|pers-3|case-o|vib-0_meM|tam-0|chunkId-NP7|chunkType-head|stype-|voicetype-	19	k7	_	_
17	meM	meM	PSP	psp	lex-meM|cat-psp|gen-|num-|pers-|case-|vib-|tam-|chunkId-NP7|chunkType-child|stype-|voicetype-	16	lwg__psp	_	_
18	BAga	BAga	NN	n	lex-BAga|cat-n|gen-m|num-sg|pers-3|case-d|vib-0|tam-0|chunkId-NP8|chunkType-head|stype-|voicetype-	19	pof	_	_
19	le	le	VM	v	lex-le|cat-v|gen-any|num-any|pers-any|case-|vib-0|tam-0|chunkId-VGF3|chunkType-head|stype-declarative|voicetype-active	13	ccof	_	_
20	.	.	SYM	punc	lex-.|cat-punc|gen-|num-|pers-|case-|vib-|tam-|chunkId-BLK|chunkType-head|stype-|voicetype-	2	rsym	_	_

1	lekina	lekina	CC	avy	lex-lekina|cat-avy|gen-|num-|pers-|case-|vib-|tam-|chunkId-CCP|chunkType-head|stype-|voicetype-	0	main	_	_
2	,	COMMA	SYM	punc	lex-COMMA|cat-punc|gen-|num-|pers-|case-|vib-|tam-|chunkId-CCP|chunkType-child|stype-|voicetype-	1	rsym	_	_
3	usakI	vaha	PRP	pn	lex-vaha|cat-pn|gen-f|num-sg|pers-3|case-o|vib-kA|tam-kA|chunkId-NP|chunkType-head|stype-|voicetype-	5	r6	_	_
4	xqDZa	xqDa	JJ	adj	lex-xqDa|cat-adj|gen-any|num-any|pers-|case-o|vib-|tam-|chunkId-NP2|chunkType-child|stype-|voicetype-	5	nmod__adj	_	_
5	icCA	icCA	NN	n	lex-icCA|cat-n|gen-f|num-sg|pers-3|case-o|vib-0_ke_Age|tam-0|chunkId-NP2|chunkType-head|stype-|voicetype-	9	k7	_	_
6	ke	ke	PSP	psp	lex-ke|cat-psp|gen-|num-|pers-|case-|vib-|tam-|chunkId-NP2|chunkType-child|stype-|voicetype-	5	lwg__psp	_	_
7	Age	Age	NST	nst	lex-Age|cat-nst|gen-m|num-sg|pers-3|case-d|vib-|tam-|chunkId-NP2|chunkType-child|stype-|voicetype-	5	lwg__psp	_	_
8	unheM	vaha	PRP	pn	lex-vaha|cat-pn|gen-any|num-sg|pers-3h|case-o|vib-ko|tam-ko|chunkId-NP3|chunkType-head|stype-|voicetype-	9	k1	_	_
9	JukanA	Juka	VM	v	lex-Juka|cat-v|gen-m|num-sg|pers-any|case-|vib-nA_pada+yA|tam-nA|chunkId-VGF|chunkType-head|stype-declarative|voicetype-active	1	ccof	_	_
10	padZA	pada	VAUX	v	lex-pada|cat-v|gen-m|num-sg|pers-any|case-|vib-yA|tam-yA|chunkId-VGF|chunkType-child|stype-|voicetype-	9	lwg__vaux	_	_
11	.	.	SYM	punc	lex-.|cat-punc|gen-|num-|pers-|case-|vib-|tam-|chunkId-BLK|chunkType-head|stype-|voicetype-	1	rsym	_	_

1	vaha	vaha	PRP	pn	lex-vaha|cat-pn|gen-any|num-sg|pers-3|case-d|vib-0|tam-0|chunkId-NP|chunkType-head|stype-|voicetype-	9	k1	_	_
2	SurU	SurU	NN	n	lex-SurU|cat-n|gen-m|num-sg|pers-3|case-o|vib-0_se|tam-0|chunkId-NP2|chunkType-head|stype-|voicetype-	9	k7t	_	_
3	se	se	PSP	psp	lex-se|cat-psp|gen-|num-|pers-|case-|vib-|tam-|chunkId-NP2|chunkType-child|stype-|voicetype-	2	lwg__psp	_	_
4	hI	hI	RP	avy	lex-hI|cat-avy|gen-|num-|pers-|case-|vib-|tam-|chunkId-NP2|chunkType-child|stype-|voicetype-	2	lwg__rp	_	_
5	anya	anya	JJ	adj	lex-anya|cat-adj|gen-any|num-any|pers-|case-o|vib-|tam-|chunkId-NP3|chunkType-child|stype-|voicetype-	6	nmod__adj	_	_
6	baccoM	baccA	NN	n	lex-baccA|cat-n|gen-m|num-pl|pers-3|case-o|vib-0_se|tam-0|chunkId-NP3|chunkType-head|stype-|voicetype-	9	k5	_	_
7	se	se	PSP	psp	lex-se|cat-psp|gen-|num-|pers-|case-|vib-|tam-|chunkId-NP3|chunkType-child|stype-|voicetype-	6	lwg__psp	_	_
8	alaga	alaga	JJ	adj	lex-alaga|cat-adj|gen-any|num-any|pers-|case-|vib-|tam-|chunkId-JJP|chunkType-head|stype-|voicetype-	9	k1s	_	_
9	WI	WA	VM	v	lex-WA|cat-v|gen-f|num-sg|pers-3|case-|vib-WA|tam-WA|chunkId-VGF|chunkType-head|stype-declarative|voicetype-active	0	main	_	_
10	.	.	SYM	punc	lex-.|cat-punc|gen-|num-|pers-|case-|vib-|tam-|chunkId-BLK|chunkType-head|stype-|voicetype-	9	rsym	_	_

1	kaI	kaI	QF	avy	lex-kaI|cat-avy|gen-|num-|pers-|case-|vib-|tam-|chunkId-NP|chunkType-child|stype-|voicetype-	2	nmod__adj	_	_
2	vijFApanoM	vijFApana	NN	n	lex-vijFApana|cat-n|gen-m|num-pl|pers-3|case-o|vib-0_meM|tam-0|chunkId-NP|chunkType-head|stype-|voicetype-	5	k7p	_	_
3	meM	meM	PSP	psp	lex-meM|cat-psp|gen-|num-|pers-|case-|vib-|tam-|chunkId-NP|chunkType-child|stype-|voicetype-	2	lwg__psp	_	_
4	mOYdaliMga	mOYdaliMga	NN	n	lex-mOYdaliMga|cat-n|gen-f|num-sg|pers-3|case-d|vib-0|tam-0|chunkId-NP2|chunkType-head|stype-|voicetype-	5	pof	_	_
5	kara	kara	VM	v	lex-kara|cat-v|gen-any|num-sg|pers-any|case-|vib-0_cuka+yA|tam-0|chunkId-VGNF|chunkType-head|stype-|voicetype-	7	nmod	_	_
6	cukI	cuka	VAUX	v	lex-cuka|cat-v|gen-f|num-sg|pers-any|case-|vib-yA|tam-yA|chunkId-VGNF|chunkType-child|stype-|voicetype-	5	lwg__vaux	_	_
7	sonala	sonala	NNP	n	lex-sonala|cat-n|gen-f|num-sg|pers-3|case-o|vib-0_ne|tam-0|chunkId-NP3|chunkType-head|stype-|voicetype-	18	k1	_	_
8	ne	ne	PSP	psp	lex-ne|cat-psp|gen-|num-|pers-|case-|vib-|tam-|chunkId-NP3|chunkType-child|stype-|voicetype-	7	lwg__psp	_	_
9	bIwI	bIwA	JJ	adj	lex-bIwA|cat-adj|gen-f|num-sg|pers-|case-d|vib-|tam-|chunkId-NP4|chunkType-child|stype-|voicetype-	10	nmod__adj	_	_
10	rAwa	rAwa	NN	n	lex-rAwa|cat-n|gen-f|num-sg|pers-3|case-d|vib-0|tam-0|chunkId-NP4|chunkType-head|stype-|voicetype-	18	k7t	_	_
11	jaba	jaba	PRP	pn	lex-jaba|cat-pn|gen-|num-|pers-|case-d|vib-|tam-|chunkId-NP5|chunkType-head|stype-|voicetype-	18	k7t	_	_
12	Kuxa	Kuxa	PRP	pn	lex-Kuxa|cat-pn|gen-|num-|pers-|case-d|vib-|tam-|chunkId-NP6|chunkType-head|stype-|voicetype-	14	k1	_	_
13	Pona	Pona	NN	n	lex-Pona|cat-n|gen-m|num-sg|pers-3|case-d|vib-0|tam-0|chunkId-NP7|chunkType-head|stype-|voicetype-	14	pof	_	_
14	kara	kara	VM	v	lex-kara|cat-v|gen-any|num-any|pers-any|case-|vib-0|tam-0|chunkId-VGNF2|chunkType-head|stype-|voicetype-	18	vmod	_	_
15	Gara	Gara	NN	n	lex-Gara|cat-n|gen-m|num-sg|pers-3|case-o|vib-0_vAlA_ko|tam-0|chunkId-NP8|chunkType-head|stype-|voicetype-	18	k4	_	_
16	vAloM	vAlA	PSP	psp	lex-vAlA|cat-psp|gen-m|num-pl|pers-|case-o|vib-|tam-|chunkId-NP8|chunkType-child|stype-|voicetype-	15	lwg__psp	_	_
17	ko	ko	PSP	psp	lex-ko|cat-psp|gen-|num-|pers-|case-|vib-|tam-|chunkId-NP8|chunkType-child|stype-|voicetype-	15	lwg__psp	_	_
18	bawAyA	bawA	VM	v	lex-bawA|cat-v|gen-m|num-sg|pers-any|case-|vib-yA|tam-yA|chunkId-VGF|chunkType-head|stype-declarative|voicetype-active	25	nmod__relc	_	_
19	ki	ki	CC	avy	lex-ki|cat-avy|gen-|num-|pers-|case-|vib-|tam-|chunkId-CCP|chunkType-head|stype-|voicetype-	18	k2	_	_
20	use	vaha	PRP	pn	lex-vaha|cat-pn|gen-any|num-sg|pers-3|case-o|vib-ko|tam-ko|chunkId-NP9|chunkType-head|stype-|voicetype-	22	k2	_	_
21	vijewA	vijewA	NN	n	lex-vijewA|cat-n|gen-m|num-sg|pers-3|case-d|vib-0|tam-0|chunkId-NP10|chunkType-head|stype-|voicetype-	22	k2s	_	_
22	cunA	cuna	VM	v	lex-cuna|cat-v|gen-m|num-sg|pers-3|case-|vib-yA_jA+yA1_hE|tam-yA|chunkId-VGF2|chunkType-head|stype-declarative|voicetype-passive	19	ccof	_	_
23	gayA	jA	VAUX	v	lex-jA|cat-v|gen-m|num-sg|pers-any|case-|vib-yA1|tam-yA1|chunkId-VGF2|chunkType-child|stype-|voicetype-	22	lwg__vaux	_	_
24	hE	hE	VAUX	v	lex-hE|cat-v|gen-any|num-sg|pers-3|case-|vib-hE|tam-hE|chunkId-VGF2|chunkType-child|stype-|voicetype-	22	lwg__vaux	_	_
25	wo	wo	PRP	pn	lex-wo|cat-pn|gen-|num-|pers-|case-|vib-|tam-|chunkId-NP11|chunkType-head|stype-|voicetype-	32	k7t	_	_
26	pUre	pUrA	JJ	adj	lex-pUrA|cat-adj|gen-m|num-sg|pers-|case-o|vib-|tam-|chunkId-NP12|chunkType-child|stype-|voicetype-	27	nmod__adj	_	_
27	Gara	Gara	NN	n	lex-Gara|cat-n|gen-m|num-sg|pers-3|case-o|vib-0_meM|tam-0|chunkId-NP12|chunkType-head|stype-|voicetype-	32	k7p	_	_
28	meM	meM	PSP	psp	lex-meM|cat-psp|gen-|num-|pers-|case-|vib-|tam-|chunkId-NP12|chunkType-child|stype-|voicetype-	27	lwg__psp	_	_
29	KuSI	KuSI	NN	n	lex-KuSI|cat-n|gen-f|num-sg|pers-3|case-o|vib-0_kA|tam-0|chunkId-NP13|chunkType-head|stype-|voicetype-	31	r6-k1	_	_
30	kI	kA	PSP	psp	lex-kA|cat-psp|gen-f|num-sg|pers-|case-d|vib-|tam-|chunkId-NP13|chunkType-child|stype-|voicetype-	29	lwg__psp	_	_
31	lahara	lahara	NN	n	lex-lahara|cat-n|gen-f|num-sg|pers-3|case-d|vib-0|tam-0|chunkId-NP14|chunkType-head|stype-|voicetype-	32	pof	_	_
32	xOdZa	xOda	VM	v	lex-xOda|cat-v|gen-any|num-sg|pers-any|case-|vib-0_jA+yA1|tam-0|chunkId-VGF3|chunkType-head|stype-declarative|voicetype-active	34	ccof	_	_
33	gaI	jA	VAUX	v	lex-jA|cat-v|gen-f|num-sg|pers-any|case-|vib-yA1|tam-yA1|chunkId-VGF3|chunkType-child|stype-|voicetype-	32	lwg__vaux	_	_
34	Ora	Ora	CC	avy	lex-Ora|cat-avy|gen-|num-|pers-|case-|vib-|tam-|chunkId-CCP2|chunkType-head|stype-|voicetype-	0	main	_	_
35	patAKe	patAKA	NN	n	lex-patAKA|cat-n|gen-m|num-pl|pers-3|case-d|vib-0|tam-0|chunkId-NP15|chunkType-head|stype-|voicetype-	36	k2	_	_
36	CodZe	Coda	VM	v	lex-Coda|cat-v|gen-m|num-pl|pers-any|case-|vib-yA_jA+yA1|tam-yA|chunkId-VGF4|chunkType-head|stype-declarative|voicetype-passive	34	ccof	_	_
37	gae	jA	VAUX	v	lex-jA|cat-v|gen-m|num-pl|pers-any|case-|vib-yA1|tam-yA1|chunkId-VGF4|chunkType-child|stype-|voicetype-	36	lwg__vaux	_	_
38	.	.	SYM	punc	lex-.|cat-punc|gen-|num-|pers-|case-|vib-|tam-|chunkId-BLK|chunkType-head|stype-|voicetype-	34	rsym	_	_

