1	rARtrIya	rARtrIya	NNPC	adj	lex-rARtrIya|cat-adj|gen-any|num-any|pers-|case-o|vib-|tam-|chunkId-NP|chunkType-child|stype-|voicetype-	3	pof__cn	_	_
2	upaBokwA	upaBokwA	NNPC	n	lex-upaBokwA|cat-n|gen-m|num-sg|pers-3|case-d|vib-0|tam-0|chunkId-NP|chunkType-child|stype-|voicetype-	3	pof__cn	_	_
3	Ayoga	Ayoga	NNP	n	lex-Ayoga|cat-n|gen-m|num-sg|pers-3|case-o|vib-0_ne|tam-0|chunkId-NP|chunkType-head|stype-|voicetype-	5	k1	_	_
4	ne	ne	PSP	psp	lex-ne|cat-psp|gen-|num-|pers-|case-|vib-|tam-|chunkId-NP|chunkType-child|stype-|voicetype-	3	lwg__psp	_	_
5	kahA	kaha	VM	v	lex-kaha|cat-v|gen-m|num-sg|pers-3|case-|vib-yA_hE|tam-yA|chunkId-VGF|chunkType-head|stype-declarative|voicetype-active	0	main	_	_
6	hE	hE	VAUX	v	lex-hE|cat-v|gen-any|num-sg|pers-3|case-|vib-hE|tam-hE|chunkId-VGF|chunkType-child|stype-|voicetype-	5	lwg__vaux	_	_
7	ki	ki	CC	avy	lex-ki|cat-avy|gen-|num-|pers-|case-|vib-|tam-|chunkId-CCP|chunkType-head|stype-|voicetype-	5	k2	_	_
8	bEMka	bEMka	NN	n	lex-bEMka|cat-n|gen-m|num-sg|pers-3|case-d|vib-0|tam-0|chunkId-NP2|chunkType-head|stype-|voicetype-	18	k1	_	_
9	binA	binA	RP	avy	lex-binA|cat-avy|gen-|num-|pers-|case-|vib-|tam-|chunkId-NEGP|chunkType-head|stype-|voicetype-	11	nmod	_	_
10	pUrva	pUrva	JJ	adj	lex-pUrva|cat-adj|gen-any|num-any|pers-|case-o|vib-|tam-|chunkId-NP3|chunkType-child|stype-|voicetype-	11	nmod__adj	_	_
11	notisa	notisa	NN	n	lex-notisa|cat-n|gen-m|num-sg|pers-3|case-o|vib-0_kA|tam-0|chunkId-NP3|chunkType-head|stype-|voicetype-	18	ras-NEG	_	_
12	ke	kA	PSP	psp	lex-kA|cat-psp|gen-m|num-sg|pers-|case-o|vib-|tam-|chunkId-NP3|chunkType-child|stype-|voicetype-	11	lwg__psp	_	_
13	lona	lona	NNC	n	lex-lona|cat-n|gen-m|num-sg|pers-3|case-d|vib-0|tam-0|chunkId-NP4|chunkType-child|stype-|voicetype-	14	pof__cn	_	_
14	gAraMtara	gAraMtara	NN	n	lex-gAraMtara|cat-n|gen-m|num-sg|pers-3|case-o|vib-0_se|tam-0|chunkId-NP4|chunkType-head|stype-|voicetype-	18	k5	_	_
15	se	se	PSP	psp	lex-se|cat-psp|gen-|num-|pers-|case-|vib-|tam-|chunkId-NP4|chunkType-child|stype-|voicetype-	14	lwg__psp	_	_
16	pEsA	pEsA	NN	n	lex-pEsA|cat-n|gen-m|num-sg|pers-3|case-d|vib-0|tam-0|chunkId-NP5|chunkType-head|stype-|voicetype-	18	k2	_	_
17	nahIM	nahIM	NEG	avy	lex-nahIM|cat-avy|gen-|num-|pers-|case-|vib-|tam-|chunkId-VGF2|chunkType-child|stype-|voicetype-	18	lwg__neg	_	_
18	le	le	VM	v	lex-le|cat-v|gen-m|num-sg|pers-3|case-|vib-0_saka+wA_hE|tam-0|chunkId-VGF2|chunkType-head|stype-declarative|voicetype-active	7	ccof	_	_
19	sakawA	saka	VAUX	v	lex-saka|cat-v|gen-m|num-sg|pers-any|case-|vib-wA|tam-wA|chunkId-VGF2|chunkType-child|stype-|voicetype-	18	lwg__vaux	_	_
20	hE	hE	VAUX	v	lex-hE|cat-v|gen-any|num-sg|pers-3|case-|vib-hE|tam-hE|chunkId-VGF2|chunkType-child|stype-|voicetype-	18	lwg__vaux	_	_
21	.	.	SYM	punc	lex-.|cat-punc|gen-|num-|pers-|case-|vib-|tam-|chunkId-BLK|chunkType-head|stype-|voicetype-	5	rsym	_	_

1	jastisa	jastisa	NNC	n	lex-jastisa|cat-n|gen-m|num-sg|pers-3|case-d|vib-0|tam-0|chunkId-NP|chunkType-head|stype-|voicetype-	4	nmod	_	_
2	ema.	ema.	NNPC	n	lex-ema.|cat-n|gen-m|num-sg|pers-3|case-d|vib-0|tam-0|chunkId-NP2|chunkType-child|stype-|voicetype-	4	pof__cn	_	_
3	bI.	bI.	NNPC	n	lex-bI.|cat-n|gen-m|num-sg|pers-3|case-d|vib-0|tam-0|chunkId-NP2|chunkType-child|stype-|voicetype-	4	pof__cn	_	_
4	SAha	SAha	NNP	n	lex-SAha|cat-n|gen-m|num-sg|pers-3|case-o|vib-0|tam-0|chunkId-NP2|chunkType-head|stype-|voicetype-	5	ccof	_	_
5	Ora	Ora	CC	avy	lex-Ora|cat-avy|gen-|num-|pers-|case-|vib-|tam-|chunkId-CCP|chunkType-head|stype-|voicetype-	13	nmod	_	_
6	rAjyalakRmI	rAjyalakRmI	NNPC	n	lex-rAjyalakRmI|cat-n|gen-f|num-sg|pers-3|case-d|vib-0|tam-0|chunkId-NP3|chunkType-child|stype-|voicetype-	7	pof__cn	_	_
7	rAva	rAva	NNP	n	lex-rAva|cat-n|gen-any|num-sg|pers-3|case-o|vib-0_vAlA|tam-0|chunkId-NP3|chunkType-head|stype-|voicetype-	5	ccof	_	_
8	vAlI	vAlA	PSP	psp	lex-vAlA|cat-psp|gen-f|num-sg|pers-|case-o|vib-|tam-|chunkId-NP3|chunkType-child|stype-|voicetype-	7	lwg__psp	_	_
9	rARtrIya	rARtrIya	NNPC	adj	lex-rARtrIya|cat-adj|gen-any|num-any|pers-|case-o|vib-|tam-|chunkId-NP4|chunkType-child|stype-|voicetype-	13	pof__cn	_	_
10	upaBokwA	upaBokwA	NNPC	n	lex-upaBokwA|cat-n|gen-m|num-sg|pers-3|case-d|vib-0|tam-0|chunkId-NP4|chunkType-child|stype-|voicetype-	13	pof__cn	_	_
11	vivAxa	vivAxa	NNPC	n	lex-vivAxa|cat-n|gen-m|num-sg|pers-3|case-d|vib-0|tam-0|chunkId-NP4|chunkType-child|stype-|voicetype-	13	pof__cn	_	_
12	nivAraNa	nivAraNa	NNPC	n	lex-nivAraNa|cat-n|gen-m|num-sg|pers-3|case-d|vib-0|tam-0|chunkId-NP4|chunkType-child|stype-|voicetype-	13	pof__cn	_	_
13	Ayoga	Ayoga	NNP	n	lex-Ayoga|cat-n|gen-m|num-sg|pers-3|case-o|vib-0_kA|tam-0|chunkId-NP4|chunkType-head|stype-|voicetype-	15	r6	_	_
14	kI	kA	PSP	psp	lex-kA|cat-psp|gen-f|num-sg|pers-|case-o|vib-|tam-|chunkId-NP4|chunkType-child|stype-|voicetype-	13	lwg__psp	_	_
15	KaMdapITa	KaMdapITa	NN	n	lex-KaMdapITa|cat-n|gen-f|num-sg|pers-3|case-o|vib-0_ne|tam-0|chunkId-NP5|chunkType-head|stype-|voicetype-	39	k1	_	_
16	ne	ne	PSP	psp	lex-ne|cat-psp|gen-|num-|pers-|case-|vib-|tam-|chunkId-NP5|chunkType-child|stype-|voicetype-	15	lwg__psp	_	_
17	lona	lona	NNC	n	lex-lona|cat-n|gen-m|num-sg|pers-3|case-d|vib-0|tam-0|chunkId-NP6|chunkType-child|stype-|voicetype-	18	pof__cn	_	_
18	gAraMtara	gAraMtara	NN	n	lex-gAraMtara|cat-n|gen-m|num-sg|pers-3|case-o|vib-0|tam-0|chunkId-NP6|chunkType-head|stype-|voicetype-	22	nmod	_	_
19	vAI.	vAI.	NNPC	n	lex-vAI.|cat-n|gen-m|num-sg|pers-3|case-d|vib-0|tam-0|chunkId-NP7|chunkType-child|stype-|voicetype-	22	pof__cn	_	_
20	jI.	jI.	NNPC	n	lex-jI.|cat-n|gen-m|num-sg|pers-3|case-d|vib-0|tam-0|chunkId-NP7|chunkType-child|stype-|voicetype-	22	pof__cn	_	_
21	SrIrAma	SrIrAma	NNPC	n	lex-SrIrAma|cat-n|gen-m|num-sg|pers-3|case-d|vib-0|tam-0|chunkId-NP7|chunkType-child|stype-|voicetype-	22	pof__cn	_	_
22	SettI	SettI	NNP	n	lex-SettI|cat-n|gen-m|num-sg|pers-3|case-o|vib-0_kA|tam-0|chunkId-NP7|chunkType-head|stype-|voicetype-	24	r6	_	_
23	ke	kA	PSP	psp	lex-kA|cat-psp|gen-m|num-sg|pers-|case-o|vib-|tam-|chunkId-NP7|chunkType-child|stype-|voicetype-	22	lwg__psp	_	_
24	KAwe	KAwA	NN	n	lex-KAwA|cat-n|gen-m|num-sg|pers-3|case-o|vib-0_se|tam-0|chunkId-NP8|chunkType-head|stype-|voicetype-	27	k5	_	_
25	se	se	PSP	psp	lex-se|cat-psp|gen-|num-|pers-|case-|vib-|tam-|chunkId-NP8|chunkType-child|stype-|voicetype-	24	lwg__psp	_	_
26	pEsA	pEsA	NN	n	lex-pEsA|cat-n|gen-m|num-sg|pers-3|case-d|vib-0|tam-0|chunkId-NP9|chunkType-head|stype-|voicetype-	27	k2	_	_
27	lene	le	VM	v	lex-le|cat-v|gen-any|num-sg|pers-any|case-o|vib-nA_vAlA|tam-nA|chunkId-VGNN|chunkType-head|stype-|voicetype-	31	nmod	_	_
28	vAle	vAlA	PSP	psp	lex-vAlA|cat-psp|gen-m|num-sg|pers-|case-o|vib-|tam-|chunkId-VGNN|chunkType-child|stype-|voicetype-	27	lwg__psp	_	_
29	AIenajI	AIenajI	NNPC	n	lex-AIenajI|cat-n|gen-m|num-sg|pers-3|case-d|vib-0|tam-0|chunkId-NP10|chunkType-child|stype-|voicetype-	31	pof__cn	_	_
30	vESya	vESya	NNPC	n	lex-vESya|cat-n|gen-m|num-sg|pers-3|case-d|vib-0|tam-0|chunkId-NP10|chunkType-child|stype-|voicetype-	31	pof__cn	_	_
31	bEMka	bEMka	NNP	n	lex-bEMka|cat-n|gen-m|num-sg|pers-3|case-o|vib-0_kA|tam-0|chunkId-NP10|chunkType-head|stype-|voicetype-	33	r6	_	_
32	kI	kA	PSP	psp	lex-kA|cat-psp|gen-f|num-sg|pers-|case-d|vib-|tam-|chunkId-NP10|chunkType-child|stype-|voicetype-	31	lwg__psp	_	_
33	yAcikA	yAcikA	NN	n	lex-yAcikA|cat-n|gen-f|num-sg|pers-3|case-d|vib-0|tam-0|chunkId-NP11|chunkType-head|stype-|voicetype-	35	k2	_	_
34	KArija	KArija	JJ	adj	lex-KArija|cat-adj|gen-any|num-any|pers-|case-|vib-|tam-|chunkId-JJP|chunkType-head|stype-|voicetype-	35	pof	_	_
35	karawe	kara	VM	v	lex-kara|cat-v|gen-m|num-sg|pers-any|case-|vib-wA_ho+yA|tam-wA|chunkId-VGNF|chunkType-head|stype-|voicetype-	39	vmod	_	_
36	hue	ho	VAUX	v	lex-ho|cat-v|gen-m|num-sg|pers-any|case-|vib-yA|tam-yA|chunkId-VGNF|chunkType-child|stype-|voicetype-	35	lwg__vaux	_	_
37	yaha	yaha	DEM	pn	lex-yaha|cat-pn|gen-any|num-sg|pers-3|case-d|vib-|tam-|chunkId-NP12|chunkType-child|stype-|voicetype-	38	nmod__adj	_	_
38	AxeSa	AxeSa	NN	n	lex-AxeSa|cat-n|gen-m|num-sg|pers-3|case-d|vib-0|tam-0|chunkId-NP12|chunkType-head|stype-|voicetype-	39	k2	_	_
39	xie	xe	VM	v	lex-xe|cat-v|gen-m|num-sg|pers-3h|case-|vib-yA|tam-yA|chunkId-VGF|chunkType-head|stype-declarative|voicetype-active	0	main	_	_
40	.	.	SYM	punc	lex-.|cat-punc|gen-|num-|pers-|case-|vib-|tam-|chunkId-BLK|chunkType-head|stype-|voicetype-	39	rsym	_	_

1	KaMdapITa	KaMdapITa	NN	n	lex-KaMdapITa|cat-n|gen-f|num-sg|pers-3|case-o|vib-0_ne|tam-0|chunkId-NP|chunkType-head|stype-|voicetype-	13	k1	_	_
2	ne	ne	PSP	psp	lex-ne|cat-psp|gen-|num-|pers-|case-|vib-|tam-|chunkId-NP|chunkType-child|stype-|voicetype-	1	lwg__psp	_	_
3	bEMka	bEMka	NN	n	lex-bEMka|cat-n|gen-m|num-sg|pers-3|case-o|vib-0_se|tam-0|chunkId-NP2|chunkType-head|stype-|voicetype-	10	k5	_	_
4	se	se	PSP	psp	lex-se|cat-psp|gen-|num-|pers-|case-|vib-|tam-|chunkId-NP2|chunkType-child|stype-|voicetype-	3	lwg__psp	_	_
5	SettI	SettI	NNP	n	lex-SettI|cat-n|gen-m|num-sg|pers-3|case-o|vib-0_ko|tam-0|chunkId-NP3|chunkType-head|stype-|voicetype-	10	k4	_	_
6	ko	ko	PSP	psp	lex-ko|cat-psp|gen-|num-|pers-|case-|vib-|tam-|chunkId-NP3|chunkType-child|stype-|voicetype-	5	lwg__psp	_	_
7	pAMca	pAMca	QCC	num	lex-pAMca|cat-num|gen-any|num-any|pers-|case-any|vib-|tam-|chunkId-NP4|chunkType-child|stype-|voicetype-	9	mod	_	_
8	hajAra	hajAra	QC	num	lex-hajAra|cat-num|gen-any|num-any|pers-|case-any|vib-|tam-|chunkId-NP4|chunkType-child|stype-|voicetype-	9	nmod__adj	_	_
9	rupaye	rupayA	NN	n	lex-rupayA|cat-n|gen-m|num-pl|pers-3|case-d|vib-0|tam-0|chunkId-NP4|chunkType-head|stype-|voicetype-	10	k2	_	_
10	xene	xe	VM	v	lex-xe|cat-v|gen-any|num-pl|pers-any|case-o|vib-nA_kA|tam-nA|chunkId-VGNN|chunkType-head|stype-|voicetype-	12	r6	_	_
11	ke	kA	PSP	psp	lex-kA|cat-psp|gen-m|num-pl|pers-|case-d|vib-|tam-|chunkId-VGNN|chunkType-child|stype-|voicetype-	10	lwg__psp	_	_
12	nirxeSa	nirxeSa	NN	n	lex-nirxeSa|cat-n|gen-m|num-pl|pers-3|case-d|vib-0|tam-0|chunkId-NP5|chunkType-head|stype-|voicetype-	13	k2	_	_
13	xie	xe	VM	v	lex-xe|cat-v|gen-m|num-pl|pers-any|case-|vib-yA|tam-yA|chunkId-VGF|chunkType-head|stype-declarative|voicetype-active	0	main	_	_
14	.	.	SYM	punc	lex-.|cat-punc|gen-|num-|pers-|case-|vib-|tam-|chunkId-BLK|chunkType-head|stype-|voicetype-	13	rsym	_	_

1	bEMka	bEMka	NN	n	lex-bEMka|cat-n|gen-m|num-sg|pers-3|case-o|vib-0_ne|tam-0|chunkId-NP|chunkType-head|stype-|voicetype-	21	k1	_	_
2	ne	ne	PSP	psp	lex-ne|cat-psp|gen-|num-|pers-|case-|vib-|tam-|chunkId-NP|chunkType-child|stype-|voicetype-	1	lwg__psp	_	_
3	yAcikA	yAcikA	NN	n	lex-yAcikA|cat-n|gen-f|num-sg|pers-3|case-o|vib-0_meM|tam-0|chunkId-NP2|chunkType-head|stype-|voicetype-	21	k7	_	_
4	meM	meM	PSP	psp	lex-meM|cat-psp|gen-|num-|pers-|case-|vib-|tam-|chunkId-NP2|chunkType-child|stype-|voicetype-	3	lwg__psp	_	_
5	karnAtaka	karnAtaka	NNPC	n	lex-karnAtaka|cat-n|gen-m|num-sg|pers-3|case-d|vib-0|tam-0|chunkId-NP3|chunkType-child|stype-|voicetype-	8	pof__cn	_	_
6	rAjya	rAjya	NNPC	n	lex-rAjya|cat-n|gen-m|num-sg|pers-3|case-d|vib-0|tam-0|chunkId-NP3|chunkType-child|stype-|voicetype-	8	pof__cn	_	_
7	upaBokwA	upaBokwA	NNPC	n	lex-upaBokwA|cat-n|gen-m|num-sg|pers-3|case-d|vib-0|tam-0|chunkId-NP3|chunkType-child|stype-|voicetype-	8	pof__cn	_	_
8	Ayoga	Ayoga	NNP	n	lex-Ayoga|cat-n|gen-m|num-sg|pers-3|case-o|vib-0_kA|tam-0|chunkId-NP3|chunkType-head|stype-|voicetype-	12	r6	_	_
9	ke	kA	PSP	psp	lex-kA|cat-psp|gen-m|num-sg|pers-|case-o|vib-|tam-|chunkId-NP3|chunkType-child|stype-|voicetype-	8	lwg__psp	_	_
10	usakI	vaha	PRP	pn	lex-vaha|cat-pn|gen-f|num-sg|pers-3|case-o|vib-kA|tam-kA|chunkId-NP4|chunkType-head|stype-|voicetype-	12	r6	_	_
11	isa	yaha	DEM	pn	lex-yaha|cat-pn|gen-any|num-sg|pers-3|case-o|vib-|tam-|chunkId-NP5|chunkType-child|stype-|voicetype-	12	nmod__adj	_	_
12	kArravAI	kArravAI	NN	n	lex-kArravAI|cat-n|gen-f|num-sg|pers-3|case-o|vib-0_ko|tam-0|chunkId-NP5|chunkType-head|stype-|voicetype-	16	k4	_	_
13	ko	ko	PSP	psp	lex-ko|cat-psp|gen-|num-|pers-|case-|vib-|tam-|chunkId-NP5|chunkType-child|stype-|voicetype-	12	lwg__psp	_	_
14	anyAyapUrNa	anyAyapUrNa	JJ	adj	lex-anyAyapUrNa|cat-adj|gen-any|num-any|pers-|case-d|vib-|tam-|chunkId-NP6|chunkType-child|stype-|voicetype-	15	nmod__adj	_	_
15	karAra	karAra	NN	n	lex-karAra|cat-n|gen-m|num-sg|pers-3|case-d|vib-0|tam-0|chunkId-NP6|chunkType-head|stype-|voicetype-	16	pof	_	_
16	xene	xe	VM	v	lex-xe|cat-v|gen-any|num-sg|pers-any|case-o|vib-nA_kA|tam-nA|chunkId-VGNN|chunkType-head|stype-|voicetype-	18	r6	_	_
17	ke	kA	PSP	psp	lex-kA|cat-psp|gen-m|num-sg|pers-|case-o|vib-|tam-|chunkId-VGNN|chunkType-child|stype-|voicetype-	16	lwg__psp	_	_
18	PEsale	PEsalA	NN	n	lex-PEsalA|cat-n|gen-m|num-sg|pers-3|case-o|vib-0_ko|tam-0|chunkId-NP7|chunkType-head|stype-|voicetype-	21	k4	_	_
19	ko	ko	PSP	psp	lex-ko|cat-psp|gen-|num-|pers-|case-|vib-|tam-|chunkId-NP7|chunkType-child|stype-|voicetype-	18	lwg__psp	_	_
20	cunOwI	cunOwI	NN	n	lex-cunOwI|cat-n|gen-f|num-sg|pers-3|case-d|vib-0|tam-0|chunkId-NP8|chunkType-head|stype-|voicetype-	21	pof	_	_
21	xI	xe	VM	v	lex-xe|cat-v|gen-f|num-sg|pers-any|case-|vib-yA_WA|tam-yA|chunkId-VGF|chunkType-head|stype-declarative|voicetype-active	0	main	_	_
22	WI	WA	VAUX	v	lex-WA|cat-v|gen-f|num-sg|pers-any|case-|vib-WA|tam-WA|chunkId-VGF|chunkType-child|stype-|voicetype-	21	lwg__vaux	_	_
23	.	.	SYM	punc	lex-.|cat-punc|gen-|num-|pers-|case-|vib-|tam-|chunkId-BLK|chunkType-head|stype-|voicetype-	21	rsym	_	_

1	jabaki	jabaki	CC	avy	lex-jabaki|cat-avy|gen-|num-|pers-|case-|vib-|tam-|chunkId-CCP|chunkType-head|stype-|voicetype-	0	main	_	_
2	SettI	SettI	NNP	n	lex-SettI|cat-n|gen-m|num-sg|pers-3|case-d|vib-0|tam-0|chunkId-NP|chunkType-head|stype-|voicetype-	25	k1	_	_
3	1983	1983	NNP	n	lex-1983|cat-n|gen-m|num-sg|pers-3|case-d|vib-0|tam-0|chunkId-NP2|chunkType-child|stype-|voicetype-	5	nmod__adj	_	_
4	-	-	SYM	punc	lex--|cat-punc|gen-|num-|pers-|case-|vib-|tam-|chunkId-NP2|chunkType-child|stype-|voicetype-	5	rsym	_	_
5	84	84	NNP	n	lex-84|cat-n|gen-m|num-sg|pers-3|case-o|vib-0_meM|tam-0|chunkId-NP2|chunkType-head|stype-|voicetype-	17	k7	_	_
6	meM	meM	PSP	psp	lex-meM|cat-psp|gen-|num-|pers-|case-|vib-|tam-|chunkId-NP2|chunkType-child|stype-|voicetype-	5	lwg__psp	_	_
7	bEMka	bEMka	NN	n	lex-bEMka|cat-n|gen-m|num-sg|pers-3|case-o|vib-0_kA_ora_se|tam-0|chunkId-NP3|chunkType-head|stype-|voicetype-	17	rd	_	_
8	kI	kA	PSP	psp	lex-kA|cat-psp|gen-f|num-sg|pers-|case-o|vib-|tam-|chunkId-NP3|chunkType-child|stype-|voicetype-	7	lwg__psp	_	_
9	ora	ora	NST	nst	lex-ora|cat-nst|gen-f|num-sg|pers-3|case-o|vib-|tam-|chunkId-NP3|chunkType-child|stype-|voicetype-	7	lwg__psp	_	_
10	se	se	PSP	psp	lex-se|cat-psp|gen-|num-|pers-|case-|vib-|tam-|chunkId-NP3|chunkType-child|stype-|voicetype-	7	lwg__psp	_	_
11	baMgalora	baMgalora	NNP	n	lex-baMgalora|cat-n|gen-m|num-sg|pers-3|case-d|vib-0|tam-0|chunkId-NP4|chunkType-head|stype-|voicetype-	12	jjmod	_	_
12	sWiwa	sWiwa	JJ	adj	lex-sWiwa|cat-adj|gen-any|num-any|pers-|case-o|vib-|tam-|chunkId-JJP|chunkType-head|stype-|voicetype-	15	nmod	_	_
13	mEsarsa	mEsarsa	NNPC	n	lex-mEsarsa|cat-n|gen-m|num-sg|pers-3|case-d|vib-0|tam-0|chunkId-NP5|chunkType-child|stype-|voicetype-	15	pof__cn	_	_
14	gOwama	gOwama	NNPC	n	lex-gOwama|cat-n|gen-m|num-sg|pers-3|case-d|vib-0|tam-0|chunkId-NP5|chunkType-child|stype-|voicetype-	15	pof__cn	_	_
15	iMtaraprAijeja	iMtaraprAijeja	NNP	n	lex-iMtaraprAijeja|cat-n|gen-m|num-sg|pers-3|case-o|vib-0_ko|tam-0|chunkId-NP5|chunkType-head|stype-|voicetype-	17	k4	_	_
16	ko	ko	PSP	psp	lex-ko|cat-psp|gen-|num-|pers-|case-|vib-|tam-|chunkId-NP5|chunkType-child|stype-|voicetype-	15	lwg__psp	_	_
17	xie	xe	VM	v	lex-xe|cat-v|gen-m|num-sg|pers-any|case-|vib-yA_jA+yA1|tam-yA|chunkId-VGNF|chunkType-head|stype-|voicetype-	25	vmod	_	_
18	gae	jA	VAUX	v	lex-jA|cat-v|gen-m|num-sg|pers-any|case-|vib-yA1|tam-yA1|chunkId-VGNF|chunkType-child|stype-|voicetype-	17	lwg__vaux	_	_
19	80,000	80000	QC	num	lex-80000|cat-num|gen-any|num-any|pers-|case-any|vib-|tam-|chunkId-NP6|chunkType-child|stype-|voicetype-	20	nmod__adj	_	_
20	rupaye	rupayA	NN	n	lex-rupayA|cat-n|gen-m|num-sg|pers-3|case-o|vib-0_kA|tam-0|chunkId-NP6|chunkType-head|stype-|voicetype-	22	r6	_	_
21	ke	kA	PSP	psp	lex-kA|cat-psp|gen-m|num-sg|pers-|case-o|vib-|tam-|chunkId-NP6|chunkType-child|stype-|voicetype-	20	lwg__psp	_	_
22	qNa	qNa	NN	n	lex-qNa|cat-n|gen-m|num-sg|pers-3|case-o|vib-0_kA|tam-0|chunkId-NP7|chunkType-head|stype-|voicetype-	24	r6	_	_
23	ke	kA	PSP	psp	lex-kA|cat-psp|gen-m|num-sg|pers-3h|case-d|vib-|tam-|chunkId-NP7|chunkType-child|stype-|voicetype-	22	lwg__psp	_	_
24	gAraMtara	gAraMtara	NN	n	lex-gAraMtara|cat-n|gen-m|num-sg|pers-3|case-d|vib-0|tam-0|chunkId-NP8|chunkType-head|stype-|voicetype-	25	k1s	_	_
25	We	WA	VM	v	lex-WA|cat-v|gen-m|num-sg|pers-3h|case-|vib-WA|tam-WA|chunkId-VGF|chunkType-head|stype-declarative|voicetype-active	1	ccof	_	_
26	.	.	SYM	punc	lex-.|cat-punc|gen-|num-|pers-|case-|vib-|tam-|chunkId-BLK|chunkType-head|stype-|voicetype-	1	rsym	_	_

1	jabaki	jabaki	CC	avy	lex-jabaki|cat-avy|gen-|num-|pers-|case-|vib-|tam-|chunkId-CCP|chunkType-head|stype-|voicetype-	0	main	_	_
2	SettI	SettI	NNP	n	lex-SettI|cat-n|gen-m|num-sg|pers-3|case-o|vib-0_kA|tam-0|chunkId-NP|chunkType-head|stype-|voicetype-	5	r6	_	_
3	kI	kA	PSP	psp	lex-kA|cat-psp|gen-f|num-pl|pers-|case-d|vib-|tam-|chunkId-NP|chunkType-child|stype-|voicetype-	2	lwg__psp	_	_
4	40,490	40490	QC	num	lex-40490|cat-num|gen-any|num-any|pers-|case-any|vib-|tam-|chunkId-NP2|chunkType-child|stype-|voicetype-	5	nmod__adj	_	_
5	rupaye	rupayA	NN	n	lex-rupayA|cat-n|gen-m|num-sg|pers-3|case-o|vib-0|tam-0|chunkId-NP2|chunkType-head|stype-|voicetype-	6	ccof	_	_
6	Ora	Ora	CC	avy	lex-Ora|cat-avy|gen-|num-|pers-|case-|vib-|tam-|chunkId-CCP2|chunkType-head|stype-|voicetype-	12	r6	_	_
7	60,735	60735	QC	num	lex-60735|cat-num|gen-any|num-any|pers-|case-any|vib-|tam-|chunkId-NP3|chunkType-child|stype-|voicetype-	8	nmod__adj	_	_
8	rupaye	rupayA	NN	n	lex-rupayA|cat-n|gen-m|num-sg|pers-3|case-o|vib-0_kA|tam-0|chunkId-NP3|chunkType-head|stype-|voicetype-	6	ccof	_	_
9	ke	kA	PSP	psp	lex-kA|cat-psp|gen-m|num-pl|pers-|case-o|vib-|tam-|chunkId-NP3|chunkType-child|stype-|voicetype-	8	lwg__psp	_	_
10	xo	xo	QC	num	lex-xo|cat-num|gen-any|num-any|pers-|case-any|vib-|tam-|chunkId-NP4|chunkType-child|stype-|voicetype-	12	nmod__adj	_	_
11	Piksda	Piksda	NNC	adj	lex-Piksda|cat-adj|gen-any|num-any|pers-|case-o|vib-|tam-|chunkId-NP4|chunkType-child|stype-|voicetype-	12	pof__cn	_	_
12	dipojita	dipojita	NN	n	lex-dipojita|cat-n|gen-m|num-sg|pers-3|case-o|vib-0_kA|tam-0|chunkId-NP4|chunkType-head|stype-|voicetype-	14	r6	_	_
13	kI	kA	PSP	psp	lex-kA|cat-psp|gen-f|num-pl|pers-|case-d|vib-|tam-|chunkId-NP4|chunkType-child|stype-|voicetype-	12	lwg__psp	_	_
14	rasIxeM	rasIxa	NN	n	lex-rasIxa|cat-n|gen-f|num-pl|pers-3|case-d|vib-0|tam-0|chunkId-NP5|chunkType-head|stype-|voicetype-	22	k1	_	_
15	yAcI	yAcI	JJ	adj	lex-yAcI|cat-adj|gen-any|num-any|pers-|case-o|vib-|tam-|chunkId-NP6|chunkType-child|stype-|voicetype-	16	nmod__adj	_	_
16	bEMka	bEMka	NN	n	lex-bEMka|cat-n|gen-m|num-sg|pers-3|case-o|vib-0_kA|tam-0|chunkId-NP6|chunkType-head|stype-|voicetype-	19	r6	_	_
17	kI	kA	PSP	psp	lex-kA|cat-psp|gen-f|num-sg|pers-|case-o|vib-|tam-|chunkId-NP6|chunkType-child|stype-|voicetype-	16	lwg__psp	_	_
18	anya	anya	JJ	adj	lex-anya|cat-adj|gen-any|num-any|pers-|case-o|vib-|tam-|chunkId-NP7|chunkType-child|stype-|voicetype-	19	nmod__adj	_	_
19	SAKA	SAKA	NN	n	lex-SAKA|cat-n|gen-f|num-sg|pers-3|case-o|vib-0_ke_pAsa|tam-0|chunkId-NP7|chunkType-head|stype-|voicetype-	22	k7	_	_
20	ke	ke	PSP	psp	lex-ke|cat-psp|gen-|num-|pers-|case-|vib-|tam-|chunkId-NP7|chunkType-child|stype-|voicetype-	19	lwg__psp	_	_
21	pAsa	pAsa	NST	nst	lex-pAsa|cat-nst|gen-m|num-sg|pers-3|case-d|vib-|tam-|chunkId-NP7|chunkType-child|stype-|voicetype-	19	lwg__psp	_	_
22	WI	WA	VM	v	lex-WA|cat-v|gen-f|num-pl|pers-any|case-|vib-WA|tam-WA|chunkId-VGF|chunkType-head|stype-declarative|voicetype-active	1	ccof	_	_
23	,	COMMA	SYM	punc	lex-COMMA|cat-punc|gen-|num-|pers-|case-|vib-|tam-|chunkId-VGF|chunkType-child|stype-|voicetype-	22	rsym	_	_
24	jo	jo	PRP	pn	lex-jo|cat-pn|gen-any|num-pl|pers-3|case-d|vib-0|tam-0|chunkId-NP8|chunkType-head|stype-|voicetype-	33	k1	_	_
25	bEMka	bEMka	NN	n	lex-bEMka|cat-n|gen-m|num-sg|pers-3|case-o|vib-0_ke_pAsa|tam-0|chunkId-NP9|chunkType-head|stype-|voicetype-	33	k7	_	_
26	ke	ke	PSP	psp	lex-ke|cat-psp|gen-|num-|pers-|case-|vib-|tam-|chunkId-NP9|chunkType-child|stype-|voicetype-	25	lwg__psp	_	_
27	pAsa	pAsa	NST	nst	lex-pAsa|cat-nst|gen-m|num-sg|pers-3|case-d|vib-|tam-|chunkId-NP9|chunkType-child|stype-|voicetype-	25	lwg__psp	_	_
28	jamAnawa	jamAnawa	NN	n	lex-jamAnawa|cat-n|gen-f|num-sg|pers-3|case-o|vib-0_ke_wOra_para|tam-0|chunkId-NP10|chunkType-head|stype-|voicetype-	33	k7	_	_
29	ke	ke	PSP	psp	lex-ke|cat-psp|gen-m|num-|pers-|case-o|vib-|tam-|chunkId-NP10|chunkType-child|stype-|voicetype-	28	lwg__psp	_	_
30	wOra	wOra	PSP	n	lex-wOra|cat-n|gen-m|num-|pers-|case-o|vib-|tam-|chunkId-NP10|chunkType-child|stype-|voicetype-	28	lwg__psp	_	_
31	para	para	PSP	psp	lex-para|cat-psp|gen-|num-|pers-|case-|vib-|tam-|chunkId-NP10|chunkType-child|stype-|voicetype-	28	lwg__psp	_	_
32	nahIM	nahIM	NEG	avy	lex-nahIM|cat-avy|gen-|num-|pers-|case-|vib-|tam-|chunkId-VGF2|chunkType-child|stype-|voicetype-	33	lwg__neg	_	_
33	raKI	raKa	VM	v	lex-raKa|cat-v|gen-f|num-pl|pers-any|case-|vib-yA_jA+yA1_WA|tam-yA|chunkId-VGF2|chunkType-head|stype-declarative|voicetype-active	36	ccof	_	_
34	gaI	jA	VAUX	v	lex-jA|cat-v|gen-f|num-pl|pers-any|case-|vib-yA1|tam-yA1|chunkId-VGF2|chunkType-child|stype-|voicetype-	33	lwg__vaux	_	_
35	WIM	WA	VAUX	v	lex-WA|cat-v|gen-f|num-pl|pers-any|case-|vib-WA|tam-WA|chunkId-VGF2|chunkType-child|stype-|voicetype-	33	lwg__vaux	_	_
36	Ora	Ora	CC	avy	lex-Ora|cat-avy|gen-|num-|pers-|case-|vib-|tam-|chunkId-CCP3|chunkType-head|stype-|voicetype-	14	nmod__relc	_	_
37	bEMka	bEMka	NN	n	lex-bEMka|cat-n|gen-m|num-sg|pers-3|case-o|vib-0_ne|tam-0|chunkId-NP11|chunkType-head|stype-|voicetype-	54	k1	_	_
38	ne	ne	PSP	psp	lex-ne|cat-psp|gen-|num-|pers-|case-|vib-|tam-|chunkId-NP11|chunkType-child|stype-|voicetype-	37	lwg__psp	_	_
39	kaMpanI	kaMpanI	NN	n	lex-kaMpanI|cat-n|gen-f|num-sg|pers-3|case-o|vib-0_kA_ora_se|tam-0|chunkId-NP12|chunkType-head|stype-|voicetype-	54	rd	_	_
40	kI	kA	PSP	psp	lex-kA|cat-psp|gen-f|num-sg|pers-|case-o|vib-|tam-|chunkId-NP12|chunkType-child|stype-|voicetype-	39	lwg__psp	_	_
41	ora	ora	NST	nst	lex-ora|cat-nst|gen-f|num-sg|pers-3|case-o|vib-|tam-|chunkId-NP12|chunkType-child|stype-|voicetype-	39	lwg__psp	_	_
42	se	se	PSP	psp	lex-se|cat-psp|gen-|num-|pers-|case-|vib-|tam-|chunkId-NP12|chunkType-child|stype-|voicetype-	39	lwg__psp	_	_
43	qNa	qNa	NN	n	lex-qNa|cat-n|gen-m|num-sg|pers-3|case-o|vib-0_kA|tam-0|chunkId-NP13|chunkType-head|stype-|voicetype-	45	r6	_	_
44	kI	kA	PSP	psp	lex-kA|cat-psp|gen-f|num-sg|pers-|case-d|vib-|tam-|chunkId-NP13|chunkType-child|stype-|voicetype-	43	lwg__psp	_	_
45	rASi	rASi	NN	n	lex-rASi|cat-n|gen-f|num-sg|pers-3|case-d|vib-0|tam-0|chunkId-NP14|chunkType-head|stype-|voicetype-	48	k2	_	_
46	axA	axA	NN	n	lex-axA|cat-n|gen-m|num-sg|pers-3|case-d|vib-0|tam-0|chunkId-NP15|chunkType-head|stype-|voicetype-	48	pof	_	_
47	na	na	NEG	avy	lex-na|cat-avy|gen-|num-|pers-|case-|vib-|tam-|chunkId-VGNN|chunkType-child|stype-|voicetype-	48	lwg__neg	_	_
48	kara	kara	VM	v	lex-kara|cat-v|gen-any|num-any|pers-any|case-|vib-0_pA+nA_para|tam-0|chunkId-VGNN|chunkType-head|stype-|voicetype-	54	k7	_	_
49	pAne	pA	VAUX	v	lex-pA|cat-v|gen-any|num-any|pers-any|case-o|vib-nA|tam-nA|chunkId-VGNN|chunkType-child|stype-|voicetype-	48	lwg__vaux	_	_
50	para	para	PSP	psp	lex-para|cat-psp|gen-|num-|pers-|case-|vib-|tam-|chunkId-VGNN|chunkType-child|stype-|voicetype-	48	lwg__psp	_	_
51	isameM	yaha	PRP	pn	lex-yaha|cat-pn|gen-any|num-sg|pers-3|case-o|vib-0_se|tam-meM|chunkId-NP16|chunkType-head|stype-|voicetype-	54	k5	_	_
52	se	se	PSP	psp	lex-se|cat-psp|gen-|num-|pers-|case-|vib-|tam-|chunkId-NP16|chunkType-child|stype-|voicetype-	51	lwg__psp	_	_
53	pEsA	pEsA	NN	n	lex-pEsA|cat-n|gen-m|num-sg|pers-3|case-d|vib-0|tam-0|chunkId-NP17|chunkType-head|stype-|voicetype-	54	k2	_	_
54	nikAla	nikAla	VM	v	lex-nikAla|cat-v|gen-m|num-sg|pers-any|case-|vib-0_le+yA_WA|tam-0|chunkId-VGF3|chunkType-head|stype-declarative|voicetype-active	36	ccof	_	_
55	liyA	le	VAUX	v	lex-le|cat-v|gen-m|num-sg|pers-any|case-|vib-yA|tam-yA|chunkId-VGF3|chunkType-child|stype-|voicetype-	54	lwg__vaux	_	_
56	WA	WA	VAUX	v	lex-WA|cat-v|gen-m|num-sg|pers-any|case-|vib-WA|tam-WA|chunkId-VGF3|chunkType-child|stype-|voicetype-	54	lwg__vaux	_	_
57	.	.	SYM	punc	lex-.|cat-punc|gen-|num-|pers-|case-|vib-|tam-|chunkId-BLK|chunkType-head|stype-|voicetype-	1	rsym	_	_

