1	jammU	jammU	NNPC	n	lex-jammU|cat-n|gen-m|num-sg|pers-3|case-d|vib-0|tam-0|chunkId-NP|chunkType-child|stype-|voicetype-	2	pof__cn	_	_
2	kaSmIra	kaSmIra	NNP	n	lex-kaSmIra|cat-n|gen-m|num-sg|pers-3|case-o|vib-0_meM|tam-0|chunkId-NP|chunkType-head|stype-|voicetype-	22	k7p	_	_
3	meM	meM	PSP	psp	lex-meM|cat-psp|gen-|num-|pers-|case-|vib-|tam-|chunkId-NP|chunkType-child|stype-|voicetype-	2	lwg__psp	_	_
4	pulisa	pulisa	NN	n	lex-pulisa|cat-n|gen-f|num-sg|pers-3|case-o|vib-0_ne|tam-0|chunkId-NP2|chunkType-head|stype-|voicetype-	22	k1	_	_
5	ne	ne	PSP	psp	lex-ne|cat-psp|gen-|num-|pers-|case-|vib-|tam-|chunkId-NP2|chunkType-child|stype-|voicetype-	4	lwg__psp	_	_
6	SanivAra	SanivAra	NNP	n	lex-SanivAra|cat-n|gen-m|num-sg|pers-3|case-o|vib-0_ko|tam-0|chunkId-NP3|chunkType-head|stype-|voicetype-	22	k7t	_	_
7	ko	ko	PSP	psp	lex-ko|cat-psp|gen-|num-|pers-|case-|vib-|tam-|chunkId-NP3|chunkType-child|stype-|voicetype-	6	lwg__psp	_	_
8	BIdZa	BIda	NN	n	lex-BIda|cat-n|gen-f|num-sg|pers-3|case-o|vib-0_ko|tam-0|chunkId-NP4|chunkType-head|stype-|voicetype-	13	k2	_	_
9	ko	ko	PSP	psp	lex-ko|cat-psp|gen-|num-|pers-|case-|vib-|tam-|chunkId-NP4|chunkType-child|stype-|voicetype-	8	lwg__psp	_	_
10	wiwara	wiwara	JJC	adj	lex-wiwara|cat-adj|gen-any|num-any|pers-|case-|vib-|tam-|chunkId-JJP|chunkType-child|stype-|voicetype-	12	mod	_	_
11	-JOIN	-	SYM	punc	lex--|cat-punc|gen-|num-|pers-|case-|vib-|tam-|chunkId-JJP|chunkType-child|stype-|voicetype-	12	rsym	_	_
12	biwara	biwara	JJ	adj	lex-biwara|cat-adj|gen-any|num-any|pers-|case-|vib-|tam-|chunkId-JJP|chunkType-head|stype-|voicetype-	13	pof	_	_
13	karane	kara	VM	v	lex-kara|cat-v|gen-any|num-any|pers-any|case-o|vib-nA_ke_lie|tam-nA|chunkId-VGNN|chunkType-head|stype-|voicetype-	22	rt	_	_
14	ke	ke	PSP	psp	lex-ke|cat-psp|gen-|num-|pers-|case-|vib-|tam-|chunkId-VGNN|chunkType-child|stype-|voicetype-	13	lwg__psp	_	_
15	lie	lie	PSP	psp	lex-lie|cat-psp|gen-|num-|pers-|case-|vib-|tam-|chunkId-VGNN|chunkType-child|stype-|voicetype-	13	lwg__psp	_	_
16	AMsU	AzsU	NNC	n	lex-AzsU|cat-n|gen-m|num-sg|pers-3|case-d|vib-0|tam-0|chunkId-NP5|chunkType-child|stype-|voicetype-	17	pof__cn	_	_
17	gEsa	gEsa	NN	n	lex-gEsa|cat-n|gen-f|num-sg|pers-3|case-o|vib-0_kA|tam-0|chunkId-NP5|chunkType-head|stype-|voicetype-	19	r6	_	_
18	ke	kA	PSP	psp	lex-kA|cat-psp|gen-m|num-pl|pers-|case-o|vib-|tam-|chunkId-NP5|chunkType-child|stype-|voicetype-	17	lwg__psp	_	_
19	goloM	golA	NN	n	lex-golA|cat-n|gen-m|num-pl|pers-3|case-o|vib-0_kA|tam-0|chunkId-NP6|chunkType-head|stype-|voicetype-	21	r6-k2	_	_
20	kA	kA	PSP	psp	lex-kA|cat-psp|gen-m|num-sg|pers-|case-d|vib-|tam-|chunkId-NP6|chunkType-child|stype-|voicetype-	19	lwg__psp	_	_
21	sahArA	sahArA	NN	n	lex-sahArA|cat-n|gen-m|num-sg|pers-3|case-d|vib-0|tam-0|chunkId-NP7|chunkType-head|stype-|voicetype-	22	pof	_	_
22	liyA	le	VM	v	lex-le|cat-v|gen-m|num-sg|pers-3|case-|vib-yA|tam-yA|chunkId-VGF|chunkType-head|stype-declarative|voicetype-active	0	main	_	_
23	.	.	SYM	punc	lex-.|cat-punc|gen-|num-|pers-|case-|vib-|tam-|chunkId-BLK|chunkType-head|stype-|voicetype-	22	rsym	_	_

1	SukravAra	SukravAra	NNP	n	lex-SukravAra|cat-n|gen-m|num-sg|pers-3|case-o|vib-0_ko|tam-0|chunkId-NP|chunkType-head|stype-|voicetype-	34	k7t	_	_
2	ko	ko	PSP	psp	lex-ko|cat-psp|gen-|num-|pers-|case-|vib-|tam-|chunkId-NP|chunkType-child|stype-|voicetype-	1	lwg__psp	_	_
3	pulisa	pulisa	NN	n	lex-pulisa|cat-n|gen-f|num-sg|pers-3|case-o|vib-0_kA|tam-0|chunkId-NP2|chunkType-head|stype-|voicetype-	5	r6	_	_
4	kI	kA	PSP	psp	lex-kA|cat-psp|gen-f|num-sg|pers-|case-o|vib-|tam-|chunkId-NP2|chunkType-child|stype-|voicetype-	3	lwg__psp	_	_
5	golI	golI	NN	n	lex-golI|cat-n|gen-f|num-sg|pers-3|case-o|vib-0_se|tam-0|chunkId-NP3|chunkType-head|stype-|voicetype-	10	rh	_	_
6	se	se	PSP	psp	lex-se|cat-psp|gen-|num-|pers-|case-|vib-|tam-|chunkId-NP3|chunkType-child|stype-|voicetype-	5	lwg__psp	_	_
7	kaWiwa	kaWiwa	JJ	adj	lex-kaWiwa|cat-adj|gen-any|num-any|pers-|case-o|vib-|tam-|chunkId-NP4|chunkType-child|stype-|voicetype-	8	nmod__adj	_	_
8	wOra	wOra	NN	n	lex-wOra|cat-n|gen-m|num-sg|pers-3|case-o|vib-0_para|tam-0|chunkId-NP4|chunkType-head|stype-|voicetype-	10	adv	_	_
9	para	para	PSP	psp	lex-para|cat-psp|gen-|num-|pers-|case-|vib-|tam-|chunkId-NP4|chunkType-child|stype-|voicetype-	8	lwg__psp	_	_
10	huI	ho	VM	v	lex-ho|cat-v|gen-f|num-sg|pers-any|case-|vib-yA|tam-yA|chunkId-VGNF|chunkType-head|stype-|voicetype-	12	nmod__k1inv	_	_
11	eka	eka	QC	num	lex-eka|cat-num|gen-any|num-any|pers-|case-any|vib-|tam-|chunkId-NP5|chunkType-child|stype-|voicetype-	12	nmod__adj	_	_
12	yuvaka	yuvaka	NN	n	lex-yuvaka|cat-n|gen-m|num-sg|pers-3|case-o|vib-0_kA|tam-0|chunkId-NP5|chunkType-head|stype-|voicetype-	14	r6	_	_
13	kI	kA	PSP	psp	lex-kA|cat-psp|gen-f|num-sg|pers-|case-d|vib-|tam-|chunkId-NP5|chunkType-child|stype-|voicetype-	12	lwg__psp	_	_
14	mOwa	mOwa	NN	n	lex-mOwa|cat-n|gen-f|num-sg|pers-3|case-d|vib-0|tam-0|chunkId-NP6|chunkType-head|stype-|voicetype-	15	ccof	_	_
15	Ora	Ora	CC	avy	lex-Ora|cat-avy|gen-|num-|pers-|case-|vib-|tam-|chunkId-CCP|chunkType-head|stype-|voicetype-	34	k7	_	_
16	xUsare	xUsarA	NN	n	lex-xUsarA|cat-n|gen-m|num-sg|pers-3|case-o|vib-0_kA|tam-0|chunkId-NP7|chunkType-head|stype-|voicetype-	19	k1	_	_
17	ke	kA	PSP	psp	lex-kA|cat-psp|gen-m|num-sg|pers-|case-o|vib-|tam-|chunkId-NP7|chunkType-child|stype-|voicetype-	16	lwg__psp	_	_
18	GAyala	GAyala	JJ	adj	lex-GAyala|cat-adj|gen-any|num-any|pers-|case-|vib-|tam-|chunkId-JJP|chunkType-head|stype-|voicetype-	19	pof	_	_
19	hone	ho	VM	v	lex-ho|cat-v|gen-any|num-sg|pers-any|case-o|vib-nA_kA|tam-nA|chunkId-VGNN|chunkType-head|stype-|voicetype-	21	r6	_	_
20	ke	kA	PSP	psp	lex-kA|cat-psp|gen-m|num-sg|pers-|case-o|vib-|tam-|chunkId-VGNN|chunkType-child|stype-|voicetype-	19	lwg__psp	_	_
21	viroXa	viroXa	NN	n	lex-viroXa|cat-n|gen-m|num-sg|pers-3|case-o|vib-0_meM|tam-0|chunkId-NP8|chunkType-head|stype-|voicetype-	15	ccof	_	_
22	meM	meM	PSP	psp	lex-meM|cat-psp|gen-|num-|pers-|case-|vib-|tam-|chunkId-NP8|chunkType-child|stype-|voicetype-	21	lwg__psp	_	_
23	karIba	karIba	RP	avy	lex-karIba|cat-avy|gen-|num-|pers-|case-|vib-|tam-|chunkId-NP9|chunkType-child|stype-|voicetype-	25	lwg__rp	_	_
24	1000	1000	QC	num	lex-1000|cat-num|gen-any|num-any|pers-|case-any|vib-|tam-|chunkId-NP9|chunkType-child|stype-|voicetype-	25	nmod__adj	_	_
25	loga	loga	NN	n	lex-loga|cat-n|gen-m|num-pl|pers-3|case-d|vib-0|tam-0|chunkId-NP9|chunkType-head|stype-|voicetype-	34	k1	_	_
26	jammU	jammU	NNPC	n	lex-jammU|cat-n|gen-m|num-sg|pers-3|case-d|vib-0|tam-0|chunkId-NP10|chunkType-child|stype-|voicetype-	29	pof__cn	_	_
27	-JOIN	-	SYM	punc	lex--|cat-punc|gen-|num-|pers-|case-|vib-|tam-|chunkId-NP10|chunkType-child|stype-|voicetype-	29	rsym	_	_
28	aKnUra	aKnUra	NNPC	n	lex-aKnUra|cat-n|gen-m|num-sg|pers-3|case-d|vib-0|tam-0|chunkId-NP10|chunkType-child|stype-|voicetype-	29	nmod__adj	_	_
29	rAjamArga	rAjamArga	NNP	n	lex-rAjamArga|cat-n|gen-m|num-sg|pers-3|case-o|vib-0_ko|tam-0|chunkId-NP10|chunkType-head|stype-|voicetype-	32	k2	_	_
30	ko	ko	PSP	psp	lex-ko|cat-psp|gen-|num-|pers-|case-|vib-|tam-|chunkId-NP10|chunkType-child|stype-|voicetype-	29	lwg__psp	_	_
31	jAma	jAma	JJ	adj	lex-jAma|cat-adj|gen-any|num-any|pers-|case-|vib-|tam-|chunkId-JJP2|chunkType-head|stype-|voicetype-	32	pof	_	_
32	kara	kara	VM	v	lex-kara|cat-v|gen-any|num-any|pers-any|case-|vib-0|tam-0|chunkId-VGNF2|chunkType-head|stype-|voicetype-	34	vmod	_	_
33	praxarSana	praxarSana	NN	n	lex-praxarSana|cat-n|gen-m|num-sg|pers-3|case-d|vib-0|tam-0|chunkId-NP11|chunkType-head|stype-|voicetype-	34	pof	_	_
34	kara	kara	VM	v	lex-kara|cat-v|gen-m|num-pl|pers-3|case-|vib-0_raha+yA_WA|tam-0|chunkId-VGF|chunkType-head|stype-declarative|voicetype-active	0	main	_	_
35	rahe	raha	VAUX	v	lex-raha|cat-v|gen-m|num-pl|pers-3|case-|vib-yA|tam-yA|chunkId-VGF|chunkType-child|stype-|voicetype-	34	lwg__vaux	_	_
36	We	WA	VAUX	v	lex-WA|cat-v|gen-m|num-pl|pers-3|case-|vib-WA|tam-WA|chunkId-VGF|chunkType-child|stype-|voicetype-	34	lwg__vaux	_	_
37	.	.	SYM	punc	lex-.|cat-punc|gen-|num-|pers-|case-|vib-|tam-|chunkId-BLK|chunkType-head|stype-|voicetype-	34	rsym	_	_

1	sUwroM	sUwra	NN	n	lex-sUwra|cat-n|gen-m|num-pl|pers-3|case-o|vib-0_kA|tam-0|chunkId-NP|chunkType-head|stype-|voicetype-	3	k1	_	_
2	kA	kA	PSP	psp	lex-kA|cat-psp|gen-m|num-sg|pers-|case-d|vib-|tam-|chunkId-NP|chunkType-child|stype-|voicetype-	1	lwg__psp	_	_
3	kahanA	kaha	VM	v	lex-kaha|cat-v|gen-any|num-any|pers-any|case-d|vib-nA|tam-nA|chunkId-VGNN|chunkType-head|stype-|voicetype-	4	k1	_	_
4	hE	hE	VM	v	lex-hE|cat-v|gen-any|num-sg|pers-3|case-|vib-hE|tam-hE|chunkId-VGF|chunkType-head|stype-declarative|voicetype-active	0	main	_	_
5	ki	ki	CC	avy	lex-ki|cat-avy|gen-|num-|pers-|case-|vib-|tam-|chunkId-CCP|chunkType-head|stype-|voicetype-	3	k2	_	_
6	BIdZa	BIda	NN	n	lex-BIda|cat-n|gen-f|num-sg|pers-3|case-o|vib-0_ne|tam-0|chunkId-NP2|chunkType-head|stype-|voicetype-	21	k1	_	_
7	ne	ne	PSP	psp	lex-ne|cat-psp|gen-|num-|pers-|case-|vib-|tam-|chunkId-NP2|chunkType-child|stype-|voicetype-	6	lwg__psp	_	_
8	yahAM	yahAz	PRP	pn	lex-yahAz|cat-pn|gen-|num-|pers-|case-o|vib-0_se|tam-|chunkId-NP3|chunkType-head|stype-|voicetype-	11	nmod	_	_
9	se	se	PSP	psp	lex-se|cat-psp|gen-|num-|pers-|case-|vib-|tam-|chunkId-NP3|chunkType-child|stype-|voicetype-	8	lwg__psp	_	_
10	14	14	QC	num	lex-14|cat-num|gen-any|num-any|pers-|case-any|vib-|tam-|chunkId-NP4|chunkType-child|stype-|voicetype-	11	nmod__adj	_	_
11	kilomItara	kilomItara	NN	n	lex-kilomItara|cat-n|gen-m|num-sg|pers-3|case-d|vib-0_xUra|tam-0|chunkId-NP4|chunkType-head|stype-|voicetype-	13	nmod	_	_
12	xUra	xUra	NST	nst	lex-xUra|cat-nst|gen-m|num-sg|pers-3|case-d|vib-|tam-|chunkId-NP4|chunkType-child|stype-|voicetype-	11	lwg__psp	_	_
13	domanA	domanA	NNP	n	lex-domanA|cat-n|gen-m|num-sg|pers-3|case-o|vib-0_ke_nikata|tam-0|chunkId-NP5|chunkType-head|stype-|voicetype-	21	k7p	_	_
14	ke	ke	PSP	psp	lex-ke|cat-psp|gen-|num-|pers-|case-|vib-|tam-|chunkId-NP5|chunkType-child|stype-|voicetype-	13	lwg__psp	_	_
15	nikata	nikata	NST	nst	lex-nikata|cat-nst|gen-m|num-sg|pers-3|case-d|vib-|tam-|chunkId-NP5|chunkType-child|stype-|voicetype-	13	lwg__psp	_	_
16	rAjamArga	rAjamArga	NN	n	lex-rAjamArga|cat-n|gen-m|num-sg|pers-3|case-o|vib-0_ko|tam-0|chunkId-NP6|chunkType-head|stype-|voicetype-	21	k2	_	_
17	ko	ko	PSP	psp	lex-ko|cat-psp|gen-|num-|pers-|case-|vib-|tam-|chunkId-NP6|chunkType-child|stype-|voicetype-	16	lwg__psp	_	_
18	subaha	subaha	NN	n	lex-subaha|cat-n|gen-f|num-sg|pers-3|case-o|vib-0_se|tam-0|chunkId-NP7|chunkType-head|stype-|voicetype-	21	k7t	_	_
19	se	se	PSP	psp	lex-se|cat-psp|gen-|num-|pers-|case-|vib-|tam-|chunkId-NP7|chunkType-child|stype-|voicetype-	18	lwg__psp	_	_
20	jAma	jAma	JJ	adj	lex-jAma|cat-adj|gen-any|num-any|pers-|case-|vib-|tam-|chunkId-JJP|chunkType-head|stype-|voicetype-	21	pof	_	_
21	kara	kara	VM	v	lex-kara|cat-v|gen-any|num-sg|pers-3|case-|vib-0_xe+yA|tam-0|chunkId-VGF2|chunkType-head|stype-declarative|voicetype-active	5	ccof	_	_
22	xiyA	xe	VAUX	v	lex-xe|cat-v|gen-m|num-sg|pers-3|case-|vib-yA|tam-yA|chunkId-VGF2|chunkType-child|stype-|voicetype-	21	lwg__vaux	_	_
23	.	.	SYM	punc	lex-.|cat-punc|gen-|num-|pers-|case-|vib-|tam-|chunkId-BLK|chunkType-head|stype-|voicetype-	4	rsym	_	_

1	BIdZa	BIda	NN	n	lex-BIda|cat-n|gen-f|num-sg|pers-3|case-o|vib-0_ko|tam-0|chunkId-NP|chunkType-head|stype-|voicetype-	6	k2	_	_
2	ko	ko	PSP	psp	lex-ko|cat-psp|gen-|num-|pers-|case-|vib-|tam-|chunkId-NP|chunkType-child|stype-|voicetype-	1	lwg__psp	_	_
3	wiwara	wiwara	JJC	adj	lex-wiwara|cat-adj|gen-any|num-any|pers-|case-|vib-|tam-|chunkId-JJP|chunkType-child|stype-|voicetype-	5	mod	_	_
4	-JOIN	-	SYM	punc	lex--|cat-punc|gen-|num-|pers-|case-|vib-|tam-|chunkId-JJP|chunkType-child|stype-|voicetype-	5	rsym	_	_
5	biwara	biwara	JJ	adj	lex-biwara|cat-adj|gen-any|num-any|pers-|case-|vib-|tam-|chunkId-JJP|chunkType-head|stype-|voicetype-	6	pof	_	_
6	karane	kara	VM	v	lex-kara|cat-v|gen-any|num-any|pers-any|case-o|vib-nA_ke_lie|tam-nA|chunkId-VGNN|chunkType-head|stype-|voicetype-	15	rt	_	_
7	ke	ke	PSP	psp	lex-ke|cat-psp|gen-|num-|pers-|case-|vib-|tam-|chunkId-VGNN|chunkType-child|stype-|voicetype-	6	lwg__psp	_	_
8	lie	lie	PSP	psp	lex-lie|cat-psp|gen-|num-|pers-|case-|vib-|tam-|chunkId-VGNN|chunkType-child|stype-|voicetype-	6	lwg__psp	_	_
9	pulisa	pulisa	NN	n	lex-pulisa|cat-n|gen-f|num-sg|pers-3|case-o|vib-0_ne|tam-0|chunkId-NP2|chunkType-head|stype-|voicetype-	15	k1	_	_
10	ne	ne	PSP	psp	lex-ne|cat-psp|gen-|num-|pers-|case-|vib-|tam-|chunkId-NP2|chunkType-child|stype-|voicetype-	9	lwg__psp	_	_
11	AMsU	AzsU	NNC	n	lex-AzsU|cat-n|gen-m|num-sg|pers-3|case-d|vib-0|tam-0|chunkId-NP3|chunkType-child|stype-|voicetype-	12	pof__cn	_	_
12	gEsa	gEsa	NN	n	lex-gEsa|cat-n|gen-f|num-sg|pers-3|case-o|vib-0_kA|tam-0|chunkId-NP3|chunkType-head|stype-|voicetype-	14	r6	_	_
13	ke	kA	PSP	psp	lex-kA|cat-psp|gen-m|num-pl|pers-|case-d|vib-|tam-|chunkId-NP3|chunkType-child|stype-|voicetype-	12	lwg__psp	_	_
14	gole	golA	NN	n	lex-golA|cat-n|gen-m|num-pl|pers-3|case-d|vib-0|tam-0|chunkId-NP4|chunkType-head|stype-|voicetype-	15	k2	_	_
15	CodZe	Coda	VM	v	lex-Coda|cat-v|gen-m|num-pl|pers-3|case-|vib-yA|tam-yA|chunkId-VGF|chunkType-head|stype-declarative|voicetype-active	0	main	_	_
16	.	.	SYM	punc	lex-.|cat-punc|gen-|num-|pers-|case-|vib-|tam-|chunkId-BLK|chunkType-head|stype-|voicetype-	15	rsym	_	_

1	isase	yaha	PRP	pn	lex-yaha|cat-pn|gen-any|num-sg|pers-3|case-o|vib-se|tam-se|chunkId-NP|chunkType-head|stype-|voicetype-	5	rh	_	_
2	eka	eka	QC	num	lex-eka|cat-num|gen-any|num-any|pers-|case-any|vib-|tam-|chunkId-NP2|chunkType-child|stype-|voicetype-	3	nmod__adj	_	_
3	vyakwi	vyakwi	NN	n	lex-vyakwi|cat-n|gen-m|num-sg|pers-3|case-d|vib-0|tam-0|chunkId-NP2|chunkType-head|stype-|voicetype-	5	k1	_	_
4	jaKmI	jaKmI	JJ	adj	lex-jaKmI|cat-adj|gen-any|num-any|pers-|case-|vib-|tam-|chunkId-JJP|chunkType-head|stype-|voicetype-	5	pof	_	_
5	ho	ho	VM	v	lex-ho|cat-v|gen-any|num-sg|pers-3|case-|vib-0_jA+yA1|tam-0|chunkId-VGF|chunkType-head|stype-declarative|voicetype-active	0	main	_	_
6	gayA	jA	VAUX	v	lex-jA|cat-v|gen-m|num-sg|pers-3|case-|vib-yA1|tam-yA1|chunkId-VGF|chunkType-child|stype-|voicetype-	5	lwg__vaux	_	_
7	.	.	SYM	punc	lex-.|cat-punc|gen-|num-|pers-|case-|vib-|tam-|chunkId-BLK|chunkType-head|stype-|voicetype-	5	rsym	_	_

1	usakI	vaha	PRP	pn	lex-vaha|cat-pn|gen-f|num-sg|pers-3|case-o|vib-kA|tam-kA|chunkId-NP|chunkType-head|stype-|voicetype-	2	r6-k2	_	_
2	SinAKwa	SinAKwa	NN	n	lex-SinAKwa|cat-n|gen-f|num-sg|pers-3|case-d|vib-0|tam-0|chunkId-NP2|chunkType-head|stype-|voicetype-	8	pof	_	_
3	jyowi	jyowi	NNPC	n	lex-jyowi|cat-n|gen-any|num-sg|pers-3|case-d|vib-0|tam-0|chunkId-NP3|chunkType-child|stype-|voicetype-	4	pof__cn	_	_
4	prakASa	prakASa	NNP	n	lex-prakASa|cat-n|gen-m|num-sg|pers-3|case-o|vib-0_ke_rUpa_meM|tam-0|chunkId-NP3|chunkType-head|stype-|voicetype-	8	k7	_	_
5	ke	ke	PSP	psp	lex-ke|cat-psp|gen-m|num-|pers-|case-o|vib-|tam-|chunkId-NP3|chunkType-child|stype-|voicetype-	4	lwg__psp	_	_
6	rUpa	rUpa	PSP	n	lex-rUpa|cat-n|gen-m|num-|pers-|case-o|vib-|tam-|chunkId-NP3|chunkType-child|stype-|voicetype-	4	lwg__psp	_	_
7	meM	meM	PSP	psp	lex-meM|cat-psp|gen-|num-|pers-|case-|vib-|tam-|chunkId-NP3|chunkType-child|stype-|voicetype-	4	lwg__psp	_	_
8	kI	kara	VM	v	lex-kara|cat-v|gen-f|num-sg|pers-3|case-|vib-yA_jA+yA1|tam-yA|chunkId-VGF|chunkType-head|stype-declarative|voicetype-passive	0	main	_	_
9	gaI	jA	VAUX	v	lex-jA|cat-v|gen-f|num-sg|pers-3|case-|vib-yA1|tam-yA1|chunkId-VGF|chunkType-child|stype-|voicetype-	8	lwg__vaux	_	_
10	.	.	SYM	punc	lex-.|cat-punc|gen-|num-|pers-|case-|vib-|tam-|chunkId-BLK|chunkType-head|stype-|voicetype-	8	rsym	_	_

1	use	vaha	PRP	pn	lex-vaha|cat-pn|gen-any|num-sg|pers-3|case-o|vib-ko|tam-ko|chunkId-NP|chunkType-head|stype-|voicetype-	6	k2	_	_
2	ilAja	ilAja	NN	n	lex-ilAja|cat-n|gen-m|num-sg|pers-3|case-o|vib-0_ke_lie|tam-0|chunkId-NP2|chunkType-head|stype-|voicetype-	6	rt	_	_
3	ke	ke	PSP	psp	lex-ke|cat-psp|gen-|num-|pers-|case-|vib-|tam-|chunkId-NP2|chunkType-child|stype-|voicetype-	2	lwg__psp	_	_
4	lie	lie	PSP	psp	lex-lie|cat-psp|gen-|num-|pers-|case-|vib-|tam-|chunkId-NP2|chunkType-child|stype-|voicetype-	2	lwg__psp	_	_
5	aspawAla	aspawAla	NN	n	lex-aspawAla|cat-n|gen-m|num-sg|pers-3|case-d|vib-0|tam-0|chunkId-NP3|chunkType-head|stype-|voicetype-	6	k7p	_	_
6	le	le	VM	v	lex-le|cat-v|gen-m|num-sg|pers-3|case-|vib-0_jA+yA_jA+yA1|tam-0|chunkId-VGF|chunkType-head|stype-declarative|voicetype-passive	0	main	_	_
7	jAyA	jA	VAUX	v	lex-jA|cat-v|gen-m|num-sg|pers-3|case-|vib-yA|tam-yA|chunkId-VGF|chunkType-child|stype-|voicetype-	6	lwg__vaux	_	_
8	gayA	jA	VAUX	v	lex-jA|cat-v|gen-m|num-sg|pers-3|case-|vib-yA1|tam-yA1|chunkId-VGF|chunkType-child|stype-|voicetype-	6	lwg__vaux	_	_
9	.	.	SYM	punc	lex-.|cat-punc|gen-|num-|pers-|case-|vib-|tam-|chunkId-BLK|chunkType-head|stype-|voicetype-	6	rsym	_	_

1	NULL	_	NN	_	lex-_|cat-_|gen-|num-|pers-|case-|vib-|tam-|chunkId-NULL__NP|chunkType-head|stype-|voicetype-	3	k1	_	_
2	ulleKanIya	ulleKanIya	JJ	adj	lex-ulleKanIya|cat-adj|gen-any|num-any|pers-|case-|vib-|tam-|chunkId-JJP|chunkType-head|stype-|voicetype-	3	k1s	_	_
3	hE	hE	VM	v	lex-hE|cat-v|gen-any|num-sg|pers-3|case-|vib-hE|tam-hE|chunkId-VGF|chunkType-head|stype-declarative|voicetype-active	0	main	_	_
4	ki	ki	CC	avy	lex-ki|cat-avy|gen-|num-|pers-|case-|vib-|tam-|chunkId-CCP|chunkType-head|stype-|voicetype-	1	rs	_	_
5	jammU	jammU	NNP	n	lex-jammU|cat-n|gen-m|num-sg|pers-3|case-o|vib-0_meM|tam-0|chunkId-NP|chunkType-head|stype-|voicetype-	40	k7p	_	_
6	meM	meM	PSP	psp	lex-meM|cat-psp|gen-|num-|pers-|case-|vib-|tam-|chunkId-NP|chunkType-child|stype-|voicetype-	5	lwg__psp	_	_
7	SukravAra	SukravAra	NNP	n	lex-SukravAra|cat-n|gen-m|num-sg|pers-3|case-o|vib-0_ko|tam-0|chunkId-NP2|chunkType-head|stype-|voicetype-	40	k7t	_	_
8	ko	ko	PSP	psp	lex-ko|cat-psp|gen-|num-|pers-|case-|vib-|tam-|chunkId-NP2|chunkType-child|stype-|voicetype-	7	lwg__psp	_	_
9	pulisa	pulisa	NNC	n	lex-pulisa|cat-n|gen-f|num-sg|pers-3|case-d|vib-0|tam-0|chunkId-NP3|chunkType-child|stype-|voicetype-	10	pof__cn	_	_
10	cOkI	cOkI	NN	n	lex-cOkI|cat-n|gen-f|num-sg|pers-3|case-o|vib-0_ke_nikata|tam-0|chunkId-NP3|chunkType-head|stype-|voicetype-	40	k7p	_	_
11	ke	ke	PSP	psp	lex-ke|cat-psp|gen-|num-|pers-|case-|vib-|tam-|chunkId-NP3|chunkType-child|stype-|voicetype-	10	lwg__psp	_	_
12	nikata	nikata	NST	nst	lex-nikata|cat-nst|gen-m|num-sg|pers-3|case-d|vib-|tam-|chunkId-NP3|chunkType-child|stype-|voicetype-	10	lwg__psp	_	_
13	kaWiwa	kaWiwa	JJ	adj	lex-kaWiwa|cat-adj|gen-any|num-any|pers-|case-o|vib-|tam-|chunkId-NP4|chunkType-child|stype-|voicetype-	14	nmod__adj	_	_
14	wOra	wOra	NN	n	lex-wOra|cat-n|gen-m|num-sg|pers-3|case-o|vib-0_para|tam-0|chunkId-NP4|chunkType-head|stype-|voicetype-	19	adv	_	_
15	para	para	PSP	psp	lex-para|cat-psp|gen-|num-|pers-|case-|vib-|tam-|chunkId-NP4|chunkType-child|stype-|voicetype-	14	lwg__psp	_	_
16	rukane	ruka	VM	v	lex-ruka|cat-v|gen-any|num-sg|pers-any|case-o|vib-nA_kA|tam-nA|chunkId-VGNN|chunkType-head|stype-|voicetype-	18	r6	_	_
17	kA	kA	PSP	psp	lex-kA|cat-psp|gen-m|num-sg|pers-|case-d|vib-|tam-|chunkId-VGNN|chunkType-child|stype-|voicetype-	16	lwg__psp	_	_
18	iSArA	iSArA	NN	n	lex-iSArA|cat-n|gen-m|num-sg|pers-3|case-d|vib-0|tam-0|chunkId-NP5|chunkType-head|stype-|voicetype-	19	k1	_	_
19	milane	mila	VM	v	lex-mila|cat-v|gen-any|num-any|pers-any|case-o|vib-nA_ke_bAvajUxa|tam-nA|chunkId-VGNN2|chunkType-head|stype-|voicetype-	40	vmod	_	_
20	ke	ke	PSP	psp	lex-ke|cat-psp|gen-|num-|pers-|case-|vib-|tam-|chunkId-VGNN2|chunkType-child|stype-|voicetype-	19	lwg__psp	_	_
21	bAvajUxa	bAvajUxa	PSP	psp	lex-bAvajUxa|cat-psp|gen-|num-|pers-|case-|vib-|tam-|chunkId-VGNN2|chunkType-child|stype-|voicetype-	19	lwg__psp	_	_
22	BAgane	BAga	VM	v	lex-BAga|cat-v|gen-any|num-sg|pers-any|case-o|vib-nA_kA|tam-nA|chunkId-VGNN3|chunkType-head|stype-|voicetype-	24	r6	_	_
23	kI	kA	PSP	psp	lex-kA|cat-psp|gen-f|num-sg|pers-|case-o|vib-|tam-|chunkId-VGNN3|chunkType-child|stype-|voicetype-	22	lwg__psp	_	_
24	koSiSa	koSiSa	NN	n	lex-koSiSa|cat-n|gen-f|num-sg|pers-3|case-o|vib-0_ke_xOrAna|tam-0|chunkId-NP6|chunkType-head|stype-|voicetype-	40	k7t	_	_
25	ke	ke	PSP	psp	lex-ke|cat-psp|gen-|num-|pers-|case-|vib-|tam-|chunkId-NP6|chunkType-child|stype-|voicetype-	24	lwg__psp	_	_
26	xOrAna	xOrAna	NST	nst	lex-xOrAna|cat-nst|gen-m|num-sg|pers-3|case-d|vib-|tam-|chunkId-NP6|chunkType-child|stype-|voicetype-	24	lwg__psp	_	_
27	pulisakarmI	pulisakarmI	NN	n	lex-pulisakarmI|cat-n|gen-m|num-sg|pers-3|case-o|vib-0|tam-0|chunkId-NP7|chunkType-head|stype-|voicetype-	28	nmod	_	_
28	sawapAla	sawapAla	NNP	n	lex-sawapAla|cat-n|gen-m|num-sg|pers-3|case-o|vib-0_kA|tam-0|chunkId-NP8|chunkType-head|stype-|voicetype-	30	r6	_	_
29	kI	kA	PSP	psp	lex-kA|cat-psp|gen-f|num-sg|pers-|case-o|vib-|tam-|chunkId-NP8|chunkType-child|stype-|voicetype-	28	lwg__psp	_	_
30	golI	golI	NN	n	lex-golI|cat-n|gen-f|num-sg|pers-3|case-o|vib-0_se|tam-0|chunkId-NP9|chunkType-head|stype-|voicetype-	40	k3	_	_
31	se	se	PSP	psp	lex-se|cat-psp|gen-|num-|pers-|case-|vib-|tam-|chunkId-NP9|chunkType-child|stype-|voicetype-	30	lwg__psp	_	_
32	xasavIM	xasavAz	QO	num	lex-xasavAz|cat-num|gen-f|num-sg|pers-|case-o|vib-|tam-|chunkId-NP10|chunkType-child|stype-|voicetype-	33	nmod__adj	_	_
33	kakRA	kakRA	NN	n	lex-kakRA|cat-n|gen-f|num-sg|pers-3|case-o|vib-0_kA|tam-0|chunkId-NP10|chunkType-head|stype-|voicetype-	35	r6	_	_
34	kA	kA	PSP	psp	lex-kA|cat-psp|gen-m|num-sg|pers-|case-d|vib-|tam-|chunkId-NP10|chunkType-child|stype-|voicetype-	33	lwg__psp	_	_
35	CAwra	CAwra	NN	n	lex-CAwra|cat-n|gen-m|num-sg|pers-3|case-o|vib-0|tam-0|chunkId-NP11|chunkType-head|stype-|voicetype-	37	nmod	_	_
36	niSU	niSU	NNPC	n	lex-niSU|cat-n|gen-m|num-sg|pers-3|case-d|vib-0|tam-0|chunkId-NP12|chunkType-child|stype-|voicetype-	37	pof__cn	_	_
37	kumAra	kumAra	NNP	n	lex-kumAra|cat-n|gen-m|num-sg|pers-3|case-o|vib-0_kA|tam-0|chunkId-NP12|chunkType-head|stype-|voicetype-	39	r6-k1	_	_
38	kI	kA	PSP	psp	lex-kA|cat-psp|gen-f|num-sg|pers-|case-d|vib-|tam-|chunkId-NP12|chunkType-child|stype-|voicetype-	37	lwg__psp	_	_
39	mOwa	mOwa	NN	n	lex-mOwa|cat-n|gen-f|num-sg|pers-3|case-d|vib-0|tam-0|chunkId-NP13|chunkType-head|stype-|voicetype-	40	pof	_	_
40	ho	ho	VM	v	lex-ho|cat-v|gen-f|num-sg|pers-any|case-|vib-0_jA+yA1_WA|tam-0|chunkId-VGF2|chunkType-head|stype-declarative|voicetype-active	4	ccof	_	_
41	gaI	jA	VAUX	v	lex-jA|cat-v|gen-f|num-sg|pers-3|case-|vib-yA1|tam-yA1|chunkId-VGF2|chunkType-child|stype-|voicetype-	40	lwg__vaux	_	_
42	WI	WA	VAUX	v	lex-WA|cat-v|gen-f|num-sg|pers-any|case-|vib-WA|tam-WA|chunkId-VGF2|chunkType-child|stype-|voicetype-	40	lwg__vaux	_	_
43	.	.	SYM	punc	lex-.|cat-punc|gen-|num-|pers-|case-|vib-|tam-|chunkId-BLK|chunkType-head|stype-|voicetype-	3	rsym	_	_

1	jabaki	jabaki	CC	avy	lex-jabaki|cat-avy|gen-|num-|pers-|case-|vib-|tam-|chunkId-CCP|chunkType-head|stype-|voicetype-	0	main	_	_
2	usakA	vaha	PRP	pn	lex-vaha|cat-pn|gen-m|num-sg|pers-3|case-o|vib-kA|tam-kA|chunkId-NP|chunkType-head|stype-|voicetype-	3	r6	_	_
3	riSwexAra	riSwexAra	NN	n	lex-riSwexAra|cat-n|gen-m|num-sg|pers-3|case-d|vib-0|tam-0|chunkId-NP2|chunkType-head|stype-|voicetype-	5	nmod	_	_
4	rAkeSa	rAkeSa	NNPC	n	lex-rAkeSa|cat-n|gen-m|num-sg|pers-3|case-d|vib-0|tam-0|chunkId-NP3|chunkType-child|stype-|voicetype-	5	pof__cn	_	_
5	SarmA	SarmA	NNP	n	lex-SarmA|cat-n|gen-any|num-sg|pers-3|case-d|vib-0|tam-0|chunkId-NP3|chunkType-head|stype-|voicetype-	7	k1	_	_
6	GAyala	GAyala	JJ	adj	lex-GAyala|cat-adj|gen-any|num-any|pers-|case-|vib-|tam-|chunkId-JJP|chunkType-head|stype-|voicetype-	7	k1s	_	_
7	ho	ho	VM	v	lex-ho|cat-v|gen-m|num-sg|pers-3|case-|vib-0_jA+yA1_WA|tam-0|chunkId-VGF|chunkType-head|stype-declarative|voicetype-active	1	ccof	_	_
8	gayA	jA	VAUX	v	lex-jA|cat-v|gen-m|num-sg|pers-3|case-|vib-yA1|tam-yA1|chunkId-VGF|chunkType-child|stype-|voicetype-	7	lwg__vaux	_	_
9	WA	WA	VAUX	v	lex-WA|cat-v|gen-m|num-sg|pers-3|case-|vib-WA|tam-WA|chunkId-VGF|chunkType-child|stype-|voicetype-	7	lwg__vaux	_	_
10	.	.	SYM	punc	lex-.|cat-punc|gen-|num-|pers-|case-|vib-|tam-|chunkId-BLK|chunkType-head|stype-|voicetype-	1	rsym	_	_

1	isake	yaha	PRP	pn	lex-yaha|cat-pn|gen-m|num-sg|pers-3|case-o|vib-0_bAxa|tam-ke|chunkId-NP|chunkType-head|stype-|voicetype-	5	k7t	_	_
2	bAxa	bAxa	NST	nst	lex-bAxa|cat-nst|gen-m|num-sg|pers-3|case-d|vib-|tam-|chunkId-NP|chunkType-child|stype-|voicetype-	1	lwg__psp	_	_
3	yahAM	yahAz	PRP	pn	lex-yahAz|cat-pn|gen-|num-|pers-|case-d|vib-|tam-|chunkId-NP2|chunkType-head|stype-|voicetype-	5	k7p	_	_
4	hiMsA	hiMsA	NN	n	lex-hiMsA|cat-n|gen-f|num-sg|pers-3|case-d|vib-0|tam-0|chunkId-NP3|chunkType-head|stype-|voicetype-	5	k1	_	_
5	BadZaka	Badaka	VM	v	lex-Badaka|cat-v|gen-any|num-sg|pers-3|case-|vib-0_jA+yA1|tam-0|chunkId-VGF|chunkType-head|stype-declarative|voicetype-active	0	main	_	_
6	gaI	jA	VAUX	v	lex-jA|cat-v|gen-f|num-sg|pers-3|case-|vib-yA1|tam-yA1|chunkId-VGF|chunkType-child|stype-|voicetype-	5	lwg__vaux	_	_
7	.	.	SYM	punc	lex-.|cat-punc|gen-|num-|pers-|case-|vib-|tam-|chunkId-BLK|chunkType-head|stype-|voicetype-	5	rsym	_	_

