1	खजुराहो	खजुराहो	NNP	n	lex-खजुराहो|cat-n|gen-m|num-sg|pers-3|case-d|vib-0|tam-0|chunkId-NP|chunkType-head|stype-|voicetype-	0	main	_	_
2	-	:	SYM	punc	lex-:|cat-punc|gen-|num-|pers-|case-|vib-|tam-|chunkId-BLK|chunkType-head|stype-|voicetype-	1	rsym	_	_

1	यहाँ	यहाँ	PRP	pn	lex-यहाँ|cat-pn|gen-|num-|pers-|case-d|vib-|tam-|chunkId-NP|chunkType-head|stype-|voicetype-	3	k7p	_	_
2	गीत	गीत	NN	n	lex-गीत|cat-n|gen-m|num-pl|pers-3|case-d|vib-0|tam-0|chunkId-NP2|chunkType-head|stype-|voicetype-	3	k2	_	_
3	गाते	गा	VM	v	lex-गा|cat-v|gen-m|num-pl|pers-3|case-|vib-ता_है|tam-wA|chunkId-VGF|chunkType-head|stype-declarative|voicetype-active	0	main	_	_
4	हैं	है	VAUX	v	lex-है|cat-v|gen-any|num-pl|pers-3|case-|vib-है|tam-hE|chunkId-VGF|chunkType-child|stype-|voicetype-	3	lwg__vaux	_	_
5	पत्‍थर	पत्‍थर	NN	n	lex-पत्‍थर|cat-n|gen-m|num-pl|pers-3|case-d|vib-0|tam-0|chunkId-NP3|chunkType-head|stype-|voicetype-	3	k1	_	_
6	भी	भी...	RP	avy	lex-भी...|cat-avy|gen-|num-|pers-|case-|vib-|tam-|chunkId-NP3|chunkType-child|stype-|voicetype-	5	lwg__rp	_	_
7	।	।	SYM	punc	lex-।|cat-punc|gen-|num-|pers-|case-|vib-|tam-|chunkId-BLK|chunkType-head|stype-|voicetype-	3	rsym	_	_

1	भारतीय	भारतीय	JJ	adj	lex-भारतीय|cat-adj|gen-any|num-any|pers-|case-o|vib-|tam-|chunkId-NP|chunkType-child|stype-|voicetype-	2	nmod__adj	_	_
2	स्‍थापत्‍य	स्‍थापत्‍य	NN	n	lex-स्‍थापत्‍य|cat-n|gen-m|num-sg|pers-3|case-o|vib-0_का|tam-0|chunkId-NP|chunkType-head|stype-|voicetype-	5	r6	_	_
3	का	का	PSP	psp	lex-का|cat-psp|gen-m|num-sg|pers-|case-d|vib-|tam-|chunkId-NP|chunkType-child|stype-|voicetype-	2	lwg__psp	_	_
4	बेजोड	बेजोड	JJ	adj	lex-बेजोड|cat-adj|gen-any|num-any|pers-|case-d|vib-|tam-|chunkId-NP2|chunkType-child|stype-|voicetype-	5	nmod__adj	_	_
5	उदाहरण	उदाहरण	NN	n	lex-उदाहरण|cat-n|gen-m|num-sg|pers-3|case-d|vib-0|tam-0|chunkId-NP2|chunkType-head|stype-|voicetype-	7	nmod	_	_
6	वराह	वराह	NNPC	n	lex-वराह|cat-n|gen-m|num-sg|pers-3|case-d|vib-0|tam-0|chunkId-NP3|chunkType-child|stype-|voicetype-	7	pof__cn	_	_
7	मंदिर	मंदिर	NNP	n	lex-मंदिर|cat-n|gen-m|num-sg|pers-3|case-d|vib-0|tam-0|chunkId-NP3|chunkType-head|stype-|voicetype-	0	main	_	_

1	इस	यह	DEM	pn	lex-यह|cat-pn|gen-any|num-sg|pers-3|case-o|vib-|tam-|chunkId-NP|chunkType-child|stype-|voicetype-	2	nmod__adj	_	_
2	मंदिर	मंदिर	NN	n	lex-मंदिर|cat-n|gen-m|num-sg|pers-3|case-o|vib-0_में|tam-0|chunkId-NP|chunkType-head|stype-|voicetype-	12	k7p	_	_
3	में	में	PSP	psp	lex-में|cat-psp|gen-|num-|pers-|case-|vib-|tam-|chunkId-NP|chunkType-child|stype-|voicetype-	2	lwg__psp	_	_
4	भगवान	भगवान	NNC	n	lex-भगवान|cat-n|gen-m|num-sg|pers-3|case-d|vib-0|tam-0|chunkId-NP2|chunkType-child|stype-|voicetype-	5	pof__cn	_	_
5	विष्‍णु	विष्‍णु	NNP	n	lex-विष्‍णु|cat-n|gen-m|num-sg|pers-3|case-o|vib-0_का|tam-0|chunkId-NP2|chunkType-head|stype-|voicetype-	7	r6	_	_
6	की	का	PSP	psp	lex-का|cat-psp|gen-f|num-sg|pers-|case-d|vib-|tam-|chunkId-NP2|chunkType-child|stype-|voicetype-	5	lwg__psp	_	_
7	प्रतिमा	प्रतिमा	NN	n	lex-प्रतिमा|cat-n|gen-f|num-sg|pers-3|case-d|vib-0|tam-0|chunkId-NP3|chunkType-head|stype-|voicetype-	12	k1	_	_
8	वराह	वराह	NNP	n	lex-वराह|cat-n|gen-m|num-sg|pers-3|case-d|vib-0|tam-0|chunkId-NP4|chunkType-child|stype-|voicetype-	9	nmod__adj	_	_
9	रूप	रूप	NN	n	lex-रूप|cat-n|gen-m|num-sg|pers-3|case-o|vib-0_में|tam-0|chunkId-NP4|chunkType-head|stype-|voicetype-	12	k7	_	_
10	में	में	PSP	psp	lex-में|cat-psp|gen-|num-|pers-|case-|vib-|tam-|chunkId-NP4|chunkType-child|stype-|voicetype-	9	lwg__psp	_	_
11	स्‍थापित	स्‍थापित	JJ	adj	lex-स्‍थापित|cat-adj|gen-any|num-any|pers-|case-|vib-|tam-|chunkId-JJP|chunkType-head|stype-|voicetype-	12	k1s	_	_
12	है	है	VM	v	lex-है|cat-v|gen-any|num-sg|pers-3|case-|vib-है|tam-hE|chunkId-VGF|chunkType-head|stype-declarative|voicetype-active	0	main	_	_
13	।	।	SYM	punc	lex-।|cat-punc|gen-|num-|pers-|case-|vib-|tam-|chunkId-BLK|chunkType-head|stype-|voicetype-	12	rsym	_	_

1	ढाई	ढाई	QC	num	lex-ढाई|cat-num|gen-any|num-any|pers-|case-any|vib-|tam-|chunkId-NP|chunkType-child|stype-|voicetype-	2	nmod__adj	_	_
2	मीटर	मीटर	NN	n	lex-मीटर|cat-n|gen-m|num-sg|pers-3|case-o|vib-0_से|tam-0|chunkId-NP|chunkType-head|stype-|voicetype-	5	jjmod	_	_
3	से	से	PSP	psp	lex-से|cat-psp|gen-|num-|pers-|case-|vib-|tam-|chunkId-NP|chunkType-child|stype-|voicetype-	2	lwg__psp	_	_
4	भी	भी	RP	avy	lex-भी|cat-avy|gen-|num-|pers-|case-|vib-|tam-|chunkId-NP|chunkType-child|stype-|voicetype-	2	lwg__rp	_	_
5	ऊँचे	ऊँचा	JJ	adj	lex-ऊँचा|cat-adj|gen-m|num-sg|pers-|case-o|vib-|tam-|chunkId-JJP|chunkType-head|stype-|voicetype-	7	nmod	_	_
6	एक	एक	QC	num	lex-एक|cat-num|gen-any|num-any|pers-|case-any|vib-|tam-|chunkId-NP2|chunkType-child|stype-|voicetype-	7	nmod__adj	_	_
7	पत्‍थर	पत्‍थर	NN	n	lex-पत्‍थर|cat-n|gen-m|num-sg|pers-3|case-o|vib-0_को|tam-0|chunkId-NP2|chunkType-head|stype-|voicetype-	9	k2	_	_
8	को	को	PSP	psp	lex-को|cat-psp|gen-|num-|pers-|case-|vib-|tam-|chunkId-NP2|chunkType-child|stype-|voicetype-	7	lwg__psp	_	_
9	तराश	तराश	VM	v	lex-तराश|cat-v|gen-any|num-sg|pers-3|case-|vib-0_कर|tam-0|chunkId-VGNF|chunkType-head|stype-|voicetype-	11	vmod	_	_
10	कर	कर	VAUX	v	lex-कर|cat-v|gen-m|num-sg|pers-3|case-d|vib-0|tam-0|chunkId-VGNF|chunkType-child|stype-|voicetype-	9	lwg__vaux	_	_
11	बनाई	बना	VM	v	lex-बना|cat-v|gen-f|num-sg|pers-any|case-|vib-या_जा+या1|tam-yA|chunkId-VGNF2|chunkType-head|stype-|voicetype-	14	nmod__k1inv	_	_
12	गई	जा	VAUX	v	lex-जा|cat-v|gen-f|num-sg|pers-any|case-|vib-या1|tam-yA1|chunkId-VGNF2|chunkType-child|stype-|voicetype-	11	lwg__vaux	_	_
13	यह	यह	DEM	pn	lex-यह|cat-pn|gen-any|num-sg|pers-3|case-d|vib-|tam-|chunkId-NP3|chunkType-child|stype-|voicetype-	14	nmod__adj	_	_
14	प्रतिमा	प्रतिमा	NN	n	lex-प्रतिमा|cat-n|gen-f|num-sg|pers-3|case-d|vib-0|tam-0|chunkId-NP3|chunkType-head|stype-|voicetype-	19	k1	_	_
15	इस	यह	DEM	pn	lex-यह|cat-pn|gen-any|num-sg|pers-3|case-o|vib-|tam-|chunkId-NP4|chunkType-child|stype-|voicetype-	16	nmod__adj	_	_
16	मायने	मायना	NN	n	lex-मायना|cat-n|gen-m|num-sg|pers-3|case-o|vib-0_में|tam-0|chunkId-NP4|chunkType-head|stype-|voicetype-	19	k7	_	_
17	में	में	PSP	psp	lex-में|cat-psp|gen-|num-|pers-|case-|vib-|tam-|chunkId-NP4|chunkType-child|stype-|voicetype-	16	lwg__psp	_	_
18	विशिष्‍ट	विशिष्ट	JJ	adj	lex-विशिष्ट|cat-adj|gen-any|num-any|pers-|case-|vib-|tam-|chunkId-JJP2|chunkType-head|stype-|voicetype-	19	k1s	_	_
19	है	है	VM	v	lex-है|cat-v|gen-any|num-sg|pers-3|case-|vib-है|tam-hE|chunkId-VGF|chunkType-head|stype-declarative|voicetype-active	0	main	_	_
20	कि	कि	CC	avy	lex-कि|cat-avy|gen-|num-|pers-|case-|vib-|tam-|chunkId-CCP|chunkType-head|stype-|voicetype-	16	rs	_	_
21	इस	यह	PRP	pn	lex-यह|cat-pn|gen-any|num-sg|pers-3|case-o|vib-0_पर|tam-0|chunkId-NP5|chunkType-head|stype-|voicetype-	29	k7	_	_
22	पर	पर	PSP	psp	lex-पर|cat-psp|gen-|num-|pers-|case-|vib-|tam-|chunkId-NP5|chunkType-child|stype-|voicetype-	21	lwg__psp	_	_
23	अनगिनत	अनगिनत	QF	avy	lex-अनगिनत|cat-avy|gen-|num-|pers-|case-|vib-|tam-|chunkId-NP6|chunkType-child|stype-|voicetype-	26	nmod__adj	_	_
24	देवी	देवी	NNC	n	lex-देवी|cat-n|gen-f|num-pl|pers-3|case-d|vib-0|tam-0|chunkId-NP6|chunkType-child|stype-|voicetype-	26	pof__cn	_	_
25	-	-	SYM	punc	lex--|cat-punc|gen-|num-|pers-|case-|vib-|tam-|chunkId-NP6|chunkType-child|stype-|voicetype-	26	pof__cn	_	_
26	देवताओं	देवता	NN	n	lex-देवता|cat-n|gen-m|num-pl|pers-3|case-o|vib-0_का|tam-0|chunkId-NP6|chunkType-head|stype-|voicetype-	28	r6	_	_
27	की	का	PSP	psp	lex-का|cat-psp|gen-f|num-pl|pers-|case-d|vib-|tam-|chunkId-NP6|chunkType-child|stype-|voicetype-	26	lwg__psp	_	_
28	प्रतिमाएँ	प्रतिमा	NN	n	lex-प्रतिमा|cat-n|gen-f|num-pl|pers-3|case-d|vib-0|tam-0|chunkId-NP7|chunkType-head|stype-|voicetype-	29	k2	_	_
29	बनाई	बना	VM	v	lex-बना|cat-v|gen-f|num-pl|pers-3|case-|vib-या_जा+या1_है|tam-yA|chunkId-VGF2|chunkType-head|stype-declarative|voicetype-passive	20	ccof	_	_
30	गई	जा	VAUX	v	lex-जा|cat-v|gen-f|num-pl|pers-any|case-|vib-या1|tam-yA1|chunkId-VGF2|chunkType-child|stype-|voicetype-	29	lwg__vaux	_	_
31	हैं	है	VAUX	v	lex-है|cat-v|gen-any|num-pl|pers-3|case-|vib-है|tam-hE|chunkId-VGF2|chunkType-child|stype-|voicetype-	29	lwg__vaux	_	_
32	।	।	SYM	punc	lex-।|cat-punc|gen-|num-|pers-|case-|vib-|tam-|chunkId-BLK|chunkType-head|stype-|voicetype-	19	rsym	_	_

1	कंदरिया	कंदरिया	NNPC	n	lex-कंदरिया|cat-n|gen-m|num-sg|pers-3|case-d|vib-0|tam-0|chunkId-NP|chunkType-child|stype-|voicetype-	3	pof__cn	_	_
2	महादेव	महादेव	NNPC	n	lex-महादेव|cat-n|gen-m|num-sg|pers-3|case-d|vib-0|tam-0|chunkId-NP|chunkType-child|stype-|voicetype-	3	pof__cn	_	_
3	मंदिर	मंदिर	NNP	n	lex-मंदिर|cat-n|gen-m|num-sg|pers-3|case-d|vib-0|tam-0|chunkId-NP|chunkType-head|stype-|voicetype-	0	main	_	_

1	यह	यह	PRP	pn	lex-यह|cat-pn|gen-any|num-sg|pers-3|case-d|vib-0|tam-0|chunkId-NP|chunkType-head|stype-|voicetype-	7	k1	_	_
2	खजुराहो	खजुराहो	NNP	n	lex-खजुराहो|cat-n|gen-m|num-sg|pers-3|case-o|vib-0_का|tam-0|chunkId-NP2|chunkType-head|stype-|voicetype-	6	r6	_	_
3	का	का	PSP	psp	lex-का|cat-psp|gen-m|num-sg|pers-|case-d|vib-|tam-|chunkId-NP2|chunkType-child|stype-|voicetype-	2	lwg__psp	_	_
4	सबसे	सबसे	INTF	avy	lex-सबसे|cat-avy|gen-|num-|pers-|case-|vib-|tam-|chunkId-NP3|chunkType-child|stype-|voicetype-	5	jjmod__intf	_	_
5	विशाल	विशाल	JJ	adj	lex-विशाल|cat-adj|gen-any|num-any|pers-|case-d|vib-|tam-|chunkId-NP3|chunkType-child|stype-|voicetype-	6	nmod__adj	_	_
6	मंदिर	मंदिर	NN	n	lex-मंदिर|cat-n|gen-m|num-sg|pers-3|case-d|vib-0|tam-0|chunkId-NP3|chunkType-head|stype-|voicetype-	7	k1s	_	_
7	है	है	VM	v	lex-है|cat-v|gen-any|num-sg|pers-3|case-|vib-है|tam-hE|chunkId-VGF|chunkType-head|stype-declarative|voicetype-active	0	main	_	_
8	।	।	SYM	punc	lex-।|cat-punc|gen-|num-|pers-|case-|vib-|tam-|chunkId-BLK|chunkType-head|stype-|voicetype-	7	rsym	_	_

1	यह	यह	PRP	pn	lex-यह|cat-pn|gen-any|num-sg|pers-3|case-d|vib-0|tam-0|chunkId-NP|chunkType-head|stype-|voicetype-	13	k1	_	_
2	117	117	QC	num	lex-117|cat-num|gen-any|num-any|pers-|case-any|vib-|tam-|chunkId-NP2|chunkType-child|stype-|voicetype-	3	nmod__adj	_	_
3	फुट	फुट	NN	n	lex-फुट|cat-n|gen-m|num-sg|pers-3|case-d|vib-0|tam-0|chunkId-NP2|chunkType-head|stype-|voicetype-	4	jjmod	_	_
4	लंबा	लंबा	JJ	adj	lex-लंबा|cat-adj|gen-m|num-sg|pers-|case-d|vib-|tam-|chunkId-JJP|chunkType-head|stype-|voicetype-	9	ccof	_	_
5	,	COMMA	SYM	punc	lex-COMMA|cat-punc|gen-|num-|pers-|case-|vib-|tam-|chunkId-JJP|chunkType-child|stype-|voicetype-	4	rsym	_	_
6	117	117	QC	num	lex-117|cat-num|gen-any|num-any|pers-|case-any|vib-|tam-|chunkId-NP3|chunkType-child|stype-|voicetype-	7	nmod__adj	_	_
7	फुट	फुट	NN	n	lex-फुट|cat-n|gen-m|num-sg|pers-3|case-d|vib-0|tam-0|chunkId-NP3|chunkType-head|stype-|voicetype-	8	jjmod	_	_
8	ऊँचा	ऊँचा	JJ	adj	lex-ऊँचा|cat-adj|gen-m|num-sg|pers-|case-d|vib-|tam-|chunkId-JJP2|chunkType-head|stype-|voicetype-	9	ccof	_	_
9	और	और	CC	avy	lex-और|cat-avy|gen-|num-|pers-|case-|vib-|tam-|chunkId-CCP|chunkType-head|stype-|voicetype-	13	k1s	_	_
10	66	66	QC	num	lex-66|cat-num|gen-any|num-any|pers-|case-any|vib-|tam-|chunkId-NP4|chunkType-child|stype-|voicetype-	11	nmod__adj	_	_
11	फुट	फुट	NN	n	lex-फुट|cat-n|gen-m|num-sg|pers-3|case-d|vib-0|tam-0|chunkId-NP4|chunkType-head|stype-|voicetype-	12	jjmod	_	_
12	चौड़ा	चौड़ा	JJ	adj	lex-चौड़ा|cat-adj|gen-m|num-sg|pers-|case-d|vib-|tam-|chunkId-JJP3|chunkType-head|stype-|voicetype-	9	ccof	_	_
13	है	है	VM	v	lex-है|cat-v|gen-any|num-sg|pers-3|case-|vib-है|tam-hE|chunkId-VGF|chunkType-head|stype-declarative|voicetype-active	0	main	_	_
14	।	।	SYM	punc	lex-।|cat-punc|gen-|num-|pers-|case-|vib-|tam-|chunkId-BLK|chunkType-head|stype-|voicetype-	13	rsym	_	_

1	ग्‍यारहवीं	ग्‍यारहवाँ	NNPC	n	lex-ग्‍यारहवाँ|cat-n|gen-f|num-sg|pers-3|case-d|vib-0|tam-0|chunkId-NP|chunkType-child|stype-|voicetype-	2	pof__cn	_	_
2	शताब्‍दी	शताब्‍दी	NNP	n	lex-शताब्‍दी|cat-n|gen-f|num-sg|pers-3|case-o|vib-0_में|tam-0|chunkId-NP|chunkType-head|stype-|voicetype-	4	jjmod	_	_
3	में	में	PSP	psp	lex-में|cat-psp|gen-|num-|pers-|case-|vib-|tam-|chunkId-NP|chunkType-child|stype-|voicetype-	2	lwg__psp	_	_
4	निर्मित	निर्मित	JJ	adj	lex-निर्मित|cat-adj|gen-any|num-any|pers-|case-o|vib-|tam-|chunkId-JJP|chunkType-head|stype-|voicetype-	6	nmod	_	_
5	इस	यह	DEM	pn	lex-यह|cat-pn|gen-any|num-sg|pers-3|case-o|vib-|tam-|chunkId-NP2|chunkType-child|stype-|voicetype-	6	nmod__adj	_	_
6	मंदिर	मंदिर	NN	n	lex-मंदिर|cat-n|gen-m|num-sg|pers-3|case-o|vib-0_का|tam-0|chunkId-NP2|chunkType-head|stype-|voicetype-	8	r6	_	_
7	का	का	PSP	psp	lex-का|cat-psp|gen-m|num-sg|pers-|case-d|vib-|tam-|chunkId-NP2|chunkType-child|stype-|voicetype-	6	lwg__psp	_	_
8	द्वार	द्वार	NN	n	lex-द्वार|cat-n|gen-m|num-sg|pers-3|case-d|vib-0|tam-0|chunkId-NP3|chunkType-head|stype-|voicetype-	14	k1	_	_
9	किसी	कोई	PRP	pn	lex-कोई|cat-pn|gen-any|num-sg|pers-3|case-o|vib-0|tam-0|chunkId-NP4|chunkType-child|stype-|voicetype-	10	nmod__adj	_	_
10	कंदरा	कंदरा	NN	n	lex-कंदरा|cat-n|gen-f|num-sg|pers-3|case-o|vib-0_का_तरह|tam-0|chunkId-NP4|chunkType-head|stype-|voicetype-	14	k1u	_	_
11	की	का	PSP	psp	lex-का|cat-psp|gen-f|num-|pers-|case-o|vib-|tam-|chunkId-NP4|chunkType-child|stype-|voicetype-	10	lwg__psp	_	_
12	तरह	तरह	PSP	n	lex-तरह|cat-n|gen-f|num-|pers-|case-o|vib-|tam-|chunkId-NP4|chunkType-child|stype-|voicetype-	10	lwg__psp	_	_
13	प्रतीत	प्रतीत	JJ	adj	lex-प्रतीत|cat-adj|gen-any|num-any|pers-|case-|vib-|tam-|chunkId-JJP2|chunkType-head|stype-|voicetype-	14	pof	_	_
14	होता	हो	VM	v	lex-हो|cat-v|gen-m|num-sg|pers-3|case-|vib-ता_है|tam-wA|chunkId-VGF|chunkType-head|stype-declarative|voicetype-active	16	ccof	_	_
15	है	है	VAUX	v	lex-है|cat-v|gen-any|num-sg|pers-3|case-|vib-है|tam-hE|chunkId-VGF|chunkType-child|stype-|voicetype-	14	lwg__vaux	_	_
16	NULL	_	CC	_	lex-_|cat-_|gen-|num-|pers-|case-|vib-|tam-|chunkId-NULL__CCP|chunkType-head|stype-|voicetype-	0	main	_	_
17	इसलिए	इसलिये	PRP	pn	lex-इसलिये|cat-pn|gen-|num-|pers-|case-|vib-|tam-|chunkId-NP5|chunkType-head|stype-|voicetype-	28	rh	_	_
18	इसे	यह	PRP	pn	lex-यह|cat-pn|gen-any|num-sg|pers-3|case-o|vib-को|tam-ko|chunkId-NP6|chunkType-head|stype-|voicetype-	28	k2	_	_
19	कंदरिया	कंदरिया	NNPC	n	lex-कंदरिया|cat-n|gen-m|num-sg|pers-3|case-d|vib-0|tam-0|chunkId-NP7|chunkType-child|stype-|voicetype-	20	pof__cn	_	_
20	महादेव	महादेव	NNP	n	lex-महादेव|cat-n|gen-m|num-sg|pers-3|case-d|vib-0|tam-0|chunkId-NP7|chunkType-head|stype-|voicetype-	28	k2s	_	_
21	(	(	SYM	punc	lex-(|cat-punc|gen-|num-|pers-|case-|vib-|tam-|chunkId-NP8|chunkType-child|stype-|voicetype-	22	rsym	_	_
22	कंदरा	कंदरा	NN	n	lex-कंदरा|cat-n|gen-f|num-sg|pers-3|case-o|vib-0_में|tam-0|chunkId-NP8|chunkType-head|stype-|voicetype-	24	k7	_	_
23	में	में	PSP	psp	lex-में|cat-psp|gen-|num-|pers-|case-|vib-|tam-|chunkId-NP8|chunkType-child|stype-|voicetype-	22	lwg__psp	_	_
24	रहने	रह	VM	v	lex-रह|cat-v|gen-any|num-sg|pers-3h|case-o|vib-ना_वाला|tam-nA|chunkId-VGNN|chunkType-head|stype-|voicetype-	26	nmod	_	_
25	वाले	वाला	VAUX	v	lex-वाला|cat-v|gen-m|num-sg|pers-3h|case-d|vib-|tam-|chunkId-VGNN|chunkType-child|stype-|voicetype-	24	lwg__vaux	_	_
26	महादेव	महादेव	NNP	n	lex-महादेव|cat-n|gen-m|num-sg|pers-3|case-d|vib-0|tam-0|chunkId-NP9|chunkType-head|stype-|voicetype-	20	nmod	_	_
27	)	)	SYM	punc	lex-)|cat-punc|gen-|num-|pers-|case-|vib-|tam-|chunkId-NP9|chunkType-child|stype-|voicetype-	26	rsym	_	_
28	कहते	कह	VM	v	lex-कह|cat-v|gen-m|num-pl|pers-3|case-|vib-ता_है|tam-wA|chunkId-VGF2|chunkType-head|stype-declarative|voicetype-active	16	ccof	_	_
29	हैं	है	VAUX	v	lex-है|cat-v|gen-any|num-pl|pers-3|case-|vib-है|tam-hE|chunkId-VGF2|chunkType-child|stype-|voicetype-	28	lwg__vaux	_	_
30	।	।	SYM	punc	lex-।|cat-punc|gen-|num-|pers-|case-|vib-|tam-|chunkId-BLK|chunkType-head|stype-|voicetype-	16	rsym	_	_

1	मतंगेश्‍वर	मतंगेश्‍वर	NNPC	n	lex-मतंगेश्‍वर|cat-n|gen-m|num-sg|pers-3|case-d|vib-0|tam-0|chunkId-NP|chunkType-child|stype-|voicetype-	2	pof__cn	_	_
2	मंदिर	मंदिर	NNP	n	lex-मंदिर|cat-n|gen-m|num-sg|pers-3|case-d|vib-0|tam-0|chunkId-NP|chunkType-head|stype-|voicetype-	0	main	_	_

1	इस	यह	DEM	pn	lex-यह|cat-pn|gen-any|num-sg|pers-3|case-o|vib-|tam-|chunkId-NP|chunkType-child|stype-|voicetype-	2	nmod__adj	_	_
2	मंदिर	मंदिर	NN	n	lex-मंदिर|cat-n|gen-m|num-sg|pers-3|case-o|vib-0_का|tam-0|chunkId-NP|chunkType-head|stype-|voicetype-	4	r6-k2	_	_
3	का	का	PSP	psp	lex-का|cat-psp|gen-m|num-sg|pers-|case-d|vib-|tam-|chunkId-NP|chunkType-child|stype-|voicetype-	2	lwg__psp	_	_
4	निर्माण	निर्माण	NN	n	lex-निर्माण|cat-n|gen-m|num-sg|pers-3|case-d|vib-0|tam-0|chunkId-NP2|chunkType-head|stype-|voicetype-	11	pof	_	_
5	ईसवी	ईसवी	NNPC	n	lex-ईसवी|cat-n|gen-f|num-sg|pers-3|case-d|vib-0|tam-0|chunkId-NP3|chunkType-child|stype-|voicetype-	6	pof__cn	_	_
6	920	920	NNP	n	lex-920|cat-n|gen-m|num-sg|pers-3|case-o|vib-0_में|tam-0|chunkId-NP3|chunkType-head|stype-|voicetype-	11	k7t	_	_
7	में	में	PSP	psp	lex-में|cat-psp|gen-|num-|pers-|case-|vib-|tam-|chunkId-NP3|chunkType-child|stype-|voicetype-	6	lwg__psp	_	_
8	राजा	राजा	NNC	n	lex-राजा|cat-n|gen-m|num-sg|pers-3|case-d|vib-0|tam-0|chunkId-NP4|chunkType-child|stype-|voicetype-	9	pof__cn	_	_
9	हर्षवर्मन	हर्षवर्मन	NNP	n	lex-हर्षवर्मन|cat-n|gen-m|num-sg|pers-3|case-o|vib-0_ने|tam-0|chunkId-NP4|chunkType-head|stype-|voicetype-	11	k1	_	_
10	ने	ने	PSP	psp	lex-ने|cat-psp|gen-|num-|pers-|case-|vib-|tam-|chunkId-NP4|chunkType-child|stype-|voicetype-	9	lwg__psp	_	_
11	करवाया	कर	VM	v	lex-कर|cat-v|gen-m|num-sg|pers-any|case-|vib-या_था|tam-yA|chunkId-VGF|chunkType-head|stype-declarative|voicetype-active	0	main	_	_
12	था	था	VAUX	v	lex-था|cat-v|gen-m|num-sg|pers-any|case-|vib-था|tam-WA|chunkId-VGF|chunkType-child|stype-|voicetype-	11	lwg__vaux	_	_
13	।	।	SYM	punc	lex-।|cat-punc|gen-|num-|pers-|case-|vib-|tam-|chunkId-BLK|chunkType-head|stype-|voicetype-	11	rsym	_	_

1	यह	यह	DEM	pn	lex-यह|cat-pn|gen-any|num-sg|pers-3|case-d|vib-|tam-|chunkId-NP|chunkType-child|stype-|voicetype-	2	nmod__adj	_	_
2	मंदिर	मंदिर	NN	n	lex-मंदिर|cat-n|gen-m|num-sg|pers-3|case-d|vib-0|tam-0|chunkId-NP|chunkType-head|stype-|voicetype-	16	k1	_	_
3	खजुराहो	खजुराहो	NNP	n	lex-खजुराहो|cat-n|gen-m|num-sg|pers-3|case-o|vib-0_में|tam-0|chunkId-NP2|chunkType-head|stype-|voicetype-	8	k7p	_	_
4	में	में	PSP	psp	lex-में|cat-psp|gen-|num-|pers-|case-|vib-|tam-|chunkId-NP2|chunkType-child|stype-|voicetype-	3	lwg__psp	_	_
5	चंदेल	चंदेल	NNP	n	lex-चंदेल|cat-n|gen-m|num-sg|pers-3|case-d|vib-0|tam-0|chunkId-NP3|chunkType-child|stype-|voicetype-	6	nmod__adj	_	_
6	राजाओं	राजा	NN	n	lex-राजा|cat-n|gen-m|num-pl|pers-3|case-o|vib-0_द्वारा|tam-0|chunkId-NP3|chunkType-head|stype-|voicetype-	8	k1	_	_
7	द्वारा	द्वारा	PSP	psp	lex-द्वारा|cat-psp|gen-|num-|pers-|case-|vib-|tam-|chunkId-NP3|chunkType-child|stype-|voicetype-	6	lwg__psp	_	_
8	बनवाए	बना	VM	v	lex-बना|cat-v|gen-m|num-pl|pers-any|case-|vib-या_जा+या1|tam-yA|chunkId-VGNF|chunkType-head|stype-|voicetype-	12	nmod__k1inv	_	_
9	गए	जा	VAUX	v	lex-जा|cat-v|gen-m|num-pl|pers-any|case-|vib-या1|tam-yA1|chunkId-VGNF|chunkType-child|stype-|voicetype-	8	lwg__vaux	_	_
10	सबसे	सबसे	INTF	avy	lex-सबसे|cat-avy|gen-|num-|pers-|case-|vib-|tam-|chunkId-NP4|chunkType-child|stype-|voicetype-	11	jjmod__intf	_	_
11	पुराने	पुराना	JJ	adj	lex-पुराना|cat-adj|gen-m|num-pl|pers-|case-o|vib-|tam-|chunkId-NP4|chunkType-child|stype-|voicetype-	12	nmod__adj	_	_
12	मंदिरों	मंदिर	NN	n	lex-मंदिर|cat-n|gen-m|num-pl|pers-3|case-o|vib-0_में_से|tam-0|chunkId-NP4|chunkType-head|stype-|voicetype-	16	k7	_	_
13	में	में	PSP	psp	lex-में|cat-psp|gen-|num-|pers-|case-|vib-|tam-|chunkId-NP4|chunkType-child|stype-|voicetype-	12	lwg__psp	_	_
14	से	से	PSP	psp	lex-से|cat-psp|gen-|num-|pers-|case-|vib-|tam-|chunkId-NP4|chunkType-child|stype-|voicetype-	12	lwg__psp	_	_
15	एक	एक	QC	num	lex-एक|cat-num|gen-any|num-any|pers-|case-any|vib-|tam-|chunkId-NP5|chunkType-head|stype-|voicetype-	16	k1s	_	_
16	है	है	VM	v	lex-है|cat-v|gen-any|num-sg|pers-3|case-|vib-है|tam-hE|chunkId-VGF|chunkType-head|stype-declarative|voicetype-active	0	main	_	_
17	।	।	SYM	punc	lex-।|cat-punc|gen-|num-|pers-|case-|vib-|tam-|chunkId-BLK|chunkType-head|stype-|voicetype-	16	rsym	_	_

1	इस	यह	DEM	pn	lex-यह|cat-pn|gen-any|num-sg|pers-3|case-o|vib-|tam-|chunkId-NP|chunkType-child|stype-|voicetype-	2	nmod__adj	_	_
2	मंदिर	मंदिर	NN	n	lex-मंदिर|cat-n|gen-m|num-sg|pers-3|case-o|vib-0_में|tam-0|chunkId-NP|chunkType-head|stype-|voicetype-	10	k7p	_	_
3	में	में	PSP	psp	lex-में|cat-psp|gen-|num-|pers-|case-|vib-|tam-|chunkId-NP|chunkType-child|stype-|voicetype-	2	lwg__psp	_	_
4	भगवान	भगवान	NN	n	lex-भगवान|cat-n|gen-m|num-sg|pers-3|case-o|vib-0_का|tam-0|chunkId-NP2|chunkType-head|stype-|voicetype-	9	r6	_	_
5	का	का	PSP	psp	lex-का|cat-psp|gen-m|num-sg|pers-|case-d|vib-|tam-|chunkId-NP2|chunkType-child|stype-|voicetype-	4	lwg__psp	_	_
6	8	8	QC	num	lex-8|cat-num|gen-any|num-any|pers-|case-any|vib-|tam-|chunkId-NP3|chunkType-child|stype-|voicetype-	7	nmod__adj	_	_
7	फुट	फुट	NN	n	lex-फुट|cat-n|gen-m|num-sg|pers-3|case-d|vib-0|tam-0|chunkId-NP3|chunkType-head|stype-|voicetype-	8	jjmod	_	_
8	ऊँचा	ऊँचा	JJ	adj	lex-ऊँचा|cat-adj|gen-m|num-sg|pers-|case-d|vib-|tam-|chunkId-JJP|chunkType-head|stype-|voicetype-	9	nmod	_	_
9	शिवलिंग	शिवलिंग	NNP	n	lex-शिवलिंग|cat-n|gen-m|num-sg|pers-3|case-d|vib-0|tam-0|chunkId-NP4|chunkType-head|stype-|voicetype-	10	k1	_	_
10	है	है	VM	v	lex-है|cat-v|gen-any|num-sg|pers-3|case-|vib-है|tam-hE|chunkId-VGF|chunkType-head|stype-declarative|voicetype-active	0	main	_	_
11	।	।	SYM	punc	lex-।|cat-punc|gen-|num-|pers-|case-|vib-|tam-|chunkId-BLK|chunkType-head|stype-|voicetype-	10	rsym	_	_

1	यह	यह	DEM	pn	lex-यह|cat-pn|gen-any|num-sg|pers-3|case-d|vib-|tam-|chunkId-NP|chunkType-child|stype-|voicetype-	2	nmod__adj	_	_
2	खजुराहो	खजुराहो	NNP	n	lex-खजुराहो|cat-n|gen-m|num-sg|pers-3|case-o|vib-0_का|tam-0|chunkId-NP|chunkType-head|stype-|voicetype-	5	r6	_	_
3	के	का	PSP	psp	lex-का|cat-psp|gen-m|num-pl|pers-|case-o|vib-|tam-|chunkId-NP|chunkType-child|stype-|voicetype-	2	lwg__psp	_	_
4	प्राचीन	प्राचीन	JJ	adj	lex-प्राचीन|cat-adj|gen-any|num-any|pers-|case-o|vib-|tam-|chunkId-NP2|chunkType-child|stype-|voicetype-	5	nmod__adj	_	_
5	मंदिरों	मंदिर	NN	n	lex-मंदिर|cat-n|gen-m|num-pl|pers-3|case-o|vib-0_में|tam-0|chunkId-NP2|chunkType-head|stype-|voicetype-	10	k7	_	_
6	में	में	PSP	psp	lex-में|cat-psp|gen-|num-|pers-|case-|vib-|tam-|chunkId-NP2|chunkType-child|stype-|voicetype-	5	lwg__psp	_	_
7	एकमात्र	एकमात्र	JJ	adj	lex-एकमात्र|cat-adj|gen-any|num-any|pers-|case-d|vib-|tam-|chunkId-NP3|chunkType-child|stype-|voicetype-	9	nmod__adj	_	_
8	ऐसा	ऐसा	DEM	pn	lex-ऐसा|cat-pn|gen-m|num-sg|pers-any|case-d|vib-|tam-|chunkId-NP3|chunkType-child|stype-|voicetype-	9	nmod__adj	_	_
9	मंदिर	मंदिर	NN	n	lex-मंदिर|cat-n|gen-m|num-sg|pers-3|case-d|vib-0|tam-0|chunkId-NP3|chunkType-head|stype-|voicetype-	10	k1	_	_
10	है	है	VM	v	lex-है|cat-v|gen-any|num-sg|pers-3|case-|vib-है|tam-hE|chunkId-VGF|chunkType-head|stype-declarative|voicetype-active	0	main	_	_
11	,	COMMA	SYM	punc	lex-COMMA|cat-punc|gen-|num-|pers-|case-|vib-|tam-|chunkId-VGF|chunkType-child|stype-|voicetype-	10	rsym	_	_
12	जहाँ	जहाँ	PRP	pn	lex-जहाँ|cat-pn|gen-|num-|pers-|case-d|vib-|tam-|chunkId-NP4|chunkType-head|stype-|voicetype-	18	k7p	_	_
13	अभी	अभी	PRP	pn	lex-अभी|cat-pn|gen-|num-|pers-|case-d|vib-|tam-|chunkId-NP5|chunkType-head|stype-|voicetype-	18	k7t	_	_
14	भी	भी	RP	avy	lex-भी|cat-avy|gen-|num-|pers-|case-|vib-|tam-|chunkId-NP5|chunkType-child|stype-|voicetype-	13	lwg__rp	_	_
15	पूजा	पूजा	NNC	n	lex-पूजा|cat-n|gen-f|num-sg|pers-3|case-d|vib-0|tam-0|chunkId-NP6|chunkType-child|stype-|voicetype-	17	pof__cn	_	_
16	-	-	SYM	punc	lex--|cat-punc|gen-|num-|pers-|case-|vib-|tam-|chunkId-NP6|chunkType-child|stype-|voicetype-	17	pof__cn	_	_
17	अर्चना	अर्चना	NN	n	lex-अर्चना|cat-n|gen-f|num-sg|pers-3|case-d|vib-0|tam-0|chunkId-NP6|chunkType-head|stype-|voicetype-	18	pof	_	_
18	की	कर	VM	v	lex-कर|cat-v|gen-f|num-sg|pers-3|case-|vib-या_जा+ता_है|tam-yA|chunkId-VGF2|chunkType-head|stype-declarative|voicetype-active	9	nmod__relc	_	_
19	जाती	जा	VAUX	v	lex-जा|cat-v|gen-f|num-sg|pers-any|case-|vib-ता|tam-wA|chunkId-VGF2|chunkType-child|stype-|voicetype-	18	lwg__vaux	_	_
20	है	है	VAUX	v	lex-है|cat-v|gen-any|num-sg|pers-3|case-|vib-है|tam-hE|chunkId-VGF2|chunkType-child|stype-|voicetype-	18	lwg__vaux	_	_
21	।	।	SYM	punc	lex-।|cat-punc|gen-|num-|pers-|case-|vib-|tam-|chunkId-BLK|chunkType-head|stype-|voicetype-	10	rsym	_	_

1	इन	यह	DEM	pn	lex-यह|cat-pn|gen-any|num-pl|pers-3|case-o|vib-|tam-|chunkId-NP|chunkType-child|stype-|voicetype-	2	nmod__adj	_	_
2	मंदिरों	मंदिर	NN	n	lex-मंदिर|cat-n|gen-m|num-pl|pers-3|case-o|vib-0_के_अतिरिक्त|tam-0|chunkId-NP|chunkType-head|stype-|voicetype-	21	k7a	_	_
3	के	के	PSP	psp	lex-के|cat-psp|gen-|num-|pers-|case-|vib-|tam-|chunkId-NP|chunkType-child|stype-|voicetype-	2	lwg__psp	_	_
4	अतिरिक्‍त	अतिरिक्त	PSP	psp	lex-अतिरिक्त|cat-psp|gen-|num-|pers-|case-|vib-|tam-|chunkId-NP|chunkType-child|stype-|voicetype-	2	lwg__psp	_	_
5	यहाँ	यहाँ	PRP	pn	lex-यहाँ|cat-pn|gen-|num-|pers-|case-o|vib-0_का|tam-|chunkId-NP2|chunkType-head|stype-|voicetype-	8	r6	_	_
6	के	का	PSP	psp	lex-का|cat-psp|gen-m|num-pl|pers-|case-d|vib-|tam-|chunkId-NP2|chunkType-child|stype-|voicetype-	5	lwg__psp	_	_
7	जगदंबा	जगदंबा	NNPC	n	lex-जगदंबा|cat-n|gen-f|num-sg|pers-3|case-d|vib-0|tam-0|chunkId-NP3|chunkType-child|stype-|voicetype-	8	pof__cn	_	_
8	मंदिर	मंदिर	NNP	n	lex-मंदिर|cat-n|gen-m|num-sg|pers-3|case-d|vib-0|tam-0|chunkId-NP3|chunkType-head|stype-|voicetype-	16	ccof	_	_
9	,	COMMA	SYM	punc	lex-COMMA|cat-punc|gen-|num-|pers-|case-|vib-|tam-|chunkId-NP3|chunkType-child|stype-|voicetype-	8	rsym	_	_
10	चतुर्भुज	चतुर्भुज	NNPC	n	lex-चतुर्भुज|cat-n|gen-m|num-sg|pers-3|case-d|vib-0|tam-0|chunkId-NP4|chunkType-child|stype-|voicetype-	11	pof__cn	_	_
11	मंदिर	मंदिर	NNP	n	lex-मंदिर|cat-n|gen-m|num-sg|pers-3|case-d|vib-0|tam-0|chunkId-NP4|chunkType-head|stype-|voicetype-	16	ccof	_	_
12	,	COMMA	SYM	punc	lex-COMMA|cat-punc|gen-|num-|pers-|case-|vib-|tam-|chunkId-NP4|chunkType-child|stype-|voicetype-	11	rsym	_	_
13	ब्रह्मा	ब्रह्मा	NNPC	n	lex-ब्रह्मा|cat-n|gen-m|num-sg|pers-3|case-d|vib-0|tam-0|chunkId-NP5|chunkType-child|stype-|voicetype-	14	pof__cn	_	_
14	मंदिर	मंदिर	NNP	n	lex-मंदिर|cat-n|gen-m|num-sg|pers-3|case-d|vib-0|tam-0|chunkId-NP5|chunkType-head|stype-|voicetype-	16	ccof	_	_
15	,	COMMA	SYM	punc	lex-COMMA|cat-punc|gen-|num-|pers-|case-|vib-|tam-|chunkId-NP5|chunkType-child|stype-|voicetype-	14	rsym	_	_
16	और	और	CC	avy	lex-और|cat-avy|gen-|num-|pers-|case-|vib-|tam-|chunkId-CCP|chunkType-head|stype-|voicetype-	21	k1	_	_
17	वामन	वामन	NNPC	n	lex-वामन|cat-n|gen-m|num-sg|pers-3|case-d|vib-0|tam-0|chunkId-NP6|chunkType-child|stype-|voicetype-	18	pof__cn	_	_
18	मंदिर	मंदिर	NNP	n	lex-मंदिर|cat-n|gen-m|num-sg|pers-3|case-d|vib-0|tam-0|chunkId-NP6|chunkType-head|stype-|voicetype-	16	ccof	_	_
19	भी	भी	RP	avy	lex-भी|cat-avy|gen-|num-|pers-|case-|vib-|tam-|chunkId-NP6|chunkType-child|stype-|voicetype-	18	lwg__rp	_	_
20	दर्शनीय	दर्शनीय	JJ	adj	lex-दर्शनीय|cat-adj|gen-any|num-any|pers-|case-|vib-|tam-|chunkId-JJP|chunkType-head|stype-|voicetype-	21	k1s	_	_
21	हैं	है	VM	v	lex-है|cat-v|gen-any|num-pl|pers-3|case-|vib-है|tam-hE|chunkId-VGF|chunkType-head|stype-declarative|voicetype-active	0	main	_	_
22	।	।	SYM	punc	lex-।|cat-punc|gen-|num-|pers-|case-|vib-|tam-|chunkId-BLK|chunkType-head|stype-|voicetype-	21	rsym	_	_

1	जनश्रुतियाँ	जनश्रुति	NN	n	lex-जनश्रुति|cat-n|gen-f|num-pl|pers-3|case-d|vib-0|tam-0|chunkId-NP|chunkType-head|stype-|voicetype-	0	main	_	_
2	-	:	SYM	punc	lex-:|cat-punc|gen-|num-|pers-|case-|vib-|tam-|chunkId-BLK|chunkType-head|stype-|voicetype-	2	rsym	_	_

1	खजुराहो	खजुराहो	NNP	n	lex-खजुराहो|cat-n|gen-m|num-sg|pers-3|case-o|vib-0_के_संबंध_में|tam-0|chunkId-NP|chunkType-head|stype-|voicetype-	8	k7	_	_
2	के	के	PSP	psp	lex-के|cat-psp|gen-m|num-|pers-|case-o|vib-|tam-|chunkId-NP|chunkType-child|stype-|voicetype-	1	lwg__psp	_	_
3	संबंध	संबंध	PSP	n	lex-संबंध|cat-n|gen-m|num-|pers-|case-o|vib-|tam-|chunkId-NP|chunkType-child|stype-|voicetype-	1	lwg__psp	_	_
4	में	में	PSP	psp	lex-में|cat-psp|gen-|num-|pers-|case-|vib-|tam-|chunkId-NP|chunkType-child|stype-|voicetype-	1	lwg__psp	_	_
5	अनेक	अनेक	QF	avy	lex-अनेक|cat-avy|gen-|num-|pers-|case-|vib-|tam-|chunkId-NP2|chunkType-child|stype-|voicetype-	6	nmod__adj	_	_
6	जनश्रुतियाँ	जनश्रुति	NN	n	lex-जनश्रुति|cat-n|gen-f|num-pl|pers-3|case-d|vib-0|tam-0|chunkId-NP2|chunkType-head|stype-|voicetype-	8	k1	_	_
7	प्रचलित	प्रचलित	JJ	adj	lex-प्रचलित|cat-adj|gen-any|num-any|pers-|case-|vib-|tam-|chunkId-JJP|chunkType-head|stype-|voicetype-	8	k1s	_	_
8	हैं	है	VM	v	lex-है|cat-v|gen-any|num-pl|pers-3|case-|vib-है|tam-hE|chunkId-VGF|chunkType-head|stype-declarative|voicetype-active	0	main	_	_
9	।	।	SYM	punc	lex-।|cat-punc|gen-|num-|pers-|case-|vib-|tam-|chunkId-BLK|chunkType-head|stype-|voicetype-	8	rsym	_	_

1	कहते	कह	VM	v	lex-कह|cat-v|gen-m|num-pl|pers-3|case-|vib-ता_है|tam-wA|chunkId-VGF|chunkType-head|stype-declarative|voicetype-active	0	main	_	_
2	हैं	है	VAUX	v	lex-है|cat-v|gen-any|num-pl|pers-3|case-|vib-है|tam-hE|chunkId-VGF|chunkType-child|stype-|voicetype-	1	lwg__vaux	_	_
3	,	COMMA	SYM	punc	lex-COMMA|cat-punc|gen-|num-|pers-|case-|vib-|tam-|chunkId-VGF|chunkType-child|stype-|voicetype-	1	rsym	_	_
4	कि	कि	CC	avy	lex-कि|cat-avy|gen-|num-|pers-|case-|vib-|tam-|chunkId-CCP|chunkType-head|stype-|voicetype-	1	k2	_	_
5	उस	वह	DEM	pn	lex-वह|cat-pn|gen-any|num-sg|pers-3|case-o|vib-|tam-|chunkId-NP|chunkType-child|stype-|voicetype-	6	nmod__adj	_	_
6	समय	समय	NN	n	lex-समय|cat-n|gen-m|num-sg|pers-3|case-d|vib-0|tam-0|chunkId-NP|chunkType-head|stype-|voicetype-	10	k7t	_	_
7	बच्‍चे	बच्‍चा	NN	n	lex-बच्‍चा|cat-n|gen-m|num-pl|pers-3|case-d|vib-0|tam-0|chunkId-NP2|chunkType-head|stype-|voicetype-	10	k1	_	_
8	गुरुकुल	गुरुकुल	NN	n	lex-गुरुकुल|cat-n|gen-m|num-sg|pers-3|case-o|vib-0_में|tam-0|chunkId-NP3|chunkType-head|stype-|voicetype-	10	k7p	_	_
9	में	में	PSP	psp	lex-में|cat-psp|gen-|num-|pers-|case-|vib-|tam-|chunkId-NP3|chunkType-child|stype-|voicetype-	8	lwg__psp	_	_
10	पढ़ते	पढ़	VM	v	lex-पढ़|cat-v|gen-m|num-pl|pers-any|case-|vib-ता_था|tam-wA|chunkId-VGF2|chunkType-head|stype-declarative|voicetype-active	4	ccof	_	_
11	थे	था	VAUX	v	lex-था|cat-v|gen-m|num-pl|pers-any|case-|vib-था|tam-WA|chunkId-VGF2|chunkType-child|stype-|voicetype-	10	lwg__vaux	_	_
12	।	।	SYM	punc	lex-।|cat-punc|gen-|num-|pers-|case-|vib-|tam-|chunkId-BLK|chunkType-head|stype-|voicetype-	1	rsym	_	_

1	उन्‍हें	वह	PRP	pn	lex-वह|cat-pn|gen-any|num-pl|pers-3|case-o|vib-को|tam-ko|chunkId-NP|chunkType-head|stype-|voicetype-	6	k1	_	_
2	सांसारिक	सांसारिक	JJ	adj	lex-सांसारिक|cat-adj|gen-any|num-any|pers-|case-o|vib-|tam-|chunkId-NP2|chunkType-child|stype-|voicetype-	3	nmod__adj	_	_
3	बातों	बात	NN	n	lex-बात|cat-n|gen-f|num-pl|pers-3|case-o|vib-0_का|tam-0|chunkId-NP2|chunkType-head|stype-|voicetype-	5	r6-k2	_	_
4	का	का	PSP	psp	lex-का|cat-psp|gen-m|num-sg|pers-|case-d|vib-|tam-|chunkId-NP2|chunkType-child|stype-|voicetype-	3	lwg__psp	_	_
5	ज्ञान	ज्ञान	NN	n	lex-ज्ञान|cat-n|gen-m|num-sg|pers-3|case-d|vib-0|tam-0|chunkId-NP3|chunkType-head|stype-|voicetype-	6	pof	_	_
6	कराने	करा	VM	v	lex-करा|cat-v|gen-any|num-any|pers-any|case-o|vib-ना_के_लिए|tam-nA|chunkId-VGNN|chunkType-head|stype-|voicetype-	13	rt	_	_
7	के	के	PSP	psp	lex-के|cat-psp|gen-|num-|pers-|case-|vib-|tam-|chunkId-VGNN|chunkType-child|stype-|voicetype-	6	lwg__psp	_	_
8	लिए	लिए	PSP	psp	lex-लिए|cat-psp|gen-|num-|pers-|case-|vib-|tam-|chunkId-VGNN|chunkType-child|stype-|voicetype-	6	lwg__psp	_	_
9	इन	यह	DEM	pn	lex-यह|cat-pn|gen-any|num-pl|pers-3|case-o|vib-|tam-|chunkId-NP4|chunkType-child|stype-|voicetype-	10	nmod__adj	_	_
10	मंदिरों	मंदिर	NN	n	lex-मंदिर|cat-n|gen-m|num-pl|pers-3|case-o|vib-0_का|tam-0|chunkId-NP4|chunkType-head|stype-|voicetype-	12	r6-k2	_	_
11	का	का	PSP	psp	lex-का|cat-psp|gen-m|num-sg|pers-|case-d|vib-|tam-|chunkId-NP4|chunkType-child|stype-|voicetype-	10	lwg__psp	_	_
12	निर्माण	निर्माण	NN	n	lex-निर्माण|cat-n|gen-m|num-sg|pers-3|case-d|vib-0|tam-0|chunkId-NP5|chunkType-head|stype-|voicetype-	13	pof	_	_
13	करवाया	कर	VM	v	lex-कर|cat-v|gen-m|num-sg|pers-any|case-|vib-या_जा+या1_था|tam-yA|chunkId-VGF|chunkType-head|stype-declarative|voicetype-passive	0	main	_	_
14	गया	जा	VAUX	v	lex-जा|cat-v|gen-m|num-sg|pers-any|case-|vib-या1|tam-yA1|chunkId-VGF|chunkType-child|stype-|voicetype-	13	lwg__vaux	_	_
15	था	था	VAUX	v	lex-था|cat-v|gen-m|num-sg|pers-any|case-|vib-था|tam-WA|chunkId-VGF|chunkType-child|stype-|voicetype-	13	lwg__vaux	_	_
16	।	।	SYM	punc	lex-।|cat-punc|gen-|num-|pers-|case-|vib-|tam-|chunkId-BLK|chunkType-head|stype-|voicetype-	13	rsym	_	_

1	यह	यह	PRP	pn	lex-यह|cat-pn|gen-any|num-sg|pers-3|case-d|vib-0|tam-0|chunkId-NP|chunkType-head|stype-|voicetype-	3	k2	_	_
2	भी	भी	RP	avy	lex-भी|cat-avy|gen-|num-|pers-|case-|vib-|tam-|chunkId-NP|chunkType-child|stype-|voicetype-	1	lwg__rp	_	_
3	कहा	कह	VM	v	lex-कह|cat-v|gen-m|num-sg|pers-3|case-|vib-या_जा+ता_है|tam-yA|chunkId-VGF|chunkType-head|stype-declarative|voicetype-active	0	main	_	_
4	जाता	जा	VAUX	v	lex-जा|cat-v|gen-m|num-sg|pers-any|case-|vib-ता|tam-wA|chunkId-VGF|chunkType-child|stype-|voicetype-	3	lwg__vaux	_	_
5	है	है	VAUX	v	lex-है|cat-v|gen-any|num-sg|pers-3|case-|vib-है|tam-hE|chunkId-VGF|chunkType-child|stype-|voicetype-	3	lwg__vaux	_	_
6	कि	कि	CC	avy	lex-कि|cat-avy|gen-|num-|pers-|case-|vib-|tam-|chunkId-CCP|chunkType-head|stype-|voicetype-	1	rs	_	_
7	चंदेल	चंदेल	NNP	n	lex-चंदेल|cat-n|gen-m|num-sg|pers-3|case-d|vib-0|tam-0|chunkId-NP2|chunkType-child|stype-|voicetype-	8	nmod__adj	_	_
8	राजा	राजा	NN	n	lex-राजा|cat-n|gen-m|num-pl|pers-3|case-d|vib-0|tam-0|chunkId-NP2|chunkType-head|stype-|voicetype-	14	k1	_	_
9	तंत्र	तंत्र	NNC	n	lex-तंत्र|cat-n|gen-m|num-sg|pers-3|case-d|vib-0|tam-0|chunkId-NP3|chunkType-child|stype-|voicetype-	11	pof__cn	_	_
10	-	-	SYM	punc	lex--|cat-punc|gen-|num-|pers-|case-|vib-|tam-|chunkId-NP3|chunkType-child|stype-|voicetype-	11	pof__cn	_	_
11	मंत्र	मंत्र	NN	n	lex-मंत्र|cat-n|gen-m|num-sg|pers-3|case-o|vib-0_में|tam-0|chunkId-NP3|chunkType-head|stype-|voicetype-	14	k7	_	_
12	में	में	PSP	psp	lex-में|cat-psp|gen-|num-|pers-|case-|vib-|tam-|chunkId-NP3|chunkType-child|stype-|voicetype-	11	lwg__psp	_	_
13	विश्‍वास	विश्वास	NN	n	lex-विश्वास|cat-n|gen-m|num-sg|pers-3|case-d|vib-0|tam-0|chunkId-NP4|chunkType-head|stype-|voicetype-	14	pof	_	_
14	रखते	रख	VM	v	lex-रख|cat-v|gen-m|num-pl|pers-any|case-|vib-ता_था|tam-wA|chunkId-VGF2|chunkType-head|stype-declarative|voicetype-active	6	ccof	_	_
15	थे	था	VAUX	v	lex-था|cat-v|gen-m|num-pl|pers-any|case-|vib-था|tam-WA|chunkId-VGF2|chunkType-child|stype-|voicetype-	14	lwg__vaux	_	_
16	।	।	SYM	punc	lex-।|cat-punc|gen-|num-|pers-|case-|vib-|tam-|chunkId-BLK|chunkType-head|stype-|voicetype-	3	rsym	_	_

1	उनकी	वह	PRP	pn	lex-वह|cat-pn|gen-f|num-pl|pers-3|case-o|vib-का|tam-kA|chunkId-NP|chunkType-head|stype-|voicetype-	2	r6	_	_
2	मान्‍यता	मान्यता	NN	n	lex-मान्यता|cat-n|gen-f|num-sg|pers-3|case-d|vib-0|tam-0|chunkId-NP2|chunkType-head|stype-|voicetype-	3	k1	_	_
3	थी	था	VM	v	lex-था|cat-v|gen-f|num-sg|pers-any|case-|vib-था|tam-WA|chunkId-VGF|chunkType-head|stype-declarative|voicetype-active	0	main	_	_
4	,	COMMA	SYM	punc	lex-COMMA|cat-punc|gen-|num-|pers-|case-|vib-|tam-|chunkId-VGF|chunkType-child|stype-|voicetype-	3	rsym	_	_
5	कि	कि	CC	avy	lex-कि|cat-avy|gen-|num-|pers-|case-|vib-|tam-|chunkId-CCP|chunkType-head|stype-|voicetype-	2	rs	_	_
6	सांसारिक	सांसारिक	JJ	adj	lex-सांसारिक|cat-adj|gen-any|num-any|pers-|case-o|vib-|tam-|chunkId-NP3|chunkType-child|stype-|voicetype-	7	nmod__adj	_	_
7	बातों	बात	NN	n	lex-बात|cat-n|gen-f|num-pl|pers-3|case-o|vib-0_में|tam-0|chunkId-NP3|chunkType-head|stype-|voicetype-	9	k7	_	_
8	में	में	PSP	psp	lex-में|cat-psp|gen-|num-|pers-|case-|vib-|tam-|chunkId-NP3|chunkType-child|stype-|voicetype-	7	lwg__psp	_	_
9	रमने	रम	VM	v	lex-रम|cat-v|gen-any|num-sg|pers-3|case-o|vib-ना_के_बाद|tam-nA|chunkId-VGNN|chunkType-head|stype-|voicetype-	20	k7t	_	_
10	के	के	PSP	psp	lex-के|cat-psp|gen-|num-|pers-|case-|vib-|tam-|chunkId-VGNN|chunkType-child|stype-|voicetype-	9	lwg__psp	_	_
11	बाद	बाद	NST	nst	lex-बाद|cat-nst|gen-m|num-sg|pers-3|case-d|vib-|tam-|chunkId-VGNN|chunkType-child|stype-|voicetype-	9	lwg__nst	_	_
12	ही	ही	RP	avy	lex-ही|cat-avy|gen-|num-|pers-|case-|vib-|tam-|chunkId-VGNN|chunkType-child|stype-|voicetype-	9	lwg__rp	_	_
13	मनुष्‍य	मनुष्‍य	NN	n	lex-मनुष्‍य|cat-n|gen-m|num-sg|pers-3|case-o|vib-0_का|tam-0|chunkId-NP4|chunkType-head|stype-|voicetype-	15	r6	_	_
14	की	का	PSP	psp	lex-का|cat-psp|gen-f|num-sg|pers-|case-d|vib-|tam-|chunkId-NP4|chunkType-child|stype-|voicetype-	13	lwg__psp	_	_
15	अनंत	अनंत	NN	n	lex-अनंत|cat-n|gen-m|num-sg|pers-3|case-o|vib-0_के_प्रति|tam-0|chunkId-NP5|chunkType-head|stype-|voicetype-	20	rd	_	_
16	के	के	PSP	psp	lex-के|cat-psp|gen-|num-|pers-|case-|vib-|tam-|chunkId-NP5|chunkType-child|stype-|voicetype-	15	lwg__psp	_	_
17	प्रति	प्रति	PSP	psp	lex-प्रति|cat-psp|gen-|num-|pers-|case-|vib-|tam-|chunkId-NP5|chunkType-child|stype-|voicetype-	15	lwg__psp	_	_
18	यात्रा	यात्रा	NN	n	lex-यात्रा|cat-n|gen-f|num-sg|pers-3|case-d|vib-0|tam-0|chunkId-NP6|chunkType-head|stype-|voicetype-	20	k1	_	_
19	शुरू	शुरू	NN	n	lex-शुरू|cat-n|gen-m|num-sg|pers-3|case-d|vib-0|tam-0|chunkId-NP7|chunkType-head|stype-|voicetype-	20	pof	_	_
20	होती	हो	VM	v	lex-हो|cat-v|gen-f|num-sg|pers-3|case-|vib-ता_है|tam-wA|chunkId-VGF2|chunkType-head|stype-declarative|voicetype-active	5	ccof	_	_
21	है	है	VAUX	v	lex-है|cat-v|gen-any|num-sg|pers-3|case-|vib-है|tam-hE|chunkId-VGF2|chunkType-child|stype-|voicetype-	20	lwg__vaux	_	_
22	।	।	SYM	punc	lex-।|cat-punc|gen-|num-|pers-|case-|vib-|tam-|chunkId-BLK|chunkType-head|stype-|voicetype-	3	rsym	_	_

