1	नागालैंड	नागालैंड	NNP	n	lex-नागालैंड|cat-n|gen-m|num-sg|pers-3|case-o|vib-0|tam-0|chunkId-NP|chunkType-head|stype-|voicetype-	2	ccof	_	_
2	और	और	CC	avy	lex-और|cat-avy|gen-|num-|pers-|case-|vib-|tam-|chunkId-CCP|chunkType-head|stype-|voicetype-	7	nmod	_	_
3	अरुणाचल	अरुणाचल	NNPC	n	lex-अरुणाचल|cat-n|gen-m|num-sg|pers-3|case-d|vib-0|tam-0|chunkId-NP2|chunkType-child|stype-|voicetype-	4	pof__cn	_	_
4	प्रदेश	प्रदेश	NNP	n	lex-प्रदेश|cat-n|gen-m|num-sg|pers-3|case-o|vib-0_के_साथ|tam-0|chunkId-NP2|chunkType-head|stype-|voicetype-	2	ccof	_	_
5	के	के	PSP	psp	lex-के|cat-psp|gen-|num-|pers-|case-|vib-|tam-|chunkId-NP2|chunkType-child|stype-|voicetype-	4	lwg__psp	_	_
6	साथ	साथ	NST	nst	lex-साथ|cat-nst|gen-m|num-sg|pers-3|case-d|vib-|tam-|chunkId-NP2|chunkType-child|stype-|voicetype-	4	lwg__psp	_	_
7	असम	असम	NNP	n	lex-असम|cat-n|gen-m|num-sg|pers-3|case-o|vib-0_का|tam-0|chunkId-NP3|chunkType-head|stype-|voicetype-	10	r6	_	_
8	के	का	PSP	psp	lex-का|cat-psp|gen-m|num-sg|pers-|case-o|vib-|tam-|chunkId-NP3|chunkType-child|stype-|voicetype-	7	lwg__psp	_	_
9	सीमा	सीमा	NNC	n	lex-सीमा|cat-n|gen-f|num-sg|pers-3|case-d|vib-0|tam-0|chunkId-NP4|chunkType-child|stype-|voicetype-	10	pof__cn	_	_
10	विवाद	विवाद	NN	n	lex-विवाद|cat-n|gen-m|num-sg|pers-3|case-o|vib-0_का|tam-0|chunkId-NP4|chunkType-head|stype-|voicetype-	12	r6	_	_
11	के	का	PSP	psp	lex-का|cat-psp|gen-m|num-sg|pers-|case-o|vib-|tam-|chunkId-NP4|chunkType-child|stype-|voicetype-	10	lwg__psp	_	_
12	हल	हल	NN	n	lex-हल|cat-n|gen-m|num-sg|pers-3|case-o|vib-0_के_लिए|tam-0|chunkId-NP5|chunkType-head|stype-|voicetype-	30	rt	_	_
13	के	के	PSP	psp	lex-के|cat-psp|gen-|num-|pers-|case-|vib-|tam-|chunkId-NP5|chunkType-child|stype-|voicetype-	12	lwg__psp	_	_
14	लिए	लिए	PSP	psp	lex-लिए|cat-psp|gen-|num-|pers-|case-|vib-|tam-|chunkId-NP5|chunkType-child|stype-|voicetype-	12	lwg__psp	_	_
15	सुप्रीमकोर्ट	सुप्रीमकोर्ट	NNP	n	lex-सुप्रीमकोर्ट|cat-n|gen-f|num-sg|pers-3|case-o|vib-0_ने|tam-0|chunkId-NP6|chunkType-head|stype-|voicetype-	30	k1	_	_
16	ने	ने	PSP	psp	lex-ने|cat-psp|gen-|num-|pers-|case-|vib-|tam-|chunkId-NP6|chunkType-child|stype-|voicetype-	15	lwg__psp	_	_
17	प्रस्तावित	प्रस्तावित	JJ	adj	lex-प्रस्तावित|cat-adj|gen-any|num-any|pers-|case-o|vib-|tam-|chunkId-JJP|chunkType-head|stype-|voicetype-	19	nmod	_	_
18	सीमा	सीमा	NNPC	n	lex-सीमा|cat-n|gen-f|num-sg|pers-3|case-d|vib-0|tam-0|chunkId-NP7|chunkType-child|stype-|voicetype-	19	pof__cn	_	_
19	आयोग	आयोग	NNP	n	lex-आयोग|cat-n|gen-m|num-sg|pers-3|case-o|vib-0_का|tam-0|chunkId-NP7|chunkType-head|stype-|voicetype-	21	r6	_	_
20	के	का	PSP	psp	lex-का|cat-psp|gen-m|num-sg|pers-|case-o|vib-|tam-|chunkId-NP7|chunkType-child|stype-|voicetype-	19	lwg__psp	_	_
21	गठन	गठन	NN	n	lex-गठन|cat-n|gen-m|num-sg|pers-3|case-o|vib-0_के_लिए|tam-0|chunkId-NP8|chunkType-head|stype-|voicetype-	30	rt	_	_
22	के	के	PSP	psp	lex-के|cat-psp|gen-|num-|pers-|case-|vib-|tam-|chunkId-NP8|chunkType-child|stype-|voicetype-	21	lwg__psp	_	_
23	लिए	लिए	PSP	psp	lex-लिए|cat-psp|gen-|num-|pers-|case-|vib-|tam-|chunkId-NP8|chunkType-child|stype-|voicetype-	21	lwg__psp	_	_
24	केंद्र	केंद्र	NNP	n	lex-केंद्र|cat-n|gen-m|num-sg|pers-3|case-o|vib-0_को|tam-0|chunkId-NP9|chunkType-head|stype-|voicetype-	30	k4	_	_
25	को	को	PSP	psp	lex-को|cat-psp|gen-|num-|pers-|case-|vib-|tam-|chunkId-NP9|chunkType-child|stype-|voicetype-	24	lwg__psp	_	_
26	तीन	तीन	QC	num	lex-तीन|cat-num|gen-any|num-any|pers-|case-any|vib-|tam-|chunkId-NP10|chunkType-child|stype-|voicetype-	27	nmod__adj	_	_
27	हफ्ते	हफ्ता	NN	n	lex-हफ्ता|cat-n|gen-m|num-sg|pers-3|case-o|vib-0_का|tam-0|chunkId-NP10|chunkType-head|stype-|voicetype-	29	r6	_	_
28	का	का	PSP	psp	lex-का|cat-psp|gen-m|num-sg|pers-|case-d|vib-|tam-|chunkId-NP10|chunkType-child|stype-|voicetype-	27	lwg__psp	_	_
29	समय	समय	NN	n	lex-समय|cat-n|gen-m|num-sg|pers-3|case-d|vib-0|tam-0|chunkId-NP11|chunkType-head|stype-|voicetype-	30	k2	_	_
30	दिया	दे	VM	v	lex-दे|cat-v|gen-m|num-sg|pers-3|case-|vib-या_है|tam-yA|chunkId-VGF|chunkType-head|stype-declarative|voicetype-active	0	main	_	_
31	है	है	VAUX	v	lex-है|cat-v|gen-any|num-sg|pers-3|case-|vib-है|tam-hE|chunkId-VGF|chunkType-child|stype-|voicetype-	30	lwg__vaux	_	_
32	।	।	SYM	punc	lex-।|cat-punc|gen-|num-|pers-|case-|vib-|tam-|chunkId-BLK|chunkType-head|stype-|voicetype-	30	rsym	_	_

1	कोर्ट	कोर्ट	NN	n	lex-कोर्ट|cat-n|gen-m|num-sg|pers-3|case-o|vib-0_ने|tam-0|chunkId-NP|chunkType-head|stype-|voicetype-	22	k1	_	_
2	ने	ने	PSP	psp	lex-ने|cat-psp|gen-|num-|pers-|case-|vib-|tam-|chunkId-NP|chunkType-child|stype-|voicetype-	1	lwg__psp	_	_
3	इस	यह	DEM	pn	lex-यह|cat-pn|gen-any|num-sg|pers-3|case-o|vib-|tam-|chunkId-NP2|chunkType-child|stype-|voicetype-	4	nmod__adj	_	_
4	अवधि	अवधि	NN	n	lex-अवधि|cat-n|gen-f|num-sg|pers-3|case-o|vib-0_में|tam-0|chunkId-NP2|chunkType-head|stype-|voicetype-	22	k7t	_	_
5	में	में	PSP	psp	lex-में|cat-psp|gen-|num-|pers-|case-|vib-|tam-|chunkId-NP2|chunkType-child|stype-|voicetype-	4	lwg__psp	_	_
6	सरकार	सरकार	NN	n	lex-सरकार|cat-n|gen-f|num-sg|pers-3|case-o|vib-0_को|tam-0|chunkId-NP3|chunkType-head|stype-|voicetype-	22	k4	_	_
7	को	को	PSP	psp	lex-को|cat-psp|gen-|num-|pers-|case-|vib-|tam-|chunkId-NP3|chunkType-child|stype-|voicetype-	6	lwg__psp	_	_
8	प्रस्तावित	प्रस्तावित	JJ	adj	lex-प्रस्तावित|cat-adj|gen-any|num-any|pers-|case-o|vib-|tam-|chunkId-JJP|chunkType-head|stype-|voicetype-	9	nmod	_	_
9	आयोग	आयोग	NN	n	lex-आयोग|cat-n|gen-m|num-sg|pers-3|case-o|vib-0_का|tam-0|chunkId-NP4|chunkType-head|stype-|voicetype-	11	r6	_	_
10	के	का	PSP	psp	lex-का|cat-psp|gen-m|num-sg|pers-|case-o|vib-|tam-|chunkId-NP4|chunkType-child|stype-|voicetype-	9	lwg__psp	_	_
11	चेयरमैन	चेयरमैन	NN	n	lex-चेयरमैन|cat-n|gen-m|num-sg|pers-3|case-o|vib-0|tam-0|chunkId-NP5|chunkType-head|stype-|voicetype-	12	ccof	_	_
12	और	और	CC	avy	lex-और|cat-avy|gen-|num-|pers-|case-|vib-|tam-|chunkId-CCP|chunkType-head|stype-|voicetype-	18	r6	_	_
13	अन्य	अन्य	JJ	adj	lex-अन्य|cat-adj|gen-any|num-any|pers-|case-o|vib-|tam-|chunkId-NP6|chunkType-child|stype-|voicetype-	14	nmod__adj	_	_
14	सदस्यों	सदस्य	NN	n	lex-सदस्य|cat-n|gen-m|num-pl|pers-3|case-o|vib-0_का|tam-0|chunkId-NP6|chunkType-head|stype-|voicetype-	16	r6	_	_
15	के	का	PSP	psp	lex-का|cat-psp|gen-m|num-pl|pers-|case-o|vib-|tam-|chunkId-NP6|chunkType-child|stype-|voicetype-	14	lwg__psp	_	_
16	नामों	नाम	NN	n	lex-नाम|cat-n|gen-m|num-pl|pers-3|case-o|vib-0_का|tam-0|chunkId-NP7|chunkType-head|stype-|voicetype-	12	ccof	_	_
17	का	का	PSP	psp	lex-का|cat-psp|gen-m|num-sg|pers-|case-d|vib-|tam-|chunkId-NP7|chunkType-child|stype-|voicetype-	16	lwg__psp	_	_
18	सुझाव	सुझाव	NN	n	lex-सुझाव|cat-n|gen-m|num-sg|pers-3|case-d|vib-0|tam-0|chunkId-NP8|chunkType-head|stype-|voicetype-	19	k2	_	_
19	देने	दे	VM	v	lex-दे|cat-v|gen-any|num-any|pers-any|case-o|vib-ना_के_लिए|tam-nA|chunkId-VGNN|chunkType-head|stype-|voicetype-	22	rt	_	_
20	के	के	PSP	psp	lex-के|cat-psp|gen-|num-|pers-|case-|vib-|tam-|chunkId-VGNN|chunkType-child|stype-|voicetype-	19	lwg__psp	_	_
21	लिए	लिए	PSP	psp	lex-लिए|cat-psp|gen-|num-|pers-|case-|vib-|tam-|chunkId-VGNN|chunkType-child|stype-|voicetype-	19	lwg__psp	_	_
22	कहा	कह	VM	v	lex-कह|cat-v|gen-m|num-sg|pers-3|case-|vib-या_है|tam-yA|chunkId-VGF|chunkType-head|stype-declarative|voicetype-active	0	main	_	_
23	है	है	VAUX	v	lex-है|cat-v|gen-any|num-sg|pers-3|case-|vib-है|tam-hE|chunkId-VGF|chunkType-child|stype-|voicetype-	22	lwg__vaux	_	_
24	।	।	SYM	punc	lex-।|cat-punc|gen-|num-|pers-|case-|vib-|tam-|chunkId-BLK|chunkType-head|stype-|voicetype-	22	rsym	_	_

1	सीमा	सीमा	NNC	n	lex-सीमा|cat-n|gen-f|num-sg|pers-3|case-d|vib-0|tam-0|chunkId-NP|chunkType-child|stype-|voicetype-	2	pof__cn	_	_
2	विवाद	विवाद	NN	n	lex-विवाद|cat-n|gen-m|num-sg|pers-3|case-o|vib-0_का|tam-0|chunkId-NP|chunkType-head|stype-|voicetype-	4	r6	_	_
3	के	का	PSP	psp	lex-का|cat-psp|gen-m|num-sg|pers-|case-o|vib-|tam-|chunkId-NP|chunkType-child|stype-|voicetype-	2	lwg__psp	_	_
4	हल	हल	NN	n	lex-हल|cat-n|gen-m|num-sg|pers-3|case-o|vib-0_के_लिए|tam-0|chunkId-NP2|chunkType-head|stype-|voicetype-	33	rt	_	_
5	के	के	PSP	psp	lex-के|cat-psp|gen-|num-|pers-|case-|vib-|tam-|chunkId-NP2|chunkType-child|stype-|voicetype-	4	lwg__psp	_	_
6	लिए	लिए	PSP	psp	lex-लिए|cat-psp|gen-|num-|pers-|case-|vib-|tam-|chunkId-NP2|chunkType-child|stype-|voicetype-	4	lwg__psp	_	_
7	असम	असम	NNP	n	lex-असम|cat-n|gen-m|num-sg|pers-3|case-o|vib-0_द्वारा|tam-0|chunkId-NP3|chunkType-head|stype-|voicetype-	10	k1	_	_
8	द्वारा	द्वारा	PSP	psp	lex-द्वारा|cat-psp|gen-|num-|pers-|case-|vib-|tam-|chunkId-NP3|chunkType-child|stype-|voicetype-	7	lwg__psp	_	_
9	दाखिल	दाखिल	JJ	adj	lex-दाखिल|cat-adj|gen-any|num-any|pers-|case-|vib-|tam-|chunkId-JJP|chunkType-head|stype-|voicetype-	10	pof	_	_
10	की	कर	VM	v	lex-कर|cat-v|gen-f|num-sg|pers-any|case-|vib-या_जा+या१|tam-yA|chunkId-VGNF|chunkType-head|stype-|voicetype-	13	nmod__k1inv	_	_
11	गई	जा	VAUX	v	lex-जा|cat-v|gen-f|num-sg|pers-any|case-|vib-या१|tam-yA1|chunkId-VGNF|chunkType-child|stype-|voicetype-	10	lwg__vaux	_	_
12	दो	दो	QC	num	lex-दो|cat-num|gen-any|num-any|pers-|case-any|vib-|tam-|chunkId-NP4|chunkType-child|stype-|voicetype-	13	nmod__adj	_	_
13	अर्जियों	अर्जी	NN	n	lex-अर्जी|cat-n|gen-f|num-pl|pers-3|case-o|vib-0_पर|tam-0|chunkId-NP4|chunkType-head|stype-|voicetype-	16	k7	_	_
14	पर	पर	PSP	psp	lex-पर|cat-psp|gen-|num-|pers-|case-|vib-|tam-|chunkId-NP4|chunkType-child|stype-|voicetype-	13	lwg__psp	_	_
15	सुनवाई	सुनवाई	NN	n	lex-सुनवाई|cat-n|gen-f|num-sg|pers-3|case-d|vib-0|tam-0|chunkId-NP5|chunkType-head|stype-|voicetype-	16	pof	_	_
16	करते	कर	VM	v	lex-कर|cat-v|gen-m|num-sg|pers-any|case-|vib-ता_हो+या|tam-wA|chunkId-VGNF2|chunkType-head|stype-|voicetype-	22	nmod__k1inv	_	_
17	हुए	हो	VAUX	v	lex-हो|cat-v|gen-m|num-sg|pers-any|case-|vib-या|tam-yA|chunkId-VGNF2|chunkType-child|stype-|voicetype-	16	lwg__vaux	_	_
18	प्रधान	प्रधान	NNC	adj	lex-प्रधान|cat-adj|gen-any|num-any|pers-|case-o|vib-|tam-|chunkId-NP6|chunkType-child|stype-|voicetype-	20	pof__cn	_	_
19	न्यायाधीश	न्यायाधीश	NNC	n	lex-न्यायाधीश|cat-n|gen-m|num-sg|pers-3|case-d|vib-0|tam-0|chunkId-NP6|chunkType-child|stype-|voicetype-	20	pof__cn	_	_
20	वाई.	वाई.	NNPC	n	lex-वाई.|cat-n|gen-m|num-sg|pers-3|case-d|vib-0|tam-0|chunkId-NP6|chunkType-child|stype-|voicetype-	22	pof__cn	_	_
21	के.	के.	NNPC	n	lex-के.|cat-n|gen-m|num-sg|pers-3|case-d|vib-0|tam-0|chunkId-NP6|chunkType-child|stype-|voicetype-	22	pof__cn	_	_
22	सब्बरवाल	सब्बरवाल	NNP	n	lex-सब्बरवाल|cat-n|gen-m|num-sg|pers-3|case-o|vib-0|tam-0|chunkId-NP6|chunkType-head|stype-|voicetype-	23	ccof	_	_
23	और	और	CC	avy	lex-और|cat-avy|gen-|num-|pers-|case-|vib-|tam-|chunkId-CCP|chunkType-head|stype-|voicetype-	33	k1	_	_
24	न्यायाधीश	न्यायाधीश	NNC	n	lex-न्यायाधीश|cat-n|gen-m|num-sg|pers-3|case-d|vib-0|tam-0|chunkId-NP7|chunkType-child|stype-|voicetype-	25	pof__cn	_	_
25	सी.	सी.	NNPC	n	lex-सी.|cat-n|gen-m|num-sg|pers-3|case-d|vib-0|tam-0|chunkId-NP7|chunkType-child|stype-|voicetype-	27	pof__cn	_	_
26	के.	के.	NNPC	n	lex-के.|cat-n|gen-m|num-sg|pers-3|case-d|vib-0|tam-0|chunkId-NP7|chunkType-child|stype-|voicetype-	27	pof__cn	_	_
27	ठक्कर	ठक्कर	NNP	n	lex-ठक्कर|cat-n|gen-m|num-sg|pers-3|case-o|vib-0_ने|tam-0|chunkId-NP7|chunkType-head|stype-|voicetype-	23	ccof	_	_
28	ने	ने	PSP	psp	lex-ने|cat-psp|gen-|num-|pers-|case-|vib-|tam-|chunkId-NP7|chunkType-child|stype-|voicetype-	27	lwg__psp	_	_
29	केंद्र	केंद्र	NNP	n	lex-केंद्र|cat-n|gen-m|num-sg|pers-3|case-o|vib-0_को|tam-0|chunkId-NP8|chunkType-head|stype-|voicetype-	33	k4	_	_
30	को	को	PSP	psp	lex-को|cat-psp|gen-|num-|pers-|case-|vib-|tam-|chunkId-NP8|chunkType-child|stype-|voicetype-	29	lwg__psp	_	_
31	यह	यह	DEM	pn	lex-यह|cat-pn|gen-any|num-sg|pers-3|case-d|vib-|tam-|chunkId-NP9|chunkType-child|stype-|voicetype-	32	nmod__adj	_	_
32	आदेश	आदेश	NN	n	lex-आदेश|cat-n|gen-m|num-sg|pers-3|case-d|vib-0|tam-0|chunkId-NP9|chunkType-head|stype-|voicetype-	33	k2	_	_
33	दिया	दे	VM	v	lex-दे|cat-v|gen-m|num-sg|pers-any|case-|vib-या|tam-yA|chunkId-VGF|chunkType-head|stype-declarative|voicetype-active	0	main	_	_
34	।	।	SYM	punc	lex-।|cat-punc|gen-|num-|pers-|case-|vib-|tam-|chunkId-BLK|chunkType-head|stype-|voicetype-	33	rsym	_	_

1	अटॉर्नी	अटॉर्नी	NNC	n	lex-अटॉर्नी|cat-n|gen-m|num-sg|pers-3|case-d|vib-0|tam-0|chunkId-NP|chunkType-child|stype-|voicetype-	3	pof__cn	_	_
2	जनरल	जनरल	NNC	n	lex-जनरल|cat-n|gen-m|num-sg|pers-3|case-d|vib-0|tam-0|chunkId-NP|chunkType-child|stype-|voicetype-	3	pof__cn	_	_
3	मिलन	मिलन	NNPC	n	lex-मिलन|cat-n|gen-m|num-sg|pers-3|case-d|vib-0|tam-0|chunkId-NP|chunkType-child|stype-|voicetype-	5	pof__cn	_	_
4	के.	के.	NNPC	n	lex-के.|cat-n|gen-m|num-sg|pers-3|case-d|vib-0|tam-0|chunkId-NP|chunkType-child|stype-|voicetype-	5	pof__cn	_	_
5	बनर्जी	बनर्जी	NNP	n	lex-बनर्जी|cat-n|gen-m|num-sg|pers-3|case-o|vib-0_ने|tam-0|chunkId-NP|chunkType-head|stype-|voicetype-	9	k1	_	_
6	ने	ने	PSP	psp	lex-ने|cat-psp|gen-|num-|pers-|case-|vib-|tam-|chunkId-NP|chunkType-child|stype-|voicetype-	5	lwg__psp	_	_
7	खंडपीठ	खंडपीठ	NN	n	lex-खंडपीठ|cat-n|gen-f|num-sg|pers-3|case-o|vib-0_से|tam-0|chunkId-NP2|chunkType-head|stype-|voicetype-	9	k4	_	_
8	से	से	PSP	psp	lex-से|cat-psp|gen-|num-|pers-|case-|vib-|tam-|chunkId-NP2|chunkType-child|stype-|voicetype-	7	lwg__psp	_	_
9	कहा	कह	VM	v	lex-कह|cat-v|gen-m|num-sg|pers-any|case-|vib-या|tam-yA|chunkId-VGF|chunkType-head|stype-declarative|voicetype-active	0	main	_	_
10	कि	कि	CC	avy	lex-कि|cat-avy|gen-|num-|pers-|case-|vib-|tam-|chunkId-CCP|chunkType-head|stype-|voicetype-	9	k2	_	_
11	आयोग	आयोग	NN	n	lex-आयोग|cat-n|gen-m|num-sg|pers-3|case-o|vib-0_का|tam-0|chunkId-NP3|chunkType-head|stype-|voicetype-	13	r6	_	_
12	की	का	PSP	psp	lex-का|cat-psp|gen-f|num-sg|pers-|case-o|vib-|tam-|chunkId-NP3|chunkType-child|stype-|voicetype-	11	lwg__psp	_	_
13	स्थापना	स्थापना	NN	n	lex-स्थापना|cat-n|gen-f|num-sg|pers-3|case-o|vib-0_के_संबंध_में|tam-0|chunkId-NP4|chunkType-head|stype-|voicetype-	21	k7	_	_
14	के	के	PSP	psp	lex-के|cat-psp|gen-m|num-|pers-|case-o|vib-|tam-|chunkId-NP4|chunkType-child|stype-|voicetype-	13	lwg__psp	_	_
15	संबंध	संबंध	PSP	n	lex-संबंध|cat-n|gen-m|num-|pers-|case-o|vib-|tam-|chunkId-NP4|chunkType-child|stype-|voicetype-	13	lwg__psp	_	_
16	में	में	PSP	psp	lex-में|cat-psp|gen-|num-|pers-|case-|vib-|tam-|chunkId-NP4|chunkType-child|stype-|voicetype-	13	lwg__psp	_	_
17	उन्हें	वह	PRP	pn	lex-वह|cat-pn|gen-any|num-sg|pers-3h|case-o|vib-को|tam-ko|chunkId-NP5|chunkType-head|stype-|voicetype-	21	k1	_	_
18	सरकार	सरकार	NN	n	lex-सरकार|cat-n|gen-f|num-sg|pers-3|case-o|vib-0_से|tam-0|chunkId-NP6|chunkType-head|stype-|voicetype-	21	k4	_	_
19	से	से	PSP	psp	lex-से|cat-psp|gen-|num-|pers-|case-|vib-|tam-|chunkId-NP6|chunkType-child|stype-|voicetype-	18	lwg__psp	_	_
20	परामर्श	परामर्श	NN	n	lex-परामर्श|cat-n|gen-m|num-sg|pers-3|case-d|vib-0|tam-0|chunkId-NP7|chunkType-head|stype-|voicetype-	21	pof	_	_
21	करना	कर	VM	v	lex-कर|cat-v|gen-m|num-sg|pers-3|case-|vib-ना_हो+गा|tam-nA|chunkId-VGF2|chunkType-head|stype-declarative|voicetype-active	23	ccof	_	_
22	होगा	हो	VAUX	v	lex-हो|cat-v|gen-m|num-sg|pers-3|case-|vib-गा|tam-gA|chunkId-VGF2|chunkType-child|stype-|voicetype-	21	lwg__vaux	_	_
23	और	और	CC	avy	lex-और|cat-avy|gen-|num-|pers-|case-|vib-|tam-|chunkId-CCP2|chunkType-head|stype-|voicetype-	10	ccof	_	_
24	इस	यह	DEM	pn	lex-यह|cat-pn|gen-any|num-sg|pers-3|case-o|vib-|tam-|chunkId-NP8|chunkType-child|stype-|voicetype-	25	nmod__adj	_	_
25	संबंध	संबंध	NN	n	lex-संबंध|cat-n|gen-m|num-sg|pers-3|case-o|vib-0_में|tam-0|chunkId-NP8|chunkType-head|stype-|voicetype-	28	k7	_	_
26	में	में	PSP	psp	lex-में|cat-psp|gen-|num-|pers-|case-|vib-|tam-|chunkId-NP8|chunkType-child|stype-|voicetype-	25	lwg__psp	_	_
27	निर्देश	निर्देश	NN	n	lex-निर्देश|cat-n|gen-m|num-pl|pers-3|case-d|vib-0|tam-0|chunkId-NP9|chunkType-head|stype-|voicetype-	28	k2	_	_
28	लेने	ले	VM	v	lex-ले|cat-v|gen-m|num-pl|pers-3|case-|vib-ना_हो+गा|tam-nA|chunkId-VGF3|chunkType-head|stype-declarative|voicetype-active	23	ccof	_	_
29	होंगे	हो	VAUX	v	lex-हो|cat-v|gen-m|num-pl|pers-3|case-|vib-गा|tam-gA|chunkId-VGF3|chunkType-child|stype-|voicetype-	28	lwg__vaux	_	_
30	।	।	SYM	punc	lex-।|cat-punc|gen-|num-|pers-|case-|vib-|tam-|chunkId-BLK|chunkType-head|stype-|voicetype-	9	rsym	_	_

1	कोर्ट	कोर्ट	NN	n	lex-कोर्ट|cat-n|gen-m|num-sg|pers-3|case-o|vib-0_ने|tam-0|chunkId-NP|chunkType-head|stype-|voicetype-	3	k1	_	_
2	ने	ने	PSP	psp	lex-ने|cat-psp|gen-|num-|pers-|case-|vib-|tam-|chunkId-NP|chunkType-child|stype-|voicetype-	1	lwg__psp	_	_
3	कहा	कह	VM	v	lex-कह|cat-v|gen-m|num-sg|pers-any|case-|vib-या|tam-yA|chunkId-VGF|chunkType-head|stype-declarative|voicetype-active	0	main	_	_
4	कि	कि	CC	avy	lex-कि|cat-avy|gen-|num-|pers-|case-|vib-|tam-|chunkId-CCP|chunkType-head|stype-|voicetype-	3	k2	_	_
5	संविधान	संविधान	NN	n	lex-संविधान|cat-n|gen-m|num-sg|pers-3|case-o|vib-0_में|tam-0|chunkId-NP2|chunkType-head|stype-|voicetype-	14	k7	_	_
6	में	में	PSP	psp	lex-में|cat-psp|gen-|num-|pers-|case-|vib-|tam-|chunkId-NP2|chunkType-child|stype-|voicetype-	5	lwg__psp	_	_
7	इन	यह	DEM	pn	lex-यह|cat-pn|gen-any|num-pl|pers-3|case-o|vib-|tam-|chunkId-NP3|chunkType-child|stype-|voicetype-	8	nmod__adj	_	_
8	राज्यों	राज्य	NN	n	lex-राज्य|cat-n|gen-m|num-pl|pers-3|case-o|vib-0_का|tam-0|chunkId-NP3|chunkType-head|stype-|voicetype-	10	r6	_	_
9	की	का	PSP	psp	lex-का|cat-psp|gen-f|num-pl|pers-|case-d|vib-|tam-|chunkId-NP3|chunkType-child|stype-|voicetype-	8	lwg__psp	_	_
10	सीमाएं	सीमा	NN	n	lex-सीमा|cat-n|gen-f|num-pl|pers-3|case-d|vib-0|tam-0|chunkId-NP4|chunkType-head|stype-|voicetype-	14	k1	_	_
11	पहले	पहले	NST	nst	lex-पहले|cat-nst|gen-m|num-sg|pers-3|case-o|vib-0_से|tam-|chunkId-NP5|chunkType-head|stype-|voicetype-	14	adv	_	_
12	से	से	PSP	psp	lex-से|cat-psp|gen-|num-|pers-|case-|vib-|tam-|chunkId-NP5|chunkType-child|stype-|voicetype-	11	lwg__psp	_	_
13	परिभाषित	परिभाषित	JJ	adj	lex-परिभाषित|cat-adj|gen-any|num-any|pers-|case-|vib-|tam-|chunkId-JJP|chunkType-head|stype-|voicetype-	14	k1s	_	_
14	हैं	है	VM	v	lex-है|cat-v|gen-any|num-pl|pers-3|case-|vib-है|tam-hE|chunkId-VGF2|chunkType-head|stype-declarative|voicetype-active	15	ccof	_	_
15	और	और	CC	avy	lex-और|cat-avy|gen-|num-|pers-|case-|vib-|tam-|chunkId-CCP2|chunkType-head|stype-|voicetype-	4	ccof	_	_
16	आयोग	आयोग	NN	n	lex-आयोग|cat-n|gen-m|num-sg|pers-3|case-o|vib-0_को|tam-0|chunkId-NP6|chunkType-head|stype-|voicetype-	25	k2	_	_
17	को	को	PSP	psp	lex-को|cat-psp|gen-|num-|pers-|case-|vib-|tam-|chunkId-NP6|chunkType-child|stype-|voicetype-	16	lwg__psp	_	_
18	जमीन	जमीन	NN	n	lex-जमीन|cat-n|gen-f|num-sg|pers-3|case-o|vib-0_पर|tam-0|chunkId-NP7|chunkType-head|stype-|voicetype-	24	k7p	_	_
19	पर	पर	PSP	psp	lex-पर|cat-psp|gen-|num-|pers-|case-|vib-|tam-|chunkId-NP7|chunkType-child|stype-|voicetype-	18	lwg__psp	_	_
20	इन	यह	DEM	pn	lex-यह|cat-pn|gen-any|num-pl|pers-3|case-o|vib-|tam-|chunkId-NP8|chunkType-child|stype-|voicetype-	21	nmod__adj	_	_
21	सीमाओं	सीमा	NN	n	lex-सीमा|cat-n|gen-f|num-pl|pers-3|case-o|vib-0_को|tam-0|chunkId-NP8|chunkType-head|stype-|voicetype-	24	k2	_	_
22	को	को	PSP	psp	lex-को|cat-psp|gen-|num-|pers-|case-|vib-|tam-|chunkId-NP8|chunkType-child|stype-|voicetype-	21	lwg__psp	_	_
23	चिन्हित	चिन्हित	JJ	adj	lex-चिन्हित|cat-adj|gen-any|num-any|pers-|case-|vib-|tam-|chunkId-JJP2|chunkType-head|stype-|voicetype-	24	pof	_	_
24	करना	कर	VM	v	lex-कर|cat-v|gen-any|num-any|pers-any|case-o|vib-ना|tam-nA|chunkId-VGNN|chunkType-head|stype-|voicetype-	25	k1	_	_
25	है	है	VM	v	lex-है|cat-v|gen-any|num-sg|pers-3|case-|vib-है|tam-hE|chunkId-VGF3|chunkType-head|stype-declarative|voicetype-active	15	ccof	_	_
26	।	।	SYM	punc	lex-।|cat-punc|gen-|num-|pers-|case-|vib-|tam-|chunkId-BLK|chunkType-head|stype-|voicetype-	3	rsym	_	_

1	मामले	मामला	NN	n	lex-मामला|cat-n|gen-m|num-sg|pers-3|case-o|vib-0_के_संबंध_में|tam-0|chunkId-NP|chunkType-head|stype-|voicetype-	16	k7	_	_
2	के	के	PSP	psp	lex-के|cat-psp|gen-m|num-|pers-|case-o|vib-|tam-|chunkId-NP|chunkType-child|stype-|voicetype-	1	lwg__psp	_	_
3	संबंध	संबंध	PSP	n	lex-संबंध|cat-n|gen-m|num-|pers-|case-o|vib-|tam-|chunkId-NP|chunkType-child|stype-|voicetype-	1	lwg__psp	_	_
4	में	में	PSP	psp	lex-में|cat-psp|gen-|num-|pers-|case-|vib-|tam-|chunkId-NP|chunkType-child|stype-|voicetype-	1	lwg__psp	_	_
5	असम	असम	NNP	n	lex-असम|cat-n|gen-m|num-sg|pers-3|case-o|vib-0_का|tam-0|chunkId-NP2|chunkType-head|stype-|voicetype-	7	r6	_	_
6	का	का	PSP	psp	lex-का|cat-psp|gen-m|num-sg|pers-|case-d|vib-|tam-|chunkId-NP2|chunkType-child|stype-|voicetype-	5	lwg__psp	_	_
7	पक्ष	पक्ष	NN	n	lex-पक्ष|cat-n|gen-m|num-sg|pers-3|case-d|vib-0|tam-0|chunkId-NP3|chunkType-head|stype-|voicetype-	8	k2	_	_
8	रखते	रख	VM	v	lex-रख|cat-v|gen-m|num-sg|pers-any|case-|vib-ता_हो+या|tam-wA|chunkId-VGNF|chunkType-head|stype-|voicetype-	11	nmod__k1inv	_	_
9	हुए	हो	VAUX	v	lex-हो|cat-v|gen-m|num-sg|pers-any|case-|vib-या|tam-yA|chunkId-VGNF|chunkType-child|stype-|voicetype-	8	lwg__vaux	_	_
10	वरिष्ठ	वरिष्ठ	JJ	adj	lex-वरिष्ठ|cat-adj|gen-any|num-any|pers-|case-o|vib-|tam-|chunkId-NP4|chunkType-child|stype-|voicetype-	11	nmod__adj	_	_
11	वकील	वकील	NN	n	lex-वकील|cat-n|gen-m|num-sg|pers-3|case-o|vib-0|tam-0|chunkId-NP4|chunkType-head|stype-|voicetype-	14	nmod	_	_
12	के.	के.	NNPC	n	lex-के.|cat-n|gen-m|num-sg|pers-3|case-d|vib-0|tam-0|chunkId-NP5|chunkType-child|stype-|voicetype-	14	pof__cn	_	_
13	के.	के.	NNPC	n	lex-के.|cat-n|gen-m|num-sg|pers-3|case-d|vib-0|tam-0|chunkId-NP5|chunkType-child|stype-|voicetype-	14	pof__cn	_	_
14	वेणुगोपाल	वेणुगोपाल	NNP	n	lex-वेणुगोपाल|cat-n|gen-m|num-sg|pers-3|case-o|vib-0_ने|tam-0|chunkId-NP5|chunkType-head|stype-|voicetype-	16	k1	_	_
15	ने	ने	PSP	psp	lex-ने|cat-psp|gen-|num-|pers-|case-|vib-|tam-|chunkId-NP5|chunkType-child|stype-|voicetype-	14	lwg__psp	_	_
16	कहा	कह	VM	v	lex-कह|cat-v|gen-m|num-sg|pers-any|case-|vib-या|tam-yA|chunkId-VGF|chunkType-head|stype-declarative|voicetype-active	0	main	_	_
17	कि	कि	CC	avy	lex-कि|cat-avy|gen-|num-|pers-|case-|vib-|tam-|chunkId-CCP|chunkType-head|stype-|voicetype-	16	k2	_	_
18	सीमा	सीमा	JJC	n	lex-सीमा|cat-n|gen-f|num-sg|pers-3|case-d|vib-0|tam-0|chunkId-NP6|chunkType-child|stype-|voicetype-	20	mod	_	_
19	संबंधी	संबंधी	JJ	adj	lex-संबंधी|cat-adj|gen-any|num-any|pers-|case-o|vib-|tam-|chunkId-NP6|chunkType-child|stype-|voicetype-	20	nmod__adj	_	_
20	विवादों	विवाद	NN	n	lex-विवाद|cat-n|gen-m|num-pl|pers-3|case-o|vib-0_का|tam-0|chunkId-NP6|chunkType-head|stype-|voicetype-	22	r6	_	_
21	का	का	PSP	psp	lex-का|cat-psp|gen-m|num-sg|pers-|case-d|vib-|tam-|chunkId-NP6|chunkType-child|stype-|voicetype-	20	lwg__psp	_	_
22	निपटारा	निपटारा	NN	n	lex-निपटारा|cat-n|gen-m|num-sg|pers-3|case-d|vib-0|tam-0|chunkId-NP7|chunkType-head|stype-|voicetype-	26	pof	_	_
23	कोर्ट	कोर्ट	NN	n	lex-कोर्ट|cat-n|gen-m|num-sg|pers-3|case-o|vib-0_में|tam-0|chunkId-NP8|chunkType-head|stype-|voicetype-	26	k7p	_	_
24	में	में	PSP	psp	lex-में|cat-psp|gen-|num-|pers-|case-|vib-|tam-|chunkId-NP8|chunkType-child|stype-|voicetype-	23	lwg__psp	_	_
25	नहीं	नहीं	NEG	avy	lex-नहीं|cat-avy|gen-|num-|pers-|case-|vib-|tam-|chunkId-VGF2|chunkType-child|stype-|voicetype-	26	lwg__neg	_	_
26	किया	कर	VM	v	lex-कर|cat-v|gen-any|num-sg|pers-any|case-|vib-या_जा_सक+ता|tam-yA|chunkId-VGF2|chunkType-head|stype-declarative|voicetype-passive	17	ccof	_	_
27	जा	जा	VAUX	v	lex-जा|cat-v|gen-any|num-any|pers-any|case-|vib-0|tam-0|chunkId-VGF2|chunkType-child|stype-|voicetype-	26	lwg__vaux	_	_
28	सकता	सक	VAUX	v	lex-सक|cat-v|gen-m|num-sg|pers-any|case-|vib-ता|tam-wA|chunkId-VGF2|chunkType-child|stype-|voicetype-	26	lwg__vaux	_	_
29	।	।	SYM	punc	lex-।|cat-punc|gen-|num-|pers-|case-|vib-|tam-|chunkId-BLK|chunkType-head|stype-|voicetype-	16	rsym	_	_

1	उन्होंने	वह	PRP	pn	lex-वह|cat-pn|gen-any|num-sg|pers-3h|case-o|vib-ने|tam-ne|chunkId-NP|chunkType-head|stype-|voicetype-	2	k1	_	_
2	कहा	कह	VM	v	lex-कह|cat-v|gen-m|num-sg|pers-any|case-|vib-या|tam-yA|chunkId-VGF|chunkType-head|stype-declarative|voicetype-active	0	main	_	_
3	कि	कि	CC	avy	lex-कि|cat-avy|gen-|num-|pers-|case-|vib-|tam-|chunkId-CCP|chunkType-head|stype-|voicetype-	2	k2	_	_
4	संसद	संसद	NN	n	lex-संसद|cat-n|gen-f|num-sg|pers-3|case-o|vib-0_द्वारा|tam-0|chunkId-NP2|chunkType-head|stype-|voicetype-	21	k1	_	_
5	द्वारा	द्वारा	PSP	psp	lex-द्वारा|cat-psp|gen-|num-|pers-|case-|vib-|tam-|chunkId-NP2|chunkType-child|stype-|voicetype-	4	lwg__psp	_	_
6	निर्धारित	निर्धारित	JJ	adj	lex-निर्धारित|cat-adj|gen-any|num-any|pers-|case-o|vib-|tam-|chunkId-JJP|chunkType-head|stype-|voicetype-	7	ccof	_	_
7	व	व	CC	avy	lex-व|cat-avy|gen-|num-|pers-|case-|vib-|tam-|chunkId-CCP2|chunkType-head|stype-|voicetype-	17	nmod	_	_
8	संविधान	संविधान	NN	n	lex-संविधान|cat-n|gen-m|num-sg|pers-3|case-o|vib-0_का|tam-0|chunkId-NP3|chunkType-head|stype-|voicetype-	11	r6	_	_
9	की	का	PSP	psp	lex-का|cat-psp|gen-f|num-sg|pers-|case-o|vib-|tam-|chunkId-NP3|chunkType-child|stype-|voicetype-	8	lwg__psp	_	_
10	तीसरी	तीसरा	QO	num	lex-तीसरा|cat-num|gen-f|num-sg|pers-|case-o|vib-|tam-|chunkId-NP4|chunkType-child|stype-|voicetype-	11	nmod__adj	_	_
11	धारा	धारा	NN	n	lex-धारा|cat-n|gen-f|num-sg|pers-3|case-o|vib-0|tam-0|chunkId-NP4|chunkType-head|stype-|voicetype-	12	ccof	_	_
12	व	व	CC	avy	lex-व|cat-avy|gen-|num-|pers-|case-|vib-|tam-|chunkId-CCP3|chunkType-head|stype-|voicetype-	16	jjmod	_	_
13	पहली	पहला	QO	num	lex-पहला|cat-num|gen-f|num-sg|pers-|case-o|vib-|tam-|chunkId-NP5|chunkType-child|stype-|voicetype-	14	nmod__adj	_	_
14	अनुसूची	अनुसूची	NN	n	lex-अनुसूची|cat-n|gen-f|num-sg|pers-3|case-o|vib-0_में|tam-0|chunkId-NP5|chunkType-head|stype-|voicetype-	12	ccof	_	_
15	में	में	PSP	psp	lex-में|cat-psp|gen-|num-|pers-|case-|vib-|tam-|chunkId-NP5|chunkType-child|stype-|voicetype-	14	lwg__psp	_	_
16	परिभाषित	परिभाषित	JJ	adj	lex-परिभाषित|cat-adj|gen-any|num-any|pers-|case-o|vib-|tam-|chunkId-JJP2|chunkType-head|stype-|voicetype-	7	ccof	_	_
17	सीमाओं	सीमा	NN	n	lex-सीमा|cat-n|gen-f|num-pl|pers-3|case-o|vib-0_को|tam-0|chunkId-NP6|chunkType-head|stype-|voicetype-	21	k2	_	_
18	को	को	PSP	psp	lex-को|cat-psp|gen-|num-|pers-|case-|vib-|tam-|chunkId-NP6|chunkType-child|stype-|voicetype-	17	lwg__psp	_	_
19	ध्यान	ध्यान	NN	n	lex-ध्यान|cat-n|gen-m|num-sg|pers-3|case-o|vib-0_में|tam-0|chunkId-NP7|chunkType-head|stype-|voicetype-	21	k7	_	_
20	में	में	PSP	psp	lex-में|cat-psp|gen-|num-|pers-|case-|vib-|tam-|chunkId-NP7|chunkType-child|stype-|voicetype-	19	lwg__psp	_	_
21	रख	रख	VM	v	lex-रख|cat-v|gen-any|num-any|pers-any|case-|vib-0|tam-0|chunkId-VGNF|chunkType-head|stype-|voicetype-	29	vmod	_	_
22	सीमा	सीमा	NNPC	n	lex-सीमा|cat-n|gen-f|num-sg|pers-3|case-d|vib-0|tam-0|chunkId-NP8|chunkType-child|stype-|voicetype-	23	pof__cn	_	_
23	आयोग	आयोग	NNP	n	lex-आयोग|cat-n|gen-m|num-sg|pers-3|case-o|vib-0_को|tam-0|chunkId-NP8|chunkType-head|stype-|voicetype-	29	k1	_	_
24	को	को	PSP	psp	lex-को|cat-psp|gen-|num-|pers-|case-|vib-|tam-|chunkId-NP8|chunkType-child|stype-|voicetype-	23	lwg__psp	_	_
25	इन्हें	यह	PRP	pn	lex-यह|cat-pn|gen-any|num-pl|pers-3|case-o|vib-को|tam-ko|chunkId-NP9|chunkType-head|stype-|voicetype-	29	k2	_	_
26	जमीन	जमीन	NN	n	lex-जमीन|cat-n|gen-f|num-sg|pers-3|case-o|vib-0_पर|tam-0|chunkId-NP10|chunkType-head|stype-|voicetype-	29	k7p	_	_
27	पर	पर	PSP	psp	lex-पर|cat-psp|gen-|num-|pers-|case-|vib-|tam-|chunkId-NP10|chunkType-child|stype-|voicetype-	26	lwg__psp	_	_
28	चिन्हित	चिन्हित	JJ	adj	lex-चिन्हित|cat-adj|gen-any|num-any|pers-|case-|vib-|tam-|chunkId-JJP3|chunkType-head|stype-|voicetype-	29	pof	_	_
29	करना	कर	VM	v	lex-कर|cat-v|gen-any|num-sg|pers-3|case-d|vib-ना_है|tam-nA|chunkId-VGF2|chunkType-head|stype-declarative|voicetype-active	3	ccof	_	_
30	है	है	VAUX	v	lex-है|cat-v|gen-any|num-sg|pers-3|case-|vib-है|tam-hE|chunkId-VGF2|chunkType-child|stype-|voicetype-	29	lwg__vaux	_	_
31	।	।	SYM	punc	lex-।|cat-punc|gen-|num-|pers-|case-|vib-|tam-|chunkId-BLK|chunkType-head|stype-|voicetype-	2	rsym	_	_

1	उन्होंने	वह	PRP	pn	lex-वह|cat-pn|gen-any|num-sg|pers-3h|case-o|vib-ने|tam-ne|chunkId-NP|chunkType-head|stype-|voicetype-	5	k1	_	_
2	यह	यह	PRP	pn	lex-यह|cat-pn|gen-any|num-sg|pers-3|case-d|vib-0|tam-0|chunkId-NP2|chunkType-head|stype-|voicetype-	5	k2	_	_
3	भी	भी	RP	avy	lex-भी|cat-avy|gen-|num-|pers-|case-|vib-|tam-|chunkId-NP2|chunkType-child|stype-|voicetype-	2	lwg__rp	_	_
4	सुझाव	सुझाव	NN	n	lex-सुझाव|cat-n|gen-m|num-sg|pers-3|case-d|vib-0|tam-0|chunkId-NP3|chunkType-head|stype-|voicetype-	5	pof	_	_
5	दिया	दे	VM	v	lex-दे|cat-v|gen-m|num-sg|pers-any|case-|vib-या|tam-yA|chunkId-VGF|chunkType-head|stype-declarative|voicetype-active	0	main	_	_
6	कि	कि	CC	avy	lex-कि|cat-avy|gen-|num-|pers-|case-|vib-|tam-|chunkId-CCP|chunkType-head|stype-|voicetype-	2	rs	_	_
7	प्रस्तावित	प्रस्तावित	JJ	adj	lex-प्रस्तावित|cat-adj|gen-any|num-any|pers-|case-o|vib-|tam-|chunkId-NP4|chunkType-head|stype-|voicetype-	8	nmod	_	_
8	आयोग	आयोग	NN	n	lex-आयोग|cat-n|gen-m|num-sg|pers-3|case-o|vib-0_में|tam-0|chunkId-NP5|chunkType-head|stype-|voicetype-	20	k7	_	_
9	में	में	PSP	psp	lex-में|cat-psp|gen-|num-|pers-|case-|vib-|tam-|chunkId-NP5|chunkType-child|stype-|voicetype-	8	lwg__psp	_	_
10	सर्वेयर	सर्वेयर	NNPC	n	lex-सर्वेयर|cat-n|gen-m|num-sg|pers-3|case-d|vib-0|tam-0|chunkId-NP6|chunkType-child|stype-|voicetype-	13	pof__cn	_	_
11	जनरल	जनरल	NNPC	n	lex-जनरल|cat-n|gen-m|num-sg|pers-3|case-d|vib-0|tam-0|chunkId-NP6|chunkType-child|stype-|voicetype-	13	pof__cn	_	_
12	ऑफ	ऑफ	NNPC	unk	lex-ऑफ|cat-unk|gen-|num-|pers-|case-|vib-|tam-|chunkId-NP6|chunkType-child|stype-|voicetype-	13	pof__cn	_	_
13	इंडिया	इंडिया	NNP	n	lex-इंडिया|cat-n|gen-m|num-sg|pers-3|case-o|vib-0|tam-0|chunkId-NP6|chunkType-head|stype-|voicetype-	14	ccof	_	_
14	व	व	CC	avy	lex-व|cat-avy|gen-|num-|pers-|case-|vib-|tam-|chunkId-CCP2|chunkType-head|stype-|voicetype-	20	k2	_	_
15	कुछ	कुछ	QF	avy	lex-कुछ|cat-avy|gen-|num-|pers-|case-|vib-|tam-|chunkId-NP7|chunkType-child|stype-|voicetype-	17	nmod__adj	_	_
16	सेना	सेना	NNC	n	lex-सेना|cat-n|gen-f|num-sg|pers-3|case-d|vib-0|tam-0|chunkId-NP7|chunkType-child|stype-|voicetype-	17	pof__cn	_	_
17	अधिकारियों	अधिकारी	NN	n	lex-अधिकारी|cat-n|gen-m|num-pl|pers-3|case-o|vib-0_को|tam-0|chunkId-NP7|chunkType-head|stype-|voicetype-	14	ccof	_	_
18	को	को	PSP	psp	lex-को|cat-psp|gen-|num-|pers-|case-|vib-|tam-|chunkId-NP7|chunkType-child|stype-|voicetype-	17	lwg__psp	_	_
19	शामिल	शामिल	JJ	adj	lex-शामिल|cat-adj|gen-any|num-any|pers-|case-|vib-|tam-|chunkId-JJP|chunkType-head|stype-|voicetype-	20	pof	_	_
20	किया	कर	VM	v	lex-कर|cat-v|gen-m|num-any|pers-any|case-|vib-या_जा+ना_चाहिए|tam-yA|chunkId-VGF2|chunkType-head|stype-declarative|voicetype-active	6	ccof	_	_
21	जाना	जा	VAUX	v	lex-जा|cat-v|gen-m|num-sg|pers-any|case-|vib-ना|tam-nA|chunkId-VGF2|chunkType-child|stype-|voicetype-	20	lwg__vaux	_	_
22	चाहिए	चाहिए	VAUX	v	lex-चाहिए|cat-v|gen-any|num-any|pers-any|case-|vib-0|tam-0|chunkId-VGF2|chunkType-child|stype-|voicetype-	20	lwg__vaux	_	_
23	,	COMMA	SYM	punc	lex-COMMA|cat-punc|gen-|num-|pers-|case-|vib-|tam-|chunkId-VGF2|chunkType-child|stype-|voicetype-	20	rsym	_	_
24	क्योंकि	क्योंकि	CC	avy	lex-क्योंकि|cat-avy|gen-|num-|pers-|case-|vib-|tam-|chunkId-CCP3|chunkType-head|stype-|voicetype-	20	rh	_	_
25	इन	यह	DEM	pn	lex-यह|cat-pn|gen-any|num-pl|pers-3|case-o|vib-|tam-|chunkId-NP8|chunkType-child|stype-|voicetype-	26	nmod__adj	_	_
26	लोगों	लोग	NN	n	lex-लोग|cat-n|gen-m|num-pl|pers-3|case-o|vib-0_को|tam-0|chunkId-NP8|chunkType-head|stype-|voicetype-	35	k2	_	_
27	को	को	PSP	psp	lex-को|cat-psp|gen-|num-|pers-|case-|vib-|tam-|chunkId-NP8|chunkType-child|stype-|voicetype-	26	lwg__psp	_	_
28	विवादित	विवादित	JJ	adj	lex-विवादित|cat-adj|gen-any|num-any|pers-|case-o|vib-|tam-|chunkId-NP9|chunkType-child|stype-|voicetype-	29	nmod__adj	_	_
29	क्षेत्र	क्षेत्र	NN	n	lex-क्षेत्र|cat-n|gen-m|num-sg|pers-3|case-o|vib-0_के_बारे_में|tam-0|chunkId-NP9|chunkType-head|stype-|voicetype-	35	k7	_	_
30	के	के	PSP	psp	lex-के|cat-psp|gen-|num-|pers-|case-|vib-|tam-|chunkId-NP9|chunkType-child|stype-|voicetype-	29	lwg__psp	_	_
31	बारे	बारे	PSP	psp	lex-बारे|cat-psp|gen-|num-|pers-|case-|vib-|tam-|chunkId-NP9|chunkType-child|stype-|voicetype-	29	lwg__psp	_	_
32	में	में	PSP	psp	lex-में|cat-psp|gen-|num-|pers-|case-|vib-|tam-|chunkId-NP9|chunkType-child|stype-|voicetype-	29	lwg__psp	_	_
33	अच्छी	अच्छा	JJ	adj	lex-अच्छा|cat-adj|gen-f|num-sg|pers-|case-d|vib-|tam-|chunkId-NP10|chunkType-child|stype-|voicetype-	34	nmod__adj	_	_
34	जानकारी	जानकारी	NN	n	lex-जानकारी|cat-n|gen-f|num-sg|pers-3|case-d|vib-0|tam-0|chunkId-NP10|chunkType-head|stype-|voicetype-	35	k1	_	_
35	है	है	VM	v	lex-है|cat-v|gen-any|num-sg|pers-3|case-|vib-है|tam-hE|chunkId-VGF3|chunkType-head|stype-declarative|voicetype-active	24	ccof	_	_
36	।	।	SYM	punc	lex-।|cat-punc|gen-|num-|pers-|case-|vib-|tam-|chunkId-BLK|chunkType-head|stype-|voicetype-	5	rsym	_	_

1	मामले	मामला	NN	n	lex-मामला|cat-n|gen-m|num-sg|pers-3|case-o|vib-0_के_संबंध_में|tam-0|chunkId-NP|chunkType-head|stype-|voicetype-	22	k7	_	_
2	के	के	PSP	psp	lex-के|cat-psp|gen-m|num-|pers-|case-o|vib-|tam-|chunkId-NP|chunkType-child|stype-|voicetype-	1	lwg__psp	_	_
3	संबंध	संबंध	PSP	n	lex-संबंध|cat-n|gen-m|num-|pers-|case-o|vib-|tam-|chunkId-NP|chunkType-child|stype-|voicetype-	1	lwg__psp	_	_
4	में	में	PSP	psp	lex-में|cat-psp|gen-|num-|pers-|case-|vib-|tam-|chunkId-NP|chunkType-child|stype-|voicetype-	1	lwg__psp	_	_
5	नागालैंड	नागालैंड	NNP	n	lex-नागालैंड|cat-n|gen-m|num-sg|pers-3|case-o|vib-0|tam-0|chunkId-NP2|chunkType-head|stype-|voicetype-	6	ccof	_	_
6	और	और	CC	avy	lex-और|cat-avy|gen-|num-|pers-|case-|vib-|tam-|chunkId-CCP|chunkType-head|stype-|voicetype-	10	r6	_	_
7	अरुणाचल	अरुणाचल	NNPC	n	lex-अरुणाचल|cat-n|gen-m|num-sg|pers-3|case-d|vib-0|tam-0|chunkId-NP3|chunkType-child|stype-|voicetype-	8	pof__cn	_	_
8	प्रदेश	प्रदेश	NNP	n	lex-प्रदेश|cat-n|gen-m|num-sg|pers-3|case-o|vib-0_का|tam-0|chunkId-NP3|chunkType-head|stype-|voicetype-	6	ccof	_	_
9	का	का	PSP	psp	lex-का|cat-psp|gen-m|num-sg|pers-|case-d|vib-|tam-|chunkId-NP3|chunkType-child|stype-|voicetype-	8	lwg__psp	_	_
10	पक्ष	पक्ष	NN	n	lex-पक्ष|cat-n|gen-m|num-sg|pers-3|case-d|vib-0|tam-0|chunkId-NP4|chunkType-head|stype-|voicetype-	11	k2	_	_
11	रखने	रख	VM	v	lex-रख|cat-v|gen-any|num-sg|pers-any|case-o|vib-ना_वाला|tam-nA|chunkId-VGNN|chunkType-head|stype-|voicetype-	13	nmod	_	_
12	वाले	वाला	PSP	psp	lex-वाला|cat-psp|gen-m|num-sg|pers-|case-o|vib-|tam-|chunkId-VGNN|chunkType-child|stype-|voicetype-	11	lwg__psp	_	_
13	वकील	वकील	NN	n	lex-वकील|cat-n|gen-m|num-sg|pers-3|case-o|vib-0_ने|tam-0|chunkId-NP5|chunkType-head|stype-|voicetype-	22	k1	_	_
14	ने	ने	PSP	psp	lex-ने|cat-psp|gen-|num-|pers-|case-|vib-|tam-|chunkId-NP5|chunkType-child|stype-|voicetype-	13	lwg__psp	_	_
15	वर्ष	वर्ष	NNPC	n	lex-वर्ष|cat-n|gen-m|num-sg|pers-3|case-d|vib-0|tam-0|chunkId-NP6|chunkType-child|stype-|voicetype-	16	pof__cn	_	_
16	१९२५	१९२५	NNP	n	lex-१९२५|cat-n|gen-m|num-sg|pers-3|case-o|vib-0_का|tam-0|chunkId-NP6|chunkType-head|stype-|voicetype-	19	r6	_	_
17	के	का	PSP	psp	lex-का|cat-psp|gen-m|num-sg|pers-|case-o|vib-|tam-|chunkId-NP6|chunkType-child|stype-|voicetype-	16	lwg__psp	_	_
18	एक	एक	QC	num	lex-एक|cat-num|gen-any|num-any|pers-|case-any|vib-|tam-|chunkId-NP7|chunkType-child|stype-|voicetype-	19	nmod__adj	_	_
19	कानून	कानून	NN	n	lex-कानून|cat-n|gen-m|num-sg|pers-3|case-o|vib-0_का|tam-0|chunkId-NP7|chunkType-head|stype-|voicetype-	21	r6	_	_
20	का	का	PSP	psp	lex-का|cat-psp|gen-m|num-sg|pers-|case-d|vib-|tam-|chunkId-NP7|chunkType-child|stype-|voicetype-	19	lwg__psp	_	_
21	हवाला	हवाला	NN	n	lex-हवाला|cat-n|gen-m|num-sg|pers-3|case-d|vib-0|tam-0|chunkId-NP8|chunkType-head|stype-|voicetype-	22	k2	_	_
22	दिया	दे	VM	v	lex-दे|cat-v|gen-m|num-sg|pers-any|case-|vib-या|tam-yA|chunkId-VGF|chunkType-head|stype-declarative|voicetype-active	0	main	_	_
23	,	COMMA	SYM	punc	lex-COMMA|cat-punc|gen-|num-|pers-|case-|vib-|tam-|chunkId-VGF|chunkType-child|stype-|voicetype-	22	rsym	_	_
24	जिसके	जो	PRP	pn	lex-जो|cat-pn|gen-any|num-sg|pers-3|case-o|vib-0_तहत|tam-ke|chunkId-NP9|chunkType-head|stype-|voicetype-	31	k7a	_	_
25	तहत	तहत	PSP	psp	lex-तहत|cat-psp|gen-|num-|pers-|case-|vib-|tam-|chunkId-NP9|chunkType-child|stype-|voicetype-	24	lwg__psp	_	_
26	इन	यह	DEM	pn	lex-यह|cat-pn|gen-any|num-pl|pers-3|case-o|vib-|tam-|chunkId-NP10|chunkType-child|stype-|voicetype-	27	nmod__adj	_	_
27	राज्यों	राज्य	NN	n	lex-राज्य|cat-n|gen-m|num-pl|pers-3|case-o|vib-0_को|tam-0|chunkId-NP10|chunkType-head|stype-|voicetype-	31	k4	_	_
28	को	को	PSP	psp	lex-को|cat-psp|gen-|num-|pers-|case-|vib-|tam-|chunkId-NP10|chunkType-child|stype-|voicetype-	27	lwg__psp	_	_
29	अधिक	अधिक	QF	avy	lex-अधिक|cat-avy|gen-|num-|pers-|case-|vib-|tam-|chunkId-NP11|chunkType-child|stype-|voicetype-	30	nmod__adj	_	_
30	क्षेत्र	क्षेत्र	NN	n	lex-क्षेत्र|cat-n|gen-m|num-sg|pers-3|case-d|vib-0|tam-0|chunkId-NP11|chunkType-head|stype-|voicetype-	31	k2	_	_
31	दिया	दे	VM	v	lex-दे|cat-v|gen-m|num-sg|pers-3|case-|vib-या_जा+या१_है|tam-yA|chunkId-VGF2|chunkType-head|stype-declarative|voicetype-active	19	nmod__relc	_	_
32	गया	जा	VAUX	v	lex-जा|cat-v|gen-m|num-sg|pers-any|case-|vib-या१|tam-yA1|chunkId-VGF2|chunkType-child|stype-|voicetype-	31	lwg__vaux	_	_
33	है	है	VAUX	v	lex-है|cat-v|gen-any|num-sg|pers-3|case-|vib-है|tam-hE|chunkId-VGF2|chunkType-child|stype-|voicetype-	31	lwg__vaux	_	_
34	।	।	SYM	punc	lex-।|cat-punc|gen-|num-|pers-|case-|vib-|tam-|chunkId-BLK|chunkType-head|stype-|voicetype-	22	rsym	_	_

1	उन्होंने	वह	PRP	pn	lex-वह|cat-pn|gen-any|num-sg|pers-3h|case-o|vib-ने|tam-ne|chunkId-NP|chunkType-head|stype-|voicetype-	2	k1	_	_
2	कहा	कह	VM	v	lex-कह|cat-v|gen-m|num-sg|pers-any|case-|vib-या|tam-yA|chunkId-VGF|chunkType-head|stype-declarative|voicetype-active	0	main	_	_
3	कि	कि	CC	avy	lex-कि|cat-avy|gen-|num-|pers-|case-|vib-|tam-|chunkId-CCP|chunkType-head|stype-|voicetype-	2	k2	_	_
4	इस	यह	DEM	pn	lex-यह|cat-pn|gen-any|num-sg|pers-3|case-o|vib-|tam-|chunkId-NP2|chunkType-child|stype-|voicetype-	5	nmod__adj	_	_
5	समस्या	समस्या	NN	n	lex-समस्या|cat-n|gen-f|num-sg|pers-3|case-o|vib-0_का|tam-0|chunkId-NP2|chunkType-head|stype-|voicetype-	8	r6	_	_
6	का	का	PSP	psp	lex-का|cat-psp|gen-m|num-sg|pers-|case-d|vib-|tam-|chunkId-NP2|chunkType-child|stype-|voicetype-	5	lwg__psp	_	_
7	राजनीतिक	राजनीतिक	JJ	adj	lex-राजनीतिक|cat-adj|gen-any|num-any|pers-|case-d|vib-|tam-|chunkId-NP3|chunkType-child|stype-|voicetype-	8	nmod__adj	_	_
8	समाधान	समाधान	NN	n	lex-समाधान|cat-n|gen-m|num-sg|pers-3|case-d|vib-0|tam-0|chunkId-NP3|chunkType-head|stype-|voicetype-	9	k2	_	_
9	ढूंढ़ा	ढूंढ़	VM	v	lex-ढूंढ़|cat-v|gen-m|num-any|pers-any|case-|vib-या_जा+ना_चाहिए|tam-yA|chunkId-VGF2|chunkType-head|stype-declarative|voicetype-passive	3	ccof	_	_
10	जाना	जा	VAUX	v	lex-जा|cat-v|gen-m|num-sg|pers-any|case-|vib-ना|tam-nA|chunkId-VGF2|chunkType-child|stype-|voicetype-	9	lwg__vaux	_	_
11	चाहिए	चाहिए	VAUX	v	lex-चाहिए|cat-v|gen-any|num-any|pers-any|case-|vib-0|tam-0|chunkId-VGF2|chunkType-child|stype-|voicetype-	9	lwg__vaux	_	_
12	।	।	SYM	punc	lex-।|cat-punc|gen-|num-|pers-|case-|vib-|tam-|chunkId-BLK|chunkType-head|stype-|voicetype-	2	rsym	_	_

1	असम	असम	NNPC	n	lex-असम|cat-n|gen-m|num-sg|pers-3|case-d|vib-0|tam-0|chunkId-NP|chunkType-child|stype-|voicetype-	2	pof__cn	_	_
2	सरकार	सरकार	NNP	n	lex-सरकार|cat-n|gen-f|num-sg|pers-3|case-o|vib-0_ने|tam-0|chunkId-NP|chunkType-head|stype-|voicetype-	35	k1	_	_
3	ने	ने	PSP	psp	lex-ने|cat-psp|gen-|num-|pers-|case-|vib-|tam-|chunkId-NP|chunkType-child|stype-|voicetype-	2	lwg__psp	_	_
4	वर्ष	वर्ष	NNPC	n	lex-वर्ष|cat-n|gen-m|num-sg|pers-3|case-d|vib-0|tam-0|chunkId-NP2|chunkType-child|stype-|voicetype-	5	pof__cn	_	_
5	१९८८	१९८८	NNP	n	lex-१९८८|cat-n|gen-any|num-sg|pers-3|case-o|vib-0|tam-0|chunkId-NP2|chunkType-head|stype-|voicetype-	6	ccof	_	_
6	व	व	CC	avy	lex-व|cat-avy|gen-|num-|pers-|case-|vib-|tam-|chunkId-CCP|chunkType-head|stype-|voicetype-	35	k7t	_	_
7	१९८९	१९८९	NNP	n	lex-१९८९|cat-n|gen-any|num-sg|pers-3|case-o|vib-0_में|tam-0|chunkId-NP3|chunkType-head|stype-|voicetype-	6	ccof	_	_
8	में	में	PSP	psp	lex-में|cat-psp|gen-|num-|pers-|case-|vib-|tam-|chunkId-NP3|chunkType-child|stype-|voicetype-	7	lwg__psp	_	_
9	नागालैंड	नागालैंड	NNP	n	lex-नागालैंड|cat-n|gen-m|num-sg|pers-3|case-o|vib-0|tam-0|chunkId-NP4|chunkType-head|stype-|voicetype-	10	ccof	_	_
10	व	व	CC	avy	lex-व|cat-avy|gen-|num-|pers-|case-|vib-|tam-|chunkId-CCP2|chunkType-head|stype-|voicetype-	35	vmod	_	_
11	अरुणाचल	अरुणाचल	NNPC	n	lex-अरुणाचल|cat-n|gen-m|num-sg|pers-3|case-d|vib-0|tam-0|chunkId-NP5|chunkType-child|stype-|voicetype-	12	pof__cn	_	_
12	प्रदेश	प्रदेश	NNP	n	lex-प्रदेश|cat-n|gen-m|num-sg|pers-3|case-o|vib-0_के_खिलाफ|tam-0|chunkId-NP5|chunkType-head|stype-|voicetype-	10	ccof	_	_
13	के	के	PSP	psp	lex-के|cat-psp|gen-|num-|pers-|case-|vib-|tam-|chunkId-NP5|chunkType-child|stype-|voicetype-	12	lwg__psp	_	_
14	खिलाफ	खिलाफ	PSP	adj	lex-खिलाफ|cat-adj|gen-|num-|pers-|case-|vib-|tam-|chunkId-NP5|chunkType-child|stype-|voicetype-	12	lwg__psp	_	_
15	दो	दो	QC	num	lex-दो|cat-num|gen-any|num-any|pers-|case-any|vib-|tam-|chunkId-NP6|chunkType-child|stype-|voicetype-	17	nmod__adj	_	_
16	दीवानी	दीवानी	JJ	adj	lex-दीवानी|cat-adj|gen-any|num-any|pers-|case-d|vib-|tam-|chunkId-NP6|chunkType-child|stype-|voicetype-	17	nmod__adj	_	_
17	अर्जियां	अर्जी	NN	n	lex-अर्जी|cat-n|gen-f|num-pl|pers-3|case-d|vib-0|tam-0|chunkId-NP6|chunkType-head|stype-|voicetype-	19	k2	_	_
18	दाखिल	दाखिल	JJ	adj	lex-दाखिल|cat-adj|gen-any|num-any|pers-|case-|vib-|tam-|chunkId-JJP|chunkType-head|stype-|voicetype-	19	pof	_	_
19	कर	कर	VM	v	lex-कर|cat-v|gen-any|num-any|pers-any|case-|vib-0|tam-0|chunkId-VGNF|chunkType-head|stype-|voicetype-	35	vmod	_	_
20	इन	यह	DEM	pn	lex-यह|cat-pn|gen-any|num-pl|pers-3|case-o|vib-|tam-|chunkId-NP7|chunkType-child|stype-|voicetype-	21	nmod__adj	_	_
21	राज्यों	राज्य	NN	n	lex-राज्य|cat-n|gen-m|num-pl|pers-3|case-o|vib-0_पर|tam-0|chunkId-NP7|chunkType-head|stype-|voicetype-	35	k7p	_	_
22	पर	पर	PSP	psp	lex-पर|cat-psp|gen-|num-|pers-|case-|vib-|tam-|chunkId-NP7|chunkType-child|stype-|voicetype-	21	lwg__psp	_	_
23	उसके	वह	PRP	pn	lex-वह|cat-pn|gen-m|num-sg|pers-3|case-o|vib-का|tam-kA|chunkId-NP8|chunkType-head|stype-|voicetype-	27	r6	_	_
24	सैकड़ों	सैकड़ा	QC	num	lex-सैकड़ा|cat-num|gen-any|num-any|pers-|case-any|vib-|tam-|chunkId-NP9|chunkType-child|stype-|voicetype-	27	nmod__adj	_	_
25	वर्ग	वर्ग	NNC	n	lex-वर्ग|cat-n|gen-m|num-sg|pers-3|case-d|vib-0|tam-0|chunkId-NP9|chunkType-child|stype-|voicetype-	27	pof__cn	_	_
26	किलोमीटर	किलोमीटर	NNC	n	lex-किलोमीटर|cat-n|gen-m|num-sg|pers-3|case-d|vib-0|tam-0|chunkId-NP9|chunkType-child|stype-|voicetype-	27	pof__cn	_	_
27	क्षेत्र	क्षेत्र	NN	n	lex-क्षेत्र|cat-n|gen-m|num-sg|pers-3|case-d|vib-0|tam-0|chunkId-NP9|chunkType-head|stype-|voicetype-	31	k2	_	_
28	अपने	अपना	PRP	pn	lex-अपना|cat-pn|gen-m|num-any|pers-any|case-o|vib-0|tam-0|chunkId-NP10|chunkType-head|stype-|voicetype-	29	r6	_	_
29	कब्जे	कब्जा	NN	n	lex-कब्जा|cat-n|gen-m|num-sg|pers-3|case-o|vib-0_में|tam-0|chunkId-NP11|chunkType-head|stype-|voicetype-	31	k7	_	_
30	में	में	PSP	psp	lex-में|cat-psp|gen-|num-|pers-|case-|vib-|tam-|chunkId-NP11|chunkType-child|stype-|voicetype-	29	lwg__psp	_	_
31	कर	कर	VM	v	lex-कर|cat-v|gen-any|num-sg|pers-any|case-|vib-0_ले+ना_का|tam-0|chunkId-VGNN|chunkType-head|stype-|voicetype-	34	r6-k2	_	_
32	लेने	ले	VAUX	v	lex-ले|cat-v|gen-any|num-any|pers-any|case-o|vib-ना|tam-nA|chunkId-VGNN|chunkType-child|stype-|voicetype-	31	lwg__vaux	_	_
33	का	का	PSP	psp	lex-का|cat-psp|gen-m|num-sg|pers-|case-d|vib-|tam-|chunkId-VGNN|chunkType-child|stype-|voicetype-	31	lwg__psp	_	_
34	आरोप	आरोप	NN	n	lex-आरोप|cat-n|gen-m|num-sg|pers-3|case-d|vib-0|tam-0|chunkId-NP12|chunkType-head|stype-|voicetype-	35	pof	_	_
35	लगाया	लगा	VM	v	lex-लगा|cat-v|gen-m|num-sg|pers-any|case-|vib-या_था|tam-yA|chunkId-VGF|chunkType-head|stype-declarative|voicetype-active	0	main	_	_
36	था	था	VAUX	v	lex-था|cat-v|gen-m|num-sg|pers-any|case-|vib-था|tam-WA|chunkId-VGF|chunkType-child|stype-|voicetype-	35	lwg__vaux	_	_
37	।	।	SYM	punc	lex-।|cat-punc|gen-|num-|pers-|case-|vib-|tam-|chunkId-BLK|chunkType-head|stype-|voicetype-	35	rsym	_	_

