1	टीम	टीम	NN	n	lex-टीम|cat-n|gen-f|num-sg|pers-3|case-d|vib-0|tam-0|chunkId-NP|chunkType-child|stype-|voicetype-	2	nmod	_	_
2	इंडिया	इंडिया	NNP	n	lex-इंडिया|cat-n|gen-f|num-sg|pers-3|case-o|vib-0_का|tam-0|chunkId-NP|chunkType-head|stype-|voicetype-	4	r6	_	_
3	के	का	PSP	psp	lex-का|cat-psp|gen-m|num-sg|pers-|case-o|vib-|tam-|chunkId-NP|chunkType-child|stype-|voicetype-	2	lwg__psp	_	_
4	कोच	कोच	NN	n	lex-कोच|cat-n|gen-m|num-sg|pers-3|case-o|vib-0|tam-0|chunkId-NP2|chunkType-head|stype-|voicetype-	6	nmod	_	_
5	ग्रेग	ग्रेग	NNPC	n	lex-ग्रेग|cat-n|gen-m|num-sg|pers-3|case-d|vib-0|tam-0|chunkId-NP3|chunkType-child|stype-|voicetype-	6	pof__cn	_	_
6	चैपल	चैपल	NNP	n	lex-चैपल|cat-n|gen-m|num-sg|pers-3|case-o|vib-0_का|tam-0|chunkId-NP3|chunkType-head|stype-|voicetype-	10	r6	_	_
7	के	का	PSP	psp	lex-का|cat-psp|gen-m|num-sg|pers-|case-o|vib-|tam-|chunkId-NP3|chunkType-child|stype-|voicetype-	6	lwg__psp	_	_
8	'	SINGLE_QUOTE	SYM	punc	lex-SINGLE_QUOTE|cat-punc|gen-|num-|pers-|case-|vib-|tam-|chunkId-NP4|chunkType-child|stype-|voicetype-	10	rsym	_	_
9	उंगली	उंगली	NNC	n	lex-उंगली|cat-n|gen-f|num-sg|pers-3|case-d|vib-0|tam-0|chunkId-NP4|chunkType-child|stype-|voicetype-	10	pof__cn	_	_
10	विवाद	विवाद	NN	n	lex-विवाद|cat-n|gen-m|num-sg|pers-3|case-o|vib-0_को|tam-0|chunkId-NP4|chunkType-head|stype-|voicetype-	14	k2	_	_
11	'	SINGLE_QUOTE	SYM	punc	lex-SINGLE_QUOTE|cat-punc|gen-|num-|pers-|case-|vib-|tam-|chunkId-NP4|chunkType-child|stype-|voicetype-	10	rsym	_	_
12	को	को	PSP	psp	lex-को|cat-psp|gen-|num-|pers-|case-|vib-|tam-|chunkId-NP4|chunkType-child|stype-|voicetype-	10	lwg__psp	_	_
13	शांत	शांत	JJ	adj	lex-शांत|cat-adj|gen-any|num-any|pers-|case-|vib-|tam-|chunkId-JJP|chunkType-head|stype-|voicetype-	14	pof	_	_
14	करने	कर	VM	v	lex-कर|cat-v|gen-any|num-sg|pers-any|case-o|vib-ना_का|tam-nA|chunkId-VGNN|chunkType-head|stype-|voicetype-	16	r6-k2	_	_
15	की	का	PSP	psp	lex-का|cat-psp|gen-f|num-sg|pers-|case-d|vib-|tam-|chunkId-VGNN|chunkType-child|stype-|voicetype-	14	lwg__psp	_	_
16	कोशिश	कोशिश	NN	n	lex-कोशिश|cat-n|gen-f|num-sg|pers-3|case-d|vib-0|tam-0|chunkId-NP5|chunkType-head|stype-|voicetype-	17	pof	_	_
17	करते	कर	VM	v	lex-कर|cat-v|gen-m|num-sg|pers-any|case-|vib-ता_हो+या|tam-wA|chunkId-VGNF|chunkType-head|stype-|voicetype-	24	vmod	_	_
18	हुए	हो	VAUX	v	lex-हो|cat-v|gen-m|num-sg|pers-any|case-|vib-या|tam-yA|chunkId-VGNF|chunkType-child|stype-|voicetype-	17	lwg__vaux	_	_
19	भारतीय	भारतीय	JJ	adj	lex-भारतीय|cat-adj|gen-any|num-any|pers-|case-o|vib-|tam-|chunkId-NP6|chunkType-child|stype-|voicetype-	20	nmod__adj	_	_
20	टीम	टीम	NN	n	lex-टीम|cat-n|gen-f|num-sg|pers-3|case-o|vib-0_का|tam-0|chunkId-NP6|chunkType-head|stype-|voicetype-	22	r6	_	_
21	के	का	PSP	psp	lex-का|cat-psp|gen-m|num-sg|pers-|case-o|vib-|tam-|chunkId-NP6|chunkType-child|stype-|voicetype-	20	lwg__psp	_	_
22	प्रबंधक	प्रबंधक	NN	n	lex-प्रबंधक|cat-n|gen-m|num-sg|pers-3|case-o|vib-0_ने|tam-0|chunkId-NP7|chunkType-head|stype-|voicetype-	24	k1	_	_
23	ने	ने	PSP	psp	lex-ने|cat-psp|gen-|num-|pers-|case-|vib-|tam-|chunkId-NP7|chunkType-child|stype-|voicetype-	22	lwg__psp	_	_
24	कहा	कह	VM	v	lex-कह|cat-v|gen-m|num-sg|pers-3|case-|vib-या_है|tam-yA|chunkId-VGF|chunkType-head|stype-declarative|voicetype-active	0	main	_	_
25	है	है	VAUX	v	lex-है|cat-v|gen-any|num-sg|pers-3|case-|vib-है|tam-hE|chunkId-VGF|chunkType-child|stype-|voicetype-	24	lwg__vaux	_	_
26	कि	कि	CC	avy	lex-कि|cat-avy|gen-|num-|pers-|case-|vib-|tam-|chunkId-CCP|chunkType-head|stype-|voicetype-	24	k2	_	_
27	चैपल	चैपल	NNP	n	lex-चैपल|cat-n|gen-m|num-sg|pers-3|case-o|vib-0_ने|tam-0|chunkId-NP8|chunkType-head|stype-|voicetype-	33	k1	_	_
28	ने	ने	PSP	psp	lex-ने|cat-psp|gen-|num-|pers-|case-|vib-|tam-|chunkId-NP8|chunkType-child|stype-|voicetype-	27	lwg__psp	_	_
29	कोई	कोई	PRP	pn	lex-कोई|cat-pn|gen-any|num-sg|pers-3|case-d|vib-0|tam-0|chunkId-NP9|chunkType-child|stype-|voicetype-	31	nmod__adj	_	_
30	अभद्र	अभद्र	JJ	adj	lex-अभद्र|cat-adj|gen-any|num-any|pers-|case-d|vib-|tam-|chunkId-NP9|chunkType-child|stype-|voicetype-	31	nmod__adj	_	_
31	इशारा	इशारा	NN	n	lex-इशारा|cat-n|gen-m|num-sg|pers-3|case-d|vib-0|tam-0|chunkId-NP9|chunkType-head|stype-|voicetype-	33	pof	_	_
32	नहीं	नहीं	NEG	avy	lex-नहीं|cat-avy|gen-|num-|pers-|case-|vib-|tam-|chunkId-VGF2|chunkType-child|stype-|voicetype-	33	lwg__neg	_	_
33	किया	कर	VM	v	lex-कर|cat-v|gen-m|num-sg|pers-any|case-|vib-या_था|tam-yA|chunkId-VGF2|chunkType-head|stype-declarative|voicetype-active	26	ccof	_	_
34	था	था	VAUX	v	lex-था|cat-v|gen-m|num-sg|pers-any|case-|vib-था|tam-WA|chunkId-VGF2|chunkType-child|stype-|voicetype-	33	lwg__vaux	_	_
35	।	।	SYM	punc	lex-।|cat-punc|gen-|num-|pers-|case-|vib-|tam-|chunkId-BLK|chunkType-head|stype-|voicetype-	24	rsym	_	_

1	दरअसल	दरअसल	RB	adv	lex-दरअसल|cat-adv|gen-|num-|pers-|case-|vib-|tam-|chunkId-RBP|chunkType-head|stype-|voicetype-	6	sent-adv	_	_
2	उनकी	वह	PRP	pn	lex-वह|cat-pn|gen-f|num-sg|pers-3h|case-o|vib-का|tam-kA|chunkId-NP|chunkType-head|stype-|voicetype-	3	r6	_	_
3	उंगली	उंगली	NN	n	lex-उंगली|cat-n|gen-f|num-sg|pers-3|case-o|vib-0_में|tam-0|chunkId-NP2|chunkType-head|stype-|voicetype-	6	k7p	_	_
4	में	में	PSP	psp	lex-में|cat-psp|gen-|num-|pers-|case-|vib-|tam-|chunkId-NP2|chunkType-child|stype-|voicetype-	3	lwg__psp	_	_
5	चोट	चोट	NN	n	lex-चोट|cat-n|gen-f|num-sg|pers-3|case-d|vib-0|tam-0|chunkId-NP3|chunkType-head|stype-|voicetype-	6	k1	_	_
6	है	है	VM	v	lex-है|cat-v|gen-any|num-sg|pers-3|case-|vib-है|tam-hE|chunkId-VGF|chunkType-head|stype-declarative|voicetype-active	7	ccof	_	_
7	और	और	CC	avy	lex-और|cat-avy|gen-|num-|pers-|case-|vib-|tam-|chunkId-CCP|chunkType-head|stype-|voicetype-	0	main	_	_
8	इसीलिए	इसीलिए	PRP	pn	lex-इसीलिए|cat-pn|gen-|num-|pers-|case-|vib-|tam-|chunkId-NP4|chunkType-head|stype-|voicetype-	13	rh	_	_
9	वह	वह	PRP	pn	lex-वह|cat-pn|gen-any|num-sg|pers-3|case-d|vib-0|tam-0|chunkId-NP5|chunkType-head|stype-|voicetype-	13	k1	_	_
10	चोटिल	चोटिल	JJ	adj	lex-चोटिल|cat-adj|gen-any|num-any|pers-|case-d|vib-|tam-|chunkId-NP6|chunkType-child|stype-|voicetype-	11	nmod__adj	_	_
11	उंगली	उंगली	NN	n	lex-उंगली|cat-n|gen-f|num-sg|pers-3|case-d|vib-0|tam-0|chunkId-NP6|chunkType-head|stype-|voicetype-	13	k2	_	_
12	सीधी	सीधा	JJ	adj	lex-सीधा|cat-adj|gen-f|num-sg|pers-|case-|vib-|tam-|chunkId-JJP|chunkType-head|stype-|voicetype-	13	pof	_	_
13	किए	कर	VM	v	lex-कर|cat-v|gen-m|num-sg|pers-3h|case-|vib-या_हो+या_था|tam-yA|chunkId-VGF2|chunkType-head|stype-declarative|voicetype-active	7	ccof	_	_
14	हुए	हो	VAUX	v	lex-हो|cat-v|gen-m|num-sg|pers-3h|case-|vib-या|tam-yA|chunkId-VGF2|chunkType-child|stype-|voicetype-	13	lwg__vaux	_	_
15	थे	था	VAUX	v	lex-था|cat-v|gen-m|num-sg|pers-3h|case-|vib-था|tam-WA|chunkId-VGF2|chunkType-child|stype-|voicetype-	13	lwg__vaux	_	_
16	।	।	SYM	punc	lex-।|cat-punc|gen-|num-|pers-|case-|vib-|tam-|chunkId-BLK|chunkType-head|stype-|voicetype-	7	rsym	_	_

1	इस	यह	DEM	pn	lex-यह|cat-pn|gen-any|num-sg|pers-3|case-o|vib-|tam-|chunkId-NP|chunkType-head|stype-|voicetype-	5	vmod	_	_
2	बीच	बीच	NST	nst	lex-बीच|cat-nst|gen-m|num-sg|pers-3|case-d|vib-|tam-|chunkId-NP|chunkType-child|stype-|voicetype-	1	lwg__psp	_	_
3	सूत्रों	सूत्र	NN	n	lex-सूत्र|cat-n|gen-m|num-pl|pers-3|case-o|vib-0_ने|tam-0|chunkId-NP2|chunkType-head|stype-|voicetype-	5	k1	_	_
4	ने	ने	PSP	psp	lex-ने|cat-psp|gen-|num-|pers-|case-|vib-|tam-|chunkId-NP2|chunkType-child|stype-|voicetype-	3	lwg__psp	_	_
5	बताया	बता	VM	v	lex-बता|cat-v|gen-m|num-sg|pers-3|case-|vib-या_है|tam-yA|chunkId-VGF|chunkType-head|stype-declarative|voicetype-active	0	main	_	_
6	है	है	VAUX	v	lex-है|cat-v|gen-any|num-sg|pers-3|case-|vib-है|tam-hE|chunkId-VGF|chunkType-child|stype-|voicetype-	5	lwg__vaux	_	_
7	कि	कि	CC	avy	lex-कि|cat-avy|gen-|num-|pers-|case-|vib-|tam-|chunkId-CCP|chunkType-head|stype-|voicetype-	5	k2	_	_
8	भारतीय	भारतीय	NNPC	adj	lex-भारतीय|cat-adj|gen-any|num-any|pers-|case-o|vib-|tam-|chunkId-NP3|chunkType-child|stype-|voicetype-	11	pof__cn	_	_
9	क्रिकेट	क्रिकेट	NNPC	n	lex-क्रिकेट|cat-n|gen-m|num-sg|pers-3|case-d|vib-0|tam-0|chunkId-NP3|chunkType-child|stype-|voicetype-	11	pof__cn	_	_
10	कंट्रोल	कंट्रोल	NNPC	n	lex-कंट्रोल|cat-n|gen-m|num-sg|pers-3|case-d|vib-0|tam-0|chunkId-NP3|chunkType-child|stype-|voicetype-	11	pof__cn	_	_
11	बोर्ड	बोर्ड	NNP	n	lex-बोर्ड|cat-n|gen-m|num-sg|pers-3|case-o|vib-0_ने|tam-0|chunkId-NP3|chunkType-head|stype-|voicetype-	15	k1	_	_
12	ने	ने	PSP	psp	lex-ने|cat-psp|gen-|num-|pers-|case-|vib-|tam-|chunkId-NP3|chunkType-child|stype-|voicetype-	11	lwg__psp	_	_
13	चैपल	चैपल	NNP	n	lex-चैपल|cat-n|gen-m|num-sg|pers-3|case-o|vib-0_से|tam-0|chunkId-NP4|chunkType-head|stype-|voicetype-	15	k4	_	_
14	से	से	PSP	psp	lex-से|cat-psp|gen-|num-|pers-|case-|vib-|tam-|chunkId-NP4|chunkType-child|stype-|voicetype-	13	lwg__psp	_	_
15	पूछा	पूछ	VM	v	lex-पूछ|cat-v|gen-m|num-sg|pers-3|case-|vib-या_है|tam-yA|chunkId-VGF2|chunkType-head|stype-declarative|voicetype-active	7	ccof	_	_
16	है	है	VAUX	v	lex-है|cat-v|gen-any|num-sg|pers-3|case-|vib-है|tam-hE|chunkId-VGF2|chunkType-child|stype-|voicetype-	15	lwg__vaux	_	_
17	कि	कि	CC	avy	lex-कि|cat-avy|gen-|num-|pers-|case-|vib-|tam-|chunkId-CCP2|chunkType-head|stype-|voicetype-	15	k2	_	_
18	आखिर	आखिर	RB	adv	lex-आखिर|cat-adv|gen-|num-|pers-|case-|vib-|tam-|chunkId-RBP|chunkType-head|stype-|voicetype-	19	vmod	_	_
19	हुआ	हो	VM	v	lex-हो|cat-v|gen-m|num-sg|pers-any|case-|vib-या|tam-yA|chunkId-VGF3|chunkType-head|stype-interrogative|voicetype-active	17	ccof	_	_
20	क्या	क्या	WQ	pn	lex-क्या|cat-pn|gen-|num-|pers-|case-|vib-|tam-|chunkId-NP5|chunkType-head|stype-|voicetype-	19	k1	_	_
21	था	_	VAUX	_	lex-_|cat-_|gen-|num-|pers-|case-|vib-|tam-|chunkId-FRAGP|chunkType-head|stype-|voicetype-	19	fragof	_	_
22	।	।	SYM	punc	lex-।|cat-punc|gen-|num-|pers-|case-|vib-|tam-|chunkId-BLK|chunkType-head|stype-|voicetype-	5	rsym	_	_

1	भारतीय	भारतीय	JJ	adj	lex-भारतीय|cat-adj|gen-any|num-any|pers-|case-o|vib-|tam-|chunkId-NP|chunkType-child|stype-|voicetype-	2	nmod__adj	_	_
2	टीम	टीम	NN	n	lex-टीम|cat-n|gen-f|num-sg|pers-3|case-o|vib-0_का|tam-0|chunkId-NP|chunkType-head|stype-|voicetype-	5	r6	_	_
3	के	का	PSP	psp	lex-का|cat-psp|gen-m|num-sg|pers-|case-o|vib-|tam-|chunkId-NP|chunkType-child|stype-|voicetype-	2	lwg__psp	_	_
4	मीडिया	मीडिया	NNC	n	lex-मीडिया|cat-n|gen-m|num-sg|pers-3|case-d|vib-0|tam-0|chunkId-NP2|chunkType-child|stype-|voicetype-	5	pof__cn	_	_
5	मैनेजर	मैनेजर	NN	n	lex-मैनेजर|cat-n|gen-m|num-sg|pers-3|case-o|vib-0|tam-0|chunkId-NP2|chunkType-head|stype-|voicetype-	9	nmod	_	_
6	विंग	विंग	NNC	n	lex-विंग|cat-n|gen-m|num-sg|pers-3|case-d|vib-0|tam-0|chunkId-NP3|chunkType-child|stype-|voicetype-	8	pof__cn	_	_
7	कमांडर	कमांडर	NNC	n	lex-कमांडर|cat-n|gen-m|num-sg|pers-3|case-d|vib-0|tam-0|chunkId-NP3|chunkType-child|stype-|voicetype-	8	pof__cn	_	_
8	एम.	एम.	NNPC	n	lex-एम.|cat-n|gen-m|num-sg|pers-3|case-d|vib-0|tam-0|chunkId-NP3|chunkType-child|stype-|voicetype-	9	pof__cn	_	_
9	बालादित्य	बालादित्य	NNP	n	lex-बालादित्य|cat-n|gen-m|num-sg|pers-3|case-o|vib-0_ने|tam-0|chunkId-NP3|chunkType-head|stype-|voicetype-	13	k1	_	_
10	ने	ने	PSP	psp	lex-ने|cat-psp|gen-|num-|pers-|case-|vib-|tam-|chunkId-NP3|chunkType-child|stype-|voicetype-	9	lwg__psp	_	_
11	पत्रकारों	पत्रकार	NN	n	lex-पत्रकार|cat-n|gen-m|num-pl|pers-3|case-o|vib-0_को|tam-0|chunkId-NP4|chunkType-head|stype-|voicetype-	13	k4	_	_
12	को	को	PSP	psp	lex-को|cat-psp|gen-|num-|pers-|case-|vib-|tam-|chunkId-NP4|chunkType-child|stype-|voicetype-	11	lwg__psp	_	_
13	बताया	बता	VM	v	lex-बता|cat-v|gen-m|num-sg|pers-any|case-|vib-या|tam-yA|chunkId-VGF|chunkType-head|stype-declarative|voicetype-active	0	main	_	_
14	कि	कि	CC	avy	lex-कि|cat-avy|gen-|num-|pers-|case-|vib-|tam-|chunkId-CCP|chunkType-head|stype-|voicetype-	13	k2	_	_
15	उन्होंने	वह	PRP	pn	lex-वह|cat-pn|gen-any|num-sg|pers-3h|case-o|vib-ने|tam-ne|chunkId-NP5|chunkType-head|stype-|voicetype-	20	k1	_	_
16	खुद	खुद	PRP	pn	lex-खुद|cat-pn|gen-|num-|pers-|case-d|vib-|tam-|chunkId-NP6|chunkType-head|stype-|voicetype-	15	nmod__emph	_	_
17	चैपल	चैपल	NNP	n	lex-चैपल|cat-n|gen-m|num-sg|pers-3|case-o|vib-0_से|tam-0|chunkId-NP7|chunkType-head|stype-|voicetype-	20	k4	_	_
18	से	से	PSP	psp	lex-से|cat-psp|gen-|num-|pers-|case-|vib-|tam-|chunkId-NP7|chunkType-child|stype-|voicetype-	17	lwg__psp	_	_
19	बात	बात	NN	n	lex-बात|cat-n|gen-f|num-sg|pers-3|case-d|vib-0|tam-0|chunkId-NP8|chunkType-head|stype-|voicetype-	20	pof	_	_
20	की	कर	VM	v	lex-कर|cat-v|gen-f|num-sg|pers-3|case-|vib-या_है|tam-yA|chunkId-VGF2|chunkType-head|stype-declarative|voicetype-active	14	ccof	_	_
21	है	है	VAUX	v	lex-है|cat-v|gen-any|num-sg|pers-3|case-|vib-है|tam-hE|chunkId-VGF2|chunkType-child|stype-|voicetype-	20	lwg__vaux	_	_
22	।	।	SYM	punc	lex-।|cat-punc|gen-|num-|pers-|case-|vib-|tam-|chunkId-BLK|chunkType-head|stype-|voicetype-	13	rsym	_	_

1	चैपल	चैपल	NNP	n	lex-चैपल|cat-n|gen-m|num-sg|pers-3|case-o|vib-0_ने|tam-0|chunkId-NP|chunkType-head|stype-|voicetype-	4	k1	_	_
2	ने	ने	PSP	psp	lex-ने|cat-psp|gen-|num-|pers-|case-|vib-|tam-|chunkId-NP|chunkType-child|stype-|voicetype-	1	lwg__psp	_	_
3	उन्हें	वह	PRP	pn	lex-वह|cat-pn|gen-any|num-sg|pers-3h|case-o|vib-को|tam-ko|chunkId-NP2|chunkType-head|stype-|voicetype-	4	k4	_	_
4	बताया	बता	VM	v	lex-बता|cat-v|gen-m|num-sg|pers-any|case-|vib-या|tam-yA|chunkId-VGF|chunkType-head|stype-declarative|voicetype-active	0	main	_	_
5	कि	कि	CC	avy	lex-कि|cat-avy|gen-|num-|pers-|case-|vib-|tam-|chunkId-CCP|chunkType-head|stype-|voicetype-	4	k2	_	_
6	बृहस्पतिवार	बृहस्पतिवार	NNP	n	lex-बृहस्पतिवार|cat-n|gen-m|num-sg|pers-3|case-o|vib-0_को|tam-0|chunkId-NP3|chunkType-head|stype-|voicetype-	13	k7t	_	_
7	को	को	PSP	psp	lex-को|cat-psp|gen-|num-|pers-|case-|vib-|tam-|chunkId-NP3|chunkType-child|stype-|voicetype-	6	lwg__psp	_	_
8	खिलाड़ियों	खिलाडी	NN	n	lex-खिलाडी|cat-n|gen-m|num-pl|pers-3|case-o|vib-0_को|tam-0|chunkId-NP4|chunkType-head|stype-|voicetype-	13	k2	_	_
9	को	को	PSP	psp	lex-को|cat-psp|gen-|num-|pers-|case-|vib-|tam-|chunkId-NP4|chunkType-child|stype-|voicetype-	8	lwg__psp	_	_
10	फील्डिंग	फील्डिंग	NN	n	lex-फील्डिंग|cat-n|gen-f|num-sg|pers-3|case-o|vib-0_का|tam-0|chunkId-NP5|chunkType-head|stype-|voicetype-	12	r6-k2	_	_
11	की	का	PSP	psp	lex-का|cat-psp|gen-f|num-sg|pers-|case-d|vib-|tam-|chunkId-NP5|chunkType-child|stype-|voicetype-	10	lwg__psp	_	_
12	प्रैक्टिस	प्रैक्टिस	NN	n	lex-प्रैक्टिस|cat-n|gen-f|num-sg|pers-3|case-d|vib-0|tam-0|chunkId-NP6|chunkType-head|stype-|voicetype-	13	pof	_	_
13	कराते	करा	VM	v	lex-करा|cat-v|gen-any|num-any|pers-any|case-o|vib-ता_वक्त|tam-wA|chunkId-VGNN|chunkType-head|stype-|voicetype-	19	k7t	_	_
14	वक्त	वक्त	PSP	n	lex-वक्त|cat-n|gen-m|num-|pers-|case-o|vib-|tam-|chunkId-VGNN|chunkType-child|stype-|voicetype-	13	lwg__psp	_	_
15	उनकी	वह	PRP	pn	lex-वह|cat-pn|gen-f|num-sg|pers-3h|case-o|vib-का|tam-kA|chunkId-NP7|chunkType-head|stype-|voicetype-	16	r6	_	_
16	उंगली	उंगली	NN	n	lex-उंगली|cat-n|gen-f|num-sg|pers-3|case-o|vib-0_में|tam-0|chunkId-NP8|chunkType-head|stype-|voicetype-	19	k7p	_	_
17	में	में	PSP	psp	lex-में|cat-psp|gen-|num-|pers-|case-|vib-|tam-|chunkId-NP8|chunkType-child|stype-|voicetype-	16	lwg__psp	_	_
18	चोट	चोट	NN	n	lex-चोट|cat-n|gen-f|num-sg|pers-3|case-d|vib-0|tam-0|chunkId-NP9|chunkType-head|stype-|voicetype-	19	k1	_	_
19	लग	लग	VM	v	lex-लग|cat-v|gen-f|num-sg|pers-any|case-|vib-0_जा+या१_था|tam-0|chunkId-VGF2|chunkType-head|stype-declarative|voicetype-active	5	ccof	_	_
20	गई	जा	VAUX	v	lex-जा|cat-v|gen-f|num-sg|pers-any|case-|vib-या१|tam-yA1|chunkId-VGF2|chunkType-child|stype-|voicetype-	19	lwg__vaux	_	_
21	थी	था	VAUX	v	lex-था|cat-v|gen-f|num-sg|pers-any|case-|vib-था|tam-WA|chunkId-VGF2|chunkType-child|stype-|voicetype-	19	lwg__vaux	_	_
22	।	।	SYM	punc	lex-।|cat-punc|gen-|num-|pers-|case-|vib-|tam-|chunkId-BLK|chunkType-head|stype-|voicetype-	4	rsym	_	_

1	इसीलिए	इसीलिए	PRP	pn	lex-इसीलिए|cat-pn|gen-|num-|pers-|case-|vib-|tam-|chunkId-NP|chunkType-head|stype-|voicetype-	10	rh	_	_
2	बस	बस	NN	n	lex-बस|cat-n|gen-f|num-sg|pers-3|case-o|vib-0_में|tam-0|chunkId-NP2|chunkType-head|stype-|voicetype-	5	k7p	_	_
3	में	में	PSP	psp	lex-में|cat-psp|gen-|num-|pers-|case-|vib-|tam-|chunkId-NP2|chunkType-child|stype-|voicetype-	2	lwg__psp	_	_
4	सवार	सवार	JJ	adj	lex-सवार|cat-adj|gen-any|num-any|pers-|case-|vib-|tam-|chunkId-JJP|chunkType-head|stype-|voicetype-	5	pof	_	_
5	होते	हो	VM	v	lex-हो|cat-v|gen-m|num-sg|pers-any|case-|vib-ता_हो+या|tam-wA|chunkId-VGNF|chunkType-head|stype-|voicetype-	10	vmod	_	_
6	हुए	हो	VAUX	v	lex-हो|cat-v|gen-m|num-sg|pers-any|case-|vib-या|tam-yA|chunkId-VGNF|chunkType-child|stype-|voicetype-	5	lwg__vaux	_	_
7	वह	वह	PRP	pn	lex-वह|cat-pn|gen-any|num-sg|pers-3|case-d|vib-0|tam-0|chunkId-NP3|chunkType-head|stype-|voicetype-	10	k1	_	_
8	उंगली	उंगली	NN	n	lex-उंगली|cat-n|gen-f|num-sg|pers-3|case-d|vib-0|tam-0|chunkId-NP4|chunkType-head|stype-|voicetype-	10	k2	_	_
9	सीधी	सीधा	JJ	adj	lex-सीधा|cat-adj|gen-f|num-sg|pers-|case-|vib-|tam-|chunkId-JJP2|chunkType-head|stype-|voicetype-	10	pof	_	_
10	किए	कर	VM	v	lex-कर|cat-v|gen-m|num-sg|pers-3h|case-|vib-या_हो+या_था|tam-yA|chunkId-VGF|chunkType-head|stype-declarative|voicetype-active	0	main	_	_
11	हुए	हो	VAUX	v	lex-हो|cat-v|gen-m|num-sg|pers-3h|case-|vib-या|tam-yA|chunkId-VGF|chunkType-child|stype-|voicetype-	10	lwg__vaux	_	_
12	थे	था	VAUX	v	lex-था|cat-v|gen-m|num-sg|pers-3h|case-|vib-था|tam-WA|chunkId-VGF|chunkType-child|stype-|voicetype-	10	lwg__vaux	_	_
13	।	।	SYM	punc	lex-।|cat-punc|gen-|num-|pers-|case-|vib-|tam-|chunkId-BLK|chunkType-head|stype-|voicetype-	10	rsym	_	_

1	बालादित्य	बालादित्य	NNP	n	lex-बालादित्य|cat-n|gen-m|num-sg|pers-3|case-o|vib-0_ने|tam-0|chunkId-NP|chunkType-head|stype-|voicetype-	3	k1	_	_
2	ने	ने	PSP	psp	lex-ने|cat-psp|gen-|num-|pers-|case-|vib-|tam-|chunkId-NP|chunkType-child|stype-|voicetype-	1	lwg__psp	_	_
3	कहा	कह	VM	v	lex-कह|cat-v|gen-m|num-sg|pers-any|case-|vib-या|tam-yA|chunkId-VGF|chunkType-head|stype-declarative|voicetype-active	0	main	_	_
4	कि	कि	CC	avy	lex-कि|cat-avy|gen-|num-|pers-|case-|vib-|tam-|chunkId-CCP|chunkType-head|stype-|voicetype-	3	k2	_	_
5	चैपल	चैपल	NNP	n	lex-चैपल|cat-n|gen-m|num-sg|pers-3|case-o|vib-0_का|tam-0|chunkId-NP2|chunkType-head|stype-|voicetype-	7	r6	_	_
6	का	का	PSP	psp	lex-का|cat-psp|gen-m|num-sg|pers-|case-d|vib-|tam-|chunkId-NP2|chunkType-child|stype-|voicetype-	5	lwg__psp	_	_
7	इरादा	इरादा	NN	n	lex-इरादा|cat-n|gen-m|num-sg|pers-3|case-d|vib-0|tam-0|chunkId-NP3|chunkType-head|stype-|voicetype-	13	k1	_	_
8	अश्लील	अश्लील	JJ	adj	lex-अश्लील|cat-adj|gen-any|num-any|pers-|case-d|vib-|tam-|chunkId-NP4|chunkType-child|stype-|voicetype-	9	nmod__adj	_	_
9	इशारा	इशारा	NN	n	lex-इशारा|cat-n|gen-m|num-sg|pers-3|case-d|vib-0|tam-0|chunkId-NP4|chunkType-head|stype-|voicetype-	10	pof	_	_
10	करने	कर	VM	v	lex-कर|cat-v|gen-any|num-sg|pers-any|case-o|vib-ना_का|tam-nA|chunkId-VGNN|chunkType-head|stype-|voicetype-	7	r6	_	_
11	का	का	PSP	psp	lex-का|cat-psp|gen-m|num-sg|pers-|case-d|vib-|tam-|chunkId-VGNN|chunkType-child|stype-|voicetype-	10	lwg__psp	_	_
12	नहीं	नहीं	NEG	avy	lex-नहीं|cat-avy|gen-|num-|pers-|case-|vib-|tam-|chunkId-VGF2|chunkType-child|stype-|voicetype-	13	lwg__neg	_	_
13	था	था	VM	v	lex-था|cat-v|gen-m|num-sg|pers-any|case-|vib-था|tam-WA|chunkId-VGF2|chunkType-head|stype-declarative|voicetype-active	4	ccof	_	_
14	,	COMMA	SYM	punc	lex-COMMA|cat-punc|gen-|num-|pers-|case-|vib-|tam-|chunkId-VGF2|chunkType-child|stype-|voicetype-	13	rsym	_	_
15	जैसा	जैसा	PRP	pn	lex-जैसा|cat-pn|gen-m|num-sg|pers-3|case-d|vib-0|tam-0|chunkId-NP5|chunkType-head|stype-|voicetype-	19	vmod	_	_
16	कि	कि	RP	avy	lex-कि|cat-avy|gen-|num-|pers-|case-|vib-|tam-|chunkId-NP5|chunkType-child|stype-|voicetype-	15	lwg__rp	_	_
17	मीडिया	मीडिया	NN	n	lex-मीडिया|cat-n|gen-m|num-sg|pers-3|case-o|vib-0_द्वारा|tam-0|chunkId-NP6|chunkType-head|stype-|voicetype-	19	k1	_	_
18	द्वारा	द्वारा	PSP	psp	lex-द्वारा|cat-psp|gen-|num-|pers-|case-|vib-|tam-|chunkId-NP6|chunkType-child|stype-|voicetype-	17	lwg__psp	_	_
19	दिखाया	दिखा	VM	v	lex-दिखा|cat-v|gen-m|num-sg|pers-any|case-|vib-या_जा+या१|tam-yA|chunkId-VGF3|chunkType-head|stype-declarative|voicetype-passive	9	nmod__relc	_	_
20	गया	जा	VAUX	v	lex-जा|cat-v|gen-m|num-sg|pers-any|case-|vib-या१|tam-yA1|chunkId-VGF3|chunkType-child|stype-|voicetype-	19	lwg__vaux	_	_
21	।	।	SYM	punc	lex-।|cat-punc|gen-|num-|pers-|case-|vib-|tam-|chunkId-BLK|chunkType-head|stype-|voicetype-	3	rsym	_	_

1	उन्होंने	वह	PRP	pn	lex-वह|cat-pn|gen-any|num-sg|pers-3h|case-o|vib-ने|tam-ne|chunkId-NP|chunkType-head|stype-|voicetype-	2	k1	_	_
2	कहा	कह	VM	v	lex-कह|cat-v|gen-m|num-sg|pers-any|case-|vib-या|tam-yA|chunkId-VGF|chunkType-head|stype-declarative|voicetype-active	0	main	_	_
3	कि	कि	CC	avy	lex-कि|cat-avy|gen-|num-|pers-|case-|vib-|tam-|chunkId-CCP|chunkType-head|stype-|voicetype-	2	k2	_	_
4	इस	यह	DEM	pn	lex-यह|cat-pn|gen-any|num-sg|pers-3|case-o|vib-|tam-|chunkId-NP2|chunkType-child|stype-|voicetype-	5	nmod__adj	_	_
5	घटना	घटना	NN	n	lex-घटना|cat-n|gen-f|num-sg|pers-3|case-o|vib-0_को|tam-0|chunkId-NP2|chunkType-head|stype-|voicetype-	11	k1	_	_
6	को	को	PSP	psp	lex-को|cat-psp|gen-|num-|pers-|case-|vib-|tam-|chunkId-NP2|chunkType-child|stype-|voicetype-	5	lwg__psp	_	_
7	गलत	गलत	JJ	adj	lex-गलत|cat-adj|gen-any|num-any|pers-|case-o|vib-|tam-|chunkId-NP3|chunkType-child|stype-|voicetype-	8	nmod__adj	_	_
8	नजरिये	नजरिया	NN	n	lex-नजरिया|cat-n|gen-m|num-sg|pers-3|case-o|vib-0_से|tam-0|chunkId-NP3|chunkType-head|stype-|voicetype-	11	adv	_	_
9	से	से	PSP	psp	lex-से|cat-psp|gen-|num-|pers-|case-|vib-|tam-|chunkId-NP3|chunkType-child|stype-|voicetype-	8	lwg__psp	_	_
10	नहीं	नहीं	NEG	avy	lex-नहीं|cat-avy|gen-|num-|pers-|case-|vib-|tam-|chunkId-VGF2|chunkType-child|stype-|voicetype-	11	lwg__neg	_	_
11	देखा	देख	VM	v	lex-देख|cat-v|gen-m|num-any|pers-any|case-|vib-या_जा+ना_चाहिए|tam-yA|chunkId-VGF2|chunkType-head|stype-declarative|voicetype-passive	14	ccof	_	_
12	जाना	जा	VAUX	v	lex-जा|cat-v|gen-m|num-sg|pers-any|case-|vib-ना|tam-nA|chunkId-VGF2|chunkType-child|stype-|voicetype-	11	lwg__vaux	_	_
13	चाहिए	चाहिए	VAUX	v	lex-चाहिए|cat-v|gen-any|num-any|pers-any|case-|vib-0|tam-0|chunkId-VGF2|chunkType-child|stype-|voicetype-	11	lwg__vaux	_	_
14	और	और	CC	avy	lex-और|cat-avy|gen-|num-|pers-|case-|vib-|tam-|chunkId-CCP2|chunkType-head|stype-|voicetype-	3	ccof	_	_
15	मामला	मामला	NN	n	lex-मामला|cat-n|gen-m|num-sg|pers-3|case-d|vib-0|tam-0|chunkId-NP4|chunkType-head|stype-|voicetype-	18	k1	_	_
16	यहीं	यहीं	PRP	pn	lex-यहीं|cat-pn|gen-|num-|pers-|case-d|vib-|tam-|chunkId-NP5|chunkType-head|stype-|voicetype-	18	vmod	_	_
17	खत्म	खत्म	JJ	adj	lex-खत्म|cat-adj|gen-any|num-any|pers-|case-|vib-|tam-|chunkId-JJP|chunkType-head|stype-|voicetype-	18	pof	_	_
18	हो	हो	VM	v	lex-हो|cat-v|gen-m|num-any|pers-any|case-|vib-0_जा+ना_चाहिए|tam-0|chunkId-VGF3|chunkType-head|stype-declarative|voicetype-active	14	ccof	_	_
19	जाना	जा	VAUX	v	lex-जा|cat-v|gen-m|num-sg|pers-any|case-|vib-ना|tam-nA|chunkId-VGF3|chunkType-child|stype-|voicetype-	18	lwg__vaux	_	_
20	चाहिए	चाहिए	VAUX	v	lex-चाहिए|cat-v|gen-any|num-any|pers-any|case-|vib-0|tam-0|chunkId-VGF3|chunkType-child|stype-|voicetype-	18	lwg__vaux	_	_
21	।	।	SYM	punc	lex-।|cat-punc|gen-|num-|pers-|case-|vib-|tam-|chunkId-BLK|chunkType-head|stype-|voicetype-	2	rsym	_	_

1	NULL	_	PRP	_	lex-_|cat-_|gen-|num-|pers-|case-|vib-|tam-|chunkId-NULL__NP|chunkType-head|stype-|voicetype-	3	k1	_	_
2	गौरतलब	गौरतलब	JJ	adj	lex-गौरतलब|cat-adj|gen-any|num-any|pers-|case-|vib-|tam-|chunkId-JJP|chunkType-head|stype-|voicetype-	3	k1s	_	_
3	है	है	VM	v	lex-है|cat-v|gen-any|num-sg|pers-3|case-|vib-है|tam-hE|chunkId-VGF|chunkType-head|stype-declarative|voicetype-active	0	main	_	_
4	कि	कि	CC	avy	lex-कि|cat-avy|gen-|num-|pers-|case-|vib-|tam-|chunkId-CCP|chunkType-head|stype-|voicetype-	1	rs	_	_
5	एक	एक	QC	num	lex-एक|cat-num|gen-any|num-any|pers-|case-any|vib-|tam-|chunkId-NP|chunkType-child|stype-|voicetype-	7	nmod__adj	_	_
6	टेलीविजन	टेलीविजन	NNC	n	lex-टेलीविजन|cat-n|gen-m|num-sg|pers-3|case-d|vib-0|tam-0|chunkId-NP|chunkType-child|stype-|voicetype-	7	pof__cn	_	_
7	फुटेज	फुटेज	NN	n	lex-फुटेज|cat-n|gen-m|num-sg|pers-3|case-o|vib-0_में|tam-0|chunkId-NP|chunkType-head|stype-|voicetype-	40	k7	_	_
8	में	में	PSP	psp	lex-में|cat-psp|gen-|num-|pers-|case-|vib-|tam-|chunkId-NP|chunkType-child|stype-|voicetype-	7	lwg__psp	_	_
9	ग्रेग	ग्रेग	NNPC	n	lex-ग्रेग|cat-n|gen-m|num-sg|pers-3|case-d|vib-0|tam-0|chunkId-NP2|chunkType-child|stype-|voicetype-	10	pof__cn	_	_
10	चैपल	चैपल	NNP	n	lex-चैपल|cat-n|gen-m|num-sg|pers-3|case-o|vib-0_को|tam-0|chunkId-NP2|chunkType-head|stype-|voicetype-	40	k2	_	_
11	को	को	PSP	psp	lex-को|cat-psp|gen-|num-|pers-|case-|vib-|tam-|chunkId-NP2|chunkType-child|stype-|voicetype-	10	lwg__psp	_	_
12	बृहस्पतिवार	बृहस्पतिवार	NNP	n	lex-बृहस्पतिवार|cat-n|gen-m|num-sg|pers-3|case-o|vib-0_को|tam-0|chunkId-NP3|chunkType-head|stype-|voicetype-	40	k7t	_	_
13	को	को	PSP	psp	lex-को|cat-psp|gen-|num-|pers-|case-|vib-|tam-|chunkId-NP3|chunkType-child|stype-|voicetype-	12	lwg__psp	_	_
14	अभ्यास	अभ्यास	NNC	n	lex-अभ्यास|cat-n|gen-m|num-sg|pers-3|case-d|vib-0|tam-0|chunkId-NP4|chunkType-child|stype-|voicetype-	15	pof__cn	_	_
15	सत्र	सत्र	NN	n	lex-सत्र|cat-n|gen-m|num-sg|pers-3|case-o|vib-0_के_बाद|tam-0|chunkId-NP4|chunkType-head|stype-|voicetype-	40	k7t	_	_
16	के	के	PSP	psp	lex-के|cat-psp|gen-|num-|pers-|case-|vib-|tam-|chunkId-NP4|chunkType-child|stype-|voicetype-	15	lwg__psp	_	_
17	बाद	बाद	NST	nst	lex-बाद|cat-nst|gen-m|num-sg|pers-3|case-d|vib-|tam-|chunkId-NP4|chunkType-child|stype-|voicetype-	15	lwg__psp	_	_
18	टीम	टीम	NN	n	lex-टीम|cat-n|gen-f|num-sg|pers-3|case-o|vib-0_के_साथ|tam-0|chunkId-NP5|chunkType-head|stype-|voicetype-	40	ras-k2	_	_
19	के	के	PSP	psp	lex-के|cat-psp|gen-|num-|pers-|case-|vib-|tam-|chunkId-NP5|chunkType-child|stype-|voicetype-	18	lwg__psp	_	_
20	साथ	साथ	NST	nst	lex-साथ|cat-nst|gen-m|num-sg|pers-3|case-d|vib-|tam-|chunkId-NP5|chunkType-child|stype-|voicetype-	18	lwg__psp	_	_
21	बस	बस	NN	n	lex-बस|cat-n|gen-f|num-sg|pers-3|case-o|vib-0_में|tam-0|chunkId-NP6|chunkType-head|stype-|voicetype-	40	k7p	_	_
22	में	में	PSP	psp	lex-में|cat-psp|gen-|num-|pers-|case-|vib-|tam-|chunkId-NP6|chunkType-child|stype-|voicetype-	21	lwg__psp	_	_
23	सवार	सवार	JJ	adj	lex-सवार|cat-adj|gen-any|num-any|pers-|case-|vib-|tam-|chunkId-JJP2|chunkType-head|stype-|voicetype-	24	pof	_	_
24	होते	हो	VM	v	lex-हो|cat-v|gen-m|num-sg|pers-any|case-|vib-ता_हो+या|tam-wA|chunkId-VGNF|chunkType-head|stype-|voicetype-	40	vmod	_	_
25	हुए	हो	VAUX	v	lex-हो|cat-v|gen-m|num-sg|pers-any|case-|vib-या|tam-yA|chunkId-VGNF|chunkType-child|stype-|voicetype-	24	lwg__vaux	_	_
26	पूर्व	पूर्व	JJ	adj	lex-पूर्व|cat-adj|gen-any|num-any|pers-|case-o|vib-|tam-|chunkId-NP7|chunkType-child|stype-|voicetype-	27	nmod__adj	_	_
27	कप्तान	कप्तान	NN	n	lex-कप्तान|cat-n|gen-m|num-sg|pers-3|case-o|vib-0|tam-0|chunkId-NP7|chunkType-head|stype-|voicetype-	29	nmod	_	_
28	सौरव	सौरव	NNPC	n	lex-सौरव|cat-n|gen-m|num-sg|pers-3|case-d|vib-0|tam-0|chunkId-NP8|chunkType-child|stype-|voicetype-	29	pof__cn	_	_
29	गांगुली	गांगुली	NNP	n	lex-गांगुली|cat-n|gen-any|num-sg|pers-3|case-o|vib-0_का|tam-0|chunkId-NP8|chunkType-head|stype-|voicetype-	31	r6	_	_
30	के	का	PSP	psp	lex-का|cat-psp|gen-m|num-pl|pers-|case-o|vib-|tam-|chunkId-NP8|chunkType-child|stype-|voicetype-	29	lwg__psp	_	_
31	समर्थकों	समर्थक	NN	n	lex-समर्थक|cat-n|gen-m|num-pl|pers-3|case-o|vib-0_का_तरफ|tam-0|chunkId-NP9|chunkType-head|stype-|voicetype-	40	rd	_	_
32	की	का	PSP	psp	lex-का|cat-psp|gen-f|num-sg|pers-|case-d|vib-|tam-|chunkId-NP9|chunkType-child|stype-|voicetype-	31	lwg__psp	_	_
33	तरफ	तरफ	NST	nst	lex-तरफ|cat-nst|gen-f|num-sg|pers-3|case-d|vib-|tam-|chunkId-NP9|chunkType-child|stype-|voicetype-	31	lwg__psp	_	_
34	बीच	बीच	NST	nst	lex-बीच|cat-nst|gen-m|num-sg|pers-3|case-o|vib-0_का|tam-|chunkId-NP10|chunkType-head|stype-|voicetype-	36	r6	_	_
35	की	का	PSP	psp	lex-का|cat-psp|gen-f|num-sg|pers-|case-d|vib-|tam-|chunkId-NP10|chunkType-child|stype-|voicetype-	34	lwg__psp	_	_
36	उंगली	उंगली	NN	n	lex-उंगली|cat-n|gen-f|num-sg|pers-3|case-d|vib-0|tam-0|chunkId-NP11|chunkType-head|stype-|voicetype-	38	k2	_	_
37	सीधी	सीधा	JJ	adj	lex-सीधा|cat-adj|gen-f|num-sg|pers-|case-|vib-|tam-|chunkId-JJP3|chunkType-head|stype-|voicetype-	38	pof	_	_
38	किए	कर	VM	v	lex-कर|cat-v|gen-m|num-sg|pers-3|case-|vib-या_हो+या|tam-yA|chunkId-VGNF2|chunkType-head|stype-|voicetype-	40	vmod	_	_
39	हुए	हो	VAUX	v	lex-हो|cat-v|gen-m|num-sg|pers-3|case-|vib-या|tam-yA|chunkId-VGNF2|chunkType-child|stype-|voicetype-	38	lwg__vaux	_	_
40	दिखाया	दिखा	VM	v	lex-दिखा|cat-v|gen-m|num-sg|pers-any|case-|vib-या_जा+या१_था|tam-yA|chunkId-VGF2|chunkType-head|stype-declarative|voicetype-passive	4	ccof	_	_
41	गया	जा	VAUX	v	lex-जा|cat-v|gen-m|num-sg|pers-any|case-|vib-या१|tam-yA1|chunkId-VGF2|chunkType-child|stype-|voicetype-	40	lwg__vaux	_	_
42	था	था	VAUX	v	lex-था|cat-v|gen-m|num-sg|pers-any|case-|vib-था|tam-WA|chunkId-VGF2|chunkType-child|stype-|voicetype-	40	lwg__vaux	_	_
43	।	।	SYM	punc	lex-।|cat-punc|gen-|num-|pers-|case-|vib-|tam-|chunkId-BLK|chunkType-head|stype-|voicetype-	3	rsym	_	_

1	सौरव	सौरव	NNP	n	lex-सौरव|cat-n|gen-m|num-sg|pers-3|case-o|vib-0_का|tam-0|chunkId-NP|chunkType-head|stype-|voicetype-	3	r6	_	_
2	के	का	PSP	psp	lex-का|cat-psp|gen-m|num-pl|pers-|case-d|vib-|tam-|chunkId-NP|chunkType-child|stype-|voicetype-	1	lwg__psp	_	_
3	प्रशंसक	प्रशंसक	NN	n	lex-प्रशंसक|cat-n|gen-m|num-pl|pers-3|case-d|vib-0|tam-0|chunkId-NP2|chunkType-head|stype-|voicetype-	8	k1	_	_
4	चैपल	चैपल	NNP	n	lex-चैपल|cat-n|gen-m|num-sg|pers-3|case-o|vib-0_के_खिलाफ|tam-0|chunkId-NP3|chunkType-head|stype-|voicetype-	8	vmod	_	_
5	के	के	PSP	psp	lex-के|cat-psp|gen-|num-|pers-|case-|vib-|tam-|chunkId-NP3|chunkType-child|stype-|voicetype-	4	lwg__psp	_	_
6	खिलाफ	खिलाफ	PSP	psp	lex-खिलाफ|cat-psp|gen-|num-|pers-|case-|vib-|tam-|chunkId-NP3|chunkType-child|stype-|voicetype-	4	lwg__psp	_	_
7	नारे	नारा	NN	n	lex-नारा|cat-n|gen-m|num-pl|pers-3|case-d|vib-0|tam-0|chunkId-NP4|chunkType-head|stype-|voicetype-	8	pof	_	_
8	लगा	लगा	VM	v	lex-लगा|cat-v|gen-m|num-pl|pers-any|case-|vib-0_रह+या_था|tam-0|chunkId-VGF|chunkType-head|stype-declarative|voicetype-active	0	main	_	_
9	रहे	रह	VAUX	v	lex-रह|cat-v|gen-m|num-pl|pers-any|case-|vib-या|tam-yA|chunkId-VGF|chunkType-child|stype-|voicetype-	8	lwg__vaux	_	_
10	थे	था	VAUX	v	lex-था|cat-v|gen-m|num-pl|pers-any|case-|vib-था|tam-WA|chunkId-VGF|chunkType-child|stype-|voicetype-	8	lwg__vaux	_	_
11	।	।	SYM	punc	lex-।|cat-punc|gen-|num-|pers-|case-|vib-|tam-|chunkId-BLK|chunkType-head|stype-|voicetype-	8	rsym	_	_

1	चूंकि	चूंकि	CC	avy	lex-चूंकि|cat-avy|gen-|num-|pers-|case-|vib-|tam-|chunkId-CCP|chunkType-head|stype-|voicetype-	10	vmod	_	_
2	यह	यह	DEM	pn	lex-यह|cat-pn|gen-any|num-sg|pers-3|case-d|vib-|tam-|chunkId-NP|chunkType-child|stype-|voicetype-	3	nmod__adj	_	_
3	फुटेज	फुटेज	NN	n	lex-फुटेज|cat-n|gen-m|num-sg|pers-3|case-d|vib-0|tam-0|chunkId-NP|chunkType-head|stype-|voicetype-	10	k2	_	_
4	शुक्रवार	शुक्रवार	NNP	n	lex-शुक्रवार|cat-n|gen-m|num-sg|pers-3|case-o|vib-0_को|tam-0|chunkId-NP2|chunkType-head|stype-|voicetype-	10	k7t	_	_
5	को	को	PSP	psp	lex-को|cat-psp|gen-|num-|pers-|case-|vib-|tam-|chunkId-NP2|chunkType-child|stype-|voicetype-	4	lwg__psp	_	_
6	मैच	मैच	NN	n	lex-मैच|cat-n|gen-m|num-sg|pers-3|case-o|vib-0_के_दौरान|tam-0|chunkId-NP3|chunkType-head|stype-|voicetype-	10	k7t	_	_
7	के	के	PSP	psp	lex-के|cat-psp|gen-|num-|pers-|case-|vib-|tam-|chunkId-NP3|chunkType-child|stype-|voicetype-	6	lwg__psp	_	_
8	दौरान	दौरान	NST	nst	lex-दौरान|cat-nst|gen-m|num-sg|pers-3|case-d|vib-|tam-|chunkId-NP3|chunkType-child|stype-|voicetype-	6	lwg__psp	_	_
9	प्रसारित	प्रसारित	JJ	adj	lex-प्रसारित|cat-adj|gen-any|num-any|pers-|case-|vib-|tam-|chunkId-JJP|chunkType-head|stype-|voicetype-	10	pof	_	_
10	किया	कर	VM	v	lex-कर|cat-v|gen-m|num-sg|pers-any|case-|vib-या_जा+या१|tam-yA|chunkId-VGF|chunkType-head|stype-declarative|voicetype-passive	24	vmod	_	_
11	गया	जा	VAUX	v	lex-जा|cat-v|gen-m|num-sg|pers-any|case-|vib-या१|tam-yA1|chunkId-VGF|chunkType-child|stype-|voicetype-	10	lwg__vaux	_	_
12	,	COMMA	SYM	punc	lex-COMMA|cat-punc|gen-|num-|pers-|case-|vib-|tam-|chunkId-VGF|chunkType-child|stype-|voicetype-	10	rsym	_	_
13	लिहाजा	लिहाजा	RB	adv	lex-लिहाजा|cat-adv|gen-|num-|pers-|case-|vib-|tam-|chunkId-RBP|chunkType-head|stype-|voicetype-	24	sent-adv	_	_
14	इडेन	इडेन	NNPC	n	lex-इडेन|cat-n|gen-m|num-sg|pers-3|case-d|vib-0|tam-0|chunkId-NP4|chunkType-child|stype-|voicetype-	15	pof__cn	_	_
15	गार्डेन	गार्डेन	NNP	n	lex-गार्डेन|cat-n|gen-m|num-sg|pers-3|case-o|vib-0_का|tam-0|chunkId-NP4|chunkType-head|stype-|voicetype-	17	r6	_	_
16	के	का	PSP	psp	lex-का|cat-psp|gen-m|num-pl|pers-|case-o|vib-|tam-|chunkId-NP4|chunkType-child|stype-|voicetype-	15	lwg__psp	_	_
17	दर्शकों	दर्शक	NN	n	lex-दर्शक|cat-n|gen-m|num-pl|pers-3|case-o|vib-0_में|tam-0|chunkId-NP5|chunkType-head|stype-|voicetype-	24	k7	_	_
18	में	में	PSP	psp	lex-में|cat-psp|gen-|num-|pers-|case-|vib-|tam-|chunkId-NP5|chunkType-child|stype-|voicetype-	17	lwg__psp	_	_
19	इसकी	यह	PRP	pn	lex-यह|cat-pn|gen-f|num-sg|pers-3|case-o|vib-का|tam-kA|chunkId-NP6|chunkType-head|stype-|voicetype-	21	r6	_	_
20	कोई	कोई	PRP	pn	lex-कोई|cat-pn|gen-any|num-sg|pers-3|case-d|vib-0|tam-0|chunkId-NP7|chunkType-child|stype-|voicetype-	21	nmod__adj	_	_
21	प्रतिक्रिया	प्रतिक्रिया	NN	n	lex-प्रतिक्रिया|cat-n|gen-f|num-sg|pers-3|case-d|vib-0|tam-0|chunkId-NP7|chunkType-head|stype-|voicetype-	24	k1	_	_
22	नजर	नजर	NN	n	lex-नजर|cat-n|gen-f|num-sg|pers-3|case-d|vib-0|tam-0|chunkId-NP8|chunkType-head|stype-|voicetype-	24	pof	_	_
23	नहीं	नहीं	NEG	avy	lex-नहीं|cat-avy|gen-|num-|pers-|case-|vib-|tam-|chunkId-VGF2|chunkType-child|stype-|voicetype-	24	lwg__neg	_	_
24	आई	आ	VM	v	lex-आ|cat-v|gen-f|num-sg|pers-any|case-|vib-या_था|tam-yA|chunkId-VGF2|chunkType-head|stype-declarative|voicetype-active	0	main	_	_
25	थी	था	VAUX	v	lex-था|cat-v|gen-f|num-sg|pers-any|case-|vib-था|tam-WA|chunkId-VGF2|chunkType-child|stype-|voicetype-	24	lwg__vaux	_	_
26	।	।	SYM	punc	lex-।|cat-punc|gen-|num-|pers-|case-|vib-|tam-|chunkId-BLK|chunkType-head|stype-|voicetype-	24	rsym	_	_

1	चैपल	चैपल	NNP	n	lex-चैपल|cat-n|gen-m|num-sg|pers-3|case-o|vib-0_का|tam-0|chunkId-NP|chunkType-head|stype-|voicetype-	3	r6	_	_
2	के	का	PSP	psp	lex-का|cat-psp|gen-m|num-sg|pers-|case-o|vib-|tam-|chunkId-NP|chunkType-child|stype-|voicetype-	1	lwg__psp	_	_
3	इशारे	इशारा	NN	n	lex-इशारा|cat-n|gen-m|num-sg|pers-3|case-o|vib-0_को|tam-0|chunkId-NP2|chunkType-head|stype-|voicetype-	8	k2	_	_
4	को	को	PSP	psp	lex-को|cat-psp|gen-|num-|pers-|case-|vib-|tam-|chunkId-NP2|chunkType-child|stype-|voicetype-	3	lwg__psp	_	_
5	कैमरे	कैमरा	NN	n	lex-कैमरा|cat-n|gen-m|num-sg|pers-3|case-o|vib-0_में|tam-0|chunkId-NP3|chunkType-head|stype-|voicetype-	8	k7p	_	_
6	में	में	PSP	psp	lex-में|cat-psp|gen-|num-|pers-|case-|vib-|tam-|chunkId-NP3|chunkType-child|stype-|voicetype-	5	lwg__psp	_	_
7	कैद	कैद	JJ	adj	lex-कैद|cat-adj|gen-any|num-any|pers-|case-|vib-|tam-|chunkId-JJP|chunkType-head|stype-|voicetype-	8	pof	_	_
8	करने	कर	VM	v	lex-कर|cat-v|gen-any|num-sg|pers-any|case-o|vib-ना_वाला|tam-nA|chunkId-VGNN|chunkType-head|stype-|voicetype-	13	nmod	_	_
9	वाले	वाला	PSP	psp	lex-वाला|cat-psp|gen-m|num-sg|pers-|case-o|vib-|tam-|chunkId-VGNN|chunkType-child|stype-|voicetype-	8	lwg__psp	_	_
10	एक	एक	QC	num	lex-एक|cat-num|gen-any|num-any|pers-|case-any|vib-|tam-|chunkId-NP4|chunkType-child|stype-|voicetype-	13	nmod__adj	_	_
11	स्थानीय	स्थानीय	JJ	adj	lex-स्थानीय|cat-adj|gen-any|num-any|pers-|case-o|vib-|tam-|chunkId-NP4|chunkType-child|stype-|voicetype-	13	nmod__adj	_	_
12	प्रोडक्शन	प्रोडक्शन	NNC	n	lex-प्रोडक्शन|cat-n|gen-m|num-sg|pers-3|case-d|vib-0|tam-0|chunkId-NP4|chunkType-child|stype-|voicetype-	13	pof__cn	_	_
13	हाउस	हाउस	NN	n	lex-हाउस|cat-n|gen-m|num-sg|pers-3|case-o|vib-0_ने|tam-0|chunkId-NP4|chunkType-head|stype-|voicetype-	27	k1	_	_
14	ने	ने	PSP	psp	lex-ने|cat-psp|gen-|num-|pers-|case-|vib-|tam-|chunkId-NP4|chunkType-child|stype-|voicetype-	13	lwg__psp	_	_
15	वीडियो	वीडियो	NNC	n	lex-वीडियो|cat-n|gen-m|num-sg|pers-3|case-d|vib-0|tam-0|chunkId-NP5|chunkType-child|stype-|voicetype-	16	pof__cn	_	_
16	क्लिप	क्लिप	NN	n	lex-क्लिप|cat-n|gen-m|num-sg|pers-3|case-o|vib-0_को|tam-0|chunkId-NP5|chunkType-head|stype-|voicetype-	27	k2	_	_
17	को	को	PSP	psp	lex-को|cat-psp|gen-|num-|pers-|case-|vib-|tam-|chunkId-NP5|chunkType-child|stype-|voicetype-	16	lwg__psp	_	_
18	अपने	अपना	PRP	pn	lex-अपना|cat-pn|gen-m|num-any|pers-any|case-o|vib-0|tam-0|chunkId-NP6|chunkType-head|stype-|voicetype-	24	r6	_	_
19	कार्यक्रम	कार्यक्रम	NN	n	lex-कार्यक्रम|cat-n|gen-m|num-sg|pers-3|case-o|vib-0|tam-0|chunkId-NP7|chunkType-child|stype-|voicetype-	24	nmod	_	_
20	'	SINGLE_QUOTE	SYM	punc	lex-SINGLE_QUOTE|cat-punc|gen-|num-|pers-|case-|vib-|tam-|chunkId-NP7|chunkType-child|stype-|voicetype-	24	rsym	_	_
21	दस	दस	QC	num	lex-दस|cat-num|gen-any|num-any|pers-any|case-|vib-|tam-|chunkId-NP7|chunkType-child|stype-|voicetype-	24	nmod__adj	_	_
22	मिनट	मिनट	NNC	n	lex-मिनट|cat-n|gen-m|num-sg|pers-3|case-o|vib-0|tam-0|chunkId-NP7|chunkType-child|stype-|voicetype-	24	pof__cn	_	_
23	का	का	NNC	psp	lex-का|cat-psp|gen-m|num-sg|pers-|case-d|vib-|tam-|chunkId-NP7|chunkType-child|stype-|voicetype-	24	pof__cn	_	_
24	खेल	खेल	NN	n	lex-खेल|cat-n|gen-m|num-sg|pers-3|case-o|vib-0_में|tam-0|chunkId-NP7|chunkType-head|stype-|voicetype-	27	k7	_	_
25	'	SINGLE_QUOTE	SYM	punc	lex-SINGLE_QUOTE|cat-punc|gen-|num-|pers-|case-|vib-|tam-|chunkId-NP7|chunkType-child|stype-|voicetype-	24	rsym	_	_
26	में	में	PSP	psp	lex-में|cat-psp|gen-|num-|pers-|case-|vib-|tam-|chunkId-NP7|chunkType-child|stype-|voicetype-	24	lwg__psp	_	_
27	दिखाया	दिखा	VM	v	lex-दिखा|cat-v|gen-m|num-sg|pers-any|case-|vib-या_था|tam-yA|chunkId-VGF|chunkType-head|stype-declarative|voicetype-active	0	main	_	_
28	था	था	VAUX	v	lex-था|cat-v|gen-m|num-sg|pers-any|case-|vib-था|tam-WA|chunkId-VGF|chunkType-child|stype-|voicetype-	27	lwg__vaux	_	_
29	।	।	SYM	punc	lex-।|cat-punc|gen-|num-|pers-|case-|vib-|tam-|chunkId-BLK|chunkType-head|stype-|voicetype-	27	rsym	_	_

1	अन्य	अन्य	JJ	adj	lex-अन्य|cat-adj|gen-any|num-any|pers-|case-o|vib-|tam-|chunkId-NP|chunkType-child|stype-|voicetype-	2	nmod__adj	_	_
2	चैनलों	चैनल	NN	n	lex-चैनल|cat-n|gen-m|num-pl|pers-3|case-o|vib-0_को|tam-0|chunkId-NP|chunkType-head|stype-|voicetype-	7	k4	_	_
3	को	को	PSP	psp	lex-को|cat-psp|gen-|num-|pers-|case-|vib-|tam-|chunkId-NP|chunkType-child|stype-|voicetype-	2	lwg__psp	_	_
4	भी	भी	RP	avy	lex-भी|cat-avy|gen-|num-|pers-|case-|vib-|tam-|chunkId-NP|chunkType-child|stype-|voicetype-	2	lwg__rp	_	_
5	यह	यह	DEM	pn	lex-यह|cat-pn|gen-any|num-sg|pers-3|case-d|vib-|tam-|chunkId-NP2|chunkType-child|stype-|voicetype-	6	nmod__adj	_	_
6	क्लिप	क्लिप	NN	n	lex-क्लिप|cat-n|gen-m|num-sg|pers-3|case-d|vib-0|tam-0|chunkId-NP2|chunkType-head|stype-|voicetype-	7	k2	_	_
7	दी	दे	VM	v	lex-दे|cat-v|gen-f|num-sg|pers-any|case-|vib-या_जा+या१|tam-yA|chunkId-VGF|chunkType-head|stype-declarative|voicetype-passive	0	main	_	_
8	गई	जा	VAUX	v	lex-जा|cat-v|gen-f|num-sg|pers-any|case-|vib-या१|tam-yA1|chunkId-VGF|chunkType-child|stype-|voicetype-	7	lwg__vaux	_	_
9	।	।	SYM	punc	lex-।|cat-punc|gen-|num-|pers-|case-|vib-|tam-|chunkId-BLK|chunkType-head|stype-|voicetype-	7	rsym	_	_

