1	तमिलनाडु	तमिलनाडु	NNP	n	lex-तमिलनाडु|cat-n|gen-m|num-sg|pers-3|case-o|vib-0|tam-0|chunkId-NP|chunkType-head|stype-|voicetype-	2	ccof	_	_
2	और	और	CC	avy	lex-और|cat-avy|gen-|num-|pers-|case-|vib-|tam-|chunkId-CCP|chunkType-head|stype-|voicetype-	5	r6	_	_
3	केरल	केरल	NNP	n	lex-केरल|cat-n|gen-m|num-sg|pers-3|case-o|vib-0_का|tam-0|chunkId-NP2|chunkType-head|stype-|voicetype-	2	ccof	_	_
4	के	का	PSP	psp	lex-का|cat-psp|gen-m|num-pl|pers-|case-o|vib-|tam-|chunkId-NP2|chunkType-child|stype-|voicetype-	3	lwg__psp	_	_
5	सुनामी	सुनामी	NN	n	lex-सुनामी|cat-n|gen-f|num-sg|pers-3|case-d|vib-0|tam-0|chunkId-NP3|chunkType-head|stype-|voicetype-	6	jjmod	_	_
6	प्रभावित	प्रभावित	JJ	adj	lex-प्रभावित|cat-adj|gen-any|num-any|pers-|case-o|vib-|tam-|chunkId-JJP|chunkType-head|stype-|voicetype-	7	nmod	_	_
7	इलाकों	इलाका	NN	n	lex-इलाका|cat-n|gen-m|num-pl|pers-3|case-o|vib-0_का|tam-0|chunkId-NP4|chunkType-head|stype-|voicetype-	9	r6-k2	_	_
8	का	का	PSP	psp	lex-का|cat-psp|gen-m|num-sg|pers-|case-d|vib-|tam-|chunkId-NP4|chunkType-child|stype-|voicetype-	7	lwg__psp	_	_
9	दौरा	दौरा	NN	n	lex-दौरा|cat-n|gen-m|num-sg|pers-3|case-d|vib-0|tam-0|chunkId-NP5|chunkType-head|stype-|voicetype-	10	pof	_	_
10	करने	कर	VM	v	lex-कर|cat-v|gen-any|num-sg|pers-3|case-o|vib-ना_के_बाद|tam-nA|chunkId-VGNN|chunkType-head|stype-|voicetype-	18	k7t	_	_
11	के	के	PSP	psp	lex-के|cat-psp|gen-|num-|pers-|case-|vib-|tam-|chunkId-VGNN|chunkType-child|stype-|voicetype-	10	lwg__psp	_	_
12	बाद	बाद	NST	nst	lex-बाद|cat-nst|gen-m|num-sg|pers-3|case-d|vib-|tam-|chunkId-VGNN|chunkType-child|stype-|voicetype-	10	lwg__nst	_	_
13	प्रधानमंत्री	प्रधानमंत्री	NNP	n	lex-प्रधानमंत्री|cat-n|gen-m|num-sg|pers-3|case-d|vib-0|tam-0|chunkId-NP6|chunkType-child|stype-|voicetype-	15	nmod__adj	_	_
14	मनमोहन	मनमोहन	NNPC	n	lex-मनमोहन|cat-n|gen-m|num-sg|pers-3|case-d|vib-0|tam-0|chunkId-NP6|chunkType-child|stype-|voicetype-	15	pof__cn	_	_
15	सिंह	सिंह	NNP	n	lex-सिंह|cat-n|gen-m|num-sg|pers-3|case-o|vib-0_ने|tam-0|chunkId-NP6|chunkType-head|stype-|voicetype-	18	k1	_	_
16	ने	ने	PSP	psp	lex-ने|cat-psp|gen-|num-|pers-|case-|vib-|tam-|chunkId-NP6|chunkType-child|stype-|voicetype-	15	lwg__psp	_	_
17	आज	आज	NN	n	lex-आज|cat-n|gen-m|num-sg|pers-3|case-d|vib-0|tam-0|chunkId-NP7|chunkType-head|stype-|voicetype-	18	k7t	_	_
18	कहा	कह	VM	v	lex-कह|cat-v|gen-m|num-sg|pers-3|case-|vib-या|tam-yA|chunkId-VGF|chunkType-head|stype-declarative|voicetype-active	0	main	_	_
19	कि	कि	CC	avy	lex-कि|cat-avy|gen-|num-|pers-|case-|vib-|tam-|chunkId-CCP2|chunkType-head|stype-|voicetype-	18	k2	_	_
20	सरकार	सरकार	NN	n	lex-सरकार|cat-n|gen-f|num-sg|pers-3|case-d|vib-0|tam-0|chunkId-NP8|chunkType-head|stype-|voicetype-	29	k1	_	_
21	राहत	राहत	NN	n	lex-राहत|cat-n|gen-f|num-sg|pers-3|case-o|vib-0|tam-0|chunkId-NP9|chunkType-head|stype-|voicetype-	22	ccof	_	_
22	और	और	CC	avy	lex-और|cat-avy|gen-|num-|pers-|case-|vib-|tam-|chunkId-CCP3|chunkType-head|stype-|voicetype-	29	rt	_	_
23	पुनर्वास	पुनर्वास	NN	n	lex-पुनर्वास|cat-n|gen-m|num-sg|pers-3|case-o|vib-0_के_लिए|tam-0|chunkId-NP10|chunkType-head|stype-|voicetype-	22	ccof	_	_
24	के	के	PSP	psp	lex-के|cat-psp|gen-|num-|pers-|case-|vib-|tam-|chunkId-NP10|chunkType-child|stype-|voicetype-	23	lwg__psp	_	_
25	लिए	लिए	PSP	psp	lex-लिए|cat-psp|gen-|num-|pers-|case-|vib-|tam-|chunkId-NP10|chunkType-child|stype-|voicetype-	23	lwg__psp	_	_
26	हर	हर	QF	avy	lex-हर|cat-avy|gen-|num-|pers-|case-|vib-|tam-|chunkId-NP11|chunkType-child|stype-|voicetype-	28	nmod__adj	_	_
27	संभव	संभव	JJ	adj	lex-संभव|cat-adj|gen-any|num-any|pers-|case-d|vib-|tam-|chunkId-NP11|chunkType-child|stype-|voicetype-	28	nmod__adj	_	_
28	मदद	मदद	NN	n	lex-मदद|cat-n|gen-f|num-sg|pers-3|case-d|vib-0|tam-0|chunkId-NP11|chunkType-head|stype-|voicetype-	29	pof	_	_
29	करेगी	कर	VM	v	lex-कर|cat-v|gen-f|num-sg|pers-3|case-|vib-गा|tam-gA|chunkId-VGF2|chunkType-head|stype-declarative|voicetype-active	19	ccof	_	_
30	.	.	SYM	punc	lex-.|cat-punc|gen-|num-|pers-|case-|vib-|tam-|chunkId-BLK|chunkType-head|stype-|voicetype-	18	rsym	_	_

1	उन्होंने	वह	PRP	pn	lex-वह|cat-pn|gen-any|num-sg|pers-3h|case-o|vib-ने|tam-ne|chunkId-NP|chunkType-head|stype-|voicetype-	2	k1	_	_
2	कहा	कह	VM	v	lex-कह|cat-v|gen-m|num-sg|pers-any|case-|vib-या|tam-yA|chunkId-VGF|chunkType-head|stype-declarative|voicetype-active	0	main	_	_
3	कि	कि	CC	avy	lex-कि|cat-avy|gen-|num-|pers-|case-|vib-|tam-|chunkId-CCP|chunkType-head|stype-|voicetype-	2	k2	_	_
4	सरकार	सरकार	NN	n	lex-सरकार|cat-n|gen-f|num-sg|pers-3|case-d|vib-0|tam-0|chunkId-NP2|chunkType-head|stype-|voicetype-	14	k1	_	_
5	इस	यह	DEM	pn	lex-यह|cat-pn|gen-any|num-sg|pers-3|case-o|vib-|tam-|chunkId-NP3|chunkType-child|stype-|voicetype-	7	nmod__adj	_	_
6	प्राकृतिक	प्राकृतिक	JJ	adj	lex-प्राकृतिक|cat-adj|gen-any|num-any|pers-|case-o|vib-|tam-|chunkId-NP3|chunkType-child|stype-|voicetype-	7	nmod__adj	_	_
7	आपदा	आपदा	NN	n	lex-आपदा|cat-n|gen-f|num-sg|pers-3|case-o|vib-0_से|tam-0|chunkId-NP3|chunkType-head|stype-|voicetype-	9	jjmod	_	_
8	से	से	PSP	psp	lex-से|cat-psp|gen-|num-|pers-|case-|vib-|tam-|chunkId-NP3|chunkType-child|stype-|voicetype-	7	lwg__psp	_	_
9	प्रभावित	प्रभावित	JJ	adj	lex-प्रभावित|cat-adj|gen-any|num-any|pers-|case-o|vib-|tam-|chunkId-JJP|chunkType-head|stype-|voicetype-	11	nmod	_	_
10	हर	हर	QF	avy	lex-हर|cat-avy|gen-|num-|pers-|case-|vib-|tam-|chunkId-NP4|chunkType-child|stype-|voicetype-	11	nmod__adj	_	_
11	परिवार	परिवार	NN	n	lex-परिवार|cat-n|gen-m|num-sg|pers-3|case-o|vib-0_का|tam-0|chunkId-NP4|chunkType-head|stype-|voicetype-	13	r6-k2	_	_
12	का	का	PSP	psp	lex-का|cat-psp|gen-m|num-sg|pers-|case-d|vib-|tam-|chunkId-NP4|chunkType-child|stype-|voicetype-	11	lwg__psp	_	_
13	ध्यान	ध्यान	NN	n	lex-ध्यान|cat-n|gen-m|num-sg|pers-3|case-d|vib-0|tam-0|chunkId-NP5|chunkType-head|stype-|voicetype-	14	pof	_	_
14	रखेगी	रख	VM	v	lex-रख|cat-v|gen-f|num-sg|pers-3|case-|vib-गा|tam-gA|chunkId-VGF2|chunkType-head|stype-declarative|voicetype-active	3	ccof	_	_
15	.	.	SYM	punc	lex-.|cat-punc|gen-|num-|pers-|case-|vib-|tam-|chunkId-BLK|chunkType-head|stype-|voicetype-	2	rsym	_	_

1	इस	यह	DEM	pn	lex-यह|cat-pn|gen-any|num-sg|pers-3|case-o|vib-|tam-|chunkId-NP|chunkType-head|stype-|voicetype-	19	k7t	_	_
2	बीच	बीच	NST	nst	lex-बीच|cat-nst|gen-m|num-sg|pers-3|case-d|vib-|tam-|chunkId-NP|chunkType-child|stype-|voicetype-	1	lwg__psp	_	_
3	,	COMMA	SYM	punc	lex-COMMA|cat-punc|gen-|num-|pers-|case-|vib-|tam-|chunkId-NP|chunkType-child|stype-|voicetype-	1	rsym	_	_
4	प्रधानमंत्री	प्रधानमंत्री	NNP	n	lex-प्रधानमंत्री|cat-n|gen-m|num-sg|pers-3|case-d|vib-0|tam-0|chunkId-NP2|chunkType-head|stype-|voicetype-	19	k1	_	_
5	शुक्रवार	शुक्रवार	NNC	n	lex-शुक्रवार|cat-n|gen-m|num-sg|pers-3|case-d|vib-0|tam-0|chunkId-NP3|chunkType-child|stype-|voicetype-	6	pof__cn	_	_
6	शाम	शाम	NN	n	lex-शाम|cat-n|gen-f|num-sg|pers-3|case-o|vib-0|tam-0|chunkId-NP3|chunkType-head|stype-|voicetype-	19	k7t	_	_
7	आंध्र	आंध्र	NNPC	n	lex-आंध्र|cat-n|gen-m|num-sg|pers-3|case-d|vib-0|tam-0|chunkId-NP4|chunkType-child|stype-|voicetype-	8	pof__cn	_	_
8	प्रदेश	प्रदेश	NNP	n	lex-प्रदेश|cat-n|gen-m|num-sg|pers-3|case-o|vib-0_का|tam-0|chunkId-NP4|chunkType-head|stype-|voicetype-	12	r6	_	_
9	के	का	PSP	psp	lex-का|cat-psp|gen-m|num-pl|pers-|case-o|vib-|tam-|chunkId-NP4|chunkType-child|stype-|voicetype-	8	lwg__psp	_	_
10	सुनामी	सुनामी	NN	n	lex-सुनामी|cat-n|gen-f|num-sg|pers-3|case-d|vib-0|tam-0|chunkId-NP5|chunkType-head|stype-|voicetype-	11	jjmod	_	_
11	प्रभावित	प्रभावित	JJ	adj	lex-प्रभावित|cat-adj|gen-any|num-any|pers-|case-o|vib-|tam-|chunkId-JJP|chunkType-head|stype-|voicetype-	12	nmod	_	_
12	इलाकों	इलाका	NN	n	lex-इलाका|cat-n|gen-m|num-pl|pers-3|case-o|vib-0_का|tam-0|chunkId-NP6|chunkType-head|stype-|voicetype-	14	r6-k2	_	_
13	का	का	PSP	psp	lex-का|cat-psp|gen-m|num-sg|pers-|case-d|vib-|tam-|chunkId-NP6|chunkType-child|stype-|voicetype-	12	lwg__psp	_	_
14	दौरा	दौरा	NN	n	lex-दौरा|cat-n|gen-m|num-sg|pers-3|case-d|vib-0|tam-0|chunkId-NP7|chunkType-head|stype-|voicetype-	15	pof	_	_
15	करने	कर	VM	v	lex-कर|cat-v|gen-any|num-any|pers-any|case-o|vib-ना_के_लिए|tam-nA|chunkId-VGNN|chunkType-head|stype-|voicetype-	19	rt	_	_
16	के	के	PSP	psp	lex-के|cat-psp|gen-|num-|pers-|case-|vib-|tam-|chunkId-VGNN|chunkType-child|stype-|voicetype-	15	lwg__psp	_	_
17	लिए	लिए	PSP	psp	lex-लिए|cat-psp|gen-|num-|pers-|case-|vib-|tam-|chunkId-VGNN|chunkType-child|stype-|voicetype-	15	lwg__psp	_	_
18	विजयवाड़ा	विजयवाड़ा	NNP	n	lex-विजयवाड़ा|cat-n|gen-m|num-sg|pers-3|case-d|vib-0|tam-0|chunkId-NP8|chunkType-head|stype-|voicetype-	19	k2p	_	_
19	पहुंच	पहुंच	VM	v	lex-पहुंच|cat-v|gen-any|num-sg|pers-3h|case-|vib-0_जा+या१|tam-0|chunkId-VGF|chunkType-head|stype-declarative|voicetype-active	0	main	_	_
20	गए	जा	VAUX	v	lex-जा|cat-v|gen-m|num-sg|pers-3h|case-|vib-या१|tam-yA1|chunkId-VGF|chunkType-child|stype-|voicetype-	19	lwg__vaux	_	_
21	.	.	SYM	punc	lex-.|cat-punc|gen-|num-|pers-|case-|vib-|tam-|chunkId-BLK|chunkType-head|stype-|voicetype-	19	rsym	_	_

1	उन्होंने	वह	PRP	pn	lex-वह|cat-pn|gen-any|num-sg|pers-3h|case-o|vib-ने|tam-ne|chunkId-NP|chunkType-head|stype-|voicetype-	20	k1	_	_
2	यहां	यहाँ	PRP	pn	lex-यहाँ|cat-pn|gen-|num-|pers-|case-d|vib-|tam-|chunkId-NP2|chunkType-head|stype-|voicetype-	20	k7p	_	_
3	पहुंचने	पहुंच	VM	v	lex-पहुंच|cat-v|gen-any|num-sg|pers-3|case-o|vib-ना_के_बाद|tam-nA|chunkId-VGNN|chunkType-head|stype-|voicetype-	20	k7t	_	_
4	के	के	PSP	psp	lex-के|cat-psp|gen-|num-|pers-|case-|vib-|tam-|chunkId-VGNN|chunkType-child|stype-|voicetype-	3	lwg__psp	_	_
5	बाद	बाद	NST	nst	lex-बाद|cat-nst|gen-m|num-sg|pers-3|case-d|vib-|tam-|chunkId-VGNN|chunkType-child|stype-|voicetype-	3	lwg__nst	_	_
6	संवाददाता	संवाददाता	NNC	n	lex-संवाददाता|cat-n|gen-m|num-sg|pers-3|case-d|vib-0|tam-0|chunkId-NP3|chunkType-child|stype-|voicetype-	7	pof__cn	_	_
7	सम्मेलन	सम्मेलन	NN	n	lex-सम्मेलन|cat-n|gen-m|num-sg|pers-3|case-o|vib-0_में|tam-0|chunkId-NP3|chunkType-head|stype-|voicetype-	20	k7p	_	_
8	में	में	PSP	psp	lex-में|cat-psp|gen-|num-|pers-|case-|vib-|tam-|chunkId-NP3|chunkType-child|stype-|voicetype-	7	lwg__psp	_	_
9	आंध्र	आंध्र	NNPC	n	lex-आंध्र|cat-n|gen-m|num-sg|pers-3|case-d|vib-0|tam-0|chunkId-NP4|chunkType-child|stype-|voicetype-	10	pof__cn	_	_
10	प्रदेश	प्रदेश	NNP	n	lex-प्रदेश|cat-n|gen-m|num-sg|pers-3|case-o|vib-0_के_लिए|tam-0|chunkId-NP4|chunkType-head|stype-|voicetype-	17	rt	_	_
11	के	के	PSP	psp	lex-के|cat-psp|gen-|num-|pers-|case-|vib-|tam-|chunkId-NP4|chunkType-child|stype-|voicetype-	10	lwg__psp	_	_
12	लिए	लिए	PSP	psp	lex-लिए|cat-psp|gen-|num-|pers-|case-|vib-|tam-|chunkId-NP4|chunkType-child|stype-|voicetype-	10	lwg__psp	_	_
13	तुरंत	तुरंत	RB	adv	lex-तुरंत|cat-adv|gen-|num-|pers-|case-|vib-|tam-|chunkId-RBP|chunkType-head|stype-|voicetype-	17	k7t	_	_
14	सौ	सौ	QCC	num	lex-सौ|cat-num|gen-any|num-any|pers-|case-any|vib-|tam-|chunkId-NP5|chunkType-child|stype-|voicetype-	16	mod	_	_
15	करोड़	करोड	QC	num	lex-करोड|cat-num|gen-any|num-any|pers-|case-any|vib-|tam-|chunkId-NP5|chunkType-child|stype-|voicetype-	16	nmod__adj	_	_
16	रुपये	रुपया	NN	n	lex-रुपया|cat-n|gen-m|num-pl|pers-3|case-d|vib-0|tam-0|chunkId-NP5|chunkType-head|stype-|voicetype-	17	k2	_	_
17	देने	दे	VM	v	lex-दे|cat-v|gen-any|num-sg|pers-any|case-o|vib-ना_का|tam-nA|chunkId-VGNN2|chunkType-head|stype-|voicetype-	19	r6-k2	_	_
18	की	का	PSP	psp	lex-का|cat-psp|gen-f|num-sg|pers-|case-d|vib-|tam-|chunkId-VGNN2|chunkType-child|stype-|voicetype-	17	lwg__psp	_	_
19	घोषणा	घोषणा	NN	n	lex-घोषणा|cat-n|gen-f|num-sg|pers-3|case-d|vib-0|tam-0|chunkId-NP6|chunkType-head|stype-|voicetype-	20	pof	_	_
20	की	कर	VM	v	lex-कर|cat-v|gen-f|num-sg|pers-3|case-|vib-या_है|tam-yA|chunkId-VGF|chunkType-head|stype-declarative|voicetype-active	0	main	_	_
21	है	है	VAUX	v	lex-है|cat-v|gen-any|num-sg|pers-3|case-|vib-है|tam-hE|chunkId-VGF|chunkType-child|stype-|voicetype-	20	lwg__vaux	_	_
22	.	.	SYM	punc	lex-.|cat-punc|gen-|num-|pers-|case-|vib-|tam-|chunkId-BLK|chunkType-head|stype-|voicetype-	20	rsym	_	_

1	कल	कल	NN	n	lex-कल|cat-n|gen-m|num-sg|pers-3|case-d|vib-0|tam-0|chunkId-NP|chunkType-head|stype-|voicetype-	11	k7t	_	_
2	उन्होंने	वह	PRP	pn	lex-वह|cat-pn|gen-any|num-sg|pers-3h|case-o|vib-ने|tam-ne|chunkId-NP2|chunkType-head|stype-|voicetype-	11	k1	_	_
3	केरल	केरल	NNP	n	lex-केरल|cat-n|gen-m|num-sg|pers-3|case-o|vib-0_के_लिए|tam-0|chunkId-NP3|chunkType-head|stype-|voicetype-	11	rt	_	_
4	के	के	PSP	psp	lex-के|cat-psp|gen-m|num-|pers-|case-|vib-|tam-|chunkId-NP3|chunkType-child|stype-|voicetype-	3	lwg__psp	_	_
5	लिए	लिए	PSP	psp	lex-लिए|cat-psp|gen-|num-|pers-|case-|vib-|tam-|chunkId-NP3|chunkType-child|stype-|voicetype-	3	lwg__psp	_	_
6	१०६	१०६	QCC	num	lex-१०६|cat-num|gen-any|num-any|pers-|case-any|vib-|tam-|chunkId-NP4|chunkType-child|stype-|voicetype-	8	mod	_	_
7	करोड़	करोड	QC	num	lex-करोड|cat-num|gen-any|num-any|pers-|case-any|vib-|tam-|chunkId-NP4|chunkType-child|stype-|voicetype-	8	nmod__adj	_	_
8	रुपये	रुपया	NN	n	lex-रुपया|cat-n|gen-m|num-sg|pers-3|case-o|vib-0_का|tam-0|chunkId-NP4|chunkType-head|stype-|voicetype-	10	r6-k2	_	_
9	की	का	PSP	psp	lex-का|cat-psp|gen-f|num-sg|pers-|case-d|vib-|tam-|chunkId-NP4|chunkType-child|stype-|voicetype-	8	lwg__psp	_	_
10	घोषणा	घोषणा	NN	n	lex-घोषणा|cat-n|gen-f|num-sg|pers-3|case-d|vib-0|tam-0|chunkId-NP5|chunkType-head|stype-|voicetype-	11	pof	_	_
11	की	कर	VM	v	lex-कर|cat-v|gen-f|num-sg|pers-3|case-|vib-या_था|tam-yA|chunkId-VGF|chunkType-head|stype-declarative|voicetype-active	0	main	_	_
12	थी	था	VAUX	v	lex-था|cat-v|gen-f|num-sg|pers-3|case-|vib-था|tam-WA|chunkId-VGF|chunkType-child|stype-|voicetype-	11	lwg__vaux	_	_
13	.	.	SYM	punc	lex-.|cat-punc|gen-|num-|pers-|case-|vib-|tam-|chunkId-BLK|chunkType-head|stype-|voicetype-	11	rsym	_	_

1	मनमोहन	मनमोहन	NNP	n	lex-मनमोहन|cat-n|gen-m|num-sg|pers-3|case-o|vib-0_ने|tam-0|chunkId-NP|chunkType-head|stype-|voicetype-	3	k1	_	_
2	ने	ने	PSP	psp	lex-ने|cat-psp|gen-|num-|pers-|case-|vib-|tam-|chunkId-NP|chunkType-child|stype-|voicetype-	1	lwg__psp	_	_
3	कहा	कह	VM	v	lex-कह|cat-v|gen-m|num-sg|pers-any|case-|vib-या|tam-yA|chunkId-VGF|chunkType-head|stype-declarative|voicetype-active	0	main	_	_
4	कि	कि	CC	avy	lex-कि|cat-avy|gen-|num-|pers-|case-|vib-|tam-|chunkId-CCP|chunkType-head|stype-|voicetype-	3	k2	_	_
5	वह	वह	PRP	pn	lex-वह|cat-pn|gen-any|num-sg|pers-3|case-d|vib-0|tam-0|chunkId-NP2|chunkType-head|stype-|voicetype-	19	k1	_	_
6	तमिलनाडु	तमिलनाडु	NNP	n	lex-तमिलनाडु|cat-n|gen-m|num-sg|pers-3|case-o|vib-0|tam-0|chunkId-NP3|chunkType-head|stype-|voicetype-	7	ccof	_	_
7	और	और	CC	avy	lex-और|cat-avy|gen-|num-|pers-|case-|vib-|tam-|chunkId-CCP2|chunkType-head|stype-|voicetype-	10	r6	_	_
8	पांडिचेरी	पांडिचेरी	NNP	n	lex-पांडिचेरी|cat-n|gen-m|num-sg|pers-3|case-o|vib-0_के|tam-0|chunkId-NP4|chunkType-head|stype-|voicetype-	7	ccof	_	_
9	के	के	PSP	psp	lex-के|cat-psp|gen-m|num-sg|pers-|case-o|vib-|tam-|chunkId-NP4|chunkType-child|stype-|voicetype-	8	lwg__psp	_	_
10	मुख्यमंत्रियों	मुख्यमंत्री	NN	n	lex-मुख्यमंत्री|cat-n|gen-m|num-pl|pers-3|case-o|vib-0_से|tam-0|chunkId-NP5|chunkType-head|stype-|voicetype-	13	ras-k1	_	_
11	से	से	PSP	psp	lex-से|cat-psp|gen-|num-|pers-|case-|vib-|tam-|chunkId-NP5|chunkType-child|stype-|voicetype-	10	lwg__psp	_	_
12	बात	बात	NN	n	lex-बात|cat-n|gen-f|num-sg|pers-3|case-d|vib-0|tam-0|chunkId-NP6|chunkType-head|stype-|voicetype-	13	pof	_	_
13	कर	कर	VM	v	lex-कर|cat-v|gen-any|num-any|pers-any|case-|vib-0|tam-0|chunkId-VGNF|chunkType-head|stype-|voicetype-	19	vmod	_	_
14	उनके	वह	PRP	pn	lex-वह|cat-pn|gen-m|num-pl|pers-3|case-o|vib-का|tam-kA|chunkId-NP7|chunkType-head|stype-|voicetype-	15	r6	_	_
15	फंड	फंड	NN	n	lex-फंड|cat-n|gen-m|num-sg|pers-3|case-o|vib-0_के_लिए|tam-0|chunkId-NP8|chunkType-head|stype-|voicetype-	19	rt	_	_
16	के	के	PSP	psp	lex-के|cat-psp|gen-|num-|pers-|case-|vib-|tam-|chunkId-NP8|chunkType-child|stype-|voicetype-	15	lwg__psp	_	_
17	लिए	लिए	PSP	psp	lex-लिए|cat-psp|gen-|num-|pers-|case-|vib-|tam-|chunkId-NP8|chunkType-child|stype-|voicetype-	15	lwg__psp	_	_
18	बात	बात	NN	n	lex-बात|cat-n|gen-f|num-sg|pers-3|case-d|vib-0|tam-0|chunkId-NP9|chunkType-head|stype-|voicetype-	19	pof	_	_
19	करेंगे	कर	VM	v	lex-कर|cat-v|gen-m|num-sg|pers-3h|case-|vib-गा|tam-gA|chunkId-VGF2|chunkType-head|stype-declarative|voicetype-active	4	ccof	_	_
20	.	.	SYM	punc	lex-.|cat-punc|gen-|num-|pers-|case-|vib-|tam-|chunkId-BLK|chunkType-head|stype-|voicetype-	3	rsym	_	_

1	उधर	उधर	NST	nst	lex-उधर|cat-nst|gen-m|num-sg|pers-3|case-d|vib-|tam-|chunkId-NP|chunkType-head|stype-|voicetype-	10	sent-adv	_	_
2	,	COMMA	SYM	punc	lex-COMMA|cat-punc|gen-|num-|pers-|case-|vib-|tam-|chunkId-NP|chunkType-child|stype-|voicetype-	1	rsym	_	_
3	दिल्ली	दिल्ली	NNP	n	lex-दिल्ली|cat-n|gen-f|num-sg|pers-3|case-o|vib-0_में|tam-0|chunkId-NP2|chunkType-head|stype-|voicetype-	10	k7p	_	_
4	में	में	PSP	psp	lex-में|cat-psp|gen-|num-|pers-|case-|vib-|tam-|chunkId-NP2|chunkType-child|stype-|voicetype-	3	lwg__psp	_	_
5	प्रधानमंत्री	प्रधानमंत्री	NNC	n	lex-प्रधानमंत्री|cat-n|gen-m|num-sg|pers-3|case-d|vib-0|tam-0|chunkId-NP3|chunkType-child|stype-|voicetype-	6	pof__cn	_	_
6	कार्यालय	कार्यालय	NN	n	lex-कार्यालय|cat-n|gen-m|num-sg|pers-3|case-o|vib-0_के|tam-0|chunkId-NP3|chunkType-head|stype-|voicetype-	8	r6	_	_
7	के	के	PSP	psp	lex-के|cat-psp|gen-m|num-pl|pers-|case-o|vib-|tam-|chunkId-NP3|chunkType-child|stype-|voicetype-	6	lwg__psp	_	_
8	सूत्रों	सूत्र	NN	n	lex-सूत्र|cat-n|gen-m|num-pl|pers-3|case-o|vib-0_ने|tam-0|chunkId-NP4|chunkType-head|stype-|voicetype-	10	k1	_	_
9	ने	ने	PSP	psp	lex-ने|cat-psp|gen-|num-|pers-|case-|vib-|tam-|chunkId-NP4|chunkType-child|stype-|voicetype-	8	lwg__psp	_	_
10	बताया	बता	VM	v	lex-बता|cat-v|gen-m|num-sg|pers-any|case-|vib-या|tam-yA|chunkId-VGF|chunkType-head|stype-declarative|voicetype-active	0	main	_	_
11	कि	कि	CC	avy	lex-कि|cat-avy|gen-|num-|pers-|case-|vib-|tam-|chunkId-CCP|chunkType-head|stype-|voicetype-	10	k2	_	_
12	प्रधानमंत्री	प्रधानमंत्री	NNP	n	lex-प्रधानमंत्री|cat-n|gen-m|num-sg|pers-3|case-o|vib-0_ने|tam-0|chunkId-NP5|chunkType-head|stype-|voicetype-	32	k1	_	_
13	ने	ने	PSP	psp	lex-ने|cat-psp|gen-|num-|pers-|case-|vib-|tam-|chunkId-NP5|chunkType-child|stype-|voicetype-	12	lwg__psp	_	_
14	तमिलनाडु	तमिलनाडु	NNP	n	lex-तमिलनाडु|cat-n|gen-m|num-sg|pers-3|case-o|vib-0_का|tam-0|chunkId-NP6|chunkType-head|stype-|voicetype-	16	r6	_	_
15	की	का	PSP	psp	lex-का|cat-psp|gen-f|num-sg|pers-|case-o|vib-|tam-|chunkId-NP6|chunkType-child|stype-|voicetype-	14	lwg__psp	_	_
16	मुख्यमंत्री	मुख्यमंत्री	NN	n	lex-मुख्यमंत्री|cat-n|gen-f|num-sg|pers-3|case-o|vib-0|tam-0|chunkId-NP7|chunkType-head|stype-|voicetype-	17	nmod	_	_
17	जयललिता	जयललिता	NNP	n	lex-जयललिता|cat-n|gen-f|num-sg|pers-3|case-o|vib-0_से|tam-0|chunkId-NP8|chunkType-head|stype-|voicetype-	20	ras-k1	_	_
18	से	से	PSP	psp	lex-से|cat-psp|gen-|num-|pers-|case-|vib-|tam-|chunkId-NP8|chunkType-child|stype-|voicetype-	17	lwg__psp	_	_
19	चर्चा	चर्चा	NN	n	lex-चर्चा|cat-n|gen-f|num-sg|pers-3|case-d|vib-0|tam-0|chunkId-NP9|chunkType-head|stype-|voicetype-	20	pof	_	_
20	करने	कर	VM	v	lex-कर|cat-v|gen-any|num-sg|pers-3|case-o|vib-ना_के_बाद|tam-nA|chunkId-VGNN|chunkType-head|stype-|voicetype-	32	vmod	_	_
21	के	के	PSP	psp	lex-के|cat-psp|gen-|num-|pers-|case-|vib-|tam-|chunkId-VGNN|chunkType-child|stype-|voicetype-	20	lwg__psp	_	_
22	बाद	बाद	NST	nst	lex-बाद|cat-nst|gen-m|num-sg|pers-3|case-d|vib-|tam-|chunkId-VGNN|chunkType-child|stype-|voicetype-	20	lwg__nst	_	_
23	राज्य	राज्य	NN	n	lex-राज्य|cat-n|gen-m|num-sg|pers-3|case-o|vib-0_के_लिए|tam-0|chunkId-NP10|chunkType-head|stype-|voicetype-	32	rt	_	_
24	के	के	PSP	psp	lex-के|cat-psp|gen-|num-|pers-|case-|vib-|tam-|chunkId-NP10|chunkType-child|stype-|voicetype-	23	lwg__psp	_	_
25	लिए	लिए	PSP	psp	lex-लिए|cat-psp|gen-|num-|pers-|case-|vib-|tam-|chunkId-NP10|chunkType-child|stype-|voicetype-	23	lwg__psp	_	_
26	ढाई	ढाई	QCC	num	lex-ढाई|cat-num|gen-any|num-any|pers-|case-any|vib-|tam-|chunkId-NP11|chunkType-child|stype-|voicetype-	29	mod	_	_
27	सौ	सौ	QCC	num	lex-सौ|cat-num|gen-any|num-any|pers-|case-any|vib-|tam-|chunkId-NP11|chunkType-child|stype-|voicetype-	29	mod	_	_
28	करोड़	करोड	QC	num	lex-करोड|cat-num|gen-any|num-any|pers-|case-any|vib-|tam-|chunkId-NP11|chunkType-child|stype-|voicetype-	29	nmod__adj	_	_
29	रुपये	रुपया	NN	n	lex-रुपया|cat-n|gen-m|num-sg|pers-3|case-o|vib-0_का|tam-0|chunkId-NP11|chunkType-head|stype-|voicetype-	31	r6-k2	_	_
30	की	का	PSP	psp	lex-का|cat-psp|gen-f|num-sg|pers-|case-d|vib-|tam-|chunkId-NP11|chunkType-child|stype-|voicetype-	29	lwg__psp	_	_
31	मंजूरी	मंजूरी	NN	n	lex-मंजूरी|cat-n|gen-f|num-sg|pers-3|case-d|vib-0|tam-0|chunkId-NP12|chunkType-head|stype-|voicetype-	32	pof	_	_
32	दे	दे	VM	v	lex-दे|cat-v|gen-any|num-sg|pers-any|case-|vib-0_दे+या|tam-0|chunkId-VGF2|chunkType-head|stype-declarative|voicetype-active	11	ccof	_	_
33	दी	दे	VAUX	v	lex-दे|cat-v|gen-f|num-sg|pers-any|case-|vib-या|tam-yA|chunkId-VGF2|chunkType-child|stype-|voicetype-	32	lwg__vaux	_	_
34	.	.	SYM	punc	lex-.|cat-punc|gen-|num-|pers-|case-|vib-|tam-|chunkId-BLK|chunkType-head|stype-|voicetype-	10	rsym	_	_

1	मनमोहन	मनमोहन	NNP	n	lex-मनमोहन|cat-n|gen-m|num-sg|pers-3|case-o|vib-0_ने|tam-0|chunkId-NP|chunkType-head|stype-|voicetype-	3	k1	_	_
2	ने	ने	PSP	psp	lex-ने|cat-psp|gen-|num-|pers-|case-|vib-|tam-|chunkId-NP|chunkType-child|stype-|voicetype-	1	lwg__psp	_	_
3	कहा	कह	VM	v	lex-कह|cat-v|gen-m|num-sg|pers-any|case-|vib-या|tam-yA|chunkId-VGF|chunkType-head|stype-declarative|voicetype-active	0	main	_	_
4	कि	कि	CC	avy	lex-कि|cat-avy|gen-|num-|pers-|case-|vib-|tam-|chunkId-CCP|chunkType-head|stype-|voicetype-	3	k2	_	_
5	सुनामी	सुनामी	NN	n	lex-सुनामी|cat-n|gen-f|num-sg|pers-3|case-o|vib-0_से|tam-0|chunkId-NP2|chunkType-head|stype-|voicetype-	8	nmod	_	_
6	से	से	PSP	psp	lex-से|cat-psp|gen-|num-|pers-|case-|vib-|tam-|chunkId-NP2|chunkType-child|stype-|voicetype-	5	lwg__psp	_	_
7	बुरी	बुरा	JJ	adj	lex-बुरा|cat-adj|gen-f|num-sg|pers-|case-d|vib-|tam-|chunkId-NP3|chunkType-child|stype-|voicetype-	8	nmod__adj	_	_
8	तरह	तरह	NN	n	lex-तरह|cat-n|gen-f|num-sg|pers-3|case-d|vib-0|tam-0|chunkId-NP3|chunkType-head|stype-|voicetype-	9	jjmod	_	_
9	प्रभावित	प्रभावित	JJ	adj	lex-प्रभावित|cat-adj|gen-any|num-any|pers-|case-o|vib-|tam-|chunkId-JJP|chunkType-head|stype-|voicetype-	11	nmod	_	_
10	अंडमान	अंडमान	NNPC	n	lex-अंडमान|cat-n|gen-m|num-sg|pers-3|case-d|vib-0|tam-0|chunkId-NP4|chunkType-child|stype-|voicetype-	11	pof__cn	_	_
11	निकोबार	निकोबार	NNP	n	lex-निकोबार|cat-n|gen-m|num-sg|pers-3|case-o|vib-0_के|tam-0|chunkId-NP4|chunkType-head|stype-|voicetype-	13	r6	_	_
12	के	के	PSP	psp	lex-के|cat-psp|gen-m|num-sg|pers-|case-o|vib-|tam-|chunkId-NP4|chunkType-child|stype-|voicetype-	11	lwg__psp	_	_
13	पुनर्वास	पुनर्वास	NN	n	lex-पुनर्वास|cat-n|gen-m|num-sg|pers-3|case-o|vib-0|tam-0|chunkId-NP5|chunkType-head|stype-|voicetype-	14	ccof	_	_
14	और	और	CC	avy	lex-और|cat-avy|gen-|num-|pers-|case-|vib-|tam-|chunkId-CCP2|chunkType-head|stype-|voicetype-	18	r6	_	_
15	राहत	राहत	NN	n	lex-राहत|cat-n|gen-f|num-sg|pers-3|case-o|vib-0_का|tam-0|chunkId-NP6|chunkType-head|stype-|voicetype-	14	ccof	_	_
16	का	का	PSP	psp	lex-का|cat-psp|gen-m|num-sg|pers-|case-d|vib-|tam-|chunkId-NP6|chunkType-child|stype-|voicetype-	15	lwg__psp	_	_
17	सारा	सारा	QF	adj	lex-सारा|cat-adj|gen-m|num-sg|pers-|case-d|vib-|tam-|chunkId-NP7|chunkType-child|stype-|voicetype-	18	nmod__adj	_	_
18	खर्च	खर्च	NN	n	lex-खर्च|cat-n|gen-m|num-sg|pers-3|case-d|vib-0|tam-0|chunkId-NP7|chunkType-head|stype-|voicetype-	20	k2	_	_
19	सरकार	सरकार	NN	n	lex-सरकार|cat-n|gen-f|num-sg|pers-3|case-d|vib-0|tam-0|chunkId-NP8|chunkType-head|stype-|voicetype-	20	k1	_	_
20	उठाएगी	उठा	VM	v	lex-उठा|cat-v|gen-f|num-sg|pers-3|case-|vib-गा|tam-gA|chunkId-VGF2|chunkType-head|stype-declarative|voicetype-active	4	ccof	_	_
21	.	.	SYM	punc	lex-.|cat-punc|gen-|num-|pers-|case-|vib-|tam-|chunkId-BLK|chunkType-head|stype-|voicetype-	3	rsym	_	_

1	मनमोहन	मनमोहन	NNP	n	lex-मनमोहन|cat-n|gen-m|num-sg|pers-3|case-o|vib-0_ने|tam-0|chunkId-NP|chunkType-head|stype-|voicetype-	3	k1	_	_
2	ने	ने	PSP	psp	lex-ने|cat-psp|gen-|num-|pers-|case-|vib-|tam-|chunkId-NP|chunkType-child|stype-|voicetype-	1	lwg__psp	_	_
3	बताया	बता	VM	v	lex-बता|cat-v|gen-m|num-sg|pers-any|case-|vib-या|tam-yA|chunkId-VGF|chunkType-head|stype-declarative|voicetype-active	0	main	_	_
4	कि	कि	CC	avy	lex-कि|cat-avy|gen-|num-|pers-|case-|vib-|tam-|chunkId-CCP|chunkType-head|stype-|voicetype-	3	k2	_	_
5	केंद्र	केंद्र	NNP	n	lex-केंद्र|cat-n|gen-m|num-sg|pers-3|case-o|vib-0_ने|tam-0|chunkId-NP2|chunkType-head|stype-|voicetype-	22	k1	_	_
6	ने	ने	PSP	psp	lex-ने|cat-psp|gen-|num-|pers-|case-|vib-|tam-|chunkId-NP2|chunkType-child|stype-|voicetype-	5	lwg__psp	_	_
7	राष्ट्रीय	राष्ट्रीय	NNPC	adj	lex-राष्ट्रीय|cat-adj|gen-any|num-any|pers-|case-o|vib-|tam-|chunkId-NP3|chunkType-child|stype-|voicetype-	10	pof__cn	_	_
8	आपदा	आपदा	NNPC	n	lex-आपदा|cat-n|gen-f|num-sg|pers-3|case-d|vib-0|tam-0|chunkId-NP3|chunkType-child|stype-|voicetype-	10	pof__cn	_	_
9	राहत	राहत	NNPC	n	lex-राहत|cat-n|gen-f|num-sg|pers-3|case-d|vib-0|tam-0|chunkId-NP3|chunkType-child|stype-|voicetype-	10	pof__cn	_	_
10	कोष	कोष	NNP	n	lex-कोष|cat-n|gen-m|num-sg|pers-3|case-o|vib-0_से|tam-0|chunkId-NP3|chunkType-head|stype-|voicetype-	22	k5	_	_
11	से	से	PSP	psp	lex-से|cat-psp|gen-|num-|pers-|case-|vib-|tam-|chunkId-NP3|chunkType-child|stype-|voicetype-	10	lwg__psp	_	_
12	सभी	सभी	QF	avy	lex-सभी|cat-avy|gen-|num-|pers-|case-|vib-|tam-|chunkId-NP4|chunkType-child|stype-|voicetype-	14	nmod__adj	_	_
13	प्रभावित	प्रभावित	JJ	adj	lex-प्रभावित|cat-adj|gen-any|num-any|pers-|case-o|vib-|tam-|chunkId-NP4|chunkType-child|stype-|voicetype-	14	nmod__adj	_	_
14	राज्यों	राज्य	NN	n	lex-राज्य|cat-n|gen-m|num-pl|pers-3|case-o|vib-0_के_लिए|tam-0|chunkId-NP4|chunkType-head|stype-|voicetype-	22	rt	_	_
15	के	के	PSP	psp	lex-के|cat-psp|gen-|num-|pers-|case-|vib-|tam-|chunkId-NP4|chunkType-child|stype-|voicetype-	14	lwg__psp	_	_
16	लिए	लिए	PSP	psp	lex-लिए|cat-psp|gen-|num-|pers-|case-|vib-|tam-|chunkId-NP4|chunkType-child|stype-|voicetype-	14	lwg__psp	_	_
17	पांच	पांच	QCC	num	lex-पांच|cat-num|gen-any|num-any|pers-|case-any|vib-|tam-|chunkId-NP5|chunkType-child|stype-|voicetype-	20	mod	_	_
18	सौ	सौ	QCC	num	lex-सौ|cat-num|gen-any|num-any|pers-|case-any|vib-|tam-|chunkId-NP5|chunkType-child|stype-|voicetype-	20	mod	_	_
19	करोड़	करोड	QC	num	lex-करोड|cat-num|gen-any|num-any|pers-|case-any|vib-|tam-|chunkId-NP5|chunkType-child|stype-|voicetype-	20	nmod__adj	_	_
20	रुपये	रुपया	NN	n	lex-रुपया|cat-n|gen-m|num-pl|pers-3|case-d|vib-0|tam-0|chunkId-NP5|chunkType-head|stype-|voicetype-	22	k2	_	_
21	जारी	जारी	JJ	adj	lex-जारी|cat-adj|gen-any|num-any|pers-|case-|vib-|tam-|chunkId-JJP|chunkType-head|stype-|voicetype-	22	pof	_	_
22	किए	कर	VM	v	lex-कर|cat-v|gen-m|num-pl|pers-3|case-|vib-या_है|tam-yA|chunkId-VGF2|chunkType-head|stype-declarative|voicetype-active	4	ccof	_	_
23	हैं	है	VAUX	v	lex-है|cat-v|gen-any|num-pl|pers-3|case-|vib-है|tam-hE|chunkId-VGF2|chunkType-child|stype-|voicetype-	22	lwg__vaux	_	_
24	.	.	SYM	punc	lex-.|cat-punc|gen-|num-|pers-|case-|vib-|tam-|chunkId-BLK|chunkType-head|stype-|voicetype-	3	rsym	_	_

1	इसके	यह	PRP	pn	lex-यह|cat-pn|gen-any|num-sg|pers-3|case-o|vib-0_अलावा|tam-ke|chunkId-NP|chunkType-head|stype-|voicetype-	23	sent-adv	_	_
2	अलावा	अलावा	PSP	psp	lex-अलावा|cat-psp|gen-|num-|pers-|case-|vib-|tam-|chunkId-NP|chunkType-child|stype-|voicetype-	1	lwg__psp	_	_
3	प्रधानमंत्री	प्रधानमंत्री	NNPC	n	lex-प्रधानमंत्री|cat-n|gen-m|num-sg|pers-3|case-d|vib-0|tam-0|chunkId-NP2|chunkType-child|stype-|voicetype-	6	pof__cn	_	_
4	राष्ट्रीय	राष्ट्रीय	NNPC	adj	lex-राष्ट्रीय|cat-adj|gen-any|num-any|pers-|case-o|vib-|tam-|chunkId-NP2|chunkType-child|stype-|voicetype-	6	pof__cn	_	_
5	राहत	राहत	NNPC	n	lex-राहत|cat-n|gen-f|num-sg|pers-3|case-d|vib-0|tam-0|chunkId-NP2|chunkType-child|stype-|voicetype-	6	pof__cn	_	_
6	कोष	कोष	NNP	n	lex-कोष|cat-n|gen-m|num-sg|pers-3|case-o|vib-0_से|tam-0|chunkId-NP2|chunkType-head|stype-|voicetype-	23	k5	_	_
7	से	से	PSP	psp	lex-से|cat-psp|gen-|num-|pers-|case-|vib-|tam-|chunkId-NP2|chunkType-child|stype-|voicetype-	6	lwg__psp	_	_
8	सुनामी	सुनामी	NN	n	lex-सुनामी|cat-n|gen-f|num-sg|pers-3|case-o|vib-0_के_कारण|tam-0|chunkId-NP3|chunkType-head|stype-|voicetype-	11	rh	_	_
9	के	के	PSP	psp	lex-के|cat-psp|gen-m|num-|pers-|case-o|vib-|tam-|chunkId-NP3|chunkType-child|stype-|voicetype-	8	lwg__psp	_	_
10	कारण	कारण	PSP	n	lex-कारण|cat-n|gen-m|num-|pers-|case-o|vib-|tam-|chunkId-NP3|chunkType-child|stype-|voicetype-	8	lwg__psp	_	_
11	मारे	मार	VM	v	lex-मार|cat-v|gen-m|num-pl|pers-3|case-|vib-या_जा+या१|tam-yA|chunkId-VGNF|chunkType-head|stype-|voicetype-	13	nmod__k2inv	_	_
12	गए	जा	VAUX	v	lex-जा|cat-v|gen-m|num-pl|pers-3|case-|vib-या१|tam-yA1|chunkId-VGNF|chunkType-child|stype-|voicetype-	11	lwg__vaux	_	_
13	लोगों	लोग	NN	n	lex-लोग|cat-n|gen-m|num-pl|pers-3|case-o|vib-0_का|tam-0|chunkId-NP4|chunkType-head|stype-|voicetype-	16	r6	_	_
14	के	का	PSP	psp	lex-का|cat-psp|gen-m|num-sg|pers-|case-o|vib-|tam-|chunkId-NP4|chunkType-child|stype-|voicetype-	13	lwg__psp	_	_
15	नजदीकी	नजदीकी	JJ	adj	lex-नजदीकी|cat-adj|gen-any|num-any|pers-|case-o|vib-|tam-|chunkId-NP5|chunkType-child|stype-|voicetype-	16	nmod__adj	_	_
16	रिश्तेदार	रिश्तेदार	NN	n	lex-रिश्तेदार|cat-n|gen-m|num-sg|pers-3|case-o|vib-0_को|tam-0|chunkId-NP5|chunkType-head|stype-|voicetype-	23	k4	_	_
17	को	को	PSP	psp	lex-को|cat-psp|gen-|num-|pers-|case-|vib-|tam-|chunkId-NP5|chunkType-child|stype-|voicetype-	16	lwg__psp	_	_
18	एक	एक	QCC	num	lex-एक|cat-num|gen-any|num-any|pers-|case-any|vib-|tam-|chunkId-NP6|chunkType-child|stype-|voicetype-	22	mod	_	_
19	-JOIN	-	SYM	punc	lex--|cat-punc|gen-|num-|pers-|case-|vib-|tam-|chunkId-NP6|chunkType-child|stype-|voicetype-	22	rsym	_	_
20	एक	एक	RDP	num	lex-एक|cat-num|gen-any|num-any|pers-|case-any|vib-|tam-|chunkId-NP6|chunkType-child|stype-|voicetype-	19	pof__redup	_	_
21	लाख	लाख	QC	num	lex-लाख|cat-num|gen-any|num-any|pers-|case-any|vib-|tam-|chunkId-NP6|chunkType-child|stype-|voicetype-	22	nmod__adj	_	_
22	रुपये	रुपया	NN	n	lex-रुपया|cat-n|gen-m|num-pl|pers-3|case-d|vib-0|tam-0|chunkId-NP6|chunkType-head|stype-|voicetype-	23	k2	_	_
23	दिए	दे	VM	v	lex-दे|cat-v|gen-m|num-pl|pers-3|case-|vib-या_जा+गा|tam-yA|chunkId-VGF|chunkType-head|stype-declarative|voicetype-passive	0	main	_	_
24	जाएंगे	जा	VAUX	v	lex-जा|cat-v|gen-m|num-pl|pers-3|case-|vib-गा|tam-gA|chunkId-VGF|chunkType-child|stype-|voicetype-	23	lwg__vaux	_	_
25	.	.	SYM	punc	lex-.|cat-punc|gen-|num-|pers-|case-|vib-|tam-|chunkId-BLK|chunkType-head|stype-|voicetype-	23	rsym	_	_

1	इससे	यह	PRP	pn	lex-यह|cat-pn|gen-any|num-sg|pers-3|case-o|vib-0_पहले|tam-se|chunkId-NP|chunkType-head|stype-|voicetype-	24	k7t	_	_
2	पहले	पहले	NST	nst	lex-पहले|cat-nst|gen-m|num-sg|pers-3|case-d|vib-|tam-|chunkId-NP|chunkType-child|stype-|voicetype-	1	lwg__psp	_	_
3	केरल	केरल	NNP	n	lex-केरल|cat-n|gen-m|num-sg|pers-3|case-o|vib-0_के|tam-0|chunkId-NP2|chunkType-head|stype-|voicetype-	6	r6	_	_
4	के	के	PSP	psp	lex-के|cat-psp|gen-m|num-sg|pers-|case-o|vib-|tam-|chunkId-NP2|chunkType-child|stype-|voicetype-	3	lwg__psp	_	_
5	कोल्लम	कोल्लम	NNP	n	lex-कोल्लम|cat-n|gen-m|num-sg|pers-3|case-d|vib-0|tam-0|chunkId-NP3|chunkType-child|stype-|voicetype-	6	nmod__adj	_	_
6	जिले	जिला	NN	n	lex-जिला|cat-n|gen-m|num-sg|pers-3|case-o|vib-0_का|tam-0|chunkId-NP3|chunkType-head|stype-|voicetype-	8	r6	_	_
7	के	का	PSP	psp	lex-का|cat-psp|gen-m|num-sg|pers-|case-o|vib-|tam-|chunkId-NP3|chunkType-child|stype-|voicetype-	6	lwg__psp	_	_
8	करुंगापल्ली	करुंगापल्ली	NNP	n	lex-करुंगापल्ली|cat-n|gen-m|num-sg|pers-3|case-o|vib-0_का|tam-0|chunkId-NP4|chunkType-head|stype-|voicetype-	11	r6	_	_
9	के	का	PSP	psp	lex-का|cat-psp|gen-m|num-sg|pers-|case-o|vib-|tam-|chunkId-NP4|chunkType-child|stype-|voicetype-	8	lwg__psp	_	_
10	तालुका	तालुका	NNPC	n	lex-तालुका|cat-n|gen-m|num-sg|pers-3|case-d|vib-0|tam-0|chunkId-NP5|chunkType-child|stype-|voicetype-	11	pof__cn	_	_
11	अस्पताल	अस्पताल	NNP	n	lex-अस्पताल|cat-n|gen-m|num-sg|pers-3|case-o|vib-0_में|tam-0|chunkId-NP5|chunkType-head|stype-|voicetype-	24	k7p	_	_
12	में	में	PSP	psp	lex-में|cat-psp|gen-|num-|pers-|case-|vib-|tam-|chunkId-NP5|chunkType-child|stype-|voicetype-	11	lwg__psp	_	_
13	घायलों	घायल	NN	n	lex-घायल|cat-n|gen-m|num-pl|pers-3|case-o|vib-0|tam-0|chunkId-NP6|chunkType-head|stype-|voicetype-	14	ccof	_	_
14	और	और	CC	avy	lex-और|cat-avy|gen-|num-|pers-|case-|vib-|tam-|chunkId-CCP|chunkType-head|stype-|voicetype-	24	k4	_	_
15	बेघर	बेघर	JJ	adj	lex-बेघर|cat-adj|gen-any|num-any|pers-|case-o|vib-|tam-|chunkId-NP7|chunkType-child|stype-|voicetype-	16	nmod__adj	_	_
16	लोगों	लोग	NN	n	lex-लोग|cat-n|gen-m|num-pl|pers-3|case-o|vib-0_से|tam-0|chunkId-NP7|chunkType-head|stype-|voicetype-	14	ccof	_	_
17	से	से	PSP	psp	lex-से|cat-psp|gen-|num-|pers-|case-|vib-|tam-|chunkId-NP7|chunkType-child|stype-|voicetype-	16	lwg__psp	_	_
18	मुलाकात	मुलाकात	NN	n	lex-मुलाकात|cat-n|gen-f|num-sg|pers-3|case-o|vib-0_के_बाद|tam-0|chunkId-NP8|chunkType-head|stype-|voicetype-	24	k7t	_	_
19	के	के	PSP	psp	lex-के|cat-psp|gen-|num-|pers-|case-|vib-|tam-|chunkId-NP8|chunkType-child|stype-|voicetype-	18	lwg__psp	_	_
20	बाद	बाद	NST	nst	lex-बाद|cat-nst|gen-m|num-sg|pers-3|case-d|vib-|tam-|chunkId-NP8|chunkType-child|stype-|voicetype-	18	lwg__psp	_	_
21	मनमोहन	मनमोहन	NNPC	n	lex-मनमोहन|cat-n|gen-m|num-sg|pers-3|case-d|vib-0|tam-0|chunkId-NP9|chunkType-child|stype-|voicetype-	22	pof__cn	_	_
22	सिंह	सिंह	NNP	n	lex-सिंह|cat-n|gen-m|num-sg|pers-3|case-o|vib-0_ने|tam-0|chunkId-NP9|chunkType-head|stype-|voicetype-	24	k1	_	_
23	ने	ने	PSP	psp	lex-ने|cat-psp|gen-|num-|pers-|case-|vib-|tam-|chunkId-NP9|chunkType-child|stype-|voicetype-	22	lwg__psp	_	_
24	कहा	कह	VM	v	lex-कह|cat-v|gen-m|num-sg|pers-any|case-|vib-या|tam-yA|chunkId-VGF|chunkType-head|stype-declarative|voicetype-active	0	main	_	_
25	,	COMMA	SYM	punc	lex-COMMA|cat-punc|gen-|num-|pers-|case-|vib-|tam-|chunkId-VGF|chunkType-child|stype-|voicetype-	24	rsym	_	_
26	'1	1	SYM	punc	lex-1|cat-punc|gen-|num-|pers-|case-|vib-|tam-|chunkId-NP10|chunkType-child|stype-|voicetype-	28	rsym	_	_
27	जो	जो	DEM	pn	lex-जो|cat-pn|gen-any|num-pl|pers-3|case-d|vib-|tam-|chunkId-NP10|chunkType-child|stype-|voicetype-	28	nmod__adj	_	_
28	लोग	लोग	NN	n	lex-लोग|cat-n|gen-m|num-pl|pers-3|case-d|vib-0|tam-0|chunkId-NP10|chunkType-head|stype-|voicetype-	29	k2	_	_
29	मारे	मार	VM	v	lex-मार|cat-v|gen-m|num-pl|pers-3|case-|vib-या_जा+या१_है|tam-yA|chunkId-VGF2|chunkType-head|stype-declarative|voicetype-active	32	nmod__relc	_	_
30	गए	जा	VAUX	v	lex-जा|cat-v|gen-m|num-pl|pers-any|case-|vib-या१|tam-yA1|chunkId-VGF2|chunkType-child|stype-|voicetype-	29	lwg__vaux	_	_
31	हैं	है	VAUX	v	lex-है|cat-v|gen-any|num-pl|pers-3|case-|vib-है|tam-hE|chunkId-VGF2|chunkType-child|stype-|voicetype-	29	lwg__vaux	_	_
32	उन्हें	वह	PRP	pn	lex-वह|cat-pn|gen-any|num-pl|pers-3|case-o|vib-को|tam-ko|chunkId-NP11|chunkType-head|stype-|voicetype-	35	k2	_	_
33	वापस	वापस	JJ	adj	lex-वापस|cat-adj|gen-any|num-any|pers-|case-|vib-|tam-|chunkId-JJP|chunkType-head|stype-|voicetype-	35	pof	_	_
34	नहीं	नहीं	NEG	avy	lex-नहीं|cat-avy|gen-|num-|pers-|case-|vib-|tam-|chunkId-VGF3|chunkType-child|stype-|voicetype-	35	lwg__neg	_	_
35	लाया	ला	VM	v	lex-ला|cat-v|gen-any|num-sg|pers-any|case-|vib-या_जा_सक+ता|tam-yA|chunkId-VGF3|chunkType-head|stype-declarative|voicetype-passive	24	k2	_	_
36	जा	जा	VAUX	v	lex-जा|cat-v|gen-any|num-any|pers-any|case-|vib-0|tam-0|chunkId-VGF3|chunkType-child|stype-|voicetype-	35	lwg__vaux	_	_
37	सकता	सक	VAUX	v	lex-सक|cat-v|gen-m|num-sg|pers-any|case-|vib-ता|tam-wA|chunkId-VGF3|chunkType-child|stype-|voicetype-	35	lwg__vaux	_	_
38	.	.	SYM	punc	lex-.|cat-punc|gen-|num-|pers-|case-|vib-|tam-|chunkId-BLK|chunkType-head|stype-|voicetype-	24	rsym	_	_

1	लेकिन	लेकिन	CC	avy	lex-लेकिन|cat-avy|gen-|num-|pers-|case-|vib-|tam-|chunkId-CCP|chunkType-head|stype-|voicetype-	0	main	_	_
2	,	COMMA	SYM	punc	lex-COMMA|cat-punc|gen-|num-|pers-|case-|vib-|tam-|chunkId-CCP|chunkType-child|stype-|voicetype-	1	rsym	_	_
3	सरकार	सरकार	NN	n	lex-सरकार|cat-n|gen-f|num-sg|pers-3|case-d|vib-0|tam-0|chunkId-NP|chunkType-head|stype-|voicetype-	20	k1	_	_
4	इस	यह	DEM	pn	lex-यह|cat-pn|gen-any|num-sg|pers-3|case-o|vib-|tam-|chunkId-NP2|chunkType-child|stype-|voicetype-	5	nmod__adj	_	_
5	तबाही	तबाही	NN	n	lex-तबाही|cat-n|gen-f|num-sg|pers-3|case-o|vib-0_से|tam-0|chunkId-NP2|chunkType-head|stype-|voicetype-	7	jjmod	_	_
6	से	से	PSP	psp	lex-से|cat-psp|gen-|num-|pers-|case-|vib-|tam-|chunkId-NP2|chunkType-child|stype-|voicetype-	5	lwg__psp	_	_
7	प्रभावित	प्रभावित	JJ	adj	lex-प्रभावित|cat-adj|gen-any|num-any|pers-|case-o|vib-|tam-|chunkId-JJP|chunkType-head|stype-|voicetype-	8	nmod	_	_
8	लोगों	लोग	NN	n	lex-लोग|cat-n|gen-m|num-pl|pers-3|case-o|vib-0_को|tam-0|chunkId-NP3|chunkType-head|stype-|voicetype-	20	k2	_	_
9	को	को	PSP	psp	lex-को|cat-psp|gen-|num-|pers-|case-|vib-|tam-|chunkId-NP3|chunkType-child|stype-|voicetype-	8	lwg__psp	_	_
10	दोबारा	दोबारा	RB	adv	lex-दोबारा|cat-adv|gen-|num-|pers-|case-|vib-|tam-|chunkId-RBP|chunkType-head|stype-|voicetype-	13	adv	_	_
11	जिंदगी	जिंदगी	NN	n	lex-जिंदगी|cat-n|gen-f|num-sg|pers-3|case-d|vib-0|tam-0|chunkId-NP4|chunkType-head|stype-|voicetype-	13	k2	_	_
12	शुरू	शुरू	NN	n	lex-शुरू|cat-n|gen-m|num-sg|pers-3|case-d|vib-0|tam-0|chunkId-NP5|chunkType-head|stype-|voicetype-	13	pof	_	_
13	करने	कर	VM	v	lex-कर|cat-v|gen-any|num-any|pers-any|case-o|vib-ना_के_लिए|tam-nA|chunkId-VGNN|chunkType-head|stype-|voicetype-	20	rt	_	_
14	के	के	PSP	psp	lex-के|cat-psp|gen-|num-|pers-|case-|vib-|tam-|chunkId-VGNN|chunkType-child|stype-|voicetype-	13	lwg__psp	_	_
15	लिए	लिए	PSP	psp	lex-लिए|cat-psp|gen-|num-|pers-|case-|vib-|tam-|chunkId-VGNN|chunkType-child|stype-|voicetype-	13	lwg__psp	_	_
16	हर	हर	QF	avy	lex-हर|cat-avy|gen-|num-|pers-|case-|vib-|tam-|chunkId-NP6|chunkType-child|stype-|voicetype-	17	nmod__adj	_	_
17	तरह	तरह	NN	n	lex-तरह|cat-n|gen-f|num-sg|pers-3|case-o|vib-0_का|tam-0|chunkId-NP6|chunkType-head|stype-|voicetype-	19	r6-k2	_	_
18	की	का	PSP	psp	lex-का|cat-psp|gen-f|num-sg|pers-|case-d|vib-|tam-|chunkId-NP6|chunkType-child|stype-|voicetype-	17	lwg__psp	_	_
19	मदद	मदद	NN	n	lex-मदद|cat-n|gen-f|num-sg|pers-3|case-d|vib-0|tam-0|chunkId-NP7|chunkType-head|stype-|voicetype-	20	pof	_	_
20	करेगी	कर	VM	v	lex-कर|cat-v|gen-f|num-sg|pers-3|case-|vib-गा|tam-gA|chunkId-VGF|chunkType-head|stype-declarative|voicetype-active	1	ccof	_	_
21	'2	2	SYM	punc	lex-2|cat-punc|gen-|num-|pers-|case-|vib-|tam-|chunkId-VGF|chunkType-child|stype-|voicetype-	20	rsym	_	_
22	.	.	SYM	punc	lex-.|cat-punc|gen-|num-|pers-|case-|vib-|tam-|chunkId-BLK|chunkType-head|stype-|voicetype-	1	rsym	_	_

1	तमिलनाडु	तमिलनाडु	NNP	n	lex-तमिलनाडु|cat-n|gen-m|num-sg|pers-3|case-o|vib-0|tam-0|chunkId-NP|chunkType-head|stype-|voicetype-	2	ccof	_	_
2	और	और	CC	avy	lex-और|cat-avy|gen-|num-|pers-|case-|vib-|tam-|chunkId-CCP|chunkType-head|stype-|voicetype-	5	r6	_	_
3	केरल	केरल	NNP	n	lex-केरल|cat-n|gen-m|num-sg|pers-3|case-o|vib-0_का|tam-0|chunkId-NP2|chunkType-head|stype-|voicetype-	2	ccof	_	_
4	के	का	PSP	psp	lex-का|cat-psp|gen-m|num-pl|pers-|case-o|vib-|tam-|chunkId-NP2|chunkType-child|stype-|voicetype-	3	lwg__psp	_	_
5	सुनामी	सुनामी	NN	n	lex-सुनामी|cat-n|gen-f|num-sg|pers-3|case-d|vib-0|tam-0|chunkId-NP3|chunkType-head|stype-|voicetype-	6	jjmod	_	_
6	प्रभावित	प्रभावित	JJ	adj	lex-प्रभावित|cat-adj|gen-any|num-any|pers-|case-o|vib-|tam-|chunkId-JJP|chunkType-head|stype-|voicetype-	7	nmod	_	_
7	इलाकों	इलाका	NN	n	lex-इलाका|cat-n|gen-m|num-pl|pers-3|case-o|vib-0_का|tam-0|chunkId-NP4|chunkType-head|stype-|voicetype-	11	nmod	_	_
8	के	का	PSP	psp	lex-का|cat-psp|gen-m|num-sg|pers-|case-o|vib-|tam-|chunkId-NP4|chunkType-child|stype-|voicetype-	7	lwg__psp	_	_
9	दो	दो	QC	num	lex-दो|cat-num|gen-any|num-any|pers-|case-any|vib-|tam-|chunkId-NP5|chunkType-child|stype-|voicetype-	11	nmod__adj	_	_
10	दिवसीय	दिवसीय	JJ	adj	lex-दिवसीय|cat-adj|gen-any|num-any|pers-|case-o|vib-|tam-|chunkId-NP5|chunkType-child|stype-|voicetype-	11	nmod__adj	_	_
11	दौरे	दौरा	NN	n	lex-दौरा|cat-n|gen-m|num-sg|pers-3|case-o|vib-0_का|tam-0|chunkId-NP5|chunkType-head|stype-|voicetype-	14	r6	_	_
12	के	का	PSP	psp	lex-का|cat-psp|gen-m|num-sg|pers-|case-o|vib-|tam-|chunkId-NP5|chunkType-child|stype-|voicetype-	11	lwg__psp	_	_
13	आखिरी	आखिरी	JJ	adj	lex-आखिरी|cat-adj|gen-any|num-any|pers-|case-d|vib-|tam-|chunkId-NP6|chunkType-child|stype-|voicetype-	14	nmod__adj	_	_
14	दिन	दिन	NN	n	lex-दिन|cat-n|gen-m|num-sg|pers-3|case-d|vib-0|tam-0|chunkId-NP6|chunkType-head|stype-|voicetype-	20	k7t	_	_
15	शुक्रवार	शुक्रवार	NNP	n	lex-शुक्रवार|cat-n|gen-m|num-sg|pers-3|case-o|vib-0_को|tam-0|chunkId-NP7|chunkType-head|stype-|voicetype-	20	k7t	_	_
16	को	को	PSP	psp	lex-को|cat-psp|gen-|num-|pers-|case-|vib-|tam-|chunkId-NP7|chunkType-child|stype-|voicetype-	15	lwg__psp	_	_
17	मनमोहन	मनमोहन	NNPC	n	lex-मनमोहन|cat-n|gen-m|num-sg|pers-3|case-d|vib-0|tam-0|chunkId-NP8|chunkType-child|stype-|voicetype-	18	pof__cn	_	_
18	सिंह	सिंह	NNP	n	lex-सिंह|cat-n|gen-m|num-sg|pers-3|case-o|vib-0_ने|tam-0|chunkId-NP8|chunkType-head|stype-|voicetype-	20	k1	_	_
19	ने	ने	PSP	psp	lex-ने|cat-psp|gen-|num-|pers-|case-|vib-|tam-|chunkId-NP8|chunkType-child|stype-|voicetype-	18	lwg__psp	_	_
20	कहा	कह	VM	v	lex-कह|cat-v|gen-m|num-sg|pers-any|case-|vib-या|tam-yA|chunkId-VGF|chunkType-head|stype-declarative|voicetype-active	0	main	_	_
21	कि	कि	CC	avy	lex-कि|cat-avy|gen-|num-|pers-|case-|vib-|tam-|chunkId-CCP2|chunkType-head|stype-|voicetype-	20	k2	_	_
22	अलप्पड	अलप्पड	NNP	n	lex-अलप्पड|cat-n|gen-m|num-sg|pers-3|case-o|vib-0|tam-0|chunkId-NP9|chunkType-head|stype-|voicetype-	23	ccof	_	_
23	और	और	CC	avy	lex-और|cat-avy|gen-|num-|pers-|case-|vib-|tam-|chunkId-CCP3|chunkType-head|stype-|voicetype-	27	nmod	_	_
24	अझीक्कल	अझीक्कल	NNP	n	lex-अझीक्कल|cat-n|gen-m|num-sg|pers-3|case-o|vib-0_जैसा|tam-0|chunkId-NP10|chunkType-head|stype-|voicetype-	23	ccof	_	_
25	जैसे	जैसा	PSP	psp	lex-जैसा|cat-psp|gen-m|num-pl|pers-|case-o|vib-|tam-|chunkId-NP10|chunkType-child|stype-|voicetype-	24	lwg__psp	_	_
26	तटीय	तटीय	JJ	adj	lex-तटीय|cat-adj|gen-any|num-any|pers-|case-o|vib-|tam-|chunkId-NP11|chunkType-child|stype-|voicetype-	27	nmod__adj	_	_
27	इलाकों	इलाका	NN	n	lex-इलाका|cat-n|gen-m|num-pl|pers-3|case-o|vib-0_में|tam-0|chunkId-NP11|chunkType-head|stype-|voicetype-	34	k7p	_	_
28	में	में	PSP	psp	lex-में|cat-psp|gen-|num-|pers-|case-|vib-|tam-|chunkId-NP11|chunkType-child|stype-|voicetype-	27	lwg__psp	_	_
29	तुरंत	तुरंत	RB	adv	lex-तुरंत|cat-adv|gen-|num-|pers-|case-|vib-|tam-|chunkId-RBP|chunkType-head|stype-|voicetype-	34	adv	_	_
30	'1	1	SYM	punc	lex-1|cat-punc|gen-|num-|pers-|case-|vib-|tam-|chunkId-NP12|chunkType-child|stype-|voicetype-	32	rsym	_	_
31	सी	सी	NNC	n	lex-सी|cat-n|gen-m|num-sg|pers-3|case-d|vib-0|tam-0|chunkId-NP12|chunkType-child|stype-|voicetype-	32	pof__cn	_	_
32	वाल	वाल	NN	n	lex-वाल|cat-n|gen-f|num-sg|pers-3|case-d|vib-0|tam-0|chunkId-NP12|chunkType-head|stype-|voicetype-	34	k2	_	_
33	'2	2	SYM	punc	lex-2|cat-punc|gen-|num-|pers-|case-|vib-|tam-|chunkId-NP12|chunkType-child|stype-|voicetype-	32	rsym	_	_
34	बनाने	बना	VM	v	lex-बना|cat-v|gen-any|num-any|pers-any|case-o|vib-ना_के_लिए|tam-nA|chunkId-VGNN|chunkType-head|stype-|voicetype-	38	rt	_	_
35	के	के	PSP	psp	lex-के|cat-psp|gen-|num-|pers-|case-|vib-|tam-|chunkId-VGNN|chunkType-child|stype-|voicetype-	34	lwg__psp	_	_
36	लिए	लिए	PSP	psp	lex-लिए|cat-psp|gen-|num-|pers-|case-|vib-|tam-|chunkId-VGNN|chunkType-child|stype-|voicetype-	34	lwg__psp	_	_
37	कदम	कदम	NN	n	lex-कदम|cat-n|gen-m|num-pl|pers-3|case-d|vib-0|tam-0|chunkId-NP13|chunkType-head|stype-|voicetype-	38	k2	_	_
38	उठाए	उठा	VM	v	lex-उठा|cat-v|gen-m|num-pl|pers-3|case-|vib-या_जा+गा|tam-yA|chunkId-VGF2|chunkType-head|stype-declarative|voicetype-active	21	ccof	_	_
39	जाएंगे	जा	VAUX	v	lex-जा|cat-v|gen-m|num-pl|pers-3|case-|vib-गा|tam-gA|chunkId-VGF2|chunkType-child|stype-|voicetype-	38	lwg__vaux	_	_
40	.	.	SYM	punc	lex-.|cat-punc|gen-|num-|pers-|case-|vib-|tam-|chunkId-BLK|chunkType-head|stype-|voicetype-	20	rsym	_	_

1	NULL	_	PRP	_	lex-_|cat-_|gen-|num-|pers-|case-|vib-|tam-|chunkId-NULL__NP|chunkType-head|stype-|voicetype-	3	k1	_	_
2	गौरतलब	गौरतलब	JJ	adj	lex-गौरतलब|cat-adj|gen-any|num-any|pers-|case-|vib-|tam-|chunkId-JJP|chunkType-head|stype-|voicetype-	3	k1s	_	_
3	है	है	VM	v	lex-है|cat-v|gen-any|num-sg|pers-3|case-|vib-है|tam-hE|chunkId-VGF|chunkType-head|stype-declarative|voicetype-active	0	main	_	_
4	कि	कि	CC	avy	lex-कि|cat-avy|gen-|num-|pers-|case-|vib-|tam-|chunkId-CCP|chunkType-head|stype-|voicetype-	1	rs	_	_
5	केरल	केरल	NNP	n	lex-केरल|cat-n|gen-m|num-sg|pers-3|case-o|vib-0_में|tam-0|chunkId-NP|chunkType-head|stype-|voicetype-	13	k7p	_	_
6	में	में	PSP	psp	lex-में|cat-psp|gen-|num-|pers-|case-|vib-|tam-|chunkId-NP|chunkType-child|stype-|voicetype-	5	lwg__psp	_	_
7	सुनामी	सुनामी	NN	n	lex-सुनामी|cat-n|gen-f|num-sg|pers-3|case-o|vib-0_का|tam-0|chunkId-NP2|chunkType-head|stype-|voicetype-	9	r6	_	_
8	के	का	PSP	psp	lex-का|cat-psp|gen-m|num-sg|pers-|case-o|vib-|tam-|chunkId-NP2|chunkType-child|stype-|voicetype-	7	lwg__psp	_	_
9	कहर	कहर	NN	n	lex-कहर|cat-n|gen-m|num-sg|pers-3|case-o|vib-0_से|tam-0|chunkId-NP3|chunkType-head|stype-|voicetype-	13	k3	_	_
10	से	से	PSP	psp	lex-से|cat-psp|gen-|num-|pers-|case-|vib-|tam-|chunkId-NP3|chunkType-child|stype-|voicetype-	9	lwg__psp	_	_
11	१६५	१६५	QC	num	lex-१६५|cat-num|gen-any|num-any|pers-|case-any|vib-|tam-|chunkId-NP4|chunkType-child|stype-|voicetype-	12	nmod__adj	_	_
12	लोग	लोग	NN	n	lex-लोग|cat-n|gen-m|num-pl|pers-3|case-d|vib-0|tam-0|chunkId-NP4|chunkType-head|stype-|voicetype-	13	k2	_	_
13	मारे	मार	VM	v	lex-मार|cat-v|gen-m|num-pl|pers-any|case-|vib-या_जा+या१|tam-yA|chunkId-VGF2|chunkType-head|stype-declarative|voicetype-passive	4	ccof	_	_
14	गए	जा	VAUX	v	lex-जा|cat-v|gen-m|num-pl|pers-any|case-|vib-या१|tam-yA1|chunkId-VGF2|chunkType-child|stype-|voicetype-	13	lwg__vaux	_	_
15	.	.	SYM	punc	lex-.|cat-punc|gen-|num-|pers-|case-|vib-|tam-|chunkId-BLK|chunkType-head|stype-|voicetype-	3	rsym	_	_

1	प्रधानमंत्री	प्रधानमंत्री	NNP	n	lex-प्रधानमंत्री|cat-n|gen-m|num-sg|pers-3|case-o|vib-0_ने|tam-0|chunkId-NP|chunkType-head|stype-|voicetype-	21	k1	_	_
2	ने	ने	PSP	psp	lex-ने|cat-psp|gen-|num-|pers-|case-|vib-|tam-|chunkId-NP|chunkType-child|stype-|voicetype-	1	lwg__psp	_	_
3	यहां	यहाँ	PRP	pn	lex-यहाँ|cat-pn|gen-|num-|pers-|case-d|vib-|tam-|chunkId-NP2|chunkType-head|stype-|voicetype-	21	k7p	_	_
4	सुनामी	सुनामी	NN	n	lex-सुनामी|cat-n|gen-f|num-sg|pers-3|case-d|vib-0|tam-0|chunkId-NP3|chunkType-head|stype-|voicetype-	5	jjmod	_	_
5	प्रभावित	प्रभावित	JJ	adj	lex-प्रभावित|cat-adj|gen-any|num-any|pers-|case-o|vib-|tam-|chunkId-JJP|chunkType-head|stype-|voicetype-	6	nmod	_	_
6	लोगों	लोग	NN	n	lex-लोग|cat-n|gen-m|num-pl|pers-3|case-o|vib-0_को|tam-0|chunkId-NP4|chunkType-head|stype-|voicetype-	21	k4	_	_
7	को	को	PSP	psp	lex-को|cat-psp|gen-|num-|pers-|case-|vib-|tam-|chunkId-NP4|chunkType-child|stype-|voicetype-	6	lwg__psp	_	_
8	राज्य	राज्य	NNC	n	lex-राज्य|cat-n|gen-m|num-sg|pers-3|case-d|vib-0|tam-0|chunkId-NP5|chunkType-child|stype-|voicetype-	9	pof__cn	_	_
9	सरकार	सरकार	NN	n	lex-सरकार|cat-n|gen-f|num-sg|pers-3|case-o|vib-0_का_ओर_से|tam-0|chunkId-NP5|chunkType-head|stype-|voicetype-	13	jjmod	_	_
10	की	का	PSP	psp	lex-का|cat-psp|gen-f|num-sg|pers-|case-o|vib-|tam-|chunkId-NP5|chunkType-child|stype-|voicetype-	9	lwg__psp	_	_
11	ओर	ओर	NST	nst	lex-ओर|cat-nst|gen-f|num-sg|pers-3|case-o|vib-|tam-|chunkId-NP5|chunkType-child|stype-|voicetype-	9	lwg__psp	_	_
12	से	से	PSP	psp	lex-से|cat-psp|gen-|num-|pers-|case-|vib-|tam-|chunkId-NP5|chunkType-child|stype-|voicetype-	9	lwg__psp	_	_
13	घोषित	घोषित	JJ	adj	lex-घोषित|cat-adj|gen-any|num-any|pers-|case-d|vib-|tam-|chunkId-JJP2|chunkType-head|stype-|voicetype-	17	nmod	_	_
14	एक	एक	QCC	num	lex-एक|cat-num|gen-any|num-any|pers-|case-any|vib-|tam-|chunkId-NP6|chunkType-child|stype-|voicetype-	17	mod	_	_
15	लाख	लाख	QC	num	lex-लाख|cat-num|gen-any|num-any|pers-|case-any|vib-|tam-|chunkId-NP6|chunkType-child|stype-|voicetype-	17	nmod__adj	_	_
16	रुपये	रुपया	NN	n	lex-रुपया|cat-n|gen-m|num-pl|pers-3|case-d|vib-0|tam-0|chunkId-NP6|chunkType-child|stype-|voicetype-	17	nmod	_	_
17	मुआवजे	मुआवजा	NN	n	lex-मुआवजा|cat-n|gen-m|num-sg|pers-3|case-o|vib-0_का|tam-0|chunkId-NP6|chunkType-head|stype-|voicetype-	19	r6-k2	_	_
18	का	का	PSP	psp	lex-का|cat-psp|gen-m|num-sg|pers-|case-d|vib-|tam-|chunkId-NP6|chunkType-child|stype-|voicetype-	17	lwg__psp	_	_
19	वितरण	वितरण	NN	n	lex-वितरण|cat-n|gen-m|num-sg|pers-3|case-d|vib-0|tam-0|chunkId-NP7|chunkType-head|stype-|voicetype-	21	pof	_	_
20	भी	भी	RP	avy	lex-भी|cat-avy|gen-|num-|pers-|case-|vib-|tam-|chunkId-NP7|chunkType-child|stype-|voicetype-	19	lwg__rp	_	_
21	किया	कर	VM	v	lex-कर|cat-v|gen-m|num-sg|pers-any|case-|vib-या|tam-yA|chunkId-VGF|chunkType-head|stype-declarative|voicetype-active	0	main	_	_
22	.	.	SYM	punc	lex-.|cat-punc|gen-|num-|pers-|case-|vib-|tam-|chunkId-BLK|chunkType-head|stype-|voicetype-	21	rsym	_	_

1	इससे	यह	PRP	pn	lex-यह|cat-pn|gen-any|num-sg|pers-3|case-o|vib-0_पहले|tam-se|chunkId-NP|chunkType-head|stype-|voicetype-	14	k7t	_	_
2	पहले	पहले	NST	nst	lex-पहले|cat-nst|gen-m|num-sg|pers-3|case-d|vib-|tam-|chunkId-NP|chunkType-child|stype-|voicetype-	1	lwg__psp	_	_
3	वह	वह	PRP	pn	lex-वह|cat-pn|gen-any|num-sg|pers-3|case-d|vib-0|tam-0|chunkId-NP2|chunkType-head|stype-|voicetype-	14	k1	_	_
4	अलप्पुझा	अलप्पुझा	NNP	n	lex-अलप्पुझा|cat-n|gen-m|num-sg|pers-3|case-d|vib-0|tam-0|chunkId-NP3|chunkType-child|stype-|voicetype-	5	nmod__adj	_	_
5	जिले	जिला	NN	n	lex-जिला|cat-n|gen-m|num-sg|pers-3|case-o|vib-0_का|tam-0|chunkId-NP3|chunkType-head|stype-|voicetype-	11	r6	_	_
6	के	का	PSP	psp	lex-का|cat-psp|gen-m|num-pl|pers-|case-o|vib-|tam-|chunkId-NP3|chunkType-child|stype-|voicetype-	5	lwg__psp	_	_
7	मुत्तुकुलम	मुत्तुकुलम	NNP	n	lex-मुत्तुकुलम|cat-n|gen-m|num-sg|pers-3|case-d|vib-0|tam-0|chunkId-NP4|chunkType-head|stype-|voicetype-	8	ccof	_	_
8	और	और	CC	avy	lex-और|cat-avy|gen-|num-|pers-|case-|vib-|tam-|chunkId-CCP|chunkType-head|stype-|voicetype-	11	nmod	_	_
9	कायमकुलम	कायमकुलम	NNP	n	lex-कायमकुलम|cat-n|gen-m|num-sg|pers-3|case-d|vib-0|tam-0|chunkId-NP5|chunkType-head|stype-|voicetype-	8	ccof	_	_
10	राहत	राहत	NNC	n	lex-राहत|cat-n|gen-f|num-sg|pers-3|case-d|vib-0|tam-0|chunkId-NP6|chunkType-child|stype-|voicetype-	11	pof__cn	_	_
11	शिविरों	शिविर	NN	n	lex-शिविर|cat-n|gen-m|num-pl|pers-3|case-o|vib-0_में|tam-0|chunkId-NP6|chunkType-head|stype-|voicetype-	14	k2p	_	_
12	में	में	PSP	psp	lex-में|cat-psp|gen-|num-|pers-|case-|vib-|tam-|chunkId-NP6|chunkType-child|stype-|voicetype-	11	lwg__psp	_	_
13	भी	भी	RP	avy	lex-भी|cat-avy|gen-|num-|pers-|case-|vib-|tam-|chunkId-NP6|chunkType-child|stype-|voicetype-	11	lwg__rp	_	_
14	गए	जा	VM	v	lex-जा|cat-v|gen-any|num-sg|pers-3h|case-|vib-या१|tam-yA1|chunkId-VGF|chunkType-head|stype-declarative|voicetype-active	0	main	_	_
15	.	.	SYM	punc	lex-.|cat-punc|gen-|num-|pers-|case-|vib-|tam-|chunkId-BLK|chunkType-head|stype-|voicetype-	14	rsym	_	_

1	यहां	यहाँ	PRP	pn	lex-यहाँ|cat-pn|gen-|num-|pers-|case-d|vib-|tam-|chunkId-NP|chunkType-head|stype-|voicetype-	22	k7p	_	_
2	उन्होंने	वह	PRP	pn	lex-वह|cat-pn|gen-any|num-sg|pers-3h|case-o|vib-ने|tam-ne|chunkId-NP2|chunkType-head|stype-|voicetype-	22	k1	_	_
3	सुनामी	सुनामी	NN	n	lex-सुनामी|cat-n|gen-f|num-sg|pers-3|case-o|vib-0_में|tam-0|chunkId-NP3|chunkType-head|stype-|voicetype-	8	k7	_	_
4	में	में	PSP	psp	lex-में|cat-psp|gen-|num-|pers-|case-|vib-|tam-|chunkId-NP3|chunkType-child|stype-|voicetype-	3	lwg__psp	_	_
5	अपना	अपना	PRP	pn	lex-अपना|cat-pn|gen-m|num-sg|pers-any|case-d|vib-0|tam-0|chunkId-NP4|chunkType-head|stype-|voicetype-	7	r6	_	_
6	सब	सब	PRPC	pn	lex-सब|cat-pn|gen-any|num-pl|pers-3|case-d|vib-0|tam-0|chunkId-NP5|chunkType-child|stype-|voicetype-	7	mod	_	_
7	कुछ	कुछ	PRP	pn	lex-कुछ|cat-pn|gen-any|num-any|pers-3|case-d|vib-0|tam-0|chunkId-NP5|chunkType-head|stype-|voicetype-	8	k1	_	_
8	गंवा	गँवा	VM	v	lex-गँवा|cat-v|gen-any|num-pl|pers-any|case-|vib-0_चुक+या|tam-0|chunkId-VGNF|chunkType-head|stype-|voicetype-	10	nmod__k1inv	_	_
9	चुके	चुक	VAUX	v	lex-चुक|cat-v|gen-m|num-pl|pers-any|case-|vib-या|tam-yA|chunkId-VGNF|chunkType-child|stype-|voicetype-	8	lwg__vaux	_	_
10	मछुआरों	मछुआरा	NN	n	lex-मछुआरा|cat-n|gen-m|num-pl|pers-3|case-o|vib-0_को|tam-0|chunkId-NP6|chunkType-head|stype-|voicetype-	22	k4	_	_
11	को	को	PSP	psp	lex-को|cat-psp|gen-|num-|pers-|case-|vib-|tam-|chunkId-NP6|chunkType-child|stype-|voicetype-	10	lwg__psp	_	_
12	नौकाएं	नौका	NN	n	lex-नौका|cat-n|gen-f|num-pl|pers-3|case-o|vib-0|tam-0|chunkId-NP7|chunkType-head|stype-|voicetype-	13	ccof	_	_
13	और	और	CC	avy	lex-और|cat-avy|gen-|num-|pers-|case-|vib-|tam-|chunkId-CCP|chunkType-head|stype-|voicetype-	17	r6	_	_
14	जाल	जाल	NN	n	lex-जाल|cat-n|gen-m|num-pl|pers-3|case-o|vib-0_का|tam-0|chunkId-NP8|chunkType-head|stype-|voicetype-	13	ccof	_	_
15	वगैरह	वगैरह	RP	avy	lex-वगैरह|cat-avy|gen-|num-|pers-|case-|vib-|tam-|chunkId-NP8|chunkType-child|stype-|voicetype-	14	lwg__rp	_	_
16	के	का	PSP	psp	lex-का|cat-psp|gen-m|num-sg|pers-|case-o|vib-|tam-|chunkId-NP8|chunkType-child|stype-|voicetype-	14	lwg__psp	_	_
17	इंतजाम	इंतजाम	NN	n	lex-इंतजाम|cat-n|gen-m|num-sg|pers-3|case-o|vib-0_में|tam-0|chunkId-NP9|chunkType-head|stype-|voicetype-	22	k7	_	_
18	में	में	PSP	psp	lex-में|cat-psp|gen-|num-|pers-|case-|vib-|tam-|chunkId-NP9|chunkType-child|stype-|voicetype-	17	lwg__psp	_	_
19	मदद	मदद	NN	n	lex-मदद|cat-n|gen-f|num-sg|pers-3|case-o|vib-0_का|tam-0|chunkId-NP10|chunkType-head|stype-|voicetype-	21	r6-k2	_	_
20	का	का	PSP	psp	lex-का|cat-psp|gen-m|num-sg|pers-|case-d|vib-|tam-|chunkId-NP10|chunkType-child|stype-|voicetype-	19	lwg__psp	_	_
21	आश्वासन	आश्वासन	NN	n	lex-आश्वासन|cat-n|gen-m|num-sg|pers-3|case-d|vib-0|tam-0|chunkId-NP11|chunkType-head|stype-|voicetype-	22	pof	_	_
22	दिया	दे	VM	v	lex-दे|cat-v|gen-m|num-sg|pers-any|case-|vib-या|tam-yA|chunkId-VGF|chunkType-head|stype-declarative|voicetype-active	0	main	_	_
23	.	.	SYM	punc	lex-.|cat-punc|gen-|num-|pers-|case-|vib-|tam-|chunkId-BLK|chunkType-head|stype-|voicetype-	22	rsym	_	_

1	पुत्थुकुंगर	पुत्थुकुंगर	NNP	n	lex-पुत्थुकुंगर|cat-n|gen-m|num-sg|pers-3|case-o|vib-0_का|tam-0|chunkId-NP|chunkType-head|stype-|voicetype-	4	r6	_	_
2	के	का	PSP	psp	lex-का|cat-psp|gen-m|num-sg|pers-|case-o|vib-|tam-|chunkId-NP|chunkType-child|stype-|voicetype-	1	lwg__psp	_	_
3	राहत	राहत	NNC	n	lex-राहत|cat-n|gen-f|num-sg|pers-3|case-d|vib-0|tam-0|chunkId-NP2|chunkType-child|stype-|voicetype-	4	pof__cn	_	_
4	शिविर	शिविर	NN	n	lex-शिविर|cat-n|gen-m|num-sg|pers-3|case-o|vib-0_में|tam-0|chunkId-NP2|chunkType-head|stype-|voicetype-	9	k7p	_	_
5	में	में	PSP	psp	lex-में|cat-psp|gen-|num-|pers-|case-|vib-|tam-|chunkId-NP2|chunkType-child|stype-|voicetype-	4	lwg__psp	_	_
6	प्रभावित	प्रभावित	JJ	adj	lex-प्रभावित|cat-adj|gen-any|num-any|pers-|case-o|vib-|tam-|chunkId-NP3|chunkType-child|stype-|voicetype-	7	nmod__adj	_	_
7	लोगों	लोग	NN	n	lex-लोग|cat-n|gen-m|num-pl|pers-3|case-o|vib-0_से|tam-0|chunkId-NP3|chunkType-head|stype-|voicetype-	9	k2	_	_
8	से	से	PSP	psp	lex-से|cat-psp|gen-|num-|pers-|case-|vib-|tam-|chunkId-NP3|chunkType-child|stype-|voicetype-	7	lwg__psp	_	_
9	मिलने	मिल	VM	v	lex-मिल|cat-v|gen-any|num-sg|pers-3|case-o|vib-ना_के_बाद|tam-nA|chunkId-VGNN|chunkType-head|stype-|voicetype-	15	k7t	_	_
10	के	के	PSP	psp	lex-के|cat-psp|gen-|num-|pers-|case-|vib-|tam-|chunkId-VGNN|chunkType-child|stype-|voicetype-	9	lwg__psp	_	_
11	बाद	बाद	NST	nst	lex-बाद|cat-nst|gen-m|num-sg|pers-3|case-d|vib-|tam-|chunkId-VGNN|chunkType-child|stype-|voicetype-	9	lwg__nst	_	_
12	मनमोहन	मनमोहन	NNP	n	lex-मनमोहन|cat-n|gen-m|num-sg|pers-3|case-o|vib-0_ने|tam-0|chunkId-NP4|chunkType-head|stype-|voicetype-	15	k1	_	_
13	ने	ने	PSP	psp	lex-ने|cat-psp|gen-|num-|pers-|case-|vib-|tam-|chunkId-NP4|chunkType-child|stype-|voicetype-	12	lwg__psp	_	_
14	आश्वासन	आश्वासन	NN	n	lex-आश्वासन|cat-n|gen-m|num-sg|pers-3|case-d|vib-0|tam-0|chunkId-NP5|chunkType-head|stype-|voicetype-	15	pof	_	_
15	दिया	दे	VM	v	lex-दे|cat-v|gen-m|num-sg|pers-any|case-|vib-या|tam-yA|chunkId-VGF|chunkType-head|stype-declarative|voicetype-active	0	main	_	_
16	कि	कि	CC	avy	lex-कि|cat-avy|gen-|num-|pers-|case-|vib-|tam-|chunkId-CCP|chunkType-head|stype-|voicetype-	15	k2	_	_
17	इस	यह	DEM	pn	lex-यह|cat-pn|gen-any|num-sg|pers-3|case-o|vib-|tam-|chunkId-NP6|chunkType-child|stype-|voicetype-	18	nmod__adj	_	_
18	तबाही	तबाही	NN	n	lex-तबाही|cat-n|gen-f|num-sg|pers-3|case-o|vib-0_में|tam-0|chunkId-NP6|chunkType-head|stype-|voicetype-	21	k7	_	_
19	में	में	PSP	psp	lex-में|cat-psp|gen-|num-|pers-|case-|vib-|tam-|chunkId-NP6|chunkType-child|stype-|voicetype-	18	lwg__psp	_	_
20	अनाथ	अनाथ	JJ	adj	lex-अनाथ|cat-adj|gen-any|num-any|pers-|case-|vib-|tam-|chunkId-JJP|chunkType-head|stype-|voicetype-	21	k1s	_	_
21	हो	हो	VM	v	lex-हो|cat-v|gen-any|num-pl|pers-any|case-|vib-0_जा+या१|tam-0|chunkId-VGNF|chunkType-head|stype-|voicetype-	23	nmod__k1inv	_	_
22	गए	जा	VAUX	v	lex-जा|cat-v|gen-m|num-pl|pers-any|case-|vib-या१|tam-yA1|chunkId-VGNF|chunkType-child|stype-|voicetype-	21	lwg__vaux	_	_
23	बच्चों	बच्चा	NN	n	lex-बच्चा|cat-n|gen-m|num-pl|pers-3|case-o|vib-0_का|tam-0|chunkId-NP7|chunkType-head|stype-|voicetype-	27	r6-k2	_	_
24	का	का	PSP	psp	lex-का|cat-psp|gen-m|num-sg|pers-|case-d|vib-|tam-|chunkId-NP7|chunkType-child|stype-|voicetype-	23	lwg__psp	_	_
25	सरकार	सरकार	NN	n	lex-सरकार|cat-n|gen-f|num-sg|pers-3|case-d|vib-0|tam-0|chunkId-NP8|chunkType-head|stype-|voicetype-	28	k1	_	_
26	पूरा	पूरा	JJ	adj	lex-पूरा|cat-adj|gen-m|num-sg|pers-|case-d|vib-|tam-|chunkId-NP9|chunkType-child|stype-|voicetype-	27	nmod__adj	_	_
27	ध्यान	ध्यान	NN	n	lex-ध्यान|cat-n|gen-m|num-sg|pers-3|case-d|vib-0|tam-0|chunkId-NP9|chunkType-head|stype-|voicetype-	28	pof	_	_
28	रखेगी	रख	VM	v	lex-रख|cat-v|gen-f|num-sg|pers-3|case-|vib-गा|tam-gA|chunkId-VGF2|chunkType-head|stype-declarative|voicetype-active	16	ccof	_	_
29	.	.	SYM	punc	lex-.|cat-punc|gen-|num-|pers-|case-|vib-|tam-|chunkId-BLK|chunkType-head|stype-|voicetype-	15	rsym	_	_

1	मुत्तुकुलम	मुत्तुकुलम	NNP	n	lex-मुत्तुकुलम|cat-n|gen-m|num-sg|pers-3|case-o|vib-0_का|tam-0|chunkId-NP|chunkType-head|stype-|voicetype-	4	r6	_	_
2	के	का	PSP	psp	lex-का|cat-psp|gen-m|num-sg|pers-|case-o|vib-|tam-|chunkId-NP|chunkType-child|stype-|voicetype-	1	lwg__psp	_	_
3	राहत	राहत	NNC	n	lex-राहत|cat-n|gen-f|num-sg|pers-3|case-d|vib-0|tam-0|chunkId-NP2|chunkType-child|stype-|voicetype-	4	pof__cn	_	_
4	शिविर	शिविर	NN	n	lex-शिविर|cat-n|gen-m|num-sg|pers-3|case-o|vib-0_में|tam-0|chunkId-NP2|chunkType-head|stype-|voicetype-	9	k7p	_	_
5	में	में	PSP	psp	lex-में|cat-psp|gen-|num-|pers-|case-|vib-|tam-|chunkId-NP2|chunkType-child|stype-|voicetype-	4	lwg__psp	_	_
6	एक	एक	QCC	num	lex-एक|cat-num|gen-any|num-any|pers-|case-any|vib-|tam-|chunkId-NP3|chunkType-head|stype-|voicetype-	9	k1	_	_
7	हजार	हजार	QC	num	lex-हजार|cat-num|gen-any|num-any|pers-|case-any|vib-|tam-|chunkId-NP3|chunkType-child|stype-|voicetype-	6	ccof	_	_
8	NULL	_	NN	_	lex-_|cat-_|gen-|num-|pers-|case-|vib-|tam-|chunkId-NULL__NP|chunkType-head|stype-|voicetype-	9	pof	_	_
9	NULL	_	VM	_	lex-_|cat-_|gen-|num-|pers-|case-|vib-|tam-|chunkId-NULL__VGF|chunkType-head|stype-declarative|voicetype-active	10	ccof	_	_
10	और	और	CC	avy	lex-और|cat-avy|gen-|num-|pers-|case-|vib-|tam-|chunkId-CCP|chunkType-head|stype-|voicetype-	0	main	_	_
11	कायमकुलम	कायमकुलम	NNP	n	lex-कायमकुलम|cat-n|gen-m|num-sg|pers-3|case-o|vib-0_का|tam-0|chunkId-NP4|chunkType-head|stype-|voicetype-	14	r6	_	_
12	के	का	PSP	psp	lex-का|cat-psp|gen-m|num-sg|pers-3|case-o|vib-|tam-|chunkId-NP4|chunkType-child|stype-|voicetype-	11	lwg__psp	_	_
13	राहत	राहत	NNC	n	lex-राहत|cat-n|gen-f|num-sg|pers-3|case-d|vib-0|tam-0|chunkId-NP5|chunkType-child|stype-|voicetype-	14	pof__cn	_	_
14	शिविर	शिविर	NN	n	lex-शिविर|cat-n|gen-m|num-sg|pers-3|case-o|vib-0_में|tam-0|chunkId-NP5|chunkType-head|stype-|voicetype-	21	k7p	_	_
15	में	में	PSP	psp	lex-में|cat-psp|gen-|num-|pers-|case-|vib-|tam-|chunkId-NP5|chunkType-child|stype-|voicetype-	14	lwg__psp	_	_
16	तीन	तीन	QCC	num	lex-तीन|cat-num|gen-any|num-any|pers-|case-any|vib-|tam-|chunkId-NP6|chunkType-child|stype-|voicetype-	18	mod	_	_
17	हजार	हजार	QC	num	lex-हजार|cat-num|gen-any|num-any|pers-|case-any|vib-|tam-|chunkId-NP6|chunkType-child|stype-|voicetype-	18	nmod__adj	_	_
18	लोगों	लोग	NN	n	lex-लोग|cat-n|gen-m|num-pl|pers-3|case-o|vib-0_ने|tam-0|chunkId-NP6|chunkType-head|stype-|voicetype-	21	k1	_	_
19	ने	ने	PSP	psp	lex-ने|cat-psp|gen-|num-|pers-|case-|vib-|tam-|chunkId-NP6|chunkType-child|stype-|voicetype-	18	lwg__psp	_	_
20	शरण	शरण	NN	n	lex-शरण|cat-n|gen-m|num-sg|pers-3|case-d|vib-0|tam-0|chunkId-NP7|chunkType-head|stype-|voicetype-	21	pof	_	_
21	ले	ले	VM	v	lex-ले|cat-v|gen-f|num-sg|pers-3|case-|vib-0_रख+या_है|tam-0|chunkId-VGF|chunkType-head|stype-declarative|voicetype-active	10	ccof	_	_
22	रखी	रख	VAUX	v	lex-रख|cat-v|gen-f|num-sg|pers-any|case-|vib-या|tam-yA|chunkId-VGF|chunkType-child|stype-|voicetype-	21	lwg__vaux	_	_
23	है	है	VAUX	v	lex-है|cat-v|gen-any|num-sg|pers-3|case-|vib-है|tam-hE|chunkId-VGF|chunkType-child|stype-|voicetype-	21	lwg__vaux	_	_
24	.	.	SYM	punc	lex-.|cat-punc|gen-|num-|pers-|case-|vib-|tam-|chunkId-BLK|chunkType-head|stype-|voicetype-	10	rsym	_	_

1	मनमोहन	मनमोहन	NNPC	n	lex-मनमोहन|cat-n|gen-m|num-sg|pers-3|case-d|vib-0|tam-0|chunkId-NP|chunkType-child|stype-|voicetype-	2	pof__cn	_	_
2	सिंह	सिंह	NNP	n	lex-सिंह|cat-n|gen-m|num-sg|pers-3|case-o|vib-0_ने|tam-0|chunkId-NP|chunkType-head|stype-|voicetype-	19	k1	_	_
3	ने	ने	PSP	psp	lex-ने|cat-psp|gen-|num-|pers-|case-|vib-|tam-|chunkId-NP|chunkType-child|stype-|voicetype-	2	lwg__psp	_	_
4	अलप्पड	अलप्पड	NNP	n	lex-अलप्पड|cat-n|gen-m|num-sg|pers-3|case-o|vib-0_के|tam-0|chunkId-NP2|chunkType-head|stype-|voicetype-	7	r6	_	_
5	के	के	PSP	psp	lex-के|cat-psp|gen-m|num-pl|pers-|case-o|vib-|tam-|chunkId-NP2|chunkType-child|stype-|voicetype-	4	lwg__psp	_	_
6	सरकारी	सरकारी	JJ	adj	lex-सरकारी|cat-adj|gen-any|num-any|pers-|case-o|vib-|tam-|chunkId-NP3|chunkType-child|stype-|voicetype-	7	nmod__adj	_	_
7	अस्पतालों	अस्पताल	NN	n	lex-अस्पताल|cat-n|gen-m|num-pl|pers-3|case-o|vib-0_में|tam-0|chunkId-NP3|chunkType-head|stype-|voicetype-	10	k7p	_	_
8	में	में	PSP	psp	lex-में|cat-psp|gen-|num-|pers-|case-|vib-|tam-|chunkId-NP3|chunkType-child|stype-|voicetype-	7	lwg__psp	_	_
9	इलाज	इलाज	NN	n	lex-इलाज|cat-n|gen-m|num-sg|pers-3|case-d|vib-0|tam-0|chunkId-NP4|chunkType-head|stype-|voicetype-	10	pof	_	_
10	करा	कर	VM	v	lex-कर|cat-v|gen-any|num-pl|pers-any|case-|vib-या_रह+या|tam-yA|chunkId-VGNF|chunkType-head|stype-|voicetype-	12	nmod__k1inv	_	_
11	रहे	रह	VAUX	v	lex-रह|cat-v|gen-m|num-pl|pers-any|case-|vib-या|tam-yA|chunkId-VGNF|chunkType-child|stype-|voicetype-	10	lwg__vaux	_	_
12	घायलों	घायल	NN	n	lex-घायल|cat-n|gen-m|num-pl|pers-3|case-o|vib-0_का|tam-0|chunkId-NP5|chunkType-head|stype-|voicetype-	14	r6	_	_
13	के	का	PSP	psp	lex-का|cat-psp|gen-m|num-sg|pers-|case-o|vib-|tam-|chunkId-NP5|chunkType-child|stype-|voicetype-	12	lwg__psp	_	_
14	दुख	दुख	NN	n	lex-दुख|cat-n|gen-m|num-sg|pers-3|case-o|vib-0_का|tam-0|chunkId-NP6|chunkType-head|stype-|voicetype-	16	r6-k2	_	_
15	का	का	PSP	psp	lex-का|cat-psp|gen-m|num-sg|pers-|case-d|vib-|tam-|chunkId-NP6|chunkType-child|stype-|voicetype-	14	lwg__psp	_	_
16	साझा	साझा	NN	n	lex-साझा|cat-n|gen-m|num-sg|pers-3|case-d|vib-0|tam-0|chunkId-NP7|chunkType-head|stype-|voicetype-	17	pof	_	_
17	करते	कर	VM	v	lex-कर|cat-v|gen-m|num-sg|pers-any|case-|vib-ता_हो+या|tam-wA|chunkId-VGNF2|chunkType-head|stype-|voicetype-	19	vmod	_	_
18	हुए	हो	VAUX	v	lex-हो|cat-v|gen-m|num-sg|pers-any|case-|vib-या|tam-yA|chunkId-VGNF2|chunkType-child|stype-|voicetype-	17	lwg__vaux	_	_
19	कहा	कह	VM	v	lex-कह|cat-v|gen-m|num-sg|pers-any|case-|vib-या|tam-yA|chunkId-VGF|chunkType-head|stype-declarative|voicetype-active	0	main	_	_
20	,	COMMA	SYM	punc	lex-COMMA|cat-punc|gen-|num-|pers-|case-|vib-|tam-|chunkId-VGF|chunkType-child|stype-|voicetype-	19	rsym	_	_
21	'1	1	SYM	punc	lex-1|cat-punc|gen-|num-|pers-|case-|vib-|tam-|chunkId-NP8|chunkType-child|stype-|voicetype-	22	rsym	_	_
22	मैं	मैं	PRP	pn	lex-मैं|cat-pn|gen-any|num-sg|pers-1|case-d|vib-0|tam-0|chunkId-NP8|chunkType-head|stype-|voicetype-	27	k1	_	_
23	यहां	यहाँ	PRP	pn	lex-यहाँ|cat-pn|gen-|num-|pers-|case-d|vib-|tam-|chunkId-NP9|chunkType-head|stype-|voicetype-	27	k7p	_	_
24	आपको	आप	PRP	pn	lex-आप|cat-pn|gen-any|num-pl|pers-1|case-o|vib-को|tam-ko|chunkId-NP10|chunkType-head|stype-|voicetype-	26	k4	_	_
25	विश्वास	विश्वास	NN	n	lex-विश्वास|cat-n|gen-m|num-sg|pers-3|case-d|vib-0|tam-0|chunkId-NP11|chunkType-head|stype-|voicetype-	26	pof	_	_
26	दिलाने	दिला	VM	v	lex-दिला|cat-v|gen-any|num-any|pers-any|case-o|vib-ना|tam-nA|chunkId-VGNN|chunkType-head|stype-|voicetype-	27	vmod	_	_
27	आया	आ	VM	v	lex-आ|cat-v|gen-m|num-sg|pers-1|case-|vib-या_है|tam-yA|chunkId-VGF2|chunkType-head|stype-declarative|voicetype-active	19	k2	_	_
28	हूं	है	VAUX	v	lex-है|cat-v|gen-any|num-sg|pers-1|case-|vib-0|tam-0|chunkId-VGF2|chunkType-child|stype-|voicetype-	27	lwg__vaux	_	_
29	कि	कि	CC	avy	lex-कि|cat-avy|gen-|num-|pers-|case-|vib-|tam-|chunkId-CCP|chunkType-head|stype-|voicetype-	27	k1s	_	_
30	हम	हम	PRP	pn	lex-हम|cat-pn|gen-any|num-pl|pers-1|case-d|vib-0|tam-0|chunkId-NP12|chunkType-head|stype-|voicetype-	36	k1	_	_
31	आपको	आप	PRP	pn	lex-आप|cat-pn|gen-any|num-pl|pers-1|case-o|vib-को|tam-ko|chunkId-NP13|chunkType-head|stype-|voicetype-	36	k4	_	_
32	हर	हर	QF	avy	lex-हर|cat-avy|gen-|num-|pers-|case-|vib-|tam-|chunkId-NP14|chunkType-child|stype-|voicetype-	33	nmod__adj	_	_
33	तरह	तरह	NN	n	lex-तरह|cat-n|gen-f|num-sg|pers-3|case-o|vib-0_का|tam-0|chunkId-NP14|chunkType-head|stype-|voicetype-	35	r6-k2	_	_
34	की	का	PSP	psp	lex-का|cat-psp|gen-f|num-sg|pers-|case-d|vib-|tam-|chunkId-NP14|chunkType-child|stype-|voicetype-	33	lwg__psp	_	_
35	मदद	मदद	NN	n	lex-मदद|cat-n|gen-f|num-sg|pers-3|case-d|vib-0|tam-0|chunkId-NP15|chunkType-head|stype-|voicetype-	36	pof	_	_
36	करेंगे	कर	VM	v	lex-कर|cat-v|gen-m|num-pl|pers-any|case-|vib-गा|tam-gA|chunkId-VGF3|chunkType-head|stype-declarative|voicetype-active	29	ccof	_	_
37	.	.	SYM	punc	lex-.|cat-punc|gen-|num-|pers-|case-|vib-|tam-|chunkId-BLK|chunkType-head|stype-|voicetype-	19	rsym	_	_

