1	कन्नड़	कन्नड़	NNP	n	lex-कन्नड़|cat-n|gen-m|num-sg|pers-3|case-d|vib-0|tam-0|chunkId-NP|chunkType-child|stype-|voicetype-	3	nmod__adj	_	_
2	अभिनेता	अभिनेता	NN	n	lex-अभिनेता|cat-n|gen-m|num-sg|pers-3|case-d|vib-0|tam-0|chunkId-NP|chunkType-child|stype-|voicetype-	3	nmod	_	_
3	राजकुमार	राजकुमार	NNP	n	lex-राजकुमार|cat-n|gen-m|num-sg|pers-3|case-o|vib-0_का|tam-0|chunkId-NP|chunkType-head|stype-|voicetype-	6	r6	_	_
4	के	का	PSP	psp	lex-का|cat-psp|gen-m|num-sg|pers-|case-o|vib-|tam-|chunkId-NP|chunkType-child|stype-|voicetype-	3	lwg__psp	_	_
5	अंतिम	अंतिम	JJ	adj	lex-अंतिम|cat-adj|gen-any|num-any|pers-|case-o|vib-|tam-|chunkId-NP2|chunkType-child|stype-|voicetype-	6	nmod__adj	_	_
6	संस्कार	संस्कार	NN	n	lex-संस्कार|cat-n|gen-m|num-sg|pers-3|case-o|vib-0_से_पहले|tam-0|chunkId-NP2|chunkType-head|stype-|voicetype-	16	k7t	_	_
7	से	से	PSP	psp	lex-से|cat-psp|gen-|num-|pers-|case-|vib-|tam-|chunkId-NP2|chunkType-child|stype-|voicetype-	6	lwg__psp	_	_
8	पहले	पहले	NST	nst	lex-पहले|cat-nst|gen-m|num-sg|pers-3|case-d|vib-|tam-|chunkId-NP2|chunkType-child|stype-|voicetype-	6	lwg__psp	_	_
9	उनके	वह	PRP	pn	lex-वह|cat-pn|gen-m|num-sg|pers-3h|case-o|vib-का|tam-kA|chunkId-NP3|chunkType-head|stype-|voicetype-	10	r6	_	_
10	प्रशंसकों	प्रशंसक	NN	n	lex-प्रशंसक|cat-n|gen-m|num-pl|pers-3|case-o|vib-0_ने|tam-0|chunkId-NP4|chunkType-head|stype-|voicetype-	16	k1	_	_
11	ने	ने	PSP	psp	lex-ने|cat-psp|gen-|num-|pers-|case-|vib-|tam-|chunkId-NP4|chunkType-child|stype-|voicetype-	10	lwg__psp	_	_
12	बृहस्पतिवार	बृहस्पतिवार	NNP	n	lex-बृहस्पतिवार|cat-n|gen-m|num-sg|pers-3|case-o|vib-0_को|tam-0|chunkId-NP5|chunkType-head|stype-|voicetype-	16	k7t	_	_
13	को	को	PSP	psp	lex-को|cat-psp|gen-|num-|pers-|case-|vib-|tam-|chunkId-NP5|chunkType-child|stype-|voicetype-	12	lwg__psp	_	_
14	जमकर	जमकर	RB	adv	lex-जमकर|cat-adv|gen-|num-|pers-|case-|vib-|tam-|chunkId-RBP|chunkType-head|stype-|voicetype-	16	adv	_	_
15	उत्पात	उत्पात	NN	n	lex-उत्पात|cat-n|gen-m|num-sg|pers-3|case-d|vib-0|tam-0|chunkId-NP6|chunkType-head|stype-|voicetype-	16	pof	_	_
16	मचाया	मचा	VM	v	lex-मचा|cat-v|gen-m|num-sg|pers-any|case-|vib-या|tam-yA|chunkId-VGF|chunkType-head|stype-declarative|voicetype-active	0	main	_	_
17	।	।	SYM	punc	lex-।|cat-punc|gen-|num-|pers-|case-|vib-|tam-|chunkId-BLK|chunkType-head|stype-|voicetype-	16	rsym	_	_

1	हिंसा	हिंसा	NN	n	lex-हिंसा|cat-n|gen-f|num-sg|pers-3|case-o|vib-0|tam-0|chunkId-NP|chunkType-head|stype-|voicetype-	4	ccof	_	_
2	,	COMMA	SYM	punc	lex-COMMA|cat-punc|gen-|num-|pers-|case-|vib-|tam-|chunkId-NP|chunkType-child|stype-|voicetype-	1	rsym	_	_
3	आगजनी	आगजनी	NN	n	lex-आगजनी|cat-n|gen-f|num-sg|pers-3|case-o|vib-0|tam-0|chunkId-NP2|chunkType-head|stype-|voicetype-	4	ccof	_	_
4	और	और	CC	avy	lex-और|cat-avy|gen-|num-|pers-|case-|vib-|tam-|chunkId-CCP|chunkType-head|stype-|voicetype-	9	k7	_	_
5	पथराव	पथराव	NN	n	lex-पथराव|cat-n|gen-m|num-sg|pers-3|case-o|vib-0_में|tam-0|chunkId-NP3|chunkType-head|stype-|voicetype-	4	ccof	_	_
6	में	में	PSP	psp	lex-में|cat-psp|gen-|num-|pers-|case-|vib-|tam-|chunkId-NP3|chunkType-child|stype-|voicetype-	5	lwg__psp	_	_
7	चार	चार	QC	num	lex-चार|cat-num|gen-any|num-any|pers-|case-any|vib-|tam-|chunkId-NP4|chunkType-child|stype-|voicetype-	8	nmod__adj	_	_
8	लोग	लोग	NN	n	lex-लोग|cat-n|gen-m|num-pl|pers-3|case-d|vib-0|tam-0|chunkId-NP4|chunkType-head|stype-|voicetype-	9	k1	_	_
9	मारे	मार	VM	v	lex-मार|cat-v|gen-m|num-pl|pers-any|case-|vib-या_जा+या१|tam-yA|chunkId-VGF|chunkType-head|stype-declarative|voicetype-active	12	ccof	_	_
10	गए	जा	VAUX	v	lex-जा|cat-v|gen-m|num-pl|pers-any|case-|vib-या१|tam-yA1|chunkId-VGF|chunkType-child|stype-|voicetype-	9	lwg__vaux	_	_
11	,	COMMA	SYM	punc	lex-COMMA|cat-punc|gen-|num-|pers-|case-|vib-|tam-|chunkId-VGF|chunkType-child|stype-|voicetype-	9	rsym	_	_
12	NULL	_	CC	_	lex-_|cat-_|gen-|num-|pers-|case-|vib-|tam-|chunkId-NULL__CCP|chunkType-head|stype-|voicetype-	0	main	_	_
13	जिसमें	जो	PRP	pn	lex-जो|cat-pn|gen-any|num-sg|pers-3|case-o|vib-में|tam-meM|chunkId-NP5|chunkType-head|stype-|voicetype-	20	k7	_	_
14	दो	दो	NN	n	lex-दो|cat-n|gen-m|num-sg|pers-3|case-o|vib-0_का|tam-0|chunkId-NP6|chunkType-head|stype-|voicetype-	16	r6-k1	_	_
15	की	का	PSP	psp	lex-का|cat-psp|gen-f|num-sg|pers-|case-d|vib-|tam-|chunkId-NP6|chunkType-child|stype-|voicetype-	14	lwg__psp	_	_
16	मौत	मौत	NN	n	lex-मौत|cat-n|gen-f|num-sg|pers-3|case-d|vib-0|tam-0|chunkId-NP7|chunkType-head|stype-|voicetype-	20	pof	_	_
17	पुलिस	पुलिस	NNC	n	lex-पुलिस|cat-n|gen-f|num-sg|pers-3|case-d|vib-0|tam-0|chunkId-NP8|chunkType-child|stype-|voicetype-	18	pof__cn	_	_
18	फायरिंग	फायरिंग	NN	n	lex-फायरिंग|cat-n|gen-f|num-sg|pers-3|case-o|vib-0_में|tam-0|chunkId-NP8|chunkType-head|stype-|voicetype-	20	k7	_	_
19	में	में	PSP	psp	lex-में|cat-psp|gen-|num-|pers-|case-|vib-|tam-|chunkId-NP8|chunkType-child|stype-|voicetype-	18	lwg__psp	_	_
20	हुई	हो	VM	v	lex-हो|cat-v|gen-f|num-sg|pers-any|case-|vib-या|tam-yA|chunkId-VGF2|chunkType-head|stype-declarative|voicetype-active	12	ccof	_	_
21	।	।	SYM	punc	lex-।|cat-punc|gen-|num-|pers-|case-|vib-|tam-|chunkId-BLK|chunkType-head|stype-|voicetype-	12	rsym	_	_

1	मरने	मर	VM	v	lex-मर|cat-v|gen-m|num-any|pers-any|case-o|vib-ना_वाला_में|tam-nA|chunkId-VGNN|chunkType-head|stype-|voicetype-	9	k7	_	_
2	वालों	वाला	PSP	psp	lex-वाला|cat-psp|gen-m|num-pl|pers-|case-o|vib-|tam-|chunkId-VGNN|chunkType-child|stype-|voicetype-	1	lwg__psp	_	_
3	में	में	PSP	psp	lex-में|cat-psp|gen-|num-|pers-|case-|vib-|tam-|chunkId-VGNN|chunkType-child|stype-|voicetype-	1	lwg__psp	_	_
4	एक	एक	QC	num	lex-एक|cat-num|gen-any|num-any|pers-|case-any|vib-|tam-|chunkId-NP|chunkType-child|stype-|voicetype-	6	nmod__adj	_	_
5	पुलिस	पुलिस	NNC	n	lex-पुलिस|cat-n|gen-f|num-sg|pers-3|case-d|vib-0|tam-0|chunkId-NP|chunkType-child|stype-|voicetype-	6	pof__cn	_	_
6	कांस्टेबल	कांस्टेबल	NN	n	lex-कांस्टेबल|cat-n|gen-m|num-sg|pers-3|case-d|vib-0|tam-0|chunkId-NP|chunkType-head|stype-|voicetype-	9	k1	_	_
7	भी	भी	RP	avy	lex-भी|cat-avy|gen-|num-|pers-|case-|vib-|tam-|chunkId-NP|chunkType-child|stype-|voicetype-	6	lwg__rp	_	_
8	शामिल	शामिल	JJ	adj	lex-शामिल|cat-adj|gen-any|num-any|pers-|case-|vib-|tam-|chunkId-JJP|chunkType-head|stype-|voicetype-	9	k1s	_	_
9	है	है	VM	v	lex-है|cat-v|gen-any|num-sg|pers-3|case-|vib-है|tam-hE|chunkId-VGF|chunkType-head|stype-declarative|voicetype-active	0	main	_	_
10	।	।	SYM	punc	lex-।|cat-punc|gen-|num-|pers-|case-|vib-|tam-|chunkId-BLK|chunkType-head|stype-|voicetype-	9	rsym	_	_

1	कांतिरवा	कांतिरवा	NNPC	n	lex-कांतिरवा|cat-n|gen-m|num-sg|pers-3|case-d|vib-0|tam-0|chunkId-NP|chunkType-child|stype-|voicetype-	2	pof__cn	_	_
2	स्टूडियो	स्टूडियो	NNP	n	lex-स्टूडियो|cat-n|gen-m|num-sg|pers-3|case-o|vib-0_में|tam-0|chunkId-NP|chunkType-head|stype-|voicetype-	12	k7p	_	_
3	में	में	PSP	psp	lex-में|cat-psp|gen-|num-|pers-|case-|vib-|tam-|chunkId-NP|chunkType-child|stype-|voicetype-	2	lwg__psp	_	_
4	आज	आज	NN	n	lex-आज|cat-n|gen-m|num-sg|pers-3|case-d|vib-0|tam-0|chunkId-NP2|chunkType-head|stype-|voicetype-	12	k7t	_	_
5	राजकुमार	राजकुमार	NNP	n	lex-राजकुमार|cat-n|gen-m|num-sg|pers-3|case-o|vib-0_का|tam-0|chunkId-NP3|chunkType-head|stype-|voicetype-	8	r6	_	_
6	का	का	PSP	psp	lex-का|cat-psp|gen-m|num-sg|pers-|case-d|vib-|tam-|chunkId-NP3|chunkType-child|stype-|voicetype-	5	lwg__psp	_	_
7	पार्थिव	पार्थिव	JJ	adj	lex-पार्थिव|cat-adj|gen-any|num-any|pers-|case-d|vib-|tam-|chunkId-NP4|chunkType-child|stype-|voicetype-	8	nmod__adj	_	_
8	शरीर	शरीर	NN	n	lex-शरीर|cat-n|gen-m|num-sg|pers-3|case-d|vib-0|tam-0|chunkId-NP4|chunkType-head|stype-|voicetype-	12	k1	_	_
9	पंचतत्व	पंचतत्व	NN	n	lex-पंचतत्व|cat-n|gen-m|num-sg|pers-3|case-o|vib-0_में|tam-0|chunkId-NP5|chunkType-head|stype-|voicetype-	12	k7	_	_
10	में	में	PSP	psp	lex-में|cat-psp|gen-|num-|pers-|case-|vib-|tam-|chunkId-NP5|chunkType-child|stype-|voicetype-	9	lwg__psp	_	_
11	विलीन	विलीन	JJ	adj	lex-विलीन|cat-adj|gen-any|num-any|pers-|case-|vib-|tam-|chunkId-JJP|chunkType-head|stype-|voicetype-	12	pof	_	_
12	हो	हो	VM	v	lex-हो|cat-v|gen-any|num-sg|pers-any|case-|vib-0_जा+या१|tam-0|chunkId-VGF|chunkType-head|stype-declarative|voicetype-passive	0	main	_	_
13	गया	जा	VAUX	v	lex-जा|cat-v|gen-m|num-sg|pers-any|case-|vib-या१|tam-yA1|chunkId-VGF|chunkType-child|stype-|voicetype-	12	lwg__vaux	_	_
14	।	।	SYM	punc	lex-।|cat-punc|gen-|num-|pers-|case-|vib-|tam-|chunkId-BLK|chunkType-head|stype-|voicetype-	12	rsym	_	_

1	उनका	वह	PRP	pn	lex-वह|cat-pn|gen-m|num-sg|pers-3h|case-o|vib-का|tam-kA|chunkId-NP|chunkType-head|stype-|voicetype-	3	r6-k1	_	_
2	अंतिम	अंतिम	NNC	adj	lex-अंतिम|cat-adj|gen-any|num-any|pers-|case-d|vib-|tam-|chunkId-NP2|chunkType-child|stype-|voicetype-	3	pof__cn	_	_
3	संस्कार	संस्कार	NN	n	lex-संस्कार|cat-n|gen-m|num-sg|pers-3|case-d|vib-0|tam-0|chunkId-NP2|chunkType-head|stype-|voicetype-	8	pof	_	_
4	पूरे	पूरा	JJ	adj	lex-पूरा|cat-adj|gen-m|num-sg|pers-|case-o|vib-|tam-|chunkId-NP3|chunkType-child|stype-|voicetype-	6	nmod__adj	_	_
5	राजकीय	राजकीय	JJ	adj	lex-राजकीय|cat-adj|gen-any|num-any|pers-|case-o|vib-|tam-|chunkId-NP3|chunkType-child|stype-|voicetype-	6	nmod__adj	_	_
6	सम्मान	सम्मान	NN	n	lex-सम्मान|cat-n|gen-m|num-sg|pers-3|case-o|vib-0_से|tam-0|chunkId-NP3|chunkType-head|stype-|voicetype-	8	ras-k1	_	_
7	से	से	PSP	psp	lex-से|cat-psp|gen-|num-|pers-|case-|vib-|tam-|chunkId-NP3|chunkType-child|stype-|voicetype-	6	lwg__psp	_	_
8	किया	कर	VM	v	lex-कर|cat-v|gen-m|num-sg|pers-any|case-|vib-या_जा+या१|tam-yA|chunkId-VGF|chunkType-head|stype-declarative|voicetype-passive	0	main	_	_
9	गया	जा	VAUX	v	lex-जा|cat-v|gen-m|num-sg|pers-any|case-|vib-या१|tam-yA1|chunkId-VGF|chunkType-child|stype-|voicetype-	8	lwg__vaux	_	_
10	।	।	SYM	punc	lex-।|cat-punc|gen-|num-|pers-|case-|vib-|tam-|chunkId-BLK|chunkType-head|stype-|voicetype-	8	rsym	_	_

1	इससे	यह	PRP	pn	lex-यह|cat-pn|gen-any|num-sg|pers-3|case-o|vib-0_पहले|tam-se|chunkId-NP|chunkType-head|stype-|voicetype-	13	k7t	_	_
2	पहले	पहले	NST	nst	lex-पहले|cat-nst|gen-m|num-sg|pers-3|case-d|vib-|tam-|chunkId-NP|chunkType-child|stype-|voicetype-	1	lwg__psp	_	_
3	राजकुमार	राजकुमार	NNP	n	lex-राजकुमार|cat-n|gen-m|num-sg|pers-3|case-o|vib-0_का|tam-0|chunkId-NP2|chunkType-head|stype-|voicetype-	6	r6	_	_
4	का	का	PSP	psp	lex-का|cat-psp|gen-m|num-sg|pers-|case-d|vib-|tam-|chunkId-NP2|chunkType-child|stype-|voicetype-	3	lwg__psp	_	_
5	पार्थिव	पार्थिव	JJ	adj	lex-पार्थिव|cat-adj|gen-any|num-any|pers-|case-d|vib-|tam-|chunkId-NP3|chunkType-child|stype-|voicetype-	6	nmod__adj	_	_
6	शरीर	शरीर	NN	n	lex-शरीर|cat-n|gen-m|num-sg|pers-3|case-d|vib-0|tam-0|chunkId-NP3|chunkType-head|stype-|voicetype-	13	k2	_	_
7	जनता	जनता	NN	n	lex-जनता|cat-n|gen-f|num-sg|pers-3|case-o|vib-0_के|tam-0|chunkId-NP4|chunkType-head|stype-|voicetype-	9	r6	_	_
8	के	के	PSP	psp	lex-के|cat-psp|gen-|num-|pers-|case-|vib-|tam-|chunkId-NP4|chunkType-child|stype-|voicetype-	7	lwg__psp	_	_
9	दर्शनार्थ	दर्शनार्थ	RB	adv	lex-दर्शनार्थ|cat-adv|gen-|num-|pers-|case-|vib-|tam-|chunkId-RBP|chunkType-head|stype-|voicetype-	13	rt	_	_
10	कांतिरवा	कांतिरवा	NNPC	n	lex-कांतिरवा|cat-n|gen-m|num-sg|pers-3|case-d|vib-0|tam-0|chunkId-NP5|chunkType-child|stype-|voicetype-	11	pof__cn	_	_
11	स्टेडियम	स्टेडियम	NNP	n	lex-स्टेडियम|cat-n|gen-m|num-sg|pers-3|case-o|vib-0_में|tam-0|chunkId-NP5|chunkType-head|stype-|voicetype-	13	k7p	_	_
12	में	में	PSP	psp	lex-में|cat-psp|gen-|num-|pers-|case-|vib-|tam-|chunkId-NP5|chunkType-child|stype-|voicetype-	11	lwg__psp	_	_
13	रखा	रख	VM	v	lex-रख|cat-v|gen-m|num-sg|pers-any|case-|vib-या_जा+या१_था|tam-yA|chunkId-VGF|chunkType-head|stype-declarative|voicetype-passive	0	main	_	_
14	गया	जा	VAUX	v	lex-जा|cat-v|gen-m|num-sg|pers-any|case-|vib-या१|tam-yA1|chunkId-VGF|chunkType-child|stype-|voicetype-	13	lwg__vaux	_	_
15	था	था	VAUX	v	lex-था|cat-v|gen-m|num-sg|pers-any|case-|vib-था|tam-WA|chunkId-VGF|chunkType-child|stype-|voicetype-	13	lwg__vaux	_	_
16	।	।	SYM	punc	lex-।|cat-punc|gen-|num-|pers-|case-|vib-|tam-|chunkId-BLK|chunkType-head|stype-|voicetype-	13	rsym	_	_

1	इस	यह	DEM	pn	lex-यह|cat-pn|gen-any|num-sg|pers-3|case-o|vib-|tam-|chunkId-NP|chunkType-head|stype-|voicetype-	8	k7	_	_
2	दौरान	दौरान	NST	nst	lex-दौरान|cat-nst|gen-m|num-sg|pers-3|case-d|vib-|tam-|chunkId-NP|chunkType-child|stype-|voicetype-	1	lwg__psp	_	_
3	वहां	वहाँ	PRP	pn	lex-वहाँ|cat-pn|gen-|num-|pers-|case-|vib-|tam-|chunkId-NP2|chunkType-head|stype-|voicetype-	4	k7p	_	_
4	जुटे	जुट	VM	v	lex-जुट|cat-v|gen-m|num-pl|pers-3|case-|vib-या|tam-yA|chunkId-VGNF|chunkType-head|stype-|voicetype-	6	nmod__k1inv	_	_
5	उनके	वह	PRP	pn	lex-वह|cat-pn|gen-m|num-sg|pers-3h|case-o|vib-का|tam-kA|chunkId-NP3|chunkType-head|stype-|voicetype-	6	r6	_	_
6	प्रशंसक	प्रशंसक	NN	n	lex-प्रशंसक|cat-n|gen-m|num-pl|pers-3|case-d|vib-0|tam-0|chunkId-NP4|chunkType-head|stype-|voicetype-	8	k1	_	_
7	बेकाबू	बेकाबू	JJ	adj	lex-बेकाबू|cat-adj|gen-any|num-any|pers-|case-|vib-|tam-|chunkId-JJP|chunkType-head|stype-|voicetype-	8	pof	_	_
8	हो	हो	VM	v	lex-हो|cat-v|gen-any|num-pl|pers-any|case-|vib-0_जा+या१|tam-0|chunkId-VGF|chunkType-head|stype-declarative|voicetype-active	10	ccof	_	_
9	गए	जा	VAUX	v	lex-जा|cat-v|gen-m|num-pl|pers-any|case-|vib-या१|tam-yA1|chunkId-VGF|chunkType-child|stype-|voicetype-	8	lwg__vaux	_	_
10	और	और	CC	avy	lex-और|cat-avy|gen-|num-|pers-|case-|vib-|tam-|chunkId-CCP|chunkType-head|stype-|voicetype-	0	main	_	_
11	पथराव	पथराव	NN	n	lex-पथराव|cat-n|gen-m|num-sg|pers-3|case-d|vib-0|tam-0|chunkId-NP5|chunkType-head|stype-|voicetype-	13	k2	_	_
12	शुरू	शुरू	NN	n	lex-शुरू|cat-n|gen-m|num-sg|pers-3|case-d|vib-0|tam-0|chunkId-NP6|chunkType-head|stype-|voicetype-	13	pof	_	_
13	कर	कर	VM	v	lex-कर|cat-v|gen-any|num-sg|pers-any|case-|vib-0_दे+या|tam-0|chunkId-VGF2|chunkType-head|stype-declarative|voicetype-active	10	ccof	_	_
14	दिया	दे	VAUX	v	lex-दे|cat-v|gen-m|num-sg|pers-any|case-|vib-या|tam-yA|chunkId-VGF2|chunkType-child|stype-|voicetype-	13	lwg__vaux	_	_
15	।	।	SYM	punc	lex-।|cat-punc|gen-|num-|pers-|case-|vib-|tam-|chunkId-BLK|chunkType-head|stype-|voicetype-	10	rsym	_	_

1	उन्होंने	वह	PRP	pn	lex-वह|cat-pn|gen-any|num-pl|pers-3|case-o|vib-ने|tam-ne|chunkId-NP|chunkType-head|stype-|voicetype-	11	k1	_	_
2	स्टेडियम	स्टेडियम	NN	n	lex-स्टेडियम|cat-n|gen-m|num-sg|pers-3|case-o|vib-0_के|tam-0|chunkId-NP2|chunkType-head|stype-|voicetype-	4	r6	_	_
3	के	के	PSP	psp	lex-के|cat-psp|gen-|num-|pers-|case-|vib-|tam-|chunkId-NP2|chunkType-child|stype-|voicetype-	2	lwg__psp	_	_
4	अंदर	अंदर	NST	nst	lex-अंदर|cat-nst|gen-m|num-sg|pers-3|case-d|vib-|tam-|chunkId-NP3|chunkType-head|stype-|voicetype-	5	ccof	_	_
5	और	और	CC	avy	lex-और|cat-avy|gen-|num-|pers-|case-|vib-|tam-|chunkId-CCP|chunkType-head|stype-|voicetype-	11	k7p	_	_
6	बाहर	बाहर	NST	nst	lex-बाहर|cat-nst|gen-m|num-sg|pers-3|case-d|vib-|tam-|chunkId-NP4|chunkType-head|stype-|voicetype-	5	ccof	_	_
7	खड़े	खड़ा	JJ	adj	lex-खड़ा|cat-adj|gen-m|num-pl|pers-|case-o|vib-|tam-|chunkId-NP5|chunkType-child|stype-|voicetype-	8	nmod__adj	_	_
8	वाहनों	वाहन	NN	n	lex-वाहन|cat-n|gen-m|num-pl|pers-3|case-o|vib-0_को|tam-0|chunkId-NP5|chunkType-head|stype-|voicetype-	11	k2	_	_
9	को	को	PSP	psp	lex-को|cat-psp|gen-|num-|pers-|case-|vib-|tam-|chunkId-NP5|chunkType-child|stype-|voicetype-	8	lwg__psp	_	_
10	निशाना	निशाना	NN	n	lex-निशाना|cat-n|gen-m|num-sg|pers-3|case-d|vib-0|tam-0|chunkId-NP6|chunkType-head|stype-|voicetype-	11	pof	_	_
11	बनाया	बना	VM	v	lex-बना|cat-v|gen-m|num-sg|pers-any|case-|vib-या|tam-yA|chunkId-VGF|chunkType-head|stype-declarative|voicetype-active	12	ccof	_	_
12	तथा	तथा	CC	avy	lex-तथा|cat-avy|gen-|num-|pers-|case-|vib-|tam-|chunkId-CCP2|chunkType-head|stype-|voicetype-	0	main	_	_
13	पुलिस	पुलिस	NN	n	lex-पुलिस|cat-n|gen-f|num-sg|pers-3|case-o|vib-0_पर|tam-0|chunkId-NP7|chunkType-head|stype-|voicetype-	17	k7	_	_
14	पर	पर	PSP	psp	lex-पर|cat-psp|gen-|num-|pers-|case-|vib-|tam-|chunkId-NP7|chunkType-child|stype-|voicetype-	13	lwg__psp	_	_
15	भी	भी	RP	avy	lex-भी|cat-avy|gen-|num-|pers-|case-|vib-|tam-|chunkId-NP7|chunkType-child|stype-|voicetype-	13	lwg__rp	_	_
16	पथराव	पथराव	NN	n	lex-पथराव|cat-n|gen-m|num-sg|pers-3|case-d|vib-0|tam-0|chunkId-NP8|chunkType-head|stype-|voicetype-	17	pof	_	_
17	किया	कर	VM	v	lex-कर|cat-v|gen-m|num-sg|pers-any|case-|vib-या|tam-yA|chunkId-VGF2|chunkType-head|stype-declarative|voicetype-active	12	ccof	_	_
18	।	।	SYM	punc	lex-।|cat-punc|gen-|num-|pers-|case-|vib-|tam-|chunkId-BLK|chunkType-head|stype-|voicetype-	12	rsym	_	_

1	इसमें	यह	PRP	pn	lex-यह|cat-pn|gen-any|num-sg|pers-3|case-o|vib-में|tam-meM|chunkId-NP|chunkType-head|stype-|voicetype-	5	k7	_	_
2	चार	चार	QC	num	lex-चार|cat-num|gen-any|num-any|pers-|case-any|vib-|tam-|chunkId-NP2|chunkType-child|stype-|voicetype-	3	nmod__adj	_	_
3	पुलिसकर्मी	पुलिसकर्मी	NN	n	lex-पुलिसकर्मी|cat-n|gen-m|num-pl|pers-3|case-d|vib-0|tam-0|chunkId-NP2|chunkType-head|stype-|voicetype-	5	k1	_	_
4	घायल	घायल	JJ	adj	lex-घायल|cat-adj|gen-any|num-any|pers-|case-|vib-|tam-|chunkId-JJP|chunkType-head|stype-|voicetype-	5	pof	_	_
5	हो	हो	VM	v	lex-हो|cat-v|gen-any|num-pl|pers-any|case-|vib-0_जा+या१|tam-0|chunkId-VGF|chunkType-head|stype-declarative|voicetype-active	8	ccof	_	_
6	गए	जा	VAUX	v	lex-जा|cat-v|gen-m|num-pl|pers-any|case-|vib-या१|tam-yA1|chunkId-VGF|chunkType-child|stype-|voicetype-	5	lwg__vaux	_	_
7	,	COMMA	SYM	punc	lex-COMMA|cat-punc|gen-|num-|pers-|case-|vib-|tam-|chunkId-VGF|chunkType-child|stype-|voicetype-	5	rsym	_	_
8	NULL	_	CC	_	lex-_|cat-_|gen-|num-|pers-|case-|vib-|tam-|chunkId-NULL__CCP|chunkType-head|stype-|voicetype-	0	main	_	_
9	जिसमें	जो	PRP	pn	lex-जो|cat-pn|gen-any|num-sg|pers-3|case-o|vib-0_से|tam-meM|chunkId-NP3|chunkType-head|stype-|voicetype-	18	k5	_	_
10	से	से	PSP	psp	lex-से|cat-psp|gen-|num-|pers-|case-|vib-|tam-|chunkId-NP3|chunkType-child|stype-|voicetype-	9	lwg__psp	_	_
11	एक	एक	NN	n	lex-एक|cat-n|gen-m|num-sg|pers-3|case-o|vib-0_का|tam-0|chunkId-NP4|chunkType-head|stype-|voicetype-	13	r6	_	_
12	की	का	PSP	psp	lex-का|cat-psp|gen-f|num-sg|pers-|case-d|vib-|tam-|chunkId-NP4|chunkType-child|stype-|voicetype-	11	lwg__psp	_	_
13	बाद	बाद	NST	nst	lex-बाद|cat-nst|gen-m|num-sg|pers-3|case-o|vib-0_में|tam-|chunkId-NP5|chunkType-head|stype-|voicetype-	18	k7t	_	_
14	में	में	PSP	psp	lex-में|cat-psp|gen-|num-|pers-|case-|vib-|tam-|chunkId-NP5|chunkType-child|stype-|voicetype-	13	lwg__psp	_	_
15	अस्पताल	अस्पताल	NN	n	lex-अस्पताल|cat-n|gen-m|num-sg|pers-3|case-o|vib-0_में|tam-0|chunkId-NP6|chunkType-head|stype-|voicetype-	18	k7p	_	_
16	में	में	PSP	psp	lex-में|cat-psp|gen-|num-|pers-|case-|vib-|tam-|chunkId-NP6|chunkType-child|stype-|voicetype-	15	lwg__psp	_	_
17	मौत	मौत	NN	n	lex-मौत|cat-n|gen-f|num-sg|pers-3|case-d|vib-0|tam-0|chunkId-NP7|chunkType-head|stype-|voicetype-	18	k1	_	_
18	हो	हो	VM	v	lex-हो|cat-v|gen-any|num-sg|pers-any|case-|vib-0_जा+या१|tam-0|chunkId-VGF2|chunkType-head|stype-declarative|voicetype-active	8	ccof	_	_
19	गई	जा	VAUX	v	lex-जा|cat-v|gen-f|num-sg|pers-any|case-|vib-या१|tam-yA1|chunkId-VGF2|chunkType-child|stype-|voicetype-	18	lwg__vaux	_	_
20	।	।	SYM	punc	lex-।|cat-punc|gen-|num-|pers-|case-|vib-|tam-|chunkId-BLK|chunkType-head|stype-|voicetype-	8	rsym	_	_

1	उपद्रवियों	उपद्रवी	NN	n	lex-उपद्रवी|cat-n|gen-m|num-pl|pers-3|case-o|vib-0_ने|tam-0|chunkId-NP|chunkType-head|stype-|voicetype-	13	k1	_	_
2	ने	ने	PSP	psp	lex-ने|cat-psp|gen-|num-|pers-|case-|vib-|tam-|chunkId-NP|chunkType-child|stype-|voicetype-	1	lwg__psp	_	_
3	कर्नाटक	कर्नाटक	NNP	n	lex-कर्नाटक|cat-n|gen-m|num-sg|pers-3|case-o|vib-0_का|tam-0|chunkId-NP2|chunkType-head|stype-|voicetype-	6	r6	_	_
4	के	का	PSP	psp	lex-का|cat-psp|gen-m|num-sg|pers-|case-o|vib-|tam-|chunkId-NP2|chunkType-child|stype-|voicetype-	3	lwg__psp	_	_
5	उप	उप	NNPC	n	lex-उप|cat-n|gen-m|num-sg|pers-3|case-d|vib-0|tam-0|chunkId-NP3|chunkType-child|stype-|voicetype-	6	pof__cn	_	_
6	मुख्यमंत्री	मुख्यमंत्री	NNP	n	lex-मुख्यमंत्री|cat-n|gen-m|num-sg|pers-3|case-o|vib-0|tam-0|chunkId-NP3|chunkType-head|stype-|voicetype-	9	nmod	_	_
7	बी.	बी.	NNPC	n	lex-बी.|cat-n|gen-m|num-sg|pers-3|case-d|vib-0|tam-0|chunkId-NP4|chunkType-child|stype-|voicetype-	9	pof__cn	_	_
8	एस.	एस.	NNPC	n	lex-एस.|cat-n|gen-m|num-sg|pers-3|case-d|vib-0|tam-0|chunkId-NP4|chunkType-child|stype-|voicetype-	9	pof__cn	_	_
9	येदीयुरप्पा	येदीयुरप्पा	NNP	n	lex-येदीयुरप्पा|cat-n|gen-m|num-sg|pers-3|case-o|vib-0_को|tam-0|chunkId-NP4|chunkType-head|stype-|voicetype-	13	k2	_	_
10	को	को	PSP	psp	lex-को|cat-psp|gen-|num-|pers-|case-|vib-|tam-|chunkId-NP4|chunkType-child|stype-|voicetype-	9	lwg__psp	_	_
11	भी	भी	RP	avy	lex-भी|cat-avy|gen-|num-|pers-|case-|vib-|tam-|chunkId-NP4|chunkType-child|stype-|voicetype-	9	lwg__rp	_	_
12	नहीं	नहीं	NEG	avy	lex-नहीं|cat-avy|gen-|num-|pers-|case-|vib-|tam-|chunkId-VGF|chunkType-child|stype-|voicetype-	13	lwg__neg	_	_
13	बख्शा	बख्श	VM	v	lex-बख्श|cat-v|gen-m|num-sg|pers-3|case-|vib-या|tam-yA|chunkId-VGF|chunkType-head|stype-declarative|voicetype-active	0	main	_	_
14	।	।	SYM	punc	lex-।|cat-punc|gen-|num-|pers-|case-|vib-|tam-|chunkId-BLK|chunkType-head|stype-|voicetype-	13	rsym	_	_

1	स्टेडियम	स्टेडियम	NN	n	lex-स्टेडियम|cat-n|gen-m|num-sg|pers-3|case-o|vib-0_में|tam-0|chunkId-NP|chunkType-head|stype-|voicetype-	10	k7p	_	_
2	में	में	PSP	psp	lex-में|cat-psp|gen-|num-|pers-|case-|vib-|tam-|chunkId-NP|chunkType-child|stype-|voicetype-	1	lwg__psp	_	_
3	प्रवेश	प्रवेश	NN	n	lex-प्रवेश|cat-n|gen-m|num-sg|pers-3|case-d|vib-0|tam-0|chunkId-NP2|chunkType-head|stype-|voicetype-	4	pof	_	_
4	करते	कर	VM	v	lex-कर|cat-v|gen-any|num-any|pers-any|case-|vib-ता_वक्त|tam-wA|chunkId-VGNN|chunkType-head|stype-|voicetype-	10	k7t	_	_
5	वक्त	वक्त	PSP	n	lex-वक्त|cat-n|gen-m|num-|pers-|case-o|vib-|tam-|chunkId-VGNN|chunkType-child|stype-|voicetype-	4	lwg__psp	_	_
6	उनकी	वह	PRP	pn	lex-वह|cat-pn|gen-f|num-sg|pers-3h|case-o|vib-का|tam-kA|chunkId-NP3|chunkType-head|stype-|voicetype-	7	r6	_	_
7	कार	कार	NN	n	lex-कार|cat-n|gen-f|num-sg|pers-3|case-o|vib-0_पर|tam-0|chunkId-NP4|chunkType-head|stype-|voicetype-	10	k7p	_	_
8	पर	पर	PSP	psp	lex-पर|cat-psp|gen-|num-|pers-|case-|vib-|tam-|chunkId-NP4|chunkType-child|stype-|voicetype-	7	lwg__psp	_	_
9	पथराव	पथराव	NN	n	lex-पथराव|cat-n|gen-m|num-sg|pers-3|case-d|vib-0|tam-0|chunkId-NP5|chunkType-head|stype-|voicetype-	10	pof	_	_
10	किया	कर	VM	v	lex-कर|cat-v|gen-m|num-sg|pers-any|case-|vib-या_जा+या१|tam-yA|chunkId-VGF|chunkType-head|stype-declarative|voicetype-passive	13	ccof	_	_
11	गया	जा	VAUX	v	lex-जा|cat-v|gen-m|num-sg|pers-any|case-|vib-या१|tam-yA1|chunkId-VGF|chunkType-child|stype-|voicetype-	10	lwg__vaux	_	_
12	,	COMMA	SYM	punc	lex-COMMA|cat-punc|gen-|num-|pers-|case-|vib-|tam-|chunkId-VGF|chunkType-child|stype-|voicetype-	10	rsym	_	_
13	NULL	_	CC	_	lex-_|cat-_|gen-|num-|pers-|case-|vib-|tam-|chunkId-NULL__CCP|chunkType-head|stype-|voicetype-	0	main	_	_
14	जिसमें	जो	PRP	pn	lex-जो|cat-pn|gen-any|num-sg|pers-3|case-o|vib-में|tam-meM|chunkId-NP6|chunkType-head|stype-|voicetype-	18	k7	_	_
15	उन्हें	वह	PRP	pn	lex-वह|cat-pn|gen-any|num-sg|pers-3h|case-o|vib-को|tam-ko|chunkId-NP7|chunkType-head|stype-|voicetype-	18	k4a	_	_
16	मामूली	मामूली	JJ	adj	lex-मामूली|cat-adj|gen-f|num-any|pers-|case-d|vib-|tam-|chunkId-NP8|chunkType-child|stype-|voicetype-	17	nmod__adj	_	_
17	चोट	चोट	NN	n	lex-चोट|cat-n|gen-f|num-sg|pers-3|case-d|vib-0|tam-0|chunkId-NP8|chunkType-head|stype-|voicetype-	18	k1	_	_
18	आई	आ	VM	v	lex-आ|cat-v|gen-f|num-sg|pers-3|case-|vib-या_है|tam-yA|chunkId-VGF2|chunkType-head|stype-declarative|voicetype-active	13	ccof	_	_
19	है	है	VAUX	v	lex-है|cat-v|gen-any|num-sg|pers-3|case-|vib-है|tam-hE|chunkId-VGF2|chunkType-child|stype-|voicetype-	18	lwg__vaux	_	_
20	।	।	SYM	punc	lex-।|cat-punc|gen-|num-|pers-|case-|vib-|tam-|chunkId-BLK|chunkType-head|stype-|voicetype-	13	rsym	_	_

1	उनके	वह	PRP	pn	lex-वह|cat-pn|gen-m|num-sg|pers-3h|case-o|vib-0_साथ|tam-ke|chunkId-NP|chunkType-head|stype-|voicetype-	9	ras-k1	_	_
2	साथ	साथ	NST	nst	lex-साथ|cat-nst|gen-m|num-sg|pers-3|case-d|vib-|tam-|chunkId-NP|chunkType-child|stype-|voicetype-	1	lwg__psp	_	_
3	भाजपा	भाजपा	NNP	n	lex-भाजपा|cat-n|gen-f|num-sg|pers-3|case-o|vib-0_का|tam-0|chunkId-NP2|chunkType-head|stype-|voicetype-	6	r6	_	_
4	के	का	PSP	psp	lex-का|cat-psp|gen-m|num-sg|pers-3h|case-d|vib-|tam-|chunkId-NP2|chunkType-child|stype-|voicetype-	3	lwg__psp	_	_
5	राष्ट्रीय	राष्ट्रीय	JJ	adj	lex-राष्ट्रीय|cat-adj|gen-any|num-any|pers-|case-o|vib-|tam-|chunkId-NP3|chunkType-child|stype-|voicetype-	6	nmod__adj	_	_
6	महासचिव	महासचिव	NN	n	lex-महासचिव|cat-n|gen-m|num-sg|pers-3|case-d|vib-0|tam-0|chunkId-NP3|chunkType-head|stype-|voicetype-	7	nmod	_	_
7	अनंतकुमार	अनंतकुमार	NNP	n	lex-अनंतकुमार|cat-n|gen-m|num-sg|pers-3|case-d|vib-0|tam-0|chunkId-NP4|chunkType-head|stype-|voicetype-	9	k1	_	_
8	भी	भी	RP	avy	lex-भी|cat-avy|gen-|num-|pers-|case-|vib-|tam-|chunkId-NP4|chunkType-child|stype-|voicetype-	7	lwg__rp	_	_
9	थे	था	VM	v	lex-था|cat-v|gen-m|num-sg|pers-3h|case-|vib-था|tam-WA|chunkId-VGF|chunkType-head|stype-declarative|voicetype-active	11	ccof	_	_
10	,	COMMA	SYM	punc	lex-COMMA|cat-punc|gen-|num-|pers-|case-|vib-|tam-|chunkId-VGF|chunkType-child|stype-|voicetype-	9	rsym	_	_
11	लेकिन	लेकिन	CC	avy	lex-लेकिन|cat-avy|gen-|num-|pers-|case-|vib-|tam-|chunkId-CCP|chunkType-head|stype-|voicetype-	0	main	_	_
12	वह	वह	PRP	pn	lex-वह|cat-pn|gen-any|num-sg|pers-3|case-d|vib-0|tam-0|chunkId-NP5|chunkType-head|stype-|voicetype-	18	k1	_	_
13	इस	यह	DEM	pn	lex-यह|cat-pn|gen-any|num-sg|pers-3|case-o|vib-|tam-|chunkId-NP6|chunkType-child|stype-|voicetype-	14	nmod__adj	_	_
14	पथराव	पथराव	NN	n	lex-पथराव|cat-n|gen-m|num-sg|pers-3|case-o|vib-0_में|tam-0|chunkId-NP6|chunkType-head|stype-|voicetype-	18	k7	_	_
15	में	में	PSP	psp	lex-में|cat-psp|gen-|num-|pers-|case-|vib-|tam-|chunkId-NP6|chunkType-child|stype-|voicetype-	14	lwg__psp	_	_
16	बाल	बाल	RB	adv	lex-बाल|cat-adv|gen-|num-|pers-|case-|vib-|tam-|chunkId-RBP|chunkType-head|stype-|voicetype-	18	pof	_	_
17	बाल	बाल	RDP	adv	lex-बाल|cat-adv|gen-|num-|pers-|case-|vib-|tam-|chunkId-RBP|chunkType-child|stype-|voicetype-	16	mod	_	_
18	बच	बच	VM	v	lex-बच|cat-v|gen-any|num-sg|pers-3h|case-|vib-0_जा+या१|tam-0|chunkId-VGF2|chunkType-head|stype-declarative|voicetype-active	11	ccof	_	_
19	गए	जा	VAUX	v	lex-जा|cat-v|gen-m|num-sg|pers-3h|case-|vib-या१|tam-yA1|chunkId-VGF2|chunkType-child|stype-|voicetype-	18	lwg__vaux	_	_
20	।	।	SYM	punc	lex-।|cat-punc|gen-|num-|pers-|case-|vib-|tam-|chunkId-BLK|chunkType-head|stype-|voicetype-	11	rsym	_	_

1	कन्नड़	कन्नड़	NNP	n	lex-कन्नड़|cat-n|gen-m|num-sg|pers-3|case-d|vib-0|tam-0|chunkId-NP|chunkType-child|stype-|voicetype-	2	nmod__adj	_	_
2	सुपरस्टार	सुपरस्टार	NN	n	lex-सुपरस्टार|cat-n|gen-m|num-sg|pers-3|case-o|vib-0_को|tam-0|chunkId-NP|chunkType-head|stype-|voicetype-	13	k4	_	_
3	को	को	PSP	psp	lex-को|cat-psp|gen-|num-|pers-|case-|vib-|tam-|chunkId-NP|chunkType-child|stype-|voicetype-	2	lwg__psp	_	_
4	आज	आज	NN	n	lex-आज|cat-n|gen-m|num-sg|pers-3|case-d|vib-0|tam-0|chunkId-NP2|chunkType-head|stype-|voicetype-	13	k7t	_	_
5	हजारों	हजार	QC	num	lex-हजार|cat-num|gen-any|num-pl|pers-|case-any|vib-|tam-|chunkId-NP3|chunkType-child|stype-|voicetype-	6	nmod__adj	_	_
6	लोगों	लोग	NN	n	lex-लोग|cat-n|gen-m|num-pl|pers-3|case-o|vib-0_ने|tam-0|chunkId-NP3|chunkType-head|stype-|voicetype-	13	k1	_	_
7	ने	ने	PSP	psp	lex-ने|cat-psp|gen-|num-|pers-|case-|vib-|tam-|chunkId-NP3|chunkType-child|stype-|voicetype-	6	lwg__psp	_	_
8	नम	नम	JJ	adj	lex-नम|cat-adj|gen-any|num-any|pers-|case-o|vib-|tam-|chunkId-NP4|chunkType-child|stype-|voicetype-	9	nmod__adj	_	_
9	आंखों	आंख	NN	n	lex-आंख|cat-n|gen-f|num-pl|pers-3|case-o|vib-0_से|tam-0|chunkId-NP4|chunkType-head|stype-|voicetype-	13	k3	_	_
10	से	से	PSP	psp	lex-से|cat-psp|gen-|num-|pers-|case-|vib-|tam-|chunkId-NP4|chunkType-child|stype-|voicetype-	9	lwg__psp	_	_
11	अंतिम	अंतिम	JJ	adj	lex-अंतिम|cat-adj|gen-any|num-any|pers-|case-d|vib-|tam-|chunkId-NP5|chunkType-child|stype-|voicetype-	12	nmod__adj	_	_
12	विदाई	विदाई	NN	n	lex-विदाई|cat-n|gen-f|num-sg|pers-3|case-d|vib-0|tam-0|chunkId-NP5|chunkType-head|stype-|voicetype-	13	k2	_	_
13	दी	दे	VM	v	lex-दे|cat-v|gen-f|num-sg|pers-any|case-|vib-या|tam-yA|chunkId-VGF|chunkType-head|stype-declarative|voicetype-active	0	main	_	_
14	।	।	SYM	punc	lex-।|cat-punc|gen-|num-|pers-|case-|vib-|tam-|chunkId-BLK|chunkType-head|stype-|voicetype-	13	rsym	_	_

1	कांग्रेस	कांग्रेस	NNP	n	lex-कांग्रेस|cat-n|gen-f|num-sg|pers-3|case-d|vib-0|tam-0|chunkId-NP|chunkType-child|stype-|voicetype-	4	nmod__adj	_	_
2	अध्यक्ष	अध्यक्ष	NN	n	lex-अध्यक्ष|cat-n|gen-m|num-sg|pers-3|case-d|vib-0|tam-0|chunkId-NP|chunkType-child|stype-|voicetype-	4	nmod	_	_
3	सोनिया	सोनिया	NNPC	n	lex-सोनिया|cat-n|gen-f|num-sg|pers-3|case-d|vib-0|tam-0|chunkId-NP|chunkType-child|stype-|voicetype-	4	pof__cn	_	_
4	गांधी	गांधी	NNP	n	lex-गांधी|cat-n|gen-any|num-sg|pers-3|case-o|vib-0_ने|tam-0|chunkId-NP|chunkType-head|stype-|voicetype-	16	k1	_	_
5	ने	ने	PSP	psp	lex-ने|cat-psp|gen-|num-|pers-|case-|vib-|tam-|chunkId-NP|chunkType-child|stype-|voicetype-	4	lwg__psp	_	_
6	उनके	वह	PRP	pn	lex-वह|cat-pn|gen-m|num-sg|pers-3h|case-o|vib-का|tam-kA|chunkId-NP2|chunkType-head|stype-|voicetype-	7	r6	_	_
7	निधन	निधन	NN	n	lex-निधन|cat-n|gen-m|num-sg|pers-3|case-o|vib-0_पर|tam-0|chunkId-NP3|chunkType-head|stype-|voicetype-	11	k7	_	_
8	पर	पर	PSP	psp	lex-पर|cat-psp|gen-|num-|pers-|case-|vib-|tam-|chunkId-NP3|chunkType-child|stype-|voicetype-	7	lwg__psp	_	_
9	गहरा	गहरा	JJ	adj	lex-गहरा|cat-adj|gen-m|num-sg|pers-|case-d|vib-|tam-|chunkId-NP4|chunkType-child|stype-|voicetype-	10	nmod__adj	_	_
10	दुख	दुख	NN	n	lex-दुख|cat-n|gen-m|num-sg|pers-3|case-d|vib-0|tam-0|chunkId-NP4|chunkType-head|stype-|voicetype-	11	k2	_	_
11	जताते	जता	VM	v	lex-जता|cat-v|gen-m|num-sg|pers-any|case-|vib-ता_हो+या|tam-wA|chunkId-VGNF|chunkType-head|stype-|voicetype-	16	vmod	_	_
12	हुए	हो	VAUX	v	lex-हो|cat-v|gen-m|num-sg|pers-any|case-|vib-या|tam-yA|chunkId-VGNF|chunkType-child|stype-|voicetype-	11	lwg__vaux	_	_
13	उन्हें	वह	PRP	pn	lex-वह|cat-pn|gen-any|num-sg|pers-3h|case-o|vib-को|tam-ko|chunkId-NP5|chunkType-head|stype-|voicetype-	16	k2	_	_
14	महान	महान	JJ	adj	lex-महान|cat-adj|gen-any|num-any|pers-|case-d|vib-|tam-|chunkId-NP6|chunkType-child|stype-|voicetype-	15	nmod__adj	_	_
15	कलाकार	कलाकार	NN	n	lex-कलाकार|cat-n|gen-m|num-sg|pers-3|case-d|vib-0|tam-0|chunkId-NP6|chunkType-head|stype-|voicetype-	16	k2s	_	_
16	बताया	बता	VM	v	lex-बता|cat-v|gen-m|num-sg|pers-any|case-|vib-या|tam-yA|chunkId-VGF|chunkType-head|stype-declarative|voicetype-active	0	main	_	_
17	।	।	SYM	punc	lex-।|cat-punc|gen-|num-|pers-|case-|vib-|tam-|chunkId-BLK|chunkType-head|stype-|voicetype-	16	rsym	_	_

1	राजकुमार	राजकुमार	NNP	n	lex-राजकुमार|cat-n|gen-m|num-sg|pers-3|case-o|vib-0_का|tam-0|chunkId-NP|chunkType-head|stype-|voicetype-	3	r6	_	_
2	की	का	PSP	psp	lex-का|cat-psp|gen-f|num-sg|pers-|case-d|vib-|tam-|chunkId-NP|chunkType-child|stype-|voicetype-	1	lwg__psp	_	_
3	पत्नी	पत्नी	NN	n	lex-पत्नी|cat-n|gen-f|num-sg|pers-3|case-d|vib-0|tam-0|chunkId-NP2|chunkType-head|stype-|voicetype-	4	nmod	_	_
4	पर्वतम्मा	पर्वतम्मा	NNP	n	lex-पर्वतम्मा|cat-n|gen-f|num-sg|pers-3|case-o|vib-0_को|tam-0|chunkId-NP3|chunkType-head|stype-|voicetype-	6	k4	_	_
5	को	को	PSP	psp	lex-को|cat-psp|gen-|num-|pers-|case-|vib-|tam-|chunkId-NP3|chunkType-child|stype-|voicetype-	4	lwg__psp	_	_
6	लिखे	लिख	VM	v	lex-लिख|cat-v|gen-m|num-sg|pers-any|case-|vib-या|tam-yA|chunkId-VGNF|chunkType-head|stype-|voicetype-	7	nmod__k1inv	_	_
7	पत्र	पत्र	NN	n	lex-पत्र|cat-n|gen-m|num-sg|pers-3|case-o|vib-0_में|tam-0|chunkId-NP4|chunkType-head|stype-|voicetype-	11	k7	_	_
8	में	में	PSP	psp	lex-में|cat-psp|gen-|num-|pers-|case-|vib-|tam-|chunkId-NP4|chunkType-child|stype-|voicetype-	7	lwg__psp	_	_
9	सोनिया	सोनिया	NNP	n	lex-सोनिया|cat-n|gen-f|num-sg|pers-3|case-o|vib-0_ने|tam-0|chunkId-NP5|chunkType-head|stype-|voicetype-	11	k1	_	_
10	ने	ने	PSP	psp	lex-ने|cat-psp|gen-|num-|pers-|case-|vib-|tam-|chunkId-NP5|chunkType-child|stype-|voicetype-	9	lwg__psp	_	_
11	कहा	कह	VM	v	lex-कह|cat-v|gen-m|num-sg|pers-any|case-|vib-या|tam-yA|chunkId-VGF|chunkType-head|stype-declarative|voicetype-active	0	main	_	_
12	कि	कि	CC	avy	lex-कि|cat-avy|gen-|num-|pers-|case-|vib-|tam-|chunkId-CCP|chunkType-head|stype-|voicetype-	11	k2	_	_
13	उनके	वह	PRP	pn	lex-वह|cat-pn|gen-m|num-sg|pers-3h|case-o|vib-का|tam-kA|chunkId-NP6|chunkType-head|stype-|voicetype-	14	r6	_	_
14	निधन	निधन	NN	n	lex-निधन|cat-n|gen-m|num-sg|pers-3|case-o|vib-0_से|tam-0|chunkId-NP7|chunkType-head|stype-|voicetype-	20	rh	_	_
15	से	से	PSP	psp	lex-से|cat-psp|gen-|num-|pers-|case-|vib-|tam-|chunkId-NP7|chunkType-child|stype-|voicetype-	14	lwg__psp	_	_
16	न	न	NEG	avy	lex-न|cat-avy|gen-|num-|pers-|case-|vib-|tam-|chunkId-NEGP|chunkType-head|stype-|voicetype-	20	vmod	_	_
17	केवल	केवल	RP	avy	lex-केवल|cat-avy|gen-|num-|pers-|case-|vib-|tam-|chunkId-NEGP|chunkType-child|stype-|voicetype-	16	lwg__rp	_	_
18	कर्नाटक	कर्नाटक	NNP	n	lex-कर्नाटक|cat-n|gen-m|num-sg|pers-3|case-o|vib-0|tam-0|chunkId-NP8|chunkType-head|stype-|voicetype-	20	k1	_	_
19	,	COMMA	SYM	punc	lex-COMMA|cat-punc|gen-|num-|pers-|case-|vib-|tam-|chunkId-NP8|chunkType-child|stype-|voicetype-	18	rsym	_	_
20	NULL	_	VM	_	lex-_|cat-_|gen-|num-|pers-|case-|vib-|tam-|chunkId-NULL__VGF|chunkType-head|stype-|voicetype-	21	ccof	_	_
21	बल्कि	बल्कि	CC	avy	lex-बल्कि|cat-avy|gen-|num-|pers-|case-|vib-|tam-|chunkId-CCP2|chunkType-head|stype-|voicetype-	12	ccof	_	_
22	पूरे	पूरा	JJ	adj	lex-पूरा|cat-adj|gen-m|num-sg|pers-|case-o|vib-|tam-|chunkId-NP9|chunkType-child|stype-|voicetype-	23	nmod__adj	_	_
23	देश	देश	NN	n	lex-देश|cat-n|gen-m|num-sg|pers-3|case-o|vib-0_में|tam-0|chunkId-NP9|chunkType-head|stype-|voicetype-	27	k7	_	_
24	में	में	PSP	psp	lex-में|cat-psp|gen-|num-|pers-|case-|vib-|tam-|chunkId-NP9|chunkType-child|stype-|voicetype-	23	lwg__psp	_	_
25	लोग	लोग	NN	n	lex-लोग|cat-n|gen-m|num-pl|pers-3|case-d|vib-0|tam-0|chunkId-NP10|chunkType-head|stype-|voicetype-	27	k1	_	_
26	दुखी	दुखी	JJ	adj	lex-दुखी|cat-adj|gen-any|num-any|pers-|case-|vib-|tam-|chunkId-JJP|chunkType-head|stype-|voicetype-	27	k1s	_	_
27	हैं	है	VM	v	lex-है|cat-v|gen-any|num-pl|pers-3|case-|vib-है|tam-hE|chunkId-VGF2|chunkType-head|stype-declarative|voicetype-active	21	ccof	_	_
28	।	।	SYM	punc	lex-।|cat-punc|gen-|num-|pers-|case-|vib-|tam-|chunkId-BLK|chunkType-head|stype-|voicetype-	11	rsym	_	_

1	पुलिस	पुलिस	NN	n	lex-पुलिस|cat-n|gen-f|num-sg|pers-3|case-o|vib-0_ने|tam-0|chunkId-NP|chunkType-head|stype-|voicetype-	3	k1	_	_
2	ने	ने	PSP	psp	lex-ने|cat-psp|gen-|num-|pers-|case-|vib-|tam-|chunkId-NP|chunkType-child|stype-|voicetype-	1	lwg__psp	_	_
3	बताया	बता	VM	v	lex-बता|cat-v|gen-m|num-sg|pers-any|case-|vib-या|tam-yA|chunkId-VGF|chunkType-head|stype-declarative|voicetype-active	0	main	_	_
4	कि	कि	CC	avy	lex-कि|cat-avy|gen-|num-|pers-|case-|vib-|tam-|chunkId-CCP|chunkType-head|stype-|voicetype-	3	k2	_	_
5	सबसे	सबसे	INTF	avy	lex-सबसे|cat-avy|gen-|num-|pers-|case-|vib-|tam-|chunkId-NP2|chunkType-child|stype-|voicetype-	7	jjmod__intf	_	_
6	ज्यादा	ज्यादा	QF	avy	lex-ज्यादा|cat-avy|gen-|num-|pers-|case-|vib-|tam-|chunkId-NP2|chunkType-child|stype-|voicetype-	8	nmod__adj	_	_
7	खराब	खराब	JJ	adj	lex-खराब|cat-adj|gen-any|num-any|pers-|case-d|vib-|tam-|chunkId-NP2|chunkType-child|stype-|voicetype-	8	nmod__adj	_	_
8	स्थिति	स्थिति	NN	n	lex-स्थिति|cat-n|gen-f|num-sg|pers-3|case-d|vib-0|tam-0|chunkId-NP2|chunkType-head|stype-|voicetype-	12	k1	_	_
9	सिद्धलिंगैया	सिद्धलिंगैया	NNPC	n	lex-सिद्धलिंगैया|cat-n|gen-m|num-sg|pers-3|case-d|vib-0|tam-0|chunkId-NP3|chunkType-child|stype-|voicetype-	10	pof__cn	_	_
10	सर्किल	सर्किल	NNP	n	lex-सर्किल|cat-n|gen-m|num-sg|pers-3|case-o|vib-0_में|tam-0|chunkId-NP3|chunkType-head|stype-|voicetype-	12	k7p	_	_
11	में	में	PSP	psp	lex-में|cat-psp|gen-|num-|pers-|case-|vib-|tam-|chunkId-NP3|chunkType-child|stype-|voicetype-	10	lwg__psp	_	_
12	थी	था	VM	v	lex-था|cat-v|gen-f|num-sg|pers-any|case-|vib-था|tam-WA|chunkId-VGF2|chunkType-head|stype-declarative|voicetype-active	4	ccof	_	_
13	।	।	SYM	punc	lex-।|cat-punc|gen-|num-|pers-|case-|vib-|tam-|chunkId-BLK|chunkType-head|stype-|voicetype-	3	rsym	_	_

1	लाठीचार्ज	लाठीचार्ज	NN	n	lex-लाठीचार्ज|cat-n|gen-f|num-sg|pers-3|case-d|vib-0|tam-0|chunkId-NP|chunkType-head|stype-|voicetype-	2	ccof	_	_
2	और	और	CC	avy	lex-और|cat-avy|gen-|num-|pers-|case-|vib-|tam-|chunkId-CCP|chunkType-head|stype-|voicetype-	7	k2	_	_
3	आंसू	आँसू	NNC	n	lex-आँसू|cat-n|gen-m|num-sg|pers-3|case-d|vib-0|tam-0|chunkId-NP2|chunkType-child|stype-|voicetype-	4	pof__cn	_	_
4	गैस	गैस	NN	n	lex-गैस|cat-n|gen-f|num-sg|pers-3|case-o|vib-0_का|tam-0|chunkId-NP2|chunkType-head|stype-|voicetype-	6	r6	_	_
5	के	का	PSP	psp	lex-का|cat-psp|gen-m|num-pl|pers-|case-d|vib-|tam-|chunkId-NP2|chunkType-child|stype-|voicetype-	4	lwg__psp	_	_
6	गोले	गोला	NN	n	lex-गोला|cat-n|gen-m|num-pl|pers-3|case-d|vib-0|tam-0|chunkId-NP3|chunkType-head|stype-|voicetype-	2	ccof	_	_
7	छोड़ने	छोड़	VM	v	lex-छोड़|cat-v|gen-any|num-any|pers-any|case-o|vib-ना_के_बावजूद|tam-nA|chunkId-VGNN|chunkType-head|stype-|voicetype-	15	vmod	_	_
8	के	के	PSP	psp	lex-के|cat-psp|gen-|num-|pers-|case-|vib-|tam-|chunkId-VGNN|chunkType-child|stype-|voicetype-	7	lwg__psp	_	_
9	बावजूद	बावजूद	PSP	psp	lex-बावजूद|cat-psp|gen-|num-|pers-|case-|vib-|tam-|chunkId-VGNN|chunkType-child|stype-|voicetype-	7	lwg__psp	_	_
10	जब	जब	PRP	pn	lex-जब|cat-pn|gen-|num-|pers-|case-|vib-|tam-|chunkId-NP4|chunkType-head|stype-|voicetype-	15	k7t	_	_
11	स्थिति	स्थिति	NN	n	lex-स्थिति|cat-n|gen-f|num-sg|pers-3|case-o|vib-0|tam-0|chunkId-NP5|chunkType-head|stype-|voicetype-	15	k1	_	_
12	नियंत्रण	नियंत्रण	NN	n	lex-नियंत्रण|cat-n|gen-m|num-sg|pers-3|case-o|vib-0_में|tam-0|chunkId-NP6|chunkType-head|stype-|voicetype-	15	k7	_	_
13	में	में	PSP	psp	lex-में|cat-psp|gen-|num-|pers-|case-|vib-|tam-|chunkId-NP6|chunkType-child|stype-|voicetype-	12	lwg__psp	_	_
14	नहीं	नहीं	NEG	avy	lex-नहीं|cat-avy|gen-|num-|pers-|case-|vib-|tam-|chunkId-VGF|chunkType-child|stype-|voicetype-	15	lwg__neg	_	_
15	आई	आ	VM	v	lex-आ|cat-v|gen-f|num-sg|pers-any|case-|vib-या|tam-yA|chunkId-VGF|chunkType-head|stype-declarative|voicetype-active	16	nmod__relc	_	_
16	तो	तो	PRP	pn	lex-तो|cat-pn|gen-|num-|pers-|case-|vib-|tam-|chunkId-NP7|chunkType-head|stype-|voicetype-	20	k7t	_	_
17	पुलिस	पुलिस	NN	n	lex-पुलिस|cat-n|gen-f|num-sg|pers-3|case-o|vib-0_को|tam-0|chunkId-NP8|chunkType-head|stype-|voicetype-	20	k2	_	_
18	को	को	PSP	psp	lex-को|cat-psp|gen-|num-|pers-|case-|vib-|tam-|chunkId-NP8|chunkType-child|stype-|voicetype-	17	lwg__psp	_	_
19	फायरिंग	फायरिंग	NN	n	lex-फायरिंग|cat-n|gen-f|num-sg|pers-3|case-d|vib-0|tam-0|chunkId-NP9|chunkType-head|stype-|voicetype-	20	pof	_	_
20	करनी	कर	VM	v	lex-कर|cat-v|gen-f|num-sg|pers-any|case-|vib-ना_पड़+या|tam-nA|chunkId-VGF2|chunkType-head|stype-declarative|voicetype-active	0	main	_	_
21	पड़ी	पड़	VAUX	v	lex-पड़|cat-v|gen-f|num-sg|pers-any|case-|vib-या|tam-yA|chunkId-VGF2|chunkType-child|stype-|voicetype-	20	lwg__vaux	_	_
22	,	COMMA	SYM	punc	lex-COMMA|cat-punc|gen-|num-|pers-|case-|vib-|tam-|chunkId-VGF2|chunkType-child|stype-|voicetype-	20	rsym	_	_
23	जिसमें	जो	PRP	pn	lex-जो|cat-pn|gen-any|num-sg|pers-3|case-o|vib-में|tam-meM|chunkId-NP10|chunkType-head|stype-|voicetype-	28	k7	_	_
24	एक	एक	QC	num	lex-एक|cat-num|gen-any|num-any|pers-|case-any|vib-|tam-|chunkId-NP11|chunkType-child|stype-|voicetype-	25	nmod__adj	_	_
25	व्यक्ति	व्यक्ति	NN	n	lex-व्यक्ति|cat-n|gen-m|num-sg|pers-3|case-o|vib-0_का|tam-0|chunkId-NP11|chunkType-head|stype-|voicetype-	27	r6-k1	_	_
26	की	का	PSP	psp	lex-का|cat-psp|gen-f|num-sg|pers-|case-d|vib-|tam-|chunkId-NP11|chunkType-child|stype-|voicetype-	25	lwg__psp	_	_
27	मौत	मौत	NN	n	lex-मौत|cat-n|gen-f|num-sg|pers-3|case-d|vib-0|tam-0|chunkId-NP12|chunkType-head|stype-|voicetype-	28	pof	_	_
28	हो	हो	VM	v	lex-हो|cat-v|gen-any|num-sg|pers-any|case-|vib-0_जा+या१|tam-0|chunkId-VGF3|chunkType-head|stype-declarative|voicetype-active	19	nmod__relc	_	_
29	गई	जा	VAUX	v	lex-जा|cat-v|gen-f|num-sg|pers-any|case-|vib-या१|tam-yA1|chunkId-VGF3|chunkType-child|stype-|voicetype-	28	lwg__vaux	_	_
30	।	।	SYM	punc	lex-।|cat-punc|gen-|num-|pers-|case-|vib-|tam-|chunkId-BLK|chunkType-head|stype-|voicetype-	20	rsym	_	_

1	जबकि	जबकि	CC	avy	lex-जबकि|cat-avy|gen-|num-|pers-|case-|vib-|tam-|chunkId-CCP|chunkType-head|stype-|voicetype-	0	main	_	_
2	एक	एक	QC	num	lex-एक|cat-num|gen-any|num-any|pers-|case-any|vib-|tam-|chunkId-NP|chunkType-child|stype-|voicetype-	4	nmod__adj	_	_
3	अन्य	अन्य	JJ	adj	lex-अन्य|cat-adj|gen-any|num-any|pers-|case-d|vib-|tam-|chunkId-NP|chunkType-child|stype-|voicetype-	4	nmod__adj	_	_
4	व्यक्ति	व्यक्ति	NN	n	lex-व्यक्ति|cat-n|gen-m|num-sg|pers-3|case-d|vib-0|tam-0|chunkId-NP|chunkType-head|stype-|voicetype-	13	k1	_	_
5	अंतिम	अंतिम	NNC	adj	lex-अंतिम|cat-adj|gen-any|num-any|pers-|case-o|vib-|tam-|chunkId-NP2|chunkType-child|stype-|voicetype-	7	pof__cn	_	_
6	संस्कार	संस्कार	NNC	n	lex-संस्कार|cat-n|gen-m|num-sg|pers-3|case-d|vib-0|tam-0|chunkId-NP2|chunkType-child|stype-|voicetype-	7	pof__cn	_	_
7	स्थल	स्थल	NN	n	lex-स्थल|cat-n|gen-m|num-sg|pers-3|case-o|vib-0_के_बाहर|tam-0|chunkId-NP2|chunkType-head|stype-|voicetype-	10	k7p	_	_
8	के	के	PSP	psp	lex-के|cat-psp|gen-|num-|pers-|case-|vib-|tam-|chunkId-NP2|chunkType-child|stype-|voicetype-	7	lwg__psp	_	_
9	बाहर	बाहर	NST	nst	lex-बाहर|cat-nst|gen-m|num-sg|pers-3|case-d|vib-|tam-|chunkId-NP2|chunkType-child|stype-|voicetype-	7	lwg__psp	_	_
10	हुई	हो	VM	v	lex-हो|cat-v|gen-f|num-sg|pers-any|case-|vib-या|tam-yA|chunkId-VGNF|chunkType-head|stype-|voicetype-	11	nmod__k1inv	_	_
11	फायरिंग	फायरिंग	NN	n	lex-फायरिंग|cat-n|gen-f|num-sg|pers-3|case-o|vib-0_में|tam-0|chunkId-NP3|chunkType-head|stype-|voicetype-	13	k7	_	_
12	में	में	PSP	psp	lex-में|cat-psp|gen-|num-|pers-|case-|vib-|tam-|chunkId-NP3|chunkType-child|stype-|voicetype-	11	lwg__psp	_	_
13	मारा	मार	VM	v	lex-मार|cat-v|gen-m|num-sg|pers-any|case-|vib-या_जा+या१|tam-yA|chunkId-VGF|chunkType-head|stype-declarative|voicetype-passive	1	ccof	_	_
14	गया	जा	VAUX	v	lex-जा|cat-v|gen-m|num-sg|pers-any|case-|vib-या१|tam-yA1|chunkId-VGF|chunkType-child|stype-|voicetype-	13	lwg__vaux	_	_
15	।	।	SYM	punc	lex-।|cat-punc|gen-|num-|pers-|case-|vib-|tam-|chunkId-BLK|chunkType-head|stype-|voicetype-	1	rsym	_	_

1	तीसरे	तीसरा	QO	num	lex-तीसरा|cat-num|gen-m|num-sg|pers-|case-o|vib-|tam-|chunkId-NP|chunkType-child|stype-|voicetype-	2	nmod__adj	_	_
2	व्यक्ति	व्यक्ति	NN	n	lex-व्यक्ति|cat-n|gen-m|num-sg|pers-3|case-o|vib-0_के_बारे_में|tam-0|chunkId-NP|chunkType-head|stype-|voicetype-	9	k7	_	_
3	के	के	PSP	psp	lex-के|cat-psp|gen-|num-|pers-|case-|vib-|tam-|chunkId-NP|chunkType-child|stype-|voicetype-	2	lwg__psp	_	_
4	बारे	बारे	PSP	psp	lex-बारे|cat-psp|gen-|num-|pers-|case-|vib-|tam-|chunkId-NP|chunkType-child|stype-|voicetype-	2	lwg__psp	_	_
5	में	में	PSP	psp	lex-में|cat-psp|gen-|num-|pers-|case-|vib-|tam-|chunkId-NP|chunkType-child|stype-|voicetype-	2	lwg__psp	_	_
6	यह	यह	PRP	pn	lex-यह|cat-pn|gen-any|num-sg|pers-3|case-d|vib-0|tam-0|chunkId-NP2|chunkType-head|stype-|voicetype-	9	k1	_	_
7	पता	पता	NN	n	lex-पता|cat-n|gen-any|num-sg|pers-3|case-d|vib-0|tam-0|chunkId-NP3|chunkType-head|stype-|voicetype-	9	k1s	_	_
8	नहीं	नहीं	NEG	avy	lex-नहीं|cat-avy|gen-|num-|pers-|case-|vib-|tam-|chunkId-VGF|chunkType-child|stype-|voicetype-	9	lwg__neg	_	_
9	चल	चल	VM	v	lex-चल|cat-v|gen-m|num-sg|pers-3|case-|vib-0_सक+या_है|tam-0|chunkId-VGF|chunkType-head|stype-declarative|voicetype-active	0	main	_	_
10	सका	सक	VAUX	v	lex-सक|cat-v|gen-m|num-sg|pers-any|case-|vib-या|tam-yA|chunkId-VGF|chunkType-child|stype-|voicetype-	9	lwg__vaux	_	_
11	है	है	VAUX	v	lex-है|cat-v|gen-any|num-sg|pers-3|case-|vib-है|tam-hE|chunkId-VGF|chunkType-child|stype-|voicetype-	9	lwg__vaux	_	_
12	कि	कि	CC	avy	lex-कि|cat-avy|gen-|num-|pers-|case-|vib-|tam-|chunkId-CCP|chunkType-head|stype-|voicetype-	6	rs	_	_
13	वह	वह	PRP	pn	lex-वह|cat-pn|gen-any|num-sg|pers-3|case-d|vib-0|tam-0|chunkId-NP4|chunkType-head|stype-|voicetype-	21	k1	_	_
14	फायरिंग	फायरिंग	NN	n	lex-फायरिंग|cat-n|gen-f|num-sg|pers-3|case-o|vib-0_में|tam-0|chunkId-NP5|chunkType-head|stype-|voicetype-	16	ccof	_	_
15	में	में	PSP	psp	lex-में|cat-psp|gen-|num-|pers-|case-|vib-|tam-|chunkId-NP5|chunkType-child|stype-|voicetype-	14	lwg__psp	_	_
16	या	या	CC	avy	lex-या|cat-avy|gen-|num-|pers-|case-|vib-|tam-|chunkId-CCP2|chunkType-head|stype-|voicetype-	21	k7	_	_
17	भीड़	भीड़	NN	n	lex-भीड़|cat-n|gen-f|num-sg|pers-3|case-o|vib-0_का|tam-0|chunkId-NP6|chunkType-head|stype-|voicetype-	19	r6	_	_
18	की	का	PSP	psp	lex-का|cat-psp|gen-f|num-sg|pers-|case-o|vib-|tam-|chunkId-NP6|chunkType-child|stype-|voicetype-	17	lwg__psp	_	_
19	हिंसा	हिंसा	NN	n	lex-हिंसा|cat-n|gen-f|num-sg|pers-3|case-o|vib-0_में|tam-0|chunkId-NP7|chunkType-head|stype-|voicetype-	16	ccof	_	_
20	में	में	PSP	psp	lex-में|cat-psp|gen-|num-|pers-|case-|vib-|tam-|chunkId-NP7|chunkType-child|stype-|voicetype-	19	lwg__psp	_	_
21	मारा	मार	VM	v	lex-मार|cat-v|gen-m|num-sg|pers-any|case-|vib-या_जा+या१|tam-yA|chunkId-VGF2|chunkType-head|stype-declarative|voicetype-passive	12	ccof	_	_
22	गया	जा	VAUX	v	lex-जा|cat-v|gen-m|num-sg|pers-any|case-|vib-या१|tam-yA1|chunkId-VGF2|chunkType-child|stype-|voicetype-	21	lwg__vaux	_	_
23	।	।	SYM	punc	lex-।|cat-punc|gen-|num-|pers-|case-|vib-|tam-|chunkId-BLK|chunkType-head|stype-|voicetype-	9	rsym	_	_

1	भड़के	भड़क	VM	v	lex-भड़क|cat-v|gen-m|num-pl|pers-3|case-|vib-या|tam-yA|chunkId-VGNF|chunkType-head|stype-|voicetype-	2	nmod__k1inv	_	_
2	प्रशंसकों	प्रशंसक	NN	n	lex-प्रशंसक|cat-n|gen-m|num-pl|pers-3|case-o|vib-0_ने|tam-0|chunkId-NP|chunkType-head|stype-|voicetype-	7	k1	_	_
3	ने	ने	PSP	psp	lex-ने|cat-psp|gen-|num-|pers-|case-|vib-|tam-|chunkId-NP|chunkType-child|stype-|voicetype-	2	lwg__psp	_	_
4	दो	दो	QC	num	lex-दो|cat-num|gen-any|num-any|pers-|case-any|vib-|tam-|chunkId-NP2|chunkType-child|stype-|voicetype-	6	nmod__adj	_	_
5	सरकारी	सरकारी	JJ	adj	lex-सरकारी|cat-adj|gen-any|num-any|pers-|case-d|vib-|tam-|chunkId-NP2|chunkType-child|stype-|voicetype-	6	nmod__adj	_	_
6	बसे	बस	NN	n	lex-बस|cat-n|gen-f|num-pl|pers-3|case-d|vib-0|tam-0|chunkId-NP2|chunkType-head|stype-|voicetype-	7	k2	_	_
7	फूंक	फूंक	VM	v	lex-फूंक|cat-v|gen-any|num-pl|pers-any|case-|vib-0_दे+या|tam-0|chunkId-VGF|chunkType-head|stype-declarative|voicetype-active	9	ccof	_	_
8	दीं	दे	VAUX	v	lex-दे|cat-v|gen-f|num-pl|pers-any|case-|vib-या|tam-yA|chunkId-VGF|chunkType-child|stype-|voicetype-	7	lwg__vaux	_	_
9	और	और	CC	avy	lex-और|cat-avy|gen-|num-|pers-|case-|vib-|tam-|chunkId-CCP|chunkType-head|stype-|voicetype-	0	main	_	_
10	कई	कई	QF	avy	lex-कई|cat-avy|gen-|num-|pers-|case-|vib-|tam-|chunkId-NP3|chunkType-child|stype-|voicetype-	11	nmod__adj	_	_
11	वाहनों	वाहन	NN	n	lex-वाहन|cat-n|gen-m|num-pl|pers-3|case-o|vib-0_को|tam-0|chunkId-NP3|chunkType-head|stype-|voicetype-	14	k4a	_	_
12	को	को	PSP	psp	lex-को|cat-psp|gen-|num-|pers-|case-|vib-|tam-|chunkId-NP3|chunkType-child|stype-|voicetype-	11	lwg__psp	_	_
13	नुकसान	नुकसान	NN	n	lex-नुकसान|cat-n|gen-m|num-sg|pers-3|case-d|vib-0|tam-0|chunkId-NP4|chunkType-head|stype-|voicetype-	14	pof	_	_
14	पहुंचाया	पहुंचा	VM	v	lex-पहुंचा|cat-v|gen-m|num-sg|pers-3|case-|vib-या|tam-yA|chunkId-VGF2|chunkType-head|stype-declarative|voicetype-active	9	ccof	_	_
15	।	।	SYM	punc	lex-।|cat-punc|gen-|num-|pers-|case-|vib-|tam-|chunkId-BLK|chunkType-head|stype-|voicetype-	9	rsym	_	_

1	उन्होंने	वह	PRP	pn	lex-वह|cat-pn|gen-any|num-pl|pers-3|case-o|vib-ने|tam-ne|chunkId-NP|chunkType-head|stype-|voicetype-	14	k1	_	_
2	स्टेडियम	स्टेडियम	NN	n	lex-स्टेडियम|cat-n|gen-m|num-sg|pers-3|case-o|vib-0_के|tam-0|chunkId-NP2|chunkType-head|stype-|voicetype-	4	r6	_	_
3	के	के	PSP	psp	lex-के|cat-psp|gen-|num-|pers-|case-|vib-|tam-|chunkId-NP2|chunkType-child|stype-|voicetype-	2	lwg__psp	_	_
4	अंदर	अंदर	NST	nst	lex-अंदर|cat-nst|gen-m|num-sg|pers-3|case-d|vib-|tam-|chunkId-NP3|chunkType-head|stype-|voicetype-	5	ccof	_	_
5	और	और	CC	avy	lex-और|cat-avy|gen-|num-|pers-|case-|vib-|tam-|chunkId-CCP|chunkType-head|stype-|voicetype-	7	jjmod	_	_
6	बाहर	बाहर	NST	nst	lex-बाहर|cat-nst|gen-m|num-sg|pers-3|case-d|vib-|tam-|chunkId-NP4|chunkType-head|stype-|voicetype-	5	ccof	_	_
7	तैनात	तैनात	JJ	adj	lex-तैनात|cat-adj|gen-any|num-any|pers-|case-o|vib-|tam-|chunkId-JJP|chunkType-head|stype-|voicetype-	8	nmod	_	_
8	पुलिस	पुलिस	NN	n	lex-पुलिस|cat-n|gen-f|num-sg|pers-3|case-o|vib-0_का|tam-0|chunkId-NP5|chunkType-head|stype-|voicetype-	10	r6	_	_
9	के	का	PSP	psp	lex-का|cat-psp|gen-m|num-pl|pers-|case-o|vib-|tam-|chunkId-NP5|chunkType-child|stype-|voicetype-	8	lwg__psp	_	_
10	जवानों	जवान	NN	n	lex-जवान|cat-n|gen-m|num-pl|pers-3|case-o|vib-0_पर|tam-0|chunkId-NP6|chunkType-head|stype-|voicetype-	14	k7	_	_
11	पर	पर	PSP	psp	lex-पर|cat-psp|gen-|num-|pers-|case-|vib-|tam-|chunkId-NP6|chunkType-child|stype-|voicetype-	10	lwg__psp	_	_
12	भी	भी	RP	avy	lex-भी|cat-avy|gen-|num-|pers-|case-|vib-|tam-|chunkId-NP6|chunkType-child|stype-|voicetype-	10	lwg__rp	_	_
13	पथराव	पथराव	NN	n	lex-पथराव|cat-n|gen-m|num-sg|pers-3|case-d|vib-0|tam-0|chunkId-NP7|chunkType-head|stype-|voicetype-	14	pof	_	_
14	किया	कर	VM	v	lex-कर|cat-v|gen-m|num-sg|pers-any|case-|vib-या|tam-yA|chunkId-VGF|chunkType-head|stype-declarative|voicetype-active	0	main	_	_
15	।	।	SYM	punc	lex-।|cat-punc|gen-|num-|pers-|case-|vib-|tam-|chunkId-BLK|chunkType-head|stype-|voicetype-	14	rsym	_	_

1	कांतिरवा	कांतिरवा	NNPC	n	lex-कांतिरवा|cat-n|gen-m|num-sg|pers-3|case-d|vib-0|tam-0|chunkId-NP|chunkType-child|stype-|voicetype-	2	pof__cn	_	_
2	स्टूडियो	स्टूडियो	NNP	n	lex-स्टूडियो|cat-n|gen-m|num-sg|pers-3|case-o|vib-0_में|tam-0|chunkId-NP|chunkType-head|stype-|voicetype-	8	k7p	_	_
3	में	में	PSP	psp	lex-में|cat-psp|gen-|num-|pers-|case-|vib-|tam-|chunkId-NP|chunkType-child|stype-|voicetype-	2	lwg__psp	_	_
4	राजकुमार	राजकुमार	NNP	n	lex-राजकुमार|cat-n|gen-m|num-sg|pers-3|case-o|vib-0_का|tam-0|chunkId-NP2|chunkType-head|stype-|voicetype-	7	r6-k2	_	_
5	का	का	PSP	psp	lex-का|cat-psp|gen-m|num-sg|pers-|case-d|vib-|tam-|chunkId-NP2|chunkType-child|stype-|voicetype-	4	lwg__psp	_	_
6	अंतिम	अंतिम	NNC	adj	lex-अंतिम|cat-adj|gen-any|num-any|pers-|case-d|vib-|tam-|chunkId-NP3|chunkType-child|stype-|voicetype-	7	pof__cn	_	_
7	संस्कार	संस्कार	NN	n	lex-संस्कार|cat-n|gen-m|num-sg|pers-3|case-d|vib-0|tam-0|chunkId-NP3|chunkType-head|stype-|voicetype-	8	pof	_	_
8	किए	कर	VM	v	lex-कर|cat-v|gen-m|num-sg|pers-3|case-|vib-या_जा+ना_से_पहले|tam-yA|chunkId-VGNN|chunkType-head|stype-|voicetype-	14	k7t	_	_
9	जाने	जा	VAUX	v	lex-जा|cat-v|gen-any|num-any|pers-any|case-o|vib-ना|tam-nA|chunkId-VGNN|chunkType-child|stype-|voicetype-	8	lwg__vaux	_	_
10	से	से	PSP	psp	lex-से|cat-psp|gen-|num-|pers-|case-|vib-|tam-|chunkId-VGNN|chunkType-child|stype-|voicetype-	8	lwg__psp	_	_
11	पहले	पहले	NST	nst	lex-पहले|cat-nst|gen-m|num-sg|pers-3|case-d|vib-|tam-|chunkId-VGNN|chunkType-child|stype-|voicetype-	8	lwg__nst	_	_
12	वहां	वहाँ	PRP	pn	lex-वहाँ|cat-pn|gen-|num-|pers-|case-o|vib-0_पर|tam-|chunkId-NP4|chunkType-head|stype-|voicetype-	14	k7p	_	_
13	पर	पर	PSP	psp	lex-पर|cat-psp|gen-|num-|pers-|case-|vib-|tam-|chunkId-NP4|chunkType-child|stype-|voicetype-	12	lwg__psp	_	_
14	जुटे	जुट	VM	v	lex-जुट|cat-v|gen-m|num-pl|pers-any|case-|vib-या|tam-yA|chunkId-VGNF|chunkType-head|stype-|voicetype-	15	nmod__k1inv	_	_
15	प्रशंसकों	प्रशंसक	NN	n	lex-प्रशंसक|cat-n|gen-m|num-pl|pers-3|case-o|vib-0_को|tam-0|chunkId-NP5|chunkType-head|stype-|voicetype-	20	k2	_	_
16	को	को	PSP	psp	lex-को|cat-psp|gen-|num-|pers-|case-|vib-|tam-|chunkId-NP5|chunkType-child|stype-|voicetype-	15	lwg__psp	_	_
17	तितर	तितर	JJC	adj	lex-तितर|cat-adj|gen-any|num-any|pers-|case-|vib-|tam-|chunkId-JJP|chunkType-child|stype-|voicetype-	19	mod	_	_
18	-	-	SYM	punc	lex--|cat-punc|gen-|num-|pers-|case-|vib-|tam-|chunkId-JJP|chunkType-child|stype-|voicetype-	19	rsym	_	_
19	बितर	बितर	JJ	adj	lex-बितर|cat-adj|gen-any|num-any|pers-|case-|vib-|tam-|chunkId-JJP|chunkType-head|stype-|voicetype-	20	pof	_	_
20	करने	कर	VM	v	lex-कर|cat-v|gen-any|num-any|pers-any|case-o|vib-ना_के_लिए|tam-nA|chunkId-VGNN2|chunkType-head|stype-|voicetype-	31	rt	_	_
21	के	के	PSP	psp	lex-के|cat-psp|gen-|num-|pers-|case-|vib-|tam-|chunkId-VGNN2|chunkType-child|stype-|voicetype-	20	lwg__psp	_	_
22	लिए	लिए	PSP	psp	lex-लिए|cat-psp|gen-|num-|pers-|case-|vib-|tam-|chunkId-VGNN2|chunkType-child|stype-|voicetype-	20	lwg__psp	_	_
23	पुलिस	पुलिस	NN	n	lex-पुलिस|cat-n|gen-f|num-sg|pers-3|case-o|vib-0_को|tam-0|chunkId-NP6|chunkType-head|stype-|voicetype-	31	k1	_	_
24	को	को	PSP	psp	lex-को|cat-psp|gen-|num-|pers-|case-|vib-|tam-|chunkId-NP6|chunkType-child|stype-|voicetype-	23	lwg__psp	_	_
25	कई	कई	QF	avy	lex-कई|cat-avy|gen-|num-|pers-|case-|vib-|tam-|chunkId-NP7|chunkType-child|stype-|voicetype-	26	nmod__adj	_	_
26	राउंड	राउंड	NN	n	lex-राउंड|cat-n|gen-m|num-pl|pers-3|case-d|vib-0|tam-0|chunkId-NP7|chunkType-head|stype-|voicetype-	31	k2	_	_
27	आंसू	आँसू	NNC	n	lex-आँसू|cat-n|gen-m|num-sg|pers-3|case-d|vib-0|tam-0|chunkId-NP8|chunkType-child|stype-|voicetype-	28	pof__cn	_	_
28	गैस	गैस	NN	n	lex-गैस|cat-n|gen-f|num-sg|pers-3|case-o|vib-0_का|tam-0|chunkId-NP8|chunkType-head|stype-|voicetype-	30	r6	_	_
29	के	का	PSP	psp	lex-का|cat-psp|gen-m|num-pl|pers-|case-d|vib-|tam-|chunkId-NP8|chunkType-child|stype-|voicetype-	28	lwg__psp	_	_
30	गोले	गोला	NN	n	lex-गोला|cat-n|gen-m|num-pl|pers-3|case-d|vib-0|tam-0|chunkId-NP9|chunkType-head|stype-|voicetype-	31	k2s	_	_
31	दागने	दाग	VM	v	lex-दाग|cat-v|gen-m|num-pl|pers-any|case-|vib-ना_पड़+या|tam-nA|chunkId-VGF|chunkType-head|stype-declarative|voicetype-active	0	main	_	_
32	पड़े	पड़	VAUX	v	lex-पड़|cat-v|gen-m|num-pl|pers-any|case-|vib-या|tam-yA|chunkId-VGF|chunkType-child|stype-|voicetype-	31	lwg__vaux	_	_
33	।	।	SYM	punc	lex-।|cat-punc|gen-|num-|pers-|case-|vib-|tam-|chunkId-BLK|chunkType-head|stype-|voicetype-	31	rsym	_	_

1	स्टूडियो	स्टूडियो	NN	n	lex-स्टूडियो|cat-n|gen-m|num-sg|pers-3|case-o|vib-0_में|tam-0|chunkId-NP|chunkType-head|stype-|voicetype-	3	k7p	_	_
2	में	में	PSP	psp	lex-में|cat-psp|gen-|num-|pers-|case-|vib-|tam-|chunkId-NP|chunkType-child|stype-|voicetype-	1	lwg__psp	_	_
3	घुसने	घुस	VM	v	lex-घुस|cat-v|gen-any|num-any|pers-any|case-o|vib-ना_के_लिए|tam-nA|chunkId-VGNN|chunkType-head|stype-|voicetype-	6	jjmod	_	_
4	के	के	PSP	psp	lex-के|cat-psp|gen-|num-|pers-|case-|vib-|tam-|chunkId-VGNN|chunkType-child|stype-|voicetype-	3	lwg__psp	_	_
5	लिए	लिए	PSP	psp	lex-लिए|cat-psp|gen-|num-|pers-|case-|vib-|tam-|chunkId-VGNN|chunkType-child|stype-|voicetype-	3	lwg__psp	_	_
6	बेताब	बेताब	JJ	adj	lex-बेताब|cat-adj|gen-any|num-any|pers-|case-o|vib-|tam-|chunkId-JJP|chunkType-head|stype-|voicetype-	8	nmod	_	_
7	सैकड़ों	सैकडा	QC	num	lex-सैकडा|cat-num|gen-any|num-pl|pers-|case-any|vib-|tam-|chunkId-NP2|chunkType-child|stype-|voicetype-	8	nmod__adj	_	_
8	प्रशंसकों	प्रशंसक	NN	n	lex-प्रशंसक|cat-n|gen-m|num-pl|pers-3|case-o|vib-0_ने|tam-0|chunkId-NP2|chunkType-head|stype-|voicetype-	13	k1	_	_
9	ने	ने	PSP	psp	lex-ने|cat-psp|gen-|num-|pers-|case-|vib-|tam-|chunkId-NP2|chunkType-child|stype-|voicetype-	8	lwg__psp	_	_
10	पुलिस	पुलिस	NN	n	lex-पुलिस|cat-n|gen-f|num-sg|pers-3|case-o|vib-0_से|tam-0|chunkId-NP3|chunkType-head|stype-|voicetype-	13	k2	_	_
11	से	से	PSP	psp	lex-से|cat-psp|gen-|num-|pers-|case-|vib-|tam-|chunkId-NP3|chunkType-child|stype-|voicetype-	10	lwg__psp	_	_
12	धक्कामुक्की	धक्कामुक्की	NN	n	lex-धक्कामुक्की|cat-n|gen-f|num-sg|pers-3|case-d|vib-0|tam-0|chunkId-NP4|chunkType-head|stype-|voicetype-	13	pof	_	_
13	की	कर	VM	v	lex-कर|cat-v|gen-f|num-sg|pers-any|case-|vib-या|tam-yA|chunkId-VGF|chunkType-head|stype-declarative|voicetype-active	14	ccof	_	_
14	और	और	CC	avy	lex-और|cat-avy|gen-|num-|pers-|case-|vib-|tam-|chunkId-CCP|chunkType-head|stype-|voicetype-	0	main	_	_
15	उसके	वह	PRP	pn	lex-वह|cat-pn|gen-m|num-sg|pers-3|case-o|vib-0_बाद|tam-ke|chunkId-NP5|chunkType-head|stype-|voicetype-	19	k7t	_	_
16	बाद	बाद	NST	nst	lex-बाद|cat-nst|gen-m|num-sg|pers-3|case-d|vib-|tam-|chunkId-NP5|chunkType-child|stype-|voicetype-	15	lwg__psp	_	_
17	पथराव	पथराव	NN	n	lex-पथराव|cat-n|gen-m|num-sg|pers-3|case-d|vib-0|tam-0|chunkId-NP6|chunkType-head|stype-|voicetype-	19	k2	_	_
18	शुरू	शुरू	NN	n	lex-शुरू|cat-n|gen-m|num-sg|pers-3|case-d|vib-0|tam-0|chunkId-NP7|chunkType-head|stype-|voicetype-	19	pof	_	_
19	कर	कर	VM	v	lex-कर|cat-v|gen-any|num-sg|pers-any|case-|vib-0_दे+या|tam-0|chunkId-VGF2|chunkType-head|stype-declarative|voicetype-active	14	ccof	_	_
20	दिया	दे	VAUX	v	lex-दे|cat-v|gen-m|num-sg|pers-any|case-|vib-या|tam-yA|chunkId-VGF2|chunkType-child|stype-|voicetype-	19	lwg__vaux	_	_
21	।	।	SYM	punc	lex-।|cat-punc|gen-|num-|pers-|case-|vib-|tam-|chunkId-BLK|chunkType-head|stype-|voicetype-	14	rsym	_	_

1	हालात	हालात	NN	n	lex-हालात|cat-n|gen-m|num-pl|pers-3|case-o|vib-0_पर|tam-0|chunkId-NP|chunkType-head|stype-|voicetype-	4	k7	_	_
2	पर	पर	PSP	psp	lex-पर|cat-psp|gen-|num-|pers-|case-|vib-|tam-|chunkId-NP|chunkType-child|stype-|voicetype-	1	lwg__psp	_	_
3	काबू	काबू	NN	n	lex-काबू|cat-n|gen-m|num-sg|pers-3|case-d|vib-0|tam-0|chunkId-NP2|chunkType-head|stype-|voicetype-	4	pof	_	_
4	पाने	पा	VM	v	lex-पा|cat-v|gen-any|num-any|pers-any|case-o|vib-ना_के_लिए|tam-nA|chunkId-VGNN|chunkType-head|stype-|voicetype-	14	r6	_	_
5	के	के	PSP	psp	lex-के|cat-psp|gen-|num-|pers-|case-|vib-|tam-|chunkId-VGNN|chunkType-child|stype-|voicetype-	4	lwg__psp	_	_
6	लिए	लिए	PSP	psp	lex-लिए|cat-psp|gen-|num-|pers-|case-|vib-|tam-|chunkId-VGNN|chunkType-child|stype-|voicetype-	4	lwg__psp	_	_
7	पुलिस	पुलिस	NN	n	lex-पुलिस|cat-n|gen-f|num-sg|pers-3|case-o|vib-0_ने|tam-0|chunkId-NP3|chunkType-head|stype-|voicetype-	14	k1	_	_
8	ने	ने	PSP	psp	lex-ने|cat-psp|gen-|num-|pers-|case-|vib-|tam-|chunkId-NP3|chunkType-child|stype-|voicetype-	7	lwg__psp	_	_
9	पहले	पहले	NST	nst	lex-पहले|cat-nst|gen-m|num-sg|pers-3|case-d|vib-|tam-|chunkId-NP4|chunkType-head|stype-|voicetype-	14	k7t	_	_
10	आंसू	आँसू	NNC	n	lex-आँसू|cat-n|gen-m|num-sg|pers-3|case-d|vib-0|tam-0|chunkId-NP5|chunkType-child|stype-|voicetype-	11	pof__cn	_	_
11	गैस	गैस	NN	n	lex-गैस|cat-n|gen-f|num-sg|pers-3|case-o|vib-0_का|tam-0|chunkId-NP5|chunkType-head|stype-|voicetype-	13	r6	_	_
12	के	का	PSP	psp	lex-का|cat-psp|gen-m|num-pl|pers-|case-d|vib-|tam-|chunkId-NP5|chunkType-child|stype-|voicetype-	11	lwg__psp	_	_
13	गोले	गोला	NN	n	lex-गोला|cat-n|gen-m|num-pl|pers-3|case-d|vib-0|tam-0|chunkId-NP6|chunkType-head|stype-|voicetype-	14	k2	_	_
14	छोड़े	छोड़	VM	v	lex-छोड़|cat-v|gen-m|num-pl|pers-any|case-|vib-या|tam-yA|chunkId-VGF|chunkType-head|stype-declarative|voicetype-active	16	ccof	_	_
15	,	COMMA	SYM	punc	lex-COMMA|cat-punc|gen-|num-|pers-|case-|vib-|tam-|chunkId-VGF|chunkType-child|stype-|voicetype-	14	rsym	_	_
16	NULL	_	CC	_	lex-_|cat-_|gen-|num-|pers-|case-|vib-|tam-|chunkId-NULL__CCP|chunkType-head|stype-|voicetype-	0	main	_	_
17	फिर	फिर	RB	adv	lex-फिर|cat-adv|gen-|num-|pers-|case-|vib-|tam-|chunkId-RBP|chunkType-head|stype-|voicetype-	20	adv	_	_
18	उसे	वह	PRP	pn	lex-वह|cat-pn|gen-any|num-sg|pers-3|case-o|vib-को|tam-ko|chunkId-NP7|chunkType-head|stype-|voicetype-	20	k1	_	_
19	फायरिंग	फायरिंग	NN	n	lex-फायरिंग|cat-n|gen-f|num-sg|pers-3|case-d|vib-0|tam-0|chunkId-NP8|chunkType-head|stype-|voicetype-	20	pof	_	_
20	करनी	कर	VM	v	lex-कर|cat-v|gen-f|num-sg|pers-any|case-|vib-ना_पड़+या|tam-nA|chunkId-VGF2|chunkType-head|stype-declarative|voicetype-active	16	ccof	_	_
21	पड़ी	पड़	VAUX	v	lex-पड़|cat-v|gen-f|num-sg|pers-any|case-|vib-या|tam-yA|chunkId-VGF2|chunkType-child|stype-|voicetype-	20	lwg__vaux	_	_
22	।	।	SYM	punc	lex-।|cat-punc|gen-|num-|pers-|case-|vib-|tam-|chunkId-BLK|chunkType-head|stype-|voicetype-	16	rsym	_	_

1	राजकुमार	राजकुमार	NNP	n	lex-राजकुमार|cat-n|gen-m|num-sg|pers-3|case-o|vib-0_का|tam-0|chunkId-NP|chunkType-head|stype-|voicetype-	4	r6	_	_
2	के	का	PSP	psp	lex-का|cat-psp|gen-m|num-sg|pers-|case-o|vib-|tam-|chunkId-NP|chunkType-child|stype-|voicetype-	1	lwg__psp	_	_
3	अंतिम	अंतिम	JJ	adj	lex-अंतिम|cat-adj|gen-any|num-any|pers-|case-o|vib-|tam-|chunkId-NP2|chunkType-child|stype-|voicetype-	4	nmod__adj	_	_
4	संस्कार	संस्कार	NN	n	lex-संस्कार|cat-n|gen-m|num-sg|pers-3|case-o|vib-0_के_लिए|tam-0|chunkId-NP2|chunkType-head|stype-|voicetype-	20	rt	_	_
5	के	के	PSP	psp	lex-के|cat-psp|gen-|num-|pers-|case-|vib-|tam-|chunkId-NP2|chunkType-child|stype-|voicetype-	4	lwg__psp	_	_
6	लिए	लिए	PSP	psp	lex-लिए|cat-psp|gen-|num-|pers-|case-|vib-|tam-|chunkId-NP2|chunkType-child|stype-|voicetype-	4	lwg__psp	_	_
7	उनके	वह	PRP	pn	lex-वह|cat-pn|gen-m|num-sg|pers-3h|case-o|vib-का|tam-kA|chunkId-NP3|chunkType-head|stype-|voicetype-	8	r6	_	_
8	बेटे	बेटा	NN	n	lex-बेटा|cat-n|gen-m|num-pl|pers-3|case-o|vib-0|tam-0|chunkId-NP4|chunkType-head|stype-|voicetype-	10	nmod	_	_
9	शिव	शिव	NNPC	n	lex-शिव|cat-n|gen-m|num-sg|pers-3|case-d|vib-0|tam-0|chunkId-NP5|chunkType-child|stype-|voicetype-	10	pof__cn	_	_
10	राजकुमार	राजकुमार	NNP	n	lex-राजकुमार|cat-n|gen-m|num-sg|pers-3|case-o|vib-0|tam-0|chunkId-NP5|chunkType-head|stype-|voicetype-	14	ccof	_	_
11	,	COMMA	SYM	punc	lex-COMMA|cat-punc|gen-|num-|pers-|case-|vib-|tam-|chunkId-NP5|chunkType-child|stype-|voicetype-	10	rsym	_	_
12	पुनीत	पुनीत	NNPC	n	lex-पुनीत|cat-n|gen-m|num-sg|pers-3|case-d|vib-0|tam-0|chunkId-NP6|chunkType-child|stype-|voicetype-	13	pof__cn	_	_
13	राजकुमार	राजकुमार	NNP	n	lex-राजकुमार|cat-n|gen-m|num-sg|pers-3|case-o|vib-0|tam-0|chunkId-NP6|chunkType-head|stype-|voicetype-	14	ccof	_	_
14	और	और	CC	avy	lex-और|cat-avy|gen-|num-|pers-|case-|vib-|tam-|chunkId-CCP|chunkType-head|stype-|voicetype-	20	k1	_	_
15	राघवेंद्र	राघवेंद्र	NNPC	n	lex-राघवेंद्र|cat-n|gen-m|num-sg|pers-3|case-d|vib-0|tam-0|chunkId-NP7|chunkType-child|stype-|voicetype-	16	pof__cn	_	_
16	राजकुमार	राजकुमार	NNP	n	lex-राजकुमार|cat-n|gen-m|num-sg|pers-3|case-o|vib-0_का|tam-0|chunkId-NP7|chunkType-head|stype-|voicetype-	14	ccof	_	_
17	के	का	PSP	psp	lex-का|cat-psp|gen-m|num-sg|pers-|case-o|vib-|tam-|chunkId-NP7|chunkType-child|stype-|voicetype-	16	lwg__psp	_	_
18	कांतिरवा	कांतिरवा	NNPC	n	lex-कांतिरवा|cat-n|gen-m|num-sg|pers-3|case-d|vib-0|tam-0|chunkId-NP8|chunkType-child|stype-|voicetype-	19	pof__cn	_	_
19	स्टूडियो	स्टूडियो	NNP	n	lex-स्टूडियो|cat-n|gen-m|num-sg|pers-3|case-o|vib-0|tam-0|chunkId-NP8|chunkType-head|stype-|voicetype-	20	k2p	_	_
20	पहुंचने	पहुंच	VM	v	lex-पहुंच|cat-v|gen-any|num-any|pers-any|case-o|vib-ना_से|tam-nA|chunkId-VGNN|chunkType-head|stype-|voicetype-	23	nmod	_	_
21	से	से	PSP	psp	lex-से|cat-psp|gen-|num-|pers-|case-|vib-|tam-|chunkId-VGNN|chunkType-child|stype-|voicetype-	20	lwg__psp	_	_
22	कुछ	कुछ	QF	avy	lex-कुछ|cat-avy|gen-|num-|pers-|case-|vib-|tam-|chunkId-NP9|chunkType-child|stype-|voicetype-	23	nmod__adj	_	_
23	मिनट	मिनट	NN	n	lex-मिनट|cat-n|gen-m|num-pl|pers-3|case-d|vib-0_पहले|tam-0|chunkId-NP9|chunkType-head|stype-|voicetype-	30	k7t	_	_
24	पहले	पहले	NST	nst	lex-पहले|cat-nst|gen-m|num-sg|pers-3|case-d|vib-|tam-|chunkId-NP9|chunkType-child|stype-|voicetype-	23	lwg__psp	_	_
25	सैकड़ों	सैकड़ा	QC	num	lex-सैकड़ा|cat-num|gen-any|num-pl|pers-|case-any|vib-|tam-|chunkId-NP10|chunkType-child|stype-|voicetype-	26	nmod__adj	_	_
26	प्रशंसक	प्रशंसक	NN	n	lex-प्रशंसक|cat-n|gen-m|num-pl|pers-3|case-d|vib-0|tam-0|chunkId-NP10|chunkType-head|stype-|voicetype-	30	k1	_	_
27	स्टूडियो	स्टूडियो	NNC	n	lex-स्टूडियो|cat-n|gen-m|num-sg|pers-3|case-d|vib-0|tam-0|chunkId-NP11|chunkType-child|stype-|voicetype-	28	pof__cn	_	_
28	परिसर	परिसर	NN	n	lex-परिसर|cat-n|gen-m|num-sg|pers-3|case-o|vib-0_में|tam-0|chunkId-NP11|chunkType-head|stype-|voicetype-	30	k7p	_	_
29	में	में	PSP	psp	lex-में|cat-psp|gen-|num-|pers-|case-|vib-|tam-|chunkId-NP11|chunkType-child|stype-|voicetype-	28	lwg__psp	_	_
30	घुस	घुस	VM	v	lex-घुस|cat-v|gen-any|num-pl|pers-any|case-|vib-0_जा+या१|tam-0|chunkId-VGF|chunkType-head|stype-declarative|voicetype-active	0	main	_	_
31	गए	जा	VAUX	v	lex-जा|cat-v|gen-m|num-pl|pers-any|case-|vib-या१|tam-yA1|chunkId-VGF|chunkType-child|stype-|voicetype-	30	lwg__vaux	_	_
32	।	।	SYM	punc	lex-।|cat-punc|gen-|num-|pers-|case-|vib-|tam-|chunkId-BLK|chunkType-head|stype-|voicetype-	30	rsym	_	_

1	तनाव	तनाव	NN	n	lex-तनाव|cat-n|gen-m|num-sg|pers-3|case-d|vib-0|tam-0|chunkId-NP|chunkType-head|stype-|voicetype-	2	pof	_	_
2	बढ़ता	बढ़	VM	v	lex-बढ़|cat-v|gen-m|num-sg|pers-any|case-|vib-ता|tam-wA|chunkId-VGNF|chunkType-head|stype-|voicetype-	3	vmod	_	_
3	देख	देख	VM	v	lex-देख|cat-v|gen-any|num-any|pers-any|case-|vib-0|tam-0|chunkId-VGNF2|chunkType-head|stype-|voicetype-	16	vmod	_	_
4	राजकुमार	राजकुमार	NNP	n	lex-राजकुमार|cat-n|gen-m|num-sg|pers-3|case-o|vib-0_का|tam-0|chunkId-NP2|chunkType-head|stype-|voicetype-	6	r6	_	_
5	की	का	PSP	psp	lex-का|cat-psp|gen-f|num-sg|pers-|case-d|vib-|tam-|chunkId-NP2|chunkType-child|stype-|voicetype-	4	lwg__psp	_	_
6	पत्नी	पत्नी	NN	n	lex-पत्नी|cat-n|gen-f|num-sg|pers-3|case-o|vib-0|tam-0|chunkId-NP3|chunkType-head|stype-|voicetype-	8	nmod	_	_
7	पर्वतम्मा	पर्वतम्मा	NNPC	n	lex-पर्वतम्मा|cat-n|gen-f|num-sg|pers-3|case-d|vib-0|tam-0|chunkId-NP4|chunkType-child|stype-|voicetype-	8	pof__cn	_	_
8	राजकुमार	राजकुमार	NNP	n	lex-राजकुमार|cat-n|gen-f|num-sg|pers-3|case-o|vib-0_को|tam-0|chunkId-NP4|chunkType-head|stype-|voicetype-	16	k2	_	_
9	को	को	PSP	psp	lex-को|cat-psp|gen-|num-|pers-|case-|vib-|tam-|chunkId-NP4|chunkType-child|stype-|voicetype-	8	lwg__psp	_	_
10	कड़ी	कड़ा	JJ	adj	lex-कड़ा|cat-adj|gen-f|num-sg|pers-|case-o|vib-|tam-|chunkId-NP5|chunkType-child|stype-|voicetype-	12	nmod__adj	_	_
11	पुलिस	पुलिस	NNC	n	lex-पुलिस|cat-n|gen-f|num-sg|pers-3|case-d|vib-0|tam-0|chunkId-NP5|chunkType-child|stype-|voicetype-	12	pof__cn	_	_
12	सुरक्षा	सुरक्षा	NN	n	lex-सुरक्षा|cat-n|gen-f|num-sg|pers-3|case-o|vib-0_में|tam-0|chunkId-NP5|chunkType-head|stype-|voicetype-	16	k7	_	_
13	में	में	PSP	psp	lex-में|cat-psp|gen-|num-|pers-|case-|vib-|tam-|chunkId-NP5|chunkType-child|stype-|voicetype-	12	lwg__psp	_	_
14	स्टूडियो	स्टूडियो	NN	n	lex-स्टूडियो|cat-n|gen-m|num-sg|pers-3|case-o|vib-0_में|tam-0|chunkId-NP6|chunkType-head|stype-|voicetype-	16	k7p	_	_
15	में	में	PSP	psp	lex-में|cat-psp|gen-|num-|pers-|case-|vib-|tam-|chunkId-NP6|chunkType-child|stype-|voicetype-	14	lwg__psp	_	_
16	ले	ले	VM	v	lex-ले|cat-v|gen-m|num-sg|pers-any|case-|vib-0_जा+या_जा+या१|tam-0|chunkId-VGF|chunkType-head|stype-declarative|voicetype-passive	0	main	_	_
17	जाया	जा	VAUX	v	lex-जा|cat-v|gen-m|num-sg|pers-any|case-|vib-या|tam-yA|chunkId-VGF|chunkType-child|stype-|voicetype-	16	lwg__vaux	_	_
18	गया	जा	VAUX	v	lex-जा|cat-v|gen-m|num-sg|pers-any|case-|vib-या१|tam-yA1|chunkId-VGF|chunkType-child|stype-|voicetype-	16	lwg__vaux	_	_
19	।	।	SYM	punc	lex-।|cat-punc|gen-|num-|pers-|case-|vib-|tam-|chunkId-BLK|chunkType-head|stype-|voicetype-	16	rsym	_	_

1	इससे	यह	PRP	pn	lex-यह|cat-pn|gen-any|num-sg|pers-3|case-o|vib-0_पहले|tam-se|chunkId-NP|chunkType-head|stype-|voicetype-	19	k7t	_	_
2	पहले	पहले	NST	nst	lex-पहले|cat-nst|gen-m|num-sg|pers-3|case-d|vib-|tam-|chunkId-NP|chunkType-child|stype-|voicetype-	1	lwg__psp	_	_
3	कांतिरवा	कांतिरवा	NNPC	n	lex-कांतिरवा|cat-n|gen-m|num-sg|pers-3|case-d|vib-0|tam-0|chunkId-NP2|chunkType-child|stype-|voicetype-	4	pof__cn	_	_
4	स्टेडियम	स्टेडियम	NNP	n	lex-स्टेडियम|cat-n|gen-m|num-sg|pers-3|case-o|vib-0_से|tam-0|chunkId-NP2|chunkType-head|stype-|voicetype-	6	k5	_	_
5	से	से	PSP	psp	lex-से|cat-psp|gen-|num-|pers-|case-|vib-|tam-|chunkId-NP2|chunkType-child|stype-|voicetype-	4	lwg__psp	_	_
6	निकाली	निकाल	VM	v	lex-निकाल|cat-v|gen-f|num-sg|pers-any|case-|vib-या_जा+या१|tam-yA|chunkId-VGNF|chunkType-head|stype-|voicetype-	13	nmod__k1inv	_	_
7	गई	जा	VAUX	v	lex-जा|cat-v|gen-f|num-sg|pers-any|case-|vib-या१|tam-yA1|chunkId-VGNF|chunkType-child|stype-|voicetype-	6	lwg__vaux	_	_
8	करीब	करीब	RP	avy	lex-करीब|cat-avy|gen-|num-|pers-|case-|vib-|tam-|chunkId-NP3|chunkType-child|stype-|voicetype-	13	lwg__rp	_	_
9	१०	१०	QC	num	lex-१०|cat-num|gen-any|num-any|pers-|case-any|vib-|tam-|chunkId-NP3|chunkType-child|stype-|voicetype-	10	nmod__adj	_	_
10	किमी	किमी	NN	n	lex-किमी|cat-n|gen-m|num-sg|pers-3|case-d|vib-0|tam-0|chunkId-NP3|chunkType-child|stype-|voicetype-	13	nmod	_	_
11	लंबी	लंबा	JJ	adj	lex-लंबा|cat-adj|gen-f|num-sg|pers-|case-o|vib-|tam-|chunkId-NP3|chunkType-child|stype-|voicetype-	13	nmod__adj	_	_
12	शोक	शोक	NNC	n	lex-शोक|cat-n|gen-m|num-sg|pers-3|case-d|vib-0|tam-0|chunkId-NP3|chunkType-child|stype-|voicetype-	13	pof__cn	_	_
13	यात्रा	यात्रा	NN	n	lex-यात्रा|cat-n|gen-f|num-sg|pers-3|case-o|vib-0_में|tam-0|chunkId-NP3|chunkType-head|stype-|voicetype-	19	k7	_	_
14	में	में	PSP	psp	lex-में|cat-psp|gen-|num-|pers-|case-|vib-|tam-|chunkId-NP3|chunkType-child|stype-|voicetype-	13	lwg__psp	_	_
15	प्रशंसकों	प्रशंसक	NN	n	lex-प्रशंसक|cat-n|gen-m|num-pl|pers-3|case-o|vib-0_ने|tam-0|chunkId-NP4|chunkType-head|stype-|voicetype-	19	k1	_	_
16	ने	ने	PSP	psp	lex-ने|cat-psp|gen-|num-|pers-|case-|vib-|tam-|chunkId-NP4|chunkType-child|stype-|voicetype-	15	lwg__psp	_	_
17	जमकर	जमकर	RB	adv	lex-जमकर|cat-adv|gen-|num-|pers-|case-|vib-|tam-|chunkId-RBP|chunkType-head|stype-|voicetype-	19	adv	_	_
18	बवाल	बवाल	NN	n	lex-बवाल|cat-n|gen-m|num-sg|pers-3|case-d|vib-0|tam-0|chunkId-NP5|chunkType-head|stype-|voicetype-	19	pof	_	_
19	किया	कर	VM	v	lex-कर|cat-v|gen-m|num-sg|pers-any|case-|vib-या|tam-yA|chunkId-VGF|chunkType-head|stype-declarative|voicetype-active	0	main	_	_
20	।	।	SYM	punc	lex-।|cat-punc|gen-|num-|pers-|case-|vib-|tam-|chunkId-BLK|chunkType-head|stype-|voicetype-	19	rsym	_	_

1	कई	कई	QF	avy	lex-कई|cat-avy|gen-|num-|pers-|case-|vib-|tam-|chunkId-NP|chunkType-child|stype-|voicetype-	2	nmod__adj	_	_
2	जगहों	जगह	NN	n	lex-जगह|cat-n|gen-f|num-pl|pers-3|case-o|vib-0_पर|tam-0|chunkId-NP|chunkType-head|stype-|voicetype-	5	k7p	_	_
3	पर	पर	PSP	psp	lex-पर|cat-psp|gen-|num-|pers-|case-|vib-|tam-|chunkId-NP|chunkType-child|stype-|voicetype-	2	lwg__psp	_	_
4	पथराव	पथराव	NN	n	lex-पथराव|cat-n|gen-m|num-sg|pers-3|case-d|vib-0|tam-0|chunkId-NP2|chunkType-head|stype-|voicetype-	5	pof	_	_
5	किया	कर	VM	v	lex-कर|cat-v|gen-m|num-sg|pers-any|case-|vib-या_जा+या१|tam-yA|chunkId-VGF|chunkType-head|stype-declarative|voicetype-passive	7	ccof	_	_
6	गया	जा	VAUX	v	lex-जा|cat-v|gen-m|num-sg|pers-any|case-|vib-या१|tam-yA1|chunkId-VGF|chunkType-child|stype-|voicetype-	5	lwg__vaux	_	_
7	तथा	तथा	CC	avy	lex-तथा|cat-avy|gen-|num-|pers-|case-|vib-|tam-|chunkId-CCP|chunkType-head|stype-|voicetype-	0	main	_	_
8	कुछ	कुछ	QF	avy	lex-कुछ|cat-avy|gen-|num-|pers-|case-|vib-|tam-|chunkId-NP3|chunkType-child|stype-|voicetype-	10	nmod__adj	_	_
9	पुलिस	पुलिस	NNC	n	lex-पुलिस|cat-n|gen-f|num-sg|pers-3|case-d|vib-0|tam-0|chunkId-NP3|chunkType-child|stype-|voicetype-	10	pof__cn	_	_
10	वाहनों	वाहन	NN	n	lex-वाहन|cat-n|gen-m|num-pl|pers-3|case-o|vib-0_समेत|tam-0|chunkId-NP3|chunkType-head|stype-|voicetype-	16	vmod	_	_
11	समेत	समेत	PSP	psp	lex-समेत|cat-psp|gen-|num-|pers-|case-|vib-|tam-|chunkId-NP3|chunkType-child|stype-|voicetype-	10	lwg__psp	_	_
12	कई	कई	QF	avy	lex-कई|cat-avy|gen-|num-|pers-|case-|vib-|tam-|chunkId-NP4|chunkType-child|stype-|voicetype-	13	nmod__adj	_	_
13	वाहनों	वाहन	NN	n	lex-वाहन|cat-n|gen-m|num-pl|pers-3|case-o|vib-0_को|tam-0|chunkId-NP4|chunkType-head|stype-|voicetype-	16	k2	_	_
14	को	को	PSP	psp	lex-को|cat-psp|gen-|num-|pers-|case-|vib-|tam-|chunkId-NP4|chunkType-child|stype-|voicetype-	13	lwg__psp	_	_
15	नुकसान	नुकसान	NN	n	lex-नुकसान|cat-n|gen-m|num-sg|pers-3|case-d|vib-0|tam-0|chunkId-NP5|chunkType-head|stype-|voicetype-	16	pof	_	_
16	पहुंचाया	पहुंचा	VM	v	lex-पहुंचा|cat-v|gen-m|num-sg|pers-any|case-|vib-या_जा+या१|tam-yA|chunkId-VGF2|chunkType-head|stype-declarative|voicetype-passive	7	ccof	_	_
17	गया	जा	VAUX	v	lex-जा|cat-v|gen-m|num-sg|pers-any|case-|vib-या१|tam-yA1|chunkId-VGF2|chunkType-child|stype-|voicetype-	16	lwg__vaux	_	_
18	।	।	SYM	punc	lex-।|cat-punc|gen-|num-|pers-|case-|vib-|tam-|chunkId-BLK|chunkType-head|stype-|voicetype-	7	rsym	_	_

1	स्टूडियो	स्टूडियो	NNC	n	lex-स्टूडियो|cat-n|gen-m|num-sg|pers-3|case-d|vib-0|tam-0|chunkId-NP|chunkType-child|stype-|voicetype-	2	pof__cn	_	_
2	परिसर	परिसर	NN	n	lex-परिसर|cat-n|gen-m|num-sg|pers-3|case-o|vib-0_में|tam-0|chunkId-NP|chunkType-head|stype-|voicetype-	12	k7p	_	_
3	में	में	PSP	psp	lex-में|cat-psp|gen-|num-|pers-|case-|vib-|tam-|chunkId-NP|chunkType-child|stype-|voicetype-	2	lwg__psp	_	_
4	दो	दो	QC	num	lex-दो|cat-num|gen-any|num-any|pers-|case-any|vib-|tam-|chunkId-NP2|chunkType-child|stype-|voicetype-	6	nmod__adj	_	_
5	निजी	निजी	JJ	adj	lex-निजी|cat-adj|gen-any|num-any|pers-|case-o|vib-|tam-|chunkId-NP2|chunkType-child|stype-|voicetype-	6	nmod__adj	_	_
6	वाहनों	वाहन	NN	n	lex-वाहन|cat-n|gen-m|num-pl|pers-3|case-o|vib-0|tam-0|chunkId-NP2|chunkType-head|stype-|voicetype-	7	ccof	_	_
7	और	और	CC	avy	lex-और|cat-avy|gen-|num-|pers-|case-|vib-|tam-|chunkId-CCP|chunkType-head|stype-|voicetype-	12	k7p	_	_
8	एक	एक	QC	num	lex-एक|cat-num|gen-any|num-any|pers-|case-any|vib-|tam-|chunkId-NP3|chunkType-child|stype-|voicetype-	9	nmod__adj	_	_
9	शामियाने	शामियाना	NN	n	lex-शामियाना|cat-n|gen-m|num-sg|pers-3|case-o|vib-0_में|tam-0|chunkId-NP3|chunkType-head|stype-|voicetype-	7	ccof	_	_
10	में	में	PSP	psp	lex-में|cat-psp|gen-|num-|pers-|case-|vib-|tam-|chunkId-NP3|chunkType-child|stype-|voicetype-	9	lwg__psp	_	_
11	आग	आग	NN	n	lex-आग|cat-n|gen-f|num-sg|pers-3|case-d|vib-0|tam-0|chunkId-NP4|chunkType-head|stype-|voicetype-	12	k2	_	_
12	लगा	लगा	VM	v	lex-लगा|cat-v|gen-f|num-sg|pers-any|case-|vib-0_दे+या_जा+या१|tam-0|chunkId-VGF|chunkType-head|stype-declarative|voicetype-passive	0	main	_	_
13	दी	दे	VAUX	v	lex-दे|cat-v|gen-f|num-sg|pers-any|case-|vib-या|tam-yA|chunkId-VGF|chunkType-child|stype-|voicetype-	12	lwg__vaux	_	_
14	गई	जा	VAUX	v	lex-जा|cat-v|gen-f|num-sg|pers-any|case-|vib-या१|tam-yA1|chunkId-VGF|chunkType-child|stype-|voicetype-	12	lwg__vaux	_	_
15	।	।	SYM	punc	lex-।|cat-punc|gen-|num-|pers-|case-|vib-|tam-|chunkId-BLK|chunkType-head|stype-|voicetype-	12	rsym	_	_

