1	ईरानी	ईरानी	JJ	adj	lex-ईरानी|cat-adj|gen-any|num-any|pers-|case-o|vib-|tam-|chunkId-NP|chunkType-child|stype-|voicetype-	3	nmod__adj	_	_
2	परमाणु	परमाणु	NNC	n	lex-परमाणु|cat-n|gen-m|num-sg|pers-3|case-d|vib-0|tam-0|chunkId-NP|chunkType-child|stype-|voicetype-	3	pof__cn	_	_
3	कार्यक्रम	कार्यक्रम	NN	n	lex-कार्यक्रम|cat-n|gen-m|num-sg|pers-3|case-o|vib-0_को|tam-0|chunkId-NP|chunkType-head|stype-|voicetype-	11	k4	_	_
4	को	को	PSP	psp	lex-को|cat-psp|gen-|num-|pers-|case-|vib-|tam-|chunkId-NP|chunkType-child|stype-|voicetype-	3	lwg__psp	_	_
5	विश्व	विश्व	NNC	n	lex-विश्व|cat-n|gen-m|num-sg|pers-3|case-d|vib-0|tam-0|chunkId-NP2|chunkType-child|stype-|voicetype-	6	pof__cn	_	_
6	शांति	शान्ति	NN	n	lex-शान्ति|cat-n|gen-f|num-sg|pers-3|case-o|vib-0_के_लिए|tam-0|chunkId-NP2|chunkType-head|stype-|voicetype-	11	rt	_	_
7	के	के	PSP	psp	lex-के|cat-psp|gen-|num-|pers-|case-|vib-|tam-|chunkId-NP2|chunkType-child|stype-|voicetype-	6	lwg__psp	_	_
8	लिए	लिए	PSP	psp	lex-लिए|cat-psp|gen-|num-|pers-|case-|vib-|tam-|chunkId-NP2|chunkType-child|stype-|voicetype-	6	lwg__psp	_	_
9	खतरा	खतरा	NN	n	lex-खतरा|cat-n|gen-m|num-sg|pers-3|case-d|vib-0|tam-0|chunkId-NP3|chunkType-head|stype-|voicetype-	11	k2	_	_
10	करार	करार	NN	n	lex-करार|cat-n|gen-m|num-sg|pers-3|case-d|vib-0|tam-0|chunkId-NP4|chunkType-head|stype-|voicetype-	11	pof	_	_
11	देते	दे	VM	v	lex-दे|cat-v|gen-m|num-sg|pers-any|case-|vib-ता_हो+या|tam-wA|chunkId-VGNF|chunkType-head|stype-|voicetype-	19	vmod	_	_
12	हुए	हो	VAUX	v	lex-हो|cat-v|gen-m|num-sg|pers-any|case-|vib-या|tam-yA|chunkId-VGNF|chunkType-child|stype-|voicetype-	11	lwg__vaux	_	_
13	पूर्व	पूर्व	JJ	adj	lex-पूर्व|cat-adj|gen-any|num-any|pers-|case-o|vib-|tam-|chunkId-NP5|chunkType-child|stype-|voicetype-	16	nmod__adj	_	_
14	इस्राइली	इस्राइली	JJ	adj	lex-इस्राइली|cat-adj|gen-any|num-any|pers-|case-o|vib-|tam-|chunkId-NP5|chunkType-child|stype-|voicetype-	16	nmod__adj	_	_
15	प्रधानमंत्री	प्रधानमंत्री	NNP	n	lex-प्रधानमंत्री|cat-n|gen-m|num-sg|pers-3|case-d|vib-0|tam-0|chunkId-NP5|chunkType-child|stype-|voicetype-	17	nmod__adj	_	_
16	एहुद	एहुद	NNPC	n	lex-एहुद|cat-n|gen-m|num-sg|pers-3|case-d|vib-0|tam-0|chunkId-NP5|chunkType-child|stype-|voicetype-	17	pof__cn	_	_
17	बराक	बराक	NNP	n	lex-बराक|cat-n|gen-m|num-sg|pers-3|case-o|vib-0_ने|tam-0|chunkId-NP5|chunkType-head|stype-|voicetype-	19	k1	_	_
18	ने	ने	PSP	psp	lex-ने|cat-psp|gen-|num-|pers-|case-|vib-|tam-|chunkId-NP5|chunkType-child|stype-|voicetype-	17	lwg__psp	_	_
19	कहा	कह	VM	v	lex-कह|cat-v|gen-m|num-sg|pers-3|case-|vib-या_है|tam-yA|chunkId-VGF|chunkType-head|stype-declarative|voicetype-active	0	main	_	_
20	है	है	VAUX	v	lex-है|cat-v|gen-any|num-sg|pers-3|case-|vib-है|tam-hE|chunkId-VGF|chunkType-child|stype-|voicetype-	19	lwg__vaux	_	_
21	कि	कि	CC	avy	lex-कि|cat-avy|gen-|num-|pers-|case-|vib-|tam-|chunkId-CCP|chunkType-head|stype-|voicetype-	19	k2	_	_
22	भारत	भारत	NNP	n	lex-भारत|cat-n|gen-m|num-sg|pers-3|case-d|vib-0|tam-0|chunkId-NP6|chunkType-head|stype-|voicetype-	35	k1	_	_
23	ईरान	ईरान	NNP	n	lex-ईरान|cat-n|gen-m|num-sg|pers-3|case-o|vib-0_को|tam-0|chunkId-NP7|chunkType-head|stype-|voicetype-	30	k2	_	_
24	को	को	PSP	psp	lex-को|cat-psp|gen-|num-|pers-|case-|vib-|tam-|chunkId-NP7|chunkType-child|stype-|voicetype-	23	lwg__psp	_	_
25	सैन्य	सैन्य	NNC	adj	lex-सैन्य|cat-adj|gen-any|num-any|pers-|case-d|vib-|tam-|chunkId-NP8|chunkType-child|stype-|voicetype-	27	pof__cn	_	_
26	परमाणु	परमाणु	NNC	n	lex-परमाणु|cat-n|gen-m|num-sg|pers-3|case-d|vib-0|tam-0|chunkId-NP8|chunkType-child|stype-|voicetype-	27	pof__cn	_	_
27	ताकत	ताकत	NN	n	lex-ताकत|cat-n|gen-f|num-sg|pers-3|case-d|vib-0|tam-0|chunkId-NP8|chunkType-head|stype-|voicetype-	28	k2	_	_
28	बनने	बन	VM	v	lex-बन|cat-v|gen-any|num-any|pers-any|case-o|vib-ना_से|tam-nA|chunkId-VGNN|chunkType-head|stype-|voicetype-	30	rt	_	_
29	से	से	PSP	psp	lex-से|cat-psp|gen-|num-|pers-|case-|vib-|tam-|chunkId-VGNN|chunkType-child|stype-|voicetype-	28	lwg__psp	_	_
30	रोकने	रोक	VM	v	lex-रोक|cat-v|gen-any|num-any|pers-any|case-o|vib-ना_में|tam-nA|chunkId-VGNN2|chunkType-head|stype-|voicetype-	35	k7	_	_
31	में	में	PSP	psp	lex-में|cat-psp|gen-|num-|pers-|case-|vib-|tam-|chunkId-VGNN2|chunkType-child|stype-|voicetype-	30	lwg__psp	_	_
32	महत्वपूर्ण	महत्वपूर्ण	JJ	adj	lex-महत्वपूर्ण|cat-adj|gen-any|num-any|pers-|case-d|vib-|tam-|chunkId-NP9|chunkType-child|stype-|voicetype-	33	nmod__adj	_	_
33	रोल	रोल	NN	n	lex-रोल|cat-n|gen-m|num-sg|pers-3|case-d|vib-0|tam-0|chunkId-NP9|chunkType-head|stype-|voicetype-	35	k2	_	_
34	अदा	अदा	JJ	adj	lex-अदा|cat-adj|gen-any|num-any|pers-|case-|vib-|tam-|chunkId-JJP|chunkType-head|stype-|voicetype-	35	pof	_	_
35	कर	कर	VM	v	lex-कर|cat-v|gen-m|num-sg|pers-3|case-|vib-0_सक+ता_है|tam-0|chunkId-VGF2|chunkType-head|stype-declarative|voicetype-active	21	ccof	_	_
36	सकता	सक	VAUX	v	lex-सक|cat-v|gen-m|num-sg|pers-any|case-|vib-ता|tam-wA|chunkId-VGF2|chunkType-child|stype-|voicetype-	35	lwg__vaux	_	_
37	है	है	VAUX	v	lex-है|cat-v|gen-any|num-sg|pers-3|case-|vib-है|tam-hE|chunkId-VGF2|chunkType-child|stype-|voicetype-	35	lwg__vaux	_	_
38	।	।	SYM	punc	lex-।|cat-punc|gen-|num-|pers-|case-|vib-|tam-|chunkId-BLK|chunkType-head|stype-|voicetype-	19	rsym	_	_

1	मध्यपूर्व	मध्यपूर्व	NN	n	lex-मध्यपूर्व|cat-n|gen-m|num-sg|pers-3|case-o|vib-0_का|tam-0|chunkId-NP|chunkType-head|stype-|voicetype-	3	r6	_	_
2	की	का	PSP	psp	lex-का|cat-psp|gen-f|num-sg|pers-|case-o|vib-|tam-|chunkId-NP|chunkType-child|stype-|voicetype-	1	lwg__psp	_	_
3	स्थिति	स्थिति	NN	n	lex-स्थिति|cat-n|gen-f|num-sg|pers-3|case-o|vib-0_पर|tam-0|chunkId-NP2|chunkType-head|stype-|voicetype-	6	k7	_	_
4	पर	पर	PSP	psp	lex-पर|cat-psp|gen-|num-|pers-|case-|vib-|tam-|chunkId-NP2|chunkType-child|stype-|voicetype-	3	lwg__psp	_	_
5	व्याख्यान	व्याख्यान	NN	n	lex-व्याख्यान|cat-n|gen-m|num-sg|pers-3|case-d|vib-0|tam-0|chunkId-NP3|chunkType-head|stype-|voicetype-	6	pof	_	_
6	देते	दे	VM	v	lex-दे|cat-v|gen-m|num-sg|pers-any|case-|vib-ता_हो+या|tam-wA|chunkId-VGNF|chunkType-head|stype-|voicetype-	12	vmod	_	_
7	हुए	हो	VAUX	v	lex-हो|cat-v|gen-m|num-sg|pers-any|case-|vib-या|tam-yA|chunkId-VGNF|chunkType-child|stype-|voicetype-	6	lwg__vaux	_	_
8	भी	भी	RP	avy	lex-भी|cat-avy|gen-|num-|pers-|case-|vib-|tam-|chunkId-VGNF|chunkType-child|stype-|voicetype-	6	lwg__rp	_	_
9	उन्होंने	वह	PRP	pn	lex-वह|cat-pn|gen-any|num-sg|pers-3h|case-o|vib-ने|tam-ne|chunkId-NP4|chunkType-head|stype-|voicetype-	12	k1	_	_
10	यह	यह	DEM	pn	lex-यह|cat-pn|gen-any|num-sg|pers-3|case-d|vib-|tam-|chunkId-NP5|chunkType-child|stype-|voicetype-	11	nmod__adj	_	_
11	बात	बात	NN	n	lex-बात|cat-n|gen-f|num-sg|pers-3|case-d|vib-0|tam-0|chunkId-NP5|chunkType-head|stype-|voicetype-	12	k2	_	_
12	कही	कह	VM	v	lex-कह|cat-v|gen-f|num-sg|pers-any|case-|vib-या|tam-yA|chunkId-VGF|chunkType-head|stype-declarative|voicetype-active	0	main	_	_
13	।	।	SYM	punc	lex-।|cat-punc|gen-|num-|pers-|case-|vib-|tam-|chunkId-BLK|chunkType-head|stype-|voicetype-	12	rsym	_	_

1	उन्होंने	वह	PRP	pn	lex-वह|cat-pn|gen-any|num-sg|pers-3h|case-o|vib-ने|tam-ne|chunkId-NP|chunkType-head|stype-|voicetype-	2	k1	_	_
2	कहा	कह	VM	v	lex-कह|cat-v|gen-m|num-sg|pers-any|case-|vib-या|tam-yA|chunkId-VGF|chunkType-head|stype-declarative|voicetype-active	0	main	_	_
3	कि	कि	CC	avy	lex-कि|cat-avy|gen-|num-|pers-|case-|vib-|tam-|chunkId-CCP|chunkType-head|stype-|voicetype-	2	k2	_	_
4	भारत	भारत	NNP	n	lex-भारत|cat-n|gen-m|num-sg|pers-3|case-d|vib-0|tam-0|chunkId-NP2|chunkType-head|stype-|voicetype-	7	ccof	_	_
5	,	COMMA	SYM	punc	lex-COMMA|cat-punc|gen-|num-|pers-|case-|vib-|tam-|chunkId-NP2|chunkType-child|stype-|voicetype-	4	rsym	_	_
6	चीन	चीन	NNP	n	lex-चीन|cat-n|gen-m|num-sg|pers-3|case-d|vib-0|tam-0|chunkId-NP3|chunkType-head|stype-|voicetype-	7	ccof	_	_
7	और	और	CC	avy	lex-और|cat-avy|gen-|num-|pers-|case-|vib-|tam-|chunkId-CCP2|chunkType-head|stype-|voicetype-	9	k1	_	_
8	रूस	रूस	NNP	n	lex-रूस|cat-n|gen-m|num-sg|pers-3|case-d|vib-0|tam-0|chunkId-NP4|chunkType-head|stype-|voicetype-	7	ccof	_	_
9	मिलकर	मिल	VM	v	lex-मिल|cat-v|gen-any|num-any|pers-any|case-|vib-कर|tam-kara|chunkId-VGNF|chunkType-head|stype-|voicetype-	18	vmod	_	_
10	तेहरान	तेहरान	NNP	n	lex-तेहरान|cat-n|gen-m|num-sg|pers-3|case-o|vib-0_को|tam-0|chunkId-NP5|chunkType-head|stype-|voicetype-	18	k2	_	_
11	को	को	PSP	psp	lex-को|cat-psp|gen-|num-|pers-|case-|vib-|tam-|chunkId-NP5|chunkType-child|stype-|voicetype-	10	lwg__psp	_	_
12	परमाणु	परमाणु	NNC	n	lex-परमाणु|cat-n|gen-m|num-sg|pers-3|case-d|vib-0|tam-0|chunkId-NP6|chunkType-child|stype-|voicetype-	15	pof__cn	_	_
13	शक्ति	शक्ति	NNC	n	lex-शक्ति|cat-n|gen-f|num-sg|pers-3|case-d|vib-0|tam-0|chunkId-NP6|chunkType-child|stype-|voicetype-	15	pof__cn	_	_
14	संपन्न	संपन्न	NNC	adj	lex-संपन्न|cat-adj|gen-any|num-any|pers-|case-d|vib-|tam-|chunkId-NP6|chunkType-child|stype-|voicetype-	15	pof__cn	_	_
15	राष्ट्र	राष्ट्र	NN	n	lex-राष्ट्र|cat-n|gen-m|num-sg|pers-3|case-d|vib-0|tam-0|chunkId-NP6|chunkType-head|stype-|voicetype-	16	k2	_	_
16	बनने	बन	VM	v	lex-बन|cat-v|gen-any|num-any|pers-any|case-o|vib-ना_से|tam-nA|chunkId-VGNN|chunkType-head|stype-|voicetype-	18	k5	_	_
17	से	से	PSP	psp	lex-से|cat-psp|gen-|num-|pers-|case-|vib-|tam-|chunkId-VGNN|chunkType-child|stype-|voicetype-	16	lwg__psp	_	_
18	रोक	रोक	VM	v	lex-रोक|cat-v|gen-m|num-pl|pers-3|case-any|vib-0_सक+ता_है|tam-0|chunkId-VGF2|chunkType-head|stype-declarative|voicetype-active	3	ccof	_	_
19	सकते	सक	VAUX	v	lex-सक|cat-v|gen-m|num-pl|pers-any|case-|vib-ता|tam-wA|chunkId-VGF2|chunkType-child|stype-|voicetype-	18	lwg__vaux	_	_
20	हैं	है	VAUX	v	lex-है|cat-v|gen-any|num-pl|pers-3|case-|vib-है|tam-hE|chunkId-VGF2|chunkType-child|stype-|voicetype-	18	lwg__vaux	_	_
21	।	।	SYM	punc	lex-।|cat-punc|gen-|num-|pers-|case-|vib-|tam-|chunkId-BLK|chunkType-head|stype-|voicetype-	2	rsym	_	_

1	बराक	बराक	NNP	n	lex-बराक|cat-n|gen-m|num-sg|pers-3|case-o|vib-0_ने|tam-0|chunkId-NP|chunkType-head|stype-|voicetype-	3	k1	_	_
2	ने	ने	PSP	psp	lex-ने|cat-psp|gen-|num-|pers-|case-|vib-|tam-|chunkId-NP|chunkType-child|stype-|voicetype-	1	lwg__psp	_	_
3	कहा	कह	VM	v	lex-कह|cat-v|gen-m|num-sg|pers-any|case-|vib-या|tam-yA|chunkId-VGF|chunkType-head|stype-declarative|voicetype-active	0	main	_	_
4	कि	कि	CC	avy	lex-कि|cat-avy|gen-|num-|pers-|case-|vib-|tam-|chunkId-CCP|chunkType-head|stype-|voicetype-	3	k2	_	_
5	भारत	भारत	NNP	n	lex-भारत|cat-n|gen-m|num-sg|pers-3|case-d|vib-0|tam-0|chunkId-NP2|chunkType-head|stype-|voicetype-	13	k1	_	_
6	विश्व	विश्व	NNC	n	lex-विश्व|cat-n|gen-m|num-sg|pers-3|case-d|vib-0|tam-0|chunkId-NP3|chunkType-child|stype-|voicetype-	7	pof__cn	_	_
7	बिरादरी	बिरादरी	NN	n	lex-बिरादरी|cat-n|gen-f|num-sg|pers-3|case-o|vib-0_के_बीच|tam-0|chunkId-NP3|chunkType-head|stype-|voicetype-	13	k7	_	_
8	के	के	PSP	psp	lex-के|cat-psp|gen-|num-|pers-|case-|vib-|tam-|chunkId-NP3|chunkType-child|stype-|voicetype-	7	lwg__psp	_	_
9	बीच	बीच	NST	nst	lex-बीच|cat-nst|gen-m|num-sg|pers-3|case-d|vib-|tam-|chunkId-NP3|chunkType-child|stype-|voicetype-	7	lwg__psp	_	_
10	महत्वपूर्ण	महत्वपूर्ण	JJ	adj	lex-महत्वपूर्ण|cat-adj|gen-any|num-any|pers-|case-d|vib-|tam-|chunkId-NP4|chunkType-child|stype-|voicetype-	11	nmod__adj	_	_
11	रोल	रोल	NN	n	lex-रोल|cat-n|gen-m|num-sg|pers-3|case-d|vib-0|tam-0|chunkId-NP4|chunkType-head|stype-|voicetype-	13	k2	_	_
12	अदा	अदा	JJ	adj	lex-अदा|cat-adj|gen-any|num-any|pers-|case-|vib-|tam-|chunkId-JJP|chunkType-head|stype-|voicetype-	13	pof	_	_
13	कर	कर	VM	v	lex-कर|cat-v|gen-m|num-sg|pers-3|case-|vib-0_रह+या_है|tam-0|chunkId-VGF2|chunkType-head|stype-declarative|voicetype-active	4	ccof	_	_
14	रहा	रह	VAUX	v	lex-रह|cat-v|gen-m|num-sg|pers-any|case-|vib-या|tam-yA|chunkId-VGF2|chunkType-child|stype-|voicetype-	13	lwg__vaux	_	_
15	है	है	VAUX	v	lex-है|cat-v|gen-any|num-sg|pers-3|case-|vib-है|tam-hE|chunkId-VGF2|chunkType-child|stype-|voicetype-	13	lwg__vaux	_	_
16	।	।	SYM	punc	lex-।|cat-punc|gen-|num-|pers-|case-|vib-|tam-|chunkId-BLK|chunkType-head|stype-|voicetype-	3	rsym	_	_

1	भारत	भारत	NNP	n	lex-भारत|cat-n|gen-m|num-sg|pers-3|case-d|vib-0|tam-0|chunkId-NP|chunkType-head|stype-|voicetype-	4	k1	_	_
2	प्रमुख	प्रमुख	JJ	adj	lex-प्रमुख|cat-adj|gen-any|num-any|pers-|case-d|vib-|tam-|chunkId-NP2|chunkType-child|stype-|voicetype-	3	nmod__adj	_	_
3	देश	देश	NN	n	lex-देश|cat-n|gen-m|num-sg|pers-3|case-d|vib-0|tam-0|chunkId-NP2|chunkType-head|stype-|voicetype-	4	k1s	_	_
4	है	है	VM	v	lex-है|cat-v|gen-any|num-sg|pers-3|case-|vib-है|tam-hE|chunkId-VGF|chunkType-head|stype-declarative|voicetype-active	5	ccof	_	_
5	और	और	CC	avy	lex-और|cat-avy|gen-|num-|pers-|case-|vib-|tam-|chunkId-CCP|chunkType-head|stype-|voicetype-	0	main	_	_
6	वह	वह	PRP	pn	lex-वह|cat-pn|gen-any|num-sg|pers-3|case-d|vib-0|tam-0|chunkId-NP3|chunkType-head|stype-|voicetype-	19	k1	_	_
7	ईरान	ईरान	NNP	n	lex-ईरान|cat-n|gen-m|num-sg|pers-3|case-o|vib-0_को|tam-0|chunkId-NP4|chunkType-head|stype-|voicetype-	13	k2	_	_
8	को	को	PSP	psp	lex-को|cat-psp|gen-|num-|pers-|case-|vib-|tam-|chunkId-NP4|chunkType-child|stype-|voicetype-	7	lwg__psp	_	_
9	परमाणु	परमाणु	NNC	n	lex-परमाणु|cat-n|gen-m|num-sg|pers-3|case-d|vib-0|tam-0|chunkId-NP5|chunkType-child|stype-|voicetype-	10	pof__cn	_	_
10	ताकत	ताकत	NN	n	lex-ताकत|cat-n|gen-f|num-sg|pers-3|case-d|vib-0|tam-0|chunkId-NP5|chunkType-head|stype-|voicetype-	11	k2	_	_
11	बनने	बन	VM	v	lex-बन|cat-v|gen-any|num-any|pers-any|case-o|vib-ना_से|tam-nA|chunkId-VGNN|chunkType-head|stype-|voicetype-	13	k5	_	_
12	से	से	PSP	psp	lex-से|cat-psp|gen-|num-|pers-|case-|vib-|tam-|chunkId-VGNN|chunkType-child|stype-|voicetype-	11	lwg__psp	_	_
13	रोकने	रोक	VM	v	lex-रोक|cat-v|gen-any|num-any|pers-any|case-o|vib-ना_में|tam-nA|chunkId-VGNN2|chunkType-head|stype-|voicetype-	19	k7	_	_
14	में	में	PSP	psp	lex-में|cat-psp|gen-|num-|pers-|case-|vib-|tam-|chunkId-VGNN2|chunkType-child|stype-|voicetype-	13	lwg__psp	_	_
15	अपने	अपना	PRP	pn	lex-अपना|cat-pn|gen-m|num-any|pers-any|case-o|vib-0|tam-0|chunkId-NP6|chunkType-head|stype-|voicetype-	16	r6	_	_
16	प्रभाव	प्रभाव	NN	n	lex-प्रभाव|cat-n|gen-m|num-sg|pers-3|case-o|vib-0_का|tam-0|chunkId-NP7|chunkType-head|stype-|voicetype-	18	r6-k2	_	_
17	का	का	PSP	psp	lex-का|cat-psp|gen-m|num-sg|pers-|case-d|vib-|tam-|chunkId-NP7|chunkType-child|stype-|voicetype-	16	lwg__psp	_	_
18	इस्तेमाल	इस्तेमाल	NN	n	lex-इस्तेमाल|cat-n|gen-m|num-sg|pers-3|case-d|vib-0|tam-0|chunkId-NP8|chunkType-head|stype-|voicetype-	19	pof	_	_
19	कर	कर	VM	v	lex-कर|cat-v|gen-m|num-sg|pers-3|case-|vib-0_सक+ता_है|tam-0|chunkId-VGF2|chunkType-head|stype-declarative|voicetype-active	5	ccof	_	_
20	सकता	सक	VAUX	v	lex-सक|cat-v|gen-m|num-sg|pers-any|case-|vib-ता|tam-wA|chunkId-VGF2|chunkType-child|stype-|voicetype-	19	lwg__vaux	_	_
21	है	है	VAUX	v	lex-है|cat-v|gen-any|num-sg|pers-3|case-|vib-है|tam-hE|chunkId-VGF2|chunkType-child|stype-|voicetype-	19	lwg__vaux	_	_
22	।	।	SYM	punc	lex-।|cat-punc|gen-|num-|pers-|case-|vib-|tam-|chunkId-BLK|chunkType-head|stype-|voicetype-	5	rsym	_	_

1	उन्होंने	वह	PRP	pn	lex-वह|cat-pn|gen-any|num-sg|pers-3h|case-o|vib-ने|tam-ne|chunkId-NP|chunkType-head|stype-|voicetype-	2	k1	_	_
2	कहा	कह	VM	v	lex-कह|cat-v|gen-m|num-sg|pers-any|case-|vib-या|tam-yA|chunkId-VGF|chunkType-head|stype-declarative|voicetype-active	0	main	_	_
3	कि	कि	CC	avy	lex-कि|cat-avy|gen-|num-|pers-|case-|vib-|tam-|chunkId-CCP|chunkType-head|stype-|voicetype-	2	k2	_	_
4	ईरानी	ईरानी	NNC	adj	lex-ईरानी|cat-adj|gen-any|num-any|pers-|case-d|vib-|tam-|chunkId-NP2|chunkType-child|stype-|voicetype-	6	pof__cn	_	_
5	परमाणु	परमाणु	NNC	n	lex-परमाणु|cat-n|gen-m|num-sg|pers-3|case-d|vib-0|tam-0|chunkId-NP2|chunkType-child|stype-|voicetype-	6	pof__cn	_	_
6	कार्यक्रम	कार्यक्रम	NN	n	lex-कार्यक्रम|cat-n|gen-m|num-sg|pers-3|case-o|vib-0|tam-0|chunkId-NP2|chunkType-head|stype-|voicetype-	14	k1	_	_
7	विश्व	विश्व	NNC	n	lex-विश्व|cat-n|gen-m|num-sg|pers-3|case-d|vib-0|tam-0|chunkId-NP3|chunkType-child|stype-|voicetype-	8	pof__cn	_	_
8	शांति	शान्ति	NN	n	lex-शान्ति|cat-n|gen-f|num-sg|pers-3|case-o|vib-0_के_लिए|tam-0|chunkId-NP3|chunkType-head|stype-|voicetype-	14	rt	_	_
9	के	के	PSP	psp	lex-के|cat-psp|gen-|num-|pers-|case-|vib-|tam-|chunkId-NP3|chunkType-child|stype-|voicetype-	8	lwg__psp	_	_
10	लिए	लिए	PSP	psp	lex-लिए|cat-psp|gen-|num-|pers-|case-|vib-|tam-|chunkId-NP3|chunkType-child|stype-|voicetype-	8	lwg__psp	_	_
11	बहुत	बहुत	INTF	avy	lex-बहुत|cat-avy|gen-|num-|pers-|case-|vib-|tam-|chunkId-NP4|chunkType-child|stype-|voicetype-	12	jjmod__intf	_	_
12	बड़ा	बड़ा	JJ	adj	lex-बड़ा|cat-adj|gen-m|num-sg|pers-|case-d|vib-|tam-|chunkId-NP4|chunkType-child|stype-|voicetype-	13	nmod__adj	_	_
13	खतरा	खतरा	NN	n	lex-खतरा|cat-n|gen-m|num-sg|pers-3|case-d|vib-0|tam-0|chunkId-NP4|chunkType-head|stype-|voicetype-	14	k1s	_	_
14	है	है	VM	v	lex-है|cat-v|gen-any|num-sg|pers-3|case-|vib-है|tam-hE|chunkId-VGF2|chunkType-head|stype-declarative|voicetype-active	3	ccof	_	_
15	।	।	SYM	punc	lex-।|cat-punc|gen-|num-|pers-|case-|vib-|tam-|chunkId-BLK|chunkType-head|stype-|voicetype-	2	rsym	_	_

1	इससे	यह	PRP	pn	lex-यह|cat-pn|gen-any|num-sg|pers-3|case-o|vib-से|tam-se|chunkId-NP|chunkType-head|stype-|voicetype-	10	rh	_	_
2	न	न	NEG	avy	lex-न|cat-avy|gen-|num-|pers-|case-|vib-|tam-|chunkId-NEGP|chunkType-head|stype-|voicetype-	10	vmod	_	_
3	सिर्फ	सिर्फ	RP	avy	lex-सिर्फ|cat-avy|gen-|num-|pers-|case-|vib-|tam-|chunkId-NEGP|chunkType-child|stype-|voicetype-	2	lwg__rp	_	_
4	पश्चिम	पश्चिम	NNPC	n	lex-पश्चिम|cat-n|gen-m|num-sg|pers-3|case-d|vib-0|tam-0|chunkId-NP2|chunkType-child|stype-|voicetype-	5	pof__cn	_	_
5	एशिया	एशिया	NNP	n	lex-एशिया|cat-n|gen-m|num-sg|pers-3|case-o|vib-0_में|tam-0|chunkId-NP2|chunkType-head|stype-|voicetype-	10	k7p	_	_
6	में	में	PSP	psp	lex-में|cat-psp|gen-|num-|pers-|case-|vib-|tam-|chunkId-NP2|chunkType-child|stype-|voicetype-	5	lwg__psp	_	_
7	अशांति	अशान्ति	NN	n	lex-अशान्ति|cat-n|gen-f|num-sg|pers-3|case-d|vib-0|tam-0|chunkId-NP3|chunkType-head|stype-|voicetype-	8	ccof	_	_
8	और	और	CC	avy	lex-और|cat-avy|gen-|num-|pers-|case-|vib-|tam-|chunkId-CCP|chunkType-head|stype-|voicetype-	10	k1	_	_
9	अस्थिरता	अस्थिरता	NN	n	lex-अस्थिरता|cat-n|gen-f|num-sg|pers-3|case-d|vib-0|tam-0|chunkId-NP4|chunkType-head|stype-|voicetype-	8	ccof	_	_
10	बढ़ेगी	बढ़	VM	v	lex-बढ़|cat-v|gen-f|num-sg|pers-3|case-|vib-गा|tam-gA|chunkId-VGF|chunkType-head|stype-declarative|voicetype-active	11	ccof	_	_
11	बल्कि	बल्कि	CC	avy	lex-बल्कि|cat-avy|gen-|num-|pers-|case-|vib-|tam-|chunkId-CCP2|chunkType-head|stype-|voicetype-	0	main	_	_
12	पूरी	पूरा	JJ	adj	lex-पूरा|cat-adj|gen-f|num-sg|pers-|case-o|vib-|tam-|chunkId-NP5|chunkType-child|stype-|voicetype-	13	nmod__adj	_	_
13	दुनिया	दुनिया	NN	n	lex-दुनिया|cat-n|gen-f|num-sg|pers-3|case-o|vib-0_का|tam-0|chunkId-NP5|chunkType-head|stype-|voicetype-	15	r6	_	_
14	की	का	PSP	psp	lex-का|cat-psp|gen-f|num-sg|pers-|case-d|vib-|tam-|chunkId-NP5|chunkType-child|stype-|voicetype-	13	lwg__psp	_	_
15	सुरक्षा	सुरक्षा	NN	n	lex-सुरक्षा|cat-n|gen-f|num-sg|pers-3|case-d|vib-0|tam-0|chunkId-NP6|chunkType-head|stype-|voicetype-	18	k1	_	_
16	खतरे	खतरा	NN	n	lex-खतरा|cat-n|gen-m|num-sg|pers-3|case-o|vib-0_में|tam-0|chunkId-NP7|chunkType-head|stype-|voicetype-	18	k7	_	_
17	में	में	PSP	psp	lex-में|cat-psp|gen-|num-|pers-|case-|vib-|tam-|chunkId-NP7|chunkType-child|stype-|voicetype-	16	lwg__psp	_	_
18	पड़	पड़	VM	v	lex-पड़|cat-v|gen-any|num-sg|pers-3|case-|vib-0_जा+गा|tam-0|chunkId-VGF2|chunkType-head|stype-declarative|voicetype-active	11	ccof	_	_
19	जाएगी	जा	VAUX	v	lex-जा|cat-v|gen-f|num-sg|pers-3|case-|vib-गा|tam-gA|chunkId-VGF2|chunkType-child|stype-|voicetype-	18	lwg__vaux	_	_
20	।	।	SYM	punc	lex-।|cat-punc|gen-|num-|pers-|case-|vib-|tam-|chunkId-BLK|chunkType-head|stype-|voicetype-	11	rsym	_	_

1	उन्होंने	वह	PRP	pn	lex-वह|cat-pn|gen-any|num-sg|pers-3h|case-o|vib-ने|tam-ne|chunkId-NP|chunkType-head|stype-|voicetype-	2	k1	_	_
2	कहा	कह	VM	v	lex-कह|cat-v|gen-m|num-sg|pers-any|case-|vib-या|tam-yA|chunkId-VGF|chunkType-head|stype-declarative|voicetype-active	0	main	_	_
3	कि	कि	CC	avy	lex-कि|cat-avy|gen-|num-|pers-|case-|vib-|tam-|chunkId-CCP|chunkType-head|stype-|voicetype-	2	k2	_	_
4	इसकी	यह	PRP	pn	lex-यह|cat-pn|gen-f|num-sg|pers-3|case-o|vib-का|tam-kA|chunkId-NP2|chunkType-head|stype-|voicetype-	6	r6	_	_
5	अधिक	अधिक	QF	avy	lex-अधिक|cat-avy|gen-|num-|pers-|case-|vib-|tam-|chunkId-NP3|chunkType-child|stype-|voicetype-	6	nmod__adj	_	_
6	संभावना	संभावना	NN	n	lex-संभावना|cat-n|gen-f|num-sg|pers-3|case-d|vib-0|tam-0|chunkId-NP3|chunkType-head|stype-|voicetype-	7	k1	_	_
7	है	है	VM	v	lex-है|cat-v|gen-any|num-sg|pers-3|case-|vib-है|tam-hE|chunkId-VGF2|chunkType-head|stype-declarative|voicetype-active	3	ccof	_	_
8	कि	कि	CC	avy	lex-कि|cat-avy|gen-|num-|pers-|case-|vib-|tam-|chunkId-CCP2|chunkType-head|stype-|voicetype-	4	rs	_	_
9	परमाणु	परमाणु	NNC	n	lex-परमाणु|cat-n|gen-m|num-sg|pers-3|case-d|vib-0|tam-0|chunkId-NP4|chunkType-child|stype-|voicetype-	10	pof__cn	_	_
10	हथियार	हथियार	NN	n	lex-हथियार|cat-n|gen-m|num-pl|pers-3|case-d|vib-0|tam-0|chunkId-NP4|chunkType-head|stype-|voicetype-	14	k1	_	_
11	आतंकवादियों	आतंकवादी	NN	n	lex-आतंकवादी|cat-n|gen-m|num-pl|pers-3|case-o|vib-0_का|tam-0|chunkId-NP5|chunkType-head|stype-|voicetype-	13	r6-k2	_	_
12	के	का	PSP	psp	lex-का|cat-psp|gen-m|num-pl|pers-|case-d|vib-|tam-|chunkId-NP5|chunkType-child|stype-|voicetype-	11	lwg__psp	_	_
13	हाथ	हाथ	NN	n	lex-हाथ|cat-n|gen-m|num-pl|pers-3|case-d|vib-0|tam-0|chunkId-NP6|chunkType-head|stype-|voicetype-	14	pof	_	_
14	लग	लग	VM	v	lex-लग|cat-v|gen-any|num-pl|pers-3|case-|vib-0_जा+एं|tam-0|chunkId-VGF3|chunkType-head|stype-declarative|voicetype-active	8	ccof	_	_
15	जाए	जा	VAUX	v	lex-जा|cat-v|gen-any|num-pl|pers-3|case-|vib-एं|tam-eM|chunkId-VGF3|chunkType-child|stype-|voicetype-	14	lwg__vaux	_	_
16	।	।	SYM	punc	lex-।|cat-punc|gen-|num-|pers-|case-|vib-|tam-|chunkId-BLK|chunkType-head|stype-|voicetype-	2	rsym	_	_

1	बाद	बाद	NST	nst	lex-बाद|cat-nst|gen-m|num-sg|pers-3|case-o|vib-0_में|tam-|chunkId-NP|chunkType-head|stype-|voicetype-	9	k7t	_	_
2	में	में	PSP	psp	lex-में|cat-psp|gen-|num-|pers-|case-|vib-|tam-|chunkId-NP|chunkType-child|stype-|voicetype-	1	lwg__psp	_	_
3	उन्होंने	वह	PRP	pn	lex-वह|cat-pn|gen-any|num-sg|pers-3h|case-o|vib-ने|tam-ne|chunkId-NP2|chunkType-head|stype-|voicetype-	9	k1	_	_
4	पत्रकारों	पत्रकार	NN	n	lex-पत्रकार|cat-n|gen-m|num-pl|pers-3|case-o|vib-0_से|tam-0|chunkId-NP3|chunkType-head|stype-|voicetype-	9	k4	_	_
5	से	से	PSP	psp	lex-से|cat-psp|gen-|num-|pers-|case-|vib-|tam-|chunkId-NP3|chunkType-child|stype-|voicetype-	4	lwg__psp	_	_
6	बातचीत	बातचीत	NN	n	lex-बातचीत|cat-n|gen-f|num-sg|pers-3|case-d|vib-0|tam-0|chunkId-NP4|chunkType-head|stype-|voicetype-	7	pof	_	_
7	करते	कर	VM	v	lex-कर|cat-v|gen-m|num-sg|pers-any|case-|vib-ता_हो+या|tam-wA|chunkId-VGNF|chunkType-head|stype-|voicetype-	9	vmod	_	_
8	हुए	हो	VAUX	v	lex-हो|cat-v|gen-m|num-sg|pers-any|case-|vib-या|tam-yA|chunkId-VGNF|chunkType-child|stype-|voicetype-	7	lwg__vaux	_	_
9	कहा	कह	VM	v	lex-कह|cat-v|gen-m|num-sg|pers-any|case-|vib-या|tam-yA|chunkId-VGF|chunkType-head|stype-declarative|voicetype-active	0	main	_	_
10	कि	कि	CC	avy	lex-कि|cat-avy|gen-|num-|pers-|case-|vib-|tam-|chunkId-CCP|chunkType-head|stype-|voicetype-	9	k2	_	_
11	वे	वह	PRP	pn	lex-वह|cat-pn|gen-any|num-sg|pers-3h|case-d|vib-0|tam-0|chunkId-NP5|chunkType-head|stype-|voicetype-	17	k1	_	_
12	भारत	भारत	NNP	n	lex-भारत|cat-n|gen-m|num-sg|pers-3|case-o|vib-0_का|tam-0|chunkId-NP6|chunkType-head|stype-|voicetype-	16	r6-k2	_	_
13	की	का	PSP	psp	lex-का|cat-psp|gen-f|num-sg|pers-|case-o|vib-|tam-|chunkId-NP6|chunkType-child|stype-|voicetype-	12	lwg__psp	_	_
14	इसके	यह	PRP	pn	lex-यह|cat-pn|gen-any|num-sg|pers-3|case-o|vib-0_लिए|tam-ke|chunkId-NP7|chunkType-head|stype-|voicetype-	17	rt	_	_
15	लिए	लिए	PSP	psp	lex-लिए|cat-psp|gen-|num-|pers-|case-|vib-|tam-|chunkId-NP7|chunkType-child|stype-|voicetype-	14	lwg__psp	_	_
16	तारीफ	तारीफ	NN	n	lex-तारीफ|cat-n|gen-f|num-sg|pers-3|case-d|vib-0|tam-0|chunkId-NP8|chunkType-head|stype-|voicetype-	17	pof	_	_
17	करते	कर	VM	v	lex-कर|cat-v|gen-m|num-sg|pers-3h|case-|vib-ता_है|tam-wA|chunkId-VGF2|chunkType-head|stype-declarative|voicetype-active	10	ccof	_	_
18	हैं	है	VAUX	v	lex-है|cat-v|gen-any|num-sg|pers-3h|case-|vib-है|tam-hE|chunkId-VGF2|chunkType-child|stype-|voicetype-	17	lwg__vaux	_	_
19	कि	कि	CC	avy	lex-कि|cat-avy|gen-|num-|pers-|case-|vib-|tam-|chunkId-CCP2|chunkType-head|stype-|voicetype-	17	k2	_	_
20	उसने	वह	PRP	pn	lex-वह|cat-pn|gen-any|num-sg|pers-3|case-o|vib-ने|tam-ne|chunkId-NP9|chunkType-head|stype-|voicetype-	30	k1	_	_
21	अंतर्राष्ट्रीय	अंतर्राष्ट्रीय	NNPC	adj	lex-अंतर्राष्ट्रीय|cat-adj|gen-any|num-any|pers-|case-o|vib-|tam-|chunkId-NP10|chunkType-child|stype-|voicetype-	24	pof__cn	_	_
22	परमाणु	परमाणु	NNPC	n	lex-परमाणु|cat-n|gen-m|num-sg|pers-3|case-d|vib-0|tam-0|chunkId-NP10|chunkType-child|stype-|voicetype-	24	pof__cn	_	_
23	ऊर्जा	ऊर्जा	NNPC	n	lex-ऊर्जा|cat-n|gen-f|num-sg|pers-3|case-d|vib-0|tam-0|chunkId-NP10|chunkType-child|stype-|voicetype-	24	pof__cn	_	_
24	एजेंसी	एजेंसी	NNP	n	lex-एजेंसी|cat-n|gen-f|num-sg|pers-3|case-o|vib-0_में|tam-0|chunkId-NP10|chunkType-head|stype-|voicetype-	30	k7	_	_
25	में	में	PSP	psp	lex-में|cat-psp|gen-|num-|pers-|case-|vib-|tam-|chunkId-NP10|chunkType-child|stype-|voicetype-	24	lwg__psp	_	_
26	ईरान	ईरान	NNP	n	lex-ईरान|cat-n|gen-m|num-sg|pers-3|case-o|vib-0_के_खिलाफ|tam-0|chunkId-NP11|chunkType-head|stype-|voicetype-	30	vmod	_	_
27	के	के	PSP	psp	lex-के|cat-psp|gen-|num-|pers-|case-|vib-|tam-|chunkId-NP11|chunkType-child|stype-|voicetype-	26	lwg__psp	_	_
28	खिलाफ	खिलाफ	PSP	adj	lex-खिलाफ|cat-adj|gen-|num-|pers-|case-|vib-|tam-|chunkId-NP11|chunkType-child|stype-|voicetype-	26	lwg__psp	_	_
29	वोट	वोट	NN	n	lex-वोट|cat-n|gen-m|num-sg|pers-3|case-d|vib-0|tam-0|chunkId-NP12|chunkType-head|stype-|voicetype-	30	k2	_	_
30	डाला	डाल	VM	v	lex-डाल|cat-v|gen-m|num-sg|pers-any|case-|vib-या|tam-yA|chunkId-VGF3|chunkType-head|stype-declarative|voicetype-active	19	ccof	_	_
31	।	।	SYM	punc	lex-।|cat-punc|gen-|num-|pers-|case-|vib-|tam-|chunkId-BLK|chunkType-head|stype-|voicetype-	9	rsym	_	_

1	उन्होंने	वह	PRP	pn	lex-वह|cat-pn|gen-any|num-sg|pers-3h|case-o|vib-ने|tam-ne|chunkId-NP|chunkType-head|stype-|voicetype-	2	k1	_	_
2	कहा	कह	VM	v	lex-कह|cat-v|gen-m|num-sg|pers-any|case-|vib-या|tam-yA|chunkId-VGF|chunkType-head|stype-declarative|voicetype-active	0	main	_	_
3	कि	कि	CC	avy	lex-कि|cat-avy|gen-|num-|pers-|case-|vib-|tam-|chunkId-CCP|chunkType-head|stype-|voicetype-	2	k2	_	_
4	भारत	भारत	NNP	n	lex-भारत|cat-n|gen-m|num-sg|pers-3|case-d|vib-0|tam-0|chunkId-NP2|chunkType-child|stype-|voicetype-	7	nmod__adj	_	_
5	-	-	SYM	punc	lex--|cat-punc|gen-|num-|pers-|case-|vib-|tam-|chunkId-NP2|chunkType-child|stype-|voicetype-	7	rsym	_	_
6	इस्राइल	इस्राइल	NNP	n	lex-इस्राइल|cat-n|gen-m|num-sg|pers-3|case-d|vib-0|tam-0|chunkId-NP2|chunkType-child|stype-|voicetype-	7	nmod__adj	_	_
7	संबंध	संबंध	NN	n	lex-संबंध|cat-n|gen-m|num-pl|pers-3|case-d|vib-0|tam-0|chunkId-NP2|chunkType-head|stype-|voicetype-	11	k1	_	_
8	तेजी	तेजी	NN	n	lex-तेजी|cat-n|gen-f|num-sg|pers-3|case-o|vib-0_से|tam-0|chunkId-NP3|chunkType-head|stype-|voicetype-	11	adv	_	_
9	से	से	PSP	psp	lex-से|cat-psp|gen-|num-|pers-|case-|vib-|tam-|chunkId-NP3|chunkType-child|stype-|voicetype-	8	lwg__psp	_	_
10	प्रगाढ़	प्रगाढ	JJ	adj	lex-प्रगाढ|cat-adj|gen-any|num-any|pers-|case-|vib-|tam-|chunkId-JJP|chunkType-head|stype-|voicetype-	11	k1s	_	_
11	होता	हो	VM	v	lex-हो|cat-v|gen-m|num-sg|pers-3|case-|vib-ता_जा_रह+या_है|tam-wA|chunkId-VGF2|chunkType-head|stype-declarative|voicetype-active	3	ccof	_	_
12	जा	जा	VAUX	v	lex-जा|cat-v|gen-any|num-any|pers-any|case-|vib-0|tam-0|chunkId-VGF2|chunkType-child|stype-|voicetype-	11	lwg__vaux	_	_
13	रहा	रह	VAUX	v	lex-रह|cat-v|gen-m|num-sg|pers-any|case-|vib-या|tam-yA|chunkId-VGF2|chunkType-child|stype-|voicetype-	11	lwg__vaux	_	_
14	है	है	VAUX	v	lex-है|cat-v|gen-any|num-sg|pers-3|case-|vib-है|tam-hE|chunkId-VGF2|chunkType-child|stype-|voicetype-	11	lwg__vaux	_	_
15	।	।	SYM	punc	lex-।|cat-punc|gen-|num-|pers-|case-|vib-|tam-|chunkId-BLK|chunkType-head|stype-|voicetype-	2	rsym	_	_

1	उन्होंने	वह	PRP	pn	lex-वह|cat-pn|gen-any|num-sg|pers-3h|case-o|vib-ने|tam-ne|chunkId-NP|chunkType-head|stype-|voicetype-	2	k1	_	_
2	कहा	कह	VM	v	lex-कह|cat-v|gen-m|num-sg|pers-any|case-|vib-या|tam-yA|chunkId-VGF|chunkType-head|stype-declarative|voicetype-active	0	main	_	_
3	कि	कि	CC	avy	lex-कि|cat-avy|gen-|num-|pers-|case-|vib-|tam-|chunkId-CCP|chunkType-head|stype-|voicetype-	2	k2	_	_
4	भारत	भारत	NNP	n	lex-भारत|cat-n|gen-m|num-sg|pers-3|case-d|vib-0|tam-0|chunkId-NP2|chunkType-head|stype-|voicetype-	17	k1	_	_
5	अपनी	अपना	PRP	pn	lex-अपना|cat-pn|gen-f|num-any|pers-any|case-o|vib-0|tam-0|chunkId-NP3|chunkType-head|stype-|voicetype-	7	r6	_	_
6	विशाल	विशाल	JJ	adj	lex-विशाल|cat-adj|gen-any|num-any|pers-|case-o|vib-|tam-|chunkId-NP4|chunkType-child|stype-|voicetype-	7	nmod__adj	_	_
7	आबादी	आबादी	NN	n	lex-आबादी|cat-n|gen-f|num-sg|pers-3|case-o|vib-0|tam-0|chunkId-NP4|chunkType-head|stype-|voicetype-	8	ccof	_	_
8	और	और	CC	avy	lex-और|cat-avy|gen-|num-|pers-|case-|vib-|tam-|chunkId-CCP2|chunkType-head|stype-|voicetype-	17	rh	_	_
9	आकार	आकार	NN	n	lex-आकार|cat-n|gen-m|num-sg|pers-3|case-o|vib-0_के_कारण|tam-0|chunkId-NP5|chunkType-head|stype-|voicetype-	8	ccof	_	_
10	के	के	PSP	psp	lex-के|cat-psp|gen-m|num-|pers-|case-o|vib-|tam-|chunkId-NP5|chunkType-child|stype-|voicetype-	9	lwg__psp	_	_
11	कारण	कारण	PSP	n	lex-कारण|cat-n|gen-m|num-|pers-|case-o|vib-|tam-|chunkId-NP5|chunkType-child|stype-|voicetype-	9	lwg__psp	_	_
12	पहले	पहले	NST	nst	lex-पहले|cat-nst|gen-m|num-sg|pers-3|case-o|vib-0_से|tam-|chunkId-NP6|chunkType-head|stype-|voicetype-	17	k7t	_	_
13	से	से	PSP	psp	lex-से|cat-psp|gen-|num-|pers-|case-|vib-|tam-|chunkId-NP6|chunkType-child|stype-|voicetype-	12	lwg__psp	_	_
14	ही	ही	RP	avy	lex-ही|cat-avy|gen-|num-|pers-|case-|vib-|tam-|chunkId-NP6|chunkType-child|stype-|voicetype-	12	lwg__rp	_	_
15	महत्वपूर्ण	महत्वपूर्ण	JJ	adj	lex-महत्वपूर्ण|cat-adj|gen-any|num-any|pers-|case-d|vib-|tam-|chunkId-NP7|chunkType-child|stype-|voicetype-	16	nmod__adj	_	_
16	देश	देश	NN	n	lex-देश|cat-n|gen-m|num-sg|pers-3|case-d|vib-0|tam-0|chunkId-NP7|chunkType-head|stype-|voicetype-	17	k1s	_	_
17	है	है	VM	v	lex-है|cat-v|gen-any|num-sg|pers-3|case-|vib-है|tam-hE|chunkId-VGF2|chunkType-head|stype-declarative|voicetype-active	3	ccof	_	_
18	।	।	SYM	punc	lex-।|cat-punc|gen-|num-|pers-|case-|vib-|tam-|chunkId-BLK|chunkType-head|stype-|voicetype-	2	rsym	_	_

1	इस्राइल	इस्राइल	NNP	n	lex-इस्राइल|cat-n|gen-m|num-sg|pers-3|case-d|vib-0|tam-0|chunkId-NP|chunkType-head|stype-|voicetype-	10	k1	_	_
2	भारत	भारत	NNP	n	lex-भारत|cat-n|gen-m|num-sg|pers-3|case-o|vib-0_के_साथ|tam-0|chunkId-NP2|chunkType-head|stype-|voicetype-	10	ras-k1	_	_
3	के	के	PSP	psp	lex-के|cat-psp|gen-|num-|pers-|case-|vib-|tam-|chunkId-NP2|chunkType-child|stype-|voicetype-	2	lwg__psp	_	_
4	साथ	साथ	NST	nst	lex-साथ|cat-nst|gen-m|num-sg|pers-3|case-d|vib-|tam-|chunkId-NP2|chunkType-child|stype-|voicetype-	2	lwg__psp	_	_
5	अपने	अपना	PRP	pn	lex-अपना|cat-pn|gen-m|num-any|pers-any|case-o|vib-0|tam-0|chunkId-NP3|chunkType-head|stype-|voicetype-	6	r6	_	_
6	रिश्ते	रिश्ता	NN	n	lex-रिश्ता|cat-n|gen-m|num-sg|pers-3|case-o|vib-0_को|tam-0|chunkId-NP4|chunkType-head|stype-|voicetype-	10	k4	_	_
7	को	को	PSP	psp	lex-को|cat-psp|gen-|num-|pers-|case-|vib-|tam-|chunkId-NP4|chunkType-child|stype-|voicetype-	6	lwg__psp	_	_
8	उच्च	उच्च	JJ	adj	lex-उच्च|cat-adj|gen-any|num-any|pers-|case-d|vib-|tam-|chunkId-NP5|chunkType-child|stype-|voicetype-	9	nmod__adj	_	_
9	प्राथमिकता	प्राथमिकता	NN	n	lex-प्राथमिकता|cat-n|gen-f|num-sg|pers-3|case-d|vib-0|tam-0|chunkId-NP5|chunkType-head|stype-|voicetype-	10	k2	_	_
10	देता	दे	VM	v	lex-दे|cat-v|gen-m|num-sg|pers-3|case-|vib-ता_है|tam-wA|chunkId-VGF|chunkType-head|stype-declarative|voicetype-active	0	main	_	_
11	है	है	VAUX	v	lex-है|cat-v|gen-any|num-sg|pers-3|case-|vib-है|tam-hE|chunkId-VGF|chunkType-child|stype-|voicetype-	10	lwg__vaux	_	_
12	।	।	SYM	punc	lex-।|cat-punc|gen-|num-|pers-|case-|vib-|tam-|chunkId-BLK|chunkType-head|stype-|voicetype-	10	rsym	_	_

1	उन्होंने	वह	PRP	pn	lex-वह|cat-pn|gen-any|num-sg|pers-3h|case-o|vib-ने|tam-ne|chunkId-NP|chunkType-head|stype-|voicetype-	14	k1	_	_
2	अहमदीनेजाद	अहमदीनेजाद	NNP	n	lex-अहमदीनेजाद|cat-n|gen-m|num-sg|pers-3|case-o|vib-0_का|tam-0|chunkId-NP2|chunkType-head|stype-|voicetype-	4	r6	_	_
3	के	का	PSP	psp	lex-का|cat-psp|gen-m|num-sg|pers-|case-o|vib-|tam-|chunkId-NP2|chunkType-child|stype-|voicetype-	2	lwg__psp	_	_
4	नेतृत्व	नेतृत्व	NN	n	lex-नेतृत्व|cat-n|gen-m|num-sg|pers-3|case-o|vib-0_वाला|tam-0|chunkId-NP3|chunkType-head|stype-|voicetype-	8	nmod	_	_
5	वाली	वाला	PSP	psp	lex-वाला|cat-psp|gen-f|num-sg|pers-|case-o|vib-|tam-|chunkId-NP3|chunkType-child|stype-|voicetype-	4	lwg__psp	_	_
6	मौजूदा	मौजूदा	JJ	adj	lex-मौजूदा|cat-adj|gen-any|num-any|pers-|case-o|vib-|tam-|chunkId-NP4|chunkType-child|stype-|voicetype-	8	nmod__adj	_	_
7	ईरानी	ईरानी	JJ	adj	lex-ईरानी|cat-adj|gen-any|num-any|pers-|case-o|vib-|tam-|chunkId-NP4|chunkType-child|stype-|voicetype-	8	nmod__adj	_	_
8	सरकार	सरकार	NN	n	lex-सरकार|cat-n|gen-f|num-sg|pers-3|case-o|vib-0_को|tam-0|chunkId-NP4|chunkType-head|stype-|voicetype-	14	k4	_	_
9	को	को	PSP	psp	lex-को|cat-psp|gen-|num-|pers-|case-|vib-|tam-|chunkId-NP4|chunkType-child|stype-|voicetype-	8	lwg__psp	_	_
10	कट्टरपंथी	कट्टरपंथी	JJ	adj	lex-कट्टरपंथी|cat-adj|gen-any|num-any|pers-|case-d|vib-|tam-|chunkId-JJP|chunkType-head|stype-|voicetype-	11	ccof	_	_
11	और	और	CC	avy	lex-और|cat-avy|gen-|num-|pers-|case-|vib-|tam-|chunkId-CCP|chunkType-head|stype-|voicetype-	13	nmod	_	_
12	अड़ियल	अड़ियल	JJ	adj	lex-अड़ियल|cat-adj|gen-any|num-any|pers-|case-d|vib-|tam-|chunkId-JJP2|chunkType-head|stype-|voicetype-	11	ccof	_	_
13	करार	करार	NN	n	lex-करार|cat-n|gen-m|num-sg|pers-3|case-d|vib-0|tam-0|chunkId-NP5|chunkType-head|stype-|voicetype-	14	pof	_	_
14	दिया	दे	VM	v	lex-दे|cat-v|gen-m|num-sg|pers-any|case-|vib-या|tam-yA|chunkId-VGF|chunkType-head|stype-declarative|voicetype-active	0	main	_	_
15	।	।	SYM	punc	lex-।|cat-punc|gen-|num-|pers-|case-|vib-|tam-|chunkId-BLK|chunkType-head|stype-|voicetype-	14	rsym	_	_

1	बराक	बराक	NNP	n	lex-बराक|cat-n|gen-m|num-sg|pers-3|case-o|vib-0_ने|tam-0|chunkId-NP|chunkType-head|stype-|voicetype-	3	k1	_	_
2	ने	ने	PSP	psp	lex-ने|cat-psp|gen-|num-|pers-|case-|vib-|tam-|chunkId-NP|chunkType-child|stype-|voicetype-	1	lwg__psp	_	_
3	कहा	कह	VM	v	lex-कह|cat-v|gen-m|num-sg|pers-any|case-|vib-या|tam-yA|chunkId-VGF|chunkType-head|stype-declarative|voicetype-active	0	main	_	_
4	कि	कि	CC	avy	lex-कि|cat-avy|gen-|num-|pers-|case-|vib-|tam-|chunkId-CCP|chunkType-head|stype-|voicetype-	3	k2	_	_
5	अमेरिका	अमेरिका	NNP	n	lex-अमेरिका|cat-n|gen-m|num-sg|pers-3|case-o|vib-0_ने|tam-0|chunkId-NP2|chunkType-head|stype-|voicetype-	11	k1	_	_
6	ने	ने	PSP	psp	lex-ने|cat-psp|gen-|num-|pers-|case-|vib-|tam-|chunkId-NP2|chunkType-child|stype-|voicetype-	5	lwg__psp	_	_
7	इराक	इराक	NNP	n	lex-इराक|cat-n|gen-m|num-sg|pers-3|case-o|vib-0_में|tam-0|chunkId-NP3|chunkType-head|stype-|voicetype-	11	k7p	_	_
8	में	में	PSP	psp	lex-में|cat-psp|gen-|num-|pers-|case-|vib-|tam-|chunkId-NP3|chunkType-child|stype-|voicetype-	7	lwg__psp	_	_
9	भारी	भारी	JJ	adj	lex-भारी|cat-adj|gen-any|num-any|pers-|case-d|vib-|tam-|chunkId-NP4|chunkType-child|stype-|voicetype-	10	nmod__adj	_	_
10	गलती	गलती	NN	n	lex-गलती|cat-n|gen-f|num-sg|pers-3|case-d|vib-0|tam-0|chunkId-NP4|chunkType-head|stype-|voicetype-	11	pof	_	_
11	की	कर	VM	v	lex-कर|cat-v|gen-f|num-sg|pers-3|case-|vib-या_है|tam-yA|chunkId-VGF2|chunkType-head|stype-declarative|voicetype-active	4	ccof	_	_
12	है	है	VAUX	v	lex-है|cat-v|gen-any|num-sg|pers-3|case-|vib-है|tam-hE|chunkId-VGF2|chunkType-child|stype-|voicetype-	11	lwg__vaux	_	_
13	।	।	SYM	punc	lex-।|cat-punc|gen-|num-|pers-|case-|vib-|tam-|chunkId-BLK|chunkType-head|stype-|voicetype-	3	rsym	_	_

1	उन्होंने	वह	PRP	pn	lex-वह|cat-pn|gen-any|num-sg|pers-3h|case-o|vib-ने|tam-ne|chunkId-NP|chunkType-head|stype-|voicetype-	5	k1	_	_
2	चेतावनी	चेतावनी	NN	n	lex-चेतावनी|cat-n|gen-f|num-sg|pers-3|case-d|vib-0|tam-0|chunkId-NP2|chunkType-head|stype-|voicetype-	3	k2	_	_
3	देते	दे	VM	v	lex-दे|cat-v|gen-m|num-sg|pers-any|case-|vib-ता_हो+या|tam-wA|chunkId-VGNF|chunkType-head|stype-|voicetype-	5	vmod	_	_
4	हुए	हो	VAUX	v	lex-हो|cat-v|gen-m|num-sg|pers-any|case-|vib-या|tam-yA|chunkId-VGNF|chunkType-child|stype-|voicetype-	3	lwg__vaux	_	_
5	कहा	कह	VM	v	lex-कह|cat-v|gen-m|num-sg|pers-any|case-|vib-या|tam-yA|chunkId-VGF|chunkType-head|stype-declarative|voicetype-active	0	main	_	_
6	कि	कि	CC	avy	lex-कि|cat-avy|gen-|num-|pers-|case-|vib-|tam-|chunkId-CCP|chunkType-head|stype-|voicetype-	5	k2	_	_
7	इराक	इराक	NNP	n	lex-इराक|cat-n|gen-m|num-sg|pers-3|case-o|vib-0_में|tam-0|chunkId-NP3|chunkType-head|stype-|voicetype-	14	k7p	_	_
8	में	में	PSP	psp	lex-में|cat-psp|gen-|num-|pers-|case-|vib-|tam-|chunkId-NP3|chunkType-child|stype-|voicetype-	7	lwg__psp	_	_
9	उसकी	वह	PRP	pn	lex-वह|cat-pn|gen-f|num-sg|pers-3|case-o|vib-का|tam-kA|chunkId-NP4|chunkType-head|stype-|voicetype-	12	r6	_	_
10	उपस्थिति	उपस्थिति	NN	n	lex-उपस्थिति|cat-n|gen-f|num-sg|pers-3|case-o|vib-0_से|tam-0|chunkId-NP5|chunkType-head|stype-|voicetype-	14	rh	_	_
11	से	से	PSP	psp	lex-से|cat-psp|gen-|num-|pers-|case-|vib-|tam-|chunkId-NP5|chunkType-child|stype-|voicetype-	10	lwg__psp	_	_
12	समस्या	समस्या	NN	n	lex-समस्या|cat-n|gen-f|num-sg|pers-3|case-d|vib-0|tam-0|chunkId-NP6|chunkType-head|stype-|voicetype-	14	k1	_	_
13	पैदा	पैदा	JJ	adj	lex-पैदा|cat-adj|gen-any|num-any|pers-|case-|vib-|tam-|chunkId-JJP|chunkType-head|stype-|voicetype-	14	pof	_	_
14	होगी	हो	VM	v	lex-हो|cat-v|gen-f|num-sg|pers-3|case-|vib-गा|tam-gA|chunkId-VGF2|chunkType-head|stype-declarative|voicetype-active	6	ccof	_	_
15	जिसका	जो	PRP	pn	lex-जो|cat-pn|gen-m|num-sg|pers-3|case-o|vib-का|tam-kA|chunkId-NP7|chunkType-head|stype-|voicetype-	18	r6	_	_
16	मध्यपूर्व	मध्यपूर्व	NN	n	lex-मध्यपूर्व|cat-n|gen-m|num-sg|pers-3|case-o|vib-0_का|tam-0|chunkId-NP8|chunkType-head|stype-|voicetype-	18	r6	_	_
17	के	का	PSP	psp	lex-का|cat-psp|gen-m|num-pl|pers-|case-o|vib-|tam-|chunkId-NP8|chunkType-child|stype-|voicetype-	16	lwg__psp	_	_
18	देशों	देश	NN	n	lex-देश|cat-n|gen-m|num-pl|pers-3|case-o|vib-0_पर|tam-0|chunkId-NP9|chunkType-head|stype-|voicetype-	22	k7p	_	_
19	पर	पर	PSP	psp	lex-पर|cat-psp|gen-|num-|pers-|case-|vib-|tam-|chunkId-NP9|chunkType-child|stype-|voicetype-	18	lwg__psp	_	_
20	बुरा	बुरा	JJ	adj	lex-बुरा|cat-adj|gen-m|num-sg|pers-|case-d|vib-|tam-|chunkId-NP10|chunkType-child|stype-|voicetype-	21	nmod__adj	_	_
21	असर	असर	NN	n	lex-असर|cat-n|gen-m|num-sg|pers-3|case-d|vib-0|tam-0|chunkId-NP10|chunkType-head|stype-|voicetype-	22	k1	_	_
22	पड़ेगा	पड़	VM	v	lex-पड़|cat-v|gen-m|num-sg|pers-3|case-|vib-गा|tam-gA|chunkId-VGF3|chunkType-head|stype-declarative|voicetype-active	12	nmod__relc	_	_
23	।	।	SYM	punc	lex-।|cat-punc|gen-|num-|pers-|case-|vib-|tam-|chunkId-BLK|chunkType-head|stype-|voicetype-	5	rsym	_	_

1	इराक	इराक	NNP	n	lex-इराक|cat-n|gen-m|num-sg|pers-3|case-o|vib-0_में|tam-0|chunkId-NP|chunkType-head|stype-|voicetype-	6	k7p	_	_
2	में	में	PSP	psp	lex-में|cat-psp|gen-|num-|pers-|case-|vib-|tam-|chunkId-NP|chunkType-child|stype-|voicetype-	1	lwg__psp	_	_
3	अमेरिकी	अमेरिकी	JJ	adj	lex-अमेरिकी|cat-adj|gen-any|num-any|pers-|case-o|vib-|tam-|chunkId-NP2|chunkType-child|stype-|voicetype-	4	nmod__adj	_	_
4	सैनिकों	सैनिक	NN	n	lex-सैनिक|cat-n|gen-m|num-pl|pers-3|case-o|vib-0_को|tam-0|chunkId-NP2|chunkType-head|stype-|voicetype-	6	k4	_	_
5	को	को	PSP	psp	lex-को|cat-psp|gen-|num-|pers-|case-|vib-|tam-|chunkId-NP2|chunkType-child|stype-|voicetype-	4	lwg__psp	_	_
6	मिली	मिल	VM	v	lex-मिल|cat-v|gen-f|num-sg|pers-any|case-|vib-या|tam-yA|chunkId-VGNF|chunkType-head|stype-|voicetype-	7	nmod__k1inv	_	_
7	जीत	जीत	NN	n	lex-जीत|cat-n|gen-f|num-sg|pers-3|case-o|vib-0_के_बाद|tam-0|chunkId-NP3|chunkType-head|stype-|voicetype-	15	k7t	_	_
8	के	के	PSP	psp	lex-के|cat-psp|gen-|num-|pers-|case-|vib-|tam-|chunkId-NP3|chunkType-child|stype-|voicetype-	7	lwg__psp	_	_
9	बाद	बाद	NST	nst	lex-बाद|cat-nst|gen-m|num-sg|pers-3|case-d|vib-|tam-|chunkId-NP3|chunkType-child|stype-|voicetype-	7	lwg__psp	_	_
10	अमेरिका	अमेरिका	NNP	n	lex-अमेरिका|cat-n|gen-m|num-sg|pers-3|case-d|vib-0|tam-0|chunkId-NP4|chunkType-head|stype-|voicetype-	15	k1	_	_
11	वहां	वहाँ	PRP	pn	lex-वहाँ|cat-pn|gen-|num-|pers-|case-|vib-|tam-|chunkId-NP5|chunkType-head|stype-|voicetype-	12	k7t	_	_
12	रहकर	रह	VM	v	lex-रह|cat-v|gen-any|num-any|pers-any|case-|vib-कर|tam-kara|chunkId-VGNF2|chunkType-head|stype-|voicetype-	15	vmod	_	_
13	भारी	भारी	JJ	adj	lex-भारी|cat-adj|gen-any|num-any|pers-|case-d|vib-|tam-|chunkId-NP6|chunkType-child|stype-|voicetype-	14	nmod__adj	_	_
14	भूल	भूल	NN	n	lex-भूल|cat-n|gen-f|num-sg|pers-3|case-d|vib-0|tam-0|chunkId-NP6|chunkType-head|stype-|voicetype-	15	pof	_	_
15	कर	कर	VM	v	lex-कर|cat-v|gen-m|num-sg|pers-3|case-|vib-0_रह+या_है|tam-0|chunkId-VGF|chunkType-head|stype-declarative|voicetype-active	0	main	_	_
16	रहा	रह	VAUX	v	lex-रह|cat-v|gen-m|num-sg|pers-any|case-|vib-या|tam-yA|chunkId-VGF|chunkType-child|stype-|voicetype-	15	lwg__vaux	_	_
17	है	है	VAUX	v	lex-है|cat-v|gen-any|num-sg|pers-3|case-|vib-है|tam-hE|chunkId-VGF|chunkType-child|stype-|voicetype-	15	lwg__vaux	_	_
18	।	।	SYM	punc	lex-।|cat-punc|gen-|num-|pers-|case-|vib-|tam-|chunkId-BLK|chunkType-head|stype-|voicetype-	15	rsym	_	_

1	उसे	वह	PRP	pn	lex-वह|cat-pn|gen-any|num-sg|pers-3|case-o|vib-को|tam-ko|chunkId-NP|chunkType-head|stype-|voicetype-	3	k1	_	_
2	यह	यह	PRP	pn	lex-यह|cat-pn|gen-any|num-sg|pers-3|case-d|vib-0|tam-0|chunkId-NP2|chunkType-head|stype-|voicetype-	3	k2	_	_
3	समझना	समझ	VM	v	lex-समझ|cat-v|gen-m|num-any|pers-any|case-|vib-ना_चाहिए|tam-nA|chunkId-VGF|chunkType-head|stype-declarative|voicetype-active	0	main	_	_
4	चाहिए	चाहिए	VAUX	v	lex-चाहिए|cat-v|gen-any|num-any|pers-any|case-|vib-0|tam-0|chunkId-VGF|chunkType-child|stype-|voicetype-	3	lwg__vaux	_	_
5	कि	कि	CC	avy	lex-कि|cat-avy|gen-|num-|pers-|case-|vib-|tam-|chunkId-CCP|chunkType-head|stype-|voicetype-	2	rs	_	_
6	इराक	इराक	NNP	n	lex-इराक|cat-n|gen-m|num-sg|pers-3|case-o|vib-0_में|tam-0|chunkId-NP3|chunkType-head|stype-|voicetype-	20	k7p	_	_
7	में	में	PSP	psp	lex-में|cat-psp|gen-|num-|pers-|case-|vib-|tam-|chunkId-NP3|chunkType-child|stype-|voicetype-	6	lwg__psp	_	_
8	सभी	सभी	QF	avy	lex-सभी|cat-avy|gen-|num-|pers-|case-|vib-|tam-|chunkId-NP4|chunkType-child|stype-|voicetype-	9	nmod__adj	_	_
9	समुदाय	समुदाय	NN	n	lex-समुदाय|cat-n|gen-m|num-sg|pers-3|case-o|vib-0_का|tam-0|chunkId-NP4|chunkType-head|stype-|voicetype-	11	r6	_	_
10	के	का	PSP	psp	lex-का|cat-psp|gen-m|num-pl|pers-|case-d|vib-|tam-|chunkId-NP4|chunkType-child|stype-|voicetype-	9	lwg__psp	_	_
11	लोग	लोग	NN	n	lex-लोग|cat-n|gen-m|num-pl|pers-3|case-d|vib-0|tam-0|chunkId-NP5|chunkType-head|stype-|voicetype-	20	k1	_	_
12	चुनाव	चुनाव	NN	n	lex-चुनाव|cat-n|gen-m|num-sg|pers-3|case-o|vib-0_के_बाद|tam-0|chunkId-NP6|chunkType-head|stype-|voicetype-	18	k7t	_	_
13	के	के	PSP	psp	lex-के|cat-psp|gen-|num-|pers-|case-|vib-|tam-|chunkId-NP6|chunkType-child|stype-|voicetype-	12	lwg__psp	_	_
14	बाद	बाद	NST	nst	lex-बाद|cat-nst|gen-m|num-sg|pers-3|case-d|vib-|tam-|chunkId-NP6|chunkType-child|stype-|voicetype-	12	lwg__psp	_	_
15	इराकी	इराकी	JJ	adj	lex-इराकी|cat-adj|gen-any|num-any|pers-|case-o|vib-|tam-|chunkId-NP7|chunkType-child|stype-|voicetype-	16	nmod__adj	_	_
16	सरकार	सरकार	NN	n	lex-सरकार|cat-n|gen-f|num-sg|pers-3|case-o|vib-0_का|tam-0|chunkId-NP7|chunkType-head|stype-|voicetype-	18	r6-k2	_	_
17	का	का	PSP	psp	lex-का|cat-psp|gen-m|num-sg|pers-|case-d|vib-|tam-|chunkId-NP7|chunkType-child|stype-|voicetype-	16	lwg__psp	_	_
18	समर्थन	समर्थन	NN	n	lex-समर्थन|cat-n|gen-m|num-sg|pers-3|case-d|vib-0|tam-0|chunkId-NP8|chunkType-head|stype-|voicetype-	20	pof	_	_
19	नहीं	नहीं	NEG	avy	lex-नहीं|cat-avy|gen-|num-|pers-|case-|vib-|tam-|chunkId-VGF2|chunkType-child|stype-|voicetype-	20	lwg__neg	_	_
20	करेंगे	कर	VM	v	lex-कर|cat-v|gen-m|num-pl|pers-3|case-|vib-गा|tam-gA|chunkId-VGF2|chunkType-head|stype-declarative|voicetype-active	5	ccof	_	_
21	।	।	SYM	punc	lex-।|cat-punc|gen-|num-|pers-|case-|vib-|tam-|chunkId-BLK|chunkType-head|stype-|voicetype-	3	rsym	_	_

1	इराक	इराक	NNP	n	lex-इराक|cat-n|gen-m|num-sg|pers-3|case-o|vib-0_में|tam-0|chunkId-NP|chunkType-head|stype-|voicetype-	14	k7p	_	_
2	में	में	PSP	psp	lex-में|cat-psp|gen-|num-|pers-|case-|vib-|tam-|chunkId-NP|chunkType-child|stype-|voicetype-	1	lwg__psp	_	_
3	अमेरिका	अमेरिका	NNP	n	lex-अमेरिका|cat-n|gen-m|num-sg|pers-3|case-o|vib-0_का|tam-0|chunkId-NP2|chunkType-head|stype-|voicetype-	5	r6	_	_
4	की	का	PSP	psp	lex-का|cat-psp|gen-f|num-sg|pers-|case-o|vib-|tam-|chunkId-NP2|chunkType-child|stype-|voicetype-	3	lwg__psp	_	_
5	विफलता	विफलता	NN	n	lex-विफलता|cat-n|gen-f|num-sg|pers-3|case-o|vib-0_से|tam-0|chunkId-NP3|chunkType-head|stype-|voicetype-	14	rh	_	_
6	से	से	PSP	psp	lex-से|cat-psp|gen-|num-|pers-|case-|vib-|tam-|chunkId-NP3|chunkType-child|stype-|voicetype-	5	lwg__psp	_	_
7	मध्यपूर्व	मध्यपूर्व	NN	n	lex-मध्यपूर्व|cat-n|gen-m|num-sg|pers-3|case-o|vib-0_का|tam-0|chunkId-NP4|chunkType-head|stype-|voicetype-	9	r6	_	_
8	के	का	PSP	psp	lex-का|cat-psp|gen-m|num-pl|pers-|case-o|vib-|tam-|chunkId-NP4|chunkType-child|stype-|voicetype-	7	lwg__psp	_	_
9	देशों	देश	NN	n	lex-देश|cat-n|gen-m|num-pl|pers-3|case-o|vib-0_पर|tam-0|chunkId-NP5|chunkType-head|stype-|voicetype-	14	k7p	_	_
10	पर	पर	PSP	psp	lex-पर|cat-psp|gen-|num-|pers-|case-|vib-|tam-|chunkId-NP5|chunkType-child|stype-|voicetype-	9	lwg__psp	_	_
11	इसका	यह	PRP	pn	lex-यह|cat-pn|gen-m|num-sg|pers-3|case-o|vib-का|tam-kA|chunkId-NP6|chunkType-head|stype-|voicetype-	13	r6	_	_
12	बुरा	बुरा	JJ	adj	lex-बुरा|cat-adj|gen-m|num-sg|pers-|case-d|vib-|tam-|chunkId-NP7|chunkType-child|stype-|voicetype-	13	nmod__adj	_	_
13	असर	असर	NN	n	lex-असर|cat-n|gen-m|num-sg|pers-3|case-d|vib-0|tam-0|chunkId-NP7|chunkType-head|stype-|voicetype-	14	k1	_	_
14	पडेगा	पड	VM	v	lex-पड|cat-v|gen-m|num-sg|pers-3|case-|vib-गा|tam-gA|chunkId-VGF|chunkType-head|stype-declarative|voicetype-active	0	main	_	_
15	।	।	SYM	punc	lex-।|cat-punc|gen-|num-|pers-|case-|vib-|tam-|chunkId-BLK|chunkType-head|stype-|voicetype-	14	rsym	_	_

1	इस्राइली	इस्राइली	JJ	adj	lex-इस्राइली|cat-adj|gen-any|num-any|pers-|case-o|vib-|tam-|chunkId-NP|chunkType-child|stype-|voicetype-	2	nmod__adj	_	_
2	इतिहास	इतिहास	NN	n	lex-इतिहास|cat-n|gen-m|num-sg|pers-3|case-o|vib-0_का|tam-0|chunkId-NP|chunkType-head|stype-|voicetype-	7	r6	_	_
3	के	का	PSP	psp	lex-का|cat-psp|gen-m|num-sg|pers-3h|case-d|vib-|tam-|chunkId-NP|chunkType-child|stype-|voicetype-	2	lwg__psp	_	_
4	सर्वाधिक	सर्वाधिक	INTF	avy	lex-सर्वाधिक|cat-avy|gen-|num-|pers-|case-|vib-|tam-|chunkId-NP2|chunkType-child|stype-|voicetype-	5	jjmod__intf	_	_
5	सफल	सफल	JJ	adj	lex-सफल|cat-adj|gen-any|num-any|pers-|case-d|vib-|tam-|chunkId-NP2|chunkType-child|stype-|voicetype-	7	nmod__adj	_	_
6	सैन्य	सैन्य	NNC	adj	lex-सैन्य|cat-adj|gen-any|num-any|pers-|case-d|vib-|tam-|chunkId-NP2|chunkType-child|stype-|voicetype-	7	pof__cn	_	_
7	प्रमुख	प्रमुख	NN	n	lex-प्रमुख|cat-n|gen-m|num-sg|pers-3|case-d|vib-0|tam-0|chunkId-NP2|chunkType-head|stype-|voicetype-	8	k1s	_	_
8	रह	रह	VM	v	lex-रह|cat-v|gen-any|num-sg|pers-3h|case-|vib-0_चुक+या|tam-0|chunkId-VGNF|chunkType-head|stype-|voicetype-	10	nmod__k1inv	_	_
9	चुके	चुक	VAUX	v	lex-चुक|cat-v|gen-m|num-sg|pers-3h|case-|vib-या|tam-yA|chunkId-VGNF|chunkType-child|stype-|voicetype-	8	lwg__vaux	_	_
10	बराक	बराक	NNP	n	lex-बराक|cat-n|gen-m|num-sg|pers-3|case-o|vib-0_ने|tam-0|chunkId-NP3|chunkType-head|stype-|voicetype-	19	k1	_	_
11	ने	ने	PSP	psp	lex-ने|cat-psp|gen-|num-|pers-|case-|vib-|tam-|chunkId-NP3|chunkType-child|stype-|voicetype-	10	lwg__psp	_	_
12	अहमदीनेजाद	अहमदीनेजाद	NNP	n	lex-अहमदीनेजाद|cat-n|gen-m|num-sg|pers-3|case-o|vib-0_का|tam-0|chunkId-NP4|chunkType-head|stype-|voicetype-	15	r6	_	_
13	के	का	PSP	psp	lex-का|cat-psp|gen-m|num-sg|pers-|case-o|vib-|tam-|chunkId-NP4|chunkType-child|stype-|voicetype-	12	lwg__psp	_	_
14	उस	वह	DEM	pn	lex-वह|cat-pn|gen-any|num-sg|pers-3|case-o|vib-|tam-|chunkId-NP5|chunkType-child|stype-|voicetype-	15	nmod__adj	_	_
15	बयान	बयान	NN	n	lex-बयान|cat-n|gen-m|num-sg|pers-3|case-o|vib-0_को|tam-0|chunkId-NP5|chunkType-head|stype-|voicetype-	19	k2	_	_
16	को	को	PSP	psp	lex-को|cat-psp|gen-|num-|pers-|case-|vib-|tam-|chunkId-NP5|chunkType-child|stype-|voicetype-	15	lwg__psp	_	_
17	भी	भी	RP	avy	lex-भी|cat-avy|gen-|num-|pers-|case-|vib-|tam-|chunkId-NP5|chunkType-child|stype-|voicetype-	15	lwg__rp	_	_
18	दुर्भाग्यपूर्ण	दुर्भाग्यपूर्ण	JJ	adj	lex-दुर्भाग्यपूर्ण|cat-adj|gen-any|num-any|pers-|case-|vib-|tam-|chunkId-JJP|chunkType-head|stype-|voicetype-	19	k2s	_	_
19	बताया	बता	VM	v	lex-बता|cat-v|gen-m|num-sg|pers-any|case-|vib-या|tam-yA|chunkId-VGF|chunkType-head|stype-declarative|voicetype-active	0	main	_	_
20	जिसमें	जो	PRP	pn	lex-जो|cat-pn|gen-any|num-sg|pers-3|case-o|vib-में|tam-meM|chunkId-NP6|chunkType-head|stype-|voicetype-	31	k7	_	_
21	उन्होंने	वह	PRP	pn	lex-वह|cat-pn|gen-any|num-sg|pers-3h|case-o|vib-ने|tam-ne|chunkId-NP7|chunkType-head|stype-|voicetype-	31	k1	_	_
22	इस्राइल	इस्राइल	NNP	n	lex-इस्राइल|cat-n|gen-m|num-sg|pers-3|case-o|vib-0_का|tam-0|chunkId-NP8|chunkType-head|stype-|voicetype-	25	r6	_	_
23	का	का	PSP	psp	lex-का|cat-psp|gen-m|num-sg|pers-|case-d|vib-|tam-|chunkId-NP8|chunkType-child|stype-|voicetype-	22	lwg__psp	_	_
24	विश्व	विश्व	NNC	n	lex-विश्व|cat-n|gen-m|num-sg|pers-3|case-d|vib-0|tam-0|chunkId-NP9|chunkType-child|stype-|voicetype-	25	pof__cn	_	_
25	नक्शे	नक्शा	NN	n	lex-नक्शा|cat-n|gen-m|num-sg|pers-3|case-o|vib-0_से|tam-0|chunkId-NP9|chunkType-head|stype-|voicetype-	28	k5	_	_
26	से	से	PSP	psp	lex-से|cat-psp|gen-|num-|pers-|case-|vib-|tam-|chunkId-NP9|chunkType-child|stype-|voicetype-	25	lwg__psp	_	_
27	अस्तित्व	अस्तित्व	NN	n	lex-अस्तित्व|cat-n|gen-m|num-sg|pers-3|case-d|vib-0|tam-0|chunkId-NP10|chunkType-head|stype-|voicetype-	28	k2	_	_
28	मिटाने	मिटा	VM	v	lex-मिटा|cat-v|gen-any|num-sg|pers-any|case-o|vib-ना_का|tam-nA|chunkId-VGNN|chunkType-head|stype-|voicetype-	30	r6	_	_
29	की	का	PSP	psp	lex-का|cat-psp|gen-f|num-sg|pers-|case-d|vib-|tam-|chunkId-VGNN|chunkType-child|stype-|voicetype-	28	lwg__psp	_	_
30	बात	बात	NN	n	lex-बात|cat-n|gen-f|num-sg|pers-3|case-d|vib-0|tam-0|chunkId-NP11|chunkType-head|stype-|voicetype-	31	k2	_	_
31	कही	कह	VM	v	lex-कह|cat-v|gen-f|num-sg|pers-any|case-|vib-या_था|tam-yA|chunkId-VGF2|chunkType-head|stype-declarative|voicetype-active	15	nmod__relc	_	_
32	थी	था	VAUX	v	lex-था|cat-v|gen-f|num-sg|pers-any|case-|vib-था|tam-WA|chunkId-VGF2|chunkType-child|stype-|voicetype-	31	lwg__vaux	_	_
33	।	।	SYM	punc	lex-।|cat-punc|gen-|num-|pers-|case-|vib-|tam-|chunkId-BLK|chunkType-head|stype-|voicetype-	19	rsym	_	_

