1	मुकेश	मुकेश	NNPC	n	lex-मुकेश|cat-n|gen-m|num-sg|pers-3|case-d|vib-0|tam-0|chunkId-NP|chunkType-child|stype-|voicetype-	2	pof__cn	_	_
2	अंबानी	अंबानी	NNP	n	lex-अंबानी|cat-n|gen-any|num-sg|pers-3|case-d|vib-0|tam-0|chunkId-NP|chunkType-head|stype-|voicetype-	3	ccof	_	_
3	और	और	CC	avy	lex-और|cat-avy|gen-|num-|pers-|case-|vib-|tam-|chunkId-CCP|chunkType-head|stype-|voicetype-	15	k7	_	_
4	उनके	वह	PRP	pn	lex-वह|cat-pn|gen-m|num-sg|pers-3h|case-o|vib-का|tam-kA|chunkId-NP2|chunkType-head|stype-|voicetype-	6	r6	_	_
5	छोटे	छोटा	JJ	adj	lex-छोटा|cat-adj|gen-m|num-sg|pers-|case-o|vib-|tam-|chunkId-NP3|chunkType-child|stype-|voicetype-	6	nmod__adj	_	_
6	भाई	भाई	NN	n	lex-भाई|cat-n|gen-m|num-sg|pers-3|case-d|vib-0|tam-0|chunkId-NP3|chunkType-head|stype-|voicetype-	8	nmod	_	_
7	अनिल	अनिल	NNPC	n	lex-अनिल|cat-n|gen-m|num-sg|pers-3|case-d|vib-0|tam-0|chunkId-NP4|chunkType-child|stype-|voicetype-	8	pof__cn	_	_
8	अंबानी	अंबानी	NNP	n	lex-अंबानी|cat-n|gen-any|num-sg|pers-3|case-o|vib-0_के_बीच|tam-0|chunkId-NP4|chunkType-head|stype-|voicetype-	3	ccof	_	_
9	के	के	PSP	psp	lex-के|cat-psp|gen-|num-|pers-|case-|vib-|tam-|chunkId-NP4|chunkType-child|stype-|voicetype-	8	lwg__psp	_	_
10	बीच	बीच	NST	nst	lex-बीच|cat-nst|gen-m|num-sg|pers-3|case-d|vib-|tam-|chunkId-NP4|chunkType-child|stype-|voicetype-	8	lwg__psp	_	_
11	मालिकाना	मालिकाना	JJ	adj	lex-मालिकाना|cat-adj|gen-any|num-any|pers-|case-o|vib-|tam-|chunkId-NP5|chunkType-child|stype-|voicetype-	12	nmod__adj	_	_
12	ह़क़	हक	NN	n	lex-हक|cat-n|gen-m|num-sg|pers-3|case-o|vib-0_को|tam-0|chunkId-NP5|chunkType-head|stype-|voicetype-	14	k2	_	_
13	को	को	PSP	psp	lex-को|cat-psp|gen-|num-|pers-|case-|vib-|tam-|chunkId-NP5|chunkType-child|stype-|voicetype-	12	lwg__psp	_	_
14	लेकर	ले	VM	v	lex-ले|cat-v|gen-any|num-any|pers-any|case-|vib-कर|tam-kara|chunkId-VGNF|chunkType-head|stype-|voicetype-	15	vmod	_	_
15	चल	चल	VM	v	lex-चल|cat-v|gen-any|num-sg|pers-any|case-|vib-0_रह+या|tam-0|chunkId-VGNF2|chunkType-head|stype-|voicetype-	17	nmod__k1inv	_	_
16	रही	रह	VAUX	v	lex-रह|cat-v|gen-f|num-sg|pers-any|case-|vib-या|tam-yA|chunkId-VGNF2|chunkType-child|stype-|voicetype-	15	lwg__vaux	_	_
17	जंग	जंग	NN	n	lex-जंग|cat-n|gen-f|num-sg|pers-3|case-o|vib-0_का|tam-0|chunkId-NP6|chunkType-head|stype-|voicetype-	19	r6-k1	_	_
18	के	का	PSP	psp	lex-का|cat-psp|gen-m|num-sg|pers-|case-o|vib-|tam-|chunkId-NP6|chunkType-child|stype-|voicetype-	17	lwg__psp	_	_
19	समाप्त	समाप्त	JJ	adj	lex-समाप्त|cat-adj|gen-any|num-any|pers-|case-|vib-|tam-|chunkId-JJP|chunkType-head|stype-|voicetype-	20	pof	_	_
20	होने	हो	VM	v	lex-हो|cat-v|gen-any|num-pl|pers-any|case-o|vib-ना_का|tam-nA|chunkId-VGNN|chunkType-head|stype-|voicetype-	22	r6-k1	_	_
21	के	का	PSP	psp	lex-का|cat-psp|gen-m|num-pl|pers-|case-d|vib-|tam-|chunkId-VGNN|chunkType-child|stype-|voicetype-	20	lwg__psp	_	_
22	आसार	आसार	NN	n	lex-आसार|cat-n|gen-m|num-pl|pers-3|case-d|vib-0|tam-0|chunkId-NP7|chunkType-head|stype-|voicetype-	23	pof	_	_
23	दिखाई	दिखा	VM	v	lex-दिखा|cat-v|gen-m|num-pl|pers-3|case-|vib-या_दे_रह+या_है|tam-yA|chunkId-VGF|chunkType-head|stype-declarative|voicetype-active	0	main	_	_
24	दे	दे	VAUX	v	lex-दे|cat-v|gen-any|num-any|pers-any|case-|vib-0|tam-0|chunkId-VGF|chunkType-child|stype-|voicetype-	23	lwg__vaux	_	_
25	रहे	रह	VAUX	v	lex-रह|cat-v|gen-m|num-pl|pers-any|case-|vib-या|tam-yA|chunkId-VGF|chunkType-child|stype-|voicetype-	23	lwg__vaux	_	_
26	हैं	है	VAUX	v	lex-है|cat-v|gen-any|num-pl|pers-3|case-|vib-है|tam-hE|chunkId-VGF|chunkType-child|stype-|voicetype-	23	lwg__vaux	_	_
27	।	।	SYM	punc	lex-।|cat-punc|gen-|num-|pers-|case-|vib-|tam-|chunkId-BLK|chunkType-head|stype-|voicetype-	23	rsym	_	_

1	माना	मान	VM	v	lex-मान|cat-v|gen-m|num-sg|pers-3|case-|vib-या_जा_रह+या_है|tam-yA|chunkId-VGF|chunkType-head|stype-declarative|voicetype-active	0	main	_	_
2	जा	जा	VAUX	v	lex-जा|cat-v|gen-any|num-any|pers-any|case-|vib-0|tam-0|chunkId-VGF|chunkType-child|stype-|voicetype-	1	lwg__vaux	_	_
3	रहा	रह	VAUX	v	lex-रह|cat-v|gen-m|num-sg|pers-any|case-|vib-या|tam-yA|chunkId-VGF|chunkType-child|stype-|voicetype-	1	lwg__vaux	_	_
4	है	है	VAUX	v	lex-है|cat-v|gen-any|num-sg|pers-3|case-|vib-है|tam-hE|chunkId-VGF|chunkType-child|stype-|voicetype-	1	lwg__vaux	_	_
5	कि	कि	CC	avy	lex-कि|cat-avy|gen-|num-|pers-|case-|vib-|tam-|chunkId-CCP|chunkType-head|stype-|voicetype-	1	k2	_	_
6	दोनों	दो	QC	num	lex-दो|cat-num|gen-any|num-pl|pers-|case-any|vib-|tam-|chunkId-NP|chunkType-child|stype-|voicetype-	7	nmod__adj	_	_
7	भाइयों	भाई	NN	n	lex-भाई|cat-n|gen-m|num-pl|pers-3|case-o|vib-0_के_बीच|tam-0|chunkId-NP|chunkType-head|stype-|voicetype-	15	k7	_	_
8	के	के	PSP	psp	lex-के|cat-psp|gen-|num-|pers-|case-|vib-|tam-|chunkId-NP|chunkType-child|stype-|voicetype-	7	lwg__psp	_	_
9	बीच	बीच	NST	nst	lex-बीच|cat-nst|gen-m|num-sg|pers-3|case-d|vib-|tam-|chunkId-NP|chunkType-child|stype-|voicetype-	7	lwg__psp	_	_
10	समझौते	समझौता	NN	n	lex-समझौता|cat-n|gen-m|num-sg|pers-3|case-o|vib-0_का|tam-0|chunkId-NP2|chunkType-head|stype-|voicetype-	13	r6	_	_
11	की	का	PSP	psp	lex-का|cat-psp|gen-f|num-sg|pers-|case-d|vib-|tam-|chunkId-NP2|chunkType-child|stype-|voicetype-	10	lwg__psp	_	_
12	ठोस	ठोस	JJ	adj	lex-ठोस|cat-adj|gen-any|num-any|pers-|case-d|vib-|tam-|chunkId-NP3|chunkType-child|stype-|voicetype-	13	nmod__adj	_	_
13	रूपरेखा	रूपरेखा	NN	n	lex-रूपरेखा|cat-n|gen-f|num-sg|pers-3|case-d|vib-0|tam-0|chunkId-NP3|chunkType-head|stype-|voicetype-	15	k2	_	_
14	तैयार	तैयार	JJ	adj	lex-तैयार|cat-adj|gen-any|num-any|pers-|case-|vib-|tam-|chunkId-JJP|chunkType-head|stype-|voicetype-	15	pof	_	_
15	कर	कर	VM	v	lex-कर|cat-v|gen-f|num-sg|pers-3|case-|vib-0_ले+या_जा+या१_है|tam-0|chunkId-VGF2|chunkType-head|stype-declarative|voicetype-active	19	ccof	_	_
16	ली	ले	VAUX	v	lex-ले|cat-v|gen-f|num-sg|pers-any|case-|vib-या|tam-yA|chunkId-VGF2|chunkType-child|stype-|voicetype-	15	lwg__vaux	_	_
17	गई	जा	VAUX	v	lex-जा|cat-v|gen-f|num-sg|pers-any|case-|vib-या१|tam-yA1|chunkId-VGF2|chunkType-child|stype-|voicetype-	15	lwg__vaux	_	_
18	है	है	VAUX	v	lex-है|cat-v|gen-any|num-sg|pers-3|case-|vib-है|tam-hE|chunkId-VGF2|chunkType-child|stype-|voicetype-	15	lwg__vaux	_	_
19	और	और	CC	avy	lex-और|cat-avy|gen-|num-|pers-|case-|vib-|tam-|chunkId-CCP2|chunkType-head|stype-|voicetype-	5	ccof	_	_
20	उम्मीद	उम्मीद	NN	n	lex-उम्मीद|cat-n|gen-f|num-sg|pers-3|case-d|vib-0|tam-0|chunkId-NP4|chunkType-head|stype-|voicetype-	21	pof	_	_
21	है	है	VM	v	lex-है|cat-v|gen-any|num-sg|pers-3|case-|vib-है|tam-hE|chunkId-VGF3|chunkType-head|stype-declarative|voicetype-active	19	ccof	_	_
22	कि	कि	CC	avy	lex-कि|cat-avy|gen-|num-|pers-|case-|vib-|tam-|chunkId-CCP3|chunkType-head|stype-|voicetype-	21	k1	_	_
23	अगले	अगला	JJ	adj	lex-अगला|cat-adj|gen-m|num-pl|pers-|case-o|vib-|tam-|chunkId-NP5|chunkType-child|stype-|voicetype-	25	nmod__adj	_	_
24	छह	छह	QC	num	lex-छह|cat-num|gen-any|num-pl|pers-|case-any|vib-|tam-|chunkId-NP5|chunkType-child|stype-|voicetype-	25	nmod__adj	_	_
25	हफ़्तों	हफ्ता	NN	n	lex-हफ्ता|cat-n|gen-m|num-pl|pers-3|case-o|vib-0_के_भीतर|tam-0|chunkId-NP5|chunkType-head|stype-|voicetype-	32	k7t	_	_
26	के	के	PSP	psp	lex-के|cat-psp|gen-|num-|pers-|case-|vib-|tam-|chunkId-NP5|chunkType-child|stype-|voicetype-	25	lwg__psp	_	_
27	भीतर	भीतर	NST	nst	lex-भीतर|cat-nst|gen-m|num-sg|pers-3|case-d|vib-|tam-|chunkId-NP5|chunkType-child|stype-|voicetype-	25	lwg__psp	_	_
28	इसे	यह	PRP	pn	lex-यह|cat-pn|gen-any|num-sg|pers-3|case-o|vib-को|tam-ko|chunkId-NP6|chunkType-head|stype-|voicetype-	32	k4	_	_
29	औपचारिक	औपचारिक	JJ	adj	lex-औपचारिक|cat-adj|gen-any|num-any|pers-|case-d|vib-|tam-|chunkId-NP7|chunkType-child|stype-|voicetype-	30	nmod__adj	_	_
30	स्वरूप	स्वरूप	NN	n	lex-स्वरूप|cat-n|gen-m|num-sg|pers-3|case-d|vib-0|tam-0|chunkId-NP7|chunkType-head|stype-|voicetype-	32	k2	_	_
31	प्रदान	प्रदान	NN	n	lex-प्रदान|cat-n|gen-m|num-sg|pers-3|case-d|vib-0|tam-0|chunkId-NP8|chunkType-head|stype-|voicetype-	32	pof	_	_
32	कर	कर	VM	v	lex-कर|cat-v|gen-m|num-sg|pers-3|case-|vib-0_दे+या_जा+गा|tam-0|chunkId-VGF4|chunkType-head|stype-declarative|voicetype-passive	22	ccof	_	_
33	दिया	दे	VAUX	v	lex-दे|cat-v|gen-m|num-sg|pers-any|case-|vib-या|tam-yA|chunkId-VGF4|chunkType-child|stype-|voicetype-	32	lwg__vaux	_	_
34	जाएगा	जा	VAUX	v	lex-जा|cat-v|gen-m|num-sg|pers-3|case-|vib-गा|tam-gA|chunkId-VGF4|chunkType-child|stype-|voicetype-	32	lwg__vaux	_	_
35	।	।	SYM	punc	lex-।|cat-punc|gen-|num-|pers-|case-|vib-|tam-|chunkId-BLK|chunkType-head|stype-|voicetype-	1	rsym	_	_

1	समझौते	समझौता	NN	n	lex-समझौता|cat-n|gen-m|num-sg|pers-3|case-o|vib-0_का|tam-0|chunkId-NP|chunkType-head|stype-|voicetype-	3	r6-k2	_	_
2	की	का	PSP	psp	lex-का|cat-psp|gen-f|num-sg|pers-|case-d|vib-|tam-|chunkId-NP|chunkType-child|stype-|voicetype-	1	lwg__psp	_	_
3	घोषणा	घोषणा	NN	n	lex-घोषणा|cat-n|gen-f|num-sg|pers-3|case-d|vib-0|tam-0|chunkId-NP2|chunkType-head|stype-|voicetype-	9	pof	_	_
4	चार	चार	QCC	num	lex-चार|cat-num|gen-any|num-any|pers-|case-any|vib-|tam-|chunkId-NP3|chunkType-child|stype-|voicetype-	7	mod	_	_
5	-	-	SYM	punc	lex--|cat-punc|gen-|num-|pers-|case-|vib-|tam-|chunkId-NP3|chunkType-child|stype-|voicetype-	7	rsym	_	_
6	छह	छह	QC	num	lex-छह|cat-num|gen-any|num-any|pers-|case-any|vib-|tam-|chunkId-NP3|chunkType-child|stype-|voicetype-	7	nmod__adj	_	_
7	हफ़्ते	हफ्ता	NN	n	lex-हफ्ता|cat-n|gen-m|num-sg|pers-3|case-o|vib-0_में|tam-0|chunkId-NP3|chunkType-head|stype-|voicetype-	9	k7t	_	_
8	में	में	PSP	psp	lex-में|cat-psp|gen-|num-|pers-|case-|vib-|tam-|chunkId-NP3|chunkType-child|stype-|voicetype-	7	lwg__psp	_	_
9	की	कर	VM	v	lex-कर|cat-v|gen-f|num-sg|pers-3|case-|vib-या_जा_सक+ता_है|tam-yA|chunkId-VGF|chunkType-head|stype-declarative|voicetype-active	0	main	_	_
10	जा	जा	VAUX	v	lex-जा|cat-v|gen-any|num-any|pers-any|case-|vib-0|tam-0|chunkId-VGF|chunkType-child|stype-|voicetype-	9	lwg__vaux	_	_
11	सकती	सक	VAUX	v	lex-सक|cat-v|gen-f|num-sg|pers-any|case-|vib-ता|tam-wA|chunkId-VGF|chunkType-child|stype-|voicetype-	9	lwg__vaux	_	_
12	है	है	VAUX	v	lex-है|cat-v|gen-any|num-sg|pers-3|case-|vib-है|tam-hE|chunkId-VGF|chunkType-child|stype-|voicetype-	9	lwg__vaux	_	_
13	।	।	SYM	punc	lex-।|cat-punc|gen-|num-|pers-|case-|vib-|tam-|chunkId-BLK|chunkType-head|stype-|voicetype-	9	rsym	_	_

1	हालाँकि	हालाँकि	CC	avy	lex-हालाँकि|cat-avy|gen-|num-|pers-|case-|vib-|tam-|chunkId-CCP|chunkType-head|stype-|voicetype-	0	main	_	_
2	ग्रुप	ग्रुप	NN	n	lex-ग्रुप|cat-n|gen-m|num-sg|pers-3|case-o|vib-0_का|tam-0|chunkId-NP|chunkType-head|stype-|voicetype-	4	r6	_	_
3	की	का	PSP	psp	lex-का|cat-psp|gen-f|num-sg|pers-|case-o|vib-|tam-|chunkId-NP|chunkType-child|stype-|voicetype-	2	lwg__psp	_	_
4	कंपनियों	कंपनी	NN	n	lex-कंपनी|cat-n|gen-f|num-pl|pers-3|case-o|vib-0_का|tam-0|chunkId-NP2|chunkType-head|stype-|voicetype-	6	r6	_	_
5	के	का	PSP	psp	lex-का|cat-psp|gen-m|num-pl|pers-|case-d|vib-|tam-|chunkId-NP2|chunkType-child|stype-|voicetype-	4	lwg__psp	_	_
6	पुनर्गठन	पुनर्गठन	NN	n	lex-पुनर्गठन|cat-n|gen-m|num-pl|pers-3|case-d|vib-0|tam-0|chunkId-NP3|chunkType-head|stype-|voicetype-	7	ccof	_	_
7	तथा	तथा	CC	avy	lex-तथा|cat-avy|gen-|num-|pers-|case-|vib-|tam-|chunkId-CCP2|chunkType-head|stype-|voicetype-	11	k1	_	_
8	कानूनी	कानूनी	JJ	adj	lex-कानूनी|cat-adj|gen-any|num-any|pers-|case-d|vib-|tam-|chunkId-NP4|chunkType-child|stype-|voicetype-	9	nmod__adj	_	_
9	औपचारिकताएं	औपचारिकताएं	NN	n	lex-औपचारिकताएं|cat-n|gen-m|num-pl|pers-3|case-d|vib-0|tam-0|chunkId-NP4|chunkType-head|stype-|voicetype-	7	ccof	_	_
10	पूरी	पूरा	JJ	adj	lex-पूरा|cat-adj|gen-f|num-sg|pers-|case-|vib-|tam-|chunkId-JJP|chunkType-head|stype-|voicetype-	11	pof	_	_
11	होने	हो	VM	v	lex-हो|cat-v|gen-any|num-any|pers-any|case-o|vib-ना_में|tam-nA|chunkId-VGNN|chunkType-head|stype-|voicetype-	17	k7	_	_
12	में	में	PSP	psp	lex-में|cat-psp|gen-|num-|pers-|case-|vib-|tam-|chunkId-VGNN|chunkType-child|stype-|voicetype-	11	lwg__psp	_	_
13	छह	छह	QC	num	lex-छह|cat-num|gen-any|num-any|pers-|case-any|vib-|tam-|chunkId-NP5|chunkType-child|stype-|voicetype-	14	nmod__adj	_	_
14	माह	माह	NN	n	lex-माह|cat-n|gen-m|num-sg|pers-3|case-o|vib-0_का|tam-0|chunkId-NP5|chunkType-head|stype-|voicetype-	16	r6	_	_
15	का	का	PSP	psp	lex-का|cat-psp|gen-m|num-sg|pers-|case-d|vib-|tam-|chunkId-NP5|chunkType-child|stype-|voicetype-	14	lwg__psp	_	_
16	समय	समय	NN	n	lex-समय|cat-n|gen-m|num-sg|pers-3|case-d|vib-0|tam-0|chunkId-NP6|chunkType-head|stype-|voicetype-	17	k1	_	_
17	लग	लग	VM	v	lex-लग|cat-v|gen-m|num-sg|pers-3|case-|vib-0_सक+ता_है|tam-0|chunkId-VGF|chunkType-head|stype-declarative|voicetype-active	1	ccof	_	_
18	सकता	सक	VAUX	v	lex-सक|cat-v|gen-m|num-sg|pers-any|case-|vib-ता|tam-wA|chunkId-VGF|chunkType-child|stype-|voicetype-	17	lwg__vaux	_	_
19	है	है	VAUX	v	lex-है|cat-v|gen-any|num-sg|pers-3|case-|vib-है|tam-hE|chunkId-VGF|chunkType-child|stype-|voicetype-	17	lwg__vaux	_	_
20	।	।	SYM	punc	lex-।|cat-punc|gen-|num-|pers-|case-|vib-|tam-|chunkId-BLK|chunkType-head|stype-|voicetype-	1	rsym	_	_

1	जानकार	जानकार	JJ	adj	lex-जानकार|cat-adj|gen-any|num-any|pers-|case-o|vib-|tam-|chunkId-NP|chunkType-child|stype-|voicetype-	2	nmod__adj	_	_
2	सूत्रों	सूत्र	NN	n	lex-सूत्र|cat-n|gen-m|num-pl|pers-3|case-o|vib-0_के_मुताबिक|tam-0|chunkId-NP|chunkType-head|stype-|voicetype-	12	k7a	_	_
3	के	के	PSP	psp	lex-के|cat-psp|gen-|num-|pers-|case-|vib-|tam-|chunkId-NP|chunkType-child|stype-|voicetype-	2	lwg__psp	_	_
4	मुताबिक	मुताबिक	PSP	psp	lex-मुताबिक|cat-psp|gen-|num-|pers-|case-|vib-|tam-|chunkId-NP|chunkType-child|stype-|voicetype-	2	lwg__psp	_	_
5	सरकार	सरकार	NN	n	lex-सरकार|cat-n|gen-f|num-sg|pers-3|case-d|vib-0|tam-0|chunkId-NP2|chunkType-head|stype-|voicetype-	12	k1	_	_
6	रिलायंस	रिलायंस	NNP	n	lex-रिलायंस|cat-n|gen-m|num-sg|pers-3|case-o|vib-0_से|tam-0|chunkId-NP3|chunkType-head|stype-|voicetype-	8	ras-k1	_	_
7	से	से	PSP	psp	lex-से|cat-psp|gen-|num-|pers-|case-|vib-|tam-|chunkId-NP3|chunkType-child|stype-|voicetype-	6	lwg__psp	_	_
8	जुड़े	जुड	VM	v	lex-जुड|cat-v|gen-m|num-pl|pers-any|case-|vib-या|tam-yA|chunkId-VGNF|chunkType-head|stype-|voicetype-	9	nmod__k1inv	_	_
9	घटनाक्रमों	घटनाक्रम	NN	n	lex-घटनाक्रम|cat-n|gen-m|num-pl|pers-3|case-o|vib-0_पर|tam-0|chunkId-NP4|chunkType-head|stype-|voicetype-	12	k7	_	_
10	पर	पर	PSP	psp	lex-पर|cat-psp|gen-|num-|pers-|case-|vib-|tam-|chunkId-NP4|chunkType-child|stype-|voicetype-	9	lwg__psp	_	_
11	निगाह	निगाह	NN	n	lex-निगाह|cat-n|gen-f|num-sg|pers-3|case-d|vib-0|tam-0|chunkId-NP5|chunkType-head|stype-|voicetype-	12	pof	_	_
12	रखे	रख	VM	v	lex-रख|cat-v|gen-m|num-pl|pers-3|case-|vib-या_हो+या_है|tam-yA|chunkId-VGF|chunkType-head|stype-declarative|voicetype-active	0	main	_	_
13	हुए	हो	VAUX	v	lex-हो|cat-v|gen-m|num-pl|pers-any|case-|vib-या|tam-yA|chunkId-VGF|chunkType-child|stype-|voicetype-	12	lwg__vaux	_	_
14	है	है	VAUX	v	lex-है|cat-v|gen-any|num-pl|pers-3|case-|vib-है|tam-hE|chunkId-VGF|chunkType-child|stype-|voicetype-	12	lwg__vaux	_	_
15	।	।	SYM	punc	lex-।|cat-punc|gen-|num-|pers-|case-|vib-|tam-|chunkId-BLK|chunkType-head|stype-|voicetype-	12	rsym	_	_

1	सूत्रों	सूत्र	NN	n	lex-सूत्र|cat-n|gen-m|num-pl|pers-3|case-o|vib-0_का|tam-0|chunkId-NP|chunkType-head|stype-|voicetype-	3	k1	_	_
2	का	का	PSP	psp	lex-का|cat-psp|gen-m|num-sg|pers-|case-d|vib-|tam-|chunkId-NP|chunkType-child|stype-|voicetype-	1	lwg__psp	_	_
3	मानना	मान	VM	v	lex-मान|cat-v|gen-m|num-sg|pers-any|case-d|vib-ना|tam-nA|chunkId-VGNN|chunkType-head|stype-|voicetype-	4	k1	_	_
4	है	है	VM	v	lex-है|cat-v|gen-any|num-sg|pers-3|case-|vib-है|tam-hE|chunkId-VGF|chunkType-head|stype-declarative|voicetype-active	0	main	_	_
5	कि	कि	CC	avy	lex-कि|cat-avy|gen-|num-|pers-|case-|vib-|tam-|chunkId-CCP|chunkType-head|stype-|voicetype-	3	k2	_	_
6	देश	देश	NN	n	lex-देश|cat-n|gen-m|num-sg|pers-3|case-o|vib-0_का|tam-0|chunkId-NP2|chunkType-head|stype-|voicetype-	9	r6	_	_
7	के	का	PSP	psp	lex-का|cat-psp|gen-m|num-sg|pers-|case-o|vib-|tam-|chunkId-NP2|chunkType-child|stype-|voicetype-	6	lwg__psp	_	_
8	कॉर्पोरेट	कॉर्पोरेट	NNC	n	lex-कॉर्पोरेट|cat-n|gen-m|num-sg|pers-3|case-d|vib-0|tam-0|chunkId-NP3|chunkType-child|stype-|voicetype-	9	pof__cn	_	_
9	इतिहास	इतिहास	NN	n	lex-इतिहास|cat-n|gen-m|num-sg|pers-3|case-o|vib-0_में|tam-0|chunkId-NP3|chunkType-head|stype-|voicetype-	15	k7	_	_
10	में	में	PSP	psp	lex-में|cat-psp|gen-|num-|pers-|case-|vib-|tam-|chunkId-NP3|chunkType-child|stype-|voicetype-	9	lwg__psp	_	_
11	मालिकाना	मालिकाना	JJ	adj	lex-मालिकाना|cat-adj|gen-any|num-any|pers-|case-o|vib-|tam-|chunkId-NP4|chunkType-child|stype-|voicetype-	12	nmod__adj	_	_
12	ह़क़	हक	NN	n	lex-हक|cat-n|gen-m|num-sg|pers-3|case-o|vib-0_को|tam-0|chunkId-NP4|chunkType-head|stype-|voicetype-	14	k2	_	_
13	को	को	PSP	psp	lex-को|cat-psp|gen-|num-|pers-|case-|vib-|tam-|chunkId-NP4|chunkType-child|stype-|voicetype-	12	lwg__psp	_	_
14	लेकर	ले	VM	v	lex-ले|cat-v|gen-any|num-any|pers-any|case-|vib-कर|tam-kara|chunkId-VGNF|chunkType-head|stype-|voicetype-	15	vmod	_	_
15	छिड़े	छिड	VM	v	lex-छिड|cat-v|gen-any|num-sg|pers-3|case-|vib-एं|tam-eM|chunkId-VGNF2|chunkType-head|stype-|voicetype-	19	nmod__k1inv	_	_
16	इस	यह	DEM	pn	lex-यह|cat-pn|gen-any|num-sg|pers-3|case-o|vib-|tam-|chunkId-NP5|chunkType-child|stype-|voicetype-	19	nmod__adj	_	_
17	सबसे	सबसे	INTF	avy	lex-सबसे|cat-avy|gen-|num-|pers-|case-|vib-|tam-|chunkId-NP5|chunkType-child|stype-|voicetype-	18	jjmod__intf	_	_
18	ज़बरदस्त	जबरदस्त	JJ	adj	lex-जबरदस्त|cat-adj|gen-any|num-any|pers-|case-o|vib-|tam-|chunkId-NP5|chunkType-child|stype-|voicetype-	19	nmod__adj	_	_
19	विवाद	विवाद	NN	n	lex-विवाद|cat-n|gen-m|num-sg|pers-3|case-o|vib-0_को|tam-0|chunkId-NP5|chunkType-head|stype-|voicetype-	21	k2	_	_
20	को	को	PSP	psp	lex-को|cat-psp|gen-|num-|pers-|case-|vib-|tam-|chunkId-NP5|chunkType-child|stype-|voicetype-	19	lwg__psp	_	_
21	सुलझाने	सुलझा	VM	v	lex-सुलझा|cat-v|gen-any|num-sg|pers-any|case-o|vib-ना_का|tam-nA|chunkId-VGNN2|chunkType-head|stype-|voicetype-	23	r6	_	_
22	के	का	PSP	psp	lex-का|cat-psp|gen-m|num-sg|pers-|case-o|vib-|tam-|chunkId-VGNN2|chunkType-child|stype-|voicetype-	21	lwg__psp	_	_
23	मक़सद	मकसद	NN	n	lex-मकसद|cat-n|gen-m|num-sg|pers-3|case-o|vib-0_से|tam-0|chunkId-NP6|chunkType-head|stype-|voicetype-	34	rh	_	_
24	से	से	PSP	psp	lex-से|cat-psp|gen-|num-|pers-|case-|vib-|tam-|chunkId-NP6|chunkType-child|stype-|voicetype-	23	lwg__psp	_	_
25	पिछले	पिछला	JJ	adj	lex-पिछला|cat-adj|gen-m|num-sg|pers-|case-o|vib-|tam-|chunkId-NP7|chunkType-child|stype-|voicetype-	27	nmod__adj	_	_
26	एक	एक	QC	num	lex-एक|cat-num|gen-any|num-any|pers-|case-any|vib-|tam-|chunkId-NP7|chunkType-child|stype-|voicetype-	27	nmod__adj	_	_
27	माह	माह	NN	n	lex-माह|cat-n|gen-m|num-sg|pers-3|case-o|vib-0_के_दौरान|tam-0|chunkId-NP7|chunkType-head|stype-|voicetype-	34	k7t	_	_
28	के	के	PSP	psp	lex-के|cat-psp|gen-|num-|pers-|case-|vib-|tam-|chunkId-NP7|chunkType-child|stype-|voicetype-	27	lwg__psp	_	_
29	दौरान	दौरान	NST	nst	lex-दौरान|cat-nst|gen-m|num-sg|pers-3|case-d|vib-|tam-|chunkId-NP7|chunkType-child|stype-|voicetype-	27	lwg__psp	_	_
30	समझौता	समझौता	NNC	n	lex-समझौता|cat-n|gen-m|num-sg|pers-3|case-d|vib-0|tam-0|chunkId-NP8|chunkType-child|stype-|voicetype-	31	pof__cn	_	_
31	प्रक्रिया	प्रक्रिया	NN	n	lex-प्रक्रिया|cat-n|gen-f|num-sg|pers-3|case-o|vib-0_में|tam-0|chunkId-NP8|chunkType-head|stype-|voicetype-	34	k7	_	_
32	में	में	PSP	psp	lex-में|cat-psp|gen-|num-|pers-|case-|vib-|tam-|chunkId-NP8|chunkType-child|stype-|voicetype-	31	lwg__psp	_	_
33	तेज़ी	तेजी	NN	n	lex-तेजी|cat-n|gen-f|num-sg|pers-3|case-d|vib-0|tam-0|chunkId-NP9|chunkType-head|stype-|voicetype-	34	adv	_	_
34	आई	आ	VM	v	lex-आ|cat-v|gen-f|num-sg|pers-3|case-|vib-या_है|tam-yA|chunkId-VGF2|chunkType-head|stype-declarative|voicetype-active	5	ccof	_	_
35	है	है	VAUX	v	lex-है|cat-v|gen-any|num-sg|pers-3|case-|vib-है|tam-hE|chunkId-VGF2|chunkType-child|stype-|voicetype-	34	lwg__vaux	_	_
36	।	।	SYM	punc	lex-।|cat-punc|gen-|num-|pers-|case-|vib-|tam-|chunkId-BLK|chunkType-head|stype-|voicetype-	4	rsym	_	_

1	सूत्रों	सूत्र	NN	n	lex-सूत्र|cat-n|gen-m|num-pl|pers-3|case-o|vib-0_का|tam-0|chunkId-NP|chunkType-head|stype-|voicetype-	5	k1	_	_
2	का	का	PSP	psp	lex-का|cat-psp|gen-m|num-sg|pers-|case-d|vib-|tam-|chunkId-NP|chunkType-child|stype-|voicetype-	1	lwg__psp	_	_
3	यह	यह	PRP	pn	lex-यह|cat-pn|gen-any|num-sg|pers-3|case-d|vib-0|tam-0|chunkId-NP2|chunkType-head|stype-|voicetype-	5	k2	_	_
4	भी	भी	RP	avy	lex-भी|cat-avy|gen-|num-|pers-|case-|vib-|tam-|chunkId-NP2|chunkType-child|stype-|voicetype-	3	lwg__rp	_	_
5	कहना	कह	VM	v	lex-कह|cat-v|gen-m|num-sg|pers-any|case-d|vib-ना|tam-nA|chunkId-VGNN|chunkType-head|stype-|voicetype-	6	k1	_	_
6	है	है	VM	v	lex-है|cat-v|gen-any|num-sg|pers-3|case-|vib-है|tam-hE|chunkId-VGF|chunkType-head|stype-declarative|voicetype-active	0	main	_	_
7	कि	कि	CC	avy	lex-कि|cat-avy|gen-|num-|pers-|case-|vib-|tam-|chunkId-CCP|chunkType-head|stype-|voicetype-	3	rs	_	_
8	इस	यह	DEM	pn	lex-यह|cat-pn|gen-any|num-sg|pers-3|case-o|vib-|tam-|chunkId-NP3|chunkType-child|stype-|voicetype-	9	nmod__adj	_	_
9	विवाद	विवाद	NN	n	lex-विवाद|cat-n|gen-m|num-sg|pers-3|case-o|vib-0_को|tam-0|chunkId-NP3|chunkType-head|stype-|voicetype-	15	k2	_	_
10	को	को	PSP	psp	lex-को|cat-psp|gen-|num-|pers-|case-|vib-|tam-|chunkId-NP3|chunkType-child|stype-|voicetype-	9	lwg__psp	_	_
11	जल्द	जल्द	RB	adv	lex-जल्द|cat-adv|gen-|num-|pers-|case-|vib-|tam-|chunkId-RBP|chunkType-child|stype-|voicetype-	13	vmod__adv	_	_
12	से	से	RP	avy	lex-से|cat-avy|gen-|num-|pers-|case-|vib-|tam-|chunkId-RBP|chunkType-child|stype-|voicetype-	13	lwg__rp	_	_
13	जल्द	जल्द	RB	adv	lex-जल्द|cat-adv|gen-|num-|pers-|case-|vib-|tam-|chunkId-RBP|chunkType-head|stype-|voicetype-	15	adv	_	_
14	समाप्त	समाप्त	JJ	adj	lex-समाप्त|cat-adj|gen-any|num-any|pers-|case-|vib-|tam-|chunkId-JJP|chunkType-head|stype-|voicetype-	15	pof	_	_
15	करने	कर	VM	v	lex-कर|cat-v|gen-any|num-sg|pers-any|case-o|vib-ना_का|tam-nA|chunkId-VGNN2|chunkType-head|stype-|voicetype-	17	r6	_	_
16	की	का	PSP	psp	lex-का|cat-psp|gen-f|num-sg|pers-|case-o|vib-|tam-|chunkId-VGNN2|chunkType-child|stype-|voicetype-	15	lwg__psp	_	_
17	मंशा	मंशा	NN	n	lex-मंशा|cat-n|gen-f|num-sg|pers-3|case-o|vib-0_से|tam-0|chunkId-NP4|chunkType-head|stype-|voicetype-	34	rh	_	_
18	से	से	PSP	psp	lex-से|cat-psp|gen-|num-|pers-|case-|vib-|tam-|chunkId-NP4|chunkType-child|stype-|voicetype-	17	lwg__psp	_	_
19	रिलायंस	रिलायंस	NNP	n	lex-रिलायंस|cat-n|gen-m|num-sg|pers-3|case-o|vib-0_का|tam-0|chunkId-NP5|chunkType-head|stype-|voicetype-	21	r6	_	_
20	के	का	PSP	psp	lex-का|cat-psp|gen-m|num-sg|pers-|case-o|vib-|tam-|chunkId-NP5|chunkType-child|stype-|voicetype-	19	lwg__psp	_	_
21	संस्थापक	संस्थापक	NN	n	lex-संस्थापक|cat-n|gen-m|num-sg|pers-3|case-o|vib-0|tam-0|chunkId-NP6|chunkType-head|stype-|voicetype-	23	nmod	_	_
22	धीरूभाई	धीरूभाई	NNPC	n	lex-धीरूभाई|cat-n|gen-m|num-sg|pers-3|case-d|vib-0|tam-0|chunkId-NP7|chunkType-child|stype-|voicetype-	23	pof__cn	_	_
23	अंबानी	अंबानी	NNP	n	lex-अंबानी|cat-n|gen-any|num-sg|pers-3|case-o|vib-0_का|tam-0|chunkId-NP7|chunkType-head|stype-|voicetype-	25	r6	_	_
24	की	का	PSP	psp	lex-का|cat-psp|gen-f|num-sg|pers-|case-d|vib-|tam-|chunkId-NP7|chunkType-child|stype-|voicetype-	23	lwg__psp	_	_
25	विधवा	विधवा	NN	n	lex-विधवा|cat-n|gen-f|num-sg|pers-3|case-d|vib-0|tam-0|chunkId-NP8|chunkType-head|stype-|voicetype-	26	nmod	_	_
26	कोकिलाबेन	कोकिलाबेन	NNP	n	lex-कोकिलाबेन|cat-n|gen-m|num-sg|pers-3|case-d|vib-0|tam-0|chunkId-NP9|chunkType-head|stype-|voicetype-	34	k1	_	_
27	दोनों	दो	QC	num	lex-दो|cat-num|gen-any|num-pl|pers-|case-any|vib-|tam-|chunkId-NP10|chunkType-child|stype-|voicetype-	28	nmod__adj	_	_
28	भाइयों	भाई	NN	n	lex-भाई|cat-n|gen-m|num-pl|pers-3|case-o|vib-0_से|tam-0|chunkId-NP10|chunkType-head|stype-|voicetype-	34	ras-k1	_	_
29	से	से	PSP	psp	lex-से|cat-psp|gen-|num-|pers-|case-|vib-|tam-|chunkId-NP10|chunkType-child|stype-|voicetype-	28	lwg__psp	_	_
30	रोज़	रोज	NN	n	lex-रोज|cat-n|gen-m|num-sg|pers-3|case-d|vib-0|tam-0|chunkId-NP11|chunkType-head|stype-|voicetype-	34	k7t	_	_
31	अलग	अलग	JJ	adj	lex-अलग|cat-adj|gen-any|num-any|pers-|case-d|vib-|tam-|chunkId-JJP2|chunkType-head|stype-|voicetype-	34	adv	_	_
32	अलग	अलग	RDP	adj	lex-अलग|cat-adj|gen-any|num-any|pers-|case-d|vib-|tam-|chunkId-JJP2|chunkType-child|stype-|voicetype-	31	mod	_	_
33	मुलाक़ात	मुलाकात	NN	n	lex-मुलाकात|cat-n|gen-f|num-sg|pers-3|case-d|vib-0|tam-0|chunkId-NP12|chunkType-head|stype-|voicetype-	34	pof	_	_
34	करती	कर	VM	v	lex-कर|cat-v|gen-f|num-sg|pers-3h|case-|vib-ता_है|tam-wA|chunkId-VGF2|chunkType-head|stype-declarative|voicetype-active	7	ccof	_	_
35	हैं	है	VAUX	v	lex-है|cat-v|gen-any|num-sg|pers-3h|case-|vib-है|tam-hE|chunkId-VGF2|chunkType-child|stype-|voicetype-	34	lwg__vaux	_	_
36	।	।	SYM	punc	lex-।|cat-punc|gen-|num-|pers-|case-|vib-|tam-|chunkId-BLK|chunkType-head|stype-|voicetype-	6	rsym	_	_

1	मीडिया	मीडिया	NNPC	n	lex-मीडिया|cat-n|gen-f|num-sg|pers-3|case-d|vib-0|tam-0|chunkId-NP|chunkType-child|stype-|voicetype-	2	pof__cn	_	_
2	रिपोर्टो	रिपोर्ट	NNP	n	lex-रिपोर्ट|cat-n|gen-f|num-sg|pers-3|case-o|vib-0_में|tam-0|chunkId-NP|chunkType-head|stype-|voicetype-	4	k7	_	_
3	में	में	PSP	psp	lex-में|cat-psp|gen-|num-|pers-|case-|vib-|tam-|chunkId-NP|chunkType-child|stype-|voicetype-	2	lwg__psp	_	_
4	कहा	कह	VM	v	lex-कह|cat-v|gen-m|num-sg|pers-3|case-|vib-या_जा_रह+या_है|tam-yA|chunkId-VGF|chunkType-head|stype-declarative|voicetype-passive	0	main	_	_
5	जा	जा	VAUX	v	lex-जा|cat-v|gen-any|num-any|pers-any|case-|vib-0|tam-0|chunkId-VGF|chunkType-child|stype-|voicetype-	4	lwg__vaux	_	_
6	रहा	रह	VAUX	v	lex-रह|cat-v|gen-m|num-sg|pers-any|case-|vib-या|tam-yA|chunkId-VGF|chunkType-child|stype-|voicetype-	4	lwg__vaux	_	_
7	है	है	VAUX	v	lex-है|cat-v|gen-any|num-sg|pers-3|case-|vib-है|tam-hE|chunkId-VGF|chunkType-child|stype-|voicetype-	4	lwg__vaux	_	_
8	कि	कि	CC	avy	lex-कि|cat-avy|gen-|num-|pers-|case-|vib-|tam-|chunkId-CCP|chunkType-head|stype-|voicetype-	4	k2	_	_
9	रिलायंस	रिलायंस	NNPC	n	lex-रिलायंस|cat-n|gen-m|num-sg|pers-3|case-d|vib-0|tam-0|chunkId-NP2|chunkType-child|stype-|voicetype-	10	pof__cn	_	_
10	कैपिटल	कैपिटल	NNP	n	lex-कैपिटल|cat-n|gen-m|num-sg|pers-3|case-d|vib-0|tam-0|chunkId-NP2|chunkType-head|stype-|voicetype-	14	k1	_	_
11	किसके	कौन	WQ	pn	lex-कौन|cat-pn|gen-any|num-sg|pers-3|case-o|vib-का|tam-kA|chunkId-NP3|chunkType-head|stype-|voicetype-	12	r6	_	_
12	हिस्से	हिस्सा	NN	n	lex-हिस्सा|cat-n|gen-m|num-sg|pers-3|case-o|vib-0_में|tam-0|chunkId-NP4|chunkType-head|stype-|voicetype-	14	k7	_	_
13	में	में	PSP	psp	lex-में|cat-psp|gen-|num-|pers-|case-|vib-|tam-|chunkId-NP4|chunkType-child|stype-|voicetype-	12	lwg__psp	_	_
14	जाएगा	जा	VM	v	lex-जा|cat-v|gen-m|num-sg|pers-3|case-|vib-गा|tam-gA|chunkId-VGF2|chunkType-head|stype-declarative|voicetype-active	23	ccof	_	_
15	,	COMMA	SYM	punc	lex-COMMA|cat-punc|gen-|num-|pers-|case-|vib-|tam-|chunkId-VGF2|chunkType-child|stype-|voicetype-	14	rsym	_	_
16	इसको	यह	PRP	pn	lex-यह|cat-pn|gen-any|num-sg|pers-3|case-o|vib-को|tam-ko|chunkId-NP5|chunkType-head|stype-|voicetype-	17	k2	_	_
17	लेकर	ले	VM	v	lex-ले|cat-v|gen-any|num-any|pers-any|case-|vib-कर|tam-kara|chunkId-VGNF|chunkType-head|stype-|voicetype-	21	vmod	_	_
18	भ्रम	भ्रम	NN	n	lex-भ्रम|cat-n|gen-m|num-sg|pers-3|case-o|vib-0_का|tam-0|chunkId-NP6|chunkType-head|stype-|voicetype-	20	r6	_	_
19	की	का	PSP	psp	lex-का|cat-psp|gen-f|num-sg|pers-|case-d|vib-|tam-|chunkId-NP6|chunkType-child|stype-|voicetype-	18	lwg__psp	_	_
20	स्थिति	स्थिति	NN	n	lex-स्थिति|cat-n|gen-f|num-sg|pers-3|case-d|vib-0|tam-0|chunkId-NP7|chunkType-head|stype-|voicetype-	21	k1	_	_
21	है	है	VM	v	lex-है|cat-v|gen-any|num-sg|pers-3|case-|vib-है|tam-hE|chunkId-VGF3|chunkType-head|stype-declarative|voicetype-active	14	vmod	_	_
22	,	COMMA	SYM	punc	lex-COMMA|cat-punc|gen-|num-|pers-|case-|vib-|tam-|chunkId-VGF3|chunkType-child|stype-|voicetype-	21	rsym	_	_
23	लेकिन	लेकिन	CC	avy	lex-लेकिन|cat-avy|gen-|num-|pers-|case-|vib-|tam-|chunkId-CCP2|chunkType-head|stype-|voicetype-	8	ccof	_	_
24	सूत्रों	सूत्र	NN	n	lex-सूत्र|cat-n|gen-m|num-pl|pers-3|case-o|vib-0_ने|tam-0|chunkId-NP8|chunkType-head|stype-|voicetype-	27	k1	_	_
25	ने	ने	PSP	psp	lex-ने|cat-psp|gen-|num-|pers-|case-|vib-|tam-|chunkId-NP8|chunkType-child|stype-|voicetype-	24	lwg__psp	_	_
26	संकेत	संकेत	NN	n	lex-संकेत|cat-n|gen-m|num-sg|pers-3|case-d|vib-0|tam-0|chunkId-NP9|chunkType-head|stype-|voicetype-	27	pof	_	_
27	दिया	दे	VM	v	lex-दे|cat-v|gen-m|num-sg|pers-3|case-|vib-या_है|tam-yA|chunkId-VGF4|chunkType-head|stype-declarative|voicetype-active	23	ccof	_	_
28	है	है	VAUX	v	lex-है|cat-v|gen-any|num-sg|pers-3|case-|vib-है|tam-hE|chunkId-VGF4|chunkType-child|stype-|voicetype-	27	lwg__vaux	_	_
29	कि	कि	CC	avy	lex-कि|cat-avy|gen-|num-|pers-|case-|vib-|tam-|chunkId-CCP3|chunkType-head|stype-|voicetype-	27	k2	_	_
30	यह	यह	DEM	pn	lex-यह|cat-pn|gen-any|num-sg|pers-3|case-d|vib-|tam-|chunkId-NP10|chunkType-child|stype-|voicetype-	31	nmod__adj	_	_
31	कंपनी	कंपनी	NN	n	lex-कंपनी|cat-n|gen-f|num-sg|pers-3|case-d|vib-0|tam-0|chunkId-NP10|chunkType-head|stype-|voicetype-	36	k1	_	_
32	अनिल	अनिल	NNP	n	lex-अनिल|cat-n|gen-m|num-sg|pers-3|case-o|vib-0_का|tam-0|chunkId-NP11|chunkType-head|stype-|voicetype-	34	r6	_	_
33	के	का	PSP	psp	lex-का|cat-psp|gen-m|num-sg|pers-|case-o|vib-|tam-|chunkId-NP11|chunkType-child|stype-|voicetype-	32	lwg__psp	_	_
34	हिस्से	हिस्सा	NN	n	lex-हिस्सा|cat-n|gen-m|num-sg|pers-3|case-o|vib-0_में|tam-0|chunkId-NP12|chunkType-head|stype-|voicetype-	36	k7	_	_
35	में	में	PSP	psp	lex-में|cat-psp|gen-|num-|pers-|case-|vib-|tam-|chunkId-NP12|chunkType-child|stype-|voicetype-	34	lwg__psp	_	_
36	जा	जा	VM	v	lex-जा|cat-v|gen-f|num-sg|pers-3|case-|vib-0_सक+ता_है|tam-0|chunkId-VGF5|chunkType-head|stype-declarative|voicetype-active	29	ccof	_	_
37	सकती	सक	VAUX	v	lex-सक|cat-v|gen-f|num-sg|pers-any|case-|vib-ता|tam-wA|chunkId-VGF5|chunkType-child|stype-|voicetype-	36	lwg__vaux	_	_
38	है	है	VAUX	v	lex-है|cat-v|gen-any|num-sg|pers-3|case-|vib-है|tam-hE|chunkId-VGF5|chunkType-child|stype-|voicetype-	36	lwg__vaux	_	_
39	।	।	SYM	punc	lex-।|cat-punc|gen-|num-|pers-|case-|vib-|tam-|chunkId-BLK|chunkType-head|stype-|voicetype-	4	rsym	_	_

1	साथ	साथ	NST	nst	lex-साथ|cat-nst|gen-m|num-sg|pers-3|case-d|vib-|tam-|chunkId-NP|chunkType-head|stype-|voicetype-	9	sent-adv	_	_
2	उन्हें	वह	PRP	pn	lex-वह|cat-pn|gen-any|num-sg|pers-3h|case-o|vib-को|tam-ko|chunkId-NP2|chunkType-head|stype-|voicetype-	9	k4	_	_
3	रिलायंस	रिलायंस	NNPC	n	lex-रिलायंस|cat-n|gen-m|num-sg|pers-3|case-d|vib-0|tam-0|chunkId-NP3|chunkType-child|stype-|voicetype-	4	pof__cn	_	_
4	एनर्जी	एनर्जी	NNP	n	lex-एनर्जी|cat-n|gen-f|num-sg|pers-3|case-d|vib-0|tam-0|chunkId-NP3|chunkType-head|stype-|voicetype-	5	ccof	_	_
5	और	और	CC	avy	lex-और|cat-avy|gen-|num-|pers-|case-|vib-|tam-|chunkId-CCP|chunkType-head|stype-|voicetype-	9	k1	_	_
6	रिलायंस	रिलायंस	NNPC	n	lex-रिलायंस|cat-n|gen-m|num-sg|pers-3|case-d|vib-0|tam-0|chunkId-NP4|chunkType-child|stype-|voicetype-	7	pof__cn	_	_
7	इंफोकॉम	इंफोकॉम	NNP	n	lex-इंफोकॉम|cat-n|gen-m|num-sg|pers-3|case-d|vib-0|tam-0|chunkId-NP4|chunkType-head|stype-|voicetype-	5	ccof	_	_
8	भी	भी	RP	avy	lex-भी|cat-avy|gen-|num-|pers-|case-|vib-|tam-|chunkId-NP4|chunkType-child|stype-|voicetype-	7	lwg__rp	_	_
9	मिल	मिल	VM	v	lex-मिल|cat-v|gen-m|num-sg|pers-3|case-|vib-0_सक+ता_है|tam-0|chunkId-VGF|chunkType-head|stype-declarative|voicetype-active	0	main	_	_
10	सकता	सक	VAUX	v	lex-सक|cat-v|gen-m|num-sg|pers-any|case-|vib-ता|tam-wA|chunkId-VGF|chunkType-child|stype-|voicetype-	9	lwg__vaux	_	_
11	है	है	VAUX	v	lex-है|cat-v|gen-any|num-sg|pers-3|case-|vib-है|tam-hE|chunkId-VGF|chunkType-child|stype-|voicetype-	9	lwg__vaux	_	_
12	,	COMMA	SYM	punc	lex-COMMA|cat-punc|gen-|num-|pers-|case-|vib-|tam-|chunkId-VGF|chunkType-child|stype-|voicetype-	9	rsym	_	_
13	जिसके	जो	PRP	pn	lex-जो|cat-pn|gen-m|num-sg|pers-3|case-o|vib-का|tam-kA|chunkId-NP5|chunkType-head|stype-|voicetype-	14	r6	_	_
14	अध्यक्ष	अध्यक्ष	NN	n	lex-अध्यक्ष|cat-n|gen-m|num-sg|pers-3|case-d|vib-0|tam-0|chunkId-NP6|chunkType-head|stype-|voicetype-	17	k1	_	_
15	मुकेश	मुकेश	NNPC	n	lex-मुकेश|cat-n|gen-m|num-sg|pers-3|case-d|vib-0|tam-0|chunkId-NP7|chunkType-child|stype-|voicetype-	16	pof__cn	_	_
16	अंबानी	अंबानी	NNP	n	lex-अंबानी|cat-n|gen-any|num-sg|pers-3|case-d|vib-0|tam-0|chunkId-NP7|chunkType-head|stype-|voicetype-	17	k1s	_	_
17	हैं	है	VM	v	lex-है|cat-v|gen-any|num-sg|pers-3h|case-|vib-है|tam-hE|chunkId-VGF2|chunkType-head|stype-declarative|voicetype-active	5	nmod__relc	_	_
18	।	।	SYM	punc	lex-।|cat-punc|gen-|num-|pers-|case-|vib-|tam-|chunkId-BLK|chunkType-head|stype-|voicetype-	9	rsym	_	_

1	दोनों	दो	QC	num	lex-दो|cat-num|gen-any|num-pl|pers-|case-any|vib-|tam-|chunkId-NP|chunkType-child|stype-|voicetype-	2	nmod__adj	_	_
2	पक्षों	पक्ष	NN	n	lex-पक्ष|cat-n|gen-m|num-pl|pers-3|case-o|vib-0_के_बीच|tam-0|chunkId-NP|chunkType-head|stype-|voicetype-	10	k7	_	_
3	के	के	PSP	psp	lex-के|cat-psp|gen-|num-|pers-|case-|vib-|tam-|chunkId-NP|chunkType-child|stype-|voicetype-	2	lwg__psp	_	_
4	बीच	बीच	NST	nst	lex-बीच|cat-nst|gen-m|num-sg|pers-3|case-d|vib-|tam-|chunkId-NP|chunkType-child|stype-|voicetype-	2	lwg__psp	_	_
5	जिन	जो	DEM	pn	lex-जो|cat-pn|gen-any|num-pl|pers-3|case-o|vib-|tam-|chunkId-NP2|chunkType-child|stype-|voicetype-	6	nmod__adj	_	_
6	मुद्दों	मुद्दा	NN	n	lex-मुद्दा|cat-n|gen-m|num-pl|pers-3|case-o|vib-0_पर|tam-0|chunkId-NP2|chunkType-head|stype-|voicetype-	10	k7	_	_
7	पर	पर	PSP	psp	lex-पर|cat-psp|gen-|num-|pers-|case-|vib-|tam-|chunkId-NP2|chunkType-child|stype-|voicetype-	6	lwg__psp	_	_
8	व्यापक	व्यापक	JJ	adj	lex-व्यापक|cat-adj|gen-any|num-any|pers-|case-d|vib-|tam-|chunkId-NP3|chunkType-child|stype-|voicetype-	9	nmod__adj	_	_
9	सहमति	सहमति	NN	n	lex-सहमति|cat-n|gen-f|num-sg|pers-3|case-d|vib-0|tam-0|chunkId-NP3|chunkType-head|stype-|voicetype-	10	k1	_	_
10	बनी	बन	VM	v	lex-बन|cat-v|gen-f|num-sg|pers-3|case-|vib-या_है|tam-yA|chunkId-VGF|chunkType-head|stype-declarative|voicetype-active	13	nmod__relc	_	_
11	है	है	VAUX	v	lex-है|cat-v|gen-any|num-sg|pers-3|case-|vib-है|tam-hE|chunkId-VGF|chunkType-child|stype-|voicetype-	10	lwg__vaux	_	_
12	,	COMMA	SYM	punc	lex-COMMA|cat-punc|gen-|num-|pers-|case-|vib-|tam-|chunkId-VGF|chunkType-child|stype-|voicetype-	10	rsym	_	_
13	उसके	वह	PRP	pn	lex-वह|cat-pn|gen-any|num-sg|pers-3|case-o|vib-0_तहत|tam-ke|chunkId-NP4|chunkType-head|stype-|voicetype-	26	k7a	_	_
14	तहत	तहत	PSP	psp	lex-तहत|cat-psp|gen-|num-|pers-|case-|vib-|tam-|chunkId-NP4|chunkType-child|stype-|voicetype-	13	lwg__psp	_	_
15	पिछले	पिछला	JJ	adj	lex-पिछला|cat-adj|gen-m|num-sg|pers-|case-o|vib-|tam-|chunkId-NP5|chunkType-child|stype-|voicetype-	17	nmod__adj	_	_
16	कुछ	कुछ	QF	avy	lex-कुछ|cat-avy|gen-|num-|pers-|case-|vib-|tam-|chunkId-NP5|chunkType-child|stype-|voicetype-	17	nmod__adj	_	_
17	साल	साल	NN	n	lex-साल|cat-n|gen-m|num-sg|pers-3|case-o|vib-0_में|tam-0|chunkId-NP5|chunkType-head|stype-|voicetype-	26	k7t	_	_
18	में	में	PSP	psp	lex-में|cat-psp|gen-|num-|pers-|case-|vib-|tam-|chunkId-NP5|chunkType-child|stype-|voicetype-	17	lwg__psp	_	_
19	रिलायंस	रिलायंस	NNPC	n	lex-रिलायंस|cat-n|gen-m|num-sg|pers-3|case-d|vib-0|tam-0|chunkId-NP6|chunkType-child|stype-|voicetype-	20	pof__cn	_	_
20	ग्रूप	ग्रूप	NNP	n	lex-ग्रूप|cat-n|gen-m|num-sg|pers-3|case-o|vib-0_ने|tam-0|chunkId-NP6|chunkType-head|stype-|voicetype-	26	k1	_	_
21	ने	ने	PSP	psp	lex-ने|cat-psp|gen-|num-|pers-|case-|vib-|tam-|chunkId-NP6|chunkType-child|stype-|voicetype-	20	lwg__psp	_	_
22	जो	जो	DEM	pn	lex-जो|cat-pn|gen-any|num-sg|pers-3|case-d|vib-|tam-|chunkId-NP7|chunkType-child|stype-|voicetype-	24	nmod__adj	_	_
23	नए	नया	JJ	adj	lex-नया|cat-adj|gen-m|num-pl|pers-|case-d|vib-|tam-|chunkId-NP7|chunkType-child|stype-|voicetype-	24	nmod__adj	_	_
24	व्यवसाय	व्यवसाय	NN	n	lex-व्यवसाय|cat-n|gen-m|num-pl|pers-3|case-d|vib-0|tam-0|chunkId-NP7|chunkType-head|stype-|voicetype-	26	k2	_	_
25	शुरू	शुरू	NN	n	lex-शुरू|cat-n|gen-m|num-sg|pers-3|case-d|vib-0|tam-0|chunkId-NP8|chunkType-head|stype-|voicetype-	26	pof	_	_
26	किए	कर	VM	v	lex-कर|cat-v|gen-m|num-pl|pers-3|case-|vib-या_है|tam-yA|chunkId-VGF2|chunkType-head|stype-declarative|voicetype-active	29	nmod__relc	_	_
27	हैं	है	VAUX	v	lex-है|cat-v|gen-any|num-pl|pers-3|case-|vib-है|tam-hE|chunkId-VGF2|chunkType-child|stype-|voicetype-	26	lwg__vaux	_	_
28	,	COMMA	SYM	punc	lex-COMMA|cat-punc|gen-|num-|pers-|case-|vib-|tam-|chunkId-VGF2|chunkType-child|stype-|voicetype-	26	rsym	_	_
29	वे	वह	PRP	pn	lex-वह|cat-pn|gen-any|num-pl|pers-3|case-d|vib-0|tam-0|chunkId-NP9|chunkType-head|stype-|voicetype-	34	k2	_	_
30	छोटे	छोटा	JJ	adj	lex-छोटा|cat-adj|gen-m|num-sg|pers-|case-o|vib-|tam-|chunkId-NP10|chunkType-child|stype-|voicetype-	31	nmod__adj	_	_
31	भाई	भाई	NN	n	lex-भाई|cat-n|gen-m|num-sg|pers-3|case-o|vib-0|tam-0|chunkId-NP10|chunkType-head|stype-|voicetype-	32	nmod	_	_
32	अनिल	अनिल	NNP	n	lex-अनिल|cat-n|gen-m|num-sg|pers-3|case-o|vib-0_को|tam-0|chunkId-NP11|chunkType-head|stype-|voicetype-	34	k4	_	_
33	को	को	PSP	psp	lex-को|cat-psp|gen-|num-|pers-|case-|vib-|tam-|chunkId-NP11|chunkType-child|stype-|voicetype-	32	lwg__psp	_	_
34	दिये	दे	VM	v	lex-दे|cat-v|gen-m|num-pl|pers-3|case-|vib-या_जा+गा|tam-yA|chunkId-VGF3|chunkType-head|stype-declarative|voicetype-active	36	ccof	_	_
35	जाएंगे	जा	VAUX	v	lex-जा|cat-v|gen-m|num-pl|pers-3|case-|vib-गा|tam-gA|chunkId-VGF3|chunkType-child|stype-|voicetype-	34	lwg__vaux	_	_
36	जबकि	जबकि	CC	avy	lex-जबकि|cat-avy|gen-|num-|pers-|case-|vib-|tam-|chunkId-CCP|chunkType-head|stype-|voicetype-	0	main	_	_
37	मुख्य	मुख्य	JJ	adj	lex-मुख्य|cat-adj|gen-any|num-any|pers-|case-d|vib-|tam-|chunkId-NP12|chunkType-child|stype-|voicetype-	38	nmod__adj	_	_
38	कंपनी	कंपनी	NN	n	lex-कंपनी|cat-n|gen-f|num-sg|pers-3|case-d|vib-0|tam-0|chunkId-NP12|chunkType-head|stype-|voicetype-	41	nmod	_	_
39	रिलायंस	रिलायंस	NNPC	n	lex-रिलायंस|cat-n|gen-m|num-sg|pers-3|case-d|vib-0|tam-0|chunkId-NP13|chunkType-child|stype-|voicetype-	41	pof__cn	_	_
40	इंडस्ट्रीज़	इंडस्ट्रीज़	NNPC	n	lex-इंडस्ट्रीज़|cat-n|gen-m|num-sg|pers-3|case-d|vib-0|tam-0|chunkId-NP13|chunkType-child|stype-|voicetype-	41	pof__cn	_	_
41	लिमिटेड	लिमिटेड	NNP	n	lex-लिमिटेड|cat-n|gen-m|num-sg|pers-3|case-o|vib-0|tam-0|chunkId-NP13|chunkType-head|stype-|voicetype-	45	ccof	_	_
42	(	(	SYM	punc	lex-(|cat-punc|gen-|num-|pers-|case-|vib-|tam-|chunkId-NP14|chunkType-child|stype-|voicetype-	43	rsym	_	_
43	आरआईएल	आरआईएल	NNP	n	lex-आरआईएल|cat-n|gen-m|num-sg|pers-3|case-o|vib-0|tam-0|chunkId-NP14|chunkType-head|stype-|voicetype-	41	rs	_	_
44	)	)	SYM	punc	lex-)|cat-punc|gen-|num-|pers-|case-|vib-|tam-|chunkId-NP14|chunkType-child|stype-|voicetype-	43	rsym	_	_
45	और	और	CC	avy	lex-और|cat-avy|gen-|num-|pers-|case-|vib-|tam-|chunkId-CCP2|chunkType-head|stype-|voicetype-	55	k7	_	_
46	पेट्रोकेमिकल	पेट्रोकेमिकल	NNPC	n	lex-पेट्रोकेमिकल|cat-n|gen-m|num-sg|pers-3|case-d|vib-0|tam-0|chunkId-NP15|chunkType-child|stype-|voicetype-	47	pof__cn	_	_
47	उपक्रम	उपक्रम	NNP	n	lex-उपक्रम|cat-n|gen-m|num-sg|pers-3|case-o|vib-0|tam-0|chunkId-NP15|chunkType-head|stype-|voicetype-	48	nmod	_	_
48	आईपीसीएल	आईपीसीएल	NNP	n	lex-आईपीसीएल|cat-n|gen-m|num-sg|pers-3|case-o|vib-0_पर|tam-0|chunkId-NP16|chunkType-head|stype-|voicetype-	45	ccof	_	_
49	पर	पर	PSP	psp	lex-पर|cat-psp|gen-|num-|pers-|case-|vib-|tam-|chunkId-NP16|chunkType-child|stype-|voicetype-	48	lwg__psp	_	_
50	मुकेश	मुकेश	NNP	n	lex-मुकेश|cat-n|gen-m|num-sg|pers-3|case-o|vib-0_का|tam-0|chunkId-NP17|chunkType-head|stype-|voicetype-	53	r6	_	_
51	का	का	PSP	psp	lex-का|cat-psp|gen-m|num-sg|pers-|case-d|vib-|tam-|chunkId-NP17|chunkType-child|stype-|voicetype-	50	lwg__psp	_	_
52	मालिकाना	मालिकाना	JJ	adj	lex-मालिकाना|cat-adj|gen-any|num-any|pers-|case-d|vib-|tam-|chunkId-NP18|chunkType-child|stype-|voicetype-	53	nmod__adj	_	_
53	हक़	हक	NN	n	lex-हक|cat-n|gen-m|num-sg|pers-3|case-d|vib-0|tam-0|chunkId-NP18|chunkType-head|stype-|voicetype-	55	k1	_	_
54	बरक़रार	बरकरार	JJ	adj	lex-बरकरार|cat-adj|gen-any|num-any|pers-|case-|vib-|tam-|chunkId-JJP|chunkType-head|stype-|voicetype-	55	k1s	_	_
55	रहेगा	रह	VM	v	lex-रह|cat-v|gen-m|num-sg|pers-3|case-|vib-गा|tam-gA|chunkId-VGF4|chunkType-head|stype-declarative|voicetype-active	36	ccof	_	_
56	।	।	SYM	punc	lex-।|cat-punc|gen-|num-|pers-|case-|vib-|tam-|chunkId-BLK|chunkType-head|stype-|voicetype-	36	rsym	_	_

1	साथ	साथ	NST	nst	lex-साथ|cat-nst|gen-m|num-sg|pers-3|case-d|vib-|tam-|chunkId-NP|chunkType-head|stype-|voicetype-	17	sent-adv	_	_
2	ही	ही	RP	avy	lex-ही|cat-avy|gen-|num-|pers-|case-|vib-|tam-|chunkId-NP|chunkType-child|stype-|voicetype-	1	lwg__rp	_	_
3	भविष्य	भविष्य	NN	n	lex-भविष्य|cat-n|gen-m|num-sg|pers-3|case-o|vib-0_में|tam-0|chunkId-NP2|chunkType-head|stype-|voicetype-	17	k7	_	_
4	में	में	PSP	psp	lex-में|cat-psp|gen-|num-|pers-|case-|vib-|tam-|chunkId-NP2|chunkType-child|stype-|voicetype-	3	lwg__psp	_	_
5	आरआईएल	आरआईएल	NNP	n	lex-आरआईएल|cat-n|gen-m|num-sg|pers-3|case-d|vib-0|tam-0|chunkId-NP3|chunkType-head|stype-|voicetype-	6	ccof	_	_
6	और	और	CC	avy	lex-और|cat-avy|gen-|num-|pers-|case-|vib-|tam-|chunkId-CCP|chunkType-head|stype-|voicetype-	17	k7	_	_
7	आईपीसीएल	आईपीसीएल	NNP	n	lex-आईपीसीएल|cat-n|gen-m|num-sg|pers-3|case-o|vib-0_के_बीच|tam-0|chunkId-NP4|chunkType-head|stype-|voicetype-	6	ccof	_	_
8	के	के	PSP	psp	lex-के|cat-psp|gen-|num-|pers-|case-|vib-|tam-|chunkId-NP4|chunkType-child|stype-|voicetype-	7	lwg__psp	_	_
9	बीच	बीच	NST	nst	lex-बीच|cat-nst|gen-m|num-sg|pers-3|case-d|vib-|tam-|chunkId-NP4|chunkType-child|stype-|voicetype-	7	lwg__psp	_	_
10	विलय	विलय	NN	n	lex-विलय|cat-n|gen-m|num-sg|pers-3|case-o|vib-0_का|tam-0|chunkId-NP5|chunkType-head|stype-|voicetype-	12	r6	_	_
11	की	का	PSP	psp	lex-का|cat-psp|gen-f|num-sg|pers-|case-o|vib-|tam-|chunkId-NP5|chunkType-child|stype-|voicetype-	10	lwg__psp	_	_
12	संभावना	संभावना	NN	n	lex-संभावना|cat-n|gen-f|num-sg|pers-3|case-o|vib-0_से|tam-0|chunkId-NP6|chunkType-head|stype-|voicetype-	17	k2	_	_
13	से	से	PSP	psp	lex-से|cat-psp|gen-|num-|pers-|case-|vib-|tam-|chunkId-NP6|chunkType-child|stype-|voicetype-	12	lwg__psp	_	_
14	भी	भी	RP	avy	lex-भी|cat-avy|gen-|num-|pers-|case-|vib-|tam-|chunkId-NP6|chunkType-child|stype-|voicetype-	12	lwg__rp	_	_
15	इनकार	इनकार	NN	n	lex-इनकार|cat-n|gen-m|num-sg|pers-3|case-d|vib-0|tam-0|chunkId-NP7|chunkType-head|stype-|voicetype-	17	pof	_	_
16	नहीं	नहीं	NEG	avy	lex-नहीं|cat-avy|gen-|num-|pers-|case-|vib-|tam-|chunkId-VGF|chunkType-child|stype-|voicetype-	17	lwg__neg	_	_
17	किया	कर	VM	v	lex-कर|cat-v|gen-m|num-sg|pers-3|case-|vib-या_जा_सक+ता_है|tam-yA|chunkId-VGF|chunkType-head|stype-declarative|voicetype-active	0	main	_	_
18	जा	जा	VAUX	v	lex-जा|cat-v|gen-any|num-any|pers-any|case-|vib-0|tam-0|chunkId-VGF|chunkType-child|stype-|voicetype-	17	lwg__vaux	_	_
19	सकता	सक	VAUX	v	lex-सक|cat-v|gen-m|num-sg|pers-any|case-|vib-ता|tam-wA|chunkId-VGF|chunkType-child|stype-|voicetype-	17	lwg__vaux	_	_
20	है	है	VAUX	v	lex-है|cat-v|gen-any|num-sg|pers-3|case-|vib-है|tam-hE|chunkId-VGF|chunkType-child|stype-|voicetype-	17	lwg__vaux	_	_
21	।	।	SYM	punc	lex-।|cat-punc|gen-|num-|pers-|case-|vib-|tam-|chunkId-BLK|chunkType-head|stype-|voicetype-	17	rsym	_	_

1	देश	देश	NN	n	lex-देश|cat-n|gen-m|num-sg|pers-3|case-o|vib-0_का|tam-0|chunkId-NP|chunkType-head|stype-|voicetype-	6	r6	_	_
2	के	का	PSP	psp	lex-का|cat-psp|gen-m|num-sg|pers-|case-o|vib-|tam-|chunkId-NP|chunkType-child|stype-|voicetype-	1	lwg__psp	_	_
3	सबसे	सबसे	INTF	avy	lex-सबसे|cat-avy|gen-|num-|pers-|case-|vib-|tam-|chunkId-NP2|chunkType-child|stype-|voicetype-	4	jjmod__intf	_	_
4	बड़े	बडा	JJ	adj	lex-बडा|cat-adj|gen-m|num-sg|pers-|case-o|vib-|tam-|chunkId-NP2|chunkType-child|stype-|voicetype-	6	nmod__adj	_	_
5	कॉर्पोरेट	कॉर्पोरेट	NNC	n	lex-कॉर्पोरेट|cat-n|gen-m|num-sg|pers-3|case-d|vib-0|tam-0|chunkId-NP2|chunkType-child|stype-|voicetype-	6	pof__cn	_	_
6	हाउस	हाउस	NN	n	lex-हाउस|cat-n|gen-m|num-sg|pers-3|case-o|vib-0_में|tam-0|chunkId-NP2|chunkType-head|stype-|voicetype-	11	k7	_	_
7	में	में	PSP	psp	lex-में|cat-psp|gen-|num-|pers-|case-|vib-|tam-|chunkId-NP2|chunkType-child|stype-|voicetype-	6	lwg__psp	_	_
8	समझौते	समझौता	NN	n	lex-समझौता|cat-n|gen-m|num-sg|pers-3|case-o|vib-0_के_लिए|tam-0|chunkId-NP3|chunkType-head|stype-|voicetype-	11	rt	_	_
9	के	के	PSP	psp	lex-के|cat-psp|gen-|num-|pers-|case-|vib-|tam-|chunkId-NP3|chunkType-child|stype-|voicetype-	8	lwg__psp	_	_
10	लिए	लिए	PSP	psp	lex-लिए|cat-psp|gen-|num-|pers-|case-|vib-|tam-|chunkId-NP3|chunkType-child|stype-|voicetype-	8	lwg__psp	_	_
11	की	कर	VM	v	lex-कर|cat-v|gen-any|num-sg|pers-any|case-|vib-या_जा_रह+या|tam-yA|chunkId-VGNF|chunkType-head|stype-|voicetype-	14	nmod__k1inv	_	_
12	जा	जा	VAUX	v	lex-जा|cat-v|gen-any|num-any|pers-any|case-|vib-0|tam-0|chunkId-VGNF|chunkType-child|stype-|voicetype-	11	lwg__vaux	_	_
13	रही	रह	VAUX	v	lex-रह|cat-v|gen-f|num-sg|pers-any|case-|vib-या|tam-yA|chunkId-VGNF|chunkType-child|stype-|voicetype-	11	lwg__vaux	_	_
14	पहल	पहल	NN	n	lex-पहल|cat-n|gen-m|num-sg|pers-3|case-o|vib-0_पर|tam-0|chunkId-NP4|chunkType-head|stype-|voicetype-	22	k7	_	_
15	पर	पर	PSP	psp	lex-पर|cat-psp|gen-|num-|pers-|case-|vib-|tam-|chunkId-NP4|chunkType-child|stype-|voicetype-	14	lwg__psp	_	_
16	वित्त	वित्त	NNPC	n	lex-वित्त|cat-n|gen-m|num-sg|pers-3|case-d|vib-0|tam-0|chunkId-NP5|chunkType-child|stype-|voicetype-	19	pof__cn	_	_
17	मंत्री	मंत्री	NNPC	n	lex-मंत्री|cat-n|gen-f|num-sg|pers-3|case-d|vib-0|tam-0|chunkId-NP5|chunkType-child|stype-|voicetype-	19	pof__cn	_	_
18	पी	पी	NNPC	n	lex-पी|cat-n|gen-m|num-sg|pers-3|case-o|vib-0|tam-0|chunkId-NP5|chunkType-child|stype-|voicetype-	19	pof__cn	_	_
19	चिदंबरम	चिदंबरम	NNP	n	lex-चिदंबरम|cat-n|gen-m|num-sg|pers-3|case-o|vib-0_का|tam-0|chunkId-NP5|chunkType-head|stype-|voicetype-	21	r6	_	_
20	की	का	PSP	psp	lex-का|cat-psp|gen-f|num-sg|pers-|case-d|vib-|tam-|chunkId-NP5|chunkType-child|stype-|voicetype-	19	lwg__psp	_	_
21	निगाह	निगाह	NN	n	lex-निगाह|cat-n|gen-f|num-sg|pers-3|case-d|vib-0|tam-0|chunkId-NP6|chunkType-head|stype-|voicetype-	22	k1	_	_
22	है	है	VM	v	lex-है|cat-v|gen-any|num-sg|pers-3|case-|vib-है|tam-hE|chunkId-VGF|chunkType-head|stype-declarative|voicetype-active	0	main	_	_
23	।	।	SYM	punc	lex-।|cat-punc|gen-|num-|pers-|case-|vib-|tam-|chunkId-BLK|chunkType-head|stype-|voicetype-	22	rsym	_	_

1	पिछले	पिछला	JJ	adj	lex-पिछला|cat-adj|gen-m|num-sg|pers-|case-o|vib-|tam-|chunkId-NP|chunkType-child|stype-|voicetype-	2	nmod__adj	_	_
2	पखवाड़े	पखवाड़े	NN	n	lex-पखवाड़े|cat-n|gen-m|num-sg|pers-3|case-o|vib-0|tam-0|chunkId-NP|chunkType-head|stype-|voicetype-	4	k7	_	_
3	उन्होंने	वह	PRP	pn	lex-वह|cat-pn|gen-any|num-sg|pers-3h|case-o|vib-ने|tam-ne|chunkId-NP2|chunkType-head|stype-|voicetype-	4	k1	_	_
4	कहा	कह	VM	v	lex-कह|cat-v|gen-m|num-sg|pers-any|case-|vib-या_था|tam-yA|chunkId-VGF|chunkType-head|stype-declarative|voicetype-active	0	main	_	_
5	था	था	VAUX	v	lex-था|cat-v|gen-m|num-sg|pers-any|case-|vib-था|tam-WA|chunkId-VGF|chunkType-child|stype-|voicetype-	4	lwg__vaux	_	_
6	कि	कि	CC	avy	lex-कि|cat-avy|gen-|num-|pers-|case-|vib-|tam-|chunkId-CCP|chunkType-head|stype-|voicetype-	4	k2	_	_
7	अंबानी	अंबानी	NNP	n	lex-अंबानी|cat-n|gen-any|num-sg|pers-3|case-d|vib-0|tam-0|chunkId-NP3|chunkType-child|stype-|voicetype-	8	nmod__adj	_	_
8	बंधु	बंधु	NN	n	lex-बंधु|cat-n|gen-m|num-pl|pers-3|case-d|vib-0|tam-0|chunkId-NP3|chunkType-head|stype-|voicetype-	12	k1	_	_
9	समझौते	समझौता	NN	n	lex-समझौता|cat-n|gen-m|num-sg|pers-3|case-o|vib-0_का_ओर|tam-0|chunkId-NP4|chunkType-head|stype-|voicetype-	12	rd	_	_
10	की	का	PSP	psp	lex-का|cat-psp|gen-f|num-sg|pers-|case-d|vib-|tam-|chunkId-NP4|chunkType-child|stype-|voicetype-	9	lwg__psp	_	_
11	ओर	ओर	NST	nst	lex-ओर|cat-nst|gen-f|num-sg|pers-3|case-d|vib-|tam-|chunkId-NP4|chunkType-child|stype-|voicetype-	9	lwg__psp	_	_
12	बढ़	बढ	VM	v	lex-बढ|cat-v|gen-m|num-pl|pers-3|case-|vib-0_रह+या_है|tam-0|chunkId-VGF2|chunkType-head|stype-declarative|voicetype-active	15	ccof	_	_
13	रहे	रह	VAUX	v	lex-रह|cat-v|gen-m|num-pl|pers-any|case-|vib-या|tam-yA|chunkId-VGF2|chunkType-child|stype-|voicetype-	12	lwg__vaux	_	_
14	हैं	है	VAUX	v	lex-है|cat-v|gen-any|num-pl|pers-3|case-|vib-है|tam-hE|chunkId-VGF2|chunkType-child|stype-|voicetype-	12	lwg__vaux	_	_
15	और	और	CC	avy	lex-और|cat-avy|gen-|num-|pers-|case-|vib-|tam-|chunkId-CCP2|chunkType-head|stype-|voicetype-	6	ccof	_	_
16	पारिवारिक	पारिवारिक	JJ	adj	lex-पारिवारिक|cat-adj|gen-any|num-any|pers-|case-o|vib-|tam-|chunkId-NP5|chunkType-child|stype-|voicetype-	17	nmod__adj	_	_
17	विवाद	विवाद	NN	n	lex-विवाद|cat-n|gen-m|num-sg|pers-3|case-o|vib-0_में|tam-0|chunkId-NP5|chunkType-head|stype-|voicetype-	26	k7	_	_
18	में	में	PSP	psp	lex-में|cat-psp|gen-|num-|pers-|case-|vib-|tam-|chunkId-NP5|chunkType-child|stype-|voicetype-	17	lwg__psp	_	_
19	सरकार	सरकार	NN	n	lex-सरकार|cat-n|gen-f|num-sg|pers-3|case-o|vib-0_को|tam-0|chunkId-NP6|chunkType-head|stype-|voicetype-	22	k2	_	_
20	को	को	PSP	psp	lex-को|cat-psp|gen-|num-|pers-|case-|vib-|tam-|chunkId-NP6|chunkType-child|stype-|voicetype-	19	lwg__psp	_	_
21	हस्तक्षेप	हस्तक्षेप	NN	n	lex-हस्तक्षेप|cat-n|gen-m|num-sg|pers-3|case-d|vib-0|tam-0|chunkId-NP7|chunkType-head|stype-|voicetype-	22	pof	_	_
22	करने	कर	VM	v	lex-कर|cat-v|gen-any|num-sg|pers-any|case-o|vib-ना_का|tam-nA|chunkId-VGNN|chunkType-head|stype-|voicetype-	24	r6	_	_
23	की	का	PSP	psp	lex-का|cat-psp|gen-f|num-sg|pers-|case-d|vib-|tam-|chunkId-VGNN|chunkType-child|stype-|voicetype-	22	lwg__psp	_	_
24	ज़रूरत	जरूरत	NN	n	lex-जरूरत|cat-n|gen-f|num-sg|pers-3|case-d|vib-0|tam-0|chunkId-NP8|chunkType-head|stype-|voicetype-	26	k1	_	_
25	नहीं	नहीं	NEG	avy	lex-नहीं|cat-avy|gen-|num-|pers-|case-|vib-|tam-|chunkId-VGF3|chunkType-child|stype-|voicetype-	26	lwg__neg	_	_
26	है	है	VM	v	lex-है|cat-v|gen-any|num-sg|pers-3|case-|vib-है|tam-hE|chunkId-VGF3|chunkType-head|stype-declarative|voicetype-active	15	ccof	_	_
27	।	।	SYM	punc	lex-।|cat-punc|gen-|num-|pers-|case-|vib-|tam-|chunkId-BLK|chunkType-head|stype-|voicetype-	4	rsym	_	_

1	चिदंबरम	चिदंबरम	NNP	n	lex-चिदंबरम|cat-n|gen-m|num-sg|pers-3|case-o|vib-0_ने|tam-0|chunkId-NP|chunkType-head|stype-|voicetype-	3	k1	_	_
2	ने	ने	PSP	psp	lex-ने|cat-psp|gen-|num-|pers-|case-|vib-|tam-|chunkId-NP|chunkType-child|stype-|voicetype-	1	lwg__psp	_	_
3	कहा	कह	VM	v	lex-कह|cat-v|gen-m|num-sg|pers-any|case-|vib-या|tam-yA|chunkId-VGF|chunkType-head|stype-declarative|voicetype-active	0	main	_	_
4	कि	कि	CC	avy	lex-कि|cat-avy|gen-|num-|pers-|case-|vib-|tam-|chunkId-CCP|chunkType-head|stype-|voicetype-	3	k2	_	_
5	दोनों	दो	QC	num	lex-दो|cat-num|gen-any|num-pl|pers-|case-any|vib-|tam-|chunkId-NP2|chunkType-child|stype-|voicetype-	6	nmod__adj	_	_
6	भाई	भाई	NN	n	lex-भाई|cat-n|gen-m|num-pl|pers-3|case-d|vib-0|tam-0|chunkId-NP2|chunkType-head|stype-|voicetype-	13	k1	_	_
7	समय	समय	NN	n	lex-समय|cat-n|gen-m|num-sg|pers-3|case-d|vib-0_पर|tam-0|chunkId-NP3|chunkType-head|stype-|voicetype-	13	k7t	_	_
8	-	-	SYM	punc	lex--|cat-punc|gen-|num-|pers-|case-|vib-|tam-|chunkId-NP3|chunkType-child|stype-|voicetype-	7	rsym	_	_
9	समय	समय	RDP	n	lex-समय|cat-n|gen-m|num-sg|pers-3|case-o|vib-0|tam-0|chunkId-NP3|chunkType-child|stype-|voicetype-	8	pof__redup	_	_
10	पर	पर	PSP	psp	lex-पर|cat-psp|gen-|num-|pers-|case-|vib-|tam-|chunkId-NP3|chunkType-child|stype-|voicetype-	7	lwg__psp	_	_
11	मुझसे	मैं	PRP	pn	lex-मैं|cat-pn|gen-any|num-sg|pers-1|case-o|vib-से|tam-se|chunkId-NP4|chunkType-head|stype-|voicetype-	13	k2	_	_
12	बात	बात	NN	n	lex-बात|cat-n|gen-f|num-sg|pers-3|case-d|vib-0|tam-0|chunkId-NP5|chunkType-head|stype-|voicetype-	13	pof	_	_
13	करते	कर	VM	v	lex-कर|cat-v|gen-m|num-pl|pers-3|case-|vib-ता_रह+ता_है|tam-wA|chunkId-VGF2|chunkType-head|stype-declarative|voicetype-active	16	ccof	_	_
14	रहते	रह	VAUX	v	lex-रह|cat-v|gen-m|num-pl|pers-any|case-|vib-ता|tam-wA|chunkId-VGF2|chunkType-child|stype-|voicetype-	13	lwg__vaux	_	_
15	हैं	है	VAUX	v	lex-है|cat-v|gen-any|num-pl|pers-3|case-|vib-है|tam-hE|chunkId-VGF2|chunkType-child|stype-|voicetype-	13	lwg__vaux	_	_
16	और	और	CC	avy	lex-और|cat-avy|gen-|num-|pers-|case-|vib-|tam-|chunkId-CCP2|chunkType-head|stype-|voicetype-	4	ccof	_	_
17	मैं	मैं	PRP	pn	lex-मैं|cat-pn|gen-any|num-sg|pers-1|case-d|vib-|tam-|chunkId-NP6|chunkType-head|stype-|voicetype-	24	k1	_	_
18	उन्हें	वह	PRP	pn	lex-वह|cat-pn|gen-any|num-pl|pers-3|case-o|vib-को|tam-ko|chunkId-NP7|chunkType-head|stype-|voicetype-	24	k4	_	_
19	विवाद	विवाद	NN	n	lex-विवाद|cat-n|gen-m|num-sg|pers-3|case-d|vib-0|tam-0|chunkId-NP8|chunkType-head|stype-|voicetype-	21	k2	_	_
20	जल्द	जल्द	RB	adv	lex-जल्द|cat-adv|gen-|num-|pers-|case-|vib-|tam-|chunkId-RBP|chunkType-head|stype-|voicetype-	24	adv	_	_
21	सुलझाने	सुलझा	VM	v	lex-सुलझा|cat-v|gen-any|num-sg|pers-any|case-o|vib-ना_का|tam-nA|chunkId-VGNN|chunkType-head|stype-|voicetype-	23	ras-k2	_	_
22	की	का	PSP	psp	lex-का|cat-psp|gen-f|num-sg|pers-|case-d|vib-|tam-|chunkId-VGNN|chunkType-child|stype-|voicetype-	21	lwg__psp	_	_
23	सलाह	सलाह	NN	n	lex-सलाह|cat-n|gen-f|num-sg|pers-3|case-d|vib-0|tam-0|chunkId-NP9|chunkType-head|stype-|voicetype-	24	pof	_	_
24	देता	दे	VM	v	lex-दे|cat-v|gen-m|num-sg|pers-1|case-|vib-ता_है|tam-wA|chunkId-VGF3|chunkType-head|stype-declarative|voicetype-active	16	ccof	_	_
25	हूँ	है	VAUX	v	lex-है|cat-v|gen-any|num-sg|pers-1|case-|vib-है|tam-hE|chunkId-VGF3|chunkType-child|stype-|voicetype-	24	lwg__vaux	_	_
26	।	।	SYM	punc	lex-।|cat-punc|gen-|num-|pers-|case-|vib-|tam-|chunkId-BLK|chunkType-head|stype-|voicetype-	3	rsym	_	_

1	ऐसा	ऐसा	PRP	pn	lex-ऐसा|cat-pn|gen-m|num-sg|pers-any|case-d|vib-0|tam-0|chunkId-NP|chunkType-head|stype-|voicetype-	2	k2	_	_
2	लगता	लग	VM	v	lex-लग|cat-v|gen-m|num-sg|pers-3|case-|vib-ता_है|tam-wA|chunkId-VGF|chunkType-head|stype-declarative|voicetype-active	0	main	_	_
3	है	है	VAUX	v	lex-है|cat-v|gen-any|num-sg|pers-3|case-|vib-है|tam-hE|chunkId-VGF|chunkType-child|stype-|voicetype-	2	lwg__vaux	_	_
4	कि	कि	CC	avy	lex-कि|cat-avy|gen-|num-|pers-|case-|vib-|tam-|chunkId-CCP|chunkType-head|stype-|voicetype-	1	rs	_	_
5	जल्द	जल्द	RB	adv	lex-जल्द|cat-adv|gen-|num-|pers-|case-|vib-|tam-|chunkId-RBP|chunkType-head|stype-|voicetype-	10	adv	_	_
6	ही	ही	RP	avy	lex-ही|cat-avy|gen-|num-|pers-|case-|vib-|tam-|chunkId-RBP|chunkType-child|stype-|voicetype-	5	lwg__rp	_	_
7	वे	वह	PRP	pn	lex-वह|cat-pn|gen-any|num-pl|pers-3|case-d|vib-0|tam-0|chunkId-NP2|chunkType-head|stype-|voicetype-	10	k1	_	_
8	इसका	यह	PRP	pn	lex-यह|cat-pn|gen-m|num-sg|pers-3|case-o|vib-का|tam-kA|chunkId-NP3|chunkType-head|stype-|voicetype-	9	r6	_	_
9	हल	हल	NN	n	lex-हल|cat-n|gen-m|num-sg|pers-3|case-d|vib-0|tam-0|chunkId-NP4|chunkType-head|stype-|voicetype-	10	k2	_	_
10	ढूँढ़	ढूँढ	VM	v	lex-ढूँढ|cat-v|gen-any|num-pl|pers-3|case-|vib-0_ले+गा|tam-0|chunkId-VGF2|chunkType-head|stype-declarative|voicetype-active	4	ccof	_	_
11	लेंगे	ले	VAUX	v	lex-ले|cat-v|gen-m|num-pl|pers-3|case-|vib-गा|tam-gA|chunkId-VGF2|chunkType-child|stype-|voicetype-	10	lwg__vaux	_	_
12	।	।	SYM	punc	lex-।|cat-punc|gen-|num-|pers-|case-|vib-|tam-|chunkId-BLK|chunkType-head|stype-|voicetype-	2	rsym	_	_

1	वित्त	वित्त	NNPC	n	lex-वित्त|cat-n|gen-m|num-sg|pers-3|case-d|vib-0|tam-0|chunkId-NP|chunkType-child|stype-|voicetype-	2	pof__cn	_	_
2	मंत्रालय	मंत्रालय	NNP	n	lex-मंत्रालय|cat-n|gen-m|num-sg|pers-3|case-o|vib-0_के_अलावा|tam-0|chunkId-NP|chunkType-head|stype-|voicetype-	18	vmod	_	_
3	के	के	PSP	psp	lex-के|cat-psp|gen-|num-|pers-|case-|vib-|tam-|chunkId-NP|chunkType-child|stype-|voicetype-	2	lwg__psp	_	_
4	अलावा	अलावा	PSP	psp	lex-अलावा|cat-psp|gen-|num-|pers-|case-|vib-|tam-|chunkId-NP|chunkType-child|stype-|voicetype-	2	lwg__psp	_	_
5	कंपनी	कंपनी	NNC	n	lex-कंपनी|cat-n|gen-f|num-sg|pers-3|case-d|vib-0|tam-0|chunkId-NP2|chunkType-child|stype-|voicetype-	6	pof__cn	_	_
6	मामलों	मामला	NN	n	lex-मामला|cat-n|gen-m|num-pl|pers-3|case-o|vib-0_का|tam-0|chunkId-NP2|chunkType-head|stype-|voicetype-	8	r6	_	_
7	का	का	PSP	psp	lex-का|cat-psp|gen-m|num-sg|pers-|case-d|vib-|tam-|chunkId-NP2|chunkType-child|stype-|voicetype-	6	lwg__psp	_	_
8	मंत्रालय	मंत्रालय	NN	n	lex-मंत्रालय|cat-n|gen-m|num-pl|pers-3|case-d|vib-0|tam-0|chunkId-NP3|chunkType-head|stype-|voicetype-	18	k1	_	_
9	भी	भी	RP	avy	lex-भी|cat-avy|gen-|num-|pers-|case-|vib-|tam-|chunkId-NP3|chunkType-child|stype-|voicetype-	8	lwg__rp	_	_
10	इस	यह	DEM	pn	lex-यह|cat-pn|gen-any|num-sg|pers-3|case-o|vib-|tam-|chunkId-NP4|chunkType-child|stype-|voicetype-	11	nmod__adj	_	_
11	विवाद	विवाद	NN	n	lex-विवाद|cat-n|gen-m|num-sg|pers-3|case-o|vib-0_से|tam-0|chunkId-NP4|chunkType-head|stype-|voicetype-	13	ras-k1	_	_
12	से	से	PSP	psp	lex-से|cat-psp|gen-|num-|pers-|case-|vib-|tam-|chunkId-NP4|chunkType-child|stype-|voicetype-	11	lwg__psp	_	_
13	जुड़े	जुड	VM	v	lex-जुड|cat-v|gen-any|num-sg|pers-3|case-|vib-एं|tam-eM|chunkId-VGNF|chunkType-head|stype-|voicetype-	14	nmod__k1inv	_	_
14	घटनाक्रमों	घटनाक्रम	NN	n	lex-घटनाक्रम|cat-n|gen-m|num-pl|pers-3|case-o|vib-0_पर|tam-0|chunkId-NP5|chunkType-head|stype-|voicetype-	18	k7	_	_
15	पर	पर	PSP	psp	lex-पर|cat-psp|gen-|num-|pers-|case-|vib-|tam-|chunkId-NP5|chunkType-child|stype-|voicetype-	14	lwg__psp	_	_
16	नज़दीकी	नजदीकी	JJ	adj	lex-नजदीकी|cat-adj|gen-any|num-any|pers-|case-d|vib-|tam-|chunkId-NP6|chunkType-child|stype-|voicetype-	17	nmod__adj	_	_
17	नज़र	नजर	NN	n	lex-नजर|cat-n|gen-f|num-sg|pers-3|case-d|vib-0|tam-0|chunkId-NP6|chunkType-head|stype-|voicetype-	18	pof	_	_
18	रखे	रख	VM	v	lex-रख|cat-v|gen-m|num-pl|pers-3|case-|vib-या_हो+या_है|tam-yA|chunkId-VGF|chunkType-head|stype-declarative|voicetype-active	0	main	_	_
19	हुए	हो	VAUX	v	lex-हो|cat-v|gen-m|num-pl|pers-any|case-|vib-या|tam-yA|chunkId-VGF|chunkType-child|stype-|voicetype-	18	lwg__vaux	_	_
20	है	है	VAUX	v	lex-है|cat-v|gen-any|num-pl|pers-3|case-|vib-है|tam-hE|chunkId-VGF|chunkType-child|stype-|voicetype-	18	lwg__vaux	_	_
21	।	।	SYM	punc	lex-।|cat-punc|gen-|num-|pers-|case-|vib-|tam-|chunkId-BLK|chunkType-head|stype-|voicetype-	18	rsym	_	_

1	सूत्रों	सूत्र	NN	n	lex-सूत्र|cat-n|gen-m|num-pl|pers-3|case-o|vib-0_के_मुताबिक|tam-0|chunkId-NP|chunkType-head|stype-|voicetype-	15	k7a	_	_
2	के	के	PSP	psp	lex-के|cat-psp|gen-|num-|pers-|case-|vib-|tam-|chunkId-NP|chunkType-child|stype-|voicetype-	1	lwg__psp	_	_
3	मुताबिक	मुताबिक	PSP	psp	lex-मुताबिक|cat-psp|gen-|num-|pers-|case-|vib-|tam-|chunkId-NP|chunkType-child|stype-|voicetype-	1	lwg__psp	_	_
4	दोनों	दो	QC	num	lex-दो|cat-num|gen-any|num-pl|pers-|case-any|vib-|tam-|chunkId-NP2|chunkType-child|stype-|voicetype-	5	nmod__adj	_	_
5	भाइयों	भाई	NN	n	lex-भाई|cat-n|gen-m|num-pl|pers-3|case-o|vib-0_ने|tam-0|chunkId-NP2|chunkType-head|stype-|voicetype-	15	k1	_	_
6	ने	ने	PSP	psp	lex-ने|cat-psp|gen-|num-|pers-|case-|vib-|tam-|chunkId-NP2|chunkType-child|stype-|voicetype-	5	lwg__psp	_	_
7	बीती	बीत	VM	v	lex-बीत|cat-v|gen-f|num-pl|pers-any|case-|vib-या|tam-yA|chunkId-VGNF|chunkType-head|stype-|voicetype-	8	nmod__k1inv	_	_
8	बातों	बात	NN	n	lex-बात|cat-n|gen-f|num-pl|pers-3|case-o|vib-0_को|tam-0|chunkId-NP3|chunkType-head|stype-|voicetype-	10	k2	_	_
9	को	को	PSP	psp	lex-को|cat-psp|gen-|num-|pers-|case-|vib-|tam-|chunkId-NP3|chunkType-child|stype-|voicetype-	8	lwg__psp	_	_
10	भुलाने	भुला	VM	v	lex-भुला|cat-v|gen-any|num-sg|pers-any|case-o|vib-ना_का|tam-nA|chunkId-VGNN|chunkType-head|stype-|voicetype-	14	r6-k2	_	_
11	की	का	PSP	psp	lex-का|cat-psp|gen-f|num-sg|pers-|case-d|vib-|tam-|chunkId-VGNN|chunkType-child|stype-|voicetype-	10	lwg__psp	_	_
12	सरकार	सरकार	NN	n	lex-सरकार|cat-n|gen-f|num-sg|pers-3|case-o|vib-0_से|tam-0|chunkId-NP4|chunkType-head|stype-|voicetype-	15	k2	_	_
13	से	से	PSP	psp	lex-से|cat-psp|gen-|num-|pers-|case-|vib-|tam-|chunkId-NP4|chunkType-child|stype-|voicetype-	12	lwg__psp	_	_
14	इच्छा	इच्छा	NN	n	lex-इच्छा|cat-n|gen-f|num-sg|pers-3|case-d|vib-0|tam-0|chunkId-NP5|chunkType-head|stype-|voicetype-	15	pof	_	_
15	जताई	जता	VM	v	lex-जता|cat-v|gen-f|num-sg|pers-3|case-|vib-या_है|tam-yA|chunkId-VGF|chunkType-head|stype-declarative|voicetype-active	0	main	_	_
16	है	है	VAUX	v	lex-है|cat-v|gen-any|num-sg|pers-3|case-|vib-है|tam-hE|chunkId-VGF|chunkType-child|stype-|voicetype-	15	lwg__vaux	_	_
17	।	।	SYM	punc	lex-।|cat-punc|gen-|num-|pers-|case-|vib-|tam-|chunkId-BLK|chunkType-head|stype-|voicetype-	15	rsym	_	_

1	बहरहाल	बहरहाल	CC	avy	lex-बहरहाल|cat-avy|gen-|num-|pers-|case-|vib-|tam-|chunkId-CCP|chunkType-head|stype-|voicetype-	0	main	_	_
2	,	COMMA	SYM	punc	lex-COMMA|cat-punc|gen-|num-|pers-|case-|vib-|tam-|chunkId-CCP|chunkType-child|stype-|voicetype-	1	rsym	_	_
3	सूत्रों	सूत्र	NN	n	lex-सूत्र|cat-n|gen-m|num-pl|pers-3|case-o|vib-0_का|tam-0|chunkId-NP|chunkType-head|stype-|voicetype-	7	k1	_	_
4	का	का	PSP	psp	lex-का|cat-psp|gen-m|num-sg|pers-|case-d|vib-|tam-|chunkId-NP|chunkType-child|stype-|voicetype-	3	lwg__psp	_	_
5	यह	यह	PRP	pn	lex-यह|cat-pn|gen-any|num-sg|pers-3|case-d|vib-0|tam-0|chunkId-NP2|chunkType-head|stype-|voicetype-	7	k2	_	_
6	भी	भी	RP	avy	lex-भी|cat-avy|gen-|num-|pers-|case-|vib-|tam-|chunkId-NP2|chunkType-child|stype-|voicetype-	5	lwg__rp	_	_
7	कहना	कह	VM	v	lex-कह|cat-v|gen-m|num-sg|pers-any|case-d|vib-ना|tam-nA|chunkId-VGNN|chunkType-head|stype-|voicetype-	8	k1	_	_
8	है	है	VM	v	lex-है|cat-v|gen-any|num-sg|pers-3|case-|vib-है|tam-hE|chunkId-VGF|chunkType-head|stype-declarative|voicetype-active	1	ccof	_	_
9	कि	कि	CC	avy	lex-कि|cat-avy|gen-|num-|pers-|case-|vib-|tam-|chunkId-CCP2|chunkType-head|stype-|voicetype-	5	rs	_	_
10	समझौते	समझौता	NN	n	lex-समझौता|cat-n|gen-m|num-sg|pers-3|case-o|vib-0_का|tam-0|chunkId-NP3|chunkType-head|stype-|voicetype-	12	r6	_	_
11	के	का	PSP	psp	lex-का|cat-psp|gen-m|num-sg|pers-|case-o|vib-|tam-|chunkId-NP3|chunkType-child|stype-|voicetype-	10	lwg__psp	_	_
12	मुद्दे	मुद्दा	NN	n	lex-मुद्दा|cat-n|gen-m|num-sg|pers-3|case-o|vib-0_पर|tam-0|chunkId-NP4|chunkType-head|stype-|voicetype-	22	k7	_	_
13	पर	पर	PSP	psp	lex-पर|cat-psp|gen-|num-|pers-|case-|vib-|tam-|chunkId-NP4|chunkType-child|stype-|voicetype-	12	lwg__psp	_	_
14	मुकेश	मुकेश	NNP	n	lex-मुकेश|cat-n|gen-m|num-sg|pers-3|case-d|vib-0|tam-0|chunkId-NP5|chunkType-head|stype-|voicetype-	15	ccof	_	_
15	और	और	CC	avy	lex-और|cat-avy|gen-|num-|pers-|case-|vib-|tam-|chunkId-CCP3|chunkType-head|stype-|voicetype-	22	k7	_	_
16	अनिल	अनिल	NNP	n	lex-अनिल|cat-n|gen-m|num-sg|pers-3|case-o|vib-0_के_बीच|tam-0|chunkId-NP6|chunkType-head|stype-|voicetype-	15	ccof	_	_
17	के	के	PSP	psp	lex-के|cat-psp|gen-|num-|pers-|case-|vib-|tam-|chunkId-NP6|chunkType-child|stype-|voicetype-	16	lwg__psp	_	_
18	बीच	बीच	NST	nst	lex-बीच|cat-nst|gen-m|num-sg|pers-3|case-d|vib-|tam-|chunkId-NP6|chunkType-child|stype-|voicetype-	16	lwg__psp	_	_
19	औपचारिक	औपचारिक	JJ	adj	lex-औपचारिक|cat-adj|gen-any|num-any|pers-|case-d|vib-|tam-|chunkId-JJP|chunkType-head|stype-|voicetype-	20	nmod	_	_
20	बैठक	बैठक	NN	n	lex-बैठक|cat-n|gen-f|num-sg|pers-3|case-d|vib-0|tam-0|chunkId-NP7|chunkType-head|stype-|voicetype-	22	k1	_	_
21	नहीं	नहीं	NEG	avy	lex-नहीं|cat-avy|gen-|num-|pers-|case-|vib-|tam-|chunkId-VGF2|chunkType-child|stype-|voicetype-	22	lwg__neg	_	_
22	हुई	हो	VM	v	lex-हो|cat-v|gen-f|num-sg|pers-3|case-|vib-या_है|tam-yA|chunkId-VGF2|chunkType-head|stype-declarative|voicetype-active	9	ccof	_	_
23	है	है	VAUX	v	lex-है|cat-v|gen-any|num-sg|pers-3|case-|vib-है|tam-hE|chunkId-VGF2|chunkType-child|stype-|voicetype-	22	lwg__vaux	_	_
24	।	।	SYM	punc	lex-।|cat-punc|gen-|num-|pers-|case-|vib-|tam-|chunkId-BLK|chunkType-head|stype-|voicetype-	1	rsym	_	_

1	लेकिन	लेकिन	CC	avy	lex-लेकिन|cat-avy|gen-|num-|pers-|case-|vib-|tam-|chunkId-CCP|chunkType-head|stype-|voicetype-	0	main	_	_
2	समझौते	समझौता	NN	n	lex-समझौता|cat-n|gen-m|num-sg|pers-3|case-o|vib-0_को|tam-0|chunkId-NP|chunkType-head|stype-|voicetype-	6	k4	_	_
3	को	को	PSP	psp	lex-को|cat-psp|gen-|num-|pers-|case-|vib-|tam-|chunkId-NP|chunkType-child|stype-|voicetype-	2	lwg__psp	_	_
4	अंतिम	अंतिम	JJ	adj	lex-अंतिम|cat-adj|gen-any|num-any|pers-|case-d|vib-|tam-|chunkId-NP2|chunkType-child|stype-|voicetype-	5	nmod__adj	_	_
5	रूप	रूप	NN	n	lex-रूप|cat-n|gen-m|num-sg|pers-3|case-d|vib-0|tam-0|chunkId-NP2|chunkType-head|stype-|voicetype-	6	pof	_	_
6	दिए	दे	VM	v	lex-दे|cat-v|gen-m|num-sg|pers-3|case-|vib-या_जा+ना_के_बाद|tam-yA|chunkId-VGNN|chunkType-head|stype-|voicetype-	21	k7t	_	_
7	जाने	जा	VAUX	v	lex-जा|cat-v|gen-any|num-any|pers-any|case-o|vib-ना|tam-nA|chunkId-VGNN|chunkType-child|stype-|voicetype-	6	lwg__vaux	_	_
8	के	के	PSP	psp	lex-के|cat-psp|gen-|num-|pers-|case-|vib-|tam-|chunkId-VGNN|chunkType-child|stype-|voicetype-	6	lwg__psp	_	_
9	बाद	बाद	NST	nst	lex-बाद|cat-nst|gen-m|num-sg|pers-3|case-d|vib-|tam-|chunkId-VGNN|chunkType-child|stype-|voicetype-	6	lwg__nst	_	_
10	इस	यह	DEM	pn	lex-यह|cat-pn|gen-any|num-sg|pers-3|case-o|vib-|tam-|chunkId-NP3|chunkType-child|stype-|voicetype-	11	nmod__adj	_	_
11	संबंध	संबंध	NN	n	lex-संबंध|cat-n|gen-m|num-sg|pers-3|case-o|vib-0_में|tam-0|chunkId-NP3|chunkType-head|stype-|voicetype-	21	k7	_	_
12	में	में	PSP	psp	lex-में|cat-psp|gen-|num-|pers-|case-|vib-|tam-|chunkId-NP3|chunkType-child|stype-|voicetype-	11	lwg__psp	_	_
13	औपचारिक	औपचारिक	JJ	adj	lex-औपचारिक|cat-adj|gen-any|num-any|pers-|case-o|vib-|tam-|chunkId-NP4|chunkType-child|stype-|voicetype-	14	nmod__adj	_	_
14	घोषणा	घोषणा	NN	n	lex-घोषणा|cat-n|gen-f|num-sg|pers-3|case-o|vib-0_से_पहले|tam-0|chunkId-NP4|chunkType-head|stype-|voicetype-	21	k7t	_	_
15	से	से	PSP	psp	lex-से|cat-psp|gen-|num-|pers-|case-|vib-|tam-|chunkId-NP4|chunkType-child|stype-|voicetype-	14	lwg__psp	_	_
16	पहले	पहले	NST	nst	lex-पहले|cat-nst|gen-m|num-sg|pers-3|case-d|vib-|tam-|chunkId-NP4|chunkType-child|stype-|voicetype-	14	lwg__psp	_	_
17	अंबानी	अंबानी	NNP	n	lex-अंबानी|cat-n|gen-any|num-sg|pers-3|case-d|vib-0|tam-0|chunkId-NP5|chunkType-child|stype-|voicetype-	18	nmod__adj	_	_
18	बंधुओं	बंधु	NN	n	lex-बंधु|cat-n|gen-m|num-pl|pers-3|case-o|vib-0_का|tam-0|chunkId-NP5|chunkType-head|stype-|voicetype-	20	r6-k1	_	_
19	की	का	PSP	psp	lex-का|cat-psp|gen-f|num-sg|pers-|case-d|vib-|tam-|chunkId-NP5|chunkType-child|stype-|voicetype-	18	lwg__psp	_	_
20	मुलाक़ात	मुलाकात	NN	n	lex-मुलाकात|cat-n|gen-f|num-sg|pers-3|case-d|vib-0|tam-0|chunkId-NP6|chunkType-head|stype-|voicetype-	21	pof	_	_
21	हो	हो	VM	v	lex-हो|cat-v|gen-f|num-sg|pers-3|case-|vib-0_सक+ता_है|tam-0|chunkId-VGF|chunkType-head|stype-declarative|voicetype-active	1	ccof	_	_
22	सकती	सक	VAUX	v	lex-सक|cat-v|gen-f|num-sg|pers-any|case-|vib-ता|tam-wA|chunkId-VGF|chunkType-child|stype-|voicetype-	21	lwg__vaux	_	_
23	है	है	VAUX	v	lex-है|cat-v|gen-any|num-sg|pers-3|case-|vib-है|tam-hE|chunkId-VGF|chunkType-child|stype-|voicetype-	21	lwg__vaux	_	_
24	।	।	SYM	punc	lex-।|cat-punc|gen-|num-|pers-|case-|vib-|tam-|chunkId-BLK|chunkType-head|stype-|voicetype-	1	rsym	_	_

