1	पाकिस्तान	पाकिस्तान	NNP	n	lex-पाकिस्तान|cat-n|gen-m|num-sg|pers-3|case-o|vib-0_का|tam-0|chunkId-NP|chunkType-head|stype-|voicetype-	3	r6	_	_
2	के	का	PSP	psp	lex-का|cat-psp|gen-m|num-pl|pers-|case-o|vib-|tam-|chunkId-NP|chunkType-child|stype-|voicetype-	1	lwg__psp	_	_
3	वैज्ञानिक	वैज्ञानिक	NN	n	lex-वैज्ञानिक|cat-n|gen-m|num-pl|pers-3|case-o|vib-0|tam-0|chunkId-NP2|chunkType-head|stype-|voicetype-	6	nmod	_	_
4	अब्दुल	अब्दुल	NNPC	n	lex-अब्दुल|cat-n|gen-m|num-sg|pers-3|case-d|vib-0|tam-0|chunkId-NP3|chunkType-child|stype-|voicetype-	6	pof__cn	_	_
5	क़ादिर	क़ादिर	NNPC	n	lex-क़ादिर|cat-n|gen-m|num-sg|pers-3|case-d|vib-0|tam-0|chunkId-NP3|chunkType-child|stype-|voicetype-	6	pof__cn	_	_
6	ख़ान	खान	NNP	n	lex-खान|cat-n|gen-m|num-sg|pers-3|case-o|vib-0|tam-0|chunkId-NP3|chunkType-head|stype-|voicetype-	7	ccof	_	_
7	और	और	CC	avy	lex-और|cat-avy|gen-|num-|pers-|case-|vib-|tam-|chunkId-CCP|chunkType-head|stype-|voicetype-	24	k1	_	_
8	सुलतान	सुलतान	NNPC	n	lex-सुलतान|cat-n|gen-m|num-sg|pers-3|case-d|vib-0|tam-0|chunkId-NP4|chunkType-child|stype-|voicetype-	10	pof__cn	_	_
9	बशीरुद्दीन	बशीरुद्दीन	NNPC	n	lex-बशीरुद्दीन|cat-n|gen-m|num-sg|pers-3|case-d|vib-0|tam-0|chunkId-NP4|chunkType-child|stype-|voicetype-	10	pof__cn	_	_
10	महमूद	महमूद	NNP	n	lex-महमूद|cat-n|gen-m|num-sg|pers-3|case-o|vib-0_ने|tam-0|chunkId-NP4|chunkType-head|stype-|voicetype-	7	ccof	_	_
11	ने	ने	PSP	psp	lex-ने|cat-psp|gen-|num-|pers-|case-|vib-|tam-|chunkId-NP4|chunkType-child|stype-|voicetype-	10	lwg__psp	_	_
12	ओसामा	ओसामा	NNPC	n	lex-ओसामा|cat-n|gen-m|num-sg|pers-3|case-d|vib-0|tam-0|chunkId-NP5|chunkType-child|stype-|voicetype-	14	pof__cn	_	_
13	बिन	बिन	NNPC	n	lex-बिन|cat-n|gen-m|num-sg|pers-3|case-d|vib-0|tam-0|chunkId-NP5|chunkType-child|stype-|voicetype-	14	pof__cn	_	_
14	लादेन	लादेन	NNP	n	lex-लादेन|cat-n|gen-m|num-sg|pers-3|case-o|vib-0_समेत|tam-0|chunkId-NP5|chunkType-head|stype-|voicetype-	24	vmod	_	_
15	समेत	समेत	PSP	psp	lex-समेत|cat-psp|gen-|num-|pers-|case-|vib-|tam-|chunkId-NP5|chunkType-child|stype-|voicetype-	14	lwg__psp	_	_
16	अल	अल	NNPC	n	lex-अल|cat-n|gen-m|num-sg|pers-3|case-d|vib-0|tam-0|chunkId-NP6|chunkType-child|stype-|voicetype-	17	pof__cn	_	_
17	क़ायदा	क़ायदा	NNP	n	lex-क़ायदा|cat-n|gen-m|num-sg|pers-3|case-o|vib-0_का|tam-0|chunkId-NP6|chunkType-head|stype-|voicetype-	20	r6	_	_
18	के	का	PSP	psp	lex-का|cat-psp|gen-m|num-pl|pers-|case-o|vib-|tam-|chunkId-NP6|chunkType-child|stype-|voicetype-	17	lwg__psp	_	_
19	कई	कई	QF	avy	lex-कई|cat-avy|gen-|num-|pers-|case-|vib-|tam-|chunkId-NP7|chunkType-child|stype-|voicetype-	20	nmod__adj	_	_
20	नेताओं	नेता	NN	n	lex-नेता|cat-n|gen-m|num-pl|pers-3|case-o|vib-0_के_साथ|tam-0|chunkId-NP7|chunkType-head|stype-|voicetype-	24	ras-k1	_	_
21	के	के	PSP	psp	lex-के|cat-psp|gen-|num-|pers-|case-|vib-|tam-|chunkId-NP7|chunkType-child|stype-|voicetype-	20	lwg__psp	_	_
22	साथ	साथ	NST	nst	lex-साथ|cat-nst|gen-m|num-sg|pers-3|case-d|vib-|tam-|chunkId-NP7|chunkType-child|stype-|voicetype-	20	lwg__psp	_	_
23	बैठकें	बैठक	NN	n	lex-बैठक|cat-n|gen-f|num-pl|pers-3|case-d|vib-0|tam-0|chunkId-NP8|chunkType-head|stype-|voicetype-	24	pof	_	_
24	की	कर	VM	v	lex-कर|cat-v|gen-f|num-pl|pers-any|case-|vib-या_था|tam-yA|chunkId-VGF|chunkType-head|stype-declarative|voicetype-active	0	main	_	_
25	थीं	था	VAUX	v	lex-था|cat-v|gen-f|num-pl|pers-any|case-|vib-था|tam-WA|chunkId-VGF|chunkType-child|stype-|voicetype-	24	lwg__vaux	_	_
26	।	।	SYM	punc	lex-।|cat-punc|gen-|num-|pers-|case-|vib-|tam-|chunkId-BLK|chunkType-head|stype-|voicetype-	24	rsym	_	_

1	यही	यही	PRP	pn	lex-यही|cat-pn|gen-any|num-sg|pers-3|case-d|vib-0|tam-0|chunkId-NP|chunkType-head|stype-|voicetype-	3	k1	_	_
2	नहीं	नहीं	NEG	avy	lex-नहीं|cat-avy|gen-|num-|pers-|case-|vib-|tam-|chunkId-NEGP|chunkType-head|stype-|voicetype-	3	vmod	_	_
3	NULL	_	VM	_	lex-_|cat-_|gen-|num-|pers-|case-|vib-|tam-|chunkId-NULL__VGF|chunkType-head|stype-declarative|voicetype-active	4	ccof	_	_
4	NULL	_	CC	_	lex-_|cat-_|gen-|num-|pers-|case-|vib-|tam-|chunkId-NULL__CCP|chunkType-head|stype-|voicetype-	0	main	_	_
5	दोनों	दो	QC	num	lex-दो|cat-num|gen-any|num-pl|pers-|case-any|vib-|tam-|chunkId-NP2|chunkType-child|stype-|voicetype-	7	nmod__adj	_	_
6	पाक	पाक	NNP	n	lex-पाक|cat-n|gen-m|num-sg|pers-3|case-d|vib-0|tam-0|chunkId-NP2|chunkType-child|stype-|voicetype-	7	nmod__adj	_	_
7	वैज्ञानिक	वैज्ञानिक	NN	n	lex-वैज्ञानिक|cat-n|gen-m|num-pl|pers-3|case-d|vib-0|tam-0|chunkId-NP2|chunkType-head|stype-|voicetype-	19	k1	_	_
8	लश्कर	लश्कर	NNPC	n	lex-लश्कर|cat-n|gen-m|num-sg|pers-3|case-d|vib-0|tam-0|chunkId-NP3|chunkType-child|stype-|voicetype-	10	pof__cn	_	_
9	ए	ए	NNPC	avy	lex-ए|cat-avy|gen-|num-|pers-|case-|vib-|tam-|chunkId-NP3|chunkType-child|stype-|voicetype-	10	pof__cn	_	_
10	ताइबा	ताइबा	NNP	n	lex-ताइबा|cat-n|gen-m|num-sg|pers-3|case-o|vib-0_जैसा|tam-0|chunkId-NP3|chunkType-head|stype-|voicetype-	19	k1u	_	_
11	जैसे	जैसा	PSP	psp	lex-जैसा|cat-psp|gen-m|num-pl|pers-|case-o|vib-|tam-|chunkId-NP3|chunkType-child|stype-|voicetype-	10	lwg__psp	_	_
12	आतंकी	आतंकी	JJ	adj	lex-आतंकी|cat-adj|gen-any|num-any|pers-|case-o|vib-|tam-|chunkId-NP4|chunkType-child|stype-|voicetype-	13	nmod__adj	_	_
13	संगठनों	संगठन	NN	n	lex-संगठन|cat-n|gen-m|num-pl|pers-3|case-o|vib-0_से|tam-0|chunkId-NP4|chunkType-head|stype-|voicetype-	19	ras-k1	_	_
14	से	से	PSP	psp	lex-से|cat-psp|gen-|num-|pers-|case-|vib-|tam-|chunkId-NP4|chunkType-child|stype-|voicetype-	13	lwg__psp	_	_
15	खतो	खत	NNC	n	lex-खत|cat-n|gen-m|num-sg|pers-3|case-d|vib-0|tam-0|chunkId-NP5|chunkType-child|stype-|voicetype-	17	pof__cn	_	_
16	-	-	SYM	punc	lex--|cat-punc|gen-|num-|pers-|case-|vib-|tam-|chunkId-NP5|chunkType-child|stype-|voicetype-	17	pof__cn	_	_
17	किताबत	किताबत	NN	n	lex-किताबत|cat-n|gen-f|num-sg|pers-3|case-d|vib-0|tam-0|chunkId-NP5|chunkType-head|stype-|voicetype-	19	pof	_	_
18	भी	भी	RP	avy	lex-भी|cat-avy|gen-|num-|pers-|case-|vib-|tam-|chunkId-NP5|chunkType-child|stype-|voicetype-	17	lwg__rp	_	_
19	करते	कर	VM	v	lex-कर|cat-v|gen-m|num-pl|pers-3|case-|vib-ता_रह+या_है|tam-wA|chunkId-VGF|chunkType-head|stype-declarative|voicetype-active	22	ccof	_	_
20	रहे	रह	VAUX	v	lex-रह|cat-v|gen-m|num-pl|pers-any|case-|vib-या|tam-yA|chunkId-VGF|chunkType-child|stype-|voicetype-	19	lwg__vaux	_	_
21	हैं	है	VAUX	v	lex-है|cat-v|gen-any|num-pl|pers-3|case-|vib-है|tam-hE|chunkId-VGF|chunkType-child|stype-|voicetype-	19	lwg__vaux	_	_
22	और	और	CC	avy	lex-और|cat-avy|gen-|num-|pers-|case-|vib-|tam-|chunkId-CCP|chunkType-head|stype-|voicetype-	4	ccof	_	_
23	उनकी	वह	PRP	pn	lex-वह|cat-pn|gen-f|num-pl|pers-3|case-o|vib-का|tam-kA|chunkId-NP6|chunkType-head|stype-|voicetype-	24	r6	_	_
24	रैलियों	रैली	NN	n	lex-रैली|cat-n|gen-f|num-pl|pers-3|case-o|vib-0|tam-0|chunkId-NP7|chunkType-head|stype-|voicetype-	25	ccof	_	_
25	व	व	CC	avy	lex-व|cat-avy|gen-|num-|pers-|case-|vib-|tam-|chunkId-CCP2|chunkType-head|stype-|voicetype-	29	k7	_	_
26	सभाओं	सभा	NN	n	lex-सभा|cat-n|gen-f|num-pl|pers-3|case-o|vib-0_में|tam-0|chunkId-NP8|chunkType-head|stype-|voicetype-	25	ccof	_	_
27	में	में	PSP	psp	lex-में|cat-psp|gen-|num-|pers-|case-|vib-|tam-|chunkId-NP8|chunkType-child|stype-|voicetype-	26	lwg__psp	_	_
28	शामिल	शामिल	JJ	adj	lex-शामिल|cat-adj|gen-any|num-any|pers-|case-|vib-|tam-|chunkId-JJP|chunkType-head|stype-|voicetype-	29	pof	_	_
29	हो	हो	VM	v	lex-हो|cat-v|gen-m|num-pl|pers-3|case-|vib-0_चुक+या_है|tam-0|chunkId-VGF2|chunkType-head|stype-declarative|voicetype-active	22	ccof	_	_
30	चुके	चुक	VAUX	v	lex-चुक|cat-v|gen-m|num-pl|pers-any|case-|vib-या|tam-yA|chunkId-VGF2|chunkType-child|stype-|voicetype-	29	lwg__vaux	_	_
31	हैं	है	VAUX	v	lex-है|cat-v|gen-any|num-pl|pers-3|case-|vib-है|tam-hE|chunkId-VGF2|chunkType-child|stype-|voicetype-	29	lwg__vaux	_	_
32	।	।	SYM	punc	lex-।|cat-punc|gen-|num-|pers-|case-|vib-|tam-|chunkId-BLK|chunkType-head|stype-|voicetype-	4	rsym	_	_

1	पाकिस्तानी	पाकिस्तानी	JJ	adj	lex-पाकिस्तानी|cat-adj|gen-any|num-any|pers-|case-d|vib-|tam-|chunkId-NP|chunkType-child|stype-|voicetype-	2	nmod__adj	_	_
2	साप्ताहिक	साप्ताहिक	NN	n	lex-साप्ताहिक|cat-n|gen-m|num-sg|pers-3|case-o|vib-0|tam-0|chunkId-NP|chunkType-head|stype-|voicetype-	6	nmod	_	_
3	'	SINGLE_QUOTE	SYM	punc	lex-SINGLE_QUOTE|cat-punc|gen-|num-|pers-|case-|vib-|tam-|chunkId-NP2|chunkType-child|stype-|voicetype-	6	rsym	_	_
4	द	द	NNPC	unk	lex-द|cat-unk|gen-|num-|pers-|case-|vib-|tam-|chunkId-NP2|chunkType-child|stype-|voicetype-	6	pof__cn	_	_
5	फ्राइडे	फ्राइडे	NNPC	n	lex-फ्राइडे|cat-n|gen-m|num-sg|pers-3|case-d|vib-0|tam-0|chunkId-NP2|chunkType-child|stype-|voicetype-	6	pof__cn	_	_
6	टाइम्स	टाइम्स	NNP	n	lex-टाइम्स|cat-n|gen-m|num-sg|pers-3|case-o|vib-0_ने|tam-0|chunkId-NP2|chunkType-head|stype-|voicetype-	12	k1	_	_
7	'	SINGLE_QUOTE	SYM	punc	lex-SINGLE_QUOTE|cat-punc|gen-|num-|pers-|case-|vib-|tam-|chunkId-NP2|chunkType-child|stype-|voicetype-	6	rsym	_	_
8	ने	ने	PSP	psp	lex-ने|cat-psp|gen-|num-|pers-|case-|vib-|tam-|chunkId-NP2|chunkType-child|stype-|voicetype-	6	lwg__psp	_	_
9	यह	यह	DEM	pn	lex-यह|cat-pn|gen-any|num-sg|pers-3|case-d|vib-|tam-|chunkId-NP3|chunkType-child|stype-|voicetype-	11	nmod__adj	_	_
10	सनसनीखेज	सनसनीखेज	JJ	adj	lex-सनसनीखेज|cat-adj|gen-any|num-any|pers-|case-d|vib-|tam-|chunkId-NP3|chunkType-child|stype-|voicetype-	11	nmod__adj	_	_
11	दावा	दावा	NN	n	lex-दावा|cat-n|gen-m|num-sg|pers-3|case-d|vib-0|tam-0|chunkId-NP3|chunkType-head|stype-|voicetype-	12	pof	_	_
12	किया	कर	VM	v	lex-कर|cat-v|gen-m|num-sg|pers-3|case-|vib-या_है|tam-yA|chunkId-VGF|chunkType-head|stype-declarative|voicetype-passive	0	main	_	_
13	है	है	VAUX	v	lex-है|cat-v|gen-any|num-sg|pers-3|case-|vib-है|tam-hE|chunkId-VGF|chunkType-child|stype-|voicetype-	12	lwg__vaux	_	_
14	।	।	SYM	punc	lex-।|cat-punc|gen-|num-|pers-|case-|vib-|tam-|chunkId-BLK|chunkType-head|stype-|voicetype-	12	rsym	_	_

1	अखबार	अखबार	NN	n	lex-अखबार|cat-n|gen-m|num-sg|pers-3|case-o|vib-0_के_मुताबिक|tam-0|chunkId-NP|chunkType-head|stype-|voicetype-	23	k7a	_	_
2	के	के	PSP	psp	lex-के|cat-psp|gen-|num-|pers-|case-|vib-|tam-|chunkId-NP|chunkType-child|stype-|voicetype-	1	lwg__psp	_	_
3	मुताबिक	मुताबिक	PSP	psp	lex-मुताबिक|cat-psp|gen-|num-|pers-|case-|vib-|tam-|chunkId-NP|chunkType-child|stype-|voicetype-	1	lwg__psp	_	_
4	जब	जब	PRP	pn	lex-जब|cat-pn|gen-|num-|pers-|case-d|vib-|tam-|chunkId-NP2|chunkType-head|stype-|voicetype-	23	k7t	_	_
5	अमेरिकी	अमेरिकी	JJ	adj	lex-अमेरिकी|cat-adj|gen-any|num-any|pers-|case-o|vib-|tam-|chunkId-NP3|chunkType-child|stype-|voicetype-	7	nmod__adj	_	_
6	खुफिया	खुफिया	NNC	adj	lex-खुफिया|cat-adj|gen-any|num-any|pers-|case-o|vib-|tam-|chunkId-NP3|chunkType-child|stype-|voicetype-	7	pof__cn	_	_
7	एजेंसी	एजेंसी	NN	n	lex-एजेंसी|cat-n|gen-f|num-sg|pers-3|case-o|vib-0|tam-0|chunkId-NP3|chunkType-head|stype-|voicetype-	8	nmod	_	_
8	सीआईए	सीआईए	NNP	n	lex-सीआईए|cat-n|gen-f|num-sg|pers-3|case-o|vib-0_ने|tam-0|chunkId-NP4|chunkType-head|stype-|voicetype-	23	k1	_	_
9	ने	ने	PSP	psp	lex-ने|cat-psp|gen-|num-|pers-|case-|vib-|tam-|chunkId-NP4|chunkType-child|stype-|voicetype-	8	lwg__psp	_	_
10	महमूद	महमूद	NNP	n	lex-महमूद|cat-n|gen-m|num-sg|pers-3|case-o|vib-0_का|tam-0|chunkId-NP5|chunkType-head|stype-|voicetype-	14	r6	_	_
11	के	का	PSP	psp	lex-का|cat-psp|gen-m|num-sg|pers-|case-o|vib-|tam-|chunkId-NP5|chunkType-child|stype-|voicetype-	10	lwg__psp	_	_
12	काबुल	काबुल	NNP	n	lex-काबुल|cat-n|gen-m|num-sg|pers-3|case-d|vib-0|tam-0|chunkId-NP6|chunkType-head|stype-|voicetype-	13	jjmod	_	_
13	स्थित	स्थित	JJ	adj	lex-स्थित|cat-adj|gen-any|num-any|pers-|case-o|vib-|tam-|chunkId-JJP|chunkType-head|stype-|voicetype-	14	nmod	_	_
14	दफ्तर	दफ्तर	NN	n	lex-दफ्तर|cat-n|gen-m|num-sg|pers-3|case-o|vib-0|tam-0|chunkId-NP7|chunkType-head|stype-|voicetype-	22	r6-k2	_	_
15	(	_	SYM	punc	lex-_|cat-punc|gen-|num-|pers-|case-|vib-|tam-|chunkId-NP8|chunkType-child|stype-|voicetype-	19	rsym	_	_
16	यूटीएन	यूटीएन	NNPC	n	lex-यूटीएन|cat-n|gen-m|num-sg|pers-3|case-d|vib-0|tam-0|chunkId-NP8|chunkType-child|stype-|voicetype-	19	pof__cn	_	_
17	उम्मा	उम्मा	NNPC	n	lex-उम्मा|cat-n|gen-m|num-sg|pers-3|case-d|vib-0|tam-0|chunkId-NP8|chunkType-child|stype-|voicetype-	19	pof__cn	_	_
18	तमीरे	तमीरे	NNPC	n	lex-तमीरे|cat-n|gen-m|num-sg|pers-3|case-d|vib-0|tam-0|chunkId-NP8|chunkType-child|stype-|voicetype-	19	pof__cn	_	_
19	नऊ	नऊ	NNP	n	lex-नऊ|cat-n|gen-m|num-sg|pers-3|case-o|vib-0|tam-0|chunkId-NP8|chunkType-head|stype-|voicetype-	14	rs	_	_
20	)	_	SYM	punc	lex-_|cat-punc|gen-|num-|pers-|case-|vib-|tam-|chunkId-NP8|chunkType-child|stype-|voicetype-	19	rsym	_	_
21	की	_	PSP	_	lex-_|cat-_|gen-|num-|pers-|case-|vib-|tam-|chunkId-FRAGP|chunkType-head|stype-|voicetype-	14	fragof	_	_
22	तलाशी	तलाशी	NN	n	lex-तलाशी|cat-n|gen-f|num-sg|pers-3|case-d|vib-0|tam-0|chunkId-NP9|chunkType-head|stype-|voicetype-	23	pof	_	_
23	ली	ले	VM	v	lex-ले|cat-v|gen-f|num-sg|pers-any|case-|vib-या|tam-yA|chunkId-VGF|chunkType-head|stype-declarative|voicetype-active	24	nmod__relc	_	_
24	तो	तो	PRP	pn	lex-तो|cat-pn|gen-|num-|pers-|case-|vib-|tam-|chunkId-NP10|chunkType-head|stype-|voicetype-	47	k7t	_	_
25	उन्हें	वह	PRP	pn	lex-वह|cat-pn|gen-any|num-sg|pers-3h|case-o|vib-को|tam-ko|chunkId-NP11|chunkType-head|stype-|voicetype-	47	k4	_	_
26	वहां	वहाँ	PRP	pn	lex-वहाँ|cat-pn|gen-|num-|pers-|case-d|vib-|tam-|chunkId-NP12|chunkType-head|stype-|voicetype-	47	k7p	_	_
27	कहुटा	कहुटा	NNP	n	lex-कहुटा|cat-n|gen-m|num-sg|pers-3|case-d|vib-0|tam-0|chunkId-NP13|chunkType-child|stype-|voicetype-	28	nmod__adj	_	_
28	लैब	लैब	NN	n	lex-लैब|cat-n|gen-f|num-sg|pers-3|case-o|vib-0_में|tam-0|chunkId-NP13|chunkType-head|stype-|voicetype-	35	k7p	_	_
29	में	में	PSP	psp	lex-में|cat-psp|gen-|num-|pers-|case-|vib-|tam-|chunkId-NP13|chunkType-child|stype-|voicetype-	28	lwg__psp	_	_
30	बड़े	बडा	JJ	adj	lex-बडा|cat-adj|gen-m|num-sg|pers-|case-o|vib-|tam-|chunkId-NP14|chunkType-child|stype-|voicetype-	31	nmod__adj	_	_
31	पैमाने	पैमाना	NN	n	lex-पैमाना|cat-n|gen-m|num-sg|pers-3|case-o|vib-0_पर|tam-0|chunkId-NP14|chunkType-head|stype-|voicetype-	35	k7	_	_
32	पर	पर	PSP	psp	lex-पर|cat-psp|gen-|num-|pers-|case-|vib-|tam-|chunkId-NP14|chunkType-child|stype-|voicetype-	31	lwg__psp	_	_
33	परमाणु	परमाणु	NNC	n	lex-परमाणु|cat-n|gen-m|num-sg|pers-3|case-d|vib-0|tam-0|chunkId-NP15|chunkType-child|stype-|voicetype-	34	pof__cn	_	_
34	हथियार	हथियार	NN	n	lex-हथियार|cat-n|gen-m|num-pl|pers-3|case-d|vib-0|tam-0|chunkId-NP15|chunkType-head|stype-|voicetype-	35	k2	_	_
35	बनाने	बना	VM	v	lex-बना|cat-v|gen-any|num-pl|pers-any|case-o|vib-ना_का|tam-nA|chunkId-VGNN|chunkType-head|stype-|voicetype-	37	r6	_	_
36	के	का	PSP	psp	lex-का|cat-psp|gen-m|num-pl|pers-|case-d|vib-|tam-|chunkId-VGNN|chunkType-child|stype-|voicetype-	35	lwg__psp	_	_
37	आंकड़े	आंकड़ा	NN	n	lex-आंकड़ा|cat-n|gen-m|num-pl|pers-3|case-d|vib-0|tam-0|chunkId-NP16|chunkType-head|stype-|voicetype-	38	ccof	_	_
38	और	और	CC	avy	lex-और|cat-avy|gen-|num-|pers-|case-|vib-|tam-|chunkId-CCP|chunkType-head|stype-|voicetype-	47	k7	_	_
39	उनके	वह	PRP	pn	lex-वह|cat-pn|gen-m|num-pl|pers-3|case-o|vib-का|tam-kA|chunkId-NP17|chunkType-head|stype-|voicetype-	46	r6	_	_
40	रख	रख	NNC	n	lex-रख|cat-n|gen-m|num-sg|pers-3|case-d|vib-0|tam-0|chunkId-NP18|chunkType-child|stype-|voicetype-	42	pof__cn	_	_
41	-	-	SYM	punc	lex--|cat-punc|gen-|num-|pers-|case-|vib-|tam-|chunkId-NP18|chunkType-child|stype-|voicetype-	42	pof__cn	_	_
42	रखाव	रखाव	NN	n	lex-रखाव|cat-n|gen-m|num-sg|pers-3|case-o|vib-0_के_बारे_में|tam-0|chunkId-NP18|chunkType-head|stype-|voicetype-	38	ccof	_	_
43	के	के	PSP	psp	lex-के|cat-psp|gen-|num-|pers-|case-|vib-|tam-|chunkId-NP18|chunkType-child|stype-|voicetype-	42	lwg__psp	_	_
44	बारे	बारे	PSP	psp	lex-बारे|cat-psp|gen-|num-|pers-|case-|vib-|tam-|chunkId-NP18|chunkType-child|stype-|voicetype-	42	lwg__psp	_	_
45	में	में	PSP	psp	lex-में|cat-psp|gen-|num-|pers-|case-|vib-|tam-|chunkId-NP18|chunkType-child|stype-|voicetype-	42	lwg__psp	_	_
46	जानकारियां	जानकारी	NN	n	lex-जानकारी|cat-n|gen-f|num-pl|pers-3|case-d|vib-0|tam-0|chunkId-NP19|chunkType-head|stype-|voicetype-	47	k2	_	_
47	मिलीं	मिल	VM	v	lex-मिल|cat-v|gen-f|num-pl|pers-any|case-|vib-या|tam-yA|chunkId-VGF2|chunkType-head|stype-declarative|voicetype-active	0	main	_	_
48	।	।	SYM	punc	lex-।|cat-punc|gen-|num-|pers-|case-|vib-|tam-|chunkId-BLK|chunkType-head|stype-|voicetype-	47	rsym	_	_

1	वहां	वहाँ	PRP	pn	lex-वहाँ|cat-pn|gen-|num-|pers-|case-o|vib-0_पर|tam-|chunkId-NP|chunkType-head|stype-|voicetype-	21	k7p	_	_
2	पर	पर	PSP	psp	lex-पर|cat-psp|gen-|num-|pers-|case-|vib-|tam-|chunkId-NP|chunkType-child|stype-|voicetype-	1	lwg__psp	_	_
3	यूटीएन	यूटीएन	NNP	n	lex-यूटीएन|cat-n|gen-m|num-sg|pers-3|case-d|vib-0|tam-0|chunkId-NP2|chunkType-head|stype-|voicetype-	4	ccof	_	_
4	और	और	CC	avy	lex-और|cat-avy|gen-|num-|pers-|case-|vib-|tam-|chunkId-CCP|chunkType-head|stype-|voicetype-	15	vmod	_	_
5	लश्कर	लश्कर	NNPC	n	lex-लश्कर|cat-n|gen-m|num-sg|pers-3|case-d|vib-0|tam-0|chunkId-NP3|chunkType-child|stype-|voicetype-	9	pof__cn	_	_
6	-	-	SYM	punc	lex--|cat-punc|gen-|num-|pers-|case-|vib-|tam-|chunkId-NP3|chunkType-child|stype-|voicetype-	9	rsym	_	_
7	ए	ए	NNPC	avy	lex-ए|cat-avy|gen-|num-|pers-|case-|vib-|tam-|chunkId-NP3|chunkType-child|stype-|voicetype-	9	nmod__adj	_	_
8	-	-	SYM	punc	lex--|cat-punc|gen-|num-|pers-|case-|vib-|tam-|chunkId-NP3|chunkType-child|stype-|voicetype-	9	rsym	_	_
9	ताइबा	ताइबा	NNP	n	lex-ताइबा|cat-n|gen-m|num-sg|pers-3|case-o|vib-0_समेत|tam-0|chunkId-NP3|chunkType-head|stype-|voicetype-	4	ccof	_	_
10	समेत	समेत	PSP	psp	lex-समेत|cat-psp|gen-|num-|pers-|case-|vib-|tam-|chunkId-NP3|chunkType-child|stype-|voicetype-	9	lwg__psp	_	_
11	कई	कई	QF	avy	lex-कई|cat-avy|gen-|num-|pers-|case-|vib-|tam-|chunkId-NP4|chunkType-child|stype-|voicetype-	13	nmod__adj	_	_
12	आतंकी	आतंकी	JJ	adj	lex-आतंकी|cat-adj|gen-any|num-any|pers-|case-o|vib-|tam-|chunkId-NP4|chunkType-child|stype-|voicetype-	13	nmod__adj	_	_
13	संगठनों	संगठन	NN	n	lex-संगठन|cat-n|gen-m|num-pl|pers-3|case-o|vib-0_से|tam-0|chunkId-NP4|chunkType-head|stype-|voicetype-	15	ras-k1	_	_
14	से	से	PSP	psp	lex-से|cat-psp|gen-|num-|pers-|case-|vib-|tam-|chunkId-NP4|chunkType-child|stype-|voicetype-	13	lwg__psp	_	_
15	हुए	हो	VM	v	lex-हो|cat-v|gen-m|num-pl|pers-any|case-|vib-या|tam-yA|chunkId-VGF|chunkType-head|stype-declarative|voicetype-active	17	nmod__k1inv	_	_
16	-	-	SYM	punc	lex--|cat-punc|gen-|num-|pers-|case-|vib-|tam-|chunkId-VGF|chunkType-child|stype-|voicetype-	15	rsym	_	_
17	व्यवहार	व्यवहार	NN	n	lex-व्यवहार|cat-n|gen-m|num-sg|pers-3|case-o|vib-0_का|tam-0|chunkId-NP5|chunkType-head|stype-|voicetype-	20	r6	_	_
18	का	का	PSP	psp	lex-का|cat-psp|gen-m|num-sg|pers-|case-d|vib-|tam-|chunkId-NP5|chunkType-child|stype-|voicetype-	17	lwg__psp	_	_
19	भी	भी	RP	avy	lex-भी|cat-avy|gen-|num-|pers-|case-|vib-|tam-|chunkId-NP5|chunkType-child|stype-|voicetype-	17	lwg__rp	_	_
20	ब्योरा	ब्योरा	NN	n	lex-ब्योरा|cat-n|gen-m|num-sg|pers-3|case-d|vib-0|tam-0|chunkId-NP6|chunkType-head|stype-|voicetype-	21	k1	_	_
21	मिला	मिल	VM	v	lex-मिल|cat-v|gen-m|num-sg|pers-any|case-|vib-या|tam-yA|chunkId-VGF2|chunkType-head|stype-declarative|voicetype-active	0	main	_	_
22	।	।	SYM	punc	lex-।|cat-punc|gen-|num-|pers-|case-|vib-|tam-|chunkId-BLK|chunkType-head|stype-|voicetype-	21	rsym	_	_

1	रिपोर्ट	रिपोर्ट	NN	n	lex-रिपोर्ट|cat-n|gen-f|num-sg|pers-3|case-o|vib-0_के_मुताबिक|tam-0|chunkId-NP|chunkType-head|stype-|voicetype-	29	k7a	_	_
2	के	के	PSP	psp	lex-के|cat-psp|gen-|num-|pers-|case-|vib-|tam-|chunkId-NP|chunkType-child|stype-|voicetype-	1	lwg__psp	_	_
3	मुताबिक	मुताबिक	PSP	psp	lex-मुताबिक|cat-psp|gen-|num-|pers-|case-|vib-|tam-|chunkId-NP|chunkType-child|stype-|voicetype-	1	lwg__psp	_	_
4	पाकिस्तान	पाकिस्तान	NNPC	n	lex-पाकिस्तान|cat-n|gen-m|num-sg|pers-3|case-d|vib-0|tam-0|chunkId-NP2|chunkType-child|stype-|voicetype-	7	pof__cn	_	_
5	परमाणु	परमाणु	NNPC	n	lex-परमाणु|cat-n|gen-m|num-sg|pers-3|case-d|vib-0|tam-0|chunkId-NP2|chunkType-child|stype-|voicetype-	7	pof__cn	_	_
6	ऊर्जा	ऊर्जा	NNPC	n	lex-ऊर्जा|cat-n|gen-f|num-sg|pers-3|case-d|vib-0|tam-0|chunkId-NP2|chunkType-child|stype-|voicetype-	7	pof__cn	_	_
7	आयोग	आयोग	NNP	n	lex-आयोग|cat-n|gen-m|num-sg|pers-3|case-o|vib-0_का|tam-0|chunkId-NP2|chunkType-head|stype-|voicetype-	10	r6	_	_
8	के	का	PSP	psp	lex-का|cat-psp|gen-m|num-sg|pers-|case-o|vib-|tam-|chunkId-NP2|chunkType-child|stype-|voicetype-	7	lwg__psp	_	_
9	पूर्व	पूर्व	JJ	adj	lex-पूर्व|cat-adj|gen-any|num-any|pers-|case-o|vib-|tam-|chunkId-NP3|chunkType-child|stype-|voicetype-	10	nmod__adj	_	_
10	निदेशक	निदेशक	NN	n	lex-निदेशक|cat-n|gen-m|num-sg|pers-3|case-o|vib-0|tam-0|chunkId-NP3|chunkType-head|stype-|voicetype-	11	ccof	_	_
11	व	व	CC	avy	lex-व|cat-avy|gen-|num-|pers-|case-|vib-|tam-|chunkId-CCP|chunkType-head|stype-|voicetype-	17	nmod	_	_
12	ए.	ए	NNPC	n	lex-ए|cat-n|gen-m|num-sg|pers-3|case-d|vib-0|tam-0|chunkId-NP4|chunkType-child|stype-|voicetype-	14	pof__cn	_	_
13	क्यू.	क्यू	NNPC	n	lex-क्यू|cat-n|gen-m|num-sg|pers-3|case-d|vib-0|tam-0|chunkId-NP4|chunkType-child|stype-|voicetype-	14	pof__cn	_	_
14	ख़ान	खान	NNP	n	lex-खान|cat-n|gen-m|num-sg|pers-3|case-o|vib-0_का|tam-0|chunkId-NP4|chunkType-head|stype-|voicetype-	16	r6	_	_
15	के	का	PSP	psp	lex-का|cat-psp|gen-m|num-sg|pers-|case-o|vib-|tam-|chunkId-NP4|chunkType-child|stype-|voicetype-	14	lwg__psp	_	_
16	करीबी	करीबी	NN	n	lex-करीबी|cat-n|gen-m|num-sg|pers-3|case-d|vib-0|tam-0|chunkId-NP5|chunkType-head|stype-|voicetype-	11	ccof	_	_
17	महमूद	महमूद	NNP	n	lex-महमूद|cat-n|gen-m|num-sg|pers-3|case-o|vib-0_को|tam-0|chunkId-NP6|chunkType-head|stype-|voicetype-	29	k2	_	_
18	को	को	PSP	psp	lex-को|cat-psp|gen-|num-|pers-|case-|vib-|tam-|chunkId-NP6|chunkType-child|stype-|voicetype-	17	lwg__psp	_	_
19	यूटीएन	यूटीएन	NNP	n	lex-यूटीएन|cat-n|gen-m|num-sg|pers-3|case-o|vib-0_का|tam-0|chunkId-NP7|chunkType-head|stype-|voicetype-	26	r6	_	_
20	के	का	PSP	psp	lex-का|cat-psp|gen-m|num-sg|pers-|case-o|vib-|tam-|chunkId-NP7|chunkType-child|stype-|voicetype-	19	lwg__psp	_	_
21	मुख्यालय	मुख्यालय	NN	n	lex-मुख्यालय|cat-n|gen-m|num-sg|pers-3|case-o|vib-0_से|tam-0|chunkId-NP8|chunkType-head|stype-|voicetype-	29	k7p	_	_
22	से	से	PSP	psp	lex-से|cat-psp|gen-|num-|pers-|case-|vib-|tam-|chunkId-NP8|chunkType-child|stype-|voicetype-	21	lwg__psp	_	_
23	२३	२३	NNPC	n	lex-२३|cat-n|gen-any|num-sg|pers-3|case-d|vib-0|tam-0|chunkId-NP9|chunkType-child|stype-|voicetype-	26	pof__cn	_	_
24	अक्तूबर	अक्तूबर	NNPC	n	lex-अक्तूबर|cat-n|gen-m|num-sg|pers-3|case-d|vib-0|tam-0|chunkId-NP9|chunkType-child|stype-|voicetype-	26	pof__cn	_	_
25	,	COMMA	SYM	punc	lex-COMMA|cat-punc|gen-|num-|pers-|case-|vib-|tam-|chunkId-NP9|chunkType-child|stype-|voicetype-	26	rsym	_	_
26	२००१	२००१	NNP	n	lex-२००१|cat-n|gen-any|num-sg|pers-3|case-o|vib-0_को|tam-0|chunkId-NP9|chunkType-head|stype-|voicetype-	29	k7t	_	_
27	को	को	PSP	psp	lex-को|cat-psp|gen-|num-|pers-|case-|vib-|tam-|chunkId-NP9|chunkType-child|stype-|voicetype-	26	lwg__psp	_	_
28	गिरफ्तार	गिरफ्तार	JJ	adj	lex-गिरफ्तार|cat-adj|gen-any|num-any|pers-|case-|vib-|tam-|chunkId-JJP|chunkType-head|stype-|voicetype-	29	pof	_	_
29	किया	कर	VM	v	lex-कर|cat-v|gen-m|num-sg|pers-any|case-|vib-या_जा+या१_था|tam-yA|chunkId-VGF|chunkType-head|stype-declarative|voicetype-passive	0	main	_	_
30	गया	जा	VAUX	v	lex-जा|cat-v|gen-m|num-sg|pers-any|case-|vib-या१|tam-yA1|chunkId-VGF|chunkType-child|stype-|voicetype-	29	lwg__vaux	_	_
31	था	था	VAUX	v	lex-था|cat-v|gen-m|num-sg|pers-any|case-|vib-था|tam-WA|chunkId-VGF|chunkType-child|stype-|voicetype-	29	lwg__vaux	_	_
32	।	।	SYM	punc	lex-।|cat-punc|gen-|num-|pers-|case-|vib-|tam-|chunkId-BLK|chunkType-head|stype-|voicetype-	29	rsym	_	_

1	महमूद	महमूद	NNP	n	lex-महमूद|cat-n|gen-m|num-sg|pers-3|case-o|vib-0_ने|tam-0|chunkId-NP|chunkType-head|stype-|voicetype-	14	k1	_	_
2	ने	ने	PSP	psp	lex-ने|cat-psp|gen-|num-|pers-|case-|vib-|tam-|chunkId-NP|chunkType-child|stype-|voicetype-	1	lwg__psp	_	_
3	ज़ाहिर	जाहिर	JJ	adj	lex-जाहिर|cat-adj|gen-any|num-any|pers-|case-o|vib-|tam-|chunkId-NP2|chunkType-child|stype-|voicetype-	4	nmod__adj	_	_
4	तौर	तौर	NN	n	lex-तौर|cat-n|gen-m|num-sg|pers-3|case-o|vib-0_पर|tam-0|chunkId-NP2|chunkType-head|stype-|voicetype-	14	k7	_	_
5	पर	पर	PSP	psp	lex-पर|cat-psp|gen-|num-|pers-|case-|vib-|tam-|chunkId-NP2|chunkType-child|stype-|voicetype-	4	lwg__psp	_	_
6	तो	तो	RP	avy	lex-तो|cat-avy|gen-|num-|pers-|case-|vib-|tam-|chunkId-NP2|chunkType-child|stype-|voicetype-	4	lwg__rp	_	_
7	यहां	यहाँ	PRP	pn	lex-यहाँ|cat-pn|gen-|num-|pers-|case-d|vib-|tam-|chunkId-NP3|chunkType-head|stype-|voicetype-	14	k7p	_	_
8	अफगानिस्तानियों	अफगानिस्तानी	NN	n	lex-अफगानिस्तानी|cat-n|gen-m|num-pl|pers-3|case-o|vib-0_का|tam-0|chunkId-NP4|chunkType-head|stype-|voicetype-	10	r6	_	_
9	की	का	PSP	psp	lex-का|cat-psp|gen-f|num-sg|pers-|case-o|vib-|tam-|chunkId-NP4|chunkType-child|stype-|voicetype-	8	lwg__psp	_	_
10	मदद	मदद	NN	n	lex-मदद|cat-n|gen-f|num-sg|pers-3|case-o|vib-0_के_लिए|tam-0|chunkId-NP5|chunkType-head|stype-|voicetype-	14	rt	_	_
11	के	के	PSP	psp	lex-के|cat-psp|gen-|num-|pers-|case-|vib-|tam-|chunkId-NP5|chunkType-child|stype-|voicetype-	10	lwg__psp	_	_
12	लिए	लिए	PSP	psp	lex-लिए|cat-psp|gen-|num-|pers-|case-|vib-|tam-|chunkId-NP5|chunkType-child|stype-|voicetype-	10	lwg__psp	_	_
13	दफ्तर	दफ्तर	NN	n	lex-दफ्तर|cat-n|gen-m|num-sg|pers-3|case-d|vib-0|tam-0|chunkId-NP6|chunkType-head|stype-|voicetype-	14	k2	_	_
14	खोला	खोल	VM	v	lex-खोल|cat-v|gen-m|num-sg|pers-any|case-|vib-या_था|tam-yA|chunkId-VGF|chunkType-head|stype-declarative|voicetype-active	17	ccof	_	_
15	था	था	VAUX	v	lex-था|cat-v|gen-m|num-sg|pers-any|case-|vib-था|tam-WA|chunkId-VGF|chunkType-child|stype-|voicetype-	14	lwg__vaux	_	_
16	,	COMMA	SYM	punc	lex-COMMA|cat-punc|gen-|num-|pers-|case-|vib-|tam-|chunkId-VGF|chunkType-child|stype-|voicetype-	14	rsym	_	_
17	लेकिन	लेकिन	CC	avy	lex-लेकिन|cat-avy|gen-|num-|pers-|case-|vib-|tam-|chunkId-CCP|chunkType-head|stype-|voicetype-	0	main	_	_
18	छिपे	छिप	VM	v	lex-छिप|cat-v|gen-any|num-sg|pers-3|case-|vib-या|tam-yA|chunkId-VGNF|chunkType-head|stype-|voicetype-	19	nmod__k2inv	_	_
19	तौर	तौर	NN	n	lex-तौर|cat-n|gen-m|num-sg|pers-3|case-o|vib-0_पर|tam-0|chunkId-NP7|chunkType-head|stype-|voicetype-	26	k7	_	_
20	पर	पर	PSP	psp	lex-पर|cat-psp|gen-|num-|pers-|case-|vib-|tam-|chunkId-NP7|chunkType-child|stype-|voicetype-	19	lwg__psp	_	_
21	वह	वह	PRP	pn	lex-वह|cat-pn|gen-any|num-sg|pers-3|case-d|vib-0|tam-0|chunkId-NP8|chunkType-head|stype-|voicetype-	26	k1	_	_
22	परमाणु	परमाणु	NNC	n	lex-परमाणु|cat-n|gen-m|num-sg|pers-3|case-d|vib-0|tam-0|chunkId-NP9|chunkType-child|stype-|voicetype-	23	pof__cn	_	_
23	हथियारों	हथियार	NN	n	lex-हथियार|cat-n|gen-m|num-pl|pers-3|case-o|vib-0_का|tam-0|chunkId-NP9|chunkType-head|stype-|voicetype-	25	r6-k2	_	_
24	का	का	PSP	psp	lex-का|cat-psp|gen-m|num-sg|pers-|case-d|vib-|tam-|chunkId-NP9|chunkType-child|stype-|voicetype-	23	lwg__psp	_	_
25	धंधा	धंधा	NN	n	lex-धंधा|cat-n|gen-m|num-sg|pers-3|case-d|vib-0|tam-0|chunkId-NP10|chunkType-head|stype-|voicetype-	26	pof	_	_
26	कर	कर	VM	v	lex-कर|cat-v|gen-m|num-sg|pers-3h|case-|vib-0_रह+या_था|tam-0|chunkId-VGF2|chunkType-head|stype-declarative|voicetype-active	17	ccof	_	_
27	रहे	रह	VAUX	v	lex-रह|cat-v|gen-m|num-sg|pers-3h|case-|vib-या|tam-yA|chunkId-VGF2|chunkType-child|stype-|voicetype-	26	lwg__vaux	_	_
28	थे	था	VAUX	v	lex-था|cat-v|gen-m|num-sg|pers-3h|case-|vib-था|tam-WA|chunkId-VGF2|chunkType-child|stype-|voicetype-	26	lwg__vaux	_	_
29	।	।	SYM	punc	lex-।|cat-punc|gen-|num-|pers-|case-|vib-|tam-|chunkId-BLK|chunkType-head|stype-|voicetype-	17	rsym	_	_

1	बुलेटिन	बुलेटिन	NNPC	n	lex-बुलेटिन|cat-n|gen-m|num-sg|pers-3|case-d|vib-0|tam-0|chunkId-NP|chunkType-child|stype-|voicetype-	4	pof__cn	_	_
2	ऑफ	ऑफ	NNPC	unk	lex-ऑफ|cat-unk|gen-|num-|pers-|case-|vib-|tam-|chunkId-NP|chunkType-child|stype-|voicetype-	4	pof__cn	_	_
3	एटॉमिक	एटॉमिक	NNPC	adj	lex-एटॉमिक|cat-adj|gen-any|num-any|pers-|case-o|vib-|tam-|chunkId-NP|chunkType-child|stype-|voicetype-	4	pof__cn	_	_
4	साइंटिस्ट	साइंटिस्ट	NNP	n	lex-साइंटिस्ट|cat-n|gen-m|num-sg|pers-3|case-o|vib-0_के_हवाला_से|tam-0|chunkId-NP|chunkType-head|stype-|voicetype-	8	k5	_	_
5	के	के	PSP	psp	lex-के|cat-psp|gen-m|num-|pers-|case-o|vib-|tam-|chunkId-NP|chunkType-child|stype-|voicetype-	4	lwg__psp	_	_
6	हवाले	हवाला	PSP	n	lex-हवाला|cat-n|gen-m|num-|pers-|case-o|vib-|tam-|chunkId-NP|chunkType-child|stype-|voicetype-	4	lwg__psp	_	_
7	से	से	PSP	psp	lex-से|cat-psp|gen-|num-|pers-|case-|vib-|tam-|chunkId-NP|chunkType-child|stype-|voicetype-	4	lwg__psp	_	_
8	दिए	दे	VM	v	lex-दे|cat-v|gen-m|num-sg|pers-any|case-|vib-या|tam-yA|chunkId-VGNF|chunkType-head|stype-|voicetype-	10	nmod__k2inv	_	_
9	इस	यह	DEM	pn	lex-यह|cat-pn|gen-any|num-sg|pers-3|case-o|vib-|tam-|chunkId-NP2|chunkType-child|stype-|voicetype-	10	nmod__adj	_	_
10	लेख	लेख	NN	n	lex-लेख|cat-n|gen-m|num-sg|pers-3|case-o|vib-0_में|tam-0|chunkId-NP2|chunkType-head|stype-|voicetype-	12	k7	_	_
11	में	में	PSP	psp	lex-में|cat-psp|gen-|num-|pers-|case-|vib-|tam-|chunkId-NP2|chunkType-child|stype-|voicetype-	10	lwg__psp	_	_
12	कहा	कह	VM	v	lex-कह|cat-v|gen-m|num-sg|pers-any|case-|vib-या_जा+या१|tam-yA|chunkId-VGF|chunkType-head|stype-declarative|voicetype-active	0	main	_	_
13	गया	जा	VAUX	v	lex-जा|cat-v|gen-m|num-sg|pers-any|case-|vib-या१|tam-yA1|chunkId-VGF|chunkType-child|stype-|voicetype-	12	lwg__vaux	_	_
14	कि	कि	CC	avy	lex-कि|cat-avy|gen-|num-|pers-|case-|vib-|tam-|chunkId-CCP|chunkType-head|stype-|voicetype-	12	k2	_	_
15	खान	खान	NNP	n	lex-खान|cat-n|gen-m|num-sg|pers-3|case-o|vib-0|tam-0|chunkId-NP3|chunkType-head|stype-|voicetype-	18	ccof	_	_
16	,	COMMA	SYM	punc	lex-COMMA|cat-punc|gen-|num-|pers-|case-|vib-|tam-|chunkId-NP3|chunkType-child|stype-|voicetype-	15	rsym	_	_
17	महमूद	महमूद	NNP	n	lex-महमूद|cat-n|gen-m|num-sg|pers-3|case-o|vib-0|tam-0|chunkId-NP4|chunkType-head|stype-|voicetype-	18	ccof	_	_
18	व	व	CC	avy	lex-व|cat-avy|gen-|num-|pers-|case-|vib-|tam-|chunkId-CCP2|chunkType-head|stype-|voicetype-	30	k1	_	_
19	अन्य	अन्य	JJ	adj	lex-अन्य|cat-adj|gen-any|num-any|pers-|case-o|vib-|tam-|chunkId-NP5|chunkType-child|stype-|voicetype-	20	nmod__adj	_	_
20	वैज्ञानिकों	वैज्ञानिक	NN	n	lex-वैज्ञानिक|cat-n|gen-m|num-pl|pers-3|case-o|vib-0_ने|tam-0|chunkId-NP5|chunkType-head|stype-|voicetype-	18	ccof	_	_
21	ने	ने	PSP	psp	lex-ने|cat-psp|gen-|num-|pers-|case-|vib-|tam-|chunkId-NP5|chunkType-child|stype-|voicetype-	20	lwg__psp	_	_
22	लश्कर	लश्कर	NNPC	n	lex-लश्कर|cat-n|gen-m|num-sg|pers-3|case-d|vib-0|tam-0|chunkId-NP6|chunkType-child|stype-|voicetype-	24	pof__cn	_	_
23	ए	ए	NNPC	avy	lex-ए|cat-avy|gen-|num-|pers-|case-|vib-|tam-|chunkId-NP6|chunkType-child|stype-|voicetype-	24	pof__cn	_	_
24	ताइबा	ताइबा	NNP	n	lex-ताइबा|cat-n|gen-m|num-sg|pers-3|case-o|vib-0_का|tam-0|chunkId-NP6|chunkType-head|stype-|voicetype-	27	r6	_	_
25	के	का	PSP	psp	lex-का|cat-psp|gen-m|num-pl|pers-|case-o|vib-|tam-|chunkId-NP6|chunkType-child|stype-|voicetype-	24	lwg__psp	_	_
26	कई	कई	QF	avy	lex-कई|cat-avy|gen-|num-|pers-|case-|vib-|tam-|chunkId-NP7|chunkType-child|stype-|voicetype-	27	nmod__adj	_	_
27	समारोहों	समारोह	NN	n	lex-समारोह|cat-n|gen-m|num-pl|pers-3|case-o|vib-0_में|tam-0|chunkId-NP7|chunkType-head|stype-|voicetype-	30	k7	_	_
28	में	में	PSP	psp	lex-में|cat-psp|gen-|num-|pers-|case-|vib-|tam-|chunkId-NP7|chunkType-child|stype-|voicetype-	27	lwg__psp	_	_
29	शिरकत	शिरकत	NN	n	lex-शिरकत|cat-n|gen-f|num-sg|pers-3|case-d|vib-0|tam-0|chunkId-NP8|chunkType-head|stype-|voicetype-	30	pof	_	_
30	की	कर	VM	v	lex-कर|cat-v|gen-f|num-sg|pers-any|case-|vib-या|tam-yA|chunkId-VGF2|chunkType-head|stype-declarative|voicetype-active	14	ccof	_	_
31	।	।	SYM	punc	lex-।|cat-punc|gen-|num-|pers-|case-|vib-|tam-|chunkId-BLK|chunkType-head|stype-|voicetype-	12	rsym	_	_

1	खान	खान	NNP	n	lex-खान|cat-n|gen-m|num-sg|pers-3|case-d|vib-0|tam-0|chunkId-NP|chunkType-head|stype-|voicetype-	13	k1	_	_
2	आतंकी	आतंकी	JJ	adj	lex-आतंकी|cat-adj|gen-any|num-any|pers-|case-o|vib-|tam-|chunkId-NP2|chunkType-child|stype-|voicetype-	4	nmod__adj	_	_
3	हफीज़	हफीज़	NNPC	n	lex-हफीज़|cat-n|gen-m|num-sg|pers-3|case-d|vib-0|tam-0|chunkId-NP2|chunkType-child|stype-|voicetype-	4	pof__cn	_	_
4	सईद	सईद	NNP	n	lex-सईद|cat-n|gen-m|num-sg|pers-3|case-o|vib-0_का|tam-0|chunkId-NP2|chunkType-head|stype-|voicetype-	6	k1	_	_
5	के	का	PSP	psp	lex-का|cat-psp|gen-m|num-sg|pers-|case-o|vib-|tam-|chunkId-NP2|chunkType-child|stype-|voicetype-	4	lwg__psp	_	_
6	नेतृत्व	नेतृत्व	NN	n	lex-नेतृत्व|cat-n|gen-m|num-sg|pers-3|case-o|vib-0_वाला|tam-0|chunkId-NP3|chunkType-head|stype-|voicetype-	8	nmod	_	_
7	वाले	वाला	PSP	psp	lex-वाला|cat-psp|gen-m|num-sg|pers-|case-o|vib-|tam-|chunkId-NP3|chunkType-child|stype-|voicetype-	6	lwg__psp	_	_
8	लश्कर	लश्कर	NN	n	lex-लश्कर|cat-n|gen-m|num-sg|pers-3|case-o|vib-0_का|tam-0|chunkId-NP4|chunkType-head|stype-|voicetype-	10	r6	_	_
9	के	का	PSP	psp	lex-का|cat-psp|gen-m|num-sg|pers-|case-o|vib-|tam-|chunkId-NP4|chunkType-child|stype-|voicetype-	8	lwg__psp	_	_
10	जलसे	जलसा	NN	n	lex-जलसा|cat-n|gen-m|num-sg|pers-3|case-o|vib-0_में|tam-0|chunkId-NP5|chunkType-head|stype-|voicetype-	13	k7	_	_
11	में	में	PSP	psp	lex-में|cat-psp|gen-|num-|pers-|case-|vib-|tam-|chunkId-NP5|chunkType-child|stype-|voicetype-	10	lwg__psp	_	_
12	शामिल	शामिल	JJ	adj	lex-शामिल|cat-adj|gen-any|num-any|pers-|case-|vib-|tam-|chunkId-JJP|chunkType-head|stype-|voicetype-	13	pof	_	_
13	हुए	हो	VM	v	lex-हो|cat-v|gen-m|num-sg|pers-3h|case-|vib-या|tam-yA|chunkId-VGF|chunkType-head|stype-declarative|voicetype-active	0	main	_	_
14	।	।	SYM	punc	lex-।|cat-punc|gen-|num-|pers-|case-|vib-|tam-|chunkId-BLK|chunkType-head|stype-|voicetype-	13	rsym	_	_

1	लश्कर	लश्कर	NN	n	lex-लश्कर|cat-n|gen-m|num-sg|pers-3|case-o|vib-0_ने|tam-0|chunkId-NP|chunkType-head|stype-|voicetype-	16	k1	_	_
2	ने	ने	PSP	psp	lex-ने|cat-psp|gen-|num-|pers-|case-|vib-|tam-|chunkId-NP|chunkType-child|stype-|voicetype-	1	lwg__psp	_	_
3	प्रतिबंधित	प्रतिबंधित	JJ	adj	lex-प्रतिबंधित|cat-adj|gen-any|num-any|pers-|case-|vib-|tam-|chunkId-JJP|chunkType-head|stype-|voicetype-	4	pof	_	_
4	किए	कर	VM	v	lex-कर|cat-v|gen-m|num-sg|pers-any|case-|vib-या_जा+ना_के_बाद_से|tam-yA|chunkId-VGNN|chunkType-head|stype-|voicetype-	16	k7t	_	_
5	जाने	जा	VAUX	v	lex-जा|cat-v|gen-any|num-any|pers-any|case-o|vib-ना|tam-nA|chunkId-VGNN|chunkType-child|stype-|voicetype-	4	lwg__vaux	_	_
6	के	के	PSP	psp	lex-के|cat-psp|gen-m|num-sg|pers-|case-o|vib-|tam-|chunkId-VGNN|chunkType-child|stype-|voicetype-	4	lwg__psp	_	_
7	बाद	बाद	NST	nst	lex-बाद|cat-nst|gen-m|num-sg|pers-3|case-o|vib-|tam-|chunkId-VGNN|chunkType-child|stype-|voicetype-	4	lwg__nst	_	_
8	से	से	PSP	psp	lex-से|cat-psp|gen-|num-|pers-|case-|vib-|tam-|chunkId-VGNN|chunkType-child|stype-|voicetype-	4	lwg__psp	_	_
9	अपना	अपना	PRP	pn	lex-अपना|cat-pn|gen-m|num-sg|pers-any|case-d|vib-0|tam-0|chunkId-NP2|chunkType-head|stype-|voicetype-	10	r6	_	_
10	नाम	नाम	NN	n	lex-नाम|cat-n|gen-m|num-sg|pers-3|case-d|vib-0|tam-0|chunkId-NP3|chunkType-head|stype-|voicetype-	16	k2	_	_
11	जमात	जमात	NNPC	n	lex-जमात|cat-n|gen-m|num-sg|pers-3|case-d|vib-0|tam-0|chunkId-NP4|chunkType-child|stype-|voicetype-	15	pof__cn	_	_
12	-	-	SYM	punc	lex--|cat-punc|gen-|num-|pers-|case-|vib-|tam-|chunkId-NP4|chunkType-child|stype-|voicetype-	15	rsym	_	_
13	अल	अल	NNPC	n	lex-अल|cat-n|gen-m|num-sg|pers-3|case-d|vib-0|tam-0|chunkId-NP4|chunkType-child|stype-|voicetype-	15	nmod__adj	_	_
14	-	-	SYM	punc	lex--|cat-punc|gen-|num-|pers-|case-|vib-|tam-|chunkId-NP4|chunkType-child|stype-|voicetype-	15	rsym	_	_
15	दावा	दावा	NNP	n	lex-दावा|cat-n|gen-m|num-sg|pers-3|case-d|vib-0|tam-0|chunkId-NP4|chunkType-head|stype-|voicetype-	16	k2s	_	_
16	कर	कर	VM	v	lex-कर|cat-v|gen-m|num-sg|pers-3|case-|vib-0_ले+या_है|tam-0|chunkId-VGF|chunkType-head|stype-declarative|voicetype-active	0	main	_	_
17	लिया	ले	VAUX	v	lex-ले|cat-v|gen-m|num-sg|pers-any|case-|vib-या|tam-yA|chunkId-VGF|chunkType-child|stype-|voicetype-	16	lwg__vaux	_	_
18	है	है	VAUX	v	lex-है|cat-v|gen-any|num-sg|pers-3|case-|vib-है|tam-hE|chunkId-VGF|chunkType-child|stype-|voicetype-	16	lwg__vaux	_	_
19	।	।	SYM	punc	lex-।|cat-punc|gen-|num-|pers-|case-|vib-|tam-|chunkId-BLK|chunkType-head|stype-|voicetype-	16	rsym	_	_

1	पत्र	पत्र	NN	n	lex-पत्र|cat-n|gen-m|num-sg|pers-3|case-o|vib-0_में|tam-0|chunkId-NP|chunkType-head|stype-|voicetype-	3	k7	_	_
2	में	में	PSP	psp	lex-में|cat-psp|gen-|num-|pers-|case-|vib-|tam-|chunkId-NP|chunkType-child|stype-|voicetype-	1	lwg__psp	_	_
3	कहा	कह	VM	v	lex-कह|cat-v|gen-m|num-sg|pers-any|case-|vib-या_जा+या१|tam-yA|chunkId-VGF|chunkType-head|stype-declarative|voicetype-active	0	main	_	_
4	गया	जा	VAUX	v	lex-जा|cat-v|gen-m|num-sg|pers-any|case-|vib-या१|tam-yA1|chunkId-VGF|chunkType-child|stype-|voicetype-	3	lwg__vaux	_	_
5	कि	कि	CC	avy	lex-कि|cat-avy|gen-|num-|pers-|case-|vib-|tam-|chunkId-CCP|chunkType-head|stype-|voicetype-	3	k2	_	_
6	महमूद	महमूद	NNP	n	lex-महमूद|cat-n|gen-m|num-sg|pers-3|case-d|vib-0|tam-0|chunkId-NP2|chunkType-head|stype-|voicetype-	15	k1	_	_
7	पाकिस्तान	पाकिस्तान	NNP	n	lex-पाकिस्तान|cat-n|gen-m|num-sg|pers-3|case-o|vib-0_का|tam-0|chunkId-NP3|chunkType-head|stype-|voicetype-	10	r6	_	_
8	के	का	PSP	psp	lex-का|cat-psp|gen-m|num-sg|pers-|case-o|vib-|tam-|chunkId-NP3|chunkType-child|stype-|voicetype-	7	lwg__psp	_	_
9	खुशाब	खुशाब	NNPC	n	lex-खुशाब|cat-n|gen-m|num-sg|pers-3|case-d|vib-0|tam-0|chunkId-NP4|chunkType-child|stype-|voicetype-	10	pof__cn	_	_
10	प्लांट	प्लांट	NNP	n	lex-प्लांट|cat-n|gen-m|num-sg|pers-3|case-o|vib-0_में|tam-0|chunkId-NP4|chunkType-head|stype-|voicetype-	15	k7p	_	_
11	में	में	PSP	psp	lex-में|cat-psp|gen-|num-|pers-|case-|vib-|tam-|chunkId-NP4|chunkType-child|stype-|voicetype-	10	lwg__psp	_	_
12	यूरेनियम	यूरेनियम	NNC	n	lex-यूरेनियम|cat-n|gen-m|num-sg|pers-3|case-d|vib-0|tam-0|chunkId-NP5|chunkType-child|stype-|voicetype-	13	pof__cn	_	_
13	संवर्द्धन	संवर्द्धन	NN	n	lex-संवर्द्धन|cat-n|gen-m|num-sg|pers-3|case-o|vib-0_में|tam-0|chunkId-NP5|chunkType-head|stype-|voicetype-	15	k7	_	_
14	में	में	PSP	psp	lex-में|cat-psp|gen-|num-|pers-|case-|vib-|tam-|chunkId-NP5|chunkType-child|stype-|voicetype-	13	lwg__psp	_	_
15	लगे	लग	VM	v	lex-लग|cat-v|gen-m|num-sg|pers-3h|case-|vib-या_रह+या|tam-yA|chunkId-VGF2|chunkType-head|stype-declarative|voicetype-active	17	ccof	_	_
16	रहे	रह	VAUX	v	lex-रह|cat-v|gen-m|num-sg|pers-3h|case-|vib-या|tam-yA|chunkId-VGF2|chunkType-child|stype-|voicetype-	15	lwg__vaux	_	_
17	और	और	CC	avy	lex-और|cat-avy|gen-|num-|pers-|case-|vib-|tam-|chunkId-CCP2|chunkType-head|stype-|voicetype-	5	ccof	_	_
18	ख़ान	खान	NNP	n	lex-खान|cat-n|gen-m|num-sg|pers-3|case-o|vib-0_को|tam-0|chunkId-NP6|chunkType-head|stype-|voicetype-	35	k1	_	_
19	को	को	PSP	psp	lex-को|cat-psp|gen-|num-|pers-|case-|vib-|tam-|chunkId-NP6|chunkType-child|stype-|voicetype-	18	lwg__psp	_	_
20	लादेन	लादेन	NNP	n	lex-लादेन|cat-n|gen-m|num-sg|pers-3|case-o|vib-0_समेत|tam-0|chunkId-NP7|chunkType-head|stype-|voicetype-	31	vmod	_	_
21	समेत	समेत	PSP	psp	lex-समेत|cat-psp|gen-|num-|pers-|case-|vib-|tam-|chunkId-NP7|chunkType-child|stype-|voicetype-	20	lwg__psp	_	_
22	अल	अल	NNPC	n	lex-अल|cat-n|gen-m|num-sg|pers-3|case-d|vib-0|tam-0|chunkId-NP8|chunkType-child|stype-|voicetype-	24	pof__cn	_	_
23	-	-	SYM	punc	lex--|cat-punc|gen-|num-|pers-|case-|vib-|tam-|chunkId-NP8|chunkType-child|stype-|voicetype-	24	rsym	_	_
24	क़ायदा	क़ायदा	NNP	n	lex-क़ायदा|cat-n|gen-m|num-sg|pers-3|case-o|vib-0_का|tam-0|chunkId-NP8|chunkType-head|stype-|voicetype-	27	r6	_	_
25	के	का	PSP	psp	lex-का|cat-psp|gen-m|num-pl|pers-|case-o|vib-|tam-|chunkId-NP8|chunkType-child|stype-|voicetype-	24	lwg__psp	_	_
26	बड़े	बडा	JJ	adj	lex-बडा|cat-adj|gen-m|num-pl|pers-|case-o|vib-|tam-|chunkId-NP9|chunkType-child|stype-|voicetype-	27	nmod__adj	_	_
27	आतंकियों	आतंकी	NN	n	lex-आतंकी|cat-n|gen-m|num-pl|pers-3|case-o|vib-0_के_साथ|tam-0|chunkId-NP9|chunkType-head|stype-|voicetype-	31	ras-k1	_	_
28	के	के	PSP	psp	lex-के|cat-psp|gen-|num-|pers-|case-|vib-|tam-|chunkId-NP9|chunkType-child|stype-|voicetype-	27	lwg__psp	_	_
29	साथ	साथ	NST	nst	lex-साथ|cat-nst|gen-m|num-sg|pers-3|case-d|vib-|tam-|chunkId-NP9|chunkType-child|stype-|voicetype-	27	lwg__psp	_	_
30	बैठक	बैठक	NN	n	lex-बैठक|cat-n|gen-f|num-sg|pers-3|case-d|vib-0|tam-0|chunkId-NP10|chunkType-head|stype-|voicetype-	31	pof	_	_
31	करने	कर	VM	v	lex-कर|cat-v|gen-any|num-any|pers-any|case-o|vib-ना_के_लिए|tam-nA|chunkId-VGNN|chunkType-head|stype-|voicetype-	35	rt	_	_
32	के	के	PSP	psp	lex-के|cat-psp|gen-|num-|pers-|case-|vib-|tam-|chunkId-VGNN|chunkType-child|stype-|voicetype-	31	lwg__psp	_	_
33	लिए	लिए	PSP	psp	lex-लिए|cat-psp|gen-|num-|pers-|case-|vib-|tam-|chunkId-VGNN|chunkType-child|stype-|voicetype-	31	lwg__psp	_	_
34	भी	भी	RP	avy	lex-भी|cat-avy|gen-|num-|pers-|case-|vib-|tam-|chunkId-VGNN|chunkType-child|stype-|voicetype-	31	lwg__rp	_	_
35	जाना	जान	VM	v	lex-जान|cat-v|gen-m|num-sg|pers-3|case-|vib-या_जा+ता_है|tam-yA|chunkId-VGF3|chunkType-head|stype-declarative|voicetype-active	17	ccof	_	_
36	जाता	जा	VAUX	v	lex-जा|cat-v|gen-m|num-sg|pers-any|case-|vib-ता|tam-wA|chunkId-VGF3|chunkType-child|stype-|voicetype-	35	lwg__vaux	_	_
37	है	है	VAUX	v	lex-है|cat-v|gen-any|num-sg|pers-3|case-|vib-है|tam-hE|chunkId-VGF3|chunkType-child|stype-|voicetype-	35	lwg__vaux	_	_
38	।	।	SYM	punc	lex-।|cat-punc|gen-|num-|pers-|case-|vib-|tam-|chunkId-BLK|chunkType-head|stype-|voicetype-	3	rsym	_	_

1	'	SINGLE_QUOTE	SYM	punc	lex-SINGLE_QUOTE|cat-punc|gen-|num-|pers-|case-|vib-|tam-|chunkId-NP|chunkType-child|stype-|voicetype-	4	rsym	_	_
2	द	द	NNPC	unk	lex-द|cat-unk|gen-|num-|pers-|case-|vib-|tam-|chunkId-NP|chunkType-child|stype-|voicetype-	4	pof__cn	_	_
3	फ्राइडे	फ्राइडे	NNPC	n	lex-फ्राइडे|cat-n|gen-m|num-sg|pers-3|case-d|vib-0|tam-0|chunkId-NP|chunkType-child|stype-|voicetype-	4	pof__cn	_	_
4	टाइम्स	टाइम्स	NNP	n	lex-टाइम्स|cat-n|gen-m|num-sg|pers-3|case-o|vib-0_ने|tam-0|chunkId-NP|chunkType-head|stype-|voicetype-	7	k1	_	_
5	'	SINGLE_QUOTE	SYM	punc	lex-SINGLE_QUOTE|cat-punc|gen-|num-|pers-|case-|vib-|tam-|chunkId-NP|chunkType-child|stype-|voicetype-	4	rsym	_	_
6	ने	ने	PSP	psp	lex-ने|cat-psp|gen-|num-|pers-|case-|vib-|tam-|chunkId-NP|chunkType-child|stype-|voicetype-	4	lwg__psp	_	_
7	कहा	कह	VM	v	lex-कह|cat-v|gen-m|num-sg|pers-any|case-|vib-या|tam-yA|chunkId-VGF|chunkType-head|stype-declarative|voicetype-active	0	main	_	_
8	कि	कि	CC	avy	lex-कि|cat-avy|gen-|num-|pers-|case-|vib-|tam-|chunkId-CCP|chunkType-head|stype-|voicetype-	7	k2	_	_
9	महमूद	महमूद	NNP	n	lex-महमूद|cat-n|gen-m|num-sg|pers-3|case-o|vib-0_को|tam-0|chunkId-NP2|chunkType-head|stype-|voicetype-	17	k1	_	_
10	को	को	PSP	psp	lex-को|cat-psp|gen-|num-|pers-|case-|vib-|tam-|chunkId-NP2|chunkType-child|stype-|voicetype-	9	lwg__psp	_	_
11	उस	वह	DEM	pn	lex-वह|cat-pn|gen-any|num-sg|pers-3|case-o|vib-|tam-|chunkId-NP3|chunkType-child|stype-|voicetype-	13	nmod__adj	_	_
12	धार्मिक	धार्मिक	JJ	adj	lex-धार्मिक|cat-adj|gen-any|num-any|pers-|case-o|vib-|tam-|chunkId-NP3|chunkType-child|stype-|voicetype-	13	nmod__adj	_	_
13	उन्मादी	उन्मादी	NN	n	lex-उन्मादी|cat-n|gen-m|num-sg|pers-3|case-o|vib-0_के_तौर_पर|tam-0|chunkId-NP3|chunkType-head|stype-|voicetype-	17	k7	_	_
14	के	के	PSP	psp	lex-के|cat-psp|gen-|num-|pers-|case-|vib-|tam-|chunkId-NP3|chunkType-child|stype-|voicetype-	13	lwg__psp	_	_
15	तौर	तौर	PSP	psp	lex-तौर|cat-psp|gen-|num-|pers-|case-|vib-|tam-|chunkId-NP3|chunkType-child|stype-|voicetype-	13	lwg__psp	_	_
16	पर	पर	PSP	psp	lex-पर|cat-psp|gen-|num-|pers-|case-|vib-|tam-|chunkId-NP3|chunkType-child|stype-|voicetype-	13	lwg__psp	_	_
17	जाना	जान	VM	v	lex-जान|cat-v|gen-m|num-sg|pers-3|case-|vib-या_जा_सक+ता_है|tam-yA|chunkId-VGF2|chunkType-head|stype-declarative|voicetype-active	8	ccof	_	_
18	जा	जा	VAUX	v	lex-जा|cat-v|gen-any|num-any|pers-any|case-|vib-0|tam-0|chunkId-VGF2|chunkType-child|stype-|voicetype-	17	lwg__vaux	_	_
19	सकता	सक	VAUX	v	lex-सक|cat-v|gen-m|num-sg|pers-any|case-|vib-ता|tam-wA|chunkId-VGF2|chunkType-child|stype-|voicetype-	17	lwg__vaux	_	_
20	है	है	VAUX	v	lex-है|cat-v|gen-any|num-sg|pers-3|case-|vib-है|tam-hE|chunkId-VGF2|chunkType-child|stype-|voicetype-	17	lwg__vaux	_	_
21	,	COMMA	SYM	punc	lex-COMMA|cat-punc|gen-|num-|pers-|case-|vib-|tam-|chunkId-VGF2|chunkType-child|stype-|voicetype-	17	rsym	_	_
22	जिसका	जो	PRP	pn	lex-जो|cat-pn|gen-m|num-sg|pers-3|case-o|vib-का|tam-kA|chunkId-NP4|chunkType-head|stype-|voicetype-	23	k1	_	_
23	मानना	मान	VM	v	lex-मान|cat-v|gen-any|num-any|pers-any|case-o|vib-ना|tam-nA|chunkId-VGNN|chunkType-head|stype-|voicetype-	24	k1	_	_
24	है	है	VM	v	lex-है|cat-v|gen-any|num-sg|pers-3|case-|vib-है|tam-hE|chunkId-VGF3|chunkType-head|stype-declarative|voicetype-active	13	nmod__relc	_	_
25	कि	कि	CC	avy	lex-कि|cat-avy|gen-|num-|pers-|case-|vib-|tam-|chunkId-CCP2|chunkType-head|stype-|voicetype-	23	k2	_	_
26	पाकिस्तान	पाकिस्तान	NNP	n	lex-पाकिस्तान|cat-n|gen-m|num-sg|pers-3|case-o|vib-0_को|tam-0|chunkId-NP5|chunkType-head|stype-|voicetype-	29	k1	_	_
27	को	को	PSP	psp	lex-को|cat-psp|gen-|num-|pers-|case-|vib-|tam-|chunkId-NP5|chunkType-child|stype-|voicetype-	26	lwg__psp	_	_
28	प्लूटोनियम	प्लूटोनियम	NN	n	lex-प्लूटोनियम|cat-n|gen-m|num-sg|pers-3|case-d|vib-0|tam-0|chunkId-NP6|chunkType-head|stype-|voicetype-	29	k2	_	_
29	बढ़ाना	बढा	VM	v	lex-बढा|cat-v|gen-m|num-any|pers-any|case-|vib-ना_चाहिए|tam-nA|chunkId-VGF4|chunkType-head|stype-declarative|voicetype-active	31	ccof	_	_
30	चाहिए	चाहिए	VAUX	v	lex-चाहिए|cat-v|gen-any|num-any|pers-any|case-|vib-0|tam-0|chunkId-VGF4|chunkType-child|stype-|voicetype-	29	lwg__vaux	_	_
31	और	और	CC	avy	lex-और|cat-avy|gen-|num-|pers-|case-|vib-|tam-|chunkId-CCP3|chunkType-head|stype-|voicetype-	25	ccof	_	_
32	उसे	वह	PRP	pn	lex-वह|cat-pn|gen-any|num-sg|pers-3|case-o|vib-को|tam-ko|chunkId-NP7|chunkType-head|stype-|voicetype-	37	k2	_	_
33	केवल	केवल	RP	avy	lex-केवल|cat-avy|gen-|num-|pers-|case-|vib-|tam-|chunkId-NP8|chunkType-child|stype-|voicetype-	34	lwg__rp	_	_
34	अपने	अपना	PRP	pn	lex-अपना|cat-pn|gen-m|num-any|pers-any|case-d|vib-0_पास|tam-0|chunkId-NP8|chunkType-head|stype-|voicetype-	37	k7	_	_
35	पास	पास	NST	nst	lex-पास|cat-nst|gen-m|num-sg|pers-3|case-d|vib-|tam-|chunkId-NP8|chunkType-child|stype-|voicetype-	34	lwg__psp	_	_
36	न	न	NEG	avy	lex-न|cat-avy|gen-|num-|pers-|case-|vib-|tam-|chunkId-VGNF|chunkType-child|stype-|voicetype-	37	lwg__neg	_	_
37	रखते	रख	VM	v	lex-रख|cat-v|gen-m|num-sg|pers-any|case-|vib-ता_हो+या|tam-wA|chunkId-VGNF|chunkType-head|stype-|voicetype-	43	vmod	_	_
38	हुए	हो	VAUX	v	lex-हो|cat-v|gen-m|num-sg|pers-any|case-|vib-या|tam-yA|chunkId-VGNF|chunkType-child|stype-|voicetype-	37	lwg__vaux	_	_
39	सभी	सभी	QF	avy	lex-सभी|cat-avy|gen-|num-|pers-|case-|vib-|tam-|chunkId-NP9|chunkType-child|stype-|voicetype-	41	nmod__adj	_	_
40	इस्लामी	इस्लामी	JJ	adj	lex-इस्लामी|cat-adj|gen-any|num-any|pers-|case-o|vib-|tam-|chunkId-NP9|chunkType-child|stype-|voicetype-	41	nmod__adj	_	_
41	देशों	देश	NN	n	lex-देश|cat-n|gen-m|num-pl|pers-3|case-o|vib-0_को|tam-0|chunkId-NP9|chunkType-head|stype-|voicetype-	43	k1	_	_
42	को	को	PSP	psp	lex-को|cat-psp|gen-|num-|pers-|case-|vib-|tam-|chunkId-NP9|chunkType-child|stype-|voicetype-	41	lwg__psp	_	_
43	पहुंचाना	पहुंचा	VM	v	lex-पहुंचा|cat-v|gen-m|num-any|pers-any|case-|vib-ना_चाहिए|tam-nA|chunkId-VGF5|chunkType-head|stype-declarative|voicetype-active	31	ccof	_	_
44	चाहिए	चाहिए	VAUX	v	lex-चाहिए|cat-v|gen-any|num-any|pers-any|case-|vib-0|tam-0|chunkId-VGF5|chunkType-child|stype-|voicetype-	43	lwg__vaux	_	_
45	।	।	SYM	punc	lex-।|cat-punc|gen-|num-|pers-|case-|vib-|tam-|chunkId-BLK|chunkType-head|stype-|voicetype-	7	rsym	_	_

1	जिससे	जो	PRP	pn	lex-जो|cat-pn|gen-any|num-sg|pers-3|case-o|vib-से|tam-se|chunkId-NP|chunkType-head|stype-|voicetype-	9	rh	_	_
2	वह	वह	PRP	pn	lex-वह|cat-pn|gen-any|num-sg|pers-3|case-d|vib-0|tam-0|chunkId-NP2|chunkType-head|stype-|voicetype-	9	k1	_	_
3	इज़राइल	इज़राइल	NNP	n	lex-इज़राइल|cat-n|gen-m|num-sg|pers-3|case-o|vib-0|tam-0|chunkId-NP3|chunkType-head|stype-|voicetype-	4	ccof	_	_
4	व	व	CC	avy	lex-व|cat-avy|gen-|num-|pers-|case-|vib-|tam-|chunkId-CCP|chunkType-head|stype-|voicetype-	9	k4	_	_
5	पश्चिमी	पश्चिमी	JJ	adj	lex-पश्चिमी|cat-adj|gen-any|num-any|pers-|case-o|vib-|tam-|chunkId-NP4|chunkType-child|stype-|voicetype-	6	nmod__adj	_	_
6	देशों	देश	NN	n	lex-देश|cat-n|gen-m|num-pl|pers-3|case-o|vib-0_को|tam-0|chunkId-NP4|chunkType-head|stype-|voicetype-	4	ccof	_	_
7	को	को	PSP	psp	lex-को|cat-psp|gen-|num-|pers-|case-|vib-|tam-|chunkId-NP4|chunkType-child|stype-|voicetype-	6	lwg__psp	_	_
8	चुनौती	चुनौती	NN	n	lex-चुनौती|cat-n|gen-f|num-sg|pers-3|case-d|vib-0|tam-0|chunkId-NP5|chunkType-head|stype-|voicetype-	9	pof	_	_
9	दे	दे	VM	v	lex-दे|cat-v|gen-any|num-sg|pers-any|case-|vib-0_सक+एं|tam-0|chunkId-VGF|chunkType-head|stype-declarative|voicetype-active	0	main	_	_
10	सके	सक	VAUX	v	lex-सक|cat-v|gen-m|num-sg|pers-any|case-|vib-एं|tam-eM|chunkId-VGF|chunkType-child|stype-|voicetype-	9	lwg__vaux	_	_
11	।	।	SYM	punc	lex-।|cat-punc|gen-|num-|pers-|case-|vib-|tam-|chunkId-BLK|chunkType-head|stype-|voicetype-	9	rsym	_	_

