1	भारतीय	भारतीय	NNPC	adj	lex-भारतीय|cat-adj|gen-any|num-any|pers-|case-d|vib-|tam-|chunkId-NP|chunkType-child|stype-|voicetype-	3	pof__cn	_	_
2	जनता	जनता	NNPC	n	lex-जनता|cat-n|gen-f|num-sg|pers-3|case-d|vib-0|tam-0|chunkId-NP|chunkType-child|stype-|voicetype-	3	pof__cn	_	_
3	पार्टी	पार्टी	NNP	n	lex-पार्टी|cat-n|gen-f|num-sg|pers-3|case-d|vib-0|tam-0|chunkId-NP|chunkType-child|stype-|voicetype-	7	nmod__adj	_	_
4	अध्यक्ष	अध्यक्ष	NN	n	lex-अध्यक्ष|cat-n|gen-m|num-sg|pers-3|case-d|vib-0|tam-0|chunkId-NP|chunkType-child|stype-|voicetype-	7	nmod	_	_
5	लाल	लाल	NNPC	n	lex-लाल|cat-n|gen-m|num-sg|pers-3|case-d|vib-0|tam-0|chunkId-NP|chunkType-child|stype-|voicetype-	7	pof__cn	_	_
6	कृष्ण	कृष्ण	NNPC	n	lex-कृष्ण|cat-n|gen-m|num-sg|pers-3|case-d|vib-0|tam-0|chunkId-NP|chunkType-child|stype-|voicetype-	7	pof__cn	_	_
7	आडवाणी	आडवाणी	NNP	n	lex-आडवाणी|cat-n|gen-any|num-sg|pers-3|case-o|vib-0_ने|tam-0|chunkId-NP|chunkType-head|stype-|voicetype-	11	k1	_	_
8	ने	ने	PSP	psp	lex-ने|cat-psp|gen-|num-|pers-|case-|vib-|tam-|chunkId-NP|chunkType-child|stype-|voicetype-	7	lwg__psp	_	_
9	मंगलवार	मंगलवार	NNP	n	lex-मंगलवार|cat-n|gen-m|num-sg|pers-3|case-o|vib-0_को|tam-0|chunkId-NP2|chunkType-head|stype-|voicetype-	11	k7t	_	_
10	को	को	PSP	psp	lex-को|cat-psp|gen-|num-|pers-|case-|vib-|tam-|chunkId-NP2|chunkType-child|stype-|voicetype-	9	lwg__psp	_	_
11	कहा	कह	VM	v	lex-कह|cat-v|gen-m|num-sg|pers-any|case-|vib-या|tam-yA|chunkId-VGF|chunkType-head|stype-declarative|voicetype-active	0	main	_	_
12	कि	कि	CC	avy	lex-कि|cat-avy|gen-|num-|pers-|case-|vib-|tam-|chunkId-CCP|chunkType-head|stype-|voicetype-	11	k2	_	_
13	मुख्य	मुख्य	JJ	adj	lex-मुख्य|cat-adj|gen-any|num-any|pers-|case-o|vib-|tam-|chunkId-NP3|chunkType-child|stype-|voicetype-	15	nmod__adj	_	_
14	विपक्षी	विपक्षी	JJ	adj	lex-विपक्षी|cat-adj|gen-any|num-any|pers-|case-o|vib-|tam-|chunkId-NP3|chunkType-child|stype-|voicetype-	15	nmod__adj	_	_
15	दल	दल	NN	n	lex-दल|cat-n|gen-m|num-sg|pers-3|case-o|vib-0_का_ओर_से|tam-0|chunkId-NP3|chunkType-head|stype-|voicetype-	21	rd	_	_
16	की	का	PSP	psp	lex-का|cat-psp|gen-f|num-sg|pers-|case-o|vib-|tam-|chunkId-NP3|chunkType-child|stype-|voicetype-	15	lwg__psp	_	_
17	ओर	ओर	NST	nst	lex-ओर|cat-nst|gen-f|num-sg|pers-3|case-o|vib-|tam-|chunkId-NP3|chunkType-child|stype-|voicetype-	15	lwg__psp	_	_
18	से	से	PSP	psp	lex-से|cat-psp|gen-|num-|pers-|case-|vib-|tam-|chunkId-NP3|chunkType-child|stype-|voicetype-	15	lwg__psp	_	_
19	ब्लैंक	ब्लैंक	JJ	adj	lex-ब्लैंक|cat-adj|gen-any|num-any|pers-|case-d|vib-|tam-|chunkId-NP4|chunkType-child|stype-|voicetype-	20	nmod__adj	_	_
20	चैक	चैक	NN	n	lex-चैक|cat-n|gen-m|num-sg|pers-3|case-d|vib-0|tam-0|chunkId-NP4|chunkType-head|stype-|voicetype-	21	k1	_	_
21	मिलने	मिल	VM	v	lex-मिल|cat-v|gen-any|num-any|pers-any|case-o|vib-ना_के_बावजूद|tam-nA|chunkId-VGNN|chunkType-head|stype-|voicetype-	33	vmod	_	_
22	के	के	PSP	psp	lex-के|cat-psp|gen-|num-|pers-|case-|vib-|tam-|chunkId-VGNN|chunkType-child|stype-|voicetype-	21	lwg__psp	_	_
23	बावजूद	बावजूद	PSP	psp	lex-बावजूद|cat-psp|gen-|num-|pers-|case-|vib-|tam-|chunkId-VGNN|chunkType-child|stype-|voicetype-	21	lwg__psp	_	_
24	संसद	संसद	NN	n	lex-संसद|cat-n|gen-f|num-sg|pers-3|case-o|vib-0_का|tam-0|chunkId-NP5|chunkType-head|stype-|voicetype-	27	r6	_	_
25	के	का	PSP	psp	lex-का|cat-psp|gen-m|num-sg|pers-|case-o|vib-|tam-|chunkId-NP5|chunkType-child|stype-|voicetype-	24	lwg__psp	_	_
26	चालू	चालू	JJ	adj	lex-चालू|cat-adj|gen-any|num-any|pers-|case-o|vib-|tam-|chunkId-NP6|chunkType-child|stype-|voicetype-	27	nmod__adj	_	_
27	सत्र	सत्र	NN	n	lex-सत्र|cat-n|gen-m|num-sg|pers-3|case-o|vib-0_में|tam-0|chunkId-NP6|chunkType-head|stype-|voicetype-	33	k7	_	_
28	में	में	PSP	psp	lex-में|cat-psp|gen-|num-|pers-|case-|vib-|tam-|chunkId-NP6|chunkType-child|stype-|voicetype-	27	lwg__psp	_	_
29	महिला	महिला	NNPC	n	lex-महिला|cat-n|gen-f|num-sg|pers-3|case-d|vib-0|tam-0|chunkId-NP7|chunkType-child|stype-|voicetype-	31	pof__cn	_	_
30	आरक्षण	आरक्षण	NNPC	n	lex-आरक्षण|cat-n|gen-m|num-sg|pers-3|case-d|vib-0|tam-0|chunkId-NP7|chunkType-child|stype-|voicetype-	31	pof__cn	_	_
31	विधेयक	विधेयक	NNP	n	lex-विधेयक|cat-n|gen-m|num-sg|pers-3|case-d|vib-0|tam-0|chunkId-NP7|chunkType-head|stype-|voicetype-	33	k2	_	_
32	पेश	पेश	JJ	adj	lex-पेश|cat-adj|gen-any|num-any|pers-|case-|vib-|tam-|chunkId-JJP|chunkType-head|stype-|voicetype-	33	pof	_	_
33	करने	कर	VM	v	lex-कर|cat-v|gen-any|num-any|pers-any|case-o|vib-ना_में|tam-nA|chunkId-VGNN2|chunkType-head|stype-|voicetype-	47	k7	_	_
34	में	में	PSP	psp	lex-में|cat-psp|gen-|num-|pers-|case-|vib-|tam-|chunkId-VGNN2|chunkType-child|stype-|voicetype-	33	lwg__psp	_	_
35	यूपीए	यूपीए	NNP	n	lex-यूपीए|cat-n|gen-m|num-sg|pers-3|case-d|vib-0|tam-0|chunkId-NP8|chunkType-child|stype-|voicetype-	36	nmod__adj	_	_
36	सरकार	सरकार	NN	n	lex-सरकार|cat-n|gen-f|num-sg|pers-3|case-o|vib-0_का|tam-0|chunkId-NP8|chunkType-head|stype-|voicetype-	38	r6	_	_
37	की	का	PSP	psp	lex-का|cat-psp|gen-f|num-sg|pers-|case-o|vib-|tam-|chunkId-NP8|chunkType-child|stype-|voicetype-	36	lwg__psp	_	_
38	विफलता	विफलता	NN	n	lex-विफलता|cat-n|gen-f|num-sg|pers-3|case-o|vib-0_से|tam-0|chunkId-NP9|chunkType-head|stype-|voicetype-	41	k5	_	_
39	से	से	PSP	psp	lex-से|cat-psp|gen-|num-|pers-|case-|vib-|tam-|chunkId-NP9|chunkType-child|stype-|voicetype-	38	lwg__psp	_	_
40	इसको	यह	PRP	pn	lex-यह|cat-pn|gen-any|num-sg|pers-3|case-o|vib-को|tam-ko|chunkId-NP10|chunkType-head|stype-|voicetype-	41	k2	_	_
41	लेकर	ले	VM	v	lex-ले|cat-v|gen-any|num-any|pers-any|case-|vib-कर|tam-kara|chunkId-VGNF|chunkType-head|stype-|voicetype-	47	vmod	_	_
42	सरकार	सरकार	NN	n	lex-सरकार|cat-n|gen-f|num-sg|pers-3|case-o|vib-0_का|tam-0|chunkId-NP11|chunkType-head|stype-|voicetype-	44	r6	_	_
43	की	का	PSP	psp	lex-का|cat-psp|gen-f|num-sg|pers-|case-o|vib-|tam-|chunkId-NP11|chunkType-child|stype-|voicetype-	42	lwg__psp	_	_
44	प्रतिबद्धता	प्रतिबद्धता	NN	n	lex-प्रतिबद्धता|cat-n|gen-f|num-sg|pers-3|case-o|vib-0_का|tam-0|chunkId-NP12|chunkType-head|stype-|voicetype-	46	r6-k1	_	_
45	का	का	PSP	psp	lex-का|cat-psp|gen-m|num-sg|pers-|case-d|vib-|tam-|chunkId-NP12|chunkType-child|stype-|voicetype-	44	lwg__psp	_	_
46	खुलासा	खुलासा	NN	n	lex-खुलासा|cat-n|gen-m|num-sg|pers-3|case-d|vib-0|tam-0|chunkId-NP13|chunkType-head|stype-|voicetype-	47	pof	_	_
47	हो	हो	VM	v	lex-हो|cat-v|gen-m|num-sg|pers-3|case-|vib-0_जा+या१_है|tam-0|chunkId-VGF2|chunkType-head|stype-declarative|voicetype-active	12	ccof	_	_
48	गया	जा	VAUX	v	lex-जा|cat-v|gen-m|num-sg|pers-any|case-|vib-या१|tam-yA1|chunkId-VGF2|chunkType-child|stype-|voicetype-	47	lwg__vaux	_	_
49	है	है	VAUX	v	lex-है|cat-v|gen-any|num-sg|pers-3|case-|vib-है|tam-hE|chunkId-VGF2|chunkType-child|stype-|voicetype-	47	lwg__vaux	_	_
50	।	।	SYM	punc	lex-।|cat-punc|gen-|num-|pers-|case-|vib-|tam-|chunkId-BLK|chunkType-head|stype-|voicetype-	11	rsym	_	_

1	भाजपा	भाजपा	NNPC	n	lex-भाजपा|cat-n|gen-f|num-sg|pers-3|case-d|vib-0|tam-0|chunkId-NP|chunkType-child|stype-|voicetype-	3	pof__cn	_	_
2	संसदीय	संसदीय	NNPC	n	lex-संसदीय|cat-n|gen-m|num-sg|pers-3|case-d|vib-0|tam-0|chunkId-NP|chunkType-child|stype-|voicetype-	3	pof__cn	_	_
3	दल	दल	NNP	n	lex-दल|cat-n|gen-m|num-sg|pers-3|case-o|vib-0_का|tam-0|chunkId-NP|chunkType-head|stype-|voicetype-	5	r6	_	_
4	के	का	PSP	psp	lex-का|cat-psp|gen-m|num-sg|pers-|case-o|vib-|tam-|chunkId-NP|chunkType-child|stype-|voicetype-	3	lwg__psp	_	_
5	प्रवक्ता	प्रवक्ता	NN	n	lex-प्रवक्ता|cat-n|gen-m|num-sg|pers-3|case-o|vib-0|tam-0|chunkId-NP2|chunkType-head|stype-|voicetype-	8	nmod	_	_
6	वी.	वी.	NNPC	n	lex-वी.|cat-n|gen-m|num-sg|pers-3|case-d|vib-0|tam-0|chunkId-NP3|chunkType-child|stype-|voicetype-	8	pof__cn	_	_
7	के.	के.	NNPC	n	lex-के.|cat-n|gen-m|num-sg|pers-3|case-d|vib-0|tam-0|chunkId-NP3|chunkType-child|stype-|voicetype-	8	pof__cn	_	_
8	मलहोत्रा	मलहोत्रा	NNP	n	lex-मलहोत्रा|cat-n|gen-m|num-sg|pers-3|case-o|vib-0_ने|tam-0|chunkId-NP3|chunkType-head|stype-|voicetype-	17	k1	_	_
9	ने	ने	PSP	psp	lex-ने|cat-psp|gen-|num-|pers-|case-|vib-|tam-|chunkId-NP3|chunkType-child|stype-|voicetype-	8	lwg__psp	_	_
10	यहां	यहाँ	PRP	pn	lex-यहाँ|cat-pn|gen-|num-|pers-|case-d|vib-|tam-|chunkId-NP4|chunkType-head|stype-|voicetype-	17	k7p	_	_
11	आडवाणी	आडवाणी	NNP	n	lex-आडवाणी|cat-n|gen-m|num-sg|pers-3|case-o|vib-0_के|tam-0|chunkId-NP5|chunkType-head|stype-|voicetype-	13	r6	_	_
12	के	के	PSP	psp	lex-के|cat-psp|gen-m|num-|pers-|case-o|vib-|tam-|chunkId-NP5|chunkType-child|stype-|voicetype-	11	lwg__psp	_	_
13	हवाले	हवाला	NN	n	lex-हवाला|cat-n|gen-m|num-|pers-|case-o|vib-0_से|tam-|chunkId-NP6|chunkType-head|stype-|voicetype-	17	k3	_	_
14	से	से	PSP	psp	lex-से|cat-psp|gen-|num-|pers-|case-|vib-|tam-|chunkId-NP6|chunkType-child|stype-|voicetype-	13	lwg__psp	_	_
15	पत्रकारों	पत्रकार	NN	n	lex-पत्रकार|cat-n|gen-m|num-pl|pers-3|case-o|vib-0_से|tam-0|chunkId-NP7|chunkType-head|stype-|voicetype-	17	k4	_	_
16	से	से	PSP	psp	lex-से|cat-psp|gen-|num-|pers-|case-|vib-|tam-|chunkId-NP7|chunkType-child|stype-|voicetype-	15	lwg__psp	_	_
17	कहा	कह	VM	v	lex-कह|cat-v|gen-m|num-sg|pers-any|case-|vib-या|tam-yA|chunkId-VGF|chunkType-head|stype-declarative|voicetype-active	0	main	_	_
18	कि	कि	CC	avy	lex-कि|cat-avy|gen-|num-|pers-|case-|vib-|tam-|chunkId-CCP|chunkType-head|stype-|voicetype-	17	k2	_	_
19	पार्टी	पार्टी	NN	n	lex-पार्टी|cat-n|gen-f|num-sg|pers-3|case-o|vib-0_ने|tam-0|chunkId-NP8|chunkType-head|stype-|voicetype-	40	k1	_	_
20	ने	ने	PSP	psp	lex-ने|cat-psp|gen-|num-|pers-|case-|vib-|tam-|chunkId-NP8|chunkType-child|stype-|voicetype-	19	lwg__psp	_	_
21	सरकार	सरकार	NN	n	lex-सरकार|cat-n|gen-f|num-sg|pers-3|case-o|vib-0_का_ओर_से|tam-0|chunkId-NP9|chunkType-head|stype-|voicetype-	26	rd	_	_
22	की	का	PSP	psp	lex-का|cat-psp|gen-f|num-sg|pers-|case-o|vib-|tam-|chunkId-NP9|chunkType-child|stype-|voicetype-	21	lwg__psp	_	_
23	ओर	ओर	NST	nst	lex-ओर|cat-nst|gen-f|num-sg|pers-3|case-o|vib-|tam-|chunkId-NP9|chunkType-child|stype-|voicetype-	21	lwg__psp	_	_
24	से	से	PSP	psp	lex-से|cat-psp|gen-|num-|pers-|case-|vib-|tam-|chunkId-NP9|chunkType-child|stype-|voicetype-	21	lwg__psp	_	_
25	सर्वसम्मति	सर्वसम्मति	NN	n	lex-सर्वसम्मति|cat-n|gen-f|num-sg|pers-3|case-d|vib-0|tam-0|chunkId-NP10|chunkType-head|stype-|voicetype-	26	pof	_	_
26	बनाने	बना	VM	v	lex-बना|cat-v|gen-any|num-sg|pers-any|case-o|vib-ना_का|tam-nA|chunkId-VGNN|chunkType-head|stype-|voicetype-	30	r6	_	_
27	के	का	PSP	psp	lex-का|cat-psp|gen-m|num-sg|pers-|case-o|vib-|tam-|chunkId-VGNN|chunkType-child|stype-|voicetype-	26	lwg__psp	_	_
28	किसी	कोई	PRP	pn	lex-कोई|cat-pn|gen-any|num-sg|pers-3|case-o|vib-0|tam-0|chunkId-NP11|chunkType-child|stype-|voicetype-	30	nmod__adj	_	_
29	भी	भी	RP	avy	lex-भी|cat-avy|gen-|num-|pers-|case-|vib-|tam-|chunkId-NP11|chunkType-child|stype-|voicetype-	30	lwg__rp	_	_
30	तरीके	तरीका	NN	n	lex-तरीका|cat-n|gen-m|num-sg|pers-3|case-o|vib-0_के_लिए|tam-0|chunkId-NP11|chunkType-head|stype-|voicetype-	40	rt	_	_
31	के	के	PSP	psp	lex-के|cat-psp|gen-|num-|pers-|case-|vib-|tam-|chunkId-NP11|chunkType-child|stype-|voicetype-	30	lwg__psp	_	_
32	लिए	लिए	PSP	psp	lex-लिए|cat-psp|gen-|num-|pers-|case-|vib-|tam-|chunkId-NP11|chunkType-child|stype-|voicetype-	30	lwg__psp	_	_
33	गृह	गृह	NNPC	n	lex-गृह|cat-n|gen-m|num-sg|pers-3|case-d|vib-0|tam-0|chunkId-NP12|chunkType-child|stype-|voicetype-	34	pof__cn	_	_
34	मंत्री	मंत्री	NNP	n	lex-मंत्री|cat-n|gen-m|num-sg|pers-3|case-d|vib-0|tam-0|chunkId-NP12|chunkType-child|stype-|voicetype-	36	nmod__adj	_	_
35	शिवराज	शिवराज	NNPC	n	lex-शिवराज|cat-n|gen-m|num-sg|pers-3|case-d|vib-0|tam-0|chunkId-NP12|chunkType-child|stype-|voicetype-	36	pof__cn	_	_
36	पाटिल	पाटिल	NNP	n	lex-पाटिल|cat-n|gen-m|num-sg|pers-3|case-o|vib-0_को|tam-0|chunkId-NP12|chunkType-head|stype-|voicetype-	40	k4	_	_
37	को	को	PSP	psp	lex-को|cat-psp|gen-|num-|pers-|case-|vib-|tam-|chunkId-NP12|chunkType-child|stype-|voicetype-	36	lwg__psp	_	_
38	अपना	अपना	PRP	pn	lex-अपना|cat-pn|gen-m|num-any|pers-any|case-d|vib-0|tam-0|chunkId-NP13|chunkType-head|stype-|voicetype-	39	r6	_	_
39	समर्थन	समर्थन	NN	n	lex-समर्थन|cat-n|gen-m|num-sg|pers-3|case-d|vib-0|tam-0|chunkId-NP14|chunkType-head|stype-|voicetype-	40	k2	_	_
40	जताया	जता	VM	v	lex-जता|cat-v|gen-m|num-sg|pers-any|case-|vib-या_था|tam-yA|chunkId-VGF2|chunkType-head|stype-declarative|voicetype-active	18	ccof	_	_
41	था	था	VAUX	v	lex-था|cat-v|gen-m|num-sg|pers-any|case-|vib-था|tam-WA|chunkId-VGF2|chunkType-child|stype-|voicetype-	40	lwg__vaux	_	_
42	।	।	SYM	punc	lex-।|cat-punc|gen-|num-|pers-|case-|vib-|tam-|chunkId-BLK|chunkType-head|stype-|voicetype-	17	rsym	_	_

1	भले	भले	RP	avy	lex-भले|cat-avy|gen-|num-|pers-|case-|vib-|tam-|chunkId-BLK|chunkType-head|stype-|voicetype-	7	sent-adv	_	_
2	ही	ही	RP	avy	lex-ही|cat-avy|gen-|num-|pers-|case-|vib-|tam-|chunkId-BLK|chunkType-child|stype-|voicetype-	1	lwg__rp	_	_
3	वह	वह	PRP	pn	lex-वह|cat-pn|gen-any|num-sg|pers-3|case-d|vib-0|tam-0|chunkId-NP|chunkType-head|stype-|voicetype-	7	k1	_	_
4	सदन	सदन	NN	n	lex-सदन|cat-n|gen-m|num-sg|pers-3|case-o|vib-0_का|tam-0|chunkId-NP2|chunkType-head|stype-|voicetype-	6	r6	_	_
5	की	का	PSP	psp	lex-का|cat-psp|gen-f|num-sg|pers-|case-d|vib-|tam-|chunkId-NP2|chunkType-child|stype-|voicetype-	4	lwg__psp	_	_
6	संख्या	संख्या	NN	n	lex-संख्या|cat-n|gen-f|num-sg|pers-3|case-d|vib-0|tam-0|chunkId-NP3|chunkType-head|stype-|voicetype-	7	k2	_	_
7	बढ़ाने	बढ़ा	VM	v	lex-बढ़ा|cat-v|gen-any|num-any|pers-any|case-o|vib-ना|tam-nA|chunkId-VGNN|chunkType-head|stype-|voicetype-	9	ccof	_	_
8	,	COMMA	SYM	punc	lex-COMMA|cat-punc|gen-|num-|pers-|case-|vib-|tam-|chunkId-VGNN|chunkType-child|stype-|voicetype-	7	rsym	_	_
9	NULL	_	CC	_	lex-_|cat-_|gen-|num-|pers-|case-|vib-|tam-|chunkId-NULL__CCP|chunkType-head|stype-|voicetype-	26	r6	_	_
10	चुनाव	चुनाव	NNC	n	lex-चुनाव|cat-n|gen-m|num-sg|pers-3|case-d|vib-0|tam-0|chunkId-NP4|chunkType-child|stype-|voicetype-	11	pof__cn	_	_
11	क्षेत्रों	क्षेत्र	NN	n	lex-क्षेत्र|cat-n|gen-m|num-pl|pers-3|case-o|vib-0_से|tam-0|chunkId-NP4|chunkType-head|stype-|voicetype-	21	k7	_	_
12	से	से	PSP	psp	lex-से|cat-psp|gen-|num-|pers-|case-|vib-|tam-|chunkId-NP4|chunkType-child|stype-|voicetype-	11	lwg__psp	_	_
13	दो	दो	QC	num	lex-दो|cat-num|gen-any|num-any|pers-|case-any|vib-|tam-|chunkId-NP5|chunkType-child|stype-|voicetype-	14	nmod__adj	_	_
14	सदस्यों	सदस्य	NN	n	lex-सदस्य|cat-n|gen-m|num-pl|pers-3|case-o|vib-0|tam-0|chunkId-NP5|chunkType-head|stype-|voicetype-	15	ccof	_	_
15	या	या	CC	avy	lex-या|cat-avy|gen-|num-|pers-|case-|vib-|tam-|chunkId-CCP|chunkType-head|stype-|voicetype-	21	k4	_	_
16	पार्टियों	पार्टी	NN	n	lex-पार्टी|cat-n|gen-f|num-pl|pers-3|case-o|vib-0_को|tam-0|chunkId-NP6|chunkType-head|stype-|voicetype-	15	ccof	_	_
17	को	को	PSP	psp	lex-को|cat-psp|gen-|num-|pers-|case-|vib-|tam-|chunkId-NP6|chunkType-child|stype-|voicetype-	16	lwg__psp	_	_
18	महिलाओं	महिला	NN	n	lex-महिला|cat-n|gen-f|num-pl|pers-3|case-o|vib-0_को|tam-0|chunkId-NP7|chunkType-head|stype-|voicetype-	15	ccof	_	_
19	को	को	PSP	psp	lex-को|cat-psp|gen-|num-|pers-|case-|vib-|tam-|chunkId-NP7|chunkType-child|stype-|voicetype-	18	lwg__psp	_	_
20	टिकट	टिकट	NN	n	lex-टिकट|cat-n|gen-m|num-sg|pers-3|case-d|vib-0|tam-0|chunkId-NP8|chunkType-head|stype-|voicetype-	21	k2	_	_
21	देने	दे	VM	v	lex-दे|cat-v|gen-any|num-any|pers-any|case-o|vib-ना_के_लिए|tam-nA|chunkId-VGNN2|chunkType-head|stype-|voicetype-	24	rt	_	_
22	के	के	PSP	psp	lex-के|cat-psp|gen-|num-|pers-|case-|vib-|tam-|chunkId-VGNN2|chunkType-child|stype-|voicetype-	21	lwg__psp	_	_
23	लिए	लिए	PSP	psp	lex-लिए|cat-psp|gen-|num-|pers-|case-|vib-|tam-|chunkId-VGNN2|chunkType-child|stype-|voicetype-	21	lwg__psp	_	_
24	कहने	कह	VM	v	lex-कह|cat-v|gen-any|num-sg|pers-any|case-o|vib-ना_का|tam-nA|chunkId-VGNN3|chunkType-head|stype-|voicetype-	9	ccof	_	_
25	का	का	PSP	psp	lex-का|cat-psp|gen-m|num-sg|pers-|case-d|vib-|tam-|chunkId-VGNN3|chunkType-child|stype-|voicetype-	24	lwg__psp	_	_
26	मसला	मसला	NN	n	lex-मसला|cat-n|gen-m|num-sg|pers-3|case-d|vib-0|tam-0|chunkId-NP9|chunkType-head|stype-|voicetype-	27	k1	_	_
27	हो	हो	VM	v	lex-हो|cat-v|gen-any|num-any|pers-any|case-|vib-0|tam-0|chunkId-VGF|chunkType-head|stype-declarative|voicetype-active	0	main	_	_
28	।	।	SYM	punc	lex-।|cat-punc|gen-|num-|pers-|case-|vib-|tam-|chunkId-BLK2|chunkType-head|stype-|voicetype-	27	rsym	_	_

1	वहीं	वहीं	RB	adv	lex-वहीं|cat-adv|gen-|num-|pers-|case-|vib-|tam-|chunkId-RBP|chunkType-head|stype-|voicetype-	16	sent-adv	_	_
2	भाजपा	भाजपा	NNP	n	lex-भाजपा|cat-n|gen-f|num-sg|pers-3|case-d|vib-0|tam-0|chunkId-NP|chunkType-child|stype-|voicetype-	3	nmod__adj	_	_
3	अध्यक्ष	अध्यक्ष	NN	n	lex-अध्यक्ष|cat-n|gen-m|num-sg|pers-3|case-o|vib-0_ने|tam-0|chunkId-NP|chunkType-head|stype-|voicetype-	16	k1	_	_
4	ने	ने	PSP	psp	lex-ने|cat-psp|gen-|num-|pers-|case-|vib-|tam-|chunkId-NP|chunkType-child|stype-|voicetype-	3	lwg__psp	_	_
5	यहां	यहाँ	PRP	pn	lex-यहाँ|cat-pn|gen-|num-|pers-|case-d|vib-|tam-|chunkId-NP2|chunkType-head|stype-|voicetype-	13	k7p	_	_
6	संसदीय	संसदीय	JJ	adj	lex-संसदीय|cat-adj|gen-any|num-any|pers-|case-o|vib-|tam-|chunkId-NP3|chunkType-child|stype-|voicetype-	7	nmod__adj	_	_
7	दल	दल	NN	n	lex-दल|cat-n|gen-m|num-sg|pers-3|case-o|vib-0_का|tam-0|chunkId-NP3|chunkType-head|stype-|voicetype-	10	r6	_	_
8	की	का	PSP	psp	lex-का|cat-psp|gen-f|num-sg|pers-|case-o|vib-|tam-|chunkId-NP3|chunkType-child|stype-|voicetype-	7	lwg__psp	_	_
9	साप्ताहिक	साप्ताहिक	JJ	adj	lex-साप्ताहिक|cat-adj|gen-any|num-any|pers-|case-o|vib-|tam-|chunkId-NP4|chunkType-child|stype-|voicetype-	10	nmod__adj	_	_
10	बैठक	बैठक	NN	n	lex-बैठक|cat-n|gen-f|num-sg|pers-3|case-o|vib-0_को|tam-0|chunkId-NP4|chunkType-head|stype-|voicetype-	13	k2	_	_
11	को	को	PSP	psp	lex-को|cat-psp|gen-|num-|pers-|case-|vib-|tam-|chunkId-NP4|chunkType-child|stype-|voicetype-	10	lwg__psp	_	_
12	संबोधित	संबोधित	JJ	adj	lex-संबोधित|cat-adj|gen-any|num-any|pers-|case-|vib-|tam-|chunkId-JJP|chunkType-head|stype-|voicetype-	13	pof	_	_
13	करते	कर	VM	v	lex-कर|cat-v|gen-m|num-sg|pers-any|case-|vib-ता_हो+या|tam-wA|chunkId-VGNF|chunkType-head|stype-|voicetype-	16	vmod	_	_
14	हुए	हो	VAUX	v	lex-हो|cat-v|gen-m|num-sg|pers-any|case-|vib-या|tam-yA|chunkId-VGNF|chunkType-child|stype-|voicetype-	13	lwg__vaux	_	_
15	अफसोस	अफसोस	NN	n	lex-अफसोस|cat-n|gen-m|num-sg|pers-3|case-d|vib-0|tam-0|chunkId-NP5|chunkType-head|stype-|voicetype-	16	k2	_	_
16	जताया	जता	VM	v	lex-जता|cat-v|gen-m|num-sg|pers-any|case-|vib-या|tam-yA|chunkId-VGF|chunkType-head|stype-declarative|voicetype-active	0	main	_	_
17	कि	कि	CC	avy	lex-कि|cat-avy|gen-|num-|pers-|case-|vib-|tam-|chunkId-CCP|chunkType-head|stype-|voicetype-	15	rs	_	_
18	भाजपा	भाजपा	NNP	n	lex-भाजपा|cat-n|gen-f|num-sg|pers-3|case-o|vib-0_का_ओर_से|tam-0|chunkId-NP6|chunkType-head|stype-|voicetype-	27	rd	_	_
19	की	का	PSP	psp	lex-का|cat-psp|gen-f|num-sg|pers-|case-o|vib-|tam-|chunkId-NP6|chunkType-child|stype-|voicetype-	18	lwg__psp	_	_
20	ओर	ओर	NST	nst	lex-ओर|cat-nst|gen-f|num-sg|pers-3|case-o|vib-|tam-|chunkId-NP6|chunkType-child|stype-|voicetype-	18	lwg__psp	_	_
21	से	से	PSP	psp	lex-से|cat-psp|gen-|num-|pers-|case-|vib-|tam-|chunkId-NP6|chunkType-child|stype-|voicetype-	18	lwg__psp	_	_
22	सत्तारूढ़	सत्तारूढ़	JJ	adj	lex-सत्तारूढ़|cat-adj|gen-any|num-any|pers-|case-o|vib-|tam-|chunkId-NP7|chunkType-child|stype-|voicetype-	23	nmod__adj	_	_
23	गठबंधन	गठबंधन	NN	n	lex-गठबंधन|cat-n|gen-m|num-sg|pers-3|case-o|vib-0_को|tam-0|chunkId-NP7|chunkType-head|stype-|voicetype-	27	k4	_	_
24	को	को	PSP	psp	lex-को|cat-psp|gen-|num-|pers-|case-|vib-|tam-|chunkId-NP7|chunkType-child|stype-|voicetype-	23	lwg__psp	_	_
25	ब्लैंक	ब्लैंक	JJ	adj	lex-ब्लैंक|cat-adj|gen-any|num-any|pers-|case-d|vib-|tam-|chunkId-NP8|chunkType-child|stype-|voicetype-	26	nmod__adj	_	_
26	चैक	चैक	NN	n	lex-चैक|cat-n|gen-m|num-sg|pers-3|case-d|vib-0|tam-0|chunkId-NP8|chunkType-head|stype-|voicetype-	27	k2	_	_
27	देने	दे	VM	v	lex-दे|cat-v|gen-any|num-any|pers-any|case-o|vib-ना_के_बावजूद|tam-nA|chunkId-VGNN|chunkType-head|stype-|voicetype-	43	vmod	_	_
28	के	के	PSP	psp	lex-के|cat-psp|gen-|num-|pers-|case-|vib-|tam-|chunkId-VGNN|chunkType-child|stype-|voicetype-	27	lwg__psp	_	_
29	बावजूद	बावजूद	PSP	psp	lex-बावजूद|cat-psp|gen-|num-|pers-|case-|vib-|tam-|chunkId-VGNN|chunkType-child|stype-|voicetype-	27	lwg__psp	_	_
30	दुर्भाग्यवश	दुर्भाग्यवश	RB	adv	lex-दुर्भाग्यवश|cat-adv|gen-|num-|pers-|case-|vib-|tam-|chunkId-RBP2|chunkType-head|stype-|voicetype-	43	adv	_	_
31	वह	वह	PRP	pn	lex-वह|cat-pn|gen-any|num-sg|pers-3|case-d|vib-0|tam-0|chunkId-NP9|chunkType-head|stype-|voicetype-	43	k1	_	_
32	अंदरूनी	अंदरूनी	JJ	adj	lex-अंदरूनी|cat-adj|gen-any|num-any|pers-|case-o|vib-|tam-|chunkId-NP10|chunkType-child|stype-|voicetype-	33	nmod__adj	_	_
33	कलह	कलह	NN	n	lex-कलह|cat-n|gen-f|num-sg|pers-3|case-o|vib-0_का_वजह_से|tam-0|chunkId-NP10|chunkType-head|stype-|voicetype-	43	rh	_	_
34	की	का	PSP	psp	lex-का|cat-psp|gen-f|num-|pers-|case-o|vib-|tam-|chunkId-NP10|chunkType-child|stype-|voicetype-	33	lwg__psp	_	_
35	वजह	वजह	PSP	n	lex-वजह|cat-n|gen-f|num-|pers-|case-o|vib-|tam-|chunkId-NP10|chunkType-child|stype-|voicetype-	33	lwg__psp	_	_
36	से	से	PSP	psp	lex-से|cat-psp|gen-|num-|pers-|case-|vib-|tam-|chunkId-NP10|chunkType-child|stype-|voicetype-	33	lwg__psp	_	_
37	चालू	चालू	JJ	adj	lex-चालू|cat-adj|gen-any|num-any|pers-|case-o|vib-|tam-|chunkId-NP11|chunkType-child|stype-|voicetype-	38	nmod__adj	_	_
38	सत्र	सत्र	NN	n	lex-सत्र|cat-n|gen-m|num-sg|pers-3|case-o|vib-0_में|tam-0|chunkId-NP11|chunkType-head|stype-|voicetype-	43	k7	_	_
39	में	में	PSP	psp	lex-में|cat-psp|gen-|num-|pers-|case-|vib-|tam-|chunkId-NP11|chunkType-child|stype-|voicetype-	38	lwg__psp	_	_
40	विधेयक	विधेयक	NN	n	lex-विधेयक|cat-n|gen-m|num-sg|pers-3|case-d|vib-0|tam-0|chunkId-NP12|chunkType-head|stype-|voicetype-	43	k2	_	_
41	पेश	पेश	JJ	adj	lex-पेश|cat-adj|gen-any|num-any|pers-|case-|vib-|tam-|chunkId-JJP2|chunkType-head|stype-|voicetype-	43	pof	_	_
42	नहीं	नहीं	NEG	avy	lex-नहीं|cat-avy|gen-|num-|pers-|case-|vib-|tam-|chunkId-VGF2|chunkType-child|stype-|voicetype-	43	lwg__neg	_	_
43	कर	कर	VM	v	lex-कर|cat-v|gen-any|num-sg|pers-any|case-|vib-0_सक+या|tam-0|chunkId-VGF2|chunkType-head|stype-declarative|voicetype-active	17	ccof	_	_
44	सका	सक	VAUX	v	lex-सक|cat-v|gen-m|num-sg|pers-any|case-|vib-या|tam-yA|chunkId-VGF2|chunkType-child|stype-|voicetype-	43	lwg__vaux	_	_
45	।	।	SYM	punc	lex-।|cat-punc|gen-|num-|pers-|case-|vib-|tam-|chunkId-BLK|chunkType-head|stype-|voicetype-	16	rsym	_	_

1	उन्होंने	वह	PRP	pn	lex-वह|cat-pn|gen-any|num-sg|pers-3h|case-o|vib-ने|tam-ne|chunkId-NP|chunkType-head|stype-|voicetype-	2	k1	_	_
2	कहा	कह	VM	v	lex-कह|cat-v|gen-m|num-sg|pers-any|case-|vib-या|tam-yA|chunkId-VGF|chunkType-head|stype-declarative|voicetype-active	0	main	_	_
3	कि	कि	CC	avy	lex-कि|cat-avy|gen-|num-|pers-|case-|vib-|tam-|chunkId-CCP|chunkType-head|stype-|voicetype-	2	k2	_	_
4	हम	हम	PRP	pn	lex-हम|cat-pn|gen-any|num-pl|pers-1|case-d|vib-0|tam-0|chunkId-NP2|chunkType-head|stype-|voicetype-	10	k1	_	_
5	इसी	यह	DEM	pn	lex-यह|cat-pn|gen-any|num-sg|pers-3|case-o|vib-|tam-|chunkId-NP3|chunkType-child|stype-|voicetype-	6	nmod__adj	_	_
6	सत्र	सत्र	NN	n	lex-सत्र|cat-n|gen-m|num-sg|pers-3|case-o|vib-0_में|tam-0|chunkId-NP3|chunkType-head|stype-|voicetype-	9	k7	_	_
7	में	में	PSP	psp	lex-में|cat-psp|gen-|num-|pers-|case-|vib-|tam-|chunkId-NP3|chunkType-child|stype-|voicetype-	6	lwg__psp	_	_
8	विधेयक	विधेयक	NN	n	lex-विधेयक|cat-n|gen-m|num-sg|pers-3|case-d|vib-0|tam-0|chunkId-NP4|chunkType-head|stype-|voicetype-	9	k2	_	_
9	लाना	ला	VM	v	lex-ला|cat-v|gen-any|num-any|pers-any|case-o|vib-ना|tam-nA|chunkId-VGNN|chunkType-head|stype-|voicetype-	10	k2	_	_
10	चाहते	चाह	VM	v	lex-चाह|cat-v|gen-m|num-pl|pers-any|case-|vib-ता_था|tam-wA|chunkId-VGF2|chunkType-head|stype-declarative|voicetype-active	13	ccof	_	_
11	थे	था	VAUX	v	lex-था|cat-v|gen-m|num-pl|pers-any|case-|vib-था|tam-WA|chunkId-VGF2|chunkType-child|stype-|voicetype-	10	lwg__vaux	_	_
12	,	COMMA	SYM	punc	lex-COMMA|cat-punc|gen-|num-|pers-|case-|vib-|tam-|chunkId-VGF2|chunkType-child|stype-|voicetype-	10	rsym	_	_
13	लेकिन	लेकिन	CC	avy	lex-लेकिन|cat-avy|gen-|num-|pers-|case-|vib-|tam-|chunkId-CCP2|chunkType-head|stype-|voicetype-	3	ccof	_	_
14	सरकार	सरकार	NN	n	lex-सरकार|cat-n|gen-f|num-sg|pers-3|case-o|vib-0_का|tam-0|chunkId-NP5|chunkType-head|stype-|voicetype-	16	r6	_	_
15	की	का	PSP	psp	lex-का|cat-psp|gen-f|num-sg|pers-|case-o|vib-|tam-|chunkId-NP5|chunkType-child|stype-|voicetype-	14	lwg__psp	_	_
16	विफलता	विफलता	NN	n	lex-विफलता|cat-n|gen-f|num-sg|pers-3|case-o|vib-0_ने|tam-0|chunkId-NP6|chunkType-head|stype-|voicetype-	26	k1	_	_
17	ने	ने	PSP	psp	lex-ने|cat-psp|gen-|num-|pers-|case-|vib-|tam-|chunkId-NP6|chunkType-child|stype-|voicetype-	16	lwg__psp	_	_
18	यूपीए	यूपीए	NNP	n	lex-यूपीए|cat-n|gen-m|num-sg|pers-3|case-o|vib-0|tam-0|chunkId-NP7|chunkType-head|stype-|voicetype-	19	ccof	_	_
19	और	और	CC	avy	lex-और|cat-avy|gen-|num-|pers-|case-|vib-|tam-|chunkId-CCP3|chunkType-head|stype-|voicetype-	21	nmod	_	_
20	कांग्रेस	कांग्रेस	NNP	n	lex-कांग्रेस|cat-n|gen-f|num-sg|pers-3|case-o|vib-0|tam-0|chunkId-NP8|chunkType-head|stype-|voicetype-	19	ccof	_	_
21	दोनों	दो	NN	n	lex-दो|cat-n|gen-any|num-pl|pers-3|case-o|vib-0_का|tam-0|chunkId-NP9|chunkType-head|stype-|voicetype-	23	r6	_	_
22	की	का	PSP	psp	lex-का|cat-psp|gen-f|num-sg|pers-|case-o|vib-|tam-|chunkId-NP9|chunkType-child|stype-|voicetype-	21	lwg__psp	_	_
23	प्रतिबद्धता	प्रतिबद्धता	NN	n	lex-प्रतिबद्धता|cat-n|gen-f|num-sg|pers-3|case-o|vib-0_का|tam-0|chunkId-NP10|chunkType-head|stype-|voicetype-	25	r6-k2	_	_
24	का	का	PSP	psp	lex-का|cat-psp|gen-m|num-sg|pers-|case-d|vib-|tam-|chunkId-NP10|chunkType-child|stype-|voicetype-	23	lwg__psp	_	_
25	खुलासा	खुलासा	NN	n	lex-खुलासा|cat-n|gen-m|num-sg|pers-3|case-d|vib-0|tam-0|chunkId-NP11|chunkType-head|stype-|voicetype-	26	pof	_	_
26	कर	कर	VM	v	lex-कर|cat-v|gen-m|num-sg|pers-3|case-|vib-0_दे+या_है|tam-0|chunkId-VGF3|chunkType-head|stype-declarative|voicetype-active	29	ccof	_	_
27	दिया	दे	VAUX	v	lex-दे|cat-v|gen-m|num-sg|pers-any|case-|vib-या|tam-yA|chunkId-VGF3|chunkType-child|stype-|voicetype-	26	lwg__vaux	_	_
28	है	है	VAUX	v	lex-है|cat-v|gen-any|num-sg|pers-3|case-|vib-है|tam-hE|chunkId-VGF3|chunkType-child|stype-|voicetype-	26	lwg__vaux	_	_
29	और	और	CC	avy	lex-और|cat-avy|gen-|num-|pers-|case-|vib-|tam-|chunkId-CCP4|chunkType-head|stype-|voicetype-	13	ccof	_	_
30	लोगों	लोग	NN	n	lex-लोग|cat-n|gen-m|num-pl|pers-3|case-o|vib-0_को|tam-0|chunkId-NP12|chunkType-head|stype-|voicetype-	32	k4	_	_
31	को	को	PSP	psp	lex-को|cat-psp|gen-|num-|pers-|case-|vib-|tam-|chunkId-NP12|chunkType-child|stype-|voicetype-	30	lwg__psp	_	_
32	बता	बता	VM	v	lex-बता|cat-v|gen-m|num-sg|pers-3|case-|vib-0_दे+या_है|tam-0|chunkId-VGF4|chunkType-head|stype-declarative|voicetype-active	29	ccof	_	_
33	दिया	दे	VAUX	v	lex-दे|cat-v|gen-m|num-sg|pers-any|case-|vib-या|tam-yA|chunkId-VGF4|chunkType-child|stype-|voicetype-	32	lwg__vaux	_	_
34	है	है	VAUX	v	lex-है|cat-v|gen-any|num-sg|pers-3|case-|vib-है|tam-hE|chunkId-VGF4|chunkType-child|stype-|voicetype-	32	lwg__vaux	_	_
35	कि	कि	CC	avy	lex-कि|cat-avy|gen-|num-|pers-|case-|vib-|tam-|chunkId-CCP5|chunkType-head|stype-|voicetype-	32	k2	_	_
36	महिला	महिला	NNC	n	lex-महिला|cat-n|gen-f|num-sg|pers-3|case-d|vib-0|tam-0|chunkId-NP13|chunkType-child|stype-|voicetype-	37	pof__cn	_	_
37	आरक्षण	आरक्षण	NN	n	lex-आरक्षण|cat-n|gen-m|num-sg|pers-3|case-o|vib-0_को|tam-0|chunkId-NP13|chunkType-head|stype-|voicetype-	39	k2	_	_
38	को	को	PSP	psp	lex-को|cat-psp|gen-|num-|pers-|case-|vib-|tam-|chunkId-NP13|chunkType-child|stype-|voicetype-	37	lwg__psp	_	_
39	लेकर	ले	VM	v	lex-ले|cat-v|gen-any|num-any|pers-any|case-|vib-कर|tam-kara|chunkId-VGNF|chunkType-head|stype-|voicetype-	45	vmod	_	_
40	वह	वह	PRP	pn	lex-वह|cat-pn|gen-any|num-sg|pers-3|case-d|vib-0|tam-0|chunkId-NP14|chunkType-head|stype-|voicetype-	45	k1	_	_
41	केवल	केवल	RP	avy	lex-केवल|cat-avy|gen-|num-|pers-|case-|vib-|tam-|chunkId-NP15|chunkType-child|stype-|voicetype-	43	lwg__rp	_	_
42	जबानी	जबानी	JJ	adj	lex-जबानी|cat-adj|gen-any|num-any|pers-|case-d|vib-|tam-|chunkId-NP15|chunkType-child|stype-|voicetype-	43	nmod__adj	_	_
43	बातें	बात	NN	n	lex-बात|cat-n|gen-f|num-pl|pers-3|case-d|vib-0|tam-0|chunkId-NP15|chunkType-head|stype-|voicetype-	45	pof	_	_
44	ही	ही	RP	avy	lex-ही|cat-avy|gen-|num-|pers-|case-|vib-|tam-|chunkId-NP15|chunkType-child|stype-|voicetype-	43	lwg__rp	_	_
45	कर	कर	VM	v	lex-कर|cat-v|gen-m|num-pl|pers-3|case-|vib-0_रह+या_है|tam-0|chunkId-VGF5|chunkType-head|stype-declarative|voicetype-active	35	ccof	_	_
46	रहे	रह	VAUX	v	lex-रह|cat-v|gen-m|num-pl|pers-any|case-|vib-या|tam-yA|chunkId-VGF5|chunkType-child|stype-|voicetype-	45	lwg__vaux	_	_
47	हैं	है	VAUX	v	lex-है|cat-v|gen-any|num-pl|pers-3|case-|vib-है|tam-hE|chunkId-VGF5|chunkType-child|stype-|voicetype-	45	lwg__vaux	_	_
48	।	।	SYM	punc	lex-।|cat-punc|gen-|num-|pers-|case-|vib-|tam-|chunkId-BLK|chunkType-head|stype-|voicetype-	2	rsym	_	_

1	पूर्व	पूर्व	JJ	adj	lex-पूर्व|cat-adj|gen-any|num-any|pers-|case-o|vib-|tam-|chunkId-NP|chunkType-child|stype-|voicetype-	3	nmod__adj	_	_
2	प्रधानमंत्री	प्रधानमंत्री	NNP	n	lex-प्रधानमंत्री|cat-n|gen-m|num-sg|pers-3|case-d|vib-0|tam-0|chunkId-NP|chunkType-child|stype-|voicetype-	5	nmod__adj	_	_
3	अटल	अटल	NNPC	n	lex-अटल|cat-n|gen-m|num-sg|pers-3|case-d|vib-0|tam-0|chunkId-NP|chunkType-child|stype-|voicetype-	5	pof__cn	_	_
4	बिहारी	बिहारी	NNPC	n	lex-बिहारी|cat-n|gen-m|num-sg|pers-3|case-d|vib-0|tam-0|chunkId-NP|chunkType-child|stype-|voicetype-	5	pof__cn	_	_
5	वाजपेयी	वाजपेयी	NNP	n	lex-वाजपेयी|cat-n|gen-m|num-sg|pers-3|case-o|vib-0_का|tam-0|chunkId-NP|chunkType-head|stype-|voicetype-	7	r6	_	_
6	की	का	PSP	psp	lex-का|cat-psp|gen-f|num-sg|pers-|case-o|vib-|tam-|chunkId-NP|chunkType-child|stype-|voicetype-	5	lwg__psp	_	_
7	अध्यक्षता	अध्यक्षता	NN	n	lex-अध्यक्षता|cat-n|gen-f|num-sg|pers-3|case-o|vib-0_में|tam-0|chunkId-NP2|chunkType-head|stype-|voicetype-	9	jjmod	_	_
8	में	में	PSP	psp	lex-में|cat-psp|gen-|num-|pers-|case-|vib-|tam-|chunkId-NP2|chunkType-child|stype-|voicetype-	7	lwg__psp	_	_
9	आयोजित	आयोजित	JJ	adj	lex-आयोजित|cat-adj|gen-any|num-any|pers-|case-o|vib-|tam-|chunkId-JJP|chunkType-head|stype-|voicetype-	11	nmod	_	_
10	इस	यह	DEM	pn	lex-यह|cat-pn|gen-any|num-sg|pers-3|case-o|vib-|tam-|chunkId-NP3|chunkType-child|stype-|voicetype-	11	nmod__adj	_	_
11	बैठक	बैठक	NN	n	lex-बैठक|cat-n|gen-f|num-sg|pers-3|case-o|vib-0_में|tam-0|chunkId-NP3|chunkType-head|stype-|voicetype-	28	k7	_	_
12	में	में	PSP	psp	lex-में|cat-psp|gen-|num-|pers-|case-|vib-|tam-|chunkId-NP3|chunkType-child|stype-|voicetype-	11	lwg__psp	_	_
13	हाल	हाल	NN	n	lex-हाल|cat-n|gen-m|num-sg|pers-3|case-o|vib-0_में|tam-0|chunkId-NP4|chunkType-head|stype-|voicetype-	28	k7	_	_
14	ही	ही	RP	avy	lex-ही|cat-avy|gen-|num-|pers-|case-|vib-|tam-|chunkId-NP4|chunkType-child|stype-|voicetype-	13	lwg__rp	_	_
15	में	में	PSP	psp	lex-में|cat-psp|gen-|num-|pers-|case-|vib-|tam-|chunkId-NP4|chunkType-child|stype-|voicetype-	13	lwg__psp	_	_
16	राजस्थान	राजस्थान	NNP	n	lex-राजस्थान|cat-n|gen-m|num-sg|pers-3|case-o|vib-0_में|tam-0|chunkId-NP5|chunkType-head|stype-|voicetype-	28	k7p	_	_
17	में	में	PSP	psp	lex-में|cat-psp|gen-|num-|pers-|case-|vib-|tam-|chunkId-NP5|chunkType-child|stype-|voicetype-	16	lwg__psp	_	_
18	संघ	संघ	NNPC	n	lex-संघ|cat-n|gen-m|num-sg|pers-3|case-d|vib-0|tam-0|chunkId-NP6|chunkType-child|stype-|voicetype-	20	pof__cn	_	_
19	पंचायत	पंचायत	NNPC	n	lex-पंचायत|cat-n|gen-f|num-sg|pers-3|case-d|vib-0|tam-0|chunkId-NP6|chunkType-child|stype-|voicetype-	20	pof__cn	_	_
20	समिति	समिति	NNP	n	lex-समिति|cat-n|gen-f|num-sg|pers-3|case-o|vib-0_का|tam-0|chunkId-NP6|chunkType-head|stype-|voicetype-	22	r6	_	_
21	के	का	PSP	psp	lex-का|cat-psp|gen-m|num-pl|pers-|case-o|vib-|tam-|chunkId-NP6|chunkType-child|stype-|voicetype-	20	lwg__psp	_	_
22	चुनावों	चुनाव	NN	n	lex-चुनाव|cat-n|gen-m|num-pl|pers-3|case-o|vib-0_का|tam-0|chunkId-NP7|chunkType-head|stype-|voicetype-	24	r6	_	_
23	के	का	PSP	psp	lex-का|cat-psp|gen-m|num-pl|pers-|case-o|vib-|tam-|chunkId-NP7|chunkType-child|stype-|voicetype-	22	lwg__psp	_	_
24	नतीजों	नतीजा	NN	n	lex-नतीजा|cat-n|gen-m|num-pl|pers-3|case-o|vib-0_पर|tam-0|chunkId-NP8|chunkType-head|stype-|voicetype-	28	k7	_	_
25	पर	पर	PSP	psp	lex-पर|cat-psp|gen-|num-|pers-|case-|vib-|tam-|chunkId-NP8|chunkType-child|stype-|voicetype-	24	lwg__psp	_	_
26	प्रसन्नता	प्रसन्नता	NN	n	lex-प्रसन्नता|cat-n|gen-f|num-sg|pers-3|case-d|vib-0|tam-0|chunkId-NP9|chunkType-head|stype-|voicetype-	28	k1	_	_
27	जाहिर	जाहिर	JJ	adj	lex-जाहिर|cat-adj|gen-any|num-any|pers-|case-|vib-|tam-|chunkId-JJP2|chunkType-head|stype-|voicetype-	28	pof	_	_
28	की	कर	VM	v	lex-कर|cat-v|gen-f|num-sg|pers-any|case-|vib-या_जा+या१|tam-yA|chunkId-VGF|chunkType-head|stype-declarative|voicetype-active	0	main	_	_
29	गई	जा	VAUX	v	lex-जा|cat-v|gen-f|num-sg|pers-any|case-|vib-या१|tam-yA1|chunkId-VGF|chunkType-child|stype-|voicetype-	28	lwg__vaux	_	_
30	।	।	SYM	punc	lex-।|cat-punc|gen-|num-|pers-|case-|vib-|tam-|chunkId-BLK|chunkType-head|stype-|voicetype-	28	rsym	_	_

1	जिसमें	जो	PRP	pn	lex-जो|cat-pn|gen-any|num-sg|pers-3|case-o|vib-में|tam-meM|chunkId-NP|chunkType-head|stype-|voicetype-	13	k7	_	_
2	कुल	कुल	QF	avy	lex-कुल|cat-avy|gen-|num-|pers-|case-|vib-|tam-|chunkId-NP2|chunkType-child|stype-|voicetype-	4	nmod__adj	_	_
3	१२६	१२६	QC	num	lex-१२६|cat-num|gen-any|num-any|pers-|case-any|vib-|tam-|chunkId-NP2|chunkType-child|stype-|voicetype-	4	nmod__adj	_	_
4	सीटों	सीट	NN	n	lex-सीट|cat-n|gen-f|num-pl|pers-3|case-o|vib-0_में_से|tam-0|chunkId-NP2|chunkType-head|stype-|voicetype-	13	k5	_	_
5	में	में	PSP	psp	lex-में|cat-psp|gen-|num-|pers-|case-|vib-|tam-|chunkId-NP2|chunkType-child|stype-|voicetype-	4	lwg__psp	_	_
6	से	से	PSP	psp	lex-से|cat-psp|gen-|num-|pers-|case-|vib-|tam-|chunkId-NP2|chunkType-child|stype-|voicetype-	4	lwg__psp	_	_
7	पार्टी	पार्टी	NN	n	lex-पार्टी|cat-n|gen-f|num-sg|pers-3|case-o|vib-0_का|tam-0|chunkId-NP3|chunkType-head|stype-|voicetype-	9	r6	_	_
8	के	का	PSP	psp	lex-का|cat-psp|gen-m|num-sg|pers-|case-o|vib-|tam-|chunkId-NP3|chunkType-child|stype-|voicetype-	7	lwg__psp	_	_
9	खाते	खाता	NN	n	lex-खाता|cat-n|gen-m|num-sg|pers-3|case-o|vib-0_में|tam-0|chunkId-NP4|chunkType-head|stype-|voicetype-	13	k7	_	_
10	में	में	PSP	psp	lex-में|cat-psp|gen-|num-|pers-|case-|vib-|tam-|chunkId-NP4|chunkType-child|stype-|voicetype-	9	lwg__psp	_	_
11	८१	८१	QC	num	lex-८१|cat-num|gen-any|num-any|pers-|case-any|vib-|tam-|chunkId-NP5|chunkType-head|stype-|voicetype-	13	k1	_	_
12	,	COMMA	SYM	punc	lex-COMMA|cat-punc|gen-|num-|pers-|case-|vib-|tam-|chunkId-NP5|chunkType-child|stype-|voicetype-	11	rsym	_	_
13	NULL	_	VM	_	lex-_|cat-_|gen-|num-|pers-|case-|vib-|tam-|chunkId-NULL__VGF|chunkType-head|stype-|voicetype-	18	ccof	_	_
14	कांग्रेस	कांग्रेस	NNP	n	lex-कांग्रेस|cat-n|gen-f|num-sg|pers-3|case-o|vib-0_को|tam-0|chunkId-NP6|chunkType-head|stype-|voicetype-	17	k4	_	_
15	को	को	PSP	psp	lex-को|cat-psp|gen-|num-|pers-|case-|vib-|tam-|chunkId-NP6|chunkType-child|stype-|voicetype-	14	lwg__psp	_	_
16	२३	२३	QC	num	lex-२३|cat-num|gen-any|num-any|pers-|case-any|vib-|tam-|chunkId-NP7|chunkType-head|stype-|voicetype-	17	k1	_	_
17	NULL	_	VM	_	lex-_|cat-_|gen-|num-|pers-|case-|vib-|tam-|chunkId-NULL__VGF2|chunkType-head|stype-|voicetype-	18	ccof	_	_
18	और	और	CC	avy	lex-और|cat-avy|gen-|num-|pers-|case-|vib-|tam-|chunkId-CCP|chunkType-head|stype-|voicetype-	0	main	_	_
19	निर्दलीय	निर्दलीय	JJ	adj	lex-निर्दलीय|cat-adj|gen-any|num-any|pers-|case-o|vib-|tam-|chunkId-NP8|chunkType-child|stype-|voicetype-	20	nmod__adj	_	_
20	उम्मीदवारों	उम्मीदवार	NN	n	lex-उम्मीदवार|cat-n|gen-m|num-pl|pers-3|case-o|vib-0_को|tam-0|chunkId-NP8|chunkType-head|stype-|voicetype-	24	k4	_	_
21	को	को	PSP	psp	lex-को|cat-psp|gen-|num-|pers-|case-|vib-|tam-|chunkId-NP8|chunkType-child|stype-|voicetype-	20	lwg__psp	_	_
22	१२	१२	QC	num	lex-१२|cat-num|gen-any|num-any|pers-|case-any|vib-|tam-|chunkId-NP9|chunkType-child|stype-|voicetype-	23	nmod__adj	_	_
23	सीटें	सीट	NN	n	lex-सीट|cat-n|gen-f|num-pl|pers-3|case-d|vib-0|tam-0|chunkId-NP9|chunkType-head|stype-|voicetype-	24	k1	_	_
24	मिली	मिल	VM	v	lex-मिल|cat-v|gen-f|num-pl|pers-3|case-|vib-या_है|tam-yA|chunkId-VGF|chunkType-head|stype-declarative|voicetype-active	18	ccof	_	_
25	हैं	है	VAUX	v	lex-है|cat-v|gen-any|num-pl|pers-3|case-|vib-है|tam-hE|chunkId-VGF|chunkType-child|stype-|voicetype-	24	lwg__vaux	_	_
26	।	।	SYM	punc	lex-।|cat-punc|gen-|num-|pers-|case-|vib-|tam-|chunkId-BLK|chunkType-head|stype-|voicetype-	18	rsym	_	_

