1	पाकिस्तानियों	पाकिस्तानी	NN	n	lex-पाकिस्तानी|cat-n|gen-m|num-pl|pers-3|case-o|vib-0_द्वारा|tam-0|chunkId-NP|chunkType-head|stype-|voicetype-	14	k1	_	_
2	द्वारा	द्वारा	PSP	psp	lex-द्वारा|cat-psp|gen-|num-|pers-|case-|vib-|tam-|chunkId-NP|chunkType-child|stype-|voicetype-	1	lwg__psp	_	_
3	जम्मू	जम्मू	NNPC	n	lex-जम्मू|cat-n|gen-m|num-sg|pers-3|case-d|vib-0|tam-0|chunkId-NP2|chunkType-child|stype-|voicetype-	5	pof__cn	_	_
4	-JOIN	-	SYM	punc	lex--|cat-punc|gen-|num-|pers-|case-|vib-|tam-|chunkId-NP2|chunkType-child|stype-|voicetype-	5	rsym	_	_
5	कश्मीर	कश्मीर	NNP	n	lex-कश्मीर|cat-n|gen-m|num-sg|pers-3|case-o|vib-0_में|tam-0|chunkId-NP2|chunkType-head|stype-|voicetype-	14	k7p	_	_
6	में	में	PSP	psp	lex-में|cat-psp|gen-|num-|pers-|case-|vib-|tam-|chunkId-NP2|chunkType-child|stype-|voicetype-	5	lwg__psp	_	_
7	भारतीय	भारतीय	JJ	adj	lex-भारतीय|cat-adj|gen-any|num-any|pers-|case-d|vib-|tam-|chunkId-NP3|chunkType-child|stype-|voicetype-	8	nmod__adj	_	_
8	नागरिकता	नागरिकता	NN	n	lex-नागरिकता|cat-n|gen-f|num-sg|pers-3|case-d|vib-0|tam-0|chunkId-NP3|chunkType-head|stype-|voicetype-	10	k2	_	_
9	हासिल	हासिल	JJ	adj	lex-हासिल|cat-adj|gen-any|num-any|pers-|case-|vib-|tam-|chunkId-JJP|chunkType-head|stype-|voicetype-	10	pof	_	_
10	कर	कर	VM	v	lex-कर|cat-v|gen-any|num-any|pers-any|case-|vib-0|tam-0|chunkId-VGNF|chunkType-head|stype-|voicetype-	14	vmod	_	_
11	जमीन	जमीन	NNC	n	lex-जमीन|cat-n|gen-f|num-sg|pers-3|case-d|vib-0|tam-0|chunkId-NP4|chunkType-child|stype-|voicetype-	13	pof__cn	_	_
12	-JOIN	-झौईण्	SYM	punc	lex--झौईण्|cat-punc|gen-|num-|pers-|case-|vib-|tam-|chunkId-NP4|chunkType-child|stype-|voicetype-	13	pof__cn	_	_
13	जायदाद	जायदाद	NN	n	lex-जायदाद|cat-n|gen-f|num-sg|pers-3|case-d|vib-0|tam-0|chunkId-NP4|chunkType-head|stype-|voicetype-	14	k2	_	_
14	खरीदने	खरीद	VM	v	lex-खरीद|cat-v|gen-any|num-pl|pers-any|case-o|vib-ना_का|tam-nA|chunkId-VGNN|chunkType-head|stype-|voicetype-	16	r6	_	_
15	के	का	PSP	psp	lex-का|cat-psp|gen-m|num-pl|pers-|case-d|vib-|tam-|chunkId-VGNN|chunkType-child|stype-|voicetype-	14	lwg__psp	_	_
16	मामले	मामला	NN	n	lex-मामला|cat-n|gen-m|num-pl|pers-3|case-d|vib-0|tam-0|chunkId-NP5|chunkType-head|stype-|voicetype-	19	k1	_	_
17	प्रकाश	प्रकाश	NN	n	lex-प्रकाश|cat-n|gen-m|num-sg|pers-3|case-o|vib-0_में|tam-0|chunkId-NP6|chunkType-head|stype-|voicetype-	19	k7	_	_
18	में	में	PSP	psp	lex-में|cat-psp|gen-|num-|pers-|case-|vib-|tam-|chunkId-NP6|chunkType-child|stype-|voicetype-	17	lwg__psp	_	_
19	आए	आ	VM	v	lex-आ|cat-v|gen-m|num-pl|pers-3|case-|vib-या_है|tam-yA|chunkId-VGF|chunkType-head|stype-declarative|voicetype-active	0	main	_	_
20	हैं	है	VAUX	v	lex-है|cat-v|gen-any|num-pl|pers-3|case-|vib-है|tam-hE|chunkId-VGF|chunkType-child|stype-|voicetype-	19	lwg__vaux	_	_
21	.	.	SYM	punc	lex-.|cat-punc|gen-|num-|pers-|case-|vib-|tam-|chunkId-BLK|chunkType-head|stype-|voicetype-	19	rsym	_	_

1	ऐसे	ऐसा	DEM	pn	lex-ऐसा|cat-pn|gen-m|num-pl|pers-3|case-d|vib-|tam-|chunkId-NP|chunkType-child|stype-|voicetype-	4	nmod__adj	_	_
2	आधा	आधा	QF	num	lex-आधा|cat-num|gen-m|num-pl|pers-|case-d|vib-|tam-|chunkId-NP|chunkType-child|stype-|voicetype-	4	nmod__adj	_	_
3	दर्जन	दर्जन	NN	n	lex-दर्जन|cat-n|gen-m|num-sg|pers-3|case-d|vib-0|tam-0|chunkId-NP|chunkType-child|stype-|voicetype-	4	nmod	_	_
4	मामले	मामला	NN	n	lex-मामला|cat-n|gen-m|num-pl|pers-3|case-d|vib-0|tam-0|chunkId-NP|chunkType-head|stype-|voicetype-	7	k1	_	_
5	प्रकाश	प्रकाश	NN	n	lex-प्रकाश|cat-n|gen-m|num-sg|pers-3|case-o|vib-0_में|tam-0|chunkId-NP2|chunkType-head|stype-|voicetype-	7	k7	_	_
6	में	में	PSP	psp	lex-में|cat-psp|gen-|num-|pers-|case-|vib-|tam-|chunkId-NP2|chunkType-child|stype-|voicetype-	5	lwg__psp	_	_
7	आए	आ	VM	v	lex-आ|cat-v|gen-m|num-pl|pers-3|case-|vib-या_है|tam-yA|chunkId-VGF|chunkType-head|stype-declarative|voicetype-active	0	main	_	_
8	हैं	है	VAUX	v	lex-है|cat-v|gen-any|num-pl|pers-3|case-|vib-है|tam-hE|chunkId-VGF|chunkType-child|stype-|voicetype-	7	lwg__vaux	_	_
9	जिनमें	जो	PRP	pn	lex-जो|cat-pn|gen-any|num-pl|pers-3|case-o|vib-में|tam-meM|chunkId-NP3|chunkType-head|stype-|voicetype-	25	k7	_	_
10	पाकिस्तानियों	पाकिस्तानी	NN	n	lex-पाकिस्तानी|cat-n|gen-m|num-pl|pers-3|case-o|vib-0_ने|tam-0|chunkId-NP4|chunkType-head|stype-|voicetype-	25	k1	_	_
11	ने	ने	PSP	psp	lex-ने|cat-psp|gen-|num-|pers-|case-|vib-|tam-|chunkId-NP4|chunkType-child|stype-|voicetype-	10	lwg__psp	_	_
12	जम्मू	जम्मू	NNPC	n	lex-जम्मू|cat-n|gen-m|num-sg|pers-3|case-d|vib-0|tam-0|chunkId-NP5|chunkType-child|stype-|voicetype-	14	pof__cn	_	_
13	-	-	SYM	punc	lex--|cat-punc|gen-|num-|pers-|case-|vib-|tam-|chunkId-NP5|chunkType-child|stype-|voicetype-	14	rsym	_	_
14	कश्मीर	कश्मीर	NNP	n	lex-कश्मीर|cat-n|gen-m|num-sg|pers-3|case-o|vib-0_में|tam-0|chunkId-NP5|chunkType-head|stype-|voicetype-	25	k7p	_	_
15	में	में	PSP	psp	lex-में|cat-psp|gen-|num-|pers-|case-|vib-|tam-|chunkId-NP5|chunkType-child|stype-|voicetype-	14	lwg__psp	_	_
16	स्थायी	स्थायी	JJ	adj	lex-स्थायी|cat-adj|gen-any|num-any|pers-|case-o|vib-|tam-|chunkId-NP6|chunkType-child|stype-|voicetype-	17	nmod__adj	_	_
17	निवासी	निवासी	NN	n	lex-निवासी|cat-n|gen-m|num-sg|pers-3|case-o|vib-0_का|tam-0|chunkId-NP6|chunkType-head|stype-|voicetype-	19	r6	_	_
18	का	का	PSP	psp	lex-का|cat-psp|gen-m|num-sg|pers-|case-d|vib-|tam-|chunkId-NP6|chunkType-child|stype-|voicetype-	17	lwg__psp	_	_
19	प्रमाण	प्रमाण	NN	n	lex-प्रमाण|cat-n|gen-m|num-sg|pers-3|case-d|vib-0|tam-0|chunkId-NP7|chunkType-head|stype-|voicetype-	21	k2	_	_
20	हासिल	हासिल	JJ	adj	lex-हासिल|cat-adj|gen-any|num-any|pers-|case-|vib-|tam-|chunkId-JJP|chunkType-head|stype-|voicetype-	21	pof	_	_
21	कर	कर	VM	v	lex-कर|cat-v|gen-any|num-any|pers-any|case-|vib-0|tam-0|chunkId-VGNF|chunkType-head|stype-|voicetype-	25	vmod	_	_
22	जमीन	जमीन	NNC	n	lex-जमीन|cat-n|gen-f|num-sg|pers-3|case-d|vib-0|tam-0|chunkId-NP8|chunkType-child|stype-|voicetype-	24	pof__cn	_	_
23	-	-	SYM	punc	lex--|cat-punc|gen-|num-|pers-|case-|vib-|tam-|chunkId-NP8|chunkType-child|stype-|voicetype-	24	pof__cn	_	_
24	जायदाद	जायदाद	NN	n	lex-जायदाद|cat-n|gen-f|num-sg|pers-3|case-d|vib-0|tam-0|chunkId-NP8|chunkType-head|stype-|voicetype-	25	k2	_	_
25	खरीदी	खरीद	VM	v	lex-खरीद|cat-v|gen-f|num-sg|pers-3|case-|vib-या|tam-yA|chunkId-VGF2|chunkType-head|stype-declarative|voicetype-active	4	nmod__relc	_	_
26	.	.	SYM	punc	lex-.|cat-punc|gen-|num-|pers-|case-|vib-|tam-|chunkId-BLK|chunkType-head|stype-|voicetype-	7	rsym	_	_

1	आधिकारिक	आधिकारिक	JJ	adj	lex-आधिकारिक|cat-adj|gen-any|num-any|pers-|case-o|vib-|tam-|chunkId-NP|chunkType-child|stype-|voicetype-	2	nmod__adj	_	_
2	सूत्रों	सूत्र	NN	n	lex-सूत्र|cat-n|gen-m|num-pl|pers-3|case-o|vib-0_ने|tam-0|chunkId-NP|chunkType-head|stype-|voicetype-	4	k1	_	_
3	ने	ने	PSP	psp	lex-ने|cat-psp|gen-|num-|pers-|case-|vib-|tam-|chunkId-NP|chunkType-child|stype-|voicetype-	2	lwg__psp	_	_
4	बताया	बता	VM	v	lex-बता|cat-v|gen-m|num-sg|pers-3|case-|vib-या|tam-yA|chunkId-VGF|chunkType-head|stype-declarative|voicetype-active	0	main	_	_
5	कि	कि	CC	avy	lex-कि|cat-avy|gen-|num-|pers-|case-|vib-|tam-|chunkId-CCP|chunkType-head|stype-|voicetype-	4	k2	_	_
6	इन	यह	DEM	pn	lex-यह|cat-pn|gen-any|num-pl|pers-3|case-o|vib-|tam-|chunkId-NP2|chunkType-child|stype-|voicetype-	7	nmod__adj	_	_
7	पाकिस्तानियों	पाकिस्तानी	NN	n	lex-पाकिस्तानी|cat-n|gen-m|num-pl|pers-3|case-o|vib-0_ने|tam-0|chunkId-NP2|chunkType-head|stype-|voicetype-	18	k1	_	_
8	ने	ने	PSP	psp	lex-ने|cat-psp|gen-|num-|pers-|case-|vib-|tam-|chunkId-NP2|chunkType-child|stype-|voicetype-	7	lwg__psp	_	_
9	पंजाब	पंजाब	NNP	n	lex-पंजाब|cat-n|gen-m|num-sg|pers-3|case-o|vib-0_का|tam-0|chunkId-NP3|chunkType-head|stype-|voicetype-	12	r6	_	_
10	के	का	PSP	psp	lex-का|cat-psp|gen-m|num-sg|pers-|case-o|vib-|tam-|chunkId-NP3|chunkType-child|stype-|voicetype-	9	lwg__psp	_	_
11	वाघा	वाघा	NNPC	n	lex-वाघा|cat-n|gen-m|num-sg|pers-3|case-d|vib-0|tam-0|chunkId-NP4|chunkType-child|stype-|voicetype-	12	pof__cn	_	_
12	बॉर्डर	बॉर्डर	NNP	n	lex-बॉर्डर|cat-n|gen-m|num-sg|pers-3|case-d|vib-0|tam-0|chunkId-NP4|chunkType-head|stype-|voicetype-	13	k5	_	_
13	होते	हो	VM	v	lex-हो|cat-v|gen-any|num-sg|pers-any|case-|vib-ता_हो+या|tam-wA|chunkId-VGNF|chunkType-head|stype-|voicetype-	18	vmod	_	_
14	हुए	हो	VAUX	v	lex-हो|cat-v|gen-m|num-sg|pers-any|case-|vib-या|tam-yA|chunkId-VGNF|chunkType-child|stype-|voicetype-	13	lwg__vaux	_	_
15	भारत	भारत	NNP	n	lex-भारत|cat-n|gen-m|num-sg|pers-3|case-o|vib-0_में|tam-0|chunkId-NP5|chunkType-head|stype-|voicetype-	18	k7p	_	_
16	में	में	PSP	psp	lex-में|cat-psp|gen-|num-|pers-|case-|vib-|tam-|chunkId-NP5|chunkType-child|stype-|voicetype-	15	lwg__psp	_	_
17	प्रवेश	प्रवेश	NN	n	lex-प्रवेश|cat-n|gen-m|num-sg|pers-3|case-d|vib-0|tam-0|chunkId-NP6|chunkType-head|stype-|voicetype-	18	pof	_	_
18	किया	कर	VM	v	lex-कर|cat-v|gen-m|num-sg|pers-3|case-|vib-या_था|tam-yA|chunkId-VGF2|chunkType-head|stype-declarative|voicetype-active	5	ccof	_	_
19	था	था	VAUX	v	lex-था|cat-v|gen-m|num-sg|pers-3|case-|vib-था|tam-WA|chunkId-VGF2|chunkType-child|stype-|voicetype-	18	lwg__vaux	_	_
20	.	.	SYM	punc	lex-.|cat-punc|gen-|num-|pers-|case-|vib-|tam-|chunkId-BLK|chunkType-head|stype-|voicetype-	4	rsym	_	_

1	कश्मीर	कश्मीर	NNP	n	lex-कश्मीर|cat-n|gen-m|num-sg|pers-3|case-d|vib-0|tam-0|chunkId-NP|chunkType-head|stype-|voicetype-	2	k2p	_	_
2	आकर	आ	VM	v	lex-आ|cat-v|gen-any|num-any|pers-any|case-|vib-कर|tam-kara|chunkId-VGNF|chunkType-head|stype-|voicetype-	14	vmod	_	_
3	उन्होंने	वह	PRP	pn	lex-वह|cat-pn|gen-any|num-pl|pers-3|case-o|vib-ने|tam-ne|chunkId-NP2|chunkType-head|stype-|voicetype-	14	k1	_	_
4	अधिकारियों	अधिकारी	NN	n	lex-अधिकारी|cat-n|gen-m|num-pl|pers-3|case-o|vib-0_का|tam-0|chunkId-NP3|chunkType-head|stype-|voicetype-	6	r6	_	_
5	की	का	PSP	psp	lex-का|cat-psp|gen-f|num-sg|pers-|case-o|vib-|tam-|chunkId-NP3|chunkType-child|stype-|voicetype-	4	lwg__psp	_	_
6	मिलीभगत	मिलीभगत	NN	n	lex-मिलीभगत|cat-n|gen-f|num-sg|pers-3|case-o|vib-0_से|tam-0|chunkId-NP4|chunkType-head|stype-|voicetype-	14	k3	_	_
7	से	से	PSP	psp	lex-से|cat-psp|gen-|num-|pers-|case-|vib-|tam-|chunkId-NP4|chunkType-child|stype-|voicetype-	6	lwg__psp	_	_
8	स्थायी	स्थायी	JJ	adj	lex-स्थायी|cat-adj|gen-any|num-any|pers-|case-d|vib-|tam-|chunkId-NP5|chunkType-child|stype-|voicetype-	9	nmod__adj	_	_
9	निवासी	निवासी	NN	n	lex-निवासी|cat-n|gen-m|num-sg|pers-3|case-d|vib-0|tam-0|chunkId-NP5|chunkType-head|stype-|voicetype-	10	pof	_	_
10	होने	हो	VM	v	lex-हो|cat-v|gen-any|num-sg|pers-any|case-o|vib-ना_का|tam-nA|chunkId-VGNN|chunkType-head|stype-|voicetype-	12	r6	_	_
11	का	का	PSP	psp	lex-का|cat-psp|gen-m|num-sg|pers-|case-d|vib-|tam-|chunkId-VGNN|chunkType-child|stype-|voicetype-	10	lwg__psp	_	_
12	प्रमाण	प्रमाण	NN	n	lex-प्रमाण|cat-n|gen-m|num-sg|pers-3|case-d|vib-0|tam-0|chunkId-NP6|chunkType-head|stype-|voicetype-	14	k2	_	_
13	हासिल	हासिल	JJ	adj	lex-हासिल|cat-adj|gen-any|num-any|pers-|case-|vib-|tam-|chunkId-JJP|chunkType-head|stype-|voicetype-	14	pof	_	_
14	किया	कर	VM	v	lex-कर|cat-v|gen-m|num-sg|pers-3|case-|vib-या|tam-yA|chunkId-VGF|chunkType-head|stype-declarative|voicetype-active	0	main	_	_
15	.	.	SYM	punc	lex-.|cat-punc|gen-|num-|pers-|case-|vib-|tam-|chunkId-BLK|chunkType-head|stype-|voicetype-	14	rsym	_	_

1	इसके	यह	PRP	pn	lex-यह|cat-pn|gen-any|num-sg|pers-3|case-o|vib-0_बाद|tam-ke|chunkId-NP|chunkType-head|stype-|voicetype-	8	k7t	_	_
2	बाद	बाद	NST	nst	lex-बाद|cat-nst|gen-m|num-sg|pers-3|case-d|vib-|tam-|chunkId-NP|chunkType-child|stype-|voicetype-	1	lwg__psp	_	_
3	यहां	यहाँ	PRP	pn	lex-यहाँ|cat-pn|gen-|num-|pers-|case-d|vib-|tam-|chunkId-NP2|chunkType-head|stype-|voicetype-	8	k7p	_	_
4	जमीन	जमीन	NNC	n	lex-जमीन|cat-n|gen-f|num-sg|pers-3|case-d|vib-0|tam-0|chunkId-NP3|chunkType-child|stype-|voicetype-	6	pof__cn	_	_
5	-JOIN	-	SYM	punc	lex--|cat-punc|gen-|num-|pers-|case-|vib-|tam-|chunkId-NP3|chunkType-child|stype-|voicetype-	6	pof__cn	_	_
6	जायदाद	जायदाद	NN	n	lex-जायदाद|cat-n|gen-f|num-sg|pers-3|case-d|vib-0|tam-0|chunkId-NP3|chunkType-head|stype-|voicetype-	8	k2	_	_
7	भी	भी	RP	avy	lex-भी|cat-avy|gen-|num-|pers-|case-|vib-|tam-|chunkId-NP3|chunkType-child|stype-|voicetype-	6	lwg__rp	_	_
8	खरीदी	खरीद	VM	v	lex-खरीद|cat-v|gen-f|num-sg|pers-3|case-|vib-या|tam-yA|chunkId-VGF|chunkType-head|stype-declarative|voicetype-active	0	main	_	_
9	.	.	SYM	punc	lex-.|cat-punc|gen-|num-|pers-|case-|vib-|tam-|chunkId-BLK|chunkType-head|stype-|voicetype-	8	rsym	_	_

1	ये	यह	DEM	pn	lex-यह|cat-pn|gen-any|num-pl|pers-3|case-d|vib-|tam-|chunkId-NP|chunkType-child|stype-|voicetype-	3	nmod__adj	_	_
2	तमाम	तमाम	QF	avy	lex-तमाम|cat-avy|gen-any|num-any|pers-|case-d|vib-|tam-|chunkId-NP|chunkType-child|stype-|voicetype-	3	nmod__adj	_	_
3	मामले	मामला	NN	n	lex-मामला|cat-n|gen-m|num-pl|pers-3|case-d|vib-0|tam-0|chunkId-NP|chunkType-head|stype-|voicetype-	10	k1	_	_
4	पुंछ	पुंछ	NNP	n	lex-पुंछ|cat-n|gen-m|num-sg|pers-3|case-d|vib-0|tam-0|chunkId-NP2|chunkType-child|stype-|voicetype-	5	nmod__adj	_	_
5	जिले	जिला	NN	n	lex-जिला|cat-n|gen-m|num-sg|pers-3|case-o|vib-0_का|tam-0|chunkId-NP2|chunkType-head|stype-|voicetype-	8	r6	_	_
6	के	का	PSP	psp	lex-का|cat-psp|gen-m|num-sg|pers-|case-o|vib-|tam-|chunkId-NP2|chunkType-child|stype-|voicetype-	5	lwg__psp	_	_
7	मेंधर	मेंधर	NNP	n	lex-मेंधर|cat-n|gen-m|num-sg|pers-3|case-d|vib-0|tam-0|chunkId-NP3|chunkType-child|stype-|voicetype-	8	nmod__adj	_	_
8	शहर	शहर	NN	n	lex-शहर|cat-n|gen-m|num-sg|pers-3|case-o|vib-0_से|tam-0|chunkId-NP3|chunkType-head|stype-|voicetype-	10	ras-k1	_	_
9	से	से	PSP	psp	lex-से|cat-psp|gen-|num-|pers-|case-|vib-|tam-|chunkId-NP3|chunkType-child|stype-|voicetype-	8	lwg__psp	_	_
10	जुड़े	जुड	VM	v	lex-जुड|cat-v|gen-m|num-pl|pers-3|case-|vib-या_है|tam-yA|chunkId-VGF|chunkType-head|stype-declarative|voicetype-active	0	main	_	_
11	हैं	है	VAUX	v	lex-है|cat-v|gen-any|num-pl|pers-3|case-|vib-है|tam-hE|chunkId-VGF|chunkType-child|stype-|voicetype-	10	lwg__vaux	_	_
12	.	.	SYM	punc	lex-.|cat-punc|gen-|num-|pers-|case-|vib-|tam-|chunkId-BLK|chunkType-head|stype-|voicetype-	10	rsym	_	_

1	एक	एक	QC	num	lex-एक|cat-num|gen-any|num-any|pers-|case-any|vib-|tam-|chunkId-NP|chunkType-child|stype-|voicetype-	3	nmod__adj	_	_
2	वरिष्ठ	वरिष्ठ	JJ	adj	lex-वरिष्ठ|cat-adj|gen-any|num-any|pers-|case-o|vib-|tam-|chunkId-NP|chunkType-child|stype-|voicetype-	3	nmod__adj	_	_
3	अधिकारी	अधिकारी	NN	n	lex-अधिकारी|cat-n|gen-m|num-sg|pers-3|case-o|vib-0_ने|tam-0|chunkId-NP|chunkType-head|stype-|voicetype-	5	k1	_	_
4	ने	ने	PSP	psp	lex-ने|cat-psp|gen-|num-|pers-|case-|vib-|tam-|chunkId-NP|chunkType-child|stype-|voicetype-	3	lwg__psp	_	_
5	बताया	बता	VM	v	lex-बता|cat-v|gen-m|num-sg|pers-3|case-|vib-या|tam-yA|chunkId-VGF|chunkType-head|stype-declarative|voicetype-active	0	main	_	_
6	कि	कि	CC	avy	lex-कि|cat-avy|gen-|num-|pers-|case-|vib-|tam-|chunkId-CCP|chunkType-head|stype-|voicetype-	5	k2	_	_
7	मेंधर	मेंधर	NNP	n	lex-मेंधर|cat-n|gen-m|num-sg|pers-3|case-o|vib-0_में|tam-0|chunkId-NP2|chunkType-head|stype-|voicetype-	11	k7p	_	_
8	में	में	PSP	psp	lex-में|cat-psp|gen-|num-|pers-|case-|vib-|tam-|chunkId-NP2|chunkType-child|stype-|voicetype-	7	lwg__psp	_	_
9	पाकिस्तानियों	पाकिस्तानी	NN	n	lex-पाकिस्तानी|cat-n|gen-m|num-pl|pers-3|case-o|vib-0_का|tam-0|chunkId-NP3|chunkType-head|stype-|voicetype-	11	k1	_	_
10	के	का	PSP	psp	lex-का|cat-psp|gen-|num-|pers-|case-o|vib-|tam-|chunkId-NP3|chunkType-child|stype-|voicetype-	9	lwg__psp	_	_
11	बसने	बस	VM	v	lex-बस|cat-v|gen-any|num-sg|pers-3|case-o|vib-ना_के_पीछे|tam-nA|chunkId-VGNN|chunkType-head|stype-|voicetype-	16	k7	_	_
12	के	के	PSP	psp	lex-के|cat-psp|gen-|num-|pers-|case-|vib-|tam-|chunkId-VGNN|chunkType-child|stype-|voicetype-	11	lwg__psp	_	_
13	पीछे	पीछे	NST	nst	lex-पीछे|cat-nst|gen-m|num-sg|pers-3|case-d|vib-0|tam-0|chunkId-VGNN|chunkType-child|stype-|voicetype-	11	lwg__nst	_	_
14	नापाक	नापाक	JJ	adj	lex-नापाक|cat-adj|gen-any|num-any|pers-|case-d|vib-|tam-|chunkId-NP4|chunkType-child|stype-|voicetype-	15	nmod__adj	_	_
15	इरादा	इरादा	NN	n	lex-इरादा|cat-n|gen-m|num-sg|pers-3|case-d|vib-0|tam-0|chunkId-NP4|chunkType-head|stype-|voicetype-	16	k1	_	_
16	छिपा	छिप	VM	v	lex-छिप|cat-v|gen-m|num-sg|pers-3|case-|vib-या_हो_सक+ता_है|tam-yA|chunkId-VGF2|chunkType-head|stype-declarative|voicetype-active	6	ccof	_	_
17	हो	हो	VAUX	v	lex-हो|cat-v|gen-any|num-any|pers-any|case-|vib-0|tam-0|chunkId-VGF2|chunkType-child|stype-|voicetype-	16	lwg__vaux	_	_
18	सकता	सक	VAUX	v	lex-सक|cat-v|gen-m|num-sg|pers-3|case-|vib-ता|tam-wA|chunkId-VGF2|chunkType-child|stype-|voicetype-	16	lwg__vaux	_	_
19	है	है	VAUX	v	lex-है|cat-v|gen-any|num-sg|pers-3|case-|vib-है|tam-hE|chunkId-VGF2|chunkType-child|stype-|voicetype-	16	lwg__vaux	_	_
20	.	.	SYM	punc	lex-.|cat-punc|gen-|num-|pers-|case-|vib-|tam-|chunkId-BLK|chunkType-head|stype-|voicetype-	5	rsym	_	_

1	मेंधर	मेंधर	NNP	n	lex-मेंधर|cat-n|gen-m|num-sg|pers-3|case-d|vib-0|tam-0|chunkId-NP|chunkType-head|stype-|voicetype-	11	k1	_	_
2	नियंत्रण	नियंत्रण	NNC	n	lex-नियंत्रण|cat-n|gen-m|num-sg|pers-3|case-d|vib-0|tam-0|chunkId-NP2|chunkType-child|stype-|voicetype-	3	pof__cn	_	_
3	रेखा	रेखा	NN	n	lex-रेखा|cat-n|gen-f|num-sg|pers-3|case-o|vib-0_के_पास|tam-0|chunkId-NP2|chunkType-head|stype-|voicetype-	6	jjmod	_	_
4	के	के	PSP	psp	lex-के|cat-psp|gen-|num-|pers-|case-|vib-|tam-|chunkId-NP2|chunkType-child|stype-|voicetype-	3	lwg__psp	_	_
5	पास	पास	NST	nst	lex-पास|cat-nst|gen-m|num-sg|pers-3|case-d|vib-|tam-|chunkId-NP2|chunkType-child|stype-|voicetype-	3	lwg__psp	_	_
6	स्थित	स्थित	JJ	adj	lex-स्थित|cat-adj|gen-any|num-any|pers-|case-|vib-|tam-|chunkId-JJP|chunkType-head|stype-|voicetype-	1	nmod	_	_
7	रणनीतिक	रणनीतिक	JJ	adj	lex-रणनीतिक|cat-adj|gen-any|num-any|pers-|case-o|vib-|tam-|chunkId-NP3|chunkType-child|stype-|voicetype-	8	nmod__adj	_	_
8	महत्व	महत्व	NN	n	lex-महत्व|cat-n|gen-m|num-sg|pers-3|case-o|vib-0_का|tam-0|chunkId-NP3|chunkType-head|stype-|voicetype-	10	r6	_	_
9	का	का	PSP	psp	lex-का|cat-psp|gen-m|num-sg|pers-|case-d|vib-|tam-|chunkId-NP3|chunkType-child|stype-|voicetype-	8	lwg__psp	_	_
10	शहर	शहर	NN	n	lex-शहर|cat-n|gen-m|num-sg|pers-3|case-d|vib-0|tam-0|chunkId-NP4|chunkType-head|stype-|voicetype-	11	k1s	_	_
11	है	है	VM	v	lex-है|cat-v|gen-any|num-sg|pers-3|case-|vib-है|tam-hE|chunkId-VGF|chunkType-head|stype-declarative|voicetype-active	0	main	_	_
12	.	.	SYM	punc	lex-.|cat-punc|gen-|num-|pers-|case-|vib-|tam-|chunkId-BLK|chunkType-head|stype-|voicetype-	11	rsym	_	_

1	इस	यह	DEM	pn	lex-यह|cat-pn|gen-any|num-sg|pers-3|case-o|vib-|tam-|chunkId-NP|chunkType-child|stype-|voicetype-	2	nmod__adj	_	_
2	इलाके	इलाका	NN	n	lex-इलाका|cat-n|gen-m|num-sg|pers-3|case-o|vib-0_से|tam-0|chunkId-NP|chunkType-head|stype-|voicetype-	4	k7p	_	_
3	से	से	PSP	psp	lex-से|cat-psp|gen-|num-|pers-|case-|vib-|tam-|chunkId-NP|chunkType-child|stype-|voicetype-	2	lwg__psp	_	_
4	होकर	हो	VM	v	lex-हो|cat-v|gen-any|num-any|pers-any|case-|vib-कर|tam-kara|chunkId-VGNF|chunkType-head|stype-|voicetype-	9	vmod	_	_
5	आतंकवादी	आतंकवादी	NN	n	lex-आतंकवादी|cat-n|gen-m|num-pl|pers-3|case-d|vib-0|tam-0|chunkId-NP2|chunkType-head|stype-|voicetype-	9	k1	_	_
6	भारत	भारत	NNP	n	lex-भारत|cat-n|gen-m|num-sg|pers-3|case-o|vib-0_में|tam-0|chunkId-NP3|chunkType-head|stype-|voicetype-	9	k7p	_	_
7	में	में	PSP	psp	lex-में|cat-psp|gen-|num-|pers-|case-|vib-|tam-|chunkId-NP3|chunkType-child|stype-|voicetype-	6	lwg__psp	_	_
8	प्रवेश	प्रवेश	NN	n	lex-प्रवेश|cat-n|gen-m|num-sg|pers-3|case-d|vib-0|tam-0|chunkId-NP4|chunkType-head|stype-|voicetype-	9	pof	_	_
9	करते	कर	VM	v	lex-कर|cat-v|gen-m|num-pl|pers-3|case-|vib-ता_रह+या_है|tam-wA|chunkId-VGF|chunkType-head|stype-declarative|voicetype-active	0	main	_	_
10	रहे	रह	VAUX	v	lex-रह|cat-v|gen-m|num-pl|pers-3|case-|vib-या|tam-yA|chunkId-VGF|chunkType-child|stype-|voicetype-	9	lwg__vaux	_	_
11	हैं	है	VAUX	v	lex-है|cat-v|gen-any|num-pl|pers-3|case-|vib-है|tam-hE|chunkId-VGF|chunkType-child|stype-|voicetype-	9	lwg__vaux	_	_
12	.	.	SYM	punc	lex-.|cat-punc|gen-|num-|pers-|case-|vib-|tam-|chunkId-BLK|chunkType-head|stype-|voicetype-	9	rsym	_	_

1	लाल	लाल	NNPC	n	lex-लाल|cat-n|gen-m|num-sg|pers-3|case-d|vib-0|tam-0|chunkId-NP|chunkType-child|stype-|voicetype-	2	pof__cn	_	_
2	दीन	दीन	NNP	n	lex-दीन|cat-n|gen-m|num-sg|pers-3|case-d|vib-0|tam-0|chunkId-NP|chunkType-head|stype-|voicetype-	3	jjmod	_	_
3	नामक	नामक	JJ	adj	lex-नामक|cat-adj|gen-any|num-any|pers-|case-|vib-|tam-|chunkId-JJP|chunkType-head|stype-|voicetype-	5	nmod	_	_
4	एक	एक	QC	num	lex-एक|cat-num|gen-any|num-any|pers-|case-any|vib-|tam-|chunkId-NP2|chunkType-child|stype-|voicetype-	5	nmod__adj	_	_
5	व्यक्ति	व्यक्ति	NN	n	lex-व्यक्ति|cat-n|gen-m|num-sg|pers-3|case-o|vib-0_ने|tam-0|chunkId-NP2|chunkType-head|stype-|voicetype-	26	k1	_	_
6	ने	ने	PSP	psp	lex-ने|cat-psp|gen-|num-|pers-|case-|vib-|tam-|chunkId-NP2|chunkType-child|stype-|voicetype-	5	lwg__psp	_	_
7	पाकिस्तानियों	पाकिस्तानी	NN	n	lex-पाकिस्तानी|cat-n|gen-m|num-pl|pers-3|case-o|vib-0_का|tam-0|chunkId-NP3|chunkType-head|stype-|voicetype-	17	k1	_	_
8	के	का	PSP	psp	lex-का|cat-psp|gen-m|num-sg|pers-|case-o|vib-|tam-|chunkId-NP3|chunkType-child|stype-|voicetype-	7	lwg__psp	_	_
9	इस	यह	DEM	pn	lex-यह|cat-pn|gen-any|num-sg|pers-3|case-o|vib-|tam-|chunkId-NP4|chunkType-child|stype-|voicetype-	10	nmod__adj	_	_
10	इलाके	इलाका	NN	n	lex-इलाका|cat-n|gen-m|num-sg|pers-3|case-o|vib-0_में|tam-0|chunkId-NP4|chunkType-head|stype-|voicetype-	17	k7p	_	_
11	में	में	PSP	psp	lex-में|cat-psp|gen-|num-|pers-|case-|vib-|tam-|chunkId-NP4|chunkType-child|stype-|voicetype-	10	lwg__psp	_	_
12	स्थायी	स्थायी	JJ	adj	lex-स्थायी|cat-adj|gen-any|num-any|pers-|case-o|vib-|tam-|chunkId-NP5|chunkType-child|stype-|voicetype-	13	nmod__adj	_	_
13	निवासी	निवासी	NN	n	lex-निवासी|cat-n|gen-m|num-sg|pers-3|case-o|vib-0_के_रूप_में|tam-0|chunkId-NP5|chunkType-head|stype-|voicetype-	17	k7	_	_
14	के	के	PSP	psp	lex-के|cat-psp|gen-m|num-|pers-|case-o|vib-|tam-|chunkId-NP5|chunkType-child|stype-|voicetype-	13	lwg__psp	_	_
15	रूप	रूप	PSP	n	lex-रूप|cat-n|gen-m|num-|pers-|case-o|vib-|tam-|chunkId-NP5|chunkType-child|stype-|voicetype-	13	lwg__psp	_	_
16	में	में	PSP	psp	lex-में|cat-psp|gen-|num-|pers-|case-|vib-|tam-|chunkId-NP5|chunkType-child|stype-|voicetype-	13	lwg__psp	_	_
17	बसने	बस	VM	v	lex-बस|cat-v|gen-any|num-sg|pers-any|case-o|vib-ना_का|tam-nA|chunkId-VGNN|chunkType-head|stype-|voicetype-	19	r6	_	_
18	के	का	PSP	psp	lex-का|cat-psp|gen-m|num-sg|pers-|case-o|vib-|tam-|chunkId-VGNN|chunkType-child|stype-|voicetype-	17	lwg__psp	_	_
19	मामले	मामला	NN	n	lex-मामला|cat-n|gen-m|num-sg|pers-3|case-o|vib-0_से|tam-0|chunkId-NP6|chunkType-head|stype-|voicetype-	26	k2	_	_
20	से	से	PSP	psp	lex-से|cat-psp|gen-|num-|pers-|case-|vib-|tam-|chunkId-NP6|chunkType-child|stype-|voicetype-	19	lwg__psp	_	_
21	भारतीय	भारतीय	JJ	adj	lex-भारतीय|cat-adj|gen-any|num-any|pers-|case-o|vib-|tam-|chunkId-NP7|chunkType-child|stype-|voicetype-	23	nmod__adj	_	_
22	विदेश	विदेश	NNPC	n	lex-विदेश|cat-n|gen-m|num-sg|pers-3|case-d|vib-0|tam-0|chunkId-NP7|chunkType-child|stype-|voicetype-	23	pof__cn	_	_
23	मंत्रालय	मंत्रालय	NNP	n	lex-मंत्रालय|cat-n|gen-m|num-sg|pers-3|case-o|vib-0_को|tam-0|chunkId-NP7|chunkType-head|stype-|voicetype-	26	k4a	_	_
24	को	को	PSP	psp	lex-को|cat-psp|gen-|num-|pers-|case-|vib-|tam-|chunkId-NP7|chunkType-child|stype-|voicetype-	23	lwg__psp	_	_
25	अवगत	अवगत	JJ	adj	lex-अवगत|cat-adj|gen-any|num-any|pers-|case-|vib-|tam-|chunkId-JJP2|chunkType-head|stype-|voicetype-	26	pof	_	_
26	कराया	करा	VM	v	lex-करा|cat-v|gen-m|num-sg|pers-3|case-|vib-या|tam-yA|chunkId-VGF|chunkType-head|stype-declarative|voicetype-active	0	main	_	_
27	.	.	SYM	punc	lex-.|cat-punc|gen-|num-|pers-|case-|vib-|tam-|chunkId-BLK|chunkType-head|stype-|voicetype-	26	rsym	_	_

1	इसके	यह	PRP	pn	lex-यह|cat-pn|gen-any|num-sg|pers-3|case-o|vib-0_बाद|tam-ke|chunkId-NP|chunkType-head|stype-|voicetype-	14	k7t	_	_
2	बाद	बाद	NST	nst	lex-बाद|cat-nst|gen-m|num-sg|pers-3|case-d|vib-|tam-|chunkId-NP|chunkType-child|stype-|voicetype-	1	lwg__psp	_	_
3	जम्मू	जम्मू	NNPC	n	lex-जम्मू|cat-n|gen-m|num-sg|pers-3|case-d|vib-0|tam-0|chunkId-NP2|chunkType-child|stype-|voicetype-	5	pof__cn	_	_
4	-JOIN	-	SYM	punc	lex--|cat-punc|gen-|num-|pers-|case-|vib-|tam-|chunkId-NP2|chunkType-child|stype-|voicetype-	5	rsym	_	_
5	कश्मीर	कश्मीर	NNP	n	lex-कश्मीर|cat-n|gen-m|num-sg|pers-3|case-o|vib-0_का|tam-0|chunkId-NP2|chunkType-head|stype-|voicetype-	8	r6	_	_
6	के	का	PSP	psp	lex-का|cat-psp|gen-m|num-sg|pers-|case-o|vib-|tam-|chunkId-NP2|chunkType-child|stype-|voicetype-	5	lwg__psp	_	_
7	राजस्व	राजस्व	NNC	n	lex-राजस्व|cat-n|gen-m|num-sg|pers-3|case-d|vib-0|tam-0|chunkId-NP3|chunkType-child|stype-|voicetype-	8	pof__cn	_	_
8	अधिकारियों	अधिकारी	NN	n	lex-अधिकारी|cat-n|gen-m|num-pl|pers-3|case-o|vib-0_ने|tam-0|chunkId-NP3|chunkType-head|stype-|voicetype-	14	k1	_	_
9	ने	ने	PSP	psp	lex-ने|cat-psp|gen-|num-|pers-|case-|vib-|tam-|chunkId-NP3|chunkType-child|stype-|voicetype-	8	lwg__psp	_	_
10	मामले	मामला	NN	n	lex-मामला|cat-n|gen-m|num-sg|pers-3|case-o|vib-0_का|tam-0|chunkId-NP4|chunkType-head|stype-|voicetype-	13	r6-k2	_	_
11	की	का	PSP	psp	lex-का|cat-psp|gen-f|num-sg|pers-|case-d|vib-|tam-|chunkId-NP4|chunkType-child|stype-|voicetype-	10	lwg__psp	_	_
12	गहन	गहन	JJ	adj	lex-गहन|cat-adj|gen-any|num-any|pers-|case-d|vib-|tam-|chunkId-NP5|chunkType-child|stype-|voicetype-	13	nmod__adj	_	_
13	छानबीन	छानबीन	NN	n	lex-छानबीन|cat-n|gen-f|num-sg|pers-3|case-d|vib-0|tam-0|chunkId-NP5|chunkType-head|stype-|voicetype-	14	pof	_	_
14	की	कर	VM	v	lex-कर|cat-v|gen-f|num-sg|pers-3|case-|vib-या|tam-yA|chunkId-VGF|chunkType-head|stype-declarative|voicetype-active	0	main	_	_
15	.	.	SYM	punc	lex-.|cat-punc|gen-|num-|pers-|case-|vib-|tam-|chunkId-BLK|chunkType-head|stype-|voicetype-	14	rsym	_	_

1	लाल	लाल	NNPC	n	lex-लाल|cat-n|gen-m|num-sg|pers-3|case-d|vib-0|tam-0|chunkId-NP|chunkType-child|stype-|voicetype-	2	pof__cn	_	_
2	दीन	दीन	NNP	n	lex-दीन|cat-n|gen-m|num-sg|pers-3|case-o|vib-0_का|tam-0|chunkId-NP|chunkType-head|stype-|voicetype-	4	r6	_	_
3	का	का	PSP	psp	lex-का|cat-psp|gen-m|num-sg|pers-|case-d|vib-|tam-|chunkId-NP|chunkType-child|stype-|voicetype-	2	lwg__psp	_	_
4	दावा	दावा	NN	n	lex-दावा|cat-n|gen-m|num-sg|pers-3|case-d|vib-0|tam-0|chunkId-NP2|chunkType-head|stype-|voicetype-	6	k1	_	_
5	सही	सही	JJ	adj	lex-सही|cat-adj|gen-any|num-any|pers-|case-|vib-|tam-|chunkId-JJP|chunkType-head|stype-|voicetype-	6	k1s	_	_
6	निकला	निकल	VM	v	lex-निकल|cat-v|gen-m|num-sg|pers-3|case-|vib-या|tam-yA|chunkId-VGF|chunkType-head|stype-declarative|voicetype-active	0	main	_	_
7	.	.	SYM	punc	lex-.|cat-punc|gen-|num-|pers-|case-|vib-|tam-|chunkId-BLK|chunkType-head|stype-|voicetype-	6	rsym	_	_

1	NULL	_	NN	_	lex-_|cat-_|gen-|num-|pers-|case-|vib-|tam-|chunkId-NULL__NP|chunkType-head|stype-|voicetype-	3	k1	_	_
2	उल्लेखनीय	उल्लेखनीय	JJ	adj	lex-उल्लेखनीय|cat-adj|gen-any|num-any|pers-|case-|vib-|tam-|chunkId-JJP|chunkType-head|stype-|voicetype-	3	k1s	_	_
3	है	है	VM	v	lex-है|cat-v|gen-any|num-sg|pers-3|case-|vib-है|tam-hE|chunkId-VGF|chunkType-head|stype-declarative|voicetype-active	0	main	_	_
4	कि	कि	CC	avy	lex-कि|cat-avy|gen-|num-|pers-|case-|vib-|tam-|chunkId-CCP|chunkType-head|stype-|voicetype-	1	rs	_	_
5	पिछले	पिछला	JJ	adj	lex-पिछला|cat-adj|gen-m|num-sg|pers-|case-o|vib-|tam-|chunkId-NP|chunkType-child|stype-|voicetype-	6	nmod__adj	_	_
6	साल	साल	NN	n	lex-साल|cat-n|gen-m|num-sg|pers-3|case-o|vib-0|tam-0|chunkId-NP|chunkType-head|stype-|voicetype-	19	k7t	_	_
7	एक	एक	QC	num	lex-एक|cat-num|gen-any|num-any|pers-|case-any|vib-|tam-|chunkId-NP2|chunkType-child|stype-|voicetype-	10	nmod__adj	_	_
8	फ़र्जी	फर्जी	JJ	adj	lex-फर्जी|cat-adj|gen-any|num-any|pers-|case-o|vib-|tam-|chunkId-NP2|chunkType-child|stype-|voicetype-	10	nmod__adj	_	_
9	भारतीय	भारतीय	JJ	adj	lex-भारतीय|cat-adj|gen-any|num-any|pers-|case-o|vib-|tam-|chunkId-NP2|chunkType-child|stype-|voicetype-	10	nmod__adj	_	_
10	नागरिक	नागरिक	NN	n	lex-नागरिक|cat-n|gen-m|num-sg|pers-3|case-o|vib-0_द्वारा|tam-0|chunkId-NP2|chunkType-head|stype-|voicetype-	14	k1	_	_
11	द्वारा	द्वारा	PSP	psp	lex-द्वारा|cat-psp|gen-|num-|pers-|case-|vib-|tam-|chunkId-NP2|chunkType-child|stype-|voicetype-	10	lwg__psp	_	_
12	संसदीय	संसदीय	JJ	adj	lex-संसदीय|cat-adj|gen-any|num-any|pers-|case-d|vib-|tam-|chunkId-NP3|chunkType-child|stype-|voicetype-	13	nmod__adj	_	_
13	चुनाव	चुनाव	NN	n	lex-चुनाव|cat-n|gen-m|num-sg|pers-3|case-d|vib-0|tam-0|chunkId-NP3|chunkType-head|stype-|voicetype-	14	pof	_	_
14	लड़ने	लड	VM	v	lex-लड|cat-v|gen-any|num-sg|pers-any|case-o|vib-ना_का|tam-nA|chunkId-VGNN|chunkType-head|stype-|voicetype-	16	r6	_	_
15	का	का	PSP	psp	lex-का|cat-psp|gen-m|num-sg|pers-|case-d|vib-|tam-|chunkId-VGNN|chunkType-child|stype-|voicetype-	14	lwg__psp	_	_
16	मामला	मामला	NN	n	lex-मामला|cat-n|gen-m|num-sg|pers-3|case-d|vib-0|tam-0|chunkId-NP4|chunkType-head|stype-|voicetype-	19	k1	_	_
17	प्रकाश	प्रकाश	NN	n	lex-प्रकाश|cat-n|gen-m|num-sg|pers-3|case-o|vib-0_में|tam-0|chunkId-NP5|chunkType-head|stype-|voicetype-	19	k7	_	_
18	में	में	PSP	psp	lex-में|cat-psp|gen-|num-|pers-|case-|vib-|tam-|chunkId-NP5|chunkType-child|stype-|voicetype-	17	lwg__psp	_	_
19	आया	आ	VM	v	lex-आ|cat-v|gen-m|num-sg|pers-3|case-|vib-या_था|tam-yA|chunkId-VGF2|chunkType-head|stype-declarative|voicetype-active	4	ccof	_	_
20	था	था	VAUX	v	lex-था|cat-v|gen-m|num-sg|pers-3|case-|vib-था|tam-WA|chunkId-VGF2|chunkType-child|stype-|voicetype-	19	lwg__vaux	_	_
21	.	.	SYM	punc	lex-.|cat-punc|gen-|num-|pers-|case-|vib-|tam-|chunkId-BLK|chunkType-head|stype-|voicetype-	3	rsym	_	_

1	फकर	फकर	NNPC	n	lex-फकर|cat-n|gen-m|num-sg|pers-3|case-d|vib-0|tam-0|chunkId-NP|chunkType-child|stype-|voicetype-	2	pof__cn	_	_
2	दीन	दीन	NNP	n	lex-दीन|cat-n|gen-m|num-sg|pers-3|case-d|vib-0|tam-0|chunkId-NP|chunkType-head|stype-|voicetype-	3	jjmod	_	_
3	नामक	नामक	JJ	adj	lex-नामक|cat-adj|gen-any|num-any|pers-|case-|vib-|tam-|chunkId-JJP|chunkType-head|stype-|voicetype-	5	nmod	_	_
4	पाकिस्तानी	पाकिस्तानी	JJ	adj	lex-पाकिस्तानी|cat-adj|gen-any|num-any|pers-|case-o|vib-|tam-|chunkId-NP2|chunkType-child|stype-|voicetype-	5	nmod__adj	_	_
5	नागरिक	नागरिक	NN	n	lex-नागरिक|cat-n|gen-m|num-sg|pers-3|case-o|vib-0_का|tam-0|chunkId-NP2|chunkType-head|stype-|voicetype-	7	r6	_	_
6	के	का	PSP	psp	lex-का|cat-psp|gen-m|num-sg|pers-|case-o|vib-|tam-|chunkId-NP2|chunkType-child|stype-|voicetype-	5	lwg__psp	_	_
7	पुत्र	पुत्र	NN	n	lex-पुत्र|cat-n|gen-m|num-sg|pers-3|case-o|vib-0|tam-0|chunkId-NP3|chunkType-head|stype-|voicetype-	8	nmod	_	_
8	जुल्फ़िकार	जुल्फ़िकार	NNP	n	lex-जुल्फ़िकार|cat-n|gen-m|num-sg|pers-3|case-o|vib-0_ने|tam-0|chunkId-NP4|chunkType-head|stype-|voicetype-	25	k1	_	_
9	ने	ने	PSP	psp	lex-ने|cat-psp|gen-|num-|pers-|case-|vib-|tam-|chunkId-NP4|chunkType-child|stype-|voicetype-	8	lwg__psp	_	_
10	स्थायी	स्थायी	JJ	adj	lex-स्थायी|cat-adj|gen-any|num-any|pers-|case-d|vib-|tam-|chunkId-NP5|chunkType-child|stype-|voicetype-	11	nmod__adj	_	_
11	निवासी	निवासी	NN	n	lex-निवासी|cat-n|gen-m|num-sg|pers-3|case-d|vib-0|tam-0|chunkId-NP5|chunkType-head|stype-|voicetype-	12	pof	_	_
12	होने	हो	VM	v	lex-हो|cat-v|gen-any|num-sg|pers-any|case-o|vib-ना_का|tam-nA|chunkId-VGNN|chunkType-head|stype-|voicetype-	14	r6	_	_
13	का	का	PSP	psp	lex-का|cat-psp|gen-m|num-sg|pers-|case-d|vib-|tam-|chunkId-VGNN|chunkType-child|stype-|voicetype-	12	lwg__psp	_	_
14	प्रमाण	प्रमाण	NN	n	lex-प्रमाण|cat-n|gen-m|num-sg|pers-3|case-d|vib-0|tam-0|chunkId-NP6|chunkType-head|stype-|voicetype-	16	k2	_	_
15	हासिल	हासिल	JJ	adj	lex-हासिल|cat-adj|gen-any|num-any|pers-|case-|vib-|tam-|chunkId-JJP2|chunkType-head|stype-|voicetype-	16	pof	_	_
16	कर	कर	VM	v	lex-कर|cat-v|gen-any|num-any|pers-any|case-|vib-0|tam-0|chunkId-VGNF|chunkType-head|stype-|voicetype-	25	vmod	_	_
17	पुंछ	पुंछ	NNP	n	lex-पुंछ|cat-n|gen-m|num-sg|pers-3|case-o|vib-0_का|tam-0|chunkId-NP7|chunkType-head|stype-|voicetype-	20	r6	_	_
18	के	का	PSP	psp	lex-का|cat-psp|gen-m|num-sg|pers-|case-o|vib-|tam-|chunkId-NP7|chunkType-child|stype-|voicetype-	17	lwg__psp	_	_
19	सल्वा	सल्वा	NNP	n	lex-सल्वा|cat-n|gen-m|num-sg|pers-3|case-d|vib-0|tam-0|chunkId-NP8|chunkType-child|stype-|voicetype-	20	nmod__adj	_	_
20	गांव	गाँव	NN	n	lex-गाँव|cat-n|gen-m|num-sg|pers-3|case-o|vib-0_में|tam-0|chunkId-NP8|chunkType-head|stype-|voicetype-	25	k7p	_	_
21	में	में	PSP	psp	lex-में|cat-psp|gen-|num-|pers-|case-|vib-|tam-|chunkId-NP8|chunkType-child|stype-|voicetype-	20	lwg__psp	_	_
22	जमीन	जमीन	NNC	n	lex-जमीन|cat-n|gen-f|num-sg|pers-3|case-d|vib-0|tam-0|chunkId-NP9|chunkType-child|stype-|voicetype-	24	pof__cn	_	_
23	-	-	SYM	punc	lex--|cat-punc|gen-|num-|pers-|case-|vib-|tam-|chunkId-NP9|chunkType-child|stype-|voicetype-	24	pof__cn	_	_
24	जायदाद	जायदाद	NN	n	lex-जायदाद|cat-n|gen-f|num-sg|pers-3|case-d|vib-0|tam-0|chunkId-NP9|chunkType-head|stype-|voicetype-	25	k2	_	_
25	खरीदी	खरीद	VM	v	lex-खरीद|cat-v|gen-f|num-sg|pers-3|case-|vib-या_था|tam-yA|chunkId-VGF|chunkType-head|stype-declarative|voicetype-active	0	main	_	_
26	थी	था	VAUX	v	lex-था|cat-v|gen-f|num-sg|pers-3|case-|vib-था|tam-WA|chunkId-VGF|chunkType-child|stype-|voicetype-	25	lwg__vaux	_	_
27	.	.	SYM	punc	lex-.|cat-punc|gen-|num-|pers-|case-|vib-|tam-|chunkId-BLK|chunkType-head|stype-|voicetype-	25	rsym	_	_

1	इसके	यह	PRP	pn	lex-यह|cat-pn|gen-any|num-sg|pers-3|case-o|vib-0_बाद|tam-ke|chunkId-NP|chunkType-head|stype-|voicetype-	15	k7t	_	_
2	बाद	बाद	NST	nst	lex-बाद|cat-nst|gen-m|num-sg|pers-3|case-d|vib-|tam-|chunkId-NP|chunkType-child|stype-|voicetype-	1	lwg__psp	_	_
3	पिछले	पिछला	JJ	adj	lex-पिछला|cat-adj|gen-m|num-sg|pers-|case-o|vib-|tam-|chunkId-NP2|chunkType-child|stype-|voicetype-	4	nmod__adj	_	_
4	साल	साल	NN	n	lex-साल|cat-n|gen-m|num-sg|pers-3|case-o|vib-0|tam-0|chunkId-NP2|chunkType-head|stype-|voicetype-	5	k7t	_	_
5	हुए	हो	VM	v	lex-हो|cat-v|gen-m|num-sg|pers-any|case-|vib-या|tam-yA|chunkId-VGNF|chunkType-head|stype-|voicetype-	7	nmod__k1inv	_	_
6	संसदीय	संसदीय	JJ	adj	lex-संसदीय|cat-adj|gen-m|num-sg|pers-|case-o|vib-|tam-|chunkId-NP3|chunkType-child|stype-|voicetype-	7	nmod__adj	_	_
7	चुनाव	चुनाव	NN	n	lex-चुनाव|cat-n|gen-m|num-sg|pers-3|case-o|vib-0_में|tam-0|chunkId-NP3|chunkType-head|stype-|voicetype-	11	k7	_	_
8	में	में	PSP	psp	lex-में|cat-psp|gen-|num-|pers-|case-|vib-|tam-|chunkId-NP3|chunkType-child|stype-|voicetype-	7	lwg__psp	_	_
9	उसने	वह	PRP	pn	lex-वह|cat-pn|gen-any|num-sg|pers-3|case-o|vib-ने|tam-ne|chunkId-NP4|chunkType-head|stype-|voicetype-	15	k1	_	_
10	किस्मत	किस्मत	NN	n	lex-किस्मत|cat-n|gen-f|num-sg|pers-3|case-d|vib-0|tam-0|chunkId-NP5|chunkType-head|stype-|voicetype-	11	k2	_	_
11	आजमाने	आजमा	VM	v	lex-आजमा|cat-v|gen-any|num-sg|pers-any|case-o|vib-ना_का|tam-nA|chunkId-VGNN|chunkType-head|stype-|voicetype-	14	r6-k2	_	_
12	का	का	PSP	psp	lex-का|cat-psp|gen-m|num-sg|pers-|case-d|vib-|tam-|chunkId-VGNN|chunkType-child|stype-|voicetype-	11	lwg__psp	_	_
13	भी	भी	RP	avy	lex-भी|cat-avy|gen-|num-|pers-|case-|vib-|tam-|chunkId-VGNN|chunkType-child|stype-|voicetype-	11	lwg__rp	_	_
14	फैसला	फैसला	NN	n	lex-फैसला|cat-n|gen-m|num-sg|pers-3|case-d|vib-0|tam-0|chunkId-NP6|chunkType-head|stype-|voicetype-	15	pof	_	_
15	किया	कर	VM	v	lex-कर|cat-v|gen-m|num-sg|pers-3|case-|vib-या|tam-yA|chunkId-VGF|chunkType-head|stype-declarative|voicetype-active	0	main	_	_
16	.	.	SYM	punc	lex-.|cat-punc|gen-|num-|pers-|case-|vib-|tam-|chunkId-BLK|chunkType-head|stype-|voicetype-	15	rsym	_	_

1	लाल	लाल	NNPC	n	lex-लाल|cat-n|gen-m|num-sg|pers-3|case-d|vib-0|tam-0|chunkId-NP|chunkType-child|stype-|voicetype-	2	pof__cn	_	_
2	दीन	दीन	NNP	n	lex-दीन|cat-n|gen-m|num-sg|pers-3|case-o|vib-0_का|tam-0|chunkId-NP|chunkType-head|stype-|voicetype-	4	r6	_	_
3	की	का	PSP	psp	lex-का|cat-psp|gen-f|num-sg|pers-|case-o|vib-|tam-|chunkId-NP|chunkType-child|stype-|voicetype-	2	lwg__psp	_	_
4	शिकायत	शिकायत	NN	n	lex-शिकायत|cat-n|gen-f|num-sg|pers-3|case-o|vib-0_पर|tam-0|chunkId-NP2|chunkType-head|stype-|voicetype-	12	k7	_	_
5	पर	पर	PSP	psp	lex-पर|cat-psp|gen-|num-|pers-|case-|vib-|tam-|chunkId-NP2|chunkType-child|stype-|voicetype-	4	lwg__psp	_	_
6	प्रशासन	प्रशासन	NN	n	lex-प्रशासन|cat-n|gen-m|num-sg|pers-3|case-o|vib-0_ने|tam-0|chunkId-NP3|chunkType-head|stype-|voicetype-	12	k1	_	_
7	ने	ने	PSP	psp	lex-ने|cat-psp|gen-|num-|pers-|case-|vib-|tam-|chunkId-NP3|chunkType-child|stype-|voicetype-	6	lwg__psp	_	_
8	पूरे	पूरा	JJ	adj	lex-पूरा|cat-adj|gen-m|num-sg|pers-|case-o|vib-|tam-|chunkId-NP4|chunkType-child|stype-|voicetype-	9	nmod__adj	_	_
9	मामले	मामला	NN	n	lex-मामला|cat-n|gen-m|num-sg|pers-3|case-o|vib-0_का|tam-0|chunkId-NP4|chunkType-head|stype-|voicetype-	11	r6-k2	_	_
10	की	का	PSP	psp	lex-का|cat-psp|gen-f|num-sg|pers-|case-d|vib-|tam-|chunkId-NP4|chunkType-child|stype-|voicetype-	9	lwg__psp	_	_
11	छानबीन	छानबीन	NN	n	lex-छानबीन|cat-n|gen-f|num-sg|pers-3|case-d|vib-0|tam-0|chunkId-NP5|chunkType-head|stype-|voicetype-	12	pof	_	_
12	की	कर	VM	v	lex-कर|cat-v|gen-f|num-sg|pers-3|case-|vib-या|tam-yA|chunkId-VGF|chunkType-head|stype-declarative|voicetype-active	0	main	_	_
13	.	.	SYM	punc	lex-.|cat-punc|gen-|num-|pers-|case-|vib-|tam-|chunkId-BLK|chunkType-head|stype-|voicetype-	12	rsym	_	_

1	मेंधर	मेंधर	NNP	n	lex-मेंधर|cat-n|gen-m|num-sg|pers-3|case-o|vib-0_का|tam-0|chunkId-NP|chunkType-head|stype-|voicetype-	6	r6	_	_
2	के	का	PSP	psp	lex-का|cat-psp|gen-m|num-sg|pers-|case-o|vib-|tam-|chunkId-NP|chunkType-child|stype-|voicetype-	1	lwg__psp	_	_
3	सब	सब	NNC	adj	lex-सब|cat-adj|gen-any|num-any|pers-|case-o|vib-|tam-|chunkId-NP2|chunkType-child|stype-|voicetype-	6	pof__cn	_	_
4	-	-	SYM	punc	lex--|cat-punc|gen-|num-|pers-|case-|vib-|tam-|chunkId-NP2|chunkType-child|stype-|voicetype-	6	pof__cn	_	_
5	डिवीजनल	डिवीजनल	NNC	adj	lex-डिवीजनल|cat-adj|gen-any|num-any|pers-|case-o|vib-|tam-|chunkId-NP2|chunkType-child|stype-|voicetype-	6	pof__cn	_	_
6	मजिस्ट्रेट	मजिस्ट्रेट	NN	n	lex-मजिस्ट्रेट|cat-n|gen-m|num-sg|pers-3|case-o|vib-0|tam-0|chunkId-NP2|chunkType-head|stype-|voicetype-	7	ccof	_	_
7	और	और	CC	avy	lex-और|cat-avy|gen-|num-|pers-|case-|vib-|tam-|chunkId-CCP|chunkType-head|stype-|voicetype-	12	k1	_	_
8	पुंछ	पुंछ	NNP	n	lex-पुंछ|cat-n|gen-m|num-sg|pers-3|case-o|vib-0_का|tam-0|chunkId-NP3|chunkType-head|stype-|voicetype-	10	r6	_	_
9	के	का	PSP	psp	lex-का|cat-psp|gen-m|num-sg|pers-|case-o|vib-|tam-|chunkId-NP3|chunkType-child|stype-|voicetype-	8	lwg__psp	_	_
10	उपायुक्त	उपायुक्त	NN	n	lex-उपायुक्त|cat-n|gen-m|num-sg|pers-3|case-o|vib-0_द्वारा|tam-0|chunkId-NP4|chunkType-head|stype-|voicetype-	7	ccof	_	_
11	द्वारा	द्वारा	PSP	psp	lex-द्वारा|cat-psp|gen-|num-|pers-|case-|vib-|tam-|chunkId-NP4|chunkType-child|stype-|voicetype-	10	lwg__psp	_	_
12	सौंपी	सौंप	VM	v	lex-सौंप|cat-v|gen-f|num-sg|pers-any|case-|vib-या_जा+या१|tam-yA|chunkId-VGNF|chunkType-head|stype-|voicetype-	14	nmod__k2inv	_	_
13	गयी	जा	VAUX	v	lex-जा|cat-v|gen-f|num-sg|pers-any|case-|vib-या१|tam-yA1|chunkId-VGNF|chunkType-child|stype-|voicetype-	12	lwg__vaux	_	_
14	रिपोर्ट	रिपोर्ट	NN	n	lex-रिपोर्ट|cat-n|gen-f|num-sg|pers-3|case-o|vib-0_का|tam-0|chunkId-NP5|chunkType-head|stype-|voicetype-	16	r6	_	_
15	के	का	PSP	psp	lex-का|cat-psp|gen-m|num-sg|pers-|case-o|vib-|tam-|chunkId-NP5|chunkType-child|stype-|voicetype-	14	lwg__psp	_	_
16	आधार	आधार	NN	n	lex-आधार|cat-n|gen-m|num-sg|pers-3|case-o|vib-0_पर|tam-0|chunkId-NP6|chunkType-head|stype-|voicetype-	39	k7	_	_
17	पर	पर	PSP	psp	lex-पर|cat-psp|gen-|num-|pers-|case-|vib-|tam-|chunkId-NP6|chunkType-child|stype-|voicetype-	16	lwg__psp	_	_
18	जम्मू	जम्मू	NNP	n	lex-जम्मू|cat-n|gen-m|num-sg|pers-3|case-o|vib-0_का|tam-0|chunkId-NP7|chunkType-head|stype-|voicetype-	21	r6	_	_
19	के	का	PSP	psp	lex-का|cat-psp|gen-m|num-sg|pers-|case-o|vib-|tam-|chunkId-NP7|chunkType-child|stype-|voicetype-	18	lwg__psp	_	_
20	डिवीजनल	डिवीजनल	NNPC	adj	lex-डिवीजनल|cat-adj|gen-any|num-any|pers-|case-o|vib-|tam-|chunkId-NP8|chunkType-child|stype-|voicetype-	21	pof__cn	_	_
21	आयुक्त	आयुक्त	NNP	n	lex-आयुक्त|cat-n|gen-m|num-sg|pers-3|case-o|vib-0|tam-0|chunkId-NP8|chunkType-head|stype-|voicetype-	24	nmod	_	_
22	वी.	वी.	NNPC	n	lex-वी.|cat-n|gen-m|num-sg|pers-3|case-d|vib-0|tam-0|chunkId-NP9|chunkType-child|stype-|voicetype-	24	pof__cn	_	_
23	आर.	आर.	NNPC	n	lex-आर.|cat-n|gen-m|num-sg|pers-3|case-d|vib-0|tam-0|chunkId-NP9|chunkType-child|stype-|voicetype-	24	pof__cn	_	_
24	शर्मा	शर्मा	NNP	n	lex-शर्मा|cat-n|gen-any|num-sg|pers-3|case-o|vib-0_ने|tam-0|chunkId-NP9|chunkType-head|stype-|voicetype-	39	k1	_	_
25	ने	ने	PSP	psp	lex-ने|cat-psp|gen-|num-|pers-|case-|vib-|tam-|chunkId-NP9|chunkType-child|stype-|voicetype-	24	lwg__psp	_	_
26	जुल्फ़िकार	जुल्फ़िकार	NNP	n	lex-जुल्फ़िकार|cat-n|gen-m|num-sg|pers-3|case-o|vib-0|tam-0|chunkId-NP10|chunkType-head|stype-|voicetype-	27	ccof	_	_
27	और	और	CC	avy	lex-और|cat-avy|gen-|num-|pers-|case-|vib-|tam-|chunkId-CCP2|chunkType-head|stype-|voicetype-	34	r6	_	_
28	उसके	वह	PRP	pn	lex-वह|cat-pn|gen-m|num-sg|pers-3|case-o|vib-का|tam-kA|chunkId-NP11|chunkType-head|stype-|voicetype-	29	r6	_	_
29	परिवार	परिवार	NN	n	lex-परिवार|cat-n|gen-m|num-sg|pers-3|case-o|vib-0_का|tam-0|chunkId-NP12|chunkType-head|stype-|voicetype-	27	ccof	_	_
30	का	का	PSP	psp	lex-का|cat-psp|gen-m|num-sg|pers-|case-d|vib-|tam-|chunkId-NP12|chunkType-child|stype-|voicetype-	29	lwg__psp	_	_
31	स्थायी	स्थायी	JJ	adj	lex-स्थायी|cat-adj|gen-any|num-any|pers-|case-d|vib-|tam-|chunkId-NP13|chunkType-child|stype-|voicetype-	32	nmod__adj	_	_
32	निवासी	निवासी	NN	n	lex-निवासी|cat-n|gen-f|num-sg|pers-3|case-o|vib-0_वाला|tam-0|chunkId-NP13|chunkType-head|stype-|voicetype-	34	nmod	_	_
33	वाला	वाला	PSP	psp	lex-वाला|cat-psp|gen-m|num-sg|pers-|case-d|vib-|tam-|chunkId-NP13|chunkType-child|stype-|voicetype-	32	lwg__psp	_	_
34	प्रमाण	प्रमाण	NN	n	lex-प्रमाण|cat-n|gen-m|num-sg|pers-3|case-d|vib-0|tam-0|chunkId-NP14|chunkType-head|stype-|voicetype-	36	k2	_	_
35	रद्द	रद्द	JJ	adj	lex-रद्द|cat-adj|gen-any|num-any|pers-|case-|vib-|tam-|chunkId-JJP|chunkType-head|stype-|voicetype-	36	pof	_	_
36	करने	कर	VM	v	lex-कर|cat-v|gen-any|num-sg|pers-any|case-o|vib-ना_का|tam-nA|chunkId-VGNN|chunkType-head|stype-|voicetype-	38	r6-k2	_	_
37	का	का	PSP	psp	lex-का|cat-psp|gen-m|num-sg|pers-|case-d|vib-|tam-|chunkId-VGNN|chunkType-child|stype-|voicetype-	36	lwg__psp	_	_
38	आदेश	आदेश	NN	n	lex-आदेश|cat-n|gen-m|num-sg|pers-3|case-d|vib-0|tam-0|chunkId-NP15|chunkType-head|stype-|voicetype-	39	pof	_	_
39	दिया	दे	VM	v	lex-दे|cat-v|gen-m|num-sg|pers-any|case-|vib-या|tam-yA|chunkId-VGF|chunkType-head|stype-declarative|voicetype-active	0	main	_	_
40	.	.	SYM	punc	lex-.|cat-punc|gen-|num-|pers-|case-|vib-|tam-|chunkId-BLK|chunkType-head|stype-|voicetype-	39	rsym	_	_

1	वैसे	वैसे	RB	adv	lex-वैसे|cat-adv|gen-|num-|pers-|case-|vib-|tam-|chunkId-RBP|chunkType-head|stype-|voicetype-	9	sent-adv	_	_
2	जुल्फ़िकार	जुल्फ़िकार	NNP	n	lex-जुल्फ़िकार|cat-n|gen-m|num-sg|pers-3|case-o|vib-0_का|tam-0|chunkId-NP|chunkType-head|stype-|voicetype-	4	r6	_	_
3	का	का	PSP	psp	lex-का|cat-psp|gen-m|num-sg|pers-|case-d|vib-|tam-|chunkId-NP|chunkType-child|stype-|voicetype-	2	lwg__psp	_	_
4	परिवार	परिवार	NN	n	lex-परिवार|cat-n|gen-m|num-sg|pers-3|case-d|vib-0|tam-0|chunkId-NP2|chunkType-head|stype-|voicetype-	9	k1	_	_
5	खुद	खुद	PRP	pn	lex-खुद|cat-pn|gen-|num-|pers-|case-o|vib-0_को|tam-|chunkId-NP3|chunkType-head|stype-|voicetype-	9	k2	_	_
6	को	को	PSP	psp	lex-को|cat-psp|gen-|num-|pers-|case-|vib-|tam-|chunkId-NP3|chunkType-child|stype-|voicetype-	5	lwg__psp	_	_
7	भारतीय	भारतीय	JJ	adj	lex-भारतीय|cat-adj|gen-any|num-any|pers-|case-d|vib-|tam-|chunkId-NP4|chunkType-child|stype-|voicetype-	8	nmod__adj	_	_
8	नागरिक	नागरिक	NN	n	lex-नागरिक|cat-n|gen-m|num-sg|pers-3|case-d|vib-0|tam-0|chunkId-NP4|chunkType-head|stype-|voicetype-	9	k2g	_	_
9	बताता	बता	VM	v	lex-बता|cat-v|gen-m|num-sg|pers-3|case-|vib-ता_रह+या|tam-wA|chunkId-VGF|chunkType-head|stype-declarative|voicetype-active	0	main	_	_
10	रहा	रह	VAUX	v	lex-रह|cat-v|gen-m|num-sg|pers-3|case-|vib-या|tam-yA|chunkId-VGF|chunkType-child|stype-|voicetype-	9	lwg__vaux	_	_
11	.	.	SYM	punc	lex-.|cat-punc|gen-|num-|pers-|case-|vib-|tam-|chunkId-BLK|chunkType-head|stype-|voicetype-	9	rsym	_	_

1	अधिकारी	अधिकारी	NN	n	lex-अधिकारी|cat-n|gen-m|num-pl|pers-3|case-d|vib-0|tam-0|chunkId-NP|chunkType-head|stype-|voicetype-	2	k1	_	_
2	मानते	मान	VM	v	lex-मान|cat-v|gen-m|num-pl|pers-3|case-|vib-ता_है|tam-wA|chunkId-VGF|chunkType-head|stype-declarative|voicetype-active	0	main	_	_
3	हैं	है	VAUX	v	lex-है|cat-v|gen-any|num-pl|pers-3|case-|vib-है|tam-hE|chunkId-VGF|chunkType-child|stype-|voicetype-	2	lwg__vaux	_	_
4	कि	कि	CC	avy	lex-कि|cat-avy|gen-|num-|pers-|case-|vib-|tam-|chunkId-CCP|chunkType-head|stype-|voicetype-	2	k2	_	_
5	राज्य	राज्य	NN	n	lex-राज्य|cat-n|gen-m|num-sg|pers-3|case-o|vib-0_में|tam-0|chunkId-NP2|chunkType-head|stype-|voicetype-	14	k7p	_	_
6	में	में	PSP	psp	lex-में|cat-psp|gen-|num-|pers-|case-|vib-|tam-|chunkId-NP2|chunkType-child|stype-|voicetype-	5	lwg__psp	_	_
7	फ़र्जी	फर्जी	JJ	adj	lex-फर्जी|cat-adj|gen-any|num-any|pers-|case-o|vib-|tam-|chunkId-NP3|chunkType-child|stype-|voicetype-	9	nmod__adj	_	_
8	भारतीय	भारतीय	JJ	adj	lex-भारतीय|cat-adj|gen-any|num-any|pers-|case-o|vib-|tam-|chunkId-NP3|chunkType-child|stype-|voicetype-	9	nmod__adj	_	_
9	नागरिकों	नागरिक	NN	n	lex-नागरिक|cat-n|gen-m|num-pl|pers-3|case-o|vib-0_का|tam-0|chunkId-NP3|chunkType-head|stype-|voicetype-	11	r6	_	_
10	की	का	PSP	psp	lex-का|cat-psp|gen-f|num-sg|pers-|case-d|vib-|tam-|chunkId-NP3|chunkType-child|stype-|voicetype-	9	lwg__psp	_	_
11	संख्या	संख्या	NN	n	lex-संख्या|cat-n|gen-f|num-sg|pers-3|case-d|vib-0|tam-0|chunkId-NP4|chunkType-head|stype-|voicetype-	14	k1	_	_
12	काफ़ी	काफी	INTF	avy	lex-काफी|cat-avy|gen-|num-|pers-|case-|vib-|tam-|chunkId-JJP|chunkType-head|stype-|voicetype-	14	k1s	_	_
13	अधिक	अधिक	QF	avy	lex-अधिक|cat-avy|gen-|num-|pers-|case-|vib-|tam-|chunkId-JJP|chunkType-child|stype-|voicetype-	12	nmod__adj	_	_
14	होगी	हो	VM	v	lex-हो|cat-v|gen-f|num-sg|pers-3|case-|vib-गा|tam-gA|chunkId-VGF2|chunkType-head|stype-declarative|voicetype-active	4	ccof	_	_
15	.	.	SYM	punc	lex-.|cat-punc|gen-|num-|pers-|case-|vib-|tam-|chunkId-BLK|chunkType-head|stype-|voicetype-	2	rsym	_	_

