1	भारतीय	भारतीय	NNPC	adj	lex-भारतीय|cat-adj|gen-any|num-any|pers-|case-o|vib-|tam-|chunkId-NP|chunkType-child|stype-|voicetype-	4	pof__cn	_	_
2	अंतरिक्ष	अंतरिक्ष	NNPC	n	lex-अंतरिक्ष|cat-n|gen-m|num-sg|pers-3|case-d|vib-0|tam-0|chunkId-NP|chunkType-child|stype-|voicetype-	4	pof__cn	_	_
3	अनुसंधान	अनुसंधान	NNPC	n	lex-अनुसंधान|cat-n|gen-m|num-sg|pers-3|case-d|vib-0|tam-0|chunkId-NP|chunkType-child|stype-|voicetype-	4	pof__cn	_	_
4	केंद्र	केंद्र	NNP	n	lex-केंद्र|cat-n|gen-m|num-sg|pers-3|case-o|vib-0|tam-0|chunkId-NP|chunkType-head|stype-|voicetype-	33	k1	_	_
5	(	_	SYM	punc	lex-_|cat-punc|gen-|num-|pers-|case-|vib-|tam-|chunkId-NP2|chunkType-child|stype-|voicetype-	6	rsym	_	_
6	इसरो	इसरो	NNP	n	lex-इसरो|cat-n|gen-m|num-sg|pers-3|case-o|vib-0|tam-0|chunkId-NP2|chunkType-head|stype-|voicetype-	4	rs	_	_
7	)	_	SYM	punc	lex-_|cat-punc|gen-|num-|pers-|case-|vib-|tam-|chunkId-NP2|chunkType-child|stype-|voicetype-	6	rsym	_	_
8	ने	_	PSP	_	lex-_|cat-_|gen-|num-|pers-|case-|vib-|tam-|chunkId-FRAGP|chunkType-head|stype-|voicetype-	4	fragof	_	_
9	ग्रामीण	ग्रामीण	JJ	adj	lex-ग्रामीण|cat-adj|gen-any|num-any|pers-|case-o|vib-|tam-|chunkId-NP3|chunkType-child|stype-|voicetype-	10	nmod__adj	_	_
10	जनता	जनता	NN	n	lex-जनता|cat-n|gen-f|num-sg|pers-3|case-o|vib-0_को|tam-0|chunkId-NP3|chunkType-head|stype-|voicetype-	18	k2	_	_
11	को	को	PSP	psp	lex-को|cat-psp|gen-|num-|pers-|case-|vib-|tam-|chunkId-NP3|chunkType-child|stype-|voicetype-	10	lwg__psp	_	_
12	उनकी	वह	PRP	pn	lex-वह|cat-pn|gen-f|num-pl|pers-3|case-o|vib-का|tam-kA|chunkId-NP4|chunkType-head|stype-|voicetype-	13	r6	_	_
13	जरूरत	जरूरत	NN	n	lex-जरूरत|cat-n|gen-f|num-sg|pers-3|case-o|vib-0_का|tam-0|chunkId-NP5|chunkType-head|stype-|voicetype-	16	r6	_	_
14	की	का	PSP	psp	lex-का|cat-psp|gen-f|num-pl|pers-|case-d|vib-|tam-|chunkId-NP5|chunkType-child|stype-|voicetype-	13	lwg__psp	_	_
15	सभी	सभी	QF	avy	lex-सभी|cat-avy|gen-|num-|pers-|case-|vib-|tam-|chunkId-NP6|chunkType-child|stype-|voicetype-	16	nmod__adj	_	_
16	जानकारियां	जानकारी	NN	n	lex-जानकारी|cat-n|gen-f|num-pl|pers-3|case-d|vib-0|tam-0|chunkId-NP6|chunkType-head|stype-|voicetype-	18	k4	_	_
17	उपलब्ध	उपलब्ध	JJ	adj	lex-उपलब्ध|cat-adj|gen-any|num-any|pers-|case-|vib-|tam-|chunkId-JJP|chunkType-head|stype-|voicetype-	18	pof	_	_
18	कराने	करा	VM	v	lex-करा|cat-v|gen-any|num-any|pers-any|case-o|vib-ना_के_लिए|tam-nA|chunkId-VGNN|chunkType-head|stype-|voicetype-	33	rt	_	_
19	के	के	PSP	psp	lex-के|cat-psp|gen-|num-|pers-|case-|vib-|tam-|chunkId-VGNN|chunkType-child|stype-|voicetype-	18	lwg__psp	_	_
20	लिए	लिए	PSP	psp	lex-लिए|cat-psp|gen-|num-|pers-|case-|vib-|tam-|chunkId-VGNN|chunkType-child|stype-|voicetype-	18	lwg__psp	_	_
21	गांवों	गांव	NN	n	lex-गांव|cat-n|gen-m|num-pl|pers-3|case-o|vib-0_में|tam-0|chunkId-NP7|chunkType-head|stype-|voicetype-	33	k7p	_	_
22	में	में	PSP	psp	lex-में|cat-psp|gen-|num-|pers-|case-|vib-|tam-|chunkId-NP7|chunkType-child|stype-|voicetype-	21	lwg__psp	_	_
23	ग्रामीण	ग्रामीण	NNPC	n	lex-ग्रामीण|cat-n|gen-m|num-sg|pers-3|case-d|vib-0|tam-0|chunkId-NP8|chunkType-child|stype-|voicetype-	25	pof__cn	_	_
24	संसाधन	संसाधन	NNPC	n	lex-संसाधन|cat-n|gen-m|num-sg|pers-3|case-d|vib-0|tam-0|chunkId-NP8|chunkType-child|stype-|voicetype-	25	pof__cn	_	_
25	केंद्र	केंद्र	NNP	n	lex-केंद्र|cat-n|gen-m|num-sg|pers-3|case-o|vib-0|tam-0|chunkId-NP8|chunkType-head|stype-|voicetype-	30	r6	_	_
26	(	_	SYM	punc	lex-_|cat-punc|gen-|num-|pers-|case-|vib-|tam-|chunkId-NP9|chunkType-child|stype-|voicetype-	27	rsym	_	_
27	वीआरसी	वीआरसी	NNP	n	lex-वीआरसी|cat-n|gen-m|num-sg|pers-3|case-o|vib-0|tam-0|chunkId-NP9|chunkType-head|stype-|voicetype-	25	rs	_	_
28	)	_	SYM	punc	lex-_|cat-punc|gen-|num-|pers-|case-|vib-|tam-|chunkId-NP9|chunkType-child|stype-|voicetype-	27	rsym	_	_
29	की	_	PSP	_	lex-_|cat-_|gen-|num-|pers-|case-|vib-|tam-|chunkId-FRAGP2|chunkType-head|stype-|voicetype-	25	fragof	_	_
30	स्थापना	स्थापना	NN	n	lex-स्थापना|cat-n|gen-f|num-sg|pers-3|case-o|vib-0_का|tam-0|chunkId-NP10|chunkType-head|stype-|voicetype-	32	r6	_	_
31	की	का	PSP	psp	lex-का|cat-psp|gen-f|num-sg|pers-|case-d|vib-|tam-|chunkId-NP10|chunkType-child|stype-|voicetype-	30	lwg__psp	_	_
32	योजना	योजना	NN	n	lex-योजना|cat-n|gen-f|num-sg|pers-3|case-d|vib-0|tam-0|chunkId-NP11|chunkType-head|stype-|voicetype-	33	k2	_	_
33	बनाई	बना	VM	v	lex-बना|cat-v|gen-f|num-sg|pers-3|case-|vib-या_है|tam-yA|chunkId-VGF|chunkType-head|stype-declarative|voicetype-active	0	main	_	_
34	है	है	VAUX	v	lex-है|cat-v|gen-any|num-sg|pers-3|case-|vib-है|tam-hE|chunkId-VGF|chunkType-child|stype-|voicetype-	33	lwg__vaux	_	_
35	।	।	SYM	punc	lex-।|cat-punc|gen-|num-|pers-|case-|vib-|tam-|chunkId-BLK|chunkType-head|stype-|voicetype-	33	rsym	_	_

1	इसरो	इसरो	NNP	n	lex-इसरो|cat-n|gen-m|num-sg|pers-3|case-o|vib-0_का|tam-0|chunkId-NP|chunkType-head|stype-|voicetype-	3	r6	_	_
2	के	का	PSP	psp	lex-का|cat-psp|gen-m|num-sg|pers-|case-o|vib-|tam-|chunkId-NP|chunkType-child|stype-|voicetype-	1	lwg__psp	_	_
3	अध्यक्ष	अध्यक्ष	NN	n	lex-अध्यक्ष|cat-n|gen-m|num-sg|pers-3|case-o|vib-0|tam-0|chunkId-NP2|chunkType-head|stype-|voicetype-	6	nmod	_	_
4	जी.	जी.	NNPC	n	lex-जी.|cat-n|gen-m|num-sg|pers-3|case-d|vib-0|tam-0|chunkId-NP3|chunkType-child|stype-|voicetype-	6	pof__cn	_	_
5	माधवन	माधवन	NNPC	n	lex-माधवन|cat-n|gen-m|num-sg|pers-3|case-d|vib-0|tam-0|chunkId-NP3|chunkType-child|stype-|voicetype-	6	pof__cn	_	_
6	नायर	नायर	NNP	n	lex-नायर|cat-n|gen-any|num-sg|pers-3|case-o|vib-0_ने|tam-0|chunkId-NP3|chunkType-head|stype-|voicetype-	10	k1	_	_
7	ने	ने	PSP	psp	lex-ने|cat-psp|gen-|num-|pers-|case-|vib-|tam-|chunkId-NP3|chunkType-child|stype-|voicetype-	6	lwg__psp	_	_
8	बुधवार	बुधवार	NNP	n	lex-बुधवार|cat-n|gen-m|num-sg|pers-3|case-o|vib-0_को|tam-0|chunkId-NP4|chunkType-head|stype-|voicetype-	10	k7t	_	_
9	को	को	PSP	psp	lex-को|cat-psp|gen-|num-|pers-|case-|vib-|tam-|chunkId-NP4|chunkType-child|stype-|voicetype-	8	lwg__psp	_	_
10	कहा	कह	VM	v	lex-कह|cat-v|gen-m|num-sg|pers-any|case-|vib-या|tam-yA|chunkId-VGF|chunkType-head|stype-declarative|voicetype-active	0	main	_	_
11	कि	कि	CC	avy	lex-कि|cat-avy|gen-|num-|pers-|case-|vib-|tam-|chunkId-CCP|chunkType-head|stype-|voicetype-	10	k2	_	_
12	अंतरिक्ष	अंतरिक्ष	NNC	n	lex-अंतरिक्ष|cat-n|gen-m|num-sg|pers-3|case-d|vib-0|tam-0|chunkId-NP5|chunkType-child|stype-|voicetype-	13	pof__cn	_	_
13	तकनीक	तकनीक	NN	n	lex-तकनीक|cat-n|gen-f|num-sg|pers-3|case-o|vib-0_का|tam-0|chunkId-NP5|chunkType-head|stype-|voicetype-	15	r6	_	_
14	की	का	PSP	psp	lex-का|cat-psp|gen-f|num-sg|pers-|case-o|vib-|tam-|chunkId-NP5|chunkType-child|stype-|voicetype-	13	lwg__psp	_	_
15	मदद	मदद	NN	n	lex-मदद|cat-n|gen-f|num-sg|pers-3|case-o|vib-0_से|tam-0|chunkId-NP6|chunkType-head|stype-|voicetype-	29	rh	_	_
16	से	से	PSP	psp	lex-से|cat-psp|gen-|num-|pers-|case-|vib-|tam-|chunkId-NP6|chunkType-child|stype-|voicetype-	15	lwg__psp	_	_
17	गांवों	गांव	NN	n	lex-गांव|cat-n|gen-m|num-pl|pers-3|case-o|vib-0_में|tam-0|chunkId-NP7|chunkType-head|stype-|voicetype-	29	k7p	_	_
18	में	में	PSP	psp	lex-में|cat-psp|gen-|num-|pers-|case-|vib-|tam-|chunkId-NP7|chunkType-child|stype-|voicetype-	17	lwg__psp	_	_
19	लोगों	लोग	NN	n	lex-लोग|cat-n|gen-m|num-pl|pers-3|case-o|vib-0_को|tam-0|chunkId-NP8|chunkType-head|stype-|voicetype-	29	k4	_	_
20	को	को	PSP	psp	lex-को|cat-psp|gen-|num-|pers-|case-|vib-|tam-|chunkId-NP8|chunkType-child|stype-|voicetype-	19	lwg__psp	_	_
21	एक	एक	QC	num	lex-एक|cat-num|gen-any|num-any|pers-|case-any|vib-|tam-|chunkId-NP9|chunkType-child|stype-|voicetype-	23	nmod__adj	_	_
22	ही	ही	RP	avy	lex-ही|cat-avy|gen-|num-|pers-|case-|vib-|tam-|chunkId-NP9|chunkType-child|stype-|voicetype-	23	lwg__rp	_	_
23	सेंटर	सेंटर	NN	n	lex-सेंटर|cat-n|gen-m|num-sg|pers-3|case-o|vib-0_से|tam-0|chunkId-NP9|chunkType-head|stype-|voicetype-	29	k5	_	_
24	से	से	PSP	psp	lex-से|cat-psp|gen-|num-|pers-|case-|vib-|tam-|chunkId-NP9|chunkType-child|stype-|voicetype-	23	lwg__psp	_	_
25	कई	कई	QF	avy	lex-कई|cat-avy|gen-|num-|pers-|case-|vib-|tam-|chunkId-NP10|chunkType-child|stype-|voicetype-	26	nmod__adj	_	_
26	तरह	तरह	NN	n	lex-तरह|cat-n|gen-f|num-sg|pers-3|case-o|vib-0_का|tam-0|chunkId-NP10|chunkType-head|stype-|voicetype-	28	r6	_	_
27	की	का	PSP	psp	lex-का|cat-psp|gen-f|num-pl|pers-|case-d|vib-|tam-|chunkId-NP10|chunkType-child|stype-|voicetype-	26	lwg__psp	_	_
28	जानकारियां	जानकारी	NN	n	lex-जानकारी|cat-n|gen-f|num-pl|pers-3|case-d|vib-0|tam-0|chunkId-NP11|chunkType-head|stype-|voicetype-	29	k1	_	_
29	मिल	मिल	VM	v	lex-मिल|cat-v|gen-any|num-pl|pers-3|case-|vib-0_सक+गा|tam-0|chunkId-VGF2|chunkType-head|stype-declarative|voicetype-active	11	ccof	_	_
30	सकेंगी	सक	VAUX	v	lex-सक|cat-v|gen-f|num-pl|pers-3|case-|vib-गा|tam-gA|chunkId-VGF2|chunkType-child|stype-|voicetype-	29	lwg__vaux	_	_
31	।	।	SYM	punc	lex-।|cat-punc|gen-|num-|pers-|case-|vib-|tam-|chunkId-BLK|chunkType-head|stype-|voicetype-	10	rsym	_	_

1	जयपुर	जयपुर	NNP	n	lex-जयपुर|cat-n|gen-m|num-sg|pers-3|case-o|vib-0_में|tam-0|chunkId-NP|chunkType-head|stype-|voicetype-	12	k7	_	_
2	में	में	PSP	psp	lex-में|cat-psp|gen-|num-|pers-|case-|vib-|tam-|chunkId-NP|chunkType-child|stype-|voicetype-	1	lwg__psp	_	_
3	२४वें	२४वाँ	NNPC	n	lex-२४वाँ|cat-n|gen-m|num-sg|pers-3|case-d|vib-0|tam-0|chunkId-NP2|chunkType-child|stype-|voicetype-	8	pof__cn	_	_
4	भारतीय	भारतीय	NNPC	adj	lex-भारतीय|cat-adj|gen-any|num-any|pers-|case-o|vib-|tam-|chunkId-NP2|chunkType-child|stype-|voicetype-	8	pof__cn	_	_
5	अंतरिक्ष	अंतरिक्ष	NNPC	n	lex-अंतरिक्ष|cat-n|gen-m|num-sg|pers-3|case-d|vib-0|tam-0|chunkId-NP2|chunkType-child|stype-|voicetype-	8	pof__cn	_	_
6	सुदूर	सुदूर	NNPC	n	lex-सुदूर|cat-n|gen-m|num-sg|pers-3|case-d|vib-0|tam-0|chunkId-NP2|chunkType-child|stype-|voicetype-	8	pof__cn	_	_
7	संवेदी	संवेदी	NNPC	n	lex-संवेदी|cat-n|gen-m|num-sg|pers-3|case-d|vib-0|tam-0|chunkId-NP2|chunkType-child|stype-|voicetype-	8	pof__cn	_	_
8	सम्मेलन	सम्मेलन	NNP	n	lex-सम्मेलन|cat-n|gen-m|num-sg|pers-3|case-o|vib-0_में|tam-0|chunkId-NP2|chunkType-head|stype-|voicetype-	12	k7	_	_
9	में	में	PSP	psp	lex-में|cat-psp|gen-|num-|pers-|case-|vib-|tam-|chunkId-NP2|chunkType-child|stype-|voicetype-	8	lwg__psp	_	_
10	नायर	नायर	NNP	n	lex-नायर|cat-n|gen-any|num-sg|pers-3|case-o|vib-0_ने|tam-0|chunkId-NP3|chunkType-head|stype-|voicetype-	12	k1	_	_
11	ने	ने	PSP	psp	lex-ने|cat-psp|gen-|num-|pers-|case-|vib-|tam-|chunkId-NP3|chunkType-child|stype-|voicetype-	10	lwg__psp	_	_
12	कहा	कह	VM	v	lex-कह|cat-v|gen-m|num-sg|pers-any|case-|vib-या|tam-yA|chunkId-VGF|chunkType-head|stype-declarative|voicetype-active	0	main	_	_
13	कि	कि	CC	avy	lex-कि|cat-avy|gen-|num-|pers-|case-|vib-|tam-|chunkId-CCP|chunkType-head|stype-|voicetype-	12	k2	_	_
14	इन	यह	DEM	pn	lex-यह|cat-pn|gen-any|num-pl|pers-3|case-o|vib-|tam-|chunkId-NP4|chunkType-child|stype-|voicetype-	15	nmod__adj	_	_
15	केंद्रों	केंद्र	NN	n	lex-केंद्र|cat-n|gen-m|num-pl|pers-3|case-o|vib-0_पर|tam-0|chunkId-NP4|chunkType-head|stype-|voicetype-	19	k7	_	_
16	पर	पर	PSP	psp	lex-पर|cat-psp|gen-|num-|pers-|case-|vib-|tam-|chunkId-NP4|chunkType-child|stype-|voicetype-	15	lwg__psp	_	_
17	कंप्यूटर	कंप्यूटर	NNC	n	lex-कंप्यूटर|cat-n|gen-m|num-sg|pers-3|case-d|vib-0|tam-0|chunkId-NP5|chunkType-child|stype-|voicetype-	18	pof__cn	_	_
18	टर्मिनल	टर्मिनल	NN	n	lex-टर्मिनल|cat-n|gen-m|num-pl|pers-3|case-d|vib-0|tam-0|chunkId-NP5|chunkType-head|stype-|voicetype-	19	k2	_	_
19	लगाए	लगा	VM	v	lex-लगा|cat-v|gen-m|num-pl|pers-3|case-|vib-या_जा+गा|tam-yA|chunkId-VGF2|chunkType-head|stype-declarative|voicetype-active	13	ccof	_	_
20	जाएंगे	जा	VAUX	v	lex-जा|cat-v|gen-m|num-pl|pers-3|case-|vib-गा|tam-gA|chunkId-VGF2|chunkType-child|stype-|voicetype-	19	lwg__vaux	_	_
21	जिसके	जो	PRP	pn	lex-जो|cat-pn|gen-any|num-sg|pers-3|case-o|vib-0_जरिये|tam-ke|chunkId-NP6|chunkType-head|stype-|voicetype-	38	k3	_	_
22	जरिए	जरिये	PSP	n	lex-जरिये|cat-n|gen-m|num-|pers-|case-o|vib-|tam-|chunkId-NP6|chunkType-child|stype-|voicetype-	21	lwg__psp	_	_
23	गांववालों	गांववाला	NN	n	lex-गांववाला|cat-n|gen-m|num-pl|pers-3|case-o|vib-0_को|tam-0|chunkId-NP7|chunkType-head|stype-|voicetype-	38	k4	_	_
24	को	को	PSP	psp	lex-को|cat-psp|gen-|num-|pers-|case-|vib-|tam-|chunkId-NP7|chunkType-child|stype-|voicetype-	23	lwg__psp	_	_
25	भूमि	भूमि	NN	n	lex-भूमि|cat-n|gen-f|num-sg|pers-3|case-d|vib-0|tam-0|chunkId-NP8|chunkType-head|stype-|voicetype-	32	ccof	_	_
26	,	COMMA	SYM	punc	lex-COMMA|cat-punc|gen-|num-|pers-|case-|vib-|tam-|chunkId-NP8|chunkType-child|stype-|voicetype-	25	rsym	_	_
27	राजस्व	राजस्व	NN	n	lex-राजस्व|cat-n|gen-m|num-sg|pers-3|case-d|vib-0|tam-0|chunkId-NP9|chunkType-head|stype-|voicetype-	32	ccof	_	_
28	,	COMMA	SYM	punc	lex-COMMA|cat-punc|gen-|num-|pers-|case-|vib-|tam-|chunkId-NP9|chunkType-child|stype-|voicetype-	27	rsym	_	_
29	कृषि	कृषि	NN	n	lex-कृषि|cat-n|gen-f|num-sg|pers-3|case-d|vib-0|tam-0|chunkId-NP10|chunkType-head|stype-|voicetype-	32	ccof	_	_
30	,	COMMA	SYM	punc	lex-COMMA|cat-punc|gen-|num-|pers-|case-|vib-|tam-|chunkId-NP10|chunkType-child|stype-|voicetype-	29	rsym	_	_
31	मौसम	मौसम	NN	n	lex-मौसम|cat-n|gen-m|num-sg|pers-3|case-d|vib-0|tam-0|chunkId-NP11|chunkType-head|stype-|voicetype-	32	ccof	_	_
32	और	और	CC	avy	lex-और|cat-avy|gen-|num-|pers-|case-|vib-|tam-|chunkId-CCP2|chunkType-head|stype-|voicetype-	34	jjmod	_	_
33	ऋण	ऋण	NN	n	lex-ऋण|cat-n|gen-m|num-sg|pers-3|case-d|vib-0|tam-0|chunkId-NP12|chunkType-head|stype-|voicetype-	32	ccof	_	_
34	संबंधी	संबंधी	JJ	adj	lex-संबंधी|cat-adj|gen-any|num-any|pers-|case-o|vib-|tam-|chunkId-JJP|chunkType-head|stype-|voicetype-	35	nmod	_	_
35	सूचनाओं	सूचना	NN	n	lex-सूचना|cat-n|gen-f|num-pl|pers-3|case-o|vib-0_का|tam-0|chunkId-NP13|chunkType-head|stype-|voicetype-	37	r6	_	_
36	की	का	PSP	psp	lex-का|cat-psp|gen-f|num-sg|pers-|case-d|vib-|tam-|chunkId-NP13|chunkType-child|stype-|voicetype-	35	lwg__psp	_	_
37	जानकारी	जानकारी	NN	n	lex-जानकारी|cat-n|gen-f|num-sg|pers-3|case-d|vib-0|tam-0|chunkId-NP14|chunkType-head|stype-|voicetype-	38	k2	_	_
38	दी	दे	VM	v	lex-दे|cat-v|gen-any|num-sg|pers-3|case-|vib-या_जा_सक+गा|tam-yA|chunkId-VGF3|chunkType-head|stype-declarative|voicetype-passive	18	nmod__relc	_	_
39	जा	जा	VAUX	v	lex-जा|cat-v|gen-any|num-any|pers-any|case-|vib-0|tam-0|chunkId-VGF3|chunkType-child|stype-|voicetype-	38	lwg__vaux	_	_
40	सकेगी	सक	VAUX	v	lex-सक|cat-v|gen-f|num-sg|pers-3|case-|vib-गा|tam-gA|chunkId-VGF3|chunkType-child|stype-|voicetype-	38	lwg__vaux	_	_
41	।	।	SYM	punc	lex-।|cat-punc|gen-|num-|pers-|case-|vib-|tam-|chunkId-BLK|chunkType-head|stype-|voicetype-	12	rsym	_	_

1	उन्होंने	वह	PRP	pn	lex-वह|cat-pn|gen-any|num-sg|pers-3h|case-o|vib-ने|tam-ne|chunkId-NP|chunkType-head|stype-|voicetype-	2	k1	_	_
2	कहा	कह	VM	v	lex-कह|cat-v|gen-m|num-sg|pers-any|case-|vib-या|tam-yA|chunkId-VGF|chunkType-head|stype-declarative|voicetype-active	0	main	_	_
3	कि	कि	CC	avy	lex-कि|cat-avy|gen-|num-|pers-|case-|vib-|tam-|chunkId-CCP|chunkType-head|stype-|voicetype-	2	k2	_	_
4	इसरो	इसरो	NNP	n	lex-इसरो|cat-n|gen-m|num-sg|pers-3|case-o|vib-0_ने|tam-0|chunkId-NP2|chunkType-head|stype-|voicetype-	16	k1	_	_
5	ने	ने	PSP	psp	lex-ने|cat-psp|gen-|num-|pers-|case-|vib-|tam-|chunkId-NP2|chunkType-child|stype-|voicetype-	4	lwg__psp	_	_
6	तमिलनाडु	तमिलनाडु	NNP	n	lex-तमिलनाडु|cat-n|gen-m|num-sg|pers-3|case-o|vib-0_का|tam-0|chunkId-NP3|chunkType-head|stype-|voicetype-	9	r6	_	_
7	के	का	PSP	psp	lex-का|cat-psp|gen-m|num-pl|pers-|case-o|vib-|tam-|chunkId-NP3|chunkType-child|stype-|voicetype-	6	lwg__psp	_	_
8	चुनिंदा	चुनिंदा	JJ	adj	lex-चुनिंदा|cat-adj|gen-any|num-any|pers-|case-o|vib-|tam-|chunkId-NP4|chunkType-child|stype-|voicetype-	9	nmod__adj	_	_
9	गांवों	गांव	NN	n	lex-गांव|cat-n|gen-m|num-pl|pers-3|case-o|vib-0_में|tam-0|chunkId-NP4|chunkType-head|stype-|voicetype-	16	k7p	_	_
10	में	में	PSP	psp	lex-में|cat-psp|gen-|num-|pers-|case-|vib-|tam-|chunkId-NP4|chunkType-child|stype-|voicetype-	9	lwg__psp	_	_
11	इस	यह	DEM	pn	lex-यह|cat-pn|gen-any|num-sg|pers-3|case-o|vib-|tam-|chunkId-NP5|chunkType-child|stype-|voicetype-	12	nmod__adj	_	_
12	योजना	योजना	NN	n	lex-योजना|cat-n|gen-f|num-sg|pers-3|case-o|vib-0_का|tam-0|chunkId-NP5|chunkType-head|stype-|voicetype-	15	r6-k2	_	_
13	की	का	PSP	psp	lex-का|cat-psp|gen-f|num-sg|pers-|case-d|vib-|tam-|chunkId-NP5|chunkType-child|stype-|voicetype-	12	lwg__psp	_	_
14	सफल	सफल	JJ	adj	lex-सफल|cat-adj|gen-any|num-any|pers-|case-d|vib-|tam-|chunkId-NP6|chunkType-child|stype-|voicetype-	15	nmod__adj	_	_
15	शुरुआत	शुरुआत	NN	n	lex-शुरुआत|cat-n|gen-f|num-sg|pers-3|case-d|vib-0|tam-0|chunkId-NP6|chunkType-head|stype-|voicetype-	16	pof	_	_
16	की	कर	VM	v	lex-कर|cat-v|gen-f|num-sg|pers-3|case-|vib-या_है|tam-yA|chunkId-VGF2|chunkType-head|stype-declarative|voicetype-active	3	ccof	_	_
17	है	है	VAUX	v	lex-है|cat-v|gen-any|num-sg|pers-3|case-|vib-है|tam-hE|chunkId-VGF2|chunkType-child|stype-|voicetype-	16	lwg__vaux	_	_
18	।	।	SYM	punc	lex-।|cat-punc|gen-|num-|pers-|case-|vib-|tam-|chunkId-BLK|chunkType-head|stype-|voicetype-	2	rsym	_	_

1	इस	यह	DEM	pn	lex-यह|cat-pn|gen-any|num-sg|pers-3|case-o|vib-|tam-|chunkId-NP|chunkType-child|stype-|voicetype-	2	nmod__adj	_	_
2	सम्मेलन	सम्मेलन	NN	n	lex-सम्मेलन|cat-n|gen-m|num-sg|pers-3|case-o|vib-0_का|tam-0|chunkId-NP|chunkType-head|stype-|voicetype-	4	r6-k2	_	_
3	का	का	PSP	psp	lex-का|cat-psp|gen-m|num-sg|pers-|case-d|vib-|tam-|chunkId-NP|chunkType-child|stype-|voicetype-	2	lwg__psp	_	_
4	उद्घाटन	उद्घाटन	NN	n	lex-उद्घाटन|cat-n|gen-m|num-sg|pers-3|case-d|vib-0|tam-0|chunkId-NP2|chunkType-head|stype-|voicetype-	12	pof	_	_
5	राजस्थान	राजस्थान	NNP	n	lex-राजस्थान|cat-n|gen-m|num-sg|pers-3|case-o|vib-0_का|tam-0|chunkId-NP3|chunkType-head|stype-|voicetype-	7	r6	_	_
6	की	का	PSP	psp	lex-का|cat-psp|gen-f|num-sg|pers-|case-o|vib-|tam-|chunkId-NP3|chunkType-child|stype-|voicetype-	5	lwg__psp	_	_
7	मुख्यमंत्री	मुख्यमंत्री	NNP	n	lex-मुख्यमंत्री|cat-n|gen-any|num-sg|pers-3|case-o|vib-0|tam-0|chunkId-NP4|chunkType-head|stype-|voicetype-	10	nmod	_	_
8	वसुंधरा	वसुंधरा	NNPC	n	lex-वसुंधरा|cat-n|gen-f|num-sg|pers-3|case-d|vib-0|tam-0|chunkId-NP5|chunkType-child|stype-|voicetype-	10	pof__cn	_	_
9	राजे	राजे	NNPC	n	lex-राजे|cat-n|gen-f|num-sg|pers-3|case-d|vib-0|tam-0|chunkId-NP5|chunkType-child|stype-|voicetype-	10	pof__cn	_	_
10	सिंधिया	सिंधिया	NNP	n	lex-सिंधिया|cat-n|gen-any|num-sg|pers-3|case-o|vib-0_ने|tam-0|chunkId-NP5|chunkType-head|stype-|voicetype-	12	k1	_	_
11	ने	ने	PSP	psp	lex-ने|cat-psp|gen-|num-|pers-|case-|vib-|tam-|chunkId-NP5|chunkType-child|stype-|voicetype-	10	lwg__psp	_	_
12	किया	कर	VM	v	lex-कर|cat-v|gen-m|num-sg|pers-any|case-|vib-या|tam-yA|chunkId-VGF|chunkType-head|stype-declarative|voicetype-active	0	main	_	_
13	।	।	SYM	punc	lex-।|cat-punc|gen-|num-|pers-|case-|vib-|tam-|chunkId-BLK|chunkType-head|stype-|voicetype-	12	rsym	_	_

1	नायर	नायर	NNP	n	lex-नायर|cat-n|gen-any|num-sg|pers-3|case-o|vib-0_ने|tam-0|chunkId-NP|chunkType-head|stype-|voicetype-	5	k1	_	_
2	ने	ने	PSP	psp	lex-ने|cat-psp|gen-|num-|pers-|case-|vib-|tam-|chunkId-NP|chunkType-child|stype-|voicetype-	1	lwg__psp	_	_
3	मुख्यमंत्री	मुख्यमंत्री	NNP	n	lex-मुख्यमंत्री|cat-n|gen-m|num-sg|pers-3|case-o|vib-0_से|tam-0|chunkId-NP2|chunkType-head|stype-|voicetype-	5	k4	_	_
4	से	से	PSP	psp	lex-से|cat-psp|gen-|num-|pers-|case-|vib-|tam-|chunkId-NP2|chunkType-child|stype-|voicetype-	3	lwg__psp	_	_
5	कहा	कह	VM	v	lex-कह|cat-v|gen-m|num-sg|pers-any|case-|vib-या|tam-yA|chunkId-VGF|chunkType-head|stype-declarative|voicetype-active	0	main	_	_
6	कि	कि	CC	avy	lex-कि|cat-avy|gen-|num-|pers-|case-|vib-|tam-|chunkId-CCP|chunkType-head|stype-|voicetype-	5	k2	_	_
7	अगर	अगर	CC	avy	lex-अगर|cat-avy|gen-|num-|pers-|case-|vib-|tam-|chunkId-CCP2|chunkType-head|stype-|voicetype-	26	vmod	_	_
8	उनकी	वह	PRP	pn	lex-वह|cat-pn|gen-f|num-sg|pers-3h|case-o|vib-का|tam-kA|chunkId-NP3|chunkType-head|stype-|voicetype-	9	r6	_	_
9	सरकार	सरकार	NN	n	lex-सरकार|cat-n|gen-f|num-sg|pers-3|case-d|vib-0|tam-0|chunkId-NP4|chunkType-head|stype-|voicetype-	15	k1	_	_
10	भूमि	भूमि	NN	n	lex-भूमि|cat-n|gen-f|num-sg|pers-3|case-d|vib-0|tam-0|chunkId-NP5|chunkType-head|stype-|voicetype-	11	ccof	_	_
11	और	और	CC	avy	lex-और|cat-avy|gen-|num-|pers-|case-|vib-|tam-|chunkId-CCP3|chunkType-head|stype-|voicetype-	15	k2	_	_
12	बुनियादी	बुनियादी	JJ	adj	lex-बुनियादी|cat-adj|gen-any|num-any|pers-|case-d|vib-|tam-|chunkId-NP6|chunkType-child|stype-|voicetype-	13	nmod__adj	_	_
13	सुविधाएं	सुविधा	NN	n	lex-सुविधा|cat-n|gen-f|num-pl|pers-3|case-d|vib-0|tam-0|chunkId-NP6|chunkType-head|stype-|voicetype-	11	ccof	_	_
14	उपलब्ध	उपलब्ध	JJ	adj	lex-उपलब्ध|cat-adj|gen-any|num-any|pers-|case-|vib-|tam-|chunkId-JJP|chunkType-head|stype-|voicetype-	15	pof	_	_
15	कराती	करा	VM	v	lex-करा|cat-v|gen-f|num-sg|pers-3|case-|vib-ता_है|tam-wA|chunkId-VGF2|chunkType-head|stype-declarative|voicetype-active	7	ccof	_	_
16	है	है	VAUX	v	lex-है|cat-v|gen-any|num-sg|pers-3|case-|vib-है|tam-hE|chunkId-VGF2|chunkType-child|stype-|voicetype-	15	lwg__vaux	_	_
17	तो	तो	CC	avy	lex-तो|cat-avy|gen-|num-|pers-|case-|vib-|tam-|chunkId-CCP4|chunkType-head|stype-|voicetype-	6	ccof	_	_
18	इसरो	इसरो	NNP	n	lex-इसरो|cat-n|gen-m|num-sg|pers-3|case-d|vib-0|tam-0|chunkId-NP7|chunkType-head|stype-|voicetype-	26	k1	_	_
19	इस	यह	DEM	pn	lex-यह|cat-pn|gen-any|num-sg|pers-3|case-o|vib-|tam-|chunkId-NP8|chunkType-child|stype-|voicetype-	20	nmod__adj	_	_
20	तरह	तरह	NN	n	lex-तरह|cat-n|gen-f|num-sg|pers-3|case-o|vib-0_का|tam-0|chunkId-NP8|chunkType-head|stype-|voicetype-	22	r6	_	_
21	के	का	PSP	psp	lex-का|cat-psp|gen-m|num-pl|pers-|case-d|vib-|tam-|chunkId-NP8|chunkType-child|stype-|voicetype-	20	lwg__psp	_	_
22	केंद्र	केंद्र	NN	n	lex-केंद्र|cat-n|gen-m|num-pl|pers-3|case-d|vib-0|tam-0|chunkId-NP9|chunkType-head|stype-|voicetype-	23	k2	_	_
23	खोलने	खोल	VM	v	lex-खोल|cat-v|gen-any|num-any|pers-any|case-o|vib-ना_को|tam-nA|chunkId-VGNN|chunkType-head|stype-|voicetype-	26	rt	_	_
24	को	को	PSP	psp	lex-को|cat-psp|gen-|num-|pers-|case-|vib-|tam-|chunkId-VGNN|chunkType-child|stype-|voicetype-	23	lwg__psp	_	_
25	तैयार	तैयार	JJ	adj	lex-तैयार|cat-adj|gen-any|num-any|pers-|case-|vib-|tam-|chunkId-JJP2|chunkType-head|stype-|voicetype-	26	k1s	_	_
26	है	है	VM	v	lex-है|cat-v|gen-any|num-sg|pers-3|case-|vib-है|tam-hE|chunkId-VGF3|chunkType-head|stype-declarative|voicetype-active	17	ccof	_	_
27	।	।	SYM	punc	lex-।|cat-punc|gen-|num-|pers-|case-|vib-|tam-|chunkId-BLK|chunkType-head|stype-|voicetype-	5	rsym	_	_

1	पिछले	पिछला	JJ	adj	lex-पिछला|cat-adj|gen-m|num-pl|pers-|case-o|vib-|tam-|chunkId-NP|chunkType-child|stype-|voicetype-	2	nmod__adj	_	_
2	दिनों	दिन	NN	n	lex-दिन|cat-n|gen-m|num-pl|pers-3|case-o|vib-0|tam-0|chunkId-NP|chunkType-head|stype-|voicetype-	13	k7t	_	_
3	एडुसेट	एडुसेट	NNP	n	lex-एडुसेट|cat-n|gen-m|num-sg|pers-3|case-d|vib-0|tam-0|chunkId-NP2|chunkType-head|stype-|voicetype-	4	ccof	_	_
4	और	और	CC	avy	lex-और|cat-avy|gen-|num-|pers-|case-|vib-|tam-|chunkId-CCP|chunkType-head|stype-|voicetype-	6	jjmod	_	_
5	रिसोर्ससेट	रिसोर्ससेट	NNP	n	lex-रिसोर्ससेट|cat-n|gen-m|num-sg|pers-3|case-d|vib-0|tam-0|chunkId-NP3|chunkType-head|stype-|voicetype-	4	ccof	_	_
6	नामक	नामक	JJ	adj	lex-नामक|cat-adj|gen-any|num-any|pers-|case-o|vib-|tam-|chunkId-JJP|chunkType-head|stype-|voicetype-	7	nmod	_	_
7	उपग्रहों	उपग्रह	NN	n	lex-उपग्रह|cat-n|gen-m|num-pl|pers-3|case-o|vib-0_का|tam-0|chunkId-NP4|chunkType-head|stype-|voicetype-	10	r6	_	_
8	के	का	PSP	psp	lex-का|cat-psp|gen-m|num-sg|pers-|case-o|vib-|tam-|chunkId-NP4|chunkType-child|stype-|voicetype-	7	lwg__psp	_	_
9	सफल	सफल	JJ	adj	lex-सफल|cat-adj|gen-any|num-any|pers-|case-o|vib-|tam-|chunkId-NP5|chunkType-child|stype-|voicetype-	10	nmod__adj	_	_
10	प्रक्षेपण	प्रक्षेपण	NN	n	lex-प्रक्षेपण|cat-n|gen-m|num-sg|pers-3|case-o|vib-0_पर|tam-0|chunkId-NP5|chunkType-head|stype-|voicetype-	13	k7	_	_
11	पर	पर	PSP	psp	lex-पर|cat-psp|gen-|num-|pers-|case-|vib-|tam-|chunkId-NP5|chunkType-child|stype-|voicetype-	10	lwg__psp	_	_
12	उन्होंने	वह	PRP	pn	lex-वह|cat-pn|gen-any|num-sg|pers-3h|case-o|vib-ने|tam-ne|chunkId-NP6|chunkType-head|stype-|voicetype-	13	k1	_	_
13	कहा	कह	VM	v	lex-कह|cat-v|gen-m|num-sg|pers-any|case-|vib-या|tam-yA|chunkId-VGF|chunkType-head|stype-declarative|voicetype-active	0	main	_	_
14	कि	कि	CC	avy	lex-कि|cat-avy|gen-|num-|pers-|case-|vib-|tam-|chunkId-CCP2|chunkType-head|stype-|voicetype-	13	k2	_	_
15	यह	यह	PRP	pn	lex-यह|cat-pn|gen-any|num-sg|pers-3|case-d|vib-0|tam-0|chunkId-NP7|chunkType-head|stype-|voicetype-	31	k1	_	_
16	गांवों	गांव	NN	n	lex-गांव|cat-n|gen-m|num-sg|pers-3|case-o|vib-0_का|tam-0|chunkId-NP8|chunkType-head|stype-|voicetype-	18	r6	_	_
17	के	का	PSP	psp	lex-का|cat-psp|gen-m|num-pl|pers-|case-o|vib-|tam-|chunkId-NP8|chunkType-child|stype-|voicetype-	16	lwg__psp	_	_
18	लोगों	लोग	NN	n	lex-लोग|cat-n|gen-m|num-pl|pers-3|case-o|vib-0_को|tam-0|chunkId-NP9|chunkType-head|stype-|voicetype-	23	k4	_	_
19	को	को	PSP	psp	lex-को|cat-psp|gen-|num-|pers-|case-|vib-|tam-|chunkId-NP9|chunkType-child|stype-|voicetype-	18	lwg__psp	_	_
20	महत्वपूर्ण	महत्वपूर्ण	JJ	adj	lex-महत्वपूर्ण|cat-adj|gen-any|num-any|pers-|case-d|vib-|tam-|chunkId-NP10|chunkType-child|stype-|voicetype-	21	nmod__adj	_	_
21	जानकारियाँ	जानकारी	NN	n	lex-जानकारी|cat-n|gen-f|num-pl|pers-3|case-d|vib-0|tam-0|chunkId-NP10|chunkType-head|stype-|voicetype-	23	k2	_	_
22	उपलब्ध	उपलब्ध	JJ	adj	lex-उपलब्ध|cat-adj|gen-any|num-any|pers-|case-|vib-|tam-|chunkId-JJP2|chunkType-head|stype-|voicetype-	23	pof	_	_
23	कराने	करा	VM	v	lex-करा|cat-v|gen-any|num-any|pers-any|case-o|vib-ना|tam-nA|chunkId-VGNN|chunkType-head|stype-|voicetype-	24	ccof	_	_
24	व	व	CC	avy	lex-व|cat-avy|gen-|num-|pers-|case-|vib-|tam-|chunkId-CCP3|chunkType-head|stype-|voicetype-	31	k7	_	_
25	उन्हें	वह	PRP	pn	lex-वह|cat-pn|gen-any|num-pl|pers-3|case-o|vib-को|tam-ko|chunkId-NP11|chunkType-head|stype-|voicetype-	27	k2	_	_
26	शिक्षित	शिक्षित	JJ	adj	lex-शिक्षित|cat-adj|gen-any|num-any|pers-|case-|vib-|tam-|chunkId-JJP3|chunkType-head|stype-|voicetype-	27	pof	_	_
27	करने	कर	VM	v	lex-कर|cat-v|gen-any|num-any|pers-any|case-o|vib-ना_में|tam-nA|chunkId-VGNN2|chunkType-head|stype-|voicetype-	24	ccof	_	_
28	में	में	PSP	psp	lex-में|cat-psp|gen-|num-|pers-|case-|vib-|tam-|chunkId-VGNN2|chunkType-child|stype-|voicetype-	27	lwg__psp	_	_
29	अहम	अहम	JJ	adj	lex-अहम|cat-adj|gen-any|num-any|pers-|case-d|vib-|tam-|chunkId-NP12|chunkType-child|stype-|voicetype-	30	nmod__adj	_	_
30	भूमिका	भूमिका	NN	n	lex-भूमिका|cat-n|gen-f|num-sg|pers-3|case-d|vib-0|tam-0|chunkId-NP12|chunkType-head|stype-|voicetype-	31	k1s	_	_
31	निभा	निभा	VM	v	lex-निभा|cat-v|gen-m|num-sg|pers-3|case-|vib-0_सक+ता_है|tam-0|chunkId-VGF2|chunkType-head|stype-declarative|voicetype-active	14	ccof	_	_
32	सकता	सक	VAUX	v	lex-सक|cat-v|gen-m|num-sg|pers-any|case-|vib-ता|tam-wA|chunkId-VGF2|chunkType-child|stype-|voicetype-	31	lwg__vaux	_	_
33	है	है	VAUX	v	lex-है|cat-v|gen-any|num-sg|pers-3|case-|vib-है|tam-hE|chunkId-VGF2|chunkType-child|stype-|voicetype-	31	lwg__vaux	_	_
34	क्योंकि	क्योंकि	CC	avy	lex-क्योंकि|cat-avy|gen-|num-|pers-|case-|vib-|tam-|chunkId-CCP4|chunkType-head|stype-|voicetype-	31	rh	_	_
35	वहाँ	वहाँ	PRP	pn	lex-वहाँ|cat-pn|gen-|num-|pers-|case-|vib-|tam-|chunkId-NP13|chunkType-head|stype-|voicetype-	40	k7p	_	_
36	अशिक्षित	अशिक्षित	JJ	adj	lex-अशिक्षित|cat-adj|gen-any|num-any|pers-|case-d|vib-|tam-|chunkId-NP14|chunkType-child|stype-|voicetype-	37	nmod__adj	_	_
37	लोग	लोग	NN	n	lex-लोग|cat-n|gen-m|num-pl|pers-3|case-d|vib-0|tam-0|chunkId-NP14|chunkType-head|stype-|voicetype-	40	k1	_	_
38	स्कूल	स्कूल	NN	n	lex-स्कूल|cat-n|gen-m|num-sg|pers-3|case-d|vib-0|tam-0|chunkId-NP15|chunkType-head|stype-|voicetype-	40	k2p	_	_
39	नहीं	नहीं	NEG	avy	lex-नहीं|cat-avy|gen-|num-|pers-|case-|vib-|tam-|chunkId-VGF3|chunkType-child|stype-|voicetype-	40	lwg__neg	_	_
40	जा	जा	VM	v	lex-जा|cat-v|gen-m|num-pl|pers-3|case-|vib-0_पा+ता_है|tam-0|chunkId-VGF3|chunkType-head|stype-declarative|voicetype-active	34	ccof	_	_
41	पाते	पा	VAUX	v	lex-पा|cat-v|gen-m|num-pl|pers-any|case-|vib-ता|tam-wA|chunkId-VGF3|chunkType-child|stype-|voicetype-	40	lwg__vaux	_	_
42	हैं	है	VAUX	v	lex-है|cat-v|gen-any|num-pl|pers-3|case-|vib-है|tam-hE|chunkId-VGF3|chunkType-child|stype-|voicetype-	40	lwg__vaux	_	_
43	।	।	SYM	punc	lex-।|cat-punc|gen-|num-|pers-|case-|vib-|tam-|chunkId-BLK|chunkType-head|stype-|voicetype-	13	rsym	_	_

