1	सुप्रीम	सुप्रीम	NNPC	n	lex-सुप्रीम|cat-n|gen-m|num-sg|pers-3|case-d|vib-0|tam-0|chunkId-NP|chunkType-child|stype-|voicetype-	2	pof__cn	_	_
2	कोर्ट	कोर्ट	NNP	n	lex-कोर्ट|cat-n|gen-m|num-sg|pers-3|case-o|vib-0_ने|tam-0|chunkId-NP|chunkType-head|stype-|voicetype-	22	k1	_	_
3	ने	ने	PSP	psp	lex-ने|cat-psp|gen-|num-|pers-|case-|vib-|tam-|chunkId-NP|chunkType-child|stype-|voicetype-	2	lwg__psp	_	_
4	मंगलवार	मंगलवार	NNP	n	lex-मंगलवार|cat-n|gen-m|num-sg|pers-3|case-o|vib-0_को|tam-0|chunkId-NP2|chunkType-head|stype-|voicetype-	22	k7t	_	_
5	को	को	PSP	psp	lex-को|cat-psp|gen-|num-|pers-|case-|vib-|tam-|chunkId-NP2|chunkType-child|stype-|voicetype-	4	lwg__psp	_	_
6	केंद्र	केंद्र	NNP	n	lex-केंद्र|cat-n|gen-m|num-sg|pers-3|case-d|vib-0|tam-0|chunkId-NP3|chunkType-head|stype-|voicetype-	7	ccof	_	_
7	और	और	CC	avy	lex-और|cat-avy|gen-|num-|pers-|case-|vib-|tam-|chunkId-CCP|chunkType-head|stype-|voicetype-	22	k4	_	_
8	राज्य	राज्य	NNC	n	lex-राज्य|cat-n|gen-m|num-sg|pers-3|case-d|vib-0|tam-0|chunkId-NP4|chunkType-child|stype-|voicetype-	9	pof__cn	_	_
9	सरकारों	सरकार	NN	n	lex-सरकार|cat-n|gen-f|num-pl|pers-3|case-o|vib-0_से|tam-0|chunkId-NP4|chunkType-head|stype-|voicetype-	7	ccof	_	_
10	से	से	PSP	psp	lex-से|cat-psp|gen-|num-|pers-|case-|vib-|tam-|chunkId-NP4|chunkType-child|stype-|voicetype-	9	lwg__psp	_	_
11	शराब	शराब	NN	n	lex-शराब|cat-n|gen-f|num-sg|pers-3|case-o|vib-0_पर|tam-0|chunkId-NP5|chunkType-head|stype-|voicetype-	15	k7	_	_
12	पर	पर	PSP	psp	lex-पर|cat-psp|gen-|num-|pers-|case-|vib-|tam-|chunkId-NP5|chunkType-child|stype-|voicetype-	11	lwg__psp	_	_
13	पूर्ण	पूर्ण	JJ	adj	lex-पूर्ण|cat-adj|gen-any|num-any|pers-|case-d|vib-|tam-|chunkId-NP6|chunkType-child|stype-|voicetype-	14	nmod__adj	_	_
14	पाबंदी	पाबंदी	NN	n	lex-पाबंदी|cat-n|gen-f|num-sg|pers-3|case-d|vib-0|tam-0|chunkId-NP6|chunkType-head|stype-|voicetype-	15	k2	_	_
15	लगाने	लगा	VM	v	lex-लगा|cat-v|gen-any|num-any|pers-any|case-o|vib-ना_पर|tam-nA|chunkId-VGNN|chunkType-head|stype-|voicetype-	20	vmod	_	_
16	पर	पर	PSP	psp	lex-पर|cat-psp|gen-|num-|pers-|case-|vib-|tam-|chunkId-VGNN|chunkType-child|stype-|voicetype-	15	lwg__psp	_	_
17	गंभीरता	गंभीरता	NN	n	lex-गंभीरता|cat-n|gen-f|num-sg|pers-3|case-o|vib-0_से|tam-0|chunkId-NP7|chunkType-head|stype-|voicetype-	20	adv	_	_
18	से	से	PSP	psp	lex-से|cat-psp|gen-|num-|pers-|case-|vib-|tam-|chunkId-NP7|chunkType-child|stype-|voicetype-	17	lwg__psp	_	_
19	विचार	विचार	NN	n	lex-विचार|cat-n|gen-m|num-sg|pers-3|case-d|vib-0|tam-0|chunkId-NP8|chunkType-head|stype-|voicetype-	20	pof	_	_
20	करने	कर	VM	v	lex-कर|cat-v|gen-any|num-any|pers-any|case-o|vib-ना_को|tam-nA|chunkId-VGNN2|chunkType-head|stype-|voicetype-	22	rt	_	_
21	को	को	PSP	psp	lex-को|cat-psp|gen-|num-|pers-|case-|vib-|tam-|chunkId-VGNN2|chunkType-child|stype-|voicetype-	20	lwg__psp	_	_
22	कहा	कह	VM	v	lex-कह|cat-v|gen-m|num-sg|pers-any|case-|vib-या|tam-yA|chunkId-VGF|chunkType-head|stype-declarative|voicetype-active	0	main	_	_
23	।	।	SYM	punc	lex-।|cat-punc|gen-|num-|pers-|case-|vib-|tam-|chunkId-BLK|chunkType-head|stype-|voicetype-	22	rsym	_	_

1	अदालत	अदालत	NN	n	lex-अदालत|cat-n|gen-f|num-sg|pers-3|case-o|vib-0_ने|tam-0|chunkId-NP|chunkType-head|stype-|voicetype-	9	k1	_	_
2	ने	ने	PSP	psp	lex-ने|cat-psp|gen-|num-|pers-|case-|vib-|tam-|chunkId-NP|chunkType-child|stype-|voicetype-	1	lwg__psp	_	_
3	मौजूदा	मौजूदा	JJ	adj	lex-मौजूदा|cat-adj|gen-any|num-any|pers-|case-o|vib-|tam-|chunkId-NP2|chunkType-child|stype-|voicetype-	4	nmod__adj	_	_
4	हालात	हालात	NN	n	lex-हालात|cat-n|gen-m|num-sg|pers-3|case-o|vib-0_पर|tam-0|chunkId-NP2|chunkType-head|stype-|voicetype-	7	k7	_	_
5	पर	पर	PSP	psp	lex-पर|cat-psp|gen-|num-|pers-|case-|vib-|tam-|chunkId-NP2|chunkType-child|stype-|voicetype-	4	lwg__psp	_	_
6	चिंता	चिंता	NN	n	lex-चिंता|cat-n|gen-f|num-sg|pers-3|case-d|vib-0|tam-0|chunkId-NP3|chunkType-head|stype-|voicetype-	7	pof	_	_
7	जताते	जता	VM	v	lex-जता|cat-v|gen-m|num-sg|pers-any|case-|vib-ता_हो+या|tam-wA|chunkId-VGNF|chunkType-head|stype-|voicetype-	9	vmod	_	_
8	हुए	हो	VAUX	v	lex-हो|cat-v|gen-m|num-sg|pers-any|case-|vib-या|tam-yA|chunkId-VGNF|chunkType-child|stype-|voicetype-	7	lwg__vaux	_	_
9	कहा	कह	VM	v	lex-कह|cat-v|gen-m|num-sg|pers-any|case-|vib-या|tam-yA|chunkId-VGF|chunkType-head|stype-declarative|voicetype-active	0	main	_	_
10	कि	कि	CC	avy	lex-कि|cat-avy|gen-|num-|pers-|case-|vib-|tam-|chunkId-CCP|chunkType-head|stype-|voicetype-	9	k2	_	_
11	वास्तव	वास्तव	NN	n	lex-वास्तव|cat-n|gen-m|num-sg|pers-3|case-o|vib-0_में|tam-0|chunkId-NP4|chunkType-head|stype-|voicetype-	22	k7	_	_
12	में	में	PSP	psp	lex-में|cat-psp|gen-|num-|pers-|case-|vib-|tam-|chunkId-NP4|chunkType-child|stype-|voicetype-	11	lwg__psp	_	_
13	अब	अब	PRP	pn	lex-अब|cat-pn|gen-|num-|pers-|case-d|vib-|tam-|chunkId-NP5|chunkType-head|stype-|voicetype-	22	k7t	_	_
14	अधिक	अधिक	QF	avy	lex-अधिक|cat-avy|gen-|num-|pers-|case-|vib-|tam-|chunkId-NP6|chunkType-child|stype-|voicetype-	17	nmod__adj	_	_
15	से	से	RP	avy	lex-से|cat-avy|gen-|num-|pers-|case-|vib-|tam-|chunkId-NP6|chunkType-child|stype-|voicetype-	17	lwg__rp	_	_
16	अधिक	अधिक	QF	avy	lex-अधिक|cat-avy|gen-|num-|pers-|case-|vib-|tam-|chunkId-NP6|chunkType-child|stype-|voicetype-	17	nmod__adj	_	_
17	युवाओं	युवा	NN	n	lex-युवा|cat-n|gen-m|num-pl|pers-3|case-o|vib-0_को|tam-0|chunkId-NP6|chunkType-head|stype-|voicetype-	22	k4a	_	_
18	को	को	PSP	psp	lex-को|cat-psp|gen-|num-|pers-|case-|vib-|tam-|chunkId-NP6|chunkType-child|stype-|voicetype-	17	lwg__psp	_	_
19	शराब	शराब	NN	n	lex-शराब|cat-n|gen-f|num-sg|pers-3|case-o|vib-0_का|tam-0|chunkId-NP7|chunkType-head|stype-|voicetype-	21	r6-k2	_	_
20	की	का	PSP	psp	lex-का|cat-psp|gen-f|num-sg|pers-|case-d|vib-|tam-|chunkId-NP7|chunkType-child|stype-|voicetype-	19	lwg__psp	_	_
21	लत	लत	NN	n	lex-लत|cat-n|gen-f|num-sg|pers-3|case-d|vib-0|tam-0|chunkId-NP8|chunkType-head|stype-|voicetype-	22	pof	_	_
22	लगती	लग	VM	v	lex-लग|cat-v|gen-f|num-sg|pers-3|case-|vib-ता_जा_रह+या_है|tam-wA|chunkId-VGF2|chunkType-head|stype-declarative|voicetype-active	10	ccof	_	_
23	जा	जा	VAUX	v	lex-जा|cat-v|gen-any|num-any|pers-any|case-|vib-0|tam-0|chunkId-VGF2|chunkType-child|stype-|voicetype-	22	lwg__vaux	_	_
24	रही	रह	VAUX	v	lex-रह|cat-v|gen-f|num-sg|pers-any|case-|vib-या|tam-yA|chunkId-VGF2|chunkType-child|stype-|voicetype-	22	lwg__vaux	_	_
25	है	है	VAUX	v	lex-है|cat-v|gen-any|num-sg|pers-3|case-|vib-है|tam-hE|chunkId-VGF2|chunkType-child|stype-|voicetype-	22	lwg__vaux	_	_
26	।	।	SYM	punc	lex-।|cat-punc|gen-|num-|pers-|case-|vib-|tam-|chunkId-BLK|chunkType-head|stype-|voicetype-	9	rsym	_	_

1	जस्टिस	जस्टिस	NNC	n	lex-जस्टिस|cat-n|gen-m|num-sg|pers-3|case-d|vib-0|tam-0|chunkId-NP|chunkType-child|stype-|voicetype-	2	pof__cn	_	_
2	एस.	एस.	NNPC	n	lex-एस.|cat-n|gen-m|num-sg|pers-3|case-d|vib-0|tam-0|chunkId-NP|chunkType-child|stype-|voicetype-	4	pof__cn	_	_
3	बी.	बी.	NNPC	n	lex-बी.|cat-n|gen-m|num-sg|pers-3|case-d|vib-0|tam-0|chunkId-NP|chunkType-child|stype-|voicetype-	4	pof__cn	_	_
4	सिन्हा	सिन्हा	NNP	n	lex-सिन्हा|cat-n|gen-any|num-sg|pers-3|case-o|vib-0|tam-0|chunkId-NP|chunkType-head|stype-|voicetype-	5	ccof	_	_
5	और	और	CC	avy	lex-और|cat-avy|gen-|num-|pers-|case-|vib-|tam-|chunkId-CCP|chunkType-head|stype-|voicetype-	11	k1	_	_
6	जस्टिस	जस्टिस	NNC	n	lex-जस्टिस|cat-n|gen-m|num-sg|pers-3|case-d|vib-0|tam-0|chunkId-NP2|chunkType-child|stype-|voicetype-	7	pof__cn	_	_
7	पी.	पी.	NNPC	n	lex-पी.|cat-n|gen-m|num-sg|pers-3|case-d|vib-0|tam-0|chunkId-NP2|chunkType-child|stype-|voicetype-	9	pof__cn	_	_
8	के.	के	NNPC	n	lex-के|cat-n|gen-m|num-sg|pers-3|case-d|vib-0|tam-0|chunkId-NP2|chunkType-child|stype-|voicetype-	9	pof__cn	_	_
9	बालासुब्रह्मण्यम	बालासुब्रह्मण्यम	NNP	n	lex-बालासुब्रह्मण्यम|cat-n|gen-any|num-sg|pers-3|case-o|vib-0_ने|tam-0|chunkId-NP2|chunkType-head|stype-|voicetype-	5	ccof	_	_
10	ने	ने	PSP	psp	lex-ने|cat-psp|gen-|num-|pers-|case-|vib-|tam-|chunkId-NP2|chunkType-child|stype-|voicetype-	9	lwg__psp	_	_
11	कहा	कह	VM	v	lex-कह|cat-v|gen-m|num-sg|pers-any|case-|vib-या|tam-yA|chunkId-VGF|chunkType-head|stype-declarative|voicetype-active	0	main	_	_
12	कि	कि	CC	avy	lex-कि|cat-avy|gen-|num-|pers-|case-|vib-|tam-|chunkId-CCP2|chunkType-head|stype-|voicetype-	11	k2	_	_
13	भारतीय	भारतीय	NNPC	adj	lex-भारतीय|cat-adj|gen-any|num-any|pers-|case-o|vib-|tam-|chunkId-NP3|chunkType-child|stype-|voicetype-	14	pof__cn	_	_
14	संविधान	संविधान	NNP	n	lex-संविधान|cat-n|gen-m|num-sg|pers-3|case-o|vib-0_का|tam-0|chunkId-NP3|chunkType-head|stype-|voicetype-	17	r6	_	_
15	के	का	PSP	psp	lex-का|cat-psp|gen-m|num-sg|pers-|case-o|vib-|tam-|chunkId-NP3|chunkType-child|stype-|voicetype-	14	lwg__psp	_	_
16	अनुच्छेद	अनुच्छेद	NNPC	n	lex-अनुच्छेद|cat-n|gen-m|num-sg|pers-3|case-d|vib-0|tam-0|chunkId-NP4|chunkType-child|stype-|voicetype-	17	pof__cn	_	_
17	४७	४७	NNP	n	lex-४७|cat-n|gen-m|num-sg|pers-3|case-o|vib-0_के_तहत|tam-0|chunkId-NP4|chunkType-head|stype-|voicetype-	23	k7a	_	_
18	के	के	PSP	psp	lex-के|cat-psp|gen-|num-|pers-|case-|vib-|tam-|chunkId-NP4|chunkType-child|stype-|voicetype-	17	lwg__psp	_	_
19	तहत	तहत	PSP	psp	lex-तहत|cat-psp|gen-|num-|pers-|case-|vib-|tam-|chunkId-NP4|chunkType-child|stype-|voicetype-	17	lwg__psp	_	_
20	शासन	शासन	NN	n	lex-शासन|cat-n|gen-m|num-sg|pers-3|case-o|vib-0_पर|tam-0|chunkId-NP5|chunkType-head|stype-|voicetype-	23	k7	_	_
21	पर	पर	PSP	psp	lex-पर|cat-psp|gen-|num-|pers-|case-|vib-|tam-|chunkId-NP5|chunkType-child|stype-|voicetype-	20	lwg__psp	_	_
22	जिम्मेदारी	जिम्मेदारी	NN	n	lex-जिम्मेदारी|cat-n|gen-f|num-sg|pers-3|case-d|vib-0|tam-0|chunkId-NP6|chunkType-head|stype-|voicetype-	23	pof	_	_
23	डाली	डाल	VM	v	lex-डाल|cat-v|gen-f|num-sg|pers-3|case-|vib-या_जा+या१_है|tam-yA|chunkId-VGF2|chunkType-head|stype-declarative|voicetype-active	12	ccof	_	_
24	गई	जा	VAUX	v	lex-जा|cat-v|gen-f|num-sg|pers-any|case-|vib-या१|tam-yA1|chunkId-VGF2|chunkType-child|stype-|voicetype-	23	lwg__vaux	_	_
25	है	है	VAUX	v	lex-है|cat-v|gen-any|num-sg|pers-3|case-|vib-है|tam-hE|chunkId-VGF2|chunkType-child|stype-|voicetype-	23	lwg__vaux	_	_
26	कि	कि	CC	avy	lex-कि|cat-avy|gen-|num-|pers-|case-|vib-|tam-|chunkId-CCP3|chunkType-head|stype-|voicetype-	23	k2	_	_
27	वह	वह	PRP	pn	lex-वह|cat-pn|gen-any|num-sg|pers-3|case-d|vib-0|tam-0|chunkId-NP7|chunkType-head|stype-|voicetype-	38	k1	_	_
28	राज्य	राज्य	NN	n	lex-राज्य|cat-n|gen-m|num-sg|pers-3|case-o|vib-0_में|tam-0|chunkId-NP8|chunkType-head|stype-|voicetype-	38	k7p	_	_
29	में	में	PSP	psp	lex-में|cat-psp|gen-|num-|pers-|case-|vib-|tam-|chunkId-NP8|chunkType-child|stype-|voicetype-	28	lwg__psp	_	_
30	शराब	शराब	NN	n	lex-शराब|cat-n|gen-f|num-sg|pers-3|case-o|vib-0_का|tam-0|chunkId-NP9|chunkType-head|stype-|voicetype-	32	r6	_	_
31	के	का	PSP	psp	lex-का|cat-psp|gen-m|num-sg|pers-|case-o|vib-|tam-|chunkId-NP9|chunkType-child|stype-|voicetype-	30	lwg__psp	_	_
32	सेवन	सेवन	NN	n	lex-सेवन|cat-n|gen-m|num-sg|pers-3|case-o|vib-0_में|tam-0|chunkId-NP10|chunkType-head|stype-|voicetype-	35	k7	_	_
33	में	में	PSP	psp	lex-में|cat-psp|gen-|num-|pers-|case-|vib-|tam-|chunkId-NP10|chunkType-child|stype-|voicetype-	32	lwg__psp	_	_
34	कमी	कमी	NN	n	lex-कमी|cat-n|gen-f|num-sg|pers-3|case-d|vib-0|tam-0|chunkId-NP11|chunkType-head|stype-|voicetype-	35	pof	_	_
35	लाने	ला	VM	v	lex-ला|cat-v|gen-any|num-sg|pers-any|case-o|vib-ना_का|tam-nA|chunkId-VGNN|chunkType-head|stype-|voicetype-	37	r6-k2	_	_
36	की	का	PSP	psp	lex-का|cat-psp|gen-f|num-sg|pers-|case-d|vib-|tam-|chunkId-VGNN|chunkType-child|stype-|voicetype-	35	lwg__psp	_	_
37	कोशिश	कोशिश	NN	n	lex-कोशिश|cat-n|gen-f|num-sg|pers-3|case-d|vib-0|tam-0|chunkId-NP12|chunkType-head|stype-|voicetype-	38	pof	_	_
38	करे	कर	VM	v	lex-कर|cat-v|gen-any|num-sg|pers-3|case-|vib-एं|tam-eM|chunkId-VGF3|chunkType-head|stype-imperative|voicetype-active	26	ccof	_	_
39	।	।	SYM	punc	lex-।|cat-punc|gen-|num-|pers-|case-|vib-|tam-|chunkId-BLK|chunkType-head|stype-|voicetype-	11	rsym	_	_

1	यह	यह	DEM	pn	lex-यह|cat-pn|gen-any|num-sg|pers-3|case-d|vib-|tam-|chunkId-NP|chunkType-child|stype-|voicetype-	2	nmod__adj	_	_
2	कमी	कमी	NN	n	lex-कमी|cat-n|gen-f|num-sg|pers-3|case-d|vib-0|tam-0|chunkId-NP|chunkType-head|stype-|voicetype-	6	k1	_	_
3	इस	यह	DEM	pn	lex-यह|cat-pn|gen-any|num-sg|pers-3|case-d|vib-|tam-|chunkId-NP2|chunkType-child|stype-|voicetype-	4	nmod__adj	_	_
4	हद	हद	NN	n	lex-हद|cat-n|gen-f|num-sg|pers-3|case-o|vib-0_तक|tam-0|chunkId-NP2|chunkType-head|stype-|voicetype-	6	k7t	_	_
5	तक	तक	PSP	psp	lex-तक|cat-psp|gen-|num-|pers-|case-|vib-|tam-|chunkId-NP2|chunkType-child|stype-|voicetype-	4	lwg__psp	_	_
6	लाई	ला	VM	v	lex-ला|cat-v|gen-f|num-sg|pers-3|case-|vib-या_जा+एं|tam-yA|chunkId-VGF|chunkType-head|stype-declarative|voicetype-active	0	main	_	_
7	जाए	जा	VAUX	v	lex-जा|cat-v|gen-any|num-sg|pers-3|case-|vib-एं|tam-eM|chunkId-VGF|chunkType-child|stype-|voicetype-	6	lwg__vaux	_	_
8	कि	कि	CC	avy	lex-कि|cat-avy|gen-|num-|pers-|case-|vib-|tam-|chunkId-CCP|chunkType-head|stype-|voicetype-	2	rs	_	_
9	धीरे	धीरे	RB	adv	lex-धीरे|cat-adv|gen-|num-|pers-|case-|vib-|tam-|chunkId-RBP|chunkType-head|stype-|voicetype-	18	adv	_	_
10	-	-	SYM	punc	lex--|cat-punc|gen-|num-|pers-|case-|vib-|tam-|chunkId-RBP|chunkType-child|stype-|voicetype-	9	rsym	_	_
11	धीरे	धीरे	RDP	adv	lex-धीरे|cat-adv|gen-|num-|pers-|case-|vib-|tam-|chunkId-RBP|chunkType-child|stype-|voicetype-	9	mod	_	_
12	शराब	शराब	NN	n	lex-शराब|cat-n|gen-f|num-sg|pers-3|case-o|vib-0_पर|tam-0|chunkId-NP3|chunkType-head|stype-|voicetype-	18	k7	_	_
13	पर	पर	PSP	psp	lex-पर|cat-psp|gen-|num-|pers-|case-|vib-|tam-|chunkId-NP3|chunkType-child|stype-|voicetype-	12	lwg__psp	_	_
14	खुद	खुद	PRP	pn	lex-खुद|cat-pn|gen-|num-|pers-|case-|vib-|tam-|chunkId-NP4|chunkType-child|stype-|voicetype-	16	nmod__adj	_	_
15	ब	ब	RP	avy	lex-ब|cat-avy|gen-|num-|pers-|case-|vib-|tam-|chunkId-NP4|chunkType-child|stype-|voicetype-	16	lwg__rp	_	_
16	खुद	खुद	PRP	pn	lex-खुद|cat-pn|gen-|num-|pers-|case-|vib-|tam-|chunkId-NP4|chunkType-head|stype-|voicetype-	18	adv	_	_
17	प्रतिबंध	प्रतिबंध	NN	n	lex-प्रतिबंध|cat-n|gen-m|num-sg|pers-3|case-d|vib-0|tam-0|chunkId-NP5|chunkType-head|stype-|voicetype-	18	pof	_	_
18	लग	लग	VM	v	lex-लग|cat-v|gen-any|num-sg|pers-3|case-|vib-0_जा+एं|tam-0|chunkId-VGF2|chunkType-head|stype-declarative|voicetype-active	8	ccof	_	_
19	जाए	जा	VAUX	v	lex-जा|cat-v|gen-any|num-sg|pers-3|case-|vib-एं|tam-eM|chunkId-VGF2|chunkType-child|stype-|voicetype-	18	lwg__vaux	_	_
20	।	।	SYM	punc	lex-।|cat-punc|gen-|num-|pers-|case-|vib-|tam-|chunkId-BLK|chunkType-head|stype-|voicetype-	6	rsym	_	_

1	खंडपीठ	खंडपीठ	NN	n	lex-खंडपीठ|cat-n|gen-f|num-sg|pers-3|case-o|vib-0_ने|tam-0|chunkId-NP|chunkType-head|stype-|voicetype-	3	k1	_	_
2	ने	ने	PSP	psp	lex-ने|cat-psp|gen-|num-|pers-|case-|vib-|tam-|chunkId-NP|chunkType-child|stype-|voicetype-	1	lwg__psp	_	_
3	कहा	कह	VM	v	lex-कह|cat-v|gen-m|num-sg|pers-any|case-|vib-या|tam-yA|chunkId-VGF|chunkType-head|stype-declarative|voicetype-active	0	main	_	_
4	कि	कि	CC	avy	lex-कि|cat-avy|gen-|num-|pers-|case-|vib-|tam-|chunkId-CCP|chunkType-head|stype-|voicetype-	3	k2	_	_
5	ऐसा	ऐसा	PRP	pn	lex-ऐसा|cat-pn|gen-m|num-sg|pers-any|case-d|vib-0|tam-0|chunkId-NP2|chunkType-head|stype-|voicetype-	6	k1	_	_
6	लगता	लग	VM	v	lex-लग|cat-v|gen-m|num-sg|pers-3|case-|vib-ता_है|tam-wA|chunkId-VGF2|chunkType-head|stype-declarative|voicetype-active	4	ccof	_	_
7	है	है	VAUX	v	lex-है|cat-v|gen-any|num-sg|pers-3|case-|vib-है|tam-hE|chunkId-VGF2|chunkType-child|stype-|voicetype-	6	lwg__vaux	_	_
8	कि	कि	CC	avy	lex-कि|cat-avy|gen-|num-|pers-|case-|vib-|tam-|chunkId-CCP2|chunkType-head|stype-|voicetype-	5	rs	_	_
9	अब	अब	PRP	pn	lex-अब|cat-pn|gen-|num-|pers-|case-d|vib-|tam-|chunkId-NP3|chunkType-head|stype-|voicetype-	13	k7t	_	_
10	वह	वह	DEM	pn	lex-वह|cat-pn|gen-any|num-sg|pers-3|case-d|vib-|tam-|chunkId-NP4|chunkType-child|stype-|voicetype-	12	nmod__adj	_	_
11	सही	सही	JJ	adj	lex-सही|cat-adj|gen-any|num-any|pers-|case-d|vib-|tam-|chunkId-NP4|chunkType-child|stype-|voicetype-	12	nmod__adj	_	_
12	समय	समय	NN	n	lex-समय|cat-n|gen-m|num-sg|pers-3|case-d|vib-0|tam-0|chunkId-NP4|chunkType-head|stype-|voicetype-	13	k1	_	_
13	आ	आ	VM	v	lex-आ|cat-v|gen-m|num-sg|pers-3|case-|vib-0_जा+या१_है|tam-0|chunkId-VGF3|chunkType-head|stype-declarative|voicetype-active	8	ccof	_	_
14	गया	जा	VAUX	v	lex-जा|cat-v|gen-m|num-sg|pers-any|case-|vib-या१|tam-yA1|chunkId-VGF3|chunkType-child|stype-|voicetype-	13	lwg__vaux	_	_
15	है	है	VAUX	v	lex-है|cat-v|gen-any|num-sg|pers-3|case-|vib-है|tam-hE|chunkId-VGF3|chunkType-child|stype-|voicetype-	13	lwg__vaux	_	_
16	जब	जब	PRP	pn	lex-जब|cat-pn|gen-|num-|pers-|case-d|vib-|tam-|chunkId-NP5|chunkType-head|stype-|voicetype-	37	k7t	_	_
17	राज्यों	राज्य	NN	n	lex-राज्य|cat-n|gen-m|num-pl|pers-3|case-o|vib-0|tam-0|chunkId-NP6|chunkType-head|stype-|voicetype-	18	ccof	_	_
18	और	और	CC	avy	lex-और|cat-avy|gen-|num-|pers-|case-|vib-|tam-|chunkId-CCP3|chunkType-head|stype-|voicetype-	37	k1	_	_
19	केंद्र	केंद्र	NNPC	n	lex-केंद्र|cat-n|gen-m|num-sg|pers-3|case-d|vib-0|tam-0|chunkId-NP7|chunkType-child|stype-|voicetype-	20	pof__cn	_	_
20	सरकार	सरकार	NNP	n	lex-सरकार|cat-n|gen-f|num-sg|pers-3|case-o|vib-0_को|tam-0|chunkId-NP7|chunkType-head|stype-|voicetype-	18	ccof	_	_
21	को	को	PSP	psp	lex-को|cat-psp|gen-|num-|pers-|case-|vib-|tam-|chunkId-NP7|chunkType-child|stype-|voicetype-	20	lwg__psp	_	_
22	अनुच्छेद	अनुच्छेद	NNPC	n	lex-अनुच्छेद|cat-n|gen-m|num-sg|pers-3|case-d|vib-0|tam-0|chunkId-NP8|chunkType-child|stype-|voicetype-	23	pof__cn	_	_
23	४७	४७	NNP	n	lex-४७|cat-n|gen-m|num-sg|pers-3|case-o|vib-0_का|tam-0|chunkId-NP8|chunkType-head|stype-|voicetype-	25	r6	_	_
24	के	का	PSP	psp	lex-का|cat-psp|gen-m|num-sg|pers-|case-o|vib-|tam-|chunkId-NP8|chunkType-child|stype-|voicetype-	23	lwg__psp	_	_
25	लक्ष्य	लक्ष्य	NN	n	lex-लक्ष्य|cat-n|gen-m|num-sg|pers-3|case-o|vib-0_को|tam-0|chunkId-NP9|chunkType-head|stype-|voicetype-	28	k2	_	_
26	को	को	PSP	psp	lex-को|cat-psp|gen-|num-|pers-|case-|vib-|tam-|chunkId-NP9|chunkType-child|stype-|voicetype-	25	lwg__psp	_	_
27	हासिल	हासिल	JJ	adj	lex-हासिल|cat-adj|gen-any|num-any|pers-|case-|vib-|tam-|chunkId-JJP|chunkType-head|stype-|voicetype-	28	pof	_	_
28	करने	कर	VM	v	lex-कर|cat-v|gen-any|num-any|pers-any|case-o|vib-ना_के_लिए|tam-nA|chunkId-VGNN|chunkType-head|stype-|voicetype-	37	rt	_	_
29	के	के	PSP	psp	lex-के|cat-psp|gen-|num-|pers-|case-|vib-|tam-|chunkId-VGNN|chunkType-child|stype-|voicetype-	28	lwg__psp	_	_
30	लिए	लिए	PSP	psp	lex-लिए|cat-psp|gen-|num-|pers-|case-|vib-|tam-|chunkId-VGNN|chunkType-child|stype-|voicetype-	28	lwg__psp	_	_
31	गंभीरता	गंभीरता	NN	n	lex-गंभीरता|cat-n|gen-f|num-sg|pers-3|case-o|vib-0_से|tam-0|chunkId-NP10|chunkType-head|stype-|voicetype-	34	adv	_	_
32	से	से	PSP	psp	lex-से|cat-psp|gen-|num-|pers-|case-|vib-|tam-|chunkId-NP10|chunkType-child|stype-|voicetype-	31	lwg__psp	_	_
33	कदम	कदम	NN	n	lex-कदम|cat-n|gen-m|num-sg|pers-3|case-d|vib-0|tam-0|chunkId-NP11|chunkType-head|stype-|voicetype-	34	pof	_	_
34	उठाने	उठा	VM	v	lex-उठा|cat-v|gen-any|num-any|pers-any|case-o|vib-ना_पर|tam-nA|chunkId-VGNN2|chunkType-head|stype-|voicetype-	37	k7	_	_
35	पर	पर	PSP	psp	lex-पर|cat-psp|gen-|num-|pers-|case-|vib-|tam-|chunkId-VGNN2|chunkType-child|stype-|voicetype-	34	lwg__psp	_	_
36	विचार	विचार	NN	n	lex-विचार|cat-n|gen-m|num-sg|pers-3|case-d|vib-0|tam-0|chunkId-NP12|chunkType-head|stype-|voicetype-	37	pof	_	_
37	करना	कर	VM	v	lex-कर|cat-v|gen-m|num-sg|pers-3|case-|vib-ना_हो+गा|tam-nA|chunkId-VGF4|chunkType-head|stype-declarative|voicetype-active	9	nmod__relc	_	_
38	होगा	हो	VAUX	v	lex-हो|cat-v|gen-m|num-sg|pers-3|case-|vib-गा|tam-gA|chunkId-VGF4|chunkType-child|stype-|voicetype-	37	lwg__vaux	_	_
39	।	।	SYM	punc	lex-।|cat-punc|gen-|num-|pers-|case-|vib-|tam-|chunkId-BLK|chunkType-head|stype-|voicetype-	3	rsym	_	_

1	सर्वोच्च	सर्वोच्च	NNPC	adj	lex-सर्वोच्च|cat-adj|gen-any|num-any|pers-|case-o|vib-|tam-|chunkId-NP|chunkType-child|stype-|voicetype-	2	pof__cn	_	_
2	अदालत	अदालत	NNP	n	lex-अदालत|cat-n|gen-f|num-sg|pers-3|case-o|vib-0_ने|tam-0|chunkId-NP|chunkType-head|stype-|voicetype-	25	k1	_	_
3	ने	ने	PSP	psp	lex-ने|cat-psp|gen-|num-|pers-|case-|vib-|tam-|chunkId-NP|chunkType-child|stype-|voicetype-	2	lwg__psp	_	_
4	बॉम्बे	बॉम्बे	NNPC	n	lex-बॉम्बे|cat-n|gen-m|num-sg|pers-3|case-d|vib-0|tam-0|chunkId-NP2|chunkType-child|stype-|voicetype-	5	pof__cn	_	_
5	हाईकोर्ट	हाईकोर्ट	NNP	n	lex-हाईकोर्ट|cat-n|gen-m|num-sg|pers-3|case-o|vib-0_का|tam-0|chunkId-NP2|chunkType-head|stype-|voicetype-	8	r6	_	_
6	की	का	PSP	psp	lex-का|cat-psp|gen-f|num-sg|pers-|case-o|vib-|tam-|chunkId-NP2|chunkType-child|stype-|voicetype-	5	lwg__psp	_	_
7	नागपुर	नागपुर	NNPC	n	lex-नागपुर|cat-n|gen-m|num-sg|pers-3|case-d|vib-0|tam-0|chunkId-NP3|chunkType-child|stype-|voicetype-	8	pof__cn	_	_
8	खंडपीठ	खंडपीठ	NNP	n	lex-खंडपीठ|cat-n|gen-f|num-sg|pers-3|case-o|vib-0_का|tam-0|chunkId-NP3|chunkType-head|stype-|voicetype-	11	r6	_	_
9	के	का	PSP	psp	lex-का|cat-psp|gen-m|num-sg|pers-|case-o|vib-|tam-|chunkId-NP3|chunkType-child|stype-|voicetype-	8	lwg__psp	_	_
10	अंतरिम	अंतरिम	JJ	adj	lex-अंतरिम|cat-adj|gen-any|num-any|pers-|case-o|vib-|tam-|chunkId-NP4|chunkType-child|stype-|voicetype-	11	nmod__adj	_	_
11	आदेश	आदेश	NN	n	lex-आदेश|cat-n|gen-m|num-sg|pers-3|case-o|vib-0_के_खिलाफ|tam-0|chunkId-NP4|chunkType-head|stype-|voicetype-	25	vmod	_	_
12	के	के	PSP	psp	lex-के|cat-psp|gen-|num-|pers-|case-|vib-|tam-|chunkId-NP4|chunkType-child|stype-|voicetype-	11	lwg__psp	_	_
13	खिलाफ	खिलाफ	PSP	psp	lex-खिलाफ|cat-psp|gen-|num-|pers-|case-|vib-|tam-|chunkId-NP4|chunkType-child|stype-|voicetype-	11	lwg__psp	_	_
14	महाराष्ट्र	महाराष्ट्र	NNP	n	lex-महाराष्ट्र|cat-n|gen-m|num-sg|pers-3|case-o|vib-0_का|tam-0|chunkId-NP5|chunkType-head|stype-|voicetype-	16	r6	_	_
15	की	का	PSP	psp	lex-का|cat-psp|gen-f|num-sg|pers-|case-o|vib-|tam-|chunkId-NP5|chunkType-child|stype-|voicetype-	14	lwg__psp	_	_
16	अपील	अपील	NN	n	lex-अपील|cat-n|gen-f|num-sg|pers-3|case-o|vib-0_का|tam-0|chunkId-NP6|chunkType-head|stype-|voicetype-	18	r6	_	_
17	की	का	PSP	psp	lex-का|cat-psp|gen-f|num-sg|pers-|case-o|vib-|tam-|chunkId-NP6|chunkType-child|stype-|voicetype-	16	lwg__psp	_	_
18	सुनवाई	सुनवाई	NN	n	lex-सुनवाई|cat-n|gen-f|num-sg|pers-3|case-o|vib-0_के_दौरान|tam-0|chunkId-NP7|chunkType-head|stype-|voicetype-	25	k7	_	_
19	के	के	PSP	psp	lex-के|cat-psp|gen-|num-|pers-|case-|vib-|tam-|chunkId-NP7|chunkType-child|stype-|voicetype-	18	lwg__psp	_	_
20	दौरान	दौरान	NST	nst	lex-दौरान|cat-nst|gen-m|num-sg|pers-3|case-d|vib-|tam-|chunkId-NP7|chunkType-child|stype-|voicetype-	18	lwg__psp	_	_
21	सरकार	सरकार	NN	n	lex-सरकार|cat-n|gen-f|num-sg|pers-3|case-o|vib-0_को|tam-0|chunkId-NP8|chunkType-head|stype-|voicetype-	25	k4	_	_
22	को	को	PSP	psp	lex-को|cat-psp|gen-|num-|pers-|case-|vib-|tam-|chunkId-NP8|chunkType-child|stype-|voicetype-	21	lwg__psp	_	_
23	यह	यह	DEM	pn	lex-यह|cat-pn|gen-any|num-sg|pers-3|case-d|vib-|tam-|chunkId-NP9|chunkType-child|stype-|voicetype-	24	nmod__adj	_	_
24	सुझाव	सुझाव	NN	n	lex-सुझाव|cat-n|gen-m|num-sg|pers-3|case-d|vib-0|tam-0|chunkId-NP9|chunkType-head|stype-|voicetype-	25	k2	_	_
25	दिया	दे	VM	v	lex-दे|cat-v|gen-m|num-sg|pers-any|case-|vib-या|tam-yA|chunkId-VGF|chunkType-head|stype-declarative|voicetype-active	0	main	_	_
26	।	।	SYM	punc	lex-।|cat-punc|gen-|num-|pers-|case-|vib-|tam-|chunkId-BLK|chunkType-head|stype-|voicetype-	25	rsym	_	_

1	अदालत	अदालत	NN	n	lex-अदालत|cat-n|gen-f|num-sg|pers-3|case-o|vib-0_ने|tam-0|chunkId-NP|chunkType-head|stype-|voicetype-	14	k1	_	_
2	ने	ने	PSP	psp	lex-ने|cat-psp|gen-|num-|pers-|case-|vib-|tam-|chunkId-NP|chunkType-child|stype-|voicetype-	1	lwg__psp	_	_
3	राज्य	राज्य	NN	n	lex-राज्य|cat-n|gen-m|num-sg|pers-3|case-o|vib-0_में|tam-0|chunkId-NP2|chunkType-head|stype-|voicetype-	14	k7p	_	_
4	में	में	PSP	psp	lex-में|cat-psp|gen-|num-|pers-|case-|vib-|tam-|chunkId-NP2|chunkType-child|stype-|voicetype-	3	lwg__psp	_	_
5	एक	एक	QC	num	lex-एक|cat-num|gen-any|num-any|pers-|case-any|vib-|tam-|chunkId-NP3|chunkType-child|stype-|voicetype-	7	nmod__adj	_	_
6	शराब	शराब	NNC	n	lex-शराब|cat-n|gen-m|num-sg|pers-3|case-d|vib-0|tam-0|chunkId-NP3|chunkType-child|stype-|voicetype-	7	pof__cn	_	_
7	निर्माता	निर्माता	NN	n	lex-निर्माता|cat-n|gen-m|num-sg|pers-3|case-o|vib-0_से|tam-0|chunkId-NP3|chunkType-head|stype-|voicetype-	11	k5	_	_
8	से	से	PSP	psp	lex-से|cat-psp|gen-|num-|pers-|case-|vib-|tam-|chunkId-NP3|chunkType-child|stype-|voicetype-	7	lwg__psp	_	_
9	लाइसेंस	लाइसेंस	NNC	n	lex-लाइसेंस|cat-n|gen-m|num-sg|pers-3|case-d|vib-0|tam-0|chunkId-NP4|chunkType-child|stype-|voicetype-	10	pof__cn	_	_
10	शुल्क	शुल्क	NN	n	lex-शुल्क|cat-n|gen-m|num-sg|pers-3|case-d|vib-0|tam-0|chunkId-NP4|chunkType-head|stype-|voicetype-	11	k2	_	_
11	लेने	ले	VM	v	lex-ले|cat-v|gen-any|num-any|pers-any|case-o|vib-ना_पर|tam-nA|chunkId-VGNN|chunkType-head|stype-|voicetype-	14	k7	_	_
12	पर	पर	PSP	psp	lex-पर|cat-psp|gen-|num-|pers-|case-|vib-|tam-|chunkId-VGNN|chunkType-child|stype-|voicetype-	11	lwg__psp	_	_
13	रोक	रोक	NN	n	lex-रोक|cat-n|gen-f|num-sg|pers-3|case-d|vib-0|tam-0|chunkId-NP5|chunkType-head|stype-|voicetype-	14	pof	_	_
14	लगा	लग	VM	v	lex-लग|cat-v|gen-f|num-sg|pers-any|case-|vib-या_दे+या_था|tam-yA|chunkId-VGF|chunkType-head|stype-declarative|voicetype-active	0	main	_	_
15	दी	दे	VAUX	v	lex-दे|cat-v|gen-f|num-sg|pers-any|case-|vib-या|tam-yA|chunkId-VGF|chunkType-child|stype-|voicetype-	14	lwg__vaux	_	_
16	थी	था	VAUX	v	lex-था|cat-v|gen-f|num-sg|pers-any|case-|vib-था|tam-WA|chunkId-VGF|chunkType-child|stype-|voicetype-	14	lwg__vaux	_	_
17	।	।	SYM	punc	lex-।|cat-punc|gen-|num-|pers-|case-|vib-|tam-|chunkId-BLK|chunkType-head|stype-|voicetype-	14	rsym	_	_

1	खंडपीठ	खंडपीठ	NN	n	lex-खंडपीठ|cat-n|gen-f|num-sg|pers-3|case-o|vib-0_ने|tam-0|chunkId-NP|chunkType-head|stype-|voicetype-	8	k1	_	_
2	ने	ने	PSP	psp	lex-ने|cat-psp|gen-|num-|pers-|case-|vib-|tam-|chunkId-NP|chunkType-child|stype-|voicetype-	1	lwg__psp	_	_
3	हाईकोर्ट	हाईकोर्ट	NN	n	lex-हाईकोर्ट|cat-n|gen-m|num-sg|pers-3|case-o|vib-0_का|tam-0|chunkId-NP2|chunkType-head|stype-|voicetype-	5	r6	_	_
4	के	का	PSP	psp	lex-का|cat-psp|gen-m|num-sg|pers-|case-o|vib-|tam-|chunkId-NP2|chunkType-child|stype-|voicetype-	3	lwg__psp	_	_
5	आदेश	आदेश	NN	n	lex-आदेश|cat-n|gen-m|num-sg|pers-3|case-o|vib-0_को|tam-0|chunkId-NP3|chunkType-head|stype-|voicetype-	8	k2	_	_
6	को	को	PSP	psp	lex-को|cat-psp|gen-|num-|pers-|case-|vib-|tam-|chunkId-NP3|chunkType-child|stype-|voicetype-	5	lwg__psp	_	_
7	दरकिनार	दरकिनार	NN	n	lex-दरकिनार|cat-n|gen-m|num-sg|pers-3|case-d|vib-0|tam-0|chunkId-NP4|chunkType-head|stype-|voicetype-	8	pof	_	_
8	कर	कर	VM	v	lex-कर|cat-v|gen-any|num-sg|pers-any|case-|vib-0_दे+या|tam-0|chunkId-VGF|chunkType-head|stype-declarative|voicetype-active	0	main	_	_
9	दिया	दे	VAUX	v	lex-दे|cat-v|gen-m|num-sg|pers-any|case-|vib-या|tam-yA|chunkId-VGF|chunkType-child|stype-|voicetype-	8	lwg__vaux	_	_
10	।	।	SYM	punc	lex-।|cat-punc|gen-|num-|pers-|case-|vib-|tam-|chunkId-BLK|chunkType-head|stype-|voicetype-	8	rsym	_	_

1	कहा	कह	VM	v	lex-कह|cat-v|gen-m|num-sg|pers-any|case-|vib-या|tam-yA|chunkId-VGF|chunkType-head|stype-declarative|voicetype-active	2	ccof	_	_
2	कि	कि	CC	avy	lex-कि|cat-avy|gen-|num-|pers-|case-|vib-|tam-|chunkId-CCP|chunkType-head|stype-|voicetype-	0	main	_	_
3	संविधान	संविधान	NN	n	lex-संविधान|cat-n|gen-m|num-sg|pers-3|case-o|vib-0_का|tam-0|chunkId-NP|chunkType-head|stype-|voicetype-	6	r6	_	_
4	के	का	PSP	psp	lex-का|cat-psp|gen-m|num-sg|pers-|case-o|vib-|tam-|chunkId-NP|chunkType-child|stype-|voicetype-	3	lwg__psp	_	_
5	अनुच्छेद	अनुच्छेद	NNPC	n	lex-अनुच्छेद|cat-n|gen-m|num-sg|pers-3|case-d|vib-0|tam-0|chunkId-NP2|chunkType-child|stype-|voicetype-	6	pof__cn	_	_
6	४७	४७	NNP	n	lex-४७|cat-n|gen-m|num-sg|pers-3|case-o|vib-0_के_अनुसार|tam-0|chunkId-NP2|chunkType-head|stype-|voicetype-	25	k7a	_	_
7	के	के	PSP	psp	lex-के|cat-psp|gen-m|num-|pers-|case-o|vib-|tam-|chunkId-NP2|chunkType-child|stype-|voicetype-	6	lwg__psp	_	_
8	अनुसार	अनुसार	PSP	n	lex-अनुसार|cat-n|gen-m|num-|pers-|case-o|vib-|tam-|chunkId-NP2|chunkType-child|stype-|voicetype-	6	lwg__psp	_	_
9	राज्य	राज्य	NN	n	lex-राज्य|cat-n|gen-m|num-sg|pers-3|case-o|vib-0_को|tam-0|chunkId-NP3|chunkType-head|stype-|voicetype-	25	k1	_	_
10	को	को	PSP	psp	lex-को|cat-psp|gen-|num-|pers-|case-|vib-|tam-|chunkId-NP3|chunkType-child|stype-|voicetype-	9	lwg__psp	_	_
11	पौष्टिकता	पौष्टिकता	NN	n	lex-पौष्टिकता|cat-n|gen-f|num-sg|pers-3|case-o|vib-0_का|tam-0|chunkId-NP4|chunkType-head|stype-|voicetype-	13	r6	_	_
12	के	का	PSP	psp	lex-का|cat-psp|gen-m|num-sg|pers-|case-o|vib-|tam-|chunkId-NP4|chunkType-child|stype-|voicetype-	11	lwg__psp	_	_
13	स्तर	स्तर	NN	n	lex-स्तर|cat-n|gen-m|num-sg|pers-3|case-o|vib-0_को|tam-0|chunkId-NP5|chunkType-head|stype-|voicetype-	15	k2	_	_
14	को	को	PSP	psp	lex-को|cat-psp|gen-|num-|pers-|case-|vib-|tam-|chunkId-NP5|chunkType-child|stype-|voicetype-	13	lwg__psp	_	_
15	बढ़ाने	बढा	VM	v	lex-बढा|cat-v|gen-any|num-any|pers-any|case-o|vib-ना|tam-nA|chunkId-VGNN|chunkType-head|stype-|voicetype-	16	ccof	_	_
16	और	और	CC	avy	lex-और|cat-avy|gen-|num-|pers-|case-|vib-|tam-|chunkId-CCP2|chunkType-head|stype-|voicetype-	24	r6	_	_
17	लोगों	लोग	NN	n	lex-लोग|cat-n|gen-m|num-pl|pers-3|case-o|vib-0_का|tam-0|chunkId-NP6|chunkType-head|stype-|voicetype-	20	r6	_	_
18	के	का	PSP	psp	lex-का|cat-psp|gen-m|num-sg|pers-|case-o|vib-|tam-|chunkId-NP6|chunkType-child|stype-|voicetype-	17	lwg__psp	_	_
19	जीवन	जीवन	NNC	n	lex-जीवन|cat-n|gen-m|num-sg|pers-3|case-d|vib-0|tam-0|chunkId-NP7|chunkType-child|stype-|voicetype-	20	pof__cn	_	_
20	स्तर	स्तर	NN	n	lex-स्तर|cat-n|gen-m|num-sg|pers-3|case-o|vib-0_को|tam-0|chunkId-NP7|chunkType-head|stype-|voicetype-	22	k2	_	_
21	को	को	PSP	psp	lex-को|cat-psp|gen-|num-|pers-|case-|vib-|tam-|chunkId-NP7|chunkType-child|stype-|voicetype-	20	lwg__psp	_	_
22	सुधारने	सुधार	VM	v	lex-सुधार|cat-v|gen-any|num-sg|pers-any|case-o|vib-ना_का|tam-nA|chunkId-VGNN2|chunkType-head|stype-|voicetype-	16	ccof	_	_
23	का	का	PSP	psp	lex-का|cat-psp|gen-m|num-sg|pers-|case-d|vib-|tam-|chunkId-VGNN2|chunkType-child|stype-|voicetype-	22	lwg__psp	_	_
24	दायित्व	दायित्व	NN	n	lex-दायित्व|cat-n|gen-m|num-sg|pers-3|case-d|vib-0|tam-0|chunkId-NP8|chunkType-head|stype-|voicetype-	25	k2	_	_
25	निभाना	निभा	VM	v	lex-निभा|cat-v|gen-m|num-any|pers-any|case-|vib-ना_चाहिए|tam-nA|chunkId-VGF2|chunkType-head|stype-declarative|voicetype-active	2	ccof	_	_
26	चाहिए	चाहिए	VAUX	v	lex-चाहिए|cat-v|gen-any|num-any|pers-any|case-|vib-0|tam-0|chunkId-VGF2|chunkType-child|stype-|voicetype-	25	lwg__vaux	_	_
27	।	।	SYM	punc	lex-।|cat-punc|gen-|num-|pers-|case-|vib-|tam-|chunkId-BLK|chunkType-head|stype-|voicetype-	2	rsym	_	_

1	साथ	साथ	NST	nst	lex-साथ|cat-nst|gen-m|num-sg|pers-3|case-d|vib-|tam-|chunkId-NP|chunkType-head|stype-|voicetype-	10	sent-adv	_	_
2	ही	ही	RP	avy	lex-ही|cat-avy|gen-|num-|pers-|case-|vib-|tam-|chunkId-NP|chunkType-child|stype-|voicetype-	1	lwg__rp	_	_
3	जनस्वास्थ्य	जनस्वास्थ्य	NN	n	lex-जनस्वास्थ्य|cat-n|gen-m|num-sg|pers-3|case-o|vib-0_को|tam-0|chunkId-NP2|chunkType-head|stype-|voicetype-	10	k1	_	_
4	को	को	PSP	psp	lex-को|cat-psp|gen-|num-|pers-|case-|vib-|tam-|chunkId-NP2|chunkType-child|stype-|voicetype-	3	lwg__psp	_	_
5	अपनी	अपना	PRP	pn	lex-अपना|cat-pn|gen-f|num-any|pers-any|case-o|vib-0|tam-0|chunkId-NP3|chunkType-head|stype-|voicetype-	7	r6	_	_
6	प्राथमिक	प्राथमिक	JJ	adj	lex-प्राथमिक|cat-adj|gen-any|num-any|pers-|case-o|vib-|tam-|chunkId-NP4|chunkType-child|stype-|voicetype-	7	nmod__adj	_	_
7	जिम्मेदारियों	जिम्मेदारी	NN	n	lex-जिम्मेदारी|cat-n|gen-f|num-pl|pers-3|case-o|vib-0_में|tam-0|chunkId-NP4|chunkType-head|stype-|voicetype-	10	k7	_	_
8	में	में	PSP	psp	lex-में|cat-psp|gen-|num-|pers-|case-|vib-|tam-|chunkId-NP4|chunkType-child|stype-|voicetype-	7	lwg__psp	_	_
9	शुमार	शुमार	NN	n	lex-शुमार|cat-n|gen-m|num-sg|pers-3|case-d|vib-0|tam-0|chunkId-NP5|chunkType-head|stype-|voicetype-	10	pof	_	_
10	करना	कर	VM	v	lex-कर|cat-v|gen-m|num-any|pers-any|case-|vib-ना_चाहिए|tam-nA|chunkId-VGF|chunkType-head|stype-imperative|voicetype-active	0	main	_	_
11	चाहिए	चाहिए	VAUX	v	lex-चाहिए|cat-v|gen-any|num-any|pers-any|case-|vib-0|tam-0|chunkId-VGF|chunkType-child|stype-|voicetype-	10	lwg__vaux	_	_
12	।	।	SYM	punc	lex-।|cat-punc|gen-|num-|pers-|case-|vib-|tam-|chunkId-BLK|chunkType-head|stype-|voicetype-	10	rsym	_	_

1	खासकर	खासकर	RB	adv	lex-खासकर|cat-adv|gen-|num-|pers-|case-|vib-|tam-|chunkId-RBP|chunkType-head|stype-|voicetype-	7	adv	_	_
2	इस	यह	DEM	pn	lex-यह|cat-pn|gen-any|num-sg|pers-3|case-o|vib-|tam-|chunkId-NP|chunkType-child|stype-|voicetype-	3	nmod__adj	_	_
3	बात	बात	NN	n	lex-बात|cat-n|gen-f|num-sg|pers-3|case-o|vib-0_का|tam-0|chunkId-NP|chunkType-head|stype-|voicetype-	6	r6	_	_
4	का	का	PSP	psp	lex-का|cat-psp|gen-m|num-sg|pers-|case-d|vib-|tam-|chunkId-NP|chunkType-child|stype-|voicetype-	3	lwg__psp	_	_
5	भी	भी	RP	avy	lex-भी|cat-avy|gen-|num-|pers-|case-|vib-|tam-|chunkId-NP|chunkType-child|stype-|voicetype-	3	lwg__rp	_	_
6	उल्लेख	उल्लेख	NN	n	lex-उल्लेख|cat-n|gen-m|num-sg|pers-3|case-d|vib-0|tam-0|chunkId-NP2|chunkType-head|stype-|voicetype-	7	k1	_	_
7	है	है	VM	v	lex-है|cat-v|gen-any|num-sg|pers-3|case-|vib-है|tam-hE|chunkId-VGF|chunkType-head|stype-declarative|voicetype-active	0	main	_	_
8	कि	कि	CC	avy	lex-कि|cat-avy|gen-|num-|pers-|case-|vib-|tam-|chunkId-CCP|chunkType-head|stype-|voicetype-	3	rs	_	_
9	राज्य	राज्य	NN	n	lex-राज्य|cat-n|gen-m|num-sg|pers-3|case-o|vib-0_को|tam-0|chunkId-NP3|chunkType-head|stype-|voicetype-	28	k1	_	_
10	को	को	PSP	psp	lex-को|cat-psp|gen-|num-|pers-|case-|vib-|tam-|chunkId-NP3|chunkType-child|stype-|voicetype-	9	lwg__psp	_	_
11	चिकित्सकीय	चिकित्सकीय	JJ	adj	lex-चिकित्सकीय|cat-adj|gen-any|num-any|pers-|case-o|vib-|tam-|chunkId-NP4|chunkType-child|stype-|voicetype-	12	nmod__adj	_	_
12	उपयोग	उपयोग	NN	n	lex-उपयोग|cat-n|gen-m|num-sg|pers-3|case-o|vib-0_को|tam-0|chunkId-NP4|chunkType-head|stype-|voicetype-	14	k2	_	_
13	को	को	PSP	psp	lex-को|cat-psp|gen-|num-|pers-|case-|vib-|tam-|chunkId-NP4|chunkType-child|stype-|voicetype-	12	lwg__psp	_	_
14	छोड़कर	छोड	VM	v	lex-छोड|cat-v|gen-any|num-any|pers-any|case-|vib-कर|tam-kara|chunkId-VGNF|chunkType-head|stype-|voicetype-	28	vmod	_	_
15	स्वास्थ्य	स्वास्थ्य	NN	n	lex-स्वास्थ्य|cat-n|gen-m|num-sg|pers-3|case-o|vib-0_के_लिए|tam-0|chunkId-NP5|chunkType-head|stype-|voicetype-	28	rt	_	_
16	के	के	PSP	psp	lex-के|cat-psp|gen-|num-|pers-|case-|vib-|tam-|chunkId-NP5|chunkType-child|stype-|voicetype-	15	lwg__psp	_	_
17	लिए	लिए	PSP	psp	lex-लिए|cat-psp|gen-|num-|pers-|case-|vib-|tam-|chunkId-NP5|chunkType-child|stype-|voicetype-	15	lwg__psp	_	_
18	हानिकारक	हानिकारक	JJ	adj	lex-हानिकारक|cat-adj|gen-any|num-any|pers-|case-o|vib-|tam-|chunkId-NP6|chunkType-child|stype-|voicetype-	20	nmod__adj	_	_
19	नशीले	नशीला	JJ	adj	lex-नशीला|cat-adj|gen-m|num-sg|pers-|case-o|vib-|tam-|chunkId-NP6|chunkType-child|stype-|voicetype-	20	nmod__adj	_	_
20	पेय	पेय	NN	n	lex-पेय|cat-n|gen-m|num-sg|pers-3|case-o|vib-0|tam-0|chunkId-NP6|chunkType-head|stype-|voicetype-	21	ccof	_	_
21	और	और	CC	avy	lex-और|cat-avy|gen-|num-|pers-|case-|vib-|tam-|chunkId-CCP2|chunkType-head|stype-|voicetype-	25	r6	_	_
22	नशीली	नशीला	JJ	adj	lex-नशीला|cat-adj|gen-f|num-pl|pers-|case-o|vib-|tam-|chunkId-NP7|chunkType-child|stype-|voicetype-	23	nmod__adj	_	_
23	दवाओं	दवा	NN	n	lex-दवा|cat-n|gen-f|num-pl|pers-3|case-o|vib-0_का|tam-0|chunkId-NP7|chunkType-head|stype-|voicetype-	21	ccof	_	_
24	के	का	PSP	psp	lex-का|cat-psp|gen-m|num-sg|pers-|case-o|vib-|tam-|chunkId-NP7|chunkType-child|stype-|voicetype-	23	lwg__psp	_	_
25	सेवन	सेवन	NN	n	lex-सेवन|cat-n|gen-m|num-sg|pers-3|case-o|vib-0_पर|tam-0|chunkId-NP8|chunkType-head|stype-|voicetype-	28	k7	_	_
26	पर	पर	PSP	psp	lex-पर|cat-psp|gen-|num-|pers-|case-|vib-|tam-|chunkId-NP8|chunkType-child|stype-|voicetype-	25	lwg__psp	_	_
27	पाबंदी	पाबंदी	NN	n	lex-पाबंदी|cat-n|gen-f|num-sg|pers-3|case-d|vib-0|tam-0|chunkId-NP9|chunkType-head|stype-|voicetype-	28	pof	_	_
28	लगानी	लगा	VM	v	lex-लगा|cat-v|gen-f|num-any|pers-any|case-|vib-ना_चाहिए|tam-nA|chunkId-VGF2|chunkType-head|stype-imperative|voicetype-active	8	ccof	_	_
29	चाहिए	चाहिए	VAUX	v	lex-चाहिए|cat-v|gen-any|num-any|pers-any|case-|vib-0|tam-0|chunkId-VGF2|chunkType-child|stype-|voicetype-	28	lwg__vaux	_	_
30	।	।	SYM	punc	lex-।|cat-punc|gen-|num-|pers-|case-|vib-|tam-|chunkId-BLK|chunkType-head|stype-|voicetype-	7	rsym	_	_

1	इसी	यह	DEM	pn	lex-यह|cat-pn|gen-any|num-sg|pers-3|case-o|vib-|tam-|chunkId-NP|chunkType-child|stype-|voicetype-	2	nmod__adj	_	_
2	तरह	तरह	NN	n	lex-तरह|cat-n|gen-f|num-sg|pers-3|case-d|vib-0|tam-0|chunkId-NP|chunkType-head|stype-|voicetype-	15	sent-adv	_	_
3	अनुच्छेद	अनुच्छेद	NNPC	n	lex-अनुच्छेद|cat-n|gen-m|num-sg|pers-3|case-d|vib-0|tam-0|chunkId-NP2|chunkType-child|stype-|voicetype-	4	pof__cn	_	_
4	३७	३७	NNP	n	lex-३७|cat-n|gen-m|num-sg|pers-3|case-o|vib-0_के_अनुसार|tam-0|chunkId-NP2|chunkType-head|stype-|voicetype-	15	k7a	_	_
5	के	के	PSP	psp	lex-के|cat-psp|gen-m|num-|pers-|case-o|vib-|tam-|chunkId-NP2|chunkType-child|stype-|voicetype-	4	lwg__psp	_	_
6	अनुसार	अनुसार	PSP	n	lex-अनुसार|cat-n|gen-m|num-|pers-|case-o|vib-|tam-|chunkId-NP2|chunkType-child|stype-|voicetype-	4	lwg__psp	_	_
7	राज्य	राज्य	NN	n	lex-राज्य|cat-n|gen-m|num-sg|pers-3|case-o|vib-0_का|tam-0|chunkId-NP3|chunkType-head|stype-|voicetype-	9	r6	_	_
8	की	का	PSP	psp	lex-का|cat-psp|gen-f|num-pl|pers-|case-d|vib-|tam-|chunkId-NP3|chunkType-child|stype-|voicetype-	7	lwg__psp	_	_
9	नीतियों	नीति	JJC	n	lex-नीति|cat-n|gen-f|num-pl|pers-3|case-d|vib-0|tam-0|chunkId-NP4|chunkType-head|stype-|voicetype-	13	nmod	_	_
10	संबंधी	संबंधी	JJ	adj	lex-संबंधी|cat-adj|gen-any|num-any|pers-|case-o|vib-|tam-|chunkId-NP4|chunkType-child|stype-|voicetype-	9	nmod__adj	_	_
11	नीति	नीति	NNC	n	lex-नीति|cat-n|gen-m|num-sg|pers-3|case-d|vib-0|tam-0|chunkId-NP5|chunkType-child|stype-|voicetype-	13	pof__cn	_	_
12	निर्देशक	निर्देशक	NNC	n	lex-निर्देशक|cat-n|gen-m|num-sg|pers-3|case-d|vib-0|tam-0|chunkId-NP5|chunkType-child|stype-|voicetype-	13	pof__cn	_	_
13	तत्व	तत्व	NN	n	lex-तत्व|cat-n|gen-m|num-sg|pers-3|case-o|vib-0_में|tam-0|chunkId-NP5|chunkType-head|stype-|voicetype-	15	k7	_	_
14	में	में	PSP	psp	lex-में|cat-psp|gen-|num-|pers-|case-|vib-|tam-|chunkId-NP5|chunkType-child|stype-|voicetype-	13	lwg__psp	_	_
15	कहा	कह	VM	v	lex-कह|cat-v|gen-m|num-sg|pers-3|case-|vib-या_जा+या१_है|tam-yA|chunkId-VGF|chunkType-head|stype-declarative|voicetype-passive	0	main	_	_
16	गया	जा	VAUX	v	lex-जा|cat-v|gen-m|num-sg|pers-any|case-|vib-या१|tam-yA1|chunkId-VGF|chunkType-child|stype-|voicetype-	15	lwg__vaux	_	_
17	है	है	VAUX	v	lex-है|cat-v|gen-any|num-sg|pers-3|case-|vib-है|tam-hE|chunkId-VGF|chunkType-child|stype-|voicetype-	15	lwg__vaux	_	_
18	कि	कि	CC	avy	lex-कि|cat-avy|gen-|num-|pers-|case-|vib-|tam-|chunkId-CCP|chunkType-head|stype-|voicetype-	15	k2	_	_
19	इन	यह	DEM	pn	lex-यह|cat-pn|gen-any|num-pl|pers-3|case-o|vib-|tam-|chunkId-NP6|chunkType-child|stype-|voicetype-	20	nmod__adj	_	_
20	नीतियों	नीति	NN	n	lex-नीति|cat-n|gen-m|num-pl|pers-3|case-o|vib-0_को|tam-0|chunkId-NP6|chunkType-head|stype-|voicetype-	28	k2	_	_
21	को	को	PSP	psp	lex-को|cat-psp|gen-|num-|pers-|case-|vib-|tam-|chunkId-NP6|chunkType-child|stype-|voicetype-	20	lwg__psp	_	_
22	किसी	कोई	PRP	pn	lex-कोई|cat-pn|gen-any|num-sg|pers-3|case-o|vib-0|tam-0|chunkId-NP7|chunkType-child|stype-|voicetype-	23	nmod__adj	_	_
23	अदालत	अदालत	NN	n	lex-अदालत|cat-n|gen-f|num-sg|pers-3|case-o|vib-0_के_जरिये|tam-0|chunkId-NP7|chunkType-head|stype-|voicetype-	28	k3	_	_
24	के	के	PSP	psp	lex-के|cat-psp|gen-|num-|pers-|case-|vib-|tam-|chunkId-NP7|chunkType-child|stype-|voicetype-	23	lwg__psp	_	_
25	जरिए	जरिये	PSP	psp	lex-जरिये|cat-psp|gen-|num-|pers-|case-|vib-|tam-|chunkId-NP7|chunkType-child|stype-|voicetype-	23	lwg__psp	_	_
26	लागू	लागू	JJ	adj	lex-लागू|cat-adj|gen-any|num-any|pers-|case-|vib-|tam-|chunkId-JJP|chunkType-head|stype-|voicetype-	28	pof	_	_
27	नहीं	नहीं	NEG	avy	lex-नहीं|cat-avy|gen-|num-|pers-|case-|vib-|tam-|chunkId-VGF2|chunkType-child|stype-|voicetype-	28	lwg__neg	_	_
28	किया	कर	VM	v	lex-कर|cat-v|gen-any|num-sg|pers-any|case-|vib-या_जा_सक+ता|tam-yA|chunkId-VGF2|chunkType-head|stype-declarative|voicetype-passive	18	ccof	_	_
29	जा	जा	VAUX	v	lex-जा|cat-v|gen-any|num-any|pers-any|case-|vib-0|tam-0|chunkId-VGF2|chunkType-child|stype-|voicetype-	28	lwg__vaux	_	_
30	सकता	सक	VAUX	v	lex-सक|cat-v|gen-m|num-sg|pers-any|case-|vib-ता|tam-wA|chunkId-VGF2|chunkType-child|stype-|voicetype-	28	lwg__vaux	_	_
31	।	।	SYM	punc	lex-।|cat-punc|gen-|num-|pers-|case-|vib-|tam-|chunkId-BLK|chunkType-head|stype-|voicetype-	15	rsym	_	_

1	लेकिन	लेकिन	CC	avy	lex-लेकिन|cat-avy|gen-|num-|pers-|case-|vib-|tam-|chunkId-CCP|chunkType-head|stype-|voicetype-	0	main	_	_
2	वह	वह	PRP	pn	lex-वह|cat-pn|gen-any|num-pl|pers-3|case-d|vib-0|tam-0|chunkId-NP|chunkType-head|stype-|voicetype-	14	k1	_	_
3	देश	देश	NN	n	lex-देश|cat-n|gen-m|num-sg|pers-3|case-o|vib-0_का|tam-0|chunkId-NP2|chunkType-head|stype-|voicetype-	5	r6	_	_
4	के	का	PSP	psp	lex-का|cat-psp|gen-m|num-sg|pers-|case-o|vib-|tam-|chunkId-NP2|chunkType-child|stype-|voicetype-	3	lwg__psp	_	_
5	सुशासन	सुशासन	NN	n	lex-सुशासन|cat-n|gen-m|num-sg|pers-3|case-o|vib-0_के_लिए|tam-0|chunkId-NP3|chunkType-head|stype-|voicetype-	14	rt	_	_
6	के	के	PSP	psp	lex-के|cat-psp|gen-|num-|pers-|case-|vib-|tam-|chunkId-NP3|chunkType-child|stype-|voicetype-	5	lwg__psp	_	_
7	लिए	लिए	PSP	psp	lex-लिए|cat-psp|gen-|num-|pers-|case-|vib-|tam-|chunkId-NP3|chunkType-child|stype-|voicetype-	5	lwg__psp	_	_
8	किसी	कोई	PRP	pn	lex-कोई|cat-pn|gen-any|num-sg|pers-3|case-o|vib-0|tam-0|chunkId-NP4|chunkType-child|stype-|voicetype-	10	nmod__adj	_	_
9	मौलिक	मौलिक	JJ	adj	lex-मौलिक|cat-adj|gen-any|num-any|pers-|case-o|vib-|tam-|chunkId-NP4|chunkType-child|stype-|voicetype-	10	nmod__adj	_	_
10	दायित्व	दायित्व	NN	n	lex-दायित्व|cat-n|gen-m|num-sg|pers-3|case-o|vib-0_से|tam-0|chunkId-NP4|chunkType-head|stype-|voicetype-	14	k5	_	_
11	से	से	PSP	psp	lex-से|cat-psp|gen-|num-|pers-|case-|vib-|tam-|chunkId-NP4|chunkType-child|stype-|voicetype-	10	lwg__psp	_	_
12	कम	कम	QF	avy	lex-कम|cat-avy|gen-|num-|pers-|case-|vib-|tam-|chunkId-JJP|chunkType-head|stype-|voicetype-	14	k1s	_	_
13	नहीं	नहीं	NEG	avy	lex-नहीं|cat-avy|gen-|num-|pers-|case-|vib-|tam-|chunkId-VGF|chunkType-child|stype-|voicetype-	14	lwg__neg	_	_
14	हैं	है	VM	v	lex-है|cat-v|gen-any|num-pl|pers-3|case-|vib-है|tam-hE|chunkId-VGF|chunkType-head|stype-declarative|voicetype-active	1	ccof	_	_
15	।	।	SYM	punc	lex-।|cat-punc|gen-|num-|pers-|case-|vib-|tam-|chunkId-BLK|chunkType-head|stype-|voicetype-	1	rsym	_	_

1	इसलिए	इसलिए	PRP	pn	lex-इसलिए|cat-pn|gen-|num-|pers-|case-|vib-|tam-|chunkId-NP|chunkType-head|stype-|voicetype-	6	rh	_	_
2	यह	यह	PRP	pn	lex-यह|cat-pn|gen-any|num-sg|pers-3|case-d|vib-0|tam-0|chunkId-NP2|chunkType-head|stype-|voicetype-	6	k1	_	_
3	राज्य	राज्य	NN	n	lex-राज्य|cat-n|gen-m|num-sg|pers-3|case-o|vib-0_का|tam-0|chunkId-NP3|chunkType-head|stype-|voicetype-	5	r6	_	_
4	का	का	PSP	psp	lex-का|cat-psp|gen-m|num-sg|pers-|case-d|vib-|tam-|chunkId-NP3|chunkType-child|stype-|voicetype-	3	lwg__psp	_	_
5	कर्तव्य	कर्तव्य	NN	n	lex-कर्तव्य|cat-n|gen-m|num-sg|pers-3|case-d|vib-0|tam-0|chunkId-NP4|chunkType-head|stype-|voicetype-	6	k1s	_	_
6	है	है	VM	v	lex-है|cat-v|gen-any|num-sg|pers-3|case-|vib-है|tam-hE|chunkId-VGF|chunkType-head|stype-declarative|voicetype-active	0	main	_	_
7	कि	कि	CC	avy	lex-कि|cat-avy|gen-|num-|pers-|case-|vib-|tam-|chunkId-CCP|chunkType-head|stype-|voicetype-	2	rs	_	_
8	वह	वह	PRP	pn	lex-वह|cat-pn|gen-any|num-sg|pers-3|case-d|vib-0|tam-0|chunkId-NP5|chunkType-head|stype-|voicetype-	17	k1	_	_
9	इन	यह	DEM	pn	lex-यह|cat-pn|gen-any|num-pl|pers-3|case-o|vib-|tam-|chunkId-NP6|chunkType-child|stype-|voicetype-	10	nmod__adj	_	_
10	सिद्धांतों	सिद्धांत	NN	n	lex-सिद्धांत|cat-n|gen-m|num-pl|pers-3|case-o|vib-0_को|tam-0|chunkId-NP6|chunkType-head|stype-|voicetype-	13	k2	_	_
11	को	को	PSP	psp	lex-को|cat-psp|gen-|num-|pers-|case-|vib-|tam-|chunkId-NP6|chunkType-child|stype-|voicetype-	10	lwg__psp	_	_
12	लागू	लागू	JJ	adj	lex-लागू|cat-adj|gen-any|num-any|pers-|case-|vib-|tam-|chunkId-JJP|chunkType-head|stype-|voicetype-	13	pof	_	_
13	करने	कर	VM	v	lex-कर|cat-v|gen-any|num-any|pers-any|case-o|vib-ना_के_लिए|tam-nA|chunkId-VGNN|chunkType-head|stype-|voicetype-	17	rt	_	_
14	के	के	PSP	psp	lex-के|cat-psp|gen-|num-|pers-|case-|vib-|tam-|chunkId-VGNN|chunkType-child|stype-|voicetype-	13	lwg__psp	_	_
15	लिए	लिए	PSP	psp	lex-लिए|cat-psp|gen-|num-|pers-|case-|vib-|tam-|chunkId-VGNN|chunkType-child|stype-|voicetype-	13	lwg__psp	_	_
16	कानून	कानून	NN	n	lex-कानून|cat-n|gen-m|num-sg|pers-3|case-d|vib-0|tam-0|chunkId-NP7|chunkType-head|stype-|voicetype-	17	pof	_	_
17	बनाए	बना	VM	v	lex-बना|cat-v|gen-m|num-sg|pers-any|case-|vib-एं|tam-eM|chunkId-VGF2|chunkType-head|stype-imperative|voicetype-active	7	ccof	_	_
18	।	।	SYM	punc	lex-।|cat-punc|gen-|num-|pers-|case-|vib-|tam-|chunkId-BLK|chunkType-head|stype-|voicetype-	6	rsym	_	_

1	खंडपीठ	खंडपीठ	NN	n	lex-खंडपीठ|cat-n|gen-f|num-sg|pers-3|case-o|vib-0_ने|tam-0|chunkId-NP|chunkType-head|stype-|voicetype-	3	k1	_	_
2	ने	ने	PSP	psp	lex-ने|cat-psp|gen-|num-|pers-|case-|vib-|tam-|chunkId-NP|chunkType-child|stype-|voicetype-	1	lwg__psp	_	_
3	कहा	कह	VM	v	lex-कह|cat-v|gen-m|num-sg|pers-any|case-|vib-या|tam-yA|chunkId-VGF|chunkType-head|stype-declarative|voicetype-active	0	main	_	_
4	कि	कि	CC	avy	lex-कि|cat-avy|gen-|num-|pers-|case-|vib-|tam-|chunkId-CCP|chunkType-head|stype-|voicetype-	3	k2	_	_
5	यह	यह	DEM	pn	lex-यह|cat-pn|gen-any|num-sg|pers-3|case-d|vib-|tam-|chunkId-NP2|chunkType-child|stype-|voicetype-	7	nmod__adj	_	_
6	घृणित	घृणित	JJ	adj	lex-घृणित|cat-adj|gen-any|num-any|pers-|case-d|vib-|tam-|chunkId-NP2|chunkType-child|stype-|voicetype-	7	nmod__adj	_	_
7	सच्चाई	सच्चाई	NN	n	lex-सच्चाई|cat-n|gen-f|num-sg|pers-3|case-d|vib-0|tam-0|chunkId-NP2|chunkType-head|stype-|voicetype-	8	k1	_	_
8	है	है	VM	v	lex-है|cat-v|gen-any|num-sg|pers-3|case-|vib-है|tam-hE|chunkId-VGF2|chunkType-head|stype-declarative|voicetype-active	4	ccof	_	_
9	कि	कि	CC	avy	lex-कि|cat-avy|gen-|num-|pers-|case-|vib-|tam-|chunkId-CCP2|chunkType-head|stype-|voicetype-	7	rs	_	_
10	देश	देश	NN	n	lex-देश|cat-n|gen-m|num-sg|pers-3|case-o|vib-0_का|tam-0|chunkId-NP3|chunkType-head|stype-|voicetype-	13	r6	_	_
11	की	का	PSP	psp	lex-का|cat-psp|gen-f|num-sg|pers-|case-d|vib-|tam-|chunkId-NP3|chunkType-child|stype-|voicetype-	10	lwg__psp	_	_
12	युवा	युवा	NNC	n	lex-युवा|cat-n|gen-m|num-sg|pers-3|case-d|vib-0|tam-0|chunkId-NP4|chunkType-child|stype-|voicetype-	13	pof__cn	_	_
13	पीढ़ी	पीढी	NN	n	lex-पीढी|cat-n|gen-f|num-sg|pers-3|case-d|vib-0|tam-0|chunkId-NP4|chunkType-head|stype-|voicetype-	20	k1	_	_
14	शराब	शराब	NN	n	lex-शराब|cat-n|gen-f|num-sg|pers-3|case-o|vib-0_का|tam-0|chunkId-NP5|chunkType-head|stype-|voicetype-	16	r6	_	_
15	के	का	PSP	psp	lex-का|cat-psp|gen-m|num-sg|pers-|case-o|vib-|tam-|chunkId-NP5|chunkType-child|stype-|voicetype-	14	lwg__psp	_	_
16	नशे	नशा	NN	n	lex-नशा|cat-n|gen-m|num-sg|pers-3|case-o|vib-0_का|tam-0|chunkId-NP6|chunkType-head|stype-|voicetype-	18	r6	_	_
17	की	का	PSP	psp	lex-का|cat-psp|gen-f|num-sg|pers-|case-o|vib-|tam-|chunkId-NP6|chunkType-child|stype-|voicetype-	16	lwg__psp	_	_
18	गिरफ्त	गिरफ्त	NN	n	lex-गिरफ्त|cat-n|gen-f|num-sg|pers-3|case-o|vib-0_में|tam-0|chunkId-NP7|chunkType-head|stype-|voicetype-	20	k7	_	_
19	में	में	PSP	psp	lex-में|cat-psp|gen-|num-|pers-|case-|vib-|tam-|chunkId-NP7|chunkType-child|stype-|voicetype-	18	lwg__psp	_	_
20	आती	आ	VM	v	lex-आ|cat-v|gen-f|num-sg|pers-3|case-|vib-ता_जा_रह+या_है|tam-wA|chunkId-VGF3|chunkType-head|stype-declarative|voicetype-active	9	ccof	_	_
21	जा	जा	VAUX	v	lex-जा|cat-v|gen-any|num-any|pers-any|case-|vib-0|tam-0|chunkId-VGF3|chunkType-child|stype-|voicetype-	20	lwg__vaux	_	_
22	रही	रह	VAUX	v	lex-रह|cat-v|gen-f|num-sg|pers-any|case-|vib-या|tam-yA|chunkId-VGF3|chunkType-child|stype-|voicetype-	20	lwg__vaux	_	_
23	है	है	VAUX	v	lex-है|cat-v|gen-any|num-sg|pers-3|case-|vib-है|tam-hE|chunkId-VGF3|chunkType-child|stype-|voicetype-	20	lwg__vaux	_	_
24	।	।	SYM	punc	lex-।|cat-punc|gen-|num-|pers-|case-|vib-|tam-|chunkId-BLK|chunkType-head|stype-|voicetype-	3	rsym	_	_

1	इस	यह	DEM	pn	lex-यह|cat-pn|gen-any|num-sg|pers-3|case-o|vib-|tam-|chunkId-NP|chunkType-child|stype-|voicetype-	3	nmod__adj	_	_
2	कड़वी	कड़वा	JJ	adj	lex-कड़वा|cat-adj|gen-f|num-sg|pers-|case-o|vib-|tam-|chunkId-NP|chunkType-child|stype-|voicetype-	3	nmod__adj	_	_
3	सच्चाई	सच्चाई	NN	n	lex-सच्चाई|cat-n|gen-f|num-sg|pers-3|case-o|vib-0_पर|tam-0|chunkId-NP|chunkType-head|stype-|voicetype-	7	k7	_	_
4	पर	पर	PSP	psp	lex-पर|cat-psp|gen-|num-|pers-|case-|vib-|tam-|chunkId-NP|chunkType-child|stype-|voicetype-	3	lwg__psp	_	_
5	अदालत	अदालत	NN	n	lex-अदालत|cat-n|gen-f|num-sg|pers-3|case-d|vib-0|tam-0|chunkId-NP2|chunkType-head|stype-|voicetype-	7	k1	_	_
6	संज्ञान	संज्ञान	NN	n	lex-संज्ञान|cat-n|gen-f|num-sg|pers-3|case-d|vib-0|tam-0|chunkId-NP3|chunkType-head|stype-|voicetype-	7	pof	_	_
7	ले	ले	VM	v	lex-ले|cat-v|gen-f|num-sg|pers-3|case-|vib-0_सक+ता_है|tam-0|chunkId-VGF|chunkType-head|stype-declarative|voicetype-active	0	main	_	_
8	सकती	सक	VAUX	v	lex-सक|cat-v|gen-f|num-sg|pers-any|case-|vib-ता|tam-wA|chunkId-VGF|chunkType-child|stype-|voicetype-	7	lwg__vaux	_	_
9	है	है	VAUX	v	lex-है|cat-v|gen-any|num-sg|pers-3|case-|vib-है|tam-hE|chunkId-VGF|chunkType-child|stype-|voicetype-	7	lwg__vaux	_	_
10	।	।	SYM	punc	lex-।|cat-punc|gen-|num-|pers-|case-|vib-|tam-|chunkId-BLK|chunkType-head|stype-|voicetype-	7	rsym	_	_

1	लोग	लोग	NN	n	lex-लोग|cat-n|gen-m|num-pl|pers-3|case-d|vib-0|tam-0|chunkId-NP|chunkType-head|stype-|voicetype-	8	k1	_	_
2	शराब	शराब	NN	n	lex-शराब|cat-n|gen-f|num-sg|pers-3|case-o|vib-0_का|tam-0|chunkId-NP2|chunkType-head|stype-|voicetype-	4	r6	_	_
3	का	का	PSP	psp	lex-का|cat-psp|gen-m|num-sg|pers-|case-d|vib-|tam-|chunkId-NP2|chunkType-child|stype-|voicetype-	2	lwg__psp	_	_
4	सेवन	सेवन	NN	n	lex-सेवन|cat-n|gen-m|num-sg|pers-3|case-d|vib-0|tam-0|chunkId-NP3|chunkType-head|stype-|voicetype-	8	pof	_	_
5	फैशन	फैशन	NN	n	lex-फैशन|cat-n|gen-m|num-sg|pers-3|case-o|vib-0_में|tam-0|chunkId-NP4|chunkType-head|stype-|voicetype-	8	k7	_	_
6	में	में	PSP	psp	lex-में|cat-psp|gen-|num-|pers-|case-|vib-|tam-|chunkId-NP4|chunkType-child|stype-|voicetype-	5	lwg__psp	_	_
7	नहीं	नहीं	NEG	avy	lex-नहीं|cat-avy|gen-|num-|pers-|case-|vib-|tam-|chunkId-NEGP|chunkType-head|stype-|voicetype-	8	vmod	_	_
8	NULL	_	VM	_	lex-_|cat-_|gen-|num-|pers-|case-|vib-|tam-|chunkId-NULL__VGF|chunkType-head|stype-declarative|voicetype-active	9	ccof	_	_
9	बल्कि	बल्कि	CC	avy	lex-बल्कि|cat-avy|gen-|num-|pers-|case-|vib-|tam-|chunkId-CCP|chunkType-head|stype-|voicetype-	0	main	_	_
10	उसके	वह	PRP	pn	lex-वह|cat-pn|gen-any|num-sg|pers-3|case-o|vib-का|tam-kA|chunkId-NP5|chunkType-head|stype-|voicetype-	11	r6-k2	_	_
11	लती	लती	JJ	adj	lex-लती|cat-adj|gen-any|num-any|pers-|case-|vib-|tam-|chunkId-JJP|chunkType-head|stype-|voicetype-	12	pof	_	_
12	होकर	हो	VM	v	lex-हो|cat-v|gen-any|num-any|pers-any|case-|vib-कर|tam-kara|chunkId-VGNF|chunkType-head|stype-|voicetype-	13	vmod	_	_
13	कर	कर	VM	v	lex-कर|cat-v|gen-m|num-pl|pers-3|case-|vib-0_रह+या_है|tam-0|chunkId-VGF|chunkType-head|stype-declarative|voicetype-active	9	ccof	_	_
14	रहे	रह	VAUX	v	lex-रह|cat-v|gen-m|num-pl|pers-any|case-|vib-या|tam-yA|chunkId-VGF|chunkType-child|stype-|voicetype-	13	lwg__vaux	_	_
15	हैं	है	VAUX	v	lex-है|cat-v|gen-any|num-pl|pers-3|case-|vib-है|tam-hE|chunkId-VGF|chunkType-child|stype-|voicetype-	13	lwg__vaux	_	_
16	।	।	SYM	punc	lex-।|cat-punc|gen-|num-|pers-|case-|vib-|tam-|chunkId-BLK|chunkType-head|stype-|voicetype-	9	rsym	_	_

