1	गांव	गाँव	NN	n	lex-गाँव|cat-n|gen-m|num-sg|pers-3|case-d|vib-0|tam-0|chunkId-NP|chunkType-child|stype-|voicetype-	2	nmod	_	_
2	खांडाखेड़ी	खांडाखेड़ी	NNP	n	lex-खांडाखेड़ी|cat-n|gen-m|num-sg|pers-3|case-o|vib-0_के_समीप|tam-0|chunkId-NP|chunkType-head|stype-|voicetype-	27	k7p	_	_
3	के	के	PSP	psp	lex-के|cat-psp|gen-|num-|pers-|case-|vib-|tam-|chunkId-NP|chunkType-child|stype-|voicetype-	2	lwg__psp	_	_
4	समीप	समीप	NST	nst	lex-समीप|cat-nst|gen-m|num-sg|pers-3|case-d|vib-|tam-|chunkId-NP|chunkType-child|stype-|voicetype-	2	lwg__psp	_	_
5	शुक्रवार	शुक्रवार	NNP	n	lex-शुक्रवार|cat-n|gen-m|num-sg|pers-3|case-o|vib-0_को|tam-0|chunkId-NP2|chunkType-head|stype-|voicetype-	27	k7t	_	_
6	को	को	PSP	psp	lex-को|cat-psp|gen-|num-|pers-|case-|vib-|tam-|chunkId-NP2|chunkType-child|stype-|voicetype-	5	lwg__psp	_	_
7	एक	एक	QC	num	lex-एक|cat-num|gen-any|num-any|pers-|case-any|vib-|tam-|chunkId-NP3|chunkType-child|stype-|voicetype-	8	nmod__adj	_	_
8	जीप	जीप	NN	n	lex-जीप|cat-n|gen-f|num-sg|pers-3|case-o|vib-0_का|tam-0|chunkId-NP3|chunkType-head|stype-|voicetype-	11	r6	_	_
9	के	का	PSP	psp	lex-का|cat-psp|gen-m|num-sg|pers-|case-o|vib-|tam-|chunkId-NP3|chunkType-child|stype-|voicetype-	8	lwg__psp	_	_
10	सड़क	सड़क	NNC	n	lex-सड़क|cat-n|gen-f|num-sg|pers-3|case-d|vib-0|tam-0|chunkId-NP4|chunkType-child|stype-|voicetype-	11	pof__cn	_	_
11	किनारे	किनारा	NN	n	lex-किनारा|cat-n|gen-m|num-sg|pers-3|case-o|vib-0|tam-0|chunkId-NP4|chunkType-head|stype-|voicetype-	12	jjmod	_	_
12	खड़े	खड़ा	JJ	adj	lex-खड़ा|cat-adj|gen-m|num-sg|pers-|case-o|vib-|tam-|chunkId-JJP|chunkType-head|stype-|voicetype-	13	nmod	_	_
13	ट्रक	ट्रक	NN	n	lex-ट्रक|cat-n|gen-m|num-sg|pers-3|case-o|vib-0_से|tam-0|chunkId-NP5|chunkType-head|stype-|voicetype-	15	ras-k1	_	_
14	से	से	PSP	psp	lex-से|cat-psp|gen-|num-|pers-|case-|vib-|tam-|chunkId-NP5|chunkType-child|stype-|voicetype-	13	lwg__psp	_	_
15	टकरा	टकरा	VM	v	lex-टकरा|cat-v|gen-any|num-any|pers-any|case-|vib-0_जा+ना_से|tam-0|chunkId-VGNN|chunkType-head|stype-|voicetype-	27	rh	_	_
16	जाने	जा	VAUX	v	lex-जा|cat-v|gen-any|num-any|pers-any|case-o|vib-ना|tam-nA|chunkId-VGNN|chunkType-child|stype-|voicetype-	15	lwg__vaux	_	_
17	से	से	PSP	psp	lex-से|cat-psp|gen-|num-|pers-|case-|vib-|tam-|chunkId-VGNN|chunkType-child|stype-|voicetype-	15	lwg__psp	_	_
18	उसमें	वह	PRP	pn	lex-वह|cat-pn|gen-any|num-sg|pers-3|case-o|vib-में|tam-meM|chunkId-NP6|chunkType-head|stype-|voicetype-	19	jjmod	_	_
19	सवार	सवार	JJ	adj	lex-सवार|cat-adj|gen-any|num-any|pers-|case-o|vib-|tam-|chunkId-JJP2|chunkType-head|stype-|voicetype-	21	nmod	_	_
20	तीन	तीन	QC	num	lex-तीन|cat-num|gen-any|num-any|pers-|case-any|vib-|tam-|chunkId-NP7|chunkType-child|stype-|voicetype-	21	nmod__adj	_	_
21	महिलाओं	महिला	NN	n	lex-महिला|cat-n|gen-f|num-pl|pers-3|case-o|vib-0_सहित|tam-0|chunkId-NP7|chunkType-head|stype-|voicetype-	27	vmod	_	_
22	सहित	सहित	PSP	psp	lex-सहित|cat-psp|gen-|num-|pers-|case-|vib-|tam-|chunkId-NP7|chunkType-child|stype-|voicetype-	21	lwg__psp	_	_
23	चार	चार	QC	num	lex-चार|cat-num|gen-any|num-any|pers-|case-any|vib-|tam-|chunkId-NP8|chunkType-child|stype-|voicetype-	24	nmod__adj	_	_
24	लोगों	लोग	NN	n	lex-लोग|cat-n|gen-m|num-pl|pers-3|case-o|vib-0_का|tam-0|chunkId-NP8|chunkType-head|stype-|voicetype-	26	r6-k1	_	_
25	की	का	PSP	psp	lex-का|cat-psp|gen-f|num-sg|pers-|case-d|vib-|tam-|chunkId-NP8|chunkType-child|stype-|voicetype-	24	lwg__psp	_	_
26	मौत	मौत	NN	n	lex-मौत|cat-n|gen-f|num-sg|pers-3|case-d|vib-0|tam-0|chunkId-NP9|chunkType-head|stype-|voicetype-	27	pof	_	_
27	हो	हो	VM	v	lex-हो|cat-v|gen-any|num-sg|pers-any|case-|vib-0_जा+या१|tam-0|chunkId-VGF|chunkType-head|stype-declarative|voicetype-active	0	main	_	_
28	गई	जा	VAUX	v	lex-जा|cat-v|gen-f|num-sg|pers-any|case-|vib-या१|tam-yA1|chunkId-VGF|chunkType-child|stype-|voicetype-	27	lwg__vaux	_	_
29	।	।	SYM	punc	lex-।|cat-punc|gen-|num-|pers-|case-|vib-|tam-|chunkId-BLK|chunkType-head|stype-|voicetype-	27	rsym	_	_

1	तीनों	तीन	QC	num	lex-तीन|cat-num|gen-any|num-pl|pers-|case-any|vib-|tam-|chunkId-NP|chunkType-child|stype-|voicetype-	2	nmod__adj	_	_
2	महिलाएं	महिला	NN	n	lex-महिला|cat-n|gen-f|num-pl|pers-3|case-d|vib-0|tam-0|chunkId-NP|chunkType-head|stype-|voicetype-	7	k1	_	_
3	एक	एक	QC	num	lex-एक|cat-num|gen-any|num-any|pers-|case-any|vib-|tam-|chunkId-NP2|chunkType-child|stype-|voicetype-	5	nmod__adj	_	_
4	ही	ही	RP	avy	lex-ही|cat-avy|gen-|num-|pers-|case-|vib-|tam-|chunkId-NP2|chunkType-child|stype-|voicetype-	5	lwg__rp	_	_
5	परिवार	परिवार	NN	n	lex-परिवार|cat-n|gen-m|num-sg|pers-3|case-o|vib-0_का|tam-0|chunkId-NP2|chunkType-head|stype-|voicetype-	2	r6	_	_
6	की	का	PSP	psp	lex-का|cat-psp|gen-f|num-pl|pers-|case-d|vib-|tam-|chunkId-NP2|chunkType-child|stype-|voicetype-	5	lwg__psp	_	_
7	थीं	था	VM	v	lex-था|cat-v|gen-f|num-pl|pers-any|case-|vib-था|tam-WA|chunkId-VGF|chunkType-head|stype-declarative|voicetype-active	0	main	_	_
8	।	।	SYM	punc	lex-।|cat-punc|gen-|num-|pers-|case-|vib-|tam-|chunkId-BLK|chunkType-head|stype-|voicetype-	7	rsym	_	_

1	इस	यह	DEM	pn	lex-यह|cat-pn|gen-any|num-sg|pers-3|case-o|vib-|tam-|chunkId-NP|chunkType-child|stype-|voicetype-	2	nmod__adj	_	_
2	हादसे	हादसा	NN	n	lex-हादसा|cat-n|gen-m|num-sg|pers-3|case-o|vib-0_में|tam-0|chunkId-NP|chunkType-head|stype-|voicetype-	7	k7	_	_
3	में	में	PSP	psp	lex-में|cat-psp|gen-|num-|pers-|case-|vib-|tam-|chunkId-NP|chunkType-child|stype-|voicetype-	2	lwg__psp	_	_
4	१५	१५	QC	num	lex-१५|cat-num|gen-any|num-any|pers-|case-any|vib-|tam-|chunkId-NP2|chunkType-child|stype-|voicetype-	5	nmod__adj	_	_
5	लोग	लोग	NN	n	lex-लोग|cat-n|gen-m|num-pl|pers-3|case-d|vib-0|tam-0|chunkId-NP2|chunkType-head|stype-|voicetype-	7	k1	_	_
6	घायल	घायल	JJ	adj	lex-घायल|cat-adj|gen-any|num-any|pers-|case-|vib-|tam-|chunkId-JJP|chunkType-head|stype-|voicetype-	7	pof	_	_
7	हो	हो	VM	v	lex-हो|cat-v|gen-any|num-pl|pers-any|case-|vib-0_जा+या१|tam-0|chunkId-VGF|chunkType-head|stype-declarative|voicetype-active	0	main	_	_
8	गए	जा	VAUX	v	lex-जा|cat-v|gen-m|num-pl|pers-any|case-|vib-या१|tam-yA1|chunkId-VGF|chunkType-child|stype-|voicetype-	7	lwg__vaux	_	_
9	।	।	SYM	punc	lex-।|cat-punc|gen-|num-|pers-|case-|vib-|tam-|chunkId-BLK|chunkType-head|stype-|voicetype-	7	rsym	_	_

1	घायलों	घायल	NN	n	lex-घायल|cat-n|gen-m|num-pl|pers-3|case-o|vib-0_में|tam-0|chunkId-NP|chunkType-head|stype-|voicetype-	7	k7	_	_
2	में	में	PSP	psp	lex-में|cat-psp|gen-|num-|pers-|case-|vib-|tam-|chunkId-NP|chunkType-child|stype-|voicetype-	1	lwg__psp	_	_
3	चार	चार	QC	num	lex-चार|cat-num|gen-any|num-any|pers-|case-any|vib-0_का|tam-|chunkId-NP2|chunkType-head|stype-|voicetype-	5	r6	_	_
4	की	का	PSP	psp	lex-का|cat-psp|gen-f|num-sg|pers-|case-d|vib-|tam-|chunkId-NP2|chunkType-child|stype-|voicetype-	3	lwg__psp	_	_
5	हालत	हालत	NN	n	lex-हालत|cat-n|gen-f|num-sg|pers-3|case-d|vib-0|tam-0|chunkId-NP3|chunkType-head|stype-|voicetype-	7	k1	_	_
6	गंभीर	गंभीर	JJ	adj	lex-गंभीर|cat-adj|gen-any|num-any|pers-|case-|vib-|tam-|chunkId-JJP|chunkType-head|stype-|voicetype-	7	pof	_	_
7	होने	हो	VM	v	lex-हो|cat-v|gen-any|num-any|pers-any|case-o|vib-ना_पर|tam-nA|chunkId-VGNN|chunkType-head|stype-|voicetype-	13	k7	_	_
8	पर	पर	PSP	psp	lex-पर|cat-psp|gen-|num-|pers-|case-|vib-|tam-|chunkId-VGNN|chunkType-child|stype-|voicetype-	7	lwg__psp	_	_
9	उन्हें	वह	PRP	pn	lex-वह|cat-pn|gen-any|num-pl|pers-3|case-o|vib-को|tam-ko|chunkId-NP4|chunkType-head|stype-|voicetype-	13	k4	_	_
10	पीजीआई	पीजीआई	NNPC	n	lex-पीजीआई|cat-n|gen-m|num-sg|pers-3|case-d|vib-0|tam-0|chunkId-NP5|chunkType-child|stype-|voicetype-	11	pof__cn	_	_
11	रोहतक	रोहतक	NNP	n	lex-रोहतक|cat-n|gen-m|num-sg|pers-3|case-d|vib-0|tam-0|chunkId-NP5|chunkType-head|stype-|voicetype-	13	k7p	_	_
12	रेफर	रेफर	UNK	unk	lex-रेफर|cat-unk|gen-|num-|pers-|case-|vib-|tam-|chunkId-BLK|chunkType-head|stype-|voicetype-	13	pof	_	_
13	कर	कर	VM	v	lex-कर|cat-v|gen-m|num-sg|pers-any|case-|vib-0_दे+या_जा+या१|tam-0|chunkId-VGF|chunkType-head|stype-declarative|voicetype-passive	0	main	_	_
14	दिया	दे	VAUX	v	lex-दे|cat-v|gen-m|num-sg|pers-any|case-|vib-या|tam-yA|chunkId-VGF|chunkType-child|stype-|voicetype-	13	lwg__vaux	_	_
15	गया	जा	VAUX	v	lex-जा|cat-v|gen-m|num-sg|pers-any|case-|vib-या१|tam-yA1|chunkId-VGF|chunkType-child|stype-|voicetype-	13	lwg__vaux	_	_
16	।	।	SYM	punc	lex-।|cat-punc|gen-|num-|pers-|case-|vib-|tam-|chunkId-BLK2|chunkType-head|stype-|voicetype-	13	rsym	_	_

1	शेष	शेष	JJ	adj	lex-शेष|cat-adj|gen-any|num-any|pers-|case-o|vib-|tam-|chunkId-NP|chunkType-child|stype-|voicetype-	2	nmod__adj	_	_
2	लोगों	लोग	NN	n	lex-लोग|cat-n|gen-m|num-pl|pers-3|case-o|vib-0_का|tam-0|chunkId-NP|chunkType-head|stype-|voicetype-	4	r6	_	_
3	का	का	PSP	psp	lex-का|cat-psp|gen-m|num-sg|pers-|case-d|vib-|tam-|chunkId-NP|chunkType-child|stype-|voicetype-	2	lwg__psp	_	_
4	जींद	जींद	NNP	n	lex-जींद|cat-n|gen-m|num-sg|pers-3|case-o|vib-0_का|tam-0|chunkId-NP2|chunkType-head|stype-|voicetype-	7	r6	_	_
5	के	का	PSP	psp	lex-का|cat-psp|gen-m|num-sg|pers-|case-o|vib-|tam-|chunkId-NP2|chunkType-child|stype-|voicetype-	4	lwg__psp	_	_
6	सामान्य	सामान्य	JJ	adj	lex-सामान्य|cat-adj|gen-any|num-any|pers-|case-o|vib-|tam-|chunkId-NP3|chunkType-child|stype-|voicetype-	7	nmod__adj	_	_
7	अस्पताल	अस्पताल	NN	n	lex-अस्पताल|cat-n|gen-m|num-sg|pers-3|case-o|vib-0_में|tam-0|chunkId-NP3|chunkType-head|stype-|voicetype-	10	k7p	_	_
8	में	में	PSP	psp	lex-में|cat-psp|gen-|num-|pers-|case-|vib-|tam-|chunkId-NP3|chunkType-child|stype-|voicetype-	7	lwg__psp	_	_
9	इलाज	इलाज	NN	n	lex-इलाज|cat-n|gen-m|num-sg|pers-3|case-d|vib-0|tam-0|chunkId-NP4|chunkType-head|stype-|voicetype-	10	k1	_	_
10	चल	चल	VM	v	lex-चल|cat-v|gen-m|num-sg|pers-3|case-|vib-0_रह+या_है|tam-0|chunkId-VGF|chunkType-head|stype-declarative|voicetype-active	0	main	_	_
11	रहा	रह	VAUX	v	lex-रह|cat-v|gen-m|num-sg|pers-any|case-|vib-या|tam-yA|chunkId-VGF|chunkType-child|stype-|voicetype-	10	lwg__vaux	_	_
12	है	है	VAUX	v	lex-है|cat-v|gen-any|num-sg|pers-3|case-|vib-है|tam-hE|chunkId-VGF|chunkType-child|stype-|voicetype-	10	lwg__vaux	_	_
13	।	।	SYM	punc	lex-।|cat-punc|gen-|num-|pers-|case-|vib-|tam-|chunkId-BLK|chunkType-head|stype-|voicetype-	10	rsym	_	_

1	दुर्घटना	दुर्घटना	NN	n	lex-दुर्घटना|cat-n|gen-f|num-sg|pers-3|case-o|vib-0_का|tam-0|chunkId-NP|chunkType-head|stype-|voicetype-	3	r6	_	_
2	की	का	PSP	psp	lex-का|cat-psp|gen-f|num-sg|pers-|case-d|vib-|tam-|chunkId-NP|chunkType-child|stype-|voicetype-	1	lwg__psp	_	_
3	सूचना	सूचना	NN	n	lex-सूचना|cat-n|gen-f|num-sg|pers-3|case-d|vib-0|tam-0|chunkId-NP2|chunkType-head|stype-|voicetype-	4	k1	_	_
4	मिलते	मिल	VM	v	lex-मिल|cat-v|gen-m|num-sg|pers-any|case-|vib-ता|tam-wA|chunkId-VGNF|chunkType-head|stype-|voicetype-	16	vmod	_	_
5	ही	ही	RP	avy	lex-ही|cat-avy|gen-|num-|pers-|case-|vib-|tam-|chunkId-VGNF|chunkType-child|stype-|voicetype-	4	lwg__rp	_	_
6	हांसी	हांसी	NNP	n	lex-हांसी|cat-n|gen-m|num-sg|pers-3|case-o|vib-0_का|tam-0|chunkId-NP3|chunkType-head|stype-|voicetype-	9	r6	_	_
7	के	का	PSP	psp	lex-का|cat-psp|gen-m|num-pl|pers-|case-d|vib-|tam-|chunkId-NP3|chunkType-child|stype-|voicetype-	6	lwg__psp	_	_
8	पुलिस	पुलिस	NNC	n	lex-पुलिस|cat-n|gen-f|num-sg|pers-3|case-d|vib-0|tam-0|chunkId-NP4|chunkType-child|stype-|voicetype-	9	pof__cn	_	_
9	उपाधीक्षक	उपाधीक्षक	NN	n	lex-उपाधीक्षक|cat-n|gen-m|num-sg|pers-3|case-d|vib-0|tam-0|chunkId-NP4|chunkType-head|stype-|voicetype-	10	ccof	_	_
10	एवं	एवं	CC	avy	lex-एवं|cat-avy|gen-|num-|pers-|case-|vib-|tam-|chunkId-CCP|chunkType-head|stype-|voicetype-	16	k1	_	_
11	नारनौंद	नारनौंद	NNP	n	lex-नारनौंद|cat-n|gen-m|num-sg|pers-3|case-d|vib-0|tam-0|chunkId-NP5|chunkType-child|stype-|voicetype-	13	nmod__adj	_	_
12	थाना	थाना	NNC	n	lex-थाना|cat-n|gen-m|num-sg|pers-3|case-d|vib-0|tam-0|chunkId-NP5|chunkType-child|stype-|voicetype-	13	pof__cn	_	_
13	प्रभारी	प्रभारी	NN	n	lex-प्रभारी|cat-n|gen-m|num-sg|pers-3|case-d|vib-0|tam-0|chunkId-NP5|chunkType-head|stype-|voicetype-	10	ccof	_	_
14	मौके	मौका	NN	n	lex-मौका|cat-n|gen-m|num-sg|pers-3|case-o|vib-0_पर|tam-0|chunkId-NP6|chunkType-head|stype-|voicetype-	16	k7	_	_
15	पर	पर	PSP	psp	lex-पर|cat-psp|gen-|num-|pers-|case-|vib-|tam-|chunkId-NP6|chunkType-child|stype-|voicetype-	14	lwg__psp	_	_
16	पहुंच	पहुंच	VM	v	lex-पहुंच|cat-v|gen-any|num-pl|pers-any|case-|vib-0_जा+या१|tam-0|chunkId-VGF|chunkType-head|stype-declarative|voicetype-active	0	main	_	_
17	गए	जा	VAUX	v	lex-जा|cat-v|gen-m|num-pl|pers-any|case-|vib-या१|tam-yA1|chunkId-VGF|chunkType-child|stype-|voicetype-	16	lwg__vaux	_	_
18	।	।	SYM	punc	lex-।|cat-punc|gen-|num-|pers-|case-|vib-|tam-|chunkId-BLK|chunkType-head|stype-|voicetype-	16	rsym	_	_

1	पुलिस	पुलिस	NN	n	lex-पुलिस|cat-n|gen-f|num-sg|pers-3|case-o|vib-0_ने|tam-0|chunkId-NP|chunkType-head|stype-|voicetype-	14	k1	_	_
2	ने	ने	PSP	psp	lex-ने|cat-psp|gen-|num-|pers-|case-|vib-|tam-|chunkId-NP|chunkType-child|stype-|voicetype-	1	lwg__psp	_	_
3	एक	एक	QC	num	lex-एक|cat-num|gen-any|num-any|pers-|case-any|vib-|tam-|chunkId-NP2|chunkType-child|stype-|voicetype-	4	nmod__adj	_	_
4	घायल	घायल	NN	n	lex-घायल|cat-n|gen-m|num-sg|pers-3|case-o|vib-0_का|tam-0|chunkId-NP2|chunkType-head|stype-|voicetype-	6	r6	_	_
5	की	का	PSP	psp	lex-का|cat-psp|gen-f|num-sg|pers-|case-o|vib-|tam-|chunkId-NP2|chunkType-child|stype-|voicetype-	4	lwg__psp	_	_
6	शिकायत	शिकायत	NN	n	lex-शिकायत|cat-n|gen-f|num-sg|pers-3|case-o|vib-0_पर|tam-0|chunkId-NP3|chunkType-head|stype-|voicetype-	14	k7	_	_
7	पर	पर	PSP	psp	lex-पर|cat-psp|gen-|num-|pers-|case-|vib-|tam-|chunkId-NP3|chunkType-child|stype-|voicetype-	6	lwg__psp	_	_
8	जीप	जीप	NNC	n	lex-जीप|cat-n|gen-f|num-sg|pers-3|case-d|vib-0|tam-0|chunkId-NP4|chunkType-child|stype-|voicetype-	9	pof__cn	_	_
9	चालक	चालक	NN	n	lex-चालक|cat-n|gen-m|num-sg|pers-3|case-o|vib-0_के_खिलाफ|tam-0|chunkId-NP4|chunkType-head|stype-|voicetype-	14	vmod	_	_
10	के	के	PSP	psp	lex-के|cat-psp|gen-|num-|pers-|case-|vib-|tam-|chunkId-NP4|chunkType-child|stype-|voicetype-	9	lwg__psp	_	_
11	खिलाफ	खिलाफ	PSP	psp	lex-खिलाफ|cat-psp|gen-|num-|pers-|case-|vib-|tam-|chunkId-NP4|chunkType-child|stype-|voicetype-	9	lwg__psp	_	_
12	मामला	मामला	NN	n	lex-मामला|cat-n|gen-m|num-sg|pers-3|case-d|vib-0|tam-0|chunkId-NP5|chunkType-head|stype-|voicetype-	14	k2	_	_
13	दर्ज	दर्ज	JJ	adj	lex-दर्ज|cat-adj|gen-any|num-any|pers-|case-|vib-|tam-|chunkId-JJP|chunkType-head|stype-|voicetype-	14	pof	_	_
14	कर	कर	VM	v	lex-कर|cat-v|gen-m|num-sg|pers-3|case-|vib-0_ले+या_है|tam-0|chunkId-VGF|chunkType-head|stype-declarative|voicetype-active	0	main	_	_
15	लिया	ले	VAUX	v	lex-ले|cat-v|gen-m|num-sg|pers-any|case-|vib-या|tam-yA|chunkId-VGF|chunkType-child|stype-|voicetype-	14	lwg__vaux	_	_
16	है	है	VAUX	v	lex-है|cat-v|gen-any|num-sg|pers-3|case-|vib-है|tam-hE|chunkId-VGF|chunkType-child|stype-|voicetype-	14	lwg__vaux	_	_
17	।	।	SYM	punc	lex-।|cat-punc|gen-|num-|pers-|case-|vib-|tam-|chunkId-BLK|chunkType-head|stype-|voicetype-	14	rsym	_	_

1	प्राप्त	प्राप्त	JJ	adj	lex-प्राप्त|cat-adj|gen-any|num-any|pers-|case-o|vib-|tam-|chunkId-NP|chunkType-child|stype-|voicetype-	2	nmod__adj	_	_
2	जानकारी	जानकारी	NN	n	lex-जानकारी|cat-n|gen-f|num-sg|pers-3|case-o|vib-0_के_अनुसार|tam-0|chunkId-NP|chunkType-head|stype-|voicetype-	30	k7a	_	_
3	के	के	PSP	psp	lex-के|cat-psp|gen-m|num-|pers-|case-o|vib-|tam-|chunkId-NP|chunkType-child|stype-|voicetype-	2	lwg__psp	_	_
4	अनुसार	अनुसार	PSP	n	lex-अनुसार|cat-n|gen-m|num-|pers-|case-o|vib-|tam-|chunkId-NP|chunkType-child|stype-|voicetype-	2	lwg__psp	_	_
5	शुक्रवार	शुक्रवार	NNP	n	lex-शुक्रवार|cat-n|gen-m|num-sg|pers-3|case-d|vib-0|tam-0|chunkId-NP2|chunkType-child|stype-|voicetype-	6	nmod__adj	_	_
6	सुबह	सुबह	NN	n	lex-सुबह|cat-n|gen-f|num-sg|pers-3|case-d|vib-0|tam-0|chunkId-NP2|chunkType-head|stype-|voicetype-	30	k7t	_	_
7	गांव	गाँव	NN	n	lex-गाँव|cat-n|gen-m|num-sg|pers-3|case-d|vib-0|tam-0|chunkId-NP3|chunkType-child|stype-|voicetype-	8	nmod	_	_
8	खांडाखेड़ी	खांडाखेड़ी	NNP	n	lex-खांडाखेड़ी|cat-n|gen-m|num-sg|pers-3|case-o|vib-0_से|tam-0|chunkId-NP3|chunkType-head|stype-|voicetype-	30	k5	_	_
9	से	से	PSP	psp	lex-से|cat-psp|gen-|num-|pers-|case-|vib-|tam-|chunkId-NP3|chunkType-child|stype-|voicetype-	8	lwg__psp	_	_
10	एक	एक	QC	num	lex-एक|cat-num|gen-any|num-any|pers-|case-any|vib-|tam-|chunkId-NP4|chunkType-child|stype-|voicetype-	12	nmod__adj	_	_
11	ही	ही	RP	avy	lex-ही|cat-avy|gen-|num-|pers-|case-|vib-|tam-|chunkId-NP4|chunkType-child|stype-|voicetype-	12	lwg__rp	_	_
12	परिवार	परिवार	NN	n	lex-परिवार|cat-n|gen-m|num-sg|pers-3|case-o|vib-0_का|tam-0|chunkId-NP4|chunkType-head|stype-|voicetype-	15	r6	_	_
13	के	का	PSP	psp	lex-का|cat-psp|gen-m|num-pl|pers-|case-d|vib-|tam-|chunkId-NP4|chunkType-child|stype-|voicetype-	12	lwg__psp	_	_
14	१९	१९	QC	num	lex-१९|cat-num|gen-any|num-any|pers-|case-any|vib-|tam-|chunkId-NP5|chunkType-child|stype-|voicetype-	15	nmod__adj	_	_
15	लोग	लोग	NN	n	lex-लोग|cat-n|gen-m|num-pl|pers-3|case-d|vib-0|tam-0|chunkId-NP5|chunkType-head|stype-|voicetype-	30	k1	_	_
16	जीप	जीप	NN	n	lex-जीप|cat-n|gen-f|num-sg|pers-3|case-o|vib-0_से|tam-0|chunkId-NP6|chunkType-head|stype-|voicetype-	30	k3	_	_
17	से	से	PSP	psp	lex-से|cat-psp|gen-|num-|pers-|case-|vib-|tam-|chunkId-NP6|chunkType-child|stype-|voicetype-	16	lwg__psp	_	_
18	गांव	गाँव	NN	n	lex-गाँव|cat-n|gen-m|num-sg|pers-3|case-d|vib-0|tam-0|chunkId-NP7|chunkType-child|stype-|voicetype-	19	nmod	_	_
19	रामराय	रामराय	NNP	n	lex-रामराय|cat-n|gen-m|num-sg|pers-3|case-o|vib-0_में|tam-0|chunkId-NP7|chunkType-head|stype-|voicetype-	30	k7p	_	_
20	में	में	PSP	psp	lex-में|cat-psp|gen-|num-|pers-|case-|vib-|tam-|chunkId-NP7|chunkType-child|stype-|voicetype-	19	lwg__psp	_	_
21	पूर्णिमा	पूर्णिमा	NN	n	lex-पूर्णिमा|cat-n|gen-f|num-sg|pers-3|case-o|vib-0_का|tam-0|chunkId-NP8|chunkType-head|stype-|voicetype-	23	r6	_	_
22	के	का	PSP	psp	lex-का|cat-psp|gen-m|num-sg|pers-|case-o|vib-|tam-|chunkId-NP8|chunkType-child|stype-|voicetype-	21	lwg__psp	_	_
23	मौके	मौका	NN	n	lex-मौका|cat-n|gen-m|num-sg|pers-3|case-o|vib-0_पर|tam-0|chunkId-NP9|chunkType-head|stype-|voicetype-	30	k7	_	_
24	पर	पर	PSP	psp	lex-पर|cat-psp|gen-|num-|pers-|case-|vib-|tam-|chunkId-NP9|chunkType-child|stype-|voicetype-	23	lwg__psp	_	_
25	पवित्र	पवित्र	JJ	adj	lex-पवित्र|cat-adj|gen-any|num-any|pers-|case-o|vib-|tam-|chunkId-NP10|chunkType-child|stype-|voicetype-	26	nmod__adj	_	_
26	जोहड़	जोहड़	NN	n	lex-जोहड़|cat-n|gen-m|num-sg|pers-3|case-o|vib-0_में|tam-0|chunkId-NP10|chunkType-head|stype-|voicetype-	29	k7p	_	_
27	में	में	PSP	psp	lex-में|cat-psp|gen-|num-|pers-|case-|vib-|tam-|chunkId-NP10|chunkType-child|stype-|voicetype-	26	lwg__psp	_	_
28	स्नान	स्नान	NN	n	lex-स्नान|cat-n|gen-m|num-sg|pers-3|case-d|vib-0|tam-0|chunkId-NP11|chunkType-head|stype-|voicetype-	29	pof	_	_
29	करने	कर	VM	v	lex-कर|cat-v|gen-any|num-any|pers-any|case-o|vib-ना|tam-nA|chunkId-VGNN|chunkType-head|stype-|voicetype-	30	rt	_	_
30	जा	जा	VM	v	lex-जा|cat-v|gen-m|num-pl|pers-any|case-|vib-0_रह+या_था|tam-0|chunkId-VGF|chunkType-head|stype-declarative|voicetype-active	0	main	_	_
31	रहे	रह	VAUX	v	lex-रह|cat-v|gen-m|num-pl|pers-any|case-|vib-या|tam-yA|chunkId-VGF|chunkType-child|stype-|voicetype-	30	lwg__vaux	_	_
32	थे	था	VAUX	v	lex-था|cat-v|gen-m|num-pl|pers-any|case-|vib-था|tam-WA|chunkId-VGF|chunkType-child|stype-|voicetype-	30	lwg__vaux	_	_
33	।	।	SYM	punc	lex-।|cat-punc|gen-|num-|pers-|case-|vib-|tam-|chunkId-BLK|chunkType-head|stype-|voicetype-	30	rsym	_	_

1	जीप	जीप	NN	n	lex-जीप|cat-n|gen-f|num-sg|pers-3|case-d|vib-0|tam-0|chunkId-NP|chunkType-head|stype-|voicetype-	7	k1	_	_
2	गांव	गाँव	NN	n	lex-गाँव|cat-n|gen-m|num-sg|pers-3|case-d|vib-0|tam-0|chunkId-NP2|chunkType-child|stype-|voicetype-	3	nmod	_	_
3	खांडाखेड़ी	खांडाखेड़ी	NNP	n	lex-खांडाखेड़ी|cat-n|gen-m|num-sg|pers-3|case-o|vib-0_से|tam-0|chunkId-NP2|chunkType-head|stype-|voicetype-	7	k5	_	_
4	से	से	PSP	psp	lex-से|cat-psp|gen-|num-|pers-|case-|vib-|tam-|chunkId-NP2|chunkType-child|stype-|voicetype-	3	lwg__psp	_	_
5	थोड़ी	थोड़ा	QF	adj	lex-थोड़ा|cat-adj|gen-f|num-sg|pers-|case-d|vib-|tam-|chunkId-NP3|chunkType-head|stype-|voicetype-	7	k7	_	_
6	दूर	दूर	NST	nst	lex-दूर|cat-nst|gen-m|num-sg|pers-3|case-d|vib-|tam-|chunkId-NP3|chunkType-child|stype-|voicetype-	5	lwg__psp	_	_
7	पहुंची	पहुंच	VM	v	lex-पहुंच|cat-v|gen-f|num-sg|pers-any|case-|vib-या_था|tam-yA|chunkId-VGF|chunkType-head|stype-declarative|voicetype-active	0	main	_	_
8	थी	था	VAUX	v	lex-था|cat-v|gen-f|num-sg|pers-any|case-|vib-था|tam-WA|chunkId-VGF|chunkType-child|stype-|voicetype-	7	lwg__vaux	_	_
9	कि	कि	CC	avy	lex-कि|cat-avy|gen-|num-|pers-|case-|vib-|tam-|chunkId-CCP|chunkType-head|stype-|voicetype-	5	rs	_	_
10	सामने	सामने	NST	nst	lex-सामने|cat-nst|gen-m|num-sg|pers-3|case-o|vib-0_से|tam-|chunkId-NP4|chunkType-head|stype-|voicetype-	12	k5	_	_
11	से	से	PSP	psp	lex-से|cat-psp|gen-|num-|pers-|case-|vib-|tam-|chunkId-NP4|chunkType-child|stype-|voicetype-	10	lwg__psp	_	_
12	आ	आ	VM	v	lex-आ|cat-v|gen-any|num-sg|pers-any|case-|vib-0_रह+या|tam-0|chunkId-VGNF|chunkType-head|stype-|voicetype-	15	nmod__k1inv	_	_
13	रहे	रह	VAUX	v	lex-रह|cat-v|gen-m|num-sg|pers-any|case-|vib-या|tam-yA|chunkId-VGNF|chunkType-child|stype-|voicetype-	12	lwg__vaux	_	_
14	एक	एक	QC	num	lex-एक|cat-num|gen-any|num-any|pers-|case-any|vib-|tam-|chunkId-NP5|chunkType-child|stype-|voicetype-	15	nmod__adj	_	_
15	ट्रक	ट्रक	NN	n	lex-ट्रक|cat-n|gen-m|num-sg|pers-3|case-o|vib-0_से|tam-0|chunkId-NP5|chunkType-head|stype-|voicetype-	17	k3	_	_
16	से	से	PSP	psp	lex-से|cat-psp|gen-|num-|pers-|case-|vib-|tam-|chunkId-NP5|chunkType-child|stype-|voicetype-	15	lwg__psp	_	_
17	बचने	बच	VM	v	lex-बच|cat-v|gen-any|num-sg|pers-any|case-o|vib-ना_का|tam-nA|chunkId-VGNN|chunkType-head|stype-|voicetype-	19	r6	_	_
18	के	का	PSP	psp	lex-का|cat-psp|gen-m|num-sg|pers-|case-o|vib-|tam-|chunkId-VGNN|chunkType-child|stype-|voicetype-	17	lwg__psp	_	_
19	प्रयास	प्रयास	NN	n	lex-प्रयास|cat-n|gen-m|num-sg|pers-3|case-o|vib-0_में|tam-0|chunkId-NP6|chunkType-head|stype-|voicetype-	24	k7	_	_
20	में	में	PSP	psp	lex-में|cat-psp|gen-|num-|pers-|case-|vib-|tam-|chunkId-NP6|chunkType-child|stype-|voicetype-	19	lwg__psp	_	_
21	जीप	जीप	NNC	n	lex-जीप|cat-n|gen-f|num-sg|pers-3|case-d|vib-0|tam-0|chunkId-NP7|chunkType-child|stype-|voicetype-	22	pof__cn	_	_
22	चालक	चालक	NN	n	lex-चालक|cat-n|gen-m|num-sg|pers-3|case-d|vib-0|tam-0|chunkId-NP7|chunkType-head|stype-|voicetype-	24	k1	_	_
23	संतुलन	संतुलन	NN	n	lex-संतुलन|cat-n|gen-m|num-sg|pers-3|case-d|vib-0|tam-0|chunkId-NP8|chunkType-head|stype-|voicetype-	24	k1s	_	_
24	खो	खो	VM	v	lex-खो|cat-v|gen-any|num-sg|pers-any|case-|vib-0_बैठ+या|tam-0|chunkId-VGF2|chunkType-head|stype-declarative|voicetype-active	9	ccof	_	_
25	बैठा	बैठ	VAUX	v	lex-बैठ|cat-v|gen-m|num-sg|pers-any|case-|vib-या|tam-yA|chunkId-VGF2|chunkType-child|stype-|voicetype-	24	lwg__vaux	_	_
26	।	।	SYM	punc	lex-।|cat-punc|gen-|num-|pers-|case-|vib-|tam-|chunkId-BLK|chunkType-head|stype-|voicetype-	7	rsym	_	_

1	इसके	यह	PRP	pn	lex-यह|cat-pn|gen-any|num-sg|pers-3|case-o|vib-0_कारण|tam-ke|chunkId-NP|chunkType-head|stype-|voicetype-	10	rh	_	_
2	कारण	कारण	PSP	n	lex-कारण|cat-n|gen-m|num-|pers-|case-o|vib-|tam-|chunkId-NP|chunkType-child|stype-|voicetype-	1	lwg__psp	_	_
3	सड़क	सड़क	NN	n	lex-सड़क|cat-n|gen-f|num-sg|pers-3|case-o|vib-0_का|tam-0|chunkId-NP2|chunkType-head|stype-|voicetype-	5	r6	_	_
4	के	का	PSP	psp	lex-का|cat-psp|gen-m|num-sg|pers-|case-o|vib-|tam-|chunkId-NP2|chunkType-child|stype-|voicetype-	3	lwg__psp	_	_
5	किनारे	किनारा	NN	n	lex-किनारा|cat-n|gen-m|num-sg|pers-3|case-o|vib-0|tam-0|chunkId-NP3|chunkType-head|stype-|voicetype-	6	jjmod	_	_
6	खड़े	खड़ा	JJ	adj	lex-खड़ा|cat-adj|gen-m|num-sg|pers-|case-o|vib-|tam-|chunkId-JJP|chunkType-head|stype-|voicetype-	7	nmod	_	_
7	ट्रक	ट्रक	NN	n	lex-ट्रक|cat-n|gen-m|num-sg|pers-3|case-o|vib-0_से|tam-0|chunkId-NP4|chunkType-head|stype-|voicetype-	10	ras-k1	_	_
8	से	से	PSP	psp	lex-से|cat-psp|gen-|num-|pers-|case-|vib-|tam-|chunkId-NP4|chunkType-child|stype-|voicetype-	7	lwg__psp	_	_
9	जीप	जीप	NN	n	lex-जीप|cat-n|gen-f|num-sg|pers-3|case-d|vib-0|tam-0|chunkId-NP5|chunkType-head|stype-|voicetype-	10	k1	_	_
10	टकरा	टकरा	VM	v	lex-टकरा|cat-v|gen-any|num-sg|pers-any|case-|vib-0_जा+या१|tam-0|chunkId-VGF|chunkType-head|stype-declarative|voicetype-active	0	main	_	_
11	गई	जा	VAUX	v	lex-जा|cat-v|gen-f|num-sg|pers-any|case-|vib-या१|tam-yA1|chunkId-VGF|chunkType-child|stype-|voicetype-	10	lwg__vaux	_	_
12	।	।	SYM	punc	lex-।|cat-punc|gen-|num-|pers-|case-|vib-|tam-|chunkId-BLK|chunkType-head|stype-|voicetype-	10	rsym	_	_

1	टक्कर	टक्कर	NN	n	lex-टक्कर|cat-n|gen-f|num-sg|pers-3|case-d|vib-0|tam-0|chunkId-NP|chunkType-head|stype-|voicetype-	4	k1	_	_
2	इतनी	इतना	QF	adj	lex-इतना|cat-adj|gen-f|num-sg|pers-|case-|vib-|tam-|chunkId-JJP|chunkType-child|stype-|voicetype-	3	nmod__adj	_	_
3	तेज	तेज	JJ	adj	lex-तेज|cat-adj|gen-any|num-any|pers-|case-|vib-|tam-|chunkId-JJP|chunkType-head|stype-|voicetype-	4	adv	_	_
4	थी	था	VM	v	lex-था|cat-v|gen-f|num-sg|pers-any|case-|vib-था|tam-WA|chunkId-VGF|chunkType-head|stype-declarative|voicetype-active	0	main	_	_
5	कि	कि	CC	avy	lex-कि|cat-avy|gen-|num-|pers-|case-|vib-|tam-|chunkId-CCP|chunkType-head|stype-|voicetype-	1	rs	_	_
6	चार	चार	QC	num	lex-चार|cat-num|gen-any|num-any|pers-|case-any|vib-|tam-|chunkId-NP2|chunkType-child|stype-|voicetype-	7	nmod__adj	_	_
7	लोगों	लोग	NN	n	lex-लोग|cat-n|gen-m|num-pl|pers-3|case-o|vib-0_का|tam-0|chunkId-NP2|chunkType-head|stype-|voicetype-	9	r6	_	_
8	की	का	PSP	psp	lex-का|cat-psp|gen-f|num-sg|pers-|case-d|vib-|tam-|chunkId-NP2|chunkType-child|stype-|voicetype-	7	lwg__psp	_	_
9	मौके	मौका	NN	n	lex-मौका|cat-n|gen-m|num-sg|pers-3|case-o|vib-0_पर|tam-0|chunkId-NP3|chunkType-head|stype-|voicetype-	13	k7	_	_
10	पर	पर	PSP	psp	lex-पर|cat-psp|gen-|num-|pers-|case-|vib-|tam-|chunkId-NP3|chunkType-child|stype-|voicetype-	9	lwg__psp	_	_
11	ही	ही	RP	avy	lex-ही|cat-avy|gen-|num-|pers-|case-|vib-|tam-|chunkId-NP3|chunkType-child|stype-|voicetype-	9	lwg__rp	_	_
12	मौत	मौत	NN	n	lex-मौत|cat-n|gen-f|num-sg|pers-3|case-d|vib-0|tam-0|chunkId-NP4|chunkType-head|stype-|voicetype-	13	pof	_	_
13	हो	हो	VM	v	lex-हो|cat-v|gen-any|num-sg|pers-any|case-|vib-0_जा+या१|tam-0|chunkId-VGF2|chunkType-head|stype-declarative|voicetype-active	16	ccof	_	_
14	गई	जा	VAUX	v	lex-जा|cat-v|gen-f|num-sg|pers-any|case-|vib-या१|tam-yA1|chunkId-VGF2|chunkType-child|stype-|voicetype-	13	lwg__vaux	_	_
15	,	COMMA	SYM	punc	lex-COMMA|cat-punc|gen-|num-|pers-|case-|vib-|tam-|chunkId-VGF2|chunkType-child|stype-|voicetype-	13	rsym	_	_
16	जबकि	जबकि	CC	avy	lex-जबकि|cat-avy|gen-|num-|pers-|case-|vib-|tam-|chunkId-CCP2|chunkType-head|stype-|voicetype-	5	ccof	_	_
17	जीप	जीप	NN	n	lex-जीप|cat-n|gen-f|num-sg|pers-3|case-o|vib-0_में|tam-0|chunkId-NP5|chunkType-head|stype-|voicetype-	19	jjmod	_	_
18	में	में	PSP	psp	lex-में|cat-psp|gen-|num-|pers-|case-|vib-|tam-|chunkId-NP5|chunkType-child|stype-|voicetype-	17	lwg__psp	_	_
19	सवार	सवार	JJ	adj	lex-सवार|cat-adj|gen-any|num-any|pers-|case-d|vib-|tam-|chunkId-JJP2|chunkType-head|stype-|voicetype-	21	nmod	_	_
20	अन्य	अन्य	JJ	adj	lex-अन्य|cat-adj|gen-any|num-any|pers-|case-d|vib-|tam-|chunkId-NP6|chunkType-child|stype-|voicetype-	21	nmod__adj	_	_
21	लोग	लोग	NN	n	lex-लोग|cat-n|gen-m|num-pl|pers-3|case-d|vib-0|tam-0|chunkId-NP6|chunkType-head|stype-|voicetype-	23	k1	_	_
22	घायल	घायल	JJ	adj	lex-घायल|cat-adj|gen-any|num-any|pers-|case-|vib-|tam-|chunkId-JJP3|chunkType-head|stype-|voicetype-	23	pof	_	_
23	हो	हो	VM	v	lex-हो|cat-v|gen-any|num-pl|pers-any|case-|vib-0_जा+या१|tam-0|chunkId-VGF3|chunkType-head|stype-declarative|voicetype-active	16	ccof	_	_
24	गए	जा	VAUX	v	lex-जा|cat-v|gen-m|num-pl|pers-any|case-|vib-या१|tam-yA1|chunkId-VGF3|chunkType-child|stype-|voicetype-	23	lwg__vaux	_	_
25	।	।	SYM	punc	lex-।|cat-punc|gen-|num-|pers-|case-|vib-|tam-|chunkId-BLK|chunkType-head|stype-|voicetype-	4	rsym	_	_

1	खड़े	खड़ा	JJ	adj	lex-खड़ा|cat-adj|gen-m|num-sg|pers-|case-o|vib-|tam-|chunkId-NP|chunkType-child|stype-|voicetype-	2	nmod__adj	_	_
2	ट्रक	ट्रक	NN	n	lex-ट्रक|cat-n|gen-m|num-sg|pers-3|case-o|vib-0_में|tam-0|chunkId-NP|chunkType-head|stype-|voicetype-	5	k7	_	_
3	में	में	PSP	psp	lex-में|cat-psp|gen-|num-|pers-|case-|vib-|tam-|chunkId-NP|chunkType-child|stype-|voicetype-	2	lwg__psp	_	_
4	जीप	जीप	NN	n	lex-जीप|cat-n|gen-f|num-sg|pers-3|case-d|vib-0|tam-0|chunkId-NP2|chunkType-head|stype-|voicetype-	5	k1	_	_
5	घुस	घुस	VM	v	lex-घुस|cat-v|gen-any|num-sg|pers-any|case-|vib-0_जा+या१|tam-0|chunkId-VGF|chunkType-head|stype-declarative|voicetype-active	8	ccof	_	_
6	गई	जा	VAUX	v	lex-जा|cat-v|gen-f|num-sg|pers-any|case-|vib-या१|tam-yA1|chunkId-VGF|chunkType-child|stype-|voicetype-	5	lwg__vaux	_	_
7	,	COMMA	SYM	punc	lex-COMMA|cat-punc|gen-|num-|pers-|case-|vib-|tam-|chunkId-VGF|chunkType-child|stype-|voicetype-	5	rsym	_	_
8	NULL	_	CC	_	lex-_|cat-_|gen-|num-|pers-|case-|vib-|tam-|chunkId-NULL__CCP|chunkType-head|stype-|voicetype-	0	main	_	_
9	उसे	वह	PRP	pn	lex-वह|cat-pn|gen-any|num-sg|pers-3|case-o|vib-को|tam-ko|chunkId-NP3|chunkType-head|stype-|voicetype-	16	k1	_	_
10	निकालने	निकाल	VM	v	lex-निकाल|cat-v|gen-any|num-any|pers-any|case-o|vib-ना_के_लिए|tam-nA|chunkId-VGNN|chunkType-head|stype-|voicetype-	16	rt	_	_
11	के	के	PSP	psp	lex-के|cat-psp|gen-|num-|pers-|case-|vib-|tam-|chunkId-VGNN|chunkType-child|stype-|voicetype-	10	lwg__psp	_	_
12	लिए	लिए	PSP	psp	lex-लिए|cat-psp|gen-|num-|pers-|case-|vib-|tam-|chunkId-VGNN|chunkType-child|stype-|voicetype-	10	lwg__psp	_	_
13	क्रेन	क्रेन	NN	n	lex-क्रेन|cat-n|gen-f|num-sg|pers-3|case-o|vib-0_का|tam-0|chunkId-NP4|chunkType-head|stype-|voicetype-	15	r6-k1	_	_
14	का	का	PSP	psp	lex-का|cat-psp|gen-m|num-sg|pers-|case-d|vib-|tam-|chunkId-NP4|chunkType-child|stype-|voicetype-	13	lwg__psp	_	_
15	सहारा	सहारा	NN	n	lex-सहारा|cat-n|gen-m|num-sg|pers-3|case-d|vib-0|tam-0|chunkId-NP5|chunkType-head|stype-|voicetype-	16	pof	_	_
16	लेना	ले	VM	v	lex-ले|cat-v|gen-m|num-sg|pers-any|case-|vib-ना_पड़+या|tam-nA|chunkId-VGF2|chunkType-head|stype-declarative|voicetype-active	8	ccof	_	_
17	पड़ा	पड़	VAUX	v	lex-पड़|cat-v|gen-m|num-sg|pers-any|case-|vib-या|tam-yA|chunkId-VGF2|chunkType-child|stype-|voicetype-	16	lwg__vaux	_	_
18	।	।	SYM	punc	lex-।|cat-punc|gen-|num-|pers-|case-|vib-|tam-|chunkId-BLK|chunkType-head|stype-|voicetype-	8	rsym	_	_

1	दुर्घटना	दुर्घटना	NN	n	lex-दुर्घटना|cat-n|gen-f|num-sg|pers-3|case-o|vib-0_में|tam-0|chunkId-NP|chunkType-head|stype-|voicetype-	28	k7	_	_
2	में	में	PSP	psp	lex-में|cat-psp|gen-|num-|pers-|case-|vib-|tam-|chunkId-NP|chunkType-child|stype-|voicetype-	1	lwg__psp	_	_
3	पवन	पवन	NNPC	n	lex-पवन|cat-n|gen-m|num-sg|pers-3|case-d|vib-0|tam-0|chunkId-NP2|chunkType-child|stype-|voicetype-	4	pof__cn	_	_
4	कुमार	कुमार	NNP	n	lex-कुमार|cat-n|gen-m|num-sg|pers-3|case-o|vib-0|tam-0|chunkId-NP2|chunkType-head|stype-|voicetype-	18	ccof	_	_
5	(	(	SYM	punc	lex-(|cat-punc|gen-|num-|pers-|case-|vib-|tam-|chunkId-NP3|chunkType-head|stype-|voicetype-	4	nmod	_	_
6	१३	१३	QC	num	lex-१३|cat-num|gen-any|num-any|pers-|case-any|vib-|tam-|chunkId-NP3|chunkType-child|stype-|voicetype-	5	ccof	_	_
7	)	)	SYM	punc	lex-)|cat-punc|gen-|num-|pers-|case-|vib-|tam-|chunkId-NP3|chunkType-child|stype-|voicetype-	5	rsym	_	_
8	,	COMMA	SYM	punc	lex-COMMA|cat-punc|gen-|num-|pers-|case-|vib-|tam-|chunkId-NP3|chunkType-child|stype-|voicetype-	5	ccof	_	_
9	शीला	शीला	NNP	n	lex-शीला|cat-n|gen-f|num-sg|pers-3|case-o|vib-0|tam-0|chunkId-NP4|chunkType-head|stype-|voicetype-	18	ccof	_	_
10	(	(	SYM	punc	lex-(|cat-punc|gen-|num-|pers-|case-|vib-|tam-|chunkId-NP5|chunkType-head|stype-|voicetype-	9	nmod	_	_
11	१८	१८	QC	num	lex-१८|cat-num|gen-any|num-any|pers-|case-any|vib-|tam-|chunkId-NP5|chunkType-child|stype-|voicetype-	10	ccof	_	_
12	)	)	SYM	punc	lex-)|cat-punc|gen-|num-|pers-|case-|vib-|tam-|chunkId-NP5|chunkType-child|stype-|voicetype-	10	rsym	_	_
13	,	COMMA	SYM	punc	lex-COMMA|cat-punc|gen-|num-|pers-|case-|vib-|tam-|chunkId-NP5|chunkType-child|stype-|voicetype-	10	ccof	_	_
14	कमला	कमला	NNP	n	lex-कमला|cat-n|gen-f|num-sg|pers-3|case-o|vib-0|tam-0|chunkId-NP6|chunkType-head|stype-|voicetype-	18	ccof	_	_
15	(	(	SYM	punc	lex-(|cat-punc|gen-|num-|pers-|case-|vib-|tam-|chunkId-NP7|chunkType-head|stype-|voicetype-	14	nmod	_	_
16	६०	६०	QC	num	lex-६०|cat-num|gen-any|num-any|pers-|case-any|vib-|tam-|chunkId-NP7|chunkType-child|stype-|voicetype-	15	ccof	_	_
17	)	)	SYM	punc	lex-)|cat-punc|gen-|num-|pers-|case-|vib-|tam-|chunkId-NP7|chunkType-child|stype-|voicetype-	15	ccof	_	_
18	व	व	CC	avy	lex-व|cat-avy|gen-|num-|pers-|case-|vib-|tam-|chunkId-CCP|chunkType-head|stype-|voicetype-	24	r6	_	_
19	भरपाई	भरपाई	NNP	n	lex-भरपाई|cat-n|gen-f|num-sg|pers-3|case-o|vib-0|tam-0|chunkId-NP8|chunkType-head|stype-|voicetype-	18	ccof	_	_
20	(	(	SYM	punc	lex-(|cat-punc|gen-|num-|pers-|case-|vib-|tam-|chunkId-NP9|chunkType-head|stype-|voicetype-	19	nmod	_	_
21	५८	५८	QC	num	lex-५८|cat-num|gen-any|num-any|pers-|case-any|vib-|tam-|chunkId-NP9|chunkType-child|stype-|voicetype-	20	ccof	_	_
22	)	)	SYM	punc	lex-)|cat-punc|gen-|num-|pers-|case-|vib-|tam-|chunkId-NP9|chunkType-child|stype-|voicetype-	20	ccof	_	_
23	की	_	PSP	_	lex-_|cat-_|gen-|num-|pers-|case-|vib-|tam-|chunkId-FRAGP|chunkType-head|stype-|voicetype-	18	fragof	_	_
24	मौके	मौका	NN	n	lex-मौका|cat-n|gen-m|num-sg|pers-3|case-o|vib-0_पर|tam-0|chunkId-NP10|chunkType-head|stype-|voicetype-	28	k7	_	_
25	पर	पर	PSP	psp	lex-पर|cat-psp|gen-|num-|pers-|case-|vib-|tam-|chunkId-NP10|chunkType-child|stype-|voicetype-	24	lwg__psp	_	_
26	ही	ही	RP	avy	lex-ही|cat-avy|gen-|num-|pers-|case-|vib-|tam-|chunkId-NP10|chunkType-child|stype-|voicetype-	24	lwg__rp	_	_
27	मौत	मौत	NN	n	lex-मौत|cat-n|gen-f|num-sg|pers-3|case-d|vib-0|tam-0|chunkId-NP11|chunkType-head|stype-|voicetype-	28	pof	_	_
28	हो	हो	VM	v	lex-हो|cat-v|gen-any|num-sg|pers-any|case-|vib-0_जा+या१|tam-0|chunkId-VGF|chunkType-head|stype-declarative|voicetype-active	0	main	_	_
29	गई	जा	VAUX	v	lex-जा|cat-v|gen-f|num-sg|pers-any|case-|vib-या१|tam-yA1|chunkId-VGF|chunkType-child|stype-|voicetype-	28	lwg__vaux	_	_
30	।	।	SYM	punc	lex-।|cat-punc|gen-|num-|pers-|case-|vib-|tam-|chunkId-BLK|chunkType-head|stype-|voicetype-	28	rsym	_	_

1	इनमें	यह	PRP	pn	lex-यह|cat-pn|gen-any|num-pl|pers-3|case-o|vib-में|tam-meM|chunkId-NP|chunkType-head|stype-|voicetype-	8	k7	_	_
2	भरपाई	भरपाई	NNP	n	lex-भरपाई|cat-n|gen-f|num-sg|pers-3|case-d|vib-0|tam-0|chunkId-NP2|chunkType-head|stype-|voicetype-	3	ccof	_	_
3	व	व	CC	avy	lex-व|cat-avy|gen-|num-|pers-|case-|vib-|tam-|chunkId-CCP|chunkType-head|stype-|voicetype-	8	k1	_	_
4	पवन	पवन	NNP	n	lex-पवन|cat-n|gen-m|num-sg|pers-3|case-d|vib-0|tam-0|chunkId-NP3|chunkType-head|stype-|voicetype-	3	ccof	_	_
5	दादी	दादी	NNC	n	lex-दादी|cat-n|gen-f|num-sg|pers-3|case-d|vib-0|tam-0|chunkId-NP4|chunkType-child|stype-|voicetype-	7	pof__cn	_	_
6	-	-	SYM	punc	lex--|cat-punc|gen-|num-|pers-|case-|vib-|tam-|chunkId-NP4|chunkType-child|stype-|voicetype-	7	pof__cn	_	_
7	पोता	पोता	NN	n	lex-पोता|cat-n|gen-m|num-sg|pers-3|case-d|vib-0|tam-0|chunkId-NP4|chunkType-head|stype-|voicetype-	8	k1s	_	_
8	हैं	है	VM	v	lex-है|cat-v|gen-any|num-pl|pers-3|case-|vib-है|tam-hE|chunkId-VGF|chunkType-head|stype-declarative|voicetype-active	0	main	_	_
9	।	।	SYM	punc	lex-।|cat-punc|gen-|num-|pers-|case-|vib-|tam-|chunkId-BLK|chunkType-head|stype-|voicetype-	8	rsym	_	_

1	इस	यह	DEM	pn	lex-यह|cat-pn|gen-any|num-sg|pers-3|case-o|vib-|tam-|chunkId-NP|chunkType-child|stype-|voicetype-	2	nmod__adj	_	_
2	हादसे	हादसा	NN	n	lex-हादसा|cat-n|gen-m|num-sg|pers-3|case-o|vib-0_में|tam-0|chunkId-NP|chunkType-head|stype-|voicetype-	31	k7	_	_
3	में	में	PSP	psp	lex-में|cat-psp|gen-|num-|pers-|case-|vib-|tam-|chunkId-NP|chunkType-child|stype-|voicetype-	2	lwg__psp	_	_
4	सोनू	सोनू	NNP	n	lex-सोनू|cat-n|gen-m|num-sg|pers-3|case-d|vib-0|tam-0|chunkId-NP2|chunkType-head|stype-|voicetype-	28	ccof	_	_
5	,	COMMA	SYM	punc	lex-COMMA|cat-punc|gen-|num-|pers-|case-|vib-|tam-|chunkId-NP2|chunkType-child|stype-|voicetype-	4	rsym	_	_
6	बिमला	बिमला	NNP	n	lex-बिमला|cat-n|gen-f|num-sg|pers-3|case-d|vib-0|tam-0|chunkId-NP3|chunkType-head|stype-|voicetype-	28	ccof	_	_
7	,	COMMA	SYM	punc	lex-COMMA|cat-punc|gen-|num-|pers-|case-|vib-|tam-|chunkId-NP3|chunkType-child|stype-|voicetype-	6	rsym	_	_
8	बबली	बबली	NNP	n	lex-बबली|cat-n|gen-f|num-sg|pers-3|case-d|vib-0|tam-0|chunkId-NP4|chunkType-head|stype-|voicetype-	28	ccof	_	_
9	,	COMMA	SYM	punc	lex-COMMA|cat-punc|gen-|num-|pers-|case-|vib-|tam-|chunkId-NP4|chunkType-child|stype-|voicetype-	8	rsym	_	_
10	दानी	दानी	NNP	n	lex-दानी|cat-n|gen-f|num-sg|pers-3|case-d|vib-0|tam-0|chunkId-NP5|chunkType-head|stype-|voicetype-	28	ccof	_	_
11	,	COMMA	SYM	punc	lex-COMMA|cat-punc|gen-|num-|pers-|case-|vib-|tam-|chunkId-NP5|chunkType-child|stype-|voicetype-	10	rsym	_	_
12	कृष्णा	कृष्णा	NNP	n	lex-कृष्णा|cat-n|gen-f|num-sg|pers-3|case-d|vib-0|tam-0|chunkId-NP6|chunkType-head|stype-|voicetype-	28	ccof	_	_
13	,	COMMA	SYM	punc	lex-COMMA|cat-punc|gen-|num-|pers-|case-|vib-|tam-|chunkId-NP6|chunkType-child|stype-|voicetype-	12	rsym	_	_
14	सत्यवान	सत्यवान	NNP	n	lex-सत्यवान|cat-n|gen-m|num-sg|pers-3|case-d|vib-0|tam-0|chunkId-NP7|chunkType-head|stype-|voicetype-	28	ccof	_	_
15	,	COMMA	SYM	punc	lex-COMMA|cat-punc|gen-|num-|pers-|case-|vib-|tam-|chunkId-NP7|chunkType-child|stype-|voicetype-	14	rsym	_	_
16	किताबो	किताबो	NNP	n	lex-किताबो|cat-n|gen-f|num-sg|pers-3|case-d|vib-0|tam-0|chunkId-NP8|chunkType-head|stype-|voicetype-	28	ccof	_	_
17	,	COMMA	SYM	punc	lex-COMMA|cat-punc|gen-|num-|pers-|case-|vib-|tam-|chunkId-NP8|chunkType-child|stype-|voicetype-	16	rsym	_	_
18	मुकेश	मुकेश	NNPC	n	lex-मुकेश|cat-n|gen-f|num-sg|pers-3|case-d|vib-0|tam-0|chunkId-NP9|chunkType-child|stype-|voicetype-	19	pof__cn	_	_
19	देवी	देवी	NNP	n	lex-देवी|cat-n|gen-f|num-sg|pers-3|case-d|vib-0|tam-0|chunkId-NP9|chunkType-head|stype-|voicetype-	28	ccof	_	_
20	,	COMMA	SYM	punc	lex-COMMA|cat-punc|gen-|num-|pers-|case-|vib-|tam-|chunkId-NP9|chunkType-child|stype-|voicetype-	19	rsym	_	_
21	वेदो	वेदो	NNP	n	lex-वेदो|cat-n|gen-m|num-sg|pers-3|case-d|vib-0|tam-0|chunkId-NP10|chunkType-head|stype-|voicetype-	28	ccof	_	_
22	,	COMMA	SYM	punc	lex-COMMA|cat-punc|gen-|num-|pers-|case-|vib-|tam-|chunkId-NP10|chunkType-child|stype-|voicetype-	21	rsym	_	_
23	गोलू	गोलू	NNP	n	lex-गोलू|cat-n|gen-m|num-sg|pers-3|case-d|vib-0|tam-0|chunkId-NP11|chunkType-head|stype-|voicetype-	28	ccof	_	_
24	,	COMMA	SYM	punc	lex-COMMA|cat-punc|gen-|num-|pers-|case-|vib-|tam-|chunkId-NP11|chunkType-child|stype-|voicetype-	23	rsym	_	_
25	पूनम	पूनम	NNP	n	lex-पूनम|cat-n|gen-f|num-sg|pers-3|case-d|vib-0|tam-0|chunkId-NP12|chunkType-head|stype-|voicetype-	28	ccof	_	_
26	,	COMMA	SYM	punc	lex-COMMA|cat-punc|gen-|num-|pers-|case-|vib-|tam-|chunkId-NP12|chunkType-child|stype-|voicetype-	25	rsym	_	_
27	शांति	शान्ति	NNP	n	lex-शान्ति|cat-n|gen-f|num-sg|pers-3|case-d|vib-0|tam-0|chunkId-NP13|chunkType-head|stype-|voicetype-	28	ccof	_	_
28	तथा	तथा	CC	avy	lex-तथा|cat-avy|gen-|num-|pers-|case-|vib-|tam-|chunkId-CCP|chunkType-head|stype-|voicetype-	31	k1	_	_
29	तोताराम	तोताराम	NNP	n	lex-तोताराम|cat-n|gen-m|num-sg|pers-3|case-d|vib-0|tam-0|chunkId-NP14|chunkType-head|stype-|voicetype-	28	ccof	_	_
30	घायल	घायल	JJ	adj	lex-घायल|cat-adj|gen-any|num-any|pers-|case-|vib-|tam-|chunkId-JJP|chunkType-head|stype-|voicetype-	31	pof	_	_
31	हो	हो	VM	v	lex-हो|cat-v|gen-any|num-pl|pers-any|case-|vib-0_जा+या१|tam-0|chunkId-VGF|chunkType-head|stype-declarative|voicetype-active	0	main	_	_
32	गए	जा	VAUX	v	lex-जा|cat-v|gen-m|num-pl|pers-any|case-|vib-या१|tam-yA1|chunkId-VGF|chunkType-child|stype-|voicetype-	31	lwg__vaux	_	_
33	।	।	SYM	punc	lex-।|cat-punc|gen-|num-|pers-|case-|vib-|tam-|chunkId-BLK|chunkType-head|stype-|voicetype-	31	rsym	_	_

1	सभी	सभी	QF	avy	lex-सभी|cat-avy|gen-|num-|pers-|case-|vib-|tam-|chunkId-NP|chunkType-child|stype-|voicetype-	2	nmod__adj	_	_
2	घायलों	घायल	NN	n	lex-घायल|cat-n|gen-m|num-pl|pers-3|case-o|vib-0_को|tam-0|chunkId-NP|chunkType-head|stype-|voicetype-	8	k2	_	_
3	को	को	PSP	psp	lex-को|cat-psp|gen-|num-|pers-|case-|vib-|tam-|chunkId-NP|chunkType-child|stype-|voicetype-	2	lwg__psp	_	_
4	ग्रामीणों	ग्रामीण	NN	n	lex-ग्रामीण|cat-n|gen-m|num-pl|pers-3|case-o|vib-0_ने|tam-0|chunkId-NP2|chunkType-head|stype-|voicetype-	8	k1	_	_
5	ने	ने	PSP	psp	lex-ने|cat-psp|gen-|num-|pers-|case-|vib-|tam-|chunkId-NP2|chunkType-child|stype-|voicetype-	4	lwg__psp	_	_
6	स्थानीय	स्थानीय	JJ	adj	lex-स्थानीय|cat-adj|gen-any|num-any|pers-|case-d|vib-|tam-|chunkId-NP3|chunkType-child|stype-|voicetype-	7	nmod__adj	_	_
7	अस्पताल	अस्पताल	NN	n	lex-अस्पताल|cat-n|gen-m|num-sg|pers-3|case-d|vib-0|tam-0|chunkId-NP3|chunkType-head|stype-|voicetype-	8	k2p	_	_
8	पहुंचाया	पहुंचा	VM	v	lex-पहुंचा|cat-v|gen-m|num-sg|pers-any|case-|vib-या|tam-yA|chunkId-VGF|chunkType-head|stype-declarative|voicetype-active	0	main	_	_
9	,	COMMA	SYM	punc	lex-COMMA|cat-punc|gen-|num-|pers-|case-|vib-|tam-|chunkId-VGF|chunkType-child|stype-|voicetype-	8	rsym	_	_
10	जहां	जहाँ	PRP	pn	lex-जहाँ|cat-pn|gen-|num-|pers-|case-|vib-|tam-|chunkId-NP4|chunkType-head|stype-|voicetype-	28	k7p	_	_
11	चिकित्सकों	चिकित्सक	NN	n	lex-चिकित्सक|cat-n|gen-m|num-pl|pers-3|case-o|vib-0_ने|tam-0|chunkId-NP5|chunkType-head|stype-|voicetype-	28	k1	_	_
12	ने	ने	PSP	psp	lex-ने|cat-psp|gen-|num-|pers-|case-|vib-|tam-|chunkId-NP5|chunkType-child|stype-|voicetype-	11	lwg__psp	_	_
13	सोनू	सोनू	NNP	n	lex-सोनू|cat-n|gen-m|num-sg|pers-3|case-o|vib-0|tam-0|chunkId-NP6|chunkType-head|stype-|voicetype-	18	ccof	_	_
14	,	COMMA	SYM	punc	lex-COMMA|cat-punc|gen-|num-|pers-|case-|vib-|tam-|chunkId-NP6|chunkType-child|stype-|voicetype-	13	rsym	_	_
15	बबली	बबली	NNP	n	lex-बबली|cat-n|gen-f|num-sg|pers-3|case-o|vib-0|tam-0|chunkId-NP7|chunkType-head|stype-|voicetype-	18	ccof	_	_
16	,	COMMA	SYM	punc	lex-COMMA|cat-punc|gen-|num-|pers-|case-|vib-|tam-|chunkId-NP7|chunkType-child|stype-|voicetype-	15	rsym	_	_
17	गोलू	गोलू	NNP	n	lex-गोलू|cat-n|gen-m|num-sg|pers-3|case-o|vib-0|tam-0|chunkId-NP8|chunkType-head|stype-|voicetype-	18	ccof	_	_
18	व	व	CC	avy	lex-व|cat-avy|gen-|num-|pers-|case-|vib-|tam-|chunkId-CCP|chunkType-head|stype-|voicetype-	21	r6	_	_
19	पूनम	पूनम	NNP	n	lex-पूनम|cat-n|gen-f|num-sg|pers-3|case-o|vib-0_का|tam-0|chunkId-NP9|chunkType-head|stype-|voicetype-	18	ccof	_	_
20	की	का	PSP	psp	lex-का|cat-psp|gen-f|num-sg|pers-|case-d|vib-|tam-|chunkId-NP9|chunkType-child|stype-|voicetype-	19	lwg__psp	_	_
21	हालत	हालत	NN	n	lex-हालत|cat-n|gen-f|num-sg|pers-3|case-d|vib-0|tam-0|chunkId-NP10|chunkType-head|stype-|voicetype-	23	k2	_	_
22	गंभीर	गंभीर	JJ	adj	lex-गंभीर|cat-adj|gen-any|num-any|pers-|case-|vib-|tam-|chunkId-JJP|chunkType-head|stype-|voicetype-	23	k2s	_	_
23	देखकर	देख	VM	v	lex-देख|cat-v|gen-any|num-any|pers-any|case-|vib-कर|tam-kara|chunkId-VGNF|chunkType-head|stype-|voicetype-	28	vmod	_	_
24	पीजीआई	पीजीआई	NNP	n	lex-पीजीआई|cat-n|gen-m|num-sg|pers-3|case-d|vib-0|tam-0|chunkId-NP11|chunkType-head|stype-|voicetype-	26	nmod	_	_
25	,	COMMA	SYM	punc	lex-COMMA|cat-punc|gen-|num-|pers-|case-|vib-|tam-|chunkId-NP11|chunkType-child|stype-|voicetype-	24	rsym	_	_
26	रोहतक	रोहतक	NNP	n	lex-रोहतक|cat-n|gen-m|num-sg|pers-3|case-d|vib-0|tam-0|chunkId-NP12|chunkType-head|stype-|voicetype-	28	k2p	_	_
27	रेफर	रेफर	UNK	unk	lex-रेफर|cat-unk|gen-|num-|pers-|case-|vib-|tam-|chunkId-BLK|chunkType-head|stype-|voicetype-	28	pof	_	_
28	कर	कर	VM	v	lex-कर|cat-v|gen-any|num-sg|pers-any|case-|vib-0_दे+या|tam-0|chunkId-VGF2|chunkType-head|stype-declarative|voicetype-active	7	nmod__relc	_	_
29	दिया	दे	VAUX	v	lex-दे|cat-v|gen-m|num-sg|pers-any|case-|vib-या|tam-yA|chunkId-VGF2|chunkType-child|stype-|voicetype-	28	lwg__vaux	_	_
30	।	।	SYM	punc	lex-।|cat-punc|gen-|num-|pers-|case-|vib-|tam-|chunkId-BLK2|chunkType-head|stype-|voicetype-	8	rsym	_	_

1	घटना	घटना	NN	n	lex-घटना|cat-n|gen-f|num-sg|pers-3|case-o|vib-0_का|tam-0|chunkId-NP|chunkType-head|stype-|voicetype-	3	r6	_	_
2	की	का	PSP	psp	lex-का|cat-psp|gen-f|num-sg|pers-|case-d|vib-|tam-|chunkId-NP|chunkType-child|stype-|voicetype-	1	lwg__psp	_	_
3	खबर	खबर	NN	n	lex-खबर|cat-n|gen-f|num-sg|pers-3|case-d|vib-0|tam-0|chunkId-NP2|chunkType-head|stype-|voicetype-	4	k2	_	_
4	पाकर	पा	VM	v	lex-पा|cat-v|gen-any|num-any|pers-any|case-|vib-कर|tam-kara|chunkId-VGNF|chunkType-head|stype-|voicetype-	8	vmod	_	_
5	पुलिस	पुलिस	NN	n	lex-पुलिस|cat-n|gen-f|num-sg|pers-3|case-d|vib-0|tam-0|chunkId-NP3|chunkType-head|stype-|voicetype-	8	k1	_	_
6	मौके	मौका	NN	n	lex-मौका|cat-n|gen-m|num-sg|pers-3|case-o|vib-0_पर|tam-0|chunkId-NP4|chunkType-head|stype-|voicetype-	8	k7	_	_
7	पर	पर	PSP	psp	lex-पर|cat-psp|gen-|num-|pers-|case-|vib-|tam-|chunkId-NP4|chunkType-child|stype-|voicetype-	6	lwg__psp	_	_
8	पहुंच	पहुंच	VM	v	lex-पहुंच|cat-v|gen-any|num-sg|pers-any|case-|vib-0_जा+या१|tam-0|chunkId-VGF|chunkType-head|stype-declarative|voicetype-active	0	main	_	_
9	गई	जा	VAUX	v	lex-जा|cat-v|gen-f|num-sg|pers-any|case-|vib-या१|tam-yA1|chunkId-VGF|chunkType-child|stype-|voicetype-	8	lwg__vaux	_	_
10	।	।	SYM	punc	lex-।|cat-punc|gen-|num-|pers-|case-|vib-|tam-|chunkId-BLK|chunkType-head|stype-|voicetype-	8	rsym	_	_

1	पुलिस	पुलिस	NN	n	lex-पुलिस|cat-n|gen-f|num-sg|pers-3|case-o|vib-0_ने|tam-0|chunkId-NP|chunkType-head|stype-|voicetype-	11	k1	_	_
2	ने	ने	PSP	psp	lex-ने|cat-psp|gen-|num-|pers-|case-|vib-|tam-|chunkId-NP|chunkType-child|stype-|voicetype-	1	lwg__psp	_	_
3	शवों	शव	NN	n	lex-शव|cat-n|gen-m|num-pl|pers-3|case-o|vib-0_को|tam-0|chunkId-NP2|chunkType-head|stype-|voicetype-	10	k2	_	_
4	को	को	PSP	psp	lex-को|cat-psp|gen-|num-|pers-|case-|vib-|tam-|chunkId-NP2|chunkType-child|stype-|voicetype-	3	lwg__psp	_	_
5	पोस्टमार्टम	पोस्टमार्टम	NN	n	lex-पोस्टमार्टम|cat-n|gen-m|num-sg|pers-3|case-o|vib-0_के_लिए|tam-0|chunkId-NP3|chunkType-head|stype-|voicetype-	10	rt	_	_
6	के	के	PSP	psp	lex-के|cat-psp|gen-|num-|pers-|case-|vib-|tam-|chunkId-NP3|chunkType-child|stype-|voicetype-	5	lwg__psp	_	_
7	लिए	लिए	PSP	psp	lex-लिए|cat-psp|gen-|num-|pers-|case-|vib-|tam-|chunkId-NP3|chunkType-child|stype-|voicetype-	5	lwg__psp	_	_
8	कब्जे	कब्जा	NN	n	lex-कब्जा|cat-n|gen-m|num-sg|pers-3|case-o|vib-0_में|tam-0|chunkId-NP4|chunkType-head|stype-|voicetype-	10	k7	_	_
9	में	में	PSP	psp	lex-में|cat-psp|gen-|num-|pers-|case-|vib-|tam-|chunkId-NP4|chunkType-child|stype-|voicetype-	8	lwg__psp	_	_
10	लेना	ले	VM	v	lex-ले|cat-v|gen-any|num-any|pers-any|case-d|vib-ना|tam-nA|chunkId-VGNN|chunkType-head|stype-|voicetype-	11	vmod	_	_
11	चाहा	चाह	VM	v	lex-चाह|cat-v|gen-m|num-sg|pers-any|case-|vib-या|tam-yA|chunkId-VGF|chunkType-head|stype-declarative|voicetype-active	13	ccof	_	_
12	,	COMMA	SYM	punc	lex-COMMA|cat-punc|gen-|num-|pers-|case-|vib-|tam-|chunkId-VGF|chunkType-child|stype-|voicetype-	11	rsym	_	_
13	लेकिन	लेकिन	CC	avy	lex-लेकिन|cat-avy|gen-|num-|pers-|case-|vib-|tam-|chunkId-CCP|chunkType-head|stype-|voicetype-	0	main	_	_
14	ग्रामीणों	ग्रामीण	NN	n	lex-ग्रामीण|cat-n|gen-m|num-pl|pers-3|case-o|vib-0_ने|tam-0|chunkId-NP5|chunkType-head|stype-|voicetype-	20	k1	_	_
15	ने	ने	PSP	psp	lex-ने|cat-psp|gen-|num-|pers-|case-|vib-|tam-|chunkId-NP5|chunkType-child|stype-|voicetype-	14	lwg__psp	_	_
16	पोस्टमार्टम	पोस्टमार्टम	NN	n	lex-पोस्टमार्टम|cat-n|gen-m|num-sg|pers-3|case-d|vib-0|tam-0|chunkId-NP6|chunkType-head|stype-|voicetype-	17	pof	_	_
17	कराने	करा	VM	v	lex-करा|cat-v|gen-any|num-any|pers-any|case-o|vib-ना_से|tam-nA|chunkId-VGNN2|chunkType-head|stype-|voicetype-	20	rt	_	_
18	से	से	PSP	psp	lex-से|cat-psp|gen-|num-|pers-|case-|vib-|tam-|chunkId-VGNN2|chunkType-child|stype-|voicetype-	17	lwg__psp	_	_
19	मना	मना	NN	n	lex-मना|cat-n|gen-m|num-sg|pers-3|case-d|vib-0|tam-0|chunkId-NP7|chunkType-head|stype-|voicetype-	20	pof	_	_
20	कर	कर	VM	v	lex-कर|cat-v|gen-any|num-sg|pers-any|case-|vib-0_दे+या|tam-0|chunkId-VGF2|chunkType-head|stype-declarative|voicetype-active	22	ccof	_	_
21	दिया	दे	VAUX	v	lex-दे|cat-v|gen-m|num-sg|pers-any|case-|vib-या|tam-yA|chunkId-VGF2|chunkType-child|stype-|voicetype-	20	lwg__vaux	_	_
22	तथा	तथा	CC	avy	lex-तथा|cat-avy|gen-|num-|pers-|case-|vib-|tam-|chunkId-CCP2|chunkType-head|stype-|voicetype-	13	ccof	_	_
23	शवों	शव	NN	n	lex-शव|cat-n|gen-m|num-pl|pers-3|case-o|vib-0_को|tam-0|chunkId-NP8|chunkType-head|stype-|voicetype-	26	k2	_	_
24	को	को	PSP	psp	lex-को|cat-psp|gen-|num-|pers-|case-|vib-|tam-|chunkId-NP8|chunkType-child|stype-|voicetype-	23	lwg__psp	_	_
25	गांव	गाँव	NN	n	lex-गाँव|cat-n|gen-m|num-sg|pers-3|case-d|vib-0|tam-0|chunkId-NP9|chunkType-head|stype-|voicetype-	26	k7p	_	_
26	ले	ले	VM	v	lex-ले|cat-v|gen-any|num-any|pers-any|case-|vib-0_जा+कर|tam-0|chunkId-VGNF|chunkType-head|stype-|voicetype-	30	vmod	_	_
27	जाकर	जा	VAUX	v	lex-जा|cat-v|gen-any|num-any|pers-any|case-|vib-कर|tam-kara|chunkId-VGNF|chunkType-child|stype-|voicetype-	26	lwg__vaux	_	_
28	अंतिम	अंतिम	JJ	adj	lex-अंतिम|cat-adj|gen-any|num-any|pers-|case-d|vib-|tam-|chunkId-NP10|chunkType-child|stype-|voicetype-	29	nmod__adj	_	_
29	संस्कार	संस्कार	NN	n	lex-संस्कार|cat-n|gen-m|num-sg|pers-3|case-d|vib-0|tam-0|chunkId-NP10|chunkType-head|stype-|voicetype-	30	pof	_	_
30	कर	कर	VM	v	lex-कर|cat-v|gen-any|num-sg|pers-any|case-|vib-0_दे+या|tam-0|chunkId-VGF3|chunkType-head|stype-declarative|voicetype-active	22	ccof	_	_
31	दिया	दे	VAUX	v	lex-दे|cat-v|gen-m|num-sg|pers-any|case-|vib-या|tam-yA|chunkId-VGF3|chunkType-child|stype-|voicetype-	30	lwg__vaux	_	_
32	।	।	SYM	punc	lex-।|cat-punc|gen-|num-|pers-|case-|vib-|tam-|chunkId-BLK|chunkType-head|stype-|voicetype-	13	rsym	_	_

1	ग्रामीणों	ग्रामीण	NN	n	lex-ग्रामीण|cat-n|gen-m|num-pl|pers-3|case-o|vib-0_ने|tam-0|chunkId-NP|chunkType-head|stype-|voicetype-	5	k1	_	_
2	ने	ने	PSP	psp	lex-ने|cat-psp|gen-|num-|pers-|case-|vib-|tam-|chunkId-NP|chunkType-child|stype-|voicetype-	1	lwg__psp	_	_
3	पुलिस	पुलिस	NN	n	lex-पुलिस|cat-n|gen-f|num-sg|pers-3|case-o|vib-0_को|tam-0|chunkId-NP2|chunkType-head|stype-|voicetype-	5	k4	_	_
4	को	को	PSP	psp	lex-को|cat-psp|gen-|num-|pers-|case-|vib-|tam-|chunkId-NP2|chunkType-child|stype-|voicetype-	3	lwg__psp	_	_
5	बताया	बता	VM	v	lex-बता|cat-v|gen-m|num-sg|pers-any|case-|vib-या|tam-yA|chunkId-VGF|chunkType-head|stype-declarative|voicetype-active	0	main	_	_
6	कि	कि	CC	avy	lex-कि|cat-avy|gen-|num-|pers-|case-|vib-|tam-|chunkId-CCP|chunkType-head|stype-|voicetype-	5	k2	_	_
7	यह	यह	PRP	pn	lex-यह|cat-pn|gen-any|num-sg|pers-3|case-d|vib-0|tam-0|chunkId-NP3|chunkType-head|stype-|voicetype-	10	k1	_	_
8	अचानक	अचानक	RB	adv	lex-अचानक|cat-adv|gen-|num-|pers-|case-|vib-|tam-|chunkId-RBP|chunkType-head|stype-|voicetype-	10	adv	_	_
9	हादसा	हादसा	NN	n	lex-हादसा|cat-n|gen-m|num-sg|pers-3|case-d|vib-0|tam-0|chunkId-NP4|chunkType-head|stype-|voicetype-	10	k1s	_	_
10	हुआ	हो	VM	v	lex-हो|cat-v|gen-m|num-sg|pers-3|case-|vib-या_है|tam-yA|chunkId-VGF2|chunkType-head|stype-declarative|voicetype-active	6	ccof	_	_
11	है	है	VAUX	v	lex-है|cat-v|gen-any|num-sg|pers-3|case-|vib-है|tam-hE|chunkId-VGF2|chunkType-child|stype-|voicetype-	10	lwg__vaux	_	_
12	।	।	SYM	punc	lex-।|cat-punc|gen-|num-|pers-|case-|vib-|tam-|chunkId-BLK|chunkType-head|stype-|voicetype-	5	rsym	_	_

1	उसके	वह	PRP	pn	lex-वह|cat-pn|gen-any|num-sg|pers-3|case-o|vib-0_लिए|tam-ke|chunkId-NP|chunkType-head|stype-|voicetype-	8	rt	_	_
2	लिए	लिए	PSP	psp	lex-लिए|cat-psp|gen-|num-|pers-|case-|vib-|tam-|chunkId-NP|chunkType-child|stype-|voicetype-	1	lwg__psp	_	_
3	वे	वह	PRP	pn	lex-वह|cat-pn|gen-any|num-pl|pers-3|case-d|vib-0|tam-0|chunkId-NP2|chunkType-head|stype-|voicetype-	8	k1	_	_
4	किसी	कोई	PRP	pn	lex-कोई|cat-pn|gen-any|num-sg|pers-3|case-o|vib-0_को|tam-0|chunkId-NP3|chunkType-head|stype-|voicetype-	8	k2	_	_
5	को	को	PSP	psp	lex-को|cat-psp|gen-|num-|pers-|case-|vib-|tam-|chunkId-NP3|chunkType-child|stype-|voicetype-	4	lwg__psp	_	_
6	दोषी	दोषी	JJ	adj	lex-दोषी|cat-adj|gen-any|num-any|pers-|case-|vib-|tam-|chunkId-JJP|chunkType-head|stype-|voicetype-	8	k2s	_	_
7	नहीं	नहीं	NEG	avy	lex-नहीं|cat-avy|gen-|num-|pers-|case-|vib-|tam-|chunkId-VGF|chunkType-child|stype-|voicetype-	8	lwg__neg	_	_
8	मानते	मान	VM	v	lex-मान|cat-v|gen-m|num-pl|pers-3|case-|vib-ता_है|tam-wA|chunkId-VGF|chunkType-head|stype-declarative|voicetype-active	10	ccof	_	_
9	हैं	है	VAUX	v	lex-है|cat-v|gen-any|num-pl|pers-3|case-|vib-है|tam-hE|chunkId-VGF|chunkType-child|stype-|voicetype-	8	lwg__vaux	_	_
10	तथा	तथा	CC	avy	lex-तथा|cat-avy|gen-|num-|pers-|case-|vib-|tam-|chunkId-CCP|chunkType-head|stype-|voicetype-	0	main	_	_
11	वे	वह	PRP	pn	lex-वह|cat-pn|gen-any|num-pl|pers-3|case-d|vib-0|tam-0|chunkId-NP4|chunkType-head|stype-|voicetype-	18	k1	_	_
12	किसी	कोई	PRP	pn	lex-कोई|cat-pn|gen-any|num-sg|pers-3|case-o|vib-0_के_खिलाफ|tam-0|chunkId-NP5|chunkType-head|stype-|voicetype-	18	vmod	_	_
13	के	के	PSP	psp	lex-के|cat-psp|gen-|num-|pers-|case-|vib-|tam-|chunkId-NP5|chunkType-child|stype-|voicetype-	12	lwg__psp	_	_
14	खिलाफ	खिलाफ	PSP	psp	lex-खिलाफ|cat-psp|gen-|num-|pers-|case-|vib-|tam-|chunkId-NP5|chunkType-child|stype-|voicetype-	12	lwg__psp	_	_
15	कार्रवाई	कार्रवाई	NN	n	lex-कार्रवाई|cat-n|gen-f|num-sg|pers-3|case-d|vib-0|tam-0|chunkId-NP6|chunkType-head|stype-|voicetype-	17	pof	_	_
16	नहीं	नहीं	NEG	avy	lex-नहीं|cat-avy|gen-|num-|pers-|case-|vib-|tam-|chunkId-VGNN|chunkType-child|stype-|voicetype-	17	lwg__neg	_	_
17	करना	कर	VM	v	lex-कर|cat-v|gen-any|num-any|pers-any|case-d|vib-ना|tam-nA|chunkId-VGNN|chunkType-head|stype-|voicetype-	18	k2	_	_
18	चाहते	चाह	VM	v	lex-चाह|cat-v|gen-m|num-pl|pers-3|case-|vib-ता_है|tam-wA|chunkId-VGF2|chunkType-head|stype-declarative|voicetype-active	10	ccof	_	_
19	हैं	है	VAUX	v	lex-है|cat-v|gen-any|num-pl|pers-3|case-|vib-है|tam-hE|chunkId-VGF2|chunkType-child|stype-|voicetype-	18	lwg__vaux	_	_
20	।	।	SYM	punc	lex-।|cat-punc|gen-|num-|pers-|case-|vib-|tam-|chunkId-BLK|chunkType-head|stype-|voicetype-	10	rsym	_	_

1	पुलिस	पुलिस	NN	n	lex-पुलिस|cat-n|gen-f|num-sg|pers-3|case-o|vib-0_ने|tam-0|chunkId-NP|chunkType-head|stype-|voicetype-	16	k1	_	_
2	ने	ने	PSP	psp	lex-ने|cat-psp|gen-|num-|pers-|case-|vib-|tam-|chunkId-NP|chunkType-child|stype-|voicetype-	1	lwg__psp	_	_
3	क्रेन	क्रेन	NN	n	lex-क्रेन|cat-n|gen-f|num-sg|pers-3|case-o|vib-0_का|tam-0|chunkId-NP2|chunkType-head|stype-|voicetype-	5	r6	_	_
4	की	का	PSP	psp	lex-का|cat-psp|gen-f|num-sg|pers-|case-o|vib-|tam-|chunkId-NP2|chunkType-child|stype-|voicetype-	3	lwg__psp	_	_
5	मदद	मदद	NN	n	lex-मदद|cat-n|gen-f|num-sg|pers-3|case-o|vib-0_से|tam-0|chunkId-NP3|chunkType-head|stype-|voicetype-	16	k3	_	_
6	से	से	PSP	psp	lex-से|cat-psp|gen-|num-|pers-|case-|vib-|tam-|chunkId-NP3|chunkType-child|stype-|voicetype-	5	lwg__psp	_	_
7	जीप	जीप	NN	n	lex-जीप|cat-n|gen-f|num-sg|pers-3|case-o|vib-0_को|tam-0|chunkId-NP4|chunkType-head|stype-|voicetype-	16	k2	_	_
8	को	को	PSP	psp	lex-को|cat-psp|gen-|num-|pers-|case-|vib-|tam-|chunkId-NP4|chunkType-child|stype-|voicetype-	7	lwg__psp	_	_
9	ट्रक	ट्रक	NN	n	lex-ट्रक|cat-n|gen-f|num-sg|pers-3|case-o|vib-0_के_नीचे_से|tam-0|chunkId-NP5|chunkType-head|stype-|voicetype-	13	k7p	_	_
10	के	के	PSP	psp	lex-के|cat-psp|gen-|num-|pers-|case-|vib-|tam-|chunkId-NP5|chunkType-child|stype-|voicetype-	9	lwg__psp	_	_
11	नीचे	नीचे	NST	nst	lex-नीचे|cat-nst|gen-m|num-sg|pers-3|case-o|vib-|tam-|chunkId-NP5|chunkType-child|stype-|voicetype-	9	lwg__psp	_	_
12	से	से	PSP	psp	lex-से|cat-psp|gen-|num-|pers-|case-|vib-|tam-|chunkId-NP5|chunkType-child|stype-|voicetype-	9	lwg__psp	_	_
13	निकलवाकर	निकल	VM	v	lex-निकल|cat-v|gen-any|num-any|pers-any|case-|vib-कर|tam-kara|chunkId-VGNF|chunkType-head|stype-|voicetype-	16	vmod	_	_
14	कब्जे	कब्जा	NN	n	lex-कब्जा|cat-n|gen-m|num-sg|pers-3|case-o|vib-0_में|tam-0|chunkId-NP6|chunkType-head|stype-|voicetype-	16	k7	_	_
15	में	में	PSP	psp	lex-में|cat-psp|gen-|num-|pers-|case-|vib-|tam-|chunkId-NP6|chunkType-child|stype-|voicetype-	14	lwg__psp	_	_
16	ले	ले	VM	v	lex-ले|cat-v|gen-m|num-sg|pers-3|case-|vib-0_ले+या_है|tam-0|chunkId-VGF|chunkType-head|stype-declarative|voicetype-active	0	main	_	_
17	लिया	ले	VAUX	v	lex-ले|cat-v|gen-m|num-sg|pers-any|case-|vib-या|tam-yA|chunkId-VGF|chunkType-child|stype-|voicetype-	16	lwg__vaux	_	_
18	है	है	VAUX	v	lex-है|cat-v|gen-any|num-sg|pers-3|case-|vib-है|tam-hE|chunkId-VGF|chunkType-child|stype-|voicetype-	16	lwg__vaux	_	_
19	।	।	SYM	punc	lex-।|cat-punc|gen-|num-|pers-|case-|vib-|tam-|chunkId-BLK|chunkType-head|stype-|voicetype-	16	rsym	_	_

1	इस	यह	DEM	pn	lex-यह|cat-pn|gen-any|num-sg|pers-3|case-o|vib-|tam-|chunkId-NP|chunkType-child|stype-|voicetype-	2	nmod__adj	_	_
2	घटना	घटना	NN	n	lex-घटना|cat-n|gen-f|num-sg|pers-3|case-o|vib-0_का|tam-0|chunkId-NP|chunkType-head|stype-|voicetype-	4	r6	_	_
3	की	का	PSP	psp	lex-का|cat-psp|gen-f|num-sg|pers-|case-d|vib-|tam-|chunkId-NP|chunkType-child|stype-|voicetype-	2	lwg__psp	_	_
4	खबर	खबर	NN	n	lex-खबर|cat-n|gen-f|num-sg|pers-3|case-d|vib-0|tam-0|chunkId-NP2|chunkType-head|stype-|voicetype-	5	k2	_	_
5	सुनकर	सुन	VM	v	lex-सुन|cat-v|gen-any|num-any|pers-any|case-|vib-कर|tam-kara|chunkId-VGNF|chunkType-head|stype-|voicetype-	14	vmod	_	_
6	सैकड़ों	सैकडा	NN	n	lex-सैकडा|cat-n|gen-m|num-pl|pers-3|case-o|vib-0_का|tam-0|chunkId-NP3|chunkType-head|stype-|voicetype-	8	r6	_	_
7	की	का	PSP	psp	lex-का|cat-psp|gen-f|num-sg|pers-|case-o|vib-|tam-|chunkId-NP3|chunkType-child|stype-|voicetype-	6	lwg__psp	_	_
8	संख्या	संख्या	NN	n	lex-संख्या|cat-n|gen-f|num-sg|pers-3|case-o|vib-0_में|tam-0|chunkId-NP4|chunkType-head|stype-|voicetype-	14	k7	_	_
9	में	में	PSP	psp	lex-में|cat-psp|gen-|num-|pers-|case-|vib-|tam-|chunkId-NP4|chunkType-child|stype-|voicetype-	8	lwg__psp	_	_
10	ग्रामीण	ग्रामीण	NN	n	lex-ग्रामीण|cat-n|gen-m|num-pl|pers-3|case-d|vib-0|tam-0|chunkId-NP5|chunkType-head|stype-|voicetype-	14	k1	_	_
11	सामान्य	सामान्य	JJ	adj	lex-सामान्य|cat-adj|gen-any|num-any|pers-|case-o|vib-|tam-|chunkId-NP6|chunkType-child|stype-|voicetype-	12	nmod__adj	_	_
12	अस्पताल	अस्पताल	NN	n	lex-अस्पताल|cat-n|gen-m|num-sg|pers-3|case-o|vib-0_में|tam-0|chunkId-NP6|chunkType-head|stype-|voicetype-	14	k7p	_	_
13	में	में	PSP	psp	lex-में|cat-psp|gen-|num-|pers-|case-|vib-|tam-|chunkId-NP6|chunkType-child|stype-|voicetype-	12	lwg__psp	_	_
14	जमा	जमा	VM	v	lex-जमा|cat-v|gen-any|num-pl|pers-any|case-|vib-0_हो_जा+या१|tam-0|chunkId-VGF|chunkType-head|stype-declarative|voicetype-active	0	main	_	_
15	हो	हो	VAUX	v	lex-हो|cat-v|gen-any|num-any|pers-any|case-|vib-0|tam-0|chunkId-VGF|chunkType-child|stype-|voicetype-	14	lwg__vaux	_	_
16	गए	जा	VAUX	v	lex-जा|cat-v|gen-m|num-pl|pers-any|case-|vib-या१|tam-yA1|chunkId-VGF|chunkType-child|stype-|voicetype-	14	lwg__vaux	_	_
17	।	।	SYM	punc	lex-।|cat-punc|gen-|num-|pers-|case-|vib-|tam-|chunkId-BLK|chunkType-head|stype-|voicetype-	14	rsym	_	_

1	जैसे	जैसे	RB	adv	lex-जैसे|cat-adv|gen-|num-|pers-|case-|vib-|tam-|chunkId-RBP|chunkType-head|stype-|voicetype-	8	sent-adv	_	_
2	ही	ही	RP	avy	lex-ही|cat-avy|gen-|num-|pers-|case-|vib-|tam-|chunkId-RBP|chunkType-child|stype-|voicetype-	1	lwg__rp	_	_
3	यह	यह	DEM	pn	lex-यह|cat-pn|gen-any|num-sg|pers-3|case-d|vib-|tam-|chunkId-NP|chunkType-child|stype-|voicetype-	4	nmod__adj	_	_
4	खबर	खबर	NN	n	lex-खबर|cat-n|gen-f|num-sg|pers-3|case-d|vib-0|tam-0|chunkId-NP|chunkType-head|stype-|voicetype-	8	k1	_	_
5	गांव	गाँव	NN	n	lex-गाँव|cat-n|gen-m|num-sg|pers-3|case-d|vib-0|tam-0|chunkId-NP2|chunkType-child|stype-|voicetype-	6	nmod	_	_
6	खांडाखेड़ी	खांडाखेड़ी	NNP	n	lex-खांडाखेड़ी|cat-n|gen-m|num-sg|pers-3|case-o|vib-0_में|tam-0|chunkId-NP2|chunkType-head|stype-|voicetype-	8	k7p	_	_
7	में	में	PSP	psp	lex-में|cat-psp|gen-|num-|pers-|case-|vib-|tam-|chunkId-NP2|chunkType-child|stype-|voicetype-	6	lwg__psp	_	_
8	पहुंची	पहुंच	VM	v	lex-पहुंच|cat-v|gen-f|num-sg|pers-3|case-|vib-या|tam-yA|chunkId-VGF|chunkType-head|stype-declarative|voicetype-active	14	vmod	_	_
9	तो	तो	RB	adv	lex-तो|cat-adv|gen-|num-|pers-|case-|vib-|tam-|chunkId-RBP2|chunkType-head|stype-|voicetype-	14	k7t	_	_
10	सारे	सारा	QF	adj	lex-सारा|cat-adj|gen-m|num-sg|pers-|case-o|vib-|tam-|chunkId-NP3|chunkType-child|stype-|voicetype-	11	nmod__adj	_	_
11	गांव	गाँव	NN	n	lex-गाँव|cat-n|gen-m|num-sg|pers-3|case-o|vib-0_में|tam-0|chunkId-NP3|chunkType-head|stype-|voicetype-	14	k7p	_	_
12	में	में	PSP	psp	lex-में|cat-psp|gen-|num-|pers-|case-|vib-|tam-|chunkId-NP3|chunkType-child|stype-|voicetype-	11	lwg__psp	_	_
13	मातम	मातम	NN	n	lex-मातम|cat-n|gen-m|num-sg|pers-3|case-d|vib-0|tam-0|chunkId-NP4|chunkType-head|stype-|voicetype-	14	pof	_	_
14	छा	छा	VM	v	lex-छा|cat-v|gen-any|num-sg|pers-any|case-|vib-0_जा+या१|tam-0|chunkId-VGF2|chunkType-head|stype-declarative|voicetype-passive	0	main	_	_
15	गया	जा	VAUX	v	lex-जा|cat-v|gen-m|num-sg|pers-any|case-|vib-या१|tam-yA1|chunkId-VGF2|chunkType-child|stype-|voicetype-	14	lwg__vaux	_	_
16	।	।	SYM	punc	lex-।|cat-punc|gen-|num-|pers-|case-|vib-|tam-|chunkId-BLK|chunkType-head|stype-|voicetype-	14	rsym	_	_

1	जीप	जीप	NN	n	lex-जीप|cat-n|gen-f|num-sg|pers-3|case-d|vib-0|tam-0|chunkId-NP|chunkType-head|stype-|voicetype-	6	k2	_	_
2	गांव	गाँव	NN	n	lex-गाँव|cat-n|gen-m|num-sg|pers-3|case-d|vib-0|tam-0|chunkId-NP2|chunkType-child|stype-|voicetype-	3	nmod	_	_
3	खाड़ाखेड़ी	खाड़ाखेड़ी	NNP	n	lex-खाड़ाखेड़ी|cat-n|gen-m|num-sg|pers-3|case-d|vib-0|tam-0|chunkId-NP2|chunkType-head|stype-|voicetype-	4	jjmod	_	_
4	निवासी	निवासी	JJ	adj	lex-निवासी|cat-adj|gen-any|num-any|pers-|case-|vib-|tam-|chunkId-JJP|chunkType-head|stype-|voicetype-	5	nmod	_	_
5	तोताराम	तोताराम	NNP	n	lex-तोताराम|cat-n|gen-m|num-sg|pers-3|case-d|vib-0|tam-0|chunkId-NP3|chunkType-head|stype-|voicetype-	6	k1	_	_
6	चला	चला	VM	v	lex-चला|cat-v|gen-m|num-sg|pers-any|case-|vib-0_रह+या_था|tam-0|chunkId-VGF|chunkType-head|stype-declarative|voicetype-active	0	main	_	_
7	रहा	रह	VAUX	v	lex-रह|cat-v|gen-m|num-sg|pers-any|case-|vib-या|tam-yA|chunkId-VGF|chunkType-child|stype-|voicetype-	6	lwg__vaux	_	_
8	था	था	VAUX	v	lex-था|cat-v|gen-m|num-sg|pers-any|case-|vib-था|tam-WA|chunkId-VGF|chunkType-child|stype-|voicetype-	6	lwg__vaux	_	_
9	।	।	SYM	punc	lex-।|cat-punc|gen-|num-|pers-|case-|vib-|tam-|chunkId-BLK|chunkType-head|stype-|voicetype-	6	rsym	_	_

