1	पाकिस्तान	पाकिस्तान	NNP	n	lex-पाकिस्तान|cat-n|gen-m|num-sg|pers-3|case-o|vib-0_का|tam-0|chunkId-NP|chunkType-head|stype-|voicetype-	3	r6	_	_
2	के	का	PSP	psp	lex-का|cat-psp|gen-m|num-sg|pers-|case-o|vib-|tam-|chunkId-NP|chunkType-child|stype-|voicetype-	1	lwg__psp	_	_
3	राष्ट्रपति	राष्ट्रपति	NNP	n	lex-राष्ट्रपति|cat-n|gen-m|num-sg|pers-3|case-o|vib-0|tam-0|chunkId-NP2|chunkType-head|stype-|voicetype-	5	nmod	_	_
4	परवेज	परवेज	NNPC	n	lex-परवेज|cat-n|gen-m|num-sg|pers-3|case-d|vib-0|tam-0|chunkId-NP3|chunkType-child|stype-|voicetype-	5	pof__cn	_	_
5	मुशर्रफ	मुशर्रफ	NNP	n	lex-मुशर्रफ|cat-n|gen-m|num-sg|pers-3|case-o|vib-0_ने|tam-0|chunkId-NP3|chunkType-head|stype-|voicetype-	10	k1	_	_
6	ने	ने	PSP	psp	lex-ने|cat-psp|gen-|num-|pers-|case-|vib-|tam-|chunkId-NP3|chunkType-child|stype-|voicetype-	5	lwg__psp	_	_
7	उम्मीद	उम्मीद	NN	n	lex-उम्मीद|cat-n|gen-f|num-sg|pers-3|case-d|vib-0|tam-0|chunkId-NP4|chunkType-head|stype-|voicetype-	8	pof	_	_
8	जताते	जता	VM	v	lex-जता|cat-v|gen-m|num-sg|pers-3|case-|vib-ता_हो+या|tam-wA|chunkId-VGNF|chunkType-head|stype-|voicetype-	10	vmod	_	_
9	हुए	हो	VAUX	v	lex-हो|cat-v|gen-m|num-sg|pers-3|case-|vib-या|tam-yA|chunkId-VGNF|chunkType-child|stype-|voicetype-	8	lwg__vaux	_	_
10	कहा	कह	VM	v	lex-कह|cat-v|gen-m|num-sg|pers-3|case-|vib-या_है|tam-yA|chunkId-VGF|chunkType-head|stype-declarative|voicetype-active	0	main	_	_
11	है	है	VAUX	v	lex-है|cat-v|gen-any|num-sg|pers-3|case-|vib-है|tam-hE|chunkId-VGF|chunkType-child|stype-|voicetype-	10	lwg__vaux	_	_
12	कि	कि	CC	avy	lex-कि|cat-avy|gen-|num-|pers-|case-|vib-|tam-|chunkId-CCP|chunkType-head|stype-|voicetype-	10	k2	_	_
13	कश्मीर	कश्मीर	NNP	n	lex-कश्मीर|cat-n|gen-m|num-sg|pers-3|case-d|vib-0|tam-0|chunkId-NP5|chunkType-child|stype-|voicetype-	14	nmod__adj	_	_
14	समस्या	समस्या	NN	n	lex-समस्या|cat-n|gen-f|num-sg|pers-3|case-o|vib-0_का|tam-0|chunkId-NP5|chunkType-head|stype-|voicetype-	16	r6-k2	_	_
15	का	का	PSP	psp	lex-का|cat-psp|gen-m|num-sg|pers-|case-d|vib-|tam-|chunkId-NP5|chunkType-child|stype-|voicetype-	14	lwg__psp	_	_
16	समाधान	समाधान	NN	n	lex-समाधान|cat-n|gen-m|num-sg|pers-3|case-d|vib-0|tam-0|chunkId-NP6|chunkType-head|stype-|voicetype-	21	pof	_	_
17	तीन	तीन	QC	num	lex-तीन|cat-num|gen-any|num-any|pers-|case-any|vib-|tam-|chunkId-NP7|chunkType-child|stype-|voicetype-	18	nmod__adj	_	_
18	साल	साल	NN	n	lex-साल|cat-n|gen-m|num-sg|pers-3|case-o|vib-0_के_अंदर|tam-0|chunkId-NP7|chunkType-head|stype-|voicetype-	21	k7t	_	_
19	के	के	PSP	psp	lex-के|cat-psp|gen-|num-|pers-|case-|vib-|tam-|chunkId-NP7|chunkType-child|stype-|voicetype-	18	lwg__psp	_	_
20	अंदर	अंदर	NST	nst	lex-अंदर|cat-nst|gen-m|num-sg|pers-3|case-d|vib-|tam-|chunkId-NP7|chunkType-child|stype-|voicetype-	18	lwg__psp	_	_
21	निकाल	निकाल	VM	v	lex-निकाल|cat-v|gen-m|num-sg|pers-3|case-|vib-0_ले+या_जा+गा|tam-0|chunkId-VGF2|chunkType-head|stype-declarative|voicetype-active	12	ccof	_	_
22	लिया	ले	VAUX	v	lex-ले|cat-v|gen-m|num-sg|pers-any|case-|vib-या|tam-yA|chunkId-VGF2|chunkType-child|stype-|voicetype-	21	lwg__vaux	_	_
23	जाएगा	जा	VAUX	v	lex-जा|cat-v|gen-m|num-sg|pers-3|case-|vib-गा|tam-gA|chunkId-VGF2|chunkType-child|stype-|voicetype-	21	lwg__vaux	_	_
24	।	।	SYM	punc	lex-।|cat-punc|gen-|num-|pers-|case-|vib-|tam-|chunkId-BLK|chunkType-head|stype-|voicetype-	10	rsym	_	_

1	लेकिन	लेकिन	CC	avy	lex-लेकिन|cat-avy|gen-|num-|pers-|case-|vib-|tam-|chunkId-CCP|chunkType-head|stype-|voicetype-	0	main	_	_
2	उन्होंने	वह	PRP	pn	lex-वह|cat-pn|gen-any|num-sg|pers-3h|case-o|vib-ने|tam-ne|chunkId-NP|chunkType-head|stype-|voicetype-	6	k1	_	_
3	स्पष्ट	स्पष्ट	JJ	adj	lex-स्पष्ट|cat-adj|gen-any|num-any|pers-|case-|vib-|tam-|chunkId-JJP|chunkType-head|stype-|voicetype-	4	pof	_	_
4	करते	कर	VM	v	lex-कर|cat-v|gen-m|num-sg|pers-3|case-|vib-ता_हो+या|tam-wA|chunkId-VGNF|chunkType-head|stype-|voicetype-	6	vmod	_	_
5	हुए	हो	VAUX	v	lex-हो|cat-v|gen-m|num-sg|pers-3|case-|vib-या|tam-yA|chunkId-VGNF|chunkType-child|stype-|voicetype-	4	lwg__vaux	_	_
6	कहा	कह	VM	v	lex-कह|cat-v|gen-m|num-sg|pers-any|case-|vib-या|tam-yA|chunkId-VGF|chunkType-head|stype-declarative|voicetype-active	1	ccof	_	_
7	कि	कि	CC	avy	lex-कि|cat-avy|gen-|num-|pers-|case-|vib-|tam-|chunkId-CCP2|chunkType-head|stype-|voicetype-	6	k2	_	_
8	इसके	यह	PRP	pn	lex-यह|cat-pn|gen-m|num-sg|pers-3|case-o|vib-0_लिए|tam-ke|chunkId-NP2|chunkType-head|stype-|voicetype-	20	rt	_	_
9	लिए	लिए	PSP	psp	lex-लिए|cat-psp|gen-|num-|pers-|case-|vib-|tam-|chunkId-NP2|chunkType-child|stype-|voicetype-	8	lwg__psp	_	_
10	उन्होंने	वह	PRP	pn	lex-वह|cat-pn|gen-any|num-sg|pers-3h|case-o|vib-ने|tam-ne|chunkId-NP3|chunkType-head|stype-|voicetype-	20	k1	_	_
11	भारत	भारत	NNP	n	lex-भारत|cat-n|gen-m|num-sg|pers-3|case-o|vib-0_से|tam-0|chunkId-NP4|chunkType-head|stype-|voicetype-	20	k4	_	_
12	से	से	PSP	psp	lex-से|cat-psp|gen-|num-|pers-|case-|vib-|tam-|chunkId-NP4|chunkType-child|stype-|voicetype-	11	lwg__psp	_	_
13	कोई	कोई	PRP	pn	lex-कोई|cat-pn|gen-any|num-sg|pers-3|case-d|vib-0|tam-0|chunkId-NP5|chunkType-child|stype-|voicetype-	16	nmod__adj	_	_
14	तय	तय	JJ	adj	lex-तय|cat-adj|gen-any|num-any|pers-|case-d|vib-|tam-|chunkId-NP5|chunkType-child|stype-|voicetype-	16	nmod__adj	_	_
15	समय	समय	NNC	n	lex-समय|cat-n|gen-m|num-sg|pers-3|case-d|vib-0|tam-0|chunkId-NP5|chunkType-child|stype-|voicetype-	16	pof__cn	_	_
16	सीमा	सीमा	NN	n	lex-सीमा|cat-n|gen-f|num-sg|pers-3|case-d|vib-0|tam-0|chunkId-NP5|chunkType-head|stype-|voicetype-	17	k2	_	_
17	रखने	रख	VM	v	lex-रख|cat-v|gen-any|num-any|pers-any|case-o|vib-ना_को|tam-nA|chunkId-VGNN|chunkType-head|stype-|voicetype-	20	rt	_	_
18	को	को	PSP	psp	lex-को|cat-psp|gen-|num-|pers-|case-|vib-|tam-|chunkId-VGNN|chunkType-child|stype-|voicetype-	17	lwg__psp	_	_
19	नहीं	नहीं	NEG	avy	lex-नहीं|cat-avy|gen-|num-|pers-|case-|vib-|tam-|chunkId-VGF2|chunkType-child|stype-|voicetype-	20	lwg__neg	_	_
20	कहा	कह	VM	v	lex-कह|cat-v|gen-m|num-sg|pers-3|case-|vib-या_है|tam-yA|chunkId-VGF2|chunkType-head|stype-declarative|voicetype-active	23	ccof	_	_
21	है	है	VAUX	v	lex-है|cat-v|gen-any|num-sg|pers-3|case-|vib-है|tam-hE|chunkId-VGF2|chunkType-child|stype-|voicetype-	20	lwg__vaux	_	_
22	,	COMMA	SYM	punc	lex-COMMA|cat-punc|gen-|num-|pers-|case-|vib-|tam-|chunkId-VGF2|chunkType-child|stype-|voicetype-	20	rsym	_	_
23	NULL	_	CC	_	lex-_|cat-_|gen-|num-|pers-|case-|vib-|tam-|chunkId-NULL__CCP|chunkType-head|stype-|voicetype-	7	ccof	_	_
24	सिर्फ	सिर्फ	RP	avy	lex-सिर्फ|cat-avy|gen-|num-|pers-|case-|vib-|tam-|chunkId-NP6|chunkType-child|stype-|voicetype-	26	lwg__rp	_	_
25	इस	यह	DEM	pn	lex-यह|cat-pn|gen-any|num-sg|pers-3|case-o|vib-|tam-|chunkId-NP6|chunkType-child|stype-|voicetype-	26	nmod__adj	_	_
26	प्रक्रिया	प्रक्रिया	NN	n	lex-प्रक्रिया|cat-n|gen-f|num-sg|pers-3|case-o|vib-0_में|tam-0|chunkId-NP6|chunkType-head|stype-|voicetype-	29	k7	_	_
27	में	में	PSP	psp	lex-में|cat-psp|gen-|num-|pers-|case-|vib-|tam-|chunkId-NP6|chunkType-child|stype-|voicetype-	26	lwg__psp	_	_
28	तेजी	तेजी	NN	n	lex-तेजी|cat-n|gen-f|num-sg|pers-3|case-d|vib-0|tam-0|chunkId-NP7|chunkType-head|stype-|voicetype-	29	adv	_	_
29	लाने	ला	VM	v	lex-ला|cat-v|gen-any|num-any|pers-any|case-o|vib-ना_को|tam-nA|chunkId-VGNN2|chunkType-head|stype-|voicetype-	31	k2	_	_
30	को	को	PSP	psp	lex-को|cat-psp|gen-|num-|pers-|case-|vib-|tam-|chunkId-VGNN2|chunkType-child|stype-|voicetype-	29	lwg__psp	_	_
31	कहा	कह	VM	v	lex-कह|cat-v|gen-m|num-sg|pers-3|case-|vib-या_है|tam-yA|chunkId-VGF3|chunkType-head|stype-declarative|voicetype-active	23	ccof	_	_
32	है	है	VAUX	v	lex-है|cat-v|gen-any|num-sg|pers-3|case-|vib-है|tam-hE|chunkId-VGF3|chunkType-child|stype-|voicetype-	31	lwg__vaux	_	_
33	।	।	SYM	punc	lex-।|cat-punc|gen-|num-|pers-|case-|vib-|tam-|chunkId-BLK|chunkType-head|stype-|voicetype-	1	rsym	_	_

1	कारगिल	कारगिल	NNP	n	lex-कारगिल|cat-n|gen-m|num-sg|pers-3|case-d|vib-0|tam-0|chunkId-NP|chunkType-child|stype-|voicetype-	2	nmod__adj	_	_
2	युद्ध	युद्ध	NN	n	lex-युद्ध|cat-n|gen-m|num-sg|pers-3|case-o|vib-0_के_बारे_में|tam-0|chunkId-NP|chunkType-head|stype-|voicetype-	17	k7	_	_
3	के	के	PSP	psp	lex-के|cat-psp|gen-|num-|pers-|case-|vib-|tam-|chunkId-NP|chunkType-child|stype-|voicetype-	2	lwg__psp	_	_
4	बारे	बारे	PSP	psp	lex-बारे|cat-psp|gen-|num-|pers-|case-|vib-|tam-|chunkId-NP|chunkType-child|stype-|voicetype-	2	lwg__psp	_	_
5	में	में	PSP	psp	lex-में|cat-psp|gen-|num-|pers-|case-|vib-|tam-|chunkId-NP|chunkType-child|stype-|voicetype-	2	lwg__psp	_	_
6	उन्होंने	वह	PRP	pn	lex-वह|cat-pn|gen-any|num-sg|pers-3h|case-o|vib-ने|tam-ne|chunkId-NP2|chunkType-head|stype-|voicetype-	17	k1	_	_
7	पूर्व	पूर्व	JJ	adj	lex-पूर्व|cat-adj|gen-any|num-any|pers-|case-o|vib-|tam-|chunkId-NP3|chunkType-child|stype-|voicetype-	9	nmod__adj	_	_
8	प्रधानमंत्री	प्रधानमंत्री	NNP	n	lex-प्रधानमंत्री|cat-n|gen-m|num-sg|pers-3|case-d|vib-0|tam-0|chunkId-NP3|chunkType-child|stype-|voicetype-	10	nmod__adj	_	_
9	नवाज	नवाज	NNPC	n	lex-नवाज|cat-n|gen-m|num-sg|pers-3|case-d|vib-0|tam-0|chunkId-NP3|chunkType-child|stype-|voicetype-	10	pof__cn	_	_
10	शरीफ	शरीफ	NNP	n	lex-शरीफ|cat-n|gen-m|num-sg|pers-3|case-o|vib-0_का|tam-0|chunkId-NP3|chunkType-head|stype-|voicetype-	12	r6	_	_
11	के	का	PSP	psp	lex-का|cat-psp|gen-m|num-sg|pers-|case-o|vib-|tam-|chunkId-NP3|chunkType-child|stype-|voicetype-	10	lwg__psp	_	_
12	दावे	दावा	NN	n	lex-दावा|cat-n|gen-m|num-sg|pers-3|case-o|vib-0_को|tam-0|chunkId-NP4|chunkType-head|stype-|voicetype-	15	k2	_	_
13	को	को	PSP	psp	lex-को|cat-psp|gen-|num-|pers-|case-|vib-|tam-|chunkId-NP4|chunkType-child|stype-|voicetype-	12	lwg__psp	_	_
14	गलत	गलत	JJ	adj	lex-गलत|cat-adj|gen-any|num-any|pers-|case-|vib-|tam-|chunkId-JJP|chunkType-head|stype-|voicetype-	15	k2s	_	_
15	बताते	बता	VM	v	lex-बता|cat-v|gen-m|num-sg|pers-3|case-|vib-ता_हो+या|tam-wA|chunkId-VGNF|chunkType-head|stype-|voicetype-	17	vmod	_	_
16	हुए	हो	VAUX	v	lex-हो|cat-v|gen-m|num-sg|pers-3|case-|vib-या|tam-yA|chunkId-VGNF|chunkType-child|stype-|voicetype-	15	lwg__vaux	_	_
17	कहा	कह	VM	v	lex-कह|cat-v|gen-m|num-sg|pers-3|case-|vib-या|tam-yA|chunkId-VGF|chunkType-head|stype-declarative|voicetype-active	0	main	_	_
18	कि	कि	CC	avy	lex-कि|cat-avy|gen-|num-|pers-|case-|vib-|tam-|chunkId-CCP|chunkType-head|stype-|voicetype-	17	k2	_	_
19	इस	यह	DEM	pn	lex-यह|cat-pn|gen-any|num-sg|pers-3|case-o|vib-|tam-|chunkId-NP5|chunkType-child|stype-|voicetype-	20	nmod__adj	_	_
20	युद्ध	युद्ध	NN	n	lex-युद्ध|cat-n|gen-m|num-sg|pers-3|case-o|vib-0_में|tam-0|chunkId-NP5|chunkType-head|stype-|voicetype-	29	k7	_	_
21	में	में	PSP	psp	lex-में|cat-psp|gen-|num-|pers-|case-|vib-|tam-|chunkId-NP5|chunkType-child|stype-|voicetype-	20	lwg__psp	_	_
22	पाकिस्तान	पाकिस्तान	NNP	n	lex-पाकिस्तान|cat-n|gen-m|num-sg|pers-3|case-o|vib-0_का_अपेक्षा|tam-0|chunkId-NP6|chunkType-head|stype-|voicetype-	29	k4u	_	_
23	की	का	PSP	psp	lex-का|cat-psp|gen-f|num-|pers-|case-o|vib-|tam-|chunkId-NP6|chunkType-child|stype-|voicetype-	22	lwg__psp	_	_
24	अपेक्षा	अपेक्षा	PSP	n	lex-अपेक्षा|cat-n|gen-f|num-|pers-|case-o|vib-|tam-|chunkId-NP6|chunkType-child|stype-|voicetype-	22	lwg__psp	_	_
25	भारत	भारत	NNP	n	lex-भारत|cat-n|gen-m|num-sg|pers-3|case-o|vib-0_को|tam-0|chunkId-NP7|chunkType-head|stype-|voicetype-	29	k4	_	_
26	को	को	PSP	psp	lex-को|cat-psp|gen-|num-|pers-|case-|vib-|tam-|chunkId-NP7|chunkType-child|stype-|voicetype-	25	lwg__psp	_	_
27	ज्यादा	ज्यादा	QF	avy	lex-ज्यादा|cat-avy|gen-|num-|pers-|case-|vib-|tam-|chunkId-NP8|chunkType-child|stype-|voicetype-	28	nmod__adj	_	_
28	नुकसान	नुकसान	NN	n	lex-नुकसान|cat-n|gen-m|num-sg|pers-3|case-d|vib-0|tam-0|chunkId-NP8|chunkType-head|stype-|voicetype-	29	k2	_	_
29	उठाना	उठा	VM	v	lex-उठा|cat-v|gen-m|num-sg|pers-any|case-|vib-ना_पड+या_था|tam-nA|chunkId-VGF2|chunkType-head|stype-declarative|voicetype-active	18	ccof	_	_
30	पड़ा	पड	VAUX	v	lex-पड|cat-v|gen-m|num-sg|pers-any|case-|vib-या|tam-yA|chunkId-VGF2|chunkType-child|stype-|voicetype-	29	lwg__vaux	_	_
31	था	था	VAUX	v	lex-था|cat-v|gen-m|num-sg|pers-any|case-|vib-था|tam-WA|chunkId-VGF2|chunkType-child|stype-|voicetype-	29	lwg__vaux	_	_
32	।	।	SYM	punc	lex-।|cat-punc|gen-|num-|pers-|case-|vib-|tam-|chunkId-BLK|chunkType-head|stype-|voicetype-	17	rsym	_	_

1	शरीफ	शरीफ	NNP	n	lex-शरीफ|cat-n|gen-m|num-sg|pers-3|case-o|vib-0_ने|tam-0|chunkId-NP|chunkType-head|stype-|voicetype-	3	k1	_	_
2	ने	ने	PSP	psp	lex-ने|cat-psp|gen-|num-|pers-|case-|vib-|tam-|chunkId-NP|chunkType-child|stype-|voicetype-	1	lwg__psp	_	_
3	कहा	कह	VM	v	lex-कह|cat-v|gen-m|num-sg|pers-any|case-|vib-या_था|tam-yA|chunkId-VGF|chunkType-head|stype-declarative|voicetype-active	0	main	_	_
4	था	था	VAUX	v	lex-था|cat-v|gen-m|num-sg|pers-any|case-|vib-था|tam-WA|chunkId-VGF|chunkType-child|stype-|voicetype-	3	lwg__vaux	_	_
5	कि	कि	CC	avy	lex-कि|cat-avy|gen-|num-|pers-|case-|vib-|tam-|chunkId-CCP|chunkType-head|stype-|voicetype-	3	k2	_	_
6	कारगिल	कारगिल	NNP	n	lex-कारगिल|cat-n|gen-m|num-sg|pers-3|case-d|vib-0|tam-0|chunkId-NP2|chunkType-child|stype-|voicetype-	7	nmod__adj	_	_
7	युद्ध	युद्ध	NN	n	lex-युद्ध|cat-n|gen-m|num-sg|pers-3|case-o|vib-0_में|tam-0|chunkId-NP2|chunkType-head|stype-|voicetype-	22	k7	_	_
8	में	में	PSP	psp	lex-में|cat-psp|gen-|num-|pers-|case-|vib-|tam-|chunkId-NP2|chunkType-child|stype-|voicetype-	7	lwg__psp	_	_
9	भारत	भारत	NNP	n	lex-भारत|cat-n|gen-m|num-sg|pers-3|case-o|vib-0_के_साथ|tam-0|chunkId-NP3|chunkType-head|stype-|voicetype-	12	ras-k2	_	_
10	के	के	PSP	psp	lex-के|cat-psp|gen-|num-|pers-|case-|vib-|tam-|chunkId-NP3|chunkType-child|stype-|voicetype-	9	lwg__psp	_	_
11	साथ	साथ	NST	nst	lex-साथ|cat-nst|gen-m|num-sg|pers-3|case-d|vib-|tam-|chunkId-NP3|chunkType-child|stype-|voicetype-	9	lwg__psp	_	_
12	लड़े	लड	VM	v	lex-लड|cat-v|gen-m|num-pl|pers-any|case-|vib-या_जा+या१|tam-yA|chunkId-VGNF|chunkType-head|stype-|voicetype-	16	nmod__k2inv	_	_
13	गए	जा	VAUX	v	lex-जा|cat-v|gen-m|num-pl|pers-any|case-|vib-या१|tam-yA1|chunkId-VGNF|chunkType-child|stype-|voicetype-	12	lwg__vaux	_	_
14	दो	दो	QC	num	lex-दो|cat-num|gen-any|num-any|pers-|case-any|vib-|tam-|chunkId-NP4|chunkType-child|stype-|voicetype-	16	nmod__adj	_	_
15	पूर्व	पूर्व	JJ	adj	lex-पूर्व|cat-adj|gen-any|num-any|pers-|case-o|vib-|tam-|chunkId-NP4|chunkType-child|stype-|voicetype-	16	nmod__adj	_	_
16	युद्धों	युद्ध	NN	n	lex-युद्ध|cat-n|gen-m|num-pl|pers-3|case-o|vib-0_से|tam-0|chunkId-NP4|chunkType-head|stype-|voicetype-	19	jjmod	_	_
17	से	से	PSP	psp	lex-से|cat-psp|gen-|num-|pers-|case-|vib-|tam-|chunkId-NP4|chunkType-child|stype-|voicetype-	16	lwg__psp	_	_
18	भी	भी	RP	avy	lex-भी|cat-avy|gen-|num-|pers-|case-|vib-|tam-|chunkId-NP4|chunkType-child|stype-|voicetype-	16	lwg__rp	_	_
19	ज्यादा	ज्यादा	QF	avy	lex-ज्यादा|cat-avy|gen-|num-|pers-|case-|vib-|tam-|chunkId-JJP|chunkType-head|stype-|voicetype-	21	nmod	_	_
20	पाकिस्तानी	पाकिस्तानी	JJ	adj	lex-पाकिस्तानी|cat-adj|gen-any|num-any|pers-|case-d|vib-|tam-|chunkId-NP5|chunkType-child|stype-|voicetype-	21	nmod__adj	_	_
21	सैनिक	सैनिक	NN	n	lex-सैनिक|cat-n|gen-m|num-pl|pers-3|case-d|vib-0|tam-0|chunkId-NP5|chunkType-head|stype-|voicetype-	22	k2	_	_
22	मारे	मार	VM	v	lex-मार|cat-v|gen-m|num-pl|pers-any|case-|vib-या_जा+या१_था|tam-yA|chunkId-VGF2|chunkType-head|stype-declarative|voicetype-passive	5	ccof	_	_
23	गए	जा	VAUX	v	lex-जा|cat-v|gen-m|num-pl|pers-any|case-|vib-या१|tam-yA1|chunkId-VGF2|chunkType-child|stype-|voicetype-	22	lwg__vaux	_	_
24	थे	था	VAUX	v	lex-था|cat-v|gen-m|num-pl|pers-any|case-|vib-था|tam-WA|chunkId-VGF2|chunkType-child|stype-|voicetype-	22	lwg__vaux	_	_
25	।	।	SYM	punc	lex-।|cat-punc|gen-|num-|pers-|case-|vib-|tam-|chunkId-BLK|chunkType-head|stype-|voicetype-	3	rsym	_	_

1	भारत	भारत	NNP	n	lex-भारत|cat-n|gen-m|num-sg|pers-3|case-o|vib-0_का|tam-0|chunkId-NP|chunkType-head|stype-|voicetype-	4	r6	_	_
2	के	का	PSP	psp	lex-का|cat-psp|gen-m|num-sg|pers-|case-o|vib-|tam-|chunkId-NP|chunkType-child|stype-|voicetype-	1	lwg__psp	_	_
3	विदेश	विदेश	NNPC	n	lex-विदेश|cat-n|gen-m|num-sg|pers-3|case-d|vib-0|tam-0|chunkId-NP2|chunkType-child|stype-|voicetype-	4	pof__cn	_	_
4	मंत्री	मंत्री	NNP	n	lex-मंत्री|cat-n|gen-m|num-sg|pers-3|case-o|vib-0|tam-0|chunkId-NP2|chunkType-head|stype-|voicetype-	6	nmod	_	_
5	नटवर	नटवर	NNPC	n	lex-नटवर|cat-n|gen-m|num-sg|pers-3|case-d|vib-0|tam-0|chunkId-NP3|chunkType-child|stype-|voicetype-	6	pof__cn	_	_
6	सिंह	सिंह	NNP	n	lex-सिंह|cat-n|gen-m|num-sg|pers-3|case-o|vib-0_ने|tam-0|chunkId-NP3|chunkType-head|stype-|voicetype-	12	k1	_	_
7	ने	ने	PSP	psp	lex-ने|cat-psp|gen-|num-|pers-|case-|vib-|tam-|chunkId-NP3|chunkType-child|stype-|voicetype-	6	lwg__psp	_	_
8	पिछले	पिछला	JJ	adj	lex-पिछला|cat-adj|gen-m|num-pl|pers-|case-o|vib-|tam-|chunkId-NP4|chunkType-child|stype-|voicetype-	9	nmod__adj	_	_
9	दिनों	दिन	NN	n	lex-दिन|cat-n|gen-m|num-pl|pers-3|case-o|vib-0|tam-0|chunkId-NP4|chunkType-head|stype-|voicetype-	12	k7t	_	_
10	बयान	बयान	NN	n	lex-बयान|cat-n|gen-m|num-sg|pers-3|case-o|vib-0_में|tam-0|chunkId-NP5|chunkType-head|stype-|voicetype-	12	k7	_	_
11	में	में	PSP	psp	lex-में|cat-psp|gen-|num-|pers-|case-|vib-|tam-|chunkId-NP5|chunkType-child|stype-|voicetype-	10	lwg__psp	_	_
12	कहा	कह	VM	v	lex-कह|cat-v|gen-m|num-sg|pers-any|case-|vib-या_था|tam-yA|chunkId-VGF|chunkType-head|stype-declarative|voicetype-active	0	main	_	_
13	था	था	VAUX	v	lex-था|cat-v|gen-m|num-sg|pers-any|case-|vib-था|tam-WA|chunkId-VGF|chunkType-child|stype-|voicetype-	12	lwg__vaux	_	_
14	कि	कि	CC	avy	lex-कि|cat-avy|gen-|num-|pers-|case-|vib-|tam-|chunkId-CCP|chunkType-head|stype-|voicetype-	12	k2	_	_
15	कश्मीर	कश्मीर	NNP	n	lex-कश्मीर|cat-n|gen-m|num-sg|pers-3|case-d|vib-0|tam-0|chunkId-NP6|chunkType-child|stype-|voicetype-	16	nmod__adj	_	_
16	समस्या	समस्या	NN	n	lex-समस्या|cat-n|gen-f|num-sg|pers-3|case-o|vib-0_का|tam-0|chunkId-NP6|chunkType-head|stype-|voicetype-	18	r6	_	_
17	के	का	PSP	psp	lex-का|cat-psp|gen-m|num-sg|pers-|case-o|vib-|tam-|chunkId-NP6|chunkType-child|stype-|voicetype-	16	lwg__psp	_	_
18	समाधान	समाधान	NN	n	lex-समाधान|cat-n|gen-m|num-sg|pers-3|case-o|vib-0_का|tam-0|chunkId-NP7|chunkType-head|stype-|voicetype-	22	r6	_	_
19	की	का	PSP	psp	lex-का|cat-psp|gen-f|num-sg|pers-|case-d|vib-|tam-|chunkId-NP7|chunkType-child|stype-|voicetype-	18	lwg__psp	_	_
20	हमें	हम	PRP	pn	lex-हम|cat-pn|gen-any|num-sg|pers-1|case-o|vib-को|tam-ko|chunkId-NP8|chunkType-head|stype-|voicetype-	24	k4a	_	_
21	कोई	कोई	PRP	pn	lex-कोई|cat-pn|gen-any|num-sg|pers-3|case-d|vib-0|tam-0|chunkId-NP9|chunkType-child|stype-|voicetype-	22	nmod__adj	_	_
22	जल्दबाजी	जल्दबाजी	NN	n	lex-जल्दबाजी|cat-n|gen-f|num-sg|pers-3|case-d|vib-0|tam-0|chunkId-NP9|chunkType-head|stype-|voicetype-	24	k1	_	_
23	नहीं	नहीं	NEG	avy	lex-नहीं|cat-avy|gen-|num-|pers-|case-|vib-|tam-|chunkId-VGF2|chunkType-child|stype-|voicetype-	24	lwg__neg	_	_
24	है	है	VM	v	lex-है|cat-v|gen-any|num-sg|pers-3|case-|vib-है|tam-hE|chunkId-VGF2|chunkType-head|stype-declarative|voicetype-active	14	ccof	_	_
25	।	।	SYM	punc	lex-।|cat-punc|gen-|num-|pers-|case-|vib-|tam-|chunkId-BLK|chunkType-head|stype-|voicetype-	12	rsym	_	_

1	मुशर्रफ	मुशर्रफ	NNP	n	lex-मुशर्रफ|cat-n|gen-m|num-sg|pers-3|case-d|vib-0|tam-0|chunkId-NP|chunkType-head|stype-|voicetype-	5	k1	_	_
2	इस	यह	PRP	pn	lex-यह|cat-pn|gen-any|num-sg|pers-3|case-o|vib-0_पर|tam-0|chunkId-NP2|chunkType-head|stype-|voicetype-	5	k7	_	_
3	पर	पर	PSP	psp	lex-पर|cat-psp|gen-|num-|pers-|case-|vib-|tam-|chunkId-NP2|chunkType-child|stype-|voicetype-	2	lwg__psp	_	_
4	प्रतिक्रिया	प्रतिक्रिया	NN	n	lex-प्रतिक्रिया|cat-n|gen-f|num-sg|pers-3|case-d|vib-0|tam-0|chunkId-NP3|chunkType-head|stype-|voicetype-	5	pof	_	_
5	जता	जता	VM	v	lex-जता|cat-v|gen-m|num-sg|pers-3h|case-|vib-0_रह+या_था|tam-0|chunkId-VGF|chunkType-head|stype-declarative|voicetype-active	0	main	_	_
6	रहे	रह	VAUX	v	lex-रह|cat-v|gen-m|num-sg|pers-3h|case-|vib-या|tam-yA|chunkId-VGF|chunkType-child|stype-|voicetype-	5	lwg__vaux	_	_
7	थे	था	VAUX	v	lex-था|cat-v|gen-m|num-sg|pers-3h|case-|vib-था|tam-WA|chunkId-VGF|chunkType-child|stype-|voicetype-	5	lwg__vaux	_	_
8	।	।	SYM	punc	lex-।|cat-punc|gen-|num-|pers-|case-|vib-|tam-|chunkId-BLK|chunkType-head|stype-|voicetype-	5	rsym	_	_

1	मुशर्रफ	मुशर्रफ	NNP	n	lex-मुशर्रफ|cat-n|gen-m|num-sg|pers-3|case-o|vib-0_ने|tam-0|chunkId-NP|chunkType-head|stype-|voicetype-	16	k1	_	_
2	ने	ने	PSP	psp	lex-ने|cat-psp|gen-|num-|pers-|case-|vib-|tam-|chunkId-NP|chunkType-child|stype-|voicetype-	1	lwg__psp	_	_
3	'	SINGLE_QUOTE	SYM	punc	lex-SINGLE_QUOTE|cat-punc|gen-|num-|pers-|case-|vib-|tam-|chunkId-NP2|chunkType-child|stype-|voicetype-	7	rsym	_	_
4	पाकिस्तानी	पाकिस्तानी	JJ	adj	lex-पाकिस्तानी|cat-adj|gen-any|num-any|pers-|case-o|vib-|tam-|chunkId-NP2|chunkType-child|stype-|voicetype-	5	nmod__adj	_	_
5	दैनिक	दैनिक	NN	n	lex-दैनिक|cat-n|gen-m|num-sg|pers-3|case-d|vib-0|tam-0|chunkId-NP2|chunkType-child|stype-|voicetype-	7	nmod	_	_
6	-	-	SYM	punc	lex--|cat-punc|gen-|num-|pers-|case-|vib-|tam-|chunkId-NP2|chunkType-child|stype-|voicetype-	7	rsym	_	_
7	डेन	डेन	NNP	n	lex-डेन|cat-n|gen-m|num-sg|pers-3|case-o|vib-0_के_साथ|tam-0|chunkId-NP2|chunkType-head|stype-|voicetype-	16	ras-k1	_	_
8	'	SINGLE_QUOTE	SYM	punc	lex-SINGLE_QUOTE|cat-punc|gen-|num-|pers-|case-|vib-|tam-|chunkId-NP2|chunkType-child|stype-|voicetype-	7	rsym	_	_
9	के	के	PSP	psp	lex-के|cat-psp|gen-|num-|pers-|case-|vib-|tam-|chunkId-NP2|chunkType-child|stype-|voicetype-	7	lwg__psp	_	_
10	साथ	साथ	NST	nst	lex-साथ|cat-nst|gen-m|num-sg|pers-3|case-d|vib-|tam-|chunkId-NP2|chunkType-child|stype-|voicetype-	7	lwg__psp	_	_
11	एक	एक	QC	num	lex-एक|cat-num|gen-any|num-any|pers-|case-any|vib-|tam-|chunkId-NP3|chunkType-child|stype-|voicetype-	12	nmod__adj	_	_
12	साक्षात्कार	साक्षात्कार	NN	n	lex-साक्षात्कार|cat-n|gen-m|num-sg|pers-3|case-o|vib-0_में|tam-0|chunkId-NP3|chunkType-head|stype-|voicetype-	16	k7	_	_
13	में	में	PSP	psp	lex-में|cat-psp|gen-|num-|pers-|case-|vib-|tam-|chunkId-NP3|chunkType-child|stype-|voicetype-	12	lwg__psp	_	_
14	यह	यह	DEM	pn	lex-यह|cat-pn|gen-any|num-sg|pers-3|case-d|vib-|tam-|chunkId-NP4|chunkType-child|stype-|voicetype-	15	nmod__adj	_	_
15	बातें	बात	NN	n	lex-बात|cat-n|gen-f|num-pl|pers-3|case-d|vib-0|tam-0|chunkId-NP4|chunkType-head|stype-|voicetype-	16	k2	_	_
16	कही	कह	VM	v	lex-कह|cat-v|gen-f|num-pl|pers-3|case-|vib-या_है|tam-yA|chunkId-VGF|chunkType-head|stype-declarative|voicetype-active	0	main	_	_
17	हैं	है	VAUX	v	lex-है|cat-v|gen-any|num-pl|pers-3|case-|vib-है|tam-hE|chunkId-VGF|chunkType-child|stype-|voicetype-	16	lwg__vaux	_	_
18	।	।	SYM	punc	lex-।|cat-punc|gen-|num-|pers-|case-|vib-|tam-|chunkId-BLK|chunkType-head|stype-|voicetype-	16	rsym	_	_

1	नटवर	नटवर	NNPC	n	lex-नटवर|cat-n|gen-m|num-sg|pers-3|case-d|vib-0|tam-0|chunkId-NP|chunkType-child|stype-|voicetype-	2	pof__cn	_	_
2	सिंह	सिंह	NNP	n	lex-सिंह|cat-n|gen-m|num-sg|pers-3|case-o|vib-0_से|tam-0|chunkId-NP|chunkType-head|stype-|voicetype-	11	ras-k1	_	_
3	से	से	PSP	psp	lex-से|cat-psp|gen-|num-|pers-|case-|vib-|tam-|chunkId-NP|chunkType-child|stype-|voicetype-	2	lwg__psp	_	_
4	उनकी	वह	PRP	pn	lex-वह|cat-pn|gen-f|num-sg|pers-3h|case-o|vib-का|tam-kA|chunkId-NP2|chunkType-head|stype-|voicetype-	5	r6	_	_
5	मुलाकात	मुलाकात	NN	n	lex-मुलाकात|cat-n|gen-f|num-sg|pers-3|case-o|vib-0_के_बारे_में|tam-0|chunkId-NP3|chunkType-head|stype-|voicetype-	11	k7	_	_
6	के	के	PSP	psp	lex-के|cat-psp|gen-|num-|pers-|case-|vib-|tam-|chunkId-NP3|chunkType-child|stype-|voicetype-	5	lwg__psp	_	_
7	बारे	बारे	PSP	psp	lex-बारे|cat-psp|gen-|num-|pers-|case-|vib-|tam-|chunkId-NP3|chunkType-child|stype-|voicetype-	5	lwg__psp	_	_
8	में	में	PSP	psp	lex-में|cat-psp|gen-|num-|pers-|case-|vib-|tam-|chunkId-NP3|chunkType-child|stype-|voicetype-	5	lwg__psp	_	_
9	मुशर्रफ	मुशर्रफ	NNP	n	lex-मुशर्रफ|cat-n|gen-m|num-sg|pers-3|case-o|vib-0_ने|tam-0|chunkId-NP4|chunkType-head|stype-|voicetype-	11	k1	_	_
10	ने	ने	PSP	psp	lex-ने|cat-psp|gen-|num-|pers-|case-|vib-|tam-|chunkId-NP4|chunkType-child|stype-|voicetype-	9	lwg__psp	_	_
11	कहा	कह	VM	v	lex-कह|cat-v|gen-m|num-sg|pers-any|case-|vib-या|tam-yA|chunkId-VGF|chunkType-head|stype-declarative|voicetype-active	0	main	_	_
12	कि	कि	CC	avy	lex-कि|cat-avy|gen-|num-|pers-|case-|vib-|tam-|chunkId-CCP|chunkType-head|stype-|voicetype-	11	k2	_	_
13	उन्होंने	वह	PRP	pn	lex-वह|cat-pn|gen-any|num-sg|pers-3h|case-o|vib-ने|tam-ne|chunkId-NP5|chunkType-head|stype-|voicetype-	30	k1	_	_
14	कश्मीर	कश्मीर	NNP	n	lex-कश्मीर|cat-n|gen-m|num-sg|pers-3|case-d|vib-0|tam-0|chunkId-NP6|chunkType-child|stype-|voicetype-	15	nmod__adj	_	_
15	समस्या	समस्या	NN	n	lex-समस्या|cat-n|gen-f|num-sg|pers-3|case-o|vib-0_का|tam-0|chunkId-NP6|chunkType-head|stype-|voicetype-	17	r6	_	_
16	के	का	PSP	psp	lex-का|cat-psp|gen-m|num-sg|pers-|case-o|vib-|tam-|chunkId-NP6|chunkType-child|stype-|voicetype-	15	lwg__psp	_	_
17	समाधान	समाधान	NN	n	lex-समाधान|cat-n|gen-m|num-sg|pers-3|case-o|vib-0_के_लिए|tam-0|chunkId-NP7|chunkType-head|stype-|voicetype-	30	rt	_	_
18	के	के	PSP	psp	lex-के|cat-psp|gen-|num-|pers-|case-|vib-|tam-|chunkId-NP7|chunkType-child|stype-|voicetype-	17	lwg__psp	_	_
19	लिए	लिए	PSP	psp	lex-लिए|cat-psp|gen-|num-|pers-|case-|vib-|tam-|chunkId-NP7|chunkType-child|stype-|voicetype-	17	lwg__psp	_	_
20	भारत	भारत	NNP	n	lex-भारत|cat-n|gen-m|num-sg|pers-3|case-o|vib-0_के_सामने|tam-0|chunkId-NP8|chunkType-head|stype-|voicetype-	30	k7	_	_
21	के	के	PSP	psp	lex-के|cat-psp|gen-|num-|pers-|case-|vib-|tam-|chunkId-NP8|chunkType-child|stype-|voicetype-	20	lwg__psp	_	_
22	सामने	सामने	NST	nst	lex-सामने|cat-nst|gen-m|num-sg|pers-3|case-d|vib-|tam-|chunkId-NP8|chunkType-child|stype-|voicetype-	20	lwg__psp	_	_
23	कोई	कोई	PRP	pn	lex-कोई|cat-pn|gen-any|num-sg|pers-3|case-d|vib-0|tam-0|chunkId-NP9|chunkType-child|stype-|voicetype-	25	nmod__adj	_	_
24	समय	समय	NNC	n	lex-समय|cat-n|gen-m|num-sg|pers-3|case-d|vib-0|tam-0|chunkId-NP9|chunkType-child|stype-|voicetype-	25	pof__cn	_	_
25	सीमा	सीमा	NN	n	lex-सीमा|cat-n|gen-f|num-sg|pers-3|case-d|vib-0|tam-0|chunkId-NP9|chunkType-head|stype-|voicetype-	26	k2	_	_
26	रखने	रख	VM	v	lex-रख|cat-v|gen-any|num-any|pers-any|case-o|vib-ना_के_लिए|tam-nA|chunkId-VGNN|chunkType-head|stype-|voicetype-	30	rt	_	_
27	के	के	PSP	psp	lex-के|cat-psp|gen-|num-|pers-|case-|vib-|tam-|chunkId-VGNN|chunkType-child|stype-|voicetype-	26	lwg__psp	_	_
28	लिए	लिए	PSP	psp	lex-लिए|cat-psp|gen-|num-|pers-|case-|vib-|tam-|chunkId-VGNN|chunkType-child|stype-|voicetype-	26	lwg__psp	_	_
29	नहीं	नहीं	NEG	avy	lex-नहीं|cat-avy|gen-|num-|pers-|case-|vib-|tam-|chunkId-VGF2|chunkType-child|stype-|voicetype-	30	lwg__neg	_	_
30	कहा	कह	VM	v	lex-कह|cat-v|gen-m|num-sg|pers-3|case-|vib-या_है|tam-yA|chunkId-VGF2|chunkType-head|stype-declarative|voicetype-active	12	ccof	_	_
31	है	है	VAUX	v	lex-है|cat-v|gen-any|num-sg|pers-3|case-|vib-है|tam-hE|chunkId-VGF2|chunkType-child|stype-|voicetype-	30	lwg__vaux	_	_
32	।	।	SYM	punc	lex-।|cat-punc|gen-|num-|pers-|case-|vib-|tam-|chunkId-BLK|chunkType-head|stype-|voicetype-	11	rsym	_	_

1	उन्होंने	वह	PRP	pn	lex-वह|cat-pn|gen-any|num-sg|pers-3h|case-o|vib-ने|tam-ne|chunkId-NP|chunkType-head|stype-|voicetype-	2	k1	_	_
2	कहा	कह	VM	v	lex-कह|cat-v|gen-m|num-sg|pers-any|case-|vib-या|tam-yA|chunkId-VGF|chunkType-head|stype-declarative|voicetype-active	0	main	_	_
3	कि	कि	CC	avy	lex-कि|cat-avy|gen-|num-|pers-|case-|vib-|tam-|chunkId-CCP|chunkType-head|stype-|voicetype-	2	k2	_	_
4	कश्मीर	कश्मीर	NNP	n	lex-कश्मीर|cat-n|gen-m|num-sg|pers-3|case-d|vib-0|tam-0|chunkId-NP2|chunkType-child|stype-|voicetype-	5	nmod__adj	_	_
5	समस्या	समस्या	NN	n	lex-समस्या|cat-n|gen-f|num-sg|pers-3|case-o|vib-0_का|tam-0|chunkId-NP2|chunkType-head|stype-|voicetype-	7	r6	_	_
6	के	का	PSP	psp	lex-का|cat-psp|gen-m|num-sg|pers-|case-o|vib-|tam-|chunkId-NP2|chunkType-child|stype-|voicetype-	5	lwg__psp	_	_
7	समाधान	समाधान	NN	n	lex-समाधान|cat-n|gen-m|num-sg|pers-3|case-o|vib-0_का|tam-0|chunkId-NP3|chunkType-head|stype-|voicetype-	9	r6	_	_
8	के	का	PSP	psp	lex-का|cat-psp|gen-m|num-sg|pers-|case-o|vib-|tam-|chunkId-NP3|chunkType-child|stype-|voicetype-	7	lwg__psp	_	_
9	मुद्दे	मुद्दा	NN	n	lex-मुद्दा|cat-n|gen-m|num-sg|pers-3|case-o|vib-0_पर|tam-0|chunkId-NP4|chunkType-head|stype-|voicetype-	26	k7	_	_
10	पर	पर	PSP	psp	lex-पर|cat-psp|gen-|num-|pers-|case-|vib-|tam-|chunkId-NP4|chunkType-child|stype-|voicetype-	9	lwg__psp	_	_
11	वार्ता	वार्ता	NN	n	lex-वार्ता|cat-n|gen-f|num-sg|pers-3|case-o|vib-0_में|tam-0|chunkId-NP5|chunkType-head|stype-|voicetype-	26	k7	_	_
12	में	में	PSP	psp	lex-में|cat-psp|gen-|num-|pers-|case-|vib-|tam-|chunkId-NP5|chunkType-child|stype-|voicetype-	11	lwg__psp	_	_
13	प्रगति	प्रगति	NN	n	lex-प्रगति|cat-n|gen-f|num-sg|pers-3|case-o|vib-0_के|tam-0|chunkId-NP6|chunkType-head|stype-|voicetype-	26	vmod	_	_
14	के	के	PSP	psp	lex-के|cat-psp|gen-|num-|pers-|case-|vib-|tam-|chunkId-NP6|chunkType-child|stype-|voicetype-	13	lwg__psp	_	_
15	बगैर	बगैर	RP	avy	lex-बगैर|cat-avy|gen-|num-|pers-|case-|vib-|tam-|chunkId-NP6|chunkType-child|stype-|voicetype-	13	lwg__rp	_	_
16	दोनों	दो	QC	num	lex-दो|cat-num|gen-any|num-pl|pers-|case-any|vib-|tam-|chunkId-NP7|chunkType-child|stype-|voicetype-	17	nmod__adj	_	_
17	देश	देश	NN	n	lex-देश|cat-n|gen-m|num-pl|pers-3|case-d|vib-0|tam-0|chunkId-NP7|chunkType-head|stype-|voicetype-	26	k1	_	_
18	विश्वास	विश्वास	NN	n	lex-विश्वास|cat-n|gen-m|num-sg|pers-3|case-d|vib-0|tam-0|chunkId-NP8|chunkType-head|stype-|voicetype-	19	k2	_	_
19	बढ़ाने	बढा	VM	v	lex-बढा|cat-v|gen-any|num-pl|pers-any|case-o|vib-ना_का|tam-nA|chunkId-VGNN|chunkType-head|stype-|voicetype-	22	r6	_	_
20	के	का	PSP	psp	lex-का|cat-psp|gen-m|num-pl|pers-|case-o|vib-|tam-|chunkId-VGNN|chunkType-child|stype-|voicetype-	19	lwg__psp	_	_
21	अन्य	अन्य	JJ	adj	lex-अन्य|cat-adj|gen-any|num-any|pers-|case-o|vib-|tam-|chunkId-NP9|chunkType-child|stype-|voicetype-	22	nmod__adj	_	_
22	उपायों	उपाय	NN	n	lex-उपाय|cat-n|gen-m|num-pl|pers-3|case-o|vib-0_पर|tam-0|chunkId-NP9|chunkType-head|stype-|voicetype-	26	k7	_	_
23	पर	पर	PSP	psp	lex-पर|cat-psp|gen-|num-|pers-|case-|vib-|tam-|chunkId-NP9|chunkType-child|stype-|voicetype-	22	lwg__psp	_	_
24	आगे	आगे	NST	nst	lex-आगे|cat-nst|gen-m|num-sg|pers-3|case-d|vib-|tam-|chunkId-NP10|chunkType-head|stype-|voicetype-	26	adv	_	_
25	नहीं	नहीं	NEG	avy	lex-नहीं|cat-avy|gen-|num-|pers-|case-|vib-|tam-|chunkId-VGF2|chunkType-child|stype-|voicetype-	26	lwg__neg	_	_
26	बढ़	बढ	VM	v	lex-बढ|cat-v|gen-any|num-pl|pers-any|case-|vib-0_सक+ता|tam-0|chunkId-VGF2|chunkType-head|stype-declarative|voicetype-active	3	ccof	_	_
27	सकते	सक	VAUX	v	lex-सक|cat-v|gen-m|num-pl|pers-any|case-|vib-ता|tam-wA|chunkId-VGF2|chunkType-child|stype-|voicetype-	26	lwg__vaux	_	_
28	।	।	SYM	punc	lex-।|cat-punc|gen-|num-|pers-|case-|vib-|tam-|chunkId-BLK|chunkType-head|stype-|voicetype-	2	rsym	_	_

1	पूर्व	पूर्व	JJ	adj	lex-पूर्व|cat-adj|gen-any|num-any|pers-|case-o|vib-|tam-|chunkId-NP|chunkType-child|stype-|voicetype-	3	nmod__adj	_	_
2	प्रधानमंत्री	प्रधानमंत्री	NNP	n	lex-प्रधानमंत्री|cat-n|gen-m|num-sg|pers-3|case-d|vib-0|tam-0|chunkId-NP|chunkType-child|stype-|voicetype-	6	nmod__adj	_	_
3	मीर	मीर	NNPC	n	lex-मीर|cat-n|gen-m|num-sg|pers-3|case-d|vib-0|tam-0|chunkId-NP|chunkType-child|stype-|voicetype-	6	pof__cn	_	_
4	जफरूल्लाह	जफरूल्लाह	NNPC	n	lex-जफरूल्लाह|cat-n|gen-m|num-sg|pers-3|case-d|vib-0|tam-0|chunkId-NP|chunkType-child|stype-|voicetype-	6	pof__cn	_	_
5	खान	खान	NNPC	n	lex-खान|cat-n|gen-m|num-sg|pers-3|case-d|vib-0|tam-0|chunkId-NP|chunkType-child|stype-|voicetype-	6	pof__cn	_	_
6	जमाली	जमाली	NNP	n	lex-जमाली|cat-n|gen-m|num-sg|pers-3|case-o|vib-0_का|tam-0|chunkId-NP|chunkType-head|stype-|voicetype-	8	r6	_	_
7	के	का	PSP	psp	lex-का|cat-psp|gen-m|num-sg|pers-|case-o|vib-|tam-|chunkId-NP|chunkType-child|stype-|voicetype-	6	lwg__psp	_	_
8	इस्तीफे	इस्तीफा	NN	n	lex-इस्तीफा|cat-n|gen-m|num-sg|pers-3|case-o|vib-0_के_बारे_में|tam-0|chunkId-NP2|chunkType-head|stype-|voicetype-	12	k7	_	_
9	के	के	PSP	psp	lex-के|cat-psp|gen-|num-|pers-|case-|vib-|tam-|chunkId-NP2|chunkType-child|stype-|voicetype-	8	lwg__psp	_	_
10	बारे	बारे	PSP	psp	lex-बारे|cat-psp|gen-|num-|pers-|case-|vib-|tam-|chunkId-NP2|chunkType-child|stype-|voicetype-	8	lwg__psp	_	_
11	में	में	PSP	psp	lex-में|cat-psp|gen-|num-|pers-|case-|vib-|tam-|chunkId-NP2|chunkType-child|stype-|voicetype-	8	lwg__psp	_	_
12	पूछे	पूछ	VM	v	lex-पूछ|cat-v|gen-m|num-sg|pers-any|case-|vib-या_जा+या१|tam-yA|chunkId-VGNF|chunkType-head|stype-|voicetype-	14	nmod__k2inv	_	_
13	गए	जा	VAUX	v	lex-जा|cat-v|gen-m|num-sg|pers-any|case-|vib-या१|tam-yA1|chunkId-VGNF|chunkType-child|stype-|voicetype-	12	lwg__vaux	_	_
14	सवाल	सवाल	NN	n	lex-सवाल|cat-n|gen-m|num-sg|pers-3|case-o|vib-0_पर|tam-0|chunkId-NP3|chunkType-head|stype-|voicetype-	18	k7	_	_
15	पर	पर	PSP	psp	lex-पर|cat-psp|gen-|num-|pers-|case-|vib-|tam-|chunkId-NP3|chunkType-child|stype-|voicetype-	14	lwg__psp	_	_
16	मुशर्रफ	मुशर्रफ	NNP	n	lex-मुशर्रफ|cat-n|gen-m|num-sg|pers-3|case-o|vib-0_ने|tam-0|chunkId-NP4|chunkType-head|stype-|voicetype-	18	k1	_	_
17	ने	ने	PSP	psp	lex-ने|cat-psp|gen-|num-|pers-|case-|vib-|tam-|chunkId-NP4|chunkType-child|stype-|voicetype-	16	lwg__psp	_	_
18	कहा	कह	VM	v	lex-कह|cat-v|gen-m|num-sg|pers-any|case-|vib-या|tam-yA|chunkId-VGF|chunkType-head|stype-declarative|voicetype-active	0	main	_	_
19	कि	कि	CC	avy	lex-कि|cat-avy|gen-|num-|pers-|case-|vib-|tam-|chunkId-CCP|chunkType-head|stype-|voicetype-	18	k2	_	_
20	उन्होंने	वह	PRP	pn	lex-वह|cat-pn|gen-any|num-sg|pers-3h|case-o|vib-ने|tam-ne|chunkId-NP5|chunkType-head|stype-|voicetype-	26	k1	_	_
21	इसके	यह	PRP	pn	lex-यह|cat-pn|gen-m|num-sg|pers-3|case-o|vib-0_लिए|tam-ke|chunkId-NP6|chunkType-head|stype-|voicetype-	26	rt	_	_
22	लिए	लिए	PSP	psp	lex-लिए|cat-psp|gen-|num-|pers-|case-|vib-|tam-|chunkId-NP6|chunkType-child|stype-|voicetype-	21	lwg__psp	_	_
23	कोई	कोई	PRP	pn	lex-कोई|cat-pn|gen-any|num-sg|pers-3|case-d|vib-0|tam-0|chunkId-NP7|chunkType-child|stype-|voicetype-	24	nmod__adj	_	_
24	दबाव	दबाव	NN	n	lex-दबाव|cat-n|gen-m|num-sg|pers-3|case-d|vib-0|tam-0|chunkId-NP7|chunkType-head|stype-|voicetype-	26	pof	_	_
25	नहीं	नहीं	NEG	avy	lex-नहीं|cat-avy|gen-|num-|pers-|case-|vib-|tam-|chunkId-VGF2|chunkType-child|stype-|voicetype-	26	lwg__neg	_	_
26	डाला	डाल	VM	v	lex-डाल|cat-v|gen-m|num-sg|pers-any|case-|vib-या|tam-yA|chunkId-VGF2|chunkType-head|stype-declarative|voicetype-active	19	ccof	_	_
27	।	।	SYM	punc	lex-।|cat-punc|gen-|num-|pers-|case-|vib-|tam-|chunkId-BLK|chunkType-head|stype-|voicetype-	18	rsym	_	_

1	यह	यह	DEM	pn	lex-यह|cat-pn|gen-any|num-sg|pers-3|case-d|vib-|tam-|chunkId-NP|chunkType-child|stype-|voicetype-	2	nmod__adj	_	_
2	फैसला	फैसला	NN	n	lex-फैसला|cat-n|gen-m|num-sg|pers-3|case-d|vib-0|tam-0|chunkId-NP|chunkType-head|stype-|voicetype-	11	k1	_	_
3	पाकिस्तान	पाकिस्तान	NNP	n	lex-पाकिस्तान|cat-n|gen-m|num-sg|pers-3|case-o|vib-0_का|tam-0|chunkId-NP2|chunkType-head|stype-|voicetype-	6	r6	_	_
4	की	का	PSP	psp	lex-का|cat-psp|gen-f|num-sg|pers-|case-o|vib-|tam-|chunkId-NP2|chunkType-child|stype-|voicetype-	3	lwg__psp	_	_
5	सत्ताधारी	सत्ताधारी	JJ	adj	lex-सत्ताधारी|cat-adj|gen-any|num-any|pers-|case-o|vib-|tam-|chunkId-NP3|chunkType-child|stype-|voicetype-	6	nmod__adj	_	_
6	पार्टी	पार्टी	NN	n	lex-पार्टी|cat-n|gen-f|num-sg|pers-3|case-o|vib-0|tam-0|chunkId-NP3|chunkType-head|stype-|voicetype-	9	nmod	_	_
7	पाकिस्तान	पाकिस्तान	NNPC	n	lex-पाकिस्तान|cat-n|gen-m|num-sg|pers-3|case-d|vib-0|tam-0|chunkId-NP4|chunkType-child|stype-|voicetype-	9	pof__cn	_	_
8	मुस्लिम	मुस्लिम	NNPC	n	lex-मुस्लिम|cat-n|gen-m|num-sg|pers-3|case-d|vib-0|tam-0|chunkId-NP4|chunkType-child|stype-|voicetype-	9	pof__cn	_	_
9	लीग	लीग	NNP	n	lex-लीग|cat-n|gen-f|num-sg|pers-3|case-o|vib-0_का|tam-0|chunkId-NP4|chunkType-head|stype-|voicetype-	2	r6	_	_
10	का	का	PSP	psp	lex-का|cat-psp|gen-m|num-sg|pers-|case-d|vib-|tam-|chunkId-NP4|chunkType-child|stype-|voicetype-	9	lwg__psp	_	_
11	था	था	VM	v	lex-था|cat-v|gen-m|num-sg|pers-any|case-|vib-था|tam-WA|chunkId-VGF|chunkType-head|stype-declarative|voicetype-active	0	main	_	_
12	।	।	SYM	punc	lex-।|cat-punc|gen-|num-|pers-|case-|vib-|tam-|chunkId-BLK|chunkType-head|stype-|voicetype-	11	rsym	_	_

1	मुशर्रफ	मुशर्रफ	NNP	n	lex-मुशर्रफ|cat-n|gen-m|num-sg|pers-3|case-o|vib-0_ने|tam-0|chunkId-NP|chunkType-head|stype-|voicetype-	4	k1	_	_
2	ने	ने	PSP	psp	lex-ने|cat-psp|gen-|num-|pers-|case-|vib-|tam-|chunkId-NP|chunkType-child|stype-|voicetype-	1	lwg__psp	_	_
3	उम्मीद	उम्मीद	NN	n	lex-उम्मीद|cat-n|gen-f|num-sg|pers-3|case-d|vib-0|tam-0|chunkId-NP2|chunkType-head|stype-|voicetype-	4	pof	_	_
4	जताई	जता	VM	v	lex-जता|cat-v|gen-f|num-sg|pers-any|case-|vib-या|tam-yA|chunkId-VGF|chunkType-head|stype-declarative|voicetype-active	0	main	_	_
5	कि	कि	CC	avy	lex-कि|cat-avy|gen-|num-|pers-|case-|vib-|tam-|chunkId-CCP|chunkType-head|stype-|voicetype-	4	k2	_	_
6	मनोनीत	मनोनीत	JJ	adj	lex-मनोनीत|cat-adj|gen-any|num-any|pers-|case-d|vib-|tam-|chunkId-NP3|chunkType-child|stype-|voicetype-	8	nmod__adj	_	_
7	प्रधानमंत्री	प्रधानमंत्री	NNP	n	lex-प्रधानमंत्री|cat-n|gen-m|num-sg|pers-3|case-d|vib-0|tam-0|chunkId-NP3|chunkType-child|stype-|voicetype-	9	nmod__adj	_	_
8	शौकत	शौकत	NNPC	n	lex-शौकत|cat-n|gen-m|num-sg|pers-3|case-d|vib-0|tam-0|chunkId-NP3|chunkType-child|stype-|voicetype-	9	pof__cn	_	_
9	अजीज	अजीज	NNP	n	lex-अजीज|cat-n|gen-m|num-sg|pers-3|case-d|vib-0|tam-0|chunkId-NP3|chunkType-head|stype-|voicetype-	17	k1	_	_
10	देश	देश	NN	n	lex-देश|cat-n|gen-m|num-sg|pers-3|case-o|vib-0_को|tam-0|chunkId-NP4|chunkType-head|stype-|voicetype-	14	k4	_	_
11	को	को	PSP	psp	lex-को|cat-psp|gen-|num-|pers-|case-|vib-|tam-|chunkId-NP4|chunkType-child|stype-|voicetype-	10	lwg__psp	_	_
12	अच्छा	अच्छा	JJ	adj	lex-अच्छा|cat-adj|gen-m|num-sg|pers-|case-d|vib-|tam-|chunkId-NP5|chunkType-child|stype-|voicetype-	13	nmod__adj	_	_
13	प्रशासन	प्रशासन	NN	n	lex-प्रशासन|cat-n|gen-m|num-sg|pers-3|case-d|vib-0|tam-0|chunkId-NP5|chunkType-head|stype-|voicetype-	14	k2	_	_
14	देने	दे	VM	v	lex-दे|cat-v|gen-any|num-any|pers-any|case-o|vib-ना_में|tam-nA|chunkId-VGNN|chunkType-head|stype-|voicetype-	17	k7	_	_
15	में	में	PSP	psp	lex-में|cat-psp|gen-|num-|pers-|case-|vib-|tam-|chunkId-VGNN|chunkType-child|stype-|voicetype-	14	lwg__psp	_	_
16	सक्षम	सक्षम	JJ	adj	lex-सक्षम|cat-adj|gen-any|num-any|pers-|case-|vib-|tam-|chunkId-JJP|chunkType-head|stype-|voicetype-	17	pof	_	_
17	होंगे	हो	VM	v	lex-हो|cat-v|gen-m|num-sg|pers-3h|case-|vib-गा|tam-gA|chunkId-VGF2|chunkType-head|stype-declarative|voicetype-active	5	ccof	_	_
18	।	।	SYM	punc	lex-।|cat-punc|gen-|num-|pers-|case-|vib-|tam-|chunkId-BLK|chunkType-head|stype-|voicetype-	4	rsym	_	_

1	इराक	इराक	NNP	n	lex-इराक|cat-n|gen-m|num-sg|pers-3|case-o|vib-0_में|tam-0|chunkId-NP|chunkType-head|stype-|voicetype-	5	k2p	_	_
2	में	में	PSP	psp	lex-में|cat-psp|gen-|num-|pers-|case-|vib-|tam-|chunkId-NP|chunkType-child|stype-|voicetype-	1	lwg__psp	_	_
3	पाकिस्तानी	पाकिस्तानी	JJ	adj	lex-पाकिस्तानी|cat-adj|gen-any|num-any|pers-|case-d|vib-|tam-|chunkId-NP2|chunkType-child|stype-|voicetype-	4	nmod__adj	_	_
4	फौज	फौज	NN	n	lex-फौज|cat-n|gen-f|num-sg|pers-3|case-d|vib-0|tam-0|chunkId-NP2|chunkType-head|stype-|voicetype-	5	k2	_	_
5	भेजने	भेज	VM	v	lex-भेज|cat-v|gen-any|num-any|pers-any|case-o|vib-ना_के_बारे_में|tam-nA|chunkId-VGNN|chunkType-head|stype-|voicetype-	10	k7	_	_
6	के	के	PSP	psp	lex-के|cat-psp|gen-|num-|pers-|case-|vib-|tam-|chunkId-VGNN|chunkType-child|stype-|voicetype-	5	lwg__psp	_	_
7	बारे	बारे	PSP	psp	lex-बारे|cat-psp|gen-|num-|pers-|case-|vib-|tam-|chunkId-VGNN|chunkType-child|stype-|voicetype-	5	lwg__psp	_	_
8	में	में	PSP	psp	lex-में|cat-psp|gen-|num-|pers-|case-|vib-|tam-|chunkId-VGNN|chunkType-child|stype-|voicetype-	5	lwg__psp	_	_
9	उन्होंने	वह	PRP	pn	lex-वह|cat-pn|gen-any|num-sg|pers-3h|case-o|vib-ने|tam-ne|chunkId-NP3|chunkType-head|stype-|voicetype-	10	k1	_	_
10	कहा	कह	VM	v	lex-कह|cat-v|gen-m|num-sg|pers-any|case-|vib-या|tam-yA|chunkId-VGF|chunkType-head|stype-declarative|voicetype-active	0	main	_	_
11	कि	कि	CC	avy	lex-कि|cat-avy|gen-|num-|pers-|case-|vib-|tam-|chunkId-CCP|chunkType-head|stype-|voicetype-	10	k2	_	_
12	इस	यह	DEM	pn	lex-यह|cat-pn|gen-any|num-sg|pers-3|case-o|vib-|tam-|chunkId-NP4|chunkType-child|stype-|voicetype-	13	nmod__adj	_	_
13	मसले	मसला	NN	n	lex-मसला|cat-n|gen-m|num-sg|pers-3|case-o|vib-0_पर|tam-0|chunkId-NP4|chunkType-head|stype-|voicetype-	21	k7	_	_
14	पर	पर	PSP	psp	lex-पर|cat-psp|gen-|num-|pers-|case-|vib-|tam-|chunkId-NP4|chunkType-child|stype-|voicetype-	13	lwg__psp	_	_
15	सरकार	सरकार	NN	n	lex-सरकार|cat-n|gen-f|num-sg|pers-3|case-d|vib-0|tam-0|chunkId-NP5|chunkType-head|stype-|voicetype-	21	k1	_	_
16	अपने	अपना	PRP	pn	lex-अपना|cat-pn|gen-m|num-any|pers-any|case-d|vib-0|tam-0|chunkId-NP6|chunkType-head|stype-|voicetype-	17	r6	_	_
17	विकल्प	विकल्प	NN	n	lex-विकल्प|cat-n|gen-m|num-pl|pers-3|case-d|vib-0|tam-0|chunkId-NP7|chunkType-head|stype-|voicetype-	20	k2	_	_
18	बंद	बंद	JJ	adj	lex-बंद|cat-adj|gen-any|num-any|pers-|case-|vib-|tam-|chunkId-JJP|chunkType-head|stype-|voicetype-	20	pof	_	_
19	नहीं	नहीं	NEG	avy	lex-नहीं|cat-avy|gen-|num-|pers-|case-|vib-|tam-|chunkId-VGNN2|chunkType-child|stype-|voicetype-	20	lwg__neg	_	_
20	करना	कर	VM	v	lex-कर|cat-v|gen-any|num-any|pers-any|case-d|vib-ना|tam-nA|chunkId-VGNN2|chunkType-head|stype-|voicetype-	21	k2	_	_
21	चाहती	चाह	VM	v	lex-चाह|cat-v|gen-f|num-sg|pers-3|case-|vib-ता_है|tam-wA|chunkId-VGF2|chunkType-head|stype-declarative|voicetype-active	11	ccof	_	_
22	है	है	VAUX	v	lex-है|cat-v|gen-any|num-sg|pers-3|case-|vib-है|tam-hE|chunkId-VGF2|chunkType-child|stype-|voicetype-	21	lwg__vaux	_	_
23	।	।	SYM	punc	lex-।|cat-punc|gen-|num-|pers-|case-|vib-|tam-|chunkId-BLK|chunkType-head|stype-|voicetype-	10	rsym	_	_

1	मुशर्रफ	मुशर्रफ	NNP	n	lex-मुशर्रफ|cat-n|gen-m|num-sg|pers-3|case-o|vib-0_ने|tam-0|chunkId-NP|chunkType-head|stype-|voicetype-	3	k1	_	_
2	ने	ने	PSP	psp	lex-ने|cat-psp|gen-|num-|pers-|case-|vib-|tam-|chunkId-NP|chunkType-child|stype-|voicetype-	1	lwg__psp	_	_
3	कहा	कह	VM	v	lex-कह|cat-v|gen-m|num-sg|pers-any|case-|vib-या|tam-yA|chunkId-VGF|chunkType-head|stype-declarative|voicetype-active	0	main	_	_
4	कि	कि	CC	avy	lex-कि|cat-avy|gen-|num-|pers-|case-|vib-|tam-|chunkId-CCP|chunkType-head|stype-|voicetype-	3	k2	_	_
5	उन्होंने	वह	PRP	pn	lex-वह|cat-pn|gen-any|num-sg|pers-3h|case-o|vib-ने|tam-ne|chunkId-NP2|chunkType-head|stype-|voicetype-	9	k1	_	_
6	यह	यह	PRP	pn	lex-यह|cat-pn|gen-any|num-sg|pers-3|case-d|vib-0|tam-0|chunkId-NP3|chunkType-head|stype-|voicetype-	9	k2	_	_
7	कभी	कभी	PRP	pn	lex-कभी|cat-pn|gen-|num-|pers-|case-|vib-|tam-|chunkId-NP4|chunkType-head|stype-|voicetype-	9	k7t	_	_
8	नहीं	नहीं	NEG	avy	lex-नहीं|cat-avy|gen-|num-|pers-|case-|vib-|tam-|chunkId-VGF2|chunkType-child|stype-|voicetype-	9	lwg__neg	_	_
9	कहा	कह	VM	v	lex-कह|cat-v|gen-m|num-sg|pers-any|case-|vib-या|tam-yA|chunkId-VGF2|chunkType-head|stype-declarative|voicetype-active	16	ccof	_	_
10	कि	कि	CC	avy	lex-कि|cat-avy|gen-|num-|pers-|case-|vib-|tam-|chunkId-CCP2|chunkType-head|stype-|voicetype-	6	rs	_	_
11	इराक	इराक	NNP	n	lex-इराक|cat-n|gen-m|num-sg|pers-3|case-o|vib-0_में|tam-0|chunkId-NP5|chunkType-head|stype-|voicetype-	15	k2p	_	_
12	में	में	PSP	psp	lex-में|cat-psp|gen-|num-|pers-|case-|vib-|tam-|chunkId-NP5|chunkType-child|stype-|voicetype-	11	lwg__psp	_	_
13	अपनी	अपना	PRP	pn	lex-अपना|cat-pn|gen-f|num-any|pers-any|case-d|vib-0|tam-0|chunkId-NP6|chunkType-head|stype-|voicetype-	14	r6	_	_
14	सेना	सेना	NN	n	lex-सेना|cat-n|gen-f|num-sg|pers-3|case-d|vib-0|tam-0|chunkId-NP7|chunkType-head|stype-|voicetype-	15	k2	_	_
15	भेजेंगे	भेज	VM	v	lex-भेज|cat-v|gen-m|num-sg|pers-3h|case-|vib-गा|tam-gA|chunkId-VGF3|chunkType-head|stype-declarative|voicetype-active	10	ccof	_	_
16	लेकिन	लेकिन	CC	avy	lex-लेकिन|cat-avy|gen-|num-|pers-|case-|vib-|tam-|chunkId-CCP3|chunkType-head|stype-|voicetype-	4	ccof	_	_
17	यह	यह	PRP	pn	lex-यह|cat-pn|gen-any|num-sg|pers-3|case-d|vib-0|tam-0|chunkId-NP8|chunkType-head|stype-|voicetype-	20	k2	_	_
18	भी	भी	RP	avy	lex-भी|cat-avy|gen-|num-|pers-|case-|vib-|tam-|chunkId-NP8|chunkType-child|stype-|voicetype-	17	lwg__rp	_	_
19	नहीं	नहीं	NEG	avy	lex-नहीं|cat-avy|gen-|num-|pers-|case-|vib-|tam-|chunkId-VGF4|chunkType-child|stype-|voicetype-	20	lwg__neg	_	_
20	कहा	कह	VM	v	lex-कह|cat-v|gen-m|num-sg|pers-any|case-|vib-या|tam-yA|chunkId-VGF4|chunkType-head|stype-declarative|voicetype-active	16	ccof	_	_
21	कि	कि	CC	avy	lex-कि|cat-avy|gen-|num-|pers-|case-|vib-|tam-|chunkId-CCP4|chunkType-head|stype-|voicetype-	17	rs	_	_
22	वहां	वहाँ	PRP	pn	lex-वहाँ|cat-pn|gen-|num-|pers-|case-d|vib-|tam-|chunkId-NP9|chunkType-head|stype-|voicetype-	27	k2p	_	_
23	अपनी	अपना	PRP	pn	lex-अपना|cat-pn|gen-f|num-any|pers-any|case-d|vib-0|tam-0|chunkId-NP10|chunkType-head|stype-|voicetype-	24	r6	_	_
24	सेना	सेना	NN	n	lex-सेना|cat-n|gen-f|num-sg|pers-3|case-d|vib-0|tam-0|chunkId-NP11|chunkType-head|stype-|voicetype-	27	k2	_	_
25	कभी	कभी	PRP	pn	lex-कभी|cat-pn|gen-|num-|pers-|case-|vib-|tam-|chunkId-NP12|chunkType-head|stype-|voicetype-	27	k7t	_	_
26	नहीं	नहीं	NEG	avy	lex-नहीं|cat-avy|gen-|num-|pers-|case-|vib-|tam-|chunkId-VGF5|chunkType-child|stype-|voicetype-	27	lwg__neg	_	_
27	भेजेंगे	भेज	VM	v	lex-भेज|cat-v|gen-m|num-sg|pers-3h|case-|vib-गा|tam-gA|chunkId-VGF5|chunkType-head|stype-declarative|voicetype-active	21	ccof	_	_
28	।	।	SYM	punc	lex-।|cat-punc|gen-|num-|pers-|case-|vib-|tam-|chunkId-BLK|chunkType-head|stype-|voicetype-	3	rsym	_	_

1	मुशर्रफ	मुशर्रफ	NNP	n	lex-मुशर्रफ|cat-n|gen-m|num-sg|pers-3|case-o|vib-0_ने|tam-0|chunkId-NP|chunkType-head|stype-|voicetype-	3	k1	_	_
2	ने	ने	PSP	psp	lex-ने|cat-psp|gen-|num-|pers-|case-|vib-|tam-|chunkId-NP|chunkType-child|stype-|voicetype-	1	lwg__psp	_	_
3	कहा	कह	VM	v	lex-कह|cat-v|gen-m|num-sg|pers-any|case-|vib-या|tam-yA|chunkId-VGF|chunkType-head|stype-declarative|voicetype-active	0	main	_	_
4	कि	कि	CC	avy	lex-कि|cat-avy|gen-|num-|pers-|case-|vib-|tam-|chunkId-CCP|chunkType-head|stype-|voicetype-	3	k2	_	_
5	अगर	अगर	CC	avy	lex-अगर|cat-avy|gen-|num-|pers-|case-|vib-|tam-|chunkId-CCP2|chunkType-head|stype-|voicetype-	21	vmod	_	_
6	मुस्लिम	मुस्लिम	JJ	adj	lex-मुस्लिम|cat-adj|gen-any|num-any|pers-|case-d|vib-|tam-|chunkId-NP2|chunkType-child|stype-|voicetype-	7	nmod__adj	_	_
7	देश	देश	NN	n	lex-देश|cat-n|gen-m|num-pl|pers-3|case-d|vib-0|tam-0|chunkId-NP2|chunkType-head|stype-|voicetype-	8	ccof	_	_
8	या	या	CC	avy	lex-या|cat-avy|gen-|num-|pers-|case-|vib-|tam-|chunkId-CCP3|chunkType-head|stype-|voicetype-	14	k1	_	_
9	भारत	भारत	NNP	n	lex-भारत|cat-n|gen-m|num-sg|pers-3|case-d|vib-0|tam-0|chunkId-NP3|chunkType-head|stype-|voicetype-	8	ccof	_	_
10	इराक	इराक	NNP	n	lex-इराक|cat-n|gen-m|num-sg|pers-3|case-o|vib-0_में|tam-0|chunkId-NP4|chunkType-head|stype-|voicetype-	14	k7p	_	_
11	में	में	PSP	psp	lex-में|cat-psp|gen-|num-|pers-|case-|vib-|tam-|chunkId-NP4|chunkType-child|stype-|voicetype-	10	lwg__psp	_	_
12	अपनी	अपना	PRP	pn	lex-अपना|cat-pn|gen-f|num-any|pers-any|case-d|vib-0|tam-0|chunkId-NP5|chunkType-head|stype-|voicetype-	13	r6	_	_
13	सेना	सेना	NN	n	lex-सेना|cat-n|gen-f|num-sg|pers-3|case-d|vib-0|tam-0|chunkId-NP6|chunkType-head|stype-|voicetype-	14	k2	_	_
14	भेजते	भेज	VM	v	lex-भेज|cat-v|gen-m|num-pl|pers-3|case-|vib-ता_है|tam-wA|chunkId-VGF2|chunkType-head|stype-declarative|voicetype-active	5	ccof	_	_
15	हैं	है	VAUX	v	lex-है|cat-v|gen-any|num-pl|pers-3|case-|vib-है|tam-hE|chunkId-VGF2|chunkType-child|stype-|voicetype-	14	lwg__vaux	_	_
16	तो	तो	CC	avy	lex-तो|cat-avy|gen-|num-|pers-|case-|vib-|tam-|chunkId-CCP4|chunkType-head|stype-|voicetype-	4	ccof	_	_
17	पाकिस्तान	पाकिस्तान	NNP	n	lex-पाकिस्तान|cat-n|gen-m|num-sg|pers-3|case-d|vib-0|tam-0|chunkId-NP7|chunkType-head|stype-|voicetype-	21	k1	_	_
18	भी	भी	RP	avy	lex-भी|cat-avy|gen-|num-|pers-|case-|vib-|tam-|chunkId-NP7|chunkType-child|stype-|voicetype-	17	lwg__rp	_	_
19	पीछे	पीछे	NST	nst	lex-पीछे|cat-nst|gen-m|num-sg|pers-3|case-d|vib-|tam-|chunkId-NP8|chunkType-head|stype-|voicetype-	21	adv	_	_
20	नहीं	नहीं	NEG	avy	lex-नहीं|cat-avy|gen-|num-|pers-|case-|vib-|tam-|chunkId-VGF3|chunkType-child|stype-|voicetype-	21	lwg__neg	_	_
21	रहेगा	रह	VM	v	lex-रह|cat-v|gen-m|num-sg|pers-3|case-|vib-गा|tam-gA|chunkId-VGF3|chunkType-head|stype-declarative|voicetype-active	16	ccof	_	_
22	।	।	SYM	punc	lex-।|cat-punc|gen-|num-|pers-|case-|vib-|tam-|chunkId-BLK|chunkType-head|stype-|voicetype-	3	rsym	_	_

1	मुशर्रफ	मुशर्रफ	NNP	n	lex-मुशर्रफ|cat-n|gen-m|num-sg|pers-3|case-o|vib-0_ने|tam-0|chunkId-NP|chunkType-head|stype-|voicetype-	3	k1	_	_
2	ने	ने	PSP	psp	lex-ने|cat-psp|gen-|num-|pers-|case-|vib-|tam-|chunkId-NP|chunkType-child|stype-|voicetype-	1	lwg__psp	_	_
3	कहा	कह	VM	v	lex-कह|cat-v|gen-m|num-sg|pers-any|case-|vib-या|tam-yA|chunkId-VGF|chunkType-head|stype-declarative|voicetype-active	0	main	_	_
4	कि	कि	CC	avy	lex-कि|cat-avy|gen-|num-|pers-|case-|vib-|tam-|chunkId-CCP|chunkType-head|stype-|voicetype-	3	k2	_	_
5	उन्होंने	वह	PRP	pn	lex-वह|cat-pn|gen-any|num-sg|pers-3h|case-o|vib-ने|tam-ne|chunkId-NP2|chunkType-head|stype-|voicetype-	12	k1	_	_
6	कभी	कभी	PRP	pn	lex-कभी|cat-pn|gen-|num-|pers-|case-|vib-|tam-|chunkId-NP3|chunkType-head|stype-|voicetype-	12	k7t	_	_
7	आतंकी	आतंकी	JJ	adj	lex-आतंकी|cat-adj|gen-any|num-any|pers-|case-o|vib-|tam-|chunkId-NP4|chunkType-child|stype-|voicetype-	8	nmod__adj	_	_
8	संगठनों	संगठन	NN	n	lex-संगठन|cat-n|gen-m|num-pl|pers-3|case-o|vib-0_को|tam-0|chunkId-NP4|chunkType-head|stype-|voicetype-	12	k2	_	_
9	को	को	PSP	psp	lex-को|cat-psp|gen-|num-|pers-|case-|vib-|tam-|chunkId-NP4|chunkType-child|stype-|voicetype-	8	lwg__psp	_	_
10	बढ़ावा	बढावा	NN	n	lex-बढावा|cat-n|gen-m|num-sg|pers-3|case-d|vib-0|tam-0|chunkId-NP5|chunkType-head|stype-|voicetype-	12	pof	_	_
11	नहीं	नहीं	NEG	avy	lex-नहीं|cat-avy|gen-|num-|pers-|case-|vib-|tam-|chunkId-VGF2|chunkType-child|stype-|voicetype-	12	lwg__neg	_	_
12	दिया	दे	VM	v	lex-दे|cat-v|gen-m|num-sg|pers-any|case-|vib-या|tam-yA|chunkId-VGF2|chunkType-head|stype-declarative|voicetype-active	4	ccof	_	_
13	।	।	SYM	punc	lex-।|cat-punc|gen-|num-|pers-|case-|vib-|tam-|chunkId-BLK|chunkType-head|stype-|voicetype-	3	rsym	_	_

1	उन्होंने	वह	PRP	pn	lex-वह|cat-pn|gen-any|num-sg|pers-3h|case-o|vib-ने|tam-ne|chunkId-NP|chunkType-head|stype-|voicetype-	4	k1	_	_
2	जोर	जोर	NN	n	lex-जोर|cat-n|gen-m|num-sg|pers-3|case-d|vib-0|tam-0|chunkId-NP2|chunkType-head|stype-|voicetype-	3	adv	_	_
3	देकर	दे	VM	v	lex-दे|cat-v|gen-any|num-any|pers-any|case-|vib-कर|tam-kara|chunkId-VGNF|chunkType-head|stype-|voicetype-	4	vmod	_	_
4	कहा	कह	VM	v	lex-कह|cat-v|gen-m|num-sg|pers-any|case-|vib-या|tam-yA|chunkId-VGF|chunkType-head|stype-declarative|voicetype-active	0	main	_	_
5	कि	कि	CC	avy	lex-कि|cat-avy|gen-|num-|pers-|case-|vib-|tam-|chunkId-CCP|chunkType-head|stype-|voicetype-	4	k2	_	_
6	वे	वह	PRP	pn	lex-वह|cat-pn|gen-any|num-sg|pers-3h|case-d|vib-0|tam-0|chunkId-NP3|chunkType-head|stype-|voicetype-	19	k1	_	_
7	पाकिस्तान	पाकिस्तान	NNP	n	lex-पाकिस्तान|cat-n|gen-m|num-sg|pers-3|case-o|vib-0_में|tam-0|chunkId-NP4|chunkType-head|stype-|voicetype-	19	k7p	_	_
8	में	में	PSP	psp	lex-में|cat-psp|gen-|num-|pers-|case-|vib-|tam-|chunkId-NP4|chunkType-child|stype-|voicetype-	7	lwg__psp	_	_
9	किसी	कोई	PRP	pn	lex-कोई|cat-pn|gen-any|num-sg|pers-3|case-o|vib-0|tam-0|chunkId-NP5|chunkType-child|stype-|voicetype-	10	nmod__adj	_	_
10	प्रकार	प्रकार	NN	n	lex-प्रकार|cat-n|gen-m|num-sg|pers-3|case-o|vib-0_का|tam-0|chunkId-NP5|chunkType-head|stype-|voicetype-	13	r6	_	_
11	के	का	PSP	psp	lex-का|cat-psp|gen-m|num-sg|pers-|case-o|vib-|tam-|chunkId-NP5|chunkType-child|stype-|voicetype-	10	lwg__psp	_	_
12	धार्मिक	धार्मिक	JJ	adj	lex-धार्मिक|cat-adj|gen-any|num-any|pers-|case-o|vib-|tam-|chunkId-NP6|chunkType-child|stype-|voicetype-	13	nmod__adj	_	_
13	आतंकवाद	आतंकवाद	NN	n	lex-आतंकवाद|cat-n|gen-m|num-sg|pers-3|case-o|vib-0_का|tam-0|chunkId-NP6|chunkType-head|stype-|voicetype-	15	r6	_	_
14	के	का	PSP	psp	lex-का|cat-psp|gen-m|num-sg|pers-|case-o|vib-|tam-|chunkId-NP6|chunkType-child|stype-|voicetype-	13	lwg__psp	_	_
15	प्रसार	प्रसार	NN	n	lex-प्रसार|cat-n|gen-m|num-sg|pers-3|case-o|vib-0_का|tam-0|chunkId-NP7|chunkType-head|stype-|voicetype-	18	r6	_	_
16	के	का	PSP	psp	lex-का|cat-psp|gen-m|num-sg|pers-3h|case-d|vib-|tam-|chunkId-NP7|chunkType-child|stype-|voicetype-	15	lwg__psp	_	_
17	सख्त	सख्त	JJ	adj	lex-सख्त|cat-adj|gen-any|num-any|pers-|case-d|vib-|tam-|chunkId-NP8|chunkType-child|stype-|voicetype-	18	nmod__adj	_	_
18	विरोधी	विरोधी	NN	n	lex-विरोधी|cat-n|gen-m|num-sg|pers-3|case-d|vib-0|tam-0|chunkId-NP8|chunkType-head|stype-|voicetype-	19	k1s	_	_
19	हैं	है	VM	v	lex-है|cat-v|gen-any|num-sg|pers-3h|case-|vib-है|tam-hE|chunkId-VGF2|chunkType-head|stype-declarative|voicetype-active	5	ccof	_	_
20	।	।	SYM	punc	lex-।|cat-punc|gen-|num-|pers-|case-|vib-|tam-|chunkId-BLK|chunkType-head|stype-|voicetype-	4	rsym	_	_

