1	वर्ष	वर्ष	NN	n	lex-वर्ष|cat-n|gen-m|num-sg|pers-3|case-d|vib-0|tam-0|chunkId-NP|chunkType-child|stype-|voicetype-	2	nmod	_	_
2	२००४	२००४	NNP	n	lex-२००४|cat-n|gen-m|num-sg|pers-3|case-d|vib-0|tam-0|chunkId-NP|chunkType-child|stype-|voicetype-	4	nmod__adj	_	_
3	-	-	SYM	punc	lex--|cat-punc|gen-|num-|pers-|case-|vib-|tam-|chunkId-NP|chunkType-child|stype-|voicetype-	4	rsym	_	_
4	०५	०५	NNP	n	lex-०५|cat-n|gen-m|num-sg|pers-3|case-o|vib-0_के_लिए|tam-0|chunkId-NP|chunkType-head|stype-|voicetype-	22	rt	_	_
5	के	के	PSP	psp	lex-के|cat-psp|gen-|num-|pers-|case-|vib-|tam-|chunkId-NP|chunkType-child|stype-|voicetype-	4	lwg__psp	_	_
6	लिए	लिए	PSP	psp	lex-लिए|cat-psp|gen-|num-|pers-|case-|vib-|tam-|chunkId-NP|chunkType-child|stype-|voicetype-	4	lwg__psp	_	_
7	वार्षिक	वार्षिक	NNPC	n	lex-वार्षिक|cat-n|gen-m|num-sg|pers-3|case-d|vib-0|tam-0|chunkId-NP2|chunkType-child|stype-|voicetype-	9	pof__cn	_	_
8	सूचना	सूचना	NNPC	n	lex-सूचना|cat-n|gen-f|num-sg|pers-3|case-d|vib-0|tam-0|chunkId-NP2|chunkType-child|stype-|voicetype-	9	pof__cn	_	_
9	रिटर्न	रिटर्न	NNP	n	lex-रिटर्न|cat-n|gen-m|num-sg|pers-3|case-d|vib-0|tam-0|chunkId-NP2|chunkType-head|stype-|voicetype-	14	k2	_	_
10	(	(	SYM	punc	lex-(|cat-punc|gen-|num-|pers-|case-|vib-|tam-|chunkId-NP3|chunkType-child|stype-|voicetype-	11	rsym	_	_
11	एआईआर	एआईआर	NNP	n	lex-एआईआर|cat-n|gen-m|num-sg|pers-3|case-d|vib-0|tam-0|chunkId-NP3|chunkType-head|stype-|voicetype-	9	rs	_	_
12	)	)	SYM	punc	lex-)|cat-punc|gen-|num-|pers-|case-|vib-|tam-|chunkId-NP3|chunkType-child|stype-|voicetype-	11	rsym	_	_
13	फाइल	फाइल	UNK	unk	lex-फाइल|cat-unk|gen-|num-|pers-|case-|vib-|tam-|chunkId-BLK|chunkType-head|stype-|voicetype-	14	pof	_	_
14	करने	कर	VM	v	lex-कर|cat-v|gen-any|num-sg|pers-any|case-o|vib-ना_का|tam-nA|chunkId-VGNN|chunkType-head|stype-|voicetype-	17	r6	_	_
15	की	का	PSP	psp	lex-का|cat-psp|gen-f|num-sg|pers-|case-d|vib-|tam-|chunkId-VGNN|chunkType-child|stype-|voicetype-	14	lwg__psp	_	_
16	आखिरी	आखिरी	JJ	adj	lex-आखिरी|cat-adj|gen-any|num-any|pers-|case-d|vib-|tam-|chunkId-NP4|chunkType-child|stype-|voicetype-	17	nmod__adj	_	_
17	तिथि	तिथि	NN	n	lex-तिथि|cat-n|gen-f|num-sg|pers-3|case-d|vib-0|tam-0|chunkId-NP4|chunkType-head|stype-|voicetype-	22	k1	_	_
18	३१	३१	NNPC	n	lex-३१|cat-n|gen-any|num-sg|pers-3|case-d|vib-0|tam-0|chunkId-NP5|chunkType-child|stype-|voicetype-	21	pof__cn	_	_
19	अगस्त	अगस्त	NNPC	n	lex-अगस्त|cat-n|gen-m|num-sg|pers-3|case-d|vib-0|tam-0|chunkId-NP5|chunkType-child|stype-|voicetype-	21	pof__cn	_	_
20	,	COMMA	SYM	punc	lex-COMMA|cat-punc|gen-|num-|pers-|case-|vib-|tam-|chunkId-NP5|chunkType-child|stype-|voicetype-	21	rsym	_	_
21	२००५	२००५	NNP	n	lex-२००५|cat-n|gen-m|num-sg|pers-3|case-d|vib-0|tam-0|chunkId-NP5|chunkType-head|stype-|voicetype-	22	k1s	_	_
22	है	है	VM	v	lex-है|cat-v|gen-any|num-sg|pers-3|case-|vib-है|tam-hE|chunkId-VGF|chunkType-head|stype-declarative|voicetype-active	0	main	_	_
23	।	।	SYM	punc	lex-।|cat-punc|gen-|num-|pers-|case-|vib-|tam-|chunkId-BLK2|chunkType-head|stype-|voicetype-	22	rsym	_	_

1	यह	यह	DEM	pn	lex-यह|cat-pn|gen-any|num-sg|pers-3|case-d|vib-|tam-|chunkId-NP|chunkType-child|stype-|voicetype-	2	nmod__adj	_	_
2	रिटर्न	रिटर्न	NN	n	lex-रिटर्न|cat-n|gen-m|num-sg|pers-3|case-d|vib-0|tam-0|chunkId-NP|chunkType-head|stype-|voicetype-	8	k2	_	_
3	इलेक्ट्रानिक	इलेक्ट्रानिक	JJ	adj	lex-इलेक्ट्रानिक|cat-adj|gen-any|num-any|pers-|case-o|vib-|tam-|chunkId-NP2|chunkType-child|stype-|voicetype-	4	nmod__adj	_	_
4	फॉर्म	फॉर्म	NN	n	lex-फॉर्म|cat-n|gen-m|num-sg|pers-3|case-o|vib-0_के_जरिये|tam-0|chunkId-NP2|chunkType-head|stype-|voicetype-	8	k3	_	_
5	के	के	PSP	psp	lex-के|cat-psp|gen-|num-|pers-|case-|vib-|tam-|chunkId-NP2|chunkType-child|stype-|voicetype-	4	lwg__psp	_	_
6	जरिए	जरिये	PSP	psp	lex-जरिये|cat-psp|gen-|num-|pers-|case-|vib-|tam-|chunkId-NP2|chunkType-child|stype-|voicetype-	4	lwg__psp	_	_
7	दाखिल	दाखिल	JJ	adj	lex-दाखिल|cat-adj|gen-any|num-any|pers-|case-|vib-|tam-|chunkId-JJP|chunkType-head|stype-|voicetype-	8	pof	_	_
8	किया	कर	VM	v	lex-कर|cat-v|gen-any|num-sg|pers-3|case-|vib-या_जा+ना_है|tam-yA|chunkId-VGF|chunkType-head|stype-declarative|voicetype-passive	0	main	_	_
9	जाना	जा	VAUX	v	lex-जा|cat-v|gen-any|num-any|pers-any|case-|vib-ना|tam-nA|chunkId-VGF|chunkType-child|stype-|voicetype-	8	lwg__vaux	_	_
10	है	है	VAUX	v	lex-है|cat-v|gen-any|num-sg|pers-3|case-|vib-है|tam-hE|chunkId-VGF|chunkType-child|stype-|voicetype-	8	lwg__vaux	_	_
11	।	।	SYM	punc	lex-।|cat-punc|gen-|num-|pers-|case-|vib-|tam-|chunkId-BLK|chunkType-head|stype-|voicetype-	8	rsym	_	_

1	वित्त	वित्त	NNPC	n	lex-वित्त|cat-n|gen-m|num-sg|pers-3|case-d|vib-0|tam-0|chunkId-NP|chunkType-child|stype-|voicetype-	2	pof__cn	_	_
2	मंत्रालय	मंत्रालय	NNP	n	lex-मंत्रालय|cat-n|gen-m|num-sg|pers-3|case-o|vib-0_ने|tam-0|chunkId-NP|chunkType-head|stype-|voicetype-	10	k1	_	_
3	ने	ने	PSP	psp	lex-ने|cat-psp|gen-|num-|pers-|case-|vib-|tam-|chunkId-NP|chunkType-child|stype-|voicetype-	2	lwg__psp	_	_
4	इस	यह	DEM	pn	lex-यह|cat-pn|gen-any|num-sg|pers-3|case-o|vib-|tam-|chunkId-NP2|chunkType-child|stype-|voicetype-	5	nmod__adj	_	_
5	संबंध	संबंध	NN	n	lex-संबंध|cat-n|gen-m|num-sg|pers-3|case-o|vib-0_में|tam-0|chunkId-NP2|chunkType-head|stype-|voicetype-	10	k7	_	_
6	में	में	PSP	psp	lex-में|cat-psp|gen-|num-|pers-|case-|vib-|tam-|chunkId-NP2|chunkType-child|stype-|voicetype-	5	lwg__psp	_	_
7	तकनीकी	तकनीकी	JJ	adj	lex-तकनीकी|cat-adj|gen-any|num-any|pers-|case-d|vib-|tam-|chunkId-NP3|chunkType-child|stype-|voicetype-	8	nmod__adj	_	_
8	व्यवस्था	व्यवस्था	NN	n	lex-व्यवस्था|cat-n|gen-f|num-sg|pers-3|case-d|vib-0|tam-0|chunkId-NP3|chunkType-head|stype-|voicetype-	10	k2	_	_
9	पूरी	पूरा	JJ	adj	lex-पूरा|cat-adj|gen-f|num-sg|pers-|case-|vib-|tam-|chunkId-JJP|chunkType-head|stype-|voicetype-	10	pof	_	_
10	कर	कर	VM	v	lex-कर|cat-v|gen-f|num-sg|pers-3|case-|vib-0_ले+या_है|tam-0|chunkId-VGF|chunkType-head|stype-declarative|voicetype-active	0	main	_	_
11	ली	ले	VAUX	v	lex-ले|cat-v|gen-f|num-sg|pers-any|case-|vib-या|tam-yA|chunkId-VGF|chunkType-child|stype-|voicetype-	10	lwg__vaux	_	_
12	है	है	VAUX	v	lex-है|cat-v|gen-any|num-sg|pers-3|case-|vib-है|tam-hE|chunkId-VGF|chunkType-child|stype-|voicetype-	10	lwg__vaux	_	_
13	।	।	SYM	punc	lex-।|cat-punc|gen-|num-|pers-|case-|vib-|tam-|chunkId-BLK|chunkType-head|stype-|voicetype-	10	rsym	_	_

1	इस	यह	DEM	pn	lex-यह|cat-pn|gen-any|num-sg|pers-3|case-o|vib-|tam-|chunkId-NP|chunkType-child|stype-|voicetype-	2	nmod__adj	_	_
2	संबंध	संबंध	NN	n	lex-संबंध|cat-n|gen-m|num-sg|pers-3|case-o|vib-0_में|tam-0|chunkId-NP|chunkType-head|stype-|voicetype-	4	nmod	_	_
3	में	में	PSP	psp	lex-में|cat-psp|gen-|num-|pers-|case-|vib-|tam-|chunkId-NP|chunkType-child|stype-|voicetype-	2	lwg__psp	_	_
4	जानकारी	जानकारी	NN	n	lex-जानकारी|cat-n|gen-f|num-sg|pers-3|case-d|vib-0|tam-0|chunkId-NP2|chunkType-head|stype-|voicetype-	13	k1	_	_
5	आयकर	आयकर	NNPC	n	lex-आयकर|cat-n|gen-m|num-sg|pers-3|case-d|vib-0|tam-0|chunkId-NP3|chunkType-child|stype-|voicetype-	6	pof__cn	_	_
6	विभाग	विभाग	NNP	n	lex-विभाग|cat-n|gen-m|num-sg|pers-3|case-o|vib-0|tam-0|chunkId-NP3|chunkType-head|stype-|voicetype-	7	ccof	_	_
7	और	और	CC	avy	lex-और|cat-avy|gen-|num-|pers-|case-|vib-|tam-|chunkId-CCP|chunkType-head|stype-|voicetype-	10	r6	_	_
8	एनएसडीएल	एनएसडीएल	NNP	n	lex-एनएसडीएल|cat-n|gen-m|num-sg|pers-3|case-o|vib-0_का|tam-0|chunkId-NP4|chunkType-head|stype-|voicetype-	7	ccof	_	_
9	की	का	PSP	psp	lex-का|cat-psp|gen-f|num-sg|pers-|case-o|vib-|tam-|chunkId-NP4|chunkType-child|stype-|voicetype-	8	lwg__psp	_	_
10	वेबसाइट	वेबसाइट	NN	n	lex-वेबसाइट|cat-n|gen-f|num-sg|pers-3|case-o|vib-0_पर|tam-0|chunkId-NP5|chunkType-head|stype-|voicetype-	13	k7p	_	_
11	पर	पर	PSP	psp	lex-पर|cat-psp|gen-|num-|pers-|case-|vib-|tam-|chunkId-NP5|chunkType-child|stype-|voicetype-	10	lwg__psp	_	_
12	उपलब्ध	उपलब्ध	JJ	adj	lex-उपलब्ध|cat-adj|gen-any|num-any|pers-|case-|vib-|tam-|chunkId-JJP|chunkType-head|stype-|voicetype-	13	pof	_	_
13	है	है	VM	v	lex-है|cat-v|gen-any|num-sg|pers-3|case-|vib-है|tam-hE|chunkId-VGF|chunkType-head|stype-declarative|voicetype-active	0	main	_	_
14	।	।	SYM	punc	lex-।|cat-punc|gen-|num-|pers-|case-|vib-|tam-|chunkId-BLK|chunkType-head|stype-|voicetype-	13	rsym	_	_

1	वार्षिक	वार्षिक	NNPC	n	lex-वार्षिक|cat-n|gen-m|num-sg|pers-3|case-d|vib-0|tam-0|chunkId-NP|chunkType-child|stype-|voicetype-	3	pof__cn	_	_
2	सूचना	सूचना	NNPC	n	lex-सूचना|cat-n|gen-f|num-sg|pers-3|case-d|vib-0|tam-0|chunkId-NP|chunkType-child|stype-|voicetype-	3	pof__cn	_	_
3	रिटर्न	रिटर्न	NNP	n	lex-रिटर्न|cat-n|gen-m|num-sg|pers-3|case-o|vib-0_के_जरिये|tam-0|chunkId-NP|chunkType-head|stype-|voicetype-	23	k3	_	_
4	के	के	PSP	psp	lex-के|cat-psp|gen-|num-|pers-|case-|vib-|tam-|chunkId-NP|chunkType-child|stype-|voicetype-	3	lwg__psp	_	_
5	जरिए	जरिये	PSP	psp	lex-जरिये|cat-psp|gen-|num-|pers-|case-|vib-|tam-|chunkId-NP|chunkType-child|stype-|voicetype-	3	lwg__psp	_	_
6	करदाता	करदाता	NN	n	lex-करदाता|cat-n|gen-m|num-sg|pers-3|case-o|vib-0_को|tam-0|chunkId-NP2|chunkType-head|stype-|voicetype-	23	k4	_	_
7	को	को	PSP	psp	lex-को|cat-psp|gen-|num-|pers-|case-|vib-|tam-|chunkId-NP2|chunkType-child|stype-|voicetype-	6	lwg__psp	_	_
8	किसी	कोई	PRP	pn	lex-कोई|cat-pn|gen-any|num-sg|pers-3|case-o|vib-0|tam-0|chunkId-NP3|chunkType-child|stype-|voicetype-	10	nmod__adj	_	_
9	वित्त	वित्त	NNC	n	lex-वित्त|cat-n|gen-m|num-sg|pers-3|case-d|vib-0|tam-0|chunkId-NP3|chunkType-child|stype-|voicetype-	10	pof__cn	_	_
10	वर्ष	वर्ष	NN	n	lex-वर्ष|cat-n|gen-m|num-sg|pers-3|case-o|vib-0_के_दौरान|tam-0|chunkId-NP3|chunkType-head|stype-|voicetype-	23	k7t	_	_
11	के	के	PSP	psp	lex-के|cat-psp|gen-|num-|pers-|case-|vib-|tam-|chunkId-NP3|chunkType-child|stype-|voicetype-	10	lwg__psp	_	_
12	दौरान	दौरान	NST	nst	lex-दौरान|cat-nst|gen-m|num-sg|pers-3|case-d|vib-|tam-|chunkId-NP3|chunkType-child|stype-|voicetype-	10	lwg__psp	_	_
13	विभिन्न	विभिन्न	JJ	adj	lex-विभिन्न|cat-adj|gen-any|num-any|pers-|case-o|vib-|tam-|chunkId-NP4|chunkType-child|stype-|voicetype-	14	nmod__adj	_	_
14	उद्देश्यों	उद्देश्य	NN	n	lex-उद्देश्य|cat-n|gen-m|num-pl|pers-3|case-o|vib-0_के_लिए|tam-0|chunkId-NP4|chunkType-head|stype-|voicetype-	17	rt	_	_
15	के	के	PSP	psp	lex-के|cat-psp|gen-|num-|pers-|case-|vib-|tam-|chunkId-NP4|chunkType-child|stype-|voicetype-	14	lwg__psp	_	_
16	लिए	लिए	PSP	psp	lex-लिए|cat-psp|gen-|num-|pers-|case-|vib-|tam-|chunkId-NP4|chunkType-child|stype-|voicetype-	14	lwg__psp	_	_
17	किए	कर	VM	v	lex-कर|cat-v|gen-m|num-sg|pers-any|case-|vib-या_जा+या१|tam-yA|chunkId-VGNF|chunkType-head|stype-|voicetype-	20	nmod__k1inv	_	_
18	गए	जा	VAUX	v	lex-जा|cat-v|gen-m|num-sg|pers-any|case-|vib-या१|tam-yA1|chunkId-VGNF|chunkType-child|stype-|voicetype-	17	lwg__vaux	_	_
19	बड़े	बड़ा	JJ	adj	lex-बड़ा|cat-adj|gen-m|num-pl|pers-|case-o|vib-|tam-|chunkId-NP5|chunkType-child|stype-|voicetype-	20	nmod__adj	_	_
20	भुगतानों	भुगतान	NN	n	lex-भुगतान|cat-n|gen-m|num-pl|pers-3|case-o|vib-0_का|tam-0|chunkId-NP5|chunkType-head|stype-|voicetype-	22	r6-k2	_	_
21	की	का	PSP	psp	lex-का|cat-psp|gen-f|num-sg|pers-|case-d|vib-|tam-|chunkId-NP5|chunkType-child|stype-|voicetype-	20	lwg__psp	_	_
22	जानकारी	जानकारी	NN	n	lex-जानकारी|cat-n|gen-f|num-sg|pers-3|case-d|vib-0|tam-0|chunkId-NP6|chunkType-head|stype-|voicetype-	23	pof	_	_
23	देनी	दे	VM	v	lex-दे|cat-v|gen-f|num-sg|pers-3|case-|vib-ना_हो+गा|tam-nA|chunkId-VGF|chunkType-head|stype-declarative|voicetype-active	0	main	_	_
24	होगी	हो	VAUX	v	lex-हो|cat-v|gen-f|num-sg|pers-3|case-|vib-गा|tam-gA|chunkId-VGF|chunkType-child|stype-|voicetype-	23	lwg__vaux	_	_
25	।	।	SYM	punc	lex-।|cat-punc|gen-|num-|pers-|case-|vib-|tam-|chunkId-BLK|chunkType-head|stype-|voicetype-	23	rsym	_	_

1	करदाता	करदाता	NN	n	lex-करदाता|cat-n|gen-m|num-sg|pers-3|case-o|vib-0_को|tam-0|chunkId-NP|chunkType-head|stype-|voicetype-	111	k4	_	_
2	को	को	PSP	psp	lex-को|cat-psp|gen-|num-|pers-|case-|vib-|tam-|chunkId-NP|chunkType-child|stype-|voicetype-	1	lwg__psp	_	_
3	बचत	बचत	NN	n	lex-बचत|cat-n|gen-f|num-sg|pers-3|case-d|vib-0|tam-0|chunkId-NP2|chunkType-child|stype-|voicetype-	4	nmod	_	_
4	खाते	खाता	NN	n	lex-खाता|cat-n|gen-m|num-sg|pers-3|case-o|vib-0_में|tam-0|chunkId-NP2|chunkType-head|stype-|voicetype-	6	nmod	_	_
5	में	में	PSP	psp	lex-में|cat-psp|gen-|num-|pers-|case-|vib-|tam-|chunkId-NP2|chunkType-child|stype-|voicetype-	4	lwg__psp	_	_
6	जमा	जमा	NN	n	lex-जमा|cat-n|gen-f|num-sg|pers-3|case-d|vib-0|tam-0|chunkId-NP3|chunkType-head|stype-|voicetype-	7	nmod	_	_
7	10	10	QC	num	lex-10|cat-num|gen-any|num-any|pers-|case-any|vib-|tam-|chunkId-NP4|chunkType-head|stype-|voicetype-	9	ccof	_	_
8	लाख	लाख	QC	num	lex-लाख|cat-num|gen-any|num-any|pers-|case-any|vib-|tam-|chunkId-NP4|chunkType-child|stype-|voicetype-	7	mod	_	_
9	या	या	CC	avy	lex-या|cat-avy|gen-|num-|pers-|case-|vib-|tam-|chunkId-CCP|chunkType-head|stype-|voicetype-	94	ccof	_	_
10	उससे	वह	PRP	pn	lex-वह|cat-pn|gen-any|num-sg|pers-3|case-o|vib-से|tam-se|chunkId-NP5|chunkType-head|stype-|voicetype-	11	nmod	_	_
11	अधिक	अधिक	NN	n	lex-अधिक|cat-n|gen-m|num-sg|pers-3|case-o|vib-0_का|tam-0|chunkId-NP6|chunkType-head|stype-|voicetype-	13	r6	_	_
12	की	का	PSP	psp	lex-का|cat-psp|gen-f|num-sg|pers-|case-o|vib-|tam-|chunkId-NP6|chunkType-child|stype-|voicetype-	11	lwg__psp	_	_
13	रकम	रकम	NN	n	lex-रकम|cat-n|gen-f|num-sg|pers-3|case-o|vib-0_का|tam-0|chunkId-NP7|chunkType-head|stype-|voicetype-	15	r6	_	_
14	की	का	PSP	psp	lex-का|cat-psp|gen-f|num-sg|pers-|case-d|vib-|tam-|chunkId-NP7|chunkType-child|stype-|voicetype-	13	lwg__psp	_	_
15	जानकारी	जानकारी	NN	n	lex-जानकारी|cat-n|gen-f|num-sg|pers-3|case-d|vib-0|tam-0|chunkId-NP8|chunkType-head|stype-|voicetype-	9	ccof	_	_
16	,	COMMA	SYM	punc	lex-COMMA|cat-punc|gen-|num-|pers-|case-|vib-|tam-|chunkId-NP8|chunkType-child|stype-|voicetype-	15	rsym	_	_
17	क्रेडिट	क्रेडिट	NNC	n	lex-क्रेडिट|cat-n|gen-m|num-sg|pers-3|case-d|vib-0|tam-0|chunkId-NP9|chunkType-child|stype-|voicetype-	19	pof__cn	_	_
18	कार्ड	कार्ड	NNC	n	lex-कार्ड|cat-n|gen-m|num-sg|pers-3|case-d|vib-0|tam-0|chunkId-NP9|chunkType-child|stype-|voicetype-	19	pof__cn	_	_
19	कंपनी	कंपनी	NN	n	lex-कंपनी|cat-n|gen-f|num-sg|pers-3|case-o|vib-0_को|tam-0|chunkId-NP9|chunkType-head|stype-|voicetype-	23	nmod	_	_
20	को	को	PSP	psp	lex-को|cat-psp|gen-|num-|pers-|case-|vib-|tam-|chunkId-NP9|chunkType-child|stype-|voicetype-	19	lwg__psp	_	_
21	दो	दो	QC	num	lex-दो|cat-num|gen-any|num-any|pers-|case-any|vib-|tam-|chunkId-NP10|chunkType-child|stype-|voicetype-	23	nmod__adj	_	_
22	लाख	लाख	QC	num	lex-लाख|cat-num|gen-any|num-any|pers-|case-any|vib-|tam-|chunkId-NP10|chunkType-child|stype-|voicetype-	23	nmod__adj	_	_
23	रुपये	रुपया	NN	n	lex-रुपया|cat-n|gen-m|num-sg|pers-3|case-o|vib-0|tam-0|chunkId-NP10|chunkType-head|stype-|voicetype-	24	ccof	_	_
24	या	या	CC	avy	lex-या|cat-avy|gen-|num-|pers-|case-|vib-|tam-|chunkId-CCP2|chunkType-head|stype-|voicetype-	94	ccof	_	_
25	उससे	वह	PRP	pn	lex-वह|cat-pn|gen-any|num-sg|pers-3|case-o|vib-से|tam-se|chunkId-NP11|chunkType-head|stype-|voicetype-	26	nmod	_	_
26	अधिक	अधिक	NN	n	lex-अधिक|cat-n|gen-m|num-sg|pers-3|case-o|vib-0_का|tam-0|chunkId-NP12|chunkType-head|stype-|voicetype-	28	r6	_	_
27	के	का	PSP	psp	lex-का|cat-psp|gen-m|num-sg|pers-|case-o|vib-|tam-|chunkId-NP12|chunkType-child|stype-|voicetype-	26	lwg__psp	_	_
28	भुगतान	भुगतान	NN	n	lex-भुगतान|cat-n|gen-m|num-sg|pers-3|case-o|vib-0_का|tam-0|chunkId-NP13|chunkType-head|stype-|voicetype-	30	r6	_	_
29	की	का	PSP	psp	lex-का|cat-psp|gen-f|num-sg|pers-|case-d|vib-|tam-|chunkId-NP13|chunkType-child|stype-|voicetype-	28	lwg__psp	_	_
30	जानकारी	जानकारी	NN	n	lex-जानकारी|cat-n|gen-f|num-sg|pers-3|case-d|vib-0|tam-0|chunkId-NP14|chunkType-head|stype-|voicetype-	24	ccof	_	_
31	,	COMMA	SYM	punc	lex-COMMA|cat-punc|gen-|num-|pers-|case-|vib-|tam-|chunkId-NP14|chunkType-child|stype-|voicetype-	30	rsym	_	_
32	दो	दो	QC	num	lex-दो|cat-num|gen-any|num-any|pers-|case-any|vib-|tam-|chunkId-NP15|chunkType-child|stype-|voicetype-	34	nmod__adj	_	_
33	लाख	लाख	QC	num	lex-लाख|cat-num|gen-any|num-any|pers-|case-any|vib-|tam-|chunkId-NP15|chunkType-child|stype-|voicetype-	34	nmod__adj	_	_
34	रुपये	रुपया	NN	n	lex-रुपया|cat-n|gen-m|num-sg|pers-3|case-o|vib-0|tam-0|chunkId-NP15|chunkType-head|stype-|voicetype-	35	ccof	_	_
35	या	या	CC	avy	lex-या|cat-avy|gen-|num-|pers-|case-|vib-|tam-|chunkId-CCP3|chunkType-head|stype-|voicetype-	94	ccof	_	_
36	उससे	वह	PRP	pn	lex-वह|cat-pn|gen-any|num-sg|pers-3|case-o|vib-से|tam-se|chunkId-NP16|chunkType-head|stype-|voicetype-	37	nmod	_	_
37	अधिक	अधिक	NN	n	lex-अधिक|cat-n|gen-m|num-sg|pers-3|case-o|vib-0_का|tam-0|chunkId-NP17|chunkType-head|stype-|voicetype-	41	r6	_	_
38	की	का	PSP	psp	lex-का|cat-psp|gen-f|num-sg|pers-|case-o|vib-|tam-|chunkId-NP17|chunkType-child|stype-|voicetype-	37	lwg__psp	_	_
39	म्यूचुअल	म्यूचुअल	NNC	adj	lex-म्यूचुअल|cat-adj|gen-any|num-any|pers-|case-o|vib-|tam-|chunkId-NP18|chunkType-child|stype-|voicetype-	41	pof__cn	_	_
40	फंड	फंड	NNC	n	lex-फंड|cat-n|gen-m|num-sg|pers-3|case-d|vib-0|tam-0|chunkId-NP18|chunkType-child|stype-|voicetype-	41	pof__cn	_	_
41	यूनिटों	यूनिट	NN	n	lex-यूनिट|cat-n|gen-m|num-pl|pers-3|case-o|vib-0_का|tam-0|chunkId-NP18|chunkType-head|stype-|voicetype-	43	r6	_	_
42	की	का	PSP	psp	lex-का|cat-psp|gen-f|num-sg|pers-|case-o|vib-|tam-|chunkId-NP18|chunkType-child|stype-|voicetype-	41	lwg__psp	_	_
43	खरीद	खरीद	NN	n	lex-खरीद|cat-n|gen-f|num-sg|pers-3|case-o|vib-0_का|tam-0|chunkId-NP19|chunkType-head|stype-|voicetype-	45	r6	_	_
44	की	का	PSP	psp	lex-का|cat-psp|gen-f|num-sg|pers-|case-d|vib-|tam-|chunkId-NP19|chunkType-child|stype-|voicetype-	43	lwg__psp	_	_
45	जानकारी	जानकारी	NN	n	lex-जानकारी|cat-n|gen-f|num-sg|pers-3|case-d|vib-0|tam-0|chunkId-NP20|chunkType-head|stype-|voicetype-	35	ccof	_	_
46	,	COMMA	SYM	punc	lex-COMMA|cat-punc|gen-|num-|pers-|case-|vib-|tam-|chunkId-NP20|chunkType-child|stype-|voicetype-	45	rsym	_	_
47	किसी	कोई	PRP	pn	lex-कोई|cat-pn|gen-any|num-sg|pers-3|case-o|vib-0|tam-0|chunkId-NP21|chunkType-child|stype-|voicetype-	48	nmod__adj	_	_
48	कंपनी	कंपनी	NN	n	lex-कंपनी|cat-n|gen-f|num-sg|pers-3|case-o|vib-0_का|tam-0|chunkId-NP21|chunkType-head|stype-|voicetype-	50	r6	_	_
49	के	का	PSP	psp	lex-का|cat-psp|gen-m|num-sg|pers-|case-o|vib-|tam-|chunkId-NP21|chunkType-child|stype-|voicetype-	48	lwg__psp	_	_
50	बॉन्ड	बॉन्ड	NN	n	lex-बॉन्ड|cat-n|gen-m|num-sg|pers-3|case-o|vib-0|tam-0|chunkId-NP22|chunkType-head|stype-|voicetype-	51	ccof	_	_
51	या	या	CC	avy	lex-या|cat-avy|gen-|num-|pers-|case-|vib-|tam-|chunkId-CCP4|chunkType-head|stype-|voicetype-	94	ccof	_	_
52	डिबेंचर	डिबेंचर	NN	n	lex-डिबेंचर|cat-n|gen-m|num-sg|pers-3|case-o|vib-0_का|tam-0|chunkId-NP23|chunkType-head|stype-|voicetype-	54	nmod	_	_
53	की	का	PSP	psp	lex-का|cat-psp|gen-f|num-sg|pers-|case-o|vib-|tam-|chunkId-NP23|chunkType-child|stype-|voicetype-	52	lwg__psp	_	_
54	खरीद	खरीद	NN	n	lex-खरीद|cat-n|gen-f|num-sg|pers-3|case-o|vib-0_पर|tam-0|chunkId-NP24|chunkType-head|stype-|voicetype-	58	nmod	_	_
55	पर	पर	PSP	psp	lex-पर|cat-psp|gen-|num-|pers-|case-|vib-|tam-|chunkId-NP24|chunkType-child|stype-|voicetype-	54	lwg__psp	_	_
56	5	5	QC	num	lex-5|cat-num|gen-any|num-any|pers-|case-any|vib-|tam-|chunkId-NP25|chunkType-child|stype-|voicetype-	58	nmod__adj	_	_
57	लाख	लाख	QC	num	lex-लाख|cat-num|gen-any|num-any|pers-|case-any|vib-|tam-|chunkId-NP25|chunkType-child|stype-|voicetype-	58	nmod__adj	_	_
58	रुपए	रुपया	NN	n	lex-रुपया|cat-n|gen-m|num-sg|pers-3|case-o|vib-0|tam-0|chunkId-NP25|chunkType-head|stype-|voicetype-	59	ccof	_	_
59	या	या	CC	avy	lex-या|cat-avy|gen-|num-|pers-|case-|vib-|tam-|chunkId-CCP5|chunkType-head|stype-|voicetype-	51	ccof	_	_
60	उससे	वह	PRP	pn	lex-वह|cat-pn|gen-any|num-sg|pers-3|case-o|vib-से|tam-se|chunkId-NP26|chunkType-head|stype-|voicetype-	61	nmod	_	_
61	अधिक	अधिक	NN	n	lex-अधिक|cat-n|gen-m|num-sg|pers-3|case-o|vib-0_का|tam-0|chunkId-NP27|chunkType-head|stype-|voicetype-	63	r6	_	_
62	के	का	PSP	psp	lex-का|cat-psp|gen-m|num-sg|pers-|case-o|vib-|tam-|chunkId-NP27|chunkType-child|stype-|voicetype-	61	lwg__psp	_	_
63	भुगतान	भुगतान	NN	n	lex-भुगतान|cat-n|gen-m|num-sg|pers-3|case-o|vib-0_का|tam-0|chunkId-NP28|chunkType-head|stype-|voicetype-	65	r6	_	_
64	की	का	PSP	psp	lex-का|cat-psp|gen-f|num-sg|pers-|case-d|vib-|tam-|chunkId-NP28|chunkType-child|stype-|voicetype-	63	lwg__psp	_	_
65	जानकारी	जानकारी	NN	n	lex-जानकारी|cat-n|gen-f|num-sg|pers-3|case-d|vib-0|tam-0|chunkId-NP29|chunkType-head|stype-|voicetype-	59	ccof	_	_
66	,	COMMA	SYM	punc	lex-COMMA|cat-punc|gen-|num-|pers-|case-|vib-|tam-|chunkId-NP29|chunkType-child|stype-|voicetype-	65	rsym	_	_
67	किसी	कोई	PRP	pn	lex-कोई|cat-pn|gen-any|num-sg|pers-3|case-o|vib-0|tam-0|chunkId-NP30|chunkType-child|stype-|voicetype-	68	nmod__adj	_	_
68	कंपनी	कंपनी	NN	n	lex-कंपनी|cat-n|gen-f|num-sg|pers-3|case-o|vib-0_का|tam-0|chunkId-NP30|chunkType-head|stype-|voicetype-	70	r6	_	_
69	के	का	PSP	psp	lex-का|cat-psp|gen-m|num-sg|pers-|case-o|vib-|tam-|chunkId-NP30|chunkType-child|stype-|voicetype-	68	lwg__psp	_	_
70	आईपीओ	आईपीओ	NNP	n	lex-आईपीओ|cat-n|gen-m|num-sg|pers-3|case-o|vib-0_में|tam-0|chunkId-NP31|chunkType-head|stype-|voicetype-	74	nmod	_	_
71	में	में	PSP	psp	lex-में|cat-psp|gen-|num-|pers-|case-|vib-|tam-|chunkId-NP31|chunkType-child|stype-|voicetype-	70	lwg__psp	_	_
72	एक	एक	QC	num	lex-एक|cat-num|gen-any|num-any|pers-|case-any|vib-|tam-|chunkId-NP32|chunkType-child|stype-|voicetype-	74	nmod__adj	_	_
73	लाख	लाख	QC	num	lex-लाख|cat-num|gen-any|num-any|pers-|case-any|vib-|tam-|chunkId-NP32|chunkType-child|stype-|voicetype-	74	nmod__adj	_	_
74	रुपए	रुपया	NN	n	lex-रुपया|cat-n|gen-m|num-sg|pers-3|case-o|vib-0|tam-0|chunkId-NP32|chunkType-head|stype-|voicetype-	75	ccof	_	_
75	या	या	CC	avy	lex-या|cat-avy|gen-|num-|pers-|case-|vib-|tam-|chunkId-CCP6|chunkType-head|stype-|voicetype-	94	ccof	_	_
76	उससे	वह	PRP	pn	lex-वह|cat-pn|gen-any|num-sg|pers-3|case-o|vib-से|tam-se|chunkId-NP33|chunkType-head|stype-|voicetype-	77	nmod	_	_
77	अधिक	अधिक	NN	n	lex-अधिक|cat-n|gen-m|num-sg|pers-3|case-o|vib-0_का|tam-0|chunkId-NP34|chunkType-head|stype-|voicetype-	79	r6	_	_
78	के	का	PSP	psp	lex-का|cat-psp|gen-m|num-sg|pers-|case-o|vib-|tam-|chunkId-NP34|chunkType-child|stype-|voicetype-	77	lwg__psp	_	_
79	निवेश	निवेश	NN	n	lex-निवेश|cat-n|gen-m|num-sg|pers-3|case-o|vib-0|tam-0|chunkId-NP35|chunkType-head|stype-|voicetype-	75	ccof	_	_
80	,	COMMA	SYM	punc	lex-COMMA|cat-punc|gen-|num-|pers-|case-|vib-|tam-|chunkId-NP35|chunkType-child|stype-|voicetype-	79	rsym	_	_
81	तीस	तीस	QC	num	lex-तीस|cat-num|gen-any|num-any|pers-|case-any|vib-|tam-|chunkId-NP36|chunkType-child|stype-|voicetype-	83	nmod__adj	_	_
82	लाख	लाख	QC	num	lex-लाख|cat-num|gen-any|num-any|pers-|case-any|vib-|tam-|chunkId-NP36|chunkType-child|stype-|voicetype-	83	nmod__adj	_	_
83	रुपए	रुपया	NN	n	lex-रुपया|cat-n|gen-m|num-sg|pers-3|case-o|vib-0|tam-0|chunkId-NP36|chunkType-head|stype-|voicetype-	84	ccof	_	_
84	या	या	CC	avy	lex-या|cat-avy|gen-|num-|pers-|case-|vib-|tam-|chunkId-CCP7|chunkType-head|stype-|voicetype-	94	ccof	_	_
85	उससे	वह	PRP	pn	lex-वह|cat-pn|gen-any|num-sg|pers-3|case-o|vib-से|tam-se|chunkId-NP37|chunkType-head|stype-|voicetype-	86	nmod	_	_
86	अधिक	अधिक	NN	n	lex-अधिक|cat-n|gen-m|num-sg|pers-3|case-o|vib-0_का|tam-0|chunkId-NP38|chunkType-head|stype-|voicetype-	89	r6	_	_
87	की	का	PSP	psp	lex-का|cat-psp|gen-f|num-sg|pers-|case-o|vib-|tam-|chunkId-NP38|chunkType-child|stype-|voicetype-	86	lwg__psp	_	_
88	अचल	अचल	JJ	adj	lex-अचल|cat-adj|gen-any|num-any|pers-|case-o|vib-|tam-|chunkId-NP39|chunkType-child|stype-|voicetype-	89	nmod__adj	_	_
89	संपत्ति	संपत्ति	NN	n	lex-संपत्ति|cat-n|gen-f|num-sg|pers-3|case-o|vib-0_का|tam-0|chunkId-NP39|chunkType-head|stype-|voicetype-	93	r6	_	_
90	की	का	PSP	psp	lex-का|cat-psp|gen-f|num-sg|pers-|case-d|vib-|tam-|chunkId-NP39|chunkType-child|stype-|voicetype-	89	lwg__psp	_	_
91	खरीद	खरीद	NNC	n	lex-खरीद|cat-n|gen-f|num-sg|pers-3|case-d|vib-0|tam-0|chunkId-NP40|chunkType-child|stype-|voicetype-	93	pof__cn	_	_
92	-	-	SYM	punc	lex--|cat-punc|gen-|num-|pers-|case-|vib-|tam-|chunkId-NP40|chunkType-child|stype-|voicetype-	93	pof__cn	_	_
93	बिक्री	बिक्री	NN	n	lex-बिक्री|cat-n|gen-f|num-sg|pers-3|case-d|vib-0|tam-0|chunkId-NP40|chunkType-head|stype-|voicetype-	84	ccof	_	_
94	और	और	CC	avy	lex-और|cat-avy|gen-|num-|pers-|case-|vib-|tam-|chunkId-CCP8|chunkType-head|stype-|voicetype-	111	k2	_	_
95	5	5	QC	num	lex-5|cat-num|gen-any|num-any|pers-|case-any|vib-|tam-|chunkId-NP41|chunkType-head|stype-|voicetype-	97	ccof	_	_
96	लाख	लाख	QC	num	lex-लाख|cat-num|gen-any|num-any|pers-|case-any|vib-|tam-|chunkId-NP41|chunkType-child|stype-|voicetype-	95	mod	_	_
97	या	या	CC	avy	lex-या|cat-avy|gen-|num-|pers-|case-|vib-|tam-|chunkId-CCP9|chunkType-head|stype-|voicetype-	94	ccof	_	_
98	उससे	वह	PRP	pn	lex-वह|cat-pn|gen-any|num-sg|pers-3|case-o|vib-से|tam-se|chunkId-NP42|chunkType-head|stype-|voicetype-	99	nmod	_	_
99	अधिक	अधिक	NN	n	lex-अधिक|cat-n|gen-m|num-sg|pers-3|case-o|vib-0_का|tam-0|chunkId-NP43|chunkType-head|stype-|voicetype-	103	r6	_	_
100	के	का	PSP	psp	lex-का|cat-psp|gen-m|num-sg|pers-|case-o|vib-|tam-|chunkId-NP43|chunkType-child|stype-|voicetype-	99	lwg__psp	_	_
101	आरबीआई	आरबीआई	NNP	n	lex-आरबीआई|cat-n|gen-m|num-sg|pers-3|case-d|vib-0|tam-0|chunkId-NP44|chunkType-child|stype-|voicetype-	103	nmod__adj	_	_
102	रिलीफ	रिलीफ	NNC	n	lex-रिलीफ|cat-n|gen-m|num-sg|pers-3|case-d|vib-0|tam-0|chunkId-NP44|chunkType-child|stype-|voicetype-	103	pof__cn	_	_
103	बॉन्ड	बॉन्ड	NN	n	lex-बॉन्ड|cat-n|gen-m|num-sg|pers-3|case-o|vib-0_का|tam-0|chunkId-NP44|chunkType-head|stype-|voicetype-	105	r6	_	_
104	की	का	PSP	psp	lex-का|cat-psp|gen-f|num-sg|pers-|case-o|vib-|tam-|chunkId-NP44|chunkType-child|stype-|voicetype-	103	lwg__psp	_	_
105	खरीद	खरीद	NN	n	lex-खरीद|cat-n|gen-f|num-sg|pers-3|case-o|vib-0_का|tam-0|chunkId-NP45|chunkType-head|stype-|voicetype-	107	r6	_	_
106	की	का	PSP	psp	lex-का|cat-psp|gen-f|num-pl|pers-|case-d|vib-|tam-|chunkId-NP45|chunkType-child|stype-|voicetype-	105	lwg__psp	_	_
107	जानकारियां	जानकारी	NN	n	lex-जानकारी|cat-n|gen-f|num-pl|pers-3|case-d|vib-0|tam-0|chunkId-NP46|chunkType-head|stype-|voicetype-	97	ccof	_	_
108	एआईआर	एआईआर	NNP	n	lex-एआईआर|cat-n|gen-m|num-sg|pers-3|case-o|vib-0_के_जरिये|tam-0|chunkId-NP47|chunkType-head|stype-|voicetype-	111	k3	_	_
109	के	के	PSP	psp	lex-के|cat-psp|gen-|num-|pers-|case-|vib-|tam-|chunkId-NP47|chunkType-child|stype-|voicetype-	108	lwg__psp	_	_
110	जरिए	जरिये	PSP	psp	lex-जरिये|cat-psp|gen-|num-|pers-|case-|vib-|tam-|chunkId-NP47|chunkType-child|stype-|voicetype-	108	lwg__psp	_	_
111	देनी	दे	VM	v	lex-दे|cat-v|gen-f|num-sg|pers-3|case-|vib-ना_हो+गा|tam-nA|chunkId-VGF|chunkType-head|stype-imperative|voicetype-active	0	main	_	_
112	होगी	हो	VAUX	v	lex-हो|cat-v|gen-f|num-sg|pers-3|case-|vib-गा|tam-gA|chunkId-VGF|chunkType-child|stype-|voicetype-	111	lwg__vaux	_	_
113	।	।	SYM	punc	lex-।|cat-punc|gen-|num-|pers-|case-|vib-|tam-|chunkId-BLK|chunkType-head|stype-|voicetype-	111	rsym	_	_

1	NULL	_	NN	_	lex-_|cat-_|gen-|num-|pers-|case-|vib-|tam-|chunkId-NULL__NP|chunkType-head|stype-|voicetype-	3	k1	_	_
2	उल्लेखनीय	उल्लेखनीय	JJ	adj	lex-उल्लेखनीय|cat-adj|gen-any|num-any|pers-|case-|vib-|tam-|chunkId-JJP|chunkType-head|stype-|voicetype-	3	k1s	_	_
3	है	है	VM	v	lex-है|cat-v|gen-any|num-sg|pers-3|case-|vib-है|tam-hE|chunkId-VGF|chunkType-head|stype-declarative|voicetype-active	0	main	_	_
4	कि	कि	CC	avy	lex-कि|cat-avy|gen-|num-|pers-|case-|vib-|tam-|chunkId-CCP|chunkType-head|stype-|voicetype-	1	rs	_	_
5	वित्त	वित्त	NNPC	n	lex-वित्त|cat-n|gen-m|num-sg|pers-3|case-d|vib-0|tam-0|chunkId-NP|chunkType-child|stype-|voicetype-	7	pof__cn	_	_
6	अधिनियिम	अधिनियिम	NNPC	n	lex-अधिनियिम|cat-n|gen-m|num-sg|pers-3|case-d|vib-0|tam-0|chunkId-NP|chunkType-child|stype-|voicetype-	7	pof__cn	_	_
7	२००४	२००४	NNP	n	lex-२००४|cat-n|gen-m|num-sg|pers-3|case-o|vib-0_के_जरिये|tam-0|chunkId-NP|chunkType-head|stype-|voicetype-	21	k3	_	_
8	के	के	PSP	psp	lex-के|cat-psp|gen-|num-|pers-|case-|vib-|tam-|chunkId-NP|chunkType-child|stype-|voicetype-	7	lwg__psp	_	_
9	जरिए	जरिये	PSP	psp	lex-जरिये|cat-psp|gen-|num-|pers-|case-|vib-|tam-|chunkId-NP|chunkType-child|stype-|voicetype-	7	lwg__psp	_	_
10	आयकर	आयकर	NNPC	n	lex-आयकर|cat-n|gen-m|num-sg|pers-3|case-d|vib-0|tam-0|chunkId-NP2|chunkType-child|stype-|voicetype-	12	pof__cn	_	_
11	अधिनियिम	अधिनियिम	NNPC	n	lex-अधिनियिम|cat-n|gen-m|num-sg|pers-3|case-d|vib-0|tam-0|chunkId-NP2|chunkType-child|stype-|voicetype-	12	pof__cn	_	_
12	१९६१	१९६१	NNP	n	lex-१९६१|cat-n|gen-m|num-sg|pers-3|case-o|vib-0_में|tam-0|chunkId-NP2|chunkType-head|stype-|voicetype-	21	k7	_	_
13	में	में	PSP	psp	lex-में|cat-psp|gen-|num-|pers-|case-|vib-|tam-|chunkId-NP2|chunkType-child|stype-|voicetype-	12	lwg__psp	_	_
14	एक	एक	QC	num	lex-एक|cat-num|gen-any|num-any|pers-|case-any|vib-|tam-|chunkId-NP3|chunkType-child|stype-|voicetype-	16	nmod__adj	_	_
15	नई	नया	JJ	adj	lex-नया|cat-adj|gen-f|num-sg|pers-|case-d|vib-|tam-|chunkId-NP3|chunkType-child|stype-|voicetype-	16	nmod__adj	_	_
16	धारा	धारा	NN	n	lex-धारा|cat-n|gen-f|num-sg|pers-3|case-d|vib-0|tam-0|chunkId-NP3|chunkType-head|stype-|voicetype-	18	nmod	_	_
17	२८५	२८५	NNPC	n	lex-२८५|cat-n|gen-m|num-sg|pers-3|case-d|vib-0|tam-0|chunkId-NP4|chunkType-child|stype-|voicetype-	18	pof__cn	_	_
18	बीए	बीए	NNP	n	lex-बीए|cat-n|gen-m|num-sg|pers-3|case-o|vib-0_का|tam-0|chunkId-NP4|chunkType-head|stype-|voicetype-	20	r6-k2	_	_
19	का	का	PSP	psp	lex-का|cat-psp|gen-m|num-sg|pers-|case-d|vib-|tam-|chunkId-NP4|chunkType-child|stype-|voicetype-	18	lwg__psp	_	_
20	समावेश	समावेश	NN	n	lex-समावेश|cat-n|gen-m|num-sg|pers-3|case-d|vib-0|tam-0|chunkId-NP5|chunkType-head|stype-|voicetype-	21	pof	_	_
21	किया	कर	VM	v	lex-कर|cat-v|gen-m|num-sg|pers-any|case-|vib-या_जा+या१_था|tam-yA|chunkId-VGF2|chunkType-head|stype-declarative|voicetype-passive	4	ccof	_	_
22	गया	जा	VAUX	v	lex-जा|cat-v|gen-m|num-sg|pers-any|case-|vib-या१|tam-yA1|chunkId-VGF2|chunkType-child|stype-|voicetype-	21	lwg__vaux	_	_
23	था	था	VAUX	v	lex-था|cat-v|gen-m|num-sg|pers-any|case-|vib-था|tam-WA|chunkId-VGF2|chunkType-child|stype-|voicetype-	21	lwg__vaux	_	_
24	।	।	SYM	punc	lex-।|cat-punc|gen-|num-|pers-|case-|vib-|tam-|chunkId-BLK|chunkType-head|stype-|voicetype-	3	rsym	_	_

1	इस	यह	DEM	pn	lex-यह|cat-pn|gen-any|num-sg|pers-3|case-o|vib-|tam-|chunkId-NP|chunkType-child|stype-|voicetype-	2	nmod__adj	_	_
2	धारा	धारा	NN	n	lex-धारा|cat-n|gen-f|num-sg|pers-3|case-o|vib-0_के_मुताबिक|tam-0|chunkId-NP|chunkType-head|stype-|voicetype-	19	k7a	_	_
3	के	के	PSP	psp	lex-के|cat-psp|gen-|num-|pers-|case-|vib-|tam-|chunkId-NP|chunkType-child|stype-|voicetype-	2	lwg__psp	_	_
4	मुताबिक	मुताबिक	PSP	psp	lex-मुताबिक|cat-psp|gen-|num-|pers-|case-|vib-|tam-|chunkId-NP|chunkType-child|stype-|voicetype-	2	lwg__psp	_	_
5	निर्दिष्ट	निर्दिष्ट	JJ	adj	lex-निर्दिष्ट|cat-adj|gen-any|num-any|pers-|case-d|vib-|tam-|chunkId-NP2|chunkType-child|stype-|voicetype-	6	nmod__adj	_	_
6	एजेंसियां	एजेंसी	NN	n	lex-एजेंसी|cat-n|gen-f|num-pl|pers-3|case-d|vib-0|tam-0|chunkId-NP2|chunkType-head|stype-|voicetype-	19	k1	_	_
7	नियमित	नियमित	JJ	adj	lex-नियमित|cat-adj|gen-any|num-any|pers-|case-o|vib-|tam-|chunkId-NP3|chunkType-child|stype-|voicetype-	8	nmod__adj	_	_
8	अंतराल	अंतराल	NN	n	lex-अंतराल|cat-n|gen-m|num-sg|pers-3|case-o|vib-0_पर|tam-0|chunkId-NP3|chunkType-head|stype-|voicetype-	19	k7t	_	_
9	पर	पर	PSP	psp	lex-पर|cat-psp|gen-|num-|pers-|case-|vib-|tam-|chunkId-NP3|chunkType-child|stype-|voicetype-	8	lwg__psp	_	_
10	उच्च	उच्च	JJ	adj	lex-उच्च|cat-adj|gen-any|num-any|pers-|case-o|vib-|tam-|chunkId-NP4|chunkType-child|stype-|voicetype-	11	nmod__adj	_	_
11	मूल्य	मूल्य	NN	n	lex-मूल्य|cat-n|gen-m|num-sg|pers-3|case-o|vib-0_वाला|tam-0|chunkId-NP4|chunkType-head|stype-|voicetype-	14	nmod	_	_
12	वाले	वाला	PSP	psp	lex-वाला|cat-psp|gen-m|num-sg|pers-|case-o|vib-|tam-|chunkId-NP4|chunkType-child|stype-|voicetype-	11	lwg__psp	_	_
13	वित्तीय	वित्तीय	JJ	adj	lex-वित्तीय|cat-adj|gen-any|num-any|pers-|case-o|vib-|tam-|chunkId-NP5|chunkType-child|stype-|voicetype-	14	nmod__adj	_	_
14	कारोबार	कारोबार	NN	n	lex-कारोबार|cat-n|gen-m|num-sg|pers-3|case-o|vib-0_का|tam-0|chunkId-NP5|chunkType-head|stype-|voicetype-	16	r6	_	_
15	की	का	PSP	psp	lex-का|cat-psp|gen-f|num-sg|pers-|case-d|vib-|tam-|chunkId-NP5|chunkType-child|stype-|voicetype-	14	lwg__psp	_	_
16	सूचना	सूचना	NN	n	lex-सूचना|cat-n|gen-f|num-sg|pers-3|case-d|vib-0|tam-0|chunkId-NP6|chunkType-head|stype-|voicetype-	19	k2	_	_
17	सरकार	सरकार	NN	n	lex-सरकार|cat-n|gen-f|num-sg|pers-3|case-o|vib-0_को|tam-0|chunkId-NP7|chunkType-head|stype-|voicetype-	19	k4	_	_
18	को	को	PSP	psp	lex-को|cat-psp|gen-|num-|pers-|case-|vib-|tam-|chunkId-NP7|chunkType-child|stype-|voicetype-	17	lwg__psp	_	_
19	देंगी	दे	VM	v	lex-दे|cat-v|gen-f|num-pl|pers-3|case-|vib-गा|tam-gA|chunkId-VGF|chunkType-head|stype-declarative|voicetype-active	0	main	_	_
20	।	।	SYM	punc	lex-।|cat-punc|gen-|num-|pers-|case-|vib-|tam-|chunkId-BLK|chunkType-head|stype-|voicetype-	19	rsym	_	_

1	यह	यह	DEM	pn	lex-यह|cat-pn|gen-any|num-sg|pers-3|case-d|vib-|tam-|chunkId-NP|chunkType-child|stype-|voicetype-	2	nmod__adj	_	_
2	सूचना	सूचना	NN	n	lex-सूचना|cat-n|gen-f|num-sg|pers-3|case-d|vib-0|tam-0|chunkId-NP|chunkType-head|stype-|voicetype-	19	k2	_	_
3	इलेक्ट्रॉनिक	इलेक्ट्रॉनिक	JJ	adj	lex-इलेक्ट्रॉनिक|cat-adj|gen-any|num-any|pers-|case-o|vib-|tam-|chunkId-NP2|chunkType-child|stype-|voicetype-	4	nmod__adj	_	_
4	रूप	रूप	NN	n	lex-रूप|cat-n|gen-m|num-sg|pers-3|case-o|vib-0_में|tam-0|chunkId-NP2|chunkType-head|stype-|voicetype-	19	k7	_	_
5	में	में	PSP	psp	lex-में|cat-psp|gen-|num-|pers-|case-|vib-|tam-|chunkId-NP2|chunkType-child|stype-|voicetype-	4	lwg__psp	_	_
6	पैन	पैन	NNPC	n	lex-पैन|cat-n|gen-m|num-sg|pers-3|case-d|vib-0|tam-0|chunkId-NP3|chunkType-child|stype-|voicetype-	7	pof__cn	_	_
7	नंबर	नंबर	NNP	n	lex-नंबर|cat-n|gen-m|num-sg|pers-3|case-o|vib-0_का|tam-0|chunkId-NP3|chunkType-head|stype-|voicetype-	9	r6	_	_
8	की	का	PSP	psp	lex-का|cat-psp|gen-f|num-sg|pers-|case-o|vib-|tam-|chunkId-NP3|chunkType-child|stype-|voicetype-	7	lwg__psp	_	_
9	जानकारी	जानकारी	NN	n	lex-जानकारी|cat-n|gen-f|num-sg|pers-3|case-o|vib-0_के_साथ|tam-0|chunkId-NP4|chunkType-head|stype-|voicetype-	19	ras-k2	_	_
10	के	के	PSP	psp	lex-के|cat-psp|gen-|num-|pers-|case-|vib-|tam-|chunkId-NP4|chunkType-child|stype-|voicetype-	9	lwg__psp	_	_
11	साथ	साथ	NST	nst	lex-साथ|cat-nst|gen-m|num-sg|pers-3|case-d|vib-|tam-|chunkId-NP4|chunkType-child|stype-|voicetype-	9	lwg__psp	_	_
12	एनएसडीएल	एनएसडीएल	NNP	n	lex-एनएसडीएल|cat-n|gen-m|num-sg|pers-3|case-o|vib-0|tam-0|chunkId-NP5|chunkType-head|stype-|voicetype-	13	ccof	_	_
13	या	या	CC	avy	lex-या|cat-avy|gen-|num-|pers-|case-|vib-|tam-|chunkId-CCP|chunkType-head|stype-|voicetype-	19	k3	_	_
14	टिन	टिन	NNPC	n	lex-टिन|cat-n|gen-m|num-sg|pers-3|case-d|vib-0|tam-0|chunkId-NP6|chunkType-child|stype-|voicetype-	16	pof__cn	_	_
15	फैसिलिटेशन	फैसिलिटेशन	NNPC	n	lex-फैसिलिटेशन|cat-n|gen-m|num-sg|pers-3|case-d|vib-0|tam-0|chunkId-NP6|chunkType-child|stype-|voicetype-	16	pof__cn	_	_
16	सेंटर	सेंटर	NNP	n	lex-सेंटर|cat-n|gen-m|num-sg|pers-3|case-o|vib-0_के_जरिये|tam-0|chunkId-NP6|chunkType-head|stype-|voicetype-	13	ccof	_	_
17	के	के	PSP	psp	lex-के|cat-psp|gen-|num-|pers-|case-|vib-|tam-|chunkId-NP6|chunkType-child|stype-|voicetype-	16	lwg__psp	_	_
18	जरिए	जरिये	PSP	psp	lex-जरिये|cat-psp|gen-|num-|pers-|case-|vib-|tam-|chunkId-NP6|chunkType-child|stype-|voicetype-	16	lwg__psp	_	_
19	दी	दे	VM	v	lex-दे|cat-v|gen-f|num-sg|pers-3|case-|vib-या_जा+गा|tam-yA|chunkId-VGF|chunkType-head|stype-declarative|voicetype-passive	0	main	_	_
20	जाएगी	जा	VAUX	v	lex-जा|cat-v|gen-f|num-sg|pers-3|case-|vib-गा|tam-gA|chunkId-VGF|chunkType-child|stype-|voicetype-	19	lwg__vaux	_	_
21	।	।	SYM	punc	lex-।|cat-punc|gen-|num-|pers-|case-|vib-|tam-|chunkId-BLK|chunkType-head|stype-|voicetype-	19	rsym	_	_

1	टैक्स	टैक्स	NNPC	n	lex-टैक्स|cat-n|gen-m|num-sg|pers-3|case-d|vib-0|tam-0|chunkId-NP|chunkType-child|stype-|voicetype-	3	pof__cn	_	_
2	इन्फार्मेशन	इन्फार्मेशन	NNPC	n	lex-इन्फार्मेशन|cat-n|gen-f|num-sg|pers-3|case-d|vib-0|tam-0|chunkId-NP|chunkType-child|stype-|voicetype-	3	pof__cn	_	_
3	नेटवर्क	नेटवर्क	NNP	n	lex-नेटवर्क|cat-n|gen-m|num-sg|pers-3|case-d|vib-0|tam-0|chunkId-NP|chunkType-head|stype-|voicetype-	12	k1	_	_
4	इन	यह	DEM	pn	lex-यह|cat-pn|gen-any|num-pl|pers-3|case-o|vib-|tam-|chunkId-NP2|chunkType-child|stype-|voicetype-	5	nmod__adj	_	_
5	आंकड़ों	आंकड़ा	NN	n	lex-आंकड़ा|cat-n|gen-m|num-pl|pers-3|case-o|vib-0_का|tam-0|chunkId-NP2|chunkType-head|stype-|voicetype-	7	r6-k2	_	_
6	का	का	PSP	psp	lex-का|cat-psp|gen-m|num-sg|pers-|case-d|vib-|tam-|chunkId-NP2|chunkType-child|stype-|voicetype-	5	lwg__psp	_	_
7	संग्रह	संग्रह	NN	n	lex-संग्रह|cat-n|gen-m|num-sg|pers-3|case-d|vib-0|tam-0|chunkId-NP3|chunkType-head|stype-|voicetype-	8	pof	_	_
8	कर	कर	VM	v	lex-कर|cat-v|gen-any|num-any|pers-any|case-|vib-0|tam-0|chunkId-VGNF|chunkType-head|stype-|voicetype-	12	vmod	_	_
9	आयकर	आयकर	NNPC	n	lex-आयकर|cat-n|gen-m|num-sg|pers-3|case-d|vib-0|tam-0|chunkId-NP4|chunkType-child|stype-|voicetype-	10	pof__cn	_	_
10	विभाग	विभाग	NNP	n	lex-विभाग|cat-n|gen-m|num-sg|pers-3|case-o|vib-0_को|tam-0|chunkId-NP4|chunkType-head|stype-|voicetype-	12	k2	_	_
11	को	को	PSP	psp	lex-को|cat-psp|gen-|num-|pers-|case-|vib-|tam-|chunkId-NP4|chunkType-child|stype-|voicetype-	10	lwg__psp	_	_
12	भेज	भेज	VM	v	lex-भेज|cat-v|gen-any|num-sg|pers-3|case-|vib-0_दे+गा|tam-0|chunkId-VGF|chunkType-head|stype-declarative|voicetype-active	0	main	_	_
13	देगा	दे	VAUX	v	lex-दे|cat-v|gen-m|num-sg|pers-3|case-|vib-गा|tam-gA|chunkId-VGF|chunkType-child|stype-|voicetype-	12	lwg__vaux	_	_
14	।	।	SYM	punc	lex-।|cat-punc|gen-|num-|pers-|case-|vib-|tam-|chunkId-BLK|chunkType-head|stype-|voicetype-	12	rsym	_	_

