1	चीफ	चीफ	NNC	adj	lex-चीफ|cat-adj|gen-any|num-any|pers-|case-o|vib-|tam-|chunkId-NP|chunkType-child|stype-|voicetype-	3	pof__cn	_	_
2	जस्टिस	जस्टिस	NNC	n	lex-जस्टिस|cat-n|gen-m|num-sg|pers-3|case-d|vib-0|tam-0|chunkId-NP|chunkType-child|stype-|voicetype-	3	pof__cn	_	_
3	वाई.	वाई.	NNPC	n	lex-वाई.|cat-n|gen-m|num-sg|pers-3|case-d|vib-0|tam-0|chunkId-NP|chunkType-child|stype-|voicetype-	5	pof__cn	_	_
4	के.	के.	NNPC	n	lex-के.|cat-n|gen-m|num-sg|pers-3|case-d|vib-0|tam-0|chunkId-NP|chunkType-child|stype-|voicetype-	5	pof__cn	_	_
5	सब्बरवाल	सब्बरवाल	NNP	n	lex-सब्बरवाल|cat-n|gen-any|num-sg|pers-3|case-o|vib-0_ने|tam-0|chunkId-NP|chunkType-head|stype-|voicetype-	15	k1	_	_
6	ने	ने	PSP	psp	lex-ने|cat-psp|gen-|num-|pers-|case-|vib-|tam-|chunkId-NP|chunkType-child|stype-|voicetype-	5	lwg__psp	_	_
7	बार	बार	NN	n	lex-बार|cat-n|gen-m|num-sg|pers-3|case-o|vib-0_का|tam-0|chunkId-NP2|chunkType-head|stype-|voicetype-	10	r6	_	_
8	के	का	PSP	psp	lex-का|cat-psp|gen-m|num-sg|pers-|case-o|vib-|tam-|chunkId-NP2|chunkType-child|stype-|voicetype-	7	lwg__psp	_	_
9	गिरते	गिर	VM	v	lex-गिर|cat-v|gen-m|num-sg|pers-3|case-|vib-ता|tam-wA|chunkId-VGNF|chunkType-head|stype-|voicetype-	10	nmod__k1inv	_	_
10	स्तर	स्तर	NN	n	lex-स्तर|cat-n|gen-m|num-sg|pers-3|case-o|vib-0_पर|tam-0|chunkId-NP3|chunkType-head|stype-|voicetype-	15	k7	_	_
11	पर	पर	PSP	psp	lex-पर|cat-psp|gen-|num-|pers-|case-|vib-|tam-|chunkId-NP3|chunkType-child|stype-|voicetype-	10	lwg__psp	_	_
12	गंभीर	गंभीर	JJ	adj	lex-गंभीर|cat-adj|gen-any|num-any|pers-|case-d|vib-|tam-|chunkId-NP4|chunkType-child|stype-|voicetype-	13	nmod__adj	_	_
13	चिंता	चिंता	NN	n	lex-चिंता|cat-n|gen-f|num-sg|pers-3|case-d|vib-0|tam-0|chunkId-NP4|chunkType-head|stype-|voicetype-	15	k2	_	_
14	व्यक्त	व्यक्त	JJ	adj	lex-व्यक्त|cat-adj|gen-any|num-any|pers-|case-|vib-|tam-|chunkId-JJP|chunkType-head|stype-|voicetype-	15	pof	_	_
15	की	कर	VM	v	lex-कर|cat-v|gen-f|num-sg|pers-3|case-|vib-या_है|tam-yA|chunkId-VGF|chunkType-head|stype-declarative|voicetype-active	0	main	_	_
16	है	है	VAUX	v	lex-है|cat-v|gen-any|num-sg|pers-3|case-|vib-है|tam-hE|chunkId-VGF|chunkType-child|stype-|voicetype-	15	lwg__vaux	_	_
17	।	।	SYM	punc	lex-।|cat-punc|gen-|num-|pers-|case-|vib-|tam-|chunkId-BLK|chunkType-head|stype-|voicetype-	15	rsym	_	_

1	चीफ	चीफ	NNC	adj	lex-चीफ|cat-adj|gen-any|num-any|pers-|case-o|vib-|tam-|chunkId-NP|chunkType-child|stype-|voicetype-	2	pof__cn	_	_
2	जस्टिस	जस्टिस	NN	n	lex-जस्टिस|cat-n|gen-m|num-sg|pers-3|case-o|vib-0_ने|tam-0|chunkId-NP|chunkType-head|stype-|voicetype-	8	k1	_	_
3	ने	ने	PSP	psp	lex-ने|cat-psp|gen-|num-|pers-|case-|vib-|tam-|chunkId-NP|chunkType-child|stype-|voicetype-	2	lwg__psp	_	_
4	यहां	यहाँ	PRP	pn	lex-यहाँ|cat-pn|gen-|num-|pers-|case-d|vib-|tam-|chunkId-NP2|chunkType-head|stype-|voicetype-	8	k7p	_	_
5	एक	एक	QC	num	lex-एक|cat-num|gen-any|num-any|pers-|case-any|vib-|tam-|chunkId-NP3|chunkType-child|stype-|voicetype-	6	nmod__adj	_	_
6	कार्यक्रम	कार्यक्रम	NN	n	lex-कार्यक्रम|cat-n|gen-m|num-sg|pers-3|case-o|vib-0_में|tam-0|chunkId-NP3|chunkType-head|stype-|voicetype-	8	k7p	_	_
7	में	में	PSP	psp	lex-में|cat-psp|gen-|num-|pers-|case-|vib-|tam-|chunkId-NP3|chunkType-child|stype-|voicetype-	6	lwg__psp	_	_
8	कहा	कह	VM	v	lex-कह|cat-v|gen-m|num-sg|pers-any|case-|vib-या|tam-yA|chunkId-VGF|chunkType-head|stype-declarative|voicetype-active	0	main	_	_
9	कि	कि	CC	avy	lex-कि|cat-avy|gen-|num-|pers-|case-|vib-|tam-|chunkId-CCP|chunkType-head|stype-|voicetype-	8	k2	_	_
10	कुछ	कुछ	QF	avy	lex-कुछ|cat-avy|gen-|num-|pers-|case-|vib-|tam-|chunkId-NP4|chunkType-child|stype-|voicetype-	11	nmod__adj	_	_
11	लोग	लोग	NN	n	lex-लोग|cat-n|gen-m|num-pl|pers-3|case-d|vib-0|tam-0|chunkId-NP4|chunkType-head|stype-|voicetype-	31	k1	_	_
12	जज	जज	NN	n	lex-जज|cat-n|gen-m|num-sg|pers-3|case-o|vib-0_का|tam-0|chunkId-NP5|chunkType-head|stype-|voicetype-	14	r6	_	_
13	के	का	PSP	psp	lex-का|cat-psp|gen-m|num-sg|pers-|case-o|vib-|tam-|chunkId-NP5|chunkType-child|stype-|voicetype-	12	lwg__psp	_	_
14	आसन	आसन	NN	n	lex-आसन|cat-n|gen-m|num-sg|pers-3|case-o|vib-0_पर|tam-0|chunkId-NP6|chunkType-head|stype-|voicetype-	19	k7p	_	_
15	पर	पर	PSP	psp	lex-पर|cat-psp|gen-|num-|pers-|case-|vib-|tam-|chunkId-NP6|chunkType-child|stype-|voicetype-	14	lwg__psp	_	_
16	अपने	अपना	PRP	pn	lex-अपना|cat-pn|gen-m|num-any|pers-any|case-o|vib-0|tam-0|chunkId-NP7|chunkType-head|stype-|voicetype-	17	r6	_	_
17	आदमियों	आदमी	NN	n	lex-आदमी|cat-n|gen-m|num-pl|pers-3|case-o|vib-0_को|tam-0|chunkId-NP8|chunkType-head|stype-|voicetype-	19	k2	_	_
18	को	को	PSP	psp	lex-को|cat-psp|gen-|num-|pers-|case-|vib-|tam-|chunkId-NP8|chunkType-child|stype-|voicetype-	17	lwg__psp	_	_
19	बैठाने	बैठा	VM	v	lex-बैठा|cat-v|gen-any|num-any|pers-any|case-o|vib-ना_के_लिए|tam-nA|chunkId-VGNN|chunkType-head|stype-|voicetype-	31	rt	_	_
20	के	के	PSP	psp	lex-के|cat-psp|gen-|num-|pers-|case-|vib-|tam-|chunkId-VGNN|chunkType-child|stype-|voicetype-	19	lwg__psp	_	_
21	लिए	लिए	PSP	psp	lex-लिए|cat-psp|gen-|num-|pers-|case-|vib-|tam-|chunkId-VGNN|chunkType-child|stype-|voicetype-	19	lwg__psp	_	_
22	न्यायाधीशों	न्यायाधीश	NN	n	lex-न्यायाधीश|cat-n|gen-m|num-pl|pers-3|case-o|vib-0_का|tam-0|chunkId-NP9|chunkType-head|stype-|voicetype-	25	r6	_	_
23	की	का	PSP	psp	lex-का|cat-psp|gen-f|num-sg|pers-|case-o|vib-|tam-|chunkId-NP9|chunkType-child|stype-|voicetype-	22	lwg__psp	_	_
24	चयन	चयन	NNC	n	lex-चयन|cat-n|gen-m|num-sg|pers-3|case-d|vib-0|tam-0|chunkId-NP10|chunkType-child|stype-|voicetype-	25	pof__cn	_	_
25	प्रक्रिया	प्रक्रिया	NN	n	lex-प्रक्रिया|cat-n|gen-f|num-sg|pers-3|case-o|vib-0_को|tam-0|chunkId-NP10|chunkType-head|stype-|voicetype-	28	k2	_	_
26	को	को	PSP	psp	lex-को|cat-psp|gen-|num-|pers-|case-|vib-|tam-|chunkId-NP10|chunkType-child|stype-|voicetype-	25	lwg__psp	_	_
27	प्रभावित	प्रभावित	JJ	adj	lex-प्रभावित|cat-adj|gen-any|num-any|pers-|case-|vib-|tam-|chunkId-JJP|chunkType-head|stype-|voicetype-	28	pof	_	_
28	करने	कर	VM	v	lex-कर|cat-v|gen-any|num-sg|pers-any|case-o|vib-ना_का|tam-nA|chunkId-VGNN2|chunkType-head|stype-|voicetype-	30	r6-k2	_	_
29	की	का	PSP	psp	lex-का|cat-psp|gen-f|num-sg|pers-|case-d|vib-|tam-|chunkId-VGNN2|chunkType-child|stype-|voicetype-	28	lwg__psp	_	_
30	कोशिश	कोशिश	NN	n	lex-कोशिश|cat-n|gen-f|num-sg|pers-3|case-d|vib-0|tam-0|chunkId-NP11|chunkType-head|stype-|voicetype-	31	pof	_	_
31	करते	कर	VM	v	lex-कर|cat-v|gen-m|num-pl|pers-3|case-|vib-ता_है|tam-wA|chunkId-VGF2|chunkType-head|stype-declarative|voicetype-active	9	ccof	_	_
32	हैं	है	VAUX	v	lex-है|cat-v|gen-any|num-pl|pers-3|case-|vib-है|tam-hE|chunkId-VGF2|chunkType-child|stype-|voicetype-	31	lwg__vaux	_	_
33	।	।	SYM	punc	lex-।|cat-punc|gen-|num-|pers-|case-|vib-|tam-|chunkId-BLK|chunkType-head|stype-|voicetype-	8	rsym	_	_

1	इनमें	यह	PRP	pn	lex-यह|cat-pn|gen-any|num-pl|pers-3|case-o|vib-में|tam-meM|chunkId-NP|chunkType-head|stype-|voicetype-	5	k7	_	_
2	ऐसे	ऐसा	DEM	pn	lex-ऐसा|cat-pn|gen-m|num-pl|pers-any|case-d|vib-|tam-|chunkId-NP2|chunkType-child|stype-|voicetype-	3	nmod__adj	_	_
3	लोग	लोग	NN	n	lex-लोग|cat-n|gen-m|num-pl|pers-3|case-d|vib-0|tam-0|chunkId-NP2|chunkType-head|stype-|voicetype-	5	k1	_	_
4	भी	भी	RP	avy	lex-भी|cat-avy|gen-|num-|pers-|case-|vib-|tam-|chunkId-NP2|chunkType-child|stype-|voicetype-	3	lwg__rp	_	_
5	हैं	है	VM	v	lex-है|cat-v|gen-any|num-pl|pers-3|case-|vib-है|tam-hE|chunkId-VGF|chunkType-head|stype-declarative|voicetype-active	0	main	_	_
6	,	COMMA	SYM	punc	lex-COMMA|cat-punc|gen-|num-|pers-|case-|vib-|tam-|chunkId-VGF|chunkType-child|stype-|voicetype-	5	rsym	_	_
7	जिनका	जो	PRP	pn	lex-जो|cat-pn|gen-m|num-pl|pers-3|case-o|vib-का|tam-kA|chunkId-NP3|chunkType-head|stype-|voicetype-	8	r6	_	_
8	न्यायपालिका	न्यायपालिका	NN	n	lex-न्यायपालिका|cat-n|gen-f|num-sg|pers-3|case-o|vib-0_से|tam-0|chunkId-NP4|chunkType-head|stype-|voicetype-	15	ras-k1	_	_
9	से	से	PSP	psp	lex-से|cat-psp|gen-|num-|pers-|case-|vib-|tam-|chunkId-NP4|chunkType-child|stype-|voicetype-	8	lwg__psp	_	_
10	कोई	कोई	PRP	pn	lex-कोई|cat-pn|gen-any|num-sg|pers-3|case-d|vib-0|tam-0|chunkId-NP5|chunkType-child|stype-|voicetype-	13	nmod__adj	_	_
11	लेना	लेना	NNC	n	lex-लेना|cat-n|gen-m|num-sg|pers-3|case-d|vib-0|tam-0|chunkId-NP5|chunkType-child|stype-|voicetype-	13	pof__cn	_	_
12	-	-	SYM	punc	lex--|cat-punc|gen-|num-|pers-|case-|vib-|tam-|chunkId-NP5|chunkType-child|stype-|voicetype-	13	pof__cn	_	_
13	देना	देना	NN	n	lex-देना|cat-n|gen-m|num-sg|pers-3|case-d|vib-0|tam-0|chunkId-NP5|chunkType-head|stype-|voicetype-	15	k1	_	_
14	नहीं	नहीं	NEG	avy	lex-नहीं|cat-avy|gen-|num-|pers-|case-|vib-|tam-|chunkId-VGF2|chunkType-child|stype-|voicetype-	15	lwg__neg	_	_
15	है	है	VM	v	lex-है|cat-v|gen-any|num-sg|pers-3|case-|vib-है|tam-hE|chunkId-VGF2|chunkType-head|stype-declarative|voicetype-active	3	nmod__relc	_	_
16	।	।	SYM	punc	lex-।|cat-punc|gen-|num-|pers-|case-|vib-|tam-|chunkId-BLK|chunkType-head|stype-|voicetype-	5	rsym	_	_

1	जस्टिस	जस्टिस	NNC	n	lex-जस्टिस|cat-n|gen-m|num-sg|pers-3|case-d|vib-0|tam-0|chunkId-NP|chunkType-child|stype-|voicetype-	2	pof__cn	_	_
2	सब्बरवाल	सब्बरवाल	NNP	n	lex-सब्बरवाल|cat-n|gen-any|num-sg|pers-3|case-o|vib-0_ने|tam-0|chunkId-NP|chunkType-head|stype-|voicetype-	22	k1	_	_
3	ने	ने	PSP	psp	lex-ने|cat-psp|gen-|num-|pers-|case-|vib-|tam-|chunkId-NP|chunkType-child|stype-|voicetype-	2	lwg__psp	_	_
4	सोमवार	सोमवार	NNP	n	lex-सोमवार|cat-n|gen-m|num-sg|pers-3|case-d|vib-0|tam-0|chunkId-NP2|chunkType-child|stype-|voicetype-	5	nmod__adj	_	_
5	रात	रात	NN	n	lex-रात|cat-n|gen-f|num-sg|pers-3|case-d|vib-0|tam-0|chunkId-NP2|chunkType-head|stype-|voicetype-	22	k7t	_	_
6	'	SINGLE_QUOTE	SYM	punc	lex-SINGLE_QUOTE|cat-punc|gen-|num-|pers-|case-|vib-|tam-|chunkId-NP3|chunkType-child|stype-|voicetype-	11	rsym	_	_
7	लोकतंत्र	लोकतंत्र	NNPC	n	lex-लोकतंत्र|cat-n|gen-m|num-sg|pers-3|case-o|vib-0|tam-0|chunkId-NP3|chunkType-child|stype-|voicetype-	11	pof__cn	_	_
8	में	में	NNPC	psp	lex-में|cat-psp|gen-|num-|pers-|case-|vib-|tam-|chunkId-NP3|chunkType-child|stype-|voicetype-	11	pof__cn	_	_
9	बार	बार	NNPC	n	lex-बार|cat-n|gen-m|num-sg|pers-3|case-o|vib-0|tam-0|chunkId-NP3|chunkType-child|stype-|voicetype-	11	pof__cn	_	_
10	की	का	NNPC	psp	lex-का|cat-psp|gen-f|num-sg|pers-|case-d|vib-|tam-|chunkId-NP3|chunkType-child|stype-|voicetype-	11	pof__cn	_	_
11	भूमिका	भूमिका	NNP	n	lex-भूमिका|cat-n|gen-f|num-sg|pers-3|case-d|vib-0|tam-0|chunkId-NP3|chunkType-head|stype-|voicetype-	13	nmod	_	_
12	'	SINGLE_QUOTE	SYM	punc	lex-SINGLE_QUOTE|cat-punc|gen-|num-|pers-|case-|vib-|tam-|chunkId-NP3|chunkType-child|stype-|voicetype-	11	rsym	_	_
13	विषय	विषय	NN	n	lex-विषय|cat-n|gen-m|num-sg|pers-3|case-o|vib-0_पर|tam-0|chunkId-NP4|chunkType-head|stype-|voicetype-	22	k7	_	_
14	पर	पर	PSP	psp	lex-पर|cat-psp|gen-|num-|pers-|case-|vib-|tam-|chunkId-NP4|chunkType-child|stype-|voicetype-	13	lwg__psp	_	_
15	वी.	वी.	NNPC	n	lex-वी.|cat-n|gen-m|num-sg|pers-3|case-d|vib-0|tam-0|chunkId-NP5|chunkType-child|stype-|voicetype-	20	pof__cn	_	_
16	एन.	एन.	NNPC	n	lex-एन.|cat-n|gen-m|num-sg|pers-3|case-d|vib-0|tam-0|chunkId-NP5|chunkType-child|stype-|voicetype-	20	pof__cn	_	_
17	काटजू	काटजू	NNPC	n	lex-काटजू|cat-n|gen-m|num-sg|pers-3|case-d|vib-0|tam-0|chunkId-NP5|chunkType-child|stype-|voicetype-	20	pof__cn	_	_
18	स्मृति	स्मृति	NNPC	n	lex-स्मृति|cat-n|gen-f|num-sg|pers-3|case-d|vib-0|tam-0|chunkId-NP5|chunkType-child|stype-|voicetype-	20	pof__cn	_	_
19	वार्षिक	वार्षिक	NNPC	adj	lex-वार्षिक|cat-adj|gen-any|num-any|pers-|case-o|vib-|tam-|chunkId-NP5|chunkType-child|stype-|voicetype-	20	pof__cn	_	_
20	व्याख्यानमाला	व्याख्यानमाला	NNP	n	lex-व्याख्यानमाला|cat-n|gen-f|num-sg|pers-3|case-o|vib-0_में|tam-0|chunkId-NP5|chunkType-head|stype-|voicetype-	22	k7	_	_
21	में	में	PSP	psp	lex-में|cat-psp|gen-|num-|pers-|case-|vib-|tam-|chunkId-NP5|chunkType-child|stype-|voicetype-	20	lwg__psp	_	_
22	कहा	कह	VM	v	lex-कह|cat-v|gen-m|num-sg|pers-any|case-|vib-या|tam-yA|chunkId-VGF|chunkType-head|stype-declarative|voicetype-active	0	main	_	_
23	,	COMMA	SYM	punc	lex-COMMA|cat-punc|gen-|num-|pers-|case-|vib-|tam-|chunkId-VGF|chunkType-child|stype-|voicetype-	22	rsym	_	_
24	'	SINGLE_QUOTE	SYM	punc	lex-SINGLE_QUOTE|cat-punc|gen-|num-|pers-|case-|vib-|tam-|chunkId-NP6|chunkType-child|stype-|voicetype-	26	rsym	_	_
25	ऐसा	ऐसा	DEM	pn	lex-ऐसा|cat-pn|gen-m|num-sg|pers-any|case-d|vib-|tam-|chunkId-NP6|chunkType-child|stype-|voicetype-	26	nmod__adj	_	_
26	माहौल	माहौल	NN	n	lex-माहौल|cat-n|gen-m|num-sg|pers-3|case-d|vib-0|tam-0|chunkId-NP6|chunkType-head|stype-|voicetype-	27	k1	_	_
27	बन	बन	VM	v	lex-बन|cat-v|gen-m|num-sg|pers-3|case-|vib-0_रह+या_है|tam-0|chunkId-VGF2|chunkType-head|stype-declarative|voicetype-active	22	k2	_	_
28	रहा	रह	VAUX	v	lex-रह|cat-v|gen-m|num-sg|pers-any|case-|vib-या|tam-yA|chunkId-VGF2|chunkType-child|stype-|voicetype-	27	lwg__vaux	_	_
29	है	है	VAUX	v	lex-है|cat-v|gen-any|num-sg|pers-3|case-|vib-है|tam-hE|chunkId-VGF2|chunkType-child|stype-|voicetype-	27	lwg__vaux	_	_
30	जिसमें	जो	PRP	pn	lex-जो|cat-pn|gen-any|num-sg|pers-3|case-o|vib-में|tam-meM|chunkId-NP7|chunkType-head|stype-|voicetype-	39	k7	_	_
31	बिना	बिना	RP	avy	lex-बिना|cat-avy|gen-|num-|pers-|case-|vib-|tam-|chunkId-NP8|chunkType-child|stype-|voicetype-	32	lwg__rp	_	_
32	गॉडफादर	गॉडफादर	NN	n	lex-गॉडफादर|cat-n|gen-m|num-sg|pers-3|case-o|vib-0_का|tam-0|chunkId-NP8|chunkType-head|stype-|voicetype-	39	ras-NEG	_	_
33	के	का	PSP	psp	lex-का|cat-psp|gen-m|num-sg|pers-|case-o|vib-|tam-|chunkId-NP8|chunkType-child|stype-|voicetype-	32	lwg__psp	_	_
34	आप	आप	PRP	pn	lex-आप|cat-pn|gen-any|num-sg|pers-2h|case-d|vib-0|tam-0|chunkId-NP9|chunkType-head|stype-|voicetype-	39	k1	_	_
35	न्यायपालिका	न्यायपालिका	NN	n	lex-न्यायपालिका|cat-n|gen-f|num-sg|pers-3|case-o|vib-0_का|tam-0|chunkId-NP10|chunkType-head|stype-|voicetype-	37	r6	_	_
36	के	का	PSP	psp	lex-का|cat-psp|gen-m|num-sg|pers-2h|case-d|vib-|tam-|chunkId-NP10|chunkType-child|stype-|voicetype-	35	lwg__psp	_	_
37	सदस्य	सदस्य	NN	n	lex-सदस्य|cat-n|gen-m|num-sg|pers-3|case-d|vib-0|tam-0|chunkId-NP11|chunkType-head|stype-|voicetype-	39	k1s	_	_
38	नहीं	नहीं	NEG	avy	lex-नहीं|cat-avy|gen-|num-|pers-|case-|vib-|tam-|chunkId-VGF3|chunkType-child|stype-|voicetype-	39	lwg__neg	_	_
39	बन	बन	VM	v	lex-बन|cat-v|gen-any|num-sg|pers-2h|case-|vib-0_सक+ता|tam-0|chunkId-VGF3|chunkType-head|stype-declarative|voicetype-active	26	nmod__relc	_	_
40	सकते	सक	VAUX	v	lex-सक|cat-v|gen-m|num-sg|pers-2h|case-|vib-ता|tam-wA|chunkId-VGF3|chunkType-child|stype-|voicetype-	39	lwg__vaux	_	_
41	।	।	SYM	punc	lex-।|cat-punc|gen-|num-|pers-|case-|vib-|tam-|chunkId-BLK|chunkType-head|stype-|voicetype-	22	rsym	_	_

1	यदि	यदि	CC	avy	lex-यदि|cat-avy|gen-|num-|pers-|case-|vib-|tam-|chunkId-CCP|chunkType-head|stype-|voicetype-	4	vmod	_	_
2	इसे	यह	PRP	pn	lex-यह|cat-pn|gen-any|num-sg|pers-3|case-o|vib-को|tam-ko|chunkId-NP|chunkType-head|stype-|voicetype-	4	k2	_	_
3	नहीं	नहीं	NEG	avy	lex-नहीं|cat-avy|gen-|num-|pers-|case-|vib-|tam-|chunkId-VGF|chunkType-child|stype-|voicetype-	4	lwg__neg	_	_
4	रोका	रोक	VM	v	lex-रोक|cat-v|gen-m|num-sg|pers-any|case-|vib-या_जा+या१|tam-yA|chunkId-VGF|chunkType-head|stype-declarative|voicetype-passive	7	ccof	_	_
5	गया	जा	VAUX	v	lex-जा|cat-v|gen-m|num-sg|pers-any|case-|vib-या१|tam-yA1|chunkId-VGF|chunkType-child|stype-|voicetype-	4	lwg__vaux	_	_
6	,	COMMA	SYM	punc	lex-COMMA|cat-punc|gen-|num-|pers-|case-|vib-|tam-|chunkId-VGF|chunkType-child|stype-|voicetype-	4	rsym	_	_
7	तो	तो	CC	avy	lex-तो|cat-avy|gen-|num-|pers-|case-|vib-|tam-|chunkId-CCP2|chunkType-head|stype-|voicetype-	8	vmod	_	_
8	सोचिये	सोच	VM	v	lex-सोच|cat-v|gen-any|num-sg|pers-2h|case-|vib-एं|tam-eM|chunkId-VGF2|chunkType-head|stype-imperative|voicetype-active	0	main	_	_
9	हमारी	हम	PRP	pn	lex-हम|cat-pn|gen-f|num-pl|pers-1|case-o|vib-का|tam-kA|chunkId-NP2|chunkType-head|stype-|voicetype-	10	r6	_	_
10	न्यायपालिका	न्यायपालिका	NN	n	lex-न्यायपालिका|cat-n|gen-f|num-sg|pers-3|case-o|vib-0_का|tam-0|chunkId-NP3|chunkType-head|stype-|voicetype-	12	r6	_	_
11	का	का	PSP	psp	lex-का|cat-psp|gen-m|num-sg|pers-|case-d|vib-|tam-|chunkId-NP3|chunkType-child|stype-|voicetype-	10	lwg__psp	_	_
12	स्तर	स्तर	NN	n	lex-स्तर|cat-n|gen-m|num-sg|pers-3|case-d|vib-0|tam-0|chunkId-NP4|chunkType-head|stype-|voicetype-	14	k1	_	_
13	क्या	क्या	WQ	pn	lex-क्या|cat-pn|gen-|num-|pers-|case-|vib-|tam-|chunkId-NP5|chunkType-head|stype-|voicetype-	14	k1s	_	_
14	होगा	हो	VM	v	lex-हो|cat-v|gen-m|num-sg|pers-3|case-|vib-गा|tam-gA|chunkId-VGF3|chunkType-head|stype-declarative|voicetype-active	8	rs	_	_
15	।	।	SYM	punc	lex-।|cat-punc|gen-|num-|pers-|case-|vib-|tam-|chunkId-BLK|chunkType-head|stype-|voicetype-	8	rsym	_	_
16	'	SINGLE_QUOTE	SYM	punc	lex-SINGLE_QUOTE|cat-punc|gen-|num-|pers-|case-|vib-|tam-|chunkId-BLK|chunkType-child|stype-|voicetype-	15	rsym	_	_

1	कार्यक्रम	कार्यक्रम	NN	n	lex-कार्यक्रम|cat-n|gen-m|num-sg|pers-3|case-o|vib-0_में|tam-0|chunkId-NP|chunkType-head|stype-|voicetype-	10	k7	_	_
2	में	में	PSP	psp	lex-में|cat-psp|gen-|num-|pers-|case-|vib-|tam-|chunkId-NP|chunkType-child|stype-|voicetype-	1	lwg__psp	_	_
3	विधि	विधि	NNPC	n	lex-विधि|cat-n|gen-f|num-sg|pers-3|case-d|vib-0|tam-0|chunkId-NP2|chunkType-child|stype-|voicetype-	4	pof__cn	_	_
4	मंत्री	मंत्री	NNP	n	lex-मंत्री|cat-n|gen-m|num-sg|pers-3|case-d|vib-0|tam-0|chunkId-NP2|chunkType-child|stype-|voicetype-	7	nmod__adj	_	_
5	एच.	एच.	NNPC	n	lex-एच.|cat-n|gen-m|num-sg|pers-3|case-d|vib-0|tam-0|chunkId-NP2|chunkType-child|stype-|voicetype-	7	pof__cn	_	_
6	आर.	आर.	NNPC	n	lex-आर.|cat-n|gen-m|num-sg|pers-3|case-d|vib-0|tam-0|chunkId-NP2|chunkType-child|stype-|voicetype-	7	pof__cn	_	_
7	भारद्वाज	भारद्वाज	NNP	n	lex-भारद्वाज|cat-n|gen-any|num-sg|pers-3|case-d|vib-0|tam-0|chunkId-NP2|chunkType-head|stype-|voicetype-	10	k1	_	_
8	भी	भी	RP	avy	lex-भी|cat-avy|gen-|num-|pers-|case-|vib-|tam-|chunkId-NP2|chunkType-child|stype-|voicetype-	7	lwg__rp	_	_
9	मौजूद	मौजूद	JJ	adj	lex-मौजूद|cat-adj|gen-any|num-any|pers-|case-|vib-|tam-|chunkId-JJP|chunkType-head|stype-|voicetype-	10	k1s	_	_
10	थे	था	VM	v	lex-था|cat-v|gen-m|num-sg|pers-3h|case-|vib-था|tam-WA|chunkId-VGF|chunkType-head|stype-declarative|voicetype-active	0	main	_	_
11	।	।	SYM	punc	lex-।|cat-punc|gen-|num-|pers-|case-|vib-|tam-|chunkId-BLK|chunkType-head|stype-|voicetype-	10	rsym	_	_

1	चीफ	चीफ	NNC	adj	lex-चीफ|cat-adj|gen-any|num-any|pers-|case-o|vib-|tam-|chunkId-NP|chunkType-child|stype-|voicetype-	2	pof__cn	_	_
2	जस्टिस	जस्टिस	NNC	n	lex-जस्टिस|cat-n|gen-m|num-sg|pers-3|case-o|vib-0_ने|tam-0|chunkId-NP|chunkType-head|stype-|voicetype-	4	k1	_	_
3	ने	ने	PSP	psp	lex-ने|cat-psp|gen-|num-|pers-|case-|vib-|tam-|chunkId-NP|chunkType-child|stype-|voicetype-	2	lwg__psp	_	_
4	कहा	कह	VM	v	lex-कह|cat-v|gen-m|num-sg|pers-any|case-|vib-या|tam-yA|chunkId-VGF|chunkType-head|stype-declarative|voicetype-active	0	main	_	_
5	कि	कि	CC	avy	lex-कि|cat-avy|gen-|num-|pers-|case-|vib-|tam-|chunkId-CCP|chunkType-head|stype-|voicetype-	4	k2	_	_
6	ऐसी	ऐसा	DEM	pn	lex-ऐसा|cat-pn|gen-f|num-sg|pers-any|case-d|vib-|tam-|chunkId-NP2|chunkType-child|stype-|voicetype-	7	nmod__adj	_	_
7	परंपरा	परंपरा	NN	n	lex-परंपरा|cat-n|gen-f|num-sg|pers-3|case-d|vib-0|tam-0|chunkId-NP2|chunkType-head|stype-|voicetype-	8	k1	_	_
8	है	है	VM	v	lex-है|cat-v|gen-any|num-sg|pers-3|case-|vib-है|tam-hE|chunkId-VGF2|chunkType-head|stype-declarative|voicetype-active	5	ccof	_	_
9	कि	कि	CC	avy	lex-कि|cat-avy|gen-|num-|pers-|case-|vib-|tam-|chunkId-CCP2|chunkType-head|stype-|voicetype-	7	rs	_	_
10	कोई	कोई	PRP	pn	lex-कोई|cat-pn|gen-any|num-sg|pers-3|case-d|vib-0|tam-0|chunkId-NP3|chunkType-child|stype-|voicetype-	12	nmod__adj	_	_
11	भी	भी	RP	avy	lex-भी|cat-avy|gen-|num-|pers-|case-|vib-|tam-|chunkId-NP3|chunkType-child|stype-|voicetype-	12	lwg__rp	_	_
12	वकील	वकील	NN	n	lex-वकील|cat-n|gen-m|num-sg|pers-3|case-d|vib-0|tam-0|chunkId-NP3|chunkType-head|stype-|voicetype-	18	k1	_	_
13	न्यायाधीश	न्यायाधीश	NN	n	lex-न्यायाधीश|cat-n|gen-m|num-sg|pers-3|case-d|vib-0|tam-0|chunkId-NP4|chunkType-head|stype-|voicetype-	14	k1	_	_
14	बनने	बन	VM	v	lex-बन|cat-v|gen-any|num-any|pers-any|case-o|vib-ना_से|tam-nA|chunkId-VGNN|chunkType-head|stype-|voicetype-	18	k2	_	_
15	से	से	PSP	psp	lex-से|cat-psp|gen-|num-|pers-|case-|vib-|tam-|chunkId-VGNN|chunkType-child|stype-|voicetype-	14	lwg__psp	_	_
16	इन्कार	इन्कार	NN	n	lex-इन्कार|cat-n|gen-m|num-sg|pers-3|case-d|vib-0|tam-0|chunkId-NP5|chunkType-head|stype-|voicetype-	18	pof	_	_
17	नहीं	नहीं	NEG	avy	lex-नहीं|cat-avy|gen-|num-|pers-|case-|vib-|tam-|chunkId-VGF3|chunkType-child|stype-|voicetype-	18	lwg__neg	_	_
18	कर	कर	VM	v	lex-कर|cat-v|gen-any|num-sg|pers-any|case-|vib-0_सक+ता|tam-0|chunkId-VGF3|chunkType-head|stype-declarative|voicetype-active	9	ccof	_	_
19	सकता	सक	VAUX	v	lex-सक|cat-v|gen-m|num-sg|pers-any|case-|vib-ता|tam-wA|chunkId-VGF3|chunkType-child|stype-|voicetype-	18	lwg__vaux	_	_
20	क्योंकि	क्योंकि	CC	avy	lex-क्योंकि|cat-avy|gen-|num-|pers-|case-|vib-|tam-|chunkId-CCP3|chunkType-head|stype-|voicetype-	18	rh	_	_
21	ऐसा	ऐसा	PRP	pn	lex-ऐसा|cat-pn|gen-m|num-sg|pers-any|case-d|vib-0|tam-0|chunkId-NP6|chunkType-head|stype-|voicetype-	22	adv	_	_
22	करना	कर	VM	v	lex-कर|cat-v|gen-any|num-any|pers-any|case-d|vib-ना|tam-nA|chunkId-VGNN2|chunkType-head|stype-|voicetype-	25	k1	_	_
23	उसका	वह	PRP	pn	lex-वह|cat-pn|gen-m|num-sg|pers-3|case-o|vib-का|tam-kA|chunkId-NP7|chunkType-head|stype-|voicetype-	24	r6	_	_
24	कर्तव्य	कर्तव्य	NN	n	lex-कर्तव्य|cat-n|gen-m|num-sg|pers-3|case-d|vib-0|tam-0|chunkId-NP8|chunkType-head|stype-|voicetype-	25	k1s	_	_
25	है	है	VM	v	lex-है|cat-v|gen-any|num-sg|pers-3|case-|vib-है|tam-hE|chunkId-VGF4|chunkType-head|stype-declarative|voicetype-active	20	ccof	_	_
26	।	।	SYM	punc	lex-।|cat-punc|gen-|num-|pers-|case-|vib-|tam-|chunkId-BLK|chunkType-head|stype-|voicetype-	4	rsym	_	_

1	लेकिन	लेकिन	CC	avy	lex-लेकिन|cat-avy|gen-|num-|pers-|case-|vib-|tam-|chunkId-CCP|chunkType-head|stype-|voicetype-	0	main	_	_
2	अब	अब	PRP	pn	lex-अब|cat-pn|gen-|num-|pers-|case-d|vib-|tam-|chunkId-NP|chunkType-head|stype-|voicetype-	19	k7t	_	_
3	बदले	बदल	VM	v	lex-बदल|cat-v|gen-m|num-sg|pers-any|case-|vib-या|tam-yA|chunkId-VGNF|chunkType-head|stype-|voicetype-	4	nmod__k1inv	_	_
4	माहौल	माहौल	NN	n	lex-माहौल|cat-n|gen-m|num-sg|pers-3|case-o|vib-0_में|tam-0|chunkId-NP2|chunkType-head|stype-|voicetype-	19	k7	_	_
5	में	में	PSP	psp	lex-में|cat-psp|gen-|num-|pers-|case-|vib-|tam-|chunkId-NP2|chunkType-child|stype-|voicetype-	4	lwg__psp	_	_
6	,	COMMA	SYM	punc	lex-COMMA|cat-punc|gen-|num-|pers-|case-|vib-|tam-|chunkId-NP2|chunkType-child|stype-|voicetype-	4	rsym	_	_
7	कुछ	कुछ	QF	avy	lex-कुछ|cat-avy|gen-|num-|pers-|case-|vib-|tam-|chunkId-NP3|chunkType-child|stype-|voicetype-	9	nmod__adj	_	_
8	कामयाब	कामयाब	JJ	adj	lex-कामयाब|cat-adj|gen-any|num-any|pers-|case-d|vib-|tam-|chunkId-NP3|chunkType-child|stype-|voicetype-	9	nmod__adj	_	_
9	वकील	वकील	NN	n	lex-वकील|cat-n|gen-m|num-pl|pers-3|case-d|vib-0|tam-0|chunkId-NP3|chunkType-head|stype-|voicetype-	19	k1	_	_
10	तो	तो	RP	avy	lex-तो|cat-avy|gen-|num-|pers-|case-|vib-|tam-|chunkId-NP3|chunkType-child|stype-|voicetype-	9	lwg__rp	_	_
11	बड़ी	बड़ा	JJ	adj	lex-बड़ा|cat-adj|gen-f|num-sg|pers-|case-o|vib-|tam-|chunkId-NP4|chunkType-child|stype-|voicetype-	12	nmod__adj	_	_
12	विनम्रता	विनम्रता	NN	n	lex-विनम्रता|cat-n|gen-f|num-sg|pers-3|case-o|vib-0_से|tam-0|chunkId-NP4|chunkType-head|stype-|voicetype-	19	adv	_	_
13	से	से	PSP	psp	lex-से|cat-psp|gen-|num-|pers-|case-|vib-|tam-|chunkId-NP4|chunkType-child|stype-|voicetype-	12	lwg__psp	_	_
14	आसन	आसन	NN	n	lex-आसन|cat-n|gen-m|num-sg|pers-3|case-o|vib-0_पर|tam-0|chunkId-NP5|chunkType-head|stype-|voicetype-	16	k7p	_	_
15	पर	पर	PSP	psp	lex-पर|cat-psp|gen-|num-|pers-|case-|vib-|tam-|chunkId-NP5|chunkType-child|stype-|voicetype-	14	lwg__psp	_	_
16	बैठने	बैठ	VM	v	lex-बैठ|cat-v|gen-any|num-sg|pers-any|case-o|vib-ना_का|tam-nA|chunkId-VGNN|chunkType-head|stype-|voicetype-	18	r6	_	_
17	का	का	PSP	psp	lex-का|cat-psp|gen-m|num-sg|pers-|case-d|vib-|tam-|chunkId-VGNN|chunkType-child|stype-|voicetype-	16	lwg__psp	_	_
18	प्रस्ताव	प्रस्ताव	NN	n	lex-प्रस्ताव|cat-n|gen-m|num-sg|pers-3|case-d|vib-0|tam-0|chunkId-NP6|chunkType-head|stype-|voicetype-	19	k2	_	_
19	ठुकरा	ठुकरा	VM	v	lex-ठुकरा|cat-v|gen-m|num-pl|pers-3|case-|vib-0_रह+या_है|tam-0|chunkId-VGF|chunkType-head|stype-declarative|voicetype-active	23	ccof	_	_
20	रहे	रह	VAUX	v	lex-रह|cat-v|gen-m|num-pl|pers-any|case-|vib-या|tam-yA|chunkId-VGF|chunkType-child|stype-|voicetype-	19	lwg__vaux	_	_
21	हैं	है	VAUX	v	lex-है|cat-v|gen-any|num-pl|pers-3|case-|vib-है|tam-hE|chunkId-VGF|chunkType-child|stype-|voicetype-	19	lwg__vaux	_	_
22	,	COMMA	SYM	punc	lex-COMMA|cat-punc|gen-|num-|pers-|case-|vib-|tam-|chunkId-VGF|chunkType-child|stype-|voicetype-	19	rsym	_	_
23	जबकि	जबकि	CC	avy	lex-जबकि|cat-avy|gen-|num-|pers-|case-|vib-|tam-|chunkId-CCP2|chunkType-head|stype-|voicetype-	1	ccof	_	_
24	कुछ	कुछ	QF	avy	lex-कुछ|cat-avy|gen-|num-|pers-|case-|vib-|tam-|chunkId-NP7|chunkType-child|stype-|voicetype-	25	nmod__adj	_	_
25	लोग	लोग	NN	n	lex-लोग|cat-n|gen-m|num-pl|pers-3|case-d|vib-0|tam-0|chunkId-NP7|chunkType-head|stype-|voicetype-	33	k1	_	_
26	जज	जज	NN	n	lex-जज|cat-n|gen-m|num-sg|pers-3|case-d|vib-0|tam-0|chunkId-NP8|chunkType-head|stype-|voicetype-	27	k1	_	_
27	बनने	बन	VM	v	lex-बन|cat-v|gen-any|num-any|pers-any|case-o|vib-ना_के_लिए|tam-nA|chunkId-VGNN2|chunkType-head|stype-|voicetype-	33	rt	_	_
28	के	के	PSP	psp	lex-के|cat-psp|gen-|num-|pers-|case-|vib-|tam-|chunkId-VGNN2|chunkType-child|stype-|voicetype-	27	lwg__psp	_	_
29	लिए	लिए	PSP	psp	lex-लिए|cat-psp|gen-|num-|pers-|case-|vib-|tam-|chunkId-VGNN2|chunkType-child|stype-|voicetype-	27	lwg__psp	_	_
30	इस	यह	DEM	pn	lex-यह|cat-pn|gen-any|num-sg|pers-3|case-o|vib-|tam-|chunkId-RBP|chunkType-child|stype-|voicetype-	31	nmod__adj	_	_
31	कदर	कदर	RB	adv	lex-कदर|cat-adv|gen-|num-|pers-|case-|vib-|tam-|chunkId-RBP|chunkType-head|stype-|voicetype-	32	jjmod	_	_
32	आतुर	आतुर	JJ	adj	lex-आतुर|cat-adj|gen-any|num-any|pers-|case-|vib-|tam-|chunkId-JJP|chunkType-head|stype-|voicetype-	33	k1s	_	_
33	हैं	है	VM	v	lex-है|cat-v|gen-any|num-pl|pers-3|case-|vib-है|tam-hE|chunkId-VGF2|chunkType-head|stype-declarative|voicetype-active	23	ccof	_	_
34	कि	कि	CC	avy	lex-कि|cat-avy|gen-|num-|pers-|case-|vib-|tam-|chunkId-CCP3|chunkType-head|stype-|voicetype-	31	rs	_	_
35	इसके	यह	PRP	pn	lex-यह|cat-pn|gen-any|num-sg|pers-3|case-o|vib-0_लिए|tam-ke|chunkId-NP9|chunkType-head|stype-|voicetype-	39	rt	_	_
36	लिए	लिए	PSP	psp	lex-लिए|cat-psp|gen-|num-|pers-|case-|vib-|tam-|chunkId-NP9|chunkType-child|stype-|voicetype-	35	lwg__psp	_	_
37	बाकायदा	बाकायदा	RB	adv	lex-बाकायदा|cat-adv|gen-|num-|pers-|case-|vib-|tam-|chunkId-RBP2|chunkType-head|stype-|voicetype-	39	adv	_	_
38	अभियान	अभियान	NN	n	lex-अभियान|cat-n|gen-m|num-sg|pers-3|case-d|vib-0|tam-0|chunkId-NP10|chunkType-head|stype-|voicetype-	39	k2	_	_
39	छेड़	छेड़	VM	v	lex-छेड़|cat-v|gen-m|num-pl|pers-3|case-|vib-0_दे+ता_है|tam-0|chunkId-VGF3|chunkType-head|stype-declarative|voicetype-active	34	ccof	_	_
40	देते	दे	VAUX	v	lex-दे|cat-v|gen-m|num-pl|pers-any|case-|vib-ता|tam-wA|chunkId-VGF3|chunkType-child|stype-|voicetype-	39	lwg__vaux	_	_
41	हैं	है	VAUX	v	lex-है|cat-v|gen-any|num-pl|pers-3|case-|vib-है|tam-hE|chunkId-VGF3|chunkType-child|stype-|voicetype-	39	lwg__vaux	_	_
42	।	।	SYM	punc	lex-।|cat-punc|gen-|num-|pers-|case-|vib-|tam-|chunkId-BLK|chunkType-head|stype-|voicetype-	1	rsym	_	_

1	ऐसे	ऐसा	DEM	pn	lex-ऐसा|cat-pn|gen-m|num-pl|pers-any|case-d|vib-|tam-|chunkId-NP|chunkType-child|stype-|voicetype-	2	nmod__adj	_	_
2	लोग	लोग	NN	n	lex-लोग|cat-n|gen-m|num-pl|pers-3|case-d|vib-0|tam-0|chunkId-NP|chunkType-head|stype-|voicetype-	21	k1	_	_
3	जिनका	जो	PRP	pn	lex-जो|cat-pn|gen-m|num-pl|pers-3|case-o|vib-का|tam-kA|chunkId-NP2|chunkType-head|stype-|voicetype-	12	k1	_	_
4	जजों	जज	NN	n	lex-जज|cat-n|gen-m|num-pl|pers-3|case-o|vib-0_का|tam-0|chunkId-NP3|chunkType-head|stype-|voicetype-	7	r6	_	_
5	की	का	PSP	psp	lex-का|cat-psp|gen-f|num-sg|pers-|case-d|vib-|tam-|chunkId-NP3|chunkType-child|stype-|voicetype-	4	lwg__psp	_	_
6	चयन	चयन	NNC	n	lex-चयन|cat-n|gen-m|num-sg|pers-3|case-d|vib-0|tam-0|chunkId-NP4|chunkType-child|stype-|voicetype-	7	pof__cn	_	_
7	प्रक्रिया	प्रक्रिया	NN	n	lex-प्रक्रिया|cat-n|gen-f|num-sg|pers-3|case-o|vib-0_से|tam-0|chunkId-NP4|chunkType-head|stype-|voicetype-	14	k7	_	_
8	से	से	PSP	psp	lex-से|cat-psp|gen-|num-|pers-|case-|vib-|tam-|chunkId-NP4|chunkType-child|stype-|voicetype-	7	lwg__psp	_	_
9	कोई	कोई	PRP	pn	lex-कोई|cat-pn|gen-any|num-sg|pers-3|case-d|vib-0|tam-0|chunkId-NP5|chunkType-child|stype-|voicetype-	12	nmod__adj	_	_
10	लेना	लेना	NNC	n	lex-लेना|cat-n|gen-m|num-sg|pers-3|case-d|vib-0|tam-0|chunkId-NP5|chunkType-child|stype-|voicetype-	12	pof__cn	_	_
11	-	-	SYM	punc	lex--|cat-punc|gen-|num-|pers-|case-|vib-|tam-|chunkId-NP5|chunkType-child|stype-|voicetype-	12	pof__cn	_	_
12	देना	देना	NN	n	lex-देना|cat-n|gen-m|num-sg|pers-3|case-d|vib-0|tam-0|chunkId-NP5|chunkType-head|stype-|voicetype-	14	k1	_	_
13	नहीं	नहीं	NEG	avy	lex-नहीं|cat-avy|gen-|num-|pers-|case-|vib-|tam-|chunkId-VGF|chunkType-child|stype-|voicetype-	14	lwg__neg	_	_
14	है	है	VM	v	lex-है|cat-v|gen-any|num-sg|pers-3|case-|vib-है|tam-hE|chunkId-VGF|chunkType-head|stype-declarative|voicetype-active	2	nmod__relc	_	_
15	,	COMMA	SYM	punc	lex-COMMA|cat-punc|gen-|num-|pers-|case-|vib-|tam-|chunkId-VGF|chunkType-child|stype-|voicetype-	14	rsym	_	_
16	इन	यह	DEM	pn	lex-यह|cat-pn|gen-any|num-pl|pers-3|case-o|vib-|tam-|chunkId-NP6|chunkType-child|stype-|voicetype-	17	nmod__adj	_	_
17	लोगों	लोग	NN	n	lex-लोग|cat-n|gen-m|num-pl|pers-3|case-o|vib-0_का|tam-0|chunkId-NP6|chunkType-head|stype-|voicetype-	19	r6	_	_
18	का	का	PSP	psp	lex-का|cat-psp|gen-m|num-sg|pers-|case-d|vib-|tam-|chunkId-NP6|chunkType-child|stype-|voicetype-	17	lwg__psp	_	_
19	बायोडाटा	बायोडाटा	NN	n	lex-बायोडाटा|cat-n|gen-m|num-sg|pers-3|case-d|vib-0|tam-0|chunkId-NP7|chunkType-head|stype-|voicetype-	20	k2	_	_
20	लेकर	ले	VM	v	lex-ले|cat-v|gen-any|num-any|pers-any|case-|vib-कर|tam-kara|chunkId-VGNF|chunkType-head|stype-|voicetype-	21	vmod	_	_
21	आते	आ	VM	v	lex-आ|cat-v|gen-m|num-pl|pers-3|case-|vib-ता_है|tam-wA|chunkId-VGF2|chunkType-head|stype-declarative|voicetype-active	23	ccof	_	_
22	हैं	है	VAUX	v	lex-है|cat-v|gen-any|num-pl|pers-3|case-|vib-है|tam-hE|chunkId-VGF2|chunkType-child|stype-|voicetype-	21	lwg__vaux	_	_
23	और	और	CC	avy	lex-और|cat-avy|gen-|num-|pers-|case-|vib-|tam-|chunkId-CCP|chunkType-head|stype-|voicetype-	0	main	_	_
24	बताते	बता	VM	v	lex-बता|cat-v|gen-m|num-pl|pers-3|case-|vib-ता_है|tam-wA|chunkId-VGF3|chunkType-head|stype-declarative|voicetype-active	23	ccof	_	_
25	हैं	है	VAUX	v	lex-है|cat-v|gen-any|num-pl|pers-3|case-|vib-है|tam-hE|chunkId-VGF3|chunkType-child|stype-|voicetype-	24	lwg__vaux	_	_
26	कि	कि	CC	avy	lex-कि|cat-avy|gen-|num-|pers-|case-|vib-|tam-|chunkId-CCP2|chunkType-head|stype-|voicetype-	24	k2	_	_
27	यही	यह	PRP	pn	lex-यह|cat-pn|gen-m|num-pl|pers-3|case-d|vib-0|tam-0|chunkId-NP8|chunkType-head|stype-|voicetype-	35	k1	_	_
28	जज	जज	NN	n	lex-जज|cat-n|gen-m|num-sg|pers-3|case-d|vib-0|tam-0|chunkId-NP9|chunkType-head|stype-|voicetype-	29	k1	_	_
29	बनने	बन	VM	v	lex-बन|cat-v|gen-any|num-any|pers-any|case-o|vib-ना_के_लिए|tam-nA|chunkId-VGNN|chunkType-head|stype-|voicetype-	35	rt	_	_
30	के	के	PSP	psp	lex-के|cat-psp|gen-|num-|pers-|case-|vib-|tam-|chunkId-VGNN|chunkType-child|stype-|voicetype-	29	lwg__psp	_	_
31	लिए	लिए	PSP	psp	lex-लिए|cat-psp|gen-|num-|pers-|case-|vib-|tam-|chunkId-VGNN|chunkType-child|stype-|voicetype-	29	lwg__psp	_	_
32	सबसे	सबसे	INTF	avy	lex-सबसे|cat-avy|gen-|num-|pers-|case-|vib-|tam-|chunkId-NP10|chunkType-child|stype-|voicetype-	33	jjmod__intf	_	_
33	उपयुक्त	उपयुक्त	JJ	adj	lex-उपयुक्त|cat-adj|gen-any|num-any|pers-|case-d|vib-|tam-|chunkId-NP10|chunkType-child|stype-|voicetype-	34	nmod__adj	_	_
34	प्रत्याशी	प्रत्याशी	NN	n	lex-प्रत्याशी|cat-n|gen-m|num-pl|pers-3|case-d|vib-0|tam-0|chunkId-NP10|chunkType-head|stype-|voicetype-	35	k1s	_	_
35	हैं	है	VM	v	lex-है|cat-v|gen-any|num-pl|pers-3|case-|vib-है|tam-hE|chunkId-VGF4|chunkType-head|stype-declarative|voicetype-active	26	ccof	_	_
36	।	।	SYM	punc	lex-।|cat-punc|gen-|num-|pers-|case-|vib-|tam-|chunkId-BLK|chunkType-head|stype-|voicetype-	23	rsym	_	_

1	चीफ	चीफ	NNC	adj	lex-चीफ|cat-adj|gen-any|num-any|pers-|case-o|vib-|tam-|chunkId-NP|chunkType-child|stype-|voicetype-	3	pof__cn	_	_
2	जस्टिस	जस्टिस	NNC	n	lex-जस्टिस|cat-n|gen-m|num-sg|pers-3|case-d|vib-0|tam-0|chunkId-NP|chunkType-child|stype-|voicetype-	3	pof__cn	_	_
3	सब्बरवाल	सब्बरवाल	NNP	n	lex-सब्बरवाल|cat-n|gen-any|num-sg|pers-3|case-o|vib-0_ने|tam-0|chunkId-NP|chunkType-head|stype-|voicetype-	5	k1	_	_
4	ने	ने	PSP	psp	lex-ने|cat-psp|gen-|num-|pers-|case-|vib-|tam-|chunkId-NP|chunkType-child|stype-|voicetype-	3	lwg__psp	_	_
5	कहा	कह	VM	v	lex-कह|cat-v|gen-m|num-sg|pers-any|case-|vib-या|tam-yA|chunkId-VGF|chunkType-head|stype-declarative|voicetype-active	0	main	_	_
6	कि	कि	CC	avy	lex-कि|cat-avy|gen-|num-|pers-|case-|vib-|tam-|chunkId-CCP|chunkType-head|stype-|voicetype-	5	k2	_	_
7	बार	बार	NN	n	lex-बार|cat-n|gen-m|num-sg|pers-3|case-o|vib-0_का|tam-0|chunkId-NP2|chunkType-head|stype-|voicetype-	11	r6	_	_
8	के	का	PSP	psp	lex-का|cat-psp|gen-m|num-sg|pers-|case-o|vib-|tam-|chunkId-NP2|chunkType-child|stype-|voicetype-	7	lwg__psp	_	_
9	इस	यह	PRP	pn	lex-यह|cat-pn|gen-any|num-sg|pers-3|case-o|vib-0|tam-0|chunkId-NP3|chunkType-head|stype-|voicetype-	11	fragof	_	_
10	गिरते	गिर	VM	v	lex-गिर|cat-v|gen-m|num-sg|pers-any|case-|vib-ता|tam-wA|chunkId-VGNF|chunkType-head|stype-|voicetype-	11	nmod	_	_
11	स्तर	स्तर	NN	n	lex-स्तर|cat-n|gen-m|num-sg|pers-3|case-o|vib-0_को|tam-0|chunkId-NP4|chunkType-head|stype-|voicetype-	13	k1	_	_
12	को	को	PSP	psp	lex-को|cat-psp|gen-|num-|pers-|case-|vib-|tam-|chunkId-NP4|chunkType-child|stype-|voicetype-	11	lwg__psp	_	_
13	रोकना	रोक	VM	v	lex-रोक|cat-v|gen-m|num-sg|pers-3|case-|vib-ना_हो+गा|tam-nA|chunkId-VGF2|chunkType-head|stype-declarative|voicetype-active	6	ccof	_	_
14	होगा	हो	VAUX	v	lex-हो|cat-v|gen-m|num-sg|pers-3|case-|vib-गा|tam-gA|chunkId-VGF2|chunkType-child|stype-|voicetype-	13	lwg__vaux	_	_
15	।	।	SYM	punc	lex-।|cat-punc|gen-|num-|pers-|case-|vib-|tam-|chunkId-BLK|chunkType-head|stype-|voicetype-	5	rsym	_	_

1	उन्होंने	वह	PRP	pn	lex-वह|cat-pn|gen-any|num-sg|pers-3h|case-o|vib-ने|tam-ne|chunkId-NP|chunkType-head|stype-|voicetype-	5	k1	_	_
2	जजों	जज	NN	n	lex-जज|cat-n|gen-m|num-pl|pers-3|case-o|vib-0_को|tam-0|chunkId-NP2|chunkType-head|stype-|voicetype-	5	k4	_	_
3	को	को	PSP	psp	lex-को|cat-psp|gen-|num-|pers-|case-|vib-|tam-|chunkId-NP2|chunkType-child|stype-|voicetype-	2	lwg__psp	_	_
4	सलाह	सलाह	NN	n	lex-सलाह|cat-n|gen-f|num-sg|pers-3|case-d|vib-0|tam-0|chunkId-NP3|chunkType-head|stype-|voicetype-	5	pof	_	_
5	दी	दे	VM	v	lex-दे|cat-v|gen-f|num-sg|pers-any|case-|vib-या|tam-yA|chunkId-VGF|chunkType-head|stype-declarative|voicetype-active	0	main	_	_
6	कि	कि	CC	avy	lex-कि|cat-avy|gen-|num-|pers-|case-|vib-|tam-|chunkId-CCP|chunkType-head|stype-|voicetype-	5	k2	_	_
7	वे	वह	PRP	pn	lex-वह|cat-pn|gen-any|num-pl|pers-3|case-d|vib-0|tam-0|chunkId-NP4|chunkType-head|stype-|voicetype-	14	k1	_	_
8	ईमानदारी	ईमानदारी	NN	n	lex-ईमानदारी|cat-n|gen-f|num-sg|pers-3|case-d|vib-0|tam-0|chunkId-NP5|chunkType-head|stype-|voicetype-	9	ccof	_	_
9	और	और	CC	avy	lex-और|cat-avy|gen-|num-|pers-|case-|vib-|tam-|chunkId-CCP2|chunkType-head|stype-|voicetype-	14	k2	_	_
10	सत्यनिष्ठा	सत्यनिष्ठा	NN	n	lex-सत्यनिष्ठा|cat-n|gen-f|num-sg|pers-3|case-d|vib-0|tam-0|chunkId-NP6|chunkType-head|stype-|voicetype-	9	ccof	_	_
11	ही	ही	RP	avy	lex-ही|cat-avy|gen-|num-|pers-|case-|vib-|tam-|chunkId-NP6|chunkType-child|stype-|voicetype-	10	lwg__rp	_	_
12	अपना	अपना	PRP	pn	lex-अपना|cat-pn|gen-m|num-sg|pers-any|case-|vib-0|tam-0|chunkId-NP7|chunkType-head|stype-|voicetype-	13	r6	_	_
13	गॉडफादर	गॉडफादर	NN	n	lex-गॉडफादर|cat-n|gen-m|num-sg|pers-3|case-d|vib-0|tam-0|chunkId-NP8|chunkType-head|stype-|voicetype-	14	k2s	_	_
14	बनाएं	बना	VM	v	lex-बना|cat-v|gen-any|num-pl|pers-3|case-|vib-एं|tam-eM|chunkId-VGF2|chunkType-head|stype-imperative|voicetype-active	6	ccof	_	_
15	।	।	SYM	punc	lex-।|cat-punc|gen-|num-|pers-|case-|vib-|tam-|chunkId-BLK|chunkType-head|stype-|voicetype-	5	rsym	_	_

1	उन्होंने	वह	PRP	pn	lex-वह|cat-pn|gen-any|num-sg|pers-3h|case-o|vib-ने|tam-ne|chunkId-NP|chunkType-head|stype-|voicetype-	2	k1	_	_
2	कहा	कह	VM	v	lex-कह|cat-v|gen-m|num-sg|pers-any|case-|vib-या|tam-yA|chunkId-VGF|chunkType-head|stype-declarative|voicetype-active	0	main	_	_
3	कि	कि	CC	avy	lex-कि|cat-avy|gen-|num-|pers-|case-|vib-|tam-|chunkId-CCP|chunkType-head|stype-|voicetype-	2	k2	_	_
4	कुछ	कुछ	QF	avy	lex-कुछ|cat-avy|gen-|num-|pers-|case-|vib-|tam-|chunkId-NP2|chunkType-child|stype-|voicetype-	7	nmod__adj	_	_
5	ऐसी	ऐसा	DEM	pn	lex-ऐसा|cat-pn|gen-f|num-sg|pers-any|case-d|vib-|tam-|chunkId-NP2|chunkType-child|stype-|voicetype-	7	nmod__adj	_	_
6	ही	ही	RP	avy	lex-ही|cat-avy|gen-|num-|pers-|case-|vib-|tam-|chunkId-NP2|chunkType-child|stype-|voicetype-	7	lwg__rp	_	_
7	स्थिति	स्थिति	NN	n	lex-स्थिति|cat-n|gen-f|num-sg|pers-3|case-d|vib-0|tam-0|chunkId-NP2|chunkType-head|stype-|voicetype-	18	k1	_	_
8	वकीलों	वकील	NN	n	lex-वकील|cat-n|gen-m|num-pl|pers-3|case-o|vib-0_को|tam-0|chunkId-NP3|chunkType-head|stype-|voicetype-	12	k2	_	_
9	को	को	PSP	psp	lex-को|cat-psp|gen-|num-|pers-|case-|vib-|tam-|chunkId-NP3|chunkType-child|stype-|voicetype-	8	lwg__psp	_	_
10	वरिष्ठ	वरिष्ठ	JJ	adj	lex-वरिष्ठ|cat-adj|gen-any|num-any|pers-|case-d|vib-|tam-|chunkId-NP4|chunkType-child|stype-|voicetype-	11	nmod__adj	_	_
11	अधिवक्ता	अधिवक्ता	NN	n	lex-अधिवक्ता|cat-n|gen-m|num-sg|pers-3|case-d|vib-0|tam-0|chunkId-NP4|chunkType-head|stype-|voicetype-	12	k2s	_	_
12	बनाए	बना	VM	v	lex-बना|cat-v|gen-any|num-sg|pers-any|case-|vib-या_जा+ना_का|tam-yA|chunkId-VGNN|chunkType-head|stype-|voicetype-	15	r6	_	_
13	जाने	जा	VAUX	v	lex-जा|cat-v|gen-any|num-any|pers-any|case-o|vib-ना|tam-nA|chunkId-VGNN|chunkType-child|stype-|voicetype-	12	lwg__vaux	_	_
14	के	का	PSP	psp	lex-का|cat-psp|gen-m|num-sg|pers-|case-o|vib-|tam-|chunkId-VGNN|chunkType-child|stype-|voicetype-	12	lwg__psp	_	_
15	मामले	मामला	NN	n	lex-मामला|cat-n|gen-m|num-sg|pers-3|case-o|vib-0_में|tam-0|chunkId-NP5|chunkType-head|stype-|voicetype-	18	k7	_	_
16	में	में	PSP	psp	lex-में|cat-psp|gen-|num-|pers-|case-|vib-|tam-|chunkId-NP5|chunkType-child|stype-|voicetype-	15	lwg__psp	_	_
17	भी	भी	RP	avy	lex-भी|cat-avy|gen-|num-|pers-|case-|vib-|tam-|chunkId-NP5|chunkType-child|stype-|voicetype-	15	lwg__rp	_	_
18	है	है	VM	v	lex-है|cat-v|gen-any|num-sg|pers-3|case-|vib-है|tam-hE|chunkId-VGF2|chunkType-head|stype-declarative|voicetype-active	3	ccof	_	_
19	।	।	SYM	punc	lex-।|cat-punc|gen-|num-|pers-|case-|vib-|tam-|chunkId-BLK|chunkType-head|stype-|voicetype-	2	rsym	_	_

