1	देश	देश	NN	n	lex-देश|cat-n|gen-m|num-sg|pers-3|case-o|vib-0_में|tam-0|chunkId-NP|chunkType-head|stype-|voicetype-	16	k7p	_	_
2	में	में	PSP	psp	lex-में|cat-psp|gen-|num-|pers-|case-|vib-|tam-|chunkId-NP|chunkType-child|stype-|voicetype-	1	lwg__psp	_	_
3	चार	चार	QC	num	lex-चार|cat-num|gen-any|num-any|pers-|case-any|vib-|tam-|chunkId-NP2|chunkType-child|stype-|voicetype-	4	nmod__adj	_	_
4	राज्यों	राज्य	NN	n	lex-राज्य|cat-n|gen-m|num-pl|pers-3|case-o|vib-0|tam-0|chunkId-NP2|chunkType-head|stype-|voicetype-	5	ccof	_	_
5	तथा	तथा	CC	avy	lex-तथा|cat-avy|gen-|num-|pers-|case-|vib-|tam-|chunkId-CCP|chunkType-head|stype-|voicetype-	16	rt	_	_
6	एक	एक	QC	num	lex-एक|cat-num|gen-any|num-any|pers-|case-any|vib-|tam-|chunkId-NP3|chunkType-child|stype-|voicetype-	8	nmod__adj	_	_
7	संघशासित	संघशासित	JJ	adj	lex-संघशासित|cat-adj|gen-any|num-any|pers-|case-o|vib-|tam-|chunkId-NP3|chunkType-child|stype-|voicetype-	8	nmod__adj	_	_
8	प्रदेश	प्रदेश	NN	n	lex-प्रदेश|cat-n|gen-m|num-sg|pers-3|case-o|vib-0_के_लिए|tam-0|chunkId-NP3|chunkType-head|stype-|voicetype-	5	ccof	_	_
9	के	के	PSP	psp	lex-के|cat-psp|gen-|num-|pers-|case-|vib-|tam-|chunkId-NP3|chunkType-child|stype-|voicetype-	8	lwg__psp	_	_
10	लिए	लिए	PSP	psp	lex-लिए|cat-psp|gen-|num-|pers-|case-|vib-|tam-|chunkId-NP3|chunkType-child|stype-|voicetype-	8	lwg__psp	_	_
11	चुनावों	चुनाव	NN	n	lex-चुनाव|cat-n|gen-m|num-pl|pers-3|case-o|vib-0_का|tam-0|chunkId-NP4|chunkType-head|stype-|voicetype-	13	r6-k1	_	_
12	की	का	PSP	psp	lex-का|cat-psp|gen-f|num-sg|pers-|case-d|vib-|tam-|chunkId-NP4|chunkType-child|stype-|voicetype-	11	lwg__psp	_	_
13	शुरुआत	शुरुआत	NN	n	lex-शुरुआत|cat-n|gen-f|num-sg|pers-3|case-d|vib-0|tam-0|chunkId-NP5|chunkType-head|stype-|voicetype-	16	pof	_	_
14	सोमवार	सोमवार	NNP	n	lex-सोमवार|cat-n|gen-m|num-sg|pers-3|case-o|vib-0_को|tam-0|chunkId-NP6|chunkType-head|stype-|voicetype-	16	k7t	_	_
15	को	को	PSP	psp	lex-को|cat-psp|gen-|num-|pers-|case-|vib-|tam-|chunkId-NP6|chunkType-child|stype-|voicetype-	14	lwg__psp	_	_
16	होने	हो	VM	v	lex-हो|cat-v|gen-f|num-sg|pers-3|case-|vib-ना_जा_रह+या_है|tam-nA|chunkId-VGF|chunkType-head|stype-declarative|voicetype-passive	0	main	_	_
17	जा	जा	VAUX	v	lex-जा|cat-v|gen-any|num-any|pers-any|case-|vib-0|tam-0|chunkId-VGF|chunkType-child|stype-|voicetype-	16	lwg__vaux	_	_
18	रही	रह	VAUX	v	lex-रह|cat-v|gen-f|num-sg|pers-any|case-|vib-या|tam-yA|chunkId-VGF|chunkType-child|stype-|voicetype-	16	lwg__vaux	_	_
19	है	है	VAUX	v	lex-है|cat-v|gen-any|num-sg|pers-3|case-|vib-है|tam-hE|chunkId-VGF|chunkType-child|stype-|voicetype-	16	lwg__vaux	_	_
20	।	।	SYM	punc	lex-।|cat-punc|gen-|num-|pers-|case-|vib-|tam-|chunkId-BLK|chunkType-head|stype-|voicetype-	16	rsym	_	_

1	इस	यह	DEM	pn	lex-यह|cat-pn|gen-any|num-sg|pers-3|case-o|vib-|tam-|chunkId-NP|chunkType-child|stype-|voicetype-	2	nmod__adj	_	_
2	अवसर	अवसर	NN	n	lex-अवसर|cat-n|gen-m|num-sg|pers-3|case-o|vib-0_पर|tam-0|chunkId-NP|chunkType-head|stype-|voicetype-	12	k7	_	_
3	पर	पर	PSP	psp	lex-पर|cat-psp|gen-|num-|pers-|case-|vib-|tam-|chunkId-NP|chunkType-child|stype-|voicetype-	2	lwg__psp	_	_
4	देश	देश	NN	n	lex-देश|cat-n|gen-m|num-sg|pers-3|case-o|vib-0_का|tam-0|chunkId-NP2|chunkType-head|stype-|voicetype-	9	r6	_	_
5	के	का	PSP	psp	lex-का|cat-psp|gen-m|num-pl|pers-|case-o|vib-|tam-|chunkId-NP2|chunkType-child|stype-|voicetype-	4	lwg__psp	_	_
6	लगभग	लगभग	RP	avy	lex-लगभग|cat-avy|gen-|num-|pers-|case-|vib-|tam-|chunkId-NP3|chunkType-child|stype-|voicetype-	9	lwg__rp	_	_
7	२०	२०	QC	num	lex-२०|cat-num|gen-any|num-any|pers-|case-any|vib-|tam-|chunkId-NP3|chunkType-child|stype-|voicetype-	9	nmod__adj	_	_
8	प्रतिशत	प्रतिशत	NN	n	lex-प्रतिशत|cat-n|gen-m|num-sg|pers-3|case-d|vib-0|tam-0|chunkId-NP3|chunkType-child|stype-|voicetype-	9	nmod	_	_
9	मतदाताओं	मतदाता	NN	n	lex-मतदाता|cat-n|gen-m|num-pl|pers-3|case-o|vib-0_द्वारा|tam-0|chunkId-NP3|chunkType-head|stype-|voicetype-	12	k1	_	_
10	द्वारा	द्वारा	PSP	psp	lex-द्वारा|cat-psp|gen-|num-|pers-|case-|vib-|tam-|chunkId-NP3|chunkType-child|stype-|voicetype-	9	lwg__psp	_	_
11	मतदान	मतदान	NN	n	lex-मतदान|cat-n|gen-m|num-sg|pers-3|case-d|vib-0|tam-0|chunkId-NP4|chunkType-head|stype-|voicetype-	12	pof	_	_
12	किए	कर	VM	v	lex-कर|cat-v|gen-any|num-sg|pers-any|case-|vib-या_जा+ना_का|tam-yA|chunkId-VGNN|chunkType-head|stype-|voicetype-	15	r6	_	_
13	जाने	जा	VAUX	v	lex-जा|cat-v|gen-any|num-any|pers-any|case-o|vib-ना|tam-nA|chunkId-VGNN|chunkType-child|stype-|voicetype-	12	lwg__vaux	_	_
14	की	का	PSP	psp	lex-का|cat-psp|gen-f|num-sg|pers-|case-d|vib-|tam-|chunkId-VGNN|chunkType-child|stype-|voicetype-	12	lwg__psp	_	_
15	आशा	आशा	NN	n	lex-आशा|cat-n|gen-f|num-sg|pers-3|case-d|vib-0|tam-0|chunkId-NP5|chunkType-head|stype-|voicetype-	16	k1	_	_
16	है	है	VM	v	lex-है|cat-v|gen-any|num-sg|pers-3|case-|vib-है|tam-hE|chunkId-VGF|chunkType-head|stype-declarative|voicetype-active	0	main	_	_
17	।	।	SYM	punc	lex-।|cat-punc|gen-|num-|pers-|case-|vib-|tam-|chunkId-BLK|chunkType-head|stype-|voicetype-	16	rsym	_	_

1	NULL	_	NN	_	lex-_|cat-_|gen-|num-|pers-|case-|vib-|tam-|chunkId-NULL__NP|chunkType-head|stype-|voicetype-	3	k1	_	_
2	उल्लेखनीय	उल्लेखनीय	JJ	adj	lex-उल्लेखनीय|cat-adj|gen-any|num-any|pers-|case-|vib-|tam-|chunkId-JJP|chunkType-head|stype-|voicetype-	3	k1s	_	_
3	है	है	VM	v	lex-है|cat-v|gen-any|num-sg|pers-3|case-|vib-है|tam-hE|chunkId-VGF|chunkType-head|stype-declarative|voicetype-active	0	main	_	_
4	कि	कि	CC	avy	lex-कि|cat-avy|gen-|num-|pers-|case-|vib-|tam-|chunkId-CCP|chunkType-head|stype-|voicetype-	1	rs	_	_
5	इन	यह	DEM	pn	lex-यह|cat-pn|gen-any|num-pl|pers-3|case-o|vib-|tam-|chunkId-NP|chunkType-child|stype-|voicetype-	6	nmod__adj	_	_
6	चुनावों	चुनाव	NN	n	lex-चुनाव|cat-n|gen-m|num-pl|pers-3|case-o|vib-0_में|tam-0|chunkId-NP|chunkType-head|stype-|voicetype-	21	k7	_	_
7	में	में	PSP	psp	lex-में|cat-psp|gen-|num-|pers-|case-|vib-|tam-|chunkId-NP|chunkType-child|stype-|voicetype-	6	lwg__psp	_	_
8	देश	देश	NN	n	lex-देश|cat-n|gen-m|num-sg|pers-3|case-o|vib-0_का|tam-0|chunkId-NP2|chunkType-head|stype-|voicetype-	13	r6	_	_
9	के	का	PSP	psp	lex-का|cat-psp|gen-m|num-sg|pers-|case-o|vib-|tam-|chunkId-NP2|chunkType-child|stype-|voicetype-	8	lwg__psp	_	_
10	कुल	कुल	QF	avy	lex-कुल|cat-avy|gen-|num-|pers-|case-|vib-|tam-|chunkId-NP3|chunkType-child|stype-|voicetype-	13	nmod__adj	_	_
11	६७	६७	QCC	num	lex-६७|cat-num|gen-any|num-any|pers-|case-any|vib-|tam-|chunkId-NP3|chunkType-child|stype-|voicetype-	13	mod	_	_
12	करोड़	करोड	QC	num	lex-करोड|cat-num|gen-any|num-any|pers-|case-any|vib-|tam-|chunkId-NP3|chunkType-child|stype-|voicetype-	13	nmod__adj	_	_
13	मतदाताओं	मतदाता	NN	n	lex-मतदाता|cat-n|gen-m|num-pl|pers-3|case-o|vib-0_में_से|tam-0|chunkId-NP3|chunkType-head|stype-|voicetype-	21	k5	_	_
14	में	में	PSP	psp	lex-में|cat-psp|gen-|num-|pers-|case-|vib-|tam-|chunkId-NP3|chunkType-child|stype-|voicetype-	13	lwg__psp	_	_
15	से	से	PSP	psp	lex-से|cat-psp|gen-|num-|pers-|case-|vib-|tam-|chunkId-NP3|chunkType-child|stype-|voicetype-	13	lwg__psp	_	_
16	१/५	१	QC	num	lex-१|cat-num|gen-any|num-any|pers-|case-any|vib-|tam-|chunkId-NP4|chunkType-child|stype-|voicetype-	18	nmod__adj	_	_
17	भाग	भाग	NN	n	lex-भाग|cat-n|gen-m|num-sg|pers-3|case-d|vib-0|tam-0|chunkId-NP4|chunkType-child|stype-|voicetype-	18	nmod	_	_
18	मतदाता	मतदाता	NN	n	lex-मतदाता|cat-n|gen-m|num-pl|pers-3|case-d|vib-0|tam-0|chunkId-NP4|chunkType-head|stype-|voicetype-	21	k1	_	_
19	हिस्सा	हिस्सा	NN	n	lex-हिस्सा|cat-n|gen-m|num-sg|pers-3|case-d|vib-0|tam-0|chunkId-NP5|chunkType-head|stype-|voicetype-	20	pof	_	_
20	लेने	ले	VM	v	lex-ले|cat-v|gen-any|num-any|pers-any|case-|vib-ना|tam-nA|chunkId-VGNN|chunkType-head|stype-|voicetype-	21	rt	_	_
21	जा	जा	VM	v	lex-जा|cat-v|gen-m|num-pl|pers-3|case-|vib-0_रह+या_है|tam-0|chunkId-VGF2|chunkType-head|stype-declarative|voicetype-active	4	ccof	_	_
22	रहे	रह	VAUX	v	lex-रह|cat-v|gen-m|num-pl|pers-any|case-|vib-या|tam-yA|chunkId-VGF2|chunkType-child|stype-|voicetype-	21	lwg__vaux	_	_
23	हैं	है	VAUX	v	lex-है|cat-v|gen-any|num-pl|pers-3|case-|vib-है|tam-hE|chunkId-VGF2|chunkType-child|stype-|voicetype-	21	lwg__vaux	_	_
24	।	।	SYM	punc	lex-।|cat-punc|gen-|num-|pers-|case-|vib-|tam-|chunkId-BLK|chunkType-head|stype-|voicetype-	3	rsym	_	_

1	दो	दो	QC	num	lex-दो|cat-num|gen-any|num-any|pers-|case-any|vib-|tam-|chunkId-NP|chunkType-child|stype-|voicetype-	2	nmod__adj	_	_
2	वर्ष	वर्ष	NN	n	lex-वर्ष|cat-n|gen-m|num-sg|pers-3|case-d|vib-0_पहला|tam-0|chunkId-NP|chunkType-head|stype-|voicetype-	4	k7t	_	_
3	पहले	पहला	NST	nst	lex-पहला|cat-nst|gen-m|num-sg|pers-|case-d|vib-|tam-|chunkId-NP|chunkType-child|stype-|voicetype-	2	lwg__psp	_	_
4	हुए	हो	VM	v	lex-हो|cat-v|gen-m|num-pl|pers-any|case-|vib-या|tam-yA|chunkId-VGNF|chunkType-head|stype-|voicetype-	6	nmod__k1inv	_	_
5	संसदीय	संसदीय	JJ	adj	lex-संसदीय|cat-adj|gen-any|num-any|pers-|case-d|vib-|tam-|chunkId-NP2|chunkType-child|stype-|voicetype-	6	nmod__adj	_	_
6	चुनावों	चुनाव	NN	n	lex-चुनाव|cat-n|gen-m|num-pl|pers-3|case-o|vib-0_के_बाद|tam-0|chunkId-NP2|chunkType-head|stype-|voicetype-	13	k7t	_	_
7	के	के	PSP	psp	lex-के|cat-psp|gen-|num-|pers-|case-|vib-|tam-|chunkId-NP2|chunkType-child|stype-|voicetype-	6	lwg__psp	_	_
8	बाद	बाद	NST	nst	lex-बाद|cat-nst|gen-m|num-sg|pers-3|case-d|vib-|tam-|chunkId-NP2|chunkType-child|stype-|voicetype-	6	lwg__psp	_	_
9	यह	यह	PRP	pn	lex-यह|cat-pn|gen-any|num-sg|pers-3|case-d|vib-|tam-|chunkId-NP3|chunkType-head|stype-|voicetype-	13	k1	_	_
10	सबसे	सबसे	INTF	avy	lex-सबसे|cat-avy|gen-any|num-any|pers-|case-any|vib-|tam-|chunkId-NP4|chunkType-child|stype-|voicetype-	11	jjmod__intf	_	_
11	बड़ा	बडा	JJ	adj	lex-बडा|cat-adj|gen-m|num-sg|pers-|case-d|vib-|tam-|chunkId-NP4|chunkType-child|stype-|voicetype-	12	nmod__adj	_	_
12	चुनाव	चुनाव	NN	n	lex-चुनाव|cat-n|gen-m|num-sg|pers-3|case-d|vib-0|tam-0|chunkId-NP4|chunkType-head|stype-|voicetype-	13	pof	_	_
13	होने	हो	VM	v	lex-हो|cat-v|gen-m|num-sg|pers-3|case-|vib-ना_जा_रह+या_है|tam-nA|chunkId-VGF|chunkType-head|stype-declarative|voicetype-active	0	main	_	_
14	जा	जा	VAUX	v	lex-जा|cat-v|gen-any|num-any|pers-any|case-|vib-0|tam-0|chunkId-VGF|chunkType-child|stype-|voicetype-	13	lwg__vaux	_	_
15	रहा	रह	VAUX	v	lex-रह|cat-v|gen-m|num-sg|pers-any|case-|vib-या|tam-yA|chunkId-VGF|chunkType-child|stype-|voicetype-	13	lwg__vaux	_	_
16	है	है	VAUX	v	lex-है|cat-v|gen-any|num-sg|pers-3|case-|vib-है|tam-hE|chunkId-VGF|chunkType-child|stype-|voicetype-	13	lwg__vaux	_	_
17	।	।	SYM	punc	lex-।|cat-punc|gen-|num-|pers-|case-|vib-|tam-|chunkId-BLK|chunkType-head|stype-|voicetype-	13	rsym	_	_

1	मतदाताओं	मतदाता	NN	n	lex-मतदाता|cat-n|gen-m|num-pl|pers-3|case-o|vib-0_द्वारा|tam-0|chunkId-NP|chunkType-head|stype-|voicetype-	21	k1	_	_
2	द्वारा	द्वारा	PSP	psp	lex-द्वारा|cat-psp|gen-|num-|pers-|case-|vib-|tam-|chunkId-NP|chunkType-child|stype-|voicetype-	1	lwg__psp	_	_
3	असम	असम	NNP	n	lex-असम|cat-n|gen-m|num-sg|pers-3|case-o|vib-0|tam-0|chunkId-NP2|chunkType-head|stype-|voicetype-	11	ccof	_	_
4	,	COMMA	SYM	punc	lex-COMMA|cat-punc|gen-|num-|pers-|case-|vib-|tam-|chunkId-NP2|chunkType-child|stype-|voicetype-	3	rsym	_	_
5	पश्चिम	पश्चिम	NNPC	n	lex-पश्चिम|cat-n|gen-m|num-sg|pers-3|case-d|vib-0|tam-0|chunkId-NP3|chunkType-child|stype-|voicetype-	6	pof__cn	_	_
6	बंगाल	बंगाल	NNP	n	lex-बंगाल|cat-n|gen-m|num-sg|pers-3|case-o|vib-0|tam-0|chunkId-NP3|chunkType-head|stype-|voicetype-	11	ccof	_	_
7	,	COMMA	SYM	punc	lex-COMMA|cat-punc|gen-|num-|pers-|case-|vib-|tam-|chunkId-NP3|chunkType-child|stype-|voicetype-	6	rsym	_	_
8	तमिलनाडु	तमिलनाडु	NNP	n	lex-तमिलनाडु|cat-n|gen-m|num-sg|pers-3|case-o|vib-0|tam-0|chunkId-NP4|chunkType-head|stype-|voicetype-	11	ccof	_	_
9	,	COMMA	SYM	punc	lex-COMMA|cat-punc|gen-|num-|pers-|case-|vib-|tam-|chunkId-NP4|chunkType-child|stype-|voicetype-	8	rsym	_	_
10	केरल	केरल	NNP	n	lex-केरल|cat-n|gen-m|num-sg|pers-3|case-o|vib-0|tam-0|chunkId-NP5|chunkType-head|stype-|voicetype-	11	ccof	_	_
11	तथा	तथा	CC	avy	lex-तथा|cat-avy|gen-|num-|pers-|case-|vib-|tam-|chunkId-CCP|chunkType-head|stype-|voicetype-	21	k7p	_	_
12	केंद्र	केंद्र	NNC	n	lex-केंद्र|cat-n|gen-m|num-sg|pers-3|case-d|vib-0|tam-0|chunkId-NP6|chunkType-child|stype-|voicetype-	14	pof__cn	_	_
13	शासित	शासित	NNC	adj	lex-शासित|cat-adj|gen-any|num-any|pers-|case-o|vib-|tam-|chunkId-NP6|chunkType-child|stype-|voicetype-	14	pof__cn	_	_
14	प्रदेश	प्रदेश	NN	n	lex-प्रदेश|cat-n|gen-m|num-sg|pers-3|case-o|vib-0|tam-0|chunkId-NP6|chunkType-head|stype-|voicetype-	15	nmod	_	_
15	पांडिचेरी	पांडिचेरी	NNP	n	lex-पांडिचेरी|cat-n|gen-m|num-sg|pers-3|case-o|vib-0_में|tam-0|chunkId-NP7|chunkType-head|stype-|voicetype-	11	ccof	_	_
16	में	में	PSP	psp	lex-में|cat-psp|gen-|num-|pers-|case-|vib-|tam-|chunkId-NP7|chunkType-child|stype-|voicetype-	15	lwg__psp	_	_
17	अपने	अपना	PRP	pn	lex-अपना|cat-pn|gen-m|num-any|pers-any|case-o|vib-0|tam-0|chunkId-NP8|chunkType-head|stype-|voicetype-	18	r6	_	_
18	प्रतिनिधियों	प्रतिनिधि	NN	n	lex-प्रतिनिधि|cat-n|gen-m|num-pl|pers-3|case-o|vib-0_का|tam-0|chunkId-NP9|chunkType-head|stype-|voicetype-	20	r6-k2	_	_
19	का	का	PSP	psp	lex-का|cat-psp|gen-m|num-sg|pers-|case-d|vib-|tam-|chunkId-NP9|chunkType-child|stype-|voicetype-	18	lwg__psp	_	_
20	चुनाव	चुनाव	NN	n	lex-चुनाव|cat-n|gen-m|num-sg|pers-3|case-d|vib-0|tam-0|chunkId-NP10|chunkType-head|stype-|voicetype-	21	pof	_	_
21	किया	कर	VM	v	lex-कर|cat-v|gen-m|num-sg|pers-3|case-|vib-या_जा+ना_है|tam-yA|chunkId-VGF|chunkType-head|stype-declarative|voicetype-passive	0	main	_	_
22	जाना	जा	VAUX	v	lex-जा|cat-v|gen-m|num-sg|pers-any|case-|vib-ना|tam-nA|chunkId-VGF|chunkType-child|stype-|voicetype-	21	lwg__vaux	_	_
23	है	है	VAUX	v	lex-है|cat-v|gen-any|num-sg|pers-3|case-|vib-है|tam-hE|chunkId-VGF|chunkType-child|stype-|voicetype-	21	lwg__vaux	_	_
24	।	।	SYM	punc	lex-।|cat-punc|gen-|num-|pers-|case-|vib-|tam-|chunkId-BLK|chunkType-head|stype-|voicetype-	21	rsym	_	_

1	यह	यह	DEM	pn	lex-यह|cat-pn|gen-any|num-sg|pers-3|case-d|vib-|tam-|chunkId-NP|chunkType-child|stype-|voicetype-	2	nmod__adj	_	_
2	चुनाव	चुनाव	NN	n	lex-चुनाव|cat-n|gen-m|num-sg|pers-3|case-d|vib-0|tam-0|chunkId-NP|chunkType-head|stype-|voicetype-	7	k2	_	_
3	८	८	NNPC	n	lex-८|cat-n|gen-any|num-any|pers-|case-any|vib-|tam-|chunkId-NP2|chunkType-child|stype-|voicetype-	4	pof__cn	_	_
4	मई	मई	NNP	n	lex-मई|cat-n|gen-f|num-sg|pers-3|case-o|vib-0_तक|tam-0|chunkId-NP2|chunkType-head|stype-|voicetype-	7	k7t	_	_
5	तक	तक	PSP	psp	lex-तक|cat-psp|gen-|num-|pers-|case-|vib-|tam-|chunkId-NP2|chunkType-child|stype-|voicetype-	4	lwg__psp	_	_
6	संपन्न	संपन्न	JJ	adj	lex-संपन्न|cat-adj|gen-any|num-any|pers-|case-|vib-|tam-|chunkId-JJP|chunkType-head|stype-|voicetype-	7	pof	_	_
7	कर	कर	VM	v	lex-कर|cat-v|gen-m|num-pl|pers-3|case-|vib-0_ले+या_जा+गा|tam-0|chunkId-VGF|chunkType-head|stype-declarative|voicetype-passive	0	main	_	_
8	लिए	ले	VAUX	v	lex-ले|cat-v|gen-m|num-pl|pers-any|case-|vib-या|tam-yA|chunkId-VGF|chunkType-child|stype-|voicetype-	7	lwg__vaux	_	_
9	जाएंगे	जा	VAUX	v	lex-जा|cat-v|gen-m|num-pl|pers-3|case-|vib-गा|tam-gA|chunkId-VGF|chunkType-child|stype-|voicetype-	7	lwg__vaux	_	_
10	।	।	SYM	punc	lex-।|cat-punc|gen-|num-|pers-|case-|vib-|tam-|chunkId-BLK|chunkType-head|stype-|voicetype-	7	rsym	_	_

1	चुनावों	चुनाव	NN	n	lex-चुनाव|cat-n|gen-m|num-pl|pers-3|case-o|vib-0_का|tam-0|chunkId-NP|chunkType-head|stype-|voicetype-	3	r6	_	_
2	के	का	PSP	psp	lex-का|cat-psp|gen-m|num-sg|pers-|case-o|vib-|tam-|chunkId-NP|chunkType-child|stype-|voicetype-	1	lwg__psp	_	_
3	परिणाम	परिणाम	NN	n	lex-परिणाम|cat-n|gen-m|num-sg|pers-3|case-o|vib-0_का|tam-0|chunkId-NP2|chunkType-head|stype-|voicetype-	5	r6-k2	_	_
4	की	का	PSP	psp	lex-का|cat-psp|gen-f|num-sg|pers-|case-d|vib-|tam-|chunkId-NP2|chunkType-child|stype-|voicetype-	3	lwg__psp	_	_
5	घोषणा	घोषणा	NN	n	lex-घोषणा|cat-n|gen-f|num-sg|pers-3|case-d|vib-0|tam-0|chunkId-NP3|chunkType-head|stype-|voicetype-	9	pof	_	_
6	११	११	NNPC	n	lex-११|cat-n|gen-any|num-sg|pers-3|case-d|vib-0|tam-0|chunkId-NP4|chunkType-child|stype-|voicetype-	7	pof__cn	_	_
7	मई	मई	NNP	n	lex-मई|cat-n|gen-f|num-sg|pers-3|case-o|vib-0_तक|tam-0|chunkId-NP4|chunkType-head|stype-|voicetype-	9	k7t	_	_
8	तक	तक	PSP	psp	lex-तक|cat-psp|gen-|num-|pers-|case-|vib-|tam-|chunkId-NP4|chunkType-child|stype-|voicetype-	7	lwg__psp	_	_
9	की	कर	VM	v	lex-कर|cat-v|gen-f|num-sg|pers-3|case-|vib-या_जा+गा|tam-yA|chunkId-VGF|chunkType-head|stype-declarative|voicetype-passive	0	main	_	_
10	जाएगी	जा	VAUX	v	lex-जा|cat-v|gen-f|num-sg|pers-3|case-|vib-गा|tam-gA|chunkId-VGF|chunkType-child|stype-|voicetype-	9	lwg__vaux	_	_
11	।	।	SYM	punc	lex-।|cat-punc|gen-|num-|pers-|case-|vib-|tam-|chunkId-BLK|chunkType-head|stype-|voicetype-	9	rsym	_	_

1	हालांकि	हालांकि	CC	avy	lex-हालांकि|cat-avy|gen-|num-|pers-|case-|vib-|tam-|chunkId-CCP|chunkType-head|stype-|voicetype-	0	main	_	_
2	इन	यह	DEM	pn	lex-यह|cat-pn|gen-any|num-pl|pers-3|case-o|vib-|tam-|chunkId-NP|chunkType-child|stype-|voicetype-	3	nmod__adj	_	_
3	चुनावों	चुनाव	NN	n	lex-चुनाव|cat-n|gen-m|num-pl|pers-3|case-o|vib-0_से|tam-0|chunkId-NP|chunkType-head|stype-|voicetype-	15	rh	_	_
4	से	से	PSP	psp	lex-से|cat-psp|gen-|num-|pers-|case-|vib-|tam-|chunkId-NP|chunkType-child|stype-|voicetype-	3	lwg__psp	_	_
5	प्रधानमंत्री	प्रधानमंत्री	NNP	n	lex-प्रधानमंत्री|cat-n|gen-m|num-sg|pers-3|case-d|vib-0|tam-0|chunkId-NP2|chunkType-child|stype-|voicetype-	7	nmod__adj	_	_
6	मनमोहन	मनमोहन	NNPC	n	lex-मनमोहन|cat-n|gen-m|num-sg|pers-3|case-o|vib-0|tam-0|chunkId-NP2|chunkType-child|stype-|voicetype-	7	pof__cn	_	_
7	सिंह	सिंह	NNP	n	lex-सिंह|cat-n|gen-m|num-sg|pers-3|case-o|vib-0_का|tam-0|chunkId-NP2|chunkType-head|stype-|voicetype-	9	r6	_	_
8	की	का	PSP	psp	lex-का|cat-psp|gen-f|num-sg|pers-|case-o|vib-|tam-|chunkId-NP2|chunkType-child|stype-|voicetype-	7	lwg__psp	_	_
9	सरकार	सरकार	NN	n	lex-सरकार|cat-n|gen-f|num-sg|pers-3|case-o|vib-0_को|tam-0|chunkId-NP3|chunkType-head|stype-|voicetype-	15	k2	_	_
10	को	को	PSP	psp	lex-को|cat-psp|gen-|num-|pers-|case-|vib-|tam-|chunkId-NP3|chunkType-child|stype-|voicetype-	9	lwg__psp	_	_
11	कोई	कोई	PRP	pn	lex-कोई|cat-pn|gen-any|num-sg|pers-3|case-d|vib-0|tam-0|chunkId-NP4|chunkType-child|stype-|voicetype-	13	nmod__adj	_	_
12	खास	खास	JJ	adj	lex-खास|cat-adj|gen-any|num-any|pers-|case-d|vib-|tam-|chunkId-NP4|chunkType-child|stype-|voicetype-	13	nmod__adj	_	_
13	प्रभाव	प्रभाव	NN	n	lex-प्रभाव|cat-n|gen-m|num-sg|pers-3|case-d|vib-0|tam-0|chunkId-NP4|chunkType-head|stype-|voicetype-	15	pof	_	_
14	नहीं	नहीं	NEG	avy	lex-नहीं|cat-avy|gen-|num-|pers-|case-|vib-|tam-|chunkId-VGF|chunkType-child|stype-|voicetype-	15	lwg__neg	_	_
15	पड़ने	पड	VM	v	lex-पड|cat-v|gen-m|num-sg|pers-3|case-|vib-ना_जा_रह+या_है|tam-nA|chunkId-VGF|chunkType-head|stype-declarative|voicetype-active	20	ccof	_	_
16	जा	जा	VAUX	v	lex-जा|cat-v|gen-any|num-any|pers-any|case-|vib-0|tam-0|chunkId-VGF|chunkType-child|stype-|voicetype-	15	lwg__vaux	_	_
17	रहा	रह	VAUX	v	lex-रह|cat-v|gen-m|num-sg|pers-any|case-|vib-या|tam-yA|chunkId-VGF|chunkType-child|stype-|voicetype-	15	lwg__vaux	_	_
18	है	है	VAUX	v	lex-है|cat-v|gen-any|num-sg|pers-3|case-|vib-है|tam-hE|chunkId-VGF|chunkType-child|stype-|voicetype-	15	lwg__vaux	_	_
19	,	COMMA	SYM	punc	lex-COMMA|cat-punc|gen-|num-|pers-|case-|vib-|tam-|chunkId-VGF|chunkType-child|stype-|voicetype-	15	rsym	_	_
20	लेकिन	लेकिन	CC	avy	lex-लेकिन|cat-avy|gen-|num-|pers-|case-|vib-|tam-|chunkId-CCP2|chunkType-head|stype-|voicetype-	1	ccof	_	_
21	कांग्रेस	कांग्रेस	NNP	n	lex-कांग्रेस|cat-n|gen-f|num-sg|pers-3|case-o|vib-0_को|tam-0|chunkId-NP5|chunkType-head|stype-|voicetype-	26	k2	_	_
22	को	को	PSP	psp	lex-को|cat-psp|gen-|num-|pers-|case-|vib-|tam-|chunkId-NP5|chunkType-child|stype-|voicetype-	21	lwg__psp	_	_
23	चुनावी	चुनावी	JJ	adj	lex-चुनावी|cat-adj|gen-any|num-any|pers-|case-o|vib-|tam-|chunkId-NP6|chunkType-child|stype-|voicetype-	24	nmod__adj	_	_
24	मुद्दा	मुद्दा	NN	n	lex-मुद्दा|cat-n|gen-m|num-sg|pers-3|case-o|vib-0_में|tam-0|chunkId-NP6|chunkType-head|stype-|voicetype-	26	k7	_	_
25	में	में	PSP	psp	lex-में|cat-psp|gen-|num-|pers-|case-|vib-|tam-|chunkId-NP6|chunkType-child|stype-|voicetype-	24	lwg__psp	_	_
26	देखा	देख	VM	v	lex-देख|cat-v|gen-m|num-sg|pers-3|case-|vib-या_जा_सक+ता_है|tam-yA|chunkId-VGF2|chunkType-head|stype-declarative|voicetype-passive	20	ccof	_	_
27	जा	जा	VAUX	v	lex-जा|cat-v|gen-any|num-any|pers-any|case-|vib-0|tam-0|chunkId-VGF2|chunkType-child|stype-|voicetype-	26	lwg__vaux	_	_
28	सकता	सक	VAUX	v	lex-सक|cat-v|gen-m|num-sg|pers-any|case-|vib-ता|tam-wA|chunkId-VGF2|chunkType-child|stype-|voicetype-	26	lwg__vaux	_	_
29	है	है	VAUX	v	lex-है|cat-v|gen-any|num-sg|pers-3|case-|vib-है|tam-hE|chunkId-VGF2|chunkType-child|stype-|voicetype-	26	lwg__vaux	_	_
30	।	।	SYM	punc	lex-।|cat-punc|gen-|num-|pers-|case-|vib-|tam-|chunkId-BLK|chunkType-head|stype-|voicetype-	1	rsym	_	_

1	फिलहाल	फिलहाल	RB	adv	lex-फिलहाल|cat-adv|gen-|num-|pers-|case-|vib-|tam-|chunkId-RBP|chunkType-head|stype-|voicetype-	14	vmod	_	_
2	कांग्रेस	कांग्रेस	NNP	n	lex-कांग्रेस|cat-n|gen-f|num-sg|pers-3|case-o|vib-0_को|tam-0|chunkId-NP|chunkType-head|stype-|voicetype-	14	k2	_	_
3	को	को	PSP	psp	lex-को|cat-psp|gen-|num-|pers-|case-|vib-|tam-|chunkId-NP|chunkType-child|stype-|voicetype-	2	lwg__psp	_	_
4	इन	यह	DEM	pn	lex-यह|cat-pn|gen-any|num-pl|pers-3|case-o|vib-|tam-|chunkId-NP2|chunkType-child|stype-|voicetype-	6	nmod__adj	_	_
5	तीन	तीन	QC	num	lex-तीन|cat-num|gen-any|num-any|pers-|case-any|vib-|tam-|chunkId-NP2|chunkType-child|stype-|voicetype-	6	nmod__adj	_	_
6	राज्यों	राज्य	NN	n	lex-राज्य|cat-n|gen-m|num-pl|pers-3|case-o|vib-0|tam-0|chunkId-NP2|chunkType-head|stype-|voicetype-	7	ccof	_	_
7	तथा	तथा	CC	avy	lex-तथा|cat-avy|gen-|num-|pers-|case-|vib-|tam-|chunkId-CCP|chunkType-head|stype-|voicetype-	14	k7p	_	_
8	एक	एक	QC	num	lex-एक|cat-num|gen-any|num-any|pers-|case-any|vib-|tam-|chunkId-NP3|chunkType-child|stype-|voicetype-	9	nmod__adj	_	_
9	पांडिचेरी	पांडिचेरी	NNP	n	lex-पांडिचेरी|cat-n|gen-m|num-sg|pers-3|case-o|vib-0_में|tam-0|chunkId-NP3|chunkType-head|stype-|voicetype-	7	ccof	_	_
10	में	में	PSP	psp	lex-में|cat-psp|gen-|num-|pers-|case-|vib-|tam-|chunkId-NP3|chunkType-child|stype-|voicetype-	9	lwg__psp	_	_
11	एक	एक	QC	num	lex-एक|cat-num|gen-any|num-any|pers-|case-any|vib-|tam-|chunkId-NP4|chunkType-child|stype-|voicetype-	13	nmod__adj	_	_
12	बड़ा	बडा	JJ	adj	lex-बडा|cat-adj|gen-m|num-sg|pers-|case-d|vib-|tam-|chunkId-NP4|chunkType-child|stype-|voicetype-	13	nmod__adj	_	_
13	तबका	तबका	NN	n	lex-तबका|cat-n|gen-m|num-sg|pers-3|case-d|vib-0|tam-0|chunkId-NP4|chunkType-head|stype-|voicetype-	14	k2s	_	_
14	माना	मान	VM	v	lex-मान|cat-v|gen-m|num-sg|pers-3|case-|vib-या_जा_रह+या_है|tam-yA|chunkId-VGF|chunkType-head|stype-declarative|voicetype-passive	0	main	_	_
15	जा	जा	VAUX	v	lex-जा|cat-v|gen-any|num-any|pers-any|case-|vib-0|tam-0|chunkId-VGF|chunkType-child|stype-|voicetype-	14	lwg__vaux	_	_
16	रहा	रह	VAUX	v	lex-रह|cat-v|gen-m|num-sg|pers-any|case-|vib-या|tam-yA|chunkId-VGF|chunkType-child|stype-|voicetype-	14	lwg__vaux	_	_
17	है	है	VAUX	v	lex-है|cat-v|gen-any|num-sg|pers-3|case-|vib-है|tam-hE|chunkId-VGF|chunkType-child|stype-|voicetype-	14	lwg__vaux	_	_
18	।	।	SYM	punc	lex-।|cat-punc|gen-|num-|pers-|case-|vib-|tam-|chunkId-BLK|chunkType-head|stype-|voicetype-	14	rsym	_	_

1	पहली	पहला	QO	num	lex-पहला|cat-num|gen-f|num-sg|pers-|case-d|vib-|tam-|chunkId-NP|chunkType-child|stype-|voicetype-	2	nmod__adj	_	_
2	बार	बार	NN	n	lex-बार|cat-n|gen-f|num-sg|pers-3|case-d|vib-0|tam-0|chunkId-NP|chunkType-head|stype-|voicetype-	15	k7t	_	_
3	कांग्रेस	कांग्रेस	NNP	n	lex-कांग्रेस|cat-n|gen-f|num-sg|pers-3|case-d|vib-0|tam-0|chunkId-NP2|chunkType-head|stype-|voicetype-	4	ccof	_	_
4	तथा	तथा	CC	avy	lex-तथा|cat-avy|gen-|num-|pers-|case-|vib-|tam-|chunkId-CCP|chunkType-head|stype-|voicetype-	15	k7	_	_
5	वामपंथी	वामपंथी	NNC	n	lex-वामपंथी|cat-n|gen-any|num-any|pers-|case-o|vib-|tam-|chunkId-NP3|chunkType-child|stype-|voicetype-	6	pof__cn	_	_
6	दलों	दल	NN	n	lex-दल|cat-n|gen-m|num-pl|pers-3|case-o|vib-0_के_बीच|tam-0|chunkId-NP3|chunkType-head|stype-|voicetype-	4	ccof	_	_
7	के	के	PSP	psp	lex-के|cat-psp|gen-|num-|pers-|case-|vib-|tam-|chunkId-NP3|chunkType-child|stype-|voicetype-	6	lwg__psp	_	_
8	बीच	बीच	NST	nst	lex-बीच|cat-nst|gen-m|num-sg|pers-3|case-d|vib-|tam-|chunkId-NP3|chunkType-child|stype-|voicetype-	6	lwg__psp	_	_
9	इसी	यह	DEM	pn	lex-यह|cat-pn|gen-m|num-sg|pers-3|case-o|vib-|tam-|chunkId-NP4|chunkType-child|stype-|voicetype-	10	nmod__adj	_	_
10	चुनाव	चुनाव	NN	n	lex-चुनाव|cat-n|gen-m|num-sg|pers-3|case-o|vib-0_में|tam-0|chunkId-NP4|chunkType-head|stype-|voicetype-	15	k7	_	_
11	में	में	PSP	psp	lex-में|cat-psp|gen-|num-|pers-|case-|vib-|tam-|chunkId-NP4|chunkType-child|stype-|voicetype-	10	lwg__psp	_	_
12	प्रतिद्वंद्विता	प्रतिद्वंद्विता	NN	n	lex-प्रतिद्वंद्विता|cat-n|gen-f|num-sg|pers-3|case-d|vib-0|tam-0|chunkId-NP5|chunkType-head|stype-|voicetype-	15	k1	_	_
13	भी	भी	RP	avy	lex-भी|cat-avy|gen-|num-|pers-|case-|vib-|tam-|chunkId-NP5|chunkType-child|stype-|voicetype-	12	lwg__rp	_	_
14	सामने	सामने	NST	nst	lex-सामने|cat-nst|gen-m|num-sg|pers-3|case-d|vib-|tam-|chunkId-NP6|chunkType-head|stype-|voicetype-	15	k1s	_	_
15	आ	आ	VM	v	lex-आ|cat-v|gen-f|num-sg|pers-3|case-|vib-0_रह+या_है|tam-0|chunkId-VGF|chunkType-head|stype-declarative|voicetype-active	0	main	_	_
16	रही	रह	VAUX	v	lex-रह|cat-v|gen-f|num-sg|pers-any|case-|vib-या|tam-yA|chunkId-VGF|chunkType-child|stype-|voicetype-	15	lwg__vaux	_	_
17	है	है	VAUX	v	lex-है|cat-v|gen-any|num-sg|pers-3|case-|vib-है|tam-hE|chunkId-VGF|chunkType-child|stype-|voicetype-	15	lwg__vaux	_	_
18	।	।	SYM	punc	lex-।|cat-punc|gen-|num-|pers-|case-|vib-|tam-|chunkId-BLK|chunkType-head|stype-|voicetype-	15	rsym	_	_

1	NULL	_	NN	_	lex-_|cat-_|gen-|num-|pers-|case-|vib-|tam-|chunkId-NULL__NP|chunkType-head|stype-|voicetype-	3	k1	_	_
2	उल्लेखनीय	उल्लेखनीय	JJ	adj	lex-उल्लेखनीय|cat-adj|gen-any|num-any|pers-|case-|vib-|tam-|chunkId-JJP|chunkType-head|stype-|voicetype-	3	k1s	_	_
3	है	है	VM	v	lex-है|cat-v|gen-any|num-sg|pers-3|case-|vib-है|tam-hE|chunkId-VGF|chunkType-head|stype-declarative|voicetype-active	0	main	_	_
4	कि	कि	CC	avy	lex-कि|cat-avy|gen-|num-|pers-|case-|vib-|tam-|chunkId-CCP|chunkType-head|stype-|voicetype-	1	rs	_	_
5	मई	मई	NNPC	n	lex-मई|cat-n|gen-f|num-sg|pers-3|case-d|vib-0|tam-0|chunkId-NP|chunkType-child|stype-|voicetype-	6	pof__cn	_	_
6	२००४	२००४	NNP	n	lex-२००४|cat-n|gen-any|num-sg|pers-3|case-o|vib-0_के_बाद_से|tam-0|chunkId-NP|chunkType-head|stype-|voicetype-	23	k7t	_	_
7	के	के	PSP	psp	lex-के|cat-psp|gen-|num-|pers-|case-|vib-|tam-|chunkId-NP|chunkType-child|stype-|voicetype-	6	lwg__psp	_	_
8	बाद	बाद	NST	nst	lex-बाद|cat-nst|gen-m|num-sg|pers-3|case-o|vib-|tam-|chunkId-NP|chunkType-child|stype-|voicetype-	6	lwg__psp	_	_
9	से	से	PSP	psp	lex-से|cat-psp|gen-|num-|pers-|case-|vib-|tam-|chunkId-NP|chunkType-child|stype-|voicetype-	6	lwg__psp	_	_
10	कांग्रेस	कांग्रेस	NNP	n	lex-कांग्रेस|cat-n|gen-f|num-sg|pers-3|case-d|vib-0|tam-0|chunkId-NP2|chunkType-head|stype-|voicetype-	11	ccof	_	_
11	तथा	तथा	CC	avy	lex-तथा|cat-avy|gen-|num-|pers-|case-|vib-|tam-|chunkId-CCP2|chunkType-head|stype-|voicetype-	23	k1	_	_
12	वामपंथी	वामपंथी	NNC	n	lex-वामपंथी|cat-n|gen-any|num-any|pers-|case-o|vib-|tam-|chunkId-NP3|chunkType-child|stype-|voicetype-	13	pof__cn	_	_
13	दलों	दल	NN	n	lex-दल|cat-n|gen-m|num-pl|pers-3|case-o|vib-0_ने|tam-0|chunkId-NP3|chunkType-head|stype-|voicetype-	11	ccof	_	_
14	ने	ने	PSP	psp	lex-ने|cat-psp|gen-|num-|pers-|case-|vib-|tam-|chunkId-NP3|chunkType-child|stype-|voicetype-	13	lwg__psp	_	_
15	संयुक्त	संयुक्त	JJ	adj	lex-संयुक्त|cat-adj|gen-any|num-any|pers-|case-d|vib-|tam-|chunkId-NP4|chunkType-child|stype-|voicetype-	17	nmod__adj	_	_
16	प्रगतिशील	प्रगतिशील	JJ	adj	lex-प्रगतिशील|cat-adj|gen-any|num-any|pers-|case-d|vib-|tam-|chunkId-NP4|chunkType-child|stype-|voicetype-	17	nmod__adj	_	_
17	गठबंधन	गठबंधन	NN	n	lex-गठबंधन|cat-n|gen-m|num-sg|pers-3|case-d|vib-0|tam-0|chunkId-NP4|chunkType-head|stype-|voicetype-	18	k2	_	_
18	बनाकर	बना	VM	v	lex-बना|cat-v|gen-any|num-any|pers-any|case-|vib-कर|tam-kar|chunkId-VGNF|chunkType-head|stype-|voicetype-	23	vmod	_	_
19	केंद्र	केंद्र	NNP	n	lex-केंद्र|cat-n|gen-m|num-sg|pers-3|case-o|vib-0_में|tam-0|chunkId-NP5|chunkType-head|stype-|voicetype-	23	k7	_	_
20	में	में	PSP	psp	lex-में|cat-psp|gen-|num-|pers-|case-|vib-|tam-|chunkId-NP5|chunkType-child|stype-|voicetype-	19	lwg__psp	_	_
21	अपनी	अपना	PRP	pn	lex-अपना|cat-pn|gen-f|num-any|pers-any|case-d|vib-0|tam-0|chunkId-NP6|chunkType-head|stype-|voicetype-	22	r6	_	_
22	भूमिका	भूमिका	NN	n	lex-भूमिका|cat-n|gen-f|num-sg|pers-3|case-d|vib-0|tam-0|chunkId-NP7|chunkType-head|stype-|voicetype-	23	k2	_	_
23	निभाई	निभा	VM	v	lex-निभा|cat-v|gen-f|num-sg|pers-3|case-|vib-या_है|tam-yA|chunkId-VGF2|chunkType-head|stype-declarative|voicetype-active	4	ccof	_	_
24	है	है	VAUX	v	lex-है|cat-v|gen-any|num-sg|pers-3|case-|vib-है|tam-hE|chunkId-VGF2|chunkType-child|stype-|voicetype-	23	lwg__vaux	_	_
25	।	।	SYM	punc	lex-।|cat-punc|gen-|num-|pers-|case-|vib-|tam-|chunkId-BLK|chunkType-head|stype-|voicetype-	3	rsym	_	_

1	इधर	इधर	NST	nst	lex-इधर|cat-nst|gen-m|num-sg|pers-3|case-d|vib-|tam-|chunkId-NP|chunkType-head|stype-|voicetype-	12	sent-adv	_	_
2	असम	असम	NNP	n	lex-असम|cat-n|gen-m|num-sg|pers-3|case-o|vib-0_में|tam-0|chunkId-NP2|chunkType-head|stype-|voicetype-	12	k7p	_	_
3	में	में	PSP	psp	lex-में|cat-psp|gen-|num-|pers-|case-|vib-|tam-|chunkId-NP2|chunkType-child|stype-|voicetype-	2	lwg__psp	_	_
4	भारतीय	भारतीय	NNPC	n	lex-भारतीय|cat-n|gen-m|num-sg|pers-3|case-d|vib-0|tam-0|chunkId-NP3|chunkType-child|stype-|voicetype-	6	pof__cn	_	_
5	जनता	जनता	NNPC	n	lex-जनता|cat-n|gen-f|num-sg|pers-3|case-d|vib-0|tam-0|chunkId-NP3|chunkType-child|stype-|voicetype-	6	pof__cn	_	_
6	पार्टी	पार्टी	NNP	n	lex-पार्टी|cat-n|gen-f|num-sg|pers-3|case-d|vib-0|tam-0|chunkId-NP3|chunkType-head|stype-|voicetype-	12	k1	_	_
7	मुख्य	मुख्य	JJ	adj	lex-मुख्य|cat-adj|gen-any|num-any|pers-|case-o|vib-|tam-|chunkId-NP4|chunkType-child|stype-|voicetype-	8	nmod__adj	_	_
8	प्रतिद्वंद्वी	प्रतिद्वंद्वी	NN	n	lex-प्रतिद्वंद्वी|cat-n|gen-m|num-sg|pers-3|case-o|vib-0_के_रूप_में|tam-0|chunkId-NP4|chunkType-head|stype-|voicetype-	12	k7	_	_
9	के	के	PSP	psp	lex-के|cat-psp|gen-m|num-|pers-|case-o|vib-|tam-|chunkId-NP4|chunkType-child|stype-|voicetype-	8	lwg__psp	_	_
10	रूप	रूप	PSP	psp	lex-रूप|cat-psp|gen-m|num-|pers-|case-o|vib-|tam-|chunkId-NP4|chunkType-child|stype-|voicetype-	8	lwg__psp	_	_
11	में	में	PSP	psp	lex-में|cat-psp|gen-|num-|pers-|case-|vib-|tam-|chunkId-NP4|chunkType-child|stype-|voicetype-	8	lwg__psp	_	_
12	उभर	उभर	VM	v	lex-उभर|cat-v|gen-f|num-sg|pers-3|case-|vib-0_रह+या_है|tam-0|chunkId-VGF|chunkType-head|stype-declarative|voicetype-active	0	main	_	_
13	रही	रह	VAUX	v	lex-रह|cat-v|gen-f|num-sg|pers-any|case-|vib-या|tam-yA|chunkId-VGF|chunkType-child|stype-|voicetype-	12	lwg__vaux	_	_
14	है	है	VAUX	v	lex-है|cat-v|gen-any|num-sg|pers-3|case-|vib-है|tam-hE|chunkId-VGF|chunkType-child|stype-|voicetype-	12	lwg__vaux	_	_
15	।	।	SYM	punc	lex-।|cat-punc|gen-|num-|pers-|case-|vib-|tam-|chunkId-BLK|chunkType-head|stype-|voicetype-	12	rsym	_	_

1	तृणमूल	तृणमूल	NNPC	n	lex-तृणमूल|cat-n|gen-m|num-sg|pers-3|case-d|vib-0|tam-0|chunkId-NP|chunkType-child|stype-|voicetype-	2	pof__cn	_	_
2	कांग्रेस	कांग्रेस	NNP	n	lex-कांग्रेस|cat-n|gen-f|num-sg|pers-3|case-d|vib-0|tam-0|chunkId-NP|chunkType-head|stype-|voicetype-	8	k1	_	_
3	(	(	SYM	punc	lex-(|cat-punc|gen-|num-|pers-|case-|vib-|tam-|chunkId-NP2|chunkType-child|stype-|voicetype-	5	rsym	_	_
4	पश्चिम	पश्चिम	NNPC	n	lex-पश्चिम|cat-n|gen-m|num-sg|pers-3|case-d|vib-0|tam-0|chunkId-NP2|chunkType-child|stype-|voicetype-	5	pof__cn	_	_
5	बंगाल	बंगाल	NNP	n	lex-बंगाल|cat-n|gen-m|num-sg|pers-3|case-o|vib-0_में|tam-0|chunkId-NP2|chunkType-head|stype-|voicetype-	8	k7p	_	_
6	)	)	SYM	punc	lex-)|cat-punc|gen-|num-|pers-|case-|vib-|tam-|chunkId-NP2|chunkType-child|stype-|voicetype-	5	rsym	_	_
7	में	में	PSP	psp	lex-में|cat-psp|gen-|num-|pers-|case-|vib-|tam-|chunkId-NP2|chunkType-child|stype-|voicetype-	5	lwg__psp	_	_
8	NULL	_	VM	_	lex-_|cat-_|gen-|num-|pers-|case-|vib-|tam-|chunkId-NULL__VGF|chunkType-head|stype-|voicetype-	9	ccof	_	_
9	तथा	तथा	CC	avy	lex-तथा|cat-avy|gen-|num-|pers-|case-|vib-|tam-|chunkId-CCP|chunkType-head|stype-|voicetype-	0	main	_	_
10	अन्ना	अन्ना	NNPC	n	lex-अन्ना|cat-n|gen-m|num-sg|pers-3|case-d|vib-0|tam-0|chunkId-NP3|chunkType-child|stype-|voicetype-	11	pof__cn	_	_
11	द्रमुक	द्रमुक	NNP	n	lex-द्रमुक|cat-n|gen-m|num-sg|pers-3|case-d|vib-0|tam-0|chunkId-NP3|chunkType-head|stype-|voicetype-	12	ccof	_	_
12	और	और	CC	avy	lex-और|cat-avy|gen-|num-|pers-|case-|vib-|tam-|chunkId-CCP2|chunkType-head|stype-|voicetype-	14	rs	_	_
13	द्रमुक	द्रमुक	NNP	n	lex-द्रमुक|cat-n|gen-m|num-sg|pers-3|case-d|vib-0|tam-0|chunkId-NP4|chunkType-head|stype-|voicetype-	12	ccof	_	_
14	पार्टियां	पार्टी	NN	n	lex-पार्टी|cat-n|gen-f|num-pl|pers-3|case-d|vib-0|tam-0|chunkId-NP5|chunkType-head|stype-|voicetype-	26	k1	_	_
15	क्रमशः	क्रमशः	RB	adv	lex-क्रमशः|cat-adv|gen-|num-|pers-|case-|vib-|tam-|chunkId-RBP|chunkType-head|stype-|voicetype-	26	adv	_	_
16	तमिलनाडु	तमिलनाडु	NNP	n	lex-तमिलनाडु|cat-n|gen-m|num-sg|pers-3|case-o|vib-0|tam-0|chunkId-NP6|chunkType-head|stype-|voicetype-	17	ccof	_	_
17	और	और	CC	avy	lex-और|cat-avy|gen-|num-|pers-|case-|vib-|tam-|chunkId-CCP3|chunkType-head|stype-|voicetype-	26	k7p	_	_
18	पांडिचेरी	पांडिचेरी	NNP	n	lex-पांडिचेरी|cat-n|gen-m|num-sg|pers-3|case-o|vib-0_में|tam-0|chunkId-NP7|chunkType-head|stype-|voicetype-	17	ccof	_	_
19	में	में	PSP	psp	lex-में|cat-psp|gen-|num-|pers-|case-|vib-|tam-|chunkId-NP7|chunkType-child|stype-|voicetype-	18	lwg__psp	_	_
20	मुख्य	मुख्य	JJ	adj	lex-मुख्य|cat-adj|gen-any|num-any|pers-|case-o|vib-|tam-|chunkId-NP8|chunkType-child|stype-|voicetype-	22	nmod__adj	_	_
21	राजनीति	राजनीति	NNC	n	lex-राजनीति|cat-n|gen-f|num-sg|pers-3|case-d|vib-0|tam-0|chunkId-NP8|chunkType-child|stype-|voicetype-	22	pof__cn	_	_
22	पार्टी	पार्टी	NN	n	lex-पार्टी|cat-n|gen-f|num-sg|pers-3|case-o|vib-0_के_रूप_में|tam-0|chunkId-NP8|chunkType-head|stype-|voicetype-	26	k7	_	_
23	के	के	PSP	psp	lex-के|cat-psp|gen-m|num-|pers-|case-o|vib-|tam-|chunkId-NP8|chunkType-child|stype-|voicetype-	22	lwg__psp	_	_
24	रूप	रूप	PSP	n	lex-रूप|cat-n|gen-m|num-|pers-|case-o|vib-|tam-|chunkId-NP8|chunkType-child|stype-|voicetype-	22	lwg__psp	_	_
25	में	में	PSP	psp	lex-में|cat-psp|gen-|num-|pers-|case-|vib-|tam-|chunkId-NP8|chunkType-child|stype-|voicetype-	22	lwg__psp	_	_
26	उभर	उभर	VM	v	lex-उभर|cat-v|gen-f|num-pl|pers-3|case-|vib-0_रह+या_है|tam-0|chunkId-VGF|chunkType-head|stype-declarative|voicetype-active	9	ccof	_	_
27	रही	रह	VAUX	v	lex-रह|cat-v|gen-f|num-pl|pers-any|case-|vib-या|tam-yA|chunkId-VGF|chunkType-child|stype-|voicetype-	26	lwg__vaux	_	_
28	हैं	है	VAUX	v	lex-है|cat-v|gen-any|num-pl|pers-3|case-|vib-है|tam-hE|chunkId-VGF|chunkType-child|stype-|voicetype-	26	lwg__vaux	_	_
29	।	।	SYM	punc	lex-।|cat-punc|gen-|num-|pers-|case-|vib-|tam-|chunkId-BLK|chunkType-head|stype-|voicetype-	9	rsym	_	_

1	चुनाव	चुनाव	NNC	n	lex-चुनाव|cat-n|gen-m|num-sg|pers-3|case-d|vib-0|tam-0|chunkId-NP|chunkType-child|stype-|voicetype-	2	pof__cn	_	_
2	परिणामों	परिणाम	NN	n	lex-परिणाम|cat-n|gen-m|num-pl|pers-3|case-o|vib-0_से|tam-0|chunkId-NP|chunkType-head|stype-|voicetype-	10	rh	_	_
3	से	से	PSP	psp	lex-से|cat-psp|gen-|num-|pers-|case-|vib-|tam-|chunkId-NP|chunkType-child|stype-|voicetype-	2	lwg__psp	_	_
4	केंद्रीय	केंद्रीय	NNPC	n	lex-केंद्रीय|cat-n|gen-m|num-sg|pers-3|case-d|vib-0|tam-0|chunkId-NP2|chunkType-child|stype-|voicetype-	5	pof__cn	_	_
5	सरकार	सरकार	NNP	n	lex-सरकार|cat-n|gen-f|num-sg|pers-3|case-o|vib-0_को|tam-0|chunkId-NP2|chunkType-head|stype-|voicetype-	10	k4a	_	_
6	को	को	PSP	psp	lex-को|cat-psp|gen-|num-|pers-|case-|vib-|tam-|chunkId-NP2|chunkType-child|stype-|voicetype-	5	lwg__psp	_	_
7	कोई	कोई	PRP	pn	lex-कोई|cat-pn|gen-any|num-sg|pers-3|case-d|vib-0|tam-0|chunkId-NP3|chunkType-child|stype-|voicetype-	8	nmod__adj	_	_
8	फर्क	फर्क	NN	n	lex-फर्क|cat-n|gen-m|num-sg|pers-3|case-d|vib-0|tam-0|chunkId-NP3|chunkType-head|stype-|voicetype-	10	pof	_	_
9	नहीं	नहीं	NEG	avy	lex-नहीं|cat-avy|gen-|num-|pers-|case-|vib-|tam-|chunkId-VGF|chunkType-child|stype-|voicetype-	10	lwg__neg	_	_
10	पड़ने	पड	VM	v	lex-पड|cat-v|gen-m|num-sg|pers-3|case-o|vib-ना_वाला_है|tam-nA|chunkId-VGF|chunkType-head|stype-declarative|voicetype-active	14	ccof	_	_
11	वाला	वाला	VAUX	v	lex-वाला|cat-v|gen-m|num-sg|pers-3|case-|vib-0|tam-0|chunkId-VGF|chunkType-child|stype-|voicetype-	10	lwg__vaux	_	_
12	है	है	VAUX	v	lex-है|cat-v|gen-any|num-sg|pers-3|case-|vib-है|tam-hE|chunkId-VGF|chunkType-child|stype-|voicetype-	10	lwg__vaux	_	_
13	,	COMMA	SYM	punc	lex-COMMA|cat-punc|gen-|num-|pers-|case-|vib-|tam-|chunkId-VGF|chunkType-child|stype-|voicetype-	10	rsym	_	_
14	लेकिन	लेकिन	CC	avy	lex-लेकिन|cat-avy|gen-|num-|pers-|case-|vib-|tam-|chunkId-CCP|chunkType-head|stype-|voicetype-	0	main	_	_
15	चुनाव	चुनाव	NN	n	lex-चुनाव|cat-n|gen-m|num-sg|pers-3|case-o|vib-0_का|tam-0|chunkId-NP4|chunkType-head|stype-|voicetype-	17	r6	_	_
16	की	का	PSP	psp	lex-का|cat-psp|gen-f|num-sg|pers-|case-o|vib-|tam-|chunkId-NP4|chunkType-child|stype-|voicetype-	15	lwg__psp	_	_
17	सरगर्मी	सरगर्मी	NN	n	lex-सरगर्मी|cat-n|gen-f|num-sg|pers-3|case-d|vib-0|tam-0|chunkId-NP5|chunkType-head|stype-|voicetype-	21	k2	_	_
18	कांग्रेस	कांग्रेस	NNP	n	lex-कांग्रेस|cat-n|gen-f|num-sg|pers-3|case-o|vib-0_में|tam-0|chunkId-NP6|chunkType-head|stype-|voicetype-	21	k7	_	_
19	में	में	PSP	psp	lex-में|cat-psp|gen-|num-|pers-|case-|vib-|tam-|chunkId-NP6|chunkType-child|stype-|voicetype-	18	lwg__psp	_	_
20	भी	भी	RP	avy	lex-भी|cat-avy|gen-|num-|pers-|case-|vib-|tam-|chunkId-NP6|chunkType-child|stype-|voicetype-	18	lwg__rp	_	_
21	देखी	देख	VM	v	lex-देख|cat-v|gen-f|num-sg|pers-3|case-|vib-या_जा_रह+या_है|tam-yA|chunkId-VGF2|chunkType-head|stype-declarative|voicetype-passive	14	ccof	_	_
22	जा	जा	VAUX	v	lex-जा|cat-v|gen-any|num-any|pers-any|case-|vib-0|tam-0|chunkId-VGF2|chunkType-child|stype-|voicetype-	21	lwg__vaux	_	_
23	रही	रह	VAUX	v	lex-रह|cat-v|gen-f|num-sg|pers-any|case-|vib-या|tam-yA|chunkId-VGF2|chunkType-child|stype-|voicetype-	21	lwg__vaux	_	_
24	है	है	VAUX	v	lex-है|cat-v|gen-any|num-sg|pers-3|case-|vib-है|tam-hE|chunkId-VGF2|chunkType-child|stype-|voicetype-	21	lwg__vaux	_	_
25	।	।	SYM	punc	lex-।|cat-punc|gen-|num-|pers-|case-|vib-|tam-|chunkId-BLK|chunkType-head|stype-|voicetype-	14	rsym	_	_

1	कांग्रेस	कांग्रेस	NNC	n	lex-कांग्रेस|cat-n|gen-f|num-sg|pers-3|case-d|vib-0|tam-0|chunkId-NP|chunkType-child|stype-|voicetype-	2	pof__cn	_	_
2	कार्यकारिणी	कार्यकारिणी	NN	n	lex-कार्यकारिणी|cat-n|gen-f|num-sg|pers-3|case-o|vib-0_का|tam-0|chunkId-NP|chunkType-head|stype-|voicetype-	5	r6	_	_
3	के	का	PSP	psp	lex-का|cat-psp|gen-m|num-sg|pers-|case-o|vib-|tam-|chunkId-NP|chunkType-child|stype-|voicetype-	2	lwg__psp	_	_
4	एक	एक	QC	num	lex-एक|cat-num|gen-any|num-any|pers-|case-any|vib-|tam-|chunkId-NP2|chunkType-child|stype-|voicetype-	5	nmod__adj	_	_
5	सदस्य	सदस्य	NN	n	lex-सदस्य|cat-n|gen-m|num-sg|pers-3|case-o|vib-0|tam-0|chunkId-NP2|chunkType-head|stype-|voicetype-	6	ccof	_	_
6	तथा	तथा	CC	avy	lex-तथा|cat-avy|gen-|num-|pers-|case-|vib-|tam-|chunkId-CCP|chunkType-head|stype-|voicetype-	10	nmod	_	_
7	सांसद	सांसद	NN	n	lex-सांसद|cat-n|gen-m|num-sg|pers-3|case-o|vib-0|tam-0|chunkId-NP3|chunkType-head|stype-|voicetype-	6	ccof	_	_
8	बी.	बी.	NNPC	n	lex-बी.|cat-n|gen-m|num-sg|pers-3|case-d|vib-0|tam-0|chunkId-NP4|chunkType-child|stype-|voicetype-	10	pof__cn	_	_
9	के.	के	NNPC	n	lex-के|cat-n|gen-m|num-sg|pers-3|case-d|vib-0|tam-0|chunkId-NP4|chunkType-child|stype-|voicetype-	10	pof__cn	_	_
10	हरिप्रसाद	हरिप्रसाद	NNP	n	lex-हरिप्रसाद|cat-n|gen-m|num-sg|pers-3|case-o|vib-0_ने|tam-0|chunkId-NP4|chunkType-head|stype-|voicetype-	14	k1	_	_
11	ने	ने	PSP	psp	lex-ने|cat-psp|gen-|num-|pers-|case-|vib-|tam-|chunkId-NP4|chunkType-child|stype-|voicetype-	10	lwg__psp	_	_
12	यह	यह	DEM	pn	lex-यह|cat-pn|gen-any|num-sg|pers-3|case-d|vib-|tam-|chunkId-NP5|chunkType-child|stype-|voicetype-	13	nmod__adj	_	_
13	बात	बात	NN	n	lex-बात|cat-n|gen-f|num-sg|pers-3|case-d|vib-0|tam-0|chunkId-NP5|chunkType-head|stype-|voicetype-	14	k2	_	_
14	बताई	बता	VM	v	lex-बता|cat-v|gen-f|num-sg|pers-any|case-|vib-या|tam-yA|chunkId-VGF|chunkType-head|stype-declarative|voicetype-active	0	main	_	_
15	।	।	SYM	punc	lex-।|cat-punc|gen-|num-|pers-|case-|vib-|tam-|chunkId-BLK|chunkType-head|stype-|voicetype-	14	rsym	_	_

1	इधर	इधर	NST	nst	lex-इधर|cat-nst|gen-m|num-sg|pers-3|case-d|vib-|tam-|chunkId-NP|chunkType-head|stype-|voicetype-	15	sent-adv	_	_
2	राजनीतिक	राजनीतिक	JJ	adj	lex-राजनीतिक|cat-adj|gen-any|num-any|pers-|case-o|vib-|tam-|chunkId-NP2|chunkType-child|stype-|voicetype-	3	nmod__adj	_	_
3	विश्लेषक	विश्लेषक	NN	n	lex-विश्लेषक|cat-n|gen-m|num-sg|pers-3|case-o|vib-0|tam-0|chunkId-NP2|chunkType-head|stype-|voicetype-	6	nmod	_	_
4	एन.	एन.	NNPC	n	lex-एन.|cat-n|gen-m|num-sg|pers-3|case-d|vib-0|tam-0|chunkId-NP3|chunkType-child|stype-|voicetype-	6	pof__cn	_	_
5	भास्कर	भास्कर	NNPC	n	lex-भास्कर|cat-n|gen-m|num-sg|pers-3|case-d|vib-0|tam-0|chunkId-NP3|chunkType-child|stype-|voicetype-	6	pof__cn	_	_
6	राव	राव	NNP	n	lex-राव|cat-n|gen-m|num-sg|pers-3|case-o|vib-0_ने|tam-0|chunkId-NP3|chunkType-head|stype-|voicetype-	15	k1	_	_
7	ने	ने	PSP	psp	lex-ने|cat-psp|gen-|num-|pers-|case-|vib-|tam-|chunkId-NP3|chunkType-child|stype-|voicetype-	6	lwg__psp	_	_
8	भी	भी	RP	avy	lex-भी|cat-avy|gen-|num-|pers-|case-|vib-|tam-|chunkId-NP3|chunkType-child|stype-|voicetype-	6	lwg__rp	_	_
9	इस	यह	DEM	pn	lex-यह|cat-pn|gen-any|num-sg|pers-3|case-o|vib-|tam-|chunkId-NP4|chunkType-child|stype-|voicetype-	10	nmod__adj	_	_
10	बात	बात	NN	n	lex-बात|cat-n|gen-f|num-sg|pers-3|case-d|vib-0_का|tam-0|chunkId-NP4|chunkType-head|stype-|voicetype-	12	r6-k2	_	_
11	का	का	PSP	psp	lex-का|cat-psp|gen-m|num-sg|pers-|case-d|vib-|tam-|chunkId-NP4|chunkType-child|stype-|voicetype-	10	lwg__psp	_	_
12	समर्थन	समर्थन	NN	n	lex-समर्थन|cat-n|gen-m|num-sg|pers-3|case-d|vib-0|tam-0|chunkId-NP5|chunkType-head|stype-|voicetype-	13	pof	_	_
13	करते	कर	VM	v	lex-कर|cat-v|gen-m|num-sg|pers-3|case-|vib-ता_हो+या|tam-wA|chunkId-VGNF|chunkType-head|stype-|voicetype-	15	vmod	_	_
14	हुए	हो	VAUX	v	lex-हो|cat-v|gen-m|num-sg|pers-3|case-|vib-या|tam-yA|chunkId-VGNF|chunkType-child|stype-|voicetype-	13	lwg__vaux	_	_
15	कहा	कह	VM	v	lex-कह|cat-v|gen-m|num-sg|pers-any|case-|vib-या|tam-yA|chunkId-VGF|chunkType-head|stype-declarative|voicetype-active	0	main	_	_
16	कि	कि	CC	avy	lex-कि|cat-avy|gen-|num-|pers-|case-|vib-|tam-|chunkId-CCP|chunkType-head|stype-|voicetype-	15	k2	_	_
17	यह	यह	DEM	pn	lex-यह|cat-pn|gen-any|num-sg|pers-3|case-d|vib-|tam-|chunkId-NP6|chunkType-child|stype-|voicetype-	18	nmod__adj	_	_
18	चुनाव	चुनाव	NN	n	lex-चुनाव|cat-n|gen-m|num-sg|pers-3|case-d|vib-0|tam-0|chunkId-NP6|chunkType-head|stype-|voicetype-	25	k1	_	_
19	केंद्रीय	केंद्रीय	JJ	adj	lex-केंद्रीय|cat-adj|gen-any|num-any|pers-|case-o|vib-|tam-|chunkId-NP7|chunkType-child|stype-|voicetype-	20	nmod__adj	_	_
20	सरकार	सरकार	NN	n	lex-सरकार|cat-n|gen-f|num-sg|pers-3|case-o|vib-0_के_लिए|tam-0|chunkId-NP7|chunkType-head|stype-|voicetype-	25	rt	_	_
21	के	के	PSP	psp	lex-के|cat-psp|gen-|num-|pers-|case-|vib-|tam-|chunkId-NP7|chunkType-child|stype-|voicetype-	20	lwg__psp	_	_
22	लिए	लिए	PSP	psp	lex-लिए|cat-psp|gen-|num-|pers-|case-|vib-|tam-|chunkId-NP7|chunkType-child|stype-|voicetype-	20	lwg__psp	_	_
23	महत्वपूर्ण	महत्वपूर्ण	JJ	adj	lex-महत्वपूर्ण|cat-adj|gen-any|num-any|pers-|case-|vib-|tam-|chunkId-JJP|chunkType-head|stype-|voicetype-	25	k1s	_	_
24	नहीं	नहीं	NEG	avy	lex-नहीं|cat-avy|gen-|num-|pers-|case-|vib-|tam-|chunkId-VGF2|chunkType-child|stype-|voicetype-	25	lwg__neg	_	_
25	है	है	VM	v	lex-है|cat-v|gen-any|num-sg|pers-3|case-|vib-है|tam-hE|chunkId-VGF2|chunkType-head|stype-declarative|voicetype-active	16	ccof	_	_
26	।	।	SYM	punc	lex-।|cat-punc|gen-|num-|pers-|case-|vib-|tam-|chunkId-BLK|chunkType-head|stype-|voicetype-	15	rsym	_	_

