1	भारत	भारत	NNP	n	lex-भारत|cat-n|gen-m|num-sg|pers-3|case-o|vib-0|tam-0|chunkId-NP|chunkType-head|stype-|voicetype-	2	ccof	_	_
2	और	और	CC	avy	lex-और|cat-avy|gen-|num-|pers-|case-|vib-|tam-|chunkId-CCP|chunkType-head|stype-|voicetype-	21	k1	_	_
3	पाकिस्तान	पाकिस्तान	NNP	n	lex-पाकिस्तान|cat-n|gen-m|num-sg|pers-3|case-o|vib-0_ने|tam-0|chunkId-NP2|chunkType-head|stype-|voicetype-	2	ccof	_	_
4	ने	ने	PSP	psp	lex-ने|cat-psp|gen-|num-|pers-|case-|vib-|tam-|chunkId-NP2|chunkType-child|stype-|voicetype-	3	lwg__psp	_	_
5	एक	एक	QC	num	lex-एक|cat-num|gen-any|num-any|pers-|case-any|vib-|tam-|chunkId-NP3|chunkType-child|stype-|voicetype-	7	nmod__adj	_	_
6	विशेष	विशेष	JJ	adj	lex-विशेष|cat-adj|gen-any|num-any|pers-|case-o|vib-|tam-|chunkId-NP3|chunkType-child|stype-|voicetype-	7	nmod__adj	_	_
7	समझौते	समझौता	NN	n	lex-समझौता|cat-n|gen-m|num-sg|pers-3|case-o|vib-0_के_तहत|tam-0|chunkId-NP3|chunkType-head|stype-|voicetype-	21	k7a	_	_
8	के	के	PSP	psp	lex-के|cat-psp|gen-|num-|pers-|case-|vib-|tam-|chunkId-NP3|chunkType-child|stype-|voicetype-	7	lwg__psp	_	_
9	तहत	तहत	PSP	psp	lex-तहत|cat-psp|gen-|num-|pers-|case-|vib-|tam-|chunkId-NP3|chunkType-child|stype-|voicetype-	7	lwg__psp	_	_
10	रविवार	रविवार	NNP	n	lex-रविवार|cat-n|gen-m|num-sg|pers-3|case-o|vib-0_को|tam-0|chunkId-NP4|chunkType-head|stype-|voicetype-	21	k7t	_	_
11	को	को	PSP	psp	lex-को|cat-psp|gen-|num-|pers-|case-|vib-|tam-|chunkId-NP4|chunkType-child|stype-|voicetype-	10	lwg__psp	_	_
12	अपने	अपना	PRP	pn	lex-अपना|cat-pn|gen-m|num-any|pers-any|case-o|vib-0|tam-0|chunkId-NP5|chunkType-head|stype-|voicetype-	14	r6	_	_
13	परमाणु	परमाणु	NNC	n	lex-परमाणु|cat-n|gen-m|num-sg|pers-3|case-d|vib-0|tam-0|chunkId-NP6|chunkType-child|stype-|voicetype-	14	pof__cn	_	_
14	प्रतिष्ठानों	प्रतिष्ठान	NN	n	lex-प्रतिष्ठान|cat-n|gen-m|num-pl|pers-3|case-o|vib-0_का|tam-0|chunkId-NP6|chunkType-head|stype-|voicetype-	16	r6	_	_
15	की	का	PSP	psp	lex-का|cat-psp|gen-f|num-sg|pers-|case-o|vib-|tam-|chunkId-NP6|chunkType-child|stype-|voicetype-	14	lwg__psp	_	_
16	सूचियों	सूची	NN	n	lex-सूची|cat-n|gen-f|num-pl|pers-3|case-o|vib-0_का|tam-0|chunkId-NP7|chunkType-head|stype-|voicetype-	20	r6-k2	_	_
17	का	का	PSP	psp	lex-का|cat-psp|gen-m|num-sg|pers-|case-d|vib-|tam-|chunkId-NP7|chunkType-child|stype-|voicetype-	16	lwg__psp	_	_
18	आदान	आदान	NNC	n	lex-आदान|cat-n|gen-m|num-sg|pers-3|case-d|vib-0|tam-0|chunkId-NP8|chunkType-child|stype-|voicetype-	20	pof__cn	_	_
19	-JOIN	-	SYM	punc	lex--|cat-punc|gen-|num-|pers-|case-|vib-|tam-|chunkId-NP8|chunkType-child|stype-|voicetype-	20	pof__cn	_	_
20	प्रदान	प्रदान	NN	n	lex-प्रदान|cat-n|gen-m|num-sg|pers-3|case-d|vib-0|tam-0|chunkId-NP8|chunkType-head|stype-|voicetype-	21	pof	_	_
21	किया	कर	VM	v	lex-कर|cat-v|gen-m|num-sg|pers-any|case-|vib-या|tam-yA|chunkId-VGF|chunkType-head|stype-declarative|voicetype-active	0	main	_	_
22	.	.	SYM	punc	lex-.|cat-punc|gen-|num-|pers-|case-|vib-|tam-|chunkId-BLK|chunkType-head|stype-|voicetype-	21	rsym	_	_

1	समझौते	समझौता	NN	n	lex-समझौता|cat-n|gen-m|num-sg|pers-3|case-o|vib-0_का|tam-0|chunkId-NP|chunkType-head|stype-|voicetype-	3	r6	_	_
2	की	का	PSP	psp	lex-का|cat-psp|gen-f|num-pl|pers-|case-o|vib-|tam-|chunkId-NP|chunkType-child|stype-|voicetype-	1	lwg__psp	_	_
3	शर्तो	शर्त	NN	n	lex-शर्त|cat-n|gen-f|num-pl|pers-3|case-o|vib-0_के_मुताबिक|tam-0|chunkId-NP2|chunkType-head|stype-|voicetype-	20	k7a	_	_
4	के	के	PSP	psp	lex-के|cat-psp|gen-|num-|pers-|case-|vib-|tam-|chunkId-NP2|chunkType-child|stype-|voicetype-	3	lwg__psp	_	_
5	मुताबिक	मुताबिक	PSP	psp	lex-मुताबिक|cat-psp|gen-|num-|pers-|case-|vib-|tam-|chunkId-NP2|chunkType-child|stype-|voicetype-	3	lwg__psp	_	_
6	दोनों	दो	QC	num	lex-दो|cat-num|gen-any|num-any|pers-|case-any|vib-|tam-|chunkId-NP3|chunkType-child|stype-|voicetype-	7	nmod__adj	_	_
7	देशों	देश	NN	n	lex-देश|cat-n|gen-m|num-pl|pers-3|case-o|vib-0_को|tam-0|chunkId-NP3|chunkType-head|stype-|voicetype-	17	k1	_	_
8	को	को	PSP	psp	lex-को|cat-psp|gen-|num-|pers-|case-|vib-|tam-|chunkId-NP3|chunkType-child|stype-|voicetype-	7	lwg__psp	_	_
9	एक	एक	PRPC	pn	lex-एक|cat-pn|gen-m|num-sg|pers-3|case-d|vib-0|tam-0|chunkId-NP4|chunkType-child|stype-|voicetype-	11	mod	_	_
10	-	-	SYM	punc	lex--|cat-punc|gen-|num-|pers-|case-|vib-|tam-|chunkId-NP4|chunkType-child|stype-|voicetype-	11	rsym	_	_
11	दूसरे	दूसरा	PRP	pn	lex-दूसरा|cat-pn|gen-m|num-sg|pers-3|case-o|vib-0_का|tam-0|chunkId-NP4|chunkType-head|stype-|voicetype-	14	r6	_	_
12	के	का	PSP	psp	lex-का|cat-psp|gen-m|num-pl|pers-|case-o|vib-|tam-|chunkId-NP4|chunkType-child|stype-|voicetype-	11	lwg__psp	_	_
13	परमाणु	परमाणु	NNC	n	lex-परमाणु|cat-n|gen-m|num-sg|pers-3|case-d|vib-0|tam-0|chunkId-NP5|chunkType-child|stype-|voicetype-	14	pof__cn	_	_
14	प्रतिष्ठानों	प्रतिष्ठान	NN	n	lex-प्रतिष्ठान|cat-n|gen-m|num-pl|pers-3|case-o|vib-0_पर|tam-0|chunkId-NP5|chunkType-head|stype-|voicetype-	17	k7	_	_
15	पर	पर	PSP	psp	lex-पर|cat-psp|gen-|num-|pers-|case-|vib-|tam-|chunkId-NP5|chunkType-child|stype-|voicetype-	14	lwg__psp	_	_
16	हमला	हमला	NN	n	lex-हमला|cat-n|gen-m|num-sg|pers-3|case-d|vib-0|tam-0|chunkId-NP6|chunkType-head|stype-|voicetype-	17	pof	_	_
17	करने	कर	VM	v	lex-कर|cat-v|gen-any|num-sg|pers-any|case-o|vib-ना_का|tam-nA|chunkId-VGNN|chunkType-head|stype-|voicetype-	19	r6	_	_
18	की	का	PSP	psp	lex-का|cat-psp|gen-f|num-sg|pers-|case-d|vib-|tam-|chunkId-VGNN|chunkType-child|stype-|voicetype-	17	lwg__psp	_	_
19	मनाही	मनाही	NN	n	lex-मनाही|cat-n|gen-f|num-sg|pers-3|case-d|vib-0|tam-0|chunkId-NP7|chunkType-head|stype-|voicetype-	20	k1	_	_
20	है	है	VM	v	lex-है|cat-v|gen-any|num-sg|pers-3|case-|vib-है|tam-hE|chunkId-VGF|chunkType-head|stype-declarative|voicetype-active	0	main	_	_
21	.	.	SYM	punc	lex-.|cat-punc|gen-|num-|pers-|case-|vib-|tam-|chunkId-BLK|chunkType-head|stype-|voicetype-	20	rsym	_	_

1	उधर	उधर	NST	nst	lex-उधर|cat-nst|gen-m|num-sg|pers-3|case-d|vib-|tam-|chunkId-NP|chunkType-head|stype-|voicetype-	26	sent-adv	_	_
2	,	COMMA	SYM	punc	lex-COMMA|cat-punc|gen-|num-|pers-|case-|vib-|tam-|chunkId-NP|chunkType-child|stype-|voicetype-	1	rsym	_	_
3	कराची	कराची	NNP	n	lex-कराची|cat-n|gen-m|num-sg|pers-3|case-d|vib-0|tam-0|chunkId-NP2|chunkType-head|stype-|voicetype-	4	ccof	_	_
4	व	व	CC	avy	lex-व|cat-avy|gen-|num-|pers-|case-|vib-|tam-|chunkId-CCP|chunkType-head|stype-|voicetype-	21	k7p	_	_
5	मुंबई	मुंबई	NNP	n	lex-मुंबई|cat-n|gen-m|num-sg|pers-3|case-o|vib-0_में|tam-0|chunkId-NP3|chunkType-head|stype-|voicetype-	4	ccof	_	_
6	में	में	PSP	psp	lex-में|cat-psp|gen-|num-|pers-|case-|vib-|tam-|chunkId-NP3|chunkType-child|stype-|voicetype-	5	lwg__psp	_	_
7	क्रमशः	क्रमशः	RB	adv	lex-क्रमशः|cat-adv|gen-|num-|pers-|case-|vib-|tam-|chunkId-RBP|chunkType-head|stype-|voicetype-	21	vmod	_	_
8	भारत	भारत	NNP	n	lex-भारत|cat-n|gen-m|num-sg|pers-3|case-o|vib-0|tam-0|chunkId-NP4|chunkType-head|stype-|voicetype-	9	ccof	_	_
9	व	व	CC	avy	lex-व|cat-avy|gen-|num-|pers-|case-|vib-|tam-|chunkId-CCP2|chunkType-head|stype-|voicetype-	13	r6	_	_
10	पाक	पाक	NNP	n	lex-पाक|cat-n|gen-m|num-sg|pers-3|case-o|vib-0_का|tam-0|chunkId-NP5|chunkType-head|stype-|voicetype-	9	ccof	_	_
11	के	का	PSP	psp	lex-का|cat-psp|gen-m|num-sg|pers-|case-o|vib-|tam-|chunkId-NP5|chunkType-child|stype-|voicetype-	10	lwg__psp	_	_
12	वीजा	वीजा	NNC	n	lex-वीजा|cat-n|gen-m|num-sg|pers-3|case-d|vib-0|tam-0|chunkId-NP6|chunkType-child|stype-|voicetype-	13	pof__cn	_	_
13	कार्यालय	कार्यालय	NN	n	lex-कार्यालय|cat-n|gen-m|num-pl|pers-3|case-d|vib-0|tam-0|chunkId-NP6|chunkType-head|stype-|voicetype-	21	k2	_	_
14	नए	नया	JJ	adj	lex-नया|cat-adj|gen-m|num-sg|pers-|case-o|vib-|tam-|chunkId-NP7|chunkType-child|stype-|voicetype-	15	nmod__adj	_	_
15	वर्ष	वर्ष	NN	n	lex-वर्ष|cat-n|gen-m|num-sg|pers-3|case-o|vib-0_का|tam-0|chunkId-NP7|chunkType-head|stype-|voicetype-	18	r6	_	_
16	के	का	PSP	psp	lex-का|cat-psp|gen-m|num-sg|pers-|case-o|vib-|tam-|chunkId-NP7|chunkType-child|stype-|voicetype-	15	lwg__psp	_	_
17	पहले	पहला	QO	num	lex-पहला|cat-num|gen-m|num-sg|pers-|case-d|vib-|tam-|chunkId-NP8|chunkType-child|stype-|voicetype-	18	nmod__adj	_	_
18	दिन	दिन	NN	n	lex-दिन|cat-n|gen-m|num-sg|pers-3|case-d|vib-0|tam-0|chunkId-NP8|chunkType-head|stype-|voicetype-	21	k7t	_	_
19	फिर	फिर	RB	adv	lex-फिर|cat-adv|gen-|num-|pers-|case-|vib-|tam-|chunkId-RBP2|chunkType-head|stype-|voicetype-	21	adv	_	_
20	से	से	RP	avy	lex-से|cat-avy|gen-|num-|pers-|case-|vib-|tam-|chunkId-RBP2|chunkType-child|stype-|voicetype-	19	lwg__rp	_	_
21	खोलने	खोल	VM	v	lex-खोल|cat-v|gen-any|num-sg|pers-any|case-o|vib-ना_का|tam-nA|chunkId-VGNN|chunkType-head|stype-|voicetype-	23	r6	_	_
22	के	का	PSP	psp	lex-का|cat-psp|gen-m|num-sg|pers-|case-o|vib-|tam-|chunkId-VGNN|chunkType-child|stype-|voicetype-	21	lwg__psp	_	_
23	कार्यक्रम	कार्यक्रम	NN	n	lex-कार्यक्रम|cat-n|gen-m|num-sg|pers-3|case-o|vib-0_में|tam-0|chunkId-NP9|chunkType-head|stype-|voicetype-	26	k7	_	_
24	में	में	PSP	psp	lex-में|cat-psp|gen-|num-|pers-|case-|vib-|tam-|chunkId-NP9|chunkType-child|stype-|voicetype-	23	lwg__psp	_	_
25	विलंब	विलंब	NN	n	lex-विलंब|cat-n|gen-m|num-sg|pers-3|case-d|vib-0|tam-0|chunkId-NP10|chunkType-head|stype-|voicetype-	26	pof	_	_
26	हो	हो	VM	v	lex-हो|cat-v|gen-m|num-sg|pers-3|case-|vib-0_जा+या१_है|tam-0|chunkId-VGF|chunkType-head|stype-declarative|voicetype-passive	0	main	_	_
27	गया	जा	VAUX	v	lex-जा|cat-v|gen-m|num-sg|pers-any|case-|vib-या१|tam-yA1|chunkId-VGF|chunkType-child|stype-|voicetype-	26	lwg__vaux	_	_
28	है	है	VAUX	v	lex-है|cat-v|gen-any|num-sg|pers-3|case-|vib-है|tam-hE|chunkId-VGF|chunkType-child|stype-|voicetype-	26	lwg__vaux	_	_
29	.	.	SYM	punc	lex-.|cat-punc|gen-|num-|pers-|case-|vib-|tam-|chunkId-BLK|chunkType-head|stype-|voicetype-	26	rsym	_	_

1	समझौते	समझौता	NN	n	lex-समझौता|cat-n|gen-m|num-sg|pers-3|case-o|vib-0_के_तहत|tam-0|chunkId-NP|chunkType-head|stype-|voicetype-	23	k7a	_	_
2	के	के	PSP	psp	lex-के|cat-psp|gen-|num-|pers-|case-|vib-|tam-|chunkId-NP|chunkType-child|stype-|voicetype-	1	lwg__psp	_	_
3	तहत	तहत	PSP	psp	lex-तहत|cat-psp|gen-|num-|pers-|case-|vib-|tam-|chunkId-NP|chunkType-child|stype-|voicetype-	1	lwg__psp	_	_
4	दोनों	दो	QC	num	lex-दो|cat-num|gen-any|num-any|pers-|case-any|vib-|tam-|chunkId-NP2|chunkType-child|stype-|voicetype-	5	nmod__adj	_	_
5	देश	देश	NN	n	lex-देश|cat-n|gen-m|num-sg|pers-3|case-d|vib-0|tam-0|chunkId-NP2|chunkType-head|stype-|voicetype-	23	k1	_	_
6	प्रत्येक	प्रत्येक	QF	avy	lex-प्रत्येक|cat-avy|gen-|num-|pers-|case-|vib-|tam-|chunkId-NP3|chunkType-child|stype-|voicetype-	7	nmod__adj	_	_
7	वर्ष	वर्ष	NN	n	lex-वर्ष|cat-n|gen-m|num-sg|pers-3|case-d|vib-0|tam-0|chunkId-NP3|chunkType-head|stype-|voicetype-	23	k7t	_	_
8	जनवरी	जनवरी	NNP	n	lex-जनवरी|cat-n|gen-f|num-sg|pers-3|case-o|vib-0_का|tam-0|chunkId-NP4|chunkType-head|stype-|voicetype-	11	r6	_	_
9	की	का	PSP	psp	lex-का|cat-psp|gen-f|num-sg|pers-|case-o|vib-|tam-|chunkId-NP4|chunkType-child|stype-|voicetype-	8	lwg__psp	_	_
10	पहली	पहला	QO	num	lex-पहला|cat-num|gen-f|num-sg|pers-|case-o|vib-|tam-|chunkId-NP5|chunkType-child|stype-|voicetype-	11	nmod__adj	_	_
11	तारीख	तारीख	NN	n	lex-तारीख|cat-n|gen-f|num-sg|pers-3|case-o|vib-0_को|tam-0|chunkId-NP5|chunkType-head|stype-|voicetype-	23	k7t	_	_
12	को	को	PSP	psp	lex-को|cat-psp|gen-|num-|pers-|case-|vib-|tam-|chunkId-NP5|chunkType-child|stype-|voicetype-	11	lwg__psp	_	_
13	एक	एक	PRPC	pn	lex-एक|cat-pn|gen-m|num-sg|pers-3|case-d|vib-0|tam-0|chunkId-NP6|chunkType-child|stype-|voicetype-	15	mod	_	_
14	-JOIN	-	SYM	punc	lex--|cat-punc|gen-|num-|pers-|case-|vib-|tam-|chunkId-NP6|chunkType-child|stype-|voicetype-	15	rsym	_	_
15	दूसरे	दूसरा	PRP	pn	lex-दूसरा|cat-pn|gen-m|num-sg|pers-3|case-o|vib-0_का|tam-0|chunkId-NP6|chunkType-head|stype-|voicetype-	18	r6	_	_
16	की	का	PSP	psp	lex-का|cat-psp|gen-f|num-sg|pers-|case-o|vib-|tam-|chunkId-NP6|chunkType-child|stype-|voicetype-	15	lwg__psp	_	_
17	परमाणु	परमाणु	NNC	n	lex-परमाणु|cat-n|gen-m|num-sg|pers-3|case-d|vib-0|tam-0|chunkId-NP7|chunkType-child|stype-|voicetype-	18	pof__cn	_	_
18	सूचियों	सूची	NN	n	lex-सूची|cat-n|gen-f|num-pl|pers-3|case-o|vib-0_का|tam-0|chunkId-NP7|chunkType-head|stype-|voicetype-	22	r6-k2	_	_
19	का	का	PSP	psp	lex-का|cat-psp|gen-m|num-sg|pers-|case-d|vib-|tam-|chunkId-NP7|chunkType-child|stype-|voicetype-	18	lwg__psp	_	_
20	आदान	आदान	NNC	n	lex-आदान|cat-n|gen-m|num-sg|pers-3|case-d|vib-0|tam-0|chunkId-NP8|chunkType-child|stype-|voicetype-	22	pof__cn	_	_
21	-JOIN	-	SYM	punc	lex--|cat-punc|gen-|num-|pers-|case-|vib-|tam-|chunkId-NP8|chunkType-child|stype-|voicetype-	22	pof__cn	_	_
22	प्रदान	प्रदान	NN	n	lex-प्रदान|cat-n|gen-m|num-sg|pers-3|case-d|vib-0|tam-0|chunkId-NP8|chunkType-head|stype-|voicetype-	23	pof	_	_
23	करते	कर	VM	v	lex-कर|cat-v|gen-m|num-pl|pers-3|case-|vib-ता_है|tam-wA|chunkId-VGF|chunkType-head|stype-declarative|voicetype-active	0	main	_	_
24	हैं	है	VAUX	v	lex-है|cat-v|gen-any|num-pl|pers-3|case-|vib-है|tam-hE|chunkId-VGF|chunkType-child|stype-|voicetype-	23	lwg__vaux	_	_
25	.	.	SYM	punc	lex-.|cat-punc|gen-|num-|pers-|case-|vib-|tam-|chunkId-BLK|chunkType-head|stype-|voicetype-	23	rsym	_	_

1	विदेश	विदेश	NNC	n	lex-विदेश|cat-n|gen-m|num-sg|pers-3|case-d|vib-0|tam-0|chunkId-NP|chunkType-child|stype-|voicetype-	2	pof__cn	_	_
2	कार्यालय	कार्यालय	NN	n	lex-कार्यालय|cat-n|gen-m|num-sg|pers-3|case-o|vib-0_द्वारा|tam-0|chunkId-NP|chunkType-head|stype-|voicetype-	4	jjmod	_	_
3	द्वारा	द्वारा	PSP	psp	lex-द्वारा|cat-psp|gen-|num-|pers-|case-|vib-|tam-|chunkId-NP|chunkType-child|stype-|voicetype-	2	lwg__psp	_	_
4	जारी	जारी	JJ	adj	lex-जारी|cat-adj|gen-any|num-any|pers-|case-o|vib-|tam-|chunkId-JJP|chunkType-head|stype-|voicetype-	5	nmod	_	_
5	वक्तव्य	वक्तव्य	NN	n	lex-वक्तव्य|cat-n|gen-m|num-sg|pers-3|case-o|vib-0_के_मुताबिक|tam-0|chunkId-NP2|chunkType-head|stype-|voicetype-	41	k7a	_	_
6	के	के	PSP	psp	lex-के|cat-psp|gen-|num-|pers-|case-|vib-|tam-|chunkId-NP2|chunkType-child|stype-|voicetype-	5	lwg__psp	_	_
7	मुताबिक	मुताबिक	PSP	psp	lex-मुताबिक|cat-psp|gen-|num-|pers-|case-|vib-|tam-|chunkId-NP2|chunkType-child|stype-|voicetype-	5	lwg__psp	_	_
8	भारत	भारत	NNP	n	lex-भारत|cat-n|gen-m|num-sg|pers-3|case-o|vib-0|tam-0|chunkId-NP3|chunkType-head|stype-|voicetype-	9	ccof	_	_
9	व	व	CC	avy	lex-व|cat-avy|gen-|num-|pers-|case-|vib-|tam-|chunkId-CCP|chunkType-head|stype-|voicetype-	18	k1	_	_
10	पाकिस्तान	पाकिस्तान	NNP	n	lex-पाकिस्तान|cat-n|gen-m|num-sg|pers-3|case-o|vib-0_के_बीच|tam-0|chunkId-NP4|chunkType-head|stype-|voicetype-	9	ccof	_	_
11	के	के	PSP	psp	lex-के|cat-psp|gen-|num-|pers-|case-|vib-|tam-|chunkId-NP4|chunkType-child|stype-|voicetype-	10	lwg__psp	_	_
12	बीच	बीच	NST	nst	lex-बीच|cat-nst|gen-m|num-sg|pers-3|case-d|vib-|tam-|chunkId-NP4|chunkType-child|stype-|voicetype-	10	lwg__psp	_	_
13	३१	३१	NNPC	n	lex-३१|cat-n|gen-any|num-sg|pers-3|case-d|vib-0|tam-0|chunkId-NP5|chunkType-child|stype-|voicetype-	16	pof__cn	_	_
14	दिसंबर	दिसंबर	NNPC	n	lex-दिसंबर|cat-n|gen-m|num-sg|pers-3|case-d|vib-0|tam-0|chunkId-NP5|chunkType-child|stype-|voicetype-	16	pof__cn	_	_
15	,	COMMA	SYM	punc	lex-COMMA|cat-punc|gen-|num-|pers-|case-|vib-|tam-|chunkId-NP5|chunkType-child|stype-|voicetype-	16	rsym	_	_
16	१९८८	१९८८	NNP	n	lex-१९८८|cat-n|gen-any|num-sg|pers-3|case-o|vib-0_को|tam-0|chunkId-NP5|chunkType-head|stype-|voicetype-	18	k7t	_	_
17	को	को	PSP	psp	lex-को|cat-psp|gen-|num-|pers-|case-|vib-|tam-|chunkId-NP5|chunkType-child|stype-|voicetype-	16	lwg__psp	_	_
18	हुए	हो	VM	v	lex-हो|cat-v|gen-m|num-sg|pers-any|case-|vib-या|tam-yA|chunkId-VGNF|chunkType-head|stype-|voicetype-	19	nmod__pofinv	_	_
19	समझौते	समझौता	NN	n	lex-समझौता|cat-n|gen-m|num-sg|pers-3|case-o|vib-0_का|tam-0|chunkId-NP6|chunkType-head|stype-|voicetype-	22	r6	_	_
20	के	का	PSP	psp	lex-का|cat-psp|gen-m|num-sg|pers-|case-o|vib-|tam-|chunkId-NP6|chunkType-child|stype-|voicetype-	19	lwg__psp	_	_
21	अनुच्छेद	अनुच्छेद	NNPC	n	lex-अनुच्छेद|cat-n|gen-m|num-sg|pers-3|case-d|vib-0|tam-0|chunkId-NP7|chunkType-child|stype-|voicetype-	22	pof__cn	_	_
22	द्वितीय	द्वितीय	NNP	n	lex-द्वितीय|cat-n|gen-m|num-sg|pers-3|case-o|vib-0_के_तहत|tam-0|chunkId-NP7|chunkType-head|stype-|voicetype-	41	k7a	_	_
23	के	के	PSP	psp	lex-के|cat-psp|gen-|num-|pers-|case-|vib-|tam-|chunkId-NP7|chunkType-child|stype-|voicetype-	22	lwg__psp	_	_
24	तहत	तहत	PSP	psp	lex-तहत|cat-psp|gen-|num-|pers-|case-|vib-|tam-|chunkId-NP7|chunkType-child|stype-|voicetype-	22	lwg__psp	_	_
25	दोनों	दो	QC	num	lex-दो|cat-num|gen-any|num-any|pers-|case-any|vib-|tam-|chunkId-NP8|chunkType-child|stype-|voicetype-	26	nmod__adj	_	_
26	देशों	देश	NN	n	lex-देश|cat-n|gen-m|num-pl|pers-3|case-o|vib-0_का|tam-0|chunkId-NP8|chunkType-head|stype-|voicetype-	28	r6	_	_
27	की	का	PSP	psp	lex-का|cat-psp|gen-f|num-pl|pers-|case-o|vib-|tam-|chunkId-NP8|chunkType-child|stype-|voicetype-	26	lwg__psp	_	_
28	सरकारों	सरकार	NN	n	lex-सरकार|cat-n|gen-f|num-pl|pers-3|case-o|vib-0_ने|tam-0|chunkId-NP9|chunkType-head|stype-|voicetype-	41	k1	_	_
29	ने	ने	PSP	psp	lex-ने|cat-psp|gen-|num-|pers-|case-|vib-|tam-|chunkId-NP9|chunkType-child|stype-|voicetype-	28	lwg__psp	_	_
30	एक	एक	PRPC	pn	lex-एक|cat-pn|gen-m|num-sg|pers-3|case-d|vib-0|tam-0|chunkId-NP10|chunkType-child|stype-|voicetype-	31	mod	_	_
31	दूसरे	दूसरा	PRP	pn	lex-दूसरा|cat-pn|gen-m|num-sg|pers-|case-o|vib-0_के|tam-0|chunkId-NP10|chunkType-head|stype-|voicetype-	34	r6	_	_
32	के	के	PSP	psp	lex-के|cat-psp|gen-m|num-pl|pers-|case-o|vib-|tam-|chunkId-NP10|chunkType-child|stype-|voicetype-	31	lwg__psp	_	_
33	परमाणु	परमाणु	NNC	n	lex-परमाणु|cat-n|gen-m|num-sg|pers-3|case-d|vib-0|tam-0|chunkId-NP11|chunkType-child|stype-|voicetype-	34	pof__cn	_	_
34	प्रतिष्ठानों	प्रतिष्ठान	NN	n	lex-प्रतिष्ठान|cat-n|gen-m|num-pl|pers-3|case-o|vib-0_का|tam-0|chunkId-NP11|chunkType-head|stype-|voicetype-	36	r6	_	_
35	की	का	PSP	psp	lex-का|cat-psp|gen-f|num-pl|pers-|case-o|vib-|tam-|chunkId-NP11|chunkType-child|stype-|voicetype-	34	lwg__psp	_	_
36	सूचियों	सूची	NN	n	lex-सूची|cat-n|gen-f|num-pl|pers-3|case-o|vib-0_का|tam-0|chunkId-NP12|chunkType-head|stype-|voicetype-	40	r6-k2	_	_
37	का	का	PSP	psp	lex-का|cat-psp|gen-m|num-sg|pers-|case-d|vib-|tam-|chunkId-NP12|chunkType-child|stype-|voicetype-	36	lwg__psp	_	_
38	आदान	आदान	NNC	n	lex-आदान|cat-n|gen-m|num-sg|pers-3|case-d|vib-0|tam-0|chunkId-NP13|chunkType-child|stype-|voicetype-	40	pof__cn	_	_
39	-JOIN	-	SYM	punc	lex--|cat-punc|gen-|num-|pers-|case-|vib-|tam-|chunkId-NP13|chunkType-child|stype-|voicetype-	40	pof__cn	_	_
40	प्रदान	प्रदान	NN	n	lex-प्रदान|cat-n|gen-m|num-sg|pers-3|case-d|vib-0|tam-0|chunkId-NP13|chunkType-head|stype-|voicetype-	41	pof	_	_
41	किया	कर	VM	v	lex-कर|cat-v|gen-m|num-sg|pers-any|case-|vib-या|tam-yA|chunkId-VGF|chunkType-head|stype-declarative|voicetype-active	0	main	_	_
42	.	.	SYM	punc	lex-.|cat-punc|gen-|num-|pers-|case-|vib-|tam-|chunkId-BLK|chunkType-head|stype-|voicetype-	41	rsym	_	_

1	पाकिस्तान	पाकिस्तान	NNP	n	lex-पाकिस्तान|cat-n|gen-m|num-sg|pers-3|case-o|vib-0_का|tam-0|chunkId-NP|chunkType-head|stype-|voicetype-	4	r6	_	_
2	के	का	PSP	psp	lex-का|cat-psp|gen-m|num-sg|pers-|case-o|vib-|tam-|chunkId-NP|chunkType-child|stype-|voicetype-	1	lwg__psp	_	_
3	विदेश	विदेश	NNPC	n	lex-विदेश|cat-n|gen-m|num-sg|pers-3|case-d|vib-0|tam-0|chunkId-NP2|chunkType-child|stype-|voicetype-	4	pof__cn	_	_
4	मंत्रालय	मंत्रालय	NNP	n	lex-मंत्रालय|cat-n|gen-m|num-sg|pers-3|case-o|vib-0_में|tam-0|chunkId-NP2|chunkType-head|stype-|voicetype-	33	k7	_	_
5	में	में	PSP	psp	lex-में|cat-psp|gen-|num-|pers-|case-|vib-|tam-|chunkId-NP2|chunkType-child|stype-|voicetype-	4	lwg__psp	_	_
6	भारतीय	भारतीय	NNPC	adj	lex-भारतीय|cat-adj|gen-any|num-any|pers-|case-o|vib-|tam-|chunkId-NP3|chunkType-child|stype-|voicetype-	7	pof__cn	_	_
7	डेस्क	डेस्क	NNP	n	lex-डेस्क|cat-n|gen-f|num-sg|pers-3|case-o|vib-0_का|tam-0|chunkId-NP3|chunkType-head|stype-|voicetype-	9	r6	_	_
8	के	का	PSP	psp	lex-का|cat-psp|gen-m|num-sg|pers-|case-o|vib-|tam-|chunkId-NP3|chunkType-child|stype-|voicetype-	7	lwg__psp	_	_
9	निदेशक	निदेशक	NN	n	lex-निदेशक|cat-n|gen-m|num-sg|pers-3|case-o|vib-0|tam-0|chunkId-NP4|chunkType-head|stype-|voicetype-	12	nmod	_	_
10	जहीर	जहीर	NNPC	n	lex-जहीर|cat-n|gen-m|num-sg|pers-3|case-d|vib-0|tam-0|chunkId-NP5|chunkType-child|stype-|voicetype-	12	pof__cn	_	_
11	ए.	ए.	NNPC	n	lex-ए.|cat-n|gen-m|num-sg|pers-3|case-d|vib-0|tam-0|chunkId-NP5|chunkType-child|stype-|voicetype-	12	pof__cn	_	_
12	जंजुआ	जंजुआ	NNP	n	lex-जंजुआ|cat-n|gen-m|num-sg|pers-3|case-o|vib-0_ने|tam-0|chunkId-NP5|chunkType-head|stype-|voicetype-	33	k1	_	_
13	ने	ने	PSP	psp	lex-ने|cat-psp|gen-|num-|pers-|case-|vib-|tam-|chunkId-NP5|chunkType-child|stype-|voicetype-	12	lwg__psp	_	_
14	पाकिस्तान	पाकिस्तान	NNP	n	lex-पाकिस्तान|cat-n|gen-m|num-sg|pers-3|case-o|vib-0_का|tam-0|chunkId-NP6|chunkType-head|stype-|voicetype-	17	r6	_	_
15	के	का	PSP	psp	lex-का|cat-psp|gen-m|num-pl|pers-|case-o|vib-|tam-|chunkId-NP6|chunkType-child|stype-|voicetype-	14	lwg__psp	_	_
16	परमाणु	परमाणु	NNC	n	lex-परमाणु|cat-n|gen-m|num-sg|pers-3|case-d|vib-0|tam-0|chunkId-NP7|chunkType-child|stype-|voicetype-	17	pof__cn	_	_
17	प्रतिष्ठानों	प्रतिष्ठान	NN	n	lex-प्रतिष्ठान|cat-n|gen-m|num-pl|pers-3|case-o|vib-0|tam-0|chunkId-NP7|chunkType-head|stype-|voicetype-	18	ccof	_	_
18	व	व	CC	avy	lex-व|cat-avy|gen-|num-|pers-|case-|vib-|tam-|chunkId-CCP|chunkType-head|stype-|voicetype-	21	r6	_	_
19	ठिकानों	ठिकाना	NN	n	lex-ठिकाना|cat-n|gen-m|num-pl|pers-3|case-o|vib-0_का|tam-0|chunkId-NP8|chunkType-head|stype-|voicetype-	18	ccof	_	_
20	की	का	PSP	psp	lex-का|cat-psp|gen-f|num-sg|pers-|case-o|vib-|tam-|chunkId-NP8|chunkType-child|stype-|voicetype-	19	lwg__psp	_	_
21	सूची	सूची	NN	n	lex-सूची|cat-n|gen-f|num-sg|pers-3|case-d|vib-0|tam-0|chunkId-NP9|chunkType-head|stype-|voicetype-	33	k2	_	_
22	इस्लामाबाद	इस्लामाबाद	NNP	n	lex-इस्लामाबाद|cat-n|gen-m|num-sg|pers-3|case-o|vib-0_में|tam-0|chunkId-NP10|chunkType-head|stype-|voicetype-	33	k7p	_	_
23	में	में	PSP	psp	lex-में|cat-psp|gen-|num-|pers-|case-|vib-|tam-|chunkId-NP10|chunkType-child|stype-|voicetype-	22	lwg__psp	_	_
24	भारतीय	भारतीय	JJ	adj	lex-भारतीय|cat-adj|gen-any|num-any|pers-|case-o|vib-|tam-|chunkId-NP11|chunkType-child|stype-|voicetype-	25	nmod__adj	_	_
25	उच्चायोग	उच्चायोग	NN	n	lex-उच्चायोग|cat-n|gen-m|num-sg|pers-3|case-o|vib-0_का|tam-0|chunkId-NP11|chunkType-head|stype-|voicetype-	29	r6	_	_
26	के	का	PSP	psp	lex-का|cat-psp|gen-m|num-sg|pers-|case-o|vib-|tam-|chunkId-NP11|chunkType-child|stype-|voicetype-	25	lwg__psp	_	_
27	प्रथम	प्रथम	QO	num	lex-प्रथम|cat-num|gen-any|num-any|pers-|case-any|vib-|tam-|chunkId-NP12|chunkType-child|stype-|voicetype-	29	nmod__adj	_	_
28	राजनीतिक	राजनीतिक	JJ	adj	lex-राजनीतिक|cat-adj|gen-any|num-any|pers-|case-o|vib-|tam-|chunkId-NP12|chunkType-child|stype-|voicetype-	29	nmod__adj	_	_
29	सचिव	सचिव	NN	n	lex-सचिव|cat-n|gen-m|num-sg|pers-3|case-o|vib-0|tam-0|chunkId-NP12|chunkType-head|stype-|voicetype-	31	nmod	_	_
30	सिबी	सिबी	NNPC	n	lex-सिबी|cat-n|gen-m|num-sg|pers-3|case-d|vib-0|tam-0|chunkId-NP13|chunkType-child|stype-|voicetype-	31	pof__cn	_	_
31	जॉर्ज	जॉर्ज	NNP	n	lex-जॉर्ज|cat-n|gen-m|num-sg|pers-3|case-o|vib-0_को|tam-0|chunkId-NP13|chunkType-head|stype-|voicetype-	33	k4	_	_
32	को	को	PSP	psp	lex-को|cat-psp|gen-|num-|pers-|case-|vib-|tam-|chunkId-NP13|chunkType-child|stype-|voicetype-	31	lwg__psp	_	_
33	सौंपी	सौंप	VM	v	lex-सौंप|cat-v|gen-f|num-sg|pers-any|case-|vib-या|tam-yA|chunkId-VGF|chunkType-head|stype-declarative|voicetype-active	0	main	_	_
34	.	.	SYM	punc	lex-.|cat-punc|gen-|num-|pers-|case-|vib-|tam-|chunkId-BLK|chunkType-head|stype-|voicetype-	33	rsym	_	_

1	नई	नया	NNPC	n	lex-नया|cat-n|gen-f|num-sg|pers-3|case-d|vib-0|tam-0|chunkId-NP|chunkType-child|stype-|voicetype-	2	pof__cn	_	_
2	दिल्ली	दिल्ली	NNP	n	lex-दिल्ली|cat-n|gen-f|num-sg|pers-3|case-o|vib-0_में|tam-0|chunkId-NP|chunkType-head|stype-|voicetype-	20	k7p	_	_
3	में	में	PSP	psp	lex-में|cat-psp|gen-|num-|pers-|case-|vib-|tam-|chunkId-NP|chunkType-child|stype-|voicetype-	2	lwg__psp	_	_
4	भारत	भारत	NNP	n	lex-भारत|cat-n|gen-m|num-sg|pers-3|case-o|vib-0_का_तरफ_से|tam-0|chunkId-NP2|chunkType-head|stype-|voicetype-	20	rd	_	_
5	की	का	PSP	psp	lex-का|cat-psp|gen-f|num-sg|pers-|case-o|vib-|tam-|chunkId-NP2|chunkType-child|stype-|voicetype-	4	lwg__psp	_	_
6	तरफ	तरफ	NST	nst	lex-तरफ|cat-nst|gen-f|num-sg|pers-3|case-o|vib-|tam-|chunkId-NP2|chunkType-child|stype-|voicetype-	4	lwg__psp	_	_
7	से	से	PSP	psp	lex-से|cat-psp|gen-|num-|pers-|case-|vib-|tam-|chunkId-NP2|chunkType-child|stype-|voicetype-	4	lwg__psp	_	_
8	विदेश	विदेश	NNPC	n	lex-विदेश|cat-n|gen-m|num-sg|pers-3|case-d|vib-0|tam-0|chunkId-NP3|chunkType-child|stype-|voicetype-	9	pof__cn	_	_
9	मंत्रालय	मंत्रालय	NNP	n	lex-मंत्रालय|cat-n|gen-m|num-sg|pers-3|case-o|vib-0_में|tam-0|chunkId-NP3|chunkType-head|stype-|voicetype-	20	k7	_	_
10	में	में	PSP	psp	lex-में|cat-psp|gen-|num-|pers-|case-|vib-|tam-|chunkId-NP3|chunkType-child|stype-|voicetype-	9	lwg__psp	_	_
11	पाक	पाक	JJ	adj	lex-पाक|cat-adj|gen-any|num-any|pers-|case-o|vib-|tam-|chunkId-NP4|chunkType-child|stype-|voicetype-	12	nmod__adj	_	_
12	उच्चायोग	उच्चायोग	NN	n	lex-उच्चायोग|cat-n|gen-m|num-sg|pers-3|case-o|vib-0_का|tam-0|chunkId-NP4|chunkType-head|stype-|voicetype-	15	r6	_	_
13	के	का	PSP	psp	lex-का|cat-psp|gen-m|num-sg|pers-|case-o|vib-|tam-|chunkId-NP4|chunkType-child|stype-|voicetype-	12	lwg__psp	_	_
14	प्रथम	प्रथम	QO	num	lex-प्रथम|cat-num|gen-any|num-any|pers-|case-any|vib-|tam-|chunkId-NP5|chunkType-child|stype-|voicetype-	15	nmod__adj	_	_
15	सचिव	सचिव	NN	n	lex-सचिव|cat-n|gen-m|num-sg|pers-3|case-o|vib-0|tam-0|chunkId-NP5|chunkType-head|stype-|voicetype-	17	nmod	_	_
16	खालिद	खालिद	NNPC	n	lex-खालिद|cat-n|gen-m|num-sg|pers-3|case-d|vib-0|tam-0|chunkId-NP6|chunkType-child|stype-|voicetype-	17	pof__cn	_	_
17	जमाली	जमाली	NNP	n	lex-जमाली|cat-n|gen-m|num-sg|pers-3|case-o|vib-0_को|tam-0|chunkId-NP6|chunkType-head|stype-|voicetype-	20	k4	_	_
18	को	को	PSP	psp	lex-को|cat-psp|gen-|num-|pers-|case-|vib-|tam-|chunkId-NP6|chunkType-child|stype-|voicetype-	17	lwg__psp	_	_
19	सूची	सूची	NN	n	lex-सूची|cat-n|gen-f|num-sg|pers-3|case-d|vib-0|tam-0|chunkId-NP7|chunkType-head|stype-|voicetype-	20	k2	_	_
20	सौंपी	सौंप	VM	v	lex-सौंप|cat-v|gen-f|num-sg|pers-any|case-|vib-या_जा+या१|tam-yA|chunkId-VGF|chunkType-head|stype-declarative|voicetype-passive	0	main	_	_
21	गई	जा	VAUX	v	lex-जा|cat-v|gen-f|num-sg|pers-any|case-|vib-या१|tam-yA1|chunkId-VGF|chunkType-child|stype-|voicetype-	20	lwg__vaux	_	_
22	.	.	SYM	punc	lex-.|cat-punc|gen-|num-|pers-|case-|vib-|tam-|chunkId-BLK|chunkType-head|stype-|voicetype-	20	rsym	_	_

1	वक्तव्य	वक्तव्य	NN	n	lex-वक्तव्य|cat-n|gen-m|num-sg|pers-3|case-o|vib-0_में|tam-0|chunkId-NP|chunkType-head|stype-|voicetype-	5	k7	_	_
2	में	में	PSP	psp	lex-में|cat-psp|gen-|num-|pers-|case-|vib-|tam-|chunkId-NP|chunkType-child|stype-|voicetype-	1	lwg__psp	_	_
3	यह	यह	PRP	pn	lex-यह|cat-pn|gen-any|num-sg|pers-3|case-d|vib-0|tam-0|chunkId-NP2|chunkType-head|stype-|voicetype-	5	k2	_	_
4	नहीं	नहीं	NEG	avy	lex-नहीं|cat-avy|gen-|num-|pers-|case-|vib-|tam-|chunkId-VGF|chunkType-child|stype-|voicetype-	5	lwg__neg	_	_
5	बताया	बता	VM	v	lex-बता|cat-v|gen-m|num-sg|pers-3|case-|vib-या_जा+या१_है|tam-yA|chunkId-VGF|chunkType-head|stype-declarative|voicetype-passive	0	main	_	_
6	गया	जा	VAUX	v	lex-जा|cat-v|gen-m|num-sg|pers-any|case-|vib-या१|tam-yA1|chunkId-VGF|chunkType-child|stype-|voicetype-	5	lwg__vaux	_	_
7	है	है	VAUX	v	lex-है|cat-v|gen-any|num-sg|pers-3|case-|vib-है|tam-hE|chunkId-VGF|chunkType-child|stype-|voicetype-	5	lwg__vaux	_	_
8	कि	कि	CC	avy	lex-कि|cat-avy|gen-|num-|pers-|case-|vib-|tam-|chunkId-CCP|chunkType-head|stype-|voicetype-	3	rs	_	_
9	सूचियों	सूची	NN	n	lex-सूची|cat-n|gen-f|num-pl|pers-3|case-o|vib-0_में|tam-0|chunkId-NP3|chunkType-head|stype-|voicetype-	15	k7	_	_
10	में	में	PSP	psp	lex-में|cat-psp|gen-|num-|pers-|case-|vib-|tam-|chunkId-NP3|chunkType-child|stype-|voicetype-	9	lwg__psp	_	_
11	किन	कौन	WQ	pn	lex-कौन|cat-pn|gen-any|num-pl|pers-3|case-o|vib-|tam-|chunkId-NP4|chunkType-head|stype-|voicetype-	12	nmod	_	_
12	प्रतिष्ठानों	प्रतिष्ठान	NN	n	lex-प्रतिष्ठान|cat-n|gen-m|num-pl|pers-3|case-o|vib-0_का|tam-0|chunkId-NP5|chunkType-head|stype-|voicetype-	14	r6	_	_
13	का	का	PSP	psp	lex-का|cat-psp|gen-m|num-sg|pers-|case-d|vib-|tam-|chunkId-NP5|chunkType-child|stype-|voicetype-	12	lwg__psp	_	_
14	जिक्र	जिक्र	NN	n	lex-जिक्र|cat-n|gen-m|num-sg|pers-3|case-d|vib-0|tam-0|chunkId-NP6|chunkType-head|stype-|voicetype-	15	k1	_	_
15	है	है	VM	v	lex-है|cat-v|gen-any|num-sg|pers-3|case-|vib-है|tam-hE|chunkId-VGF2|chunkType-head|stype-declarative|voicetype-active	8	ccof	_	_
16	.	.	SYM	punc	lex-.|cat-punc|gen-|num-|pers-|case-|vib-|tam-|chunkId-BLK|chunkType-head|stype-|voicetype-	5	rsym	_	_

1	सामान्यतः	सामान्यतः	RB	adv	lex-सामान्यतः|cat-adv|gen-|num-|pers-|case-|vib-|tam-|chunkId-RBP|chunkType-head|stype-|voicetype-	10	sent-adv	_	_
2	सूची	सूची	NN	n	lex-सूची|cat-n|gen-f|num-sg|pers-3|case-o|vib-0_में|tam-0|chunkId-NP|chunkType-head|stype-|voicetype-	10	k7	_	_
3	में	में	PSP	psp	lex-में|cat-psp|gen-|num-|pers-|case-|vib-|tam-|chunkId-NP|chunkType-child|stype-|voicetype-	2	lwg__psp	_	_
4	नागरिक	नागरिक	NNC	n	lex-नागरिक|cat-n|gen-m|num-sg|pers-3|case-d|vib-0|tam-0|chunkId-NP2|chunkType-child|stype-|voicetype-	7	pof__cn	_	_
5	परमाणु	परमाणु	NNC	n	lex-परमाणु|cat-n|gen-m|num-sg|pers-3|case-d|vib-0|tam-0|chunkId-NP2|chunkType-child|stype-|voicetype-	7	pof__cn	_	_
6	बिजली	बिजली	NNC	n	lex-बिजली|cat-n|gen-f|num-sg|pers-3|case-d|vib-0|tam-0|chunkId-NP2|chunkType-child|stype-|voicetype-	7	pof__cn	_	_
7	संयंत्रों	संयंत्र	NN	n	lex-संयंत्र|cat-n|gen-m|num-pl|pers-3|case-o|vib-0_को|tam-0|chunkId-NP2|chunkType-head|stype-|voicetype-	10	k2	_	_
8	को	को	PSP	psp	lex-को|cat-psp|gen-|num-|pers-|case-|vib-|tam-|chunkId-NP2|chunkType-child|stype-|voicetype-	7	lwg__psp	_	_
9	शामिल	शामिल	JJ	adj	lex-शामिल|cat-adj|gen-any|num-any|pers-|case-|vib-|tam-|chunkId-JJP|chunkType-head|stype-|voicetype-	10	pof	_	_
10	किया	कर	VM	v	lex-कर|cat-v|gen-m|num-sg|pers-3|case-|vib-या_जा+ता_है|tam-yA|chunkId-VGF|chunkType-head|stype-declarative|voicetype-passive	13	ccof	_	_
11	जाता	जा	VAUX	v	lex-जा|cat-v|gen-m|num-sg|pers-any|case-|vib-ता|tam-wA|chunkId-VGF|chunkType-child|stype-|voicetype-	10	lwg__vaux	_	_
12	है	है	VAUX	v	lex-है|cat-v|gen-any|num-sg|pers-3|case-|vib-है|tam-hE|chunkId-VGF|chunkType-child|stype-|voicetype-	10	lwg__vaux	_	_
13	व	व	CC	avy	lex-व|cat-avy|gen-|num-|pers-|case-|vib-|tam-|chunkId-CCP|chunkType-head|stype-|voicetype-	0	main	_	_
14	इनकी	यह	PRP	pn	lex-यह|cat-pn|gen-f|num-pl|pers-3|case-o|vib-का|tam-kA|chunkId-NP3|chunkType-head|stype-|voicetype-	16	r6	_	_
15	भौगोलिक	भौगोलिक	JJ	adj	lex-भौगोलिक|cat-adj|gen-any|num-any|pers-|case-o|vib-|tam-|chunkId-NP4|chunkType-child|stype-|voicetype-	16	nmod__adj	_	_
16	स्थिति	स्थिति	NN	n	lex-स्थिति|cat-n|gen-f|num-sg|pers-3|case-o|vib-0_का|tam-0|chunkId-NP4|chunkType-head|stype-|voicetype-	19	r6	_	_
17	की	का	PSP	psp	lex-का|cat-psp|gen-f|num-sg|pers-|case-d|vib-|tam-|chunkId-NP4|chunkType-child|stype-|voicetype-	16	lwg__psp	_	_
18	सही	सही	JJ	adj	lex-सही|cat-adj|gen-any|num-any|pers-|case-d|vib-|tam-|chunkId-NP5|chunkType-child|stype-|voicetype-	19	nmod__adj	_	_
19	जानकारी	जानकारी	NN	n	lex-जानकारी|cat-n|gen-f|num-sg|pers-3|case-d|vib-0|tam-0|chunkId-NP5|chunkType-head|stype-|voicetype-	20	k2	_	_
20	दी	दे	VM	v	lex-दे|cat-v|gen-f|num-sg|pers-3|case-|vib-या_जा+ता_है|tam-yA|chunkId-VGF2|chunkType-head|stype-declarative|voicetype-passive	13	ccof	_	_
21	जाती	जा	VAUX	v	lex-जा|cat-v|gen-f|num-sg|pers-any|case-|vib-ता|tam-wA|chunkId-VGF2|chunkType-child|stype-|voicetype-	20	lwg__vaux	_	_
22	है	है	VAUX	v	lex-है|cat-v|gen-any|num-sg|pers-3|case-|vib-है|tam-hE|chunkId-VGF2|chunkType-child|stype-|voicetype-	20	lwg__vaux	_	_
23	.	.	SYM	punc	lex-.|cat-punc|gen-|num-|pers-|case-|vib-|tam-|chunkId-BLK|chunkType-head|stype-|voicetype-	13	rsym	_	_

1	नए	नया	JJ	adj	lex-नया|cat-adj|gen-m|num-sg|pers-|case-o|vib-|tam-|chunkId-NP|chunkType-child|stype-|voicetype-	2	nmod__adj	_	_
2	वर्ष	वर्ष	NN	n	lex-वर्ष|cat-n|gen-m|num-sg|pers-3|case-o|vib-0_में|tam-0|chunkId-NP|chunkType-head|stype-|voicetype-	15	k7t	_	_
3	में	में	PSP	psp	lex-में|cat-psp|gen-|num-|pers-|case-|vib-|tam-|chunkId-NP|chunkType-child|stype-|voicetype-	2	lwg__psp	_	_
4	कराची	कराची	NNP	n	lex-कराची|cat-n|gen-m|num-sg|pers-3|case-o|vib-0|tam-0|chunkId-NP2|chunkType-head|stype-|voicetype-	5	ccof	_	_
5	व	व	CC	avy	lex-व|cat-avy|gen-|num-|pers-|case-|vib-|tam-|chunkId-CCP|chunkType-head|stype-|voicetype-	15	k7p	_	_
6	मुंबई	मुंबई	NNP	n	lex-मुंबई|cat-n|gen-f|num-sg|pers-3|case-o|vib-0_में|tam-0|chunkId-NP3|chunkType-head|stype-|voicetype-	5	ccof	_	_
7	में	में	PSP	psp	lex-में|cat-psp|gen-|num-|pers-|case-|vib-|tam-|chunkId-NP3|chunkType-child|stype-|voicetype-	6	lwg__psp	_	_
8	क्रमशः	क्रमशः	RB	adv	lex-क्रमशः|cat-adv|gen-|num-|pers-|case-|vib-|tam-|chunkId-RBP|chunkType-head|stype-|voicetype-	15	adv	_	_
9	भारत	भारत	NNP	n	lex-भारत|cat-n|gen-m|num-sg|pers-3|case-o|vib-0|tam-0|chunkId-NP4|chunkType-head|stype-|voicetype-	10	ccof	_	_
10	व	व	CC	avy	lex-व|cat-avy|gen-|num-|pers-|case-|vib-|tam-|chunkId-CCP2|chunkType-head|stype-|voicetype-	14	r6	_	_
11	पाकिस्तान	पाकिस्तान	NNP	n	lex-पाकिस्तान|cat-n|gen-m|num-sg|pers-3|case-o|vib-0_का|tam-0|chunkId-NP5|chunkType-head|stype-|voicetype-	10	ccof	_	_
12	के	का	PSP	psp	lex-का|cat-psp|gen-m|num-sg|pers-|case-o|vib-|tam-|chunkId-NP5|chunkType-child|stype-|voicetype-	11	lwg__psp	_	_
13	वीजा	वीजा	NNC	n	lex-वीजा|cat-n|gen-m|num-sg|pers-3|case-d|vib-0|tam-0|chunkId-NP6|chunkType-child|stype-|voicetype-	14	pof__cn	_	_
14	कार्यालय	कार्यालय	NN	n	lex-कार्यालय|cat-n|gen-m|num-pl|pers-3|case-d|vib-0|tam-0|chunkId-NP6|chunkType-head|stype-|voicetype-	15	k2	_	_
15	खोलने	खोल	VM	v	lex-खोल|cat-v|gen-any|num-sg|pers-any|case-o|vib-ना_का|tam-nA|chunkId-VGNN|chunkType-head|stype-|voicetype-	18	r6	_	_
16	की	का	PSP	psp	lex-का|cat-psp|gen-f|num-sg|pers-|case-o|vib-|tam-|chunkId-VGNN|chunkType-child|stype-|voicetype-	15	lwg__psp	_	_
17	बहुप्रतीक्षित	बहुप्रतीक्षित	JJ	adj	lex-बहुप्रतीक्षित|cat-adj|gen-any|num-any|pers-|case-o|vib-|tam-|chunkId-NP7|chunkType-child|stype-|voicetype-	18	nmod__adj	_	_
18	योजना	योजना	NN	n	lex-योजना|cat-n|gen-f|num-sg|pers-3|case-o|vib-0_में|tam-0|chunkId-NP7|chunkType-head|stype-|voicetype-	21	k7	_	_
19	में	में	PSP	psp	lex-में|cat-psp|gen-|num-|pers-|case-|vib-|tam-|chunkId-NP7|chunkType-child|stype-|voicetype-	18	lwg__psp	_	_
20	विलंब	विलंब	NN	n	lex-विलंब|cat-n|gen-m|num-sg|pers-3|case-d|vib-0|tam-0|chunkId-NP8|chunkType-head|stype-|voicetype-	21	pof	_	_
21	हो	हो	VM	v	lex-हो|cat-v|gen-m|num-sg|pers-3|case-|vib-0_जा+या१_है|tam-0|chunkId-VGF|chunkType-head|stype-declarative|voicetype-passive	0	main	_	_
22	गया	जा	VAUX	v	lex-जा|cat-v|gen-m|num-sg|pers-any|case-|vib-या१|tam-yA1|chunkId-VGF|chunkType-child|stype-|voicetype-	21	lwg__vaux	_	_
23	है	है	VAUX	v	lex-है|cat-v|gen-any|num-sg|pers-3|case-|vib-है|tam-hE|chunkId-VGF|chunkType-child|stype-|voicetype-	21	lwg__vaux	_	_
24	.	.	SYM	punc	lex-.|cat-punc|gen-|num-|pers-|case-|vib-|tam-|chunkId-BLK|chunkType-head|stype-|voicetype-	21	rsym	_	_

1	पिछले	पिछला	JJ	adj	lex-पिछला|cat-adj|gen-m|num-sg|pers-|case-o|vib-|tam-|chunkId-NP|chunkType-child|stype-|voicetype-	2	nmod__adj	_	_
2	वर्ष	वर्ष	NN	n	lex-वर्ष|cat-n|gen-m|num-sg|pers-3|case-o|vib-0|tam-0|chunkId-NP|chunkType-head|stype-|voicetype-	34	k7t	_	_
3	अप्रैल	अप्रैल	NNP	n	lex-अप्रैल|cat-n|gen-m|num-sg|pers-3|case-o|vib-0_में|tam-0|chunkId-NP2|chunkType-head|stype-|voicetype-	34	k7t	_	_
4	में	में	PSP	psp	lex-में|cat-psp|gen-|num-|pers-|case-|vib-|tam-|chunkId-NP2|chunkType-child|stype-|voicetype-	3	lwg__psp	_	_
5	पाकिस्तान	पाकिस्तान	NNP	n	lex-पाकिस्तान|cat-n|gen-m|num-sg|pers-3|case-o|vib-0_का|tam-0|chunkId-NP3|chunkType-head|stype-|voicetype-	7	r6	_	_
6	के	का	PSP	psp	lex-का|cat-psp|gen-m|num-sg|pers-|case-o|vib-|tam-|chunkId-NP3|chunkType-child|stype-|voicetype-	5	lwg__psp	_	_
7	राष्ट्रपति	राष्ट्रपति	NNP	n	lex-राष्ट्रपति|cat-n|gen-m|num-sg|pers-3|case-o|vib-0|tam-0|chunkId-NP4|chunkType-head|stype-|voicetype-	9	nmod	_	_
8	परवेज	परवेज	NNPC	n	lex-परवेज|cat-n|gen-m|num-sg|pers-3|case-d|vib-0|tam-0|chunkId-NP5|chunkType-child|stype-|voicetype-	9	pof__cn	_	_
9	मुशर्रफ	मुशर्रफ	NNP	n	lex-मुशर्रफ|cat-n|gen-m|num-sg|pers-3|case-o|vib-0_का|tam-0|chunkId-NP5|chunkType-head|stype-|voicetype-	12	r6	_	_
10	की	का	PSP	psp	lex-का|cat-psp|gen-f|num-sg|pers-|case-o|vib-|tam-|chunkId-NP5|chunkType-child|stype-|voicetype-	9	lwg__psp	_	_
11	भारत	भारत	NNP	n	lex-भारत|cat-n|gen-m|num-sg|pers-3|case-d|vib-0|tam-0|chunkId-NP6|chunkType-child|stype-|voicetype-	12	nmod__adj	_	_
12	यात्रा	यात्रा	NN	n	lex-यात्रा|cat-n|gen-f|num-sg|pers-3|case-o|vib-0_के_दौरान|tam-0|chunkId-NP6|chunkType-head|stype-|voicetype-	15	jjmod	_	_
13	के	के	PSP	psp	lex-के|cat-psp|gen-|num-|pers-|case-|vib-|tam-|chunkId-NP6|chunkType-child|stype-|voicetype-	12	lwg__psp	_	_
14	दौरान	दौरान	NST	nst	lex-दौरान|cat-nst|gen-m|num-sg|pers-3|case-d|vib-|tam-|chunkId-NP6|chunkType-child|stype-|voicetype-	12	lwg__psp	_	_
15	जारी	जारी	JJ	adj	lex-जारी|cat-adj|gen-any|num-any|pers-|case-o|vib-|tam-|chunkId-JJP|chunkType-head|stype-|voicetype-	17	nmod	_	_
16	संयुक्त	संयुक्त	JJ	adj	lex-संयुक्त|cat-adj|gen-any|num-any|pers-|case-o|vib-|tam-|chunkId-NP7|chunkType-child|stype-|voicetype-	17	nmod__adj	_	_
17	वक्तव्य	वक्तव्य	NN	n	lex-वक्तव्य|cat-n|gen-m|num-sg|pers-3|case-o|vib-0_में|tam-0|chunkId-NP7|chunkType-head|stype-|voicetype-	34	k7	_	_
18	में	में	PSP	psp	lex-में|cat-psp|gen-|num-|pers-|case-|vib-|tam-|chunkId-NP7|chunkType-child|stype-|voicetype-	17	lwg__psp	_	_
19	दोनों	दो	QC	num	lex-दो|cat-num|gen-m|num-any|pers-|case-any|vib-|tam-|chunkId-NP8|chunkType-child|stype-|voicetype-	20	nmod__adj	_	_
20	देशों	देश	NN	n	lex-देश|cat-n|gen-m|num-pl|pers-3|case-o|vib-0_ने|tam-0|chunkId-NP8|chunkType-head|stype-|voicetype-	34	k1	_	_
21	ने	ने	PSP	psp	lex-ने|cat-psp|gen-|num-|pers-|case-|vib-|tam-|chunkId-NP8|chunkType-child|stype-|voicetype-	20	lwg__psp	_	_
22	नव	नव	JJ	adj	lex-नव|cat-adj|gen-any|num-any|pers-|case-o|vib-|tam-|chunkId-NP9|chunkType-child|stype-|voicetype-	23	nmod__adj	_	_
23	वर्ष	वर्ष	NN	n	lex-वर्ष|cat-n|gen-m|num-sg|pers-3|case-o|vib-0_का|tam-0|chunkId-NP9|chunkType-head|stype-|voicetype-	25	r6	_	_
24	के	का	PSP	psp	lex-का|cat-psp|gen-m|num-sg|pers-|case-o|vib-|tam-|chunkId-NP9|chunkType-child|stype-|voicetype-	23	lwg__psp	_	_
25	अवसर	अवसर	NN	n	lex-अवसर|cat-n|gen-m|num-sg|pers-3|case-o|vib-0_पर|tam-0|chunkId-NP10|chunkType-head|stype-|voicetype-	34	k7	_	_
26	पर	पर	PSP	psp	lex-पर|cat-psp|gen-|num-|pers-|case-|vib-|tam-|chunkId-NP10|chunkType-child|stype-|voicetype-	25	lwg__psp	_	_
27	वीजा	वीजा	NNC	n	lex-वीजा|cat-n|gen-m|num-sg|pers-3|case-d|vib-0|tam-0|chunkId-NP11|chunkType-child|stype-|voicetype-	28	pof__cn	_	_
28	कार्यालय	कार्यालय	NN	n	lex-कार्यालय|cat-n|gen-m|num-sg|pers-3|case-d|vib-0|tam-0|chunkId-NP11|chunkType-head|stype-|voicetype-	29	k2	_	_
29	खोलने	खोल	VM	v	lex-खोल|cat-v|gen-any|num-sg|pers-any|case-o|vib-ना_का|tam-nA|chunkId-VGNN|chunkType-head|stype-|voicetype-	31	r6	_	_
30	के	का	PSP	psp	lex-का|cat-psp|gen-m|num-sg|pers-|case-o|vib-|tam-|chunkId-VGNN|chunkType-child|stype-|voicetype-	29	lwg__psp	_	_
31	प्रस्ताव	प्रस्ताव	NN	n	lex-प्रस्ताव|cat-n|gen-m|num-sg|pers-3|case-o|vib-0_पर|tam-0|chunkId-NP12|chunkType-head|stype-|voicetype-	34	k7	_	_
32	पर	पर	PSP	psp	lex-पर|cat-psp|gen-|num-|pers-|case-|vib-|tam-|chunkId-NP12|chunkType-child|stype-|voicetype-	31	lwg__psp	_	_
33	सहमति	सहमति	NN	n	lex-सहमति|cat-n|gen-f|num-sg|pers-3|case-d|vib-0|tam-0|chunkId-NP13|chunkType-head|stype-|voicetype-	34	pof	_	_
34	जताई	जता	VM	v	lex-जता|cat-v|gen-f|num-sg|pers-any|case-|vib-या_था|tam-yA|chunkId-VGF|chunkType-head|stype-declarative|voicetype-active	0	main	_	_
35	थी	था	VAUX	v	lex-था|cat-v|gen-f|num-sg|pers-any|case-|vib-था|tam-WA|chunkId-VGF|chunkType-child|stype-|voicetype-	34	lwg__vaux	_	_
36	.	.	SYM	punc	lex-.|cat-punc|gen-|num-|pers-|case-|vib-|tam-|chunkId-BLK|chunkType-head|stype-|voicetype-	34	rsym	_	_

1	कराची	कराची	NNP	n	lex-कराची|cat-n|gen-m|num-sg|pers-3|case-d|vib-0|tam-0|chunkId-NP|chunkType-head|stype-|voicetype-	2	ccof	_	_
2	व	व	CC	avy	lex-व|cat-avy|gen-|num-|pers-|case-|vib-|tam-|chunkId-CCP|chunkType-head|stype-|voicetype-	7	k7p	_	_
3	मुंबई	मुंबई	NNP	n	lex-मुंबई|cat-n|gen-f|num-sg|pers-3|case-o|vib-0_में|tam-0|chunkId-NP2|chunkType-head|stype-|voicetype-	2	ccof	_	_
4	में	में	PSP	psp	lex-में|cat-psp|gen-|num-|pers-|case-|vib-|tam-|chunkId-NP2|chunkType-child|stype-|voicetype-	3	lwg__psp	_	_
5	वीजा	वीजा	NNC	n	lex-वीजा|cat-n|gen-m|num-sg|pers-3|case-d|vib-0|tam-0|chunkId-NP3|chunkType-child|stype-|voicetype-	6	pof__cn	_	_
6	कार्यालय	कार्यालय	NN	n	lex-कार्यालय|cat-n|gen-m|num-sg|pers-3|case-d|vib-0|tam-0|chunkId-NP3|chunkType-head|stype-|voicetype-	7	k2	_	_
7	खोलने	खोल	VM	v	lex-खोल|cat-v|gen-any|num-any|pers-any|case-o|vib-ना_में|tam-nA|chunkId-VGNN|chunkType-head|stype-|voicetype-	13	k7	_	_
8	में	में	PSP	psp	lex-में|cat-psp|gen-|num-|pers-|case-|vib-|tam-|chunkId-VGNN|chunkType-child|stype-|voicetype-	7	lwg__psp	_	_
9	विलंब	विलंब	NN	n	lex-विलंब|cat-n|gen-m|num-sg|pers-3|case-o|vib-0_का|tam-0|chunkId-NP4|chunkType-head|stype-|voicetype-	11	r6	_	_
10	की	का	PSP	psp	lex-का|cat-psp|gen-f|num-sg|pers-|case-d|vib-|tam-|chunkId-NP4|chunkType-child|stype-|voicetype-	9	lwg__psp	_	_
11	वजह	वजह	NN	n	lex-वजह|cat-n|gen-f|num-sg|pers-3|case-d|vib-0|tam-0|chunkId-NP5|chunkType-head|stype-|voicetype-	13	k1	_	_
12	यह	यह	PRP	pn	lex-यह|cat-pn|gen-any|num-sg|pers-3|case-d|vib-0|tam-0|chunkId-NP6|chunkType-head|stype-|voicetype-	13	k1s	_	_
13	है	है	VM	v	lex-है|cat-v|gen-any|num-sg|pers-3|case-|vib-है|tam-hE|chunkId-VGF|chunkType-head|stype-declarative|voicetype-active	0	main	_	_
14	कि	कि	CC	avy	lex-कि|cat-avy|gen-|num-|pers-|case-|vib-|tam-|chunkId-CCP2|chunkType-head|stype-|voicetype-	12	rs	_	_
15	पाकिस्तान	पाकिस्तान	NNP	n	lex-पाकिस्तान|cat-n|gen-m|num-sg|pers-3|case-d|vib-0|tam-0|chunkId-NP7|chunkType-head|stype-|voicetype-	27	k1	_	_
16	अभी	अभी	PRP	pn	lex-अभी|cat-pn|gen-|num-|pers-|case-o|vib-0_तक|tam-|chunkId-NP8|chunkType-head|stype-|voicetype-	27	k7t	_	_
17	तक	तक	PSP	psp	lex-तक|cat-psp|gen-|num-|pers-|case-|vib-|tam-|chunkId-NP8|chunkType-child|stype-|voicetype-	16	lwg__psp	_	_
18	अपने	अपना	PRP	pn	lex-अपना|cat-pn|gen-m|num-any|pers-any|case-o|vib-0|tam-0|chunkId-NP9|chunkType-head|stype-|voicetype-	20	r6	_	_
19	अस्थायी	अस्थायी	JJ	adj	lex-अस्थायी|cat-adj|gen-any|num-any|pers-|case-o|vib-|tam-|chunkId-NP10|chunkType-child|stype-|voicetype-	20	nmod__adj	_	_
20	कार्यालय	कार्यालय	NN	n	lex-कार्यालय|cat-n|gen-m|num-sg|pers-3|case-o|vib-0_को|tam-0|chunkId-NP10|chunkType-head|stype-|voicetype-	23	k2	_	_
21	को	को	PSP	psp	lex-को|cat-psp|gen-|num-|pers-|case-|vib-|tam-|chunkId-NP10|chunkType-child|stype-|voicetype-	20	lwg__psp	_	_
22	तैयार	तैयार	JJ	adj	lex-तैयार|cat-adj|gen-any|num-any|pers-|case-|vib-|tam-|chunkId-JJP|chunkType-head|stype-|voicetype-	23	pof	_	_
23	करने	कर	VM	v	lex-कर|cat-v|gen-any|num-any|pers-any|case-o|vib-ना_में|tam-nA|chunkId-VGNN2|chunkType-head|stype-|voicetype-	27	k7	_	_
24	में	में	PSP	psp	lex-में|cat-psp|gen-|num-|pers-|case-|vib-|tam-|chunkId-VGNN2|chunkType-child|stype-|voicetype-	23	lwg__psp	_	_
25	सफल	सफल	JJ	adj	lex-सफल|cat-adj|gen-any|num-any|pers-|case-|vib-|tam-|chunkId-JJP2|chunkType-head|stype-|voicetype-	27	k1s	_	_
26	नहीं	नहीं	NEG	avy	lex-नहीं|cat-avy|gen-|num-|pers-|case-|vib-|tam-|chunkId-VGF2|chunkType-child|stype-|voicetype-	27	lwg__neg	_	_
27	रहा	रह	VM	v	lex-रह|cat-v|gen-m|num-sg|pers-3|case-|vib-या_है|tam-yA|chunkId-VGF2|chunkType-head|stype-declarative|voicetype-active	30	ccof	_	_
28	है	है	VAUX	v	lex-है|cat-v|gen-any|num-sg|pers-3|case-|vib-है|tam-hE|chunkId-VGF2|chunkType-child|stype-|voicetype-	27	lwg__vaux	_	_
29	,	COMMA	SYM	punc	lex-COMMA|cat-punc|gen-|num-|pers-|case-|vib-|tam-|chunkId-VGF2|chunkType-child|stype-|voicetype-	27	rsym	_	_
30	जबकि	जबकि	CC	avy	lex-जबकि|cat-avy|gen-|num-|pers-|case-|vib-|tam-|chunkId-CCP3|chunkType-head|stype-|voicetype-	14	ccof	_	_
31	भारत	भारत	NNP	n	lex-भारत|cat-n|gen-m|num-sg|pers-3|case-o|vib-0_ने|tam-0|chunkId-NP11|chunkType-head|stype-|voicetype-	39	k1	_	_
32	ने	ने	PSP	psp	lex-ने|cat-psp|gen-|num-|pers-|case-|vib-|tam-|chunkId-NP11|chunkType-child|stype-|voicetype-	31	lwg__psp	_	_
33	अपने	अपना	PRP	pn	lex-अपना|cat-pn|gen-m|num-any|pers-any|case-o|vib-0|tam-0|chunkId-NP12|chunkType-head|stype-|voicetype-	34	r6	_	_
34	भवन	भवन	NN	n	lex-भवन|cat-n|gen-m|num-sg|pers-3|case-o|vib-0_का|tam-0|chunkId-NP13|chunkType-head|stype-|voicetype-	37	r6	_	_
35	का	का	PSP	psp	lex-का|cat-psp|gen-m|num-sg|pers-|case-d|vib-|tam-|chunkId-NP13|chunkType-child|stype-|voicetype-	34	lwg__psp	_	_
36	मरम्मत	मरम्मत	NNC	n	lex-मरम्मत|cat-n|gen-f|num-sg|pers-3|case-d|vib-0|tam-0|chunkId-NP14|chunkType-child|stype-|voicetype-	37	pof__cn	_	_
37	कार्य	कार्य	NN	n	lex-कार्य|cat-n|gen-m|num-sg|pers-3|case-d|vib-0|tam-0|chunkId-NP14|chunkType-head|stype-|voicetype-	39	k2	_	_
38	पूरा	पूरा	JJ	adj	lex-पूरा|cat-adj|gen-m|num-sg|pers-|case-d|vib-|tam-|chunkId-JJP3|chunkType-head|stype-|voicetype-	39	pof	_	_
39	कर	कर	VM	v	lex-कर|cat-v|gen-m|num-sg|pers-3|case-|vib-0_ले+या_है|tam-0|chunkId-VGF3|chunkType-head|stype-declarative|voicetype-active	42	ccof	_	_
40	लिया	ले	VAUX	v	lex-ले|cat-v|gen-m|num-sg|pers-any|case-|vib-या|tam-yA|chunkId-VGF3|chunkType-child|stype-|voicetype-	39	lwg__vaux	_	_
41	है	है	VAUX	v	lex-है|cat-v|gen-any|num-sg|pers-3|case-|vib-है|tam-hE|chunkId-VGF3|chunkType-child|stype-|voicetype-	39	lwg__vaux	_	_
42	और	और	CC	avy	lex-और|cat-avy|gen-|num-|pers-|case-|vib-|tam-|chunkId-CCP4|chunkType-head|stype-|voicetype-	30	ccof	_	_
43	वीजा	वीजा	NNC	n	lex-वीजा|cat-n|gen-m|num-sg|pers-3|case-d|vib-0|tam-0|chunkId-NP15|chunkType-child|stype-|voicetype-	44	pof__cn	_	_
44	कार्यालय	कार्यालय	NN	n	lex-कार्यालय|cat-n|gen-m|num-sg|pers-3|case-d|vib-0|tam-0|chunkId-NP15|chunkType-head|stype-|voicetype-	45	k2	_	_
45	खोलने	खोल	VM	v	lex-खोल|cat-v|gen-any|num-any|pers-any|case-o|vib-ना_के_लिए|tam-nA|chunkId-VGNN3|chunkType-head|stype-|voicetype-	56	rt	_	_
46	के	के	PSP	psp	lex-के|cat-psp|gen-|num-|pers-|case-|vib-|tam-|chunkId-VGNN3|chunkType-child|stype-|voicetype-	45	lwg__psp	_	_
47	लिए	लिए	PSP	psp	lex-लिए|cat-psp|gen-|num-|pers-|case-|vib-|tam-|chunkId-VGNN3|chunkType-child|stype-|voicetype-	45	lwg__psp	_	_
48	उसे	वह	PRP	pn	lex-वह|cat-pn|gen-any|num-sg|pers-3|case-o|vib-को|tam-ko|chunkId-NP16|chunkType-head|stype-|voicetype-	56	k4a	_	_
49	पाक	पाक	NNPC	n	lex-पाक|cat-n|gen-m|num-sg|pers-3|case-d|vib-0|tam-0|chunkId-NP17|chunkType-child|stype-|voicetype-	50	pof__cn	_	_
50	सरकार	सरकार	NNP	n	lex-सरकार|cat-n|gen-f|num-sg|pers-3|case-o|vib-0_का|tam-0|chunkId-NP17|chunkType-head|stype-|voicetype-	52	r6	_	_
51	की	का	PSP	psp	lex-का|cat-psp|gen-f|num-sg|pers-|case-d|vib-|tam-|chunkId-NP17|chunkType-child|stype-|voicetype-	50	lwg__psp	_	_
52	इजाजत	इजाजत	NN	n	lex-इजाजत|cat-n|gen-f|num-sg|pers-3|case-d|vib-0|tam-0|chunkId-NP18|chunkType-head|stype-|voicetype-	53	k1	_	_
53	मिलने	मिल	VM	v	lex-मिल|cat-v|gen-any|num-sg|pers-any|case-o|vib-ना_का|tam-nA|chunkId-VGNN4|chunkType-head|stype-|voicetype-	55	r6-k2	_	_
54	की	का	PSP	psp	lex-का|cat-psp|gen-f|num-sg|pers-|case-d|vib-|tam-|chunkId-VGNN4|chunkType-child|stype-|voicetype-	53	lwg__psp	_	_
55	प्रतीक्षा	प्रतीक्षा	NN	n	lex-प्रतीक्षा|cat-n|gen-f|num-sg|pers-3|case-d|vib-0|tam-0|chunkId-NP19|chunkType-head|stype-|voicetype-	56	pof	_	_
56	है	है	VM	v	lex-है|cat-v|gen-any|num-sg|pers-3|case-|vib-है|tam-hE|chunkId-VGF4|chunkType-head|stype-declarative|voicetype-active	42	ccof	_	_
57	.	.	SYM	punc	lex-.|cat-punc|gen-|num-|pers-|case-|vib-|tam-|chunkId-BLK|chunkType-head|stype-|voicetype-	13	rsym	_	_

1	समझौते	समझौता	NN	n	lex-समझौता|cat-n|gen-m|num-sg|pers-3|case-o|vib-0_के_मुताबिक|tam-0|chunkId-NP|chunkType-head|stype-|voicetype-	11	k7a	_	_
2	के	के	PSP	psp	lex-के|cat-psp|gen-|num-|pers-|case-|vib-|tam-|chunkId-NP|chunkType-child|stype-|voicetype-	1	lwg__psp	_	_
3	मुताबिक	मुताबिक	PSP	psp	lex-मुताबिक|cat-psp|gen-|num-|pers-|case-|vib-|tam-|chunkId-NP|chunkType-child|stype-|voicetype-	1	lwg__psp	_	_
4	दोनों	दो	QC	num	lex-दो|cat-num|gen-m|num-any|pers-|case-any|vib-|tam-|chunkId-NP2|chunkType-child|stype-|voicetype-	6	nmod__adj	_	_
5	वीजा	वीजा	NNC	n	lex-वीजा|cat-n|gen-m|num-sg|pers-3|case-d|vib-0|tam-0|chunkId-NP2|chunkType-child|stype-|voicetype-	6	pof__cn	_	_
6	कार्यालयों	कार्यालय	NN	n	lex-कार्यालय|cat-n|gen-m|num-pl|pers-3|case-o|vib-0_को|tam-0|chunkId-NP2|chunkType-head|stype-|voicetype-	11	k2	_	_
7	को	को	PSP	psp	lex-को|cat-psp|gen-|num-|pers-|case-|vib-|tam-|chunkId-NP2|chunkType-child|stype-|voicetype-	6	lwg__psp	_	_
8	एक	एक	QC	num	lex-एक|cat-num|gen-any|num-any|pers-|case-any|vib-|tam-|chunkId-NP3|chunkType-head|stype-|voicetype-	11	k7t	_	_
9	ही	ही	RP	avy	lex-ही|cat-avy|gen-|num-|pers-|case-|vib-|tam-|chunkId-NP3|chunkType-child|stype-|voicetype-	8	lwg__rp	_	_
10	साथ	साथ	NST	nst	lex-साथ|cat-nst|gen-m|num-sg|pers-3|case-d|vib-|tam-|chunkId-NP3|chunkType-child|stype-|voicetype-	8	lwg__psp	_	_
11	खोला	खोल	VM	v	lex-खोल|cat-v|gen-m|num-sg|pers-3|case-|vib-या_जा+ना_है|tam-yA|chunkId-VGF|chunkType-head|stype-declarative|voicetype-passive	0	main	_	_
12	जाना	जा	VAUX	v	lex-जा|cat-v|gen-m|num-sg|pers-any|case-|vib-ना|tam-nA|chunkId-VGF|chunkType-child|stype-|voicetype-	11	lwg__vaux	_	_
13	है	है	VAUX	v	lex-है|cat-v|gen-any|num-sg|pers-3|case-|vib-है|tam-hE|chunkId-VGF|chunkType-child|stype-|voicetype-	11	lwg__vaux	_	_
14	.	.	SYM	punc	lex-.|cat-punc|gen-|num-|pers-|case-|vib-|tam-|chunkId-BLK|chunkType-head|stype-|voicetype-	11	rsym	_	_

