1	विश्व	विश्व	NN	n	lex-विश्व|cat-n|gen-m|num-sg|pers-3|case-o|vib-0_से|tam-0|chunkId-NP|chunkType-head|stype-|voicetype-	4	k5	_	_
2	से	से	PSP	psp	lex-से|cat-psp|gen-|num-|pers-|case-|vib-|tam-|chunkId-NP|chunkType-child|stype-|voicetype-	1	lwg__psp	_	_
3	लुप्त	लुप्त	JJ	adj	lex-लुप्त|cat-adj|gen-any|num-any|pers-|case-|vib-|tam-|chunkId-JJP|chunkType-head|stype-|voicetype-	4	pof	_	_
4	हो	हो	VM	v	lex-हो|cat-v|gen-any|num-sg|pers-any|case-|vib-0_रह+या|tam-0|chunkId-VGNF|chunkType-head|stype-|voicetype-	7	nmod__k1inv	_	_
5	रही	रह	VAUX	v	lex-रह|cat-v|gen-f|num-sg|pers-any|case-|vib-या|tam-yA|chunkId-VGNF|chunkType-child|stype-|voicetype-	4	lwg__vaux	_	_
6	गिद्ध	गिद्ध	NNC	n	lex-गिद्ध|cat-n|gen-m|num-sg|pers-3|case-d|vib-0|tam-0|chunkId-NP2|chunkType-child|stype-|voicetype-	7	pof__cn	_	_
7	प्रजाति	प्रजाति	NN	n	lex-प्रजाति|cat-n|gen-f|num-sg|pers-3|case-o|vib-0_का|tam-0|chunkId-NP2|chunkType-head|stype-|voicetype-	9	r6	_	_
8	के	का	PSP	psp	lex-का|cat-psp|gen-m|num-sg|pers-|case-o|vib-|tam-|chunkId-NP2|chunkType-child|stype-|voicetype-	7	lwg__psp	_	_
9	पक्षी	पक्षी	NN	n	lex-पक्षी|cat-n|gen-m|num-sg|pers-3|case-o|vib-0_को|tam-0|chunkId-NP3|chunkType-head|stype-|voicetype-	11	k2	_	_
10	को	को	PSP	psp	lex-को|cat-psp|gen-|num-|pers-|case-|vib-|tam-|chunkId-NP3|chunkType-child|stype-|voicetype-	9	lwg__psp	_	_
11	बचाए	बचा	VM	v	lex-बचा|cat-v|gen-m|num-sg|pers-any|case-|vib-या_रख+ना_के_लिए|tam-yA|chunkId-VGNN|chunkType-head|stype-|voicetype-	23	rt	_	_
12	रखने	रख	VAUX	v	lex-रख|cat-v|gen-any|num-any|pers-any|case-o|vib-ना|tam-nA|chunkId-VGNN|chunkType-child|stype-|voicetype-	11	lwg__vaux	_	_
13	के	के	PSP	psp	lex-के|cat-psp|gen-|num-|pers-|case-|vib-|tam-|chunkId-VGNN|chunkType-child|stype-|voicetype-	11	lwg__psp	_	_
14	लिए	लिए	PSP	psp	lex-लिए|cat-psp|gen-|num-|pers-|case-|vib-|tam-|chunkId-VGNN|chunkType-child|stype-|voicetype-	11	lwg__psp	_	_
15	हिमाचल	हिमाचल	NNP	n	lex-हिमाचल|cat-n|gen-m|num-sg|pers-3|case-o|vib-0_का|tam-0|chunkId-NP4|chunkType-head|stype-|voicetype-	17	r6	_	_
16	के	का	PSP	psp	lex-का|cat-psp|gen-m|num-sg|pers-|case-o|vib-|tam-|chunkId-NP4|chunkType-child|stype-|voicetype-	15	lwg__psp	_	_
17	नालागढ़	नालागढ़	NNP	n	lex-नालागढ़|cat-n|gen-m|num-sg|pers-3|case-o|vib-0_में|tam-0|chunkId-NP5|chunkType-head|stype-|voicetype-	23	k7p	_	_
18	में	में	PSP	psp	lex-में|cat-psp|gen-|num-|pers-|case-|vib-|tam-|chunkId-NP5|chunkType-child|stype-|voicetype-	17	lwg__psp	_	_
19	प्रजनन	प्रजनन	NNC	n	lex-प्रजनन|cat-n|gen-m|num-sg|pers-3|case-d|vib-0|tam-0|chunkId-NP6|chunkType-child|stype-|voicetype-	20	pof__cn	_	_
20	केंद्र	केंद्र	NN	n	lex-केंद्र|cat-n|gen-m|num-sg|pers-3|case-o|vib-0_का|tam-0|chunkId-NP6|chunkType-head|stype-|voicetype-	22	r6-k2	_	_
21	का	का	PSP	psp	lex-का|cat-psp|gen-m|num-sg|pers-|case-d|vib-|tam-|chunkId-NP6|chunkType-child|stype-|voicetype-	20	lwg__psp	_	_
22	निर्माण	निर्माण	NN	n	lex-निर्माण|cat-n|gen-m|num-sg|pers-3|case-d|vib-0|tam-0|chunkId-NP7|chunkType-head|stype-|voicetype-	23	pof	_	_
23	किया	कर	VM	v	lex-कर|cat-v|gen-m|num-sg|pers-3|case-|vib-या_जा+गा|tam-yA|chunkId-VGF|chunkType-head|stype-declarative|voicetype-passive	0	main	_	_
24	जाएगा	जा	VAUX	v	lex-जा|cat-v|gen-m|num-sg|pers-3|case-|vib-गा|tam-gA|chunkId-VGF|chunkType-child|stype-|voicetype-	23	lwg__vaux	_	_
25	।	।	SYM	punc	lex-।|cat-punc|gen-|num-|pers-|case-|vib-|tam-|chunkId-BLK|chunkType-head|stype-|voicetype-	23	rsym	_	_

1	राज्य	राज्य	NNPC	n	lex-राज्य|cat-n|gen-m|num-sg|pers-3|case-d|vib-0|tam-0|chunkId-NP|chunkType-child|stype-|voicetype-	5	pof__cn	_	_
2	वन्य	वन्य	NNPC	n	lex-वन्य|cat-n|gen-m|num-sg|pers-3|case-d|vib-0|tam-0|chunkId-NP|chunkType-child|stype-|voicetype-	5	pof__cn	_	_
3	प्राणी	प्राणी	NNPC	n	lex-प्राणी|cat-n|gen-m|num-sg|pers-3|case-d|vib-0|tam-0|chunkId-NP|chunkType-child|stype-|voicetype-	5	pof__cn	_	_
4	विंग	विंग	NNPC	n	lex-विंग|cat-n|gen-m|num-sg|pers-3|case-d|vib-0|tam-0|chunkId-NP|chunkType-child|stype-|voicetype-	5	pof__cn	_	_
5	मुंबई	मुंबई	NNP	n	lex-मुंबई|cat-n|gen-f|num-sg|pers-3|case-o|vib-0_का|tam-0|chunkId-NP|chunkType-head|stype-|voicetype-	10	r6	_	_
6	की	का	PSP	psp	lex-का|cat-psp|gen-f|num-sg|pers-|case-o|vib-|tam-|chunkId-NP|chunkType-child|stype-|voicetype-	5	lwg__psp	_	_
7	बांबे	बांबे	NNPC	n	lex-बांबे|cat-n|gen-m|num-sg|pers-3|case-d|vib-0|tam-0|chunkId-NP2|chunkType-child|stype-|voicetype-	10	pof__cn	_	_
8	प्नाकृतिक	प्नाकृतिक	NNPC	adj	lex-प्नाकृतिक|cat-adj|gen-any|num-any|pers-|case-o|vib-|tam-|chunkId-NP2|chunkType-child|stype-|voicetype-	10	pof__cn	_	_
9	इतिहास	इतिहास	NNPC	n	lex-इतिहास|cat-n|gen-m|num-sg|pers-3|case-d|vib-0|tam-0|chunkId-NP2|chunkType-child|stype-|voicetype-	10	pof__cn	_	_
10	समिति	समिति	NNP	n	lex-समिति|cat-n|gen-f|num-sg|pers-3|case-o|vib-0|tam-0|chunkId-NP2|chunkType-head|stype-|voicetype-	15	r6	_	_
11	(	(	SYM	punc	lex-(|cat-punc|gen-|num-|pers-|case-|vib-|tam-|chunkId-NP3|chunkType-child|stype-|voicetype-	12	rsym	_	_
12	बीएनएचएस	बीएनएचएस	NNP	n	lex-बीएनएचएस|cat-n|gen-f|num-sg|pers-3|case-o|vib-0|tam-0|chunkId-NP3|chunkType-head|stype-|voicetype-	10	rs	_	_
13	)	)	SYM	punc	lex-)|cat-punc|gen-|num-|pers-|case-|vib-|tam-|chunkId-NP3|chunkType-child|stype-|voicetype-	12	rsym	_	_
14	की	_	PSP	_	lex-_|cat-_|gen-|num-|pers-|case-|vib-|tam-|chunkId-FRAGP|chunkType-head|stype-|voicetype-	10	fragof	_	_
15	मदद	मदद	NN	n	lex-मदद|cat-n|gen-f|num-sg|pers-3|case-o|vib-0_से|tam-0|chunkId-NP4|chunkType-head|stype-|voicetype-	22	rh	_	_
16	से	से	PSP	psp	lex-से|cat-psp|gen-|num-|pers-|case-|vib-|tam-|chunkId-NP4|chunkType-child|stype-|voicetype-	15	lwg__psp	_	_
17	इस	यह	DEM	pn	lex-यह|cat-pn|gen-any|num-sg|pers-3|case-o|vib-|tam-|chunkId-NP5|chunkType-child|stype-|voicetype-	19	nmod__adj	_	_
18	प्रजनन	प्रजनन	NNC	n	lex-प्रजनन|cat-n|gen-m|num-sg|pers-3|case-d|vib-0|tam-0|chunkId-NP5|chunkType-child|stype-|voicetype-	19	pof__cn	_	_
19	केंद्र	केंद्र	NN	n	lex-केंद्र|cat-n|gen-m|num-sg|pers-3|case-o|vib-0_का|tam-0|chunkId-NP5|chunkType-head|stype-|voicetype-	21	r6-k2	_	_
20	का	का	PSP	psp	lex-का|cat-psp|gen-m|num-sg|pers-|case-d|vib-|tam-|chunkId-NP5|chunkType-child|stype-|voicetype-	19	lwg__psp	_	_
21	निर्माण	निर्माण	NN	n	lex-निर्माण|cat-n|gen-m|num-sg|pers-3|case-d|vib-0|tam-0|chunkId-NP6|chunkType-head|stype-|voicetype-	22	pof	_	_
22	करेगी	कर	VM	v	lex-कर|cat-v|gen-f|num-sg|pers-3|case-|vib-गा|tam-gA|chunkId-VGF|chunkType-head|stype-declarative|voicetype-active	0	main	_	_
23	।	।	SYM	punc	lex-।|cat-punc|gen-|num-|pers-|case-|vib-|tam-|chunkId-BLK|chunkType-head|stype-|voicetype-	22	rsym	_	_

1	राज्य	राज्य	NNPC	n	lex-राज्य|cat-n|gen-m|num-sg|pers-3|case-d|vib-0|tam-0|chunkId-NP|chunkType-child|stype-|voicetype-	4	pof__cn	_	_
2	वन्य	वन्य	NNPC	n	lex-वन्य|cat-n|gen-m|num-sg|pers-3|case-d|vib-0|tam-0|chunkId-NP|chunkType-child|stype-|voicetype-	4	pof__cn	_	_
3	प्राणी	प्राणी	NNPC	n	lex-प्राणी|cat-n|gen-m|num-sg|pers-3|case-d|vib-0|tam-0|chunkId-NP|chunkType-child|stype-|voicetype-	4	pof__cn	_	_
4	विंग	विंग	NNP	n	lex-विंग|cat-n|gen-m|num-sg|pers-3|case-o|vib-0_ने|tam-0|chunkId-NP|chunkType-head|stype-|voicetype-	25	k1	_	_
5	ने	ने	PSP	psp	lex-ने|cat-psp|gen-|num-|pers-|case-|vib-|tam-|chunkId-NP|chunkType-child|stype-|voicetype-	4	lwg__psp	_	_
6	केंद्रीय	केंद्रीय	NNPC	adj	lex-केंद्रीय|cat-adj|gen-any|num-any|pers-|case-o|vib-|tam-|chunkId-NP2|chunkType-child|stype-|voicetype-	8	pof__cn	_	_
7	वन्य	वन्य	NNPC	n	lex-वन्य|cat-n|gen-m|num-sg|pers-3|case-d|vib-0|tam-0|chunkId-NP2|chunkType-child|stype-|voicetype-	8	pof__cn	_	_
8	प्राधिकरण	प्राधिकरण	NNP	n	lex-प्राधिकरण|cat-n|gen-m|num-sg|pers-3|case-o|vib-0|tam-0|chunkId-NP2|chunkType-head|stype-|voicetype-	13	r6	_	_
9	(	(	SYM	punc	lex-(|cat-punc|gen-|num-|pers-|case-|vib-|tam-|chunkId-NP3|chunkType-child|stype-|voicetype-	10	rsym	_	_
10	सीजैडए	सीजैडए	NNP	n	lex-सीजैडए|cat-n|gen-m|num-sg|pers-3|case-o|vib-0|tam-0|chunkId-NP3|chunkType-head|stype-|voicetype-	8	rs	_	_
11	)	)	SYM	punc	lex-)|cat-punc|gen-|num-|pers-|case-|vib-|tam-|chunkId-NP3|chunkType-child|stype-|voicetype-	10	rsym	_	_
12	की	_	PSP	_	lex-_|cat-_|gen-|num-|pers-|case-|vib-|tam-|chunkId-FRAGP|chunkType-head|stype-|voicetype-	8	fragof	_	_
13	मंजूरी	मंजूरी	NN	n	lex-मंजूरी|cat-n|gen-f|num-sg|pers-3|case-o|vib-0_के_बाद|tam-0|chunkId-NP4|chunkType-head|stype-|voicetype-	25	k7t	_	_
14	के	के	PSP	psp	lex-के|cat-psp|gen-|num-|pers-|case-|vib-|tam-|chunkId-NP4|chunkType-child|stype-|voicetype-	13	lwg__psp	_	_
15	बाद	बाद	NST	nst	lex-बाद|cat-nst|gen-m|num-sg|pers-3|case-d|vib-|tam-|chunkId-NP4|chunkType-child|stype-|voicetype-	13	lwg__psp	_	_
16	इस	यह	DEM	pn	lex-यह|cat-pn|gen-any|num-sg|pers-3|case-o|vib-|tam-|chunkId-NP5|chunkType-child|stype-|voicetype-	17	nmod__adj	_	_
17	प्रस्ताव	प्रस्ताव	NN	n	lex-प्रस्ताव|cat-n|gen-m|num-sg|pers-3|case-o|vib-0_का|tam-0|chunkId-NP5|chunkType-head|stype-|voicetype-	19	r6	_	_
18	की	का	PSP	psp	lex-का|cat-psp|gen-f|num-sg|pers-|case-o|vib-|tam-|chunkId-NP5|chunkType-child|stype-|voicetype-	17	lwg__psp	_	_
19	मंजूरी	मंजूरी	NN	n	lex-मंजूरी|cat-n|gen-f|num-sg|pers-3|case-o|vib-0_के_लिए|tam-0|chunkId-NP6|chunkType-head|stype-|voicetype-	25	rt	_	_
20	के	के	PSP	psp	lex-के|cat-psp|gen-|num-|pers-|case-|vib-|tam-|chunkId-NP6|chunkType-child|stype-|voicetype-	19	lwg__psp	_	_
21	लिए	लिए	PSP	psp	lex-लिए|cat-psp|gen-|num-|pers-|case-|vib-|tam-|chunkId-NP6|chunkType-child|stype-|voicetype-	19	lwg__psp	_	_
22	केंद्र	केंद्र	NNPC	n	lex-केंद्र|cat-n|gen-m|num-sg|pers-3|case-d|vib-0|tam-0|chunkId-NP7|chunkType-child|stype-|voicetype-	23	pof__cn	_	_
23	सरकार	सरकार	NNP	n	lex-सरकार|cat-n|gen-f|num-sg|pers-3|case-o|vib-0_को|tam-0|chunkId-NP7|chunkType-head|stype-|voicetype-	25	k4	_	_
24	को	को	PSP	psp	lex-को|cat-psp|gen-|num-|pers-|case-|vib-|tam-|chunkId-NP7|chunkType-child|stype-|voicetype-	23	lwg__psp	_	_
25	भेजा	भेज	VM	v	lex-भेज|cat-v|gen-m|num-sg|pers-3|case-|vib-या_है|tam-yA|chunkId-VGF|chunkType-head|stype-declarative|voicetype-active	0	main	_	_
26	है	है	VAUX	v	lex-है|cat-v|gen-any|num-sg|pers-3|case-|vib-है|tam-hE|chunkId-VGF|chunkType-child|stype-|voicetype-	25	lwg__vaux	_	_
27	।	।	SYM	punc	lex-।|cat-punc|gen-|num-|pers-|case-|vib-|tam-|chunkId-BLK|chunkType-head|stype-|voicetype-	25	rsym	_	_

1	कुछ	कुछ	QF	avy	lex-कुछ|cat-avy|gen-|num-|pers-|case-|vib-|tam-|chunkId-NP|chunkType-child|stype-|voicetype-	2	nmod__adj	_	_
2	समय	समय	NN	n	lex-समय|cat-n|gen-m|num-sg|pers-3|case-d|vib-0_पहले_तक|tam-0|chunkId-NP|chunkType-head|stype-|voicetype-	14	k7t	_	_
3	पहले	पहले	NST	nst	lex-पहले|cat-nst|gen-m|num-sg|pers-3|case-o|vib-|tam-|chunkId-NP|chunkType-child|stype-|voicetype-	2	lwg__psp	_	_
4	तक	तक	PSP	psp	lex-तक|cat-psp|gen-|num-|pers-|case-|vib-|tam-|chunkId-NP|chunkType-child|stype-|voicetype-	2	lwg__psp	_	_
5	प्रजनन	प्रजनन	NNC	n	lex-प्रजनन|cat-n|gen-m|num-sg|pers-3|case-d|vib-0|tam-0|chunkId-NP2|chunkType-child|stype-|voicetype-	6	pof__cn	_	_
6	केंद्र	केंद्र	NN	n	lex-केंद्र|cat-n|gen-m|num-sg|pers-3|case-d|vib-0|tam-0|chunkId-NP2|chunkType-head|stype-|voicetype-	7	k2	_	_
7	बनाने	बना	VM	v	lex-बना|cat-v|gen-any|num-sg|pers-any|case-o|vib-ना_का|tam-nA|chunkId-VGNN|chunkType-head|stype-|voicetype-	9	r6	_	_
8	के	का	PSP	psp	lex-का|cat-psp|gen-m|num-sg|pers-|case-o|vib-|tam-|chunkId-VGNN|chunkType-child|stype-|voicetype-	7	lwg__psp	_	_
9	स्थान	स्थान	NN	n	lex-स्थान|cat-n|gen-m|num-sg|pers-3|case-o|vib-0_को|tam-0|chunkId-NP3|chunkType-head|stype-|voicetype-	11	k2	_	_
10	को	को	PSP	psp	lex-को|cat-psp|gen-|num-|pers-|case-|vib-|tam-|chunkId-NP3|chunkType-child|stype-|voicetype-	9	lwg__psp	_	_
11	लेकर	ले	VM	v	lex-ले|cat-v|gen-any|num-any|pers-any|case-|vib-कर|tam-kara|chunkId-VGNF|chunkType-head|stype-|voicetype-	14	vmod	_	_
12	काफी	काफी	QF	avy	lex-काफी|cat-avy|gen-|num-|pers-|case-|vib-|tam-|chunkId-NP4|chunkType-child|stype-|voicetype-	13	nmod__adj	_	_
13	चर्चा	चर्चा	NN	n	lex-चर्चा|cat-n|gen-f|num-sg|pers-3|case-d|vib-0|tam-0|chunkId-NP4|chunkType-head|stype-|voicetype-	14	pof	_	_
14	की	कर	VM	v	lex-कर|cat-v|gen-f|num-sg|pers-any|case-|vib-या_जा_रह+या_था|tam-yA|chunkId-VGF|chunkType-head|stype-declarative|voicetype-passive	0	main	_	_
15	जा	जा	VAUX	v	lex-जा|cat-v|gen-any|num-any|pers-any|case-|vib-0|tam-0|chunkId-VGF|chunkType-child|stype-|voicetype-	14	lwg__vaux	_	_
16	रही	रह	VAUX	v	lex-रह|cat-v|gen-f|num-sg|pers-any|case-|vib-या|tam-yA|chunkId-VGF|chunkType-child|stype-|voicetype-	14	lwg__vaux	_	_
17	थी	था	VAUX	v	lex-था|cat-v|gen-f|num-sg|pers-any|case-|vib-था|tam-WA|chunkId-VGF|chunkType-child|stype-|voicetype-	14	lwg__vaux	_	_
18	,	COMMA	SYM	punc	lex-COMMA|cat-punc|gen-|num-|pers-|case-|vib-|tam-|chunkId-VGF|chunkType-child|stype-|voicetype-	14	rsym	_	_
19	जिसमें	जो	PRP	pn	lex-जो|cat-pn|gen-any|num-sg|pers-3|case-o|vib-में|tam-meM|chunkId-NP5|chunkType-head|stype-|voicetype-	28	k7	_	_
20	सिरमौर	सिरमौर	NNP	n	lex-सिरमौर|cat-n|gen-m|num-sg|pers-3|case-o|vib-0|tam-0|chunkId-NP6|chunkType-head|stype-|voicetype-	23	ccof	_	_
21	,	COMMA	SYM	punc	lex-COMMA|cat-punc|gen-|num-|pers-|case-|vib-|tam-|chunkId-NP6|chunkType-child|stype-|voicetype-	20	rsym	_	_
22	बैजनाथ	बैजनाथ	NNP	n	lex-बैजनाथ|cat-n|gen-m|num-sg|pers-3|case-o|vib-0|tam-0|chunkId-NP7|chunkType-head|stype-|voicetype-	23	ccof	_	_
23	व	व	CC	avy	lex-व|cat-avy|gen-|num-|pers-|case-|vib-|tam-|chunkId-CCP|chunkType-head|stype-|voicetype-	26	k2	_	_
24	नालागढ़	नालागढ़	NNP	n	lex-नालागढ़|cat-n|gen-m|num-sg|pers-3|case-o|vib-0_को|tam-0|chunkId-NP8|chunkType-head|stype-|voicetype-	23	ccof	_	_
25	को	को	PSP	psp	lex-को|cat-psp|gen-|num-|pers-|case-|vib-|tam-|chunkId-NP8|chunkType-child|stype-|voicetype-	24	lwg__psp	_	_
26	लेकर	ले	VM	v	lex-ले|cat-v|gen-any|num-any|pers-any|case-|vib-कर|tam-kara|chunkId-VGNF2|chunkType-head|stype-|voicetype-	28	vmod	_	_
27	कयास	कयास	NN	n	lex-कयास|cat-n|gen-m|num-pl|pers-3|case-d|vib-0|tam-0|chunkId-NP9|chunkType-head|stype-|voicetype-	28	pof	_	_
28	लगाए	लगा	VM	v	lex-लगा|cat-v|gen-m|num-pl|pers-any|case-|vib-या_जा_रह+या_था|tam-yA|chunkId-VGF2|chunkType-head|stype-declarative|voicetype-passive	13	nmod__relc	_	_
29	जा	जा	VAUX	v	lex-जा|cat-v|gen-any|num-any|pers-any|case-|vib-0|tam-0|chunkId-VGF2|chunkType-child|stype-|voicetype-	28	lwg__vaux	_	_
30	रहे	रह	VAUX	v	lex-रह|cat-v|gen-m|num-pl|pers-any|case-|vib-या|tam-yA|chunkId-VGF2|chunkType-child|stype-|voicetype-	28	lwg__vaux	_	_
31	थे	था	VAUX	v	lex-था|cat-v|gen-m|num-pl|pers-any|case-|vib-था|tam-WA|chunkId-VGF2|chunkType-child|stype-|voicetype-	28	lwg__vaux	_	_
32	।	।	SYM	punc	lex-।|cat-punc|gen-|num-|pers-|case-|vib-|tam-|chunkId-BLK|chunkType-head|stype-|voicetype-	14	rsym	_	_

1	सूत्रों	सूत्र	NN	n	lex-सूत्र|cat-n|gen-m|num-pl|pers-3|case-o|vib-0_के_अनुसार|tam-0|chunkId-NP|chunkType-head|stype-|voicetype-	19	k7a	_	_
2	के	के	PSP	psp	lex-के|cat-psp|gen-m|num-|pers-|case-o|vib-|tam-|chunkId-NP|chunkType-child|stype-|voicetype-	1	lwg__psp	_	_
3	अनुसार	अनुसार	PSP	n	lex-अनुसार|cat-n|gen-m|num-|pers-|case-o|vib-|tam-|chunkId-NP|chunkType-child|stype-|voicetype-	1	lwg__psp	_	_
4	,	COMMA	SYM	punc	lex-COMMA|cat-punc|gen-|num-|pers-|case-|vib-|tam-|chunkId-NP|chunkType-child|stype-|voicetype-	1	rsym	_	_
5	बीएनएचएस	बीएनएचएस	NNP	n	lex-बीएनएचएस|cat-n|gen-m|num-sg|pers-3|case-o|vib-0_का|tam-0|chunkId-NP2|chunkType-head|stype-|voicetype-	7	r6	_	_
6	की	का	PSP	psp	lex-का|cat-psp|gen-f|num-sg|pers-|case-o|vib-|tam-|chunkId-NP2|chunkType-child|stype-|voicetype-	5	lwg__psp	_	_
7	टीम	टीम	NN	n	lex-टीम|cat-n|gen-f|num-sg|pers-3|case-o|vib-0_ने|tam-0|chunkId-NP3|chunkType-head|stype-|voicetype-	19	k1	_	_
8	ने	ने	PSP	psp	lex-ने|cat-psp|gen-|num-|pers-|case-|vib-|tam-|chunkId-NP3|chunkType-child|stype-|voicetype-	7	lwg__psp	_	_
9	दौरा	दौरा	NN	n	lex-दौरा|cat-n|gen-m|num-sg|pers-3|case-d|vib-0|tam-0|chunkId-NP4|chunkType-head|stype-|voicetype-	10	pof	_	_
10	कर	कर	VM	v	lex-कर|cat-v|gen-any|num-any|pers-any|case-|vib-0|tam-0|chunkId-VGNF|chunkType-head|stype-|voicetype-	19	vmod	_	_
11	गिद्ध	गिद्ध	NNPC	n	lex-गिद्ध|cat-n|gen-m|num-sg|pers-3|case-d|vib-0|tam-0|chunkId-NP5|chunkType-child|stype-|voicetype-	13	pof__cn	_	_
12	प्रजनन	प्रजनन	NNPC	n	lex-प्रजनन|cat-n|gen-m|num-sg|pers-3|case-d|vib-0|tam-0|chunkId-NP5|chunkType-child|stype-|voicetype-	13	pof__cn	_	_
13	केंद्र	केंद्र	NNP	n	lex-केंद्र|cat-n|gen-m|num-sg|pers-3|case-o|vib-0_के_लिए|tam-0|chunkId-NP5|chunkType-head|stype-|voicetype-	19	rt	_	_
14	के	के	PSP	psp	lex-के|cat-psp|gen-|num-|pers-|case-|vib-|tam-|chunkId-NP5|chunkType-child|stype-|voicetype-	13	lwg__psp	_	_
15	लिए	लिए	PSP	psp	lex-लिए|cat-psp|gen-|num-|pers-|case-|vib-|tam-|chunkId-NP5|chunkType-child|stype-|voicetype-	13	lwg__psp	_	_
16	नालागढ़	नालागढ़	NNP	n	lex-नालागढ़|cat-n|gen-m|num-sg|pers-3|case-o|vib-0_को|tam-0|chunkId-NP6|chunkType-head|stype-|voicetype-	19	k2	_	_
17	को	को	PSP	psp	lex-को|cat-psp|gen-|num-|pers-|case-|vib-|tam-|chunkId-NP6|chunkType-child|stype-|voicetype-	16	lwg__psp	_	_
18	फाइनल	फाइनल	JJ	adj	lex-फाइनल|cat-adj|gen-any|num-any|pers-|case-|vib-|tam-|chunkId-JJP|chunkType-head|stype-|voicetype-	19	pof	_	_
19	कर	कर	VM	v	lex-कर|cat-v|gen-m|num-sg|pers-3|case-|vib-0_दे+या_है|tam-0|chunkId-VGF|chunkType-head|stype-declarative|voicetype-active	0	main	_	_
20	दिया	दे	VAUX	v	lex-दे|cat-v|gen-m|num-sg|pers-any|case-|vib-या|tam-yA|chunkId-VGF|chunkType-child|stype-|voicetype-	19	lwg__vaux	_	_
21	है	है	VAUX	v	lex-है|cat-v|gen-any|num-sg|pers-3|case-|vib-है|tam-hE|chunkId-VGF|chunkType-child|stype-|voicetype-	19	lwg__vaux	_	_
22	।	।	SYM	punc	lex-।|cat-punc|gen-|num-|pers-|case-|vib-|tam-|chunkId-BLK|chunkType-head|stype-|voicetype-	19	rsym	_	_

1	जिससे	जो	PRP	pn	lex-जो|cat-pn|gen-any|num-sg|pers-3|case-o|vib-से|tam-se|chunkId-NP|chunkType-head|stype-|voicetype-	11	rh	_	_
2	इस	यह	DEM	pn	lex-यह|cat-pn|gen-any|num-sg|pers-3|case-o|vib-|tam-|chunkId-NP2|chunkType-child|stype-|voicetype-	4	nmod__adj	_	_
3	प्रजनन	प्रजनन	NNC	n	lex-प्रजनन|cat-n|gen-m|num-sg|pers-3|case-d|vib-0|tam-0|chunkId-NP2|chunkType-child|stype-|voicetype-	4	pof__cn	_	_
4	केंद्र	केंद्र	NN	n	lex-केंद्र|cat-n|gen-m|num-sg|pers-3|case-o|vib-0_का|tam-0|chunkId-NP2|chunkType-head|stype-|voicetype-	6	k1	_	_
5	का	का	PSP	psp	lex-का|cat-psp|gen-m|num-sg|pers-|case-d|vib-|tam-|chunkId-NP2|chunkType-child|stype-|voicetype-	4	lwg__psp	_	_
6	बनना	बन	VM	v	lex-बन|cat-v|gen-any|num-any|pers-any|case-d|vib-ना|tam-nA|chunkId-VGNN|chunkType-head|stype-|voicetype-	11	k2	_	_
7	राज्य	राज्य	NN	n	lex-राज्य|cat-n|gen-m|num-sg|pers-3|case-o|vib-0_में|tam-0|chunkId-NP3|chunkType-head|stype-|voicetype-	11	k7p	_	_
8	में	में	PSP	psp	lex-में|cat-psp|gen-|num-|pers-|case-|vib-|tam-|chunkId-NP3|chunkType-child|stype-|voicetype-	7	lwg__psp	_	_
9	अब	अब	PRP	pn	lex-अब|cat-pn|gen-|num-|pers-|case-d|vib-|tam-|chunkId-NP4|chunkType-head|stype-|voicetype-	11	k7t	_	_
10	तय	तय	JJ	adj	lex-तय|cat-adj|gen-any|num-any|pers-|case-|vib-|tam-|chunkId-JJP|chunkType-head|stype-|voicetype-	11	k2s	_	_
11	माना	मान	VM	v	lex-मान|cat-v|gen-m|num-sg|pers-3|case-|vib-या_जा_रह+या_है|tam-yA|chunkId-VGF|chunkType-head|stype-declarative|voicetype-passive	0	main	_	_
12	जा	जा	VAUX	v	lex-जा|cat-v|gen-any|num-any|pers-any|case-|vib-0|tam-0|chunkId-VGF|chunkType-child|stype-|voicetype-	11	lwg__vaux	_	_
13	रहा	रह	VAUX	v	lex-रह|cat-v|gen-m|num-sg|pers-any|case-|vib-या|tam-yA|chunkId-VGF|chunkType-child|stype-|voicetype-	11	lwg__vaux	_	_
14	है	है	VAUX	v	lex-है|cat-v|gen-any|num-sg|pers-3|case-|vib-है|tam-hE|chunkId-VGF|chunkType-child|stype-|voicetype-	11	lwg__vaux	_	_
15	।	।	SYM	punc	lex-।|cat-punc|gen-|num-|pers-|case-|vib-|tam-|chunkId-BLK|chunkType-head|stype-|voicetype-	11	rsym	_	_

1	बता	बता	VM	v	lex-बता|cat-v|gen-any|num-sg|pers-3|case-|vib-0_दे+एं|tam-0|chunkId-VGF|chunkType-head|stype-imperative|voicetype-active	0	main	_	_
2	दें	दे	VAUX	v	lex-दे|cat-v|gen-any|num-sg|pers-3|case-|vib-एं|tam-eM|chunkId-VGF|chunkType-child|stype-|voicetype-	1	lwg__vaux	_	_
3	कि	कि	CC	avy	lex-कि|cat-avy|gen-|num-|pers-|case-|vib-|tam-|chunkId-CCP|chunkType-head|stype-|voicetype-	1	k2	_	_
4	अक्तूबर	अक्तूबर	NNP	n	lex-अक्तूबर|cat-n|gen-m|num-sg|pers-3|case-d|vib-0|tam-0|chunkId-NP|chunkType-child|stype-|voicetype-	5	nmod__adj	_	_
5	माह	माह	NN	n	lex-माह|cat-n|gen-m|num-sg|pers-3|case-o|vib-0_में|tam-0|chunkId-NP|chunkType-head|stype-|voicetype-	28	k7t	_	_
6	में	में	PSP	psp	lex-में|cat-psp|gen-|num-|pers-|case-|vib-|tam-|chunkId-NP|chunkType-child|stype-|voicetype-	5	lwg__psp	_	_
7	केंद्रीय	केंद्रीय	NNPC	adj	lex-केंद्रीय|cat-adj|gen-any|num-any|pers-|case-o|vib-|tam-|chunkId-NP2|chunkType-child|stype-|voicetype-	9	pof__cn	_	_
8	वन्य	वन्य	NNPC	n	lex-वन्य|cat-n|gen-m|num-sg|pers-3|case-d|vib-0|tam-0|chunkId-NP2|chunkType-child|stype-|voicetype-	9	pof__cn	_	_
9	प्राधिकरण	प्राधिकरण	NNP	n	lex-प्राधिकरण|cat-n|gen-m|num-sg|pers-3|case-o|vib-0_का|tam-0|chunkId-NP2|chunkType-head|stype-|voicetype-	11	r6	_	_
10	की	का	PSP	psp	lex-का|cat-psp|gen-f|num-sg|pers-|case-o|vib-|tam-|chunkId-NP2|chunkType-child|stype-|voicetype-	9	lwg__psp	_	_
11	टीम	टीम	NN	n	lex-टीम|cat-n|gen-f|num-sg|pers-3|case-o|vib-0_ने|tam-0|chunkId-NP3|chunkType-head|stype-|voicetype-	28	k1	_	_
12	ने	ने	PSP	psp	lex-ने|cat-psp|gen-|num-|pers-|case-|vib-|tam-|chunkId-NP3|chunkType-child|stype-|voicetype-	11	lwg__psp	_	_
13	हिमाचल	हिमाचल	NNP	n	lex-हिमाचल|cat-n|gen-m|num-sg|pers-3|case-o|vib-0_का|tam-0|chunkId-NP4|chunkType-head|stype-|voicetype-	15	r6-k2	_	_
14	का	का	PSP	psp	lex-का|cat-psp|gen-m|num-sg|pers-|case-d|vib-|tam-|chunkId-NP4|chunkType-child|stype-|voicetype-	13	lwg__psp	_	_
15	दौरा	दौरा	NN	n	lex-दौरा|cat-n|gen-m|num-sg|pers-3|case-d|vib-0|tam-0|chunkId-NP5|chunkType-head|stype-|voicetype-	16	pof	_	_
16	करते	कर	VM	v	lex-कर|cat-v|gen-m|num-sg|pers-any|case-|vib-ता_हो+या|tam-wA|chunkId-VGNF|chunkType-head|stype-|voicetype-	28	vmod	_	_
17	हुए	हो	VAUX	v	lex-हो|cat-v|gen-m|num-sg|pers-any|case-|vib-या|tam-yA|chunkId-VGNF|chunkType-child|stype-|voicetype-	16	lwg__vaux	_	_
18	राज्य	राज्य	NNPC	n	lex-राज्य|cat-n|gen-m|num-sg|pers-3|case-d|vib-0|tam-0|chunkId-NP6|chunkType-child|stype-|voicetype-	21	pof__cn	_	_
19	वन्य	वन्य	NNPC	n	lex-वन्य|cat-n|gen-m|num-sg|pers-3|case-d|vib-0|tam-0|chunkId-NP6|chunkType-child|stype-|voicetype-	21	pof__cn	_	_
20	प्राणी	प्राणी	NNPC	n	lex-प्राणी|cat-n|gen-m|num-sg|pers-3|case-d|vib-0|tam-0|chunkId-NP6|chunkType-child|stype-|voicetype-	21	pof__cn	_	_
21	विंग	विंग	NNP	n	lex-विंग|cat-n|gen-m|num-sg|pers-3|case-o|vib-0_का|tam-0|chunkId-NP6|chunkType-head|stype-|voicetype-	23	r6	_	_
22	के	का	PSP	psp	lex-का|cat-psp|gen-m|num-pl|pers-|case-o|vib-|tam-|chunkId-NP6|chunkType-child|stype-|voicetype-	21	lwg__psp	_	_
23	प्रस्तावित	प्रस्तावित	JJ	adj	lex-प्रस्तावित|cat-adj|gen-any|num-any|pers-|case-o|vib-|tam-|chunkId-JJP|chunkType-head|stype-|voicetype-	25	nmod	_	_
24	तीन	तीन	QC	num	lex-तीन|cat-num|gen-any|num-any|pers-|case-any|vib-|tam-|chunkId-NP7|chunkType-child|stype-|voicetype-	25	nmod__adj	_	_
25	स्थानों	स्थान	NN	n	lex-स्थान|cat-n|gen-m|num-pl|pers-3|case-o|vib-0_का|tam-0|chunkId-NP7|chunkType-head|stype-|voicetype-	27	r6-k2	_	_
26	का	का	PSP	psp	lex-का|cat-psp|gen-m|num-sg|pers-|case-d|vib-|tam-|chunkId-NP7|chunkType-child|stype-|voicetype-	25	lwg__psp	_	_
27	दौरा	दौरा	NN	n	lex-दौरा|cat-n|gen-m|num-sg|pers-3|case-d|vib-0|tam-0|chunkId-NP8|chunkType-head|stype-|voicetype-	28	pof	_	_
28	किया	कर	VM	v	lex-कर|cat-v|gen-m|num-sg|pers-any|case-|vib-या_था|tam-yA|chunkId-VGF2|chunkType-head|stype-declarative|voicetype-active	3	ccof	_	_
29	था	था	VAUX	v	lex-था|cat-v|gen-m|num-sg|pers-any|case-|vib-था|tam-WA|chunkId-VGF2|chunkType-child|stype-|voicetype-	28	lwg__vaux	_	_
30	।	।	SYM	punc	lex-।|cat-punc|gen-|num-|pers-|case-|vib-|tam-|chunkId-BLK|chunkType-head|stype-|voicetype-	1	rsym	_	_

1	जिस	जो	PRP	pn	lex-जो|cat-pn|gen-any|num-sg|pers-3|case-o|vib-0_पर|tam-0|chunkId-NP|chunkType-head|stype-|voicetype-	22	k7	_	_
2	पर	पर	PSP	psp	lex-पर|cat-psp|gen-|num-|pers-|case-|vib-|tam-|chunkId-NP|chunkType-child|stype-|voicetype-	1	lwg__psp	_	_
3	हाल	हाल	NN	n	lex-हाल|cat-n|gen-m|num-sg|pers-3|case-o|vib-0_में|tam-0|chunkId-NP2|chunkType-head|stype-|voicetype-	22	k7	_	_
4	ही	ही	RP	avy	lex-ही|cat-avy|gen-|num-|pers-|case-|vib-|tam-|chunkId-NP2|chunkType-child|stype-|voicetype-	3	lwg__rp	_	_
5	में	में	PSP	psp	lex-में|cat-psp|gen-|num-|pers-|case-|vib-|tam-|chunkId-NP2|chunkType-child|stype-|voicetype-	3	lwg__psp	_	_
6	विंग	विंग	NN	n	lex-विंग|cat-n|gen-m|num-sg|pers-3|case-o|vib-0_का|tam-0|chunkId-NP3|chunkType-head|stype-|voicetype-	11	r6	_	_
7	के	का	PSP	psp	lex-का|cat-psp|gen-m|num-sg|pers-|case-o|vib-|tam-|chunkId-NP3|chunkType-child|stype-|voicetype-	6	lwg__psp	_	_
8	केंद्रीय	केंद्रीय	NNPC	adj	lex-केंद्रीय|cat-adj|gen-any|num-any|pers-|case-o|vib-|tam-|chunkId-NP4|chunkType-child|stype-|voicetype-	11	pof__cn	_	_
9	वन्य	वन्य	NNPC	n	lex-वन्य|cat-n|gen-m|num-sg|pers-3|case-d|vib-0|tam-0|chunkId-NP4|chunkType-child|stype-|voicetype-	11	pof__cn	_	_
10	प्राणी	प्राणी	NNPC	n	lex-प्राणी|cat-n|gen-m|num-sg|pers-3|case-d|vib-0|tam-0|chunkId-NP4|chunkType-child|stype-|voicetype-	11	pof__cn	_	_
11	प्राधिकरण	प्राधिकरण	NNP	n	lex-प्राधिकरण|cat-n|gen-m|num-sg|pers-3|case-o|vib-0_से|tam-0|chunkId-NP4|chunkType-head|stype-|voicetype-	22	k5	_	_
12	से	से	PSP	psp	lex-से|cat-psp|gen-|num-|pers-|case-|vib-|tam-|chunkId-NP4|chunkType-child|stype-|voicetype-	11	lwg__psp	_	_
13	नालागढ़	नालागढ़	NNP	n	lex-नालागढ़|cat-n|gen-m|num-sg|pers-3|case-o|vib-0_में|tam-0|chunkId-NP5|chunkType-head|stype-|voicetype-	18	k7p	_	_
14	में	में	PSP	psp	lex-में|cat-psp|gen-|num-|pers-|case-|vib-|tam-|chunkId-NP5|chunkType-child|stype-|voicetype-	13	lwg__psp	_	_
15	गिद्ध	गिद्ध	NNPC	n	lex-गिद्ध|cat-n|gen-m|num-sg|pers-3|case-d|vib-0|tam-0|chunkId-NP6|chunkType-child|stype-|voicetype-	17	pof__cn	_	_
16	प्रजनन	प्रजनन	NNPC	n	lex-प्रजनन|cat-n|gen-m|num-sg|pers-3|case-d|vib-0|tam-0|chunkId-NP6|chunkType-child|stype-|voicetype-	17	pof__cn	_	_
17	केंद्र	केंद्र	NNP	n	lex-केंद्र|cat-n|gen-m|num-sg|pers-3|case-d|vib-0|tam-0|chunkId-NP6|chunkType-head|stype-|voicetype-	18	k2	_	_
18	बनाए	बना	VM	v	lex-बना|cat-v|gen-any|num-sg|pers-any|case-|vib-या_जा+ना_का|tam-yA|chunkId-VGNN|chunkType-head|stype-|voicetype-	21	r6	_	_
19	जाने	जा	VAUX	v	lex-जा|cat-v|gen-any|num-any|pers-any|case-o|vib-ना|tam-nA|chunkId-VGNN|chunkType-child|stype-|voicetype-	18	lwg__vaux	_	_
20	की	का	PSP	psp	lex-का|cat-psp|gen-f|num-sg|pers-|case-d|vib-|tam-|chunkId-VGNN|chunkType-child|stype-|voicetype-	18	lwg__psp	_	_
21	मंजूरी	मंजूरी	NN	n	lex-मंजूरी|cat-n|gen-f|num-sg|pers-3|case-d|vib-0|tam-0|chunkId-NP7|chunkType-head|stype-|voicetype-	22	k1	_	_
22	मिल	मिल	VM	v	lex-मिल|cat-v|gen-f|num-sg|pers-3|case-|vib-0_जा+या१_है|tam-0|chunkId-VGF|chunkType-head|stype-declarative|voicetype-active	0	main	_	_
23	गई	जा	VAUX	v	lex-जा|cat-v|gen-f|num-sg|pers-any|case-|vib-या१|tam-yA1|chunkId-VGF|chunkType-child|stype-|voicetype-	22	lwg__vaux	_	_
24	है	है	VAUX	v	lex-है|cat-v|gen-any|num-sg|pers-3|case-|vib-है|tam-hE|chunkId-VGF|chunkType-child|stype-|voicetype-	22	lwg__vaux	_	_
25	।	।	SYM	punc	lex-।|cat-punc|gen-|num-|pers-|case-|vib-|tam-|chunkId-BLK|chunkType-head|stype-|voicetype-	22	rsym	_	_

1	साथ	साथ	NST	nst	lex-साथ|cat-nst|gen-m|num-sg|pers-3|case-d|vib-|tam-|chunkId-NP|chunkType-head|stype-|voicetype-	16	sent-adv	_	_
2	ही	ही	RP	avy	lex-ही|cat-avy|gen-|num-|pers-|case-|vib-|tam-|chunkId-NP|chunkType-child|stype-|voicetype-	1	lwg__rp	_	_
3	राज्य	राज्य	NNPC	n	lex-राज्य|cat-n|gen-m|num-sg|pers-3|case-d|vib-0|tam-0|chunkId-NP2|chunkType-child|stype-|voicetype-	6	pof__cn	_	_
4	वन्य	वन्य	NNPC	n	lex-वन्य|cat-n|gen-m|num-sg|pers-3|case-d|vib-0|tam-0|chunkId-NP2|chunkType-child|stype-|voicetype-	6	pof__cn	_	_
5	प्राणी	प्राणी	NNPC	n	lex-प्राणी|cat-n|gen-m|num-sg|pers-3|case-d|vib-0|tam-0|chunkId-NP2|chunkType-child|stype-|voicetype-	6	pof__cn	_	_
6	विंग	विंग	NNP	n	lex-विंग|cat-n|gen-m|num-sg|pers-3|case-o|vib-0_ने|tam-0|chunkId-NP2|chunkType-head|stype-|voicetype-	16	k1	_	_
7	ने	ने	PSP	psp	lex-ने|cat-psp|gen-|num-|pers-|case-|vib-|tam-|chunkId-NP2|chunkType-child|stype-|voicetype-	6	lwg__psp	_	_
8	इसकी	यह	PRP	pn	lex-यह|cat-pn|gen-f|num-sg|pers-3|case-o|vib-का|tam-kA|chunkId-NP3|chunkType-head|stype-|voicetype-	9	r6	_	_
9	मंजूरी	मंजूरी	NN	n	lex-मंजूरी|cat-n|gen-f|num-sg|pers-3|case-o|vib-0_के_लिए|tam-0|chunkId-NP4|chunkType-head|stype-|voicetype-	12	nmod	_	_
10	के	के	PSP	psp	lex-के|cat-psp|gen-|num-|pers-|case-|vib-|tam-|chunkId-NP4|chunkType-child|stype-|voicetype-	9	lwg__psp	_	_
11	लिए	लिए	PSP	psp	lex-लिए|cat-psp|gen-|num-|pers-|case-|vib-|tam-|chunkId-NP4|chunkType-child|stype-|voicetype-	9	lwg__psp	_	_
12	प्रस्ताव	प्रस्ताव	NN	n	lex-प्रस्ताव|cat-n|gen-m|num-sg|pers-3|case-d|vib-0|tam-0|chunkId-NP5|chunkType-head|stype-|voicetype-	16	k2	_	_
13	केंद्र	केंद्र	NNPC	n	lex-केंद्र|cat-n|gen-m|num-sg|pers-3|case-d|vib-0|tam-0|chunkId-NP6|chunkType-child|stype-|voicetype-	14	pof__cn	_	_
14	सरकार	सरकार	NNP	n	lex-सरकार|cat-n|gen-f|num-sg|pers-3|case-o|vib-0_को|tam-0|chunkId-NP6|chunkType-head|stype-|voicetype-	16	k4	_	_
15	को	को	PSP	psp	lex-को|cat-psp|gen-|num-|pers-|case-|vib-|tam-|chunkId-NP6|chunkType-child|stype-|voicetype-	14	lwg__psp	_	_
16	भेज	भेज	VM	v	lex-भेज|cat-v|gen-m|num-sg|pers-3|case-|vib-0_दे+या_है|tam-0|chunkId-VGF|chunkType-head|stype-declarative|voicetype-active	0	main	_	_
17	दिया	दे	VAUX	v	lex-दे|cat-v|gen-m|num-sg|pers-any|case-|vib-या|tam-yA|chunkId-VGF|chunkType-child|stype-|voicetype-	16	lwg__vaux	_	_
18	है	है	VAUX	v	lex-है|cat-v|gen-any|num-sg|pers-3|case-|vib-है|tam-hE|chunkId-VGF|chunkType-child|stype-|voicetype-	16	lwg__vaux	_	_
19	।	।	SYM	punc	lex-।|cat-punc|gen-|num-|pers-|case-|vib-|tam-|chunkId-BLK|chunkType-head|stype-|voicetype-	16	rsym	_	_

1	सूत्रों	सूत्र	NN	n	lex-सूत्र|cat-n|gen-m|num-pl|pers-3|case-o|vib-0_का|tam-0|chunkId-NP|chunkType-head|stype-|voicetype-	3	k1	_	_
2	का	का	PSP	psp	lex-का|cat-psp|gen-m|num-sg|pers-|case-d|vib-|tam-|chunkId-NP|chunkType-child|stype-|voicetype-	1	lwg__psp	_	_
3	कहना	कह	VM	v	lex-कह|cat-v|gen-any|num-any|pers-any|case-d|vib-ना|tam-nA|chunkId-VGNN|chunkType-head|stype-|voicetype-	4	k1	_	_
4	है	है	VM	v	lex-है|cat-v|gen-any|num-sg|pers-3|case-|vib-है|tam-hE|chunkId-VGF|chunkType-head|stype-declarative|voicetype-active	0	main	_	_
5	कि	कि	CC	avy	lex-कि|cat-avy|gen-|num-|pers-|case-|vib-|tam-|chunkId-CCP|chunkType-head|stype-|voicetype-	3	k2	_	_
6	विंग	विंग	NNP	n	lex-विंग|cat-n|gen-m|num-sg|pers-3|case-o|vib-0_ने|tam-0|chunkId-NP2|chunkType-head|stype-|voicetype-	20	k1	_	_
7	ने	ने	PSP	psp	lex-ने|cat-psp|gen-|num-|pers-|case-|vib-|tam-|chunkId-NP2|chunkType-child|stype-|voicetype-	6	lwg__psp	_	_
8	इस	यह	DEM	pn	lex-यह|cat-pn|gen-any|num-sg|pers-3|case-o|vib-|tam-|chunkId-NP3|chunkType-child|stype-|voicetype-	10	nmod__adj	_	_
9	प्रजनन	प्रजनन	NNC	n	lex-प्रजनन|cat-n|gen-m|num-sg|pers-3|case-d|vib-0|tam-0|chunkId-NP3|chunkType-child|stype-|voicetype-	10	pof__cn	_	_
10	केंद्र	केंद्र	NN	n	lex-केंद्र|cat-n|gen-m|num-sg|pers-3|case-o|vib-0_को|tam-0|chunkId-NP3|chunkType-head|stype-|voicetype-	12	k2	_	_
11	को	को	PSP	psp	lex-को|cat-psp|gen-|num-|pers-|case-|vib-|tam-|chunkId-NP3|chunkType-child|stype-|voicetype-	10	lwg__psp	_	_
12	बनाने	बना	VM	v	lex-बना|cat-v|gen-any|num-any|pers-any|case-o|vib-ना_के_लिए|tam-nA|chunkId-VGNN2|chunkType-head|stype-|voicetype-	20	rt	_	_
13	के	के	PSP	psp	lex-के|cat-psp|gen-|num-|pers-|case-|vib-|tam-|chunkId-VGNN2|chunkType-child|stype-|voicetype-	12	lwg__psp	_	_
14	लिए	लिए	PSP	psp	lex-लिए|cat-psp|gen-|num-|pers-|case-|vib-|tam-|chunkId-VGNN2|chunkType-child|stype-|voicetype-	12	lwg__psp	_	_
15	प्रोजेक्ट	प्रोजेक्ट	NN	n	lex-प्रोजेक्ट|cat-n|gen-m|num-sg|pers-3|case-d|vib-0|tam-0|chunkId-NP4|chunkType-head|stype-|voicetype-	16	k2	_	_
16	बनाने	बना	VM	v	lex-बना|cat-v|gen-any|num-sg|pers-any|case-o|vib-ना_का|tam-nA|chunkId-VGNN3|chunkType-head|stype-|voicetype-	18	r6	_	_
17	का	का	PSP	psp	lex-का|cat-psp|gen-m|num-sg|pers-|case-d|vib-|tam-|chunkId-VGNN3|chunkType-child|stype-|voicetype-	16	lwg__psp	_	_
18	कार्य	कार्य	NN	n	lex-कार्य|cat-n|gen-m|num-sg|pers-3|case-d|vib-0|tam-0|chunkId-NP5|chunkType-head|stype-|voicetype-	20	k2	_	_
19	शुरू	शुरू	NN	n	lex-शुरू|cat-n|gen-m|num-sg|pers-3|case-d|vib-0|tam-0|chunkId-NP6|chunkType-head|stype-|voicetype-	20	pof	_	_
20	कर	कर	VM	v	lex-कर|cat-v|gen-m|num-sg|pers-3|case-|vib-0_दे+या_है|tam-0|chunkId-VGF2|chunkType-head|stype-declarative|voicetype-active	5	ccof	_	_
21	दिया	दे	VAUX	v	lex-दे|cat-v|gen-m|num-sg|pers-any|case-|vib-या|tam-yA|chunkId-VGF2|chunkType-child|stype-|voicetype-	20	lwg__vaux	_	_
22	है	है	VAUX	v	lex-है|cat-v|gen-any|num-sg|pers-3|case-|vib-है|tam-hE|chunkId-VGF2|chunkType-child|stype-|voicetype-	20	lwg__vaux	_	_
23	।	।	SYM	punc	lex-।|cat-punc|gen-|num-|pers-|case-|vib-|tam-|chunkId-BLK|chunkType-head|stype-|voicetype-	4	rsym	_	_

1	वहीं	वहीं	RB	adv	lex-वहीं|cat-adv|gen-|num-|pers-|case-|vib-|tam-|chunkId-RBP|chunkType-head|stype-|voicetype-	7	sent-adv	_	_
2	वन्य	वन्य	NNPC	n	lex-वन्य|cat-n|gen-m|num-sg|pers-3|case-d|vib-0|tam-0|chunkId-NP|chunkType-child|stype-|voicetype-	4	pof__cn	_	_
3	प्राणी	प्राणी	NNPC	n	lex-प्राणी|cat-n|gen-m|num-sg|pers-3|case-d|vib-0|tam-0|chunkId-NP|chunkType-child|stype-|voicetype-	4	pof__cn	_	_
4	विशेषज्ञों	विशेषज्ञ	NN	n	lex-विशेषज्ञ|cat-n|gen-m|num-pl|pers-3|case-o|vib-0_का|tam-0|chunkId-NP|chunkType-head|stype-|voicetype-	6	k1	_	_
5	का	का	PSP	psp	lex-का|cat-psp|gen-m|num-sg|pers-|case-d|vib-|tam-|chunkId-NP|chunkType-child|stype-|voicetype-	4	lwg__psp	_	_
6	मानना	मान	VM	v	lex-मान|cat-v|gen-any|num-any|pers-any|case-d|vib-ना|tam-nA|chunkId-VGNN|chunkType-head|stype-|voicetype-	7	k1	_	_
7	है	है	VM	v	lex-है|cat-v|gen-any|num-sg|pers-3|case-|vib-है|tam-hE|chunkId-VGF|chunkType-head|stype-declarative|voicetype-active	0	main	_	_
8	कि	कि	CC	avy	lex-कि|cat-avy|gen-|num-|pers-|case-|vib-|tam-|chunkId-CCP|chunkType-head|stype-|voicetype-	6	k2	_	_
9	नालागढ़	नालागढ़	NNP	n	lex-नालागढ़|cat-n|gen-m|num-sg|pers-3|case-o|vib-0_का|tam-0|chunkId-NP2|chunkType-head|stype-|voicetype-	11	r6	_	_
10	की	का	PSP	psp	lex-का|cat-psp|gen-f|num-sg|pers-|case-d|vib-|tam-|chunkId-NP2|chunkType-child|stype-|voicetype-	9	lwg__psp	_	_
11	जलवायु	जलवायु	NN	n	lex-जलवायु|cat-n|gen-f|num-sg|pers-3|case-d|vib-0|tam-0|chunkId-NP3|chunkType-head|stype-|voicetype-	18	k1	_	_
12	गिद्ध	गिद्ध	NN	n	lex-गिद्ध|cat-n|gen-m|num-sg|pers-3|case-o|vib-0_का|tam-0|chunkId-NP4|chunkType-head|stype-|voicetype-	14	r6	_	_
13	के	का	PSP	psp	lex-का|cat-psp|gen-m|num-sg|pers-|case-o|vib-|tam-|chunkId-NP4|chunkType-child|stype-|voicetype-	12	lwg__psp	_	_
14	प्रजनन	प्रजनन	NN	n	lex-प्रजनन|cat-n|gen-m|num-sg|pers-3|case-o|vib-0_के_लिए|tam-0|chunkId-NP5|chunkType-head|stype-|voicetype-	18	rt	_	_
15	के	के	PSP	psp	lex-के|cat-psp|gen-|num-|pers-|case-|vib-|tam-|chunkId-NP5|chunkType-child|stype-|voicetype-	14	lwg__psp	_	_
16	लिए	लिए	PSP	psp	lex-लिए|cat-psp|gen-|num-|pers-|case-|vib-|tam-|chunkId-NP5|chunkType-child|stype-|voicetype-	14	lwg__psp	_	_
17	उपयुक्त	उपयुक्त	JJ	adj	lex-उपयुक्त|cat-adj|gen-any|num-any|pers-|case-|vib-|tam-|chunkId-JJP|chunkType-head|stype-|voicetype-	18	k1s	_	_
18	है	है	VM	v	lex-है|cat-v|gen-any|num-sg|pers-3|case-|vib-है|tam-hE|chunkId-VGF2|chunkType-head|stype-declarative|voicetype-active	8	ccof	_	_
19	।	।	SYM	punc	lex-।|cat-punc|gen-|num-|pers-|case-|vib-|tam-|chunkId-BLK|chunkType-head|stype-|voicetype-	7	rsym	_	_

1	राज्य	राज्य	NNPC	n	lex-राज्य|cat-n|gen-m|num-sg|pers-3|case-d|vib-0|tam-0|chunkId-NP|chunkType-child|stype-|voicetype-	4	pof__cn	_	_
2	वन्य	वन्य	NNPC	n	lex-वन्य|cat-n|gen-m|num-sg|pers-3|case-d|vib-0|tam-0|chunkId-NP|chunkType-child|stype-|voicetype-	4	pof__cn	_	_
3	प्राणी	प्राणी	NNPC	n	lex-प्राणी|cat-n|gen-m|num-sg|pers-3|case-d|vib-0|tam-0|chunkId-NP|chunkType-child|stype-|voicetype-	4	pof__cn	_	_
4	विंग	विंग	NNP	n	lex-विंग|cat-n|gen-m|num-sg|pers-3|case-o|vib-0_का|tam-0|chunkId-NP|chunkType-head|stype-|voicetype-	6	r6	_	_
5	के	का	PSP	psp	lex-का|cat-psp|gen-m|num-pl|pers-|case-o|vib-|tam-|chunkId-NP|chunkType-child|stype-|voicetype-	4	lwg__psp	_	_
6	अधिकारियों	अधिकारी	NN	n	lex-अधिकारी|cat-n|gen-m|num-pl|pers-3|case-o|vib-0_का|tam-0|chunkId-NP2|chunkType-head|stype-|voicetype-	8	k1	_	_
7	का	का	PSP	psp	lex-का|cat-psp|gen-m|num-sg|pers-|case-d|vib-|tam-|chunkId-NP2|chunkType-child|stype-|voicetype-	6	lwg__psp	_	_
8	कहना	कह	VM	v	lex-कह|cat-v|gen-any|num-any|pers-any|case-d|vib-ना|tam-nA|chunkId-VGNN|chunkType-head|stype-|voicetype-	9	k1	_	_
9	है	है	VM	v	lex-है|cat-v|gen-any|num-sg|pers-3|case-|vib-है|tam-hE|chunkId-VGF|chunkType-head|stype-declarative|voicetype-active	0	main	_	_
10	कि	कि	CC	avy	lex-कि|cat-avy|gen-|num-|pers-|case-|vib-|tam-|chunkId-CCP|chunkType-head|stype-|voicetype-	8	k2	_	_
11	कुछ	कुछ	QF	avy	lex-कुछ|cat-avy|gen-|num-|pers-|case-|vib-|tam-|chunkId-NP3|chunkType-child|stype-|voicetype-	12	nmod__adj	_	_
12	माह	माह	NN	n	lex-माह|cat-n|gen-m|num-pl|pers-3|case-d|vib-0_पहले|tam-0|chunkId-NP3|chunkType-head|stype-|voicetype-	27	k7t	_	_
13	पहले	पहले	NST	nst	lex-पहले|cat-nst|gen-m|num-sg|pers-3|case-d|vib-|tam-|chunkId-NP3|chunkType-child|stype-|voicetype-	12	lwg__psp	_	_
14	केंद्रीय	केंद्रीय	NNPC	adj	lex-केंद्रीय|cat-adj|gen-any|num-any|pers-|case-o|vib-|tam-|chunkId-NP4|chunkType-child|stype-|voicetype-	16	pof__cn	_	_
15	वन्य	वन्य	NNPC	n	lex-वन्य|cat-n|gen-m|num-sg|pers-3|case-d|vib-0|tam-0|chunkId-NP4|chunkType-child|stype-|voicetype-	16	pof__cn	_	_
16	प्राधिकरण	प्राधिकरण	NNP	n	lex-प्राधिकरण|cat-n|gen-m|num-sg|pers-3|case-o|vib-0_का|tam-0|chunkId-NP4|chunkType-head|stype-|voicetype-	18	r6	_	_
17	की	का	PSP	psp	lex-का|cat-psp|gen-f|num-sg|pers-|case-o|vib-|tam-|chunkId-NP4|chunkType-child|stype-|voicetype-	16	lwg__psp	_	_
18	टीम	टीम	NN	n	lex-टीम|cat-n|gen-f|num-sg|pers-3|case-o|vib-0_ने|tam-0|chunkId-NP5|chunkType-head|stype-|voicetype-	27	k1	_	_
19	ने	ने	PSP	psp	lex-ने|cat-psp|gen-|num-|pers-|case-|vib-|tam-|chunkId-NP5|chunkType-child|stype-|voicetype-	18	lwg__psp	_	_
20	प्नदेश	प्नदेश	NN	n	lex-प्नदेश|cat-n|gen-m|num-sg|pers-3|case-o|vib-0_का|tam-0|chunkId-NP6|chunkType-head|stype-|voicetype-	22	r6-k2	_	_
21	का	का	PSP	psp	lex-का|cat-psp|gen-m|num-sg|pers-|case-d|vib-|tam-|chunkId-NP6|chunkType-child|stype-|voicetype-	20	lwg__psp	_	_
22	दौरा	दौरा	NN	n	lex-दौरा|cat-n|gen-m|num-sg|pers-3|case-d|vib-0|tam-0|chunkId-NP7|chunkType-head|stype-|voicetype-	27	pof	_	_
23	इस	यह	DEM	pn	lex-यह|cat-pn|gen-any|num-sg|pers-3|case-o|vib-|tam-|chunkId-NP8|chunkType-child|stype-|voicetype-	24	nmod__adj	_	_
24	प्रोजेक्ट	प्रोजेक्ट	NN	n	lex-प्रोजेक्ट|cat-n|gen-m|num-sg|pers-3|case-o|vib-0_को|tam-0|chunkId-NP8|chunkType-head|stype-|voicetype-	26	k2	_	_
25	को	को	PSP	psp	lex-को|cat-psp|gen-|num-|pers-|case-|vib-|tam-|chunkId-NP8|chunkType-child|stype-|voicetype-	24	lwg__psp	_	_
26	लेकर	ले	VM	v	lex-ले|cat-v|gen-any|num-any|pers-any|case-|vib-कर|tam-kara|chunkId-VGNF|chunkType-head|stype-|voicetype-	27	vmod	_	_
27	किया	कर	VM	v	lex-कर|cat-v|gen-m|num-sg|pers-any|case-|vib-या_था|tam-yA|chunkId-VGF2|chunkType-head|stype-declarative|voicetype-active	10	ccof	_	_
28	था	था	VAUX	v	lex-था|cat-v|gen-m|num-sg|pers-any|case-|vib-था|tam-WA|chunkId-VGF2|chunkType-child|stype-|voicetype-	27	lwg__vaux	_	_
29	।	।	SYM	punc	lex-।|cat-punc|gen-|num-|pers-|case-|vib-|tam-|chunkId-BLK|chunkType-head|stype-|voicetype-	9	rsym	_	_

1	जिसमें	जो	PRP	pn	lex-जो|cat-pn|gen-any|num-sg|pers-3|case-o|vib-में|tam-meM|chunkId-NP|chunkType-head|stype-|voicetype-	11	k7	_	_
2	टीम	टीम	NN	n	lex-टीम|cat-n|gen-f|num-sg|pers-3|case-o|vib-0_ने|tam-0|chunkId-NP2|chunkType-head|stype-|voicetype-	11	k1	_	_
3	ने	ने	PSP	psp	lex-ने|cat-psp|gen-|num-|pers-|case-|vib-|tam-|chunkId-NP2|chunkType-child|stype-|voicetype-	2	lwg__psp	_	_
4	विंग	विंग	NNP	n	lex-विंग|cat-n|gen-m|num-sg|pers-3|case-o|vib-0_का|tam-0|chunkId-NP3|chunkType-head|stype-|voicetype-	8	r6	_	_
5	के	का	PSP	psp	lex-का|cat-psp|gen-m|num-pl|pers-|case-o|vib-|tam-|chunkId-NP3|chunkType-child|stype-|voicetype-	4	lwg__psp	_	_
6	प्रस्तावित	प्रस्तावित	JJ	adj	lex-प्रस्तावित|cat-adj|gen-any|num-any|pers-|case-o|vib-|tam-|chunkId-JJP|chunkType-head|stype-|voicetype-	8	nmod	_	_
7	तीन	तीन	QC	num	lex-तीन|cat-num|gen-any|num-any|pers-|case-any|vib-|tam-|chunkId-NP4|chunkType-child|stype-|voicetype-	8	nmod__adj	_	_
8	स्थानों	स्थान	NN	n	lex-स्थान|cat-n|gen-m|num-pl|pers-3|case-o|vib-0_का|tam-0|chunkId-NP4|chunkType-head|stype-|voicetype-	10	r6-k2	_	_
9	का	का	PSP	psp	lex-का|cat-psp|gen-m|num-sg|pers-|case-d|vib-|tam-|chunkId-NP4|chunkType-child|stype-|voicetype-	8	lwg__psp	_	_
10	दौरा	दौरा	NN	n	lex-दौरा|cat-n|gen-m|num-sg|pers-3|case-d|vib-0|tam-0|chunkId-NP5|chunkType-head|stype-|voicetype-	11	pof	_	_
11	किया	कर	VM	v	lex-कर|cat-v|gen-m|num-sg|pers-any|case-|vib-या_था|tam-yA|chunkId-VGF|chunkType-head|stype-declarative|voicetype-active	0	main	_	_
12	था	था	VAUX	v	lex-था|cat-v|gen-m|num-sg|pers-any|case-|vib-था|tam-WA|chunkId-VGF|chunkType-child|stype-|voicetype-	11	lwg__vaux	_	_
13	,	COMMA	SYM	punc	lex-COMMA|cat-punc|gen-|num-|pers-|case-|vib-|tam-|chunkId-VGF|chunkType-child|stype-|voicetype-	11	rsym	_	_
14	जिसमें	जो	PRP	pn	lex-जो|cat-pn|gen-any|num-sg|pers-3|case-o|vib-में|tam-meM|chunkId-NP6|chunkType-head|stype-|voicetype-	21	k7	_	_
15	सिरमौर	सिरमौर	NNP	n	lex-सिरमौर|cat-n|gen-m|num-sg|pers-3|case-d|vib-0|tam-0|chunkId-NP7|chunkType-head|stype-|voicetype-	18	ccof	_	_
16	,	COMMA	SYM	punc	lex-COMMA|cat-punc|gen-|num-|pers-|case-|vib-|tam-|chunkId-NP7|chunkType-child|stype-|voicetype-	15	rsym	_	_
17	बैजनाथ	बैजनाथ	NNP	n	lex-बैजनाथ|cat-n|gen-m|num-sg|pers-3|case-d|vib-0|tam-0|chunkId-NP8|chunkType-head|stype-|voicetype-	18	ccof	_	_
18	व	व	CC	avy	lex-व|cat-avy|gen-|num-|pers-|case-|vib-|tam-|chunkId-CCP|chunkType-head|stype-|voicetype-	21	k1	_	_
19	नालागढ़	नालागढ़	NNP	n	lex-नालागढ़|cat-n|gen-m|num-sg|pers-3|case-d|vib-0|tam-0|chunkId-NP9|chunkType-head|stype-|voicetype-	18	ccof	_	_
20	शामिल	शामिल	JJ	adj	lex-शामिल|cat-adj|gen-any|num-any|pers-|case-|vib-|tam-|chunkId-JJP2|chunkType-head|stype-|voicetype-	21	k1s	_	_
21	हैं	है	VM	v	lex-है|cat-v|gen-any|num-pl|pers-3|case-|vib-है|tam-hE|chunkId-VGF2|chunkType-head|stype-declarative|voicetype-active	8	nmod__relc	_	_
22	।	।	SYM	punc	lex-।|cat-punc|gen-|num-|pers-|case-|vib-|tam-|chunkId-BLK|chunkType-head|stype-|voicetype-	11	rsym	_	_

1	दौरे	दौरा	NN	n	lex-दौरा|cat-n|gen-m|num-sg|pers-3|case-o|vib-0_का|tam-0|chunkId-NP|chunkType-head|stype-|voicetype-	5	r6	_	_
2	के	का	PSP	psp	lex-का|cat-psp|gen-m|num-sg|pers-|case-o|vib-|tam-|chunkId-NP|chunkType-child|stype-|voicetype-	1	lwg__psp	_	_
3	लगभग	लगभग	RP	avy	lex-लगभग|cat-avy|gen-|num-|pers-|case-|vib-|tam-|chunkId-NP2|chunkType-child|stype-|voicetype-	5	lwg__rp	_	_
4	दो	दो	QC	num	lex-दो|cat-num|gen-any|num-any|pers-|case-any|vib-|tam-|chunkId-NP2|chunkType-child|stype-|voicetype-	5	nmod__adj	_	_
5	महीने	महीना	NN	n	lex-महीना|cat-n|gen-m|num-sg|pers-3|case-o|vib-0_के_बाद|tam-0|chunkId-NP2|chunkType-head|stype-|voicetype-	23	k7t	_	_
6	के	के	PSP	psp	lex-के|cat-psp|gen-|num-|pers-|case-|vib-|tam-|chunkId-NP2|chunkType-child|stype-|voicetype-	5	lwg__psp	_	_
7	बाद	बाद	NST	nst	lex-बाद|cat-nst|gen-m|num-sg|pers-3|case-d|vib-|tam-|chunkId-NP2|chunkType-child|stype-|voicetype-	5	lwg__psp	_	_
8	केंद्रीय	केंद्रीय	NNPC	adj	lex-केंद्रीय|cat-adj|gen-any|num-any|pers-|case-o|vib-|tam-|chunkId-NP3|chunkType-child|stype-|voicetype-	10	pof__cn	_	_
9	वन्य	वन्य	NNPC	n	lex-वन्य|cat-n|gen-m|num-sg|pers-3|case-d|vib-0|tam-0|chunkId-NP3|chunkType-child|stype-|voicetype-	10	pof__cn	_	_
10	प्राधिकरण	प्राधिकरण	NNP	n	lex-प्राधिकरण|cat-n|gen-m|num-sg|pers-3|case-o|vib-0_का|tam-0|chunkId-NP3|chunkType-head|stype-|voicetype-	12	r6	_	_
11	की	का	PSP	psp	lex-का|cat-psp|gen-f|num-sg|pers-|case-o|vib-|tam-|chunkId-NP3|chunkType-child|stype-|voicetype-	10	lwg__psp	_	_
12	टीम	टीम	NN	n	lex-टीम|cat-n|gen-f|num-sg|pers-3|case-o|vib-0_ने|tam-0|chunkId-NP4|chunkType-head|stype-|voicetype-	23	k1	_	_
13	ने	ने	PSP	psp	lex-ने|cat-psp|gen-|num-|pers-|case-|vib-|tam-|chunkId-NP4|chunkType-child|stype-|voicetype-	12	lwg__psp	_	_
14	नालागढ़	नालागढ़	NNP	n	lex-नालागढ़|cat-n|gen-m|num-sg|pers-3|case-o|vib-0_में|tam-0|chunkId-NP5|chunkType-head|stype-|voicetype-	20	k7p	_	_
15	में	में	PSP	psp	lex-में|cat-psp|gen-|num-|pers-|case-|vib-|tam-|chunkId-NP5|chunkType-child|stype-|voicetype-	14	lwg__psp	_	_
16	इस	यह	DEM	pn	lex-यह|cat-pn|gen-any|num-sg|pers-3|case-o|vib-|tam-|chunkId-NP6|chunkType-child|stype-|voicetype-	18	nmod__adj	_	_
17	प्रजनन	प्रजनन	NNC	n	lex-प्रजनन|cat-n|gen-m|num-sg|pers-3|case-d|vib-0|tam-0|chunkId-NP6|chunkType-child|stype-|voicetype-	18	pof__cn	_	_
18	केंद्र	केंद्र	NN	n	lex-केंद्र|cat-n|gen-m|num-sg|pers-3|case-o|vib-0_को|tam-0|chunkId-NP6|chunkType-head|stype-|voicetype-	20	k2	_	_
19	को	को	PSP	psp	lex-को|cat-psp|gen-|num-|pers-|case-|vib-|tam-|chunkId-NP6|chunkType-child|stype-|voicetype-	18	lwg__psp	_	_
20	बनाने	बना	VM	v	lex-बना|cat-v|gen-any|num-sg|pers-any|case-o|vib-ना_का|tam-nA|chunkId-VGNN|chunkType-head|stype-|voicetype-	22	r6-k2	_	_
21	की	का	PSP	psp	lex-का|cat-psp|gen-f|num-sg|pers-|case-d|vib-|tam-|chunkId-VGNN|chunkType-child|stype-|voicetype-	20	lwg__psp	_	_
22	मंजूरी	मंजूरी	NN	n	lex-मंजूरी|cat-n|gen-f|num-sg|pers-3|case-d|vib-0|tam-0|chunkId-NP7|chunkType-head|stype-|voicetype-	23	pof	_	_
23	दे	दे	VM	v	lex-दे|cat-v|gen-f|num-sg|pers-3|case-|vib-0_दे+या_है|tam-0|chunkId-VGF|chunkType-head|stype-declarative|voicetype-active	0	main	_	_
24	दी	दे	VAUX	v	lex-दे|cat-v|gen-f|num-sg|pers-any|case-|vib-या|tam-yA|chunkId-VGF|chunkType-child|stype-|voicetype-	23	lwg__vaux	_	_
25	है	है	VAUX	v	lex-है|cat-v|gen-any|num-sg|pers-3|case-|vib-है|tam-hE|chunkId-VGF|chunkType-child|stype-|voicetype-	23	lwg__vaux	_	_
26	।	।	SYM	punc	lex-।|cat-punc|gen-|num-|pers-|case-|vib-|tam-|chunkId-BLK|chunkType-head|stype-|voicetype-	23	rsym	_	_

1	साथ	साथ	NST	nst	lex-साथ|cat-nst|gen-m|num-sg|pers-3|case-d|vib-|tam-|chunkId-NP|chunkType-head|stype-|voicetype-	3	sent-adv	_	_
2	ही	ही	RP	avy	lex-ही|cat-avy|gen-|num-|pers-|case-|vib-|tam-|chunkId-NP|chunkType-child|stype-|voicetype-	1	lwg__rp	_	_
3	कहा	कह	VM	v	lex-कह|cat-v|gen-m|num-sg|pers-any|case-|vib-या|tam-yA|chunkId-VGF|chunkType-head|stype-declarative|voicetype-active	0	main	_	_
4	कि	कि	CC	avy	lex-कि|cat-avy|gen-|num-|pers-|case-|vib-|tam-|chunkId-CCP|chunkType-head|stype-|voicetype-	3	k2	_	_
5	इसी	यह	DEM	pn	lex-यह|cat-pn|gen-any|num-sg|pers-3|case-o|vib-|tam-|chunkId-NP2|chunkType-child|stype-|voicetype-	6	nmod__adj	_	_
6	वर्ष	वर्ष	NN	n	lex-वर्ष|cat-n|gen-m|num-sg|pers-3|case-d|vib-0|tam-0|chunkId-NP2|chunkType-head|stype-|voicetype-	16	k7t	_	_
7	हिमाचल	हिमाचल	NNP	n	lex-हिमाचल|cat-n|gen-m|num-sg|pers-3|case-o|vib-0_का|tam-0|chunkId-NP3|chunkType-head|stype-|voicetype-	10	r6	_	_
8	के	का	PSP	psp	lex-का|cat-psp|gen-m|num-pl|pers-|case-o|vib-|tam-|chunkId-NP3|chunkType-child|stype-|voicetype-	7	lwg__psp	_	_
9	कुछ	कुछ	QF	avy	lex-कुछ|cat-avy|gen-|num-|pers-|case-|vib-|tam-|chunkId-NP4|chunkType-child|stype-|voicetype-	10	nmod__adj	_	_
10	क्षेत्रों	क्षेत्र	NN	n	lex-क्षेत्र|cat-n|gen-m|num-pl|pers-3|case-o|vib-0_में|tam-0|chunkId-NP4|chunkType-head|stype-|voicetype-	16	k7p	_	_
11	में	में	PSP	psp	lex-में|cat-psp|gen-|num-|pers-|case-|vib-|tam-|chunkId-NP4|chunkType-child|stype-|voicetype-	10	lwg__psp	_	_
12	गिद्धों	गिद्ध	NN	n	lex-गिद्ध|cat-n|gen-m|num-pl|pers-3|case-o|vib-0_का|tam-0|chunkId-NP5|chunkType-head|stype-|voicetype-	14	r6	_	_
13	के	का	PSP	psp	lex-का|cat-psp|gen-m|num-pl|pers-|case-o|vib-|tam-|chunkId-NP5|chunkType-child|stype-|voicetype-	12	lwg__psp	_	_
14	समूहों	समूह	NN	n	lex-समूह|cat-n|gen-m|num-pl|pers-3|case-o|vib-0_को|tam-0|chunkId-NP6|chunkType-head|stype-|voicetype-	16	k2	_	_
15	को	को	PSP	psp	lex-को|cat-psp|gen-|num-|pers-|case-|vib-|tam-|chunkId-NP6|chunkType-child|stype-|voicetype-	14	lwg__psp	_	_
16	देखा	देख	VM	v	lex-देख|cat-v|gen-m|num-sg|pers-3|case-|vib-या_जा+या१_है|tam-yA|chunkId-VGF2|chunkType-head|stype-declarative|voicetype-passive	4	ccof	_	_
17	भी	भी	RP	avy	lex-भी|cat-avy|gen-|num-|pers-|case-|vib-|tam-|chunkId-VGF2|chunkType-child|stype-|voicetype-	16	lwg__rp	_	_
18	गया	जा	VAUX	v	lex-जा|cat-v|gen-m|num-sg|pers-any|case-|vib-या१|tam-yA1|chunkId-VGF2|chunkType-child|stype-|voicetype-	16	lwg__vaux	_	_
19	है	है	VAUX	v	lex-है|cat-v|gen-any|num-sg|pers-3|case-|vib-है|tam-hE|chunkId-VGF2|chunkType-child|stype-|voicetype-	16	lwg__vaux	_	_
20	।	।	SYM	punc	lex-।|cat-punc|gen-|num-|pers-|case-|vib-|tam-|chunkId-BLK|chunkType-head|stype-|voicetype-	3	rsym	_	_

1	जिससे	जो	PRP	pn	lex-जो|cat-pn|gen-any|num-sg|pers-3|case-o|vib-से|tam-se|chunkId-NP|chunkType-head|stype-|voicetype-	12	rh	_	_
2	इस	यह	DEM	pn	lex-यह|cat-pn|gen-any|num-sg|pers-3|case-o|vib-|tam-|chunkId-NP2|chunkType-child|stype-|voicetype-	3	nmod__adj	_	_
3	केंद्र	केंद्र	NN	n	lex-केंद्र|cat-n|gen-m|num-sg|pers-3|case-o|vib-0_का|tam-0|chunkId-NP2|chunkType-head|stype-|voicetype-	7	r6	_	_
4	की	का	PSP	psp	lex-का|cat-psp|gen-f|num-sg|pers-|case-o|vib-|tam-|chunkId-NP2|chunkType-child|stype-|voicetype-	3	lwg__psp	_	_
5	राज्य	राज्य	NN	n	lex-राज्य|cat-n|gen-m|num-sg|pers-3|case-o|vib-0_में|tam-0|chunkId-NP3|chunkType-head|stype-|voicetype-	12	k7p	_	_
6	में	में	PSP	psp	lex-में|cat-psp|gen-|num-|pers-|case-|vib-|tam-|chunkId-NP3|chunkType-child|stype-|voicetype-	5	lwg__psp	_	_
7	सफलता	सफलता	NN	n	lex-सफलता|cat-n|gen-f|num-sg|pers-3|case-o|vib-0_का|tam-0|chunkId-NP4|chunkType-head|stype-|voicetype-	9	r6	_	_
8	की	का	PSP	psp	lex-का|cat-psp|gen-f|num-sg|pers-|case-d|vib-|tam-|chunkId-NP4|chunkType-child|stype-|voicetype-	7	lwg__psp	_	_
9	संभावनाएं	संभावना	NN	n	lex-संभावना|cat-n|gen-f|num-pl|pers-3|case-d|vib-0|tam-0|chunkId-NP5|chunkType-head|stype-|voicetype-	12	k1	_	_
10	और	और	QF	avy	lex-और|cat-avy|gen-|num-|pers-|case-|vib-|tam-|chunkId-JJP|chunkType-head|stype-|voicetype-	12	vmod	_	_
11	भी	भी	RP	avy	lex-भी|cat-avy|gen-|num-|pers-|case-|vib-|tam-|chunkId-JJP|chunkType-child|stype-|voicetype-	10	lwg__rp	_	_
12	बढ़	बढ़	VM	v	lex-बढ़|cat-v|gen-f|num-pl|pers-3|case-|vib-0_जा+ता_है|tam-0|chunkId-VGF|chunkType-head|stype-declarative|voicetype-active	0	main	_	_
13	जाती	जा	VAUX	v	lex-जा|cat-v|gen-f|num-pl|pers-any|case-|vib-ता|tam-wA|chunkId-VGF|chunkType-child|stype-|voicetype-	12	lwg__vaux	_	_
14	हैं	है	VAUX	v	lex-है|cat-v|gen-any|num-pl|pers-3|case-|vib-है|tam-hE|chunkId-VGF|chunkType-child|stype-|voicetype-	12	lwg__vaux	_	_
15	।	।	SYM	punc	lex-।|cat-punc|gen-|num-|pers-|case-|vib-|tam-|chunkId-BLK|chunkType-head|stype-|voicetype-	12	rsym	_	_

1	उन्होंने	वह	PRP	pn	lex-वह|cat-pn|gen-any|num-sg|pers-3h|case-o|vib-ने|tam-ne|chunkId-NP|chunkType-head|stype-|voicetype-	2	k1	_	_
2	कहा	कह	VM	v	lex-कह|cat-v|gen-m|num-sg|pers-any|case-|vib-या|tam-yA|chunkId-VGF|chunkType-head|stype-declarative|voicetype-active	0	main	_	_
3	कि	कि	CC	avy	lex-कि|cat-avy|gen-|num-|pers-|case-|vib-|tam-|chunkId-CCP|chunkType-head|stype-|voicetype-	2	k2	_	_
4	अभी	अभी	PRP	pn	lex-अभी|cat-pn|gen-|num-|pers-|case-d|vib-|tam-|chunkId-NP2|chunkType-head|stype-|voicetype-	15	k7t	_	_
5	फिलहाल	फिलहाल	RB	adv	lex-फिलहाल|cat-adv|gen-|num-|pers-|case-|vib-|tam-|chunkId-RBP|chunkType-head|stype-|voicetype-	15	vmod	_	_
6	इस	यह	DEM	pn	lex-यह|cat-pn|gen-any|num-sg|pers-3|case-o|vib-|tam-|chunkId-NP3|chunkType-child|stype-|voicetype-	8	nmod__adj	_	_
7	प्रजनन	प्रजनन	NNC	n	lex-प्रजनन|cat-n|gen-m|num-sg|pers-3|case-d|vib-0|tam-0|chunkId-NP3|chunkType-child|stype-|voicetype-	8	pof__cn	_	_
8	केंद्र	केंद्र	NN	n	lex-केंद्र|cat-n|gen-m|num-sg|pers-3|case-o|vib-0_को|tam-0|chunkId-NP3|chunkType-head|stype-|voicetype-	10	k1	_	_
9	को	को	PSP	psp	lex-को|cat-psp|gen-|num-|pers-|case-|vib-|tam-|chunkId-NP3|chunkType-child|stype-|voicetype-	8	lwg__psp	_	_
10	बनने	बन	VM	v	lex-बन|cat-v|gen-any|num-any|pers-any|case-o|vib-ना_के_लिए|tam-nA|chunkId-VGNN|chunkType-head|stype-|voicetype-	15	rt	_	_
11	के	के	PSP	psp	lex-के|cat-psp|gen-|num-|pers-|case-|vib-|tam-|chunkId-VGNN|chunkType-child|stype-|voicetype-	10	lwg__psp	_	_
12	लिए	लिए	PSP	psp	lex-लिए|cat-psp|gen-|num-|pers-|case-|vib-|tam-|chunkId-VGNN|chunkType-child|stype-|voicetype-	10	lwg__psp	_	_
13	काफी	काफी	QF	avy	lex-काफी|cat-avy|gen-|num-|pers-|case-|vib-|tam-|chunkId-NP4|chunkType-child|stype-|voicetype-	14	nmod__adj	_	_
14	समय	समय	NN	n	lex-समय|cat-n|gen-m|num-sg|pers-3|case-d|vib-0|tam-0|chunkId-NP4|chunkType-head|stype-|voicetype-	15	k1	_	_
15	लगेगा	लग	VM	v	lex-लग|cat-v|gen-m|num-sg|pers-3|case-|vib-गा|tam-gA|chunkId-VGF2|chunkType-head|stype-declarative|voicetype-active	17	ccof	_	_
16	,	COMMA	SYM	punc	lex-COMMA|cat-punc|gen-|num-|pers-|case-|vib-|tam-|chunkId-VGF2|chunkType-child|stype-|voicetype-	15	rsym	_	_
17	परंतु	परंतु	CC	avy	lex-परंतु|cat-avy|gen-|num-|pers-|case-|vib-|tam-|chunkId-CCP2|chunkType-head|stype-|voicetype-	3	ccof	_	_
18	विंग	विंग	NNP	n	lex-विंग|cat-n|gen-m|num-sg|pers-3|case-o|vib-0_का_ओर_से|tam-0|chunkId-NP5|chunkType-head|stype-|voicetype-	32	rd	_	_
19	की	का	PSP	psp	lex-का|cat-psp|gen-f|num-sg|pers-|case-o|vib-|tam-|chunkId-NP5|chunkType-child|stype-|voicetype-	18	lwg__psp	_	_
20	ओर	ओर	NST	nst	lex-ओर|cat-nst|gen-f|num-sg|pers-3|case-o|vib-|tam-|chunkId-NP5|chunkType-child|stype-|voicetype-	18	lwg__psp	_	_
21	से	से	PSP	psp	lex-से|cat-psp|gen-|num-|pers-|case-|vib-|tam-|chunkId-NP5|chunkType-child|stype-|voicetype-	18	lwg__psp	_	_
22	गिद्ध	गिद्ध	NNPC	n	lex-गिद्ध|cat-n|gen-m|num-sg|pers-3|case-d|vib-0|tam-0|chunkId-NP6|chunkType-child|stype-|voicetype-	24	pof__cn	_	_
23	प्रजनन	प्रजनन	NNPC	n	lex-प्रजनन|cat-n|gen-m|num-sg|pers-3|case-d|vib-0|tam-0|chunkId-NP6|chunkType-child|stype-|voicetype-	24	pof__cn	_	_
24	केंद्र	केंद्र	NNP	n	lex-केंद्र|cat-n|gen-m|num-sg|pers-3|case-o|vib-0_को|tam-0|chunkId-NP6|chunkType-head|stype-|voicetype-	26	k2	_	_
25	को	को	PSP	psp	lex-को|cat-psp|gen-|num-|pers-|case-|vib-|tam-|chunkId-NP6|chunkType-child|stype-|voicetype-	24	lwg__psp	_	_
26	बनाए	बना	VM	v	lex-बना|cat-v|gen-m|num-sg|pers-any|case-|vib-या_जा+ना_के_लिए|tam-yA|chunkId-VGNN2|chunkType-head|stype-|voicetype-	32	rt	_	_
27	जाने	जा	VAUX	v	lex-जा|cat-v|gen-any|num-any|pers-any|case-o|vib-ना|tam-nA|chunkId-VGNN2|chunkType-child|stype-|voicetype-	26	lwg__vaux	_	_
28	के	के	PSP	psp	lex-के|cat-psp|gen-|num-|pers-|case-|vib-|tam-|chunkId-VGNN2|chunkType-child|stype-|voicetype-	26	lwg__psp	_	_
29	लिए	लिए	PSP	psp	lex-लिए|cat-psp|gen-|num-|pers-|case-|vib-|tam-|chunkId-VGNN2|chunkType-child|stype-|voicetype-	26	lwg__psp	_	_
30	प्रोजेक्ट	प्रोजेक्ट	NN	n	lex-प्रोजेक्ट|cat-n|gen-m|num-sg|pers-3|case-d|vib-0|tam-0|chunkId-NP7|chunkType-head|stype-|voicetype-	32	k2	_	_
31	तैयार	तैयार	JJ	adj	lex-तैयार|cat-adj|gen-any|num-any|pers-|case-|vib-|tam-|chunkId-JJP|chunkType-head|stype-|voicetype-	32	pof	_	_
32	किया	कर	VM	v	lex-कर|cat-v|gen-m|num-sg|pers-3|case-|vib-या_जा_रह+या_है|tam-yA|chunkId-VGF3|chunkType-head|stype-declarative|voicetype-passive	17	ccof	_	_
33	जा	जा	VAUX	v	lex-जा|cat-v|gen-any|num-any|pers-any|case-|vib-0|tam-0|chunkId-VGF3|chunkType-child|stype-|voicetype-	32	lwg__vaux	_	_
34	रहा	रह	VAUX	v	lex-रह|cat-v|gen-m|num-sg|pers-any|case-|vib-या|tam-yA|chunkId-VGF3|chunkType-child|stype-|voicetype-	32	lwg__vaux	_	_
35	है	है	VAUX	v	lex-है|cat-v|gen-any|num-sg|pers-3|case-|vib-है|tam-hE|chunkId-VGF3|chunkType-child|stype-|voicetype-	32	lwg__vaux	_	_
36	।	।	SYM	punc	lex-।|cat-punc|gen-|num-|pers-|case-|vib-|tam-|chunkId-BLK|chunkType-head|stype-|voicetype-	2	rsym	_	_

