<Sentence id='1'>
1	((	NP	<fs name='NP' drel='r6:NP2'>
1.1	kAMgresa	NNP	<fs af='kAMgresa,n,f,sg,3,o,0,0' name='kAMgresa' posn='10'>
1.2	ke	PSP	<fs af='kA,psp,m,sg,,o,,' name='ke' posn='20'>
	))
2	((	NP	<fs name='NP2' drel='k2:VGNF'>
2.1	ruKa	NN	<fs af='ruKa,n,m,sg,3,o,0,0' name='ruKa' posn='30'>
2.2	ko	PSP	<fs af='ko,psp,,,,,,' name='ko' posn='40'>
	))
3	((	VGNF	<fs name='VGNF' drel='vmod:VGF'>
3.1	BAMpawe	VM	<fs af='BAMpa,v,m,sg,any,,wA,WA' name='BAMpawe' posn='50'>
3.2	hue	VAUX	<fs af='ho,v,m,sg,any,,yA,yA' name='hue' posn='60'>
	))
4	((	NP	<fs name='NP3' drel='k1:VGF'>
4.1	muKyamaMwrI	NNP	<fs af='muKyamaMwrI,n,m,sg,3,d,0,0' name='muKyamaMwrI' posn='70'>
4.2	mulAyama	NNPC	<fs af='mulAyama,n,m,sg,3,d,0,0' name='mulAyama' posn='80'>
4.3	siMha	NNPC	<fs af='siMha,n,m,sg,3,d,0,0' name='siMha' posn='90'>
4.4	yAxava	NNP	<fs af='yAxava,n,any,sg,3,o,0,0' name='yAxava' posn='100'>
4.5	ne	PSP	<fs af='ne,psp,,,,,,' name='ne' posn='110'>
4.6	BI	RP	<fs af='BI,avy,,,,,,' name='BI' posn='120'>
	))
5	((	NP	<fs name='NP4' drel='r6:NP5'>
5.1	apane	PRP	<fs af='apanA,pn,m,any,any,d,0,0' name='apane' posn='130'>
	))
6	((	NP	<fs name='NP5' drel='k2:VGF'>
6.1	wevara	NN	<fs af='wevara,n,m,pl,3,d,0,0' name='wevara' posn='140'>
	))
7	((	JJP	<fs name='JJP' drel='pof:VGF'>
7.1	saKwa	JJ	<fs af='saKwa,adj,any,any,,,,' name='saKwa' posn='150'>
	))
8	((	VGF	<fs name='VGF' stype='declarative' voicetype='active'>
8.1	kara	VM	<fs af='kara,v,any,any,any,,0,0' name='kara' posn='160'>
8.2	lie	VAUX	<fs af='le,v,m,pl,any,,yA,yA' name='lie' posn='170'>
8.3	hEM	VAUX	<fs af='hE,v,any,pl,3,,hE,hE' name='hEM' posn='180'>
	))
9	((	BLK	<fs name='BLK' drel='rsym:VGF'>
9.1	.	SYM	<fs af='.,punc,,,,,,' name='.' posn='190'>
	))
</Sentence>

<Sentence id='2'>
1	((	NP	<fs name='NP' drel='k7t:VGF'>
1.1	kala	NN	<fs af='kala,n,m,sg,3,d,0,0' name='kala' posn='10'>
	))
2	((	NP	<fs name='NP2' drel='k7p:VGF'>
2.1	ameTI	NNP	<fs af='ameTI,n,m,sg,3,o,0,0' name='ameTI' posn='20'>
2.2	meM	PSP	<fs af='meM,psp,,,,,,' name='meM' posn='30'>
	))
3	((	NP	<fs name='NP3' drel='r6:NP4'>
3.1	rAhula	NNPC	<fs af='rAhula,n,m,sg,3,d,0,0' name='rAhula' posn='40'>
3.2	gAMXI	NNP	<fs af='gAMXI,n,any,sg,3,o,0,0' name='gAMXI' posn='50'>
3.3	kI	PSP	<fs af='kA,psp,f,sg,,o,,' name='kI' posn='60'>
	))
4	((	NP	<fs name='NP4' drel='r6:NP5'>
4.1	praxeSa	NN	<fs af='praxeSa,n,m,sg,3,o,0,0' name='praxeSa' posn='70'>
4.2	kI	PSP	<fs af='kA,psp,f,sg,,o,,' name='kI2' posn='80'>
	))
5	((	NP	<fs name='NP5' drel='nmod:NP6'>
5.1	kAnUna	NNC	<fs af='kAnUna,n,m,sg,3,d,0,0' name='kAnUna' posn='90'>
5.2	-	SYM	<fs af='-,punc,,,,,,' name='-' posn='100'>
5.3	vyavasWA	NN	<fs af='vyavasWA,n,f,sg,3,o,0,0' name='vyavasWA' posn='110'>
5.4	para	PSP	<fs af='para,psp,,,,,,' name='para' posn='120'>
	))
6	((	NP	<fs name='NP6' drel='k7:VGF'>
6.1	walKa	JJ	<fs af='walKa,adj,any,any,,o,,' name='walKa' posn='130'>
6.2	tiWI	NN	<fs af='tiWI,n,f,sg,3,o,0,0' name='tiWI' posn='140'>
6.3	para	PSP	<fs af='para,psp,,,,,,' name='para2' posn='150'>
	))
7	((	NP	<fs name='NP7' drel='k1:VGF'>
7.1	unhoMne	PRP	<fs af='vaha,pn,any,sg,3h,o,ne,ne' name='unhoMne' posn='160'>
	))
8	((	NP	<fs name='NP8' drel='adv:VGF'>
8.1	sIXe	JJ	<fs af='sIXA,adj,m,sg,,o,,' name='sIXe' posn='170'>
8.2	wOra	NN	<fs af='wOra,n,m,sg,3,o,0,0' name='wOra' posn='180'>
8.3	para	PSP	<fs af='para,psp,,,,,,' name='para3' posn='190'>
8.4	wo	RP	<fs af='wo,avy,,,,,,' name='wo' posn='200'>
	))
9	((	NP	<fs name='NP9' drel='k2:VGNN'>
9.1	kuCa	PRP	<fs af='kuCa,pn,any,any,3,d,0,0' name='kuCa' posn='110'>
9.2	BI	RP	<fs af='BI,avy,,,,,,' name='BI' posn='220'>
	))
10	((	VGNN	<fs name='VGNN' drel='k2:VGF'>
10.1	kahane	VM	<fs af='kaha,v,any,any,any,o,nA,nA' name='kahane' posn='230'>
10.2	se	PSP	<fs af='se,psp,,,,,,' name='se' posn='240'>
	))
11	((	NP	<fs name='NP10' drel='pof:VGF'>
11.1	inakAra	NN	<fs af='inakAra,n,m,sg,3,d,0,0' name='inakAra' posn='250'>
	))
12	((	VGF	<fs drel='ccof:CCP' name='VGF' stype='declarative' voicetype=active'>
12.1	kara	VM	<fs af='kara,v,any,any,any,,0,0' name='kara' posn='260'>
12.2	xiyA	VAUX	<fs af='xe,v,m,sg,any,,yA,yA' name='xiyA' posn='270'>
	))
13	((	CCP	<fs name='CCP'>
13.1	lekina	CC	<fs af='lekina,avy,,,,,,' name='lekina' posn='280'>
	))
14	((	NP	<fs name='NP11' drel='k2:VGF2'>
14.1	yaha	PRP	<fs af='yaha,pn,any,sg,3,d,0,0' name='yaha' posn='290'>
	))
15	((	RBP	<fs name='RBP' drel='adv:VGF2'>
15.1	jarUra	RB	<fs af='jarUra,adv,,,,,,' name='jarUra' posn='300'>
	))
16	((	VGF	<fs drel='ccof:CCP' name='VGF2' stype='declarative' voicetype=active'>
16.1	kahA	VM	<fs af='kaha,v,m,sg,any,,yA,yA' name='kahA' posn='310'>
	))
17	((	CCP	<fs name='CCP2' drel='k2s:VGF2'>
17.1	ki	CC	<fs af='ki,avy,,,,,,' name='ki' posn='320'>
	))
18	((	NP	<fs name='NP12' drel='r6v:VGF3'>
18.1	unakI	PRP	<fs af='vaha,pn,any,sg,3h,o,kA,kA' name='unakI' posn='330'>
	))
19	((	NP	<fs name='NP13' drel='k1:VGF3'>
19.1	umra	NN	<fs af='umra,n,f,sg,3,d,0,0' name='umra' posn='340'>
	))
20	((	NP	<fs name='NP14' drel='k7t:VGNN2'>
20.1	aBI	PRP	<fs af='aBI,pn,,,,d,,' name='aBI' posn='350'>
	))
21	((	VGNN	<fs name='VGNN2' drel='r6:NP13'>
21.1	Kelane	VMC	<fs af='Kela,v,any,any,any,o,nA,nA' name='Kelane' posn='360'>
21.2	kUxane	VM	<fs af='kUxa,v,any,any,any,o,nA,nA' name='kUxane' posn='370'>
21.3	kI	PSP	<fs af='kA,psp,f,sg,,,,' name='kI3' posn='380'>
	))
22	((	VGF	<fs drel='ccof:CCP2' name='VGF3' stype='declarative' voicetype=active'>
22.1	hE	VM	<fs af='hE,v,any,sg,3,,hE,hE' name='hE' posn='390'>
22.2	,	SYM	<fs af='COMMA,punc,,,,,,' name=',' posn='400'>
	))
23	((	NP	<fs coref=':NP14' name='NP15' drel='k7:VGF4'>
23.1	Ese	PRP	<fs af='EsA,pn,m,sg,any,o,0,0' name='Ese' posn='410'>
23.2	meM	PSP	<fs af='meM,psp,,,,,,' name='meM2' posn='420'>
	))
24	((	NP	<fs name='NP16' drel='r6:NP17'>
24.1	unakI	PRP	<fs af='vaha,pn,any,sg,3h,o,kA,kA' name='unakI2' posn='430'>
	))
25	((	NP	<fs name='NP17' drel='k1:VGF4'>
25.1	bAwoM	NN	<fs af='bAwa,n,f,pl,3,o,0,0' name='bAwoM' posn='440'>
25.2	ko	PSP	<fs af='ko,psp,,,,,,' name='ko' posn='450'>
	))
26	((	NP	<fs name='NP18' drel='adv:VGF4'>
26.1	gaMBIrawA	NN	<fs af='gaMBIrawA,n,f,sg,3,o,0,0' name='gaMBIrawA' posn='460'>
26.2	se	PSP	<fs af='se,psp,,,,,,' name='se2' posn='470'>
	))
27	((	VGF	<fs drel='nmod__relc:NP14' name='VGF4' stype='declarative' voicetype=active'>
27.1	nahIM	NEG	<fs af='nahIM,avy,,,,,,' name='nahIM' posn='480'>
27.2	liyA	VM	<fs af='le,v,m,sg,any,,yA,yA' name='liyA' posn='490'>
27.3	jAnA	VAUX	<fs af='jA,v,m,sg,any,,nA,nA' name='jAnA' posn='500'>
27.4	cAhie	VAUX	<fs af='cAhie,v,any,any,any,,0,0' name='cAhie' posn='510'>
	))
28	((	BLK	<fs name='BLK' drel='rsym:CCP'>
28.1	.	SYM	<fs af='.,punc,,,,,,' name='.' posn='520'>
	))
</Sentence>

<Sentence id='3'>
1	((	CCP	<fs name='CCP'>
1.1	hAlAMki	CC	<fs af='hAlAMki,avy,,,,,,' name='hAlAMki' posn='10'>
1.2	,	SYM	<fs af='COMMA,punc,,,,,,' name=',' posn='20'>
	))
2	((	NP	<fs name='NP' drel='k1:VGF'>
2.1	yAxava	NNP	<fs af='yAxava,n,any,sg,3,d,0,0' name='yAxava' posn='30'>
	))
3	((	NP	<fs name='NP2' drel='k2:VGNN'>
3.1	yaha	PRP	<fs af='yaha,pn,any,sg,3,d,0,0' name='yaha' posn='40'>
	))
4	((	VGNN	<fs name='VGNN' drel='vmod:VGF'>
4.1	kahane	VM	<fs af='kaha,v,any,any,any,o,nA,nA' name='kahane' posn='50'>
4.2	se	PSP	<fs af='se,psp,,,,,,' name='se' posn='60'>
	))
5	((	VGF	<fs drel='ccof:CCP' name='VGF' stype='declarative' voicetype=active'>
5.1	nahIM	NEG	<fs af='nahIM,avy,,,,,,' name='nahIM' posn='70'>
5.2	cUke	VM	<fs af='cUka,v,m,sg,3h,,yA,yA' name='cUke' posn='80'>
	))
6	((	CCP	<fs name='CCP2' drel='k2:VGF'>
6.1	ki	CC	<fs af='ki,avy,,,,,,' name='ki' posn='90'>
	))
7	((	NP	<fs name='NP3' drel='k1:VGF2'>
7.1	vaha	PRP	<fs af='vaha,pn,any,sg,3,d,0,0' name='vaha' posn='100'>
	))
8	((	NP	<fs name='NP4' drel='ras-k1:VGF2'>
8.1	isI	DEM	<fs af='yaha,pn,any,sg,3,o,,' name='isI' posn='110'>
8.2	kAMgresa	NNP	<fs af='kAMgresa,n,f,sg,3,o,0,0' name='kAMgresa' posn='120'>
8.3	se	PSP	<fs af='se,psp,,,,,,' name='se2' posn='130'>
	))
9	((	NP	<fs name='NP5' drel='k2:VGF2'>
9.1	kAPI	QF	<fs af='kAPI,avy,,,,,,' name='kAPI' posn='140'>
9.2	laMbI	JJ	<fs af='laMbA,adj,f,sg,,d,,' name='laMbI' posn='150'>
9.3	ladZAI	NN	<fs af='ladAI,n,f,sg,3,d,0,0' name='ladZAI' posn='160'>
	))
10	((	VGF	<fs drel='ccof:CCP3' name='VGF2' stype='declarative' voicetype=active'>
10.1	ladZa	VM	<fs af='lada,v,any,any,any,,0,0' name='ladZa' posn='170'>
10.2	cuke	VAUX	<fs af='cuka,v,m,sg,3h,,yA,yA' name='cuke' posn='180'>
10.3	hEM	VAUX	<fs af='hE,v,any,sg,3h,,hE,hE' name='hEM' posn='190'>
	))
11	((	CCP	<fs name='CCP3' drel='ccof:CCP2'>
11.1	Ora	CC	<fs af='Ora,avy,,,,,,' name='Ora' posn='200'>
	))
12	((	NP	<fs name='NP6' drel='k7t:VGF3'>
12.1	saMGarRa	NN	<fs af='saMGarRa,n,m,sg,3,o,0,0' name='saMGarRa' posn='210'>
12.2	ke	PSP	<fs af='ke,psp,,,,,,' name='ke' posn='220'>
12.3	xOrAna	NST	<fs af='xOrAna,nst,m,sg,3,d,,' name='xOrAna' posn='230'>
	))
13	((	NP	<fs name='NP7' drel='k1:VGF3'>
13.1	unheM	PRP	<fs af='vaha,pn,any,sg,3h,o,ko,ko' name='unheM' posn='240'>
	))
14	((	NP	<fs name='NP8' drel='k2p:VGF3'>
14.1	jela	NN	<fs af='jela,n,m,sg,3,d,0,0' name='jela' posn='250'>
14.2	BI	RP	<fs af='BI,avy,,,,,,' name='BI' posn='260'>
	))
15	((	VGF	<fs drel='ccof:CCP3' name='VGF3' stype='declarative' voicetype=active'>
15.1	jAnA	VM	<fs af='jA,v,m,sg,any,,nA,nA' name='jAnA' posn='270'>
15.2	padZA	VAUX	<fs af='pada,v,m,sg,any,,yA,yA' name='padZA' posn='280'>
15.3	WA	VAUX	<fs af='WA,v,m,sg,any,,WA,WA' name='WA' posn='290'>
	))
16	((	BLK	<fs name='BLK' drel='rsym:CCP'>
16.1	.	SYM	<fs af='.,punc,,,,,,' name='.' posn='300'>
	))
</Sentence>

<Sentence id='4'>
1	((	NP	<fs name='NP' drel='r6:NP2'>
1.1	praxeSa	NN	<fs af='praxeSa,n,m,sg,3,o,0,0' name='praxeSa' posn='10'>
1.2	ke	PSP	<fs af='kA,psp,m,sg,,o,,' name='ke' posn='20'>
	))
2	((	NP	<fs name='NP2' drel='nmod:NP3'>
2.1	KAxI	NNPC	<fs af='KAxI,n,f,sg,3,d,0,0' name='KAxI' posn='30'>
2.2	grAmoxyoga	NNPC	<fs af='grAmoxyoga,n,m,sg,3,d,0,0' name='grAmoxyoga' posn='40'>
2.3	maMwrI	NNP	<fs af='maMwrI,n,m,sg,3,o,0,0' name='maMwrI' posn='50'>
	))
3	((	NP	<fs name='NP3' drel='r6:NP4'>
3.1	rAjArAma	NNPC	<fs af='rAjArAma,n,m,sg,3,d,0,0' name='rAjArAma' posn='60'>
3.2	pAMdeya	NNP	<fs af='pAMdeya,n,any,sg,3,o,0,0' name='pAMdeya' posn='70'>
3.3	kI	PSP	<fs af='kA,psp,f,sg,,o,,' name='kI' posn='80'>
	))
4	((	NP	<fs name='NP4' drel='r6:NP5'>
4.1	mAM	NN	<fs af='mAz,n,f,sg,3,o,0,0' name='mAM' posn='90'>
4.2	kI	PSP	<fs af='kA,psp,f,sg,,o,,' name='kI2' posn='100'>
	))
5	((	NP	<fs name='NP5' drel='k7:VGNF'>
5.1	werahavIM	NN	<fs af='werahavAz,n,f,sg,3,o,0,0' name='werahavIM' posn='110'>
5.2	para	PSP	<fs af='para,psp,,,,,,' name='para' posn='120'>
	))
6	((	NP	<fs name='NP6' drel='k7t:VGNF'>
6.1	Aja	NN	<fs af='Aja,n,m,sg,3,d,0,0' name='Aja' posn='130'>
	))
7	((	NP	<fs name='NP7' drel='k7p:VGNF'>
7.1	yahAM	PRP	<fs af='yahAz,pn,,,,d,,' name='yahAM' posn='140'>
	))
8	((	VGNF	<fs name='VGNF' drel='nmod:NP8'>
8.1	pahuMce	VM	<fs af='pahuMca,v,m,sg,3h,,yA,yA' name='pahuMce' posn='150'>
	))
9	((	NP	<fs name='NP8' drel='k2:VGF'>
9.1	muKyamaMwrI	NNP	<fs af='muKyamaMwrI,n,m,sg,3,o,0,0' name='muKyamaMwrI' posn='160'>
9.2	ko	PSP	<fs af='ko,psp,,,,,,' name='ko' posn='170'>
	))
10	((	NP	<fs coref=':NP15' name='NP9' drel='k7t:VGF'>
10.1	jaba	PRP	<fs af='jaba,pn,,,,d,,' name='jaba' posn='180'>
	))
11	((	NP	<fs name='NP10' drel='k1:VGF'>
11.1	aKabAravAloM	NN	<fs af='aKabAravAlA,n,m,pl,3,o,0,0' name='aKabAravAloM' posn='190'>
11.2	ne	PSP	<fs af='ne,psp,,,,,,' name='ne' posn='200'>
	))
12	((	VGF	<fs drel='nmod__relc:NP15' name='VGF' stype='declarative' voicetype=active'>
12.1	GerA	VM	<fs af='Gera,v,m,sg,any,,yA,yA' name='GerA' posn='210'>
	))
13	((	CCP	<fs name='CCP'>
13.1	Ora	CC	<fs af='Ora,avy,,,,,,' name='Ora' posn='220'>
	))
14	((	NP	<fs name='NP11' drel='k2:VGF2'>
14.1	unheM	PRP	<fs af='vaha,pn,any,sg,3h,o,ko,ko' name='unheM' posn='230'>
	))
15	((	NP	<fs name='NP12' drel='r6:NP13'>
15.1	rAhula	NNPC	<fs af='rAhula,n,m,sg,3,d,0,0' name='rAhula' posn='240'>
15.2	gAMXI	NNP	<fs af='gAMXI,n,any,sg,3,o,0,0' name='gAMXI' posn='250'>
15.3	kI	PSP	<fs af='kA,psp,f,sg,,o,,' name='kI3' posn='260'>
	))
16	((	NP	<fs name='NP13' drel='r6-k1:NP14'>
16.1	tiWI	NN	<fs af='tiWI,n,f,sg,3,o,0,0' name='tiWI' posn='270'>
16.2	kI	PSP	<fs af='kA,psp,f,sg,,d,,' name='kI4' posn='280'>
	))
17	((	NP	<fs name='NP14' drel='pof:VGF2'>
17.1	yAxa	NN	<fs af='yAxa,n,f,sg,3,d,0,0' name='yAxa' posn='290'>
	))
18	((	VGF	<fs drel='ccof:CCP' name='VGF2' stype='declarative' voicetype=active'>
18.1	xilAI	VM	<fs af='xilA,v,f,sg,any,,yA,yA' name='xilAI' posn='300'>
	))
19	((	NP	<fs name='NP15' drel='k7t:VGF3'>
19.1	wo	PRP	<fs af='wo,pn,,,,,,' name='wo' posn='310'>
	))
20	((	NP	<fs name='NP16' drel='k1:VGF3'>
20.1	unhoMne	PRP	<fs af='vaha,pn,any,sg,3h,o,ne,ne' name='unhoMne' posn='320'>
	))
21	((	NP	<fs name='NP17' drel='r6:NP18'>
21.1	unakI	PRP	<fs af='vaha,pn,f,sg,3h,o,kA,kA' name='unakI' posn='330'>
	))
22	((	NP	<fs name='NP18' drel='k2:VGNN'>
22.1	bAwoM	NN	<fs af='bAwa,n,f,pl,3,o,0,0' name='bAwoM' posn='340'>
22.2	ko	PSP	<fs af='ko,psp,,,,,,' name='ko2' posn='350'>
	))
23	((	NP	<fs name='NP19' drel='adv:VGNN'>
23.1	gaMBIrawA	NN	<fs af='gaMBIrawA,n,f,sg,3,o,0,0' name='gaMBIrawA' posn='360'>
23.2	se	PSP	<fs af='se,psp,,,,,,' name='se' posn='370'>
	))
24	((	VGNN	<fs name='VGNN' drel='vmod:VGNF2'>
24.1	lene	VM	<fs af='le,v,any,any,any,o,nA,nA' name='lene' posn='380'>
24.2	se	PSP	<fs af='se,psp,,,,,,' name='se2' posn='390'>
	))
25	((	NP	<fs name='NP20' drel='pof:VGNF2'>
25.1	inkAra	NN	<fs af='inkAra,n,m,sg,3,d,0,0' name='inkAra' posn='400'>
	))
26	((	VGNF	<fs name='VGNF2' drel='vmod:VGF3'>
26.1	karawe	VM	<fs af='kara,v,m,sg,any,,wA,wA' name='karawe' posn='410'>
26.2	hue	VAUX	<fs af='ho,v,m,sg,any,,yA,yA' name='hue' posn='420'>
	))
27	((	VGF	<fs voicetype='active' drel='ccof:CCP' stype='declarative' name='VGF3'>
27.1	kahA	VM	<fs af='kaha,v,m,sg,any,,yA,yA' name='kahA' posn='430'>
	))
28	((	CCP	<fs name='CCP2' drel='k2:VGF3'>
28.1	ki	CC	<fs af='ki,avy,,,,,,' name='ki' posn='440'>
	))
29	((	VGNN	<fs name='VGNN2' drel='r6:NP21'>
29.1	Kelane	VMC	<fs af='Kela,v,any,any,any,o,nA,nA' name='Kelane' posn='450'>
29.2	kUxane	VM	<fs af='kUxa,v,any,any,any,o,nA,nA' name='kUxane' posn='460'>
29.3	kI	PSP	<fs af='kA,psp,f,sg,,o,,' name='kI5' posn='470'>
	))
30	((	NP	<fs name='NP21' drel='r6:NP22'>
30.1	umra	NN	<fs af='umra,n,f,sg,3,o,0,0' name='umra' posn='480'>
30.2	ke	PSP	<fs af='kA,psp,m,pl,,o,,' name='ke2' posn='490'>
	))
31	((	NP	<fs name='NP22' drel='r6:NP23'>
31.1	yuvakoM	NN	<fs af='yuvaka,n,m,pl,3,o,0,0' name='yuvakoM' posn='500'>
31.2	kI	PSP	<fs af='kI,psp,f,sg,,o,,' name='kI6' posn='510'>
	))
32	((	NP	<fs name='NP23' drel='k7:VGF4'>
32.1	bAwa	NN	<fs af='bAwa,n,f,sg,3,o,0,0' name='bAwa' posn='520'>
32.2	para	PSP	<fs af='para,psp,,,,,,' name='para2' posn='530'>
	))
33	((	NP	<fs name='NP24' drel='k1:VGF4'>
33.1	vaha	PRP	<fs af='vaha,pn,any,sg,3,d,0,0' name='vaha' posn='540'>
	))
34	((	NP	<fs name='NP25' drel='k2:VGF4'>
34.1	kuCa	PRP	<fs af='kuCa,pn,any,any,3,d,0,0' name='kuCa' posn='110'>
	))
35	((	VGF	<fs drel='ccof:CCP2' name='VGF4' stype='declarative' voicetype=active'>
35.1	kaheM	VM	<fs af='kaha,v,any,sg,3h,,eM,eM' name='kaheM' posn='560'>
35.2	,	SYM	<fs af='COMMA,punc,,,,,,' name=',' posn='570'>
	))
36	((	JJP	<fs name='JJP' drel='k2:VGF5'>
36.1	TIka	JJ	<fs af='TIka,adj,any,any,,,,' name='TIka' posn='580'>
	))
37	((	VGF	<fs drel='vmod:VGF4' name='VGF5' stype='declarative' voicetype=active'>
37.1	nahIM	NEG	<fs af='nahIM,avy,,,,,,' name='nahIM' posn='590'>
37.2	hE	VM	<fs af='hE,v,any,sg,3,,hE,hE' name='hE' posn='600'>
	))
38	((	BLK	<fs name='BLK' drel='rsym:CCP'>
38.1	.	SYM	<fs af='.,punc,,,,,,' name='.' posn='610'>
	))
</Sentence>

<Sentence id='5'>
1	((	NP	<fs name='NP' drel='k1:VGNN'>
1.1	kAMgresa	NNP	<fs af='kAMgresa,n,f,sg,3,o,0,0' name='kAMgresa' posn='10'>
1.2	xvArA	PSP	<fs af='xvArA,psp,,,,,,' name='xvArA' posn='20'>
	))
2	((	NP	<fs name='NP2' drel='r6:NP3'>
2.1	praxeSa	NN	<fs af='praxeSa,n,m,sg,3,o,0,0' name='praxeSa' posn='30'>
2.2	kI	PSP	<fs af='kA,psp,f,sg,,o,,' name='kI' posn='40'>
	))
3	((	NP	<fs name='NP3' drel='r6:NP4'>
3.1	kAnUna	NNC	<fs af='kAnUna,n,m,sg,3,d,0,0' name='kAnUna' posn='50'>
3.2	vyavasWA	NN	<fs af='vyavasWA,n,f,sg,3,o,0,0' name='vyavasWA' posn='60'>
3.3	ke	PSP	<fs af='kA,psp,m,sg,,o,,' name='ke' posn='70'>
	))
4	((	NP	<fs name='NP4' drel='k4:VGNN'>
4.1	mAmale	NN	<fs af='mAmalA,n,m,sg,3,o,0,0' name='mAmale' posn='80'>
4.2	ko	PSP	<fs af='ko,psp,,,,,,' name='ko' posn='90'>
	))
5	((	NP	<fs name='NP5' drel='k2:VGNN'>
5.1	wUla	NN	<fs af='wUla,n,m,sg,3,d,0,0' name='wUla' posn='100'>
	))
6	((	VGNN	<fs name='VGNN' drel='k7:VGF'>
6.1	xene	VM	<fs af='xe,v,any,any,any,o,nA,nA' name='xene' posn='110'>
6.2	para	PSP	<fs af='para,psp,,,,,,' name='para' posn='120'>
6.3	BI	RP	<fs af='BI,avy,,,,,,' name='BI' posn='130'>
	))
7	((	NP	<fs name='NP6' drel='k1:VGF'>
7.1	mulAyama	NNP	<fs af='mulAyama,n,m,sg,3,o,0,0' name='mulAyama' posn='140'>
7.2	ne	PSP	<fs af='ne,psp,,,,,,' name='ne' posn='150'>
	))
8	((	VGNF	<fs name='VGNF' drel='vmod:VGF'>
8.1	ulata	VM	<fs af='ulata,v,any,any,any,,0,0' name='ulata' posn='160'>
8.2	kara	VAUX	<fs af='kara,v,any,any,any,,0,0' name='kara' posn='170'>
	))
9	((	NP	<fs name='NP7' drel='k2:VGF'>
9.1	javAba	NN	<fs af='javAba,n,m,sg,3,d,0,0' name='javAba' posn='180'>
	))
10	((	VGF	<fs name='VGF' stype='declarative' voicetype='active'>
10.1	xiyA	VM	<fs af='xe,v,m,sg,any,,yA,yA' name='xiyA' posn='190'>
	))
11	((	CCP	<fs name='CCP' drel='k2s:VGF'>
11.1	ki	CC	<fs af='ki,avy,,,,,,' name='ki' posn='200'>
	))
12	((	NP	<fs drel='k1:VGF2' name='NP8'>
12.1	kAMgresa	NNP	<fs af='kAMgresa,n,f,sg,3,d,0,0' name='kAMgresa2' posn='210'>
	))
13	((	NP	<fs drel='k7t:VGF2' name='NP9'>
13.1	pahale	NST	<fs af='pahale,nst,m,sg,3,d,,' name='pahale' posn='220'>
	))
14	((	NP	<fs name='NP10' drel='r6:NP11'>
14.1	xillI	NNP	<fs af='xillI,n,f,sg,3,o,0,0' name='xillI' posn='230'>
14.2	kI	PSP	<fs af='kA,psp,f,sg,,d,,' name='kI2' posn='240'>
	))
15	((	NP	<fs name='NP11' drel='k2:VGF2'>
15.1	vyavasWA	NN	<fs af='vyavasWA,n,f,sg,3,d,0,0' name='vyavasWA2' posn='250'>
15.2	hI	RP	<fs af='hI,avy,,,,,,' name='hI' posn='260'>
	))
16	((	NP	<fs name='NP12' drel='adv:VGF2'>
16.1	TIka	JJ	<fs af='TIka,adj,any,any,,o,,' name='TIka' posn='270'>
16.2	waraha	NN	<fs af='waraha,n,f,sg,3,o,0,0' name='waraha' posn='280'>
16.3	se	PSP	<fs af='se,psp,,,,,,' name='se' posn='290'>
	))
17	((	VGF	<fs drel='ccof:CCP' name='VGF2' stype='declarative' voicetype=active'>
17.1	saMBAla	VM	<fs af='saMBAla,v,any,any,any,,0,0' name='saMBAla' posn='300'>
17.2	le	VAUX	<fs af='le,v,any,any,any,,0,0' name='le' posn='310'>
	))
18	((	BLK	<fs name='BLK' drel='rsym:VGF'>
18.1	.	SYM	<fs af='.,punc,,,,,,' name='.' posn='320'>
	))
</Sentence>

<Sentence id='6'>
1	((	NP	<fs name='NP' drel='r6:NP2'>
1.1	praxeSa	NN	<fs af='praxeSa,n,m,sg,3,o,0,0' name='praxeSa' posn='10'>
1.2	kI	PSP	<fs af='kA,psp,f,sg,,o,,' name='kI' posn='20'>
	))
2	((	RBP	<fs name='RBP' drel='adv:VGNF'>
2.1	lagAwAra	RB	<fs af='lagAwAra,adv,,,,,,' name='lagAwAra' posn='30'>
	))
3	((	VGNF	<fs name='VGNF' drel='nmod__k1inv:NP2'>
3.1	bigadZa	VM	<fs af='bigada,v,any,any,any,,0,0' name='bigadZa' posn='40'>
3.2	rahI	VAUX	<fs af='raha,v,f,sg,any,,yA,yA' name='rahI' posn='50'>
	))
4	((	NP	<fs name='NP2' drel='r6:NP3'>
4.1	kAnUna	NNC	<fs af='kAnUna,n,m,sg,3,d,0,0' name='kAnUna' posn='60'>
4.2	vyavasWA	NN	<fs af='vyavasWA,n,f,sg,3,o,0,0' name='vyavasWA' posn='70'>
4.3	ke	PSP	<fs af='kA,psp,m,sg,,o,,' name='ke' posn='80'>
	))
5	((	NP	<fs name='NP3' drel='k7:VGF'>
5.1	masale	NN	<fs af='masalA,n,m,sg,3,o,0,0' name='masale' posn='90'>
5.2	para	PSP	<fs af='para,psp,,,,,,' name='para' posn='100'>
	))
6	((	NP	<fs name='NP4' drel='k1:VGF'>
6.1	muKyamaMwrI	NNP	<fs af='muKyamaMwrI,n,m,sg,3,o,0,0' name='muKyamaMwrI' posn='110'>
6.2	ne	PSP	<fs af='ne,psp,,,,,,' name='ne' posn='120'>
	))
7	((	NP	<fs name='NP5' drel='k2:VGF'>
7.1	ciMwA	NN	<fs af='ciMwA,n,f,sg,3,d,0,0' name='ciMwA' posn='130'>
	))
8	((	VGF	<fs drel='ccof:CCP' name='VGF' stype='declarative' voicetype=active'>
8.1	jawAI	VM	<fs af='jawA,v,f,sg,any,,yA,yA' name='jawAI' posn='140'>
	))
9	((	CCP	<fs name='CCP'>
9.1	Ora	CC	<fs af='Ora,avy,,,,,,' name='Ora' posn='150'>
	))
10	((	VGF	<fs drel='ccof:CCP' name='VGF2' stype='declarative' voicetype=active'>
10.1	kahA	VM	<fs af='kaha,v,m,sg,any,,yA,yA' name='kahA' posn='160'>
	))
11	((	CCP	<fs name='CCP2' drel='k2:VGF2'>
11.1	ki	CC	<fs af='ki,avy,,,,,,' name='ki' posn='170'>
	))
12	((	NP	<fs name='NP6' drel='rt:VGF3'>
12.1	isake	PRP	<fs af='yaha,pn,any,sg,3,o,ke,ke' name='isake' posn='180'>
12.2	lie	PSP	<fs af='lie,psp,,,,,,' name='lie' posn='190'>
	))
13	((	NP	<fs name='NP7' drel='k4:VGF3'>
13.1	pulisa	NNC	<fs af='pulisa,n,f,sg,3,d,0,0' name='pulisa' posn='200'>
13.2	aXikAriyoM	NN	<fs af='aXikArI,n,m,pl,3,o,0,0' name='aXikAriyoM' posn='210'>
13.3	ko	PSP	<fs af='ko,psp,,,,,,' name='ko' posn='220'>
	))
14	((	NP	<fs name='NP8' drel='k2:VGF3'>
14.1	saKwa	JJ	<fs af='saKwa,adj,any,any,,d,,' name='saKwa' posn='230'>
14.2	nirxeSa	NN	<fs af='nirxeSa,n,m,pl,3,d,0,0' name='nirxeSa' posn='240'>
	))
15	((	NP	<fs name='NP9' drel='k7t:VGF3'>
15.1	pahale	NST	<fs af='pahale,nst,m,sg,3,d,,' name='pahale' posn='250'>
15.2	hI	RP	<fs af='hI,avy,,,,,,' name='hI' posn='260'>
	))
16	((	VGF	<fs drel='ccof:CCP2' name='VGF3' stype='declarative' voicetype=active'>
16.1	xie	VM	<fs af='xe,v,m,pl,any,,yA,yA' name='xie' posn='270'>
16.2	jA	VAUX	<fs af='jA,v,any,any,any,,0,0' name='jA' posn='280'>
16.3	cuke	VAUX	<fs af='cuka,v,m,pl,any,,yA,yA' name='cuke' posn='290'>
16.4	hEM	VAUX	<fs af='hE,v,any,pl,3,,hE,hE' name='hEM' posn='300'>
	))
17	((	BLK	<fs name='BLK' drel='rsym:CCP'>
17.1	.	SYM	<fs af='.,punc,,,,,,' name='.' posn='310'>
	))
</Sentence>

<Sentence id='7'>
1	((	NP	<fs name='NP' drel='k1:VGF'>
1.1	unhoMne	PRP	<fs af='vaha,pn,any,sg,3h,o,ne,ne' name='unhoMne' posn='10'>
	))
2	((	VGF	<fs name='VGF' stype='declarative' voicetype='active'>
2.1	kahA	VM	<fs af='kaha,v,m,sg,any,,yA,yA' name='kahA' posn='20'>
	))
3	((	CCP	<fs name='CCP' drel='k2:VGF'>
3.1	ki	CC	<fs af='ki,avy,,,,,,' name='ki' posn='30'>
	))
4	((	NP	<fs name='NP2' drel='k7t:VGF2'>
4.1	aba	PRP	<fs af='aba,pn,,,,d,,' name='aba' posn='40'>
	))
5	((	NP	<fs coref=':NP6' name='NP3' drel='k7p:VGF2'>
5.1	jahAM	PRP	<fs af='jahAz,pn,,,,d,,' name='jahAM' posn='50'>
5.2	BI	RP	<fs af='BI,avy,,,,,,' name='BI' posn='60'>
	))
6	((	NP	<fs name='NP4' drel='k7:VGF2'>
6.1	AparAXika	JJ	<fs af='AparAXika,adj,any,any,,o,,' name='AparAXika' posn='70'>
6.2	vAraxAwoM	NN	<fs af='vAraxAwa,n,f,pl,3,o,0,0' name='vAraxAwoM' posn='80'>
6.3	meM	PSP	<fs af='meM,psp,,,,,,' name='meM' posn='90'>
	))
7	((	NP	<fs name='NP5' drel='pof:VGF2'>
7.1	baDZowwarI	NN	<fs af='baDZowwarI,n,f,sg,3,d,0,0' name='baDZowwarI' posn='100'>
	))
8	((	VGF	<fs drel='nmod__relc:NP6' name='VGF2' stype='declarative' voicetype=active'>
8.1	hogI	VM	<fs af='ho,v,f,sg,3,,gA,gA' name='hogI' posn='110'>
	))
9	((	NP	<fs name='NP6' drel='k7:VGNF'>
9.1	vahAM	PRP	<fs af='vahAz,pn,,,,d,,' name='vahAM' posn='120'>
	))
10	((	NP	<fs name='NP7' drel='k2:VGNF'>
10.1	jimmexArI	NN	<fs af='jimmexArI,n,f,sg,3,d,0,0' name='jimmexArI' posn='130'>
	))
11	((	JJP	<fs name='JJP' drel='pof:VGNF'>
11.1	waya	JJ	<fs af='waya,adj,any,any,,,,' name='waya' posn='140'>
	))
12	((	VGNF	<fs name='VGNF' drel='vmod:VGF3'>
12.1	kara	VM	<fs af='kara,v,any,any,any,,0,0' name='kara' posn='150'>
	))
13	((	NP	<fs name='NP8' drel='vmod:VGF3'>
13.1	xoRI	JJ	<fs af='xoRI,adj,any,any,,o,,' name='xoRI' posn='160'>
13.2	logoM	NN	<fs af='loga,n,m,pl,3,o,0,0' name='logoM' posn='170'>
13.3	ke	PSP	<fs af='ke,psp,,,,,,' name='ke' posn='180'>
13.4	KilAPa	PSP	<fs af='KilAPa,adj,,,,,,' name='KilAPa' posn='190'>
	))
14	((	NP	<fs name='NP9' drel='pof:VGF3'>
14.1	kArravAI	NN	<fs af='kArravAI,n,f,sg,3,d,0,0' name='kArravAI' posn='200'>
	))
15	((	VGF	<fs drel='ccof:CCP' name='VGF3' stype='declarative' voicetype=active'>
15.1	kI	VM	<fs af='kara,v,f,sg,any,,yA,yA' name='kI' posn='210'>
15.2	jAegI	VAUX	<fs af='jA,v,f,sg,3,,gA,gA' name='jAegI' posn='220'>
	))
16	((	BLK	<fs name='BLK' drel='rsym:VGF'>
16.1	.	SYM	<fs af='.,punc,,,,,,' name='.' posn='230'>
	))
</Sentence>

<Sentence id='8'>
1	((	NP	<fs name='NP' drel='r6:NP2'>
1.1	bIeda	NNP	<fs af='bIeda,n,m,sg,3,d,0,0' name='bIeda' posn='10'>
1.2	berojagAroM	NN	<fs af='berojagAra,n,m,pl,3,o,0,0' name='berojagAroM' posn='20'>
1.3	ke	PSP	<fs af='kA,psp,m,sg,,o,,' name='ke' posn='30'>
	))
2	((	NP	<fs name='NP2' drel='k7:VGF'>
2.1	masale	NN	<fs af='masalA,n,m,sg,3,o,0,0' name='masale' posn='40'>
2.2	para	PSP	<fs af='para,psp,,,,,,' name='para' posn='50'>
	))
3	((	NP	<fs name='NP3' drel='k7p:VGNF'>
3.1	praxeSa	NN	<fs af='praxeSa,n,m,sg,3,o,0,0' name='praxeSa' posn='60'>
3.2	meM	PSP	<fs af='meM,psp,,,,,,' name='meM' posn='70'>
	))
4	((	VGNF	<fs name='VGNF' drel='nmod__k1inv:NP4'>
4.1	baDZawI	VM	<fs af='baDa,v,f,sg,any,,wA,wA' name='baDZawI' posn='80'>
	))
5	((	NP	<fs name='NP4' drel='r6:NP5'>
5.1	nArAjagI	NN	<fs af='nArAjagI,n,f,sg,3,o,0,0' name='nArAjagI' posn='90'>
5.2	ke	PSP	<fs af='kA,psp,m,sg,,o,,' name='ke2' posn='100'>
	))
6	((	NP	<fs name='NP5' drel='k7:VGF'>
6.1	masale	NN	<fs af='masalA,n,m,sg,3,o,0,0' name='masale2' posn='110'>
6.2	para	PSP	<fs af='para,psp,,,,,,' name='para2' posn='120'>
	))
7	((	NP	<fs name='NP6' drel='k1:VGF'>
7.1	muKyamaMwrI	NNP	<fs af='muKyamaMwrI,n,m,sg,3,o,0,0' name='muKyamaMwrI' posn='130'>
7.2	ne	PSP	<fs af='ne,psp,,,,,,' name='ne' posn='140'>
	))
8	((	JJP	<fs name='JJP' drel='pof:VGF'>
8.1	sAPa	JJ	<fs af='sAPa,adj,any,any,,,,' name='sAPa' posn='150'>
	))
9	((	VGF	<fs name='VGF' stype='declarative' voicetype='active'>
9.1	kiyA	VM	<fs af='kara,v,m,sg,any,,yA,yA' name='kiyA' posn='160'>
	))
10	((	CCP	<fs name='CCP' drel='k2:VGF'>
10.1	ki	CC	<fs af='ki,avy,,,,,,' name='ki' posn='170'>
	))
11	((	NP	<fs name='NP7' drel='k7t:VGF2'>
11.1	aBI	PRP	<fs af='aBI,pn,,,,d,,' name='aBI' posn='180'>
	))
12	((	NP	<fs name='NP8' drel='k2:VGF2'>
12.1	pahalI	QO	<fs af='pahalA,num,f,sg,,d,,' name='pahalI' posn='190'>
12.2	sUcI	NN	<fs af='sUcI,n,f,sg,3,d,0,0' name='sUcI' posn='200'>
12.3	hI	RP	<fs af='hI,avy,,,,,,' name='hI' posn='210'>
	))
13	((	JJP	<fs name='JJP2' drel='pof:VGF2'>
13.1	jArI	JJ	<fs af='jArI,adj,any,any,,,,' name='jArI' posn='220'>
	))
14	((	VGF	<fs drel='ccof:CCP2' name='VGF2' stype='declarative' voicetype=active'>
14.1	kI	VM	<fs af='kara,v,f,sg,any,,yA,yA' name='kI' posn='230'>
14.2	gaI	VAUX	<fs af='jA,v,f,sg,any,,yA1,yA1' name='gaI' posn='240'>
14.3	hE	VAUX	<fs af='hE,v,any,sg,3,,hE,hE' name='hE' posn='250'>
14.4	,	SYM	<fs af='COMMA,punc,,,,,,' name=',' posn='260'>
	))
15	((	RBP	<fs name='RBP' drel='adv:VGF3'>
15.1	jalxI	RB	<fs af='jalxI,adv,,,,,,' name='jalxI' posn='270'>
15.2	hI	RP	<fs af='hI,avy,,,,,,' name='hI2' posn='280'>
	))
16	((	NP	<fs name='NP9' drel='k1:VGF3'>
16.1	Ora	QF	<fs af='Ora,avy,,,,,,' name='Ora' posn='290'>
16.2	sUcI	NN	<fs af='sUcI,n,f,sg,3,d,0,0' name='sUcI2' posn='300'>
	))
17	((	JJP	<fs name='JJP3' drel='pof:VGF3'>
17.1	jArI	JJ	<fs af='jArI,adj,any,any,,,,' name='jArI2' posn='310'>
	))
18	((	VGF	<fs drel='ccof:CCP2' name='VGF3' stype='declarative' voicetype=active'>
18.1	hogI	VM	<fs af='ho,v,f,sg,3,,gA,gA' name='hogI' posn='320'>
	))
19	((	CCP	<fs name='CCP2' drel='ccof:CCP'>
19.1	Ora	CC	<fs af='Ora,avy,,,,,,' name='Ora2' posn='330'>
	))
20	((	NP	<fs name='NP10' drel='pof:VGF4'>
20.1	prayAsa	NN	<fs af='prayAsa,n,m,sg,3,d,0,0' name='prayAsa' posn='340'>
	))
21	((	VGF	<fs drel='ccof:CCP2' name='VGF4' stype='declarative' voicetype=active'>
21.1	kiyA	VM	<fs af='kara,v,m,sg,any,,yA,yA' name='kiyA2' posn='350'>
21.2	jAegA	VAUX	<fs af='jA,v,m,sg,3,,gA,gA' name='jAegA' posn='360'>
	))
22	((	CCP	<fs name='CCP3' drel='k2:VGF4'>
22.1	ki	CC	<fs af='ki,avy,,,,,,' name='ki2' posn='370'>
	))
23	((	NP	<fs name='NP11' drel='k2:VGF5'>
23.1	saBI	PRP	<fs af='saba,pn,,,,o,,' name='saBI' posn='380'>
23.2	ko	PSP	<fs af='ko,psp,,,,,,' name='ko' posn='390'>
	))
24	((	JJP	<fs name='JJP4' drel='pof:VGF5'>
24.1	samAyojiwa	JJ	<fs af='samAyojiwa,adj,any,any,,,,' name='samAyojiwa' posn='400'>
	))
25	((	VGF	<fs drel='ccof:CCP3' name='VGF5' stype='declarative' voicetype=passive'>
25.1	kiyA	VM	<fs af='kara,v,m,sg,any,,yA,yA' name='kiyA3' posn='410'>
25.2	jA	VAUX	<fs af='jA,v,any,any,any,,0,0' name='jA' posn='420'>
25.3	sake	VAUX	<fs af='saka,v,any,sg,3,,eM,eM' name='sake' posn='430'>
	))
26	((	BLK	<fs name='BLK' drel='rsym:VGF'>
26.1	.	SYM	<fs af='.,punc,,,,,,' name='.' posn='440'>
	))
</Sentence>

<Sentence id='9'>
1	((	NP	<fs name='NP' drel='ras-k1:VGF'>
1.1	muKyamaMwrI	NNP	<fs af='muKyamaMwrI,n,m,sg,3,o,0,0' name='muKyamaMwrI' posn='10'>
1.2	ke	PSP	<fs af='ke,psp,,,,,,' name='ke' posn='20'>
1.3	sAWa	NST	<fs af='sAWa,nst,m,sg,3,d,,' name='sAWa' posn='30'>
	))
2	((	NP	<fs name='NP2' drel='nmod:NP3'>
2.1	KelakUxa	NNPC	<fs af='KelakUxa,n,m,sg,3,d,0,0' name='KelakUxa' posn='40'>
2.2	evaM	NNPC	<fs af='evaM,avy,,,,,,' name='evaM' posn='50'>
2.3	yuvA	NNPC	<fs af='yuvA,n,m,sg,3,d,0,0' name='yuvA' posn='60'>
2.4	kalyANa	NNPC	<fs af='kalyANa,n,m,sg,3,d,0,0' name='kalyANa' posn='70'>
2.5	maMwrI	NNP	<fs af='maMwrI,n,m,sg,3,d,0,0' name='maMwrI' posn='80'>
	))
3	((	NP	<fs name='NP3' drel='ccof:CCP'>
3.1	Ara.	NNPC	<fs af='Ara.,n,m,sg,3,d,0,0' name='Ara.' posn='90'>
3.2	ke.	NNPC	<fs af='ke.,n,m,sg,3,d,0,0' name='ke.' posn='100'>
3.3	cOXarI	NNP	<fs af='cOXarI,n,m,sg,3,d,0,0' name='cOXarI' posn='110'>
	))
4	((	CCP	<fs name='CCP' drel='k1:VGF'>
4.1	Ora	CC	<fs af='Ora,avy,,,,,,' name='Ora' posn='120'>
	))
5	((	NP	<fs drel='nmod:NP5' name='NP4'>
5.1	kuMdA	NNP	<fs af='kuMdA,n,m,sg,3,d,0,0' name='kuMdA' posn='130'>
5.2	viXAyaka	NN	<fs af='viXAyaka,n,m,sg,3,d,0,0' name='viXAyaka' posn='140'>
	))
6	((	NP	<fs drel='nmod:NP6' name='NP5'>
6.1	raGurAja	NNPC	<fs af='raGurAja,n,m,sg,3,d,0,0' name='raGurAja' posn='150'>
6.2	prawApa	NNPC	<fs af='prawApa,n,m,sg,3,d,0,0' name='prawApa' posn='160'>
6.3	siMha	NNP	<fs af='siMha,n,m,sg,3,d,0,0' name='siMha' posn='170'>
	))
7	((	NP	<fs name='NP6' drel='ccof:CCP'>
7.1	urPa	RP	<fs af='urPa,avy,,,,,,' name='urPa' posn='180'>
7.2	rAjA	NNPC	<fs af='rAjA,n,m,sg,3,d,0,0' name='rAjA' posn='190'>
7.3	BEyA	NNP	<fs af='BEyA,n,m,sg,3,d,0,0' name='BEyA' posn='200'>
7.4	BI	RP	<fs af='BI,avy,,,,,,' name='BI' posn='210'>
	))
8	((	NP	<fs name='NP7' drel='k7p:VGF'>
8.1	yahAM	PRP	<fs af='yahAz,pn,,,,d,,' name='yahAM' posn='220'>
	))
9	((	VGF	<fs name='VGF' stype='declarative' voicetype='active'>
9.1	pahuMce	VM	<fs af='pahuMca,v,m,pl,3,,yA,yA' name='pahuMce' posn='230'>
	))
10	((	BLK	<fs name='BLK' drel='rsym:VGF'>
10.1	.	SYM	<fs af='.,punc,,,,,,' name='.' posn='240'>
	))
</Sentence>

<Sentence id='10'>
1	((	NP	<fs name='NP' drel='r6:NP2'>
1.1	pAMdeya	NNP	<fs af='pAMdeya,n,any,sg,3,o,0,0' name='pAMdeya' posn='10'>
1.2	ke	PSP	<fs af='ke,psp,,,,,,' name='ke' posn='20'>
	))
2	((	NP	<fs name='NP2' drel='k7p:VGNN2'>
2.1	yahAM	PRP	<fs af='yahAz,pn,,,,d,,' name='yahAM' posn='30'>
	))
3	((	NP	<fs name='NP3' drel='k2:VGNN'>
3.1	Soka	NN	<fs af='Soka,n,m,sg,3,d,0,0' name='Soka' posn='40'>
	))
4	((	JJP	<fs name='JJP' drel='pof:VGNN'>
4.1	vyakwa	JJ	<fs af='vyakwa,adj,any,any,,,,' name='vyakwa' posn='50'>
	))
5	((	VGNN	<fs name='VGNN' drel='rt:VGNN2'>
5.1	karane	VM	<fs af='kara,v,any,any,any,o,nA,nA' name='karane' posn='60'>
	))
6	((	VGNN	<fs name='VGNN2' drel='k7:VGF'>
6.1	pahuMcane	VM	<fs af='pahuMca,v,any,any,any,o,nA,nA' name='pahuMcane' posn='70'>
6.2	vAloM	PSP	<fs af='vAlA,psp,m,pl,,o,,' name='vAloM' posn='80'>
6.3	meM	PSP	<fs af='meM,psp,,,,,,' name='meM' posn='90'>
	))
7	((	NP	<fs name='NP4' drel='r6:NP20'>
7.1	kAMgresa	NNP	<fs af='kAMgresa,n,f,sg,3,d,0,0' name='kAMgresa' posn='100'>
7.2	viXAna	NNC	<fs af='viXAna,n,m,sg,3,d,0,0' name='viXAna' posn='110'>
7.3	maMdala	NNC	<fs af='maMdala,n,m,sg,3,d,0,0' name='maMdala' posn='120'>
7.4	xala	NN	<fs af='xala,n,m,sg,3,o,0,0' name='xala' posn='130'>
7.5	ke	PSP	<fs af='kA,psp,m,sg,,o,,' name='ke2' posn='140'>
	))
8	((	NP	<fs name='NP5' drel='nmod:NP20'>
8.1	newA	NN	<fs af='newA,n,m,sg,3,o,0,0' name='newA' posn='150'>
	))
9	((	NP	<fs name='NP6' drel='ccof:CCP'>
9.1	pramoxa	NNPC	<fs af='pramoxa,n,m,sg,3,d,0,0' name='pramoxa' posn='160'>
9.2	wivArI	NNP	<fs af='wivArI,n,any,sg,3,o,0,0' name='wivArI' posn='170'>
9.3	,	SYM	<fs af='COMMA,punc,,,,,,' name=',' posn='180'>
	))
10	((	NP	<fs drel='nmod:NP20' name='NP7'>
10.1	pUrva	JJ	<fs af='pUrva,adj,any,any,,o,,' name='pUrva' posn='190'>
10.2	sAMsaxa	NN	<fs af='sAMsaxa,n,m,sg,3,o,0,0' name='sAMsaxa' posn='200'>
	))
11	((	NP	<fs drel='ccof:CCP' name='NP8'>
11.1	aBaya	NNPC	<fs af='aBaya,n,m,sg,3,d,0,0' name='aBaya' posn='210'>
11.2	prawApa	NNPC	<fs af='prawApa,n,m,sg,3,d,0,0' name='prawApa' posn='220'>
11.3	siMha	NNP	<fs af='siMha,n,m,sg,3,o,0,0' name='siMha' posn='230'>
11.4	,	SYM	<fs af='COMMA,punc,,,,,,' name=',2' posn='240'>
	))
12	((	NP	<fs drel='nmod:NP20' name='NP9'>
12.1	pUrva	JJ	<fs af='pUrva,adj,any,any,,o,,' name='pUrva2' posn='250'>
12.2	maMwrI	NN	<fs af='maMwrI,n,m,sg,3,o,0,0' name='maMwrI' posn='260'>
	))
13	((	NP	<fs drel='ccof:CCP' name='NP10'>
13.1	yaSavaMwa	NNPC	<fs af='yaSavaMwa,n,m,sg,3,d,0,0' name='yaSavaMwa' posn='270'>
13.2	siMha	NNP	<fs af='siMha,n,m,sg,3,o,0,0' name='siMha2' posn='280'>
13.3	,	SYM	<fs af='COMMA,punc,,,,,,' name=',3' posn='290'>
	))
14	((	NP	<fs name='NP11' drel='nmod:NP20'>
14.1	viXAna	NNC	<fs af='viXAna,n,m,sg,3,d,0,0' name='viXAna2' posn='300'>
14.2	pariRaxa	NNC	<fs af='pariRaxa,n,m,sg,3,d,0,0' name='pariRaxa' posn='310'>
14.3	saxasya	NN	<fs af='saxasya,n,m,sg,3,o,0,0' name='saxasya' posn='320'>
	))
15	((	NP	<fs name='NP12' drel='ccof:CCP'>
15.1	SElenxra	NNPC	<fs af='SElenxra,n,m,sg,3,d,0,0' name='SElenxra' posn='330'>
15.2	prawApa	NNPC	<fs af='prawApa,n,m,sg,3,d,0,0' name='prawApa2' posn='340'>
15.3	siMha	NNP	<fs af='siMha,n,m,sg,3,o,0,0' name='siMha3' posn='350'>
15.4	,	SYM	<fs af='COMMA,punc,,,,,,' name=',4' posn='360'>
	))
16	((	NP	<fs name='NP13' drel='nmod:NP20'>
16.1	jilA	NNC	<fs af='jilA,n,m,sg,3,d,0,0' name='jilA' posn='370'>
16.2	paMcAyawa	NNC	<fs af='paMcAyawa,n,f,sg,3,d,0,0' name='paMcAyawa' posn='380'>
16.3	aXyakRa	NN	<fs af='aXyakRa,n,m,sg,3,o,0,0' name='aXyakRa' posn='390'>
	))
17	((	NP	<fs name='NP14' drel='ccof:CCP'>
17.1	biMxeSvarI	NNPC	<fs af='biMxeSvarI,n,f,sg,3,d,0,0' name='biMxeSvarI' posn='400'>
17.2	patela	NNP	<fs af='patela,n,any,sg,3,o,0,0' name='patela' posn='410'>
17.3	,	SYM	<fs af='COMMA,punc,,,,,,' name=',5' posn='420'>
	))
18	((	NP	<fs drel='nmod:NP20' name='NP15'>
18.1	viXAyaka	NN	<fs af='viXAyaka,n,m,sg,3,o,0,0' name='viXAyaka' posn='430'>
	))
19	((	NP	<fs drel='ccof:CCP' name='NP16'>
19.1	rAmanAWa	NNPC	<fs af='rAmanAWa,n,m,sg,3,d,0,0' name='rAmanAWa' posn='440'>
19.2	saroja	NNP	<fs af='saroja,n,any,sg,3,o,0,0' name='saroja' posn='450'>
19.3	,	SYM	<fs af='COMMA,punc,,,,,,' name=',6' posn='460'>
	))
20	((	NP	<fs drel='nmod:NP20' name='NP17'>
20.1	pUrva	JJ	<fs af='pUrva,adj,any,any,,o,,' name='pUrva3' posn='470'>
20.2	sAMsaxa	NN	<fs af='sAMsaxa,n,m,sg,3,o,0,0' name='sAMsaxa2' posn='480'>
	))
21	((	NP	<fs name='NP18' drel='ccof:CCP'>
21.1	sIena	NNPC	<fs af='sIena,n,m,sg,3,d,0,0' name='sIena' posn='490'>
21.2	siMha	NNP	<fs af='siMha,n,m,sg,3,o,0,0' name='siMha4' posn='500'>
	))
22	((	CCP	<fs name='CCP' drel='vmod:VGF'>
22.1	,	SYM	<fs af='COMMA,punc,,,,,,' name=',7' posn='510'>
	))
23	((	NP	<fs name='NP19' drel='ccof:CCP'>
23.1	jilAXyakRa	NN	<fs af='jilAXyakRa,n,m,sg,3,d,0,0' name='jilAXyakRa' posn='520'>
23.2	siyArAma	NNPC	<fs af='siyArAma,n,m,sg,3,d,0,0' name='siyArAma' posn='530'>
23.3	yAxava	NNP	<fs af='yAxava,n,any,sg,3,o,0,0' name='yAxava' posn='540'>
23.4	samewa	PSP	<fs af='samewa,psp,,,,,,' name='samewa' posn='550'>
	))
24	((	NP	<fs name='NP20' drel='k1:VGF'>
24.1	wamAma	JJ	<fs af='wamAma,adj,any,any,,d,,' name='wamAma' posn='560'>
24.2	loga	NN	<fs af='loga,n,m,pl,3,d,0,0' name='loga' posn='570'>
	))
25	((	JJP	<fs name='JJP2' drel='k1s:VGF'>
25.1	mOjUxa	JJ	<fs af='mOjUxa,adj,any,any,,,,' name='mOjUxa' posn='580'>
	))
26	((	VGF	<fs name='VGF' stype='declarative' voicetype='active'>
26.1	We	VM	<fs af='WA,v,m,pl,any,,WA,WA' name='We' posn='590'>
	))
27	((	BLK	<fs name='BLK' drel='rsym:VGF'>
27.1	.	SYM	<fs af='.,punc,,,,,,' name='.' posn='600'>
	))
</Sentence>



