<Sentence id='1'>
1	((	NP	<fs name='NP' drel='r6:NP2'>
1.1	BArawIya	NNPC	<fs af='BArawIya,adj,any,any,,o,,' name='BArawIya' posn='10'>
1.2	vAyusenA	NNP	<fs af='vAyusenA,n,f,sg,3,o,0,0' name='vAyusenA' posn='20'>
1.3	kA	PSP	<fs af='kA,psp,m,sg,,d,,' name='kA' posn='30'>
	))
2	((	NP	<fs name='NP2' drel='k1:VGF'>
2.1	eka	QC	<fs af='eka,num,any,any,,any,,' name='eka' posn='40'>
2.2	xala	NN	<fs af='xala,n,m,sg,3,d,0,0' name='xala' posn='50'>
	))
3	((	NP	<fs name='NP3' drel='ras-k1:VGNN'>
3.1	PrAMsIsI	NNPC	<fs af='PrAMsIsI,n,m,sg,3,d,0,0' name='PrAMsIsI' posn='60'>
3.2	vAyu	NNPC	<fs af='vAyu,n,f,sg,3,d,0,0' name='vAyu' posn='70'>
3.3	senA	NNP	<fs af='senA,n,f,sg,3,o,0,0' name='senA' posn='80'>
3.4	ke	PSP	<fs af='ke,psp,,,,,,' name='ke' posn='90'>
3.5	sAWa	NST	<fs af='sAWa,nst,m,sg,3,d,,' name='sAWa' posn='100'>
	))
4	((	NP	<fs name='NP4' drel='nmod:NP5'>
4.1	xUsare	QO	<fs af='xUsarA,num,m,sg,,o,,' name='xUsare' posn='110'>
4.2	saMyukwa	JJ	<fs af='saMyukwa,adj,any,any,,o,,' name='saMyukwa' posn='120'>
4.3	ladZAkU	JJ	<fs af='ladZAkU,adj,any,any,,o,,' name='ladZAkU' posn='130'>
4.4	aByAsa	NN	<fs af='aByAsa,n,m,sg,3,o,0,0' name='aByAsa' posn='140'>
	))
5	((	NP	<fs name='NP5' drel='k7:VGNN'>
5.1	garUdZa	NNPC	<fs af='garUdZa,n,m,sg,3,d,0,0' name='garUdZa' posn='150'>
5.2	-	SYM	<fs af='-,punc,,,,,,' name='-' posn='160'>
5.3	2	NNP	<fs af='2,n,m,sg,3,o,0,0' name='2' posn='170'>
5.4	meM	PSP	<fs af='meM,psp,,,,,,' name='meM' posn='180'>
	))
6	((	NP	<fs name='NP6' drel='pof:VGNN'>
6.1	hissA	NN	<fs af='hissA,n,m,sg,3,d,0,0' name='hissA' posn='190'>
	))
7	((	VGNN	<fs name='VGNN' drel='rt:VGF'>
7.1	lene	VM	<fs af='le,v,any,any,any,o,nA,nA' name='lene' posn='200'>
7.2	ke	PSP	<fs af='ke,psp,,,,,,' name='ke2' posn='210'>
7.3	lie	PSP	<fs af='lie,psp,,,,,,' name='lie' posn='220'>
	))
8	((	NP	<fs name='NP7' drel='k7t:VGF'>
8.1	bqhaspawivAra	NNP	<fs af='bqhaspawivAra,n,m,sg,3,o,0,0' name='bqhaspawivAra' posn='230'>
8.2	ko	PSP	<fs af='ko,psp,,,,,,' name='ko' posn='240'>
	))
9	((	NP	<fs name='NP8' drel='k7p:VGF'>
9.1	PrAMsa	NNP	<fs af='PrAMsa,n,m,sg,3,o,0,0' name='PrAMsa' posn='250'>
9.2	ke	PSP	<fs af='ke,psp,,,,,,' name='ke3' posn='260'>
9.3	lie	PSP	<fs af='lie,psp,,,,,,' name='lie2' posn='270'>
	))
10	((	JJP	<fs name='JJP' drel='pof:VGF'>
10.1	ravAnA	JJ	<fs af='ravAnA,adj,any,any,,,,' name='ravAnA' posn='280'>
	))
11	((	VGF	<fs name='VGF' stype='declarative' voicetype='active'>
11.1	ho	VM	<fs af='ho,v,any,any,any,,0,0' name='ho' posn='290'>
11.2	gayA	VAUX	<fs af='jA,v,m,sg,any,,yA1,yA1' name='gayA' posn='300'>
	))
12	((	BLK	<fs name='BLK' drel='rsym:VGF'>
12.1	.	SYM	<fs af='.,punc,,,,,,' name='.' posn='310'>
	))
</Sentence>

<Sentence id='2'>
1	((	NP	<fs name='NP' drel='k7:VGF'>
1.1	isa	DEM	<fs af='yaha,pn,any,sg,3,o,,' name='isa' posn='10'>
1.2	xala	NN	<fs af='xala,n,m,sg,3,o,0,0' name='xala' posn='20'>
1.3	meM	PSP	<fs af='meM,psp,,,,,,' name='meM' posn='30'>
	))
2	((	NP	<fs name='NP2' drel='r6:NP3'>
2.1	Caha	QC	<fs af='Caha,num,any,any,,any,,' name='Caha' posn='40'>
2.2	esayU	NNC	<fs af='esayU,n,m,sg,3,d,0,0' name='esayU' posn='50'>
2.3	-	SYM	<fs af='-,punc,,,,,,' name='-' posn='60'>
2.4	30	NN	<fs af='30,n,m,sg,3,o,0,0' name='30' posn='70'>
2.5	ke	PSP	<fs af='kA,psp,m,pl,,d,,' name='ke' posn='80'>
	))
3	((	NP	<fs name='NP3' drel='ccof:CCP'>
3.1	ladZAkU	JJ	<fs af='ladZAkU,adj,any,any,,d,,' name='ladZAkU' posn='90'>
3.2	vimAna	NN	<fs af='vimAna,n,m,pl,3,d,0,0' name='vimAna' posn='100'>
	))
4	((	CCP	<fs name='CCP' drel='k1:VGF'>
4.1	Ora	CC	<fs af='Ora,avy,,,,,,' name='Ora' posn='110'>
	))
5	((	NP	<fs name='NP4' drel='ccof:CCP'>
5.1	eka	QC	<fs af='eka,num,any,any,,any,,' name='eka' posn='120'>
5.2	AIela	NNC	<fs af='AIela,n,m,sg,3,d,0,0' name='AIela' posn='130'>
5.3	-	SYM	<fs af='-,punc,,,,,,' name='-2' posn='140'>
5.4	78	NNC	<fs af='78,n,any,sg,3,d,0,0' name='78' posn='150'>
5.5	mida	NNC	<fs af='mida,n,m,sg,3,d,0,0' name='mida' posn='160'>
5.6	eara	NNC	<fs af='eara,n,f,sg,3,d,0,0' name='eara' posn='170'>
5.7	rIPyUlara	NN	<fs af='rIPyUlara,n,m,sg,3,d,0,0' name='rIPyUlara' posn='180'>
	))
6	((	JJP	<fs name='JJP' drel='k1s:VGF'>
6.1	SAmila	JJ	<fs af='SAmila,adj,any,any,,,,' name='SAmila' posn='190'>
	))
7	((	VGF	<fs name='VGF' stype='declarative' voicetype='active'>
7.1	hEM	VM	<fs af='hE,v,any,pl,3,,hE,hE' name='hEM' posn='200'>
	))
8	((	BLK	<fs name='BLK' drel='rsym:VGF'>
8.1	.	SYM	<fs af='.,punc,,,,,,' name='.' posn='210'>
	))
</Sentence>

<Sentence id='3'>
1	((	NP	<fs name='NP' drel='r6:NP2'>
1.1	vAyusenA	NN	<fs af='vAyusenA,n,f,sg,3,o,0,0' name='vAyusenA' posn='10'>
1.2	ke	PSP	<fs af='kA,psp,m,sg,,o,,' name='ke' posn='20'>
	))
2	((	NP	<fs name='NP2' drel='nmod:NP3'>
2.1	upAXyakRa	NN	<fs af='upAXyakRa,n,m,sg,3,o,0,0' name='upAXyakRa' posn='30'>
	))
3	((	NP	<fs name='NP3' drel='k1:VGF'>
3.1	eara	NNC	<fs af='eara,n,m,sg,3,d,0,0' name='eara' posn='40'>
3.2	mArSala	NNC	<fs af='mArSala,n,m,sg,3,d,0,0' name='mArSala' posn='50'>
3.3	esa.	NNPC	<fs af='esa.,n,m,sg,3,d,0,0' name='esa.' posn='60'>
3.4	ke.	NNPC	<fs af='ke.,n,m,sg,3,d,0,0' name='ke.' posn='70'>
3.5	malika	NNP	<fs af='malika,n,any,sg,3,o,0,0' name='malika' posn='80'>
3.6	ne	PSP	<fs af='ne,psp,,,,,,' name='ne' posn='90'>
	))
4	((	NP	<fs name='NP4' drel='nmod:NP5'>
4.1	24	NNPC	<fs af='24,n,m,sg,3,d,0,0' name='24' posn='100'>
4.2	skvadrana	NNP	<fs af='skvadrana,n,m,sg,3,o,0,0' name='skvadrana' posn='110'>
4.3	se	PSP	<fs af='se,psp,,,,,,' name='se' posn='120'>
	))
5	((	NP	<fs name='NP5' drel='ccof:CCP'>
5.1	esayU	NNC	<fs af='esayU,n,m,sg,3,d,0,0' name='esayU' posn='130'>
5.2	-	SYM	<fs af='-,punc,,,,,,' name='-' posn='140'>
5.3	30	NN	<fs af='30,n,m,sg,3,o,0,0' name='30' posn='150'>
5.4	ko	PSP	<fs af='ko,psp,,,,,,' name='ko' posn='160'>
	))
6	((	CCP	<fs name='CCP' drel='k2:VGF'>
6.1	Ora	CC	<fs af='Ora,avy,,,,,,' name='Ora' posn='170'>
	))
7	((	NP	<fs name='NP6' drel='jjmod:JJP'>
7.1	AgarA	NNP	<fs af='AgarA,n,m,sg,3,d,0,0' name='AgarA' posn='180'>
	))
8	((	JJP	<fs name='JJP' drel='nmod:NP7'>
8.1	sWiwa	JJ	<fs af='sWiwa,adj,any,any,,o,,' name='sWiwa' posn='190'>
	))
9	((	NP	<fs name='NP7' drel='nmod:NP8'>
9.1	mida	NNPC	<fs af='mida,n,m,sg,3,d,0,0' name='mida' posn='200'>
9.2	eara	NNPC	<fs af='eara,n,f,sg,3,d,0,0' name='eara2' posn='210'>
9.3	rIPyUliMga	NNPC	<fs af='rIPyUliMga,n,f,sg,3,d,0,0' name='rIPyUliMga' posn='220'>
9.4	skvadrana	NNP	<fs af='skvadrana,n,m,sg,3,o,0,0' name='skvadrana2' posn='230'>
9.5	se	PSP	<fs af='se,psp,,,,,,' name='se2' posn='240'>
	))
10	((	NP	<fs name='NP8' drel='ccof:CCP'>
10.1	AIela	NNC	<fs af='AIela,n,m,sg,3,d,0,0' name='AIela' posn='250'>
10.2	-	SYM	<fs af='-,punc,,,,,,' name='-2' posn='260'>
10.3	78	NN	<fs af='78,n,m,sg,3,o,0,0' name='78' posn='270'>
10.4	ko	PSP	<fs af='ko,psp,,,,,,' name='ko2' posn='280'>
	))
11	((	NP	<fs name='NP9' drel='k2:VGNF'>
11.1	JaMdI	NN	<fs af='JaMdI,n,f,sg,3,d,0,0' name='JaMdI' posn='290'>
	))
12	((	VGNF	<fs name='VGNF' drel='vmod:VGF'>
12.1	xiKA	VM	<fs af='xiKA,v,any,any,any,,0,0' name='xiKA' posn='300'>
12.2	kara	VAUX	<fs af='kara,v,any,any,any,,0,0' name='kara' posn='310'>
	))
13	((	JJP	<fs name='JJP2' drel='pof:VGF'>
13.1	ravAnA	JJ	<fs af='ravAnA,adj,any,any,,,,' name='ravAnA' posn='320'>
	))
14	((	VGF	<fs name='VGF' stype='declarative' voicetype='active'>
14.1	kiyA	VM	<fs af='kara,v,m,sg,any,,yA,yA' name='kiyA' posn='330'>
	))
15	((	BLK	<fs name='BLK' drel='rsym:VGF'>
15.1	.	SYM	<fs af='.,punc,,,,,,' name='.'>
	))
</Sentence>

<Sentence id='4'>
1	((	NP	<fs name='NP' drel='k7:VGF'>
1.1	isa	DEM	<fs af='yaha,pn,any,sg,3,o,,' name='isa' posn='10'>
1.2	mOke	NN	<fs af='mOkA,n,m,sg,3,o,0,0' name='mOke' posn='20'>
1.3	para	PSP	<fs af='para,psp,,,,,,' name='para' posn='30'>
	))
2	((	NP	<fs name='NP2' drel='k1:VGF'>
2.1	eara	NNC	<fs af='eara,n,f,sg,3,d,0,0' name='eara' posn='40'>
2.2	mArSala	NNC	<fs af='mArSala,n,m,sg,3,d,0,0' name='mArSala' posn='50'>
2.3	malika	NNP	<fs af='malika,n,any,sg,3,o,0,0' name='malika' posn='60'>
2.4	ne	PSP	<fs af='ne,psp,,,,,,' name='ne' posn='70'>
	))
3	((	NP	<fs name='NP3' drel='k4:VGF'>
3.1	vAyusEnikoM	NN	<fs af='vAyusEnika,n,m,pl,3,o,0,0' name='vAyusEnikoM' posn='80'>
3.2	se	PSP	<fs af='se,psp,,,,,,' name='se' posn='90'>
	))
4	((	NP	<fs name='NP4' drel='pof:VGNF'>
4.1	behawara	JJ	<fs af='behawara,adj,any,any,,d,,' name='behawara' posn='100'>
4.2	aByAsa	NN	<fs af='aByAsa,n,m,sg,3,d,0,0' name='aByAsa' posn='110'>
	))
5	((	VGNF	<fs name='VGNF' drel='vmod:VGF'>
5.1	kara	VM	<fs af='kara,v,any,any,any,,0,0' name='kara' posn='120'>
	))
6	((	NP	<fs name='NP5' drel='r6:NP6'>
6.1	BArawIya	NNPC	<fs af='BArawIya,adj,any,any,,o,,' name='BArawIya' posn='130'>
6.2	vAyu	NNPC	<fs af='vAyu,n,f,sg,3,d,0,0' name='vAyu' posn='140'>
6.3	senA	NNP	<fs af='senA,n,f,sg,3,o,0,0' name='senA' posn='150'>
6.4	kI	PSP	<fs af='kA,psp,f,sg,,d,,' name='kI' posn='160'>
	))
7	((	NP	<fs name='NP6' drel='k2:VGNN'>
7.1	prawiRTA	NN	<fs af='prawiRTA,n,f,sg,3,d,0,0' name='prawiRTA' posn='170'>
	))
8	((	VGNN	<fs name='VGNN' drel='r6-k2:NP7'>
8.1	baDZAne	VM	<fs af='baDZA,v,any,any,any,o,nA,nA' name='baDZAne' posn='180'>
8.2	kA	PSP	<fs af='kA,psp,m,sg,,d,,' name='kA' posn='190'>
	))
9	((	NP	<fs name='NP7' drel='pof:VGF'>
9.1	AhvAna	NN	<fs af='AhvAna,n,m,sg,3,d,0,0' name='AhvAna' posn='200'>
	))
10	((	VGF	<fs name='VGF' stype='declarative' voicetype='active'>
10.1	kiyA	VM	<fs af='kara,v,m,sg,any,,yA,yA' name='kiyA' posn='210'>
	))
11	((	BLK	<fs name='BLK' drel='rsym:VGF'>
11.1	.	SYM	<fs af='.,punc,,,,,,' name='.' posn='220'>
	))
</Sentence>

<Sentence id='5'>
1	((	NP	<fs name='NP' drel='k1:VGF'>
1.1	unhoMne	PRP	<fs af='vaha,pn,any,sg,3h,o,ne,ne' name='unhoMne' posn='10'>
	))
2	((	VGF	<fs name='VGF' stype='declarative' voicetype='active'>
2.1	kahA	VM	<fs af='kaha,v,m,sg,any,,yA,yA' name='kahA' posn='20'>
	))
3	((	CCP	<fs name='CCP' drel='k2:VGF'>
3.1	ki	CC	<fs af='ki,avy,,,,,,' name='ki' posn='30'>
	))
4	((	NP	<fs name='NP2' drel='k2:VGNN'>
4.1	prawiRTA	NN	<fs af='prawiRTA,n,f,sg,3,d,0,0' name='prawiRTA' posn='40'>
	))
5	((	VGNN	<fs name='VGNN' drel='k1:VGF2'>
5.1	banAnA	VM	<fs af='banA,v,any,any,any,d,nA,nA' name='banAnA' posn='50'>
	))
6	((	JJP	<fs name='JJP' drel='k1s:VGF2'>
6.1	bahuwa	INTF	<fs af='bahuwa,avy,,,,,,' name='bahuwa' posn='60'>
6.2	muSkila	JJ	<fs af='muSkila,adj,any,any,,,,' name='muSkila' posn='70'>
	))
7	((	VGF	<fs voicetype='active' name='VGF2' stype='declarative' drel='ccof:CCP2'>
7.1	hE	VM	<fs af='hE,v,any,sg,3,,hE,hE' name='hE' posn='80'>
	))
8	((	CCP	<fs name='CCP2' drel='ccof:CCP'>
8.1	Ora	CC	<fs af='Ora,avy,,,,,,' name='Ora' posn='90'>
	))
9	((	NP	<fs name='NP3' drel='k1u:VGF3'>
9.1	usase	PRP	<fs af='vaha,pn,any,sg,3,o,se,se' name='usase' posn='100'>
	))
10	((	JJP	<fs name='JJP2' drel='k1s:VGF3'>
10.1	jyAxA	QF	<fs af='jyAxA,avy,,,,,,' name='jyAxA' posn='110'>
10.2	muSkila	JJ	<fs af='muSkila,adj,any,any,,d,,' name='muSkila2' posn='120'>
	))
11	((	NP	<fs name='NP4' drel='k2:VGNN2'>
11.1	use	PRP	<fs af='vaha,pn,any,sg,3,o,ko,ko' name='use' posn='130'>
	))
12	((	VGNN	<fs name='VGNN2' drel='k1:VGF3'>
12.1	banAe	VM	<fs af='banA,v,any,sg,3,,yA,yA' name='banAe' posn='140'>
12.2	raKanA	VAUX	<fs af='raKa,v,m,sg,any,,nA,nA' name='raKanA' posn='150'>
	))
13	((	VGF	<fs voicetype='active' name='VGF3' stype='declarative' drel='ccof:CCP2'>
13.1	hE	VM	<fs af='hE,v,any,sg,3,,hE,hE' name='hE2' posn='160'>
	))
14	((	BLK	<fs name='BLK' drel='rsym:VGF'>
14.1	.	SYM	<fs af='.,punc,,,,,,' name='.' posn='170'>
	))
</Sentence>

<Sentence id='6'>
1	((	NP	<fs name='NP' drel='k1:VGF'>
1.1	unhoMne	PRP	<fs af='vaha,pn,any,sg,3h,o,ne,ne' name='unhoMne' posn='10'>
	))
2	((	VGF	<fs name='VGF' stype='declarative' voicetype='active'>
2.1	kahA	VM	<fs af='kaha,v,m,sg,any,,yA,yA' name='kahA' posn='20'>
	))
3	((	CCP	<fs name='CCP' drel='k2:VGF'>
3.1	ki	CC	<fs af='ki,avy,,,,,,' name='ki' posn='30'>
	))
4	((	NP	<fs name='NP2' drel='rh:VGF2'>
4.1	isa	DEM	<fs af='yaha,pn,any,sg,3,o,,' name='isa' posn='40'>
4.2	aByAsa	NN	<fs af='aByAsa,n,m,sg,3,o,0,0' name='aByAsa' posn='50'>
4.3	se	PSP	<fs af='se,psp,,,,,,' name='se' posn='60'>
	))
5	((	NP	<fs name='NP3' drel='k4:VGF2'>
5.1	unheM	PRP	<fs af='vaha,pn,any,sg,3h,o,ko,ko' name='unheM' posn='70'>
	))
6	((	NP	<fs name='NP4' drel='k7:VGNN'>
6.1	eka	QC	<fs af='eka,num,any,any,,any,,' name='eka' posn='80'>
6.2	alaga	JJ	<fs af='alaga,adj,any,any,,o,,' name='alaga' posn='90'>
6.3	mAhOla	NN	<fs af='mAhOla,n,m,sg,3,o,0,0' name='mAhOla' posn='100'>
6.4	meM	PSP	<fs af='meM,psp,,,,,,' name='meM' posn='110'>
	))
7	((	NP	<fs name='NP5' drel='pof:VGNN'>
7.1	udZAna	NN	<fs af='udZAna,n,f,sg,3,d,0,0' name='udZAna' posn='120'>
	))
8	((	VGNN	<fs name='VGNN' drel='r6:NP6'>
8.1	Barane	VM	<fs af='Bara,v,any,any,any,o,nA,nA' name='Barane' posn='130'>
8.2	kI	PSP	<fs af='kA,psp,f,sg,,d,,' name='kI' posn='140'>
	))
9	((	NP	<fs name='NP6' drel='k1:VGF2'>
9.1	eka	QC	<fs af='eka,num,any,any,,any,,' name='eka2' posn='150'>
9.2	badZI	JJ	<fs af='badZA,adj,f,sg,,d,,' name='badZI' posn='160'>
9.3	cunOwI	NN	<fs af='cunOwI,n,f,sg,3,d,0,0' name='cunOwI' posn='170'>
	))
10	((	VGF	<fs voicetype='active' name='VGF2' stype='declarative' drel='ccof:CCP'>
10.1	milegI	VM	<fs af='mila,v,f,sg,3,,gA,gA' name='milegI' posn='180'>
	))
11	((	BLK	<fs name='BLK' drel='rsym:VGF'>
11.1	.	SYM	<fs af='.,punc,,,,,,' name='.' posn='190'>
	))
</Sentence>

<Sentence id='7'>
1	((	NP	<fs name='NP' drel='r6:NP2'>
1.1	aByAsa	NN	<fs af='aByAsa,n,m,sg,3,o,0,0' name='aByAsa' posn='10'>
1.2	ke	PSP	<fs af='kA,psp,m,sg,,o,,' name='ke' posn='20'>
	))
2	((	NP	<fs name='NP2' drel='k7:VGNF'>
2.1	makasaxa	NN	<fs af='makasaxa,n,m,sg,3,o,0,0' name='makasaxa' posn='30'>
2.2	ke	PSP	<fs af='ke,psp,,,,,,' name='ke2' posn='40'>
2.3	bAre	PSP	<fs af='bAre,psp,,,,,,' name='bAre' posn='50'>
2.4	meM	PSP	<fs af='meM,psp,,,,,,' name='meM' posn='60'>
	))
3	((	NP	<fs name='NP3' drel='k4:VGNF'>
3.1	pawrakAroM	NN	<fs af='pawrakAra,n,m,pl,3,o,0,0' name='pawrakAroM' posn='70'>
3.2	ko	PSP	<fs af='ko,psp,,,,,,' name='ko' posn='80'>
	))
4	((	NP	<fs name='NP4' drel='k2:VGNF'>
4.1	jAnakArI	NN	<fs af='jAnakArI,n,f,sg,3,d,0,0' name='jAnakArI' posn='90'>
	))
5	((	VGNF	<fs name='VGNF' drel='nmod__k1inv:NP5'>
5.1	xewe	VM	<fs af='xe,v,m,sg,any,,wA,wA' name='xewe' posn='100'>
5.2	hue	VAUX	<fs af='ho,v,m,sg,any,,yA,yA' name='hue' posn='110'>
	))
6	((	NP	<fs name='NP5' drel='k1:VGF'>
6.1	unhoMne	PRP	<fs af='vaha,pn,any,sg,3h,o,ne,ne' name='unhoMne' posn='120'>
	))
7	((	VGF	<fs name='VGF' stype='declarative' voicetype='active'>
7.1	kahA	VM	<fs af='kaha,v,m,sg,any,,yA,yA' name='kahA' posn='130'>
	))
8	((	CCP	<fs name='CCP' drel='k2:VGF'>
8.1	ki	CC	<fs af='ki,avy,,,,,,' name='ki' posn='140'>
	))
9	((	NP	<fs name='NP6' drel='k1:VGF2'>
9.1	garUdZa	NNPC	<fs af='garUdZa,n,m,sg,3,d,0,0' name='garUdZa' posn='150'>
9.2	-	SYM	<fs af='-,punc,,,,,,' name='-' posn='160'>
9.3	2	NNP	<fs af='2,n,m,sg,3,d,0,0' name='2' posn='170'>
	))
10	((	NP	<fs name='NP7' drel='k7:VGNN'>
10.1	vAyu	NNC	<fs af='vAyu,n,f,sg,3,d,0,0' name='vAyu' posn='180'>
10.2	rakRA	NNC	<fs af='rakRA,n,f,sg,3,d,0,0' name='rakRA' posn='190'>
10.3	wakanIkoM	NN	<fs af='wakanIka,n,f,pl,3,o,0,0' name='wakanIkoM' posn='200'>
10.4	para	PSP	<fs af='para,psp,,,,,,' name='para' posn='210'>
	))
11	((	JJP	<fs name='JJP' drel='pof:VGNN'>
11.1	keMxriwa	JJ	<fs af='keMxriwa,adj,any,any,,,,' name='keMxriwa' posn='220'>
	))
12	((	VGNN	<fs name='VGNN' drel='ras-k1:VGF2'>
12.1	hone	VM	<fs af='ho,v,any,any,any,o,nA,nA' name='hone' posn='230'>
12.2	ke	PSP	<fs af='ke,psp,,,,,,' name='ke3' posn='240'>
12.3	sAWa	NST	<fs af='sAWa,nst,m,sg,3,d,,' name='sAWa' posn='250'>
12.4	-	SYM	<fs af='-,punc,,,,,,' name='-2' posn='260'>
12.5	sAWa	RDP	<fs af='sAWa,nst,m,sg,3,d,,' name='sAWa2' posn='270'>
	))
13	((	NP	<fs name='NP8' drel='k7:VGF2'>
13.1	BArawIya	NNPC	<fs af='BArawIya,adj,any,any,,o,,' name='BArawIya' posn='280'>
13.2	vAyusenA	NNP	<fs af='vAyusenA,n,f,sg,3,o,0,0' name='vAyusenA' posn='290'>
13.3	ke	PSP	<fs af='ke,psp,,,,,,' name='ke4' posn='300'>
13.4	bAre	PSP	<fs af='bAre,psp,,,,,,' name='bAre2' posn='310'>
13.5	meM	PSP	<fs af='meM,psp,,,,,,' name='meM2' posn='320'>
13.6	BI	RP	<fs af='BI,avy,,,,,,' name='BI' posn='330'>
	))
14	((	NP	<fs name='NP9' drel='k2:VGF2'>
14.1	jAnakArI	NN	<fs af='jAnakArI,n,f,sg,3,d,0,0' name='jAnakArI2' posn='340'>
	))
15	((	VGF	<fs voicetype='active' name='VGF2' stype='declarative' drel='ccof:CCP'>
15.1	xe	VM	<fs af='xe,v,any,any,any,,0,0' name='xe' posn='350'>
15.2	sakegA	VAUX	<fs af='saka,v,m,sg,3,,gA,gA' name='sakegA' posn='360'>
	))
16	((	BLK	<fs name='BLK' drel='rsym:VGF'>
16.1	.	SYM	<fs af='.,punc,,,,,,' name='.' posn='370'>
	))
</Sentence>

<Sentence id='8'>
1	((	NP	<fs name='NP' drel='k7:VGF'>
1.1	jisameM	PRP	<fs af='jo,pn,any,sg,3,o,meM,meM' name='jisameM' posn='10'>
	))
2	((	NP	<fs name='NP2' drel='k4:VGF'>
2.1	suKoI	NNP	<fs af='suKoI,n,m,sg,3,d,0,0' name='suKoI' posn='20'>
2.2	vimAnoM	NN	<fs af='vimAna,n,m,pl,3,o,0,0' name='vimAnoM' posn='30'>
2.3	ko	PSP	<fs af='ko,psp,,,,,,' name='ko' posn='40'>
	))
3	((	NP	<fs name='NP3' drel='r6:NP4'>
3.1	PrAMsa	NNP	<fs af='PrAMsa,n,m,sg,3,o,0,0' name='PrAMsa' posn='50'>
3.2	kI	PSP	<fs af='kA,psp,f,sg,,o,,' name='kI' posn='60'>
	))
4	((	NP	<fs name='NP4' drel='r6:NP5'>
4.1	vAyusenA	NN	<fs af='vAyusenA,n,f,sg,3,o,0,0' name='vAyusenA' posn='70'>
4.2	ke	PSP	<fs af='kA,psp,m,pl,,o,,' name='ke' posn='80'>
	))
5	((	NP	<fs name='NP5' drel='nmod:NP6'>
5.1	mirAja	NNPC	<fs af='mirAja,n,m,sg,3,d,0,0' name='mirAja' posn='90'>
5.2	2000	NNPC	<fs af='2000,n,m,sg,3,d,0,0' name='2000' posn='100'>
5.3	-	SYM	<fs af='-,punc,,,,,,' name='-' posn='110'>
5.4	5	NNP	<fs af='5,n,any,sg,3,d,0,0' name='5' posn='120'>
	))
6	((	NP	<fs name='NP6' drel='k2:VGNN'>
6.1	ladZAkU	JJ	<fs af='ladZAkU,adj,any,any,,o,,' name='ladZAkU' posn='130'>
6.2	vimAnoM	NN	<fs af='vimAna,n,m,pl,3,o,0,0' name='vimAnoM2' posn='140'>
6.3	ke	PSP	<fs af='ke,psp,,,,,,' name='ke2' posn='150'>
6.4	sAWa	NST	<fs af='sAWa,nst,m,sg,3,d,,' name='sAWa' posn='160'>
6.5	-	SYM	<fs af='-,punc,,,,,,' name='-2' posn='170'>
6.6	sAWa	RDP	<fs af='sAWa,nst,m,sg,3,d,,' name='sAWa2' posn='180'>
	))
7	((	NP	<fs name='NP7' drel='nmod:NP8'>
7.1	purAne	JJ	<fs af='purAnA,adj,m,sg,,o,,' name='purAne' posn='190'>
7.2	mirAja	NN	<fs af='mirAja,n,m,sg,3,d,0,0' name='mirAja2' posn='200'>
	))
8	((	NP	<fs name='NP8' drel='ras-k2:VGNN'>
8.1	2000	NNPC	<fs af='2000,n,m,sg,3,d,0,0' name='20002' posn='210'>
8.2	sI	NNP	<fs af='sI,n,m,sg,3,d,0,0' name='sI' posn='220'>
8.3	saMskaraNa	NN	<fs af='saMskaraNa,n,m,sg,3,o,0,0' name='saMskaraNa' posn='230'>
8.4	ke	PSP	<fs af='ke,psp,,,,,,' name='ke3' posn='240'>
8.5	sAWa	NST	<fs af='sAWa,nst,m,sg,3,d,,' name='sAWa3' posn='250'>
	))
9	((	NP	<fs name='NP9' drel='pof:VGNN'>
9.1	aByAsa	NN	<fs af='aByAsa,n,m,sg,3,d,0,0' name='aByAsa' posn='260'>
	))
10	((	VGNN	<fs name='VGNN' drel='r6:NP10'>
10.1	karane	VM	<fs af='kara,v,any,any,any,o,nA,nA' name='karane' posn='270'>
10.2	kA	PSP	<fs af='kA,psp,m,sg,,d,,' name='kA' posn='280'>
	))
11	((	NP	<fs name='NP10' drel='k1:VGF'>
11.1	mOkA	NN	<fs af='mOkA,n,m,sg,3,d,0,0' name='mOkA' posn='290'>
	))
12	((	VGF	<fs name='VGF' stype='declarative' voicetype='active'>
12.1	mila	VM	<fs af='mila,v,any,any,any,,0,0' name='mila' posn='300'>
12.2	sakegA	VAUX	<fs af='saka,v,m,sg,3,,gA,gA' name='sakegA' posn='310'>
	))
13	((	BLK	<fs name='BLK' drel='rsym:VGF'>
13.1	.	SYM	<fs af='.,punc,,,,,,' name='.' posn='320'>
	))
</Sentence>

<Sentence id='9'>
1	((	NP	<fs name='NP' drel='r6:NP2'>
1.1	aByAsa	NN	<fs af='aByAsa,n,m,sg,3,o,0,0' name='aByAsa' posn='10'>
1.2	kA	PSP	<fs af='kA,psp,m,sg,,d,,' name='kA' posn='20'>
	))
2	((	NP	<fs name='NP2' drel='k1:VGF'>
2.1	muKya	JJ	<fs af='muKya,adj,any,any,,d,,' name='muKya' posn='30'>
2.2	lakRya	NN	<fs af='lakRya,n,m,sg,3,d,0,0' name='lakRya' posn='40'>
	))
3	((	NP	<fs name='NP3' drel='ras-NEG:VGF'>
3.1	jamInI	JJ	<fs af='jamInI,adj,any,any,,o,,' name='jamInI' posn='50'>
3.2	hamaloM	NN	<fs af='hamalA,n,m,pl,3,o,0,0' name='hamaloM' posn='60'>
3.3	ke	PSP	<fs af='ke,psp,,,,,,' name='ke' posn='70'>
3.4	bajAya	PSP	<fs af='bajAya,psp,,,,,,' name='bajAya' posn='80'>
	))
4	((	NP	<fs name='NP4' drel='k1s:VGF'>
4.1	havAI	JJ	<fs af='havAI,adj,any,any,,d,,' name='havAI' posn='90'>
4.2	rakRA	NN	<fs af='rakRA,n,f,sg,3,d,0,0' name='rakRA' posn='100'>
	))
5	((	VGF	<fs name='VGF' stype='declarative' voicetype='active'>
5.1	hE	VM	<fs af='hE,v,any,sg,3,,hE,hE' name='hE' posn='110'>
	))
6	((	BLK	<fs name='BLK' drel='rsym:VGF'>
6.1	.	SYM	<fs af='.,punc,,,,,,' name='.' posn='120'>
	))
</Sentence>

<Sentence id='10'>
1	((	NP	<fs name='NP' drel='k1:VGF'>
1.1	eara	NNC	<fs af='eara,n,m,sg,3,d,0,0' name='eara' posn='10'>
1.2	mArSala	NNC	<fs af='mArSala,n,m,sg,3,d,0,0' name='mArSala' posn='20'>
1.3	malika	NNP	<fs af='malika,n,any,sg,3,o,0,0' name='malika' posn='30'>
1.4	ne	PSP	<fs af='ne,psp,,,,,,' name='ne' posn='40'>
	))
2	((	VGF	<fs name='VGF' stype='declarative' voicetype='active'>
2.1	kahA	VM	<fs af='kaha,v,m,sg,any,,yA,yA' name='kahA' posn='50'>
	))
3	((	CCP	<fs name='CCP' drel='k2:VGF'>
3.1	ki	CC	<fs af='ki,avy,,,,,,' name='ki' posn='60'>
	))
4	((	NP	<fs name='NP2' drel='k1:VGF2'>
4.1	xonoM	QC	<fs af='xo,num,any,pl,,any,,' name='xonoM' posn='70'>
4.2	pakRa	NN	<fs af='pakRa,n,m,pl,3,d,0,0' name='pakRa' posn='80'>
	))
5	((	NP	<fs name='NP3' drel='k7:VGNN'>
5.1	ladZAkU	JJ	<fs af='ladZAkU,adj,any,any,,o,,' name='ladZAkU' posn='90'>
5.2	BUmikA	NN	<fs af='BUmikA,n,f,sg,3,o,0,0' name='BUmikA' posn='100'>
5.3	meM	PSP	<fs af='meM,psp,,,,,,' name='meM' posn='110'>
	))
6	((	VGNN	<fs name='VGNN' drel='ras-k1:VGF2'>
6.1	rahane	VM	<fs af='raha,v,any,any,any,o,nA,nA' name='rahane' posn='120'>
6.2	ke	PSP	<fs af='ke,psp,,,,,,' name='ke' posn='130'>
6.3	sAWa	NST	<fs af='sAWa,nst,m,sg,3,d,,' name='sAWa' posn='140'>
6.4	-	SYM	<fs af='-,punc,,,,,,' name='-' posn='150'>
6.5	sAWa	RDP	<fs af='sAWa,nst,m,sg,3,d,,' name='sAWa2' posn='160'>
	))
7	((	NP	<fs name='NP4' drel='k7:VGF2'>
7.1	samUhoM	NN	<fs af='samUha,n,m,pl,3,o,0,0' name='samUhoM' posn='170'>
7.2	meM	PSP	<fs af='meM,psp,,,,,,' name='meM2' posn='180'>
	))
8	((	NP	<fs name='NP5' drel='pof:VGF2'>
8.1	udZAna	NN	<fs af='udZAna,n,f,sg,3,d,0,0' name='udZAna' posn='190'>
	))
9	((	VGF	<fs voicetype='active' name='VGF2' stype='declarative' drel='ccof:CCP'>
9.1	BareMge	VM	<fs af='Bara,v,m,pl,3,,gA,gA' name='BareMge' posn='200'>
	))
10	((	BLK	<fs name='BLK' drel='rsym:VGF'>
10.1	.	SYM	<fs af='.,punc,,,,,,' name='.' posn='210'>
	))
</Sentence>

<Sentence id='11'>
1	((	NP	<fs name='NP' drel='k1:VGF'>
1.1	unhoMne	PRP	<fs af='vaha,pn,any,sg,3h,o,ne,ne' name='unhoMne' posn='10'>
	))
2	((	VGF	<fs name='VGF' stype='declarative' voicetype='active'>
2.1	kahA	VM	<fs af='kaha,v,m,sg,any,,yA,yA' name='kahA' posn='20'>
	))
3	((	CCP	<fs name='CCP' drel='k2:VGF'>
3.1	ki	CC	<fs af='ki,avy,,,,,,' name='ki' posn='30'>
	))
4	((	NP	<fs name='NP2' drel='r6:NP3'>
4.1	hamAre	PRP	<fs af='hama,pn,m,pl,1,o,kA,kA' name='hamAre' posn='40'>
	))
5	((	NP	<fs name='NP3' drel='k1:VGF2'>
5.1	vAyusenAkarmI	NN	<fs af='vAyusenAkarmI,n,m,pl,3,d,0,0' name='vAyusenAkarmI' posn='50'>
	))
6	((	NP	<fs name='NP4' drel='r6:NP5'>
6.1	PrAMsa	NNP	<fs af='PrAMsa,n,m,sg,3,o,0,0' name='PrAMsa' posn='60'>
6.2	ke	PSP	<fs af='kA,psp,m,pl,,o,,' name='ke' posn='70'>
	))
7	((	NP	<fs name='NP5' drel='k3:VGF2'>
7.1	anuBavoM	NN	<fs af='anuBava,n,m,pl,3,o,0,0' name='anuBavoM' posn='80'>
7.2	se	PSP	<fs af='se,psp,,,,,,' name='se' posn='90'>
	))
8	((	VGF	<fs voicetype='active' name='VGF2' stype='declarative' drel='ccof:CCP'>
8.1	sIKa	VM	<fs af='sIKa,v,any,any,any,,0,0' name='sIKa' posn='100'>
8.2	rahe	VAUX	<fs af='raha,v,m,pl,any,,yA,yA' name='rahe' posn='110'>
8.3	hEM	VAUX	<fs af='hE,v,any,pl,3,,hE,hE' name='hEM' posn='120'>
	))
9	((	BLK	<fs name='BLK' drel='rsym:VGF'>
9.1	.	SYM	<fs af='.,punc,,,,,,' name='.' posn='130'>
	))
</Sentence>

<Sentence id='12'>
1	((	RBP	<fs name='RBP' drel='adv:VGF'>
1.1	viSeRakara	RB	<fs af='viSeRakara,adv,,,,,,' name='viSeRakara' posn='10'>
	))
2	((	NP	<fs name='NP' drel='k7:VGF'>
2.1	biyOYMda	NNPC	<fs af='biyOYMda,n,m,sg,3,d,0,0' name='biyOYMda' posn='20'>
2.2	vijuala	NNPC	<fs af='vijuala,n,m,sg,3,d,0,0' name='vijuala' posn='30'>
2.3	reMja	NNP	<fs af='reMja,n,f,sg,3,o,0,0' name='reMja' posn='40'>
	))
3	((	NP	<fs name='NP2' drel='rs:NP'>
3.1	(	SYM	<fs af=',punc,,,,,,' name='(' posn='50'>
3.2	bIvIAra	NNP	<fs af='bIvIAra,n,m,sg,3,o,0,0' name='bIvIAra' posn='60'>
3.3	)	SYM	<fs af=',punc,,,,,,' name=')' posn='70'>
	))
4	((	FRAGP	<fs name='FRAGP' drel='fragof:NP'>
4.1	ke	PSP	<fs af='ke,psp,m,,,o,,' name='ke' posn='80'>
4.2	saMbaMXa	PSP	<fs af='saMbaMXa,n,m,,,o,,' name='saMbaMXa' posn='90'>
4.3	meM	PSP	<fs af='meM,psp,,,,,,' name='meM' posn='100'>
4.4	,	SYM	<fs af='COMMA,punc,,,,,,' name=',' posn='110'>
	))
5	((	NP	<fs name='NP3' drel='k1:VGF'>
5.1	unhoMne	PRP	<fs af='vaha,pn,any,sg,3h,o,ne,ne' name='unhoMne' posn='120'>
	))
6	((	VGF	<fs name='VGF' stype='declarative' voicetype='active'>
6.1	kahA	VM	<fs af='kaha,v,m,sg,any,,yA,yA' name='kahA' posn='130'>
	))
7	((	CCP	<fs name='CCP' drel='k2:VGF'>
7.1	ki	CC	<fs af='ki,avy,,,,,,' name='ki' posn='140'>
	))
8	((	NP	<fs name='NP4' drel='ras-k1:VGF2'>
8.1	bahuwa	QF	<fs af='bahuwa,avy,,,,,,' name='bahuwa' posn='150'>
8.2	hI	RP	<fs af='hI,avy,,,,,,' name='hI' posn='160'>
8.3	sakRma	JJ	<fs af='sakRma,adj,any,any,,o,,' name='sakRma' posn='170'>
8.4	maSInoM	NN	<fs af='maSIna,n,f,pl,3,o,0,0' name='maSInoM' posn='180'>
8.5	ke	PSP	<fs af='ke,psp,,,,,,' name='ke2' posn='190'>
8.6	sAWa	NST	<fs af='sAWa,nst,m,sg,3,d,,' name='sAWa' posn='200'>
	))
9	((	NP	<fs name='NP5' drel='r6:NP6'>
9.1	PrAMsa	NNP	<fs af='PrAMsa,n,m,sg,3,o,0,0' name='PrAMsa' posn='210'>
9.2	kI	PSP	<fs af='kA,psp,f,sg,,d,,' name='kI' posn='220'>
	))
10	((	NP	<fs name='NP6' drel='k1:VGF2'>
10.1	eka	QC	<fs af='eka,num,any,any,,any,,' name='eka' posn='230'>
10.2	bahuwa	QF	<fs af='bahuwa,avy,,,,,,' name='bahuwa2' posn='240'>
10.3	hI	RP	<fs af='hI,avy,,,,,,' name='hI2' posn='250'>
10.4	peSevara	JJ	<fs af='peSevara,adj,any,any,,d,,' name='peSevara' posn='260'>
10.5	vAyusenA	NN	<fs af='vAyusenA,n,f,sg,3,d,0,0' name='vAyusenA' posn='270'>
	))
11	((	VGF	<fs voicetype='active' name='VGF2' stype='declarative' drel='ccof:CCP'>
11.1	hE	VM	<fs af='hE,v,any,sg,3,,hE,hE' name='hE' posn='280'>
	))
12	((	BLK	<fs name='BLK' drel='rsym:VGF'>
12.1	.	SYM	<fs af='.,punc,,,,,,' name='.' posn='290'>
	))
</Sentence>



