1	बिहार	बिहार	NNP	n	lex-बिहार|cat-n|gen-m|num-sg|pers-3|case-o|vib-0_का|tam-0|chunkId-NP|chunkType-head|stype-|voicetype-	3	r6	_	_
2	के	का	PSP	psp	lex-का|cat-psp|gen-m|num-sg|pers-|case-o|vib-|tam-|chunkId-NP|chunkType-child|stype-|voicetype-	1	lwg__psp	_	_
3	जेलमंत्री	जेलमंत्री	NNP	n	lex-जेलमंत्री|cat-n|gen-m|num-sg|pers-3|case-o|vib-0|tam-0|chunkId-NP2|chunkType-head|stype-|voicetype-	6	nmod	_	_
4	राघवेंद्र	राघवेंद्र	NNPC	n	lex-राघवेंद्र|cat-n|gen-m|num-sg|pers-3|case-d|vib-0|tam-0|chunkId-NP3|chunkType-child|stype-|voicetype-	6	pof__cn	_	_
5	प्रताप	प्रताप	NNPC	n	lex-प्रताप|cat-n|gen-m|num-sg|pers-3|case-d|vib-0|tam-0|chunkId-NP3|chunkType-child|stype-|voicetype-	6	pof__cn	_	_
6	सिंह	सिंह	NNP	n	lex-सिंह|cat-n|gen-m|num-sg|pers-3|case-o|vib-0_ने|tam-0|chunkId-NP3|chunkType-head|stype-|voicetype-	29	k1	_	_
7	ने	ने	PSP	psp	lex-ने|cat-psp|gen-|num-|pers-|case-|vib-|tam-|chunkId-NP3|chunkType-child|stype-|voicetype-	6	lwg__psp	_	_
8	राजद	राजद	NNP	n	lex-राजद|cat-n|gen-m|num-sg|pers-3|case-o|vib-0_का|tam-0|chunkId-NP4|chunkType-head|stype-|voicetype-	11	r6	_	_
9	के	का	PSP	psp	lex-का|cat-psp|gen-m|num-sg|pers-|case-o|vib-|tam-|chunkId-NP4|chunkType-child|stype-|voicetype-	8	lwg__psp	_	_
10	बाहुबली	बाहुबली	JJ	adj	lex-बाहुबली|cat-adj|gen-any|num-any|pers-|case-o|vib-|tam-|chunkId-NP5|chunkType-child|stype-|voicetype-	11	nmod__adj	_	_
11	सांसद	सांसद	NN	n	lex-सांसद|cat-n|gen-m|num-sg|pers-3|case-o|vib-0|tam-0|chunkId-NP5|chunkType-head|stype-|voicetype-	13	nmod	_	_
12	पप्पू	पप्पू	NNPC	n	lex-पप्पू|cat-n|gen-m|num-sg|pers-3|case-d|vib-0|tam-0|chunkId-NP6|chunkType-child|stype-|voicetype-	13	pof__cn	_	_
13	यादव	यादव	NNP	n	lex-यादव|cat-n|gen-any|num-sg|pers-3|case-o|vib-0_द्वारा|tam-0|chunkId-NP6|chunkType-head|stype-|voicetype-	20	k3	_	_
14	द्वारा	द्वारा	PSP	psp	lex-द्वारा|cat-psp|gen-|num-|pers-|case-|vib-|tam-|chunkId-NP6|chunkType-child|stype-|voicetype-	13	lwg__psp	_	_
15	बेउर	बेउर	NNP	n	lex-बेउर|cat-n|gen-f|num-sg|pers-3|case-d|vib-0|tam-0|chunkId-NP7|chunkType-child|stype-|voicetype-	16	nmod__adj	_	_
16	जेलकर्मियों	जेलकर्मी	NN	n	lex-जेलकर्मी|cat-n|gen-m|num-pl|pers-3|case-o|vib-0_को|tam-0|chunkId-NP7|chunkType-head|stype-|voicetype-	20	k2	_	_
17	को	को	PSP	psp	lex-को|cat-psp|gen-|num-|pers-|case-|vib-|tam-|chunkId-NP7|chunkType-child|stype-|voicetype-	16	lwg__psp	_	_
18	जान	जान	NN	n	lex-जान|cat-n|gen-f|num-sg|pers-3|case-o|vib-0_से|tam-0|chunkId-NP8|chunkType-head|stype-|voicetype-	20	vmod	_	_
19	से	से	PSP	psp	lex-से|cat-psp|gen-|num-|pers-|case-|vib-|tam-|chunkId-NP8|chunkType-child|stype-|voicetype-	18	lwg__psp	_	_
20	मारने	मार	VM	v	lex-मार|cat-v|gen-any|num-sg|pers-any|case-o|vib-ना_का|tam-nA|chunkId-VGNN|chunkType-head|stype-|voicetype-	22	r6	_	_
21	की	का	PSP	psp	lex-का|cat-psp|gen-f|num-sg|pers-|case-o|vib-|tam-|chunkId-VGNN|chunkType-child|stype-|voicetype-	20	lwg__psp	_	_
22	धमकी	धमकी	NN	n	lex-धमकी|cat-n|gen-f|num-sg|pers-3|case-o|vib-0_का|tam-0|chunkId-NP9|chunkType-head|stype-|voicetype-	24	r6	_	_
23	के	का	PSP	psp	lex-का|cat-psp|gen-m|num-sg|pers-|case-o|vib-|tam-|chunkId-NP9|chunkType-child|stype-|voicetype-	22	lwg__psp	_	_
24	आरोप	आरोप	NN	n	lex-आरोप|cat-n|gen-m|num-sg|pers-3|case-o|vib-0_का|tam-0|chunkId-NP10|chunkType-head|stype-|voicetype-	26	r6	_	_
25	की	का	PSP	psp	lex-का|cat-psp|gen-f|num-sg|pers-|case-o|vib-|tam-|chunkId-NP10|chunkType-child|stype-|voicetype-	24	lwg__psp	_	_
26	जाँच	जाँच	NN	n	lex-जाँच|cat-n|gen-f|num-sg|pers-3|case-o|vib-0_का|tam-0|chunkId-NP11|chunkType-head|stype-|voicetype-	28	r6-k2	_	_
27	के	का	PSP	psp	lex-का|cat-psp|gen-m|num-pl|pers-|case-d|vib-|tam-|chunkId-NP11|chunkType-child|stype-|voicetype-	26	lwg__psp	_	_
28	आदेश	आदेश	NN	n	lex-आदेश|cat-n|gen-m|num-pl|pers-3|case-d|vib-0|tam-0|chunkId-NP12|chunkType-head|stype-|voicetype-	29	pof	_	_
29	दिए	दे	VM	v	lex-दे|cat-v|gen-m|num-pl|pers-3|case-|vib-या_है|tam-yA|chunkId-VGF|chunkType-head|stype-declarative|voicetype-active	0	main	_	_
30	हैं	है	VAUX	v	lex-है|cat-v|gen-any|num-pl|pers-3|case-|vib-है|tam-hE|chunkId-VGF|chunkType-child|stype-|voicetype-	29	lwg__vaux	_	_
31	।	।	SYM	punc	lex-।|cat-punc|gen-|num-|pers-|case-|vib-|tam-|chunkId-BLK|chunkType-head|stype-|voicetype-	29	rsym	_	_

1	महानिरीक्षक	महानिरीक्षक	NN	n	lex-महानिरीक्षक|cat-n|gen-m|num-sg|pers-3|case-d|vib-0|tam-0|chunkId-NP|chunkType-head|stype-|voicetype-	8	k1	_	_
2	जेल	जेल	NNC	n	lex-जेल|cat-n|gen-f|num-sg|pers-3|case-d|vib-0|tam-0|chunkId-NP2|chunkType-child|stype-|voicetype-	3	pof__cn	_	_
3	जाँच	जाँच	NN	n	lex-जाँच|cat-n|gen-f|num-sg|pers-3|case-o|vib-0_के_बाद|tam-0|chunkId-NP2|chunkType-head|stype-|voicetype-	8	k7t	_	_
4	के	के	PSP	psp	lex-के|cat-psp|gen-|num-|pers-|case-|vib-|tam-|chunkId-NP2|chunkType-child|stype-|voicetype-	3	lwg__psp	_	_
5	बाद	बाद	NST	nst	lex-बाद|cat-nst|gen-m|num-sg|pers-3|case-d|vib-|tam-|chunkId-NP2|chunkType-child|stype-|voicetype-	3	lwg__psp	_	_
6	उन्हें	वह	PRP	pn	lex-वह|cat-pn|gen-any|num-sg|pers-3h|case-o|vib-को|tam-ko|chunkId-NP3|chunkType-head|stype-|voicetype-	8	k4	_	_
7	रिपोर्ट	रिपोर्ट	NN	n	lex-रिपोर्ट|cat-n|gen-f|num-sg|pers-3|case-d|vib-0|tam-0|chunkId-NP4|chunkType-head|stype-|voicetype-	8	k2	_	_
8	सौंपेंगे	सौंप	VM	v	lex-सौंप|cat-v|gen-m|num-sg|pers-3h|case-|vib-गा|tam-gA|chunkId-VGF|chunkType-head|stype-declarative|voicetype-active	0	main	_	_
9	।	।	SYM	punc	lex-।|cat-punc|gen-|num-|pers-|case-|vib-|tam-|chunkId-BLK|chunkType-head|stype-|voicetype-	8	rsym	_	_

1	शिकायत	शिकायत	NN	n	lex-शिकायत|cat-n|gen-f|num-sg|pers-3|case-o|vib-0_के_बाद|tam-0|chunkId-NP|chunkType-head|stype-|voicetype-	20	k7t	_	_
2	के	के	PSP	psp	lex-के|cat-psp|gen-|num-|pers-|case-|vib-|tam-|chunkId-NP|chunkType-child|stype-|voicetype-	1	lwg__psp	_	_
3	बाद	बाद	NST	nst	lex-बाद|cat-nst|gen-m|num-sg|pers-3|case-d|vib-|tam-|chunkId-NP|chunkType-child|stype-|voicetype-	1	lwg__psp	_	_
4	कल	कल	NN	n	lex-कल|cat-n|gen-m|num-sg|pers-3|case-d|vib-0|tam-0|chunkId-NP2|chunkType-child|stype-|voicetype-	5	nmod	_	_
5	शाम	शाम	NN	n	lex-शाम|cat-n|gen-f|num-sg|pers-3|case-o|vib-0_से|tam-0|chunkId-NP2|chunkType-head|stype-|voicetype-	20	k5	_	_
6	से	से	PSP	psp	lex-से|cat-psp|gen-|num-|pers-|case-|vib-|tam-|chunkId-NP2|chunkType-child|stype-|voicetype-	5	lwg__psp	_	_
7	बेउर	बेउर	NNP	n	lex-बेउर|cat-n|gen-f|num-sg|pers-3|case-d|vib-0|tam-0|chunkId-NP3|chunkType-child|stype-|voicetype-	8	nmod__adj	_	_
8	जेल	जेल	NN	n	lex-जेल|cat-n|gen-f|num-sg|pers-3|case-o|vib-0_में|tam-0|chunkId-NP3|chunkType-head|stype-|voicetype-	20	k7p	_	_
9	में	में	PSP	psp	lex-में|cat-psp|gen-|num-|pers-|case-|vib-|tam-|chunkId-NP3|chunkType-child|stype-|voicetype-	8	lwg__psp	_	_
10	एक	एक	QC	num	lex-एक|cat-num|gen-any|num-any|pers-|case-any|vib-|tam-|chunkId-NP4|chunkType-child|stype-|voicetype-	12	nmod__adj	_	_
11	कार्यकारी	कार्यकारी	NNC	n	lex-कार्यकारी|cat-n|gen-m|num-sg|pers-3|case-d|vib-0|tam-0|chunkId-NP4|chunkType-child|stype-|voicetype-	12	pof__cn	_	_
12	मजिस्ट्रेट	मजिस्ट्रेट	NN	n	lex-मजिस्ट्रेट|cat-n|gen-m|num-sg|pers-3|case-o|vib-0_को|tam-0|chunkId-NP4|chunkType-head|stype-|voicetype-	20	k2	_	_
13	को	को	PSP	psp	lex-को|cat-psp|gen-|num-|pers-|case-|vib-|tam-|chunkId-NP4|chunkType-child|stype-|voicetype-	12	lwg__psp	_	_
14	भीड़	भीड़	NN	n	lex-भीड़|cat-n|gen-f|num-sg|pers-3|case-o|vib-0_से|tam-0|chunkId-NP5|chunkType-head|stype-|voicetype-	16	k2	_	_
15	से	से	PSP	psp	lex-से|cat-psp|gen-|num-|pers-|case-|vib-|tam-|chunkId-NP5|chunkType-child|stype-|voicetype-	14	lwg__psp	_	_
16	निपटने	निपट	VM	v	lex-निपट|cat-v|gen-any|num-any|pers-any|case-o|vib-ना_के_लिए|tam-nA|chunkId-VGNN|chunkType-head|stype-|voicetype-	20	rt	_	_
17	के	के	PSP	psp	lex-के|cat-psp|gen-|num-|pers-|case-|vib-|tam-|chunkId-VGNN|chunkType-child|stype-|voicetype-	16	lwg__psp	_	_
18	लिए	लिए	PSP	psp	lex-लिए|cat-psp|gen-|num-|pers-|case-|vib-|tam-|chunkId-VGNN|chunkType-child|stype-|voicetype-	16	lwg__psp	_	_
19	तैनात	तैनात	JJ	adj	lex-तैनात|cat-adj|gen-any|num-any|pers-|case-|vib-|tam-|chunkId-JJP|chunkType-head|stype-|voicetype-	20	pof	_	_
20	कर	कर	VM	v	lex-कर|cat-v|gen-m|num-sg|pers-3|case-|vib-0_दे+या_जा+या१_है|tam-0|chunkId-VGF|chunkType-head|stype-declarative|voicetype-passive	0	main	_	_
21	दिया	दे	VAUX	v	lex-दे|cat-v|gen-m|num-sg|pers-any|case-|vib-या|tam-yA|chunkId-VGF|chunkType-child|stype-|voicetype-	20	lwg__vaux	_	_
22	गया	जा	VAUX	v	lex-जा|cat-v|gen-m|num-sg|pers-any|case-|vib-या१|tam-yA1|chunkId-VGF|chunkType-child|stype-|voicetype-	20	lwg__vaux	_	_
23	है	है	VAUX	v	lex-है|cat-v|gen-any|num-sg|pers-3|case-|vib-है|tam-hE|chunkId-VGF|chunkType-child|stype-|voicetype-	20	lwg__vaux	_	_
24	।	।	SYM	punc	lex-।|cat-punc|gen-|num-|pers-|case-|vib-|tam-|chunkId-BLK|chunkType-head|stype-|voicetype-	20	rsym	_	_

1	जेल	जेल	NN	n	lex-जेल|cat-n|gen-f|num-sg|pers-3|case-o|vib-0_में|tam-0|chunkId-NP|chunkType-head|stype-|voicetype-	8	k7p	_	_
2	में	में	PSP	psp	lex-में|cat-psp|gen-|num-|pers-|case-|vib-|tam-|chunkId-NP|chunkType-child|stype-|voicetype-	1	lwg__psp	_	_
3	अतिरिक्त	अतिरिक्त	JJ	adj	lex-अतिरिक्त|cat-adj|gen-any|num-any|pers-|case-d|vib-|tam-|chunkId-NP2|chunkType-child|stype-|voicetype-	5	nmod__adj	_	_
4	सुरक्षा	सुरक्षा	NNC	n	lex-सुरक्षा|cat-n|gen-f|num-sg|pers-3|case-d|vib-0|tam-0|chunkId-NP2|chunkType-child|stype-|voicetype-	5	pof__cn	_	_
5	बल	बल	NN	n	lex-बल|cat-n|gen-m|num-sg|pers-3|case-d|vib-0|tam-0|chunkId-NP2|chunkType-head|stype-|voicetype-	8	k2	_	_
6	भी	भी	RP	avy	lex-भी|cat-avy|gen-|num-|pers-|case-|vib-|tam-|chunkId-NP2|chunkType-child|stype-|voicetype-	5	lwg__rp	_	_
7	तैनात	तैनात	JJ	adj	lex-तैनात|cat-adj|gen-any|num-any|pers-|case-|vib-|tam-|chunkId-JJP|chunkType-head|stype-|voicetype-	8	pof	_	_
8	किया	कर	VM	v	lex-कर|cat-v|gen-m|num-sg|pers-3|case-|vib-या_जा+गा|tam-yA|chunkId-VGF|chunkType-head|stype-declarative|voicetype-passive	0	main	_	_
9	जाएगा	जा	VAUX	v	lex-जा|cat-v|gen-m|num-sg|pers-3|case-|vib-गा|tam-gA|chunkId-VGF|chunkType-child|stype-|voicetype-	8	lwg__vaux	_	_
10	।	।	SYM	punc	lex-।|cat-punc|gen-|num-|pers-|case-|vib-|tam-|chunkId-BLK|chunkType-head|stype-|voicetype-	8	rsym	_	_

1	NULL	_	PRP	_	lex-_|cat-_|gen-|num-|pers-|case-|vib-|tam-|chunkId-NULL__NP|chunkType-head|stype-|voicetype-	3	k1	_	_
2	गौरतलब	गौरतलब	JJ	adj	lex-गौरतलब|cat-adj|gen-any|num-any|pers-|case-|vib-|tam-|chunkId-JJP|chunkType-head|stype-|voicetype-	3	k1s	_	_
3	है	है	VM	v	lex-है|cat-v|gen-any|num-sg|pers-3|case-|vib-है|tam-hE|chunkId-VGF|chunkType-head|stype-declarative|voicetype-active	0	main	_	_
4	कि	कि	CC	avy	lex-कि|cat-avy|gen-|num-|pers-|case-|vib-|tam-|chunkId-CCP|chunkType-head|stype-|voicetype-	1	rs	_	_
5	जेल	जेल	NNC	n	lex-जेल|cat-n|gen-f|num-sg|pers-3|case-d|vib-0|tam-0|chunkId-NP|chunkType-child|stype-|voicetype-	6	pof__cn	_	_
6	प्रशासन	प्रशासन	NN	n	lex-प्रशासन|cat-n|gen-m|num-sg|pers-3|case-o|vib-0_ने|tam-0|chunkId-NP|chunkType-head|stype-|voicetype-	20	k1	_	_
7	ने	ने	PSP	psp	lex-ने|cat-psp|gen-|num-|pers-|case-|vib-|tam-|chunkId-NP|chunkType-child|stype-|voicetype-	6	lwg__psp	_	_
8	जब	जब	PRP	pn	lex-जब|cat-pn|gen-|num-|pers-|case-d|vib-|tam-|chunkId-NP2|chunkType-head|stype-|voicetype-	20	k7t	_	_
9	इस	यह	DEM	pn	lex-यह|cat-pn|gen-any|num-sg|pers-3|case-o|vib-|tam-|chunkId-NP3|chunkType-child|stype-|voicetype-	11	nmod__adj	_	_
10	बाहुबली	बाहुबली	JJ	adj	lex-बाहुबली|cat-adj|gen-any|num-any|pers-|case-o|vib-|tam-|chunkId-NP3|chunkType-child|stype-|voicetype-	11	nmod__adj	_	_
11	नेता	नेता	NN	n	lex-नेता|cat-n|gen-m|num-sg|pers-3|case-o|vib-0_को|tam-0|chunkId-NP3|chunkType-head|stype-|voicetype-	20	k2	_	_
12	को	को	PSP	psp	lex-को|cat-psp|gen-|num-|pers-|case-|vib-|tam-|chunkId-NP3|chunkType-child|stype-|voicetype-	11	lwg__psp	_	_
13	उनसे	वह	PRP	pn	lex-वह|cat-pn|gen-any|num-sg|pers-3h|case-o|vib-से|tam-se|chunkId-NP4|chunkType-head|stype-|voicetype-	14	k2	_	_
14	मिलने	मिल	VM	v	lex-मिल|cat-v|gen-any|num-any|pers-any|case-o|vib-ना|tam-nA|chunkId-VGNN|chunkType-head|stype-|voicetype-	15	rt	_	_
15	आए	आ	VM	v	lex-आ|cat-v|gen-any|num-pl|pers-3|case-|vib-या|tam-yA|chunkId-VGNF|chunkType-head|stype-|voicetype-	16	nmod__k1inv	_	_
16	लोगों	लोग	NN	n	lex-लोग|cat-n|gen-m|num-pl|pers-3|case-o|vib-0_से|tam-0|chunkId-NP5|chunkType-head|stype-|voicetype-	20	ras-k2	_	_
17	से	से	PSP	psp	lex-से|cat-psp|gen-|num-|pers-|case-|vib-|tam-|chunkId-NP5|chunkType-child|stype-|voicetype-	16	lwg__psp	_	_
18	भेंट	भेंट	NN	n	lex-भेंट|cat-n|gen-f|num-sg|pers-3|case-d|vib-0|tam-0|chunkId-NP6|chunkType-head|stype-|voicetype-	20	pof	_	_
19	नहीं	नहीं	NEG	avy	lex-नहीं|cat-avy|gen-|num-|pers-|case-|vib-|tam-|chunkId-VGF2|chunkType-child|stype-|voicetype-	20	lwg__neg	_	_
20	करने	कर	VM	v	lex-कर|cat-v|gen-any|num-sg|pers-any|case-|vib-ना_दे+या|tam-nA|chunkId-VGF2|chunkType-head|stype-declarative|voicetype-active	22	nmod__relc	_	_
21	दी	दे	VAUX	v	lex-दे|cat-v|gen-f|num-sg|pers-any|case-|vib-या|tam-yA|chunkId-VGF2|chunkType-child|stype-|voicetype-	20	lwg__vaux	_	_
22	तो	तो	PRP	pn	lex-तो|cat-pn|gen-|num-|pers-|case-|vib-|tam-|chunkId-NP7|chunkType-head|stype-|voicetype-	32	k7t	_	_
23	शनिवार	शनिवार	NNP	n	lex-शनिवार|cat-n|gen-m|num-sg|pers-3|case-o|vib-0_को|tam-0|chunkId-NP8|chunkType-head|stype-|voicetype-	32	k7t	_	_
24	को	को	PSP	psp	lex-को|cat-psp|gen-|num-|pers-|case-|vib-|tam-|chunkId-NP8|chunkType-child|stype-|voicetype-	23	lwg__psp	_	_
25	उन्होंने	वह	PRP	pn	lex-वह|cat-pn|gen-any|num-sg|pers-3h|case-o|vib-ने|tam-ne|chunkId-NP9|chunkType-head|stype-|voicetype-	32	k1	_	_
26	जेलकर्मियों	जेलकर्मी	NN	n	lex-जेलकर्मी|cat-n|gen-m|num-pl|pers-3|case-o|vib-0_को|tam-0|chunkId-NP10|chunkType-head|stype-|voicetype-	32	k4	_	_
27	को	को	PSP	psp	lex-को|cat-psp|gen-|num-|pers-|case-|vib-|tam-|chunkId-NP10|chunkType-child|stype-|voicetype-	26	lwg__psp	_	_
28	परिणाम	परिणाम	NN	n	lex-परिणाम|cat-n|gen-m|num-sg|pers-3|case-d|vib-0|tam-0|chunkId-NP11|chunkType-head|stype-|voicetype-	29	k2	_	_
29	भुगतने	भुगत	VM	v	lex-भुगत|cat-v|gen-any|num-sg|pers-any|case-o|vib-ना_का|tam-nA|chunkId-VGNN2|chunkType-head|stype-|voicetype-	31	r6-k2	_	_
30	की	का	PSP	psp	lex-का|cat-psp|gen-f|num-sg|pers-|case-d|vib-|tam-|chunkId-VGNN2|chunkType-child|stype-|voicetype-	29	lwg__psp	_	_
31	धमकी	धमकी	NN	n	lex-धमकी|cat-n|gen-f|num-sg|pers-3|case-d|vib-0|tam-0|chunkId-NP12|chunkType-head|stype-|voicetype-	32	pof	_	_
32	दी	दे	VM	v	lex-दे|cat-v|gen-f|num-sg|pers-any|case-|vib-या|tam-yA|chunkId-VGF3|chunkType-head|stype-declarative|voicetype-active	4	ccof	_	_
33	।	।	SYM	punc	lex-।|cat-punc|gen-|num-|pers-|case-|vib-|tam-|chunkId-BLK|chunkType-head|stype-|voicetype-	3	rsym	_	_

1	उन्होंने	वह	PRP	pn	lex-वह|cat-pn|gen-any|num-sg|pers-3h|case-o|vib-ने|tam-ne|chunkId-NP|chunkType-head|stype-|voicetype-	15	k1	_	_
2	कथित	कथित	JJ	adj	lex-कथित|cat-adj|gen-any|num-any|pers-|case-o|vib-|tam-|chunkId-NP2|chunkType-child|stype-|voicetype-	3	nmod__adj	_	_
3	तौर	तौर	NN	n	lex-तौर|cat-n|gen-m|num-sg|pers-3|case-o|vib-0_पर|tam-0|chunkId-NP2|chunkType-head|stype-|voicetype-	15	k7	_	_
4	पर	पर	PSP	psp	lex-पर|cat-psp|gen-|num-|pers-|case-|vib-|tam-|chunkId-NP2|chunkType-child|stype-|voicetype-	3	lwg__psp	_	_
5	जेलर	जेलर	NN	n	lex-जेलर|cat-n|gen-m|num-sg|pers-3|case-o|vib-0|tam-0|chunkId-NP3|chunkType-head|stype-|voicetype-	7	nmod	_	_
6	भोला	भोला	NNPC	n	lex-भोला|cat-n|gen-m|num-sg|pers-3|case-d|vib-0|tam-0|chunkId-NP4|chunkType-child|stype-|voicetype-	7	pof__cn	_	_
7	सिंह	सिंह	NNP	n	lex-सिंह|cat-n|gen-m|num-sg|pers-3|case-o|vib-0_को|tam-0|chunkId-NP4|chunkType-head|stype-|voicetype-	15	k4	_	_
8	को	को	PSP	psp	lex-को|cat-psp|gen-|num-|pers-|case-|vib-|tam-|chunkId-NP4|chunkType-child|stype-|voicetype-	7	lwg__psp	_	_
9	जान	जान	NN	n	lex-जान|cat-n|gen-f|num-sg|pers-3|case-o|vib-0_से|tam-0|chunkId-NP5|chunkType-head|stype-|voicetype-	11	pof	_	_
10	से	से	PSP	psp	lex-से|cat-psp|gen-|num-|pers-|case-|vib-|tam-|chunkId-NP5|chunkType-child|stype-|voicetype-	9	lwg__psp	_	_
11	मार	मार	VM	v	lex-मार|cat-v|gen-any|num-sg|pers-any|case-|vib-0_डाल+ना_का|tam-0|chunkId-VGNN|chunkType-head|stype-|voicetype-	14	r6-k2	_	_
12	डालने	डाल	VAUX	v	lex-डाल|cat-v|gen-any|num-any|pers-any|case-o|vib-ना|tam-nA|chunkId-VGNN|chunkType-child|stype-|voicetype-	11	lwg__vaux	_	_
13	की	का	PSP	psp	lex-का|cat-psp|gen-f|num-sg|pers-|case-d|vib-|tam-|chunkId-VGNN|chunkType-child|stype-|voicetype-	11	lwg__psp	_	_
14	धमकी	धमकी	NN	n	lex-धमकी|cat-n|gen-f|num-sg|pers-3|case-d|vib-0|tam-0|chunkId-NP6|chunkType-head|stype-|voicetype-	15	pof	_	_
15	दी	दे	VM	v	lex-दे|cat-v|gen-f|num-sg|pers-any|case-|vib-या|tam-yA|chunkId-VGF|chunkType-head|stype-declarative|voicetype-active	0	main	_	_
16	।	।	SYM	punc	lex-।|cat-punc|gen-|num-|pers-|case-|vib-|tam-|chunkId-BLK|chunkType-head|stype-|voicetype-	15	rsym	_	_

1	कारागार	कारागार	NNPC	n	lex-कारागार|cat-n|gen-m|num-sg|pers-3|case-d|vib-0|tam-0|chunkId-NP|chunkType-child|stype-|voicetype-	2	pof__cn	_	_
2	मंत्री	मंत्री	NNP	n	lex-मंत्री|cat-n|gen-m|num-sg|pers-3|case-d|vib-0|tam-0|chunkId-NP|chunkType-child|stype-|voicetype-	3	nmod__adj	_	_
3	सिंह	सिंह	NNP	n	lex-सिंह|cat-n|gen-m|num-sg|pers-3|case-o|vib-0_ने|tam-0|chunkId-NP|chunkType-head|stype-|voicetype-	5	k1	_	_
4	ने	ने	PSP	psp	lex-ने|cat-psp|gen-|num-|pers-|case-|vib-|tam-|chunkId-NP|chunkType-child|stype-|voicetype-	3	lwg__psp	_	_
5	बताया	बता	VM	v	lex-बता|cat-v|gen-m|num-sg|pers-any|case-|vib-या|tam-yA|chunkId-VGF|chunkType-head|stype-declarative|voicetype-active	0	main	_	_
6	कि	कि	CC	avy	lex-कि|cat-avy|gen-|num-|pers-|case-|vib-|tam-|chunkId-CCP|chunkType-head|stype-|voicetype-	5	k2	_	_
7	उन्होंने	वह	PRP	pn	lex-वह|cat-pn|gen-any|num-sg|pers-3h|case-o|vib-ने|tam-ne|chunkId-NP2|chunkType-head|stype-|voicetype-	22	k1	_	_
8	जेल	जेल	NNC	n	lex-जेल|cat-n|gen-f|num-sg|pers-3|case-d|vib-0|tam-0|chunkId-NP3|chunkType-child|stype-|voicetype-	9	pof__cn	_	_
9	महानिरीक्षक	महानिरीक्षक	NN	n	lex-महानिरीक्षक|cat-n|gen-m|num-sg|pers-3|case-d|vib-0|tam-0|chunkId-NP3|chunkType-child|stype-|voicetype-	12	nmod	_	_
10	दीपक	दीपक	NNPC	n	lex-दीपक|cat-n|gen-m|num-sg|pers-3|case-d|vib-0|tam-0|chunkId-NP3|chunkType-child|stype-|voicetype-	12	pof__cn	_	_
11	कुमार	कुमार	NNPC	n	lex-कुमार|cat-n|gen-m|num-sg|pers-3|case-d|vib-0|tam-0|chunkId-NP3|chunkType-child|stype-|voicetype-	12	pof__cn	_	_
12	सिंह	सिंह	NNP	n	lex-सिंह|cat-n|gen-m|num-sg|pers-3|case-o|vib-0_को|tam-0|chunkId-NP3|chunkType-head|stype-|voicetype-	22	k4	_	_
13	को	को	PSP	psp	lex-को|cat-psp|gen-|num-|pers-|case-|vib-|tam-|chunkId-NP3|chunkType-child|stype-|voicetype-	12	lwg__psp	_	_
14	मामले	मामला	NN	n	lex-मामला|cat-n|gen-m|num-sg|pers-3|case-o|vib-0_का|tam-0|chunkId-NP4|chunkType-head|stype-|voicetype-	16	r6-k2	_	_
15	की	का	PSP	psp	lex-का|cat-psp|gen-f|num-sg|pers-|case-d|vib-|tam-|chunkId-NP4|chunkType-child|stype-|voicetype-	14	lwg__psp	_	_
16	जाँच	जाँच	NN	n	lex-जाँच|cat-n|gen-f|num-sg|pers-3|case-d|vib-0|tam-0|chunkId-NP5|chunkType-head|stype-|voicetype-	17	pof	_	_
17	कर	कर	VM	v	lex-कर|cat-v|gen-any|num-any|pers-any|case-|vib-0|tam-0|chunkId-VGNF|chunkType-head|stype-|voicetype-	22	vmod	_	_
18	रिपोर्ट	रिपोर्ट	NN	n	lex-रिपोर्ट|cat-n|gen-f|num-sg|pers-3|case-d|vib-0|tam-0|chunkId-NP6|chunkType-head|stype-|voicetype-	19	k2	_	_
19	देने	दे	VM	v	lex-दे|cat-v|gen-any|num-sg|pers-any|case-o|vib-ना_का|tam-nA|chunkId-VGNN|chunkType-head|stype-|voicetype-	21	r6-k2	_	_
20	का	का	PSP	psp	lex-का|cat-psp|gen-m|num-sg|pers-|case-d|vib-|tam-|chunkId-VGNN|chunkType-child|stype-|voicetype-	19	lwg__psp	_	_
21	निर्देश	निर्देश	NN	n	lex-निर्देश|cat-n|gen-m|num-sg|pers-3|case-d|vib-0|tam-0|chunkId-NP7|chunkType-head|stype-|voicetype-	22	pof	_	_
22	दिया	दे	VM	v	lex-दे|cat-v|gen-m|num-sg|pers-3|case-|vib-या_है|tam-yA|chunkId-VGF2|chunkType-head|stype-declarative|voicetype-active	6	ccof	_	_
23	है	है	VAUX	v	lex-है|cat-v|gen-any|num-sg|pers-3|case-|vib-है|tam-hE|chunkId-VGF2|chunkType-child|stype-|voicetype-	22	lwg__vaux	_	_
24	।	।	SYM	punc	lex-।|cat-punc|gen-|num-|pers-|case-|vib-|tam-|chunkId-BLK|chunkType-head|stype-|voicetype-	5	rsym	_	_

1	उन्होंने	वह	PRP	pn	lex-वह|cat-pn|gen-any|num-sg|pers-3h|case-o|vib-ने|tam-ne|chunkId-NP|chunkType-head|stype-|voicetype-	2	k1	_	_
2	बताया	बता	VM	v	lex-बता|cat-v|gen-m|num-sg|pers-any|case-|vib-या|tam-yA|chunkId-VGF|chunkType-head|stype-declarative|voicetype-active	0	main	_	_
3	कि	कि	CC	avy	lex-कि|cat-avy|gen-|num-|pers-|case-|vib-|tam-|chunkId-CCP|chunkType-head|stype-|voicetype-	2	k2	_	_
4	रिपोर्ट	रिपोर्ट	NN	n	lex-रिपोर्ट|cat-n|gen-f|num-sg|pers-3|case-d|vib-0|tam-0|chunkId-NP2|chunkType-head|stype-|voicetype-	5	k1	_	_
5	आने	आ	VM	v	lex-आ|cat-v|gen-any|num-any|pers-any|case-o|vib-ना_पर|tam-nA|chunkId-VGNN|chunkType-head|stype-|voicetype-	9	k7	_	_
6	पर	पर	PSP	psp	lex-पर|cat-psp|gen-|num-|pers-|case-|vib-|tam-|chunkId-VGNN|chunkType-child|stype-|voicetype-	5	lwg__psp	_	_
7	आवश्यक	आवश्यक	JJ	adj	lex-आवश्यक|cat-adj|gen-any|num-any|pers-|case-d|vib-|tam-|chunkId-NP3|chunkType-child|stype-|voicetype-	8	nmod__adj	_	_
8	कार्रवाई	कार्रवाई	NN	n	lex-कार्रवाई|cat-n|gen-f|num-sg|pers-3|case-d|vib-0|tam-0|chunkId-NP3|chunkType-head|stype-|voicetype-	9	pof	_	_
9	की	कर	VM	v	lex-कर|cat-v|gen-f|num-sg|pers-3|case-|vib-या_जा+गा|tam-yA|chunkId-VGF2|chunkType-head|stype-declarative|voicetype-active	3	ccof	_	_
10	जाएगी	जा	VAUX	v	lex-जा|cat-v|gen-f|num-sg|pers-3|case-|vib-गा|tam-gA|chunkId-VGF2|chunkType-child|stype-|voicetype-	9	lwg__vaux	_	_
11	।	।	SYM	punc	lex-।|cat-punc|gen-|num-|pers-|case-|vib-|tam-|chunkId-BLK|chunkType-head|stype-|voicetype-	2	rsym	_	_

1	बेउर	बेउर	NNP	n	lex-बेउर|cat-n|gen-f|num-sg|pers-3|case-d|vib-0|tam-0|chunkId-NP|chunkType-child|stype-|voicetype-	2	nmod__adj	_	_
2	जेल	जेल	NN	n	lex-जेल|cat-n|gen-f|num-sg|pers-3|case-o|vib-0_का|tam-0|chunkId-NP|chunkType-head|stype-|voicetype-	4	r6	_	_
3	के	का	PSP	psp	lex-का|cat-psp|gen-m|num-sg|pers-|case-o|vib-|tam-|chunkId-NP|chunkType-child|stype-|voicetype-	2	lwg__psp	_	_
4	जेलर	जेलर	NN	n	lex-जेलर|cat-n|gen-m|num-sg|pers-3|case-o|vib-0|tam-0|chunkId-NP2|chunkType-head|stype-|voicetype-	6	nmod	_	_
5	भोला	भोला	NNPC	n	lex-भोला|cat-n|gen-m|num-sg|pers-3|case-d|vib-0|tam-0|chunkId-NP3|chunkType-child|stype-|voicetype-	6	pof__cn	_	_
6	सिंह	सिंह	NNP	n	lex-सिंह|cat-n|gen-m|num-sg|pers-3|case-o|vib-0|tam-0|chunkId-NP3|chunkType-head|stype-|voicetype-	7	ccof	_	_
7	और	और	CC	avy	lex-और|cat-avy|gen-|num-|pers-|case-|vib-|tam-|chunkId-CCP|chunkType-head|stype-|voicetype-	22	k1	_	_
8	कुछ	कुछ	QF	avy	lex-कुछ|cat-avy|gen-|num-|pers-|case-|vib-|tam-|chunkId-NP4|chunkType-child|stype-|voicetype-	10	nmod__adj	_	_
9	अन्य	अन्य	JJ	adj	lex-अन्य|cat-adj|gen-any|num-any|pers-|case-o|vib-|tam-|chunkId-NP4|chunkType-child|stype-|voicetype-	10	nmod__adj	_	_
10	कर्मचारियों	कर्मचारी	NN	n	lex-कर्मचारी|cat-n|gen-m|num-pl|pers-3|case-o|vib-0_ने|tam-0|chunkId-NP4|chunkType-head|stype-|voicetype-	7	ccof	_	_
11	ने	ने	PSP	psp	lex-ने|cat-psp|gen-|num-|pers-|case-|vib-|tam-|chunkId-NP4|chunkType-child|stype-|voicetype-	10	lwg__psp	_	_
12	कारागार	कारागार	NNC	n	lex-कारागार|cat-n|gen-m|num-sg|pers-3|case-d|vib-0|tam-0|chunkId-NP5|chunkType-child|stype-|voicetype-	13	pof__cn	_	_
13	विभाग	विभाग	NN	n	lex-विभाग|cat-n|gen-m|num-sg|pers-3|case-o|vib-0_को|tam-0|chunkId-NP5|chunkType-head|stype-|voicetype-	16	k4	_	_
14	को	को	PSP	psp	lex-को|cat-psp|gen-|num-|pers-|case-|vib-|tam-|chunkId-NP5|chunkType-child|stype-|voicetype-	13	lwg__psp	_	_
15	कल	कल	NN	n	lex-कल|cat-n|gen-m|num-sg|pers-3|case-d|vib-0|tam-0|chunkId-NP6|chunkType-head|stype-|voicetype-	16	k7t	_	_
16	दिए	दे	VM	v	lex-दे|cat-v|gen-m|num-sg|pers-any|case-|vib-या_जा+या१|tam-yA|chunkId-VGNF|chunkType-head|stype-|voicetype-	20	nmod__k2inv	_	_
17	गए	जा	VAUX	v	lex-जा|cat-v|gen-m|num-sg|pers-any|case-|vib-या१|tam-yA1|chunkId-VGNF|chunkType-child|stype-|voicetype-	16	lwg__vaux	_	_
18	एक	एक	QC	num	lex-एक|cat-num|gen-any|num-any|pers-|case-any|vib-|tam-|chunkId-NP7|chunkType-child|stype-|voicetype-	20	nmod__adj	_	_
19	लिखित	लिखित	JJ	adj	lex-लिखित|cat-adj|gen-any|num-any|pers-|case-o|vib-|tam-|chunkId-NP7|chunkType-child|stype-|voicetype-	20	nmod__adj	_	_
20	आवेदन	आवेदन	NN	n	lex-आवेदन|cat-n|gen-m|num-sg|pers-3|case-o|vib-0_में|tam-0|chunkId-NP7|chunkType-head|stype-|voicetype-	22	k7	_	_
21	में	में	PSP	psp	lex-में|cat-psp|gen-|num-|pers-|case-|vib-|tam-|chunkId-NP7|chunkType-child|stype-|voicetype-	20	lwg__psp	_	_
22	बताया	बता	VM	v	lex-बता|cat-v|gen-m|num-sg|pers-3|case-|vib-या_है|tam-yA|chunkId-VGF|chunkType-head|stype-declarative|voicetype-active	0	main	_	_
23	है	है	VAUX	v	lex-है|cat-v|gen-any|num-sg|pers-3|case-|vib-है|tam-hE|chunkId-VGF|chunkType-child|stype-|voicetype-	22	lwg__vaux	_	_
24	कि	कि	CC	avy	lex-कि|cat-avy|gen-|num-|pers-|case-|vib-|tam-|chunkId-CCP2|chunkType-head|stype-|voicetype-	22	k2	_	_
25	माकपा	माकपा	NNP	n	lex-माकपा|cat-n|gen-f|num-sg|pers-3|case-d|vib-0|tam-0|chunkId-NP8|chunkType-child|stype-|voicetype-	26	nmod__adj	_	_
26	विधायक	विधायक	NN	n	lex-विधायक|cat-n|gen-m|num-sg|pers-3|case-o|vib-0|tam-0|chunkId-NP8|chunkType-head|stype-|voicetype-	28	nmod	_	_
27	अजित	अजित	NNPC	n	lex-अजित|cat-n|gen-m|num-sg|pers-3|case-d|vib-0|tam-0|chunkId-NP9|chunkType-child|stype-|voicetype-	28	pof__cn	_	_
28	सरकार	सरकार	NNP	n	lex-सरकार|cat-n|gen-any|num-sg|pers-3|case-o|vib-0_का|tam-0|chunkId-NP9|chunkType-head|stype-|voicetype-	30	r6	_	_
29	की	का	PSP	psp	lex-का|cat-psp|gen-f|num-sg|pers-|case-o|vib-|tam-|chunkId-NP9|chunkType-child|stype-|voicetype-	28	lwg__psp	_	_
30	हत्या	हत्या	NN	n	lex-हत्या|cat-n|gen-f|num-sg|pers-3|case-o|vib-0_का|tam-0|chunkId-NP10|chunkType-head|stype-|voicetype-	32	r6	_	_
31	के	का	PSP	psp	lex-का|cat-psp|gen-m|num-sg|pers-|case-o|vib-|tam-|chunkId-NP10|chunkType-child|stype-|voicetype-	30	lwg__psp	_	_
32	मामले	मामला	NN	n	lex-मामला|cat-n|gen-m|num-sg|pers-3|case-o|vib-0_में|tam-0|chunkId-NP11|chunkType-head|stype-|voicetype-	53	k7	_	_
33	में	में	PSP	psp	lex-में|cat-psp|gen-|num-|pers-|case-|vib-|tam-|chunkId-NP11|chunkType-child|stype-|voicetype-	32	lwg__psp	_	_
34	जेल	जेल	NN	n	lex-जेल|cat-n|gen-f|num-sg|pers-3|case-o|vib-0_में|tam-0|chunkId-NP12|chunkType-head|stype-|voicetype-	36	jjmod	_	_
35	में	में	PSP	psp	lex-में|cat-psp|gen-|num-|pers-|case-|vib-|tam-|chunkId-NP12|chunkType-child|stype-|voicetype-	34	lwg__psp	_	_
36	बंद	बंद	JJ	adj	lex-बंद|cat-adj|gen-any|num-any|pers-|case-o|vib-|tam-|chunkId-JJP|chunkType-head|stype-|voicetype-	38	nmod	_	_
37	पप्पू	पप्पू	NNPC	n	lex-पप्पू|cat-n|gen-m|num-sg|pers-3|case-d|vib-0|tam-0|chunkId-NP13|chunkType-child|stype-|voicetype-	38	pof__cn	_	_
38	यादव	यादव	NNP	n	lex-यादव|cat-n|gen-any|num-sg|pers-3|case-o|vib-0_ने|tam-0|chunkId-NP13|chunkType-head|stype-|voicetype-	53	k1	_	_
39	ने	ने	PSP	psp	lex-ने|cat-psp|gen-|num-|pers-|case-|vib-|tam-|chunkId-NP13|chunkType-child|stype-|voicetype-	38	lwg__psp	_	_
40	मुलाकातियों	मुलाकाती	NN	n	lex-मुलाकाती|cat-n|gen-m|num-pl|pers-3|case-o|vib-0_से|tam-0|chunkId-NP14|chunkType-head|stype-|voicetype-	42	k2	_	_
41	से	से	PSP	psp	lex-से|cat-psp|gen-|num-|pers-|case-|vib-|tam-|chunkId-NP14|chunkType-child|stype-|voicetype-	40	lwg__psp	_	_
42	मिलने	मिल	VM	v	lex-मिल|cat-v|gen-any|num-any|pers-any|case-o|vib-ना_से|tam-nA|chunkId-VGNN|chunkType-head|stype-|voicetype-	45	rt	_	_
43	से	से	PSP	psp	lex-से|cat-psp|gen-|num-|pers-|case-|vib-|tam-|chunkId-VGNN|chunkType-child|stype-|voicetype-	42	lwg__psp	_	_
44	मना	मना	NN	n	lex-मना|cat-n|gen-m|num-sg|pers-3|case-d|vib-0|tam-0|chunkId-NP15|chunkType-head|stype-|voicetype-	45	pof	_	_
45	करने	कर	VM	v	lex-कर|cat-v|gen-any|num-any|pers-any|case-o|vib-ना_पर|tam-nA|chunkId-VGNN2|chunkType-head|stype-|voicetype-	53	k7	_	_
46	पर	पर	PSP	psp	lex-पर|cat-psp|gen-|num-|pers-|case-|vib-|tam-|chunkId-VGNN2|chunkType-child|stype-|voicetype-	45	lwg__psp	_	_
47	उन्हें	वह	PRP	pn	lex-वह|cat-pn|gen-any|num-sg|pers-3h|case-o|vib-को|tam-ko|chunkId-NP16|chunkType-head|stype-|voicetype-	53	k4	_	_
48	जान	जान	NN	n	lex-जान|cat-n|gen-f|num-sg|pers-3|case-o|vib-0_से|tam-0|chunkId-NP17|chunkType-head|stype-|voicetype-	50	pof	_	_
49	से	से	PSP	psp	lex-से|cat-psp|gen-|num-|pers-|case-|vib-|tam-|chunkId-NP17|chunkType-child|stype-|voicetype-	48	lwg__psp	_	_
50	मारने	मार	VM	v	lex-मार|cat-v|gen-any|num-sg|pers-any|case-o|vib-ना_का|tam-nA|chunkId-VGNN3|chunkType-head|stype-|voicetype-	52	r6-k2	_	_
51	की	का	PSP	psp	lex-का|cat-psp|gen-f|num-sg|pers-|case-d|vib-|tam-|chunkId-VGNN3|chunkType-child|stype-|voicetype-	50	lwg__psp	_	_
52	धमकी	धमकी	NN	n	lex-धमकी|cat-n|gen-f|num-sg|pers-3|case-d|vib-0|tam-0|chunkId-NP18|chunkType-head|stype-|voicetype-	53	pof	_	_
53	दी	दे	VM	v	lex-दे|cat-v|gen-f|num-sg|pers-any|case-|vib-या|tam-yA|chunkId-VGF2|chunkType-head|stype-declarative|voicetype-active	24	ccof	_	_
54	।	।	SYM	punc	lex-।|cat-punc|gen-|num-|pers-|case-|vib-|tam-|chunkId-BLK|chunkType-head|stype-|voicetype-	22	rsym	_	_

1	उन्होंने	वह	PRP	pn	lex-वह|cat-pn|gen-any|num-sg|pers-3h|case-o|vib-ने|tam-ne|chunkId-NP|chunkType-head|stype-|voicetype-	19	k1	_	_
2	परिस्थिति	परिस्थिति	NN	n	lex-परिस्थिति|cat-n|gen-f|num-sg|pers-3|case-o|vib-0_से|tam-0|chunkId-NP2|chunkType-head|stype-|voicetype-	4	k2	_	_
3	से	से	PSP	psp	lex-से|cat-psp|gen-|num-|pers-|case-|vib-|tam-|chunkId-NP2|chunkType-child|stype-|voicetype-	2	lwg__psp	_	_
4	निपटने	निपट	VM	v	lex-निपट|cat-v|gen-any|num-any|pers-any|case-o|vib-ना_के_लिए|tam-nA|chunkId-VGNN|chunkType-head|stype-|voicetype-	19	rt	_	_
5	के	के	PSP	psp	lex-के|cat-psp|gen-|num-|pers-|case-|vib-|tam-|chunkId-VGNN|chunkType-child|stype-|voicetype-	4	lwg__psp	_	_
6	लिए	लिए	PSP	psp	lex-लिए|cat-psp|gen-|num-|pers-|case-|vib-|tam-|chunkId-VGNN|chunkType-child|stype-|voicetype-	4	lwg__psp	_	_
7	मजिस्ट्रेट	मजिस्ट्रेट	NN	n	lex-मजिस्ट्रेट|cat-n|gen-m|num-sg|pers-3|case-o|vib-0_का|tam-0|chunkId-NP3|chunkType-head|stype-|voicetype-	9	r6	_	_
8	की	का	PSP	psp	lex-का|cat-psp|gen-f|num-sg|pers-|case-d|vib-|tam-|chunkId-NP3|chunkType-child|stype-|voicetype-	7	lwg__psp	_	_
9	निगरानी	निगरानी	NN	n	lex-निगरानी|cat-n|gen-f|num-sg|pers-3|case-o|vib-0_में|tam-0|chunkId-NP4|chunkType-head|stype-|voicetype-	15	k7	_	_
10	में	में	PSP	psp	lex-में|cat-psp|gen-|num-|pers-|case-|vib-|tam-|chunkId-NP4|chunkType-child|stype-|voicetype-	9	lwg__psp	_	_
11	अतिरिक्त	अतिरिक्त	JJ	adj	lex-अतिरिक्त|cat-adj|gen-any|num-any|pers-|case-d|vib-|tam-|chunkId-NP5|chunkType-child|stype-|voicetype-	13	nmod__adj	_	_
12	पुलिस	पुलिस	NNC	n	lex-पुलिस|cat-n|gen-f|num-sg|pers-3|case-d|vib-0|tam-0|chunkId-NP5|chunkType-child|stype-|voicetype-	13	pof__cn	_	_
13	बल	बल	NN	n	lex-बल|cat-n|gen-m|num-sg|pers-3|case-d|vib-0|tam-0|chunkId-NP5|chunkType-head|stype-|voicetype-	15	k2	_	_
14	तैनात	तैनात	JJ	adj	lex-तैनात|cat-adj|gen-any|num-any|pers-|case-|vib-|tam-|chunkId-JJP|chunkType-head|stype-|voicetype-	15	pof	_	_
15	करने	कर	VM	v	lex-कर|cat-v|gen-any|num-sg|pers-any|case-o|vib-ना_का|tam-nA|chunkId-VGNN2|chunkType-head|stype-|voicetype-	18	r6-k2	_	_
16	की	का	PSP	psp	lex-का|cat-psp|gen-f|num-sg|pers-|case-d|vib-|tam-|chunkId-VGNN2|chunkType-child|stype-|voicetype-	15	lwg__psp	_	_
17	भी	भी	RP	avy	lex-भी|cat-avy|gen-|num-|pers-|case-|vib-|tam-|chunkId-VGNN2|chunkType-child|stype-|voicetype-	15	lwg__rp	_	_
18	माँग	माँग	NN	n	lex-माँग|cat-n|gen-f|num-sg|pers-3|case-d|vib-0|tam-0|chunkId-NP6|chunkType-head|stype-|voicetype-	19	pof	_	_
19	की	कर	VM	v	lex-कर|cat-v|gen-f|num-sg|pers-3|case-|vib-या_है|tam-yA|chunkId-VGF|chunkType-head|stype-declarative|voicetype-active	0	main	_	_
20	है	है	VAUX	v	lex-है|cat-v|gen-any|num-sg|pers-3|case-|vib-है|tam-hE|chunkId-VGF|chunkType-child|stype-|voicetype-	19	lwg__vaux	_	_
21	।	।	SYM	punc	lex-।|cat-punc|gen-|num-|pers-|case-|vib-|tam-|chunkId-BLK|chunkType-head|stype-|voicetype-	19	rsym	_	_

1	जेल	जेल	NN	n	lex-जेल|cat-n|gen-f|num-sg|pers-3|case-o|vib-0_से|tam-0|chunkId-NP|chunkType-head|stype-|voicetype-	6	k7p	_	_
2	से	से	PSP	psp	lex-से|cat-psp|gen-|num-|pers-|case-|vib-|tam-|chunkId-NP|chunkType-child|stype-|voicetype-	1	lwg__psp	_	_
3	एक	एक	QC	num	lex-एक|cat-num|gen-any|num-any|pers-|case-any|vib-|tam-|chunkId-NP2|chunkType-child|stype-|voicetype-	5	nmod__adj	_	_
4	फैक्स	फैक्स	NNC	n	lex-फैक्स|cat-n|gen-m|num-sg|pers-3|case-d|vib-0|tam-0|chunkId-NP2|chunkType-child|stype-|voicetype-	5	pof__cn	_	_
5	संदेश	संदेश	NN	n	lex-संदेश|cat-n|gen-m|num-sg|pers-3|case-d|vib-0|tam-0|chunkId-NP2|chunkType-head|stype-|voicetype-	6	k1	_	_
6	मिलने	मिल	VM	v	lex-मिल|cat-v|gen-any|num-sg|pers-3|case-o|vib-ना_के_बाद|tam-nA|chunkId-VGNN|chunkType-head|stype-|voicetype-	21	k7t	_	_
7	के	के	PSP	psp	lex-के|cat-psp|gen-|num-|pers-|case-|vib-|tam-|chunkId-VGNN|chunkType-child|stype-|voicetype-	6	lwg__psp	_	_
8	बाद	बाद	NST	nst	lex-बाद|cat-nst|gen-m|num-sg|pers-3|case-d|vib-|tam-|chunkId-VGNN|chunkType-child|stype-|voicetype-	6	lwg__nst	_	_
9	पुलिस	पुलिस	NNC	n	lex-पुलिस|cat-n|gen-f|num-sg|pers-3|case-d|vib-0|tam-0|chunkId-NP3|chunkType-child|stype-|voicetype-	10	pof__cn	_	_
10	अधीक्षक	अधीक्षक	NN	n	lex-अधीक्षक|cat-n|gen-m|num-sg|pers-3|case-o|vib-0_ने|tam-0|chunkId-NP3|chunkType-head|stype-|voicetype-	21	k1	_	_
11	ने	ने	PSP	psp	lex-ने|cat-psp|gen-|num-|pers-|case-|vib-|tam-|chunkId-NP3|chunkType-child|stype-|voicetype-	10	lwg__psp	_	_
12	जेल	जेल	NN	n	lex-जेल|cat-n|gen-f|num-sg|pers-3|case-o|vib-0_में|tam-0|chunkId-NP4|chunkType-head|stype-|voicetype-	21	k7p	_	_
13	में	में	PSP	psp	lex-में|cat-psp|gen-|num-|pers-|case-|vib-|tam-|chunkId-NP4|chunkType-child|stype-|voicetype-	12	lwg__psp	_	_
14	अतिरिक्त	अतिरिक्त	JJ	adj	lex-अतिरिक्त|cat-adj|gen-any|num-any|pers-|case-o|vib-|tam-|chunkId-NP5|chunkType-child|stype-|voicetype-	16	nmod__adj	_	_
15	पुलिस	पुलिस	NNC	n	lex-पुलिस|cat-n|gen-f|num-sg|pers-3|case-d|vib-0|tam-0|chunkId-NP5|chunkType-child|stype-|voicetype-	16	pof__cn	_	_
16	बल	बल	NN	n	lex-बल|cat-n|gen-f|num-sg|pers-3|case-o|vib-0_का|tam-0|chunkId-NP5|chunkType-head|stype-|voicetype-	18	r6	_	_
17	की	का	PSP	psp	lex-का|cat-psp|gen-f|num-sg|pers-|case-o|vib-का|tam-kA|chunkId-NP5|chunkType-child|stype-|voicetype-	16	lwg__psp	_	_
18	तैनाती	तैनाती	NN	n	lex-तैनाती|cat-n|gen-f|num-sg|pers-3|case-o|vib-0_का|tam-0|chunkId-NP6|chunkType-head|stype-|voicetype-	20	r6-k2	_	_
19	के	का	PSP	psp	lex-का|cat-psp|gen-m|num-pl|pers-|case-d|vib-|tam-|chunkId-NP6|chunkType-child|stype-|voicetype-	18	lwg__psp	_	_
20	निर्देश	निर्देश	NN	n	lex-निर्देश|cat-n|gen-m|num-pl|pers-3|case-d|vib-0|tam-0|chunkId-NP7|chunkType-head|stype-|voicetype-	21	pof	_	_
21	दिए	दे	VM	v	lex-दे|cat-v|gen-m|num-pl|pers-3|case-|vib-या_है|tam-yA|chunkId-VGF|chunkType-head|stype-declarative|voicetype-active	0	main	_	_
22	हैं	है	VAUX	v	lex-है|cat-v|gen-any|num-pl|pers-3|case-|vib-है|tam-hE|chunkId-VGF|chunkType-child|stype-|voicetype-	21	lwg__vaux	_	_
23	।	।	SYM	punc	lex-।|cat-punc|gen-|num-|pers-|case-|vib-|tam-|chunkId-BLK|chunkType-head|stype-|voicetype-	21	rsym	_	_

1	कैदियों	कैदी	NN	n	lex-कैदी|cat-n|gen-m|num-pl|pers-3|case-o|vib-0_से|tam-0|chunkId-NP|chunkType-head|stype-|voicetype-	3	k2	_	_
2	से	से	PSP	psp	lex-से|cat-psp|gen-|num-|pers-|case-|vib-|tam-|chunkId-NP|chunkType-child|stype-|voicetype-	1	lwg__psp	_	_
3	मिलने	मिल	VM	v	lex-मिल|cat-v|gen-any|num-any|pers-any|case-d|vib-ना|tam-nA|chunkId-VGNN|chunkType-head|stype-|voicetype-	4	rt	_	_
4	आने	आ	VM	v	lex-आ|cat-v|gen-m|num-sg|pers-any|case-o|vib-ना_वाला_का|tam-nA|chunkId-VGNN2|chunkType-head|stype-|voicetype-	7	r6	_	_
5	वालों	वाला	PSP	psp	lex-वाला|cat-psp|gen-m|num-pl|pers-|case-o|vib-|tam-|chunkId-VGNN2|chunkType-child|stype-|voicetype-	4	lwg__psp	_	_
6	की	का	PSP	psp	lex-का|cat-psp|gen-f|num-sg|pers-|case-o|vib-|tam-|chunkId-VGNN2|chunkType-child|stype-|voicetype-	4	lwg__psp	_	_
7	भीड़	भीड़	NN	n	lex-भीड़|cat-n|gen-f|num-sg|pers-3|case-o|vib-0_के_कारण|tam-0|chunkId-NP2|chunkType-head|stype-|voicetype-	15	rh	_	_
8	के	के	PSP	psp	lex-के|cat-psp|gen-m|num-|pers-|case-o|vib-|tam-|chunkId-NP2|chunkType-child|stype-|voicetype-	7	lwg__psp	_	_
9	कारण	कारण	PSP	n	lex-कारण|cat-n|gen-m|num-|pers-|case-o|vib-|tam-|chunkId-NP2|chunkType-child|stype-|voicetype-	7	lwg__psp	_	_
10	जेलकर्मियों	जेलकर्मी	NN	n	lex-जेलकर्मी|cat-n|gen-m|num-pl|pers-3|case-o|vib-0_को|tam-0|chunkId-NP3|chunkType-head|stype-|voicetype-	15	k1	_	_
11	को	को	PSP	psp	lex-को|cat-psp|gen-|num-|pers-|case-|vib-|tam-|chunkId-NP3|chunkType-child|stype-|voicetype-	10	lwg__psp	_	_
12	कठिनाइयों	कठिनाई	NN	n	lex-कठिनाई|cat-n|gen-f|num-pl|pers-3|case-o|vib-0_का|tam-0|chunkId-NP4|chunkType-head|stype-|voicetype-	14	r6-k2	_	_
13	का	का	PSP	psp	lex-का|cat-psp|gen-m|num-sg|pers-|case-d|vib-|tam-|chunkId-NP4|chunkType-child|stype-|voicetype-	12	lwg__psp	_	_
14	सामना	सामना	NN	n	lex-सामना|cat-n|gen-m|num-sg|pers-3|case-d|vib-0|tam-0|chunkId-NP5|chunkType-head|stype-|voicetype-	15	pof	_	_
15	करना	कर	VM	v	lex-कर|cat-v|gen-m|num-sg|pers-any|case-|vib-ना_पड़_रह+या_था|tam-nA|chunkId-VGF|chunkType-head|stype-declarative|voicetype-active	0	main	_	_
16	पड़	पड़	VAUX	v	lex-पड़|cat-v|gen-any|num-any|pers-any|case-|vib-0|tam-0|chunkId-VGF|chunkType-child|stype-|voicetype-	15	lwg__vaux	_	_
17	रहा	रह	VAUX	v	lex-रह|cat-v|gen-m|num-sg|pers-any|case-|vib-या|tam-yA|chunkId-VGF|chunkType-child|stype-|voicetype-	15	lwg__vaux	_	_
18	था	था	VAUX	v	lex-था|cat-v|gen-m|num-sg|pers-any|case-|vib-था|tam-WA|chunkId-VGF|chunkType-child|stype-|voicetype-	15	lwg__vaux	_	_
19	।	।	SYM	punc	lex-।|cat-punc|gen-|num-|pers-|case-|vib-|tam-|chunkId-BLK|chunkType-head|stype-|voicetype-	15	rsym	_	_

1	वरिष्ठ	वरिष्ठ	JJ	adj	lex-वरिष्ठ|cat-adj|gen-any|num-any|pers-|case-o|vib-|tam-|chunkId-NP|chunkType-child|stype-|voicetype-	3	nmod__adj	_	_
2	पुलिस	पुलिस	NNC	n	lex-पुलिस|cat-n|gen-f|num-sg|pers-3|case-d|vib-0|tam-0|chunkId-NP|chunkType-child|stype-|voicetype-	3	pof__cn	_	_
3	अधीक्षक	अधीक्षक	NN	n	lex-अधीक्षक|cat-n|gen-m|num-sg|pers-3|case-o|vib-0|tam-0|chunkId-NP|chunkType-head|stype-|voicetype-	6	nmod	_	_
4	एन.	एन.	NNPC	n	lex-एन.|cat-n|gen-m|num-sg|pers-3|case-d|vib-0|tam-0|chunkId-NP2|chunkType-child|stype-|voicetype-	6	pof__cn	_	_
5	के.	के.	NNPC	n	lex-के.|cat-n|gen-m|num-sg|pers-3|case-d|vib-0|tam-0|chunkId-NP2|chunkType-child|stype-|voicetype-	6	pof__cn	_	_
6	खान	खान	NNP	n	lex-खान|cat-n|gen-m|num-sg|pers-3|case-o|vib-0_ने|tam-0|chunkId-NP2|chunkType-head|stype-|voicetype-	28	k1	_	_
7	ने	ने	PSP	psp	lex-ने|cat-psp|gen-|num-|pers-|case-|vib-|tam-|chunkId-NP2|chunkType-child|stype-|voicetype-	6	lwg__psp	_	_
8	फुलवारी	फुलवारी	NNPC	n	lex-फुलवारी|cat-n|gen-f|num-sg|pers-3|case-d|vib-0|tam-0|chunkId-NP3|chunkType-child|stype-|voicetype-	9	pof__cn	_	_
9	शरीफ	शरीफ	NNP	n	lex-शरीफ|cat-n|gen-m|num-sg|pers-3|case-d|vib-0|tam-0|chunkId-NP3|chunkType-child|stype-|voicetype-	10	nmod__adj	_	_
10	थाने	थाना	NN	n	lex-थाना|cat-n|gen-m|num-sg|pers-3|case-o|vib-0_का|tam-0|chunkId-NP3|chunkType-head|stype-|voicetype-	12	r6	_	_
11	के	का	PSP	psp	lex-का|cat-psp|gen-m|num-sg|pers-|case-o|vib-|tam-|chunkId-NP3|chunkType-child|stype-|voicetype-	10	lwg__psp	_	_
12	प्रभारी	प्रभारी	NN	n	lex-प्रभारी|cat-n|gen-m|num-sg|pers-3|case-o|vib-0_को|tam-0|chunkId-NP4|chunkType-head|stype-|voicetype-	28	k4	_	_
13	को	को	PSP	psp	lex-को|cat-psp|gen-|num-|pers-|case-|vib-|tam-|chunkId-NP4|chunkType-child|stype-|voicetype-	12	lwg__psp	_	_
14	मामले	मामला	NN	n	lex-मामला|cat-n|gen-m|num-sg|pers-3|case-o|vib-0_को|tam-0|chunkId-NP5|chunkType-head|stype-|voicetype-	16	k2	_	_
15	को	को	PSP	psp	lex-को|cat-psp|gen-|num-|pers-|case-|vib-|tam-|chunkId-NP5|chunkType-child|stype-|voicetype-	14	lwg__psp	_	_
16	देखने	देख	VM	v	lex-देख|cat-v|gen-any|num-any|pers-any|case-o|vib-ना|tam-nA|chunkId-VGNN|chunkType-head|stype-|voicetype-	17	ccof	_	_
17	और	और	CC	avy	lex-और|cat-avy|gen-|num-|pers-|case-|vib-|tam-|chunkId-CCP|chunkType-head|stype-|voicetype-	27	r6-k2	_	_
18	जेल	जेल	NN	n	lex-जेल|cat-n|gen-f|num-sg|pers-3|case-o|vib-0_में|tam-0|chunkId-NP6|chunkType-head|stype-|voicetype-	25	k7p	_	_
19	में	में	PSP	psp	lex-में|cat-psp|gen-|num-|pers-|case-|vib-|tam-|chunkId-NP6|chunkType-child|stype-|voicetype-	18	lwg__psp	_	_
20	अतिरिक्त	अतिरिक्त	JJ	adj	lex-अतिरिक्त|cat-adj|gen-any|num-any|pers-|case-d|vib-|tam-|chunkId-NP7|chunkType-child|stype-|voicetype-	23	nmod__adj	_	_
21	पुलिस	पुलिस	NNC	n	lex-पुलिस|cat-n|gen-f|num-sg|pers-3|case-d|vib-0|tam-0|chunkId-NP7|chunkType-child|stype-|voicetype-	23	pof__cn	_	_
22	-	-	SYM	punc	lex--|cat-punc|gen-|num-|pers-|case-|vib-|tam-|chunkId-NP7|chunkType-child|stype-|voicetype-	23	pof__cn	_	_
23	बल	बल	NN	n	lex-बल|cat-n|gen-m|num-sg|pers-3|case-d|vib-0|tam-0|chunkId-NP7|chunkType-head|stype-|voicetype-	25	k2	_	_
24	तैनात	तैनात	JJ	adj	lex-तैनात|cat-adj|gen-any|num-any|pers-|case-|vib-|tam-|chunkId-JJP|chunkType-head|stype-|voicetype-	25	pof	_	_
25	करने	कर	VM	v	lex-कर|cat-v|gen-any|num-sg|pers-any|case-o|vib-ना_का|tam-nA|chunkId-VGNN2|chunkType-head|stype-|voicetype-	17	ccof	_	_
26	का	का	PSP	psp	lex-का|cat-psp|gen-m|num-sg|pers-|case-d|vib-|tam-|chunkId-VGNN2|chunkType-child|stype-|voicetype-	25	lwg__psp	_	_
27	आदेश	आदेश	NN	n	lex-आदेश|cat-n|gen-m|num-sg|pers-3|case-d|vib-0|tam-0|chunkId-NP8|chunkType-head|stype-|voicetype-	28	pof	_	_
28	दिया	दे	VM	v	lex-दे|cat-v|gen-m|num-sg|pers-3|case-|vib-या_है|tam-yA|chunkId-VGF|chunkType-head|stype-declarative|voicetype-active	0	main	_	_
29	है	है	VAUX	v	lex-है|cat-v|gen-any|num-sg|pers-3|case-|vib-है|tam-hE|chunkId-VGF|chunkType-child|stype-|voicetype-	28	lwg__vaux	_	_
30	।	।	SYM	punc	lex-।|cat-punc|gen-|num-|pers-|case-|vib-|tam-|chunkId-BLK|chunkType-head|stype-|voicetype-	28	rsym	_	_

1	बताया	बता	VM	v	lex-बता|cat-v|gen-m|num-sg|pers-3|case-|vib-या_जा+ता_है|tam-yA|chunkId-VGF|chunkType-head|stype-declarative|voicetype-active	0	main	_	_
2	जाता	जा	VAUX	v	lex-जा|cat-v|gen-m|num-sg|pers-any|case-|vib-ता|tam-wA|chunkId-VGF|chunkType-child|stype-|voicetype-	1	lwg__vaux	_	_
3	है	है	VAUX	v	lex-है|cat-v|gen-any|num-sg|pers-3|case-|vib-है|tam-hE|chunkId-VGF|chunkType-child|stype-|voicetype-	1	lwg__vaux	_	_
4	कि	कि	CC	avy	lex-कि|cat-avy|gen-|num-|pers-|case-|vib-|tam-|chunkId-CCP|chunkType-head|stype-|voicetype-	1	k2	_	_
5	इसके	यह	PRP	pn	lex-यह|cat-pn|gen-m|num-sg|pers-3|case-o|vib-0_पूर्व|tam-ke|chunkId-NP|chunkType-head|stype-|voicetype-	36	k7t	_	_
6	पूर्व	पूर्व	NST	nst	lex-पूर्व|cat-nst|gen-m|num-sg|pers-3|case-d|vib-|tam-|chunkId-NP|chunkType-child|stype-|voicetype-	5	lwg__psp	_	_
7	मधेपुरा	मधेपुरा	NNP	n	lex-मधेपुरा|cat-n|gen-m|num-sg|pers-3|case-o|vib-0_से|tam-0|chunkId-NP2|chunkType-head|stype-|voicetype-	11	nmod	_	_
8	से	से	PSP	psp	lex-से|cat-psp|gen-|num-|pers-|case-|vib-|tam-|chunkId-NP2|chunkType-child|stype-|voicetype-	7	lwg__psp	_	_
9	राजद	राजद	NNP	n	lex-राजद|cat-n|gen-m|num-sg|pers-3|case-o|vib-0_का|tam-0|chunkId-NP3|chunkType-head|stype-|voicetype-	11	r6	_	_
10	के	का	PSP	psp	lex-का|cat-psp|gen-m|num-sg|pers-|case-o|vib-|tam-|chunkId-NP3|chunkType-child|stype-|voicetype-	9	lwg__psp	_	_
11	सांसद	सांसद	NN	n	lex-सांसद|cat-n|gen-m|num-sg|pers-3|case-o|vib-0|tam-0|chunkId-NP4|chunkType-head|stype-|voicetype-	13	nmod	_	_
12	पप्पू	पप्पू	NNPC	n	lex-पप्पू|cat-n|gen-m|num-sg|pers-3|case-d|vib-0|tam-0|chunkId-NP5|chunkType-child|stype-|voicetype-	13	pof__cn	_	_
13	यादव	यादव	NNP	n	lex-यादव|cat-n|gen-any|num-sg|pers-3|case-o|vib-0_का|tam-0|chunkId-NP5|chunkType-head|stype-|voicetype-	35	r6-k1	_	_
14	की	का	PSP	psp	lex-का|cat-psp|gen-f|num-sg|pers-|case-d|vib-|tam-|chunkId-NP5|chunkType-child|stype-|voicetype-	13	lwg__psp	_	_
15	उनसे	वह	PRP	pn	lex-वह|cat-pn|gen-any|num-sg|pers-3h|case-o|vib-से|tam-se|chunkId-NP6|chunkType-head|stype-|voicetype-	16	k4a	_	_
16	मिलने	मिल	VM	v	lex-मिल|cat-v|gen-any|num-any|pers-any|case-d|vib-ना|tam-nA|chunkId-VGNN|chunkType-head|stype-|voicetype-	20	rt	_	_
17	बड़ी	बड़ा	JJ	adj	lex-बड़ा|cat-adj|gen-f|num-sg|pers-|case-o|vib-|tam-|chunkId-NP7|chunkType-child|stype-|voicetype-	18	nmod__adj	_	_
18	संख्या	संख्या	NN	n	lex-संख्या|cat-n|gen-f|num-sg|pers-3|case-o|vib-0_में|tam-0|chunkId-NP7|chunkType-head|stype-|voicetype-	20	k7	_	_
19	में	में	PSP	psp	lex-में|cat-psp|gen-|num-|pers-|case-|vib-|tam-|chunkId-NP7|chunkType-child|stype-|voicetype-	18	lwg__psp	_	_
20	आने	आ	VM	v	lex-आ|cat-v|gen-any|num-pl|pers-any|case-o|vib-ना_वाला|tam-nA|chunkId-VGNN2|chunkType-head|stype-|voicetype-	23	nmod	_	_
21	वाले	वाला	PSP	psp	lex-वाला|cat-psp|gen-m|num-pl|pers-|case-o|vib-|tam-|chunkId-VGNN2|chunkType-child|stype-|voicetype-	20	lwg__psp	_	_
22	अनाधिकृत	अनाधिकृत	JJ	adj	lex-अनाधिकृत|cat-adj|gen-any|num-any|pers-|case-o|vib-|tam-|chunkId-NP8|chunkType-child|stype-|voicetype-	23	nmod__adj	_	_
23	मुलाकातियों	मुलाकाती	NN	n	lex-मुलाकाती|cat-n|gen-m|num-pl|pers-3|case-o|vib-0_को|tam-0|chunkId-NP8|chunkType-head|stype-|voicetype-	25	k2	_	_
24	को	को	PSP	psp	lex-को|cat-psp|gen-|num-|pers-|case-|vib-|tam-|chunkId-NP8|chunkType-child|stype-|voicetype-	23	lwg__psp	_	_
25	रोकने	रोक	VM	v	lex-रोक|cat-v|gen-any|num-sg|pers-any|case-o|vib-ना_का|tam-nA|chunkId-VGNN3|chunkType-head|stype-|voicetype-	27	r6	_	_
26	के	का	PSP	psp	lex-का|cat-psp|gen-m|num-sg|pers-|case-o|vib-|tam-|chunkId-VGNN3|chunkType-child|stype-|voicetype-	25	lwg__psp	_	_
27	मामले	मामला	NN	n	lex-मामला|cat-n|gen-m|num-sg|pers-3|case-o|vib-0_में|tam-0|chunkId-NP9|chunkType-head|stype-|voicetype-	36	k7	_	_
28	में	में	PSP	psp	lex-में|cat-psp|gen-|num-|pers-|case-|vib-|tam-|chunkId-NP9|chunkType-child|stype-|voicetype-	27	lwg__psp	_	_
29	जेल	जेल	NNC	n	lex-जेल|cat-n|gen-f|num-sg|pers-3|case-d|vib-0|tam-0|chunkId-NP10|chunkType-child|stype-|voicetype-	30	pof__cn	_	_
30	महानिरीक्षक	महानिरीक्षक	NN	n	lex-महानिरीक्षक|cat-n|gen-m|num-sg|pers-3|case-o|vib-0_से|tam-0|chunkId-NP10|chunkType-head|stype-|voicetype-	36	k2	_	_
31	से	से	PSP	psp	lex-से|cat-psp|gen-|num-|pers-|case-|vib-|tam-|chunkId-NP10|chunkType-child|stype-|voicetype-	30	lwg__psp	_	_
32	भी	भी	RP	avy	lex-भी|cat-avy|gen-|num-|pers-|case-|vib-|tam-|chunkId-NP10|chunkType-child|stype-|voicetype-	30	lwg__rp	_	_
33	नोक	नोक	NNC	n	lex-नोक|cat-n|gen-f|num-sg|pers-3|case-d|vib-0|tam-0|chunkId-NP11|chunkType-child|stype-|voicetype-	35	pof__cn	_	_
34	-	-	SYM	punc	lex--|cat-punc|gen-|num-|pers-|case-|vib-|tam-|chunkId-NP11|chunkType-child|stype-|voicetype-	35	pof__cn	_	_
35	झोंक	झोंक	NN	n	lex-झोंक|cat-n|gen-f|num-sg|pers-3|case-d|vib-0|tam-0|chunkId-NP11|chunkType-head|stype-|voicetype-	36	pof	_	_
36	हो	हो	VM	v	lex-हो|cat-v|gen-f|num-sg|pers-3|case-|vib-0_चुक+या_है|tam-0|chunkId-VGF2|chunkType-head|stype-declarative|voicetype-active	4	ccof	_	_
37	चुकी	चुक	VAUX	v	lex-चुक|cat-v|gen-f|num-sg|pers-any|case-|vib-या|tam-yA|chunkId-VGF2|chunkType-child|stype-|voicetype-	36	lwg__vaux	_	_
38	है	है	VAUX	v	lex-है|cat-v|gen-any|num-sg|pers-3|case-|vib-है|tam-hE|chunkId-VGF2|chunkType-child|stype-|voicetype-	36	lwg__vaux	_	_
39	।	।	SYM	punc	lex-।|cat-punc|gen-|num-|pers-|case-|vib-|tam-|chunkId-BLK|chunkType-head|stype-|voicetype-	1	rsym	_	_

1	इस	यह	DEM	pn	lex-यह|cat-pn|gen-any|num-sg|pers-3|case-o|vib-|tam-|chunkId-NP|chunkType-child|stype-|voicetype-	2	nmod__adj	_	_
2	घटना	घटना	NN	n	lex-घटना|cat-n|gen-f|num-sg|pers-3|case-o|vib-0_पर|tam-0|chunkId-NP|chunkType-head|stype-|voicetype-	9	k7	_	_
3	पर	पर	PSP	psp	lex-पर|cat-psp|gen-|num-|pers-|case-|vib-|tam-|chunkId-NP|chunkType-child|stype-|voicetype-	2	lwg__psp	_	_
4	सुप्रीम	सुप्रीम	NNPC	adj	lex-सुप्रीम|cat-adj|gen-any|num-any|pers-|case-o|vib-|tam-|chunkId-NP2|chunkType-child|stype-|voicetype-	5	pof__cn	_	_
5	कोर्ट	कोर्ट	NNP	n	lex-कोर्ट|cat-n|gen-f|num-sg|pers-3|case-o|vib-0_का|tam-0|chunkId-NP2|chunkType-head|stype-|voicetype-	8	r6	_	_
6	की	का	PSP	psp	lex-का|cat-psp|gen-f|num-sg|pers-|case-d|vib-|tam-|chunkId-NP2|chunkType-child|stype-|voicetype-	5	lwg__psp	_	_
7	भी	भी	RP	avy	lex-भी|cat-avy|gen-|num-|pers-|case-|vib-|tam-|chunkId-NP2|chunkType-child|stype-|voicetype-	5	lwg__rp	_	_
8	निगाह	निगाह	NN	n	lex-निगाह|cat-n|gen-f|num-sg|pers-3|case-d|vib-0|tam-0|chunkId-NP3|chunkType-head|stype-|voicetype-	9	k1	_	_
9	है	है	VM	v	lex-है|cat-v|gen-any|num-sg|pers-3|case-|vib-है|tam-hE|chunkId-VGF|chunkType-head|stype-declarative|voicetype-active	0	main	_	_
10	,	COMMA	SYM	punc	lex-COMMA|cat-punc|gen-|num-|pers-|case-|vib-|tam-|chunkId-VGF|chunkType-child|stype-|voicetype-	9	rsym	_	_
11	जिसने	जो	PRP	pn	lex-जो|cat-pn|gen-any|num-sg|pers-3|case-o|vib-ने|tam-ne|chunkId-NP4|chunkType-head|stype-|voicetype-	19	k1	_	_
12	मामले	मामला	NN	n	lex-मामला|cat-n|gen-m|num-sg|pers-3|case-o|vib-0_का|tam-0|chunkId-NP5|chunkType-head|stype-|voicetype-	14	r6	_	_
13	की	का	PSP	psp	lex-का|cat-psp|gen-f|num-sg|pers-|case-o|vib-|tam-|chunkId-NP5|chunkType-child|stype-|voicetype-	12	lwg__psp	_	_
14	जाँच	जाँच	NN	n	lex-जाँच|cat-n|gen-f|num-sg|pers-3|case-o|vib-0_के_लिए|tam-0|chunkId-NP6|chunkType-head|stype-|voicetype-	19	rt	_	_
15	के	के	PSP	psp	lex-के|cat-psp|gen-|num-|pers-|case-|vib-|tam-|chunkId-NP6|chunkType-child|stype-|voicetype-	14	lwg__psp	_	_
16	लिए	लिए	PSP	psp	lex-लिए|cat-psp|gen-|num-|pers-|case-|vib-|tam-|chunkId-NP6|chunkType-child|stype-|voicetype-	14	lwg__psp	_	_
17	सीबीआई	सीबीआई	NNP	n	lex-सीबीआई|cat-n|gen-m|num-sg|pers-3|case-o|vib-0_से|tam-0|chunkId-NP7|chunkType-head|stype-|voicetype-	19	k4	_	_
18	से	से	PSP	psp	lex-से|cat-psp|gen-|num-|pers-|case-|vib-|tam-|chunkId-NP7|chunkType-child|stype-|voicetype-	17	lwg__psp	_	_
19	कहा	कह	VM	v	lex-कह|cat-v|gen-m|num-sg|pers-3|case-|vib-या_है|tam-yA|chunkId-VGF2|chunkType-head|stype-declarative|voicetype-active	5	nmod__relc	_	_
20	है	है	VAUX	v	lex-है|cat-v|gen-any|num-sg|pers-3|case-|vib-है|tam-hE|chunkId-VGF2|chunkType-child|stype-|voicetype-	19	lwg__vaux	_	_
21	।	।	SYM	punc	lex-।|cat-punc|gen-|num-|pers-|case-|vib-|tam-|chunkId-BLK|chunkType-head|stype-|voicetype-	9	rsym	_	_

