1	जम्मू	जम्मू	NNPC	n	lex-जम्मू|cat-n|gen-m|num-sg|pers-3|case-d|vib-0|tam-0|chunkId-NP|chunkType-child|stype-|voicetype-	3	pof__cn	_	_
2	-	-	SYM	punc	lex--|cat-punc|gen-|num-|pers-|case-|vib-|tam-|chunkId-NP|chunkType-child|stype-|voicetype-	3	rsym	_	_
3	कश्मीर	कश्मीर	NNP	n	lex-कश्मीर|cat-n|gen-m|num-sg|pers-3|case-o|vib-0_का|tam-0|chunkId-NP|chunkType-head|stype-|voicetype-	6	r6	_	_
4	के	का	PSP	psp	lex-का|cat-psp|gen-m|num-sg|pers-|case-o|vib-|tam-|chunkId-NP|chunkType-child|stype-|voicetype-	3	lwg__psp	_	_
5	पुंछ	पुंछ	NNP	n	lex-पुंछ|cat-n|gen-m|num-sg|pers-3|case-d|vib-0|tam-0|chunkId-NP2|chunkType-child|stype-|voicetype-	6	nmod__adj	_	_
6	जिले	जिला	NN	n	lex-जिला|cat-n|gen-m|num-sg|pers-3|case-o|vib-0_में|tam-0|chunkId-NP2|chunkType-head|stype-|voicetype-	26	k7	_	_
7	में	में	PSP	psp	lex-में|cat-psp|gen-|num-|pers-|case-|vib-|tam-|chunkId-NP2|chunkType-child|stype-|voicetype-	6	lwg__psp	_	_
8	शुक्रवार	शुक्रवार	NNP	n	lex-शुक्रवार|cat-n|gen-m|num-sg|pers-3|case-o|vib-0_को|tam-0|chunkId-NP3|chunkType-head|stype-|voicetype-	26	k7t	_	_
9	को	को	PSP	psp	lex-को|cat-psp|gen-|num-|pers-|case-|vib-|tam-|chunkId-NP3|chunkType-child|stype-|voicetype-	8	lwg__psp	_	_
10	सेना	सेना	NN	n	lex-सेना|cat-n|gen-f|num-sg|pers-3|case-d|vib-0|tam-0|chunkId-NP4|chunkType-head|stype-|voicetype-	11	ccof	_	_
11	और	और	CC	avy	lex-और|cat-avy|gen-|num-|pers-|case-|vib-|tam-|chunkId-CCP|chunkType-head|stype-|voicetype-	15	k7	_	_
12	आतंकियों	आतंकी	NN	n	lex-आतंकी|cat-n|gen-m|num-pl|pers-3|case-o|vib-0_के_बीच|tam-0|chunkId-NP5|chunkType-head|stype-|voicetype-	11	ccof	_	_
13	के	के	PSP	psp	lex-के|cat-psp|gen-|num-|pers-|case-|vib-|tam-|chunkId-NP5|chunkType-child|stype-|voicetype-	12	lwg__psp	_	_
14	बीच	बीच	NST	nst	lex-बीच|cat-nst|gen-m|num-sg|pers-3|case-d|vib-|tam-|chunkId-NP5|chunkType-child|stype-|voicetype-	12	lwg__psp	_	_
15	हुई	हो	VM	v	lex-हो|cat-v|gen-f|num-sg|pers-any|case-|vib-या|tam-yA|chunkId-VGNF|chunkType-head|stype-|voicetype-	16	nmod__k1inv	_	_
16	मुठभेड़	मुठभेड़	NN	n	lex-मुठभेड़|cat-n|gen-f|num-sg|pers-3|case-o|vib-0_में|tam-0|chunkId-NP6|chunkType-head|stype-|voicetype-	26	k7	_	_
17	में	में	PSP	psp	lex-में|cat-psp|gen-|num-|pers-|case-|vib-|tam-|chunkId-NP6|chunkType-child|stype-|voicetype-	16	lwg__psp	_	_
18	लश्कर	लश्कर	NNPC	n	lex-लश्कर|cat-n|gen-m|num-sg|pers-3|case-d|vib-0|tam-0|chunkId-NP7|chunkType-child|stype-|voicetype-	22	pof__cn	_	_
19	-	-	SYM	punc	lex--|cat-punc|gen-|num-|pers-|case-|vib-|tam-|chunkId-NP7|chunkType-child|stype-|voicetype-	22	rsym	_	_
20	ए	ए	NNPC	n	lex-ए|cat-n|gen-m|num-sg|pers-3|case-d|vib-0|tam-0|chunkId-NP7|chunkType-child|stype-|voicetype-	22	nmod__adj	_	_
21	-	-	SYM	punc	lex--|cat-punc|gen-|num-|pers-|case-|vib-|tam-|chunkId-NP7|chunkType-child|stype-|voicetype-	22	rsym	_	_
22	ताइबा	ताइबा	NNP	n	lex-ताइबा|cat-n|gen-m|num-sg|pers-3|case-o|vib-0_का|tam-0|chunkId-NP7|chunkType-head|stype-|voicetype-	25	r6	_	_
23	के	का	PSP	psp	lex-का|cat-psp|gen-m|num-pl|pers-|case-d|vib-|tam-|chunkId-NP7|chunkType-child|stype-|voicetype-	22	lwg__psp	_	_
24	तीन	तीन	QC	num	lex-तीन|cat-num|gen-any|num-any|pers-|case-any|vib-|tam-|chunkId-NP8|chunkType-child|stype-|voicetype-	25	nmod__adj	_	_
25	आतंकी	आतंकी	NN	n	lex-आतंकी|cat-n|gen-m|num-pl|pers-3|case-d|vib-0|tam-0|chunkId-NP8|chunkType-head|stype-|voicetype-	26	k2	_	_
26	मारे	मार	VM	v	lex-मार|cat-v|gen-m|num-pl|pers-any|case-|vib-या_जा+या१|tam-yA|chunkId-VGF|chunkType-head|stype-declarative|voicetype-passive	0	main	_	_
27	गए	जा	VAUX	v	lex-जा|cat-v|gen-m|num-pl|pers-any|case-|vib-या१|tam-yA1|chunkId-VGF|chunkType-child|stype-|voicetype-	26	lwg__vaux	_	_
28	।	।	SYM	punc	lex-।|cat-punc|gen-|num-|pers-|case-|vib-|tam-|chunkId-BLK|chunkType-head|stype-|voicetype-	26	rsym	_	_

1	आतंकवादी	आतंकवादी	NN	n	lex-आतंकवादी|cat-n|gen-m|num-pl|pers-3|case-d|vib-0|tam-0|chunkId-NP|chunkType-head|stype-|voicetype-	6	k1	_	_
2	घुसपैठ	घुसपैठ	NN	n	lex-घुसपैठ|cat-n|gen-f|num-sg|pers-3|case-o|vib-0_का|tam-0|chunkId-NP2|chunkType-head|stype-|voicetype-	4	r6	_	_
3	की	का	PSP	psp	lex-का|cat-psp|gen-f|num-sg|pers-|case-o|vib-|tam-|chunkId-NP2|chunkType-child|stype-|voicetype-	2	lwg__psp	_	_
4	फिराक	फिराक	NN	n	lex-फिराक|cat-n|gen-f|num-sg|pers-3|case-o|vib-0_में|tam-0|chunkId-NP3|chunkType-head|stype-|voicetype-	6	k7	_	_
5	में	में	PSP	psp	lex-में|cat-psp|gen-|num-|pers-|case-|vib-|tam-|chunkId-NP3|chunkType-child|stype-|voicetype-	4	lwg__psp	_	_
6	थे	था	VM	v	lex-था|cat-v|gen-m|num-pl|pers-any|case-|vib-था|tam-WA|chunkId-VGF|chunkType-head|stype-declarative|voicetype-active	0	main	_	_
7	।	।	SYM	punc	lex-।|cat-punc|gen-|num-|pers-|case-|vib-|tam-|chunkId-BLK|chunkType-head|stype-|voicetype-	6	rsym	_	_

1	इस	यह	DEM	pn	lex-यह|cat-pn|gen-any|num-sg|pers-3|case-o|vib-|tam-|chunkId-NP|chunkType-child|stype-|voicetype-	2	nmod__adj	_	_
2	मुठभेड़	मुठभेड़	NN	n	lex-मुठभेड़|cat-n|gen-f|num-sg|pers-3|case-o|vib-0_में|tam-0|chunkId-NP|chunkType-head|stype-|voicetype-	13	k7	_	_
3	में	में	PSP	psp	lex-में|cat-psp|gen-|num-|pers-|case-|vib-|tam-|chunkId-NP|chunkType-child|stype-|voicetype-	2	lwg__psp	_	_
4	एक	एक	QC	num	lex-एक|cat-num|gen-any|num-any|pers-|case-any|vib-|tam-|chunkId-NP2|chunkType-child|stype-|voicetype-	5	nmod__adj	_	_
5	जेसीओ	जेसीओ	NNP	n	lex-जेसीओ|cat-n|gen-m|num-sg|pers-3|case-o|vib-0_सहित|tam-0|chunkId-NP2|chunkType-head|stype-|voicetype-	13	ras-k1	_	_
6	सहित	सहित	PSP	psp	lex-सहित|cat-psp|gen-|num-|pers-|case-|vib-|tam-|chunkId-NP2|chunkType-child|stype-|voicetype-	5	lwg__psp	_	_
7	सेना	सेना	NN	n	lex-सेना|cat-n|gen-f|num-sg|pers-3|case-o|vib-0_का|tam-0|chunkId-NP3|chunkType-head|stype-|voicetype-	10	r6	_	_
8	के	का	PSP	psp	lex-का|cat-psp|gen-m|num-pl|pers-|case-d|vib-|tam-|chunkId-NP3|chunkType-child|stype-|voicetype-	7	lwg__psp	_	_
9	चार	चार	QC	num	lex-चार|cat-num|gen-any|num-any|pers-|case-any|vib-|tam-|chunkId-NP4|chunkType-child|stype-|voicetype-	10	nmod__adj	_	_
10	जवान	जवान	NN	n	lex-जवान|cat-n|gen-m|num-pl|pers-3|case-d|vib-0|tam-0|chunkId-NP4|chunkType-head|stype-|voicetype-	13	k1	_	_
11	भी	भी	RP	avy	lex-भी|cat-avy|gen-|num-|pers-|case-|vib-|tam-|chunkId-NP4|chunkType-child|stype-|voicetype-	10	lwg__rp	_	_
12	शहीद	शहीद	JJ	adj	lex-शहीद|cat-adj|gen-any|num-any|pers-|case-|vib-|tam-|chunkId-JJP|chunkType-head|stype-|voicetype-	13	pof	_	_
13	हो	हो	VM	v	lex-हो|cat-v|gen-any|num-pl|pers-any|case-|vib-0_जा+या१|tam-0|chunkId-VGF|chunkType-head|stype-declarative|voicetype-active	0	main	_	_
14	गए	जा	VAUX	v	lex-जा|cat-v|gen-m|num-pl|pers-any|case-|vib-या१|tam-yA1|chunkId-VGF|chunkType-child|stype-|voicetype-	13	lwg__vaux	_	_
15	।	।	SYM	punc	lex-।|cat-punc|gen-|num-|pers-|case-|vib-|tam-|chunkId-BLK|chunkType-head|stype-|voicetype-	13	rsym	_	_

1	उधर	उधर	NST	nst	lex-उधर|cat-nst|gen-m|num-sg|pers-3|case-d|vib-|tam-|chunkId-NP|chunkType-head|stype-|voicetype-	12	sent-adv	_	_
2	,	COMMA	SYM	punc	lex-COMMA|cat-punc|gen-|num-|pers-|case-|vib-|tam-|chunkId-NP|chunkType-child|stype-|voicetype-	1	rsym	_	_
3	सेना	सेना	NN	n	lex-सेना|cat-n|gen-f|num-sg|pers-3|case-o|vib-0_ने|tam-0|chunkId-NP2|chunkType-head|stype-|voicetype-	12	k1	_	_
4	ने	ने	PSP	psp	lex-ने|cat-psp|gen-|num-|pers-|case-|vib-|tam-|chunkId-NP2|chunkType-child|stype-|voicetype-	3	lwg__psp	_	_
5	एक	एक	QC	num	lex-एक|cat-num|gen-any|num-any|pers-|case-any|vib-|tam-|chunkId-NP3|chunkType-child|stype-|voicetype-	7	nmod__adj	_	_
6	ऐसे	ऐसा	DEM	pn	lex-ऐसा|cat-pn|gen-m|num-sg|pers-any|case-o|vib-|tam-|chunkId-NP3|chunkType-child|stype-|voicetype-	7	nmod__adj	_	_
7	ग्रुप	ग्रुप	NN	n	lex-ग्रुप|cat-n|gen-m|num-sg|pers-3|case-o|vib-0_का|tam-0|chunkId-NP3|chunkType-head|stype-|voicetype-	11	r6-k2	_	_
8	का	का	PSP	psp	lex-का|cat-psp|gen-m|num-sg|pers-|case-d|vib-|tam-|chunkId-NP3|chunkType-child|stype-|voicetype-	7	lwg__psp	_	_
9	भंडा	भंडा	NNC	n	lex-भंडा|cat-n|gen-m|num-sg|pers-3|case-d|vib-0|tam-0|chunkId-NP4|chunkType-child|stype-|voicetype-	11	pof__cn	_	_
10	-	-	SYM	punc	lex--|cat-punc|gen-|num-|pers-|case-|vib-|tam-|chunkId-NP4|chunkType-child|stype-|voicetype-	11	pof__cn	_	_
11	फोड़	फोड़	NN	n	lex-फोड़|cat-n|gen-m|num-sg|pers-3|case-d|vib-0|tam-0|chunkId-NP4|chunkType-head|stype-|voicetype-	12	pof	_	_
12	किया	कर	VM	v	lex-कर|cat-v|gen-m|num-sg|pers-3|case-|vib-या_है|tam-yA|chunkId-VGF|chunkType-head|stype-declarative|voicetype-active	0	main	_	_
13	है	है	VAUX	v	lex-है|cat-v|gen-any|num-sg|pers-3|case-|vib-है|tam-hE|chunkId-VGF|chunkType-child|stype-|voicetype-	12	lwg__vaux	_	_
14	जो	जो	PRP	pn	lex-जो|cat-pn|gen-any|num-sg|pers-3|case-d|vib-0|tam-0|chunkId-NP5|chunkType-head|stype-|voicetype-	28	k1	_	_
15	जिहाद	जिहाद	NN	n	lex-जिहाद|cat-n|gen-f|num-sg|pers-3|case-o|vib-0_का|tam-0|chunkId-NP6|chunkType-head|stype-|voicetype-	17	r6	_	_
16	के	का	PSP	psp	lex-का|cat-psp|gen-m|num-sg|pers-|case-o|vib-|tam-|chunkId-NP6|chunkType-child|stype-|voicetype-	15	lwg__psp	_	_
17	नाम	नाम	NN	n	lex-नाम|cat-n|gen-m|num-sg|pers-3|case-o|vib-0_पर|tam-0|chunkId-NP7|chunkType-head|stype-|voicetype-	28	k7	_	_
18	पर	पर	PSP	psp	lex-पर|cat-psp|gen-|num-|pers-|case-|vib-|tam-|chunkId-NP7|chunkType-child|stype-|voicetype-	17	lwg__psp	_	_
19	स्थानीय	स्थानीय	JJ	adj	lex-स्थानीय|cat-adj|gen-any|num-any|pers-|case-o|vib-|tam-|chunkId-NP8|chunkType-child|stype-|voicetype-	20	nmod__adj	_	_
20	युवकों	युवक	NN	n	lex-युवक|cat-n|gen-m|num-pl|pers-3|case-o|vib-0_को|tam-0|chunkId-NP8|chunkType-head|stype-|voicetype-	22	k2	_	_
21	को	को	PSP	psp	lex-को|cat-psp|gen-|num-|pers-|case-|vib-|tam-|chunkId-NP8|chunkType-child|stype-|voicetype-	20	lwg__psp	_	_
22	बरगला	बरगला	VM	v	lex-बरगला|cat-v|gen-m|num-any|pers-any|case-|vib-या_कर|tam-yA|chunkId-VGNF|chunkType-head|stype-|voicetype-	28	vmod	_	_
23	कर	कर	VAUX	v	lex-कर|cat-v|gen-any|num-any|pers-any|case-|vib-0|tam-0|chunkId-VGNF|chunkType-child|stype-|voicetype-	22	lwg__vaux	_	_
24	आतंकी	आतंकी	JJ	adj	lex-आतंकी|cat-adj|gen-any|num-any|pers-|case-o|vib-|tam-|chunkId-NP9|chunkType-child|stype-|voicetype-	25	nmod__adj	_	_
25	गुटों	गुट	NN	n	lex-गुट|cat-n|gen-m|num-pl|pers-3|case-o|vib-0_में|tam-0|chunkId-NP9|chunkType-head|stype-|voicetype-	28	k7	_	_
26	में	में	PSP	psp	lex-में|cat-psp|gen-|num-|pers-|case-|vib-|tam-|chunkId-NP9|chunkType-child|stype-|voicetype-	25	lwg__psp	_	_
27	भर्ती	भर्ती	NN	n	lex-भर्ती|cat-n|gen-f|num-sg|pers-3|case-d|vib-0|tam-0|chunkId-NP10|chunkType-head|stype-|voicetype-	28	pof	_	_
28	करता	कर	VM	v	lex-कर|cat-v|gen-m|num-sg|pers-any|case-|vib-ता_था|tam-wA|chunkId-VGF2|chunkType-head|stype-declarative|voicetype-active	7	nmod__relc	_	_
29	था	था	VAUX	v	lex-था|cat-v|gen-m|num-sg|pers-any|case-|vib-था|tam-WA|chunkId-VGF2|chunkType-child|stype-|voicetype-	28	lwg__vaux	_	_
30	।	।	SYM	punc	lex-।|cat-punc|gen-|num-|pers-|case-|vib-|tam-|chunkId-BLK|chunkType-head|stype-|voicetype-	12	rsym	_	_

1	सेना	सेना	NN	n	lex-सेना|cat-n|gen-f|num-sg|pers-3|case-o|vib-0_का|tam-0|chunkId-NP|chunkType-head|stype-|voicetype-	3	r6	_	_
2	के	का	PSP	psp	lex-का|cat-psp|gen-m|num-sg|pers-|case-o|vib-|tam-|chunkId-NP|chunkType-child|stype-|voicetype-	1	lwg__psp	_	_
3	प्रवक्ता	प्रवक्ता	NN	n	lex-प्रवक्ता|cat-n|gen-m|num-sg|pers-3|case-o|vib-0|tam-0|chunkId-NP2|chunkType-head|stype-|voicetype-	8	nmod	_	_
4	लेफ्टिनेंट	लेफ्टिनेंट	NNC	n	lex-लेफ्टिनेंट|cat-n|gen-m|num-sg|pers-3|case-d|vib-0|tam-0|chunkId-NP3|chunkType-child|stype-|voicetype-	6	pof__cn	_	_
5	कर्नल	कर्नल	NNC	n	lex-कर्नल|cat-n|gen-m|num-sg|pers-3|case-d|vib-0|tam-0|chunkId-NP3|chunkType-child|stype-|voicetype-	6	pof__cn	_	_
6	वी.	वी.	NNPC	n	lex-वी.|cat-n|gen-m|num-sg|pers-3|case-d|vib-0|tam-0|chunkId-NP3|chunkType-child|stype-|voicetype-	8	pof__cn	_	_
7	के.	के.	NNPC	n	lex-के.|cat-n|gen-m|num-sg|pers-3|case-d|vib-0|tam-0|chunkId-NP3|chunkType-child|stype-|voicetype-	8	pof__cn	_	_
8	बत्रा	बत्रा	NNP	n	lex-बत्रा|cat-n|gen-m|num-sg|pers-3|case-o|vib-0_ने|tam-0|chunkId-NP3|chunkType-head|stype-|voicetype-	10	k1	_	_
9	ने	ने	PSP	psp	lex-ने|cat-psp|gen-|num-|pers-|case-|vib-|tam-|chunkId-NP3|chunkType-child|stype-|voicetype-	8	lwg__psp	_	_
10	कहा	कह	VM	v	lex-कह|cat-v|gen-m|num-sg|pers-any|case-|vib-या|tam-yA|chunkId-VGF|chunkType-head|stype-declarative|voicetype-active	0	main	_	_
11	कि	कि	CC	avy	lex-कि|cat-avy|gen-|num-|pers-|case-|vib-|tam-|chunkId-CCP|chunkType-head|stype-|voicetype-	10	k2	_	_
12	इस	यह	DEM	pn	lex-यह|cat-pn|gen-any|num-sg|pers-3|case-o|vib-|tam-|chunkId-NP4|chunkType-child|stype-|voicetype-	13	nmod__adj	_	_
13	गुट	गुट	NN	n	lex-गुट|cat-n|gen-m|num-sg|pers-3|case-o|vib-0_का|tam-0|chunkId-NP4|chunkType-head|stype-|voicetype-	15	r6	_	_
14	का	का	PSP	psp	lex-का|cat-psp|gen-m|num-sg|pers-|case-d|vib-|tam-|chunkId-NP4|chunkType-child|stype-|voicetype-	13	lwg__psp	_	_
15	प्रमुख	प्रमुख	NN	n	lex-प्रमुख|cat-n|gen-m|num-sg|pers-3|case-d|vib-0|tam-0|chunkId-NP5|chunkType-head|stype-|voicetype-	24	k1	_	_
16	अनंतनाग	अनंतनाग	NNP	n	lex-अनंतनाग|cat-n|gen-m|num-sg|pers-3|case-d|vib-0|tam-0|chunkId-NP6|chunkType-child|stype-|voicetype-	17	nmod__adj	_	_
17	जिले	जिला	NN	n	lex-जिला|cat-n|gen-m|num-sg|pers-3|case-o|vib-0_का|tam-0|chunkId-NP6|chunkType-head|stype-|voicetype-	19	r6	_	_
18	के	का	PSP	psp	lex-का|cat-psp|gen-m|num-sg|pers-|case-o|vib-|tam-|chunkId-NP6|chunkType-child|stype-|voicetype-	17	lwg__psp	_	_
19	कुलगाम	कुलगाम	NNP	n	lex-कुलगाम|cat-n|gen-m|num-sg|pers-3|case-o|vib-0_का|tam-0|chunkId-NP7|chunkType-head|stype-|voicetype-	23	r6	_	_
20	का	का	PSP	psp	lex-का|cat-psp|gen-m|num-sg|pers-|case-d|vib-|tam-|chunkId-NP7|chunkType-child|stype-|voicetype-	19	lwg__psp	_	_
21	एक	एक	QC	num	lex-एक|cat-num|gen-any|num-any|pers-|case-any|vib-|tam-|chunkId-NP8|chunkType-child|stype-|voicetype-	23	nmod__adj	_	_
22	मज़हबी	मजहबी	JJ	adj	lex-मजहबी|cat-adj|gen-any|num-any|pers-|case-d|vib-|tam-|chunkId-NP8|chunkType-child|stype-|voicetype-	23	nmod__adj	_	_
23	नेता	नेता	NN	n	lex-नेता|cat-n|gen-m|num-sg|pers-3|case-d|vib-0|tam-0|chunkId-NP8|chunkType-head|stype-|voicetype-	24	k1s	_	_
24	था	था	VM	v	lex-था|cat-v|gen-m|num-sg|pers-any|case-|vib-था|tam-WA|chunkId-VGF2|chunkType-head|stype-declarative|voicetype-active	11	ccof	_	_
25	।	।	SYM	punc	lex-।|cat-punc|gen-|num-|pers-|case-|vib-|tam-|chunkId-BLK|chunkType-head|stype-|voicetype-	10	rsym	_	_

1	पुंछ	पुंछ	NNP	n	lex-पुंछ|cat-n|gen-m|num-sg|pers-3|case-o|vib-0_में|tam-0|chunkId-NP|chunkType-head|stype-|voicetype-	3	k7p	_	_
2	में	में	PSP	psp	lex-में|cat-psp|gen-|num-|pers-|case-|vib-|tam-|chunkId-NP|chunkType-child|stype-|voicetype-	1	lwg__psp	_	_
3	हुई	हो	VM	v	lex-हो|cat-v|gen-f|num-sg|pers-any|case-|vib-या|tam-yA|chunkId-VGNF|chunkType-head|stype-|voicetype-	4	nmod__k1inv	_	_
4	मुठभेड़	मुठभेड़	NN	n	lex-मुठभेड़|cat-n|gen-f|num-sg|pers-3|case-o|vib-0_के_बारे_में|tam-0|chunkId-NP2|chunkType-head|stype-|voicetype-	12	k7	_	_
5	के	के	PSP	psp	lex-के|cat-psp|gen-|num-|pers-|case-|vib-|tam-|chunkId-NP2|chunkType-child|stype-|voicetype-	4	lwg__psp	_	_
6	बारे	बारे	PSP	psp	lex-बारे|cat-psp|gen-|num-|pers-|case-|vib-|tam-|chunkId-NP2|chunkType-child|stype-|voicetype-	4	lwg__psp	_	_
7	में	में	PSP	psp	lex-में|cat-psp|gen-|num-|pers-|case-|vib-|tam-|chunkId-NP2|chunkType-child|stype-|voicetype-	4	lwg__psp	_	_
8	एक	एक	QC	num	lex-एक|cat-num|gen-any|num-any|pers-|case-any|vib-|tam-|chunkId-NP3|chunkType-child|stype-|voicetype-	10	nmod__adj	_	_
9	सरकारी	सरकारी	JJ	adj	lex-सरकारी|cat-adj|gen-any|num-any|pers-|case-o|vib-|tam-|chunkId-NP3|chunkType-child|stype-|voicetype-	10	nmod__adj	_	_
10	अधिकारी	अधिकारी	NN	n	lex-अधिकारी|cat-n|gen-m|num-sg|pers-3|case-o|vib-0_ने|tam-0|chunkId-NP3|chunkType-head|stype-|voicetype-	12	k1	_	_
11	ने	ने	PSP	psp	lex-ने|cat-psp|gen-|num-|pers-|case-|vib-|tam-|chunkId-NP3|chunkType-child|stype-|voicetype-	10	lwg__psp	_	_
12	बताया	बता	VM	v	lex-बता|cat-v|gen-m|num-sg|pers-any|case-|vib-या|tam-yA|chunkId-VGF|chunkType-head|stype-declarative|voicetype-active	0	main	_	_
13	कि	कि	CC	avy	lex-कि|cat-avy|gen-|num-|pers-|case-|vib-|tam-|chunkId-CCP|chunkType-head|stype-|voicetype-	12	k2	_	_
14	१३वीं	१३वाँ	QO	num	lex-१३वाँ|cat-num|gen-f|num-sg|pers-|case-o|vib-|tam-|chunkId-NP4|chunkType-child|stype-|voicetype-	17	nmod__adj	_	_
15	सिख	सिख	NNPC	n	lex-सिख|cat-n|gen-m|num-sg|pers-3|case-d|vib-0|tam-0|chunkId-NP4|chunkType-child|stype-|voicetype-	17	pof__cn	_	_
16	लाईट	लाईट	NNPC	n	lex-लाईट|cat-n|gen-f|num-sg|pers-3|case-d|vib-0|tam-0|chunkId-NP4|chunkType-child|stype-|voicetype-	17	pof__cn	_	_
17	इनफेंट्री	इनफेंट्री	NNP	n	lex-इनफेंट्री|cat-n|gen-f|num-sg|pers-3|case-o|vib-0_द्वारा|tam-0|chunkId-NP4|chunkType-head|stype-|voicetype-	33	k1	_	_
18	द्वारा	द्वारा	PSP	psp	lex-द्वारा|cat-psp|gen-|num-|pers-|case-|vib-|tam-|chunkId-NP4|chunkType-child|stype-|voicetype-	17	lwg__psp	_	_
19	लश्कर	लश्कर	NNPC	n	lex-लश्कर|cat-n|gen-m|num-sg|pers-3|case-d|vib-0|tam-0|chunkId-NP5|chunkType-child|stype-|voicetype-	23	pof__cn	_	_
20	-	-	SYM	punc	lex--|cat-punc|gen-|num-|pers-|case-|vib-|tam-|chunkId-NP5|chunkType-child|stype-|voicetype-	24	rsym	_	_
21	ए	ए	NNPC	n	lex-ए|cat-n|gen-m|num-sg|pers-3|case-d|vib-0|tam-0|chunkId-NP5|chunkType-child|stype-|voicetype-	24	nmod__adj	_	_
22	-	-	SYM	punc	lex--|cat-punc|gen-|num-|pers-|case-|vib-|tam-|chunkId-NP5|chunkType-child|stype-|voicetype-	24	rsym	_	_
23	ताइबा	ताइबा	NNP	n	lex-ताइबा|cat-n|gen-m|num-sg|pers-3|case-d|vib-0|tam-0|chunkId-NP5|chunkType-child|stype-|voicetype-	24	nmod__adj	_	_
24	गुट	गुट	NN	n	lex-गुट|cat-n|gen-m|num-sg|pers-3|case-o|vib-0_का|tam-0|chunkId-NP5|chunkType-head|stype-|voicetype-	26	r6	_	_
25	के	का	PSP	psp	lex-का|cat-psp|gen-m|num-pl|pers-|case-o|vib-|tam-|chunkId-NP5|chunkType-child|stype-|voicetype-	24	lwg__psp	_	_
26	आतंकियों	आतंकी	NN	n	lex-आतंकी|cat-n|gen-m|num-pl|pers-3|case-o|vib-0_को|tam-0|chunkId-NP6|chunkType-head|stype-|voicetype-	33	k4	_	_
27	को	को	PSP	psp	lex-को|cat-psp|gen-|num-|pers-|case-|vib-|tam-|chunkId-NP6|chunkType-child|stype-|voicetype-	26	lwg__psp	_	_
28	नियंत्रण	नियंत्रण	NNC	n	lex-नियंत्रण|cat-n|gen-m|num-sg|pers-3|case-d|vib-0|tam-0|chunkId-NP7|chunkType-child|stype-|voicetype-	30	pof__cn	_	_
29	-	-	SYM	punc	lex--|cat-punc|gen-|num-|pers-|case-|vib-|tam-|chunkId-NP7|chunkType-child|stype-|voicetype-	30	pof__cn	_	_
30	रेखा	रेखा	NN	n	lex-रेखा|cat-n|gen-f|num-sg|pers-3|case-o|vib-0_पर|tam-0|chunkId-NP7|chunkType-head|stype-|voicetype-	33	k7	_	_
31	पर	पर	PSP	psp	lex-पर|cat-psp|gen-|num-|pers-|case-|vib-|tam-|chunkId-NP7|chunkType-child|stype-|voicetype-	30	lwg__psp	_	_
32	चुनौती	चुनौती	NN	n	lex-चुनौती|cat-n|gen-f|num-sg|pers-3|case-d|vib-0|tam-0|chunkId-NP8|chunkType-head|stype-|voicetype-	33	pof	_	_
33	देने	दे	VM	v	lex-दे|cat-v|gen-any|num-any|pers-any|case-o|vib-ना_पर|tam-nA|chunkId-VGNN|chunkType-head|stype-|voicetype-	40	k7	_	_
34	पर	पर	PSP	psp	lex-पर|cat-psp|gen-|num-|pers-|case-|vib-|tam-|chunkId-VGNN|chunkType-child|stype-|voicetype-	33	lwg__psp	_	_
35	मुठभेड़	मुठभेड़	NN	n	lex-मुठभेड़|cat-n|gen-f|num-sg|pers-3|case-d|vib-0|tam-0|chunkId-NP9|chunkType-head|stype-|voicetype-	40	k1	_	_
36	रात	रात	NN	n	lex-रात|cat-n|gen-f|num-sg|pers-3|case-d|vib-0|tam-0|chunkId-NP10|chunkType-head|stype-|voicetype-	40	k7t	_	_
37	११.४५	११.४५	QC	num	lex-११.४५|cat-num|gen-any|num-any|pers-|case-any|vib-|tam-|chunkId-NP11|chunkType-child|stype-|voicetype-	38	nmod__adj	_	_
38	बजे	बजे	NN	n	lex-बजे|cat-n|gen-m|num-sg|pers-3|case-d|vib-0|tam-0|chunkId-NP11|chunkType-head|stype-|voicetype-	40	k7t	_	_
39	शुरू	शुरू	NN	n	lex-शुरू|cat-n|gen-m|num-sg|pers-3|case-d|vib-0|tam-0|chunkId-NP12|chunkType-head|stype-|voicetype-	40	pof	_	_
40	हुई	हो	VM	v	lex-हो|cat-v|gen-f|num-sg|pers-any|case-|vib-या|tam-yA|chunkId-VGF2|chunkType-head|stype-declarative|voicetype-active	13	ccof	_	_
41	।	।	SYM	punc	lex-।|cat-punc|gen-|num-|pers-|case-|vib-|tam-|chunkId-BLK|chunkType-head|stype-|voicetype-	12	rsym	_	_

1	आतंकी	आतंकी	NN	n	lex-आतंकी|cat-n|gen-m|num-pl|pers-3|case-d|vib-0|tam-0|chunkId-NP|chunkType-head|stype-|voicetype-	14	k1	_	_
2	तालाचीड	तालाचीड	NNP	n	lex-तालाचीड|cat-n|gen-m|num-sg|pers-3|case-d|vib-0|tam-0|chunkId-NP2|chunkType-child|stype-|voicetype-	3	nmod__adj	_	_
3	इलाके	इलाका	NN	n	lex-इलाका|cat-n|gen-m|num-sg|pers-3|case-o|vib-0_में|tam-0|chunkId-NP2|chunkType-head|stype-|voicetype-	14	k7p	_	_
4	में	में	PSP	psp	lex-में|cat-psp|gen-|num-|pers-|case-|vib-|tam-|chunkId-NP2|chunkType-child|stype-|voicetype-	3	lwg__psp	_	_
5	नियंत्रण	नियंत्रण	NNC	n	lex-नियंत्रण|cat-n|gen-m|num-sg|pers-3|case-d|vib-0|tam-0|chunkId-NP3|chunkType-child|stype-|voicetype-	7	pof__cn	_	_
6	-	-	SYM	punc	lex--|cat-punc|gen-|num-|pers-|case-|vib-|tam-|chunkId-NP3|chunkType-child|stype-|voicetype-	7	pof__cn	_	_
7	रेखा	रेखा	NN	n	lex-रेखा|cat-n|gen-f|num-sg|pers-3|case-d|vib-0|tam-0|chunkId-NP3|chunkType-head|stype-|voicetype-	9	k2	_	_
8	पार	पार	NN	n	lex-पार|cat-n|gen-m|num-sg|pers-3|case-d|vib-0|tam-0|chunkId-NP4|chunkType-head|stype-|voicetype-	9	pof	_	_
9	कर	कर	VM	v	lex-कर|cat-v|gen-any|num-any|pers-any|case-|vib-0|tam-0|chunkId-VGNF|chunkType-head|stype-|voicetype-	14	vmod	_	_
10	घुसपैठ	घुसपैठ	NN	n	lex-घुसपैठ|cat-n|gen-f|num-sg|pers-3|case-d|vib-0|tam-0|chunkId-NP5|chunkType-head|stype-|voicetype-	11	pof	_	_
11	करने	कर	VM	v	lex-कर|cat-v|gen-any|num-sg|pers-any|case-o|vib-ना_का|tam-nA|chunkId-VGNN|chunkType-head|stype-|voicetype-	13	r6-k2	_	_
12	की	का	PSP	psp	lex-का|cat-psp|gen-f|num-sg|pers-|case-d|vib-|tam-|chunkId-VGNN|chunkType-child|stype-|voicetype-	11	lwg__psp	_	_
13	कोशिश	कोशिश	NN	n	lex-कोशिश|cat-n|gen-f|num-sg|pers-3|case-d|vib-0|tam-0|chunkId-NP6|chunkType-head|stype-|voicetype-	14	pof	_	_
14	कर	कर	VM	v	lex-कर|cat-v|gen-m|num-pl|pers-any|case-|vib-0_रह+या_था|tam-0|chunkId-VGF|chunkType-head|stype-declarative|voicetype-active	0	main	_	_
15	रहे	रह	VAUX	v	lex-रह|cat-v|gen-m|num-pl|pers-any|case-|vib-या|tam-yA|chunkId-VGF|chunkType-child|stype-|voicetype-	14	lwg__vaux	_	_
16	थे	था	VAUX	v	lex-था|cat-v|gen-m|num-pl|pers-any|case-|vib-था|tam-WA|chunkId-VGF|chunkType-child|stype-|voicetype-	14	lwg__vaux	_	_
17	।	।	SYM	punc	lex-।|cat-punc|gen-|num-|pers-|case-|vib-|tam-|chunkId-BLK|chunkType-head|stype-|voicetype-	14	rsym	_	_

1	सेना	सेना	NN	n	lex-सेना|cat-n|gen-f|num-sg|pers-3|case-o|vib-0_द्वारा|tam-0|chunkId-NP|chunkType-head|stype-|voicetype-	4	k1	_	_
2	द्वारा	द्वारा	PSP	psp	lex-द्वारा|cat-psp|gen-|num-|pers-|case-|vib-|tam-|chunkId-NP|chunkType-child|stype-|voicetype-	1	lwg__psp	_	_
3	चुनौती	चुनौती	NN	n	lex-चुनौती|cat-n|gen-f|num-sg|pers-3|case-d|vib-0|tam-0|chunkId-NP2|chunkType-head|stype-|voicetype-	4	pof	_	_
4	देने	दे	VM	v	lex-दे|cat-v|gen-any|num-any|pers-any|case-o|vib-ना_पर|tam-nA|chunkId-VGNN|chunkType-head|stype-|voicetype-	11	k7	_	_
5	पर	पर	PSP	psp	lex-पर|cat-psp|gen-|num-|pers-|case-|vib-|tam-|chunkId-VGNN|chunkType-child|stype-|voicetype-	4	lwg__psp	_	_
6	आतंकियों	आतंकी	NN	n	lex-आतंकी|cat-n|gen-m|num-pl|pers-3|case-o|vib-0_ने|tam-0|chunkId-NP3|chunkType-head|stype-|voicetype-	11	k1	_	_
7	ने	ने	PSP	psp	lex-ने|cat-psp|gen-|num-|pers-|case-|vib-|tam-|chunkId-NP3|chunkType-child|stype-|voicetype-	6	lwg__psp	_	_
8	गोली	गोली	NN	n	lex-गोली|cat-n|gen-f|num-sg|pers-3|case-d|vib-0|tam-0|chunkId-NP4|chunkType-head|stype-|voicetype-	9	k2	_	_
9	चलानी	चला	VM	v	lex-चला|cat-v|gen-f|num-sg|pers-any|case-o|vib-ना|tam-nA|chunkId-VGNN2|chunkType-head|stype-|voicetype-	11	k2	_	_
10	शुरू	शुरू	NN	n	lex-शुरू|cat-n|gen-m|num-sg|pers-3|case-d|vib-0|tam-0|chunkId-NP5|chunkType-head|stype-|voicetype-	11	pof	_	_
11	कर	कर	VM	v	lex-कर|cat-v|gen-any|num-sg|pers-any|case-|vib-0_दे+या|tam-0|chunkId-VGF|chunkType-head|stype-declarative|voicetype-active	0	main	_	_
12	दी	दे	VAUX	v	lex-दे|cat-v|gen-f|num-sg|pers-any|case-|vib-या|tam-yA|chunkId-VGF|chunkType-child|stype-|voicetype-	11	lwg__vaux	_	_
13	।	।	SYM	punc	lex-।|cat-punc|gen-|num-|pers-|case-|vib-|tam-|chunkId-BLK|chunkType-head|stype-|voicetype-	11	rsym	_	_

1	सेना	सेना	NN	n	lex-सेना|cat-n|gen-f|num-sg|pers-3|case-o|vib-0_का|tam-0|chunkId-NP|chunkType-head|stype-|voicetype-	4	r6	_	_
2	की	का	PSP	psp	lex-का|cat-psp|gen-f|num-sg|pers-|case-o|vib-|tam-|chunkId-NP|chunkType-child|stype-|voicetype-	1	lwg__psp	_	_
3	जबावी	जबावी	JJ	adj	lex-जबावी|cat-adj|gen-any|num-any|pers-|case-o|vib-|tam-|chunkId-NP2|chunkType-child|stype-|voicetype-	4	nmod__adj	_	_
4	कार्रवाई	कार्रवाई	NN	n	lex-कार्रवाई|cat-n|gen-f|num-sg|pers-3|case-o|vib-0_में|tam-0|chunkId-NP2|chunkType-head|stype-|voicetype-	8	k7	_	_
5	में	में	PSP	psp	lex-में|cat-psp|gen-|num-|pers-|case-|vib-|tam-|chunkId-NP2|chunkType-child|stype-|voicetype-	4	lwg__psp	_	_
6	तीन	तीन	QC	num	lex-तीन|cat-num|gen-any|num-any|pers-|case-any|vib-|tam-|chunkId-NP3|chunkType-child|stype-|voicetype-	7	nmod__adj	_	_
7	आतंकी	आतंकी	NN	n	lex-आतंकी|cat-n|gen-m|num-pl|pers-3|case-d|vib-0|tam-0|chunkId-NP3|chunkType-head|stype-|voicetype-	8	k1	_	_
8	मारे	मार	VM	v	lex-मार|cat-v|gen-m|num-pl|pers-any|case-|vib-या_जा+या१|tam-yA|chunkId-VGF|chunkType-head|stype-declarative|voicetype-passive	0	main	_	_
9	गए	जा	VAUX	v	lex-जा|cat-v|gen-m|num-pl|pers-any|case-|vib-या१|tam-yA1|chunkId-VGF|chunkType-child|stype-|voicetype-	8	lwg__vaux	_	_
10	।	।	SYM	punc	lex-।|cat-punc|gen-|num-|pers-|case-|vib-|tam-|chunkId-BLK|chunkType-head|stype-|voicetype-	8	rsym	_	_

1	मुठभेड़	मुठभेड़	NN	n	lex-मुठभेड़|cat-n|gen-f|num-sg|pers-3|case-o|vib-0_में|tam-0|chunkId-NP|chunkType-head|stype-|voicetype-	12	k7	_	_
2	में	में	PSP	psp	lex-में|cat-psp|gen-|num-|pers-|case-|vib-|tam-|chunkId-NP|chunkType-child|stype-|voicetype-	1	lwg__psp	_	_
3	नायक	नायक	NNC	n	lex-नायक|cat-n|gen-m|num-sg|pers-3|case-d|vib-0|tam-0|chunkId-NP2|chunkType-child|stype-|voicetype-	4	pof__cn	_	_
4	सूबेदार	सूबेदार	NN	n	lex-सूबेदार|cat-n|gen-m|num-sg|pers-3|case-o|vib-0|tam-0|chunkId-NP2|chunkType-head|stype-|voicetype-	6	nmod	_	_
5	अवतार	अवतार	NNPC	n	lex-अवतार|cat-n|gen-m|num-sg|pers-3|case-d|vib-0|tam-0|chunkId-NP3|chunkType-child|stype-|voicetype-	6	pof__cn	_	_
6	सिंह	सिंह	NNP	n	lex-सिंह|cat-n|gen-m|num-sg|pers-3|case-o|vib-0_सहित|tam-0|chunkId-NP3|chunkType-head|stype-|voicetype-	12	ras-k1	_	_
7	सहित	सहित	PSP	psp	lex-सहित|cat-psp|gen-|num-|pers-|case-|vib-|tam-|chunkId-NP3|chunkType-child|stype-|voicetype-	6	lwg__psp	_	_
8	चार	चार	QC	num	lex-चार|cat-num|gen-any|num-any|pers-|case-any|vib-|tam-|chunkId-NP4|chunkType-child|stype-|voicetype-	9	nmod__adj	_	_
9	जवान	जवान	NN	n	lex-जवान|cat-n|gen-m|num-pl|pers-3|case-d|vib-0|tam-0|chunkId-NP4|chunkType-head|stype-|voicetype-	12	k1	_	_
10	भी	भी	RP	avy	lex-भी|cat-avy|gen-|num-|pers-|case-|vib-|tam-|chunkId-NP4|chunkType-child|stype-|voicetype-	9	lwg__rp	_	_
11	शहीद	शहीद	JJ	adj	lex-शहीद|cat-adj|gen-any|num-any|pers-|case-|vib-|tam-|chunkId-JJP|chunkType-head|stype-|voicetype-	12	pof	_	_
12	हो	हो	VM	v	lex-हो|cat-v|gen-any|num-pl|pers-any|case-|vib-0_जा+या१|tam-0|chunkId-VGF|chunkType-head|stype-declarative|voicetype-active	0	main	_	_
13	गए	जा	VAUX	v	lex-जा|cat-v|gen-m|num-pl|pers-any|case-|vib-या१|tam-yA1|chunkId-VGF|chunkType-child|stype-|voicetype-	12	lwg__vaux	_	_
14	।	।	SYM	punc	lex-।|cat-punc|gen-|num-|pers-|case-|vib-|tam-|chunkId-BLK|chunkType-head|stype-|voicetype-	12	rsym	_	_

1	मुठभेड़	मुठभेड़	NN	n	lex-मुठभेड़|cat-n|gen-f|num-sg|pers-3|case-o|vib-0_वाला|tam-0|chunkId-NP|chunkType-head|stype-|voicetype-	3	nmod	_	_
2	वाले	वाला	PSP	psp	lex-वाला|cat-psp|gen-m|num-sg|pers-|case-o|vib-|tam-|chunkId-NP|chunkType-child|stype-|voicetype-	1	lwg__psp	_	_
3	स्थान	स्थान	NN	n	lex-स्थान|cat-n|gen-m|num-sg|pers-3|case-o|vib-0_से|tam-0|chunkId-NP2|chunkType-head|stype-|voicetype-	30	k5	_	_
4	से	से	PSP	psp	lex-से|cat-psp|gen-|num-|pers-|case-|vib-|tam-|chunkId-NP2|chunkType-child|stype-|voicetype-	3	lwg__psp	_	_
5	तीन	तीन	QC	num	lex-तीन|cat-num|gen-any|num-any|pers-|case-any|vib-|tam-|chunkId-NP3|chunkType-child|stype-|voicetype-	8	nmod__adj	_	_
6	एके	एके	NNC	n	lex-एके|cat-n|gen-m|num-sg|pers-3|case-d|vib-0|tam-0|chunkId-NP3|chunkType-child|stype-|voicetype-	8	pof__cn	_	_
7	एसॉल्ट	एसॉल्ट	NNC	n	lex-एसॉल्ट|cat-n|gen-m|num-sg|pers-3|case-d|vib-0|tam-0|chunkId-NP3|chunkType-child|stype-|voicetype-	8	pof__cn	_	_
8	राइफल	राइफल	NN	n	lex-राइफल|cat-n|gen-f|num-pl|pers-3|case-d|vib-0|tam-0|chunkId-NP3|chunkType-head|stype-|voicetype-	25	ccof	_	_
9	,	COMMA	SYM	punc	lex-COMMA|cat-punc|gen-|num-|pers-|case-|vib-|tam-|chunkId-NP3|chunkType-child|stype-|voicetype-	8	rsym	_	_
10	१७	१७	QC	num	lex-१७|cat-num|gen-any|num-any|pers-|case-any|vib-|tam-|chunkId-NP4|chunkType-child|stype-|voicetype-	11	nmod__adj	_	_
11	मैगजीन	मैगजीन	NN	n	lex-मैगजीन|cat-n|gen-m|num-pl|pers-3|case-d|vib-0|tam-0|chunkId-NP4|chunkType-head|stype-|voicetype-	25	ccof	_	_
12	,	COMMA	SYM	punc	lex-COMMA|cat-punc|gen-|num-|pers-|case-|vib-|tam-|chunkId-NP4|chunkType-child|stype-|voicetype-	11	rsym	_	_
13	८	८	QC	num	lex-८|cat-num|gen-any|num-any|pers-|case-any|vib-|tam-|chunkId-NP5|chunkType-child|stype-|voicetype-	14	nmod__adj	_	_
14	ग्रेनेड	ग्रेनेड	NN	n	lex-ग्रेनेड|cat-n|gen-m|num-pl|pers-3|case-d|vib-0|tam-0|chunkId-NP5|chunkType-head|stype-|voicetype-	25	ccof	_	_
15	,	COMMA	SYM	punc	lex-COMMA|cat-punc|gen-|num-|pers-|case-|vib-|tam-|chunkId-NP5|chunkType-child|stype-|voicetype-	14	rsym	_	_
16	४	४	QC	num	lex-४|cat-num|gen-any|num-any|pers-|case-any|vib-|tam-|chunkId-NP6|chunkType-child|stype-|voicetype-	17	nmod__adj	_	_
17	आईइडी	आईइडी	NNP	n	lex-आईइडी|cat-n|gen-m|num-pl|pers-3|case-d|vib-0|tam-0|chunkId-NP6|chunkType-head|stype-|voicetype-	25	ccof	_	_
18	,	COMMA	SYM	punc	lex-COMMA|cat-punc|gen-|num-|pers-|case-|vib-|tam-|chunkId-NP6|chunkType-child|stype-|voicetype-	17	rsym	_	_
19	एक	एक	QC	num	lex-एक|cat-num|gen-any|num-any|pers-|case-any|vib-|tam-|chunkId-NP7|chunkType-child|stype-|voicetype-	21	nmod__adj	_	_
20	रेडियो	रेडियो	NNC	n	lex-रेडियो|cat-n|gen-m|num-sg|pers-3|case-d|vib-0|tam-0|chunkId-NP7|chunkType-child|stype-|voicetype-	21	pof__cn	_	_
21	सेट	सेट	NN	n	lex-सेट|cat-n|gen-m|num-sg|pers-3|case-d|vib-0|tam-0|chunkId-NP7|chunkType-head|stype-|voicetype-	25	ccof	_	_
22	,	COMMA	SYM	punc	lex-COMMA|cat-punc|gen-|num-|pers-|case-|vib-|tam-|chunkId-NP7|chunkType-child|stype-|voicetype-	21	rsym	_	_
23	दो	दो	QC	num	lex-दो|cat-num|gen-any|num-any|pers-|case-any|vib-|tam-|chunkId-NP8|chunkType-child|stype-|voicetype-	24	nmod__adj	_	_
24	पिस्तौल	पिस्तौल	NN	n	lex-पिस्तौल|cat-n|gen-f|num-pl|pers-3|case-d|vib-0|tam-0|chunkId-NP8|chunkType-head|stype-|voicetype-	25	ccof	_	_
25	व	व	CC	avy	lex-व|cat-avy|gen-|num-|pers-|case-|vib-|tam-|chunkId-CCP|chunkType-head|stype-|voicetype-	30	k2	_	_
26	कुछ	कुछ	QF	avy	lex-कुछ|cat-avy|gen-|num-|pers-|case-|vib-|tam-|chunkId-NP9|chunkType-child|stype-|voicetype-	28	nmod__adj	_	_
27	अन्य	अन्य	JJ	adj	lex-अन्य|cat-adj|gen-any|num-any|pers-|case-d|vib-|tam-|chunkId-NP9|chunkType-child|stype-|voicetype-	28	nmod__adj	_	_
28	हथियार	हथियार	NN	n	lex-हथियार|cat-n|gen-m|num-pl|pers-3|case-d|vib-0|tam-0|chunkId-NP9|chunkType-head|stype-|voicetype-	25	ccof	_	_
29	बरामद	बरामद	JJ	adj	lex-बरामद|cat-adj|gen-any|num-any|pers-|case-|vib-|tam-|chunkId-JJP|chunkType-head|stype-|voicetype-	30	pof	_	_
30	किए	कर	VM	v	lex-कर|cat-v|gen-m|num-pl|pers-3|case-|vib-या_जा+या१_है|tam-yA|chunkId-VGF|chunkType-head|stype-declarative|voicetype-passive	0	main	_	_
31	गए	जा	VAUX	v	lex-जा|cat-v|gen-m|num-pl|pers-any|case-|vib-या१|tam-yA1|chunkId-VGF|chunkType-child|stype-|voicetype-	30	lwg__vaux	_	_
32	हैं	है	VAUX	v	lex-है|cat-v|gen-any|num-pl|pers-3|case-|vib-है|tam-hE|chunkId-VGF|chunkType-child|stype-|voicetype-	30	lwg__vaux	_	_
33	।	।	SYM	punc	lex-।|cat-punc|gen-|num-|pers-|case-|vib-|tam-|chunkId-BLK|chunkType-head|stype-|voicetype-	30	rsym	_	_

1	उधर	उधर	NST	nst	lex-उधर|cat-nst|gen-m|num-sg|pers-3|case-d|vib-|tam-|chunkId-NP|chunkType-head|stype-|voicetype-	21	sent-adv	_	_
2	,	COMMA	SYM	punc	lex-COMMA|cat-punc|gen-|num-|pers-|case-|vib-|tam-|chunkId-NP|chunkType-child|stype-|voicetype-	1	rsym	_	_
3	जिहाद	जिहाद	NN	n	lex-जिहाद|cat-n|gen-m|num-sg|pers-3|case-o|vib-0_का|tam-0|chunkId-NP2|chunkType-head|stype-|voicetype-	5	r6	_	_
4	के	का	PSP	psp	lex-का|cat-psp|gen-m|num-sg|pers-|case-o|vib-|tam-|chunkId-NP2|chunkType-child|stype-|voicetype-	3	lwg__psp	_	_
5	नाम	नाम	NN	n	lex-नाम|cat-n|gen-m|num-sg|pers-3|case-o|vib-0_पर|tam-0|chunkId-NP3|chunkType-head|stype-|voicetype-	11	k7	_	_
6	पर	पर	PSP	psp	lex-पर|cat-psp|gen-|num-|pers-|case-|vib-|tam-|chunkId-NP3|chunkType-child|stype-|voicetype-	5	lwg__psp	_	_
7	आतंकी	आतंकी	JJ	adj	lex-आतंकी|cat-adj|gen-any|num-any|pers-|case-o|vib-|tam-|chunkId-NP4|chunkType-child|stype-|voicetype-	8	nmod__adj	_	_
8	गुट	गुट	NN	n	lex-गुट|cat-n|gen-m|num-sg|pers-3|case-o|vib-0_में|tam-0|chunkId-NP4|chunkType-head|stype-|voicetype-	11	k7	_	_
9	में	में	PSP	psp	lex-में|cat-psp|gen-|num-|pers-|case-|vib-|tam-|chunkId-NP4|chunkType-child|stype-|voicetype-	8	lwg__psp	_	_
10	शामिल	शामिल	JJ	adj	lex-शामिल|cat-adj|gen-any|num-any|pers-|case-|vib-|tam-|chunkId-JJP|chunkType-head|stype-|voicetype-	11	pof	_	_
11	करने	कर	VM	v	lex-कर|cat-v|gen-any|num-sg|pers-any|case-o|vib-ना_वाला|tam-nA|chunkId-VGNN|chunkType-head|stype-|voicetype-	13	nmod	_	_
12	वाले	वाला	PSP	psp	lex-वाला|cat-psp|gen-m|num-sg|pers-|case-o|vib-|tam-|chunkId-VGNN|chunkType-child|stype-|voicetype-	11	lwg__psp	_	_
13	गुट	गुट	NN	n	lex-गुट|cat-n|gen-m|num-sg|pers-3|case-o|vib-0_के_बारे_में|tam-0|chunkId-NP5|chunkType-head|stype-|voicetype-	21	k7	_	_
14	के	के	PSP	psp	lex-के|cat-psp|gen-|num-|pers-|case-|vib-|tam-|chunkId-NP5|chunkType-child|stype-|voicetype-	13	lwg__psp	_	_
15	बारे	बारे	PSP	psp	lex-बारे|cat-psp|gen-|num-|pers-|case-|vib-|tam-|chunkId-NP5|chunkType-child|stype-|voicetype-	13	lwg__psp	_	_
16	में	में	PSP	psp	lex-में|cat-psp|gen-|num-|pers-|case-|vib-|tam-|chunkId-NP5|chunkType-child|stype-|voicetype-	13	lwg__psp	_	_
17	लेफ्टिनेंट	लेफ्टिनेंट	NNC	n	lex-लेफ्टिनेंट|cat-n|gen-m|num-sg|pers-3|case-d|vib-0|tam-0|chunkId-NP6|chunkType-child|stype-|voicetype-	19	pof__cn	_	_
18	कर्नल	कर्नल	NNC	n	lex-कर्नल|cat-n|gen-m|num-sg|pers-3|case-d|vib-0|tam-0|chunkId-NP6|chunkType-child|stype-|voicetype-	19	pof__cn	_	_
19	बत्रा	बत्रा	NNP	n	lex-बत्रा|cat-n|gen-m|num-sg|pers-3|case-o|vib-0_ने|tam-0|chunkId-NP6|chunkType-head|stype-|voicetype-	21	k1	_	_
20	ने	ने	PSP	psp	lex-ने|cat-psp|gen-|num-|pers-|case-|vib-|tam-|chunkId-NP6|chunkType-child|stype-|voicetype-	19	lwg__psp	_	_
21	कहा	कह	VM	v	lex-कह|cat-v|gen-m|num-sg|pers-any|case-|vib-या|tam-yA|chunkId-VGF|chunkType-head|stype-declarative|voicetype-active	0	main	_	_
22	कि	कि	CC	avy	lex-कि|cat-avy|gen-|num-|pers-|case-|vib-|tam-|chunkId-CCP|chunkType-head|stype-|voicetype-	21	k2	_	_
23	यह	यह	DEM	pn	lex-यह|cat-pn|gen-any|num-sg|pers-3|case-d|vib-|tam-|chunkId-NP7|chunkType-child|stype-|voicetype-	24	nmod__adj	_	_
24	गुट	गुट	NN	n	lex-गुट|cat-n|gen-m|num-sg|pers-3|case-d|vib-0|tam-0|chunkId-NP7|chunkType-head|stype-|voicetype-	39	k1	_	_
25	आर्थिक	आर्थिक	JJ	adj	lex-आर्थिक|cat-adj|gen-any|num-any|pers-|case-o|vib-|tam-|chunkId-NP8|chunkType-child|stype-|voicetype-	26	nmod__adj	_	_
26	रूप	रूप	NN	n	lex-रूप|cat-n|gen-m|num-sg|pers-3|case-o|vib-0_से|tam-0|chunkId-NP8|chunkType-head|stype-|voicetype-	29	nmod	_	_
27	से	से	PSP	psp	lex-से|cat-psp|gen-|num-|pers-|case-|vib-|tam-|chunkId-NP8|chunkType-child|stype-|voicetype-	26	lwg__psp	_	_
28	कमजोर	कमजोर	JJ	adj	lex-कमजोर|cat-adj|gen-any|num-any|pers-|case-o|vib-|tam-|chunkId-NP9|chunkType-child|stype-|voicetype-	29	nmod__adj	_	_
29	युवकों	युवक	NN	n	lex-युवक|cat-n|gen-m|num-pl|pers-3|case-o|vib-0_को|tam-0|chunkId-NP9|chunkType-head|stype-|voicetype-	39	k2	_	_
30	को	को	PSP	psp	lex-को|cat-psp|gen-|num-|pers-|case-|vib-|tam-|chunkId-NP9|chunkType-child|stype-|voicetype-	29	lwg__psp	_	_
31	पैसे	पैसा	NN	n	lex-पैसा|cat-n|gen-m|num-sg|pers-3|case-o|vib-0_का|tam-0|chunkId-NP10|chunkType-head|stype-|voicetype-	33	r6	_	_
32	के	का	PSP	psp	lex-का|cat-psp|gen-m|num-sg|pers-|case-o|vib-|tam-|chunkId-NP10|chunkType-child|stype-|voicetype-	31	lwg__psp	_	_
33	लालच	लालच	NN	n	lex-लालच|cat-n|gen-m|num-sg|pers-3|case-o|vib-0_में|tam-0|chunkId-NP11|chunkType-head|stype-|voicetype-	39	k7	_	_
34	में	में	PSP	psp	lex-में|cat-psp|gen-|num-|pers-|case-|vib-|tam-|chunkId-NP11|chunkType-child|stype-|voicetype-	33	lwg__psp	_	_
35	आतंकी	आतंकी	JJ	adj	lex-आतंकी|cat-adj|gen-any|num-any|pers-|case-o|vib-|tam-|chunkId-NP12|chunkType-child|stype-|voicetype-	36	nmod__adj	_	_
36	गुटों	गुट	NN	n	lex-गुट|cat-n|gen-m|num-pl|pers-3|case-o|vib-0_में|tam-0|chunkId-NP12|chunkType-head|stype-|voicetype-	39	k7	_	_
37	में	में	PSP	psp	lex-में|cat-psp|gen-|num-|pers-|case-|vib-|tam-|chunkId-NP12|chunkType-child|stype-|voicetype-	36	lwg__psp	_	_
38	शामिल	शामिल	JJ	adj	lex-शामिल|cat-adj|gen-any|num-any|pers-|case-|vib-|tam-|chunkId-JJP2|chunkType-head|stype-|voicetype-	39	pof	_	_
39	करता	कर	VM	v	lex-कर|cat-v|gen-m|num-sg|pers-any|case-|vib-ता_था|tam-wA|chunkId-VGF2|chunkType-head|stype-declarative|voicetype-active	22	ccof	_	_
40	था	था	VAUX	v	lex-था|cat-v|gen-m|num-sg|pers-any|case-|vib-था|tam-WA|chunkId-VGF2|chunkType-child|stype-|voicetype-	39	lwg__vaux	_	_
41	।	।	SYM	punc	lex-।|cat-punc|gen-|num-|pers-|case-|vib-|tam-|chunkId-BLK|chunkType-head|stype-|voicetype-	21	rsym	_	_

