<document id="2575932">
<head>
<title></title>			
<caption>खलीलजाद इराक में अमेरिकी राजदूत        आईएएनएस   : वाशिंगटन</caption>			
<language>Hindi </language>			
<author>			
<firstname></firstname>			
<middlename></middlename>			
<lastname></lastname>			
</author>			
<creation>			
<raw_corpus creation_date="" institute_name=""></raw_corpus>			
<annotated_corpus creation_date="07/25/2009" institute_name="IIIT-Hyderabad"></annotated_corpus>			
</creation>			
<domain_name>News Articles </domain_name>			
<distributor>LTRC, IIIT Hyderabad</distributor>			
<source>ISI, Kolkata</source>			
<publication>			
<place>New Delhi</place>			
<date>6/7/2004</date>			
<address>Connaught Place, New Delhi</address>			
<type>Newspaper</type>			
<publisher>			
<name>Amar Ujala</name>			
<url>http://www.amarujala.com</url>			
</publisher>			
</publication>			
<project_description>NSF Hindi/Urdu Dependency Treebanking Project</project_description>			
<availability>			
<format>CML/SSF</format>			
</availability>			
<byte_count>5739</byte_count>			
<word_count>184</word_count>			
<edition_number>1.0</edition_number>			
<encoding_description>			
<original_encoding>ISO 8859</original_encoding>			
<new_encoding>Unicode UTF8</new_encoding>			
</encoding_description>			
<bibliography></bibliography>			
<sentence_marker>.</sentence_marker>			
<normalization>No</normalization>			
<utility_name>cml_tags</utility_name>			

</head>
<body>
<tb number="1" segment="no" bullet="no">
<foreign language="select" writingsystem="LTR"> </foreign>			
<text>
<Sentence id="1">
1	अमेरिकी	JJ	<fs af='अमेरिकी,adj,any,any,,o,,' posn='10' drel='nmod__adj:जॉर्ज' chunkType='child:NP' name='अमेरिकी'>
2	राष्ट्रपति	NNP	<fs af='राष्ट्रपति,n,m,sg,3,d,0,0' posn='20' drel='nmod__adj:बुश' chunkType='child:NP' name='राष्ट्रपति'>
3	जॉर्ज	NNPC	<fs af='जॉर्ज,n,m,sg,3,d,0,0' posn='30' drel='pof__cn:बुश' chunkType='child:NP' name='जॉर्ज'>
4	डब्लू.	NNPC	<fs af='डब्लू.,n,m,sg,3,d,0,0' posn='40' drel='pof__cn:बुश' chunkType='child:NP' name='डब्लू.'>
5	बुश	NNP	<fs af='बुश,n,m,sg,3,o,0_ने,0' drel='k1:लिया' posn='50' vpos='vib_vib_6' name='बुश' chunkId='NP' chunkType='head:NP'>
6	ने	PSP	<fs af='ने,psp,,,,,,' posn='60' drel='lwg__psp:बुश' chunkType='child:NP' name='ने'>
7	जलमे	NNPC	<fs af='जलमे,n,m,sg,3,d,0,0' posn='70' drel='pof__cn:खलीलजाद' chunkType='child:NP2' name='जलमे'>
8	खलीलजाद	NNP	<fs af='खलीलजाद,n,m,sg,3,o,0_को,0' drel='k2:करने' posn='80' vpos='vib_3' name='खलीलजाद' chunkId='NP2' chunkType='head:NP2'>
9	को	PSP	<fs af='को,psp,,,,,,' posn='90' drel='lwg__psp:खलीलजाद' chunkType='child:NP2' name='को'>
10	इराक	NNP	<fs af='इराक,n,m,sg,3,o,0_में,0' drel='k7p:करने' posn='100' vpos='vib_2' name='इराक' chunkId='NP3' chunkType='head:NP3'>
11	में	PSP	<fs af='में,psp,,,,,,' posn='110' drel='lwg__psp:इराक' chunkType='child:NP3' name='में'>
12	अमेरिका	NNP	<fs af='अमेरिका,n,m,sg,3,o,0_का,0' drel='r6:राजदूत' posn='120' vpos='vib_2' name='अमेरिका' chunkId='NP4' chunkType='head:NP4'>
13	का	PSP	<fs af='का,psp,m,sg,,d,,' posn='130' drel='lwg__psp:अमेरिका' chunkType='child:NP4' name='का'>
14	नया	JJ	<fs af='नया,adj,m,sg,,d,,' posn='140' drel='nmod__adj:राजदूत' chunkType='child:NP5' name='नया'>
15	राजदूत	NN	<fs af='राजदूत,n,m,sg,3,d,0,0' drel='k2s:करने' posn='150' name='राजदूत' chunkId='NP5' chunkType='head:NP5'>
16	नियुक्त	JJ	<fs af='नियुक्त,adj,any,any,,,,' drel='pof:करने' posn='160' name='नियुक्त' chunkId='JJP' chunkType='head:JJP'>
17	करने	VM	<fs af='कर,v,any,sg,any,o,ना_का,nA' drel='r6-k2:फैसला' posn='170' vpos='tam_2' name='करने' chunkId='VGNN' chunkType='head:VGNN'>
18	का	PSP	<fs af='का,psp,m,sg,,d,,' posn='180' drel='lwg__psp:करने' chunkType='child:VGNN' name='का2'>
19	फैसला	NN	<fs af='फैसला,n,m,sg,3,d,0,0' drel='pof:लिया' posn='190' name='फैसला' chunkId='NP6' chunkType='head:NP6'>
20	लिया	VM	<fs af='ले,v,m,sg,3,,या_है,yA' stype='declarative' posn='200' voicetype='active' vpos='tam_2' name='लिया' chunkId='VGF' chunkType='head:VGF'>
21	है	VAUX	<fs af='है,v,any,sg,3,,है,hE' posn='210' drel='lwg__vaux:लिया' chunkType='child:VGF' name='है'>
22	।	SYM	<fs af='।,punc,,,,,,' drel='rsym:लिया' posn='220' name='।' chunkId='BLK' chunkType='head:BLK'>
</Sentence>


<Sentence id="2">
1	खलीलजाद	NNP	<fs af='खलीलजाद,n,m,sg,3,d,0,0' drel='k1:रह' posn='10' name='खलीलजाद' chunkId='NP' chunkType='head:NP'>
2	अफगानिस्तान	NNP	<fs af='अफगानिस्तान,n,m,sg,3,o,0_में,0' drel='k7p:रह' posn='20' vpos='vib_2' name='अफगानिस्तान' chunkId='NP2' chunkType='head:NP2'>
3	में	PSP	<fs af='में,psp,,,,,,' posn='30' drel='lwg__psp:अफगानिस्तान' chunkType='child:NP2' name='में'>
4	बुश	NNP	<fs af='बुश,n,m,sg,3,o,0_का,0' drel='r6:राजदूत' posn='40' vpos='vib_2' name='बुश' chunkId='NP3' chunkType='head:NP3'>
5	के	PSP	<fs af='का,psp,m,sg,3h,d,,' posn='50' drel='lwg__psp:बुश' chunkType='child:NP3' name='के'>
6	विशेष	JJ	<fs af='विशेष,adj,any,any,,d,,' posn='60' drel='nmod__adj:राजदूत' chunkType='child:NP4' name='विशेष'>
7	राजदूत	NN	<fs af='राजदूत,n,m,sg,3,d,0,0' drel='k1s:रह' posn='70' name='राजदूत' chunkId='NP4' chunkType='head:NP4'>
8	रह	VM	<fs af='रह,v,m,sg,3h,,0_चुक+या_है,0' stype='declarative' posn='80' voicetype='active' vpos='tam_2_3' name='रह' chunkId='VGF' chunkType='head:VGF'>
9	चुके	VAUX	<fs af='चुक,v,m,sg,3h,,या,yA' posn='90' drel='lwg__vaux:रह' chunkType='child:VGF' name='चुके'>
10	हैं	VAUX	<fs af='है,v,any,sg,3h,,है,hE' posn='100' drel='lwg__vaux:रह' chunkType='child:VGF' name='हैं'>
11	।	SYM	<fs af='।,punc,,,,,,' drel='rsym:रह' posn='110' name='।' chunkId='BLK' chunkType='head:BLK'>
</Sentence>


<Sentence id="3">
1	खलीलजाद	NNP	<fs af='खलीलजाद,n,m,sg,3,d,0,0' drel='k1:हैं' posn='10' name='खलीलजाद' chunkId='NP' chunkType='head:NP'>
2	अफगान	NNP	<fs af='अफगान,n,m,sg,3,d,0,0' posn='20' drel='nmod__adj:मूल' chunkType='child:NP2' name='अफगान'>
3	मूल	NN	<fs af='मूल,n,m,sg,3,o,0_का,0' drel='r6:NULL' posn='30' vpos='vib_vib_3' name='मूल' chunkId='NP2' chunkType='head:NP2'>
4	के	PSP	<fs af='का,psp,m,sg,3h,d,,' posn='40' drel='lwg__psp:मूल' chunkType='child:NP2' name='के'>
5	NULL	NN	<fs mtype='non-gap' dmrel='k1s:हैं' name='NULL' chunkId='NULL__NP' chunkType='head:NULL__NP'>
6	हैं	VM	<fs af='है,v,any,sg,3h,,है,hE' stype='declarative' posn='50' voicetype='active' name='हैं' chunkId='VGF' chunkType='head:VGF'>
7	।	SYM	<fs af='।,punc,,,,,,' drel='rsym:हैं' posn='60' name='।' chunkId='BLK' chunkType='head:BLK'>
</Sentence>


<Sentence id="4">
1	NULL	PRP	<fs mtype='gap' troot='यह' dmrel='k1:है' name='NULL' chunkId='NULL__NP' chunkType='head:NULL__NP'>
2	उल्लेखनीय	JJ	<fs af='उल्लेखनीय,adj,any,any,,,,' drel='k1s:है' posn='10' name='उल्लेखनीय' chunkId='JJP' chunkType='head:JJP'>
3	है	VM	<fs af='है,v,any,sg,3,,है,hE' stype='declarative' posn='20' voicetype='active' name='है' chunkId='VGF' chunkType='head:VGF'>
4	कि	CC	<fs af='कि,avy,,,,,,' drel='rs:NULL' posn='30' name='कि' chunkId='CCP' chunkType='head:CCP'>
5	इराक	NNP	<fs af='इराक,n,m,sg,3,o,0_में,0' drel='k7p:हो' posn='40' vpos='vib_2' name='इराक' chunkId='NP' chunkType='head:NP'>
6	में	PSP	<fs af='में,psp,,,,,,' posn='50' drel='lwg__psp:इराक' chunkType='child:NP' name='में'>
7	अमेरिकी	JJ	<fs af='अमेरिकी,adj,any,any,,o,,' posn='60' drel='nmod__adj:राजदूत' chunkType='child:NP2' name='अमेरिकी'>
8	राजदूत	NN	<fs af='राजदूत,n,m,sg,3,o,0_का,0' drel='r6:पद' posn='70' vpos='vib_3' name='राजदूत' chunkId='NP2' chunkType='head:NP2'>
9	का	PSP	<fs af='का,psp,m,sg,,d,,' posn='80' drel='lwg__psp:राजदूत' chunkType='child:NP2' name='का'>
10	पद	NN	<fs af='पद,n,m,sg,3,d,0,0' drel='k1:हो' posn='90' name='पद' chunkId='NP3' chunkType='head:NP3'>
11	तब	PRP	<fs af='तब,pn,,,,d,,' drel='k7t:हो' posn='100' name='तब' chunkId='NP4' chunkType='head:NP4'>
12	खाली	JJ	<fs af='खाली,adj,any,any,,,,' drel='pof:हो' posn='110' name='खाली' chunkId='JJP2' chunkType='head:JJP2'>
13	हो	VM	<fs af='हो,v,m,sg,any,,0_जा+या१_था,0' drel='ccof:कि' stype='declarative' posn='120' voicetype='active' vpos='tam_2_3' name='हो' chunkId='VGF2' chunkType='head:VGF2'>
14	गया	VAUX	<fs af='जा,v,m,sg,any,,या१,yA1' posn='130' drel='lwg__vaux:हो' chunkType='child:VGF2' name='गया'>
15	था	VAUX	<fs af='था,v,m,sg,any,,था,WA' posn='140' drel='lwg__vaux:हो' chunkType='child:VGF2' name='था'>
16	जब	PRP	<fs af='जब,pn,,,,d,,' drel='k7t:कर2' posn='150' coref=':NP4' name='जब' chunkId='NP5' chunkType='head:NP5'>
17	बुश	NNP	<fs af='बुश,n,m,sg,3,o,0_ने,0' drel='k1:कर2' posn='160' vpos='vib_2' name='बुश' chunkId='NP6' chunkType='head:NP6'>
18	ने	PSP	<fs af='ने,psp,,,,,,' posn='170' drel='lwg__psp:बुश' chunkType='child:NP6' name='ने'>
19	जॉन	NNPC	<fs af='जॉन,n,m,sg,3,d,0,0' posn='180' drel='pof__cn:नेग्रोपोंटे' chunkType='child:NP7' name='जॉन'>
20	नेग्रोपोंटे	NNP	<fs af='नेग्रोपोंटे,n,m,sg,3,o,0_को,0' drel='k4:कर' posn='190' vpos='vib_3' name='नेग्रोपोंटे' chunkId='NP7' chunkType='head:NP7'>
21	को	PSP	<fs af='को,psp,,,,,,' posn='200' drel='lwg__psp:नेग्रोपोंटे' chunkType='child:NP7' name='को'>
22	इस	DEM	<fs af='यह,pn,any,sg,3,o,,' posn='210' drel='nmod__adj:जिम्मेवारी' chunkType='child:NP8' name='इस'>
23	जिम्मेवारी	NN	<fs af='जिम्मेवारी,n,f,sg,3,o,0_से,0' drel='k2:कर' posn='220' vpos='vib_3' name='जिम्मेवारी' chunkId='NP8' chunkType='head:NP8'>
24	से	PSP	<fs af='से,psp,,,,,,' posn='230' drel='lwg__psp:जिम्मेवारी' chunkType='child:NP8' name='से'>
25	मुक्त	JJ	<fs af='मुक्त,adj,any,any,,,,' drel='pof:कर' posn='240' name='मुक्त' chunkId='JJP3' chunkType='head:JJP3'>
26	कर	VM	<fs af='कर,v,any,any,any,,0,0' drel='vmod:कर2' posn='250' name='कर' chunkId='VGNF' chunkType='head:VGNF'>
27	नेशनल	NNPC	<fs af='नेशनल,n,m,sg,3,d,0,0' posn='260' drel='pof__cn:विभाग' chunkType='child:NP9' name='नेशनल'>
28	इंटेलीजेंस	NNPC	<fs af='इंटेलीजेंस,n,m,sg,3,d,0,0' posn='270' drel='pof__cn:विभाग' chunkType='child:NP9' name='इंटेलीजेंस'>
29	विभाग	NNP	<fs af='विभाग,n,m,sg,3,o,0_का,0' drel='r6:निदेशक' posn='280' vpos='vib_4' name='विभाग' chunkId='NP9' chunkType='head:NP9'>
30	का	PSP	<fs af='का,psp,m,sg,,d,,' posn='290' drel='lwg__psp:विभाग' chunkType='child:NP9' name='का2'>
31	नया	JJ	<fs af='नया,adj,m,sg,,d,,' posn='300' drel='nmod__adj:निदेशक' chunkType='child:NP10' name='नया'>
32	निदेशक	NN	<fs af='निदेशक,n,m,sg,3,d,0,0' drel='k2:कर2' posn='310' name='निदेशक' chunkId='NP10' chunkType='head:NP10'>
33	नियुक्त	JJ	<fs af='नियुक्त,adj,any,any,,,,' drel='pof:कर2' posn='320' name='नियुक्त' chunkId='JJP4' chunkType='head:JJP4'>
34	कर	VM	<fs af='कर,v,any,sg,any,,0_दे+या,0' drel='nmod__relc:तब' stype='declarative' posn='330' voicetype='active' vpos='tam_2' name='कर2' chunkId='VGF3' chunkType='head:VGF3'>
35	दिया	VAUX	<fs af='दे,v,m,sg,any,,या,yA' posn='340' drel='lwg__vaux:कर2' chunkType='child:VGF3' name='दिया'>
36	।	SYM	<fs af='।,punc,,,,,,' drel='rsym:है' posn='350' name='।' chunkId='BLK' chunkType='head:BLK'>
</Sentence>


<Sentence id="5">
1	अब	PRP	<fs af='अब,pn,,,,d,,' drel='k7t:लेंगे' posn='10' name='अब' chunkId='NP' chunkType='head:NP'>
2	नेग्रोपोंटे	NNP	<fs af='नेग्रोपोंटे,n,m,sg,3,o,0_का,0' drel='r6:जगह' posn='20' vpos='vib_2' name='नेग्रोपोंटे' chunkId='NP2' chunkType='head:NP2'>
3	की	PSP	<fs af='का,psp,f,sg,,d,,' posn='30' drel='lwg__psp:नेग्रोपोंटे' chunkType='child:NP2' name='की'>
4	जगह	NN	<fs af='जगह,n,f,sg,3,d,0,0' drel='k7p:लेंगे' posn='40' name='जगह' chunkId='NP3' chunkType='head:NP3'>
5	खलीलजाद	NNP	<fs af='खलीलजाद,n,m,sg,3,d,0,0' drel='k1:लेंगे' posn='50' name='खलीलजाद' chunkId='NP4' chunkType='head:NP4'>
6	लेंगे	VM	<fs af='ले,v,m,sg,3h,,गा,gA' stype='declarative' posn='60' voicetype='active' name='लेंगे' chunkId='VGF' chunkType='head:VGF'>
7	।	SYM	<fs af='।,punc,,,,,,' drel='rsym:लेंगे' posn='70' name='।' chunkId='BLK' chunkType='head:BLK'>
</Sentence>


<Sentence id="6">
1	अमेरिका	NNP	<fs af='अमेरिका,n,m,sg,3,o,0_ने,0' drel='k1:कहा' posn='10' vpos='vib_2' name='अमेरिका' chunkId='NP' chunkType='head:NP'>
2	ने	PSP	<fs af='ने,psp,,,,,,' posn='20' drel='lwg__psp:अमेरिका' chunkType='child:NP' name='ने'>
3	कहा	VM	<fs af='कह,v,m,sg,3,,या_है,yA' stype='declarative' posn='30' voicetype='active' vpos='tam_2' name='कहा' chunkId='VGF' chunkType='head:VGF'>
4	है	VAUX	<fs af='है,v,any,sg,3,,है,hE' posn='40' drel='lwg__vaux:कहा' chunkType='child:VGF' name='है'>
5	कि	CC	<fs af='कि,avy,,,,,,' drel='k2:कहा' posn='50' name='कि' chunkId='CCP' chunkType='head:CCP'>
6	खलीलजाद	NNP	<fs af='खलीलजाद,n,m,sg,3,o,0_का,0' drel='r6:कैरियर' posn='60' vpos='vib_2' name='खलीलजाद' chunkId='NP2' chunkType='head:NP2'>
7	का	PSP	<fs af='का,psp,m,sg,,d,,' posn='70' drel='lwg__psp:खलीलजाद' chunkType='child:NP2' name='का'>
8	राजनयिक	JJ	<fs af='राजनयिक,adj,any,any,,d,,' posn='80' drel='nmod__adj:कैरियर' chunkType='child:NP3' name='राजनयिक'>
9	कैरियर	NN	<fs af='कैरियर,n,m,sg,3,d,0,0' drel='k1:रहा' posn='90' name='कैरियर' chunkId='NP3' chunkType='head:NP3'>
10	लंबा	JJ	<fs af='लंबा,adj,m,sg,,d,,' drel='k1s:रहा' posn='100' name='लंबा' chunkId='JJP' chunkType='head:JJP'>
11	रहा	VM	<fs af='रह,v,m,sg,3,,या_है,yA' drel='ccof:कि' stype='declarative' posn='110' voicetype='active' vpos='tam_2' name='रहा' chunkId='VGF2' chunkType='head:VGF2'>
12	है	VAUX	<fs af='है,v,any,sg,3,,है,hE' posn='120' drel='lwg__vaux:रहा' chunkType='child:VGF2' name='है2'>
13	।	SYM	<fs af='।,punc,,,,,,' drel='rsym:कहा' posn='130' name='।' chunkId='BLK' chunkType='head:BLK'>
</Sentence>


<Sentence id="7">
1	उन्हें	PRP	<fs af='वह,pn,any,sg,3h,o,को,ko' drel='k4a:है' posn='10' name='उन्हें' chunkId='NP' chunkType='head:NP'>
2	इराक	NNP	<fs af='इराक,n,m,sg,3,o,0,0' drel='ccof:और' posn='20' name='इराक' chunkId='NP2' chunkType='head:NP2'>
3	और	CC	<fs af='और,avy,,,,,,' drel='r6:हालात' posn='30' name='और' chunkId='CCP' chunkType='head:CCP'>
4	उसके	PRP	<fs af='वह,pn,m,sg,3,o,का,kA' drel='r6:मुल्कों' posn='40' name='उसके' chunkId='NP3' chunkType='head:NP3'>
5	पड़ोसी	NNC	<fs af='पड़ोसी,n,m,sg,3,d,0,0' posn='50' drel='pof__cn:मुल्कों' chunkType='child:NP4' name='पड़ोसी'>
6	मुल्कों	NN	<fs af='मुल्क,n,m,pl,3,o,0_का,0' drel='ccof:और' posn='60' vpos='vib_3' name='मुल्कों' chunkId='NP4' chunkType='head:NP4'>
7	के	PSP	<fs af='का,psp,m,sg,,o,,' posn='70' drel='lwg__psp:मुल्कों' chunkType='child:NP4' name='के'>
8	हालात	NN	<fs af='हालात,n,m,sg,3,o,0_का,0' drel='r6:जानकारी' posn='80' vpos='vib_2' name='हालात' chunkId='NP5' chunkType='head:NP5'>
9	की	PSP	<fs af='का,psp,f,sg,,d,,' posn='90' drel='lwg__psp:हालात' chunkType='child:NP5' name='की'>
10	गहरी	JJ	<fs af='गहरा,adj,f,sg,,d,,' posn='100' drel='nmod__adj:जानकारी' chunkType='child:NP6' name='गहरी'>
11	जानकारी	NN	<fs af='जानकारी,n,f,sg,3,d,0,0' drel='k1:है' posn='110' name='जानकारी' chunkId='NP6' chunkType='head:NP6'>
12	है	VM	<fs af='है,v,any,sg,3,,है,hE' stype='declarative' posn='120' voicetype='active' name='है' chunkId='VGF' chunkType='head:VGF'>
13	।	SYM	<fs af='।,punc,,,,,,' drel='rsym:है' posn='130' name='।' chunkId='BLK' chunkType='head:BLK'>
</Sentence>


<Sentence id="8">
1	खलीलजाद	NNP	<fs af='खलीलजाद,n,m,sg,3,o,0_ने,0' drel='k1:कहा' posn='10' vpos='vib_2' name='खलीलजाद' chunkId='NP' chunkType='head:NP'>
2	ने	PSP	<fs af='ने,psp,,,,,,' posn='20' drel='lwg__psp:खलीलजाद' chunkType='child:NP' name='ने'>
3	कहा	VM	<fs af='कह,v,m,sg,3,,या_है,yA' stype='declarative' posn='30' voicetype='active' vpos='tam_2' name='कहा' chunkId='VGF' chunkType='head:VGF'>
4	है	VAUX	<fs af='है,v,any,sg,3,,है,hE' posn='40' drel='lwg__vaux:कहा' chunkType='child:VGF' name='है'>
5	कि	CC	<fs af='कि,avy,,,,,,' drel='k2:कहा' posn='50' name='कि' chunkId='CCP' chunkType='head:CCP'>
6	वे	PRP	<fs af='वह,pn,any,sg,3h,d,0,0' drel='k1:करेंगे' posn='60' name='वे' chunkId='NP2' chunkType='head:NP2'>
7	इराक	NNP	<fs af='इराक,n,m,sg,3,o,0_में,0' drel='k7p:करेंगे' posn='70' vpos='vib_2' name='इराक' chunkId='NP3' chunkType='head:NP3'>
8	में	PSP	<fs af='में,psp,,,,,,' posn='80' drel='lwg__psp:इराक' chunkType='child:NP3' name='में'>
9	लोकतंत्र	NN	<fs af='लोकतंत्र,n,m,sg,3,o,0,0' drel='ccof:और' posn='90' name='लोकतंत्र' chunkId='NP4' chunkType='head:NP4'>
10	और	CC	<fs af='और,avy,,,,,,' drel='r6:रक्षा' posn='100' name='और' chunkId='CCP2' chunkType='head:CCP2'>
11	स्वतंत्रता	NN	<fs af='स्वतन्त्रता,n,f,sg,3,o,0_का,0' drel='ccof:और' posn='110' vpos='vib_2' name='स्वतंत्रता' chunkId='NP5' chunkType='head:NP5'>
12	की	PSP	<fs af='का,psp,f,sg,,o,,' posn='120' drel='lwg__psp:स्वतंत्रता' chunkType='child:NP5' name='की'>
13	रक्षा	NN	<fs af='रक्षा,n,f,sg,3,o,0_के_लिए,0' drel='rt:करेंगे' posn='130' vpos='vib_2_3' name='रक्षा' chunkId='NP6' chunkType='head:NP6'>
14	के	PSP	<fs af='के,psp,,,,,,' posn='140' drel='lwg__psp:रक्षा' chunkType='child:NP6' name='के'>
15	लिए	PSP	<fs af='लिए,psp,,,,,,' posn='150' drel='lwg__psp:रक्षा' chunkType='child:NP6' name='लिए'>
16	इराकियों	NN	<fs af='इराकी,n,m,pl,3,o,0_के_साथ,0' drel='ras-k1:मिलकर' posn='160' vpos='vib_2_3' name='इराकियों' chunkId='NP7' chunkType='head:NP7'>
17	के	PSP	<fs af='के,psp,,,,,,' posn='170' drel='lwg__psp:इराकियों' chunkType='child:NP7' name='के2'>
18	साथ	NST	<fs af='साथ,nst,m,sg,3,d,,' posn='180' drel='lwg__psp:इराकियों' chunkType='child:NP7' name='साथ'>
19	मिलकर	VM	<fs af='मिल,v,any,any,any,,कर,kara' drel='vmod:करेंगे' posn='190' name='मिलकर' chunkId='VGNF' chunkType='head:VGNF'>
20	काम	NN	<fs af='काम,n,m,sg,3,d,0,0' drel='k2:करेंगे' posn='200' name='काम' chunkId='NP8' chunkType='head:NP8'>
21	करेंगे	VM	<fs af='कर,v,m,sg,3h,,गा,gA' drel='ccof:कि' stype='declarative' posn='210' voicetype='active' name='करेंगे' chunkId='VGF2' chunkType='head:VGF2'>
22	।	SYM	<fs af='।,punc,,,,,,' drel='rsym:कहा' posn='220' name='।' chunkId='BLK' chunkType='head:BLK'>
</Sentence>


<Sentence id="9">
1	अमेरिकी	JJ	<fs af='अमेरिकी,adj,any,any,,o,,' posn='10' drel='nmod__adj:कोंडोलीजा' chunkType='child:NP' name='अमेरिकी'>
2	विदेश	NNPC	<fs af='विदेश,n,m,sg,3,d,0,0' posn='20' drel='pof__cn:मंत्री' chunkType='child:NP' name='विदेश'>
3	मंत्री	NNP	<fs af='मंत्री,n,m,sg,3,d,0,0' posn='30' drel='nmod__adj:राइस' chunkType='child:NP' name='मंत्री'>
4	कोंडोलीजा	NNPC	<fs af='कोंडोलीजा,n,m,sg,3,d,0,0' posn='40' drel='pof__cn:राइस' chunkType='child:NP' name='कोंडोलीजा'>
5	राइस	NNP	<fs af='राइस,n,m,sg,3,o,0_ने,0' drel='k1:दिया' posn='50' vpos='vib_vib_6' name='राइस' chunkId='NP' chunkType='head:NP'>
6	ने	PSP	<fs af='ने,psp,,,,,,' posn='60' drel='lwg__psp:राइस' chunkType='child:NP' name='ने'>
7	खलीलजाद	NNP	<fs af='खलीलजाद,n,m,sg,3,o,0_का,0' drel='r6:नियुक्ति' posn='70' vpos='vib_2' name='खलीलजाद' chunkId='NP2' chunkType='head:NP2'>
8	की	PSP	<fs af='का,psp,f,sg,,o,,' posn='80' drel='lwg__psp:खलीलजाद' chunkType='child:NP2' name='की'>
9	नियुक्ति	NN	<fs af='नियुक्ति,n,f,sg,3,o,0_को,0' drel='k4:दिया' posn='90' vpos='vib_2' name='नियुक्ति' chunkId='NP3' chunkType='head:NP3'>
10	को	PSP	<fs af='को,psp,,,,,,' posn='100' drel='lwg__psp:नियुक्ति' chunkType='child:NP3' name='को'>
11	परिपक्व	JJ	<fs af='परिपक्व,adj,any,any,,d,,' posn='110' drel='nmod__adj:फैसला' chunkType='child:NP4' name='परिपक्व'>
12	फैसला	NN	<fs af='फैसला,n,m,sg,3,d,0,0' drel='k2:दिया' posn='120' name='फैसला' chunkId='NP4' chunkType='head:NP4'>
13	करार	NN	<fs af='करार,n,m,sg,3,d,0,0' drel='pof:दिया' posn='130' name='करार' chunkId='NP5' chunkType='head:NP5'>
14	दिया	VM	<fs af='दे,v,m,sg,3,,या_है,yA' stype='declarative' posn='140' voicetype='active' vpos='tam_2' name='दिया' chunkId='VGF' chunkType='head:VGF'>
15	है	VAUX	<fs af='है,v,any,sg,3,,है,hE' posn='150' drel='lwg__vaux:दिया' chunkType='child:VGF' name='है'>
16	।	SYM	<fs af='।,punc,,,,,,' drel='rsym:दिया' posn='160' name='।' chunkId='BLK' chunkType='head:BLK'>
</Sentence>


<Sentence id="10">
1	उन्होंने	PRP	<fs af='वह,pn,any,sg,3h,o,ने,ne' drel='k1:कहा' posn='10' name='उन्होंने' chunkId='NP' chunkType='head:NP'>
2	कहा	VM	<fs af='कह,v,m,sg,any,,या,yA' stype='declarative' posn='20' voicetype='active' name='कहा' chunkId='VGF' chunkType='head:VGF'>
3	कि	CC	<fs af='कि,avy,,,,,,' drel='k2:कहा' posn='30' name='कि' chunkId='CCP' chunkType='head:CCP'>
4	इराक	NNP	<fs af='इराक,n,m,sg,3,o,0,0' drel='ccof:और' posn='40' name='इराक' chunkId='NP2' chunkType='head:NP2'>
5	और	CC	<fs af='और,avy,,,,,,' drel='r6:हालात' posn='50' name='और' chunkId='CCP2' chunkType='head:CCP2'>
6	पश्चिम	NNPC	<fs af='पश्चिम,n,m,sg,3,d,0,0' posn='60' drel='pof__cn:एशिया' chunkType='child:NP3' name='पश्चिम'>
7	एशिया	NNP	<fs af='एशिया,n,m,sg,3,o,0_का,0' drel='ccof:और' posn='70' vpos='vib_3' name='एशिया' chunkId='NP3' chunkType='head:NP3'>
8	के	PSP	<fs af='का,psp,m,sg,,o,,' posn='80' drel='lwg__psp:एशिया' chunkType='child:NP3' name='के'>
9	मौजूदा	JJ	<fs af='मौजूदा,adj,any,any,,o,,' posn='90' drel='nmod__adj:हालात' chunkType='child:NP4' name='मौजूदा'>
10	हालात	NN	<fs af='हालात,n,f,sg,3,o,0_पर,0' drel='k7:रखने' posn='100' vpos='vib_3' name='हालात' chunkId='NP4' chunkType='head:NP4'>
11	पर	PSP	<fs af='पर,psp,,,,,,' posn='110' drel='lwg__psp:हालात' chunkType='child:NP4' name='पर'>
12	नजर	NN	<fs af='नजर,n,f,sg,3,d,0,0' drel='pof:रखने' posn='120' name='नजर' chunkId='NP5' chunkType='head:NP5'>
13	रखने	VM	<fs af='रख,v,any,any,any,o,ना_के_लिए,nA' drel='rt:है' posn='130' vpos='tam_2_3' name='रखने' chunkId='VGNN' chunkType='head:VGNN'>
14	के	PSP	<fs af='के,psp,,,,,,' posn='140' drel='lwg__psp:रखने' chunkType='child:VGNN' name='के2'>
15	लिए	PSP	<fs af='लिए,psp,,,,,,' posn='150' drel='lwg__psp:रखने' chunkType='child:VGNN' name='लिए'>
16	खलीलजाद	NNP	<fs af='खलीलजाद,n,m,sg,3,o,0_जैसा,0' drel='nmod:राजनयिक' posn='160' vpos='vib_2' name='खलीलजाद' chunkId='NP6' chunkType='head:NP6'>
17	जैसे	PSP	<fs af='जैसा,psp,m,sg,,o,,' posn='170' drel='lwg__psp:खलीलजाद' chunkType='child:NP6' name='जैसे'>
18	अनुभवी	JJ	<fs af='अनुभवी,adj,any,any,,o,,' posn='180' drel='nmod__adj:राजनयिक' chunkType='child:NP7' name='अनुभवी'>
19	राजनयिक	NN	<fs af='राजनयिक,n,m,sg,3,o,0_का,0' drel='r6-k2:जरूरत' posn='190' vpos='vib_3' name='राजनयिक' chunkId='NP7' chunkType='head:NP7'>
20	की	PSP	<fs af='का,psp,f,sg,,d,,' posn='200' drel='lwg__psp:राजनयिक' chunkType='child:NP7' name='की'>
21	जरूरत	NN	<fs af='जरूरत,n,f,sg,3,d,0,0' drel='pof:है' posn='210' name='जरूरत' chunkId='NP8' chunkType='head:NP8'>
22	है	VM	<fs af='है,v,any,sg,3,,है,hE' drel='ccof:कि' stype='declarative' posn='220' voicetype='active' name='है' chunkId='VGF2' chunkType='head:VGF2'>
23	।	SYM	<fs af='।,punc,,,,,,' drel='rsym:कहा' posn='230' name='।' chunkId='BLK' chunkType='head:BLK'>
</Sentence>


<Sentence id="11">
1	हमें	PRP	<fs af='हम,pn,any,pl,1,o,को,ko' drel='k4a:है' posn='10' name='हमें' chunkId='NP' chunkType='head:NP'>
2	उम्मीद	NN	<fs af='उम्मीद,n,f,sg,3,d,0,0' drel='k1:है' posn='20' name='उम्मीद' chunkId='NP2' chunkType='head:NP2'>
3	है	VM	<fs af='है,v,any,sg,3,,है,hE' stype='declarative' posn='30' voicetype='active' name='है' chunkId='VGF' chunkType='head:VGF'>
4	कि	CC	<fs af='कि,avy,,,,,,' drel='rs:उम्मीद' posn='40' name='कि' chunkId='CCP' chunkType='head:CCP'>
5	खलीलजाद	NNP	<fs af='खलीलजाद,n,m,sg,3,d,0,0' drel='k1:करेंगे' posn='50' name='खलीलजाद' chunkId='NP3' chunkType='head:NP3'>
6	बगदाद	NNP	<fs af='बगदाद,n,m,sg,3,o,0_में,0' drel='k7p:करेंगे' posn='60' vpos='vib_2' name='बगदाद' chunkId='NP4' chunkType='head:NP4'>
7	में	PSP	<fs af='में,psp,,,,,,' posn='70' drel='lwg__psp:बगदाद' chunkType='child:NP4' name='में'>
8	अमेरिका	NNP	<fs af='अमेरिका,n,m,sg,3,o,0_का,0' drel='r6:मिशन' posn='80' vpos='vib_2' name='अमेरिका' chunkId='NP5' chunkType='head:NP5'>
9	के	PSP	<fs af='का,psp,m,sg,,o,,' posn='90' drel='lwg__psp:अमेरिका' chunkType='child:NP5' name='के'>
10	राजनयिक	JJ	<fs af='राजनयिक,adj,any,any,,o,,' posn='100' drel='nmod__adj:मिशन' chunkType='child:NP6' name='राजनयिक'>
11	मिशन	NN	<fs af='मिशन,n,m,sg,3,o,0_को,0' drel='k2:करेंगे' posn='110' vpos='vib_3' name='मिशन' chunkId='NP6' chunkType='head:NP6'>
12	को	PSP	<fs af='को,psp,,,,,,' posn='120' drel='lwg__psp:मिशन' chunkType='child:NP6' name='को'>
13	पूरा	JJ	<fs af='पूरा,adj,m,sg,,,,' drel='pof:करेंगे' posn='130' name='पूरा' chunkId='JJP' chunkType='head:JJP'>
14	करेंगे	VM	<fs af='कर,v,m,sg,3h,,गा,gA' drel='ccof:कि' stype='declarative' posn='140' voicetype='active' name='करेंगे' chunkId='VGF2' chunkType='head:VGF2'>
15	।	SYM	<fs af='।,punc,,,,,,' drel='rsym:है' posn='150' name='।' chunkId='BLK' chunkType='head:BLK'>
</Sentence>


</text>
</tb>
</body>
</document>
