<document id="2489471">
<head>
	<caption>आतंकवाद के खिलाफ मिलकर लड़ेंगे भारत-पाक बारह सितंबर तक छोड़ देंगे मछुआरे और कैदी अमर उजाला ब्यूरो/एजेंसियां नई दिल्ली.</caption>
	<language>Hindi </language>
	<domain_name>News Articles </domain_name>
	<word_count>483</word_count>
	<byte_count>59492</byte_count>
	<availability>
		<format>CML/SSF</format>
	<sentence_marker>.</sentence_marker>
	<normalization>No</normalization>
	</availability>
	<encoding_description>
		<original_encoding>ISO 8859</original_encoding>
		<new_encoding>Unicode UTF8</new_encoding>
	</encoding_description>
	<distributor>LTRC, IIIT Hyderabad</distributor>
	<project_description>NSF Hindi/Urdu Dependency Treebanking Project</project_description>
	<creation>
		<raw_corpus creation_date="" institute_name="IIIT Hyderabad"></raw_corpus>
		<annotated_corpus creation_date="06/01/2009" institute_name="IIIT Hyderabad"></annotated_corpus>
	<edition_number>1.0</edition_number>
	</creation>
	<publication>
		<place>New Delhi</place>
		<date>30/5/2004</date>
		<type>Newspaper</type>
		<publisher>
			<name>Amar Ujala</name>
			<url>http://www.amarujala.com</url>
		</publisher>
	</publication>

</head>
<body>
<tb number="1" segment="no" bullet="no">
<foreign language="select" writingsystem="LTR"></foreign>
<text>
<Sentence id="1">
1	भारत	NNP	<fs af='भारत,n,m,sg,3,d,0,0' drel='ccof:और' posn='10' name='भारत' chunkId='NP' chunkType='head:NP'>
2	और	CC	<fs af='और,avy,,,,,,' drel='k7:सुधरते' posn='20' name='और' chunkId='CCP' chunkType='head:CCP'>
3	पाकिस्तान	NNP	<fs af='पाकिस्तान,n,m,sg,3,o,0_के_बीच,0' drel='ccof:और' posn='30' vpos='vib_2_3' name='पाकिस्तान' chunkId='NP2' chunkType='head:NP2'>
4	के	PSP	<fs af='के,psp,,,,,,' posn='40' drel='lwg__psp:पाकिस्तान' chunkType='child:NP2' name='के'>
5	बीच	NST	<fs af='बीच,nst,m,sg,3,d,,' posn='50' drel='lwg__psp:पाकिस्तान' chunkType='child:NP2' name='बीच'>
6	सुधरते	VM	<fs af='सुधर,v,m,pl,any,,ता,wA' drel='nmod__k1inv:रिश्तों' posn='60' name='सुधरते' chunkId='VGNF' chunkType='head:VGNF'>
7	रिश्तों	NN	<fs af='रिश्ता,n,m,pl,3,o,0_में,0' drel='k7:जुड़' posn='70' vpos='vib_2' name='रिश्तों' chunkId='NP3' chunkType='head:NP3'>
8	में	PSP	<fs af='में,psp,,,,,,' posn='80' drel='lwg__psp:रिश्तों' chunkType='child:NP3' name='में'>
9	मंगलवार	NNP	<fs af='मंगलवार,n,m,sg,3,o,0_को,0' drel='k7t:जुड़' posn='90' vpos='vib_2' name='मंगलवार' chunkId='NP4' chunkType='head:NP4'>
10	को	PSP	<fs af='को,psp,,,,,,' posn='100' drel='lwg__psp:मंगलवार' chunkType='child:NP4' name='को'>
11	एक	QC	<fs af='एक,num,any,any,,any,,' posn='110' drel='nmod__adj:कड़ी' chunkType='child:NP5' name='एक'>
12	कड़ी	NN	<fs af='कडी,n,f,sg,3,d,0,0' drel='k1:जुड़' posn='120' name='कड़ी' chunkId='NP5' chunkType='head:NP5'>
13	और	QF	<fs af='और,avy,,,,,,' drel='adv:जुड़' posn='130' name='और2' chunkId='JJP' chunkType='head:JJP'>
14	जुड़	VM	<fs af='जुड,v,any,sg,3,,0_जा+या१,0' stype='declarative' posn='140' voicetype='active' vpos='tam_2' name='जुड़' chunkId='VGF' chunkType='head:VGF'>
15	गई	VAUX	<fs af='जा,v,f,sg,3,,या१,yA1' posn='150' drel='lwg__vaux:जुड़' chunkType='child:VGF' name='गई'>
16	.	SYM	<fs af='.,punc,,,,,,' drel='rsym:जुड़' posn='160' name='.' chunkId='BLK' chunkType='head:BLK'>
</Sentence>


<Sentence id="2">
1	दोनों	NN	<fs af='दो,n,m,pl,3,o,0_ने,0' drel='k1:किया' posn='10' vpos='vib_2' name='दोनों' chunkId='NP' chunkType='head:NP'>
2	ने	PSP	<fs af='ने,psp,,,,,,' posn='20' drel='lwg__psp:दोनों' chunkType='child:NP' name='ने'>
3	एक	PRPC	<fs af='एक,pn,any,sg,3,d,0,0' posn='30' drel='mod:दूसरे' chunkType='child:NP2' name='एक'>
4	-	SYM	<fs af='-,punc,,,,,,' posn='40' drel='rsym:दूसरे' chunkType='child:NP2' name='-'>
5	दूसरे	PRP	<fs af='दूसरा,pn,any,sg,3,o,0_का,0' drel='r6:जेलों' posn='50' vpos='vib_4' name='दूसरे' chunkId='NP2' chunkType='head:NP2'>
6	की	PSP	<fs af='का,psp,f,pl,,o,,' posn='60' drel='lwg__psp:दूसरे' chunkType='child:NP2' name='की'>
7	जेलों	NN	<fs af='जेल,n,f,pl,3,o,0_में,0' drel='jjmod:बंद' posn='70' vpos='vib_2' name='जेलों' chunkId='NP3' chunkType='head:NP3'>
8	में	PSP	<fs af='में,psp,,,,,,' posn='80' drel='lwg__psp:जेलों' chunkType='child:NP3' name='में'>
9	बंद	JJ	<fs af='बंद,adj,any,any,,o,,' drel='nmod:मछुआरों' posn='90' name='बंद' chunkId='JJP' chunkType='head:JJP'>
10	सभी	QF	<fs af='सभी,avy,,,,,,' posn='100' drel='nmod__adj:मछुआरों' chunkType='child:NP4' name='सभी'>
11	मछुआरों	NN	<fs af='मछुआरा,n,m,pl,3,o,0,0' drel='ccof:व' posn='110' name='मछुआरों' chunkId='NP4' chunkType='head:NP4'>
12	व	CC	<fs af='व,avy,,,,,,' drel='k2:छोड़ने' posn='120' name='व' chunkId='CCP' chunkType='head:CCP'>
13	सजा	NN	<fs af='सजा,n,f,sg,3,d,0,0' drel='k2:कर' posn='130' name='सजा' chunkId='NP5' chunkType='head:NP5'>
14	पूरी	JJ	<fs af='पूरा,adj,any,any,,,,' drel='pof:कर' posn='140' name='पूरी' chunkId='JJP2' chunkType='head:JJP2'>
15	कर	VM	<fs af='कर,v,any,pl,3,,0_चुक+एं,0' drel='nmod:कैदियों' posn='150' vpos='tam_2' name='कर' chunkId='VGNF' chunkType='head:VGNF'>
16	चुके	VAUX	<fs af='चुक,v,any,pl,3,,एं,eM' posn='160' drel='lwg__vaux:कर' chunkType='child:VGNF' name='चुके'>
17	कैदियों	NN	<fs af='कैदी,n,m,pl,3,o,0_को,0' drel='ccof:व' posn='170' vpos='vib_2' name='कैदियों' chunkId='NP6' chunkType='head:NP6'>
18	को	PSP	<fs af='को,psp,,,,,,' posn='180' drel='lwg__psp:कैदियों' chunkType='child:NP6' name='को'>
19	आगामी	JJ	<fs af='आगामी,adj,any,any,,o,,' posn='190' drel='nmod__adj:सितंबर' chunkType='child:NP7' name='आगामी'>
20	१२	NNPC	<fs af='१२,n,any,sg,3,d,0,0' posn='210' drel='pof__cn:सितंबर' chunkType='child:NP7' name='१२'>
21	सितंबर	NNP	<fs af='सितंबर,n,m,sg,3,o,0_तक,0' drel='k7t:छोड़ने' posn='210' vpos='vib_4' name='सितंबर' chunkId='NP7' chunkType='head:NP7'>
22	तक	PSP	<fs af='तक,psp,,,,,,' posn='220' drel='lwg__psp:सितंबर' chunkType='child:NP7' name='तक'>
23	छोड़ने	VM	<fs af='छोड,v,any,sg,any,o,ना_का,nA' drel='r6-k2:फैसला' posn='230' vpos='tam_2' name='छोड़ने' chunkId='VGNN' chunkType='head:VGNN'>
24	का	PSP	<fs af='का,psp,m,sg,,d,,' posn='240' drel='lwg__psp:छोड़ने' chunkType='child:VGNN' name='का'>
25	फैसला	NN	<fs af='फैसला,n,m,sg,3,d,0,0' drel='pof:किया' posn='250' name='फैसला' chunkId='NP8' chunkType='head:NP8'>
26	किया	VM	<fs af='कर,v,m,sg,3,,या_है,yA' stype='declarative' posn='260' voicetype='active' vpos='tam_2' name='किया' chunkId='VGF' chunkType='head:VGF'>
27	है	VAUX	<fs af='है,v,any,sg,3,,है,hE' posn='270' drel='lwg__vaux:किया' chunkType='child:VGF' name='है'>
28	.	SYM	<fs af='.,punc,,,,,,' drel='rsym:किया' posn='280' name='.' chunkId='BLK' chunkType='head:BLK'>
</Sentence>


<Sentence id="3">
1	दोनों	QC	<fs af='दो,num,any,pl,,any,,' posn='10' drel='nmod__adj:देश' chunkType='child:NP' name='दोनों'>
2	देश	NN	<fs af='देश,n,m,sg,3,d,0,0' drel='k1:उठाएंगे' posn='20' name='देश' chunkId='NP' chunkType='head:NP'>
3	आतंकवाद	NN	<fs af='आतंकवाद,n,m,sg,3,o,0_से,0' drel='k2:मिलकर' posn='30' vpos='vib_2' name='आतंकवाद' chunkId='NP2' chunkType='head:NP2'>
4	से	PSP	<fs af='से,psp,,,,,,' posn='40' drel='lwg__psp:आतंकवाद' chunkType='child:NP2' name='से'>
5	मिलकर	VM	<fs af='मिल,v,any,any,any,,कर,kara' drel='vmod:लड़ने' posn='50' name='मिलकर' chunkId='VGNF' chunkType='head:VGNF'>
6	लड़ने	VM	<fs af='लड,v,any,sg,3,o,ना_के_साथ,nA' drel='vmod:उठाएंगे' posn='60' vpos='tam_2_3' name='लड़ने' chunkId='VGNN' chunkType='head:VGNN'>
7	के	PSP	<fs af='के,psp,,,,,,' posn='70' drel='lwg__psp:लड़ने' chunkType='child:VGNN' name='के'>
8	साथ	NST	<fs af='साथ,nst,m,sg,3,d,,' posn='80' drel='lwg__nst:लड़ने' chunkType='child:VGNN' name='साथ'>
9	ही	RP	<fs af='ही,avy,,,,,,' posn='90' drel='lwg__rp:लड़ने' chunkType='child:VGNN' name='ही'>
10	इसको	PRP	<fs af='यह,pn,any,sg,3,o,को,ko' drel='k2:मिटाने' posn='100' name='इसको' chunkId='NP3' chunkType='head:NP3'>
11	पूरी	JJ	<fs af='पूरा,adj,f,sg,,d,,' posn='110' drel='nmod__adj:तरह' chunkType='child:NP4' name='पूरी'>
12	तरह	NN	<fs af='तरह,n,f,sg,3,d,0,0' drel='adv:मिटाने' posn='120' name='तरह' chunkId='NP4' chunkType='head:NP4'>
13	मिटाने	VM	<fs af='मिटा,v,any,any,any,o,ना_के_लिए,nA' drel='rt:मिलकर2' posn='130' vpos='tam_2_3' name='मिटाने' chunkId='VGNN2' chunkType='head:VGNN2'>
14	के	PSP	<fs af='के,psp,,,,,,' posn='140' drel='lwg__psp:मिटाने' chunkType='child:VGNN2' name='के2'>
15	लिए	PSP	<fs af='लिए,psp,,,,,,' posn='150' drel='lwg__psp:मिटाने' chunkType='child:VGNN2' name='लिए'>
16	मिलकर	VM	<fs af='मिल,v,any,any,any,,कर,kara' drel='vmod:उठाएंगे' posn='160' name='मिलकर2' chunkId='VGNF2' chunkType='head:VGNF2'>
17	कठोर	JJ	<fs af='कठोर,adj,any,any,,d,,' posn='170' drel='nmod__adj:कदम' chunkType='child:NP5' name='कठोर'>
18	कदम	NN	<fs af='कदम,n,m,pl,3,d,0,0' drel='pof:उठाएंगे' posn='180' name='कदम' chunkId='NP5' chunkType='head:NP5'>
19	उठाएंगे	VM	<fs af='उठा,v,m,pl,3,,गा,gA' stype='declarative' posn='190' voicetype='active' name='उठाएंगे' chunkId='VGF' chunkType='head:VGF'>
20	.	SYM	<fs af='.,punc,,,,,,' drel='rsym:उठाएंगे' posn='200' name='.' chunkId='BLK' chunkType='head:BLK'>
</Sentence>


<Sentence id="4">
1	दो	QC	<fs af='दो,num,any,any,,any,,' posn='10' drel='nmod__adj:दिन' chunkType='child:NP' name='दो'>
2	दिन	NN	<fs af='दिन,n,m,sg,3,o,0_तक,0' drel='k7t:चली' posn='20' vpos='vib_3' name='दिन' chunkId='NP' chunkType='head:NP'>
3	तक	PSP	<fs af='तक,psp,,,,,,' posn='30' drel='lwg__psp:दिन' chunkType='child:NP' name='तक'>
4	चली	VM	<fs af='चल,v,f,sg,any,,या,yA' drel='nmod__k1inv:वार्ता' posn='40' name='चली' chunkId='VGNF' chunkType='head:VGNF'>
5	गृह	NNC	<fs af='गृह,n,m,sg,3,d,0,0' posn='50' drel='pof__cn:स्तर' chunkType='child:NP2' name='गृह'>
6	सचिव	NNC	<fs af='सचिव,n,m,sg,3,d,0,0' posn='60' drel='pof__cn:स्तर' chunkType='child:NP2' name='सचिव'>
7	स्तर	NN	<fs af='स्तर,n,m,sg,3,o,0_का,0' drel='r6:वार्ता' posn='70' vpos='vib_4' name='स्तर' chunkId='NP2' chunkType='head:NP2'>
8	की	PSP	<fs af='का,psp,f,sg,,o,,' posn='80' drel='lwg__psp:स्तर' chunkType='child:NP2' name='की'>
9	वार्ता	NN	<fs af='वार्ता,n,f,sg,3,o,0_के_बाद,0' drel='jjmod:जारी' posn='90' vpos='vib_2_3' name='वार्ता' chunkId='NP3' chunkType='head:NP3'>
10	के	PSP	<fs af='के,psp,,,,,,' posn='100' drel='lwg__psp:वार्ता' chunkType='child:NP3' name='के'>
11	बाद	NST	<fs af='बाद,nst,m,sg,3,d,,' posn='110' drel='lwg__psp:वार्ता' chunkType='child:NP3' name='बाद'>
12	मंगलवार	NNP	<fs af='मंगलवार,n,m,sg,3,o,0_को,0' drel='jjmod:जारी' posn='120' vpos='vib_2' name='मंगलवार' chunkId='NP4' chunkType='head:NP4'>
13	को	PSP	<fs af='को,psp,,,,,,' posn='130' drel='lwg__psp:मंगलवार' chunkType='child:NP4' name='को'>
14	जारी	JJ	<fs af='जारी,adj,any,any,,o,,' drel='nmod__k1inv:बयान' posn='140' name='जारी' chunkId='JJP' chunkType='head:JJP'>
15	संयुक्त	NNC	<fs af='संयुक्त,adj,any,any,,o,,' posn='150' drel='pof__cn:बयान' chunkType='child:NP5' name='संयुक्त'>
16	बयान	NN	<fs af='बयान,n,m,sg,3,o,0_में,0' drel='k7:जतायी' posn='160' vpos='vib_3' name='बयान' chunkId='NP5' chunkType='head:NP5'>
17	में	PSP	<fs af='में,psp,,,,,,' posn='170' drel='lwg__psp:बयान' chunkType='child:NP5' name='में'>
18	दोनों	QC	<fs af='दो,num,any,pl,,any,,' posn='180' drel='nmod__adj:पक्षों' chunkType='child:NP6' name='दोनों'>
19	पक्षों	NN	<fs af='पक्ष,n,m,pl,3,o,0_ने,0' drel='k1:जतायी' posn='190' vpos='vib_3' name='पक्षों' chunkId='NP6' chunkType='head:NP6'>
20	ने	PSP	<fs af='ने,psp,,,,,,' posn='200' drel='lwg__psp:पक्षों' chunkType='child:NP6' name='ने'>
21	मछुआरों	NN	<fs af='मछुआरा,n,m,pl,3,o,0,0' drel='ccof:और' posn='210' name='मछुआरों' chunkId='NP7' chunkType='head:NP7'>
22	और	CC	<fs af='और,avy,,,,,,' drel='r6:रिहाई' posn='220' name='और' chunkId='CCP' chunkType='head:CCP'>
23	सजा	NN	<fs af='सजा,n,f,sg,3,d,0,0' drel='k2:कर' posn='230' name='सजा' chunkId='NP8' chunkType='head:NP8'>
24	पूरी	JJ	<fs af='पूरा,adj,any,any,,,,' drel='pof:कर' posn='240' name='पूरी' chunkId='JJP2' chunkType='head:JJP2'>
25	कर	VM	<fs af='कर,v,any,pl,3,,0_चुक+एं,0' drel='nmod__k1inv:कैदियों' posn='250' vpos='tam_2' name='कर' chunkId='VGNF2' chunkType='head:VGNF2'>
26	चुके	VAUX	<fs af='चुक,v,any,pl,3,,एं,eM' posn='260' drel='lwg__vaux:कर' chunkType='child:VGNF2' name='चुके'>
27	कैदियों	NN	<fs af='कैदी,n,m,pl,3,o,0_का,0' drel='ccof:और' posn='270' vpos='vib_2' name='कैदियों' chunkId='NP9' chunkType='head:NP9'>
28	की	PSP	<fs af='का,psp,f,sg,,d,,' posn='280' drel='lwg__psp:कैदियों' chunkType='child:NP9' name='की2'>
29	रिहाई	NN	<fs af='रिहाई,n,f,sg,3,d,0,0' drel='k2:करने' posn='290' name='रिहाई' chunkId='NP10' chunkType='head:NP10'>
30	सुनिश्चित	JJ	<fs af='सुनिश्चित,adj,any,any,,,,' drel='pof:करने' posn='300' name='सुनिश्चित' chunkId='JJP3' chunkType='head:JJP3'>
31	करने	VM	<fs af='कर,v,any,any,any,o,ना_के_लिए,nA' drel='rt:जतायी' posn='310' vpos='tam_2_3' name='करने' chunkId='VGNN' chunkType='head:VGNN'>
32	के	PSP	<fs af='के,psp,,,,,,' posn='320' drel='lwg__psp:करने' chunkType='child:VGNN' name='के2'>
33	लिए	PSP	<fs af='लिए,psp,,,,,,' posn='330' drel='lwg__psp:करने' chunkType='child:VGNN' name='लिए'>
34	आवश्यक	JJ	<fs af='आवश्यक,adj,any,any,,d,,' posn='340' drel='nmod__adj:निर्देश' chunkType='child:NP11' name='आवश्यक'>
35	निर्देश	NN	<fs af='निर्देश,n,m,sg,3,d,0,0' drel='k2:करने2' posn='350' name='निर्देश' chunkId='NP11' chunkType='head:NP11'>
36	जारी	JJ	<fs af='जारी,adj,any,any,,,,' drel='pof:करने2' posn='360' name='जारी2' chunkId='JJP4' chunkType='head:JJP4'>
37	करने	VM	<fs af='कर,v,any,any,any,o,ना_पर,nA' drel='k7:जतायी' posn='370' vpos='tam_2' name='करने2' chunkId='VGNN2' chunkType='head:VGNN2'>
38	पर	PSP	<fs af='पर,psp,,,,,,' posn='380' drel='lwg__psp:करने2' chunkType='child:VGNN2' name='पर'>
39	सहमति	NN	<fs af='सहमति,n,f,sg,3,d,0,0' drel='pof:जतायी' posn='390' name='सहमति' chunkId='NP12' chunkType='head:NP12'>
40	जतायी	VM	<fs af='जता,v,f,sg,3,,या,yA' stype='declarative' posn='400' voicetype='active' name='जतायी' chunkId='VGF' chunkType='head:VGF'>
41	.	SYM	<fs af='.,punc,,,,,,' drel='rsym:जतायी' posn='410' name='.' chunkId='BLK' chunkType='head:BLK'>
</Sentence>


<Sentence id="5">
1	रिहाई	NN	<fs af='रिहाई,n,f,sg,3,o,0_के_लिए,0' drel='rt:है' posn='10' vpos='vib_2_3' name='रिहाई' chunkId='NP' chunkType='head:NP'>
2	के	PSP	<fs af='के,psp,,,,,,' posn='20' drel='lwg__psp:रिहाई' chunkType='child:NP' name='के'>
3	लिए	PSP	<fs af='लिए,psp,,,,,,' posn='30' drel='lwg__psp:रिहाई' chunkType='child:NP' name='लिए'>
4	इन	DEM	<fs af='यह,pn,any,pl,3,o,,' posn='40' drel='nmod__adj:कैदियों' chunkType='child:NP2' name='इन'>
5	कैदियों	NN	<fs af='कैदी,n,m,pl,3,o,0_का,0' drel='r6:नागरिकता' posn='50' vpos='vib_3' name='कैदियों' chunkId='NP2' chunkType='head:NP2'>
6	की	PSP	<fs af='का,psp,f,sg,,o,,' posn='60' drel='lwg__psp:कैदियों' chunkType='child:NP2' name='की'>
7	नागरिकता	NN	<fs af='नागरिकता,n,f,sg,3,o,0_का,0' drel='r6-k2:पुष्टि' posn='70' vpos='vib_2' name='नागरिकता' chunkId='NP3' chunkType='head:NP3'>
8	की	PSP	<fs af='का,psp,f,sg,,d,,' posn='80' drel='lwg__psp:नागरिकता' chunkType='child:NP3' name='की2'>
9	पुष्टि	NN	<fs af='पुष्टि,n,f,sg,3,d,0,0' drel='pof:होना' posn='90' name='पुष्टि' chunkId='NP4' chunkType='head:NP4'>
10	होना	VM	<fs af='हो,v,any,any,any,d,ना,nA' drel='k1:है' posn='100' name='होना' chunkId='VGNN' chunkType='head:VGNN'>
11	आवश्यक	JJ	<fs af='आवश्यक,adj,any,any,,,,' drel='k1s:है' posn='110' name='आवश्यक' chunkId='JJP' chunkType='head:JJP'>
12	है	VM	<fs af='है,v,any,sg,3,,है,hE' stype='declarative' posn='120' voicetype='active' name='है' chunkId='VGF' chunkType='head:VGF'>
13	.	SYM	<fs af='.,punc,,,,,,' drel='rsym:है' posn='130' name='.' chunkId='BLK' chunkType='head:BLK'>
</Sentence>


<Sentence id="6">
1	गृह	NNPC	<fs af='गृह,n,m,sg,3,d,0,0' posn='10' drel='pof__cn:सचिव' chunkType='child:NP' name='गृह'>
2	सचिव	NNP	<fs af='सचिव,n,m,sg,3,d,0,0' posn='20' drel='nmod__adj:दुग्गल' chunkType='child:NP' name='सचिव'>
3	वी.	NNPC	<fs af='वी.,n,m,sg,3,d,0,0' posn='30' drel='pof__cn:दुग्गल' chunkType='child:NP' name='वी.'>
4	के.	NNPC	<fs af='के.,n,m,sg,3,d,0,0' posn='40' drel='pof__cn:दुग्गल' chunkType='child:NP' name='के.'>
5	दुग्गल	NNP	<fs af='दुग्गल,n,any,sg,3,o,0_ने,0' drel='k1:कहा' posn='50' vpos='vib_vib_6' name='दुग्गल' chunkId='NP' chunkType='head:NP'>
6	ने	PSP	<fs af='ने,psp,,,,,,' posn='60' drel='lwg__psp:दुग्गल' chunkType='child:NP' name='ने'>
7	पाक	NNPC	<fs af='पाक,n,m,sg,3,d,0,0' posn='70' drel='pof__cn:सचिव2' chunkType='child:NP2' name='पाक'>
8	गृह	NNPC	<fs af='गृह,n,m,sg,3,d,0,0' posn='80' drel='pof__cn:सचिव2' chunkType='child:NP2' name='गृह2'>
9	सचिव	NNP	<fs af='सचिव,n,m,sg,3,d,0,0' posn='90' drel='nmod__adj:शाह' chunkType='child:NP2' name='सचिव2'>
10	कमाल	NNPC	<fs af='कमाल,n,m,sg,3,d,0,0' posn='100' drel='pof__cn:शाह' chunkType='child:NP2' name='कमाल'>
11	शाह	NNP	<fs af='शाह,n,m,sg,3,o,0_के_साथ,0' drel='ras-k1:कहा' posn='110' vpos='vib_vib_6_7' name='शाह' chunkId='NP2' chunkType='head:NP2'>
12	के	PSP	<fs af='के,psp,,,,,,' posn='120' drel='lwg__psp:शाह' chunkType='child:NP2' name='के'>
13	साथ	NST	<fs af='साथ,nst,m,sg,3,d,,' posn='130' drel='lwg__psp:शाह' chunkType='child:NP2' name='साथ'>
14	एक	QC	<fs af='एक,num,any,any,,any,,' posn='140' drel='nmod__adj:कान्फ्रेंस' chunkType='child:NP3' name='एक'>
15	संयुक्त	JJ	<fs af='संयुक्त,adj,any,any,,o,,' posn='150' drel='nmod__adj:कान्फ्रेंस' chunkType='child:NP3' name='संयुक्त'>
16	प्रेस	NNC	<fs af='प्रेस,n,f,sg,3,d,0,0' posn='160' drel='pof__cn:कान्फ्रेंस' chunkType='child:NP3' name='प्रेस'>
17	कान्फ्रेंस	NN	<fs af='कान्फ्रेंस,n,f,sg,3,o,0_में,0' drel='k7:कहा' posn='170' vpos='vib_5' name='कान्फ्रेंस' chunkId='NP3' chunkType='head:NP3'>
18	में	PSP	<fs af='में,psp,,,,,,' posn='180' drel='lwg__psp:कान्फ्रेंस' chunkType='child:NP3' name='में'>
19	कहा	VM	<fs af='कह,v,m,sg,3,,या,yA' stype='declarative' posn='190' voicetype='active' name='कहा' chunkId='VGF' chunkType='head:VGF'>
20	कि	CC	<fs af='कि,avy,,,,,,' drel='k2:कहा' posn='200' name='कि' chunkId='CCP' chunkType='head:CCP'>
21	दोनों	QC	<fs af='दो,num,any,pl,,any,,' posn='210' drel='nmod__adj:देश' chunkType='child:NP4' name='दोनों'>
22	देश	NN	<fs af='देश,n,m,pl,3,d,0,0' drel='k1:करेंगे' posn='220' name='देश' chunkId='NP4' chunkType='head:NP4'>
23	अपने	PRP	<fs af='अपना,pn,m,any,any,o,0,0' drel='nmod:यहां' posn='230' name='अपने' chunkId='NP5' chunkType='head:NP5'>
24	यहां	PRP	<fs af='यहाँ,pn,,,,,,' drel='k7p:करेंगे' posn='240' name='यहां' chunkId='NP6' chunkType='head:NP6'>
25	किसी	PRP	<fs af='कोई,pn,any,sg,3,o,0,0' posn='250' drel='nmod__adj:नागरिक' chunkType='child:NP7' name='किसी'>
26	भी	RP	<fs af='भी,avy,,,,,,' posn='260' drel='lwg__rp:नागरिक' chunkType='child:NP7' name='भी'>
27	पड़ोसी	JJ	<fs af='पडोसी,adj,any,any,,o,,' posn='270' drel='nmod__adj:नागरिक' chunkType='child:NP7' name='पड़ोसी'>
28	नागरिक	NN	<fs af='नागरिक,n,m,sg,3,o,0_का,0' drel='r6:गिरफ्तारी' posn='280' vpos='vib_RP_vib_5' name='नागरिक' chunkId='NP7' chunkType='head:NP7'>
29	की	PSP	<fs af='का,psp,f,sg,,o,,' posn='290' drel='lwg__psp:नागरिक' chunkType='child:NP7' name='की'>
30	गिरफ्तारी	NN	<fs af='गिरफ्तारी,n,f,sg,3,o,0_को,0' drel='k2:करेंगे' posn='300' vpos='vib_2' name='गिरफ्तारी' chunkId='NP8' chunkType='head:NP8'>
31	को	PSP	<fs af='को,psp,,,,,,' posn='310' drel='lwg__psp:गिरफ्तारी' chunkType='child:NP8' name='को'>
32	तत्काल	RB	<fs af='तत्काल,adv,,,,,,' drel='adv:करेंगे' posn='320' name='तत्काल' chunkId='RBP' chunkType='head:RBP'>
33	अधिसूचित	JJ	<fs af='अधिसूचित,adj,any,any,,,,' drel='pof:करेंगे' posn='330' name='अधिसूचित' chunkId='JJP' chunkType='head:JJP'>
34	करेंगे	VM	<fs af='कर,v,m,pl,3,,गा,gA' drel='ccof:और' stype='declarative' posn='340' voicetype='active' name='करेंगे' chunkId='VGF2' chunkType='head:VGF2'>
35	और	CC	<fs af='और,avy,,,,,,' drel='ccof:कि' posn='350' name='और' chunkId='CCP2' chunkType='head:CCP2'>
36	इसके	PRP	<fs af='यह,pn,m,sg,3,o,का,kA' drel='r6:माह' posn='360' name='इसके' chunkId='NP9' chunkType='head:NP9'>
37	तीन	QC	<fs af='तीन,num,any,any,,o,,' posn='370' drel='nmod__adj:माह' chunkType='child:NP10' name='तीन'>
38	माह	NN	<fs af='माह,n,m,sg,3,o,0_के_भीतर,0' drel='k7t:देंगे' posn='380' vpos='vib_3_4' name='माह' chunkId='NP10' chunkType='head:NP10'>
39	के	PSP	<fs af='के,psp,,,,,,' posn='390' drel='lwg__psp:माह' chunkType='child:NP10' name='के2'>
40	भीतर	NST	<fs af='भीतर,nst,m,sg,3,d,,' posn='400' drel='lwg__psp:माह' chunkType='child:NP10' name='भीतर'>
41	सभी	PRP	<fs af='सभी,pn,,,,o,0_से,' drel='k2:मिलने' posn='410' vpos='vib_2' name='सभी' chunkId='NP11' chunkType='head:NP11'>
42	से	PSP	<fs af='से,psp,,,,,,' posn='420' drel='lwg__psp:सभी' chunkType='child:NP11' name='से'>
43	राजनयिकों	NN	<fs af='राजनयिक,n,m,pl,3,o,0_को,0' drel='k4:मिलने' posn='430' vpos='vib_2' name='राजनयिकों' chunkId='NP12' chunkType='head:NP12'>
44	को	PSP	<fs af='को,psp,,,,,,' posn='440' drel='lwg__psp:राजनयिकों' chunkType='child:NP12' name='को2'>
45	मिलने	VM	<fs af='मिल,v,any,sg,any,o,ना_का,nA' drel='r6-k2:अनुमति' posn='450' vpos='tam_2' name='मिलने' chunkId='VGNN' chunkType='head:VGNN'>
46	की	PSP	<fs af='का,psp,f,sg,,d,,' posn='460' drel='lwg__psp:मिलने' chunkType='child:VGNN' name='की2'>
47	अनुमति	NN	<fs af='अनुमति,n,f,sg,3,d,0,0' drel='pof:देंगे' posn='470' name='अनुमति' chunkId='NP13' chunkType='head:NP13'>
48	देंगे	VM	<fs af='दे,v,m,pl,3,,गा,gA' drel='ccof:और' stype='declarative' posn='480' voicetype='active' name='देंगे' chunkId='VGF3' chunkType='head:VGF3'>
49	.	SYM	<fs af='.,punc,,,,,,' drel='rsym:कहा' posn='490' name='.' chunkId='BLK' chunkType='head:BLK'>
</Sentence>


<Sentence id="7">
1	इस	PRP	<fs af='यह,pn,any,sg,3,o,0_बारे_में,0' drel='k7:हुई' posn='10' vpos='vib_2_3' name='इस' chunkId='NP' chunkType='head:NP'>
2	बारे	PSP	<fs af='बारे,psp,,,,,,' posn='20' drel='lwg__psp:इस' chunkType='child:NP' name='बारे'>
3	में	PSP	<fs af='में,psp,,,,,,' posn='30' drel='lwg__psp:इस' chunkType='child:NP' name='में'>
4	पिछले	JJ	<fs af='पिछला,adj,m,sg,,o,,' posn='40' drel='nmod__adj:साल' chunkType='child:NP2' name='पिछले'>
5	साल	NN	<fs af='साल,n,m,sg,3,o,0,0' drel='k7t:हुई' posn='50' name='साल' chunkId='NP2' chunkType='head:NP2'>
6	दिसंबर	NNP	<fs af='दिसंबर,n,m,sg,3,o,0_में,0' drel='k7t:हुई' posn='60' vpos='vib_2' name='दिसंबर' chunkId='NP3' chunkType='head:NP3'>
7	में	PSP	<fs af='में,psp,,,,,,' posn='70' drel='lwg__psp:दिसंबर' chunkType='child:NP3' name='में2'>
8	विदेश	NNC	<fs af='विदेश,n,m,sg,3,d,0,0' posn='80' drel='pof__cn:सचिवों' chunkType='child:NP4' name='विदेश'>
9	सचिवों	NN	<fs af='सचिव,n,m,pl,3,o,0_का,0' drel='r6:बैठक' posn='90' vpos='vib_3' name='सचिवों' chunkId='NP4' chunkType='head:NP4'>
10	की	PSP	<fs af='का,psp,f,sg,,o,,' posn='100' drel='lwg__psp:सचिवों' chunkType='child:NP4' name='की'>
11	बैठक	NN	<fs af='बैठक,n,f,sg,3,o,0_में,0' drel='k7:हुई' posn='110' vpos='vib_2' name='बैठक' chunkId='NP5' chunkType='head:NP5'>
12	में	PSP	<fs af='में,psp,,,,,,' posn='120' drel='lwg__psp:बैठक' chunkType='child:NP5' name='में3'>
13	सहमति	NN	<fs af='सहमति,n,f,sg,3,d,0,0' drel='pof:हुई' posn='130' name='सहमति' chunkId='NP6' chunkType='head:NP6'>
14	हुई	VM	<fs af='हो,v,f,sg,3,,या_था,yA' stype='declarative' posn='140' voicetype='active' vpos='tam_2' name='हुई' chunkId='VGF' chunkType='head:VGF'>
15	थी	VAUX	<fs af='था,v,f,sg,3,,था,WA' posn='150' drel='lwg__vaux:हुई' chunkType='child:VGF' name='थी'>
16	.	SYM	<fs af='.,punc,,,,,,' drel='rsym:हुई' posn='160' name='.' chunkId='BLK' chunkType='head:BLK'>
</Sentence>


<Sentence id="8">
1	दुग्गल	NNP	<fs af='दुग्गल,n,any,sg,3,o,0_ने,0' drel='k1:बताया' posn='10' vpos='vib_2' name='दुग्गल' chunkId='NP' chunkType='head:NP'>
2	ने	PSP	<fs af='ने,psp,,,,,,' posn='20' drel='lwg__psp:दुग्गल' chunkType='child:NP' name='ने'>
3	संयुक्त	JJ	<fs af='संयुक्त,adj,any,any,,o,,' posn='30' drel='nmod__adj:बयान' chunkType='child:NP2' name='संयुक्त'>
4	बयान	NN	<fs af='बयान,n,m,sg,3,o,0_को,0' drel='k2:पढ़ते' posn='40' vpos='vib_3' name='बयान' chunkId='NP2' chunkType='head:NP2'>
5	को	PSP	<fs af='को,psp,,,,,,' posn='50' drel='lwg__psp:बयान' chunkType='child:NP2' name='को'>
6	पढ़ते	VM	<fs af='पढ,v,any,sg,3,,ता_हो+या,wA' drel='vmod:बताया' posn='60' vpos='tam_2' name='पढ़ते' chunkId='VGNF' chunkType='head:VGNF'>
7	हुए	VAUX	<fs af='हो,v,any,sg,3,,या,yA' posn='70' drel='lwg__vaux:पढ़ते' chunkType='child:VGNF' name='हुए'>
8	बताया	VM	<fs af='बता,v,m,sg,3,,या,yA' stype='declarative' posn='80' voicetype='active' name='बताया' chunkId='VGF' chunkType='head:VGF'>
9	कि	CC	<fs af='कि,avy,,,,,,' drel='k2:बताया' posn='90' name='कि' chunkId='CCP' chunkType='head:CCP'>
10	दोनों	QC	<fs af='दो,num,any,pl,,any,,' posn='100' drel='nmod__adj:देशों' chunkType='child:NP3' name='दोनों'>
11	देशों	NN	<fs af='देश,n,m,pl,3,o,0_का,0' drel='r6:कैदियों' posn='110' vpos='vib_3' name='देशों' chunkId='NP3' chunkType='head:NP3'>
12	के	PSP	<fs af='का,psp,m,pl,,o,,' posn='120' drel='lwg__psp:देशों' chunkType='child:NP3' name='के'>
13	कैदियों	NN	<fs af='कैदी,n,m,pl,3,o,0_को,0' drel='k4:कर' posn='130' vpos='vib_2' name='कैदियों' chunkId='NP4' chunkType='head:NP4'>
14	को	PSP	<fs af='को,psp,,,,,,' posn='140' drel='lwg__psp:कैदियों' chunkType='child:NP4' name='को2'>
15	सजा	NN	<fs af='सजा,n,f,sg,3,d,0,0' drel='k2:करने' posn='150' name='सजा' chunkId='NP5' chunkType='head:NP5'>
16	पूरी	JJ	<fs af='पूरा,adj,any,any,,,,' drel='pof:करने' posn='160' name='पूरी' chunkId='JJP' chunkType='head:JJP'>
17	करने	VM	<fs af='कर,v,any,any,any,o,ना,nA' drel='ccof:और' posn='170' name='करने' chunkId='VGNN' chunkType='head:VGNN'>
18	और	CC	<fs af='और,avy,,,,,,' drel='k7t:कर' posn='180' name='और' chunkId='CCP2' chunkType='head:CCP2'>
19	नागरिकता	NN	<fs af='नागरिकता,n,f,sg,3,o,0_का,0' drel='r6-k1:पुष्टि' posn='190' vpos='vib_2' name='नागरिकता' chunkId='NP6' chunkType='head:NP6'>
20	की	PSP	<fs af='का,psp,f,sg,,d,,' posn='200' drel='lwg__psp:नागरिकता' chunkType='child:NP6' name='की'>
21	पुष्टि	NN	<fs af='पुष्टि,n,f,sg,3,d,0,0' drel='pof:होने' posn='210' name='पुष्टि' chunkId='NP7' chunkType='head:NP7'>
22	होने	VM	<fs af='हो,v,any,sg,3,o,ना_का_बाद,nA' drel='ccof:और' posn='220' vpos='tam_2_4' name='होने' chunkId='VGNN2' chunkType='head:VGNN2'>
23	के	PSP	<fs af='का,psp,,,,,,' posn='230' drel='lwg__psp:होने' chunkType='child:VGNN2' name='के2'>
24	तत्काल	RP	<fs af='तत्काल,avy,,,,,,' posn='240' drel='lwg__rp:होने' chunkType='child:VGNN2' name='तत्काल'>
25	बाद	NST	<fs af='बाद,nst,m,sg,3,d,,' posn='250' drel='lwg__nst:होने' chunkType='child:VGNN2' name='बाद'>
26	रिहा	JJ	<fs af='रिहा,adj,any,any,,,,' drel='pof:कर' posn='260' name='रिहा' chunkId='JJP2' chunkType='head:JJP2'>
27	कर	VM	<fs af='कर,v,m,sg,3,,0_दे+या_जा+गा,0' drel='ccof:कि' stype='declarative' posn='270' voicetype='passive' vpos='tam_2_3' name='कर' chunkId='VGF2' chunkType='head:VGF2'>
28	दिया	VAUX	<fs af='दे,v,m,sg,3,,या,yA' posn='280' drel='lwg__vaux:कर' chunkType='child:VGF2' name='दिया'>
29	जाएगा	VAUX	<fs af='जा,v,m,sg,3,,गा,gA' posn='290' drel='lwg__vaux:कर' chunkType='child:VGF2' name='जाएगा'>
30	.	SYM	<fs af='.,punc,,,,,,' drel='rsym:बताया' posn='300' name='.' chunkId='BLK' chunkType='head:BLK'>
</Sentence>


<Sentence id="9">
1	दुग्गल	NNP	<fs af='दुग्गल,n,any,sg,3,o,0_ने,0' drel='k1:दिया' posn='10' vpos='vib_2' name='दुग्गल' chunkId='NP' chunkType='head:NP'>
2	ने	PSP	<fs af='ने,psp,,,,,,' posn='20' drel='lwg__psp:दुग्गल' chunkType='child:NP' name='ने'>
3	सचिव	JJC	<fs af='सचिव,n,m,sg,3,d,0,0' posn='30' drel='mod:वार्ता' chunkType='child:NP2' name='सचिव'>
4	स्तरीय	JJ	<fs af='स्तरीय,adj,any,any,,o,,' posn='40' drel='nmod__adj:वार्ता' chunkType='child:NP2' name='स्तरीय'>
5	वार्ता	NN	<fs af='वार्ता,n,f,sg,3,o,0_को,0' drel='k2:दिया' posn='50' vpos='vib_4' name='वार्ता' chunkId='NP2' chunkType='head:NP2'>
6	को	PSP	<fs af='को,psp,,,,,,' posn='60' drel='lwg__psp:वार्ता' chunkType='child:NP2' name='को'>
7	बहुत	INTF	<fs af='बहुत,avy,,,,,,' posn='70' drel='jjmod__intf:उपयोगी' chunkType='child:JJP' name='बहुत'>
8	ही	RP	<fs af='ही,avy,,,,,,' posn='80' drel='lwg__rp:उपयोगी' chunkType='child:JJP' name='ही'>
9	उपयोगी	JJ	<fs af='उपयोगी,adj,any,any,,d,,' drel='k2s:दिया' posn='90' name='उपयोगी' chunkId='JJP' chunkType='head:JJP'>
10	करार	NN	<fs af='करार,n,m,sg,3,d,0,0' drel='pof:दिया' posn='100' name='करार' chunkId='NP3' chunkType='head:NP3'>
11	दिया	VM	<fs af='दे,v,m,sg,3,,या,yA' stype='declarative' posn='110' voicetype='active' name='दिया' chunkId='VGF' chunkType='head:VGF'>
12	.	SYM	<fs af='.,punc,,,,,,' drel='rsym:दिया' posn='120' name='.' chunkId='BLK' chunkType='head:BLK'>
</Sentence>


<Sentence id="10">
1	वार्ता	NN	<fs af='वार्ता,n,f,sg,3,o,0_में,0' drel='k7:की2' posn='10' vpos='vib_2' name='वार्ता' chunkId='NP' chunkType='head:NP'>
2	में	PSP	<fs af='में,psp,,,,,,' posn='20' drel='lwg__psp:वार्ता' chunkType='child:NP' name='में'>
3	मादक	JJ	<fs af='मादक,adj,any,any,,o,,' posn='30' drel='nmod__adj:पदार्थों' chunkType='child:NP2' name='मादक'>
4	पदार्थों	NN	<fs af='पदार्थ,n,m,pl,3,o,0_का,0' drel='r6:तस्करी' posn='40' vpos='vib_3' name='पदार्थों' chunkId='NP2' chunkType='head:NP2'>
5	की	PSP	<fs af='का,psp,f,sg,,o,,' posn='50' drel='lwg__psp:पदार्थों' chunkType='child:NP2' name='की'>
6	तस्करी	NN	<fs af='तस्करी,n,f,sg,3,o,0,0' drel='ccof:व' posn='60' name='तस्करी' chunkId='NP3' chunkType='head:NP3'>
7	व	CC	<fs af='व,avy,,,,,,' drel='k7:की2' posn='70' name='व' chunkId='CCP' chunkType='head:CCP'>
8	आतंकवाद	NN	<fs af='आतंकवाद,n,m,sg,3,o,0_पर,0' drel='ccof:व' posn='80' vpos='vib_2_RP' name='आतंकवाद' chunkId='NP4' chunkType='head:NP4'>
9	पर	PSP	<fs af='पर,psp,,,,,,' posn='90' drel='lwg__psp:आतंकवाद' chunkType='child:NP4' name='पर'>
10	भी	RP	<fs af='भी,avy,,,,,,' posn='100' drel='lwg__rp:आतंकवाद' chunkType='child:NP4' name='भी'>
11	चर्चा	NN	<fs af='चर्चा,n,f,sg,3,d,0,0' drel='pof:की2' posn='110' name='चर्चा' chunkId='NP5' chunkType='head:NP5'>
12	की	VM	<fs af='कर,v,f,sg,3,,या_जा+या१,yA' stype='declarative' posn='120' voicetype='passive' vpos='tam_2' name='की2' chunkId='VGF' chunkType='head:VGF'>
13	गई	VAUX	<fs af='जा,v,f,sg,3,,या१,yA1' posn='130' drel='lwg__vaux:की2' chunkType='child:VGF' name='गई'>
14	.	SYM	<fs af='.,punc,,,,,,' drel='rsym:की2' posn='140' name='.' chunkId='BLK' chunkType='head:BLK'>
</Sentence>


<Sentence id="11">
1	सोमवार	NNP	<fs af='सोमवार,n,m,sg,3,o,0_को,0' drel='k7t:सौंपी' posn='10' vpos='vib_2' name='सोमवार' chunkId='NP' chunkType='head:NP'>
2	को	PSP	<fs af='को,psp,,,,,,' posn='20' drel='lwg__psp:सोमवार' chunkType='child:NP' name='को'>
3	भारत	NNP	<fs af='भारत,n,m,sg,3,o,0_ने,0' drel='k1:सौंपी' posn='30' vpos='vib_2' name='भारत' chunkId='NP2' chunkType='head:NP2'>
4	ने	PSP	<fs af='ने,psp,,,,,,' posn='40' drel='lwg__psp:भारत' chunkType='child:NP2' name='ने'>
5	दाऊद	NNPC	<fs af='दाऊद,n,m,sg,3,d,0,0' posn='50' drel='pof__cn:इब्राहिम' chunkType='child:NP3' name='दाऊद'>
6	इब्राहिम	NNP	<fs af='इब्राहिम,n,any,sg,3,o,0_समेत,0' drel='nmod:अपराधियों' posn='60' vpos='vib_3' name='इब्राहिम' chunkId='NP3' chunkType='head:NP3'>
7	समेत	PSP	<fs af='समेत,psp,,,,,,' posn='70' drel='lwg__psp:इब्राहिम' chunkType='child:NP3' name='समेत'>
8	३०	QC	<fs af='३०,num,any,any,,any,,' posn='80' drel='nmod__adj:अपराधियों' chunkType='child:NP4' name='३०'>
9	मोस्ट	INTF	<fs af='मोस्ट,avy,,,,,,' posn='90' drel='jjmod__intf:वांटेड' chunkType='child:NP4' name='मोस्ट'>
10	वांटेड	JJ	<fs af='वांटेड,adj,,,,,,' posn='100' drel='nmod__adj:अपराधियों' chunkType='child:NP4' name='वांटेड'>
11	अपराधियों	NN	<fs af='अपराधी,n,m,pl,3,o,0,0' drel='ccof:और' posn='110' name='अपराधियों' chunkId='NP4' chunkType='head:NP4'>
12	और	CC	<fs af='और,avy,,,,,,' drel='r6:सूची' posn='120' name='और' chunkId='CCP' chunkType='head:CCP'>
13	आतंकियों	NN	<fs af='आतंकी,n,m,pl,3,o,0_का,0' drel='ccof:और' posn='130' vpos='vib_2' name='आतंकियों' chunkId='NP5' chunkType='head:NP5'>
14	की	PSP	<fs af='का,psp,f,sg,,d,,' posn='140' drel='lwg__psp:आतंकियों' chunkType='child:NP5' name='की'>
15	सूची	NN	<fs af='सूची,n,f,sg,3,d,0,0' drel='k2:सौंपी' posn='150' name='सूची' chunkId='NP6' chunkType='head:NP6'>
16	पाकिस्तान	NNP	<fs af='पाकिस्तान,n,m,sg,3,o,0_को,0' drel='k4:सौंपी' posn='160' vpos='vib_2' name='पाकिस्तान' chunkId='NP7' chunkType='head:NP7'>
17	को	PSP	<fs af='को,psp,,,,,,' posn='170' drel='lwg__psp:पाकिस्तान' chunkType='child:NP7' name='को2'>
18	सौंपी	VM	<fs af='सौंप,v,f,sg,3,,या,yA' stype='declarative' posn='180' voicetype='active' name='सौंपी' chunkId='VGF' chunkType='head:VGF'>
19	.	SYM	<fs af='.,punc,,,,,,' drel='rsym:सौंपी' posn='190' name='.' chunkId='BLK' chunkType='head:BLK'>
</Sentence>


<Sentence id="12">
1	पाकिस्तान	NNP	<fs af='पाकिस्तान,n,m,sg,3,o,0_ने,0' drel='k1:दिए' posn='10' vpos='vib_2_RP' name='पाकिस्तान' chunkId='NP' chunkType='head:NP'>
2	ने	PSP	<fs af='ने,psp,,,,,,' posn='20' drel='lwg__psp:पाकिस्तान' chunkType='child:NP' name='ने'>
3	भी	RP	<fs af='भी,avy,,,,,,' posn='30' drel='lwg__rp:पाकिस्तान' chunkType='child:NP' name='भी'>
4	३७	QC	<fs af='३७,num,any,any,,any,,' posn='40' drel='nmod__adj:लोगों' chunkType='child:NP2' name='३७'>
5	लोगों	NN	<fs af='लोग,n,m,pl,3,o,0_का,0' drel='r6:नाम' posn='50' vpos='vib_3' name='लोगों' chunkId='NP2' chunkType='head:NP2'>
6	के	PSP	<fs af='का,psp,m,sg,,d,,' posn='60' drel='lwg__psp:लोगों' chunkType='child:NP2' name='के'>
7	नाम	NN	<fs af='नाम,n,m,sg,3,d,0,0' drel='k2:दिए' posn='70' name='नाम' chunkId='NP3' chunkType='head:NP3'>
8	भारत	NNP	<fs af='भारत,n,m,sg,3,o,0_को,0' drel='k4:दिए' posn='80' vpos='vib_2' name='भारत' chunkId='NP4' chunkType='head:NP4'>
9	को	PSP	<fs af='को,psp,,,,,,' posn='90' drel='lwg__psp:भारत' chunkType='child:NP4' name='को'>
10	दिए	VM	<fs af='दे,v,m,pl,3,,या_है,yA' stype='declarative' posn='100' voicetype='active' vpos='tam_2' name='दिए' chunkId='VGF' chunkType='head:VGF'>
11	हैं	VAUX	<fs af='है,v,any,pl,3,,है,hE' posn='110' drel='lwg__vaux:दिए' chunkType='child:VGF' name='हैं'>
12	.	SYM	<fs af='.,punc,,,,,,' drel='rsym:दिए' posn='120' name='.' chunkId='BLK' chunkType='head:BLK'>
</Sentence>


<Sentence id="13">
1	इनमें	PRP	<fs af='यह,pn,any,pl,3,o,में,meM' drel='k7:हैं' posn='10' name='इनमें' chunkId='NP' chunkType='head:NP'>
2	अधिकतर	JJ	<fs af='अधिकतर,adj,any,any,,o,,' posn='20' drel='nmod__adj:द्रव्यों' chunkType='child:NP2' name='अधिकतर'>
3	मादक	JJ	<fs af='मादक,adj,any,any,,o,,' posn='30' drel='nmod__adj:द्रव्यों' chunkType='child:NP2' name='मादक'>
4	द्रव्यों	NN	<fs af='द्रव्य,n,m,pl,3,o,0_का,0' drel='r6:तस्करी' posn='40' vpos='vib_4' name='द्रव्यों' chunkId='NP2' chunkType='head:NP2'>
5	की	PSP	<fs af='का,psp,f,sg,,o,,' posn='50' drel='lwg__psp:द्रव्यों' chunkType='child:NP2' name='की'>
6	तस्करी	NN	<fs af='तस्करी,n,f,sg,3,o,0_से,0' drel='ras-k1:जुड़े' posn='60' vpos='vib_2' name='तस्करी' chunkId='NP3' chunkType='head:NP3'>
7	से	PSP	<fs af='से,psp,,,,,,' posn='70' drel='lwg__psp:तस्करी' chunkType='child:NP3' name='से'>
8	जुड़े	VM	<fs af='जुड,v,any,pl,any,,या,yA' drel='nmod__k1inv:लोग' posn='80' name='जुड़े' chunkId='VGNF' chunkType='head:VGNF'>
9	लोग	NN	<fs af='लोग,n,m,pl,3,d,0,0' drel='k1:हैं' posn='90' name='लोग' chunkId='NP4' chunkType='head:NP4'>
10	हैं	VM	<fs af='है,v,any,pl,3,,है,hE' stype='declarative' posn='100' voicetype='active' name='हैं' chunkId='VGF' chunkType='head:VGF'>
11	.	SYM	<fs af='.,punc,,,,,,' drel='rsym:हैं' posn='110' name='.' chunkId='BLK' chunkType='head:BLK'>
</Sentence>


<Sentence id="14">
1	खास	JJ	<fs af='खास,adj,any,any,,d,,' posn='10' drel='nmod__adj:बात' chunkType='child:NP' name='खास'>
2	बात	NN	<fs af='बात,n,f,sg,3,d,0,0' drel='k1:है' posn='20' name='बात' chunkId='NP' chunkType='head:NP'>
3	यह	PRP	<fs af='यह,pn,any,sg,3,d,0,0' drel='k1s:है' posn='30' name='यह' chunkId='NP2' chunkType='head:NP2'>
4	है	VM	<fs af='है,v,any,sg,3,,है,hE' stype='declarative' posn='40' voicetype='active' name='है' chunkId='VGF' chunkType='head:VGF'>
5	कि	CC	<fs af='कि,avy,,,,,,' drel='rs:यह' posn='50' name='कि' chunkId='CCP' chunkType='head:CCP'>
6	साझा	JJ	<fs af='साझा,adj,any,any,,o,,' posn='60' drel='nmod__adj:बयान' chunkType='child:NP3' name='साझा'>
7	बयान	NN	<fs af='बयान,n,m,sg,3,o,0_में,0' drel='k7:कहा' posn='70' vpos='vib_3' name='बयान' chunkId='NP3' chunkType='head:NP3'>
8	में	PSP	<fs af='में,psp,,,,,,' posn='80' drel='lwg__psp:बयान' chunkType='child:NP3' name='में'>
9	इस	PRP	<fs af='यह,pn,any,sg,3,o,0_बारे_में,0' drel='k7:कहा' posn='90' vpos='vib_2_3' name='इस' chunkId='NP4' chunkType='head:NP4'>
10	बारे	PSP	<fs af='बारे,psp,,,,,,' posn='100' drel='lwg__psp:इस' chunkType='child:NP4' name='बारे'>
11	में	PSP	<fs af='में,psp,,,,,,' posn='110' drel='lwg__psp:इस' chunkType='child:NP4' name='में2'>
12	एक	QC	<fs af='एक,num,any,any,,any,,' posn='120' drel='nmod__adj:शब्द' chunkType='child:NP5' name='एक'>
13	भी	RP	<fs af='भी,avy,,,,,,' posn='130' drel='lwg__rp:शब्द' chunkType='child:NP5' name='भी'>
14	शब्द	NN	<fs af='शब्द,n,m,sg,3,d,0,0' drel='k2:कहा' posn='140' name='शब्द' chunkId='NP5' chunkType='head:NP5'>
15	नहीं	NEG	<fs af='नहीं,avy,,,,,,' posn='150' drel='lwg__neg:कहा' chunkType='child:VGF2' name='नहीं'>
16	कहा	VM	<fs af='कह,v,m,sg,3,,या_जा+या१_है,yA' drel='ccof:कि' stype='declarative' posn='160' voicetype='passive' vpos='tam_3_4' name='कहा' chunkId='VGF2' chunkType='head:VGF2'>
17	गया	VAUX	<fs af='जा,v,m,sg,3,,या१,yA1' posn='170' drel='lwg__vaux:कहा' chunkType='child:VGF2' name='गया'>
18	है	VAUX	<fs af='है,v,any,sg,3,,है,hE' posn='180' drel='lwg__vaux:कहा' chunkType='child:VGF2' name='है2'>
19	.	SYM	<fs af='.,punc,,,,,,' drel='rsym:है' posn='190' name='.' chunkId='BLK' chunkType='head:BLK'>
</Sentence>


<Sentence id="15">
1	नशीले	JJ	<fs af='नशीला,adj,m,pl,,o,,' posn='10' drel='nmod__adj:पदार्थों' chunkType='child:NP' name='नशीले'>
2	पदार्थों	NN	<fs af='पदार्थ,n,m,pl,3,o,0_का,0' drel='r6:तस्करी' posn='20' vpos='vib_3' name='पदार्थों' chunkId='NP' chunkType='head:NP'>
3	की	PSP	<fs af='का,psp,f,sg,,o,,' posn='30' drel='lwg__psp:पदार्थों' chunkType='child:NP' name='की'>
4	तस्करी	NN	<fs af='तस्करी,n,f,sg,3,o,0_पर,0' drel='k7:कहा' posn='40' vpos='vib_2' name='तस्करी' chunkId='NP2' chunkType='head:NP2'>
5	पर	PSP	<fs af='पर,psp,,,,,,' posn='50' drel='lwg__psp:तस्करी' chunkType='child:NP2' name='पर'>
6	दुग्गल	NNP	<fs af='दुग्गल,n,any,sg,3,o,0_ने,0' drel='k1:कहा' posn='60' vpos='vib_2' name='दुग्गल' chunkId='NP3' chunkType='head:NP3'>
7	ने	PSP	<fs af='ने,psp,,,,,,' posn='70' drel='lwg__psp:दुग्गल' chunkType='child:NP3' name='ने'>
8	कहा	VM	<fs af='कह,v,m,sg,3,,या,yA' stype='declarative' posn='80' voicetype='active' name='कहा' chunkId='VGF' chunkType='head:VGF'>
9	कि	CC	<fs af='कि,avy,,,,,,' drel='k2:कहा' posn='90' name='कि' chunkId='CCP' chunkType='head:CCP'>
10	इसको	PRP	<fs af='यह,pn,any,sg,3,o,को,ko' drel='r6:रोकने' posn='100' name='इसको' chunkId='NP4' chunkType='head:NP4'>
11	रोकने	VM	<fs af='रोक,v,any,any,any,o,ना_के_लिए,nA' drel='rt:करेंगी' posn='110' vpos='tam_2_3' name='रोकने' chunkId='VGNN' chunkType='head:VGNN'>
12	के	PSP	<fs af='के,psp,,,,,,' posn='120' drel='lwg__psp:रोकने' chunkType='child:VGNN' name='के'>
13	लिए	PSP	<fs af='लिए,psp,,,,,,' posn='130' drel='lwg__psp:रोकने' chunkType='child:VGNN' name='लिए'>
14	दोनों	QC	<fs af='दो,num,any,pl,,any,,' posn='140' drel='nmod__adj:देशों' chunkType='child:NP5' name='दोनों'>
15	देशों	NN	<fs af='देश,n,m,pl,3,o,0_का,0' drel='r6:एजेंसियां' posn='150' vpos='vib_3' name='देशों' chunkId='NP5' chunkType='head:NP5'>
16	की	PSP	<fs af='का,psp,f,pl,,d,,' posn='160' drel='lwg__psp:देशों' chunkType='child:NP5' name='की2'>
17	नारकोटिक्स	NNPC	<fs af='नारकोटिक्स,adj,any,any,,d,,' posn='170' drel='pof__cn:एजेंसियां' chunkType='child:NP6' name='नारकोटिक्स'>
18	कंट्रोल	NNPC	<fs af='कंट्रोल,n,m,pl,3,d,0,0' posn='150' drel='pof__cn:एजेंसियां' chunkType='child:NP6' name='कंट्रोल'>
19	एजेंसियां	NNP	<fs af='एजेंसी,n,f,pl,3,d,0,0' drel='k1:करेंगी' posn='190' name='एजेंसियां' chunkId='NP6' chunkType='head:NP6'>
20	जल्द	RB	<fs af='जल्द,adv,,,,,,' drel='adv:करेंगी' posn='200' name='जल्द' chunkId='RBP' chunkType='head:RBP'>
21	ही	RP	<fs af='ही,avy,,,,,,' posn='210' drel='lwg__rp:जल्द' chunkType='child:RBP' name='ही'>
22	एक	QC	<fs af='एक,num,any,any,,any,,' posn='220' drel='nmod__adj:सहमति' chunkType='child:NP7' name='एक'>
23	सहमति	NN	<fs af='सहमति,n,f,sg,3,o,0_पर,0' drel='k7:करेंगी' posn='230' vpos='vib_3' name='सहमति' chunkId='NP7' chunkType='head:NP7'>
24	पर	PSP	<fs af='पर,psp,,,,,,' posn='240' drel='lwg__psp:सहमति' chunkType='child:NP7' name='पर2'>
25	दस्तखत	NN	<fs af='दस्तखत,n,f,sg,3,d,0,0' drel='pof:करेंगी' posn='250' name='दस्तखत' chunkId='NP8' chunkType='head:NP8'>
26	करेंगी	VM	<fs af='कर,v,f,pl,3,,गा,gA' drel='ccof:कि' stype='declarative' posn='260' voicetype='active' name='करेंगी' chunkId='VGF2' chunkType='head:VGF2'>
27	.	SYM	<fs af='.,punc,,,,,,' drel='rsym:कहा' posn='270' name='.' chunkId='BLK' chunkType='head:BLK'>
</Sentence>


<Sentence id="16">
1	इसके	PRP	<fs af='यह,pn,any,sg,3,o,0_तहत,ke' drel='k7a:और' posn='10' vpos='vib_2' name='इसके' chunkId='NP' chunkType='head:NP'>
2	तहत	PSP	<fs af='तहत,psp,,,,,,' posn='20' drel='lwg__psp:इसके' chunkType='child:NP' name='तहत'>
3	एक	QC	<fs af='एक,num,any,any,,any,,' posn='30' drel='nmod__adj:प्रणाली' chunkType='child:NP2' name='एक'>
4	नियमित	JJ	<fs af='नियमित,adj,any,any,,d,,' posn='40' drel='nmod__adj:प्रणाली' chunkType='child:NP2' name='नियमित'>
5	संस्थागत	JJ	<fs af='संस्थागत,adj,any,any,,d,,' posn='50' drel='nmod__adj:प्रणाली' chunkType='child:NP2' name='संस्थागत'>
6	प्रणाली	NN	<fs af='प्रणाली,n,f,sg,3,d,0,0' drel='k2:की' posn='60' name='प्रणाली' chunkId='NP2' chunkType='head:NP2'>
7	स्थापित	JJ	<fs af='स्थापित,adj,any,any,,,,' drel='pof:की' posn='70' name='स्थापित' chunkId='JJP' chunkType='head:JJP'>
8	की	VM	<fs af='कर,v,f,sg,3,,या_जा+गा,yA' drel='ccof:और' stype='declarative' posn='80' voicetype='passive' vpos='tam_2' name='की' chunkId='VGF' chunkType='head:VGF'>
9	जाएगी	VAUX	<fs af='जा,v,f,sg,3,,गा,gA' posn='90' drel='lwg__vaux:की' chunkType='child:VGF' name='जाएगी'>
10	और	CC	<fs af='और,avy,,,,,,' posn='100' name='और' chunkId='CCP' chunkType='head:CCP'>
11	तस्करी	NN	<fs af='तस्करी,n,f,sg,3,d,0,0' drel='k2:रोकने' posn='110' name='तस्करी' chunkId='NP3' chunkType='head:NP3'>
12	रोकने	VM	<fs af='रोक,v,any,any,any,o,ना_के_लिए,nA' drel='rt:बढ़ाया' posn='120' vpos='tam_2_3' name='रोकने' chunkId='VGNN' chunkType='head:VGNN'>
13	के	PSP	<fs af='के,psp,,,,,,' posn='130' drel='lwg__psp:रोकने' chunkType='child:VGNN' name='के'>
14	लिए	PSP	<fs af='लिए,psp,,,,,,' posn='140' drel='lwg__psp:रोकने' chunkType='child:VGNN' name='लिए'>
15	आपसी	JJ	<fs af='आपसी,adj,any,any,,d,,' posn='150' drel='nmod__adj:सहयोग' chunkType='child:NP4' name='आपसी'>
16	सहयोग	NN	<fs af='सहयोग,n,m,sg,3,d,0,0' drel='k2:बढ़ाया' posn='160' name='सहयोग' chunkId='NP4' chunkType='head:NP4'>
17	बढ़ाया	VM	<fs af='बढा,v,m,sg,3,,या_जा+गा,yA' drel='ccof:और' stype='declarative' posn='170' voicetype='passive' vpos='tam_2' name='बढ़ाया' chunkId='VGF2' chunkType='head:VGF2'>
18	जाएगा	VAUX	<fs af='जा,v,m,sg,3,,गा,gA' posn='180' drel='lwg__vaux:बढ़ाया' chunkType='child:VGF2' name='जाएगा'>
19	.	SYM	<fs af='.,punc,,,,,,' drel='rsym:और' posn='190' name='.' chunkId='BLK' chunkType='head:BLK'>
</Sentence>


<Sentence id="17">
1	इस	DEM	<fs af='यह,pn,any,sg,3,o,,' posn='10' drel='nmod__adj:संबंध' chunkType='child:NP' name='इस'>
2	संबंध	NN	<fs af='संबंध,n,m,sg,3,o,0_में,0' drel='k7:करेंगे' posn='20' vpos='vib_3' name='संबंध' chunkId='NP' chunkType='head:NP'>
3	में	PSP	<fs af='में,psp,,,,,,' posn='30' drel='lwg__psp:संबंध' chunkType='child:NP' name='में'>
4	भारत	NNP	<fs af='भारत,n,m,sg,3,o,0,0' drel='ccof:व' posn='40' name='भारत' chunkId='NP2' chunkType='head:NP2'>
5	व	CC	<fs af='व,avy,,,,,,' drel='r6:ब्यूरो' posn='50' name='व' chunkId='CCP' chunkType='head:CCP'>
6	पाकिस्तान	NNP	<fs af='पाकिस्तान,n,m,sg,3,o,0_के,0' drel='ccof:व' posn='60' vpos='vib_2' name='पाकिस्तान' chunkId='NP3' chunkType='head:NP3'>
7	के	PSP	<fs af='के,psp,m,sg,,o,,' posn='70' drel='lwg__psp:पाकिस्तान' chunkType='child:NP3' name='के'>
8	नारकोटिक्स	NNPC	<fs af='नारकोटिक्स,adj,any,any,,o,,' posn='80' drel='pof__cn:ब्यूरो' chunkType='child:NP4' name='नारकोटिक्स'>
9	ब्यूरो	NNP	<fs af='ब्यूरो,n,m,sg,3,o,0_का,0' drel='r6:महानिदेशक' posn='40' vpos='vib_3' name='ब्यूरो' chunkId='NP4' chunkType='head:NP4'>
10	के	PSP	<fs af='का,psp,m,pl,3,d,,' posn='100' drel='lwg__psp:ब्यूरो' chunkType='child:NP4' name='के2'>
11	महानिदेशक	NN	<fs af='महानिदेशक,n,m,pl,3,d,0,0' drel='k1:करेंगे' posn='110' name='महानिदेशक' chunkId='NP5' chunkType='head:NP5'>
12	अगले	JJ	<fs af='अगला,adj,m,sg,,o,,' posn='120' drel='nmod__adj:माह' chunkType='child:NP6' name='अगले'>
13	माह	NN	<fs af='माह,n,m,sg,3,o,0,0' drel='k7t:कर' posn='130' name='माह' chunkId='NP6' chunkType='head:NP6'>
14	बैठक	NN	<fs af='बैठक,n,f,sg,3,d,0,0' drel='pof:कर' posn='140' name='बैठक' chunkId='NP7' chunkType='head:NP7'>
15	कर	VM	<fs af='कर,v,any,any,any,,कर,kara' drel='vmod:करेंगे' posn='150' name='कर' chunkId='VGNF' chunkType='head:VGNF'>
16	समझौते	NN	<fs af='समझौता,n,m,sg,3,o,0_पर,0' drel='k7p:करेंगे' posn='160' vpos='vib_2' name='समझौते' chunkId='NP8' chunkType='head:NP8'>
17	पर	PSP	<fs af='पर,psp,,,,,,' posn='170' drel='lwg__psp:समझौते' chunkType='child:NP8' name='पर'>
18	दस्तखत	NN	<fs af='दस्तखत,n,f,sg,3,d,0,0' drel='pof:करेंगे' posn='180' name='दस्तखत' chunkId='NP9' chunkType='head:NP9'>
19	करेंगे	VM	<fs af='कर,v,m,pl,3,,गा,gA' stype='declarative' posn='190' voicetype='active' name='करेंगे' chunkId='VGF' chunkType='head:VGF'>
20	.	SYM	<fs af='.,punc,,,,,,' drel='rsym:करेंगे' posn='200' name='.' chunkId='BLK' chunkType='head:BLK'>
</Sentence>


<Sentence id="18">
1	दोनों	QC	<fs af='दो,num,any,pl,,any,,' posn='10' drel='nmod__adj:देश' chunkType='child:NP' name='दोनों'>
2	देश	NN	<fs af='देश,n,m,pl,3,d,0,0' drel='k1:कर' posn='20' name='देश' chunkId='NP' chunkType='head:NP'>
3	समझौते	NN	<fs af='समझौता,n,m,sg,3,o,0_का,0' drel='r6:प्रारूप' posn='30' vpos='vib_2' name='समझौते' chunkId='NP2' chunkType='head:NP2'>
4	के	PSP	<fs af='का,psp,m,sg,,o,,' posn='40' drel='lwg__psp:समझौते' chunkType='child:NP2' name='के'>
5	प्रारूप	NN	<fs af='प्रारूप,n,m,sg,3,o,0_का,0' drel='r6-k2:प्रदान' posn='50' vpos='vib_2' name='प्रारूप' chunkId='NP3' chunkType='head:NP3'>
6	का	PSP	<fs af='का,psp,m,sg,,d,,' posn='60' drel='lwg__psp:प्रारूप' chunkType='child:NP3' name='का'>
7	आदान	NNC	<fs af='आदान,n,m,sg,3,d,0,0' posn='70' drel='pof__cn:प्रदान' chunkType='child:NP4' name='आदान'>
8	-	SYM	<fs af='-,punc,,,,,,' posn='80' drel='pof__cn:प्रदान' chunkType='child:NP4' name='-'>
9	प्रदान	NN	<fs af='प्रदान,n,m,sg,3,d,0,0' drel='pof:कर' posn='90' name='प्रदान' chunkId='NP4' chunkType='head:NP4'>
10	कर	VM	<fs af='कर,v,any,pl,3,,0_चुक+एं_है,0' stype='declarative' posn='100' voicetype='active' vpos='tam_2_3' name='कर' chunkId='VGF' chunkType='head:VGF'>
11	चुके	VAUX	<fs af='चुक,v,any,pl,3,,एं,eM' posn='110' drel='lwg__vaux:कर' chunkType='child:VGF' name='चुके'>
12	हैं	VAUX	<fs af='है,v,any,pl,3,,है,hE' posn='120' drel='lwg__vaux:कर' chunkType='child:VGF' name='हैं'>
13	.	SYM	<fs af='.,punc,,,,,,' drel='rsym:कर' posn='130' name='.' chunkId='BLK' chunkType='head:BLK'>
</Sentence>


<Sentence id="19">
1	दोनों	QC	<fs af='दो,num,any,pl,,any,,' posn='10' drel='nmod__adj:देशों' chunkType='child:NP' name='दोनों'>
2	देशों	NN	<fs af='देश,n,m,pl,3,o,0_का,0' drel='r6:सचिवों' posn='20' vpos='vib_3' name='देशों' chunkId='NP' chunkType='head:NP'>
3	के	PSP	<fs af='का,psp,m,pl,,o,,' posn='30' drel='lwg__psp:देशों' chunkType='child:NP' name='के'>
4	गृह	NNC	<fs af='गृह,n,m,sg,3,d,0,0' posn='40' drel='pof__cn:सचिवों' chunkType='child:NP2' name='गृह'>
5	सचिवों	NN	<fs af='सचिव,n,m,pl,3,o,0_ने,0' drel='k1:जताया' posn='50' vpos='vib_3' name='सचिवों' chunkId='NP2' chunkType='head:NP2'>
6	ने	PSP	<fs af='ने,psp,,,,,,' posn='60' drel='lwg__psp:सचिवों' chunkType='child:NP2' name='ने'>
7	इस	DEM	<fs af='यह,pn,any,sg,3,o,,' posn='70' drel='nmod__adj:बात' chunkType='child:NP3' name='इस'>
8	बात	NN	<fs af='बात,n,f,sg,3,o,0_पर,0' drel='k7:जताया' posn='80' vpos='vib_3' name='बात' chunkId='NP3' chunkType='head:NP3'>
9	पर	PSP	<fs af='पर,psp,,,,,,' posn='90' drel='lwg__psp:बात' chunkType='child:NP3' name='पर'>
10	संतोष	NN	<fs af='संतोष,n,m,sg,3,d,0,0' drel='pof:जताया' posn='100' name='संतोष' chunkId='NP4' chunkType='head:NP4'>
11	जताया	VM	<fs af='जता,v,m,sg,3,,या,yA' stype='declarative' posn='110' voicetype='active' name='जताया' chunkId='VGF' chunkType='head:VGF'>
12	कि	CC	<fs af='कि,avy,,,,,,' drel='rs:बात' posn='120' name='कि' chunkId='CCP' chunkType='head:CCP'>
13	मादक	JJ	<fs af='मादक,adj,any,any,,o,,' posn='130' drel='nmod__adj:पदार्थों' chunkType='child:NP5' name='मादक'>
14	पदार्थों	NN	<fs af='पदार्थ,n,m,pl,3,o,0_पर,0' drel='k7:करने' posn='140' vpos='vib_3' name='पदार्थों' chunkId='NP5' chunkType='head:NP5'>
15	पर	PSP	<fs af='पर,psp,,,,,,' posn='150' drel='lwg__psp:पदार्थों' chunkType='child:NP5' name='पर2'>
16	नियंत्रण	NN	<fs af='नियंत्रण,n,m,sg,3,d,0,0' drel='pof:करने' posn='160' name='नियंत्रण' chunkId='NP6' chunkType='head:NP6'>
17	करने	VM	<fs af='कर,v,any,pl,any,o,ना_वाला,nA' drel='nmod__k1inv:एजेंसियों' posn='170' vpos='tam_2' name='करने' chunkId='VGNN' chunkType='head:VGNN'>
18	वाली	PSP	<fs af='वाला,psp,f,pl,,o,,' posn='180' drel='lwg__psp:करने' chunkType='child:VGNN' name='वाली'>
19	एजेंसियों	NN	<fs af='एजेंसी,n,f,pl,3,o,0_के_बीच,0' drel='k7:हो' posn='190' vpos='vib_2_3' name='एजेंसियों' chunkId='NP7' chunkType='head:NP7'>
20	के	PSP	<fs af='के,psp,,,,,,' posn='200' drel='lwg__psp:एजेंसियों' chunkType='child:NP7' name='के2'>
21	बीच	NST	<fs af='बीच,nst,m,sg,3,d,,' posn='210' drel='lwg__psp:एजेंसियों' chunkType='child:NP7' name='बीच'>
22	सहयोग	NN	<fs af='सहयोग,n,m,sg,3,o,0,0' drel='ccof:और' posn='220' name='सहयोग' chunkId='NP8' chunkType='head:NP8'>
23	और	CC	<fs af='और,avy,,,,,,' drel='r6-k1:प्रदान' posn='230' name='और' chunkId='CCP2' chunkType='head:CCP2'>
24	सूचनाओं	NN	<fs af='सूचना,n,f,pl,3,o,0_का,0' drel='ccof:और' posn='240' vpos='vib_2' name='सूचनाओं' chunkId='NP9' chunkType='head:NP9'>
25	का	PSP	<fs af='का,psp,m,sg,,d,,' posn='250' drel='lwg__psp:सूचनाओं' chunkType='child:NP9' name='का'>
26	आदान	NNC	<fs af='आदान,n,m,sg,3,d,0,0' posn='260' drel='pof__cn:प्रदान' chunkType='child:NP10' name='आदान'>
27	-	SYM	<fs af='-,punc,,,,,,' posn='270' drel='pof__cn:प्रदान' chunkType='child:NP10' name='-'>
28	प्रदान	NN	<fs af='प्रदान,n,m,sg,3,d,0,0' drel='pof:हो' posn='280' name='प्रदान' chunkId='NP10' chunkType='head:NP10'>
29	हो	VM	<fs af='हो,v,m,sg,3,,0_रह+या_है,0' drel='ccof:कि' stype='declarative' posn='290' voicetype='active' vpos='tam_2_3' name='हो' chunkId='VGF2' chunkType='head:VGF2'>
30	रहा	VAUX	<fs af='रह,v,m,sg,3,,या,yA' posn='300' drel='lwg__vaux:हो' chunkType='child:VGF2' name='रहा'>
31	है	VAUX	<fs af='है,v,any,sg,3,,है,hE' posn='310' drel='lwg__vaux:हो' chunkType='child:VGF2' name='है'>
32	.	SYM	<fs af='.,punc,,,,,,' drel='rsym:जताया' posn='320' name='.' chunkId='BLK' chunkType='head:BLK'>
</Sentence>


<Sentence id="20">
1	दोनों	QC	<fs af='दो,num,any,pl,,any,,' posn='10' drel='nmod__adj:देशों' chunkType='child:NP' name='दोनों'>
2	देशों	NN	<fs af='देश,n,m,pl,3,o,0_ने,0' drel='k1:जताई' posn='20' vpos='vib_3' name='देशों' chunkId='NP' chunkType='head:NP'>
3	ने	PSP	<fs af='ने,psp,,,,,,' posn='30' drel='lwg__psp:देशों' chunkType='child:NP' name='ने'>
4	द्विपक्षीय	JJ	<fs af='द्विपक्षीय,adj,any,any,,o,,' posn='40' drel='nmod__adj:वार्ता' chunkType='child:NP2' name='द्विपक्षीय'>
5	समग्र	JJ	<fs af='समग्र,adj,any,any,,o,,' posn='50' drel='nmod__adj:वार्ता' chunkType='child:NP2' name='समग्र'>
6	वार्ता	NN	<fs af='वार्ता,n,f,sg,3,o,0_का,0' drel='r6:दायरे' posn='60' vpos='vib_4' name='वार्ता' chunkId='NP2' chunkType='head:NP2'>
7	के	PSP	<fs af='का,psp,m,sg,,o,,' posn='70' drel='lwg__psp:वार्ता' chunkType='child:NP2' name='के'>
8	दायरे	NN	<fs af='दायरा,n,m,sg,3,o,0_में,0' drel='k7:जताई' posn='80' vpos='vib_2' name='दायरे' chunkId='NP3' chunkType='head:NP3'>
9	में	PSP	<fs af='में,psp,,,,,,' posn='90' drel='lwg__psp:दायरे' chunkType='child:NP3' name='में'>
10	आगे	NST	<fs af='आगे,nst,m,sg,3,d,,' drel='k7t:रखने' posn='100' name='आगे' chunkId='NP4' chunkType='head:NP4'>
11	भी	RP	<fs af='भी,avy,,,,,,' posn='110' drel='lwg__rp:आगे' chunkType='child:NP4' name='भी'>
12	बातचीत	NN	<fs af='बातचीत,n,f,sg,3,d,0,0' drel='k2:रखने' posn='120' name='बातचीत' chunkId='NP5' chunkType='head:NP5'>
13	जारी	JJ	<fs af='जारी,adj,any,any,,,,' drel='pof:रखने' posn='130' name='जारी' chunkId='JJP' chunkType='head:JJP'>
14	रखने	VM	<fs af='रख,v,any,any,any,o,ना_पर,nA' drel='k7:जताई' posn='140' vpos='tam_2' name='रखने' chunkId='VGNN' chunkType='head:VGNN'>
15	पर	PSP	<fs af='पर,psp,,,,,,' posn='150' drel='lwg__psp:रखने' chunkType='child:VGNN' name='पर'>
16	सहमति	NN	<fs af='सहमति,n,f,sg,3,d,0,0' drel='pof:जताई' posn='160' name='सहमति' chunkId='NP6' chunkType='head:NP6'>
17	जताई	VM	<fs af='जता,v,f,sg,any,,या,yA' stype='declarative' posn='170' voicetype='active' name='जताई' chunkId='VGF' chunkType='head:VGF'>
18	.	SYM	<fs af='.,punc,,,,,,' drel='rsym:जताई' posn='180' name='.' chunkId='BLK' chunkType='head:BLK'>
</Sentence>


<Sentence id="21">
1	दोनों	QC	<fs af='दो,num,any,pl,,any,,' posn='10' drel='nmod__adj:पक्ष' chunkType='child:NP' name='दोनों'>
2	पक्ष	NN	<fs af='पक्ष,n,m,pl,3,d,0,0' drel='k1:हैं' posn='20' name='पक्ष' chunkId='NP' chunkType='head:NP'>
3	इस	PRP	<fs af='यह,pn,any,sg,3,o,0_पर,0' drel='k7:हैं' posn='30' vpos='vib_2_RP' name='इस' chunkId='NP2' chunkType='head:NP2'>
4	पर	PSP	<fs af='पर,psp,,,,,,' posn='40' drel='lwg__psp:इस' chunkType='child:NP2' name='पर'>
5	भी	RP	<fs af='भी,avy,,,,,,' posn='50' drel='lwg__rp:इस' chunkType='child:NP2' name='भी'>
6	राजी	JJ	<fs af='राजी,adj,any,any,,,,' drel='k1s:हैं' posn='60' name='राजी' chunkId='JJP' chunkType='head:JJP'>
7	हैं	VM	<fs af='है,v,any,pl,3,,है,hE' stype='declarative' posn='70' voicetype='active' name='हैं' chunkId='VGF' chunkType='head:VGF'>
8	कि	CC	<fs af='कि,avy,,,,,,' drel='rs:इस' posn='80' name='कि' chunkId='CCP' chunkType='head:CCP'>
9	भारत	NNP	<fs af='भारत,n,m,sg,3,o,0_का,0' drel='r6:एजेंसी' posn='90' vpos='vib_2' name='भारत' chunkId='NP3' chunkType='head:NP3'>
10	की	PSP	<fs af='का,psp,f,sg,,d,,' posn='100' drel='lwg__psp:भारत' chunkType='child:NP3' name='की'>
11	खुफिया	JJ	<fs af='खुफिया,adj,any,any,,d,,' posn='110' drel='nmod__adj:एजेंसी' chunkType='child:NP4' name='खुफिया'>
12	एजेंसी	NN	<fs af='एजेंसी,n,f,sg,3,o,0,0' drel='nmod:सीबीआई' posn='120' name='एजेंसी' chunkId='NP4' chunkType='head:NP4'>
13	सीबीआई	NNP	<fs af='सीबीआई,n,m,sg,3,o,0,0' drel='ccof:और' posn='130' name='सीबीआई' chunkId='NP5' chunkType='head:NP5'>
14	और	CC	<fs af='और,avy,,,,,,' drel='k7:होना' posn='140' name='और' chunkId='CCP2' chunkType='head:CCP2'>
15	पाकिस्तान	NNP	<fs af='पाकिस्तान,n,m,sg,3,o,0_का,0' drel='r6:एजेंसी2' posn='150' vpos='vib_2' name='पाकिस्तान' chunkId='NP6' chunkType='head:NP6'>
16	की	PSP	<fs af='का,psp,f,sg,,o,,' posn='160' drel='lwg__psp:पाकिस्तान' chunkType='child:NP6' name='की2'>
17	फेडरल	NNPC	<fs af='फेडरल,adj,any,any,,o,,' posn='170' drel='pof__cn:एजेंसी2' chunkType='child:NP7' name='फेडरल'>
18	जांच	NNPC	<fs af='जांच,n,f,sg,3,d,0,0' posn='180' drel='pof__cn:एजेंसी2' chunkType='child:NP7' name='जांच'>
19	एजेंसी	NNP	<fs af='एजेंसी,n,f,sg,3,o,0_में,0' drel='ccof:और' posn='190' vpos='vib_4' name='एजेंसी2' chunkId='NP7' chunkType='head:NP7'>
20	में	PSP	<fs af='में,psp,,,,,,' posn='200' drel='lwg__psp:एजेंसी2' chunkType='child:NP7' name='में'>
21	आपसी	JJ	<fs af='आपसी,adj,any,any,,d,,' posn='210' drel='nmod__adj:सहयोग' chunkType='child:NP8' name='आपसी'>
22	सहयोग	NN	<fs af='सहयोग,n,m,sg,3,d,0,0' drel='pof:होना' posn='220' name='सहयोग' chunkId='NP8' chunkType='head:NP8'>
23	होना	VM	<fs af='हो,v,m,any,3,,ना_चाहिए,nA' drel='ccof:कि' stype='declarative' posn='230' voicetype='active' vpos='tam_2' name='होना' chunkId='VGF2' chunkType='head:VGF2'>
24	चाहिए	VAUX	<fs af='चाहिए,v,any,any,3,,0,0' posn='240' drel='lwg__vaux:होना' chunkType='child:VGF2' name='चाहिए'>
25	.	SYM	<fs af='.,punc,,,,,,' drel='rsym:हैं' posn='250' name='.' chunkId='BLK' chunkType='head:BLK'>
</Sentence>


<Sentence id="22">
1	इसके	PRP	<fs af='यह,pn,any,sg,3,o,0_लिए,ke' drel='rt:बैठेंगे' posn='10' vpos='vib_2' name='इसके' chunkId='NP' chunkType='head:NP'>
2	लिए	PSP	<fs af='लिए,psp,,,,,,' posn='20' drel='lwg__psp:इसके' chunkType='child:NP' name='लिए'>
3	शीघ्र	RB	<fs af='शीघ्र,adv,,,,,,' drel='adv:बैठेंगे' posn='30' name='शीघ्र' chunkId='RBP' chunkType='head:RBP'>
4	ही	RP	<fs af='ही,avy,,,,,,' posn='40' drel='lwg__rp:शीघ्र' chunkType='child:RBP' name='ही'>
5	दोनों	QC	<fs af='दो,num,any,any,,o,,' posn='50' drel='nmod__adj:एजेंसियों' chunkType='child:NP2' name='दोनों'>
6	खुफिया	JJ	<fs af='खुफिया,adj,any,any,,o,,' posn='60' drel='nmod__adj:एजेंसियों' chunkType='child:NP2' name='खुफिया'>
7	एजेंसियों	NN	<fs af='एजेंसी,n,f,pl,3,o,0_का,0' drel='r6:विशेषज्ञ' posn='70' vpos='vib_4' name='एजेंसियों' chunkId='NP2' chunkType='head:NP2'>
8	के	PSP	<fs af='का,psp,m,pl,,d,,' posn='80' drel='lwg__psp:एजेंसियों' chunkType='child:NP2' name='के'>
9	विशेषज्ञ	NN	<fs af='विशेषज्ञ,n,m,pl,3,d,0,0' drel='k1:बैठेंगे' posn='90' name='विशेषज्ञ' chunkId='NP3' chunkType='head:NP3'>
10	आपसी	JJ	<fs af='आपसी,adj,any,any,,o,,' posn='100' drel='nmod__adj:सहमति' chunkType='child:NP4' name='आपसी'>
11	सहमति	NN	<fs af='सहमति,n,f,sg,3,o,0_से,0' drel='adv:करके' posn='110' vpos='vib_3' name='सहमति' chunkId='NP4' chunkType='head:NP4'>
12	से	PSP	<fs af='से,psp,,,,,,' posn='120' drel='lwg__psp:सहमति' chunkType='child:NP4' name='से'>
13	एक	QC	<fs af='एक,num,any,any,,any,,' posn='130' drel='nmod__adj:तिथि' chunkType='child:NP5' name='एक'>
14	तिथि	NN	<fs af='तिथि,n,f,sg,3,d,0,0' drel='k2:करके' posn='140' name='तिथि' chunkId='NP5' chunkType='head:NP5'>
15	तय	JJ	<fs af='तय,adj,any,any,,,,' drel='pof:करके' posn='150' name='तय' chunkId='JJP' chunkType='head:JJP'>
16	करके	VM	<fs af='कर,v,any,any,any,,कर,kara' drel='vmod:बैठेंगे' posn='160' name='करके' chunkId='VGNF' chunkType='head:VGNF'>
17	बैठेंगे	VM	<fs af='बैठ,v,m,pl,any,,गा,gA' stype='declarative' posn='170' voicetype='active' name='बैठेंगे' chunkId='VGF' chunkType='head:VGF'>
18	.	SYM	<fs af='.,punc,,,,,,' drel='rsym:बैठेंगे' posn='180' name='.' chunkId='BLK' chunkType='head:BLK'>
</Sentence>


</text>
</tb>
</body>
</document>
