<document id="2481936">
<head>
<title>  </title>			
<author>			
<firstname>  </firstname>			
<middlename>    </middlename>			
<lastname></lastname>			
</author>			
<availability format="electronic" ></availability>			
<bibl>			
</bibl>			
<bytecount>8.0K</bytecount>			
<domain name="general" ></domain>			
<creation creationdate="19/06/2007" institutename="IIIT Hyderabad">			
<creatorname>			
<lastname>Dipti</lastname>			
<middlename>			
</middlename>			
<firstname>Sharma</firstname>			
</creatorname>			
</creation>			
<distributor>CLIA Consortia, DIT</distributor>			
<edition number="1.0" ></edition>			
<encodingdesc>			
<newencoding>Unicode(UTF-8)</newencoding>			
<originalencoding>UTF-8</originalencoding>			
</encodingdesc>			
<sentencemarker marker=".">Specify Marker</sentencemarker>			
<language name="hi" writingsystem="LTR" script="Devanagari" ></language>			
<normalization normalized="no">			
<utilityname>xxx.exe</utilityname>			
</normalization>			
<projectdesc name="ILMT" ></projectdesc>			
<pubaddress addresstype="web">			
</pubaddress>			
<pubdate>			
<dateofpublication></dateofpublication>			
</pubdate>			
<publicationstmt type="copyrightfree">			
</publicationstmt>			
<publisher>			
<name></name>			
<url>xxx.com</url>			
</publisher>			
<pubplace place="books" ></pubplace>			
<wordcount>17  </wordcount>			
<caption>चैपल ने माना इशारा किया था! कोलकाता के अखबार को दिए इंटरव्यू में सच कुबूला एजेंसियां कोलकाता। </caption>

</head>
<body>
<tb number="1" segment="no" bullet="no">
<foreign language="select" writingsystem="LTR"> </foreign>			
<text>
<Sentence id="1">
1	गुरु	NNC	<fs af='गुरु,n,m,sg,3,d,0,0' posn='10' drel='pof__cn:ग्रेग' chunkType='child:NP' name='गुरु'>
2	ग्रेग	NNP	<fs af='ग्रेग,n,m,sg,3,o,0_का,0' drel='r6:उंगली' posn='20' vpos='vib_3' name='ग्रेग' chunkId='NP' chunkType='head:NP'>
3	के	PSP	<fs af='का,psp,m,sg,,o,,' posn='30' drel='lwg__psp:ग्रेग' chunkType='child:NP' name='के'>
4	(	SYM	<fs af='(,punc,,,,,,' posn='40' drel='rsym:उंगली' chunkType='child:NP2' name='('>
5	उंगली	NN	<fs af='उंगली,n,f,sg,3,o,0_का,0' drel='r6:इशारे' posn='50' vpos='vib_3' name='उंगली' chunkId='NP2' chunkType='head:NP2'>
6	के	PSP	<fs af='का,psp,m,sg,,o,,' posn='60' drel='lwg__psp:उंगली' chunkType='child:NP2' name='के2'>
7	)	SYM	<fs af='),punc,,,,,,' posn='70' drel='rsym:उंगली' chunkType='child:NP2' name=')'>
8	इशारे	NN	<fs af='इशारा,n,m,sg,3,o,0_का,0' drel='r6:घटना' posn='80' vpos='vib_2' name='इशारे' chunkId='NP3' chunkType='head:NP3'>
9	की	PSP	<fs af='का,psp,f,sg,,o,,' posn='90' drel='lwg__psp:इशारे' chunkType='child:NP3' name='की'>
10	घटना	NN	<fs af='घटना,n,f,sg,3,o,0_पर,0' drel='k7:धरी' posn='100' vpos='vib_2' name='घटना' chunkId='NP4' chunkType='head:NP4'>
11	पर	PSP	<fs af='पर,psp,,,,,,' posn='110' drel='lwg__psp:घटना' chunkType='child:NP4' name='पर'>
12	लीपापोती	NN	<fs af='लीपापोती,n,f,sg,3,o,0_का,0' drel='r6:प्रबंधन' posn='120' vpos='vib_2' name='लीपापोती' chunkId='NP5' chunkType='head:NP5'>
13	की	PSP	<fs af='का,psp,f,sg,,o,,' posn='130' drel='lwg__psp:लीपापोती' chunkType='child:NP5' name='की2'>
14	भारतीय	JJ	<fs af='भारतीय,adj,any,any,,o,,' posn='140' drel='nmod__adj:प्रबंधन' chunkType='child:NP6' name='भारतीय'>
15	टीम	NNC	<fs af='टीम,n,f,sg,3,d,0,0' posn='150' drel='pof__cn:प्रबंधन' chunkType='child:NP6' name='टीम'>
16	प्रबंधन	NN	<fs af='प्रबंधन,n,m,sg,3,o,0_का,0' drel='r6:कोशिशें' posn='160' vpos='vib_4' name='प्रबंधन' chunkId='NP6' chunkType='head:NP6'>
17	की	PSP	<fs af='का,psp,f,pl,,d,,' posn='170' drel='lwg__psp:प्रबंधन' chunkType='child:NP6' name='की3'>
18	सारी	QF	<fs af='सारा,adj,f,pl,,d,,' posn='180' drel='nmod__adj:कोशिशें' chunkType='child:NP7' name='सारी'>
19	कोशिशें	NN	<fs af='कोशिश,n,f,pl,3,d,0,0' drel='k1:धरी' posn='190' name='कोशिशें' chunkId='NP7' chunkType='head:NP7'>
20	उस	DEM	<fs af='वह,pn,any,sg,3,d,,' posn='200' drel='nmod__adj:समय' chunkType='child:NP8' name='उस'>
21	समय	NN	<fs af='समय,n,m,sg,3,d,0,0' drel='k7t:धरी' posn='210' name='समय' chunkId='NP8' chunkType='head:NP8'>
22	धरी	VM	<fs af='धर,v,any,pl,any,,या_रह_जा+या१,yA' stype='declarative' posn='220' voicetype='active' vpos='tam_2_3' name='धरी' chunkId='VGF' chunkType='head:VGF'>
23	रह	VAUX	<fs af='रह,v,any,any,any,,0,0' posn='230' drel='lwg__vaux:धरी' chunkType='child:VGF' name='रह'>
24	गई	VAUX	<fs af='जा,v,f,pl,any,,या१,yA1' posn='240' drel='lwg__vaux:धरी' chunkType='child:VGF' name='गई'>
25	,	SYM	<fs af='COMMA,punc,,,,,,' posn='250' drel='rsym:धरी' chunkType='child:VGF' name=','>
26	जब	PRP	<fs af='जब,pn,,,,d,,' drel='k7t:कर' posn='260' coref=':NP8' name='जब' chunkId='NP9' chunkType='head:NP9'>
27	खुद	PRP	<fs af='खुद,pn,,,,o,,' drel='nmod:चैपल' posn='260' name='खुद' chunkId='NP10' chunkType='head:NP10'>
28	ग्रेग	NNPC	<fs af='ग्रेग,n,m,sg,3,d,0,0' posn='280' drel='pof__cn:चैपल' chunkType='child:NP11' name='ग्रेग2'>
29	चैपल	NNP	<fs af='चैपल,n,any,sg,3,o,0_ने,0' drel='k1:कर' posn='290' vpos='vib_3' name='चैपल' chunkId='NP11' chunkType='head:NP11'>
30	ने	PSP	<fs af='ने,psp,,,,,,' posn='300' drel='lwg__psp:चैपल' chunkType='child:NP11' name='ने'>
31	इशारा	NN	<fs af='इशारा,n,m,sg,3,d,0,0' drel='pof:करने' posn='310' name='इशारा' chunkId='NP12' chunkType='head:NP12'>
32	करने	VM	<fs af='कर,v,any,sg,any,o,ना_का,nA' drel='r6:बात' posn='320' vpos='tam_2' name='करने' chunkId='VGNN' chunkType='head:VGNN'>
33	की	PSP	<fs af='का,psp,f,sg,,d,,' posn='330' drel='lwg__psp:करने' chunkType='child:VGNN' name='की4'>
34	बात	NN	<fs af='बात,n,f,sg,3,d,0,0' drel='k2:कर' posn='340' name='बात' chunkId='NP13' chunkType='head:NP13'>
35	कुबूल	NN	<fs af='कुबूल,n,m,sg,3,d,0,0' drel='pof:कर' posn='350' name='कुबूल' chunkId='NP14' chunkType='head:NP14'>
36	कर	VM	<fs af='कर,v,any,sg,any,,0_ले+या,0' drel='nmod__relc:समय' stype='declarative' posn='360' voicetype='active' vpos='tam_2' name='कर' chunkId='VGF2' chunkType='head:VGF2'>
37	ली	VAUX	<fs af='ले,v,f,sg,any,,या,yA' posn='370' drel='lwg__vaux:कर' chunkType='child:VGF2' name='ली'>
38	।	SYM	<fs af='।,punc,,,,,,' drel='rsym:धरी' posn='380' name='।' chunkId='BLK' chunkType='head:BLK'>
</Sentence>


<Sentence id="2">
1	कोलकाता	NNP	<fs af='कोलकाता,n,m,sg,3,o,0_से,0' drel='k5:होने' posn='10' vpos='vib_2' name='कोलकाता' chunkId='NP' chunkType='head:NP'>
2	से	PSP	<fs af='से,psp,,,,,,' posn='20' drel='lwg__psp:कोलकाता' chunkType='child:NP' name='से'>
3	प्रकाशित	JJ	<fs af='प्रकाशित,adj,any,any,,,,' drel='pof:होने' posn='30' name='प्रकाशित' chunkId='JJP' chunkType='head:JJP'>
4	होने	VM	<fs af='हो,v,any,sg,any,o,ना_वाला,nA' drel='nmod:अखबार' posn='40' vpos='tam_2' name='होने' chunkId='VGNN' chunkType='head:VGNN'>
5	वाले	PSP	<fs af='वाला,psp,m,sg,,o,,' posn='50' drel='lwg__psp:होने' chunkType='child:VGNN' name='वाले'>
6	एक	QC	<fs af='एक,num,any,any,,any,,' posn='60' drel='nmod__adj:अखबार' chunkType='child:NP2' name='एक'>
7	अंग्रेजी	NNC	<fs af='अंग्रेजी,n,f,sg,3,d,0,0' posn='70' drel='pof__cn:अखबार' chunkType='child:NP2' name='अंग्रेजी'>
8	अखबार	NN	<fs af='अखबार,n,m,sg,3,o,0_से,0' drel='ras-k1:किया' posn='80' vpos='vib_4' name='अखबार' chunkId='NP2' chunkType='head:NP2'>
9	से	PSP	<fs af='से,psp,,,,,,' posn='90' drel='lwg__psp:अखबार' chunkType='child:NP2' name='से2'>
10	बातचीत	NN	<fs af='बातचीत,n,f,sg,3,o,0_में,0' drel='k7:किया' posn='100' vpos='vib_2' name='बातचीत' chunkId='NP3' chunkType='head:NP3'>
11	में	PSP	<fs af='में,psp,,,,,,' posn='110' drel='lwg__psp:बातचीत' chunkType='child:NP3' name='में'>
12	चैपल	NNP	<fs af='चैपल,n,any,sg,3,o,0_ने,0' drel='k1:किया' posn='120' vpos='vib_2' name='चैपल' chunkId='NP4' chunkType='head:NP4'>
13	ने	PSP	<fs af='ने,psp,,,,,,' posn='130' drel='lwg__psp:चैपल' chunkType='child:NP4' name='ने'>
14	स्वीकार	NN	<fs af='स्वीकार,n,m,sg,3,d,0,0' drel='pof:किया' posn='140' name='स्वीकार' chunkId='NP5' chunkType='head:NP5'>
15	किया	VM	<fs af='कर,v,m,sg,any,,या,yA' stype='declarative' posn='150' voicetype='active' name='किया' chunkId='VGF' chunkType='head:VGF'>
16	कि	CC	<fs af='कि,avy,,,,,,' drel='k2:किया' posn='160' name='कि' chunkId='CCP' chunkType='head:CCP'>
17	हां	INJ	<fs af='हाँ,avy,,,,,,' drel='vmod:किया2' posn='170' name='हां' chunkId='BLK' chunkType='head:BLK'>
18	,	SYM	<fs af='COMMA,punc,,,,,,' posn='180' drel='rsym:हां' chunkType='child:BLK' name=','>
19	मैंने	PRP	<fs af='मैं,pn,any,sg,1,o,ने,ne' drel='k1:किया2' posn='190' name='मैंने' chunkId='NP6' chunkType='head:NP6'>
20	इशारा	NN	<fs af='इशारा,n,m,sg,3,d,0,0' drel='pof:किया2' posn='200' name='इशारा' chunkId='NP7' chunkType='head:NP7'>
21	किया	VM	<fs af='कर,v,m,sg,any,,या_था,yA' drel='ccof:कि' stype='declarative' posn='210' voicetype='active' vpos='tam_2' name='किया2' chunkId='VGF2' chunkType='head:VGF2'>
22	था	VAUX	<fs af='था,v,m,sg,any,,था,WA' posn='220' drel='lwg__vaux:किया2' chunkType='child:VGF2' name='था'>
23	।	SYM	<fs af='।,punc,,,,,,' drel='rsym:किया' posn='230' name='।' chunkId='BLK2' chunkType='head:BLK2'>
</Sentence>


<Sentence id="3">
1	यह	PRP	<fs af='यह,pn,any,sg,3,d,0,0' drel='k1:है' posn='10' name='यह' chunkId='NP' chunkType='head:NP'>
2	अलग	JJ	<fs af='अलग,adj,any,any,,d,,' posn='20' drel='nmod__adj:बात' chunkType='child:NP2' name='अलग'>
3	बात	NN	<fs af='बात,n,f,sg,3,d,0,0' drel='k1s:है' posn='30' name='बात' chunkId='NP2' chunkType='head:NP2'>
4	है	VM	<fs af='है,v,any,sg,3,,है,hE' drel='ccof:जबकि' stype='declarative' posn='40' voicetype='active' name='है' chunkId='VGF' chunkType='head:VGF'>
5	कि	CC	<fs af='कि,avy,,,,,,' drel='rs:यह' posn='50' name='कि' chunkId='CCP' chunkType='head:CCP'>
6	मुंबई	NNP	<fs af='मुंबई,n,m,sg,3,o,0_में,0' drel='k7p:होने' posn='60' vpos='vib_2' name='मुंबई' chunkId='NP3' chunkType='head:NP3'>
7	में	PSP	<fs af='में,psp,,,,,,' posn='70' drel='lwg__psp:मुंबई' chunkType='child:NP3' name='में'>
8	होने	VM	<fs af='हो,v,any,sg,any,o,ना_वाला,nA' drel='nmod:मैच' posn='80' vpos='tam_2' name='होने' chunkId='VGNN' chunkType='head:VGNN'>
9	वाले	PSP	<fs af='वाला,psp,m,sg,,o,,' posn='90' drel='lwg__psp:होने' chunkType='child:VGNN' name='वाले'>
10	वन	NNC	<fs af='वन,num,any,any,,any,,' posn='90' drel='pof__cn:मैच' chunkType='child:NP4' name='वन'>
11	-JOIN	SYM	<fs af='-,punc,,,,,,' posn='110' drel='pof__cn:मैच' chunkType='child:NP4' name='-JOIN'>
12	डे	NNC	<fs af='डे,n,m,sg,3,d,0,0' posn='120' drel='pof__cn:मैच' chunkType='child:NP4' name='डे'>
13	मैच	NN	<fs af='मैच,n,m,sg,3,o,0_का,0' drel='r6:संध्या' posn='130' vpos='vib_5' name='मैच' chunkId='NP4' chunkType='head:NP4'>
14	की	PSP	<fs af='का,psp,f,sg,,o,,' posn='140' drel='lwg__psp:मैच' chunkType='child:NP4' name='की'>
15	पूर्व	JJ	<fs af='पूर्व,adj,any,any,,o,,' posn='150' drel='nmod__adj:संध्या' chunkType='child:NP5' name='पूर्व'>
16	संध्या	NN	<fs af='संध्या,n,f,sg,3,o,0_पर,0' drel='k7t:साध' posn='160' vpos='vib_3' name='संध्या' chunkId='NP5' chunkType='head:NP5'>
17	पर	PSP	<fs af='पर,psp,,,,,,' posn='170' drel='lwg__psp:संध्या' chunkType='child:NP5' name='पर'>
18	चैपल	NNP	<fs af='चैपल,n,any,sg,3,o,0_ने,0' drel='k1:साध' posn='180' vpos='vib_2' name='चैपल' chunkId='NP6' chunkType='head:NP6'>
19	ने	PSP	<fs af='ने,psp,,,,,,' posn='190' drel='lwg__psp:चैपल' chunkType='child:NP6' name='ने'>
20	इस	DEM	<fs af='यह,pn,any,sg,3,o,,' posn='200' drel='nmod__adj:सवाल' chunkType='child:NP7' name='इस'>
21	सवाल	NN	<fs af='सवाल,n,m,sg,3,o,0_पर,0' drel='k7:साध' posn='210' vpos='vib_3' name='सवाल' chunkId='NP7' chunkType='head:NP7'>
22	पर	PSP	<fs af='पर,psp,,,,,,' posn='220' drel='lwg__psp:सवाल' chunkType='child:NP7' name='पर2'>
23	फिर	RB	<fs af='फिर,adv,,,,,,' drel='adv:साध' posn='230' name='फिर' chunkId='RBP' chunkType='head:RBP'>
24	चुप्पी	NN	<fs af='चुप्पी,n,f,sg,3,d,0,0' drel='pof:साध' posn='240' name='चुप्पी' chunkId='NP8' chunkType='head:NP8'>
25	साध	VM	<fs af='साध,v,any,sg,any,any,0_ले+या,0' drel='ccof:कि' stype='declarative' posn='250' voicetype='active' vpos='tam_2' name='साध' chunkId='VGF2' chunkType='head:VGF2'>
26	ली	VAUX	<fs af='ले,v,f,sg,any,,या,yA' posn='260' drel='lwg__vaux:साध' chunkType='child:VGF2' name='ली'>
27	,	SYM	<fs af='COMMA,punc,,,,,,' posn='270' drel='rsym:साध' chunkType='child:VGF2' name=','>
28	जबकि	CC	<fs af='जबकि,avy,,,,,,' posn='280' name='जबकि' chunkId='CCP2' chunkType='head:CCP2'>
29	प्रबंधन	NN	<fs af='प्रबंधन,n,m,sg,3,o,0_ने,0' drel='k1:की3' posn='290' vpos='vib_2' name='प्रबंधन' chunkId='NP9' chunkType='head:NP9'>
30	ने	PSP	<fs af='ने,psp,,,,,,' posn='300' drel='lwg__psp:प्रबंधन' chunkType='child:NP9' name='ने2'>
31	यह	PRP	<fs af='यह,pn,any,sg,3,d,0,0' drel='k2:कहकर' posn='310' name='यह2' chunkId='NP10' chunkType='head:NP10'>
32	कहकर	VM	<fs af='कह,v,any,any,any,,कर,kara' drel='vmod:की3' posn='320' name='कहकर' chunkId='VGNF' chunkType='head:VGNF'>
33	मामला	NN	<fs af='मामला,n,m,sg,3,d,0,0' drel='k2:समेटने' posn='330' name='मामला' chunkId='NP11' chunkType='head:NP11'>
34	समेटने	VM	<fs af='समेट,v,any,sg,any,o,ना_का,nA' drel='r6-k2:कोशिश' posn='340' vpos='tam_2' name='समेटने' chunkId='VGNN2' chunkType='head:VGNN2'>
35	की	PSP	<fs af='का,psp,f,sg,,d,,' posn='350' drel='lwg__psp:समेटने' chunkType='child:VGNN2' name='की2'>
36	कोशिश	NN	<fs af='कोशिश,n,f,sg,3,d,0,0' drel='pof:की3' posn='360' name='कोशिश' chunkId='NP12' chunkType='head:NP12'>
37	की	VM	<fs af='कर,v,f,sg,any,,या,yA' drel='ccof:जबकि' stype='declarative' posn='370' voicetype='active' name='की3' chunkId='VGF3' chunkType='head:VGF3'>
38	कि	CC	<fs af='कि,avy,,,,,,' drel='k2:की3' posn='380' name='कि2' chunkId='CCP3' chunkType='head:CCP3'>
39	ऐसी	DEM	<fs af='ऐसा,pn,f,sg,3,d,,' posn='390' drel='nmod__adj:घटना' chunkType='child:NP13' name='ऐसी'>
40	कोई	PRP	<fs af='कोई,pn,any,sg,3,d,0,0' posn='400' drel='nmod__adj:घटना' chunkType='child:NP13' name='कोई'>
41	घटना	NN	<fs af='घटना,n,f,sg,3,d,0,0' drel='k1:हुई' posn='410' name='घटना' chunkId='NP13' chunkType='head:NP13'>
42	हुई	VM	<fs af='हो,v,f,sg,any,,या,yA' drel='ccof:कि2' stype='declarative' posn='420' voicetype='active' name='हुई' chunkId='VGF4' chunkType='head:VGF4'>
43	ही	RP	<fs af='ही,avy,,,,,,' posn='430' drel='lwg__rp:हुई' chunkType='child:VGF4' name='ही'>
44	नहीं	NEG	<fs af='नहीं,avy,,,,,,' posn='440' drel='lwg__neg:हुई' chunkType='child:VGF4' name='नहीं'>
45	।	SYM	<fs af='।,punc,,,,,,' drel='rsym:जबकि' posn='450' name='।' chunkId='BLK' chunkType='head:BLK'>
</Sentence>


<Sentence id="4">
1	दरअसल	RB	<fs af='दरअसल,adv,,,,,,' drel='sent-adv:की' posn='10' name='दरअसल' chunkId='RBP' chunkType='head:RBP'>
2	चैपल	NNP	<fs af='चैपल,n,any,sg,3,o,0_ने,0' drel='k1:की' posn='20' vpos='vib_2' name='चैपल' chunkId='NP' chunkType='head:NP'>
3	ने	PSP	<fs af='ने,psp,,,,,,' posn='30' drel='lwg__psp:चैपल' chunkType='child:NP' name='ने'>
4	कल्पना	NN	<fs af='कल्पना,n,f,sg,3,d,0,0' drel='pof:की' posn='40' name='कल्पना' chunkId='NP2' chunkType='head:NP2'>
5	भी	RP	<fs af='भी,avy,,,,,,' posn='50' drel='lwg__rp:कल्पना' chunkType='child:NP2' name='भी'>
6	नहीं	NEG	<fs af='नहीं,avy,,,,,,' posn='60' drel='lwg__neg:की' chunkType='child:VGF' name='नहीं'>
7	की	VM	<fs af='कर,v,f,sg,any,,या_था,yA' stype='declarative' posn='70' voicetype='active' vpos='tam_3' name='की' chunkId='VGF' chunkType='head:VGF'>
8	थी	VAUX	<fs af='था,v,f,sg,any,,था,WA' posn='80' drel='lwg__vaux:की' chunkType='child:VGF' name='थी'>
9	कि	CC	<fs af='कि,avy,,,,,,' drel='k2:की' posn='90' name='कि' chunkId='CCP' chunkType='head:CCP'>
10	उंगली	NN	<fs af='उंगली,n,f,sg,3,o,0_का,0' drel='r6:इशारा' posn='100' vpos='vib_2' name='उंगली' chunkId='NP3' chunkType='head:NP3'>
11	का	PSP	<fs af='का,psp,m,sg,,d,,' posn='110' drel='lwg__psp:उंगली' chunkType='child:NP3' name='का'>
12	इशारा	NN	<fs af='इशारा,n,m,sg,3,d,0,0' drel='k2:पकड़' posn='120' name='इशारा' chunkId='NP4' chunkType='head:NP4'>
13	इस	DEM	<fs af='यह,pn,any,sg,3,d,,' posn='130' drel='nmod__adj:कदर' chunkType='child:NP5' name='इस'>
14	कदर	NN	<fs af='कदर,n,f,sg,3,d,0,0' drel='adv:पकड़' posn='140' name='कदर' chunkId='NP5' chunkType='head:NP5'>
15	तूल	NN	<fs af='तूल,n,m,sg,3,d,0,0' drel='pof:पकड़' posn='150' name='तूल' chunkId='NP6' chunkType='head:NP6'>
16	पकड़	VM	<fs af='पकड,v,any,sg,3,,0_ले+गा,0' drel='ccof:कि' stype='declarative' posn='160' voicetype='active' vpos='tam_2' name='पकड़' chunkId='VGF2' chunkType='head:VGF2'>
17	लेगा	VAUX	<fs af='ले,v,m,sg,3,,गा,gA' posn='170' drel='lwg__vaux:पकड़' chunkType='child:VGF2' name='लेगा'>
18	।	SYM	<fs af='।,punc,,,,,,' drel='rsym:की' posn='180' name='।' chunkId='BLK' chunkType='head:BLK'>
</Sentence>


<Sentence id="5">
1	हालात	NN	<fs af='हालात,n,m,sg,3,d,0,0' drel='k2:बन' posn='10' name='हालात' chunkId='NP' chunkType='head:NP'>
2	उनके	PRP	<fs af='वह,pn,m,sg,3,o,0_लिए,ke' drel='rt:बन' posn='20' vpos='vib_2' name='उनके' chunkId='NP2' chunkType='head:NP2'>
3	लिए	PSP	<fs af='लिए,psp,,,,,,' posn='30' drel='lwg__psp:उनके' chunkType='child:NP2' name='लिए'>
4	(	SYM	<fs af='(,punc,,,,,,' posn='40' drel='rsym:उगलते' chunkType='child:VGF' name='('>
5	न	NEG	<fs af='न,avy,,,,,,' posn='50' drel='lwg__neg:उगलते' chunkType='child:VGF' name='न'>
6	उगलते	VM	<fs af='उगल,v,m,pl,any,,ता_बन+या,wA' drel='ccof:NULL' posn='60' vpos='tam_4' name='उगलते' chunkId='VGF' chunkType='head:VGF'>
7	बने	VAUX	<fs af='बन,v,m,pl,any,,या,yA' posn='110' drel='lwg__vaux:उगलते' chunkType='child:VGF' name='बने'>
8	,	SYM	<fs af='COMMA,punc,,,,,,' posn='80' drel='rsym:उगलते' chunkType='child:VGF' name=','>
9	NULL	CC	<fs mtype='gap' troot='और' dmrel='adv:बन' name='NULL' chunkId='NULL__CCP' chunkType='head:NULL__CCP'>
10	न	NEG	<fs af='न,avy,,,,,,' posn='90' drel='lwg__neg:निगलते' chunkType='child:VGNN' name='न2'>
11	निगलते	VM	<fs af='निगल,v,m,pl,any,,ता_बन+या,wA' drel='ccof:NULL' posn='100' vpos='tam_3' name='निगलते' chunkId='VGNN' chunkType='head:VGNN'>
12	बने	VAUX	<fs af='बन,v,m,pl,any,,या,yA' posn='110' drel='lwg__vaux:निगलते' chunkType='child:VGNN' name='बने2'>
13	)	SYM	<fs af='),punc,,,,,,' posn='120' drel='rsym:निगलते' chunkType='child:VGNN' name=')'>
14	जैसे	PSP	<fs drel='fragof:NULL' name='जैसे' chunkId='FRAGP' chunkType='head:FRAGP'>
15	बन	VM	<fs af='बन,v,any,pl,any,,0_जा+या१,0' stype='declarative' posn='140' voicetype='passive' vpos='tam_2' name='बन' chunkId='VGF2' chunkType='head:VGF2'>
16	गए	VAUX	<fs af='जा,v,m,pl,any,,या१,yA1' posn='150' drel='lwg__vaux:बन' chunkType='child:VGF2' name='गए'>
17	।	SYM	<fs af='।,punc,,,,,,' drel='rsym:बन' posn='160' name='।' chunkId='BLK' chunkType='head:BLK'>
</Sentence>


<Sentence id="6">
1	कोलकता	NNP	<fs af='कोलकाता,n,m,sg,3,o,0_का,0' drel='r6:अखबार' posn='10' vpos='vib_2' name='कोलकता' chunkId='NP' chunkType='head:NP'>
2	के	PSP	<fs af='का,psp,m,sg,,o,,' posn='20' drel='lwg__psp:कोलकता' chunkType='child:NP' name='के'>
3	अंग्रेजी	NNC	<fs af='अंग्रेजी,n,f,sg,3,d,0,0' posn='30' drel='pof__cn:अखबार' chunkType='child:NP2' name='अंग्रेजी'>
4	अखबार	NN	<fs af='अखबार,n,m,sg,3,o,0_ने,0' drel='k1:उगलवा' posn='40' vpos='vib_3' name='अखबार' chunkId='NP2' chunkType='head:NP2'>
5	ने	PSP	<fs af='ने,psp,,,,,,' posn='50' drel='lwg__psp:अखबार' chunkType='child:NP2' name='ने'>
6	(	SYM	<fs af='(,punc,,,,,,' posn='60' drel='rsym:किंकर्तव्यविमूढ़' chunkType='child:JJP' name='('>
7	किंकर्तव्यविमूढ़	JJ	<fs af='किंकर्तव्यविमूढ,adj,any,any,,o,,' drel='nmod:चैपल' posn='70' name='किंकर्तव्यविमूढ़' chunkId='JJP' chunkType='head:JJP'>
8	)	SYM	<fs af='),punc,,,,,,' posn='80' drel='rsym:किंकर्तव्यविमूढ़' chunkType='child:JJP' name=')'>
9	चैपल	NNP	<fs af='चैपल,n,any,sg,3,o,0_से,0' drel='k3:उगलवा' posn='90' vpos='vib_2' name='चैपल' chunkId='NP3' chunkType='head:NP3'>
10	से	PSP	<fs af='से,psp,,,,,,' posn='100' drel='lwg__psp:चैपल' chunkType='child:NP3' name='से'>
11	सच	NN	<fs af='सच,n,m,sg,3,d,0,0' drel='k2:उगलवा' posn='110' name='सच' chunkId='NP4' chunkType='head:NP4'>
12	उगलवा	VM	<fs af='उगल,v,any,sg,any,,0_ले+या,0' stype='declarative' posn='120' dsuf='वा' voicetype='active' droot='उगलवा' vpos='tam_3' name='उगलवा' chunkId='VGF' chunkType='head:VGF'>
13	ही	RP	<fs af='ही,avy,,,,,,' posn='130' drel='lwg__rp:उगलवा' chunkType='child:VGF' name='ही'>
14	लिया	VAUX	<fs af='ले,v,m,sg,any,,या,yA' posn='140' drel='lwg__vaux:उगलवा' chunkType='child:VGF' name='लिया'>
15	।	SYM	<fs af='।,punc,,,,,,' drel='rsym:उगलवा' posn='150' name='।' chunkId='BLK' chunkType='head:BLK'>
</Sentence>


<Sentence id="7">
1	इसके	PRP	<fs af='यह,pn,any,sg,3,o,0_मुताबिक,ke' drel='k7a:कहा' posn='10' vpos='vib_2' name='इसके' chunkId='NP' chunkType='head:NP'>
2	मुताबिक	PSP	<fs af='मुताबिक,psp,,,,,,' posn='20' drel='lwg__psp:इसके' chunkType='child:NP' name='मुताबिक'>
3	,	SYM	<fs af='COMMA,punc,,,,,,' posn='30' drel='rsym:इसके' chunkType='child:NP' name=','>
4	दर्शकों	NN	<fs af='दर्शक,n,m,pl,3,o,0_का_ओर,0' drel='rd:कहा' posn='50' vpos='vib_2_3' name='दर्शकों' chunkId='NP2' chunkType='head:NP2'>
5	की	PSP	<fs af='का,psp,f,sg,,d,,' posn='60' drel='lwg__psp:दर्शकों' chunkType='child:NP2' name='की'>
6	ओर	NST	<fs af='ओर,nst,f,sg,3,d,,' posn='70' drel='lwg__psp:दर्शकों' chunkType='child:NP2' name='ओर'>
7	जानबूझकर	RB	<fs af='जानबूझकर,adv,,,,,,' drel='adv:पूछे' posn='150' name='जानबूझकर' chunkId='RBP' chunkType='head:RBP'>
8	अभद्र	JJ	<fs af='अभद्र,adj,any,any,,o,,' posn='90' drel='nmod__adj:इशारे' chunkType='child:NP3' name='अभद्र'>
9	इशारे	NN	<fs af='इशारा,n,m,sg,3,o,0_का_बाबत,0' drel='k7:पूछे' posn='100' vpos='vib_3_4' name='इशारे' chunkId='NP3' chunkType='head:NP3'>
10	की	PSP	<fs af='का,psp,f,,,o,,' posn='110' drel='lwg__psp:इशारे' chunkType='child:NP3' name='की2'>
11	बाबत	PSP	<fs af='बाबत,n,f,,,o,,' posn='120' drel='lwg__psp:इशारे' chunkType='child:NP3' name='बाबत'>
12	पूछे	VM	<fs af='पूछ,v,any,sg,any,,या_जा+ना_पर,yA' drel='k7:कहा' posn='130' vpos='tam_2_3' name='पूछे' chunkId='VGNN' chunkType='head:VGNN'>
13	जाने	VAUX	<fs af='जा,v,any,any,any,o,ना,nA' posn='140' drel='lwg__vaux:पूछे' chunkType='child:VGNN' name='जाने'>
14	पर	PSP	<fs af='पर,psp,,,,,,' posn='150' drel='lwg__psp:पूछे' chunkType='child:VGNN' name='पर'>
15	चैपल	NNP	<fs af='चैपल,n,any,sg,3,o,0_ने,0' drel='k1:कहा' posn='160' vpos='vib_2' name='चैपल' chunkId='NP4' chunkType='head:NP4'>
16	ने	PSP	<fs af='ने,psp,,,,,,' posn='170' drel='lwg__psp:चैपल' chunkType='child:NP4' name='ने'>
17	कहा	VM	<fs af='कह,v,m,sg,any,,या,yA' stype='declarative' posn='180' voicetype='active' name='कहा' chunkId='VGF' chunkType='head:VGF'>
18	,	SYM	<fs af='COMMA,punc,,,,,,' posn='190' drel='rsym:कहा' chunkType='child:VGF' name=',2'>
19	मुझे	PRP	<fs af='मैं,pn,any,sg,1,o,को,ko' drel='k4a:है' posn='200' name='मुझे' chunkId='NP5' chunkType='head:NP5'>
20	इसकी	PRP	<fs af='यह,pn,f,sg,3,o,का,kA' drel='r6-k2:व्याख्या' posn='210' name='इसकी' chunkId='NP6' chunkType='head:NP6'>
21	व्याख्या	NN	<fs af='व्याख्या,n,f,sg,3,d,0,0' drel='pof:करने' posn='220' name='व्याख्या' chunkId='NP7' chunkType='head:NP7'>
22	करने	VM	<fs af='कर,v,any,sg,any,o,ना_का,nA' drel='r6:ज़रूरत' posn='230' vpos='tam_2' name='करने' chunkId='VGNN2' chunkType='head:VGNN2'>
23	की	PSP	<fs af='का,psp,f,sg,,d,,' posn='240' drel='lwg__psp:करने' chunkType='child:VGNN2' name='की3'>
24	ज़रूरत	NN	<fs af='जरूरत,n,f,sg,3,d,0,0' drel='k1:है' posn='250' name='ज़रूरत' chunkId='NP8' chunkType='head:NP8'>
25	नहीं	NEG	<fs af='नहीं,avy,,,,,,' posn='260' drel='lwg__neg:है' chunkType='child:VGF2' name='नहीं'>
26	है	VM	<fs af='है,v,any,sg,3,,है,hE' drel='k2:कहा' stype='declarative' posn='270' voicetype='active' name='है' chunkId='VGF2' chunkType='head:VGF2'>
27	।	SYM	<fs af='।,punc,,,,,,' drel='rsym:कहा' posn='280' name='।' chunkId='BLK' chunkType='head:BLK'>
</Sentence>


<Sentence id="8">
1	लेकिन	CC	<fs af='लेकिन,avy,,,,,,' posn='10' name='लेकिन' chunkId='CCP' chunkType='head:CCP'>
2	यह	PRP	<fs af='यह,pn,any,sg,3,d,0,0' drel='k1:है' posn='20' name='यह' chunkId='NP' chunkType='head:NP'>
3	सही	JJ	<fs af='सही,adj,any,any,,,,' drel='k1s:है' posn='30' name='सही' chunkId='JJP' chunkType='head:JJP'>
4	है	VM	<fs af='है,v,any,sg,3,,है,hE' drel='ccof:लेकिन' stype='declarative' posn='40' voicetype='active' name='है' chunkId='VGF' chunkType='head:VGF'>
5	कि	CC	<fs af='कि,avy,,,,,,' drel='rs:यह' posn='50' name='कि' chunkId='CCP2' chunkType='head:CCP2'>
6	मैंने	PRP	<fs af='मैं,pn,any,sg,1,o,ने,ne' drel='k1:किया' posn='60' name='मैंने' chunkId='NP2' chunkType='head:NP2'>
7	उंगली	NN	<fs af='उंगली,n,f,sg,3,o,0_से,0' drel='k3:किया' posn='70' vpos='vib_2' name='उंगली' chunkId='NP3' chunkType='head:NP3'>
8	से	PSP	<fs af='से,psp,,,,,,' posn='80' drel='lwg__psp:उंगली' chunkType='child:NP3' name='से'>
9	इशारा	NN	<fs af='इशारा,n,m,sg,3,d,0,0' drel='pof:किया' posn='90' name='इशारा' chunkId='NP4' chunkType='head:NP4'>
10	किया	VM	<fs af='कर,v,m,sg,any,,या_था,yA' drel='ccof:कि' stype='declarative' posn='100' voicetype='active' vpos='tam_2' name='किया' chunkId='VGF2' chunkType='head:VGF2'>
11	था	VAUX	<fs af='था,v,m,sg,any,,था,WA' posn='110' drel='lwg__vaux:किया' chunkType='child:VGF2' name='था'>
12	।	SYM	<fs af='।,punc,,,,,,' drel='rsym:लेकिन' posn='120' name='।' chunkId='BLK' chunkType='head:BLK'>
</Sentence>


<Sentence id="9">
1	उन्होंने	PRP	<fs af='वह,pn,any,sg,3h,o,ने,ne' drel='k1:कहा' posn='10' name='उन्होंने' chunkId='NP' chunkType='head:NP'>
2	यह	PRP	<fs af='यह,pn,any,sg,3,d,0,0' drel='k2:कहा' posn='20' name='यह' chunkId='NP2' chunkType='head:NP2'>
3	भी	RP	<fs af='भी,avy,,,,,,' posn='30' drel='lwg__rp:यह' chunkType='child:NP2' name='भी'>
4	कहा	VM	<fs af='कह,v,m,sg,any,,या,yA' stype='declarative' posn='40' voicetype='active' name='कहा' chunkId='VGF' chunkType='head:VGF'>
5	कि	CC	<fs af='कि,avy,,,,,,' drel='rs:यह' posn='50' name='कि' chunkId='CCP' chunkType='head:CCP'>
6	विभिन्न	JJ	<fs af='विभिन्न,adj,any,any,,o,,' posn='60' drel='nmod__adj:चैनलों' chunkType='child:NP3' name='विभिन्न'>
7	न्यूज़	NNC	<fs af='न्यूज़,n,f,sg,3,d,0,0' posn='70' drel='pof__cn:चैनलों' chunkType='child:NP3' name='न्यूज़'>
8	चैनलों	NN	<fs af='चैनल,n,m,pl,3,o,0_पर,0' drel='k7:दिखाई' posn='80' vpos='vib_4' name='चैनलों' chunkId='NP3' chunkType='head:NP3'>
9	पर	PSP	<fs af='पर,psp,,,,,,' posn='90' drel='lwg__psp:चैनलों' chunkType='child:NP3' name='पर'>
10	जो	DEM	<fs af='जो,pn,any,sg,3,d,,' posn='100' drel='nmod__adj:तस्वीर' chunkType='child:NP4' name='जो'>
11	तस्वीर	NN	<fs af='तस्वीर,n,f,sg,3,d,0,0' drel='k2:दिखाई' posn='110' name='तस्वीर' chunkId='NP4' chunkType='head:NP4'>
12	दिखाई	VM	<fs af='दिखा,v,f,sg,3,,या_जा+या१_है,yA' drel='ccof:कि' stype='declarative' posn='120' voicetype='passive' vpos='tam_2_3' name='दिखाई' chunkId='VGF2' chunkType='head:VGF2'>
13	गई	VAUX	<fs af='जा,v,f,sg,any,,या१,yA1' posn='130' drel='lwg__vaux:दिखाई' chunkType='child:VGF2' name='गई'>
14	है	VAUX	<fs af='है,v,any,sg,3,,है,hE' posn='140' drel='lwg__vaux:दिखाई' chunkType='child:VGF2' name='है'>
15	,	SYM	<fs af='COMMA,punc,,,,,,' posn='150' drel='rsym:दिखाई' chunkType='child:VGF2' name=','>
16	वह	PRP	<fs af='वह,pn,any,sg,3,d,0,0' drel='k1:है2' posn='160' coref='corf:NP4' name='वह' chunkId='NP5' chunkType='head:NP5'>
17	सही	JJ	<fs af='सही,adj,any,any,,,,' drel='k1s:है2' posn='170' name='सही' chunkId='JJP' chunkType='head:JJP'>
18	है	VM	<fs af='है,v,any,sg,3,,है,hE' drel='nmod__relc:तस्वीर' stype='declarative' posn='180' voicetype='active' name='है2' chunkId='VGF3' chunkType='head:VGF3'>
19	।	SYM	<fs af='।,punc,,,,,,' drel='rsym:कहा' posn='190' name='।' chunkId='BLK' chunkType='head:BLK'>
</Sentence>


<Sentence id="10">
1	चैपल	NNP	<fs af='चैपल,n,any,sg,3,o,0_ने,0' drel='k1:किया' posn='10' vpos='vib_2' name='चैपल' chunkId='NP' chunkType='head:NP'>
2	ने	PSP	<fs af='ने,psp,,,,,,' posn='20' drel='lwg__psp:चैपल' chunkType='child:NP' name='ने'>
3	कोलकता	NNP	<fs af='कोलकाता,n,m,sg,3,o,0_का,0' drel='r6:लोगों' posn='30' vpos='vib_2' name='कोलकता' chunkId='NP2' chunkType='head:NP2'>
4	के	PSP	<fs af='का,psp,m,pl,,o,,' posn='40' drel='lwg__psp:कोलकता' chunkType='child:NP2' name='के'>
5	लोगों	NN	<fs af='लोग,n,m,pl,3,o,0_का,0' drel='r6:व्यवहार' posn='50' vpos='vib_2' name='लोगों' chunkId='NP3' chunkType='head:NP3'>
6	के	PSP	<fs af='का,psp,m,sg,,o,,' posn='60' drel='lwg__psp:लोगों' chunkType='child:NP3' name='के2'>
7	व्यवहार	NN	<fs af='व्यवहार,n,m,sg,3,o,0_पर,0' drel='k7:किया' posn='70' vpos='vib_2_RP' name='व्यवहार' chunkId='NP4' chunkType='head:NP4'>
8	पर	PSP	<fs af='पर,psp,,,,,,' posn='80' drel='lwg__psp:व्यवहार' chunkType='child:NP4' name='पर'>
9	भी	RP	<fs af='भी,avy,,,,,,' posn='90' drel='lwg__rp:व्यवहार' chunkType='child:NP4' name='भी'>
10	दुख	NN	<fs af='दुख,n,m,sg,3,d,0,0' drel='k2:किया' posn='100' name='दुख' chunkId='NP5' chunkType='head:NP5'>
11	प्रकट	JJ	<fs af='प्रकट,adj,any,any,,,,' drel='pof:किया' posn='110' name='प्रकट' chunkId='JJP' chunkType='head:JJP'>
12	किया	VM	<fs af='कर,v,m,sg,3,,या_है,yA' stype='declarative' posn='120' voicetype='active' vpos='tam_2' name='किया' chunkId='VGF' chunkType='head:VGF'>
13	है	VAUX	<fs af='है,v,any,sg,3,,है,hE' posn='130' drel='lwg__vaux:किया' chunkType='child:VGF' name='है'>
14	।	SYM	<fs af='।,punc,,,,,,' drel='rsym:किया' posn='140' name='।' chunkId='BLK' chunkType='head:BLK'>
</Sentence>


<Sentence id="11">
1	उन्होंने	PRP	<fs af='वह,pn,any,sg,3h,o,ने,ne' drel='k1:कहा' posn='10' name='उन्होंने' chunkId='NP' chunkType='head:NP'>
2	कहा	VM	<fs af='कह,v,m,sg,any,,या,yA' stype='declarative' posn='20' voicetype='active' name='कहा' chunkId='VGF' chunkType='head:VGF'>
3	कि	CC	<fs af='कि,avy,,,,,,' drel='k2:कहा' posn='30' name='कि' chunkId='CCP' chunkType='head:CCP'>
4	कोलकता	NNP	<fs af='कोलकाता,n,m,sg,3,o,0_में,0' drel='k7p:था' posn='40' vpos='vib_2' name='कोलकता' chunkId='NP2' chunkType='head:NP2'>
5	में	PSP	<fs af='में,psp,,,,,,' posn='50' drel='lwg__psp:कोलकता' chunkType='child:NP2' name='में'>
6	उस	DEM	<fs af='वह,pn,any,sg,3,d,,' posn='60' drel='nmod__adj:दिन' chunkType='child:NP3' name='उस'>
7	दिन	NN	<fs af='दिन,n,m,sg,3,d,0,0' drel='k7t:था' posn='70' name='दिन' chunkId='NP3' chunkType='head:NP3'>
8	मैच	NN	<fs af='मैच,n,m,sg,3,o,0_के_दौरान,0' drel='k7t:था' posn='80' vpos='vib_2_3_RP' name='मैच' chunkId='NP4' chunkType='head:NP4'>
9	के	PSP	<fs af='के,psp,,,,,,' posn='90' drel='lwg__psp:मैच' chunkType='child:NP4' name='के'>
10	दौरान	NST	<fs af='दौरान,nst,m,sg,3,d,,' posn='100' drel='lwg__psp:मैच' chunkType='child:NP4' name='दौरान'>
11	भी	RP	<fs af='भी,avy,,,,,,' posn='110' drel='lwg__rp:मैच' chunkType='child:NP4' name='भी'>
12	क्रिकेट	NNC	<fs af='क्रिकेट,n,m,sg,3,d,0,0' posn='120' drel='pof__cn:प्रेमियों' chunkType='child:NP5' name='क्रिकेट'>
13	प्रेमियों	NN	<fs af='प्रेमी,n,m,pl,3,o,0_का,0' drel='r6:व्यवहार' posn='130' vpos='vib_3' name='प्रेमियों' chunkId='NP5' chunkType='head:NP5'>
14	का	PSP	<fs af='का,psp,m,sg,,d,,' posn='140' drel='lwg__psp:प्रेमियों' chunkType='child:NP5' name='का'>
15	व्यवहार	NN	<fs af='व्यवहार,n,m,sg,3,d,0,0' drel='k1:था' posn='150' name='व्यवहार' chunkId='NP6' chunkType='head:NP6'>
16	कल्पना	NN	<fs af='कल्पना,n,f,sg,3,o,0_से_परे,0' drel='ccof:और' posn='160' vpos='vib_2_3' name='कल्पना' chunkId='NP7' chunkType='head:NP7'>
17	से	PSP	<fs af='से,psp,,,,,,' posn='170' drel='lwg__psp:कल्पना' chunkType='child:NP7' name='से'>
18	परे	NST	<fs af='परे,nst,m,sg,3,d,,' posn='180' drel='lwg__psp:कल्पना' chunkType='child:NP7' name='परे'>
19	,	SYM	<fs af='COMMA,punc,,,,,,' posn='190' drel='rsym:कल्पना' chunkType='child:NP7' name=','>
20	विचित्र	JJ	<fs af='विचित्र,adj,any,any,,,,' drel='ccof:और' posn='200' name='विचित्र' chunkId='JJP' chunkType='head:JJP'>
21	और	CC	<fs af='और,avy,,,,,,' drel='k1s:था' posn='210' name='और' chunkId='CCP2' chunkType='head:CCP2'>
22	प्रतिकूल	JJ	<fs af='प्रतिकूल,adj,any,any,,,,' drel='ccof:और' posn='220' name='प्रतिकूल' chunkId='JJP2' chunkType='head:JJP2'>
23	था	VM	<fs af='था,v,m,sg,any,,था,WA' drel='ccof:कि' stype='declarative' posn='230' voicetype='active' name='था' chunkId='VGF2' chunkType='head:VGF2'>
24	।	SYM	<fs af='।,punc,,,,,,' drel='rsym:कहा' posn='240' name='।' chunkId='BLK' chunkType='head:BLK'>
</Sentence>


<Sentence id="12">
1	मुझे	PRP	<fs af='मैं,pn,any,sg,1,o,को,ko' drel='k2:उकसाने' posn='10' name='मुझे' chunkId='NP' chunkType='head:NP'>
2	उकसाने	VM	<fs af='उकसा,v,any,sg,any,o,ना_का,nA' drel='r6-k2:कोशिश' posn='20' vpos='tam_2' name='उकसाने' chunkId='VGNN' chunkType='head:VGNN'>
3	की	PSP	<fs af='का,psp,f,sg,,d,,' posn='30' drel='lwg__psp:उकसाने' chunkType='child:VGNN' name='की'>
4	भरपूर	JJ	<fs af='भरपूर,adj,any,any,,d,,' posn='40' drel='nmod__adj:कोशिश' chunkType='child:NP2' name='भरपूर'>
5	कोशिश	NN	<fs af='कोशिश,n,f,sg,3,d,0,0' drel='pof:की2' posn='50' name='कोशिश' chunkId='NP2' chunkType='head:NP2'>
6	की	VM	<fs af='कर,v,f,sg,any,,या_जा+या१,yA' stype='declarative' posn='60' voicetype='passive' vpos='tam_2' name='की2' chunkId='VGF' chunkType='head:VGF'>
7	गई	VAUX	<fs af='जा,v,f,sg,any,,या१,yA1' posn='70' drel='lwg__vaux:की2' chunkType='child:VGF' name='गई'>
8	।	SYM	<fs af='।,punc,,,,,,' drel='rsym:की2' posn='80' name='।' chunkId='BLK' chunkType='head:BLK'>
</Sentence>


<Sentence id="13">
1	लोग	NN	<fs af='लोग,n,m,pl,3,d,0,0' drel='k1:चिल्ला' posn='10' name='लोग' chunkId='NP' chunkType='head:NP'>
2	मेरा	PRP	<fs af='मैं,pn,m,sg,1,o,का,kA' drel='r6:नाम' posn='20' name='मेरा' chunkId='NP2' chunkType='head:NP2'>
3	नाम	NN	<fs af='नाम,n,m,sg,3,d,0,0' drel='k2:लेकर' posn='30' name='नाम' chunkId='NP3' chunkType='head:NP3'>
4	लेकर	VM	<fs af='ले,v,any,any,any,,कर,kara' drel='vmod:चिल्ला' posn='40' name='लेकर' chunkId='VGNF' chunkType='head:VGNF'>
5	चिल्ला	VM	<fs af='चिल्ला,v,m,pl,any,,0_रह+या_था,0' stype='declarative' posn='50' voicetype='active' vpos='tam_2_3' name='चिल्ला' chunkId='VGF' chunkType='head:VGF'>
6	रहे	VAUX	<fs af='रह,v,m,pl,any,,या,yA' posn='60' drel='lwg__vaux:चिल्ला' chunkType='child:VGF' name='रहे'>
7	थे	VAUX	<fs af='था,v,m,pl,any,,था,WA' posn='70' drel='lwg__vaux:चिल्ला' chunkType='child:VGF' name='थे'>
8	।	SYM	<fs af='।,punc,,,,,,' drel='rsym:चिल्ला' posn='80' name='।' chunkId='BLK' chunkType='head:BLK'>
</Sentence>


<Sentence id="14">
1	इस	DEM	<fs af='यह,pn,any,sg,3,o,,' posn='10' drel='nmod__adj:खुलासे' chunkType='child:NP' name='इस'>
2	खुलासे	NN	<fs af='खुलासा,n,m,sg,3,o,0_के_बावजूद,0' drel='vmod:साध' posn='20' vpos='vib_3_4' name='खुलासे' chunkId='NP' chunkType='head:NP'>
3	के	PSP	<fs af='के,psp,,,,,,' posn='30' drel='lwg__psp:खुलासे' chunkType='child:NP' name='के'>
4	बावजूद	PSP	<fs af='बावजूद,psp,,,,,,' posn='40' drel='lwg__psp:खुलासे' chunkType='child:NP' name='बावजूद'>
5	रविवार	NNP	<fs af='रविवार,n,m,sg,3,d,0,0' posn='50' drel='nmod__adj:शाम' chunkType='child:NP2' name='रविवार'>
6	शाम	NN	<fs af='शाम,n,f,sg,3,d,0,0' drel='k7t:साध' posn='60' name='शाम' chunkId='NP2' chunkType='head:NP2'>
7	भारतीय	JJ	<fs af='भारतीय,adj,any,any,,o,,' posn='70' drel='nmod__adj:टीम' chunkType='child:NP3' name='भारतीय'>
8	टीम	NN	<fs af='टीम,n,f,sg,3,o,0_का,0' drel='r6:कप्तान' posn='80' vpos='vib_3' name='टीम' chunkId='NP3' chunkType='head:NP3'>
9	के	PSP	<fs af='का,psp,m,sg,,o,,' posn='90' drel='lwg__psp:टीम' chunkType='child:NP3' name='के2'>
10	कप्तान	NN	<fs af='कप्तान,n,m,sg,3,o,0,0' drel='nmod:द्रविड़' posn='100' name='कप्तान' chunkId='NP4' chunkType='head:NP4'>
11	राहुल	NNPC	<fs af='राहुल,n,m,sg,3,d,0,0' posn='110' drel='pof__cn:द्रविड़' chunkType='child:NP5' name='राहुल'>
12	द्रविड़	NNP	<fs af='द्रविड,n,any,sg,3,o,0,0' drel='ccof:और' posn='120' name='द्रविड़' chunkId='NP5' chunkType='head:NP5'>
13	और	CC	<fs af='और,avy,,,,,,' drel='ras-k1:साध' posn='130' name='और' chunkId='CCP' chunkType='head:CCP'>
14	मीडिया	NNC	<fs af='मीडिया,n,m,sg,3,d,0,0' posn='140' drel='pof__cn:मैनेजर' chunkType='child:NP6' name='मीडिया'>
15	मैनेजर	NN	<fs af='मैनेजर,n,m,sg,3,o,0,0' drel='nmod:बालादित्य' posn='150' name='मैनेजर' chunkId='NP6' chunkType='head:NP6'>
16	बालादित्य	NNP	<fs af='बालादित्य,n,m,sg,3,o,0_के_साथ,0' drel='ccof:और' posn='160' vpos='vib_2_3' name='बालादित्य' chunkId='NP7' chunkType='head:NP7'>
17	के	PSP	<fs af='के,psp,,,,,,' posn='170' drel='lwg__psp:बालादित्य' chunkType='child:NP7' name='के3'>
18	साथ	NST	<fs af='साथ,nst,m,sg,3,d,,' posn='180' drel='lwg__psp:बालादित्य' chunkType='child:NP7' name='साथ'>
19	प्रेस	NNC	<fs af='प्रेस,n,f,sg,3,d,0,0' posn='190' drel='pof__cn:कांफ्रेंस' chunkType='child:NP8' name='प्रेस'>
20	कांफ्रेंस	NN	<fs af='कांफ्रेंस,n,f,sg,3,o,0_में,0' drel='k7:साध' posn='200' vpos='vib_3' name='कांफ्रेंस' chunkId='NP8' chunkType='head:NP8'>
21	में	PSP	<fs af='में,psp,,,,,,' posn='210' drel='lwg__psp:कांफ्रेंस' chunkType='child:NP8' name='में'>
22	अपनी	PRP	<fs af='अपना,pn,f,any,any,o,0,0' drel='r6:साफगोई' posn='220' name='अपनी' chunkId='NP9' chunkType='head:NP9'>
23	साफगोई	NN	<fs af='साफगोई,n,f,sg,3,o,0,0' drel='ccof:और2' posn='230' name='साफगोई' chunkId='NP10' chunkType='head:NP10'>
24	और	CC	<fs af='और,avy,,,,,,' drel='jjmod:विख्यात' posn='240' name='और2' chunkId='CCP2' chunkType='head:CCP2'>
25	सख्ती	NN	<fs af='सख्ती,n,f,sg,3,o,0_के_लिए,0' drel='ccof:और2' posn='250' vpos='vib_2_3' name='सख्ती' chunkId='NP11' chunkType='head:NP11'>
26	के	PSP	<fs af='के,psp,,,,,,' posn='260' drel='lwg__psp:सख्ती' chunkType='child:NP11' name='के4'>
27	लिए	PSP	<fs af='लिए,psp,,,,,,' posn='270' drel='lwg__psp:सख्ती' chunkType='child:NP11' name='लिए'>
28	विख्यात	JJ	<fs af='विख्यात,adj,any,any,,d,,' drel='nmod:चैपल' posn='280' name='विख्यात' chunkId='JJP' chunkType='head:JJP'>
29	ग्रेग	NNPC	<fs af='ग्रेग,n,m,sg,3,d,0,0' posn='290' drel='pof__cn:चैपल' chunkType='child:NP12' name='ग्रेग'>
30	चैपल	NNP	<fs af='चैपल,n,any,sg,3,d,0,0' drel='k1:साध' posn='300' name='चैपल' chunkId='NP12' chunkType='head:NP12'>
31	इशारे	NN	<fs af='इशारा,n,m,sg,3,o,0_का,0' drel='r6:सवाल' posn='310' vpos='vib_2' name='इशारे' chunkId='NP13' chunkType='head:NP13'>
32	के	PSP	<fs af='का,psp,m,sg,,o,,' posn='320' drel='lwg__psp:इशारे' chunkType='child:NP13' name='के5'>
33	सवाल	NN	<fs af='सवाल,n,m,sg,3,o,0_पर,0' drel='k7:साध' posn='330' vpos='vib_2' name='सवाल' chunkId='NP14' chunkType='head:NP14'>
34	पर	PSP	<fs af='पर,psp,,,,,,' posn='340' drel='lwg__psp:सवाल' chunkType='child:NP14' name='पर'>
35	चुप्पी	NN	<fs af='चुप्पी,n,f,sg,3,d,0,0' drel='pof:साध' posn='350' name='चुप्पी' chunkId='NP15' chunkType='head:NP15'>
36	साध	VM	<fs af='साध,v,any,pl,any,any,0_जा+या१,0' stype='declarative' posn='360' voicetype='active' vpos='tam_2' name='साध' chunkId='VGF' chunkType='head:VGF'>
37	गए	VAUX	<fs af='जा,v,m,pl,any,,या१,yA1' posn='370' drel='lwg__vaux:साध' chunkType='child:VGF' name='गए'>
38	।	SYM	<fs af='।,punc,,,,,,' drel='rsym:साध' posn='380' name='।' chunkId='BLK' chunkType='head:BLK'>
</Sentence>


<Sentence id="15">
1	बाद	NST	<fs af='बाद,nst,m,sg,3,o,0_में,' drel='k7t:की2' posn='10' vpos='2' name='बाद' chunkId='NP' chunkType='head:NP'>
2	में	PSP	<fs af='में,psp,,,,,,' posn='20' drel='lwg__psp:बाद' chunkType='child:NP' name='में'>
3	उनकी	PRP	<fs af='वह,pn,f,sg,3h,o,0_तरफ_से,kA' drel='rd:की2' posn='30' vpos='vib_2_3' name='उनकी' chunkId='NP2' chunkType='head:NP2'>
4	तरफ़	NST	<fs af='तरफ,nst,f,sg,3,o,,' posn='40' drel='lwg__psp:उनकी' chunkType='child:NP2' name='तरफ़'>
5	से	PSP	<fs af='से,psp,,,,,,' posn='50' drel='lwg__psp:उनकी' chunkType='child:NP2' name='से'>
6	बालादित्य	NNP	<fs af='बालादित्य,n,m,sg,3,d,0,0' drel='k1:की2' posn='60' name='बालादित्य' chunkId='NP3' chunkType='head:NP3'>
7	यह	PRP	<fs af='यह,pn,any,sg,3,d,0,0' drel='k2:कहकर' posn='70' name='यह' chunkId='NP4' chunkType='head:NP4'>
8	कहकर	VM	<fs af='कह,v,any,any,any,,कर,kara' drel='vmod:टालने' posn='80' name='कहकर' chunkId='VGNF' chunkType='head:VGNF'>
9	बात	NN	<fs af='बात,n,f,sg,3,d,0,0' drel='k2:टालने' posn='90' name='बात' chunkId='NP5' chunkType='head:NP5'>
10	टालने	VM	<fs af='टाल,v,any,sg,any,o,ना_का,nA' drel='r6-k2:कोशिश' posn='100' vpos='tam_2' name='टालने' chunkId='VGNN' chunkType='head:VGNN'>
11	की	PSP	<fs af='का,psp,f,sg,,d,,' posn='110' drel='lwg__psp:टालने' chunkType='child:VGNN' name='की'>
12	कोशिश	NN	<fs af='कोशिश,n,f,sg,3,d,0,0' drel='pof:की2' posn='120' name='कोशिश' chunkId='NP6' chunkType='head:NP6'>
13	की	VM	<fs af='कर,v,f,sg,any,,या,yA' stype='declarative' posn='130' voicetype='active' name='की2' chunkId='VGF' chunkType='head:VGF'>
14	कि	CC	<fs af='कि,avy,,,,,,' drel='k2:की2' posn='140' name='कि' chunkId='CCP' chunkType='head:CCP'>
15	ऐसी	DEM	<fs af='ऐसा,pn,f,sg,3,d,,' posn='150' drel='nmod__adj:घटना' chunkType='child:NP7' name='ऐसी'>
16	कोई	PRP	<fs af='कोई,pn,any,sg,3,d,0,0' posn='160' drel='nmod__adj:घटना' chunkType='child:NP7' name='कोई'>
17	घटना	NN	<fs af='घटना,n,f,sg,3,d,0,0' drel='k2:हुई' posn='170' name='घटना' chunkId='NP7' chunkType='head:NP7'>
18	हुई	VM	<fs af='हो,v,f,sg,any,,या,yA' drel='ccof:कि' stype='declarative' posn='180' voicetype='active' name='हुई' chunkId='VGF2' chunkType='head:VGF2'>
19	ही	RP	<fs af='ही,avy,,,,,,' posn='190' drel='lwg__rp:हुई' chunkType='child:VGF2' name='ही'>
20	नहीं	NEG	<fs af='नहीं,avy,,,,,,' posn='200' drel='lwg__neg:हुई' chunkType='child:VGF2' name='नहीं'>
21	।	SYM	<fs af='।,punc,,,,,,' drel='rsym:की2' posn='210' name='।' chunkId='BLK' chunkType='head:BLK'>
</Sentence>


<Sentence id="16">
1	पत्रकारों	NN	<fs af='पत्रकार,n,m,pl,3,o,0_का,0' drel='r6:सवालों' posn='10' vpos='vib_2' name='पत्रकारों' chunkId='NP' chunkType='head:NP'>
2	के	PSP	<fs af='का,psp,m,pl,,o,,' posn='20' drel='lwg__psp:पत्रकारों' chunkType='child:NP' name='के'>
3	सवालों	NN	<fs af='सवाल,n,m,pl,3,o,0_पर,0' drel='k7:कहते' posn='30' vpos='vib_2' name='सवालों' chunkId='NP2' chunkType='head:NP2'>
4	पर	PSP	<fs af='पर,psp,,,,,,' posn='40' drel='lwg__psp:सवालों' chunkType='child:NP2' name='पर'>
5	बालादित्य	NNP	<fs af='बालादित्य,n,m,sg,3,d,0,0' drel='k1:कहते' posn='50' name='बालादित्य' chunkId='NP3' chunkType='head:NP3'>
6	बार	RB	<fs af='बार,adv,,,,,,' drel='adv:कहते' posn='60' name='बार' chunkId='RBP' chunkType='head:RBP'>
7	-	SYM	<fs af='-,punc,,,,,,' posn='70' drel='rsym:बार' chunkType='child:RBP' name='-'>
8	बार	RDP	<fs af='बार,adv,,,,,,' posn='80' drel='mod:बार' chunkType='child:RBP' name='बार2'>
9	कहते	VM	<fs af='कह,v,m,sg,3h,,ता_रह+या,wA' stype='declarative' posn='90' voicetype='active' vpos='tam_2' name='कहते' chunkId='VGF' chunkType='head:VGF'>
10	रहे	VAUX	<fs af='रह,v,m,sg,3h,,या,yA' posn='100' drel='lwg__vaux:कहते' chunkType='child:VGF' name='रहे'>
11	कि	CC	<fs af='कि,avy,,,,,,' drel='k2:कहते' posn='110' name='कि' chunkId='CCP' chunkType='head:CCP'>
12	चैपल	NNP	<fs af='चैपल,n,any,sg,3,d,0,0' drel='k1:दिखा' posn='120' name='चैपल' chunkId='NP4' chunkType='head:NP4'>
13	केवल	RP	<fs af='केवल,avy,,,,,,' posn='130' drel='lwg__rp:अपनी' chunkType='child:NP5' name='केवल'>
14	अपनी	PRP	<fs af='अपना,pn,f,any,any,d,0,0' drel='r6:उंगली' posn='140' name='अपनी' chunkId='NP5' chunkType='head:NP5'>
15	चोटिल	JJ	<fs af='चोटिल,adj,any,any,,d,,' posn='150' drel='nmod__adj:उंगली' chunkType='child:NP6' name='चोटिल'>
16	उंगली	NN	<fs af='उंगली,n,m,sg,3,d,0,0' drel='k2:दिखा' posn='160' name='उंगली' chunkId='NP6' chunkType='head:NP6'>
17	दिखा	VM	<fs af='दिखा,v,m,sg,3h,,या_रह+या_था,yA' drel='ccof:कि' stype='declarative' posn='180' voicetype='active' vpos='tam_2_3' name='दिखा' chunkId='VGF2' chunkType='head:VGF2'>
18	रहे	VAUX	<fs af='रह,v,m,sg,3h,,या,yA' posn='180' drel='lwg__vaux:दिखा' chunkType='child:VGF2' name='रहे2'>
19	थे	VAUX	<fs af='था,v,m,sg,3h,,था,WA' posn='190' drel='lwg__vaux:दिखा' chunkType='child:VGF2' name='थे'>
20	।	SYM	<fs af='।,punc,,,,,,' drel='rsym:कहते' posn='200' name='।' chunkId='BLK' chunkType='head:BLK'>
</Sentence>


<Sentence id="17">
1	उन्होंने	PRP	<fs af='वह,pn,any,sg,3h,o,ने,ne' drel='k1:कहा' posn='10' name='उन्होंने' chunkId='NP' chunkType='head:NP'>
2	कहा	VM	<fs af='कह,v,m,sg,any,,या,yA' stype='declarative' posn='20' voicetype='active' name='कहा' chunkId='VGF' chunkType='head:VGF'>
3	कि	CC	<fs af='कि,avy,,,,,,' drel='k2:कहा' posn='30' name='कि' chunkId='CCP' chunkType='head:CCP'>
4	टीम	NN	<fs af='टीम,n,f,sg,3,o,0_का,0' drel='r6:सदस्य' posn='40' vpos='vib_2' name='टीम' chunkId='NP2' chunkType='head:NP2'>
5	के	PSP	<fs af='का,psp,m,pl,,d,,' posn='50' drel='lwg__psp:टीम' chunkType='child:NP2' name='के'>
6	सभी	QF	<fs af='सभी,avy,,,,,,' posn='60' drel='nmod__adj:सदस्य' chunkType='child:NP3' name='सभी'>
7	सदस्य	NN	<fs af='सदस्य,n,m,pl,3,d,0,0' drel='ccof:और' posn='70' name='सदस्य' chunkId='NP3' chunkType='head:NP3'>
8	और	CC	<fs af='और,avy,,,,,,' drel='k1:करते' posn='80' name='और' chunkId='CCP2' chunkType='head:CCP2'>
9	कोच	NN	<fs af='कोच,n,m,sg,3,d,0,0' drel='nmod:चैपल' posn='90' name='कोच' chunkId='NP4' chunkType='head:NP4'>
10	ग्रेग	NNPC	<fs af='ग्रेग,n,m,sg,3,d,0,0' posn='100' drel='pof__cn:चैपल' chunkType='child:NP5' name='ग्रेग'>
11	चैपल	NNP	<fs af='चैपल,n,any,sg,3,d,0,0' drel='ccof:और' posn='110' name='चैपल' chunkId='NP5' chunkType='head:NP5'>
12	भारतीय	JJ	<fs af='भारतीय,adj,any,any,,o,,' posn='120' drel='nmod__adj:प्रेमियों' chunkType='child:NP6' name='भारतीय'>
13	क्रिकेट	NNC	<fs af='क्रिकेट,n,m,sg,3,d,0,0' posn='130' drel='pof__cn:प्रेमियों' chunkType='child:NP6' name='क्रिकेट'>
14	प्रेमियों	NN	<fs af='प्रेमी,n,m,pl,3,o,0_का,0' drel='r6-k2:सम्मान' posn='140' vpos='vib_4' name='प्रेमियों' chunkId='NP6' chunkType='head:NP6'>
15	का	PSP	<fs af='का,psp,m,sg,,d,,' posn='150' drel='lwg__psp:प्रेमियों' chunkType='child:NP6' name='का'>
16	सम्मान	NN	<fs af='सम्मान,n,m,sg,3,d,0,0' drel='pof:करते' posn='160' name='सम्मान' chunkId='NP7' chunkType='head:NP7'>
17	करते	VM	<fs af='कर,v,m,pl,3,,ता_है,wA' drel='ccof:कि' stype='declarative' posn='170' voicetype='active' vpos='tam_2' name='करते' chunkId='VGF2' chunkType='head:VGF2'>
18	हैं	VAUX	<fs af='है,v,any,pl,3,,है,hE' posn='180' drel='lwg__vaux:करते' chunkType='child:VGF2' name='हैं'>
19	।	SYM	<fs af='।,punc,,,,,,' drel='rsym:कहा' posn='190' name='।' chunkId='BLK' chunkType='head:BLK'>
</Sentence>


<Sentence id="18">
1	चैपल	NNP	<fs af='चैपल,n,any,sg,3,o,0_को,0' drel='k4a:लगी' posn='10' vpos='vib_2' name='चैपल' chunkId='NP' chunkType='head:NP'>
2	को	PSP	<fs af='को,psp,,,,,,' posn='20' drel='lwg__psp:चैपल' chunkType='child:NP' name='को'>
3	अभ्यास	NNC	<fs af='अभ्यास,n,m,sg,3,d,0,0' posn='30' drel='pof__cn:सत्र' chunkType='child:NP2' name='अभ्यास'>
4	सत्र	NN	<fs af='सत्र,n,m,sg,3,o,0_के_दौरान,0' drel='k7t:लगी' posn='40' vpos='vib_3_4' name='सत्र' chunkId='NP2' chunkType='head:NP2'>
5	के	PSP	<fs af='के,psp,,,,,,' posn='50' drel='lwg__psp:सत्र' chunkType='child:NP2' name='के'>
6	दौरान	NST	<fs af='दौरान,nst,m,sg,3,d,,' posn='60' drel='lwg__psp:सत्र' chunkType='child:NP2' name='दौरान'>
7	चोट	NN	<fs af='चोट,n,f,sg,3,d,0,0' drel='pof:लगी' posn='70' name='चोट' chunkId='NP3' chunkType='head:NP3'>
8	लगी	VM	<fs af='लग,v,f,sg,any,,या_था,yA' drel='ccof:और' stype='declarative' posn='80' voicetype='active' vpos='tam_2' name='लगी' chunkId='VGF' chunkType='head:VGF'>
9	थी	VAUX	<fs af='था,v,f,sg,any,,था,WA' posn='90' drel='lwg__vaux:लगी' chunkType='child:VGF' name='थी'>
10	और	CC	<fs af='और,avy,,,,,,' posn='100' name='और' chunkId='CCP' chunkType='head:CCP'>
11	बात	NN	<fs af='बात,n,f,sg,3,d,0,0' drel='k2:कर' posn='110' name='बात' chunkId='NP4' chunkType='head:NP4'>
12	अब	PRP	<fs af='अब,pn,,,,d,,' drel='k7t:कर' posn='120' name='अब' chunkId='NP5' chunkType='head:NP5'>
13	यहीं	PRP	<fs af='यहीं,pn,,,,d,,' drel='k7p:कर' posn='130' name='यहीं' chunkId='NP6' chunkType='head:NP6'>
14	ख़त्म	JJ	<fs af='खत्म,adj,any,any,,,,' drel='pof:कर' posn='140' name='ख़त्म' chunkId='JJP' chunkType='head:JJP'>
15	कर	VM	<fs af='कर,v,f,any,any,,0_दे+या_जा+ना_चाहिए,0' drel='ccof:और' stype='declarative' posn='150' voicetype='active' vpos='tam_2_3_4' name='कर' chunkId='VGF2' chunkType='head:VGF2'>
16	दी	VAUX	<fs af='दे,v,f,sg,any,,या,yA' posn='160' drel='lwg__vaux:कर' chunkType='child:VGF2' name='दी'>
17	जानी	VAUX	<fs af='जा,v,f,sg,any,,ना,nA' posn='170' drel='lwg__vaux:कर' chunkType='child:VGF2' name='जानी'>
18	चाहिए	VAUX	<fs af='चाहिए,v,any,any,any,,0,0' posn='180' drel='lwg__vaux:कर' chunkType='child:VGF2' name='चाहिए'>
19	।	SYM	<fs af='।,punc,,,,,,' drel='rsym:और' posn='190' name='।' chunkId='BLK' chunkType='head:BLK'>
</Sentence>


<Sentence id="19">
1	NULL	PRP	<fs mtype='gap' troot='यह' dmrel='k1:है' name='NULL' chunkId='NULL__NP' chunkType='head:NULL__NP'>
2	उल्लेखनीय	JJ	<fs af='उल्लेखनीय,adj,any,any,,,,' drel='k1s:है' posn='10' name='उल्लेखनीय' chunkId='JJP' chunkType='head:JJP'>
3	है	VM	<fs af='है,v,any,sg,3,,है,hE' stype='declarative' posn='20' voicetype='active' name='है' chunkId='VGF' chunkType='head:VGF'>
4	कि	CC	<fs af='कि,avy,,,,,,' drel='rs:NULL' posn='30' name='कि' chunkId='CCP' chunkType='head:CCP'>
5	कोलकता	NNP	<fs af='कोलकाता,n,m,sg,3,d,0,0' posn='40' drel='nmod__adj:डे' chunkType='child:NP' name='कोलकता'>
6	वन	NNC	<fs af='वन,num,any,any,,any,,' posn='90' drel='pof__cn:डे' chunkType='child:NP' name='वन'>
7	-	SYM	<fs af='-punc,,,,,,,' posn='60' drel='pof__cn:डे' chunkType='child:NP' name='-'>
8	डे	NN	<fs af='डे,n,m,sg,3,o,0_से_पहले,0' drel='k7t:किया' posn='70' vpos='vib_vib_5_6' name='डे' chunkId='NP' chunkType='head:NP'>
9	से	PSP	<fs af='से,psp,,,,,,' posn='80' drel='lwg__psp:डे' chunkType='child:NP' name='से'>
10	पहले	NST	<fs af='पहले,nst,m,sg,3,d,,' posn='90' drel='lwg__psp:डे' chunkType='child:NP' name='पहले'>
11	भारतीय	JJ	<fs af='भारतीय,adj,any,any,,o,,' posn='100' drel='nmod__adj:टीम' chunkType='child:NP2' name='भारतीय'>
12	टीम	NN	<fs af='टीम,n,f,sg,3,o,0_के_साथ,0' drel='ras-k1:किया' posn='110' vpos='vib_3_4' name='टीम' chunkId='NP2' chunkType='head:NP2'>
13	के	PSP	<fs af='के,psp,,,,,,' posn='120' drel='lwg__psp:टीम' chunkType='child:NP2' name='के'>
14	साथ	NST	<fs af='साथ,nst,m,sg,3,d,,' posn='130' drel='lwg__psp:टीम' chunkType='child:NP2' name='साथ'>
15	बस	NN	<fs af='बस,n,f,sg,3,o,0_में,0' drel='k7p:होते' posn='140' vpos='vib_2' name='बस' chunkId='NP3' chunkType='head:NP3'>
16	में	PSP	<fs af='में,psp,,,,,,' posn='150' drel='lwg__psp:बस' chunkType='child:NP3' name='में'>
17	सवार	JJ	<fs af='सवार,adj,any,any,,,,' drel='pof:होते' posn='160' name='सवार' chunkId='JJP2' chunkType='head:JJP2'>
18	होते	VM	<fs af='हो,v,any,any,any,o,ता_समय,wA' drel='k7t:किया' posn='170' vpos='tam_2' name='होते' chunkId='VGNN' chunkType='head:VGNN'>
19	समय	PSP	<fs af='समय,n,m,,,o,,' posn='150' drel='lwg__psp:होते' chunkType='child:VGNN' name='समय'>
20	चैपल	NNP	<fs af='चैपल,n,any,sg,3,o,0_ने,0' drel='k1:किया' posn='190' vpos='vib_2' name='चैपल' chunkId='NP4' chunkType='head:NP4'>
21	ने	PSP	<fs af='ने,psp,,,,,,' posn='200' drel='lwg__psp:चैपल' chunkType='child:NP4' name='ने'>
22	नारेबाजी	NN	<fs af='नारेबाजी,n,m,sg,3,d,0,0' drel='pof:कर' posn='210' name='नारेबाजी' chunkId='NP5' chunkType='head:NP5'>
23	कर	VM	<fs af='कर,v,any,pl,3,,0_रह+या,0' drel='nmod__k1inv:उंगली' posn='220' vpos='tam_2' name='कर' chunkId='VGNF' chunkType='head:VGNF'>
24	रहे	VAUX	<fs af='रह,v,m,pl,3,,या,yA' posn='230' drel='lwg__vaux:कर' chunkType='child:VGNF' name='रहे'>
25	सौरव	NNPC	<fs af='सौरव,n,m,sg,3,d,0,0' posn='240' drel='pof__cn:गांगुली' chunkType='child:NP6' name='सौरव'>
26	गांगुली	NNP	<fs af='गांगुली,n,m,sg,3,d,0,0' posn='250' drel='nmod__adj:समर्थकों' chunkType='child:NP6' name='गांगुली'>
27	समर्थकों	NN	<fs af='समर्थक,n,m,pl,3,o,0_का_ओर,0' drel='rd:किया' posn='260' vpos='vib_vib_4_5' name='समर्थकों' chunkId='NP6' chunkType='head:NP6'>
28	की	PSP	<fs af='का,psp,f,sg,,o,,' posn='270' drel='lwg__psp:समर्थकों' chunkType='child:NP6' name='की'>
29	ओर	NST	<fs af='ओर,nst,m,sg,3,o,,' posn='280' drel='lwg__psp:समर्थकों' chunkType='child:NP6' name='ओर'>
30	उंगली	NN	<fs af='उंगली,n,m,sg,3,o,0_से,0' drel='k3:किया' posn='290' vpos='vib_2' name='उंगली' chunkId='NP7' chunkType='head:NP7'>
31	से	PSP	<fs af='से,psp,,,,,,' posn='300' drel='lwg__psp:उंगली' chunkType='child:NP7' name='से2'>
32	इशारा	NN	<fs af='इशारा,n,m,sg,3,d,0,0' drel='pof:किया' posn='310' name='इशारा' chunkId='NP8' chunkType='head:NP8'>
33	किया	VM	<fs af='कर,v,m,sg,any,,या_था,yA' drel='ccof:कि' stype='declarative' posn='320' voicetype='active' vpos='tam_2' name='किया' chunkId='VGF2' chunkType='head:VGF2'>
34	था	VAUX	<fs af='था,v,m,sg,any,,था,WA' posn='330' drel='lwg__vaux:किया' chunkType='child:VGF2' name='था'>
35	।	SYM	<fs af='।,punc,,,,,,' drel='rsym:है' posn='340' name='।' chunkId='BLK' chunkType='head:BLK'>
</Sentence>


<Sentence id="20">
1	एक	QC	<fs af='एक,num,any,any,,any,,' posn='10' drel='nmod__adj:चैनल' chunkType='child:NP' name='एक'>
2	स्थानीय	JJ	<fs af='स्थानीय,adj,any,any,,o,,' posn='20' drel='nmod__adj:चैनल' chunkType='child:NP' name='स्थानीय'>
3	चैनल	NN	<fs af='चैनल,n,m,sg,3,o,0_का,0' drel='r6:कैमरामैन' posn='30' vpos='vib_4' name='चैनल' chunkId='NP' chunkType='head:NP'>
4	के	PSP	<fs af='का,psp,m,sg,,o,,' posn='40' drel='lwg__psp:चैनल' chunkType='child:NP' name='के'>
5	कैमरामैन	NN	<fs af='कैमरामैन,n,m,sg,3,o,0_ने,0' drel='k1:ली' posn='50' vpos='vib_2' name='कैमरामैन' chunkId='NP2' chunkType='head:NP2'>
6	ने	PSP	<fs af='ने,psp,,,,,,' posn='60' drel='lwg__psp:कैमरामैन' chunkType='child:NP2' name='ने'>
7	यह	DEM	<fs af='यह,pn,any,sg,3,d,,' posn='70' drel='nmod__adj:तस्वीर' chunkType='child:NP3' name='यह'>
8	तस्वीर	NN	<fs af='तस्वीर,n,f,sg,3,d,0,0' drel='k2:ली' posn='80' name='तस्वीर' chunkId='NP3' chunkType='head:NP3'>
9	ली	VM	<fs af='ले,v,f,sg,any,,या_था,yA' drel='ccof:और' stype='declarative' posn='90' voicetype='active' vpos='tam_2' name='ली' chunkId='VGF' chunkType='head:VGF'>
10	थी	VAUX	<fs af='था,v,f,sg,any,,था,WA' posn='100' drel='lwg__vaux:ली' chunkType='child:VGF' name='थी'>
11	और	CC	<fs af='और,avy,,,,,,' posn='110' name='और' chunkId='CCP' chunkType='head:CCP'>
12	बाद	NST	<fs af='बाद,nst,m,sg,3,o,0_में,' drel='k7t:बेचा' posn='120' vpos='2' name='बाद' chunkId='NP4' chunkType='head:NP4'>
13	में	PSP	<fs af='में,psp,,,,,,' posn='130' drel='lwg__psp:बाद' chunkType='child:NP4' name='में'>
14	विभिन्न	JJ	<fs af='विभिन्न,adj,any,any,,o,,' posn='140' drel='nmod__adj:चैनलों' chunkType='child:NP5' name='विभिन्न'>
15	चैनलों	NN	<fs af='चैनल,n,m,pl,3,o,0_को,0' drel='k4:बेचा' posn='150' vpos='vib_3' name='चैनलों' chunkId='NP5' chunkType='head:NP5'>
16	को	PSP	<fs af='को,psp,,,,,,' posn='160' drel='lwg__psp:चैनलों' chunkType='child:NP5' name='को'>
17	बेचा	VM	<fs af='बेच,v,m,sg,any,,या_था,yA' drel='ccof:और' stype='declarative' posn='170' voicetype='active' vpos='tam_2' name='बेचा' chunkId='VGF2' chunkType='head:VGF2'>
18	था	VAUX	<fs af='था,v,m,sg,any,,था,WA' posn='180' drel='lwg__vaux:बेचा' chunkType='child:VGF2' name='था'>
19	।	SYM	<fs af='।,punc,,,,,,' drel='rsym:और' posn='190' name='।' chunkId='BLK' chunkType='head:BLK'>
</Sentence>


</text>
</tb>
</body>
</document>
