<document id="2564356">
<head>
<title></title>			
<caption>जम्मू-कशमीर में दो पुलिसकर्मी शहीद           : श्रीनगर</caption>			
<language>Hindi </language>			
<author>			
<firstname></firstname>			
<middlename></middlename>			
<lastname></lastname>			
</author>			
<creation>			
<raw_corpus creation_date="" institute_name=""></raw_corpus>			
<annotated_corpus creation_date="07/25/2009" institute_name="IIIT-Hyderabad"></annotated_corpus>			
</creation>			
<domain_name>News Articles </domain_name>			
<distributor>LTRC, IIIT Hyderabad</distributor>			
<source>ISI, Kolkata</source>			
<publication>			
<place>New Delhi</place>			
<date>2/7/2004</date>			
<address>Connaught Place, New Delhi</address>			
<type>Newspaper</type>			
<publisher>			
<name>Amar Ujala</name>			
<url>http://www.amarujala.com</url>			
</publisher>			
</publication>			
<project_description>NSF Hindi/Urdu Dependency Treebanking Project</project_description>			
<availability>			
<format>CML/SSF</format>			
</availability>			
<byte_count>4129</byte_count>			
<word_count>116</word_count>			
<edition_number>1.0</edition_number>			
<encoding_description>			
<original_encoding>ISO 8859</original_encoding>			
<new_encoding>Unicode UTF8</new_encoding>			
</encoding_description>			
<bibliography></bibliography>			
<sentence_marker>.</sentence_marker>			
<normalization>No</normalization>			
<utility_name>cml_tags</utility_name>			

</head>
<body>
<tb number="1" segment="no" bullet="no">
<foreign language="select" writingsystem="LTR"> </foreign>			
<text>
<Sentence id="1">
1	बारामुला	NNP	<fs af='बारामुला,n,m,sg,3,d,0,0' posn='10' drel='nmod__adj:जिले' chunkType='child:NP' name='बारामुला'>
2	जिले	NN	<fs af='जिला,n,m,sg,3,o,0_में,0' drel='k7p:छिपे' posn='20' vpos='vib_vib_3' name='जिले' chunkId='NP' chunkType='head:NP'>
3	में	PSP	<fs af='में,psp,,,,,,' posn='30' drel='lwg__psp:जिले' chunkType='child:NP' name='में'>
4	सोपोर	NNP	<fs af='सोपोर,n,m,sg,3,o,0_का,0' drel='r6:मस्जिद' posn='40' vpos='vib_2' name='सोपोर' chunkId='NP2' chunkType='head:NP2'>
5	की	PSP	<fs af='का,psp,f,sg,,o,,' posn='50' drel='lwg__psp:सोपोर' chunkType='child:NP2' name='की'>
6	एक	QC	<fs af='एक,num,any,any,,any,,' posn='60' drel='nmod__adj:मस्जिद' chunkType='child:NP3' name='एक'>
7	मस्जिद	NN	<fs af='मस्जिद,n,f,sg,3,o,0_में,0' drel='k7p:छिपे' posn='70' vpos='vib_3' name='मस्जिद' chunkId='NP3' chunkType='head:NP3'>
8	में	PSP	<fs af='में,psp,,,,,,' posn='80' drel='lwg__psp:मस्जिद' chunkType='child:NP3' name='में2'>
9	छिपे	VM	<fs af='छिप,v,m,pl,any,o,या,yA' drel='nmod__k1inv:आतंकियों' posn='90' name='छिपे' chunkId='VGNF' chunkType='head:VGNF'>
10	आतंकियों	NN	<fs af='आतंकी,n,m,pl,3,o,0_का,0' drel='r6:गोली' posn='100' vpos='vib_2' name='आतंकियों' chunkId='NP4' chunkType='head:NP4'>
11	की	PSP	<fs af='का,psp,f,sg,,o,,' posn='110' drel='lwg__psp:आतंकियों' chunkType='child:NP4' name='की2'>
12	गोली	NN	<fs af='गोली,n,f,sg,3,o,0_से,0' drel='k3:हो' posn='120' vpos='vib_2' name='गोली' chunkId='NP5' chunkType='head:NP5'>
13	से	PSP	<fs af='से,psp,,,,,,' posn='130' drel='lwg__psp:गोली' chunkType='child:NP5' name='से'>
14	जम्मू	NNP	<fs af='जम्मू,n,m,sg,3,d,0,0' posn='140' drel='nmod__adj:पुलिस' chunkType='child:NP6' name='जम्मू'>
15	-	SYM	<fs af='-,punc,,,,,,' posn='150' drel='rsym:पुलिस' chunkType='child:NP6' name='-'>
16	कश्मीर	NNP	<fs af='कश्मीर,n,m,sg,3,d,0,0' posn='160' drel='nmod__adj:पुलिस' chunkType='child:NP6' name='कश्मीर'>
17	पुलिस	NN	<fs af='पुलिस,n,f,sg,3,o,0_का,0' drel='r6:ग्रुप' posn='170' vpos='vib_vib_vib_5' name='पुलिस' chunkId='NP6' chunkType='head:NP6'>
18	के	PSP	<fs af='का,psp,m,sg,,o,,' posn='180' drel='lwg__psp:पुलिस' chunkType='child:NP6' name='के'>
19	स्पेशल	JJ	<fs af='स्पेशल,adj,any,any,,o,,' posn='190' drel='nmod__adj:ग्रुप' chunkType='child:NP7' name='स्पेशल'>
20	ऑपरेशन	NNC	<fs af='ऑपरेशन,n,m,sg,3,d,0,0' posn='200' drel='pof__cn:ग्रुप' chunkType='child:NP7' name='ऑपरेशन'>
21	ग्रुप	NN	<fs af='ग्रुप,n,m,sg,3,o,0_का,0' drel='r6:पुलिसकर्मी' posn='210' vpos='vib_4' name='ग्रुप' chunkId='NP7' chunkType='head:NP7'>
22	के	PSP	<fs af='का,psp,m,pl,,d,,' posn='220' drel='lwg__psp:ग्रुप' chunkType='child:NP7' name='के2'>
23	दो	QC	<fs af='दो,num,any,any,,any,,' posn='230' drel='nmod__adj:पुलिसकर्मी' chunkType='child:NP8' name='दो'>
24	पुलिसकर्मी	NN	<fs af='पुलिसकर्मी,n,m,pl,3,d,0,0' drel='k1:हो' posn='240' name='पुलिसकर्मी' chunkId='NP8' chunkType='head:NP8'>
25	शहीद	JJ	<fs af='शहीद,adj,any,any,,,,' drel='pof:हो' posn='250' name='शहीद' chunkId='JJP' chunkType='head:JJP'>
26	हो	VM	<fs af='हो,v,any,pl,any,,0_जा+या१,0' stype='declarative' posn='260' voicetype='active' vpos='tam_2' name='हो' chunkId='VGF' chunkType='head:VGF'>
27	गए	VAUX	<fs af='जा,v,m,pl,any,,या१,yA1' posn='270' drel='lwg__vaux:हो' chunkType='child:VGF' name='गए'>
28	।	SYM	<fs af='।,punc,,,,,,' drel='rsym:हो' posn='280' name='।' chunkId='BLK' chunkType='head:BLK'>
</Sentence>


<Sentence id="2">
1	रक्षा	NNC	<fs af='रक्षा,n,f,sg,3,d,0,0' posn='10' drel='pof__cn:सूत्रों' chunkType='child:NP' name='रक्षा'>
2	सूत्रों	NN	<fs af='सूत्र,n,m,pl,3,o,0_ने,0' drel='k1:दी' posn='20' vpos='vib_3' name='सूत्रों' chunkId='NP' chunkType='head:NP'>
3	ने	PSP	<fs af='ने,psp,,,,,,' posn='30' drel='lwg__psp:सूत्रों' chunkType='child:NP' name='ने'>
4	बुधवार	NNP	<fs af='बुधवार,n,m,sg,3,o,0_को,0' drel='k7t:दी' posn='40' vpos='vib_2' name='बुधवार' chunkId='NP2' chunkType='head:NP2'>
5	को	PSP	<fs af='को,psp,,,,,,' posn='50' drel='lwg__psp:बुधवार' chunkType='child:NP2' name='को'>
6	यह	DEM	<fs af='यह,pn,any,sg,3,d,,' posn='60' drel='nmod__adj:जानकारी' chunkType='child:NP3' name='यह'>
7	जानकारी	NN	<fs af='जानकारी,n,f,sg,3,d,0,0' drel='k2:दी' posn='70' name='जानकारी' chunkId='NP3' chunkType='head:NP3'>
8	दी	VM	<fs af='दे,v,f,sg,any,,या,yA' stype='declarative' posn='80' voicetype='active' name='दी' chunkId='VGF' chunkType='head:VGF'>
9	।	SYM	<fs af='।,punc,,,,,,' drel='rsym:दी' posn='90' name='।' chunkId='BLK' chunkType='head:BLK'>
</Sentence>


<Sentence id="3">
1	सूत्रों	NN	<fs af='सूत्र,n,m,pl,3,o,0_के_मुताबिक,0' drel='k7a:घेर' posn='10' vpos='vib_2_3' name='सूत्रों' chunkId='NP' chunkType='head:NP'>
2	के	PSP	<fs af='के,psp,,,,,,' posn='20' drel='lwg__psp:सूत्रों' chunkType='child:NP' name='के'>
3	मुताबिक	PSP	<fs af='मुताबिक,psp,,,,,,' posn='30' drel='lwg__psp:सूत्रों' chunkType='child:NP' name='मुताबिक'>
4	खुफिया	JJ	<fs af='खुफिया,adj,any,any,,o,,' posn='40' drel='nmod__adj:जानकारी' chunkType='child:NP2' name='खुफिया'>
5	जानकारी	NN	<fs af='जानकारी,n,f,sg,3,o,0_का,0' drel='r6:आधार' posn='50' vpos='vib_3' name='जानकारी' chunkId='NP2' chunkType='head:NP2'>
6	के	PSP	<fs af='का,psp,m,sg,,o,,' posn='60' drel='lwg__psp:जानकारी' chunkType='child:NP2' name='के2'>
7	आधार	NN	<fs af='आधार,n,m,sg,3,o,0_पर,0' drel='k7:घेर' posn='70' vpos='vib_2' name='आधार' chunkId='NP3' chunkType='head:NP3'>
8	पर	PSP	<fs af='पर,psp,,,,,,' posn='80' drel='lwg__psp:आधार' chunkType='child:NP3' name='पर'>
9	५२वीं	QO	<fs af='५२वाँ,num,f,sg,,o,,' posn='260' drel='nmod__adj:राइफल' chunkType='child:NP4' name='५२वीं'>
10	राष्ट्रीय	NNPC	<fs af='राष्ट्रीय,adj,any,any,,o,,' posn='40' drel='pof__cn:राइफल' chunkType='child:NP4' name='राष्ट्रीय'>
11	राइफल	NNP	<fs af='राइफल,n,f,sg,3,o,0_का,0' drel='r6:जवान' posn='110' vpos='vib_4' name='राइफल' chunkId='NP4' chunkType='head:NP4'>
12	के	PSP	<fs af='का,psp,m,pl,,o,,' posn='120' drel='lwg__psp:राइफल' chunkType='child:NP4' name='के3'>
13	जवान	NN	<fs af='जवान,n,m,pl,3,o,0,0' drel='ccof:और' posn='130' name='जवान' chunkId='NP5' chunkType='head:NP5'>
14	और	CC	<fs af='और,avy,,,,,,' drel='k1:घेर' posn='140' name='और' chunkId='CCP' chunkType='head:CCP'>
15	स्पेशल	JJ	<fs af='स्पेशल,adj,any,any,,o,,' posn='150' drel='nmod__adj:ग्रुप' chunkType='child:NP6' name='स्पेशल'>
16	ऑपरेशन	NNC	<fs af='ऑपरेशन,n,m,sg,3,d,0,0' posn='160' drel='pof__cn:ग्रुप' chunkType='child:NP6' name='ऑपरेशन'>
17	ग्रुप	NN	<fs af='ग्रुप,n,m,sg,3,o,0_का,0' drel='r6:पुलिसकर्मियों' posn='170' vpos='vib_4' name='ग्रुप' chunkId='NP6' chunkType='head:NP6'>
18	के	PSP	<fs af='का,psp,m,pl,,o,,' posn='180' drel='lwg__psp:ग्रुप' chunkType='child:NP6' name='के4'>
19	पुलिसकर्मियों	NN	<fs af='पुलिसकर्मी,n,m,pl,3,o,0_ने,0' drel='ccof:और' posn='190' vpos='vib_2' name='पुलिसकर्मियों' chunkId='NP7' chunkType='head:NP7'>
20	ने	PSP	<fs af='ने,psp,,,,,,' posn='200' drel='lwg__psp:पुलिसकर्मियों' chunkType='child:NP7' name='ने'>
21	छनखन	NNP	<fs af='छनखन,n,m,sg,3,d,0,0' posn='210' drel='nmod__adj:गांव' chunkType='child:NP8' name='छनखन'>
22	-	SYM	<fs af='-,punc,,,,,,' posn='220' drel='rsym:गांव' chunkType='child:NP8' name='-'>
23	सोपोर	NNP	<fs af='सोपोर,n,m,sg,3,d,0,0' posn='230' drel='nmod__adj:गांव' chunkType='child:NP8' name='सोपोर'>
24	गांव	NN	<fs af='गांव,n,m,sg,3,o,0_का,0' drel='r6:मस्जिद' posn='240' vpos='vib_vib_vib_5' name='गांव' chunkId='NP8' chunkType='head:NP8'>
25	की	PSP	<fs af='का,psp,f,sg,,o,,' posn='250' drel='lwg__psp:गांव' chunkType='child:NP8' name='की'>
26	एक	QC	<fs af='एक,num,any,any,,any,,' posn='260' drel='nmod__adj:मस्जिद' chunkType='child:NP9' name='एक'>
27	मस्जिद	NN	<fs af='मस्जिद,n,f,sg,3,o,0_में,0' drel='k7p:छिपे' posn='270' vpos='vib_3' name='मस्जिद' chunkId='NP9' chunkType='head:NP9'>
28	में	PSP	<fs af='में,psp,,,,,,' posn='280' drel='lwg__psp:मस्जिद' chunkType='child:NP9' name='में'>
29	छिपे	VM	<fs af='छिप,v,m,pl,any,,या,yA' drel='nmod__k1inv:आतंकियों' posn='290' name='छिपे' chunkId='VGNF' chunkType='head:VGNF'>
30	आतंकियों	NN	<fs af='आतंकी,n,m,pl,3,o,0_को,0' drel='k2:पकड़ने' posn='300' vpos='vib_2' name='आतंकियों' chunkId='NP10' chunkType='head:NP10'>
31	को	PSP	<fs af='को,psp,,,,,,' posn='310' drel='lwg__psp:आतंकियों' chunkType='child:NP10' name='को'>
32	पकड़ने	VM	<fs af='पकड,v,any,any,any,o,ना_के_लिए,nA' drel='rt:घेर' posn='320' vpos='tam_2_3' name='पकड़ने' chunkId='VGNN' chunkType='head:VGNN'>
33	के	PSP	<fs af='के,psp,,,,,,' posn='330' drel='lwg__psp:पकड़ने' chunkType='child:VGNN' name='के5'>
34	लिए	PSP	<fs af='लिए,psp,,,,,,' posn='340' drel='lwg__psp:पकड़ने' chunkType='child:VGNN' name='लिए'>
35	पूरे	JJ	<fs af='पूरा,adj,m,sg,,o,,' posn='350' drel='nmod__adj:गांव2' chunkType='child:NP11' name='पूरे'>
36	गांव	NN	<fs af='गांव,n,m,sg,3,o,0_को,0' drel='k2:घेर' posn='360' vpos='vib_3' name='गांव2' chunkId='NP11' chunkType='head:NP11'>
37	को	PSP	<fs af='को,psp,,,,,,' posn='370' drel='lwg__psp:गांव2' chunkType='child:NP11' name='को2'>
38	घेर	VM	<fs af='घेर,v,any,sg,any,,0_ले+या,0' stype='declarative' posn='380' voicetype='active' vpos='tam_2' name='घेर' chunkId='VGF' chunkType='head:VGF'>
39	लिया	VAUX	<fs af='ले,v,m,sg,any,,या,yA' posn='390' drel='lwg__vaux:घेर' chunkType='child:VGF' name='लिया'>
40	।	SYM	<fs af='।,punc,,,,,,' drel='rsym:घेर' posn='400' name='।' chunkId='BLK' chunkType='head:BLK'>
</Sentence>


<Sentence id="4">
1	राष्ट्रीय	NNPC	<fs af='राष्ट्रीय,adj,any,any,,o,,' posn='150' drel='pof__cn:राइफल' chunkType='child:NP' name='राष्ट्रीय'>
2	राइफल	NNP	<fs af='राइफल,n,f,sg,3,o,0_का,0' drel='r6:जवान' posn='20' vpos='vib_3' name='राइफल' chunkId='NP' chunkType='head:NP'>
3	के	PSP	<fs af='का,psp,m,pl,,d,,' posn='30' drel='lwg__psp:राइफल' chunkType='child:NP' name='के'>
4	जवान	NN	<fs af='जवान,n,m,pl,3,d,0,0' drel='k1:थे' posn='40' name='जवान' chunkId='NP2' chunkType='head:NP2'>
5	मस्जिद	NN	<fs af='मस्जिद,n,f,sg,3,o,0_के_बाहर,0' drel='k7p:थे' posn='50' vpos='vib_2_3' name='मस्जिद' chunkId='NP3' chunkType='head:NP3'>
6	के	PSP	<fs af='के,psp,,,,,,' posn='60' drel='lwg__psp:मस्जिद' chunkType='child:NP3' name='के2'>
7	बाहर	NST	<fs af='बाहर,nst,m,sg,3,d,,' posn='70' drel='lwg__psp:मस्जिद' chunkType='child:NP3' name='बाहर'>
8	थे	VM	<fs af='था,v,m,pl,any,,था,WA' drel='ccof:जबकि' stype='declarative' posn='80' voicetype='active' name='थे' chunkId='VGF' chunkType='head:VGF'>
9	जबकि	CC	<fs af='जबकि,avy,,,,,,' posn='90' name='जबकि' chunkId='CCP' chunkType='head:CCP'>
10	राज्य	NNC	<fs af='राज्य,n,m,sg,3,d,0,0' posn='100' drel='pof__cn:पुलिस' chunkType='child:NP4' name='राज्य'>
11	पुलिस	NN	<fs af='पुलिस,n,f,sg,3,o,0_का,0' drel='r6:टीम' posn='110' vpos='vib_3' name='पुलिस' chunkId='NP4' chunkType='head:NP4'>
12	की	PSP	<fs af='का,psp,f,sg,,d,,' posn='120' drel='lwg__psp:पुलिस' chunkType='child:NP4' name='की'>
13	टीम	NN	<fs af='टीम,n,f,sg,3,d,0,0' drel='k1:घुसी' posn='130' name='टीम' chunkId='NP5' chunkType='head:NP5'>
14	मस्जिद	NN	<fs af='मस्जिद,n,f,sg,3,o,0_के_अंदर,0' drel='k7p:घुसी' posn='140' vpos='vib_2_3' name='मस्जिद2' chunkId='NP6' chunkType='head:NP6'>
15	के	PSP	<fs af='के,psp,,,,,,' posn='150' drel='lwg__psp:मस्जिद2' chunkType='child:NP6' name='के3'>
16	अंदर	NST	<fs af='अंदर,nst,m,sg,3,d,,' posn='160' drel='lwg__psp:मस्जिद2' chunkType='child:NP6' name='अंदर'>
17	घुसी	VM	<fs af='घुस,v,f,sg,any,,या,yA' drel='ccof:जबकि' stype='declarative' posn='170' voicetype='active' name='घुसी' chunkId='VGF2' chunkType='head:VGF2'>
18	।	SYM	<fs af='।,punc,,,,,,' drel='rsym:जबकि' posn='180' name='।' chunkId='BLK' chunkType='head:BLK'>
</Sentence>


<Sentence id="5">
1	इसी	DEM	<fs af='यह,pn,any,sg,3,o,,' drel='k7t:हो' posn='10' name='इसी' chunkId='NP' chunkType='head:NP'>
2	बीच	NST	<fs af='बीच,nst,m,sg,3,d,,' posn='20' drel='lwg__psp:इसी' chunkType='child:NP' name='बीच'>
3	वहां	PRP	<fs af='वहाँ,pn,,,,d,,' drel='k7p:छिपे' posn='30' name='वहां' chunkId='NP2' chunkType='head:NP2'>
4	छिपे	VM	<fs af='छिप,v,m,pl,any,,या,yA' drel='nmod__k1inv:आतंकियों' posn='40' name='छिपे' chunkId='VGNF' chunkType='head:VGNF'>
5	आतंकियों	NN	<fs af='आतंकी,n,m,pl,3,o,0_का,0' drel='r6:गोली' posn='50' vpos='vib_2' name='आतंकियों' chunkId='NP3' chunkType='head:NP3'>
6	की	PSP	<fs af='का,psp,f,sg,,d,,' posn='60' drel='lwg__psp:आतंकियों' chunkType='child:NP3' name='की'>
7	गोली	NN	<fs af='गोली,n,f,sg,3,d,0,0' drel='k2:लगने' posn='70' name='गोली' chunkId='NP4' chunkType='head:NP4'>
8	लगने	VM	<fs af='लग,v,any,any,any,o,ना_से,nA' drel='rh:हो' posn='80' vpos='tam_2' name='लगने' chunkId='VGNN' chunkType='head:VGNN'>
9	से	PSP	<fs af='से,psp,,,,,,' posn='90' drel='lwg__psp:लगने' chunkType='child:VGNN' name='से'>
10	दो	QC	<fs af='दो,num,any,any,,any,,' posn='100' drel='nmod__adj:पुलिसकर्मी' chunkType='child:NP5' name='दो'>
11	पुलिसकर्मी	NN	<fs af='पुलिसकर्मी,n,m,pl,3,d,0,0' drel='k1:हो' posn='110' name='पुलिसकर्मी' chunkId='NP5' chunkType='head:NP5'>
12	घायल	JJ	<fs af='घायल,adj,any,any,,,,' drel='pof:हो' posn='120' name='घायल' chunkId='JJP' chunkType='head:JJP'>
13	हो	VM	<fs af='हो,v,any,pl,any,,0_जा+या१,0' stype='declarative' posn='130' voicetype='active' vpos='tam_2' name='हो' chunkId='VGF' chunkType='head:VGF'>
14	गए	VAUX	<fs af='जा,v,m,pl,any,,या१,yA1' posn='140' drel='lwg__vaux:हो' chunkType='child:VGF' name='गए'>
15	जिनकी	PRP	<fs af='जो,pn,f,pl,3,o,का,kA' drel='r6-k1:मौत' posn='150' coref=':NP5' name='जिनकी' chunkId='NP6' chunkType='head:NP6'>
16	बाद	NST	<fs af='बाद,nst,m,sg,3,o,0_में,' drel='k7t:हो2' posn='160' vpos='2' name='बाद' chunkId='NP7' chunkType='head:NP7'>
17	में	PSP	<fs af='में,psp,,,,,,' posn='170' drel='lwg__psp:बाद' chunkType='child:NP7' name='में'>
18	मौत	NN	<fs af='मौत,n,f,sg,3,d,0,0' drel='pof:हो2' posn='180' name='मौत' chunkId='NP8' chunkType='head:NP8'>
19	हो	VM	<fs af='हो,v,any,sg,any,,0_जा+या१,0' drel='nmod__relc:पुलिसकर्मी' stype='declarative' posn='190' voicetype='active' vpos='tam_2' name='हो2' chunkId='VGF2' chunkType='head:VGF2'>
20	गई	VAUX	<fs af='जा,v,f,sg,any,,या१,yA1' posn='200' drel='lwg__vaux:हो2' chunkType='child:VGF2' name='गई'>
21	।	SYM	<fs af='।,punc,,,,,,' drel='rsym:हो' posn='210' name='।' chunkId='BLK' chunkType='head:BLK'>
</Sentence>




</text>
</tb>
</body>
</document>
