<document id="2529433">
<head>
<title></title>			
<caption>बिजली परियोजनाओं पर नजर रखेगी सरकार        यू   : नई दिल्ली</caption>			
<language>Hindi </language>			
<author>			
<firstname></firstname>			
<middlename></middlename>			
<lastname></lastname>			
</author>			
<creation>			
<raw_corpus creation_date="" institute_name=""></raw_corpus>			
<annotated_corpus creation_date="07/25/2009" institute_name="IIIT-Hyderabad"></annotated_corpus>			
</creation>			
<domain_name>News Articles </domain_name>			
<distributor>LTRC, IIIT Hyderabad</distributor>			
<source>ISI, Kolkata</source>			
<publication>			
<place>New Delhi</place>			
<date>16/6/2004</date>			
<address>Connaught Place, New Delhi</address>			
<type>Newspaper</type>			
<publisher>			
<name>Amar Ujala</name>			
<url>http://www.amarujala.com</url>			
</publisher>			
</publication>			
<project_description>NSF Hindi/Urdu Dependency Treebanking Project</project_description>			
<availability>			
<format>CML/SSF</format>			
</availability>			
<byte_count>9636</byte_count>			
<word_count>378</word_count>			
<edition_number>1.0</edition_number>			
<encoding_description>			
<original_encoding>ISO 8859</original_encoding>			
<new_encoding>Unicode UTF8</new_encoding>			
</encoding_description>			
<bibliography></bibliography>			
<sentence_marker>.</sentence_marker>			
<normalization>No</normalization>			
<utility_name>cml_tags</utility_name>			

</head>
<body>
<tb number="1" segment="no" bullet="no">
<foreign language="select" writingsystem="LTR"> </foreign>			
<text>
<Sentence id="1">
1	वर्ष	NN	<fs af='वर्ष,n,m,sg,3,d,0,0' posn='10' drel='nmod:२००७' chunkType='child:NP' name='वर्ष'>
2	२००७	NNP	<fs af='२००७,n,m,sg,3,o,0_तक,0' drel='k7t:करने' posn='20' vpos='vib_vib_3' name='२००७' chunkId='NP' chunkType='head:NP'>
3	तक	PSP	<fs af='तक,psp,,,,,,' posn='30' drel='lwg__psp:२००७' chunkType='child:NP' name='तक'>
4	३६९५५	QC	<fs af='३६९५५,num,any,any,,any,,' posn='40' drel='nmod__adj:मेगावाट' chunkType='child:NP2' name='३६९५५'>
5	मेगावाट	NN	<fs af='मेगावाट,n,m,sg,3,d,0,0' posn='50' drel='nmod:उत्पादन' chunkType='child:NP2' name='मेगावाट'>
6	अतिरिक्त	JJ	<fs af='अतिरिक्त,adj,any,any,,o,,' posn='60' drel='nmod__adj:उत्पादन' chunkType='child:NP2' name='अतिरिक्त'>
7	बिजली	NNC	<fs af='बिजली,n,f,sg,3,d,0,0' posn='70' drel='pof__cn:उत्पादन' chunkType='child:NP2' name='बिजली'>
8	उत्पादन	NN	<fs af='उत्पादन,n,m,sg,3,o,0_का,0' drel='r6:लक्ष्य' posn='80' vpos='vib_vib_6' name='उत्पादन' chunkId='NP2' chunkType='head:NP2'>
9	के	PSP	<fs af='का,psp,m,sg,,o,,' posn='90' drel='lwg__psp:उत्पादन' chunkType='child:NP2' name='के'>
10	लक्ष्य	NN	<fs af='लक्ष्य,n,m,sg,3,o,0_को,0' drel='k2:करने' posn='100' vpos='vib_2' name='लक्ष्य' chunkId='NP3' chunkType='head:NP3'>
11	को	PSP	<fs af='को,psp,,,,,,' posn='110' drel='lwg__psp:लक्ष्य' chunkType='child:NP3' name='को'>
12	पूरा	JJ	<fs af='पूरा,adj,m,sg,,,,' drel='pof:करने' posn='120' name='पूरा' chunkId='JJP' chunkType='head:JJP'>
13	करने	VM	<fs af='कर,v,any,any,any,o,ना_के_लिए,nA' drel='rt:रखेगी' posn='130' vpos='tam_2_3' name='करने' chunkId='VGNN' chunkType='head:VGNN'>
14	के	PSP	<fs af='के,psp,,,,,,' posn='140' drel='lwg__psp:करने' chunkType='child:VGNN' name='के2'>
15	लिए	PSP	<fs af='लिए,psp,,,,,,' posn='150' drel='lwg__psp:करने' chunkType='child:VGNN' name='लिए'>
16	सरकार	NN	<fs af='सरकार,n,f,sg,3,d,0,0' drel='k1:रखेगी' posn='160' name='सरकार' chunkId='NP4' chunkType='head:NP4'>
17	सभी	QF	<fs af='सभी,avy,,,,,,' posn='170' drel='nmod__adj:परियोजनाओं' chunkType='child:NP5' name='सभी'>
18	बिजली	NNC	<fs af='बिजली,n,f,sg,3,d,0,0' posn='180' drel='pof__cn:परियोजनाओं' chunkType='child:NP5' name='बिजली2'>
19	परियोजनाओं	NN	<fs af='परियोजना,n,f,pl,3,o,0_का,0' drel='r6:प्रगति' posn='190' vpos='vib_4' name='परियोजनाओं' chunkId='NP5' chunkType='head:NP5'>
20	की	PSP	<fs af='का,psp,f,sg,,o,,' posn='200' drel='lwg__psp:परियोजनाओं' chunkType='child:NP5' name='की'>
21	प्रगति	NN	<fs af='प्रगति,n,f,sg,3,o,0_पर,0' drel='k7t:रखेगी' posn='210' vpos='vib_2' name='प्रगति' chunkId='NP6' chunkType='head:NP6'>
22	पर	PSP	<fs af='पर,psp,,,,,,' posn='220' drel='lwg__psp:प्रगति' chunkType='child:NP6' name='पर'>
23	करीबी	JJ	<fs af='करीबी,adj,any,any,,d,,' posn='230' drel='nmod__adj:नजर' chunkType='child:NP7' name='करीबी'>
24	नजर	NN	<fs af='नजर,n,f,sg,3,d,0,0' drel='pof:रखेगी' posn='240' name='नजर' chunkId='NP7' chunkType='head:NP7'>
25	रखेगी	VM	<fs af='रख,v,f,sg,3,,गा,gA' stype='declarative' posn='250' voicetype='active' name='रखेगी' chunkId='VGF' chunkType='head:VGF'>
26	।	SYM	<fs af='।,punc,,,,,,' drel='rsym:रखेगी' posn='260' name='।' chunkId='BLK' chunkType='head:BLK'>
</Sentence>


<Sentence id="2">
1	बिजली	NNC	<fs af='बिजली,n,f,sg,3,d,0,0' posn='10' drel='pof__cn:सचिव' chunkType='child:NP' name='बिजली'>
2	सचिव	NN	<fs af='सचिव,n,m,sg,3,d,0,0' posn='20' drel='nmod:शाही' chunkType='child:NP' name='सचिव'>
3	आर.	NNPC	<fs af='आर.,n,m,sg,3,d,0,0' posn='30' drel='pof__cn:शाही' chunkType='child:NP' name='आर.'>
4	वी.	NNPC	<fs af='वी.,n,m,sg,3,d,0,0' posn='40' drel='pof__cn:शाही' chunkType='child:NP' name='वी.'>
5	शाही	NNP	<fs af='शाही,n,m,sg,3,o,0_ने,0' drel='k1:कहा' posn='50' vpos='vib_vib_6' name='शाही' chunkId='NP' chunkType='head:NP'>
6	ने	PSP	<fs af='ने,psp,,,,,,' posn='60' drel='lwg__psp:शाही' chunkType='child:NP' name='ने'>
7	कहा	VM	<fs af='कह,v,m,sg,any,,या,yA' stype='declarative' posn='70' voicetype='active' name='कहा' chunkId='VGF' chunkType='head:VGF'>
8	कि	CC	<fs af='कि,avy,,,,,,' drel='k2:कहा' posn='80' name='कि' chunkId='CCP' chunkType='head:CCP'>
9	सरकार	NN	<fs af='सरकार,n,f,sg,3,d,0,0' drel='k1:चाहती' posn='90' name='सरकार' chunkId='NP2' chunkType='head:NP2'>
10	बिजली	NNC	<fs af='बिजली,n,f,sg,3,d,0,0' posn='100' drel='pof__cn:क्षमता' chunkType='child:NP3' name='बिजली2'>
11	क्षमता	NN	<fs af='क्षमता,n,f,sg,3,o,0_का,0' drel='r6:बढ़ोतरी' posn='110' vpos='vib_3' name='क्षमता' chunkId='NP3' chunkType='head:NP3'>
12	की	PSP	<fs af='का,psp,f,sg,,o,,' posn='120' drel='lwg__psp:क्षमता' chunkType='child:NP3' name='की'>
13	बढ़ोतरी	NN	<fs af='बढ़ोतरी,n,f,sg,3,o,0_में,0' drel='k7:चाहती' posn='130' vpos='vib_2' name='बढ़ोतरी' chunkId='NP4' chunkType='head:NP4'>
14	में	PSP	<fs af='में,psp,,,,,,' posn='140' drel='lwg__psp:बढ़ोतरी' chunkType='child:NP4' name='में'>
15	कोई	PRP	<fs af='कोई,pn,any,sg,3,d,0,0' posn='150' drel='nmod__adj:चूक' chunkType='child:NP5' name='कोई'>
16	चूक	NN	<fs af='चूक,n,f,sg,3,d,0,0' drel='k2:चाहती' posn='160' name='चूक' chunkId='NP5' chunkType='head:NP5'>
17	नहीं	NEG	<fs af='नहीं,avy,,,,,,' posn='170' drel='lwg__neg:चाहती' chunkType='child:VGF2' name='नहीं'>
18	चाहती	VM	<fs af='चाह,v,f,sg,3,,ता_है,wA' drel='ccof:कि' stype='declarative' posn='180' voicetype='active' vpos='tam_3' name='चाहती' chunkId='VGF2' chunkType='head:VGF2'>
19	है	VAUX	<fs af='है,v,any,sg,3,,है,hE' posn='190' drel='lwg__vaux:चाहती' chunkType='child:VGF2' name='है'>
20	।	SYM	<fs af='।,punc,,,,,,' drel='rsym:कहा' posn='200' name='।' chunkId='BLK' chunkType='head:BLK'>
</Sentence>


<Sentence id="3">
1	उन्होंने	PRP	<fs af='वह,pn,any,sg,3h,o,ने,ne' drel='k1:कहा' posn='10' name='उन्होंने' chunkId='NP' chunkType='head:NP'>
2	कहा	VM	<fs af='कह,v,m,sg,any,,या,yA' stype='declarative' posn='20' voicetype='active' name='कहा' chunkId='VGF' chunkType='head:VGF'>
3	कि	CC	<fs af='कि,avy,,,,,,' drel='k2:कहा' posn='30' name='कि' chunkId='CCP' chunkType='head:CCP'>
4	सरकार	NN	<fs af='सरकार,n,f,sg,3,d,0,0' drel='k1:करेगी' posn='40' name='सरकार' chunkId='NP2' chunkType='head:NP2'>
5	मौजूदा	JJ	<fs af='मौजूदा,adj,any,any,,o,,' posn='50' drel='nmod__adj:परियोजनाओं' chunkType='child:NP3' name='मौजूदा'>
6	बिजली	NNC	<fs af='बिजली,n,f,sg,3,d,0,0' posn='60' drel='pof__cn:परियोजनाओं' chunkType='child:NP3' name='बिजली'>
7	परियोजनाओं	NN	<fs af='परियोजना,n,f,pl,3,o,0_पर,0' drel='k7:करेगी' posn='70' vpos='vib_4' name='परियोजनाओं' chunkId='NP3' chunkType='head:NP3'>
8	पर	PSP	<fs af='पर,psp,,,,,,' posn='80' drel='lwg__psp:परियोजनाओं' chunkType='child:NP3' name='पर'>
9	करीबी	JJ	<fs af='करीबी,adj,any,any,,d,,' posn='90' drel='nmod__adj:नजर' chunkType='child:NP4' name='करीबी'>
10	नजर	NN	<fs af='नजर,n,f,sg,3,d,0,0' drel='pof:रखने' posn='100' name='नजर' chunkId='NP4' chunkType='head:NP4'>
11	रखने	VM	<fs af='रख,v,any,sg,3,o,ना_के_साथ,nA' drel='ras-k2:करेगी' posn='110' vpos='tam_2_3' name='रखने' chunkId='VGNN' chunkType='head:VGNN'>
12	के	PSP	<fs af='के,psp,,,,,,' posn='120' drel='lwg__psp:रखने' chunkType='child:VGNN' name='के'>
13	साथ	NST	<fs af='साथ,nst,m,sg,3,d,,' posn='130' drel='lwg__nst:रखने' chunkType='child:VGNN' name='साथ'>
14	ही	RP	<fs af='ही,avy,,,,,,' posn='140' drel='lwg__rp:रखने' chunkType='child:VGNN' name='ही'>
15	ईधन	NN	<fs af='ईधन,n,m,sg,3,o,0_का,0' drel='r6:आपूर्ति' posn='150' vpos='vib_2' name='ईधन' chunkId='NP5' chunkType='head:NP5'>
16	की	PSP	<fs af='का,psp,f,sg,,o,,' posn='160' drel='lwg__psp:ईधन' chunkType='child:NP5' name='की'>
17	आपूर्ति	NN	<fs af='आपूर्ति,n,f,sg,3,o,0_से,0' drel='jjmod:संबंधित' posn='170' vpos='vib_2' name='आपूर्ति' chunkId='NP6' chunkType='head:NP6'>
18	से	PSP	<fs af='से,psp,,,,,,' posn='180' drel='lwg__psp:आपूर्ति' chunkType='child:NP6' name='से'>
19	संबंधित	JJ	<fs af='संबंधित,adj,any,any,,o,,' drel='nmod:अड़चनों' posn='190' name='संबंधित' chunkId='JJP' chunkType='head:JJP'>
20	वर्तमान	JJ	<fs af='वर्तमान,adj,any,any,,o,,' posn='200' drel='nmod__adj:अड़चनों' chunkType='child:NP7' name='वर्तमान'>
21	अड़चनों	NN	<fs af='अड़चन,n,f,pl,3,o,0_को,0' drel='k2:करेगी' posn='210' vpos='vib_3' name='अड़चनों' chunkId='NP7' chunkType='head:NP7'>
22	को	PSP	<fs af='को,psp,,,,,,' posn='220' drel='lwg__psp:अड़चनों' chunkType='child:NP7' name='को'>
23	दूर	NST	<fs af='दूर,nst,m,sg,3,d,,' drel='pof:करेगी' posn='230' name='दूर' chunkId='NP8' chunkType='head:NP8'>
24	करेगी	VM	<fs af='कर,v,f,sg,3,,गा,gA' drel='ccof:कि' stype='declarative' posn='240' voicetype='active' name='करेगी' chunkId='VGF2' chunkType='head:VGF2'>
25	।	SYM	<fs af='।,punc,,,,,,' drel='rsym:कहा' posn='250' name='।' chunkId='BLK' chunkType='head:BLK'>
</Sentence>


<Sentence id="4">
1	शाही	NNP	<fs af='शाही,n,m,sg,3,o,0_ने,0' drel='k1:कहा' posn='10' vpos='vib_2' name='शाही' chunkId='NP' chunkType='head:NP'>
2	ने	PSP	<fs af='ने,psp,,,,,,' posn='20' drel='lwg__psp:शाही' chunkType='child:NP' name='ने'>
3	कहा	VM	<fs af='कह,v,m,sg,any,,या,yA' stype='declarative' posn='30' voicetype='active' name='कहा' chunkId='VGF' chunkType='head:VGF'>
4	कि	CC	<fs af='कि,avy,,,,,,' drel='k2:कहा' posn='40' name='कि' chunkId='CCP' chunkType='head:CCP'>
5	क्षमता	NNC	<fs af='क्षमता,n,f,sg,3,d,0,0' posn='50' drel='pof__cn:विस्तार' chunkType='child:NP2' name='क्षमता'>
6	विस्तार	NN	<fs af='विस्तार,n,m,sg,3,o,0_में,0' drel='k7:हो' posn='60' vpos='vib_3' name='विस्तार' chunkId='NP2' chunkType='head:NP2'>
7	में	PSP	<fs af='में,psp,,,,,,' posn='70' drel='lwg__psp:विस्तार' chunkType='child:NP2' name='में'>
8	कोई	PRP	<fs af='कोई,pn,any,sg,3,d,0,0' posn='80' drel='nmod__adj:चूक' chunkType='child:NP3' name='कोई'>
9	चूक	NN	<fs af='चूक,n,f,sg,3,d,0,0' drel='pof:हो' posn='90' name='चूक' chunkId='NP3' chunkType='head:NP3'>
10	न	NEG	<fs af='न,avy,,,,,,' posn='100' drel='lwg__neg:हो' chunkType='child:VGF2' name='न'>
11	हो	VM	<fs af='हो,v,any,any,any,,0,0' drel='ccof:कि' stype='declarative' posn='110' voicetype='active' name='हो' chunkId='VGF2' chunkType='head:VGF2'>
12	इसके	PRP	<fs af='यह,pn,any,sg,3,o,0_लिए,ke' drel='rt:हैं' posn='120' vpos='vib_2' name='इसके' chunkId='NP4' chunkType='head:NP4'>
13	लिए	PSP	<fs af='लिए,psp,,,,,,' posn='130' drel='lwg__psp:इसके' chunkType='child:NP4' name='लिए'>
14	हम	PRP	<fs af='हम,pn,any,pl,1,o,0,0' drel='k1:हैं' posn='140' name='हम' chunkId='NP5' chunkType='head:NP5'>
15	मौजूदा	JJ	<fs af='मौजूदा,adj,any,any,,o,,' posn='150' drel='nmod__adj:परियोजनाओं' chunkType='child:NP6' name='मौजूदा'>
16	परियोजनाओं	NN	<fs af='परियोजना,n,f,pl,3,o,0_पर,0' drel='k7:हैं' posn='160' vpos='vib_3' name='परियोजनाओं' chunkId='NP6' chunkType='head:NP6'>
17	पर	PSP	<fs af='पर,psp,,,,,,' posn='170' drel='lwg__psp:परियोजनाओं' chunkType='child:NP6' name='पर'>
18	करीबी	JJ	<fs af='करीबी,adj,any,any,,d,,' posn='180' drel='nmod__adj:नजर' chunkType='child:NP7' name='करीबी'>
19	नजर	NN	<fs af='नजर,n,f,sg,3,d,0,0' drel='pof:रखने' posn='190' name='नजर' chunkId='NP7' chunkType='head:NP7'>
20	रखने	VM	<fs af='रख,v,any,sg,3,o,ना_के_साथ,nA' drel='vmod:हैं' posn='200' vpos='tam_2_3' name='रखने' chunkId='VGNN' chunkType='head:VGNN'>
21	के	PSP	<fs af='के,psp,,,,,,' posn='210' drel='lwg__psp:रखने' chunkType='child:VGNN' name='के'>
22	साथ	NST	<fs af='साथ,nst,m,sg,3,d,,' posn='220' drel='lwg__nst:रखने' chunkType='child:VGNN' name='साथ'>
23	ही	RP	<fs af='ही,avy,,,,,,' posn='230' drel='lwg__rp:रखने' chunkType='child:VGNN' name='ही'>
24	वीडियो	NNC	<fs af='वीडियो,n,m,sg,3,d,0,0' posn='240' drel='pof__cn:कांफ्रेंसिंग' chunkType='child:NP8' name='वीडियो'>
25	कांफ्रेंसिंग	NN	<fs af='कांफ्रेंसिंग,n,f,sg,3,o,0_के_जरिये,0' drel='k3:हैं' posn='250' vpos='vib_3_4' name='कांफ्रेंसिंग' chunkId='NP8' chunkType='head:NP8'>
26	के	PSP	<fs af='के,psp,,,,,,' posn='260' drel='lwg__psp:कांफ्रेंसिंग' chunkType='child:NP8' name='के2'>
27	जरिए	PSP	<fs af='जरिये,psp,,,,,,' posn='270' drel='lwg__psp:कांफ्रेंसिंग' chunkType='child:NP8' name='जरिए'>
28	सार्वजनिक	JJ	<fs af='सार्वजनिक,adj,any,any,,o,,' posn='280' drel='nmod__adj:क्षेत्र' chunkType='child:NP9' name='सार्वजनिक'>
29	क्षेत्र	NN	<fs af='क्षेत्र,n,m,sg,3,o,0_का,0' drel='r6:उपक्रमों' posn='290' vpos='vib_3' name='क्षेत्र' chunkId='NP9' chunkType='head:NP9'>
30	के	PSP	<fs af='का,psp,m,pl,,o,,' posn='300' drel='lwg__psp:क्षेत्र' chunkType='child:NP9' name='के3'>
31	उपक्रमों	NN	<fs af='उपक्रम,n,m,pl,3,o,0,0' drel='r6:संपर्क' posn='310' name='उपक्रमों' chunkId='NP10' chunkType='head:NP10'>
32	(	SYM	<fs af='(,punc,,,,,,' posn='320' drel='rsym:पीएसयू' chunkType='child:NP11' name='('>
33	पीएसयू	NN	<fs af='पीएसयू,n,m,sg,3,o,0,0' drel='nmod:उपक्रमों' posn='330' name='पीएसयू' chunkId='NP11' chunkType='head:NP11'>
34	)	SYM	<fs af='),punc,,,,,,' posn='340' drel='rsym:पीएसयू' chunkType='child:NP11' name=')'>
35	के	PSP	<fs drel='fragof:उपक्रमों' name='के4' chunkId='FRAGP' chunkType='head:FRAGP'>
36	निरंतर	RB	<fs af='निरन्तर,adv,,,,,,' drel='adv:हैं' posn='360' name='निरंतर' chunkId='RBP' chunkType='head:RBP'>
37	संपर्क	NN	<fs af='संपर्क,n,m,sg,3,o,0_में,0' drel='k7:हैं' posn='370' vpos='vib_2' name='संपर्क' chunkId='NP12' chunkType='head:NP12'>
38	में	PSP	<fs af='में,psp,,,,,,' posn='380' drel='lwg__psp:संपर्क' chunkType='child:NP12' name='में2'>
39	हैं	VM	<fs af='है,v,any,pl,3,,है,hE' drel='vmod:हो' stype='declarative' posn='390' voicetype='active' name='हैं' chunkId='VGF3' chunkType='head:VGF3'>
40	।	SYM	<fs af='।,punc,,,,,,' drel='rsym:कहा' posn='400' name='।' chunkId='BLK' chunkType='head:BLK'>
</Sentence>


<Sentence id="5">
1	उन्होंने	PRP	<fs af='वह,pn,any,sg,3h,o,ने,ne' drel='k1:कहा' posn='10' name='उन्होंने' chunkId='NP' chunkType='head:NP'>
2	कहा	VM	<fs af='कह,v,m,sg,any,,या,yA' stype='declarative' posn='20' voicetype='active' name='कहा' chunkId='VGF' chunkType='head:VGF'>
3	कि	CC	<fs af='कि,avy,,,,,,' drel='k2:कहा' posn='30' name='कि' chunkId='CCP' chunkType='head:CCP'>
4	देश	NN	<fs af='देश,n,m,sg,3,o,0_में,0' drel='k7p:करने' posn='40' vpos='vib_2' name='देश' chunkId='NP2' chunkType='head:NP2'>
5	में	PSP	<fs af='में,psp,,,,,,' posn='50' drel='lwg__psp:देश' chunkType='child:NP2' name='में'>
6	बिजली	NN	<fs af='बिजली,n,f,sg,3,o,0_का,0' drel='r6:उपलब्धता' posn='60' vpos='vib_2' name='बिजली' chunkId='NP3' chunkType='head:NP3'>
7	की	PSP	<fs af='का,psp,f,sg,,d,,' posn='70' drel='lwg__psp:बिजली' chunkType='child:NP3' name='की'>
8	पर्याप्त	JJ	<fs af='पर्याप्त,adj,any,any,,d,,' posn='80' drel='nmod__adj:उपलब्धता' chunkType='child:NP4' name='पर्याप्त'>
9	उपलब्धता	NN	<fs af='उपलब्धता,n,f,sg,3,d,0,0' drel='k2:करने' posn='90' name='उपलब्धता' chunkId='NP4' chunkType='head:NP4'>
10	सुनिश्चित	JJ	<fs af='सुनिश्चित,adj,any,any,,,,' drel='pof:करने' posn='100' name='सुनिश्चित' chunkId='JJP' chunkType='head:JJP'>
11	करने	VM	<fs af='कर,v,any,any,any,o,ना_के_लिए,nA' drel='rt:की2' posn='110' vpos='tam_2_3' name='करने' chunkId='VGNN' chunkType='head:VGNN'>
12	के	PSP	<fs af='के,psp,,,,,,' posn='120' drel='lwg__psp:करने' chunkType='child:VGNN' name='के'>
13	लिए	PSP	<fs af='लिए,psp,,,,,,' posn='130' drel='lwg__psp:करने' chunkType='child:VGNN' name='लिए'>
14	सरकार	NN	<fs af='सरकार,n,f,sg,3,o,0_ने,0' drel='k1:की2' posn='140' vpos='vib_2' name='सरकार' chunkId='NP5' chunkType='head:NP5'>
15	ने	PSP	<fs af='ने,psp,,,,,,' posn='150' drel='lwg__psp:सरकार' chunkType='child:NP5' name='ने'>
16	रणनीति	NN	<fs af='रणनीति,n,f,sg,3,d,0,0' drel='k2:की2' posn='160' name='रणनीति' chunkId='NP6' chunkType='head:NP6'>
17	तैयार	JJ	<fs af='तैयार,adj,any,any,,,,' drel='pof:की2' posn='170' name='तैयार' chunkId='JJP2' chunkType='head:JJP2'>
18	की	VM	<fs af='कर,v,f,sg,3,,या_है,yA' drel='ccof:कि' stype='declarative' posn='180' voicetype='active' vpos='tam_2' name='की2' chunkId='VGF2' chunkType='head:VGF2'>
19	है	VAUX	<fs af='है,v,any,sg,3,,है,hE' posn='190' drel='lwg__vaux:की2' chunkType='child:VGF2' name='है'>
20	।	SYM	<fs af='।,punc,,,,,,' drel='rsym:कहा' posn='200' name='।' chunkId='BLK' chunkType='head:BLK'>
</Sentence>


<Sentence id="6">
1	इसके	PRP	<fs af='यह,pn,any,sg,3,o,0_तहत,ke' drel='k7a:किए' posn='10' vpos='vib_2' name='इसके' chunkId='NP' chunkType='head:NP'>
2	तहत	PSP	<fs af='तहत,psp,,,,,,' posn='20' drel='lwg__psp:इसके' chunkType='child:NP' name='तहत'>
3	बिजली	NNC	<fs af='बिजली,n,f,sg,3,d,0,0' posn='30' drel='pof__cn:संयंत्रों' chunkType='child:NP2' name='बिजली'>
4	संयंत्रों	NN	<fs af='संयंत्र,n,m,pl,3,o,0_को,0' drel='k2:किए' posn='40' vpos='vib_3' name='संयंत्रों' chunkId='NP2' chunkType='head:NP2'>
5	को	PSP	<fs af='को,psp,,,,,,' posn='50' drel='lwg__psp:संयंत्रों' chunkType='child:NP2' name='को'>
6	ईधन	NN	<fs af='ईधन,n,m,sg,3,o,0_का,0' drel='r6:आपूर्ति' posn='60' vpos='vib_2' name='ईधन' chunkId='NP3' chunkType='head:NP3'>
7	की	PSP	<fs af='का,psp,f,sg,,o,,' posn='70' drel='lwg__psp:ईधन' chunkType='child:NP3' name='की'>
8	आपूर्ति	NN	<fs af='आपूर्ति,n,f,sg,3,o,0_का,0' drel='r6:बाधाओं' posn='80' vpos='vib_2' name='आपूर्ति' chunkId='NP4' chunkType='head:NP4'>
9	की	PSP	<fs af='का,psp,f,pl,,o,,' posn='90' drel='lwg__psp:आपूर्ति' chunkType='child:NP4' name='की2'>
10	बाधाओं	NN	<fs af='बाधा,n,f,pl,3,o,0_को,0' drel='k2:करने' posn='100' vpos='vib_2' name='बाधाओं' chunkId='NP5' chunkType='head:NP5'>
11	को	PSP	<fs af='को,psp,,,,,,' posn='110' drel='lwg__psp:बाधाओं' chunkType='child:NP5' name='को2'>
12	दूर	NST	<fs af='दूर,nst,m,sg,3,d,,' drel='pof:करने' posn='120' name='दूर' chunkId='NP6' chunkType='head:NP6'>
13	करने	VM	<fs af='कर,v,any,any,any,o,ना,nA' drel='ccof:व' posn='130' name='करने' chunkId='VGNN' chunkType='head:VGNN'>
14	,	SYM	<fs af='COMMA,punc,,,,,,' posn='140' drel='rsym:करने' chunkType='child:VGNN' name=','>
15	विभिन्न	JJ	<fs af='विभिन्न,adj,any,any,,o,,' posn='150' drel='nmod__adj:स्तरों' chunkType='child:NP7' name='विभिन्न'>
16	स्तरों	NN	<fs af='स्तर,n,m,pl,3,o,0_पर,0' drel='k7:करने2' posn='160' vpos='vib_3' name='स्तरों' chunkId='NP7' chunkType='head:NP7'>
17	पर	PSP	<fs af='पर,psp,,,,,,' posn='170' drel='lwg__psp:स्तरों' chunkType='child:NP7' name='पर'>
18	परिवहन	NN	<fs af='परिवहन,n,m,sg,3,o,0_का,0' drel='r6-k2:व्यवस्था' posn='180' vpos='vib_2' name='परिवहन' chunkId='NP8' chunkType='head:NP8'>
19	की	PSP	<fs af='का,psp,f,sg,,d,,' posn='190' drel='lwg__psp:परिवहन' chunkType='child:NP8' name='की3'>
20	व्यवस्था	NN	<fs af='व्यवस्था,n,f,sg,3,d,0,0' drel='pof:करने2' posn='200' name='व्यवस्था' chunkId='NP9' chunkType='head:NP9'>
21	करने	VM	<fs af='कर,v,any,any,any,o,ना,nA' drel='ccof:व' posn='210' name='करने2' chunkId='VGNN2' chunkType='head:VGNN2'>
22	व	CC	<fs af='व,avy,,,,,,' drel='r6-k1:उपाय' posn='220' name='व' chunkId='CCP' chunkType='head:CCP'>
23	आवश्यक	JJ	<fs af='आवश्यक,adj,any,any,,o,,' posn='230' drel='nmod__adj:वस्तुओं' chunkType='child:NP10' name='आवश्यक'>
24	वस्तुओं	NN	<fs af='वस्तु,n,f,pl,3,o,0_का,0' drel='r6:आपूर्ति2' posn='240' vpos='vib_3' name='वस्तुओं' chunkId='NP10' chunkType='head:NP10'>
25	की	PSP	<fs af='का,psp,f,sg,,d,,' posn='250' drel='lwg__psp:वस्तुओं' chunkType='child:NP10' name='की4'>
26	आपूर्ति	NN	<fs af='आपूर्ति,n,f,sg,3,d,0,0' drel='k2:करने3' posn='260' name='आपूर्ति2' chunkId='NP11' chunkType='head:NP11'>
27	सुनिश्चित	JJ	<fs af='सुनिश्चित,adj,any,any,,,,' drel='pof:करने3' posn='270' name='सुनिश्चित' chunkId='JJP' chunkType='head:JJP'>
28	करने	VM	<fs af='कर,v,any,pl,any,o,ना_का,nA' drel='ccof:व' posn='280' vpos='tam_2' name='करने3' chunkId='VGNN3' chunkType='head:VGNN3'>
29	के	PSP	<fs af='का,psp,m,pl,,d,,' posn='290' drel='lwg__psp:करने3' chunkType='child:VGNN3' name='के'>
30	उपाय	NN	<fs af='उपाय,n,m,pl,3,d,0,0' drel='pof:किए' posn='300' name='उपाय' chunkId='NP12' chunkType='head:NP12'>
31	किए	VM	<fs af='कर,v,m,pl,3,,या_जा+गा,yA' stype='declarative' posn='310' voicetype='active' vpos='tam_2' name='किए' chunkId='VGF' chunkType='head:VGF'>
32	जायेंगे	VAUX	<fs af='जा,v,m,pl,3,,गा,gA' posn='320' drel='lwg__vaux:किए' chunkType='child:VGF' name='जायेंगे'>
33	।	SYM	<fs af='।,punc,,,,,,' drel='rsym:किए' posn='330' name='।' chunkId='BLK' chunkType='head:BLK'>
</Sentence>


<Sentence id="7">
1	उन्होंने	PRP	<fs af='वह,pn,any,sg,3h,o,ने,ne' drel='k1:कहा' posn='10' name='उन्होंने' chunkId='NP' chunkType='head:NP'>
2	कहा	VM	<fs af='कह,v,m,sg,any,,या,yA' stype='declarative' posn='20' voicetype='active' name='कहा' chunkId='VGF' chunkType='head:VGF'>
3	कि	CC	<fs af='कि,avy,,,,,,' drel='k2:कहा' posn='30' name='कि' chunkId='CCP' chunkType='head:CCP'>
4	वर्ष	NN	<fs af='वर्ष,n,m,sg,3,d,0,0' posn='40' drel='nmod:२०१२' chunkType='child:NP2' name='वर्ष'>
5	२०१२	NNP	<fs af='२०१२,n,m,sg,3,o,0_तक,0' drel='k7t:है' posn='50' vpos='vib_vib_3' name='२०१२' chunkId='NP2' chunkType='head:NP2'>
6	तक	PSP	<fs af='तक,psp,,,,,,' posn='60' drel='lwg__psp:२०१२' chunkType='child:NP2' name='तक'>
7	देश	NN	<fs af='देश,n,m,sg,3,o,0_को,0' drel='k2:बनाना' posn='70' vpos='vib_2' name='देश' chunkId='NP3' chunkType='head:NP3'>
8	को	PSP	<fs af='को,psp,,,,,,' posn='80' drel='lwg__psp:देश' chunkType='child:NP3' name='को'>
9	सक्षम	JJ	<fs af='सक्षम,adj,any,any,,,,' drel='pof:बनाना' posn='90' name='सक्षम' chunkId='JJP' chunkType='head:JJP'>
10	बनाना	VM	<fs af='बना,v,any,any,any,d,ना,nA' drel='k2:है' posn='100' name='बनाना' chunkId='VGNN' chunkType='head:VGNN'>
11	एक	QC	<fs af='एक,num,any,any,,any,,' posn='110' drel='nmod__adj:चुनौती' chunkType='child:NP4' name='एक'>
12	बड़ी	JJ	<fs af='बड़ा,adj,f,any,,d,,' posn='120' drel='nmod__adj:चुनौती' chunkType='child:NP4' name='बड़ी'>
13	चुनौती	NN	<fs af='चुनौती,n,f,sg,3,d,0,0' drel='k1:है' posn='130' name='चुनौती' chunkId='NP4' chunkType='head:NP4'>
14	है	VM	<fs af='है,v,any,sg,3,,है,hE' drel='ccof:कि' stype='declarative' posn='140' voicetype='active' name='है' chunkId='VGF2' chunkType='head:VGF2'>
15	,	SYM	<fs af='COMMA,punc,,,,,,' posn='150' drel='rsym:है' chunkType='child:VGF2' name=','>
16	क्योंकि	CC	<fs af='क्योंकि,avy,,,,,,' drel='rh:है' posn='160' name='क्योंकि' chunkId='CCP2' chunkType='head:CCP2'>
17	५.६	QCC	<fs af='५.६,num,any,any,,any,,' posn='170' drel='mod:घरों' chunkType='child:NP5' name='५.६'>
18	करोड़	QC	<fs af='करोड,num,any,pl,,any,,' posn='180' drel='nmod__adj:घरों' chunkType='child:NP5' name='करोड़'>
19	घरों	NN	<fs af='घर,n,m,pl,3,o,0_में,0' drel='k7p:है2' posn='190' vpos='vib_4' name='घरों' chunkId='NP5' chunkType='head:NP5'>
20	में	PSP	<fs af='में,psp,,,,,,' posn='200' drel='lwg__psp:घरों' chunkType='child:NP5' name='में'>
21	अभी	PRP	<fs af='अभी,pn,,,,,,' drel='k7t:है2' posn='210' name='अभी' chunkId='NP6' chunkType='head:NP6'>
22	भी	RP	<fs af='भी,avy,,,,,,' posn='220' drel='lwg__rp:अभी' chunkType='child:NP6' name='भी'>
23	बिजली	NN	<fs af='बिजली,n,f,sg,3,o,0_का,0' drel='r6:व्यवस्था' posn='230' vpos='vib_2' name='बिजली' chunkId='NP7' chunkType='head:NP7'>
24	की	PSP	<fs af='का,psp,f,sg,,d,,' posn='240' drel='lwg__psp:बिजली' chunkType='child:NP7' name='की'>
25	पर्याप्त	JJ	<fs af='पर्याप्त,adj,any,any,,d,,' posn='250' drel='nmod__adj:व्यवस्था' chunkType='child:NP8' name='पर्याप्त'>
26	व्यवस्था	NN	<fs af='व्यवस्था,n,f,sg,3,d,0,0' drel='k1:है2' posn='260' name='व्यवस्था' chunkId='NP8' chunkType='head:NP8'>
27	नहीं	NEG	<fs af='नहीं,avy,,,,,,' posn='270' drel='lwg__neg:है2' chunkType='child:VGF3' name='नहीं'>
28	है	VM	<fs af='है,v,any,sg,3,,है,hE' drel='ccof:क्योंकि' stype='declarative' posn='280' voicetype='active' name='है2' chunkId='VGF3' chunkType='head:VGF3'>
29	।	SYM	<fs af='।,punc,,,,,,' drel='rsym:कहा' posn='290' name='।' chunkId='BLK' chunkType='head:BLK'>
</Sentence>


<Sentence id="8">
1	पश्चिम	NNPC	<fs af='पश्चिम,n,m,sg,3,d,0,0' posn='10' drel='pof__cn:बंगाल' chunkType='child:NP' name='पश्चिम'>
2	बंगाल	NNP	<fs af='बंगाल,n,m,sg,3,o,0,0' drel='ccof:व' posn='20' name='बंगाल' chunkId='NP' chunkType='head:NP'>
3	,	SYM	<fs af='COMMA,punc,,,,,,' posn='30' drel='rsym:बंगाल' chunkType='child:NP' name=','>
4	बिहार	NNP	<fs af='बिहार,n,m,sg,3,o,0,0' drel='ccof:व' posn='40' name='बिहार' chunkId='NP2' chunkType='head:NP2'>
5	,	SYM	<fs af='COMMA,punc,,,,,,' posn='50' drel='rsym:बिहार' chunkType='child:NP2' name=',2'>
6	झारखंड	NNP	<fs af='झारखंड,n,m,sg,3,o,0,0' drel='ccof:व' posn='60' name='झारखंड' chunkId='NP3' chunkType='head:NP3'>
7	,	SYM	<fs af='COMMA,punc,,,,,,' posn='70' drel='rsym:झारखंड' chunkType='child:NP3' name=',3'>
8	उड़ीसा	NNP	<fs af='उड़ीसा,n,m,sg,3,o,0,0' drel='ccof:व' posn='80' name='उड़ीसा' chunkId='NP4' chunkType='head:NP4'>
9	,	SYM	<fs af='COMMA,punc,,,,,,' posn='90' drel='rsym:उड़ीसा' chunkType='child:NP4' name=',4'>
10	असम	NNP	<fs af='असम,n,m,sg,3,o,0,0' drel='ccof:व' posn='100' name='असम' chunkId='NP5' chunkType='head:NP5'>
11	व	CC	<fs af='व,avy,,,,,,' drel='r6:घरों' posn='110' name='व' chunkId='CCP' chunkType='head:CCP'>
12	उत्तर	NNPC	<fs af='उत्तर,n,m,sg,3,d,0,0' posn='120' drel='pof__cn:प्रदेश' chunkType='child:NP6' name='उत्तर'>
13	प्रदेश	NNP	<fs af='प्रदेश,n,m,sg,3,o,0_का,0' drel='ccof:व' posn='130' vpos='vib_3' name='प्रदेश' chunkId='NP6' chunkType='head:NP6'>
14	के	PSP	<fs af='का,psp,m,pl,,o,,' posn='140' drel='lwg__psp:प्रदेश' chunkType='child:NP6' name='के'>
15	८०	QC	<fs af='८०,num,any,any,,any,,' posn='150' drel='nmod__adj:फीसदी' chunkType='child:NP7' name='८०'>
16	फीसदी	NN	<fs af='फीसदी,n,f,sg,3,d,0,0' posn='160' drel='nmod:घरों' chunkType='child:NP7' name='फीसदी'>
17	ग्रामीण	JJ	<fs af='ग्रामीण,adj,any,any,,o,,' posn='170' drel='nmod__adj:घरों' chunkType='child:NP7' name='ग्रामीण'>
18	घरों	NN	<fs af='घर,n,m,pl,3,o,0_में,0' drel='k7p:है' posn='180' vpos='vib_vib_5' name='घरों' chunkId='NP7' chunkType='head:NP7'>
19	में	PSP	<fs af='में,psp,,,,,,' posn='190' drel='lwg__psp:घरों' chunkType='child:NP7' name='में'>
20	बिजली	NN	<fs af='बिजली,n,f,sg,3,d,0,0' drel='k1:है' posn='200' name='बिजली' chunkId='NP8' chunkType='head:NP8'>
21	नहीं	NEG	<fs af='नहीं,avy,,,,,,' posn='210' drel='lwg__neg:है' chunkType='child:VGF' name='नहीं'>
22	है	VM	<fs af='है,v,any,sg,3,,है,hE' stype='declarative' posn='220' voicetype='active' name='है' chunkId='VGF' chunkType='head:VGF'>
23	।	SYM	<fs af='।,punc,,,,,,' drel='rsym:है' posn='230' name='।' chunkId='BLK' chunkType='head:BLK'>
</Sentence>


<Sentence id="9">
1	शाही	NNP	<fs af='शाही,n,m,sg,3,o,0_ने,0' drel='k1:कहा' posn='10' vpos='vib_2' name='शाही' chunkId='NP' chunkType='head:NP'>
2	ने	PSP	<fs af='ने,psp,,,,,,' posn='20' drel='lwg__psp:शाही' chunkType='child:NP' name='ने'>
3	कहा	VM	<fs af='कह,v,m,sg,any,,या,yA' stype='declarative' posn='30' voicetype='active' name='कहा' chunkId='VGF' chunkType='head:VGF'>
4	कि	CC	<fs af='कि,avy,,,,,,' drel='k2:कहा' posn='40' name='कि' chunkId='CCP' chunkType='head:CCP'>
5	पूंजी	NN	<fs af='पूंजी,n,f,sg,3,o,0_का,0' drel='r6:निवेश' posn='50' vpos='vib_2' name='पूंजी' chunkId='NP2' chunkType='head:NP2'>
6	के	PSP	<fs af='का,psp,m,sg,,o,,' posn='60' drel='lwg__psp:पूंजी' chunkType='child:NP2' name='के'>
7	निवेश	NN	<fs af='निवेश,n,m,sg,3,o,0_से,0' drel='k3:है' posn='70' vpos='vib_2' name='निवेश' chunkId='NP3' chunkType='head:NP3'>
8	से	PSP	<fs af='से,psp,,,,,,' posn='80' drel='lwg__psp:निवेश' chunkType='child:NP3' name='से'>
9	ग्रामीण	JJ	<fs af='ग्रामीण,adj,any,any,,o,,' posn='90' drel='nmod__adj:विद्युतीकरण' chunkType='child:NP4' name='ग्रामीण'>
10	विद्युतीकरण	NN	<fs af='विद्युतीकरण,n,m,sg,3,o,0_का,0' drel='r6:गति' posn='100' vpos='vib_3' name='विद्युतीकरण' chunkId='NP4' chunkType='head:NP4'>
11	की	PSP	<fs af='का,psp,f,sg,,o,,' posn='110' drel='lwg__psp:विद्युतीकरण' chunkType='child:NP4' name='की'>
12	गति	NN	<fs af='गति,n,f,sg,3,o,0_में,0' drel='k7:लाए' posn='120' vpos='vib_2' name='गति' chunkId='NP5' chunkType='head:NP5'>
13	में	PSP	<fs af='में,psp,,,,,,' posn='130' drel='lwg__psp:गति' chunkType='child:NP5' name='में'>
14	तेजी	NN	<fs af='तेजी,n,f,sg,3,d,0,0' drel='k2:लाए' posn='140' name='तेजी' chunkId='NP6' chunkType='head:NP6'>
15	लाए	VM	<fs af='ला,v,m,sg,any,,या_का,yA' drel='r6:जरूरत' posn='150' vpos='tam_3' name='लाए' chunkId='VGNN' chunkType='head:VGNN'>
16	जाने	VM	<fs af='जा,v,any,any,any,o,ना,nA' posn='160' drel='lwg__vm:लाए' chunkType='child:VGNN' name='जाने'>
17	की	PSP	<fs af='का,psp,f,sg,,d,,' posn='170' drel='lwg__psp:लाए' chunkType='child:VGNN' name='की2'>
18	जरूरत	NN	<fs af='जरूरत,n,f,sg,3,d,0,0' drel='k1:है' posn='180' name='जरूरत' chunkId='NP7' chunkType='head:NP7'>
19	है	VM	<fs af='है,v,any,sg,3,,है,hE' drel='ccof:कि' stype='declarative' posn='190' voicetype='active' name='है' chunkId='VGF2' chunkType='head:VGF2'>
20	।	SYM	<fs af='।,punc,,,,,,' drel='rsym:कहा' posn='200' name='।' chunkId='BLK' chunkType='head:BLK'>
</Sentence>


<Sentence id="10">
1	इसके	PRP	<fs af='यह,pn,any,sg,3,o,0_लिए,ke' drel='rt:ली' posn='10' vpos='vib_2' name='इसके' chunkId='NP' chunkType='head:NP'>
2	लिए	PSP	<fs af='लिए,psp,,,,,,' posn='20' drel='lwg__psp:इसके' chunkType='child:NP' name='लिए'>
3	समयबद्घ	JJ	<fs af='समयबद्घ,adj,any,any,,o,,' posn='30' drel='nmod__adj:लक्ष्यों' chunkType='child:NP2' name='समयबद्घ'>
4	लक्ष्यों	NN	<fs af='लक्ष्य,n,m,pl,3,o,0_को,0' drel='k2:करने' posn='40' vpos='vib_3' name='लक्ष्यों' chunkId='NP2' chunkType='head:NP2'>
5	को	PSP	<fs af='को,psp,,,,,,' posn='50' drel='lwg__psp:लक्ष्यों' chunkType='child:NP2' name='को'>
6	पूरा	JJ	<fs af='पूरा,adj,m,sg,,d,,' drel='pof:करने' posn='60' name='पूरा' chunkId='JJP' chunkType='head:JJP'>
7	करने	VM	<fs af='कर,v,any,any,any,o,ना_के_लिए,nA' drel='rt:ली' posn='70' vpos='tam_2_3' name='करने' chunkId='VGNN' chunkType='head:VGNN'>
8	के	PSP	<fs af='के,psp,,,,,,' posn='80' drel='lwg__psp:करने' chunkType='child:VGNN' name='के'>
9	लिए	PSP	<fs af='लिए,psp,,,,,,' posn='90' drel='lwg__psp:करने' chunkType='child:VGNN' name='लिए2'>
10	केंद्र	NNP	<fs af='केंद्र,n,m,sg,3,o,0_द्वारा,0' drel='k1:ली' posn='100' vpos='vib_2' name='केंद्र' chunkId='NP3' chunkType='head:NP3'>
11	द्वारा	PSP	<fs af='द्वारा,psp,,,,,,' posn='110' drel='lwg__psp:केंद्र' chunkType='child:NP3' name='द्वारा'>
12	९०	QC	<fs af='९०,num,any,any,,any,,' posn='120' drel='nmod__adj:अनुदान' chunkType='child:NP4' name='९०'>
13	फीसदी	NN	<fs af='फीसदी,n,f,sg,3,d,0,0' posn='130' drel='nmod:अनुदान' chunkType='child:NP4' name='फीसदी'>
14	अनुदान	NN	<fs af='अनुदान,n,m,sg,3,o,0_के_साथ,0' drel='ras-k2:ली' posn='140' vpos='vib_vib_4_5_RP' name='अनुदान' chunkId='NP4' chunkType='head:NP4'>
15	के	PSP	<fs af='के,psp,,,,,,' posn='150' drel='lwg__psp:अनुदान' chunkType='child:NP4' name='के2'>
16	साथ	NST	<fs af='साथ,nst,m,sg,3,d,,' posn='160' drel='lwg__psp:अनुदान' chunkType='child:NP4' name='साथ'>
17	ही	RP	<fs af='ही,avy,,,,,,' posn='170' drel='lwg__rp:अनुदान' chunkType='child:NP4' name='ही'>
18	केंद्रीय	JJ	<fs af='केंद्रीय,adj,any,any,,o,,' posn='180' drel='nmod__adj:पीएसयू' chunkType='child:NP5' name='केंद्रीय'>
19	पीएसयू	NN	<fs af='पीएसयू,n,m,sg,3,o,0_का,0' drel='r6:सहयोग' posn='190' vpos='vib_3' name='पीएसयू' chunkId='NP5' chunkType='head:NP5'>
20	का	PSP	<fs af='का,psp,m,sg,,d,,' posn='200' drel='lwg__psp:पीएसयू' chunkType='child:NP5' name='का'>
21	सहयोग	NN	<fs af='सहयोग,n,m,sg,3,d,0,0' drel='ccof:व' posn='210' name='सहयोग' chunkId='NP6' chunkType='head:NP6'>
22	व	CC	<fs af='व,avy,,,,,,' drel='k2:ली' posn='220' name='व' chunkId='CCP' chunkType='head:CCP'>
23	राज्यों	NN	<fs af='राज्य,n,m,pl,3,o,0_का,0' drel='r6:एजेंसियों' posn='230' vpos='vib_2' name='राज्यों' chunkId='NP7' chunkType='head:NP7'>
24	की	PSP	<fs af='का,psp,f,sg,,o,,' posn='240' drel='lwg__psp:राज्यों' chunkType='child:NP7' name='की'>
25	एजेंसियों	NN	<fs af='एजेंसी,n,f,sg,3,o,0_का,0' drel='r6:सहायता' posn='250' vpos='vib_2' name='एजेंसियों' chunkId='NP8' chunkType='head:NP8'>
26	की	PSP	<fs af='का,psp,f,sg,,d,,' posn='260' drel='lwg__psp:एजेंसियों' chunkType='child:NP8' name='की2'>
27	सहायता	NN	<fs af='सहायता,n,f,sg,3,d,0,0' drel='ccof:व' posn='270' name='सहायता' chunkId='NP9' chunkType='head:NP9'>
28	ली	VM	<fs af='ले,v,f,any,any,,या_जा+ना_चाहिए,yA' stype='declarative' posn='280' voicetype='active' vpos='tam_2_3' name='ली' chunkId='VGF' chunkType='head:VGF'>
29	जानी	VAUX	<fs af='जा,v,f,sg,any,,ना,nA' posn='290' drel='lwg__vaux:ली' chunkType='child:VGF' name='जानी'>
30	चाहिए	VAUX	<fs af='चाहिए,v,any,any,any,,0,0' posn='300' drel='lwg__vaux:ली' chunkType='child:VGF' name='चाहिए'>
31	।	SYM	<fs af='।,punc,,,,,,' drel='rsym:ली' posn='310' name='।' chunkId='BLK' chunkType='head:BLK'>
</Sentence>


<Sentence id="11">
1	उन्होंने	PRP	<fs af='वह,pn,any,sg,3h,o,ने,ne' drel='k1:दिया' posn='10' name='उन्होंने' chunkId='NP' chunkType='head:NP'>
2	बिजली	NN	<fs af='बिजली,n,f,sg,3,o,0_का,0' drel='r6:चोरी' posn='20' vpos='vib_2' name='बिजली' chunkId='NP2' chunkType='head:NP2'>
3	की	PSP	<fs af='का,psp,f,sg,,d,,' posn='30' drel='lwg__psp:बिजली' chunkType='child:NP2' name='की'>
4	चोरी	NN	<fs af='चोरी,n,f,sg,3,d,0,0' drel='k2:रोकने' posn='40' name='चोरी' chunkId='NP3' chunkType='head:NP3'>
5	रोकने	VM	<fs af='रोक,v,any,sg,any,o,ना_का,nA' drel='r6:जरूरत' posn='50' vpos='tam_2' name='रोकने' chunkId='VGNN' chunkType='head:VGNN'>
6	की	PSP	<fs af='का,psp,f,sg,,o,,' posn='60' drel='lwg__psp:रोकने' chunkType='child:VGNN' name='की2'>
7	जरूरत	NN	<fs af='जरूरत,n,f,sg,3,o,0_पर,0' drel='k7:दिया' posn='70' vpos='vib_2' name='जरूरत' chunkId='NP4' chunkType='head:NP4'>
8	पर	PSP	<fs af='पर,psp,,,,,,' posn='80' drel='lwg__psp:जरूरत' chunkType='child:NP4' name='पर'>
9	बल	NN	<fs af='बल,n,m,sg,3,d,0,0' drel='pof:दिया' posn='90' name='बल' chunkId='NP5' chunkType='head:NP5'>
10	दिया	VM	<fs af='दे,v,m,sg,any,,या,yA' stype='declarative' posn='100' voicetype='active' name='दिया' chunkId='VGF' chunkType='head:VGF'>
11	।	SYM	<fs af='।,punc,,,,,,' drel='rsym:दिया' posn='110' name='।' chunkId='BLK' chunkType='head:BLK'>
</Sentence>


<Sentence id="12">
1	न	NEG	<fs af='न,avy,,,,,,' posn='10' drel='nmod__neg:उद्योगों' chunkType='child:NP' name='न'>
2	सिर्फ	RP	<fs af='सिर्फ,avy,,,,,,' posn='20' drel='lwg__rp:उद्योगों' chunkType='child:NP' name='सिर्फ'>
3	उद्योगों	NN	<fs af='उद्योग,n,m,pl,3,o,0_द्वारा,0' drel='k1:NULL' posn='30' vpos='vib_4' name='उद्योगों' chunkId='NP' chunkType='head:NP'>
4	द्वारा	PSP	<fs af='द्वारा,psp,,,,,,' posn='40' drel='lwg__psp:उद्योगों' chunkType='child:NP' name='द्वारा'>
5	NULL	VM	<fs dmrel='ccof:बल्कि' mtype='gap' troot='कर' voicetype='active' stype='declarative' name='NULL' chunkId='NULL__VGF' chunkType='head:NULL__VGF'>
6	बल्कि	CC	<fs af='बल्कि,avy,,,,,,' posn='50' name='बल्कि' chunkId='CCP' chunkType='head:CCP'>
7	उच्च	JJ	<fs af='उच्च,adj,any,any,,o,,' posn='60' drel='nmod__adj:वर्ग' chunkType='child:NP2' name='उच्च'>
8	वर्ग	NN	<fs af='वर्ग,n,m,sg,3,o,0_का,0' drel='r6:उपभोक्ताओं' posn='70' vpos='vib_3' name='वर्ग' chunkId='NP2' chunkType='head:NP2'>
9	के	PSP	<fs af='का,psp,m,pl,,o,,' posn='80' drel='lwg__psp:वर्ग' chunkType='child:NP2' name='के'>
10	उपभोक्ताओं	NN	<fs af='उपभोक्ता,n,m,pl,3,o,0,0' drel='ccof:व' posn='90' name='उपभोक्ताओं' chunkId='NP3' chunkType='head:NP3'>
11	व	CC	<fs af='व,avy,,,,,,' drel='k1:की2' posn='100' name='व' chunkId='CCP2' chunkType='head:CCP2'>
12	व्यावसायिक	JJ	<fs af='व्यावसायिक,adj,any,any,,o,,' posn='110' drel='nmod__adj:संस्थानों' chunkType='child:NP4' name='व्यावसायिक'>
13	संस्थानों	NN	<fs af='संस्थान,n,m,pl,3,o,0_द्वारा,0' drel='ccof:व' posn='120' vpos='vib_3' name='संस्थानों' chunkId='NP4' chunkType='head:NP4'>
14	द्वारा	PSP	<fs af='द्वारा,psp,,,,,,' posn='130' drel='lwg__psp:संस्थानों' chunkType='child:NP4' name='द्वारा2'>
15	बिजली	NN	<fs af='बिजली,n,f,sg,3,o,0_का,0' drel='r6-k2:चोरी' posn='140' vpos='vib_2' name='बिजली' chunkId='NP5' chunkType='head:NP5'>
16	की	PSP	<fs af='का,psp,f,sg,,d,,' posn='150' drel='lwg__psp:बिजली' chunkType='child:NP5' name='की'>
17	चोरी	NN	<fs af='चोरी,n,f,sg,3,d,0,0' drel='pof:की2' posn='160' name='चोरी' chunkId='NP6' chunkType='head:NP6'>
18	की	VM	<fs af='कर,v,f,sg,3,,या_जा_रह+या_है,yA' drel='ccof:बल्कि' stype='declarative' posn='170' voicetype='active' vpos='tam_2_3_4' name='की2' chunkId='VGF' chunkType='head:VGF'>
19	जा	VAUX	<fs af='जा,v,any,any,any,,0,0' posn='180' drel='lwg__vaux:की2' chunkType='child:VGF' name='जा'>
20	रही	VAUX	<fs af='रह,v,f,sg,any,,या,yA' posn='190' drel='lwg__vaux:की2' chunkType='child:VGF' name='रही'>
21	है	VAUX	<fs af='है,v,any,sg,3,,है,hE' posn='200' drel='lwg__vaux:की2' chunkType='child:VGF' name='है'>
22	।	SYM	<fs af='।,punc,,,,,,' drel='rsym:बल्कि' posn='210' name='।' chunkId='BLK' chunkType='head:BLK'>
</Sentence>


<Sentence id="13">
1	दिल्ली	NNP	<fs af='दिल्ली,n,f,sg,3,o,0_का,0' drel='r6-k1:जिक्र' posn='10' vpos='vib_2' name='दिल्ली' chunkId='NP' chunkType='head:NP'>
2	का	PSP	<fs af='का,psp,m,sg,,d,,' posn='20' drel='lwg__psp:दिल्ली' chunkType='child:NP' name='का'>
3	जिक्र	NN	<fs af='जिक्र,n,m,sg,3,d,0,0' drel='pof:करते' posn='30' name='जिक्र' chunkId='NP2' chunkType='head:NP2'>
4	करते	VM	<fs af='कर,v,m,sg,any,,ता_हो+या,wA' drel='vmod:कहा' posn='40' vpos='tam_2' name='करते' chunkId='VGNF' chunkType='head:VGNF'>
5	हुए	VAUX	<fs af='हो,v,m,sg,any,,या,yA' posn='50' drel='lwg__vaux:करते' chunkType='child:VGNF' name='हुए'>
6	उन्होंने	PRP	<fs af='वह,pn,any,sg,3h,o,ने,ne' drel='k1:कहा' posn='60' name='उन्होंने' chunkId='NP3' chunkType='head:NP3'>
7	कहा	VM	<fs af='कह,v,m,sg,any,,या,yA' stype='declarative' posn='70' voicetype='active' name='कहा' chunkId='VGF' chunkType='head:VGF'>
8	कि	CC	<fs af='कि,avy,,,,,,' drel='k2:कहा' posn='80' name='कि' chunkId='CCP' chunkType='head:CCP'>
9	यहां	PRP	<fs af='यहाँ,pn,,,,,,' drel='k7p:होने' posn='90' name='यहां' chunkId='NP4' chunkType='head:NP4'>
10	होने	VM	<fs af='हो,v,any,sg,any,o,ना_वाला,nA' drel='nmod:पारेषण' posn='100' vpos='tam_2' name='होने' chunkId='VGNN' chunkType='head:VGNN'>
11	वाले	PSP	<fs af='वाला,psp,m,sg,,o,,' posn='110' drel='lwg__psp:होने' chunkType='child:VGNN' name='वाले'>
12	४५	QC	<fs af='४५,num,any,any,,any,,' posn='120' drel='nmod__adj:पारेषण' chunkType='child:NP5' name='४५'>
13	फीसदी	NN	<fs af='फीसदी,n,f,sg,3,d,0,0' posn='130' drel='nmod:पारेषण' chunkType='child:NP5' name='फीसदी'>
14	पारेषण	NN	<fs af='पारेषण,n,m,sg,3,o,0,0' drel='ccof:व' posn='140' name='पारेषण' chunkId='NP5' chunkType='head:NP5'>
15	व	CC	<fs af='व,avy,,,,,,' drel='k1:होता' posn='150' name='व' chunkId='CCP2' chunkType='head:CCP2'>
16	वितरण	NNC	<fs af='वितरण,n,m,sg,3,d,0,0' posn='160' drel='pof__cn:नुकसान' chunkType='child:NP6' name='वितरण'>
17	नुकसान	NN	<fs af='नुकसान,n,m,sg,3,o,0_का,0' drel='r6:फीसदी2' posn='170' vpos='vib_3' name='नुकसान' chunkId='NP6' chunkType='head:NP6'>
18	का	PSP	<fs af='का,psp,m,sg,,d,,' posn='180' drel='lwg__psp:नुकसान' chunkType='child:NP6' name='का2'>
19	सिर्फ	RP	<fs af='सिर्फ,avy,,,,,,' posn='190' drel='lwg__rp:फीसदी2' chunkType='child:NP7' name='सिर्फ'>
20	१५	QC	<fs af='१५,num,any,any,,any,,' posn='200' drel='nmod__adj:फीसदी2' chunkType='child:NP7' name='१५'>
21	फीसदी	NN	<fs af='फीसदी,n,f,sg,3,d,0,0' drel='ccof:व' posn='210' name='फीसदी2' chunkId='NP7' chunkType='head:NP7'>
22	तकनीकी	JJ	<fs af='तकनीकी,adj,any,any,,o,,' posn='220' drel='nmod__adj:कारणों' chunkType='child:NP8' name='तकनीकी'>
23	कारणों	NN	<fs af='कारण,n,m,pl,3,o,0_से,0' drel='rh:होता' posn='230' vpos='vib_3' name='कारणों' chunkId='NP8' chunkType='head:NP8'>
24	से	PSP	<fs af='से,psp,,,,,,' posn='240' drel='lwg__psp:कारणों' chunkType='child:NP8' name='से'>
25	होता	VM	<fs af='हो,v,m,sg,3,,ता_है,wA' drel='ccof:NULL' stype='declarative' posn='250' voicetype='active' vpos='tam_2' name='होता' chunkId='VGF2' chunkType='head:VGF2'>
26	है	VAUX	<fs af='है,v,any,sg,3,,है,hE' posn='260' drel='lwg__vaux:होता' chunkType='child:VGF2' name='है'>
27	,	SYM	<fs af='COMMA,punc,,,,,,' posn='270' drel='rsym:होता' chunkType='child:VGF2' name=','>
28	NULL	CC	<fs mtype='gap' troot='और' dmrel='ccof:कि' name='NULL' chunkId='NULL__CCP' chunkType='head:NULL__CCP'>
29	शेष	JJ	<fs af='शेष,adj,any,any,,o,,' posn='280' drel='nmod__adj:नुकसान2' chunkType='child:NP9' name='शेष'>
30	नुकसान	NN	<fs af='नुकसान,n,m,sg,3,o,0_का,0' drel='r6:कारण' posn='290' vpos='vib_3' name='नुकसान2' chunkId='NP9' chunkType='head:NP9'>
31	का	PSP	<fs af='का,psp,m,sg,,d,,' posn='300' drel='lwg__psp:नुकसान2' chunkType='child:NP9' name='का3'>
32	कारण	NN	<fs af='कारण,n,m,sg,3,d,0,0' drel='k1:है2' posn='310' name='कारण' chunkId='NP10' chunkType='head:NP10'>
33	बिजली	NN	<fs af='बिजली,n,f,sg,3,o,0_का,0' drel='r6:चोरी' posn='320' vpos='vib_2' name='बिजली' chunkId='NP11' chunkType='head:NP11'>
34	की	PSP	<fs af='का,psp,f,sg,,d,,' posn='330' drel='lwg__psp:बिजली' chunkType='child:NP11' name='की'>
35	चोरी	NN	<fs af='चोरी,n,f,sg,3,d,0,0' drel='k1s:है2' posn='340' name='चोरी' chunkId='NP12' chunkType='head:NP12'>
36	है	VM	<fs af='है,v,any,sg,3,,है,hE' drel='ccof:NULL' stype='declarative' posn='350' voicetype='active' name='है2' chunkId='VGF3' chunkType='head:VGF3'>
37	।	SYM	<fs af='।,punc,,,,,,' drel='rsym:कहा' posn='360' name='।' chunkId='BLK' chunkType='head:BLK'>
</Sentence>


<Sentence id="14">
1	सांख्यिकी	NNPC	<fs af='सांख्यिकी,n,f,sg,3,d,0,0' posn='10' drel='pof__cn:मंत्रालय' chunkType='child:NP' name='सांख्यिकी'>
2	मंत्रालय	NNP	<fs af='मंत्रालय,n,m,sg,3,o,0_के_मुताबिक,0' drel='k7a:चल' posn='20' vpos='vib_3_4' name='मंत्रालय' chunkId='NP' chunkType='head:NP'>
3	के	PSP	<fs af='के,psp,,,,,,' posn='30' drel='lwg__psp:मंत्रालय' chunkType='child:NP' name='के'>
4	मुताबिक	PSP	<fs af='मुताबिक,psp,,,,,,' posn='40' drel='lwg__psp:मंत्रालय' chunkType='child:NP' name='मुताबिक'>
5	४४	QC	<fs af='४४,num,any,any,,any,,' posn='50' drel='nmod__adj:परियोजनाएं' chunkType='child:NP2' name='४४'>
6	बिजली	NNC	<fs af='बिजली,n,f,sg,3,d,0,0' posn='60' drel='pof__cn:परियोजनाएं' chunkType='child:NP2' name='बिजली'>
7	परियोजनाएं	NN	<fs af='परियोजना,n,f,pl,3,d,0,0' drel='k2:चल' posn='70' name='परियोजनाएं' chunkId='NP2' chunkType='head:NP2'>
8	जिन	PRP	<fs af='जो,pn,any,pl,3,o,0_पर,0' drel='k7:चल' posn='80' vpos='vib_2' name='जिन' chunkId='NP3' chunkType='head:NP3'>
9	पर	PSP	<fs af='पर,psp,,,,,,' posn='90' drel='lwg__psp:जिन' chunkType='child:NP3' name='पर'>
10	काम	NN	<fs af='काम,n,m,sg,3,d,0,0' drel='k1:चल' posn='100' name='काम' chunkId='NP4' chunkType='head:NP4'>
11	चल	VM	<fs af='चल,v,m,sg,3,,0_रह+या_है,0' stype='declarative' posn='110' voicetype='active' vpos='tam_2_3' name='चल' chunkId='VGF' chunkType='head:VGF'>
12	रहा	VAUX	<fs af='रह,v,m,sg,any,,या,yA' posn='120' drel='lwg__vaux:चल' chunkType='child:VGF' name='रहा'>
13	है	VAUX	<fs af='है,v,any,sg,3,,है,hE' posn='130' drel='lwg__vaux:चल' chunkType='child:VGF' name='है'>
14	।	SYM	<fs af='।,punc,,,,,,' drel='rsym:चल' posn='140' name='।' chunkId='BLK' chunkType='head:BLK'>
</Sentence>


<Sentence id="15">
1	इसमें	PRP	<fs af='यह,pn,any,sg,3,o,0_से,meM' drel='nmod:परियोजनाएं' posn='10' vpos='vib_2' name='इसमें' chunkId='NP' chunkType='head:NP'>
2	से	PSP	<fs af='से,psp,,,,,,' posn='20' drel='lwg__psp:इसमें' chunkType='child:NP' name='से'>
3	३९	QC	<fs af='३९,num,any,any,,any,,' posn='30' drel='nmod__adj:परियोजनाएं' chunkType='child:NP2' name='३९'>
4	परियोजनाएं	NN	<fs af='परियोजना,n,f,pl,3,d,0,0' drel='k1:हो' posn='40' name='परियोजनाएं' chunkId='NP2' chunkType='head:NP2'>
5	११वीं	QO	<fs af='११वाँ,num,f,sg,,o,,' posn='50' drel='nmod__adj:अवधि' chunkType='child:NP3' name='११वीं'>
6	योजना	NNC	<fs af='योजना,n,f,sg,3,d,0,0' posn='60' drel='pof__cn:अवधि' chunkType='child:NP3' name='योजना'>
7	अवधि	NN	<fs af='अवधि,n,f,sg,3,o,0_का,0' drel='r6:वर्ष' posn='70' vpos='vib_4' name='अवधि' chunkId='NP3' chunkType='head:NP3'>
8	के	PSP	<fs af='का,psp,m,sg,,o,,' posn='80' drel='lwg__psp:अवधि' chunkType='child:NP3' name='के'>
9	पहले	QO	<fs af='पहला,num,m,sg,,o,,' posn='90' drel='nmod__adj:वर्ष' chunkType='child:NP4' name='पहले'>
10	वर्ष	NN	<fs af='वर्ष,n,m,sg,3,o,0_तक,0' drel='k7t:हो' posn='100' vpos='vib_3' name='वर्ष' chunkId='NP4' chunkType='head:NP4'>
11	तक	PSP	<fs af='तक,psp,,,,,,' posn='110' drel='lwg__psp:वर्ष' chunkType='child:NP4' name='तक'>
12	पूरी	JJ	<fs af='पूरा,adj,f,sg,,,,' drel='pof:हो' posn='120' name='पूरी' chunkId='JJP' chunkType='head:JJP'>
13	हो	VM	<fs af='हो,v,any,pl,3,,0_जा+गा,0' stype='declarative' posn='130' voicetype='active' vpos='tam_2' name='हो' chunkId='VGF' chunkType='head:VGF'>
14	जायेंगी	VAUX	<fs af='जा,v,f,pl,3,,गा,gA' posn='140' drel='lwg__vaux:हो' chunkType='child:VGF' name='जायेंगी'>
15	।	SYM	<fs af='।,punc,,,,,,' drel='rsym:हो' posn='150' name='।' chunkId='BLK' chunkType='head:BLK'>
</Sentence>


<Sentence id="16">
1	कुछ	QF	<fs af='कुछ,avy,,,,,,' posn='10' drel='nmod__adj:समस्याओं' chunkType='child:NP' name='कुछ'>
2	समस्याओं	NN	<fs af='समस्या,n,f,pl,3,o,0_के_चलते,0' drel='rh:हो' posn='20' vpos='vib_3_4' name='समस्याओं' chunkId='NP' chunkType='head:NP'>
3	के	PSP	<fs af='के,psp,,,,,,' posn='30' drel='lwg__psp:समस्याओं' chunkType='child:NP' name='के'>
4	चलते	PSP	<fs af='चलते,psp,,,,,,' posn='40' drel='lwg__psp:समस्याओं' chunkType='child:NP' name='चलते'>
5	पांच	QC	<fs af='पांच,num,any,any,,any,,' posn='50' drel='nmod__adj:परियोजनाएं' chunkType='child:NP2' name='पांच'>
6	परियोजनाएं	NN	<fs af='परियोजना,n,f,pl,3,d,0,0' drel='k1:हो' posn='60' name='परियोजनाएं' chunkId='NP2' chunkType='head:NP2'>
7	समय	NN	<fs af='समय,n,m,sg,3,o,0_पर,0' drel='k7t:हो' posn='70' vpos='vib_2' name='समय' chunkId='NP3' chunkType='head:NP3'>
8	पर	PSP	<fs af='पर,psp,,,,,,' posn='80' drel='lwg__psp:समय' chunkType='child:NP3' name='पर'>
9	पूरी	JJ	<fs af='पूरा,adj,f,sg,,,,' drel='pof:हो' posn='90' name='पूरी' chunkId='JJP' chunkType='head:JJP'>
10	नहीं	NEG	<fs af='नहीं,avy,,,,,,' posn='100' drel='lwg__neg:हो' chunkType='child:VGF' name='नहीं'>
11	हो	VM	<fs af='हो,v,any,pl,3,,0_सक+गा,0' stype='declarative' posn='110' voicetype='active' vpos='tam_3' name='हो' chunkId='VGF' chunkType='head:VGF'>
12	सकेंगी	VAUX	<fs af='सक,v,f,pl,3,,गा,gA' posn='120' drel='lwg__vaux:हो' chunkType='child:VGF' name='सकेंगी'>
13	।	SYM	<fs af='।,punc,,,,,,' drel='rsym:हो' posn='130' name='।' chunkId='BLK' chunkType='head:BLK'>
</Sentence>


</text>
</tb>
</body>
</document>
