<document id="2561700">
<head>
<title></title>			
<caption>ढाई करोड़ डॅलर का ईनामी आतंकी दबोचा        केन्या और तंजानिया विस्फोटों में वांछित  एजेंसियां   : इसलामाबाद</caption>			
<language>Hindi </language>			
<author>			
<firstname></firstname>			
<middlename></middlename>			
<lastname></lastname>			
</author>			
<creation>			
<raw_corpus creation_date="" institute_name=""></raw_corpus>			
<annotated_corpus creation_date="07/25/2009" institute_name="IIIT-Hyderabad"></annotated_corpus>			
</creation>			
<domain_name>News Articles </domain_name>			
<distributor>LTRC, IIIT Hyderabad</distributor>			
<source>ISI, Kolkata</source>			
<publication>			
<place>New Delhi</place>			
<date>30/6/2004</date>			
<address>Connaught Place, New Delhi</address>			
<type>Newspaper</type>			
<publisher>			
<name>Amar Ujala</name>			
<url>http://www.amarujala.com</url>			
</publisher>			
</publication>			
<project_description>NSF Hindi/Urdu Dependency Treebanking Project</project_description>			
<availability>			
<format>CML/SSF</format>			
</availability>			
<byte_count>9975</byte_count>			
<word_count>378</word_count>			
<edition_number>1.0</edition_number>			
<encoding_description>			
<original_encoding>ISO 8859</original_encoding>			
<new_encoding>Unicode UTF8</new_encoding>			
</encoding_description>			
<bibliography></bibliography>			
<sentence_marker>.</sentence_marker>			
<normalization>No</normalization>			
<utility_name>cml_tags</utility_name>			
			

</head>
<body>
<tb number="1" segment="no" bullet="no">
<foreign language="select" writingsystem="LTR"> </foreign>			
<text>
<Sentence id="1">
1	अल	NNPC	<fs af='अल,n,m,sg,3,d,0,0' posn='10' drel='pof__cn:कायदा' chunkType='child:NP' name='अल'>
2	-	SYM	<fs af='-,punc,,,,,,' posn='20' drel='rsym:कायदा' chunkType='child:NP' name='-'>
3	कायदा	NNP	<fs af='कायदा,n,m,sg,3,o,0_का,0' drel='r6:आतंकियों' posn='30' vpos='vib_4' name='कायदा' chunkId='NP' chunkType='head:NP'>
4	के	PSP	<fs af='का,psp,m,pl,,o,,' posn='40' drel='lwg__psp:कायदा' chunkType='child:NP' name='के'>
5	मोस्ट	INTF	<fs af='मोस्ट,avy,,,,,,' posn='50' drel='jjmod__intf:वांटेड' chunkType='child:NP2' name='मोस्ट'>
6	वांटेड	JJ	<fs af='वांटेड,adj,any,any,,o,,' posn='60' drel='nmod__adj:आतंकियों' chunkType='child:NP2' name='वांटेड'>
7	आतंकियों	NN	<fs af='आतंकी,n,m,pl,3,o,0_में,0' drel='k7:किया' posn='70' vpos='vib_4' name='आतंकियों' chunkId='NP2' chunkType='head:NP2'>
8	में	PSP	<fs af='में,psp,,,,,,' posn='80' drel='lwg__psp:आतंकियों' chunkType='child:NP2' name='में'>
9	शुमार	NN	<fs af='शुमार,n,m,sg,3,d,0,0' drel='nmod:घैलानी' posn='120' name='शुमार' chunkId='NP3' chunkType='head:NP3'>
10	अहमद	NNPC	<fs af='अहमद,n,m,sg,3,d,0,0' posn='100' drel='pof__cn:घैलानी' chunkType='child:NP4' name='अहमद'>
11	खलफान	NNPC	<fs af='खलफान,n,m,sg,3,d,0,0' posn='110' drel='pof__cn:घैलानी' chunkType='child:NP4' name='खलफान'>
12	घैलानी	NNP	<fs af='घैलानी,n,m,sg,3,o,0_को,0' drel='k2:किया' posn='120' vpos='vib_4' name='घैलानी' chunkId='NP4' chunkType='head:NP4'>
13	को	PSP	<fs af='को,psp,,,,,,' posn='130' drel='lwg__psp:घैलानी' chunkType='child:NP4' name='को'>
14	पाकिस्तान	NNP	<fs af='पाकिस्तान,n,m,sg,3,o,0_का,0' drel='r6:शहर' posn='140' vpos='vib_2' name='पाकिस्तान' chunkId='NP5' chunkType='head:NP5'>
15	के	PSP	<fs af='का,psp,m,sg,,o,,' posn='150' drel='lwg__psp:पाकिस्तान' chunkType='child:NP5' name='के2'>
16	गुजरात	NNP	<fs af='गुजरात,n,m,sg,3,d,0,0' posn='160' drel='nmod__adj:शहर' chunkType='child:NP6' name='गुजरात'>
17	शहर	NN	<fs af='शहर,n,m,sg,3,o,0_से,0' drel='k5:किया' posn='170' vpos='vib_vib_3' name='शहर' chunkId='NP6' chunkType='head:NP6'>
18	से	PSP	<fs af='से,psp,,,,,,' posn='180' drel='lwg__psp:शहर' chunkType='child:NP6' name='से'>
19	गिरफ्तार	JJ	<fs af='गिरफ्तार,adj,any,any,,,,' drel='pof:किया' posn='190' name='गिरफ्तार' chunkId='JJP' chunkType='head:JJP'>
20	किया	VM	<fs af='कर,v,m,sg,3,,या_जा+या1_है,yA' stype='declarative' posn='200' voicetype='passive' vpos='tam_2_3' name='किया' chunkId='VGF' chunkType='head:VGF'>
21	गया	VAUX	<fs af='जा,v,m,sg,any,,या1,yA1' posn='210' drel='lwg__vaux:किया' chunkType='child:VGF' name='गया'>
22	है	VAUX	<fs af='है,v,any,sg,3,,है,hE' posn='220' drel='lwg__vaux:किया' chunkType='child:VGF' name='है'>
23	।	SYM	<fs af='।,punc,,,,,,' drel='rsym:किया' posn='230' name='।' chunkId='BLK' chunkType='head:BLK'>
</Sentence>


<Sentence id="2">
1	तंजानिया	NNP	<fs af='तंजानिया,n,m,sg,3,o,0_का,0' drel='r6:निवासी' posn='10' vpos='vib_2' name='तंजानिया' chunkId='NP' chunkType='head:NP'>
2	के	PSP	<fs af='का,psp,m,sg,,o,,' posn='20' drel='lwg__psp:तंजानिया' chunkType='child:NP' name='के'>
3	मूल	JJ	<fs af='मूल,adj,any,any,,o,,' posn='30' drel='nmod__adj:निवासी' chunkType='child:NP2' name='मूल'>
4	निवासी	NN	<fs af='निवासी,n,m,sg,3,o,0,0' drel='rs:आतंकी' posn='40' name='निवासी' chunkId='NP2' chunkType='head:NP2'>
5	इस	DEM	<fs af='यह,pn,any,sg,3,o,,' posn='50' drel='nmod__adj:आतंकी' chunkType='child:NP3' name='इस'>
6	आतंकी	NN	<fs af='आतंकी,n,m,sg,3,o,0_का,0' drel='r6:सिर' posn='60' vpos='vib_3' name='आतंकी' chunkId='NP3' chunkType='head:NP3'>
7	के	PSP	<fs af='का,psp,m,sg,,o,,' posn='70' drel='lwg__psp:आतंकी' chunkType='child:NP3' name='के2'>
8	सिर	NN	<fs af='सिर,n,m,sg,3,o,0_पर,0' drel='k7:था' posn='80' vpos='vib_2' name='सिर' chunkId='NP4' chunkType='head:NP4'>
9	पर	PSP	<fs af='पर,psp,,,,,,' posn='90' drel='lwg__psp:सिर' chunkType='child:NP4' name='पर'>
10	केन्या	NNP	<fs af='केन्या,n,m,sg,3,o,0,0' drel='ccof:और' posn='100' name='केन्या' chunkId='NP5' chunkType='head:NP5'>
11	और	CC	<fs af='और,avy,,,,,,' drel='r6:दूतावासों' posn='110' name='और' chunkId='CCP' chunkType='head:CCP'>
12	तंजानिया	NNP	<fs af='तंजानिया,n,m,sg,3,o,0_का,0' drel='ccof:और' posn='120' vpos='vib_2' name='तंजानिया2' chunkId='NP6' chunkType='head:NP6'>
13	के	PSP	<fs af='का,psp,m,pl,,o,,' posn='130' drel='lwg__psp:तंजानिया2' chunkType='child:NP6' name='के3'>
14	अमेरिकी	JJ	<fs af='अमेरिकी,adj,any,any,,o,,' posn='140' drel='nmod__adj:दूतावासों' chunkType='child:NP7' name='अमेरिकी'>
15	दूतावासों	NN	<fs af='दूतावास,n,m,pl,3,o,0_में,0' drel='k7p:करने' posn='150' vpos='vib_3' name='दूतावासों' chunkId='NP7' chunkType='head:NP7'>
16	में	PSP	<fs af='में,psp,,,,,,' posn='160' drel='lwg__psp:दूतावासों' chunkType='child:NP7' name='में'>
17	बम	NNC	<fs af='बम,n,m,pl,3,d,0,0' posn='170' drel='pof__cn:विस्फोट' chunkType='child:NP8' name='बम'>
18	विस्फोट	NN	<fs af='विस्फोट,n,m,pl,3,d,0,0' drel='pof:करने' posn='180' name='विस्फोट' chunkId='NP8' chunkType='head:NP8'>
19	करने	VM	<fs af='कर,v,any,sg,any,o,ना_का,nA' drel='r6:आरोप' posn='190' vpos='tam_2' name='करने' chunkId='VGNN' chunkType='head:VGNN'>
20	के	PSP	<fs af='का,psp,m,sg,,o,,' posn='200' drel='lwg__psp:करने' chunkType='child:VGNN' name='के4'>
21	आरोप	NN	<fs af='आरोप,n,m,sg,3,o,0_में,0' drel='k7:था' posn='210' vpos='vib_2' name='आरोप' chunkId='NP9' chunkType='head:NP9'>
22	में	PSP	<fs af='में,psp,,,,,,' posn='220' drel='lwg__psp:आरोप' chunkType='child:NP9' name='में2'>
23	ढाई	QCC	<fs af='ढाई,num,any,any,,any,,' posn='230' drel='mod:डॉलर' chunkType='child:NP10' name='ढाई'>
24	करोड़	QC	<fs af='करोड,num,any,any,,any,,' posn='240' drel='nmod__adj:डॉलर' chunkType='child:NP10' name='करोड़'>
25	डॉलर	NN	<fs af='डॉलर,n,m,sg,3,o,0_का,0' drel='r6:इनाम' posn='250' vpos='vib_4' name='डॉलर' chunkId='NP10' chunkType='head:NP10'>
26	का	PSP	<fs af='का,psp,m,sg,,d,,' posn='260' drel='lwg__psp:डॉलर' chunkType='child:NP10' name='का'>
27	इनाम	NN	<fs af='इनाम,n,m,sg,3,d,0,0' drel='k2:था' posn='270' name='इनाम' chunkId='NP11' chunkType='head:NP11'>
28	घोषित	JJ	<fs af='घोषित,adj,any,any,,,,' drel='pof:था' posn='280' name='घोषित' chunkId='JJP' chunkType='head:JJP'>
29	था	VM	<fs af='था,v,m,sg,any,,था,WA' stype='declarative' posn='290' voicetype='active' name='था' chunkId='VGF' chunkType='head:VGF'>
30	।	SYM	<fs af='।,punc,,,,,,' drel='rsym:था' posn='300' name='।' chunkId='BLK' chunkType='head:BLK'>
</Sentence>


<Sentence id="3">
1	अल	NNPC	<fs af='अल,n,m,sg,3,d,0,0' posn='10' drel='pof__cn:कायदा' chunkType='child:NP' name='अल'>
2	-	SYM	<fs af='-,punc,,,,,,' posn='20' drel='rsym:आतंकी' chunkType='child:NP' name='-'>
3	कायदा	NNP	<fs af='कायदा,n,m,sg,3,d,0,0' posn='30' drel='nmod__adj:आतंकी' chunkType='child:NP' name='कायदा'>
4	आतंकी	NN	<fs af='आतंकी,n,m,sg,3,o,0_को,0' drel='k2:पकड़े' posn='40' vpos='vib_vib_5' name='आतंकी' chunkId='NP' chunkType='head:NP'>
5	को	PSP	<fs af='को,psp,,,,,,' posn='50' drel='lwg__psp:आतंकी' chunkType='child:NP' name='को'>
6	पकड़े	VM	<fs af='पकड,v,any,sg,any,,या_जा+ना_का,yA' drel='r6-k2:जानकारी' posn='60' vpos='tam_2_3' name='पकड़े' chunkId='VGNN' chunkType='head:VGNN'>
7	जाने	VAUX	<fs af='जा,v,any,any,any,o,ना,nA' posn='70' drel='lwg__vaux:पकड़े' chunkType='child:VGNN' name='जाने'>
8	की	PSP	<fs af='का,psp,f,sg,,d,,' posn='80' drel='lwg__psp:पकड़े' chunkType='child:VGNN' name='की'>
9	जानकारी	NN	<fs af='जानकारी,n,f,sg,3,d,0,0' drel='pof:दी' posn='90' name='जानकारी' chunkId='NP2' chunkType='head:NP2'>
10	पाकिस्तानी	JJ	<fs af='पाकिस्तानी,adj,any,any,,o,,' posn='100' drel='nmod__adj:परवेज' chunkType='child:NP3' name='पाकिस्तानी'>
11	राष्ट्रपति	NNP	<fs af='राष्ट्रपति,n,m,sg,3,d,0,0' posn='110' drel='nmod__adj:मुशर्रफ' chunkType='child:NP3' name='राष्ट्रपति'>
12	परवेज	NNPC	<fs af='परवेज,n,m,sg,3,d,0,0' posn='120' drel='pof__cn:मुशर्रफ' chunkType='child:NP3' name='परवेज'>
13	मुशर्रफ	NNP	<fs af='मुशर्रफ,n,m,sg,3,o,0_ने,0' drel='k1:दी' posn='130' vpos='vib_vib_5' name='मुशर्रफ' chunkId='NP3' chunkType='head:NP3'>
14	ने	PSP	<fs af='ने,psp,,,,,,' posn='140' drel='lwg__psp:मुशर्रफ' chunkType='child:NP3' name='ने'>
15	दी	VM	<fs af='दे,v,f,sg,3,,या_है,yA' stype='declarative' posn='150' voicetype='active' vpos='tam_2' name='दी' chunkId='VGF' chunkType='head:VGF'>
16	है	VAUX	<fs af='है,v,any,sg,3,,है,hE' posn='160' drel='lwg__vaux:दी' chunkType='child:VGF' name='है'>
17	।	SYM	<fs af='।,punc,,,,,,' drel='rsym:दी' posn='170' name='।' chunkId='BLK' chunkType='head:BLK'>
</Sentence>


<Sentence id="4">
1	राष्ट्रपति	NNP	<fs af='राष्ट्रपति,n,m,sg,3,d,0,0' posn='10' drel='nmod__adj:मुशर्रफ' chunkType='child:NP' name='राष्ट्रपति'>
2	मुशर्रफ	NNP	<fs af='मुशर्रफ,n,m,sg,3,o,0_के_हवाला_से,0' drel='jjmod:प्रकाशित' posn='20' vpos='vib_vib_3_4_5' name='मुशर्रफ' chunkId='NP' chunkType='head:NP'>
3	के	PSP	<fs af='के,psp,m,,,o,,' posn='30' drel='lwg__psp:मुशर्रफ' chunkType='child:NP' name='के'>
4	हवाले	PSP	<fs af='हवाला,n,m,,,o,,' posn='40' drel='lwg__psp:मुशर्रफ' chunkType='child:NP' name='हवाले'>
5	से	PSP	<fs af='से,psp,,,,,,' posn='50' drel='lwg__psp:मुशर्रफ' chunkType='child:NP' name='से'>
6	एक	QC	<fs af='एक,num,any,any,,any,,' posn='60' drel='nmod__adj:दैनिक' chunkType='child:NP2' name='एक'>
7	पाकिस्तानी	JJ	<fs af='पाकिस्तानी,adj,any,any,,o,,' posn='70' drel='nmod__adj:दैनिक' chunkType='child:NP2' name='पाकिस्तानी'>
8	दैनिक	NN	<fs af='दैनिक,n,m,sg,3,o,0_में,0' drel='k7:किया' posn='80' vpos='vib_4' name='दैनिक' chunkId='NP2' chunkType='head:NP2'>
9	में	PSP	<fs af='में,psp,,,,,,' posn='90' drel='lwg__psp:दैनिक' chunkType='child:NP2' name='में'>
10	प्रकाशित	JJ	<fs af='प्रकाशित,adj,any,any,,o,,' drel='nmod:रिपोर्ट' posn='100' name='प्रकाशित' chunkId='JJP' chunkType='head:JJP'>
11	रिपोर्ट	NN	<fs af='रिपोर्ट,n,f,sg,3,o,0_के_मुताबिक,0' drel='k7a:किया' posn='110' vpos='vib_2_3' name='रिपोर्ट' chunkId='NP3' chunkType='head:NP3'>
12	के	PSP	<fs af='के,psp,,,,,,' posn='120' drel='lwg__psp:रिपोर्ट' chunkType='child:NP3' name='के2'>
13	मुताबिक	PSP	<fs af='मुताबिक,psp,,,,,,' posn='130' drel='lwg__psp:रिपोर्ट' chunkType='child:NP3' name='मुताबिक'>
14	इस	DEM	<fs af='यह,pn,any,sg,3,o,,' posn='140' drel='nmod__adj:आतंकी' chunkType='child:NP4' name='इस'>
15	कट्टर	JJ	<fs af='कट्टर,adj,any,any,,o,,' posn='150' drel='nmod__adj:आतंकी' chunkType='child:NP4' name='कट्टर'>
16	आतंकी	NN	<fs af='आतंकी,n,m,sg,3,o,0_को,0' drel='k2:किया' posn='160' vpos='vib_4' name='आतंकी' chunkId='NP4' chunkType='head:NP4'>
17	को	PSP	<fs af='को,psp,,,,,,' posn='170' drel='lwg__psp:आतंकी' chunkType='child:NP4' name='को'>
18	पिछले	JJ	<fs af='पिछला,adj,m,sg,,o,,' posn='180' drel='nmod__adj:रविवार' chunkType='child:NP5' name='पिछले'>
19	रविवार	NNP	<fs af='रविवार,n,m,sg,3,o,0_को,0' drel='k7t:किया' posn='190' vpos='vib_3' name='रविवार' chunkId='NP5' chunkType='head:NP5'>
20	को	PSP	<fs af='को,psp,,,,,,' posn='200' drel='lwg__psp:रविवार' chunkType='child:NP5' name='को2'>
21	15	QC	<fs af='15,num,any,any,,any,,' posn='210' drel='nmod__adj:घंटे' chunkType='child:NP6' name='15'>
22	घंटे	NN	<fs af='घंटा,n,m,sg,3,o,0_का,0' drel='r6:मुठभेड़' posn='220' vpos='vib_3' name='घंटे' chunkId='NP6' chunkType='head:NP6'>
23	की	PSP	<fs af='का,psp,f,sg,,o,,' posn='230' drel='lwg__psp:घंटे' chunkType='child:NP6' name='की'>
24	मुठभेड़	NN	<fs af='मुठभेड,n,f,sg,3,o,0_के_बाद,0' drel='k7t:किया' posn='240' vpos='vib_2_3' name='मुठभेड़' chunkId='NP7' chunkType='head:NP7'>
25	के	PSP	<fs af='के,psp,,,,,,' posn='250' drel='lwg__psp:मुठभेड़' chunkType='child:NP7' name='के3'>
26	बाद	NST	<fs af='बाद,nst,m,sg,3,d,,' posn='260' drel='lwg__psp:मुठभेड़' chunkType='child:NP7' name='बाद'>
27	गिरफ्तार	JJ	<fs af='गिरफ्तार,adj,any,any,,,,' drel='pof:किया' posn='270' name='गिरफ्तार' chunkId='JJP2' chunkType='head:JJP2'>
28	किया	VM	<fs af='कर,v,any,sg,any,,या_जा_सक+या,yA' stype='declarative' posn='280' voicetype='active' vpos='tam_2_3' name='किया' chunkId='VGF' chunkType='head:VGF'>
29	जा	VAUX	<fs af='जा,v,any,any,any,,0,0' posn='290' drel='lwg__vaux:किया' chunkType='child:VGF' name='जा'>
30	सका	VAUX	<fs af='सक,v,m,sg,any,,या,yA' posn='300' drel='lwg__vaux:किया' chunkType='child:VGF' name='सका'>
31	।	SYM	<fs af='।,punc,,,,,,' drel='rsym:किया' posn='310' name='।' chunkId='BLK' chunkType='head:BLK'>
</Sentence>


<Sentence id="5">
1	इस	DEM	<fs af='यह,pn,any,sg,3,o,,' posn='10' drel='nmod__adj:अभियान' chunkType='child:NP' name='इस'>
2	अभियान	NN	<fs af='अभियान,n,m,sg,3,o,0_में,0' drel='k7:पकड़े' posn='20' vpos='vib_3' name='अभियान' chunkId='NP' chunkType='head:NP'>
3	में	PSP	<fs af='में,psp,,,,,,' posn='30' drel='lwg__psp:अभियान' chunkType='child:NP' name='में'>
4	आतंकी	NN	<fs af='आतंकी,n,m,sg,3,o,0_का,0' drel='r6:पत्नी' posn='40' vpos='vib_2' name='आतंकी' chunkId='NP2' chunkType='head:NP2'>
5	की	PSP	<fs af='का,psp,f,sg,,o,,' posn='50' drel='lwg__psp:आतंकी' chunkType='child:NP2' name='की'>
6	उजबेक	JJ	<fs af='उजबेक,adj,any,any,,o,,' posn='60' drel='nmod__adj:पत्नी' chunkType='child:NP3' name='उजबेक'>
7	पत्नी	NN	<fs af='पत्नी,n,f,sg,3,o,0,0' drel='ccof:और' posn='70' name='पत्नी' chunkId='NP3' chunkType='head:NP3'>
8	और	CC	<fs af='और,avy,,,,,,' drel='vmod:पकड़े' posn='80' name='और' chunkId='CCP' chunkType='head:CCP'>
9	उसके	PRP	<fs af='वह,pn,m,sg,3,o,का,kA' drel='r6:परिवार' posn='90' name='उसके' chunkId='NP4' chunkType='head:NP4'>
10	परिवार	NN	<fs af='परिवार,n,m,sg,3,o,0_का,0' drel='r6:सदस्यों' posn='100' vpos='vib_2' name='परिवार' chunkId='NP5' chunkType='head:NP5'>
11	के	PSP	<fs af='का,psp,m,pl,,o,,' posn='110' drel='lwg__psp:परिवार' chunkType='child:NP5' name='के'>
12	अन्य	JJ	<fs af='अन्य,adj,any,any,,o,,' posn='120' drel='nmod__adj:सदस्यों' chunkType='child:NP6' name='अन्य'>
13	सदस्यों	NN	<fs af='सदस्य,n,m,pl,3,o,0_के_अलावा,0' drel='ccof:और' posn='130' vpos='vib_3_4' name='सदस्यों' chunkId='NP6' chunkType='head:NP6'>
14	के	PSP	<fs af='के,psp,,,,,,' posn='140' drel='lwg__psp:सदस्यों' chunkType='child:NP6' name='के2'>
15	अलावा	PSP	<fs af='अलावा,psp,,,,,,' posn='150' drel='lwg__psp:सदस्यों' chunkType='child:NP6' name='अलावा'>
16	दो	QC	<fs af='दो,num,any,any,,any,,' posn='160' drel='nmod__adj:नागरिक' chunkType='child:NP7' name='दो'>
17	दक्षिण	JJC	<fs af='दक्षिण,n,m,sg,3,d,0,0' posn='170' drel='mod:नागरिक' chunkType='child:NP7' name='दक्षिण'>
18	अफ्रीकी	JJ	<fs af='अफ्रीकी,adj,any,any,,d,,' posn='180' drel='nmod__adj:नागरिक' chunkType='child:NP7' name='अफ्रीकी'>
19	नागरिक	NN	<fs af='नागरिक,n,m,pl,3,d,0,0' drel='k1:पकड़े' posn='190' name='नागरिक' chunkId='NP7' chunkType='head:NP7'>
20	भी	RP	<fs af='भी,avy,,,,,,' posn='200' drel='lwg__rp:नागरिक' chunkType='child:NP7' name='भी'>
21	पकड़े	VM	<fs af='पकड,v,m,pl,3,,या_जा+या1_है,yA' stype='declarative' posn='210' voicetype='passive' vpos='tam_2_3' name='पकड़े' chunkId='VGF' chunkType='head:VGF'>
22	गए	VAUX	<fs af='जा,v,m,pl,any,,या1,yA1' posn='220' drel='lwg__vaux:पकड़े' chunkType='child:VGF' name='गए'>
23	हैं	VAUX	<fs af='है,v,any,pl,3,,है,hE' posn='230' drel='lwg__vaux:पकड़े' chunkType='child:VGF' name='हैं'>
24	।	SYM	<fs af='।,punc,,,,,,' drel='rsym:पकड़े' posn='240' name='।' chunkId='BLK' chunkType='head:BLK'>
</Sentence>


<Sentence id="6">
1	इस	DEM	<fs af='यह,pn,any,sg,3,o,,' posn='10' drel='nmod__adj:अभियान' chunkType='child:NP' name='इस'>
2	अभियान	NN	<fs af='अभियान,n,m,sg,3,o,0_के_तहत,0' drel='k7a:किया' posn='20' vpos='vib_3_4' name='अभियान' chunkId='NP' chunkType='head:NP'>
3	के	PSP	<fs af='के,psp,,,,,,' posn='30' drel='lwg__psp:अभियान' chunkType='child:NP' name='के'>
4	तहत	PSP	<fs af='तहत,psp,,,,,,' posn='40' drel='lwg__psp:अभियान' chunkType='child:NP' name='तहत'>
5	14	QC	<fs af='14,num,any,any,,any,,' posn='50' drel='nmod__adj:लोगों' chunkType='child:NP2' name='14'>
6	लोगों	NN	<fs af='लोग,n,m,pl,3,o,0_को,0' drel='k2:किया' posn='60' vpos='vib_3' name='लोगों' chunkId='NP2' chunkType='head:NP2'>
7	को	PSP	<fs af='को,psp,,,,,,' posn='70' drel='lwg__psp:लोगों' chunkType='child:NP2' name='को'>
8	गिरफ्तार	JJ	<fs af='गिरफ्तार,adj,any,any,,,,' drel='pof:किया' posn='80' name='गिरफ्तार' chunkId='JJP' chunkType='head:JJP'>
9	किया	VM	<fs af='कर,v,m,sg,3,,या_जा+या1_है,yA' stype='declarative' posn='90' voicetype='passive' vpos='tam_2_3' name='किया' chunkId='VGF' chunkType='head:VGF'>
10	गया	VAUX	<fs af='जा,v,m,sg,any,,या1,yA1' posn='100' drel='lwg__vaux:किया' chunkType='child:VGF' name='गया'>
11	है	VAUX	<fs af='है,v,any,sg,3,,है,hE' posn='110' drel='lwg__vaux:किया' chunkType='child:VGF' name='है'>
12	।	SYM	<fs af='।,punc,,,,,,' drel='rsym:किया' posn='120' name='।' chunkId='BLK' chunkType='head:BLK'>
</Sentence>


<Sentence id="7">
1	राष्ट्रपति	NNP	<fs af='राष्ट्रपति,n,m,sg,3,d,0,0' posn='10' drel='nmod__adj:मुशर्रफ' chunkType='child:NP' name='राष्ट्रपति'>
2	मुशर्रफ	NNP	<fs af='मुशर्रफ,n,m,sg,3,o,0_ने,0' drel='k1:बताया' posn='20' vpos='vib_vib_3' name='मुशर्रफ' chunkId='NP' chunkType='head:NP'>
3	ने	PSP	<fs af='ने,psp,,,,,,' posn='30' drel='lwg__psp:मुशर्रफ' chunkType='child:NP' name='ने'>
4	पकड़े	VM	<fs af='पकड,v,m,sg,any,,या_जा+या1,yA' drel='nmod__k1inv:आतंकी' posn='40' vpos='tam_2' name='पकड़े' chunkId='VGNF' chunkType='head:VGNF'>
5	गए	VAUX	<fs af='जा,v,m,sg,any,,या1,yA1' posn='50' drel='lwg__vaux:पकड़े' chunkType='child:VGNF' name='गए'>
6	आतंकी	NN	<fs af='आतंकी,n,m,sg,3,o,0_का,0' drel='r6:नाम' posn='60' vpos='vib_2' name='आतंकी' chunkId='NP2' chunkType='head:NP2'>
7	का	PSP	<fs af='का,psp,m,sg,,d,,' posn='70' drel='lwg__psp:आतंकी' chunkType='child:NP2' name='का'>
8	नाम	NN	<fs af='नाम,n,m,sg,3,d,0,0' drel='k2:बताया' posn='80' name='नाम' chunkId='NP3' chunkType='head:NP3'>
9	नहीं	NEG	<fs af='नहीं,avy,,,,,,' posn='90' drel='lwg__neg:बताया' chunkType='child:VGF' name='नहीं'>
10	बताया	VM	<fs af='बता,v,m,sg,any,,या,yA' drel='ccof:लेकिन' stype='declarative' posn='100' voicetype='active' name='बताया' chunkId='VGF' chunkType='head:VGF'>
11	लेकिन	CC	<fs af='लेकिन,avy,,,,,,' posn='110' name='लेकिन' chunkId='CCP' chunkType='head:CCP'>
12	'	SYM	<fs af='SINGLE_QUOTE,punc,,,,,,' ' posn='120' drel='rsym:अब्जर्वर' chunkType='child:NP4' name=''>
13	द	NNPC	<fs af='द,avy,,,,,,' posn='130' drel='pof__cn:अब्जर्वर' chunkType='child:NP4' name='द'>
14	पाकिस्तान	NNPC	<fs af='पाकिस्तान,n,m,sg,3,d,0,0' posn='140' drel='pof__cn:अब्जर्वर' chunkType='child:NP4' name='पाकिस्तान'>
15	अब्जर्वर	NNP	<fs af='अब्जर्वर,n,m,sg,3,o,0,0' drel='jjmod:नामक' posn='150' name='अब्जर्वर' chunkId='NP4' chunkType='head:NP4'>
16	'	SYM	<fs af='SINGLE_QUOTE,punc,,,,,,' 2' posn='160' drel='rsym:अब्जर्वर' chunkType='child:NP4' name=''>
17	नामक	JJ	<fs af='नामक,adj,any,any,,o,,' drel='nmod:दैनिक' posn='170' name='नामक' chunkId='JJP' chunkType='head:JJP'>
18	दैनिक	NN	<fs af='दैनिक,n,m,sg,3,o,0_ने,0' drel='k1:लिखा' posn='180' vpos='vib_2' name='दैनिक' chunkId='NP5' chunkType='head:NP5'>
19	ने	PSP	<fs af='ने,psp,,,,,,' posn='190' drel='lwg__psp:दैनिक' chunkType='child:NP5' name='ने2'>
20	एक	QC	<fs af='एक,num,any,any,,any,,' posn='200' drel='nmod__adj:अधिकारी' chunkType='child:NP6' name='एक'>
21	अधिकारी	NN	<fs af='अधिकारी,n,m,sg,3,o,0_के_हवाला_से,0' drel='k7a:लिखा' posn='210' vpos='vib_3_4_5' name='अधिकारी' chunkId='NP6' chunkType='head:NP6'>
22	के	PSP	<fs af='के,psp,m,,,o,,' posn='220' drel='lwg__psp:अधिकारी' chunkType='child:NP6' name='के'>
23	हवाले	PSP	<fs af='हवाला,n,m,,,o,,' posn='230' drel='lwg__psp:अधिकारी' chunkType='child:NP6' name='हवाले'>
24	से	PSP	<fs af='से,psp,,,,,,' posn='240' drel='lwg__psp:अधिकारी' chunkType='child:NP6' name='से'>
25	लिखा	VM	<fs af='लिख,v,m,sg,3,,या_है,yA' drel='ccof:लेकिन' stype='declarative' posn='250' voicetype='active' vpos='tam_2' name='लिखा' chunkId='VGF2' chunkType='head:VGF2'>
26	है	VAUX	<fs af='है,v,any,sg,3,,है,hE' posn='260' drel='lwg__vaux:लिखा' chunkType='child:VGF2' name='है'>
27	कि	CC	<fs af='कि,avy,,,,,,' drel='k2:लिखा' posn='270' name='कि' chunkId='CCP2' chunkType='head:CCP2'>
28	यह	PRP	<fs af='यह,pn,any,sg,3,d,0,0' drel='k1:है2' posn='280' name='यह' chunkId='NP7' chunkType='head:NP7'>
29	और	JJ	<fs af='और,adj,any,any,,d,,' posn='310' drel='nmod__adj:कोई' chunkType='child:NP8' name='और'>
30	कोई	PRP	<fs af='कोई,pn,any,sg,3,d,0,0' drel='k1:नहीं2' posn='300' name='कोई' chunkId='NP8' chunkType='head:NP8'>
31	नहीं	NEG	<fs af='नहीं,avy,,,,,,' drel='vmod:है2' posn='310' name='नहीं2' chunkId='NEGP' chunkType='head:NEGP'>
32	कुख्यात	JJ	<fs af='कुख्यात,adj,any,any,,d,,' posn='320' drel='nmod__adj:घैलानी' chunkType='child:NP9' name='कुख्यात'>
33	अहमद	NNPC	<fs af='अहमद,n,m,sg,3,d,0,0' posn='330' drel='pof__cn:घैलानी' chunkType='child:NP9' name='अहमद'>
34	खलफान	NNPC	<fs af='खलफान,n,m,sg,3,d,0,0' posn='340' drel='pof__cn:घैलानी' chunkType='child:NP9' name='खलफान'>
35	घैलानी	NNP	<fs af='घैलानी,n,m,sg,3,d,0,0' drel='k1s:है2' posn='350' name='घैलानी' chunkId='NP9' chunkType='head:NP9'>
36	है	VM	<fs af='है,v,any,sg,3,,है,hE' drel='ccof:कि' stype='declarative' posn='360' voicetype='active' name='है2' chunkId='VGF3' chunkType='head:VGF3'>
37	।	SYM	<fs af='।,punc,,,,,,' drel='rsym:लेकिन' posn='370' name='।' chunkId='BLK' chunkType='head:BLK'>
</Sentence>


<Sentence id="8">
1	घैलानी	NNP	<fs af='घैलानी,n,m,sg,3,d,0,0' drel='k1:था' posn='10' name='घैलानी' chunkId='NP' chunkType='head:NP'>
2	1998	NNP	<fs af='1998,n,m,sg,3,o,0_में,0' drel='k7t:किए' posn='20' vpos='vib_2' name='1998' chunkId='NP2' chunkType='head:NP2'>
3	में	PSP	<fs af='में,psp,,,,,,' posn='30' drel='lwg__psp:1998' chunkType='child:NP2' name='में'>
4	तंजानिया	NNP	<fs af='तंजानिया,n,m,sg,3,o,0,0' drel='ccof:और' posn='40' name='तंजानिया' chunkId='NP3' chunkType='head:NP3'>
5	और	CC	<fs af='और,avy,,,,,,' drel='r6:दूतावासों' posn='50' name='और' chunkId='CCP' chunkType='head:CCP'>
6	केन्या	NNP	<fs af='केन्या,n,m,sg,3,o,0_का,0' drel='ccof:और' posn='60' vpos='vib_2' name='केन्या' chunkId='NP4' chunkType='head:NP4'>
7	के	PSP	<fs af='का,psp,m,pl,,o,,' posn='70' drel='lwg__psp:केन्या' chunkType='child:NP4' name='के'>
8	अमेरिकी	JJ	<fs af='अमेरिकी,adj,any,any,,o,,' posn='80' drel='nmod__adj:दूतावासों' chunkType='child:NP5' name='अमेरिकी'>
9	दूतावासों	NN	<fs af='दूतावास,n,m,pl,3,o,0_में,0' drel='k7p:किए' posn='90' vpos='vib_3' name='दूतावासों' chunkId='NP5' chunkType='head:NP5'>
10	में	PSP	<fs af='में,psp,,,,,,' posn='100' drel='lwg__psp:दूतावासों' chunkType='child:NP5' name='में2'>
11	किए	VM	<fs af='कर,v,m,pl,any,,या_जा+या1,yA' drel='nmod__k2inv:मामले' posn='110' vpos='tam_2' name='किए' chunkId='VGNF' chunkType='head:VGNF'>
12	गए	VAUX	<fs af='जा,v,m,pl,any,,या1,yA1' posn='120' drel='lwg__vaux:किए' chunkType='child:VGNF' name='गए'>
13	बम	NNC	<fs af='बम,n,m,sg,3,d,0,0' posn='130' drel='pof__cn:मामले' chunkType='child:NP6' name='बम'>
14	विस्फोट	NNC	<fs af='विस्फोट,n,m,sg,3,d,0,0' posn='140' drel='pof__cn:मामले' chunkType='child:NP6' name='विस्फोट'>
15	मामले	NN	<fs af='मामला,n,m,sg,3,o,0_में,0' drel='k7:था' posn='150' vpos='vib_4' name='मामले' chunkId='NP6' chunkType='head:NP6'>
16	में	PSP	<fs af='में,psp,,,,,,' posn='160' drel='lwg__psp:मामले' chunkType='child:NP6' name='में3'>
17	वांछित	JJ	<fs af='वांछित,adj,any,any,,,,' drel='pof:था' posn='170' name='वांछित' chunkId='JJP' chunkType='head:JJP'>
18	था	VM	<fs af='था,v,m,sg,any,,था,WA' stype='declarative' posn='180' voicetype='active' name='था' chunkId='VGF' chunkType='head:VGF'>
19	।	SYM	<fs af='।,punc,,,,,,' drel='rsym:था' posn='190' name='।' chunkId='BLK' chunkType='head:BLK'>
</Sentence>


<Sentence id="9">
1	इन	DEM	<fs af='यह,pn,any,pl,3,o,,' posn='10' drel='nmod__adj:विस्फोटों' chunkType='child:NP' name='इन'>
2	विस्फोटों	NN	<fs af='विस्फोट,n,m,pl,3,o,0_में,0' drel='k7:मारे' posn='20' vpos='vib_3' name='विस्फोटों' chunkId='NP' chunkType='head:NP'>
3	में	PSP	<fs af='में,psp,,,,,,' posn='30' drel='lwg__psp:विस्फोटों' chunkType='child:NP' name='में'>
4	अनेक	QF	<fs af='अनेक,avy,,,,,,' posn='40' drel='nmod__adj:लोग' chunkType='child:NP2' name='अनेक'>
5	लोग	NN	<fs af='लोग,n,m,pl,3,d,0,0' drel='k1:मारे' posn='50' name='लोग' chunkId='NP2' chunkType='head:NP2'>
6	मारे	VM	<fs af='मार,v,m,pl,any,,या_जा+या1_था,yA' stype='declarative' posn='60' voicetype='active' vpos='tam_2_3' name='मारे' chunkId='VGF' chunkType='head:VGF'>
7	गए	VAUX	<fs af='जा,v,m,pl,any,,या1,yA1' posn='70' drel='lwg__vaux:मारे' chunkType='child:VGF' name='गए'>
8	थे	VAUX	<fs af='था,v,m,pl,any,,था,WA' posn='80' drel='lwg__vaux:मारे' chunkType='child:VGF' name='थे'>
9	।	SYM	<fs af='।,punc,,,,,,' drel='rsym:मारे' posn='90' name='।' chunkId='BLK' chunkType='head:BLK'>
</Sentence>


<Sentence id="10">
1	पाकिस्तानी	JJ	<fs af='पाकिस्तानी,adj,any,any,,o,,' posn='10' drel='nmod__adj:फैसल' chunkType='child:NP' name='पाकिस्तानी'>
2	गृहमंत्री	NNP	<fs af='गृहमंत्री,n,m,sg,3,d,0,0' posn='20' drel='nmod__adj:हयात' chunkType='child:NP' name='गृहमंत्री'>
3	फैसल	NNPC	<fs af='फैसल,n,m,sg,3,d,0,0' posn='30' drel='pof__cn:हयात' chunkType='child:NP' name='फैसल'>
4	सालेह	NNPC	<fs af='सालेह,n,m,sg,3,d,0,0' posn='40' drel='pof__cn:हयात' chunkType='child:NP' name='सालेह'>
5	हयात	NNP	<fs af='हयात,n,m,sg,3,o,0_ने,0' drel='k1:की2' posn='50' vpos='vib_vib_6' name='हयात' chunkId='NP' chunkType='head:NP'>
6	ने	PSP	<fs af='ने,psp,,,,,,' posn='60' drel='lwg__psp:हयात' chunkType='child:NP' name='ने'>
7	पकड़े	VM	<fs af='पकड,v,m,sg,any,,या_जा+या1,yA' drel='nmod__k1inv:आतंकी' posn='70' vpos='tam_2' name='पकड़े' chunkId='VGNF' chunkType='head:VGNF'>
8	गए	VAUX	<fs af='जा,v,m,sg,any,,या1,yA1' posn='80' drel='lwg__vaux:पकड़े' chunkType='child:VGNF' name='गए'>
9	आतंकी	NN	<fs af='आतंकी,n,m,sg,3,o,0_का,0' drel='r6-k2:पहचान' posn='90' vpos='vib_2' name='आतंकी' chunkId='NP2' chunkType='head:NP2'>
10	की	PSP	<fs af='का,psp,f,sg,,d,,' posn='100' drel='lwg__psp:आतंकी' chunkType='child:NP2' name='की'>
11	पहचान	NN	<fs af='पहचान,n,f,sg,3,d,0,0' drel='pof:की2' posn='110' name='पहचान' chunkId='NP3' chunkType='head:NP3'>
12	घैलानी	NNP	<fs af='घैलानी,n,m,sg,3,o,0_के_रूप_में,0' drel='k7:की2' posn='120' vpos='vib_2_3_4' name='घैलानी' chunkId='NP4' chunkType='head:NP4'>
13	के	PSP	<fs af='के,psp,m,,,o,,' posn='130' drel='lwg__psp:घैलानी' chunkType='child:NP4' name='के'>
14	रूप	PSP	<fs af='रूप,n,m,,,o,,' posn='140' drel='lwg__psp:घैलानी' chunkType='child:NP4' name='रूप'>
15	में	PSP	<fs af='में,psp,,,,,,' posn='150' drel='lwg__psp:घैलानी' chunkType='child:NP4' name='में'>
16	की	VM	<fs af='कर,v,f,sg,3,,या_है,yA' drel='ccof:और' stype='declarative' posn='160' voicetype='active' vpos='tam_2' name='की2' chunkId='VGF' chunkType='head:VGF'>
17	है	VAUX	<fs af='है,v,any,sg,3,,है,hE' posn='170' drel='lwg__vaux:की2' chunkType='child:VGF' name='है'>
18	और	CC	<fs af='और,avy,,,,,,' posn='180' name='और' chunkId='CCP' chunkType='head:CCP'>
19	कहा	VM	<fs af='कह,v,m,sg,3,,या_है,yA' drel='ccof:और' stype='declarative' posn='190' voicetype='active' vpos='tam_2' name='कहा' chunkId='VGF2' chunkType='head:VGF2'>
20	है	VAUX	<fs af='है,v,any,sg,3,,है,hE' posn='200' drel='lwg__vaux:कहा' chunkType='child:VGF2' name='है2'>
21	कि	CC	<fs af='कि,avy,,,,,,' drel='k2:कहा' posn='210' name='कि' chunkId='CCP2' chunkType='head:CCP2'>
22	यह	PRP	<fs af='यह,pn,any,sg,3,d,0,0' drel='k1:है3' posn='220' name='यह' chunkId='NP5' chunkType='head:NP5'>
23	अंतर्राष्ट्रीय	JJ	<fs af='अंतर्राष्ट्रीय,adj,any,any,,o,,' posn='230' drel='nmod__adj:आतंकवाद' chunkType='child:NP6' name='अंतर्राष्ट्रीय'>
24	आतंकवाद	NN	<fs af='आतंकवाद,n,m,sg,3,o,0_के_खिलाफ,0' drel='vmod:है3' posn='240' vpos='vib_3_4' name='आतंकवाद' chunkId='NP6' chunkType='head:NP6'>
25	के	PSP	<fs af='के,psp,,,,,,' posn='250' drel='lwg__psp:आतंकवाद' chunkType='child:NP6' name='के2'>
26	खिलाफ	PSP	<fs af='खिलाफ,adj,,,,,,' posn='260' drel='lwg__psp:आतंकवाद' chunkType='child:NP6' name='खिलाफ'>
27	लड़ाई	NN	<fs af='लडाई,n,f,sg,3,o,0_में,0' drel='k7:है3' posn='270' vpos='vib_2' name='लड़ाई' chunkId='NP7' chunkType='head:NP7'>
28	में	PSP	<fs af='में,psp,,,,,,' posn='280' drel='lwg__psp:लड़ाई' chunkType='child:NP7' name='में2'>
29	एक	QC	<fs af='एक,num,any,any,,any,,' posn='290' drel='nmod__adj:जीत' chunkType='child:NP8' name='एक'>
30	बड़ी	JJ	<fs af='बडा,adj,f,sg,,d,,' posn='300' drel='nmod__adj:जीत' chunkType='child:NP8' name='बड़ी'>
31	जीत	NN	<fs af='जीत,n,f,sg,3,d,0,0' drel='k1s:है3' posn='310' name='जीत' chunkId='NP8' chunkType='head:NP8'>
32	है	VM	<fs af='है,v,any,sg,3,,है,hE' drel='ccof:कि' stype='declarative' posn='320' voicetype='active' name='है3' chunkId='VGF3' chunkType='head:VGF3'>
33	।	SYM	<fs af='।,punc,,,,,,' drel='rsym:और' posn='330' name='।' chunkId='BLK' chunkType='head:BLK'>
</Sentence>


<Sentence id="11">
1	हयात	NNP	<fs af='हयात,n,m,sg,3,o,0_ने,0' drel='k1:कहा' posn='10' vpos='vib_2' name='हयात' chunkId='NP' chunkType='head:NP'>
2	ने	PSP	<fs af='ने,psp,,,,,,' posn='20' drel='lwg__psp:हयात' chunkType='child:NP' name='ने'>
3	कहा	VM	<fs af='कह,v,m,sg,any,,या,yA' stype='declarative' posn='30' voicetype='active' name='कहा' chunkId='VGF' chunkType='head:VGF'>
4	कि	CC	<fs af='कि,avy,,,,,,' drel='k2:कहा' posn='40' name='कि' chunkId='CCP' chunkType='head:CCP'>
5	उससे	PRP	<fs af='वह,pn,any,sg,3,o,से,se' drel='k2:कर' posn='50' name='उससे' chunkId='NP2' chunkType='head:NP2'>
6	पूछताछ	NN	<fs af='पूछताछ,n,f,sg,3,d,0,0' drel='pof:कर' posn='60' name='पूछताछ' chunkId='NP3' chunkType='head:NP3'>
7	कर	VM	<fs af='कर,v,any,any,any,,0,0' drel='vmod:किया' posn='70' name='कर' chunkId='VGNF' chunkType='head:VGNF'>
8	यह	PRP	<fs af='यह,pn,any,sg,3,d,0,0' drel='k2:किया' posn='80' name='यह' chunkId='NP4' chunkType='head:NP4'>
9	पता	NN	<fs af='पता,n,m,sg,3,d,0,0' drel='pof:किया' posn='90' name='पता' chunkId='NP5' chunkType='head:NP5'>
10	किया	VM	<fs af='कर,v,m,sg,3,,या_जा+गा,yA' drel='ccof:कि' stype='declarative' posn='100' voicetype='active' vpos='tam_2' name='किया' chunkId='VGF2' chunkType='head:VGF2'>
11	जाएगा	VAUX	<fs af='जा,v,m,sg,3,,गा,gA' posn='110' drel='lwg__vaux:किया' chunkType='child:VGF2' name='जाएगा'>
12	कि	CC	<fs af='कि,avy,,,,,,' drel='rs:यह' posn='120' name='कि2' chunkId='CCP2' chunkType='head:CCP2'>
13	पाकिस्तान	NNP	<fs af='पाकिस्तान,n,m,sg,3,o,0_में,0' drel='k7p:जुड़े' posn='130' vpos='vib_2' name='पाकिस्तान' chunkId='NP6' chunkType='head:NP6'>
14	में	PSP	<fs af='में,psp,,,,,,' posn='140' drel='lwg__psp:पाकिस्तान' chunkType='child:NP6' name='में'>
15	उसके	PRP	<fs af='वह,pn,m,sg,3,o,के,ke' drel='r6:तार' posn='150' name='उसके' chunkId='NP7' chunkType='head:NP7'>
16	तार	NN	<fs af='तार,n,m,pl,3,d,0,0' drel='k1:जुड़े' posn='160' name='तार' chunkId='NP8' chunkType='head:NP8'>
17	किन	WQ	<fs af='कौन,pn,any,pl,3,o,0,0' posn='170' drel='mod__wq:आतंकियों' chunkType='child:NP9' name='किन'>
18	और	QF	<fs af='और,avy,,,,,,' posn='180' drel='nmod__adj:आतंकियों' chunkType='child:NP9' name='और'>
19	आतंकियों	NN	<fs af='आतंकी,n,m,pl,3,o,0_से,0' drel='ras-k1:जुड़े' posn='190' vpos='vib_4' name='आतंकियों' chunkId='NP9' chunkType='head:NP9'>
20	से	PSP	<fs af='से,psp,,,,,,' posn='200' drel='lwg__psp:आतंकियों' chunkType='child:NP9' name='से'>
21	जुड़े	VM	<fs af='जुड,v,m,pl,3,,या_है,yA' drel='ccof:कि2' stype='declarative' posn='210' voicetype='active' vpos='tam_2' name='जुड़े' chunkId='VGF3' chunkType='head:VGF3'>
22	हैं	VAUX	<fs af='है,v,any,pl,3,,है,hE' posn='220' drel='lwg__vaux:जुड़े' chunkType='child:VGF3' name='हैं'>
23	।	SYM	<fs af='।,punc,,,,,,' drel='rsym:कहा' posn='230' name='।' chunkId='BLK' chunkType='head:BLK'>
</Sentence>


<Sentence id="12">
1	उन्होंने	PRP	<fs af='वह,pn,any,sg,3h,o,ने,ne' drel='k1:कहा' posn='10' name='उन्होंने' chunkId='NP' chunkType='head:NP'>
2	कहा	VM	<fs af='कह,v,m,sg,any,,या,yA' stype='declarative' posn='20' voicetype='active' name='कहा' chunkId='VGF' chunkType='head:VGF'>
3	कि	CC	<fs af='कि,avy,,,,,,' drel='k2:कहा' posn='30' name='कि' chunkId='CCP' chunkType='head:CCP'>
4	घैलानी	NNP	<fs af='घैलानी,n,m,sg,3,o,0_को,0' drel='k2:भेजा' posn='40' vpos='vib_2' name='घैलानी' chunkId='NP2' chunkType='head:NP2'>
5	को	PSP	<fs af='को,psp,,,,,,' posn='50' drel='lwg__psp:घैलानी' chunkType='child:NP2' name='को'>
6	पूरी	JJ	<fs af='पूरा,adj,f,sg,,d,,' posn='60' drel='nmod__adj:तरह' chunkType='child:NP3' name='पूरी'>
7	तरह	NN	<fs af='तरह,n,f,sg,3,d,0,0' drel='adv:भेजा' posn='70' name='तरह' chunkId='NP3' chunkType='head:NP3'>
8	पूछताछ	NN	<fs af='पूछताछ,n,f,sg,3,o,0_के_बाद,0' drel='k7t:भेजा' posn='80' vpos='vib_2_3_RP' name='पूछताछ' chunkId='NP4' chunkType='head:NP4'>
9	के	PSP	<fs af='के,psp,,,,,,' posn='90' drel='lwg__psp:पूछताछ' chunkType='child:NP4' name='के'>
10	बाद	NST	<fs af='बाद,nst,m,sg,3,d,,' posn='100' drel='lwg__psp:पूछताछ' chunkType='child:NP4' name='बाद'>
11	ही	RP	<fs af='ही,avy,,,,,,' posn='110' drel='lwg__rp:पूछताछ' chunkType='child:NP4' name='ही'>
12	अमेरिका	NNP	<fs af='अमेरिका,n,m,sg,3,d,0,0' drel='k2p:भेजा' posn='120' name='अमेरिका' chunkId='NP5' chunkType='head:NP5'>
13	भेजा	VM	<fs af='भेज,v,m,sg,3,,या_जा+गा,yA' drel='ccof:कि' stype='declarative' posn='130' voicetype='active' vpos='tam_2' name='भेजा' chunkId='VGF2' chunkType='head:VGF2'>
14	जाएगा	VAUX	<fs af='जा,v,m,sg,3,,गा,gA' posn='140' drel='lwg__vaux:भेजा' chunkType='child:VGF2' name='जाएगा'>
15	।	SYM	<fs af='।,punc,,,,,,' drel='rsym:कहा' posn='150' name='।' chunkId='BLK' chunkType='head:BLK'>
</Sentence>


<Sentence id="13">
1	घैलानी	NNP	<fs af='घैलानी,n,m,sg,3,d,0,0' drel='k1:था' posn='10' name='घैलानी' chunkId='NP' chunkType='head:NP'>
2	अमेरिकी	JJ	<fs af='अमेरिकी,adj,any,any,,o,,' posn='20' drel='nmod__adj:एजेंसी' chunkType='child:NP2' name='अमेरिकी'>
3	खुफिया	NNC	<fs af='खुफिया,adj,any,any,,o,,' posn='30' drel='pof__cn:एजेंसी' chunkType='child:NP2' name='खुफिया'>
4	एजेंसी	NN	<fs af='एजेंसी,n,f,sg,3,o,0,0' drel='nmod:एफबीआई' posn='40' name='एजेंसी' chunkId='NP2' chunkType='head:NP2'>
5	एफबीआई	NNP	<fs af='एफबीआई,n,f,sg,3,o,0_का,0' drel='r6:आतंकियों' posn='50' vpos='vib_2' name='एफबीआई' chunkId='NP3' chunkType='head:NP3'>
6	के	PSP	<fs af='का,psp,m,pl,,o,,' posn='60' drel='lwg__psp:एफबीआई' chunkType='child:NP3' name='के'>
7	मोस्ट	INTF	<fs af='मोस्ट,avy,,,,,,' posn='70' drel='jjmod__intf:वांटेड' chunkType='child:NP4' name='मोस्ट'>
8	वांटेड	JJ	<fs af='वांटेड,adj,any,any,,o,,' posn='80' drel='nmod__adj:आतंकियों' chunkType='child:NP4' name='वांटेड'>
9	आतंकियों	NN	<fs af='आतंकी,n,m,pl,3,o,0_में_से,0' drel='k7:था' posn='90' vpos='vib_4_5' name='आतंकियों' chunkId='NP4' chunkType='head:NP4'>
10	में	PSP	<fs af='में,psp,,,,,,' posn='100' drel='lwg__psp:आतंकियों' chunkType='child:NP4' name='में'>
11	से	PSP	<fs af='से,psp,,,,,,' posn='110' drel='lwg__psp:आतंकियों' chunkType='child:NP4' name='से'>
12	था	VM	<fs af='था,v,m,sg,any,,था,WA' drel='ccof:और' stype='declarative' posn='120' voicetype='active' name='था' chunkId='VGF' chunkType='head:VGF'>
13	और	CC	<fs af='और,avy,,,,,,' posn='130' name='और' chunkId='CCP' chunkType='head:CCP'>
14	अमेरिकी	JJ	<fs af='अमेरिकी,adj,any,any,,o,,' posn='80' drel='nmod__adj:सरकार' chunkType='child:NP5' name='अमेरिकी2'>
15	सरकार	NN	<fs af='सरकार,n,f,sg,3,o,0_ने,0' drel='k1:कर' posn='150' vpos='vib_3' name='सरकार' chunkId='NP5' chunkType='head:NP5'>
16	ने	PSP	<fs af='ने,psp,,,,,,' posn='160' drel='lwg__psp:सरकार' chunkType='child:NP5' name='ने'>
17	उसके	PRP	<fs af='वह,pn,m,sg,3,o,का,kA' drel='r6:सिर' posn='170' name='उसके' chunkId='NP6' chunkType='head:NP6'>
18	सिर	NN	<fs af='सिर,n,m,sg,3,o,0_पर,0' drel='k7:कर' posn='180' vpos='vib_2' name='सिर' chunkId='NP7' chunkType='head:NP7'>
19	पर	PSP	<fs af='पर,psp,,,,,,' posn='190' drel='lwg__psp:सिर' chunkType='child:NP7' name='पर'>
20	ढाई	QCC	<fs af='ढाई,num,any,any,,any,,' posn='200' drel='mod:डॉलर' chunkType='child:NP8' name='ढाई'>
21	करोड़	QC	<fs af='करोड,num,any,any,,any,,' posn='210' drel='nmod__adj:डॉलर' chunkType='child:NP8' name='करोड़'>
22	डॉलर	NN	<fs af='डॉलर,n,m,sg,3,o,0_का,0' drel='r6:इनाम' posn='220' vpos='vib_4' name='डॉलर' chunkId='NP8' chunkType='head:NP8'>
23	का	PSP	<fs af='का,psp,m,sg,,d,,' posn='230' drel='lwg__psp:डॉलर' chunkType='child:NP8' name='का'>
24	इनाम	NN	<fs af='इनाम,n,m,sg,3,d,0,0' drel='k2:कर' posn='240' name='इनाम' chunkId='NP9' chunkType='head:NP9'>
25	घोषित	JJ	<fs af='घोषित,adj,any,any,,,,' drel='pof:कर' posn='250' name='घोषित' chunkId='JJP' chunkType='head:JJP'>
26	कर	VM	<fs af='कर,v,m,sg,any,,0_रख+या_था,0' drel='ccof:और' stype='declarative' posn='260' voicetype='active' vpos='tam_2_3' name='कर' chunkId='VGF2' chunkType='head:VGF2'>
27	रखा	VAUX	<fs af='रख,v,m,sg,any,,या,yA' posn='270' drel='lwg__vaux:कर' chunkType='child:VGF2' name='रखा'>
28	था	VAUX	<fs af='था,v,m,sg,any,,था,WA' posn='280' drel='lwg__vaux:कर' chunkType='child:VGF2' name='था2'>
29	।	SYM	<fs af='।,punc,,,,,,' drel='rsym:और' posn='290' name='।' chunkId='BLK' chunkType='head:BLK'>
</Sentence>


<Sentence id="14">
1	घैलानी	NNP	<fs af='घैलानी,n,m,sg,3,d,0,0' drel='k1:है' posn='10' name='घैलानी' chunkId='NP' chunkType='head:NP'>
2	मार्च	NNPC	<fs af='मार्च,n,m,sg,3,d,0,0' posn='20' drel='pof__cn:2003' chunkType='child:NP2' name='मार्च'>
3	2003	NNP	<fs af='2003,n,m,sg,3,o,0_में,0' drel='k7:पकड़े' posn='30' vpos='vib_3' name='2003' chunkId='NP2' chunkType='head:NP2'>
4	में	PSP	<fs af='में,psp,,,,,,' posn='40' drel='lwg__psp:2003' chunkType='child:NP2' name='में'>
5	पकड़े	VM	<fs af='पकड,v,m,sg,any,,या_जा+या1,yA' drel='nmod__k1inv:मोहम्मद' posn='50' vpos='tam_2' name='पकड़े' chunkId='VGNF' chunkType='head:VGNF'>
6	गए	VAUX	<fs af='जा,v,m,sg,any,,या1,yA1' posn='60' drel='lwg__vaux:पकड़े' chunkType='child:VGNF' name='गए'>
7	खालिद	NNPC	<fs af='खालिद,n,m,sg,3,d,0,0' posn='70' drel='pof__cn:मोहम्मद' chunkType='child:NP3' name='खालिद'>
8	शेख	NNPC	<fs af='शेख,n,m,sg,3,d,0,0' posn='80' drel='pof__cn:मोहम्मद' chunkType='child:NP3' name='शेख'>
9	मोहम्मद	NNP	<fs af='मोहम्मद,n,m,sg,3,o,0_के_बाद,0' drel='k7t:है' posn='90' vpos='vib_4_5' name='मोहम्मद' chunkId='NP3' chunkType='head:NP3'>
10	के	PSP	<fs af='के,psp,,,,,,' posn='100' drel='lwg__psp:मोहम्मद' chunkType='child:NP3' name='के'>
11	बाद	NST	<fs af='बाद,nst,m,sg,3,d,,' posn='110' drel='lwg__psp:मोहम्मद' chunkType='child:NP3' name='बाद'>
12	पाकिस्तान	NNP	<fs af='पाकिस्तान,n,m,sg,3,o,0_में,0' drel='k7:पकड़ा' posn='120' vpos='vib_2' name='पाकिस्तान' chunkId='NP4' chunkType='head:NP4'>
13	में	PSP	<fs af='में,psp,,,,,,' posn='130' drel='lwg__psp:पाकिस्तान' chunkType='child:NP4' name='में2'>
14	पकड़ा	VM	<fs af='पकड,v,any,sg,any,,या_जा+ना_वाला,yA' drel='nmod:आतंकी' posn='140' vpos='tam_2_3' name='पकड़ा' chunkId='VGNN' chunkType='head:VGNN'>
15	जाने	VAUX	<fs af='जा,v,any,any,any,o,ना,nA' posn='150' drel='lwg__vaux:पकड़ा' chunkType='child:VGNN' name='जाने'>
16	वाला	PSP	<fs af='वाला,psp,m,sg,,d,,' posn='160' drel='lwg__psp:पकड़ा' chunkType='child:VGNN' name='वाला'>
17	सबसे	JJ	<fs af='सबसे,adj,any,any,,d,,' posn='170' drel='nmod__adj:आतंकी' chunkType='child:NP5' name='सबसे'>
18	प्रमुख	JJ	<fs af='प्रमुख,adj,any,any,,d,,' posn='180' drel='nmod__adj:आतंकी' chunkType='child:NP5' name='प्रमुख'>
19	अल	NNPC	<fs af='अल,n,m,sg,3,d,0,0' posn='190' drel='pof__cn:कायदा' chunkType='child:NP5' name='अल'>
20	कायदा	NNP	<fs af='कायदा,n,m,sg,3,d,0,0' posn='200' drel='nmod__adj:आतंकी' chunkType='child:NP5' name='कायदा'>
21	आतंकी	NN	<fs af='आतंकी,n,m,sg,3,d,0,0' drel='k1s:है' posn='210' name='आतंकी' chunkId='NP5' chunkType='head:NP5'>
22	है	VM	<fs af='है,v,any,sg,3,,है,hE' stype='declarative' posn='220' voicetype='active' name='है' chunkId='VGF' chunkType='head:VGF'>
23	।	SYM	<fs af='।,punc,,,,,,' drel='rsym:है' posn='230' name='।' chunkId='BLK' chunkType='head:BLK'>
</Sentence>


<Sentence id="15">
1	उधर	NST	<fs af='उधर,nst,m,sg,3,d,,' drel='sent-adv:बताया' posn='10' name='उधर' chunkId='NP' chunkType='head:NP'>
2	,	SYM	<fs af='COMMA,punc,,,,,,' posn='20' drel='rsym:उधर' chunkType='child:NP' name=','>
3	वाशिंगटन	NNP	<fs af='वाशिंगटन,n,m,sg,3,o,0_में,0' drel='k7p:रखने' posn='30' vpos='vib_2' name='वाशिंगटन' chunkId='NP2' chunkType='head:NP2'>
4	में	PSP	<fs af='में,psp,,,,,,' posn='40' drel='lwg__psp:वाशिंगटन' chunkType='child:NP2' name='में'>
5	पहचान	NN	<fs af='पहचान,n,f,sg,3,d,0,0' drel='k2:रखने' posn='50' name='पहचान' chunkId='NP3' chunkType='head:NP3'>
6	गुप्त	JJ	<fs af='गुप्त,adj,any,any,,,,' drel='pof:रखने' posn='60' name='गुप्त' chunkId='JJP' chunkType='head:JJP'>
7	रखने	VM	<fs af='रख,v,any,sg,any,o,ना_का,nA' drel='r6:शर्त' posn='70' vpos='tam_2' name='रखने' chunkId='VGNN' chunkType='head:VGNN'>
8	की	PSP	<fs af='का,psp,f,sg,,o,,' posn='80' drel='lwg__psp:रखने' chunkType='child:VGNN' name='की'>
9	शर्त	NN	<fs af='शर्त,n,f,sg,3,o,0_पर,0' drel='k7:बताया' posn='90' vpos='vib_2' name='शर्त' chunkId='NP4' chunkType='head:NP4'>
10	पर	PSP	<fs af='पर,psp,,,,,,' posn='100' drel='lwg__psp:शर्त' chunkType='child:NP4' name='पर'>
11	एक	QC	<fs af='एक,num,any,any,,any,,' posn='110' drel='nmod__adj:अधिकारी' chunkType='child:NP5' name='एक'>
12	अमेरिकी	JJ	<fs af='अमेरिकी,adj,any,any,,o,,' posn='120' drel='nmod__adj:अधिकारी' chunkType='child:NP5' name='अमेरिकी'>
13	अधिकारी	NN	<fs af='अधिकारी,n,m,sg,3,o,0_ने,0' drel='k1:बताया' posn='130' vpos='vib_4' name='अधिकारी' chunkId='NP5' chunkType='head:NP5'>
14	ने	PSP	<fs af='ने,psp,,,,,,' posn='140' drel='lwg__psp:अधिकारी' chunkType='child:NP5' name='ने'>
15	बताया	VM	<fs af='बता,v,m,sg,any,,या,yA' stype='declarative' posn='150' voicetype='active' name='बताया' chunkId='VGF' chunkType='head:VGF'>
16	कि	CC	<fs af='कि,avy,,,,,,' drel='k2:बताया' posn='160' name='कि' chunkId='CCP' chunkType='head:CCP'>
17	घैलानी	NNP	<fs af='घैलानी,n,m,sg,3,d,0,0' drel='k1:है' posn='170' name='घैलानी' chunkId='NP6' chunkType='head:NP6'>
18	अमेरिकी	JJ	<fs af='अमेरिकी,adj,any,any,,o,,' posn='180' drel='nmod__adj:नागरिकों' chunkType='child:NP7' name='अमेरिकी2'>
19	नागरिकों	NN	<fs af='नागरिक,n,m,pl,3,o,0_का,0' drel='r6:हत्या' posn='190' vpos='vib_3' name='नागरिकों' chunkId='NP7' chunkType='head:NP7'>
20	की	PSP	<fs af='का,psp,f,sg,,o,,' posn='200' drel='lwg__psp:नागरिकों' chunkType='child:NP7' name='की2'>
21	हत्या	NN	<fs af='हत्या,n,f,sg,3,o,0_के_लिए,0' drel='rt:है' posn='210' vpos='vib_2_3' name='हत्या' chunkId='NP8' chunkType='head:NP8'>
22	के	PSP	<fs af='के,psp,,,,,,' posn='220' drel='lwg__psp:हत्या' chunkType='child:NP8' name='के'>
23	लिए	PSP	<fs af='लिए,psp,,,,,,' posn='230' drel='lwg__psp:हत्या' chunkType='child:NP8' name='लिए'>
24	वांछित	JJ	<fs af='वांछित,adj,any,any,,,,' drel='pof:है' posn='240' name='वांछित' chunkId='JJP2' chunkType='head:JJP2'>
25	है	VM	<fs af='है,v,any,sg,3,,है,hE' drel='ccof:कि' stype='declarative' posn='250' voicetype='active' name='है' chunkId='VGF2' chunkType='head:VGF2'>
26	।	SYM	<fs af='।,punc,,,,,,' drel='rsym:बताया' posn='260' name='।' chunkId='BLK' chunkType='head:BLK'>
</Sentence>


<Sentence id="16">
1	घैलानी	NNP	<fs af='घैलानी,n,m,sg,3,o,0_का,0' drel='r6:उम्र' posn='10' vpos='vib_2' name='घैलानी' chunkId='NP' chunkType='head:NP'>
2	की	PSP	<fs af='का,psp,f,sg,,d,,' posn='20' drel='lwg__psp:घैलानी' chunkType='child:NP' name='की'>
3	उम्र	NN	<fs af='उम्र,n,f,sg,3,d,0,0' drel='k1:है' posn='30' name='उम्र' chunkId='NP2' chunkType='head:NP2'>
4	30	QC	<fs af='30,num,any,any,,any,,' posn='40' drel='nmod__adj:साल' chunkType='child:NP3' name='30'>
5	साल	NN	<fs af='साल,n,m,sg,3,o,0_से,0' drel='jjmod:कुछ' posn='50' vpos='vib_3' name='साल' chunkId='NP3' chunkType='head:NP3'>
6	से	PSP	<fs af='से,psp,,,,,,' posn='60' drel='lwg__psp:साल' chunkType='child:NP3' name='से'>
7	कुछ	QF	<fs af='कुछ,avy,,,,,,' drel='k1s:है' posn='70' name='कुछ' chunkId='JJP' chunkType='head:JJP'>
8	ज्यादा	QF	<fs af='ज्यादा,avy,,,,,,' posn='80' drel='nmod__adj:कुछ' chunkType='child:JJP' name='ज्यादा'>
9	है	VM	<fs af='है,v,any,sg,3,,है,hE' drel='ccof:और' stype='declarative' posn='90' voicetype='active' name='है' chunkId='VGF' chunkType='head:VGF'>
10	और	CC	<fs af='और,avy,,,,,,' posn='100' name='और' chunkId='CCP' chunkType='head:CCP'>
11	उसे	PRP	<fs af='वह,pn,any,sg,3,o,को,ko' drel='k2:जाना' posn='110' name='उसे' chunkId='NP4' chunkType='head:NP4'>
12	'	SYM	<fs af='SINGLE_QUOTE,punc,,,,,,' ' posn='120' drel='rsym:फूफी' chunkType='child:NP5' name=''>
13	फूफी	NN	<fs af='फूफी,n,f,sg,3,d,0,0' drel='ccof:व' posn='130' name='फूफी' chunkId='NP5' chunkType='head:NP5'>
14	'	SYM	<fs af='SINGLE_QUOTE,punc,,,,,,' 2' posn='140' drel='rsym:फूफी' chunkType='child:NP5' name=''>
15	व	CC	<fs af='व,avy,,,,,,' drel='r6:नाम' posn='150' name='व' chunkId='CCP2' chunkType='head:CCP2'>
16	'	SYM	<fs af='SINGLE_QUOTE,punc,,,,,,' 3' posn='160' drel='rsym:तंजानियन' chunkType='child:NP6' name=''>
17	अहमद	NNPC	<fs af='अहमद,n,m,sg,3,d,0,0' posn='170' drel='pof__cn:तंजानियन' chunkType='child:NP6' name='अहमद'>
18	द	NNPC	<fs af='द,avy,,,,,,' posn='180' drel='pof__cn:तंजानियन' chunkType='child:NP6' name='द'>
19	तंजानियन	NNP	<fs af='तंजानियन,n,m,sg,3,o,0_का,0' drel='ccof:व' posn='190' vpos='vib_6' name='तंजानियन' chunkId='NP6' chunkType='head:NP6'>
20	'	SYM	<fs af='SINGLE_QUOTE,punc,,,,,,' 4' posn='200' drel='rsym:तंजानियन' chunkType='child:NP6' name=''>
21	के	PSP	<fs af='का,psp,m,sg,,o,,' posn='210' drel='lwg__psp:तंजानियन' chunkType='child:NP6' name='के'>
22	नाम	NN	<fs af='नाम,n,m,sg,3,o,0_से,0' drel='k2s:जाना' posn='220' vpos='vib_2_RP' name='नाम' chunkId='NP7' chunkType='head:NP7'>
23	से	PSP	<fs af='से,psp,,,,,,' posn='230' drel='lwg__psp:नाम' chunkType='child:NP7' name='से2'>
24	भी	RP	<fs af='भी,avy,,,,,,' posn='240' drel='lwg__rp:नाम' chunkType='child:NP7' name='भी'>
25	जाना	VM	<fs af='जान,v,m,sg,3,,या_जा+ता_है,yA' drel='ccof:और' stype='declarative' posn='250' voicetype='active' vpos='tam_2_3' name='जाना' chunkId='VGF2' chunkType='head:VGF2'>
26	जाता	VAUX	<fs af='जा,v,m,sg,any,,ता,wA' posn='260' drel='lwg__vaux:जाना' chunkType='child:VGF2' name='जाता'>
27	है	VAUX	<fs af='है,v,any,sg,3,,है,hE' posn='270' drel='lwg__vaux:जाना' chunkType='child:VGF2' name='है2'>
28	।	SYM	<fs af='।,punc,,,,,,' drel='rsym:और' posn='280' name='।' chunkId='BLK' chunkType='head:BLK'>
</Sentence>


</text>
</tb>
</body>
</document>
