<document id="2534465">
<head>
<title></title>			
<caption>जेट एयरवेज पर अमेरिका ने सरकार से ब्योरा मांगा        प्रे   : नई दिल्ली</caption>			
<language>Hindi </language>			
<author>			
<firstname></firstname>			
<middlename></middlename>			
<lastname></lastname>			
</author>			
<creation>			
<raw_corpus creation_date="" institute_name=""></raw_corpus>			
<annotated_corpus creation_date="07/25/2009" institute_name="IIIT-Hyderabad"></annotated_corpus>			
</creation>			
<domain_name>News Articles </domain_name>			
<distributor>LTRC, IIIT Hyderabad</distributor>			
<source>ISI, Kolkata</source>			
<publication>			
<place>New Delhi</place>			
<date>18/6/2004</date>			
<address>Connaught Place, New Delhi</address>			
<type>Newspaper</type>			
<publisher>			
<name>Amar Ujala</name>			
<url>http://www.amarujala.com</url>			
</publisher>			
</publication>			
<project_description>NSF Hindi/Urdu Dependency Treebanking Project</project_description>			
<availability>			
<format>CML/SSF</format>			
</availability>			
<byte_count>4036</byte_count>			
<word_count>105</word_count>			
<edition_number>1.0</edition_number>			
<encoding_description>			
<original_encoding>ISO 8859</original_encoding>			
<new_encoding>Unicode UTF8</new_encoding>			
</encoding_description>			
<bibliography></bibliography>			
<sentence_marker>.</sentence_marker>			
<normalization>No</normalization>			
<utility_name>cml_tags</utility_name>			

</head>
<body>
<tb number="1" segment="no" bullet="no">
<foreign language="select" writingsystem="LTR"> </foreign>			
<text>
<Sentence id="1">
1	जेट	NNPC	<fs af='जेट,n,m,sg,3,d,0,0' posn='10' drel='pof__cn:एयरवेज' chunkType='child:NP' name='जेट'>
2	एयरवेज	NNP	<fs af='एयरवेज,n,m,sg,3,o,0_के_खिलाफ,0' drel='vmod:है' posn='20' vpos='vib_3_4' name='एयरवेज' chunkId='NP' chunkType='head:NP'>
3	के	PSP	<fs af='के,psp,,,,,,' posn='30' drel='lwg__psp:एयरवेज' chunkType='child:NP' name='के'>
4	खिलाफ	PSP	<fs af='खिलाफ,adj,,,,,,' posn='40' drel='lwg__psp:एयरवेज' chunkType='child:NP' name='खिलाफ'>
5	इसी	DEM	<fs af='यह,pn,any,sg,3,o,,' posn='50' drel='nmod__adj:नाम' chunkType='child:NP2' name='इसी'>
6	नाम	NN	<fs af='नाम,n,m,sg,3,o,0_का,0' drel='r6:कंपनी' posn='60' vpos='vib_3' name='नाम' chunkId='NP2' chunkType='head:NP2'>
7	की	PSP	<fs af='का,psp,f,sg,,o,,' posn='70' drel='lwg__psp:नाम' chunkType='child:NP2' name='की'>
8	एक	QC	<fs af='एक,num,any,any,,any,,' posn='80' drel='nmod__adj:कंपनी' chunkType='child:NP3' name='एक'>
9	अमेरिकी	JJ	<fs af='अमेरिकी,adj,any,any,,o,,' posn='90' drel='nmod__adj:कंपनी' chunkType='child:NP3' name='अमेरिकी'>
10	कंपनी	NN	<fs af='कंपनी,n,f,sg,3,o,0_का,0' drel='r6-k2:शिकायत' posn='100' vpos='vib_4' name='कंपनी' chunkId='NP3' chunkType='head:NP3'>
11	के	PSP	<fs af='का,psp,m,sg,,o,,' posn='110' drel='lwg__psp:कंपनी' chunkType='child:NP3' name='के2'>
12	शिकायत	NN	<fs af='शिकायत,n,f,sg,3,d,0,0' drel='pof:करने' posn='120' name='शिकायत' chunkId='NP4' chunkType='head:NP4'>
13	करने	VM	<fs af='कर,v,any,any,any,o,ना_पर,nA' drel='k7:है' posn='130' vpos='tam_2' name='करने' chunkId='VGNN' chunkType='head:VGNN'>
14	पर	PSP	<fs af='पर,psp,,,,,,' posn='140' drel='lwg__psp:करने' chunkType='child:VGNN' name='पर'>
15	अमेरिकी	JJ	<fs af='अमेरिकी,adj,any,any,,o,,' posn='150' drel='nmod__adj:प्रशासन' chunkType='child:NP5' name='अमेरिकी2'>
16	प्रशासन	NN	<fs af='प्रशासन,n,m,sg,3,o,0_का,0' drel='r6:जानकारियों' posn='160' vpos='vib_3' name='प्रशासन' chunkId='NP5' chunkType='head:NP5'>
17	की	PSP	<fs af='का,psp,f,pl,,o,,' posn='170' drel='lwg__psp:प्रशासन' chunkType='child:NP5' name='की2'>
18	मांगी	VM	<fs af='मांग,v,f,pl,any,,या_जा+या१,yA' drel='nmod__k1inv:जानकारियों' posn='180' vpos='tam_2' name='मांगी' chunkId='VGNF' chunkType='head:VGNF'>
19	गई	VAUX	<fs af='जा,v,f,pl,any,,या१,yA1' posn='190' drel='lwg__vaux:मांगी' chunkType='child:VGNF' name='गई'>
20	जानकारियों	NN	<fs af='जानकारी,n,f,pl,3,o,0_के_बारे_में,0' drel='k7:है' posn='200' vpos='vib_2_3_4' name='जानकारियों' chunkId='NP6' chunkType='head:NP6'>
21	के	PSP	<fs af='के,psp,,,,,,' posn='210' drel='lwg__psp:जानकारियों' chunkType='child:NP6' name='के3'>
22	बारे	PSP	<fs af='बारे,psp,,,,,,' posn='220' drel='lwg__psp:जानकारियों' chunkType='child:NP6' name='बारे'>
23	में	PSP	<fs af='में,psp,,,,,,' posn='230' drel='lwg__psp:जानकारियों' chunkType='child:NP6' name='में'>
24	मंत्रिमंडल	NN	<fs af='मंत्रिमंडल,n,m,sg,3,o,0_के_बीच,0' drel='k7:है' posn='240' vpos='vib_2_3' name='मंत्रिमंडल' chunkId='NP7' chunkType='head:NP7'>
25	के	PSP	<fs af='के,psp,,,,,,' posn='250' drel='lwg__psp:मंत्रिमंडल' chunkType='child:NP7' name='के4'>
26	बीच	NST	<fs af='बीच,nst,m,sg,3,d,,' posn='260' drel='lwg__psp:मंत्रिमंडल' chunkType='child:NP7' name='बीच'>
27	विचार	NNC	<fs af='विचार,n,m,sg,3,d,0,0' posn='270' drel='pof__cn:विमर्श' chunkType='child:NP8' name='विचार'>
28	-	SYM	<fs af='-,punc,,,,,,' posn='280' drel='pof__cn:विमर्श' chunkType='child:NP8' name='-'>
29	विमर्श	NN	<fs af='विमर्श,n,m,sg,3,d,0,0' drel='k1:है' posn='290' name='विमर्श' chunkId='NP8' chunkType='head:NP8'>
30	जारी	JJ	<fs af='जारी,adj,any,any,,,,' drel='pof:है' posn='300' name='जारी' chunkId='JJP' chunkType='head:JJP'>
31	है	VM	<fs af='है,v,any,sg,3,,है,hE' stype='declarative' posn='310' voicetype='active' name='है' chunkId='VGF' chunkType='head:VGF'>
32	।	SYM	<fs af='।,punc,,,,,,' drel='rsym:है' posn='320' name='।' chunkId='BLK' chunkType='head:BLK'>
</Sentence>


<Sentence id="2">
1	यह	DEM	<fs af='यह,pn,any,sg,3,d,,' posn='10' drel='nmod__adj:जानकारी' chunkType='child:NP' name='यह'>
2	जानकारी	NN	<fs af='जानकारी,n,f,sg,3,d,0,0' drel='k2:दी' posn='20' name='जानकारी' chunkId='NP' chunkType='head:NP'>
3	बृहस्पतिवार	NNP	<fs af='बृहस्पतिवार,n,m,sg,3,o,0_को,0' drel='k7t:दी' posn='30' vpos='vib_2' name='बृहस्पतिवार' chunkId='NP2' chunkType='head:NP2'>
4	को	PSP	<fs af='को,psp,,,,,,' posn='40' drel='lwg__psp:बृहस्पतिवार' chunkType='child:NP2' name='को'>
5	लोकसभा	NN	<fs af='लोकसभा,n,f,sg,3,o,0_को,0' drel='k4:दी' posn='50' vpos='vib_2' name='लोकसभा' chunkId='NP3' chunkType='head:NP3'>
6	को	PSP	<fs af='को,psp,,,,,,' posn='60' drel='lwg__psp:लोकसभा' chunkType='child:NP3' name='को2'>
7	दी	VM	<fs af='दे,v,f,sg,any,,या_जा+या१,yA' stype='declarative' posn='70' voicetype='active' vpos='tam_2' name='दी' chunkId='VGF' chunkType='head:VGF'>
8	गई	VAUX	<fs af='जा,v,f,sg,any,,या१,yA1' posn='80' drel='lwg__vaux:दी' chunkType='child:VGF' name='गई'>
9	।	SYM	<fs af='।,punc,,,,,,' drel='rsym:दी' posn='90' name='।' chunkId='BLK' chunkType='head:BLK'>
</Sentence>


<Sentence id="3">
1	नागरिक	NNPC	<fs af='नागरिक,n,m,sg,3,d,0,0' posn='10' drel='pof__cn:मंत्री' chunkType='child:NP' name='नागरिक'>
2	उड्डयन	NNPC	<fs af='उड्डयन,n,m,sg,3,d,0,0' posn='20' drel='pof__cn:मंत्री' chunkType='child:NP' name='उड्डयन'>
3	मंत्री	NNP	<fs af='मंत्री,n,m,sg,3,d,0,0' posn='30' drel='nmod__adj:पटेल' chunkType='child:NP' name='मंत्री'>
4	प्रफुल्ल	NNPC	<fs af='प्रफुल्ल,n,m,sg,3,d,0,0' posn='40' drel='pof__cn:पटेल' chunkType='child:NP' name='प्रफुल्ल'>
5	पटेल	NNP	<fs af='पटेल,n,m,sg,3,o,0_ने,0' drel='k1:बताया' posn='50' vpos='vib_vib_6' name='पटेल' chunkId='NP' chunkType='head:NP'>
6	ने	PSP	<fs af='ने,psp,,,,,,' posn='60' drel='lwg__psp:पटेल' chunkType='child:NP' name='ने'>
7	प्रश्नकाल	NN	<fs af='प्रश्नकाल,n,m,sg,3,o,0_के_दौरान,0' drel='k7t:बताया' posn='70' vpos='vib_2_3' name='प्रश्नकाल' chunkId='NP2' chunkType='head:NP2'>
8	के	PSP	<fs af='के,psp,,,,,,' posn='80' drel='lwg__psp:प्रश्नकाल' chunkType='child:NP2' name='के'>
9	दौरान	NST	<fs af='दौरान,nst,m,sg,3,d,,' posn='90' drel='lwg__psp:प्रश्नकाल' chunkType='child:NP2' name='दौरान'>
10	बताया	VM	<fs af='बता,v,m,sg,any,,या,yA' stype='declarative' posn='100' voicetype='active' name='बताया' chunkId='VGF' chunkType='head:VGF'>
11	कि	CC	<fs af='कि,avy,,,,,,' drel='k2:बताया' posn='110' name='कि' chunkId='CCP' chunkType='head:CCP'>
12	अमेरिकी	JJ	<fs af='अमेरिकी,adj,any,any,,o,,' posn='120' drel='nmod__adj:प्रशासन' chunkType='child:NP3' name='अमेरिकी'>
13	प्रशासन	NN	<fs af='प्रशासन,n,m,sg,3,o,0_के_सामने,0' drel='k7:करने' posn='130' vpos='vib_3_4' name='प्रशासन' chunkId='NP3' chunkType='head:NP3'>
14	के	PSP	<fs af='के,psp,,,,,,' posn='140' drel='lwg__psp:प्रशासन' chunkType='child:NP3' name='के2'>
15	सामने	NST	<fs af='सामने,nst,m,sg,3,d,,' posn='150' drel='lwg__psp:प्रशासन' chunkType='child:NP3' name='सामने'>
16	समान	JJ	<fs af='समान,adj,any,any,,o,,' posn='160' drel='nmod__adj:नाम' chunkType='child:NP4' name='समान'>
17	नाम	NN	<fs af='नाम,n,m,sg,3,o,0_वाला,0' drel='nmod:कंपनी' posn='170' vpos='vib_3' name='नाम' chunkId='NP4' chunkType='head:NP4'>
18	वाली	PSP	<fs af='वाला,psp,f,sg,,o,,' posn='180' drel='lwg__psp:नाम' chunkType='child:NP4' name='वाली'>
19	अमेरिकी	JJ	<fs af='अमेरिकी,adj,any,any,,o,,' posn='190' drel='nmod__adj:कंपनी' chunkType='child:NP5' name='अमेरिकी2'>
20	कंपनी	NN	<fs af='कंपनी,n,f,sg,3,o,0_का,0' drel='r6:एयरवेज' posn='200' vpos='vib_3' name='कंपनी' chunkId='NP5' chunkType='head:NP5'>
21	के	PSP	<fs af='का,psp,m,sg,,o,,' posn='210' drel='lwg__psp:कंपनी' chunkType='child:NP5' name='के3'>
22	जेट	NNPC	<fs af='जेट,n,m,sg,3,d,0,0' posn='220' drel='pof__cn:एयरवेज' chunkType='child:NP6' name='जेट'>
23	एयरवेज	NNP	<fs af='एयरवेज,n,m,sg,3,o,0_के_खिलाफ,0' drel='vmod:करने' posn='230' vpos='vib_3_4' name='एयरवेज' chunkId='NP6' chunkType='head:NP6'>
24	के	PSP	<fs af='के,psp,,,,,,' posn='240' drel='lwg__psp:एयरवेज' chunkType='child:NP6' name='के4'>
25	खिलाफ	PSP	<fs af='खिलाफ,psp,,,,,,' posn='250' drel='lwg__psp:एयरवेज' chunkType='child:NP6' name='खिलाफ'>
26	कुछ	QF	<fs af='कुछ,avy,,,,,,' posn='260' drel='nmod__adj:आपत्तियां' chunkType='child:NP7' name='कुछ'>
27	आपत्तियां	NN	<fs af='आपत्ति,n,f,pl,3,d,0,0' drel='k2:करने' posn='270' name='आपत्तियां' chunkId='NP7' chunkType='head:NP7'>
28	दर्ज	JJ	<fs af='दर्ज,adj,any,any,,,,' drel='pof:करने' posn='280' name='दर्ज' chunkId='JJP' chunkType='head:JJP'>
29	करने	VM	<fs af='कर,v,any,sg,3,o,ना_के_बाद,nA' drel='k7t:चाहता' posn='290' vpos='tam_2_3' name='करने' chunkId='VGNN' chunkType='head:VGNN'>
30	के	PSP	<fs af='के,psp,,,,,,' posn='300' drel='lwg__psp:करने' chunkType='child:VGNN' name='के5'>
31	बाद	NST	<fs af='बाद,nst,m,sg,3,d,,' posn='310' drel='lwg__nst:करने' chunkType='child:VGNN' name='बाद'>
32	अमेरिका	NNP	<fs af='अमेरिका,n,m,sg,3,d,0,0' drel='k1:चाहता' posn='320' name='अमेरिका' chunkId='NP8' chunkType='head:NP8'>
33	भारत	NNP	<fs af='भारत,n,m,sg,3,o,0_का,0' drel='r6:प्रतिक्रिया' posn='330' vpos='vib_2' name='भारत' chunkId='NP9' chunkType='head:NP9'>
34	की	PSP	<fs af='का,psp,f,sg,,d,,' posn='340' drel='lwg__psp:भारत' chunkType='child:NP9' name='की'>
35	प्रतिक्रिया	NN	<fs af='प्रतिक्रिया,n,f,sg,3,d,0,0' drel='k2:चाहता' posn='350' name='प्रतिक्रिया' chunkId='NP10' chunkType='head:NP10'>
36	चाहता	VM	<fs af='चाह,v,m,sg,3,,ता_है,wA' drel='ccof:और' stype='declarative' posn='360' voicetype='active' vpos='tam_2' name='चाहता' chunkId='VGF2' chunkType='head:VGF2'>
37	है	VAUX	<fs af='है,v,any,sg,3,,है,hE' posn='370' drel='lwg__vaux:चाहता' chunkType='child:VGF2' name='है'>
38	और	CC	<fs af='और,avy,,,,,,' drel='ccof:कि' posn='380' name='और' chunkId='CCP2' chunkType='head:CCP2'>
39	उसने	PRP	<fs af='वह,pn,any,sg,3,o,ने,ne' drel='k1:मांगी' posn='390' name='उसने' chunkId='NP11' chunkType='head:NP11'>
40	इस	PRP	<fs af='यह,pn,any,sg,3,o,0_बारे_में,0' drel='k7:मांगी' posn='400' vpos='vib_2_3' name='इस' chunkId='NP12' chunkType='head:NP12'>
41	बारे	PSP	<fs af='बारे,psp,,,,,,' posn='410' drel='lwg__psp:इस' chunkType='child:NP12' name='बारे'>
42	में	PSP	<fs af='में,psp,,,,,,' posn='420' drel='lwg__psp:इस' chunkType='child:NP12' name='में'>
43	कुछ	QF	<fs af='कुछ,avy,,,,,,' posn='430' drel='nmod__adj:जानकारियां' chunkType='child:NP13' name='कुछ2'>
44	जानकारियां	NN	<fs af='जानकारी,n,f,pl,3,d,0,0' drel='k2:मांगी' posn='440' name='जानकारियां' chunkId='NP13' chunkType='head:NP13'>
45	मांगी	VM	<fs af='मांग,v,f,pl,3,,या_है,yA' drel='ccof:और' stype='declarative' posn='450' voicetype='active' vpos='tam_2' name='मांगी' chunkId='VGF3' chunkType='head:VGF3'>
46	हैं	VAUX	<fs af='है,v,any,pl,3,,है,hE' posn='460' drel='lwg__vaux:मांगी' chunkType='child:VGF3' name='हैं'>
47	।	SYM	<fs af='।,punc,,,,,,' drel='rsym:बताया' posn='470' name='।' chunkId='BLK' chunkType='head:BLK'>
</Sentence>


<Sentence id="4">
1	उन्होंने	PRP	<fs af='वह,pn,any,sg,3h,o,ने,ne' drel='k1:बताया' posn='10' name='उन्होंने' chunkId='NP' chunkType='head:NP'>
2	बताया	VM	<fs af='बता,v,m,sg,any,,या,yA' stype='declarative' posn='20' voicetype='active' name='बताया' chunkId='VGF' chunkType='head:VGF'>
3	कि	CC	<fs af='कि,avy,,,,,,' drel='k2:बताया' posn='30' name='कि' chunkId='CCP' chunkType='head:CCP'>
4	अमेरिकी	JJ	<fs af='अमेरिकी,adj,any,any,,o,,' posn='40' drel='nmod__adj:सरकार' chunkType='child:NP2' name='अमेरिकी'>
5	सरकार	NN	<fs af='सरकार,n,f,sg,3,o,0_को,0' drel='k4:दी' posn='50' vpos='vib_3' name='सरकार' chunkId='NP2' chunkType='head:NP2'>
6	को	PSP	<fs af='को,psp,,,,,,' posn='60' drel='lwg__psp:सरकार' chunkType='child:NP2' name='को'>
7	इस	PRP	<fs af='यह,pn,any,sg,3,o,0_बारे_में,0' drel='k7:दी' posn='70' vpos='vib_2_3' name='इस' chunkId='NP3' chunkType='head:NP3'>
8	बारे	PSP	<fs af='बारे,psp,,,,,,' posn='80' drel='lwg__psp:इस' chunkType='child:NP3' name='बारे'>
9	में	PSP	<fs af='में,psp,,,,,,' posn='90' drel='lwg__psp:इस' chunkType='child:NP3' name='में'>
10	जानकारी	NN	<fs af='जानकारी,n,f,sg,3,d,0,0' drel='k2:दी' posn='100' name='जानकारी' chunkId='NP4' chunkType='head:NP4'>
11	विदेश	NNPC	<fs af='विदेश,n,m,sg,3,d,0,0' posn='110' drel='pof__cn:मंत्रालय' chunkType='child:NP5' name='विदेश'>
12	मंत्रालय	NNP	<fs af='मंत्रालय,n,m,sg,3,o,0_के_ज़रिए,0' drel='k3:दी' posn='120' vpos='vib_3_4' name='मंत्रालय' chunkId='NP5' chunkType='head:NP5'>
13	के	PSP	<fs af='के,psp,,,,,,' posn='130' drel='lwg__psp:मंत्रालय' chunkType='child:NP5' name='के'>
14	ज़रिए	PSP	<fs af='ज़रिए,psp,,,,,,' posn='140' drel='lwg__psp:मंत्रालय' chunkType='child:NP5' name='ज़रिए'>
15	दी	VM	<fs af='दे,v,f,sg,3,,या_जा+गा,yA' drel='ccof:कि' stype='declarative' posn='150' voicetype='active' vpos='tam_2' name='दी' chunkId='VGF2' chunkType='head:VGF2'>
16	जाएगी	VAUX	<fs af='जा,v,f,sg,3,,गा,gA' posn='160' drel='lwg__vaux:दी' chunkType='child:VGF2' name='जाएगी'>
17	।	SYM	<fs af='।,punc,,,,,,' drel='rsym:बताया' posn='170' name='।' chunkId='BLK' chunkType='head:BLK'>
</Sentence>


</text>
</tb>
</body>
</document>
