1	विधानसभा	विधानसभा	n	NN	lex-विधानसभा|cat-n|gen-f|num-sg|pers-3|case-o|vib-0_में|tam-0|chunkId-NP|stype-|voicetype-	6	k7p	_	_
2	बुधवार	बुधवार	n	NNP	lex-बुधवार|cat-n|gen-m|num-sg|pers-3|case-o|vib-0_को|tam-0|chunkId-NP2|stype-|voicetype-	6	k7t	_	_
3	समय	समय	n	NN	lex-समय|cat-n|gen-m|num-sg|pers-3|case-d|vib-0|tam-0|chunkId-NP3|stype-|voicetype-	6	k7t	_	_
4	जबरदस्त	जबरदस्त	adv	RB	lex-जबरदस्त|cat-adv|gen-|num-|pers-|case-|vib-|tam-|chunkId-RBP|stype-|voicetype-	6	adv	_	_
5	हंगामा	हंगामा	n	NN	lex-हंगामा|cat-n|gen-m|num-sg|pers-3|case-d|vib-0|tam-0|chunkId-NP4|stype-|voicetype-	6	pof	_	_
6	हुआ	हो	v	VM	lex-हो|cat-v|gen-m|num-sg|pers-any|case-|vib-या|tam-yA|chunkId-VGF|stype-declarative|voicetype-active	0	main	_	_
7	जब	जब	pn	PRP	lex-जब|cat-pn|gen-|num-|pers-|case-d|vib-|tam-|chunkId-NP5|stype-|voicetype-	14	k7t	_	_
8	विपक्ष	विपक्ष	n	NN	lex-विपक्ष|cat-n|gen-m|num-sg|pers-3|case-o|vib-0_ने|tam-0|chunkId-NP6|stype-|voicetype-	14	k1	_	_
9	पक्ष	पक्ष	n	NN	lex-पक्ष|cat-n|gen-m|num-sg|pers-3|case-o|vib-0_का|tam-0|chunkId-NP7|stype-|voicetype-	10	r6	_	_
10	सदस्यों	सदस्य	n	NN	lex-सदस्य|cat-n|gen-m|num-pl|pers-3|case-o|vib-0_पर|tam-0|chunkId-NP8|stype-|voicetype-	14	k7	_	_
11	अपराधियों	अपराधी	n	NN	lex-अपराधी|cat-n|gen-m|num-pl|pers-3|case-o|vib-0_से|tam-0|chunkId-NP9|stype-|voicetype-	14	k5	_	_
12	सांठगांठ	सांठगांठ	n	NN	lex-सांठगांठ|cat-n|gen-f|num-sg|pers-3|case-o|vib-0_का|tam-0|chunkId-NP10|stype-|voicetype-	13	r6-k2	_	_
13	आरोप	आरोप	n	NN	lex-आरोप|cat-n|gen-m|num-sg|pers-3|case-d|vib-0|tam-0|chunkId-NP11|stype-|voicetype-	14	pof	_	_
14	लगाया	लगा	v	VM	lex-लगा|cat-v|gen-m|num-sg|pers-any|case-|vib-या|tam-yA|chunkId-VGF2|stype-declarative|voicetype-active	3	nmod__relc	_	_
15	।	।	punc	SYM	lex-।|cat-punc|gen-|num-|pers-|case-|vib-|tam-|chunkId-BLK|stype-|voicetype-	6	rsym	_	_

1	मोहंती	मोहंती	n	NNP	lex-मोहंती|cat-n|gen-any|num-sg|pers-3|case-o|vib-0_को|tam-0|chunkId-NP|stype-|voicetype-	7	k1	_	_
2	शोरशराबे	शोरशराबा	n	NN	lex-शोरशराबा|cat-n|gen-m|num-sg|pers-3|case-o|vib-0_के_कारण|tam-0|chunkId-NP2|stype-|voicetype-	7	rh	_	_
3	विधानसभा	विधानसभा	n	NN	lex-विधानसभा|cat-n|gen-f|num-sg|pers-3|case-o|vib-0_का|tam-0|chunkId-NP3|stype-|voicetype-	4	r6	_	_
4	कार्यवाही	कार्यवाही	n	NN	lex-कार्यवाही|cat-n|gen-f|num-sg|pers-3|case-o|vib-0_को|tam-0|chunkId-NP4|stype-|voicetype-	7	k2	_	_
5	बार	बार	n	NN	lex-बार|cat-n|gen-f|num-sg|pers-3|case-d|vib-0|tam-0|chunkId-NP5|stype-|voicetype-	6	jjmod	_	_
6	स्थगित	स्थगित	adj	JJ	lex-स्थगित|cat-adj|gen-any|num-any|pers-|case-|vib-|tam-|chunkId-JJP|stype-|voicetype-	7	pof	_	_
7	करना	कर	v	VM	lex-कर|cat-v|gen-m|num-sg|pers-any|case-|vib-ना_पड़+या|tam-nA|chunkId-VGF|stype-declarative|voicetype-active	0	main	_	_
8	।	।	punc	SYM	lex-।|cat-punc|gen-|num-|pers-|case-|vib-|tam-|chunkId-BLK|stype-|voicetype-	7	rsym	_	_

1	विधानसभा	विधानसभा	n	NN	lex-विधानसभा|cat-n|gen-f|num-sg|pers-3|case-o|vib-0_का|tam-0|chunkId-NP|stype-|voicetype-	2	r6	_	_
2	कार्यवाही	कार्यवाही	n	NN	lex-कार्यवाही|cat-n|gen-f|num-sg|pers-3|case-d|vib-0|tam-0|chunkId-NP2|stype-|voicetype-	4	k2	_	_
3	शुरू	शुरू	n	NN	lex-शुरू|cat-n|gen-m|num-sg|pers-3|case-d|vib-0|tam-0|chunkId-NP3|stype-|voicetype-	4	pof	_	_
4	होते	हो	v	VM	lex-हो|cat-v|gen-m|num-sg|pers-any|case-|vib-ता|tam-wA|chunkId-VGNF|stype-|voicetype-	9	vmod	_	_
5	सदस्य	सदस्य	n	NN	lex-सदस्य|cat-n|gen-m|num-sg|pers-3|case-o|vib-0|tam-0|chunkId-NP4|stype-|voicetype-	6	nmod	_	_
6	बाहिनीपति	बाहिनीपति	n	NNP	lex-बाहिनीपति|cat-n|gen-m|num-sg|pers-3|case-o|vib-0_ने|tam-0|chunkId-NP5|stype-|voicetype-	9	k1	_	_
7	अखबार	अखबार	n	NN	lex-अखबार|cat-n|gen-m|num-sg|pers-3|case-d|vib-0|tam-0|chunkId-NP6|stype-|voicetype-	8	k2	_	_
8	लहराते	लहरा	v	VM	lex-लहरा|cat-v|gen-m|num-sg|pers-any|case-|vib-ता_हो+या|tam-wA|chunkId-VGNF2|stype-|voicetype-	9	vmod	_	_
9	कहा	कह	v	VM	lex-कह|cat-v|gen-m|num-sg|pers-any|case-|vib-या|tam-yA|chunkId-VGF|stype-declarative|voicetype-active	0	main	_	_
10	कि	कि	avy	CC	lex-कि|cat-avy|gen-|num-|pers-|case-|vib-|tam-|chunkId-CCP|stype-|voicetype-	9	k2	_	_
11	इसमें	यह	pn	PRP	lex-यह|cat-pn|gen-any|num-sg|pers-3|case-o|vib-में|tam-meM|chunkId-NP7|stype-|voicetype-	16	k7	_	_
12	अपराधी	अपराधी	n	NN	lex-अपराधी|cat-n|gen-m|num-sg|pers-3|case-o|vib-0_के_साथ|tam-0|chunkId-NP8|stype-|voicetype-	16	ras-k2	_	_
13	पार्टी	पार्टी	n	NN	lex-पार्टी|cat-n|gen-f|num-sg|pers-3|case-o|vib-0_का|tam-0|chunkId-NP9|stype-|voicetype-	14	r6	_	_
14	सदस्य	सदस्य	n	NN	lex-सदस्य|cat-n|gen-m|num-sg|pers-3|case-o|vib-0_का|tam-0|chunkId-NP10|stype-|voicetype-	15	r6-k2	_	_
15	तस्वीर	तस्वीर	n	NN	lex-तस्वीर|cat-n|gen-f|num-sg|pers-3|case-d|vib-0|tam-0|chunkId-NP11|stype-|voicetype-	16	pof	_	_
16	छपी	छप	v	VM	lex-छप|cat-v|gen-f|num-sg|pers-3|case-|vib-या_है|tam-yA|chunkId-VGF2|stype-declarative|voicetype-active	10	ccof	_	_
17	।	।	punc	SYM	lex-।|cat-punc|gen-|num-|pers-|case-|vib-|tam-|chunkId-BLK|stype-|voicetype-	9	rsym	_	_

1	अपराधी	अपराधी	n	NN	lex-अपराधी|cat-n|gen-m|num-sg|pers-3|case-o|vib-0_को|tam-0|chunkId-NP|stype-|voicetype-	6	k2	_	_
2	भुवनेश्वर	भुवनेश्वर	n	NNP	lex-भुवनेश्वर|cat-n|gen-m|num-sg|pers-3|case-o|vib-0_में|tam-0|chunkId-NP2|stype-|voicetype-	6	k7p	_	_
3	हत्या	हत्या	n	NN	lex-हत्या|cat-n|gen-f|num-sg|pers-3|case-o|vib-0_का|tam-0|chunkId-NP3|stype-|voicetype-	4	r6	_	_
4	आरोप	आरोप	n	NN	lex-आरोप|cat-n|gen-m|num-sg|pers-3|case-o|vib-0_में|tam-0|chunkId-NP4|stype-|voicetype-	6	k7	_	_
5	गिरफ्तार	गिरफ्तार	adj	JJ	lex-गिरफ्तार|cat-adj|gen-any|num-any|pers-|case-|vib-|tam-|chunkId-JJP|stype-|voicetype-	6	pof	_	_
6	किया	कर	v	VM	lex-कर|cat-v|gen-m|num-sg|pers-any|case-|vib-या_जा+या१_था|tam-yA|chunkId-VGF|stype-declarative|voicetype-passive	0	main	_	_
7	।	।	punc	SYM	lex-।|cat-punc|gen-|num-|pers-|case-|vib-|tam-|chunkId-BLK|stype-|voicetype-	6	rsym	_	_

1	इस	यह	pn	PRP	lex-यह|cat-pn|gen-any|num-sg|pers-3|case-o|vib-0_पर|tam-0|chunkId-NP|stype-|voicetype-	3	k7	_	_
2	अध्यक्ष	अध्यक्ष	n	NN	lex-अध्यक्ष|cat-n|gen-m|num-sg|pers-3|case-o|vib-0_ने|tam-0|chunkId-NP2|stype-|voicetype-	3	k1	_	_
3	कहा	कह	v	VM	lex-कह|cat-v|gen-m|num-sg|pers-any|case-|vib-या|tam-yA|chunkId-VGF|stype-declarative|voicetype-active	0	main	_	_
4	कि	कि	avy	CC	lex-कि|cat-avy|gen-|num-|pers-|case-|vib-|tam-|chunkId-CCP|stype-|voicetype-	3	k2	_	_
5	प्रश्नकाल	प्रश्नकाल	n	NN	lex-प्रश्नकाल|cat-n|gen-m|num-sg|pers-3|case-o|vib-0_के_बाद|tam-0|chunkId-NP3|stype-|voicetype-	9	k7t	_	_
6	वह	वह	pn	PRP	lex-वह|cat-pn|gen-any|num-sg|pers-3|case-d|vib-0|tam-0|chunkId-NP4|stype-|voicetype-	9	k1	_	_
7	उनकी	वह	pn	PRP	lex-वह|cat-pn|gen-f|num-sg|pers-3h|case-o|vib-का|tam-kA|chunkId-NP5|stype-|voicetype-	8	r6-k2	_	_
8	बात	बात	n	NN	lex-बात|cat-n|gen-f|num-sg|pers-3|case-d|vib-0|tam-0|chunkId-NP6|stype-|voicetype-	9	pof	_	_
9	सुनेंगे	सुन	v	VM	lex-सुन|cat-v|gen-m|num-sg|pers-3h|case-|vib-गा|tam-gA|chunkId-VGF2|stype-declarative|voicetype-active	10	ccof	_	_
10	लेकिन	लेकिन	avy	CC	lex-लेकिन|cat-avy|gen-|num-|pers-|case-|vib-|tam-|chunkId-CCP2|stype-|voicetype-	4	ccof	_	_
11	कांग्रेस	कांग्रेस	n	NNP	lex-कांग्रेस|cat-n|gen-f|num-sg|pers-3|case-o|vib-0_का|tam-0|chunkId-NP7|stype-|voicetype-	12	r6	_	_
12	सदस्य	सदस्य	n	NN	lex-सदस्य|cat-n|gen-m|num-pl|pers-3|case-d|vib-0|tam-0|chunkId-NP8|stype-|voicetype-	23	k1	_	_
13	हाल	हाल	n	NN	lex-हाल|cat-n|gen-m|num-sg|pers-3|case-o|vib-0_में|tam-0|chunkId-NP9|stype-|voicetype-	15	k7t	_	_
14	टेंडर	टेंडर	n	NN	lex-टेंडर|cat-n|gen-m|num-pl|pers-3|case-d|vib-0|tam-0|chunkId-NP10|stype-|voicetype-	15	pof	_	_
15	देने	दे	v	VM	lex-दे|cat-v|gen-any|num-sg|pers-any|case-o|vib-ना_का|tam-nA|chunkId-VGNN|stype-|voicetype-	16	r6	_	_
16	मामले	मामला	n	NN	lex-मामला|cat-n|gen-m|num-sg|pers-3|case-o|vib-0_में|tam-0|chunkId-NP11|stype-|voicetype-	23	k7	_	_
17	लोगों	लोग	n	NN	lex-लोग|cat-n|gen-m|num-pl|pers-3|case-o|vib-0_का|tam-0|chunkId-NP12|stype-|voicetype-	18	r6	_	_
18	हत्या	हत्या	n	NN	lex-हत्या|cat-n|gen-f|num-sg|pers-3|case-o|vib-0_का|tam-0|chunkId-NP13|stype-|voicetype-	19	r6-k2	_	_
19	जांच	जांच	n	NN	lex-जांच|cat-n|gen-f|num-sg|pers-3|case-d|vib-0|tam-0|chunkId-NP14|stype-|voicetype-	21	pof	_	_
20	सीबीआई	सीबीआई	n	NNP	lex-सीबीआई|cat-n|gen-m|num-sg|pers-3|case-o|vib-0_से|tam-0|chunkId-NP15|stype-|voicetype-	21	k5	_	_
21	कराने	करा	v	VM	lex-करा|cat-v|gen-any|num-sg|pers-any|case-o|vib-ना_का|tam-nA|chunkId-VGNN2|stype-|voicetype-	22	r6-k2	_	_
22	मांग	मांग	n	NN	lex-मांग|cat-n|gen-f|num-sg|pers-3|case-d|vib-0|tam-0|chunkId-NP16|stype-|voicetype-	23	pof	_	_
23	करते	कर	v	VM	lex-कर|cat-v|gen-m|num-pl|pers-any|case-|vib-ता_रह+या|tam-wA|chunkId-VGF3|stype-declarative|voicetype-active	10	ccof	_	_
24	।	।	punc	SYM	lex-।|cat-punc|gen-|num-|pers-|case-|vib-|tam-|chunkId-BLK|stype-|voicetype-	3	rsym	_	_

