1	पदार्थों	पदार्थ	n	NN	lex-पदार्थ|cat-n|gen-m|num-pl|pers-3|case-o|vib-0_में|tam-0|chunkId-NP|stype-|voicetype-	3	k7	_	_
2	मिलावट	मिलावट	n	NN	lex-मिलावट|cat-n|gen-f|num-sg|pers-3|case-o|vib-0_को|tam-0|chunkId-NP2|stype-|voicetype-	3	k2	_	_
3	रोकने	रोक	v	VM	lex-रोक|cat-v|gen-any|num-any|pers-any|case-o|vib-ना_के_लिए|tam-nA|chunkId-VGNN|stype-|voicetype-	12	rt	_	_
4	ब्यूरो	ब्यूरो	n	NNP	lex-ब्यूरो|cat-n|gen-m|num-sg|pers-3|case-d|vib-0|tam-0|chunkId-NP3|stype-|voicetype-	5	ccof	_	_
5	यानि	यानि	avy	CC	lex-यानि|cat-avy|gen-|num-|pers-|case-|vib-|tam-|chunkId-CCP|stype-|voicetype-	6	nmod	_	_
6	बीआईएस	बीआईएस	n	NNP	lex-बीआईएस|cat-n|gen-m|num-sg|pers-3|case-d|vib-0|tam-0|chunkId-NP4|stype-|voicetype-	12	k1	_	_
7	जल्द	जल्द	adv	RB	lex-जल्द|cat-adv|gen-|num-|pers-|case-|vib-|tam-|chunkId-RBP|stype-|voicetype-	12	adv	_	_
8	किट	किट	n	NN	lex-किट|cat-n|gen-m|num-sg|pers-3|case-o|vib-0_को|tam-0|chunkId-NP5|stype-|voicetype-	10	k2	_	_
9	उपभोक्ताओं	उपभोक्ता	n	NN	lex-उपभोक्ता|cat-n|gen-m|num-pl|pers-3|case-o|vib-0_के_लिए|tam-0|chunkId-NP6|stype-|voicetype-	10	rt	_	_
10	लाने	ला	v	VM	lex-ला|cat-v|gen-any|num-sg|pers-any|case-o|vib-ना_का|tam-nA|chunkId-VGNN2|stype-|voicetype-	11	r6-k2	_	_
11	योजना	योजना	n	NN	lex-योजना|cat-n|gen-f|num-sg|pers-3|case-d|vib-0|tam-0|chunkId-NP7|stype-|voicetype-	12	pof	_	_
12	बना	बना	v	VM	lex-बना|cat-v|gen-m|num-sg|pers-3|case-|vib-0_रह+या_है|tam-0|chunkId-VGF|stype-declarative|voicetype-active	0	main	_	_
13	।	।	punc	SYM	lex-।|cat-punc|gen-|num-|pers-|case-|vib-|tam-|chunkId-BLK|stype-|voicetype-	12	rsym	_	_

1	तकनीक	तकनीक	n	NN	lex-तकनीक|cat-n|gen-f|num-sg|pers-3|case-o|vib-0_के_जरिये|tam-0|chunkId-NP|stype-|voicetype-	10	k3	_	_
2	रोजमर्रा	रोजमर्रा	n	NN	lex-रोजमर्रा|cat-n|gen-m|num-sg|pers-3|case-o|vib-0_का|tam-0|chunkId-NP2|stype-|voicetype-	3	r6	_	_
3	जरूरत	जरूरत	n	NN	lex-जरूरत|cat-n|gen-f|num-sg|pers-3|case-o|vib-0_का|tam-0|chunkId-NP3|stype-|voicetype-	4	r6	_	_
4	पदार्थों	पदार्थ	n	NN	lex-पदार्थ|cat-n|gen-m|num-pl|pers-3|case-o|vib-0_में|tam-0|chunkId-NP4|stype-|voicetype-	10	k7	_	_
5	मिलावट	मिलावट	n	NN	lex-मिलावट|cat-n|gen-f|num-sg|pers-3|case-d|vib-0|tam-0|chunkId-NP5|stype-|voicetype-	6	pof	_	_
6	होने	हो	v	VM	lex-हो|cat-v|gen-any|num-sg|pers-any|case-o|vib-ना_का|tam-nA|chunkId-VGNN|stype-|voicetype-	7	r6	_	_
7	शिकायत	शिकायत	n	NN	lex-शिकायत|cat-n|gen-f|num-sg|pers-3|case-o|vib-0_पर|tam-0|chunkId-NP6|stype-|voicetype-	10	k7	_	_
8	आसानी	आसानी	n	NN	lex-आसानी|cat-n|gen-f|num-sg|pers-3|case-o|vib-0_से|tam-0|chunkId-NP7|stype-|voicetype-	10	adv	_	_
9	जांच	जांच	n	NN	lex-जांच|cat-n|gen-f|num-sg|pers-3|case-d|vib-0|tam-0|chunkId-NP8|stype-|voicetype-	10	pof	_	_
10	की	कर	v	VM	lex-कर|cat-v|gen-any|num-sg|pers-3|case-|vib-या_जा_सक+एं|tam-yA|chunkId-VGF|stype-declarative|voicetype-active	0	main	_	_
11	।	।	punc	SYM	lex-।|cat-punc|gen-|num-|pers-|case-|vib-|tam-|chunkId-BLK|stype-|voicetype-	10	rsym	_	_

1	दरअसल	दरअसल	adv	RB	lex-दरअसल|cat-adv|gen-|num-|pers-|case-|vib-|tam-|chunkId-RBP|stype-|voicetype-	7	sent-adv	_	_
2	ब्यूरो	ब्यूरो	n	NNP	lex-ब्यूरो|cat-n|gen-m|num-sg|pers-3|case-o|vib-0_को|tam-0|chunkId-NP|stype-|voicetype-	7	k4	_	_
3	ज्यादा	ज्यादा	avy	QF	lex-ज्यादा|cat-avy|gen-|num-|pers-|case-|vib-|tam-|chunkId-NP2|stype-|voicetype-	7	vmod	_	_
4	पदार्थों	पदार्थ	n	NN	lex-पदार्थ|cat-n|gen-m|num-pl|pers-3|case-o|vib-0_में|tam-0|chunkId-NP3|stype-|voicetype-	7	k7	_	_
5	मिलावट	मिलावट	n	NN	lex-मिलावट|cat-n|gen-f|num-sg|pers-3|case-o|vib-0_का|tam-0|chunkId-NP4|stype-|voicetype-	6	r6	_	_
6	शिकायतें	शिकायत	n	NN	lex-शिकायत|cat-n|gen-f|num-pl|pers-3|case-d|vib-0|tam-0|chunkId-NP5|stype-|voicetype-	7	k2	_	_
7	मिलती	मिल	v	VM	lex-मिल|cat-v|gen-f|num-pl|pers-3|case-|vib-ता_है|tam-wA|chunkId-VGF|stype-declarative|voicetype-active	0	main	_	_
8	।	।	punc	SYM	lex-।|cat-punc|gen-|num-|pers-|case-|vib-|tam-|chunkId-BLK|stype-|voicetype-	7	rsym	_	_

1	हालांकि	हालांकि	avy	CC	lex-हालांकि|cat-avy|gen-|num-|pers-|case-|vib-|tam-|chunkId-CCP|stype-|voicetype-	0	main	_	_
2	देश	देश	n	NN	lex-देश|cat-n|gen-m|num-sg|pers-3|case-o|vib-0_में|tam-0|chunkId-NP|stype-|voicetype-	6	k7	_	_
3	बीआईएस	बीआईएस	n	NNP	lex-बीआईएस|cat-n|gen-m|num-sg|pers-3|case-o|vib-0_का|tam-0|chunkId-NP2|stype-|voicetype-	4	r6	_	_
4	कार्यालय	कार्यालय	n	NN	lex-कार्यालय|cat-n|gen-m|num-pl|pers-3|case-d|vib-0|tam-0|chunkId-NP3|stype-|voicetype-	6	k1	_	_
5	मौजूद	मौजूद	adj	JJ	lex-मौजूद|cat-adj|gen-any|num-any|pers-|case-|vib-|tam-|chunkId-JJP|stype-|voicetype-	6	k1s	_	_
6	हैं	है	v	VM	lex-है|cat-v|gen-any|num-pl|pers-3|case-|vib-है|tam-hE|chunkId-VGF|stype-declarative|voicetype-active	1	ccof	_	_
7	जहां	जहाँ	pn	PRP	lex-जहाँ|cat-pn|gen-|num-|pers-|case-d|vib-|tam-|chunkId-NP4|stype-|voicetype-	11	k7p	_	_
8	पदार्थों	पदार्थ	n	NN	lex-पदार्थ|cat-n|gen-m|num-pl|pers-3|case-o|vib-0_में|tam-0|chunkId-NP5|stype-|voicetype-	11	k7	_	_
9	मिलावट	मिलावट	n	NN	lex-मिलावट|cat-n|gen-f|num-sg|pers-3|case-o|vib-0_का|tam-0|chunkId-NP6|stype-|voicetype-	10	r6-k2	_	_
10	जांच	जांच	n	NN	lex-जांच|cat-n|gen-f|num-sg|pers-3|case-d|vib-0|tam-0|chunkId-NP7|stype-|voicetype-	11	pof	_	_
11	की	कर	v	VM	lex-कर|cat-v|gen-f|num-sg|pers-3|case-|vib-या_जा+ता_है|tam-yA|chunkId-VGF2|stype-declarative|voicetype-passive	4	nmod__relc	_	_
12	।	।	punc	SYM	lex-।|cat-punc|gen-|num-|pers-|case-|vib-|tam-|chunkId-BLK|stype-|voicetype-	1	rsym	_	_

1	लेकिन	लेकिन	avy	CC	lex-लेकिन|cat-avy|gen-|num-|pers-|case-|vib-|tam-|chunkId-CCP|stype-|voicetype-	0	main	_	_
2	स्तर	स्तर	n	NN	lex-स्तर|cat-n|gen-m|num-sg|pers-3|case-o|vib-0_का|tam-0|chunkId-NP|stype-|voicetype-	3	r6	_	_
3	तकनीक	तकनीक	n	NN	lex-तकनीक|cat-n|gen-f|num-sg|pers-3|case-d|vib-0|tam-0|chunkId-NP2|stype-|voicetype-	4	k2	_	_
4	होने	हो	v	VM	lex-हो|cat-v|gen-m|num-any|pers-any|case-o|vib-ना_के_कारण|tam-nA|chunkId-VGNN|stype-|voicetype-	12	rh	_	_
5	अकसर	अकसर	adv	RB	lex-अकसर|cat-adv|gen-|num-|pers-|case-|vib-|tam-|chunkId-RBP|stype-|voicetype-	12	adv	_	_
6	अधिकारियों	अधिकारी	n	NN	lex-अधिकारी|cat-n|gen-m|num-pl|pers-3|case-o|vib-0_को|tam-0|chunkId-NP3|stype-|voicetype-	12	k4a	_	_
7	मिलावट	मिलावट	n	NN	lex-मिलावट|cat-n|gen-f|num-sg|pers-3|case-d|vib-0|tam-0|chunkId-NP4|stype-|voicetype-	8	pof	_	_
8	करने	कर	v	VM	lex-कर|cat-v|gen-any|num-any|pers-any|case-o|vib-ना_वाला_के_खिलाफ|tam-nA|chunkId-VGNN2|stype-|voicetype-	12	vmod	_	_
9	कार्रवाई	कार्रवाई	n	NN	lex-कार्रवाई|cat-n|gen-f|num-sg|pers-3|case-d|vib-0|tam-0|chunkId-NP5|stype-|voicetype-	10	pof	_	_
10	करने	कर	v	VM	lex-कर|cat-v|gen-any|num-any|pers-any|case-o|vib-ना_में|tam-nA|chunkId-VGNN3|stype-|voicetype-	12	k7	_	_
11	दिक्कत	दिक्कत	n	NN	lex-दिक्कत|cat-n|gen-f|num-sg|pers-3|case-d|vib-0|tam-0|chunkId-NP6|stype-|voicetype-	12	pof	_	_
12	होती	हो	v	VM	lex-हो|cat-v|gen-f|num-sg|pers-any|case-|vib-ता_था|tam-wA|chunkId-VGF|stype-declarative|voicetype-active	1	ccof	_	_
13	।	।	punc	SYM	lex-।|cat-punc|gen-|num-|pers-|case-|vib-|tam-|chunkId-BLK|stype-|voicetype-	1	rsym	_	_

1	लेकिन	लेकिन	avy	CC	lex-लेकिन|cat-avy|gen-|num-|pers-|case-|vib-|tam-|chunkId-CCP|stype-|voicetype-	0	main	_	_
2	अब	अब	pn	PRP	lex-अब|cat-pn|gen-|num-|pers-|case-d|vib-|tam-|chunkId-NP|stype-|voicetype-	9	k7t	_	_
3	तकनीक	तकनीक	n	NN	lex-तकनीक|cat-n|gen-f|num-sg|pers-3|case-o|vib-0_का|tam-0|chunkId-NP2|stype-|voicetype-	4	k1	_	_
4	आ	आ	v	VM	lex-आ|cat-v|gen-any|num-any|pers-any|case-|vib-0_जा+ना_से|tam-0|chunkId-VGNN|stype-|voicetype-	9	rh	_	_
5	पदार्थों	पदार्थ	n	NN	lex-पदार्थ|cat-n|gen-m|num-pl|pers-3|case-o|vib-0_में|tam-0|chunkId-NP3|stype-|voicetype-	9	k7	_	_
6	मिलावट	मिलावट	n	NN	lex-मिलावट|cat-n|gen-f|num-sg|pers-3|case-o|vib-0_का|tam-0|chunkId-NP4|stype-|voicetype-	7	r6-k2	_	_
7	जांच	जांच	n	NN	lex-जांच|cat-n|gen-f|num-sg|pers-3|case-d|vib-0|tam-0|chunkId-NP5|stype-|voicetype-	9	pof	_	_
8	आसानी	आसानी	n	NN	lex-आसानी|cat-n|gen-f|num-sg|pers-3|case-o|vib-0_से|tam-0|chunkId-NP6|stype-|voicetype-	9	adv	_	_
9	की	कर	v	VM	lex-कर|cat-v|gen-any|num-sg|pers-3|case-|vib-या_जा_सक+गा|tam-yA|chunkId-VGF|stype-declarative|voicetype-passive	1	ccof	_	_
10	।	।	punc	SYM	lex-।|cat-punc|gen-|num-|pers-|case-|vib-|tam-|chunkId-BLK|stype-|voicetype-	1	rsym	_	_

1	इसके	यह	pn	PRP	lex-यह|cat-pn|gen-any|num-sg|pers-3|case-o|vib-के_लिए|tam-ke|chunkId-NP|stype-|voicetype-	5	rt	_	_
2	ब्यूरो	ब्यूरो	n	NN	lex-ब्यूरो|cat-n|gen-m|num-sg|pers-3|case-d|vib-0|tam-0|chunkId-NP2|stype-|voicetype-	5	k1	_	_
3	संस्थाओं	संस्था	n	NN	lex-संस्था|cat-n|gen-f|num-pl|pers-3|case-o|vib-0_का|tam-0|chunkId-NP3|stype-|voicetype-	4	r6-k2	_	_
4	मदद	मदद	n	NN	lex-मदद|cat-n|gen-f|num-sg|pers-3|case-d|vib-0|tam-0|chunkId-NP4|stype-|voicetype-	5	pof	_	_
5	लेगी	ले	v	VM	lex-ले|cat-v|gen-m|num-sg|pers-3|case-|vib-गा|tam-gA|chunkId-VGF|stype-declarative|voicetype-active	6	ccof	_	_
6	और	और	avy	CC	lex-और|cat-avy|gen-|num-|pers-|case-|vib-|tam-|chunkId-CCP|stype-|voicetype-	0	main	_	_
7	उन्हें	वह	pn	PRP	lex-वह|cat-pn|gen-any|num-pl|pers-3|case-o|vib-को|tam-ko|chunkId-NP5|stype-|voicetype-	10	k4	_	_
8	किट	किट	n	NN	lex-किट|cat-n|gen-m|num-sg|pers-3|case-d|vib-0|tam-0|chunkId-NP6|stype-|voicetype-	10	k2	_	_
9	उपलब्ध	उपलब्ध	adj	JJ	lex-उपलब्ध|cat-adj|gen-any|num-any|pers-|case-|vib-|tam-|chunkId-JJP|stype-|voicetype-	10	pof	_	_
10	कराएगी	करा	v	VM	lex-करा|cat-v|gen-f|num-sg|pers-3|case-|vib-गा|tam-gA|chunkId-VGF2|stype-declarative|voicetype-active	6	ccof	_	_
11	।	।	punc	SYM	lex-।|cat-punc|gen-|num-|pers-|case-|vib-|tam-|chunkId-BLK|stype-|voicetype-	6	rsym	_	_

1	जो	जो	pn	PRP	lex-जो|cat-pn|gen-any|num-sg|pers-3|case-d|vib-|tam-|chunkId-NP|stype-|voicetype-	8	k1	_	_
2	मिलावट	मिलावट	n	NN	lex-मिलावट|cat-n|gen-f|num-sg|pers-3|case-o|vib-0_का|tam-0|chunkId-NP2|stype-|voicetype-	3	r6-k1	_	_
3	शिकायत	शिकायत	n	NN	lex-शिकायत|cat-n|gen-f|num-sg|pers-3|case-d|vib-0|tam-0|chunkId-NP3|stype-|voicetype-	4	pof	_	_
4	होने	हो	v	VM	lex-हो|cat-v|gen-any|num-any|pers-any|case-o|vib-ना_पर|tam-nA|chunkId-VGNN|stype-|voicetype-	8	k7	_	_
5	मौके	मौका	n	NN	lex-मौका|cat-n|gen-m|num-sg|pers-3|case-o|vib-0_पर|tam-0|chunkId-NP4|stype-|voicetype-	6	k7	_	_
6	जाकर	जा	v	VM	lex-जा|cat-v|gen-any|num-any|pers-any|case-|vib-कर|tam-kara|chunkId-VGNF|stype-|voicetype-	8	vmod	_	_
7	जांच	जांच	n	NN	lex-जांच|cat-n|gen-f|num-sg|pers-3|case-d|vib-0|tam-0|chunkId-NP5|stype-|voicetype-	8	pof	_	_
8	करेगी	कर	v	VM	lex-कर|cat-v|gen-f|num-sg|pers-3|case-|vib-गा|tam-gA|chunkId-VGF|stype-declarative|voicetype-active	0	main	_	_
9	।	।	punc	SYM	lex-।|cat-punc|gen-|num-|pers-|case-|vib-|tam-|chunkId-BLK|stype-|voicetype-	8	rsym	_	_

1	इससे	यह	pn	PRP	lex-यह|cat-pn|gen-any|num-sg|pers-3|case-o|vib-से|tam-se|chunkId-NP|stype-|voicetype-	6	rh	_	_
2	उपकरण	उपकरण	n	NN	lex-उपकरण|cat-n|gen-m|num-sg|pers-3|case-o|vib-0_के_जरिये|tam-0|chunkId-NP2|stype-|voicetype-	6	k3	_	_
3	तुरंत	तुरंत	adv	RB	lex-तुरंत|cat-adv|gen-|num-|pers-|case-|vib-|tam-|chunkId-RBP|stype-|voicetype-	6	adv	_	_
4	मिलावट	मिलावट	n	NN	lex-मिलावट|cat-n|gen-f|num-sg|pers-3|case-o|vib-0_का|tam-0|chunkId-NP3|stype-|voicetype-	5	r6-k2	_	_
5	जांच	जांच	n	NN	lex-जांच|cat-n|gen-f|num-sg|pers-3|case-d|vib-0|tam-0|chunkId-NP4|stype-|voicetype-	6	pof	_	_
6	हो	हो	v	VM	lex-हो|cat-v|gen-any|num-sg|pers-3|case-|vib-0_जा+गा|tam-0|chunkId-VGF|stype-declarative|voicetype-active	0	main	_	_
7	।	।	punc	SYM	lex-।|cat-punc|gen-|num-|pers-|case-|vib-|tam-|chunkId-BLK|stype-|voicetype-	6	rsym	_	_

