1	sarakAra	sarakAra	n	NNP	lex-sarakAra|cat-n|gen-f|num-sg|pers-3|case-o|vib-0_ne|tam-0|chunkId-NP|stype-|voicetype-	3	k1	_	_
2	buXavAra	buXavAra	n	NNP	lex-buXavAra|cat-n|gen-m|num-sg|pers-3|case-o|vib-0_ko|tam-0|chunkId-NP2|stype-|voicetype-	3	k7t	_	_
3	kahA	kaha	v	VM	lex-kaha|cat-v|gen-m|num-sg|pers-any|case-|vib-yA|tam-yA|chunkId-VGF|stype-declarative|voicetype-active	0	main	_	_
4	ki	ki	avy	CC	lex-ki|cat-avy|gen-|num-|pers-|case-|vib-|tam-|chunkId-CCP|stype-|voicetype-	3	k2	_	_
5	britena	britena	n	NNP	lex-britena|cat-n|gen-m|num-sg|pers-3|case-o|vib-0_xvArA|tam-0|chunkId-NP3|stype-|voicetype-	6	jjmod	_	_
6	nirmiwa	nirmiwa	adj	JJ	lex-nirmiwa|cat-adj|gen-any|num-any|pers-|case-d|vib-|tam-|chunkId-JJP|stype-|voicetype-	7	nmod	_	_
7	vimAna	vimAna	n	NNP	lex-vimAna|cat-n|gen-m|num-sg|pers-3|case-d|vib-0|tam-0|chunkId-NP4|stype-|voicetype-	11	k1	_	_
8	ejetI	ejetI	n	NNP	lex-ejetI|cat-n|gen-m|num-sg|pers-3|case-d|vib-0|tam-0|chunkId-NP5|stype-|voicetype-	7	rs	_	_
9	BArawa	BArawa	n	NNP	lex-BArawa|cat-n|gen-m|num-sg|pers-3|case-o|vib-0_ko|tam-0|chunkId-NP6|stype-|voicetype-	11	k4	_	_
10	2007	2007	n	NNP	lex-2007|cat-n|gen-any|num-sg|pers-3|case-o|vib-0_se|tam-0|chunkId-NP7|stype-|voicetype-	11	k5	_	_
11	milane	mila	v	VM	lex-mila|cat-v|gen-any|num-any|pers-any|case-o|vib-nA|tam-nA|chunkId-VGNN|stype-|voicetype-	13	k1	_	_
12	SurU	SurU	n	NN	lex-SurU|cat-n|gen-m|num-sg|pers-3|case-d|vib-0|tam-0|chunkId-NP8|stype-|voicetype-	13	pof	_	_
13	ho	ho	v	VM	lex-ho|cat-v|gen-any|num-pl|pers-3|case-|vib-0_jA+gA|tam-0|chunkId-VGF2|stype-declarative|voicetype-active	4	ccof	_	_
14	.	.	punc	SYM	lex-.|cat-punc|gen-|num-|pers-|case-|vib-|tam-|chunkId-BLK|stype-|voicetype-	3	rsym	_	_

1	vimAnoM	vimAna	n	NN	lex-vimAna|cat-n|gen-m|num-pl|pers-3|case-o|vib-0_ke_lie|tam-0|chunkId-NP|stype-|voicetype-	7	rt	_	_
2	senA	senA	n	NNP	lex-senA|cat-n|gen-f|num-sg|pers-3|case-o|vib-0_kA|tam-0|chunkId-NP2|stype-|voicetype-	3	r6	_	_
3	pAyaletoM	pAyaleta	n	NN	lex-pAyaleta|cat-n|gen-m|num-pl|pers-3|case-o|vib-0_ko|tam-0|chunkId-NP3|stype-|voicetype-	7	k2	_	_
4	sAla	sAla	n	NN	lex-sAla|cat-n|gen-m|num-sg|pers-3|case-o|vib-0_meM|tam-0|chunkId-NP4|stype-|voicetype-	7	k7t	_	_
5	britena	britena	n	NNP	lex-britena|cat-n|gen-m|num-sg|pers-3|case-o|vib-0_meM|tam-0|chunkId-NP5|stype-|voicetype-	7	k7p	_	_
6	praSikRiwa	praSikRiwa	adj	JJ	lex-praSikRiwa|cat-adj|gen-any|num-any|pers-|case-|vib-|tam-|chunkId-JJP|stype-|voicetype-	7	pof	_	_
7	kiyA	kara	v	VM	lex-kara|cat-v|gen-m|num-sg|pers-3|case-|vib-yA_jA+gA|tam-yA|chunkId-VGF|stype-declarative|voicetype-passive	0	main	_	_
8	.	.	punc	SYM	lex-.|cat-punc|gen-|num-|pers-|case-|vib-|tam-|chunkId-BLK|stype-|voicetype-	7	rsym	_	_

1	savAla	savAla	n	NN	lex-savAla|cat-n|gen-m|num-sg|pers-3|case-o|vib-0_kA|tam-0|chunkId-NP|stype-|voicetype-	2	r6	_	_
2	javAba	javAba	n	NN	lex-javAba|cat-n|gen-m|num-sg|pers-3|case-o|vib-0_meM|tam-0|chunkId-NP2|stype-|voicetype-	5	k7	_	_
3	rAjyasaBA	rAjyasaBA	n	NN	lex-rAjyasaBA|cat-n|gen-m|num-sg|pers-3|case-o|vib-0_meM|tam-0|chunkId-NP3|stype-|voicetype-	5	k7p	_	_
4	muKarjI	muKarjI	n	NNP	lex-muKarjI|cat-n|gen-any|num-sg|pers-3|case-o|vib-0_ne|tam-0|chunkId-NP4|stype-|voicetype-	5	k1	_	_
5	kahA	kaha	v	VM	lex-kaha|cat-v|gen-m|num-sg|pers-any|case-|vib-yA|tam-yA|chunkId-VGF|stype-declarative|voicetype-active	0	main	_	_
6	ki	ki	avy	CC	lex-ki|cat-avy|gen-|num-|pers-|case-|vib-|tam-|chunkId-CCP|stype-|voicetype-	5	k2	_	_
7	sarakAra	sarakAra	n	NN	lex-sarakAra|cat-n|gen-f|num-sg|pers-3|case-o|vib-0_ne|tam-0|chunkId-NP5|stype-|voicetype-	12	k1	_	_
8	ejetI	ejetI	n	NNP	lex-ejetI|cat-n|gen-m|num-sg|pers-3|case-o|vib-0_ke_lie|tam-0|chunkId-NP6|stype-|voicetype-	12	rt	_	_
9	sarakAra	sarakAra	n	NNP	lex-sarakAra|cat-n|gen-f|num-sg|pers-3|case-o|vib-0_ke_sAWa|tam-0|chunkId-NP7|stype-|voicetype-	12	ras-k1	_	_
10	samaJOwe	samaJOwA	n	NN	lex-samaJOwA|cat-n|gen-m|num-sg|pers-3|case-o|vib-0_para|tam-0|chunkId-NP8|stype-|voicetype-	12	k7	_	_
11	haswAkRara	haswAkRara	n	NN	lex-haswAkRara|cat-n|gen-m|num-sg|pers-3|case-d|vib-0|tam-0|chunkId-NP9|stype-|voicetype-	12	pof	_	_
12	kiyA	kara	v	VM	lex-kara|cat-v|gen-m|num-sg|pers-3|case-|vib-yA_hE|tam-yA|chunkId-VGF2|stype-declarative|voicetype-active	6	ccof	_	_
13	.	.	punc	SYM	lex-.|cat-punc|gen-|num-|pers-|case-|vib-|tam-|chunkId-BLK|stype-|voicetype-	5	rsym	_	_

1	isake	yaha	pn	PRP	lex-yaha|cat-pn|gen-any|num-sg|pers-3|case-o|vib-ke_wahawa|tam-ke|chunkId-NP|stype-|voicetype-	6	k7a	_	_
2	BArawa	BArawa	n	NNP	lex-BArawa|cat-n|gen-m|num-sg|pers-3|case-o|vib-0_ko|tam-0|chunkId-NP2|stype-|voicetype-	6	k4	_	_
3	2008	2008	n	NNP	lex-2008|cat-n|gen-any|num-sg|pers-3|case-o|vib-0_waka|tam-0|chunkId-NP3|stype-|voicetype-	6	k7t	_	_
4	66	66	num	QC	lex-66|cat-num|gen-any|num-any|pers-|case-o|vib-0_meM_se|tam-|chunkId-NP4|stype-|voicetype-	6	k7	_	_
5	vimAna	vimAna	n	NN	lex-vimAna|cat-n|gen-m|num-pl|pers-3|case-d|vib-0|tam-0|chunkId-NP5|stype-|voicetype-	6	k1	_	_
6	mila	mila	v	VM	lex-mila|cat-v|gen-any|num-pl|pers-3|case-|vib-0_jA+gA|tam-0|chunkId-VGF|stype-declarative|voicetype-active	0	main	_	_
7	.	.	punc	SYM	lex-.|cat-punc|gen-|num-|pers-|case-|vib-|tam-|chunkId-BLK|stype-|voicetype-	6	rsym	_	_

1	vimAnoM	vimAna	n	NN	lex-vimAna|cat-n|gen-m|num-pl|pers-3|case-o|vib-0_kA|tam-0|chunkId-NP|stype-|voicetype-	2	r6-k2	_	_
2	nirmANa	nirmANa	n	NN	lex-nirmANa|cat-n|gen-m|num-sg|pers-3|case-d|vib-0|tam-0|chunkId-NP2|stype-|voicetype-	4	pof	_	_
3	limiteda	limiteda	n	NNP	lex-limiteda|cat-n|gen-m|num-sg|pers-3|case-o|vib-0_meM|tam-0|chunkId-NP3|stype-|voicetype-	4	k7p	_	_
4	kiyA	kara	v	VM	lex-kara|cat-v|gen-m|num-sg|pers-3|case-|vib-yA_jA+gA|tam-yA|chunkId-VGF|stype-declarative|voicetype-passive	0	main	_	_
5	.	.	punc	SYM	lex-.|cat-punc|gen-|num-|pers-|case-|vib-|tam-|chunkId-BLK|stype-|voicetype-	4	rsym	_	_

1	senA	senA	n	NN	lex-senA|cat-n|gen-f|num-sg|pers-3|case-o|vib-0_ko|tam-0|chunkId-NP|stype-|voicetype-	6	k4	_	_
2	vimAnoM	vimAna	n	NN	lex-vimAna|cat-n|gen-m|num-pl|pers-3|case-o|vib-0_kA|tam-0|chunkId-NP2|stype-|voicetype-	3	r6	_	_
3	ApUrwi	ApUrwi	n	NN	lex-ApUrwi|cat-n|gen-f|num-sg|pers-3|case-d|vib-0|tam-0|chunkId-NP3|stype-|voicetype-	6	k1	_	_
4	2008	2008	n	NNP	lex-2008|cat-n|gen-any|num-sg|pers-3|case-o|vib-0_se|tam-0|chunkId-NP4|stype-|voicetype-	6	k5	_	_
5	SurU	SurU	n	NN	lex-SurU|cat-n|gen-m|num-sg|pers-3|case-d|vib-0|tam-0|chunkId-NP5|stype-|voicetype-	6	pof	_	_
6	hogI	ho	v	VM	lex-ho|cat-v|gen-f|num-sg|pers-3|case-|vib-gA|tam-gA|chunkId-VGF|stype-declarative|voicetype-active	0	main	_	_
7	jo	yaha	pn	PRP	lex-yaha|cat-pn|gen-any|num-sg|pers-3|case-o|vib-0|tam-0|chunkId-NP6|stype-|voicetype-	9	k1	_	_
8	2010	2010	n	NNP	lex-2010|cat-n|gen-any|num-sg|pers-3|case-o|vib-0_waka|tam-0|chunkId-NP7|stype-|voicetype-	9	k7t	_	_
9	calegI	cala	v	VM	lex-cala|cat-v|gen-f|num-sg|pers-3|case-|vib-gA|tam-gA|chunkId-VGF2|stype-declarative|voicetype-active	3	nmod__relc	_	_
10	.	.	punc	SYM	lex-.|cat-punc|gen-|num-|pers-|case-|vib-|tam-|chunkId-BLK|stype-|voicetype-	6	rsym	_	_

1	maMwrI	maMwrI	n	NNP	lex-maMwrI|cat-n|gen-m|num-sg|pers-3|case-o|vib-0_ne|tam-0|chunkId-NP|stype-|voicetype-	4	k1	_	_
2	bAwa	bAwa	n	NN	lex-bAwa|cat-n|gen-f|num-sg|pers-3|case-o|vib-0_se|tam-0|chunkId-NP2|stype-|voicetype-	4	k2	_	_
3	inkAra	inkAra	n	NN	lex-inkAra|cat-n|gen-m|num-sg|pers-3|case-d|vib-0|tam-0|chunkId-NP3|stype-|voicetype-	4	pof	_	_
4	kiyA	kara	v	VM	lex-kara|cat-v|gen-m|num-sg|pers-any|case-|vib-yA|tam-yA|chunkId-VGF|stype-declarative|voicetype-active	0	main	_	_
5	ki	ki	avy	CC	lex-ki|cat-avy|gen-|num-|pers-|case-|vib-|tam-|chunkId-CCP|stype-|voicetype-	2	rs	_	_
6	erospesa	erospesa	n	NNP	lex-erospesa|cat-n|gen-m|num-sg|pers-3|case-o|vib-0_ne|tam-0|chunkId-NP4|stype-|voicetype-	10	k1	_	_
7	varka	varka	n	NN	lex-varka|cat-n|gen-m|num-sg|pers-3|case-o|vib-0_ke_lie|tam-0|chunkId-NP5|stype-|voicetype-	10	rt	_	_
8	dOYlara	dOYlara	n	NN	lex-dOYlara|cat-n|gen-m|num-sg|pers-3|case-o|vib-0_kA|tam-0|chunkId-NP6|stype-|voicetype-	9	r6-k2	_	_
9	mAzga	mAzga	n	NN	lex-mAzga|cat-n|gen-f|num-sg|pers-3|case-d|vib-0|tam-0|chunkId-NP7|stype-|voicetype-	10	pof	_	_
10	kI	kara	v	VM	lex-kara|cat-v|gen-f|num-sg|pers-3|case-|vib-yA_hE|tam-yA|chunkId-VGF2|stype-declarative|voicetype-active	11	ccof	_	_
11	Ora	Ora	avy	CC	lex-Ora|cat-avy|gen-|num-|pers-|case-|vib-|tam-|chunkId-CCP2|stype-|voicetype-	5	ccof	_	_
12	ise	yaha	pn	PRP	lex-yaha|cat-pn|gen-any|num-sg|pers-3|case-o|vib-ko|tam-ko|chunkId-NP8|stype-|voicetype-	14	k2	_	_
13	pUrA	pUrA	adj	JJ	lex-pUrA|cat-adj|gen-m|num-sg|pers-|case-|vib-|tam-|chunkId-JJP|stype-|voicetype-	14	pof	_	_
14	kie	kara	v	VM	lex-kara|cat-v|gen-any|num-sg|pers-3|case-|vib-yA_jA+nA_para|tam-yA|chunkId-VGNN|stype-|voicetype-	19	k7	_	_
15	sOxA	sOxA	n	NN	lex-sOxA|cat-n|gen-m|num-sg|pers-3|case-d|vib-0|tam-0|chunkId-NP9|stype-|voicetype-	17	k2	_	_
16	raxxa	raxxa	adj	JJ	lex-raxxa|cat-adj|gen-any|num-any|pers-|case-|vib-|tam-|chunkId-JJP2|stype-|voicetype-	17	pof	_	_
17	karane	kara	v	VM	lex-kara|cat-v|gen-any|num-sg|pers-any|case-o|vib-nA_kA|tam-nA|chunkId-VGNN2|stype-|voicetype-	18	r6-k2	_	_
18	XamakI	XamakI	n	NN	lex-XamakI|cat-n|gen-f|num-sg|pers-3|case-d|vib-0|tam-0|chunkId-NP10|stype-|voicetype-	19	pof	_	_
19	xI	xe	v	VM	lex-xe|cat-v|gen-f|num-sg|pers-3|case-|vib-yA_hE|tam-yA|chunkId-VGF3|stype-declarative|voicetype-active	11	ccof	_	_
20	.	.	punc	SYM	lex-.|cat-punc|gen-|num-|pers-|case-|vib-|tam-|chunkId-BLK|stype-|voicetype-	4	rsym	_	_

1	pAyaletoM	pAyaleta	n	NN	lex-pAyaleta|cat-n|gen-m|num-pl|pers-3|case-o|vib-0_kA|tam-0|chunkId-NP|stype-|voicetype-	2	r6	_	_
2	praSikRaNa	praSikRaNa	n	NN	lex-praSikRaNa|cat-n|gen-m|num-sg|pers-3|case-o|vib-0_ke_bAre_meM|tam-0|chunkId-NP2|stype-|voicetype-	4	k7	_	_
3	muKarjI	muKarjI	n	NNP	lex-muKarjI|cat-n|gen-any|num-sg|pers-3|case-o|vib-0_ne|tam-0|chunkId-NP3|stype-|voicetype-	4	k1	_	_
4	kahA	kaha	v	VM	lex-kaha|cat-v|gen-m|num-sg|pers-any|case-|vib-yA|tam-yA|chunkId-VGF|stype-declarative|voicetype-active	0	main	_	_
5	ki	ki	avy	CC	lex-ki|cat-avy|gen-|num-|pers-|case-|vib-|tam-|chunkId-CCP|stype-|voicetype-	4	k2	_	_
6	mahIne	mahInA	n	NN	lex-mahInA|cat-n|gen-m|num-sg|pers-3|case-o|vib-0_meM|tam-0|chunkId-NP4|stype-|voicetype-	11	k7t	_	_
7	Caha	Caha	num	QC	lex-Caha|cat-num|gen-any|num-any|pers-|case-o|vib-0_se|tam-|chunkId-NP5|stype-|voicetype-	8	nmod	_	_
8	pAyaletoM	pAyaleta	n	NN	lex-pAyaleta|cat-n|gen-m|num-pl|pers-3|case-o|vib-0_ko|tam-0|chunkId-NP6|stype-|voicetype-	11	k2	_	_
9	britena	britena	n	NNP	lex-britena|cat-n|gen-m|num-sg|pers-3|case-o|vib-0_meM|tam-0|chunkId-NP7|stype-|voicetype-	11	k7p	_	_
10	praSikRiwa	praSikRiwa	adj	JJ	lex-praSikRiwa|cat-adj|gen-any|num-any|pers-|case-|vib-|tam-|chunkId-JJP|stype-|voicetype-	11	pof	_	_
11	kiyA	kara	v	VM	lex-kara|cat-v|gen-m|num-sg|pers-3|case-|vib-yA_jA+gA|tam-yA|chunkId-VGF2|stype-declarative|voicetype-passive	5	ccof	_	_
12	.	.	punc	SYM	lex-.|cat-punc|gen-|num-|pers-|case-|vib-|tam-|chunkId-BLK|stype-|voicetype-	4	rsym	_	_

1	unhoMne	vaha	pn	PRP	lex-vaha|cat-pn|gen-any|num-sg|pers-3h|case-o|vib-ne|tam-ne|chunkId-NP|stype-|voicetype-	2	k1	_	_
2	bawAyA	bawA	v	VM	lex-bawA|cat-v|gen-m|num-sg|pers-any|case-|vib-yA|tam-yA|chunkId-VGF|stype-declarative|voicetype-active	0	main	_	_
3	ki	ki	avy	CC	lex-ki|cat-avy|gen-|num-|pers-|case-|vib-|tam-|chunkId-CCP|stype-|voicetype-	2	k2	_	_
4	aBI	aBI	pn	PRP	lex-aBI|cat-pn|gen-|num-|pers-|case-d|vib-|tam-|chunkId-NP2|stype-|voicetype-	8	k7t	_	_
5	bEca	bEca	n	NN	lex-bEca|cat-n|gen-m|num-sg|pers-3|case-o|vib-0_kA|tam-0|chunkId-NP3|stype-|voicetype-	6	r6	_	_
6	praSikRaNa	praSikRaNa	n	NN	lex-praSikRaNa|cat-n|gen-m|num-sg|pers-3|case-d|vib-0|tam-0|chunkId-NP4|stype-|voicetype-	8	k1	_	_
7	SurU	SurU	n	NN	lex-SurU|cat-n|gen-m|num-sg|pers-3|case-d|vib-0|tam-0|chunkId-NP5|stype-|voicetype-	8	pof	_	_
8	huA	ho	v	VM	lex-ho|cat-v|gen-m|num-sg|pers-3|case-|vib-yA_hE|tam-yA|chunkId-VGF2|stype-declarative|voicetype-active	3	ccof	_	_
9	.	.	punc	SYM	lex-.|cat-punc|gen-|num-|pers-|case-|vib-|tam-|chunkId-BLK|stype-|voicetype-	2	rsym	_	_

1	maMwrI	maMwrI	n	NN	lex-maMwrI|cat-n|gen-m|num-sg|pers-3|case-o|vib-0_ne|tam-0|chunkId-NP|stype-|voicetype-	2	k1	_	_
2	bawAyA	bawA	v	VM	lex-bawA|cat-v|gen-m|num-sg|pers-any|case-|vib-yA|tam-yA|chunkId-VGF|stype-declarative|voicetype-active	0	main	_	_
3	ki	ki	avy	CC	lex-ki|cat-avy|gen-|num-|pers-|case-|vib-|tam-|chunkId-CCP|stype-|voicetype-	2	k2	_	_
4	xUsare	xUsarA	num	QO	lex-xUsarA|cat-num|gen-m|num-sg|pers-|case-o|vib-|tam-|chunkId-NP2|stype-|voicetype-	5	ccof	_	_
5	Ora	Ora	avy	CC	lex-Ora|cat-avy|gen-|num-|pers-|case-|vib-|tam-|chunkId-CCP2|stype-|voicetype-	7	nmod	_	_
6	wIsare	wIsarA	num	QO	lex-wIsarA|cat-num|gen-m|num-sg|pers-|case-o|vib-|tam-|chunkId-NP3|stype-|voicetype-	5	ccof	_	_
7	bEca	bEca	n	NN	lex-bEca|cat-n|gen-m|num-sg|pers-3|case-o|vib-0_kA|tam-0|chunkId-NP4|stype-|voicetype-	8	r6	_	_
8	praSikRaNa	praSikRaNa	n	NN	lex-praSikRaNa|cat-n|gen-m|num-sg|pers-3|case-d|vib-0|tam-0|chunkId-NP5|stype-|voicetype-	14	k2	_	_
9	kramaSaH	kramaSaH	adv	RB	lex-kramaSaH|cat-adv|gen-|num-|pers-|case-|vib-|tam-|chunkId-RBP|stype-|voicetype-	14	adv	_	_
10	2004	2004	n	NNP	lex-2004|cat-n|gen-any|num-sg|pers-3|case-o|vib-0|tam-0|chunkId-NP6|stype-|voicetype-	11	ccof	_	_
11	Ora	Ora	avy	CC	lex-Ora|cat-avy|gen-|num-|pers-|case-|vib-|tam-|chunkId-CCP3|stype-|voicetype-	14	k5	_	_
12	2005	2005	n	NNP	lex-2005|cat-n|gen-any|num-sg|pers-3|case-o|vib-0_se|tam-0|chunkId-NP7|stype-|voicetype-	11	ccof	_	_
13	SurU	SurU	n	NN	lex-SurU|cat-n|gen-m|num-sg|pers-3|case-d|vib-0|tam-0|chunkId-NP8|stype-|voicetype-	14	pof	_	_
14	kie	kara	v	VM	lex-kara|cat-v|gen-any|num-sg|pers-any|case-|vib-yA_jA+nA_kA|tam-yA|chunkId-VGNN|stype-|voicetype-	15	r6	_	_
15	bAwa	bAwa	n	NN	lex-bAwa|cat-n|gen-f|num-sg|pers-3|case-d|vib-0|tam-0|chunkId-NP9|stype-|voicetype-	16	k1	_	_
16	hE	hE	v	VM	lex-hE|cat-v|gen-any|num-sg|pers-3|case-|vib-hE|tam-hE|chunkId-VGF2|stype-declarative|voicetype-active	3	ccof	_	_
17	.	.	punc	SYM	lex-.|cat-punc|gen-|num-|pers-|case-|vib-|tam-|chunkId-BLK|stype-|voicetype-	2	rsym	_	_

1	plena	plena	n	NN	lex-plena|cat-n|gen-m|num-sg|pers-3|case-o|vib-0_ke_bAre_meM|tam-0|chunkId-NP|stype-|voicetype-	3	k7	_	_
2	jAnakArI	jAnakArI	n	NN	lex-jAnakArI|cat-n|gen-f|num-sg|pers-3|case-d|vib-0|tam-0|chunkId-NP2|stype-|voicetype-	3	pof	_	_
3	xewe	xe	v	VM	lex-xe|cat-v|gen-m|num-sg|pers-any|case-|vib-wA_ho+yA|tam-wA|chunkId-VGNF|stype-|voicetype-	5	vmod	_	_
4	muKarjI	muKarjI	n	NNP	lex-muKarjI|cat-n|gen-any|num-sg|pers-3|case-o|vib-0_ne|tam-0|chunkId-NP3|stype-|voicetype-	5	k1	_	_
5	kahA	kaha	v	VM	lex-kaha|cat-v|gen-m|num-sg|pers-any|case-|vib-yA|tam-yA|chunkId-VGF|stype-declarative|voicetype-active	0	main	_	_
6	ki	ki	avy	CC	lex-ki|cat-avy|gen-|num-|pers-|case-|vib-|tam-|chunkId-CCP|stype-|voicetype-	5	k2	_	_
7	vEjFAnikoM	vEjFAnika	n	NN	lex-vEjFAnika|cat-n|gen-m|num-pl|pers-3|case-o|vib-0_ne|tam-0|chunkId-NP4|stype-|voicetype-	11	k1	_	_
8	plena	plena	n	NN	lex-plena|cat-n|gen-m|num-sg|pers-3|case-o|vib-0_kA|tam-0|chunkId-NP5|stype-|voicetype-	9	r6	_	_
9	parikalpanA	parikalpanA	n	NN	lex-parikalpanA|cat-n|gen-f|num-sg|pers-3|case-d|vib-0|tam-0|chunkId-NP6|stype-|voicetype-	11	k2	_	_
10	wEyAra	wEyAra	adj	JJ	lex-wEyAra|cat-adj|gen-any|num-any|pers-|case-|vib-|tam-|chunkId-JJP|stype-|voicetype-	11	pof	_	_
11	kara	kara	v	VM	lex-kara|cat-v|gen-f|num-sg|pers-3|case-|vib-0_le+yA_hE|tam-0|chunkId-VGF2|stype-declarative|voicetype-active	6	ccof	_	_
12	.	.	punc	SYM	lex-.|cat-punc|gen-|num-|pers-|case-|vib-|tam-|chunkId-BLK|stype-|voicetype-	5	rsym	_	_

1	isake	yaha	pn	PRP	lex-yaha|cat-pn|gen-m|num-sg|pers-3|case-o|vib-kA|tam-kA|chunkId-NP|stype-|voicetype-	2	r6	_	_
2	AXAra	AXAra	n	NN	lex-AXAra|cat-n|gen-m|num-sg|pers-3|case-o|vib-0_para|tam-0|chunkId-NP2|stype-|voicetype-	7	k7	_	_
3	saMsWAnoM	saMsWAna	n	NN	lex-saMsWAna|cat-n|gen-m|num-pl|pers-3|case-o|vib-0_kA|tam-0|chunkId-NP3|stype-|voicetype-	4	r6	_	_
4	BAgIxArI	BAgIxArI	n	NN	lex-BAgIxArI|cat-n|gen-f|num-sg|pers-3|case-o|vib-0_se|tam-0|chunkId-NP4|stype-|voicetype-	7	k3	_	_
5	pEkeja	pEkeja	n	NN	lex-pEkeja|cat-n|gen-m|num-pl|pers-3|case-d|vib-0|tam-0|chunkId-NP5|stype-|voicetype-	7	k2	_	_
6	vikasiwa	vikasiwa	adj	JJ	lex-vikasiwa|cat-adj|gen-any|num-any|pers-|case-|vib-|tam-|chunkId-JJP|stype-|voicetype-	7	pof	_	_
7	kara	kara	v	VM	lex-kara|cat-v|gen-m|num-pl|pers-3|case-|vib-0_le+yA_jA+yA1_hE|tam-0|chunkId-VGF|stype-declarative|voicetype-passive	0	main	_	_
8	.	.	punc	SYM	lex-.|cat-punc|gen-|num-|pers-|case-|vib-|tam-|chunkId-BLK|stype-|voicetype-	7	rsym	_	_

1	isake	yaha	pn	PRP	lex-yaha|cat-pn|gen-m|num-sg|pers-3|case-o|vib-ke_sAWa|tam-ke|chunkId-NP|stype-|voicetype-	3	sent-adv	_	_
2	unhoMne	vaha	pn	PRP	lex-vaha|cat-pn|gen-any|num-sg|pers-3h|case-o|vib-ne|tam-ne|chunkId-NP2|stype-|voicetype-	3	k1	_	_
3	bawAyA	bawA	v	VM	lex-bawA|cat-v|gen-m|num-sg|pers-any|case-|vib-yA|tam-yA|chunkId-VGF|stype-declarative|voicetype-active	0	main	_	_
4	ki	ki	avy	CC	lex-ki|cat-avy|gen-|num-|pers-|case-|vib-|tam-|chunkId-CCP|stype-|voicetype-	3	k2	_	_
5	aBI	aba	pn	PRP	lex-aba|cat-pn|gen-|num-|pers-|case-o|vib-0_waka|tam-|chunkId-NP3|stype-|voicetype-	8	k7t	_	_
6	plena	plena	n	NN	lex-plena|cat-n|gen-m|num-sg|pers-3|case-d|vib-0|tam-0|chunkId-NP4|stype-|voicetype-	8	k2	_	_
7	vikasiwa	vikasiwa	adj	JJ	lex-vikasiwa|cat-adj|gen-any|num-any|pers-|case-|vib-|tam-|chunkId-JJP|stype-|voicetype-	8	pof	_	_
8	karane	kara	v	VM	lex-kara|cat-v|gen-any|num-sg|pers-any|case-o|vib-nA_kA|tam-nA|chunkId-VGNN|stype-|voicetype-	9	r6	_	_
9	pariyojanA	pariyojanA	n	NN	lex-pariyojanA|cat-n|gen-f|num-sg|pers-3|case-o|vib-0_ko|tam-0|chunkId-NP5|stype-|voicetype-	11	k4	_	_
10	maMjUrI	maMjUrI	n	NN	lex-maMjUrI|cat-n|gen-f|num-sg|pers-3|case-d|vib-0|tam-0|chunkId-NP6|stype-|voicetype-	11	k2	_	_
11	xI	xe	v	VM	lex-xe|cat-v|gen-f|num-sg|pers-3|case-|vib-yA_jA+yA1_hE|tam-yA|chunkId-VGF2|stype-declarative|voicetype-active	4	ccof	_	_
12	.	.	punc	SYM	lex-.|cat-punc|gen-|num-|pers-|case-|vib-|tam-|chunkId-BLK|stype-|voicetype-	3	rsym	_	_

1	unhoMne	vaha	pn	PRP	lex-vaha|cat-pn|gen-any|num-sg|pers-3h|case-o|vib-ne|tam-ne|chunkId-NP|stype-|voicetype-	2	k1	_	_
2	bawAyA	bawA	v	VM	lex-bawA|cat-v|gen-m|num-sg|pers-any|case-|vib-yA|tam-yA|chunkId-VGF|stype-declarative|voicetype-active	0	main	_	_
3	ki	ki	avy	CC	lex-ki|cat-avy|gen-|num-|pers-|case-|vib-|tam-|chunkId-CCP|stype-|voicetype-	2	k2	_	_
4	kElibara	kElibara	n	NN	lex-kElibara|cat-n|gen-m|num-sg|pers-3|case-o|vib-0_kA|tam-0|chunkId-NP2|stype-|voicetype-	5	r6	_	_
5	praNAlI	praNAlI	n	NNP	lex-praNAlI|cat-n|gen-f|num-sg|pers-3|case-o|vib-0_para|tam-0|chunkId-NP3|stype-|voicetype-	8	k7	_	_
6	aBI	aBI	pn	PRP	lex-aBI|cat-pn|gen-|num-|pers-|case-d|vib-|tam-|chunkId-NP4|stype-|voicetype-	8	k7t	_	_
7	parIkRaNa	parIkRaNa	n	NN	lex-parIkRaNa|cat-n|gen-m|num-pl|pers-3|case-d|vib-0|tam-0|chunkId-NP5|stype-|voicetype-	8	pof	_	_
8	kie	kara	v	VM	lex-kara|cat-v|gen-m|num-pl|pers-3|case-|vib-yA_jA+nA_hE|tam-yA|chunkId-VGF2|stype-declarative|voicetype-active	3	ccof	_	_
9	.	.	punc	SYM	lex-.|cat-punc|gen-|num-|pers-|case-|vib-|tam-|chunkId-BLK|stype-|voicetype-	2	rsym	_	_

